Exophiala_salmonis_CBS157.67_T,ERR1085087.102129,93.94,99,4,2,1,98,3,100,1e-35,148
Exophiala_salmonis_CBS157.67_T,ERR1085087.8078,93.94,99,4,2,1,98,3,100,1e-35,148
Exophiala_salmonis_CBS157.67_T,ERR1085087.76570,92.93,99,5,2,1,98,3,100,6e-34,143
Exophiala_salmonis_CBS157.67_T,ERR1085087.16379,87.88,99,10,2,1,98,3,100,1e-25,115
Exophiala_salmonis_CBS157.67_T,ERR1085087.150594,86.73,98,13,0,1,98,3,100,6e-24,110
Exophiala_salmonis_CBS157.67_T,ERR1085087.147694,86.73,98,13,0,1,98,3,100,6e-24,110
Exophiala_salmonis_CBS157.67_T,ERR1085087.139799,86.73,98,13,0,1,98,3,100,6e-24,110
Exophiala_salmonis_CBS157.67_T,ERR1085087.138911,86.73,98,13,0,1,98,3,100,6e-24,110
Exophiala_salmonis_CBS157.67_T,ERR1085087.131988,86.73,98,13,0,1,98,3,100,6e-24,110
Exophiala_salmonis_CBS157.67_T,ERR1085087.121950,86.73,98,13,0,1,98,3,100,6e-24,110
Exophiala_salmonis_CBS157.67_T,ERR1085087.114990,86.87,99,11,2,1,98,3,100,6e-24,110
Exophiala_salmonis_CBS157.67_T,ERR1085087.99976,86.73,98,13,0,1,98,3,100,6e-24,110
Exophiala_salmonis_CBS157.67_T,ERR1085087.97403,86.73,98,13,0,1,98,3,100,6e-24,110
Exophiala_salmonis_CBS157.67_T,ERR1085087.90463,86.73,98,13,0,1,98,3,100,6e-24,110
Exophiala_salmonis_CBS157.67_T,ERR1085087.86656,86.73,98,13,0,1,98,3,100,6e-24,110
Exophiala_salmonis_CBS157.67_T,ERR1085087.74036,86.73,98,13,0,1,98,3,100,6e-24,110
Exophiala_salmonis_CBS157.67_T,ERR1085087.68676,86.73,98,13,0,1,98,3,100,6e-24,110
Exophiala_salmonis_CBS157.67_T,ERR1085087.60459,86.73,98,13,0,1,98,3,100,6e-24,110
Exophiala_salmonis_CBS157.67_T,ERR1085087.53404,86.73,98,13,0,1,98,3,100,6e-24,110
Exophiala_salmonis_CBS157.67_T,ERR1085087.50911,86.87,99,11,2,1,98,3,100,6e-24,110
Exophiala_salmonis_CBS157.67_T,ERR1085087.45756,86.73,98,13,0,1,98,3,100,6e-24,110
Exophiala_salmonis_CBS157.67_T,ERR1085087.39193,86.73,98,13,0,1,98,3,100,6e-24,110
Exophiala_salmonis_CBS157.67_T,ERR1085087.38939,86.73,98,13,0,1,98,3,100,6e-24,110
Exophiala_salmonis_CBS157.67_T,ERR1085087.32021,86.73,98,13,0,1,98,3,100,6e-24,110
Exophiala_salmonis_CBS157.67_T,ERR1085087.30177,86.73,98,13,0,1,98,3,100,6e-24,110
Exophiala_salmonis_CBS157.67_T,ERR1085087.23608,86.73,98,13,0,1,98,3,100,6e-24,110
Exophiala_salmonis_CBS157.67_T,ERR1085087.23462,86.73,98,13,0,1,98,3,100,6e-24,110
Exophiala_salmonis_CBS157.67_T,ERR1085087.21103,86.73,98,13,0,1,98,3,100,6e-24,110
Exophiala_salmonis_CBS157.67_T,ERR1085087.15423,86.73,98,13,0,1,98,3,100,6e-24,110
Exophiala_salmonis_CBS157.67_T,ERR1085087.14340,86.73,98,13,0,1,98,3,100,6e-24,110
Exophiala_salmonis_CBS157.67_T,ERR1085087.13097,86.87,99,11,2,1,98,3,100,6e-24,110
Exophiala_salmonis_CBS157.67_T,ERR1085087.6455,86.73,98,13,0,1,98,3,100,6e-24,110
Exophiala_salmonis_CBS157.67_T,ERR1085087.5689,86.87,99,11,2,1,98,3,100,6e-24,110
Exophiala_salmonis_CBS157.67_T,ERR1085087.144439,85.71,98,14,0,1,98,3,100,3e-22,104
Exophiala_salmonis_CBS157.67_T,ERR1085087.115075,85.71,98,14,0,1,98,3,100,3e-22,104
Exophiala_salmonis_CBS157.67_T,ERR1085087.89124,85.71,98,14,0,1,98,3,100,3e-22,104
Exophiala_salmonis_CBS157.67_T,ERR1085087.80192,85.71,98,14,0,1,98,3,100,3e-22,104
Exophiala_salmonis_CBS157.67_T,ERR1085087.75975,85.86,99,12,2,1,98,3,100,3e-22,104
Exophiala_salmonis_CBS157.67_T,ERR1085087.75903,85.71,98,14,0,1,98,3,100,3e-22,104
Exophiala_salmonis_CBS157.67_T,ERR1085087.74276,85.86,99,12,2,1,98,3,100,3e-22,104
Exophiala_salmonis_CBS157.67_T,ERR1085087.71752,85.86,99,12,2,1,98,3,100,3e-22,104
Exophiala_salmonis_CBS157.67_T,ERR1085087.38648,85.71,98,14,0,1,98,3,100,3e-22,104
Exophiala_salmonis_CBS157.67_T,ERR1085087.33086,85.86,99,12,2,1,98,3,100,3e-22,104
Exophiala_salmonis_CBS157.67_T,ERR1085087.16427,85.71,98,14,0,1,98,3,100,3e-22,104
Exophiala_salmonis_CBS157.67_T,ERR1085087.14745,85.86,99,12,2,1,98,3,100,3e-22,104
Exophiala_salmonis_CBS157.67_T,ERR1085087.126522,84.69,98,15,0,1,98,3,100,1e-20,99.0
Exophiala_salmonis_CBS157.67_T,ERR1085087.64553,84.69,98,15,0,1,98,3,100,1e-20,99.0
Exophiala_salmonis_CBS157.67_T,ERR1085087.42295,89.47,76,8,0,1,76,3,78,5e-20,97.1
Exophiala_salmonis_CBS157.67_T,ERR1085087.48226,83.67,98,16,0,1,98,3,100,7e-19,93.5
Exophiala_salmonis_CBS157.67_T,ERR1085087.39399,88.31,77,7,2,1,76,3,78,2e-18,91.6
Exophiala_salmonis_CBS157.67_T,ERR1085087.134317,86.84,76,10,0,1,76,3,78,1e-16,86.1
Exophiala_salmonis_CBS157.67_T,ERR1085087.89189,86.84,76,10,0,1,76,3,78,1e-16,86.1
Rhinocladiella_atrovirens_CBS264.49,ERR1085087.143208,100.00,31,0,0,1,31,70,100,2e-08,58.4
Rhinocladiella_atrovirens_CBS264.49,ERR1085087.116503,100.00,31,0,0,1,31,70,100,2e-08,58.4
Rhinocladiella_atrovirens_CBS264.49,ERR1085087.111969,100.00,31,0,0,1,31,70,100,2e-08,58.4
Rhinocladiella_atrovirens_CBS264.49,ERR1085087.100911,100.00,31,0,0,1,31,70,100,2e-08,58.4
Rhinocladiella_atrovirens_CBS264.49,ERR1085087.94071,100.00,31,0,0,1,31,70,100,2e-08,58.4
Rhinocladiella_atrovirens_CBS264.49,ERR1085087.90039,100.00,31,0,0,1,31,70,100,2e-08,58.4
Rhinocladiella_atrovirens_CBS264.49,ERR1085087.86560,100.00,31,0,0,1,31,70,100,2e-08,58.4
Rhinocladiella_atrovirens_CBS264.49,ERR1085087.80985,100.00,31,0,0,1,31,70,100,2e-08,58.4
Rhinocladiella_atrovirens_CBS264.49,ERR1085087.73346,100.00,31,0,0,1,31,70,100,2e-08,58.4
Rhinocladiella_atrovirens_CBS264.49,ERR1085087.59927,100.00,31,0,0,1,31,70,100,2e-08,58.4
Rhinocladiella_atrovirens_CBS264.49,ERR1085087.58871,100.00,31,0,0,1,31,70,100,2e-08,58.4
Rhinocladiella_atrovirens_CBS264.49,ERR1085087.58021,100.00,31,0,0,1,31,70,100,2e-08,58.4
Rhinocladiella_atrovirens_CBS264.49,ERR1085087.45480,100.00,31,0,0,1,31,70,100,2e-08,58.4
Rhinocladiella_atrovirens_CBS264.49,ERR1085087.45343,100.00,31,0,0,1,31,70,100,2e-08,58.4
Rhinocladiella_atrovirens_CBS264.49,ERR1085087.35275,100.00,31,0,0,1,31,70,100,2e-08,58.4
Rhinocladiella_atrovirens_CBS264.49,ERR1085087.34857,100.00,31,0,0,1,31,70,100,2e-08,58.4
Rhinocladiella_atrovirens_CBS264.49,ERR1085087.16844,100.00,31,0,0,1,31,70,100,2e-08,58.4
Rhinocladiella_atrovirens_CBS264.49,ERR1085087.7569,100.00,31,0,0,1,31,70,100,2e-08,58.4
Rhinocladiella_atrovirens_CBS264.49,ERR1085087.2032,100.00,31,0,0,1,31,70,100,2e-08,58.4
Cyphellophora_laciniata_CBS190.61_T,ERR1085087.143208,91.94,62,5,0,26,87,39,100,3e-17,87.9
Cyphellophora_laciniata_CBS190.61_T,ERR1085087.116503,91.94,62,5,0,26,87,39,100,3e-17,87.9
Cyphellophora_laciniata_CBS190.61_T,ERR1085087.111969,91.94,62,5,0,26,87,39,100,3e-17,87.9
Cyphellophora_laciniata_CBS190.61_T,ERR1085087.100911,91.94,62,5,0,26,87,39,100,3e-17,87.9
Cyphellophora_laciniata_CBS190.61_T,ERR1085087.94071,91.94,62,5,0,26,87,39,100,3e-17,87.9
Cyphellophora_laciniata_CBS190.61_T,ERR1085087.90039,91.94,62,5,0,26,87,39,100,3e-17,87.9
Cyphellophora_laciniata_CBS190.61_T,ERR1085087.86560,91.94,62,5,0,26,87,39,100,3e-17,87.9
Cyphellophora_laciniata_CBS190.61_T,ERR1085087.80985,91.94,62,5,0,26,87,39,100,3e-17,87.9
Cyphellophora_laciniata_CBS190.61_T,ERR1085087.73346,91.94,62,5,0,26,87,39,100,3e-17,87.9
Cyphellophora_laciniata_CBS190.61_T,ERR1085087.59927,91.94,62,5,0,26,87,39,100,3e-17,87.9
Cyphellophora_laciniata_CBS190.61_T,ERR1085087.58871,91.94,62,5,0,26,87,39,100,3e-17,87.9
Cyphellophora_laciniata_CBS190.61_T,ERR1085087.58021,91.94,62,5,0,26,87,39,100,3e-17,87.9
Cyphellophora_laciniata_CBS190.61_T,ERR1085087.45480,91.94,62,5,0,26,87,39,100,3e-17,87.9
Cyphellophora_laciniata_CBS190.61_T,ERR1085087.45343,91.94,62,5,0,26,87,39,100,3e-17,87.9
Cyphellophora_laciniata_CBS190.61_T,ERR1085087.35275,91.94,62,5,0,26,87,39,100,3e-17,87.9
Cyphellophora_laciniata_CBS190.61_T,ERR1085087.34857,91.94,62,5,0,26,87,39,100,3e-17,87.9
Cyphellophora_laciniata_CBS190.61_T,ERR1085087.16844,91.94,62,5,0,26,87,39,100,3e-17,87.9
Cyphellophora_laciniata_CBS190.61_T,ERR1085087.7569,91.94,62,5,0,26,87,39,100,3e-17,87.9
Cyphellophora_laciniata_CBS190.61_T,ERR1085087.2032,90.32,62,6,0,26,87,39,100,1e-15,82.4
