Exophiala_salmonis_CBS157.67_T,ERR1085147.203826,90.82,98,9,0,1,98,3,100,2e-30,132
Exophiala_salmonis_CBS157.67_T,ERR1085147.157050,90.82,98,9,0,1,98,3,100,2e-30,132
Exophiala_salmonis_CBS157.67_T,ERR1085147.95186,90.82,98,9,0,1,98,3,100,2e-30,132
Exophiala_salmonis_CBS157.67_T,ERR1085147.132531,89.80,98,10,0,1,98,3,100,9e-29,126
Exophiala_salmonis_CBS157.67_T,ERR1085147.98660,89.80,98,10,0,1,98,3,100,9e-29,126
Exophiala_salmonis_CBS157.67_T,ERR1085147.56936,89.80,98,10,0,1,98,3,100,9e-29,126
Exophiala_salmonis_CBS157.67_T,ERR1085147.216445,88.78,98,11,0,1,98,3,100,4e-27,121
Exophiala_salmonis_CBS157.67_T,ERR1085147.208562,88.78,98,11,0,1,98,3,100,4e-27,121
Exophiala_salmonis_CBS157.67_T,ERR1085147.206699,88.78,98,11,0,1,98,3,100,4e-27,121
Exophiala_salmonis_CBS157.67_T,ERR1085147.206360,88.78,98,11,0,1,98,3,100,4e-27,121
Exophiala_salmonis_CBS157.67_T,ERR1085147.202928,88.78,98,11,0,1,98,3,100,4e-27,121
Exophiala_salmonis_CBS157.67_T,ERR1085147.199281,88.78,98,11,0,1,98,3,100,4e-27,121
Exophiala_salmonis_CBS157.67_T,ERR1085147.192738,88.78,98,11,0,1,98,3,100,4e-27,121
Exophiala_salmonis_CBS157.67_T,ERR1085147.188581,88.78,98,11,0,1,98,3,100,4e-27,121
Exophiala_salmonis_CBS157.67_T,ERR1085147.184837,88.78,98,11,0,1,98,3,100,4e-27,121
Exophiala_salmonis_CBS157.67_T,ERR1085147.182137,88.78,98,11,0,1,98,3,100,4e-27,121
Exophiala_salmonis_CBS157.67_T,ERR1085147.176549,88.78,98,11,0,1,98,3,100,4e-27,121
Exophiala_salmonis_CBS157.67_T,ERR1085147.168918,88.78,98,11,0,1,98,3,100,4e-27,121
Exophiala_salmonis_CBS157.67_T,ERR1085147.159888,88.78,98,11,0,1,98,3,100,4e-27,121
Exophiala_salmonis_CBS157.67_T,ERR1085147.157426,88.78,98,11,0,1,98,3,100,4e-27,121
Exophiala_salmonis_CBS157.67_T,ERR1085147.153756,88.78,98,11,0,1,98,3,100,4e-27,121
Exophiala_salmonis_CBS157.67_T,ERR1085147.153130,88.78,98,11,0,1,98,3,100,4e-27,121
Exophiala_salmonis_CBS157.67_T,ERR1085147.150996,88.78,98,11,0,1,98,3,100,4e-27,121
Exophiala_salmonis_CBS157.67_T,ERR1085147.146688,88.78,98,11,0,1,98,3,100,4e-27,121
Exophiala_salmonis_CBS157.67_T,ERR1085147.141081,88.78,98,11,0,1,98,3,100,4e-27,121
Exophiala_salmonis_CBS157.67_T,ERR1085147.132502,88.78,98,11,0,1,98,3,100,4e-27,121
Exophiala_salmonis_CBS157.67_T,ERR1085147.129654,88.78,98,11,0,1,98,3,100,4e-27,121
Exophiala_salmonis_CBS157.67_T,ERR1085147.128326,88.78,98,11,0,1,98,3,100,4e-27,121
Exophiala_salmonis_CBS157.67_T,ERR1085147.126630,88.78,98,11,0,1,98,3,100,4e-27,121
Exophiala_salmonis_CBS157.67_T,ERR1085147.125159,88.78,98,11,0,1,98,3,100,4e-27,121
Exophiala_salmonis_CBS157.67_T,ERR1085147.112859,88.78,98,11,0,1,98,3,100,4e-27,121
Exophiala_salmonis_CBS157.67_T,ERR1085147.109321,88.78,98,11,0,1,98,3,100,4e-27,121
Exophiala_salmonis_CBS157.67_T,ERR1085147.108187,88.78,98,11,0,1,98,3,100,4e-27,121
Exophiala_salmonis_CBS157.67_T,ERR1085147.103876,88.78,98,11,0,1,98,3,100,4e-27,121
Exophiala_salmonis_CBS157.67_T,ERR1085147.101743,88.78,98,11,0,1,98,3,100,4e-27,121
Exophiala_salmonis_CBS157.67_T,ERR1085147.100339,88.78,98,11,0,1,98,3,100,4e-27,121
Exophiala_salmonis_CBS157.67_T,ERR1085147.97955,88.78,98,11,0,1,98,3,100,4e-27,121
Exophiala_salmonis_CBS157.67_T,ERR1085147.97660,88.78,98,11,0,1,98,3,100,4e-27,121
Exophiala_salmonis_CBS157.67_T,ERR1085147.95359,88.78,98,11,0,1,98,3,100,4e-27,121
Exophiala_salmonis_CBS157.67_T,ERR1085147.88367,88.78,98,11,0,1,98,3,100,4e-27,121
Exophiala_salmonis_CBS157.67_T,ERR1085147.88072,88.78,98,11,0,1,98,3,100,4e-27,121
Exophiala_salmonis_CBS157.67_T,ERR1085147.83702,88.78,98,11,0,1,98,3,100,4e-27,121
Exophiala_salmonis_CBS157.67_T,ERR1085147.81391,88.78,98,11,0,1,98,3,100,4e-27,121
Exophiala_salmonis_CBS157.67_T,ERR1085147.80153,88.78,98,11,0,1,98,3,100,4e-27,121
Exophiala_salmonis_CBS157.67_T,ERR1085147.79569,88.78,98,11,0,1,98,3,100,4e-27,121
Exophiala_salmonis_CBS157.67_T,ERR1085147.78925,88.78,98,11,0,1,98,3,100,4e-27,121
Exophiala_salmonis_CBS157.67_T,ERR1085147.77608,88.78,98,11,0,1,98,3,100,4e-27,121
Exophiala_salmonis_CBS157.67_T,ERR1085147.65224,88.78,98,11,0,1,98,3,100,4e-27,121
Exophiala_salmonis_CBS157.67_T,ERR1085147.62435,88.78,98,11,0,1,98,3,100,4e-27,121
Exophiala_salmonis_CBS157.67_T,ERR1085147.61089,88.78,98,11,0,1,98,3,100,4e-27,121
Exophiala_salmonis_CBS157.67_T,ERR1085147.60993,88.78,98,11,0,1,98,3,100,4e-27,121
Exophiala_salmonis_CBS157.67_T,ERR1085147.58208,88.78,98,11,0,1,98,3,100,4e-27,121
Exophiala_salmonis_CBS157.67_T,ERR1085147.56096,88.89,99,10,1,1,99,3,100,4e-27,121
Exophiala_salmonis_CBS157.67_T,ERR1085147.54862,88.78,98,11,0,1,98,3,100,4e-27,121
Exophiala_salmonis_CBS157.67_T,ERR1085147.50346,88.78,98,11,0,1,98,3,100,4e-27,121
Exophiala_salmonis_CBS157.67_T,ERR1085147.48543,88.78,98,11,0,1,98,3,100,4e-27,121
Exophiala_salmonis_CBS157.67_T,ERR1085147.42866,88.78,98,11,0,1,98,3,100,4e-27,121
Exophiala_salmonis_CBS157.67_T,ERR1085147.42144,88.78,98,11,0,1,98,3,100,4e-27,121
Exophiala_salmonis_CBS157.67_T,ERR1085147.37509,88.78,98,11,0,1,98,3,100,4e-27,121
Exophiala_salmonis_CBS157.67_T,ERR1085147.35691,88.78,98,11,0,1,98,3,100,4e-27,121
Exophiala_salmonis_CBS157.67_T,ERR1085147.18901,88.78,98,11,0,1,98,3,100,4e-27,121
Exophiala_salmonis_CBS157.67_T,ERR1085147.18389,88.78,98,11,0,1,98,3,100,4e-27,121
Exophiala_salmonis_CBS157.67_T,ERR1085147.14746,88.78,98,11,0,1,98,3,100,4e-27,121
Exophiala_salmonis_CBS157.67_T,ERR1085147.14123,88.78,98,11,0,1,98,3,100,4e-27,121
Exophiala_salmonis_CBS157.67_T,ERR1085147.9136,88.78,98,11,0,1,98,3,100,4e-27,121
Exophiala_salmonis_CBS157.67_T,ERR1085147.214683,87.88,99,10,2,1,98,3,100,2e-25,115
Exophiala_salmonis_CBS157.67_T,ERR1085147.212896,87.76,98,12,0,1,98,3,100,2e-25,115
Exophiala_salmonis_CBS157.67_T,ERR1085147.210125,87.76,98,12,0,1,98,3,100,2e-25,115
Exophiala_salmonis_CBS157.67_T,ERR1085147.201507,87.76,98,12,0,1,98,3,100,2e-25,115
Exophiala_salmonis_CBS157.67_T,ERR1085147.179407,87.76,98,12,0,1,98,3,100,2e-25,115
Exophiala_salmonis_CBS157.67_T,ERR1085147.178849,87.76,98,12,0,1,98,3,100,2e-25,115
Exophiala_salmonis_CBS157.67_T,ERR1085147.168027,87.76,98,12,0,1,98,3,100,2e-25,115
Exophiala_salmonis_CBS157.67_T,ERR1085147.159482,87.76,98,12,0,1,98,3,100,2e-25,115
Exophiala_salmonis_CBS157.67_T,ERR1085147.125292,87.76,98,12,0,1,98,3,100,2e-25,115
Exophiala_salmonis_CBS157.67_T,ERR1085147.215226,86.73,98,13,0,1,98,3,100,9e-24,110
Exophiala_salmonis_CBS157.67_T,ERR1085147.210846,86.73,98,13,0,1,98,3,100,9e-24,110
Exophiala_salmonis_CBS157.67_T,ERR1085147.208215,86.73,98,13,0,1,98,3,100,9e-24,110
Exophiala_salmonis_CBS157.67_T,ERR1085147.206415,86.73,98,13,0,1,98,3,100,9e-24,110
Exophiala_salmonis_CBS157.67_T,ERR1085147.203941,86.73,98,13,0,1,98,3,100,9e-24,110
Exophiala_salmonis_CBS157.67_T,ERR1085147.203509,86.73,98,13,0,1,98,3,100,9e-24,110
Exophiala_salmonis_CBS157.67_T,ERR1085147.202578,86.73,98,13,0,1,98,3,100,9e-24,110
Exophiala_salmonis_CBS157.67_T,ERR1085147.200872,86.73,98,13,0,1,98,3,100,9e-24,110
Exophiala_salmonis_CBS157.67_T,ERR1085147.200087,86.87,99,11,2,1,98,3,100,9e-24,110
Exophiala_salmonis_CBS157.67_T,ERR1085147.198062,86.73,98,13,0,1,98,3,100,9e-24,110
Exophiala_salmonis_CBS157.67_T,ERR1085147.197278,86.73,98,13,0,1,98,3,100,9e-24,110
Exophiala_salmonis_CBS157.67_T,ERR1085147.188121,86.73,98,13,0,1,98,3,100,9e-24,110
Exophiala_salmonis_CBS157.67_T,ERR1085147.183940,86.73,98,13,0,1,98,3,100,9e-24,110
Exophiala_salmonis_CBS157.67_T,ERR1085147.179111,86.73,98,13,0,1,98,3,100,9e-24,110
Exophiala_salmonis_CBS157.67_T,ERR1085147.177336,86.73,98,13,0,1,98,3,100,9e-24,110
Exophiala_salmonis_CBS157.67_T,ERR1085147.176293,86.73,98,13,0,1,98,3,100,9e-24,110
Exophiala_salmonis_CBS157.67_T,ERR1085147.175735,86.87,99,11,2,1,98,3,100,9e-24,110
Exophiala_salmonis_CBS157.67_T,ERR1085147.174764,86.73,98,13,0,1,98,3,100,9e-24,110
Exophiala_salmonis_CBS157.67_T,ERR1085147.174164,86.73,98,13,0,1,98,3,100,9e-24,110
Exophiala_salmonis_CBS157.67_T,ERR1085147.173699,86.73,98,13,0,1,98,3,100,9e-24,110
Exophiala_salmonis_CBS157.67_T,ERR1085147.173561,86.73,98,13,0,1,98,3,100,9e-24,110
Exophiala_salmonis_CBS157.67_T,ERR1085147.173331,86.73,98,13,0,1,98,3,100,9e-24,110
Exophiala_salmonis_CBS157.67_T,ERR1085147.172882,86.73,98,13,0,1,98,3,100,9e-24,110
Exophiala_salmonis_CBS157.67_T,ERR1085147.172235,86.73,98,13,0,1,98,3,100,9e-24,110
Exophiala_salmonis_CBS157.67_T,ERR1085147.170509,86.73,98,13,0,1,98,3,100,9e-24,110
Exophiala_salmonis_CBS157.67_T,ERR1085147.163260,86.87,99,11,2,1,98,3,100,9e-24,110
Exophiala_salmonis_CBS157.67_T,ERR1085147.163078,86.73,98,13,0,1,98,3,100,9e-24,110
Exophiala_salmonis_CBS157.67_T,ERR1085147.162086,86.73,98,13,0,1,98,3,100,9e-24,110
Exophiala_salmonis_CBS157.67_T,ERR1085147.159120,86.87,99,11,2,1,98,3,100,9e-24,110
Exophiala_salmonis_CBS157.67_T,ERR1085147.157494,86.87,99,11,2,1,98,3,100,9e-24,110
Exophiala_salmonis_CBS157.67_T,ERR1085147.154314,86.87,99,11,2,1,98,3,100,9e-24,110
Exophiala_salmonis_CBS157.67_T,ERR1085147.153789,86.73,98,13,0,1,98,3,100,9e-24,110
Exophiala_salmonis_CBS157.67_T,ERR1085147.152119,86.73,98,13,0,1,98,3,100,9e-24,110
Exophiala_salmonis_CBS157.67_T,ERR1085147.147746,86.73,98,13,0,1,98,3,100,9e-24,110
Exophiala_salmonis_CBS157.67_T,ERR1085147.147008,86.73,98,13,0,1,98,3,100,9e-24,110
Exophiala_salmonis_CBS157.67_T,ERR1085147.143754,86.73,98,13,0,1,98,3,100,9e-24,110
Exophiala_salmonis_CBS157.67_T,ERR1085147.142141,86.73,98,13,0,1,98,3,100,9e-24,110
Exophiala_salmonis_CBS157.67_T,ERR1085147.140728,86.87,99,11,2,1,98,3,100,9e-24,110
Exophiala_salmonis_CBS157.67_T,ERR1085147.138641,86.73,98,13,0,1,98,3,100,9e-24,110
Exophiala_salmonis_CBS157.67_T,ERR1085147.137245,86.87,99,11,2,1,98,3,100,9e-24,110
Exophiala_salmonis_CBS157.67_T,ERR1085147.135426,86.87,99,11,2,1,98,3,100,9e-24,110
Exophiala_salmonis_CBS157.67_T,ERR1085147.128036,86.73,98,13,0,1,98,3,100,9e-24,110
Exophiala_salmonis_CBS157.67_T,ERR1085147.121997,86.87,99,11,2,1,98,3,100,9e-24,110
Exophiala_salmonis_CBS157.67_T,ERR1085147.121417,86.73,98,13,0,1,98,3,100,9e-24,110
Exophiala_salmonis_CBS157.67_T,ERR1085147.120830,86.73,98,13,0,1,98,3,100,9e-24,110
Exophiala_salmonis_CBS157.67_T,ERR1085147.119394,86.73,98,13,0,1,98,3,100,9e-24,110
Exophiala_salmonis_CBS157.67_T,ERR1085147.119292,86.73,98,13,0,1,98,3,100,9e-24,110
Exophiala_salmonis_CBS157.67_T,ERR1085147.119246,86.87,99,11,2,1,98,3,100,9e-24,110
Exophiala_salmonis_CBS157.67_T,ERR1085147.116584,86.73,98,13,0,1,98,3,100,9e-24,110
Exophiala_salmonis_CBS157.67_T,ERR1085147.115135,86.73,98,13,0,1,98,3,100,9e-24,110
Exophiala_salmonis_CBS157.67_T,ERR1085147.113274,86.73,98,13,0,1,98,3,100,9e-24,110
Exophiala_salmonis_CBS157.67_T,ERR1085147.112546,86.73,98,13,0,1,98,3,100,9e-24,110
Exophiala_salmonis_CBS157.67_T,ERR1085147.106188,86.73,98,13,0,1,98,3,100,9e-24,110
Exophiala_salmonis_CBS157.67_T,ERR1085147.105957,86.87,99,11,2,1,98,3,100,9e-24,110
Exophiala_salmonis_CBS157.67_T,ERR1085147.105952,86.73,98,13,0,1,98,3,100,9e-24,110
Exophiala_salmonis_CBS157.67_T,ERR1085147.103671,86.73,98,13,0,1,98,3,100,9e-24,110
Exophiala_salmonis_CBS157.67_T,ERR1085147.100587,86.73,98,13,0,1,98,3,100,9e-24,110
Exophiala_salmonis_CBS157.67_T,ERR1085147.98776,86.87,99,11,2,1,98,3,100,9e-24,110
Exophiala_salmonis_CBS157.67_T,ERR1085147.95207,86.73,98,13,0,1,98,3,100,9e-24,110
Exophiala_salmonis_CBS157.67_T,ERR1085147.94852,86.73,98,13,0,1,98,3,100,9e-24,110
Exophiala_salmonis_CBS157.67_T,ERR1085147.93088,86.73,98,13,0,1,98,3,100,9e-24,110
Exophiala_salmonis_CBS157.67_T,ERR1085147.92524,86.73,98,13,0,1,98,3,100,9e-24,110
Exophiala_salmonis_CBS157.67_T,ERR1085147.91900,86.73,98,13,0,1,98,3,100,9e-24,110
Exophiala_salmonis_CBS157.67_T,ERR1085147.91561,86.73,98,13,0,1,98,3,100,9e-24,110
Exophiala_salmonis_CBS157.67_T,ERR1085147.90527,86.73,98,13,0,1,98,3,100,9e-24,110
Exophiala_salmonis_CBS157.67_T,ERR1085147.88228,86.73,98,13,0,1,98,3,100,9e-24,110
Exophiala_salmonis_CBS157.67_T,ERR1085147.87850,86.87,99,11,2,1,98,3,100,9e-24,110
Exophiala_salmonis_CBS157.67_T,ERR1085147.86488,86.73,98,13,0,1,98,3,100,9e-24,110
Exophiala_salmonis_CBS157.67_T,ERR1085147.84301,86.87,99,11,2,1,98,3,100,9e-24,110
Exophiala_salmonis_CBS157.67_T,ERR1085147.83876,86.87,99,11,2,1,98,3,100,9e-24,110
Exophiala_salmonis_CBS157.67_T,ERR1085147.82536,86.73,98,13,0,1,98,3,100,9e-24,110
Exophiala_salmonis_CBS157.67_T,ERR1085147.82182,86.87,99,11,2,1,98,3,100,9e-24,110
Exophiala_salmonis_CBS157.67_T,ERR1085147.82121,86.87,99,11,2,1,98,3,100,9e-24,110
Exophiala_salmonis_CBS157.67_T,ERR1085147.81128,86.73,98,13,0,1,98,3,100,9e-24,110
Exophiala_salmonis_CBS157.67_T,ERR1085147.78775,86.87,99,11,2,1,98,3,100,9e-24,110
Exophiala_salmonis_CBS157.67_T,ERR1085147.77788,86.73,98,13,0,1,98,3,100,9e-24,110
Exophiala_salmonis_CBS157.67_T,ERR1085147.76009,86.87,99,11,2,1,98,3,100,9e-24,110
Exophiala_salmonis_CBS157.67_T,ERR1085147.75742,86.73,98,13,0,1,98,3,100,9e-24,110
Exophiala_salmonis_CBS157.67_T,ERR1085147.62094,86.87,99,11,2,1,98,3,100,9e-24,110
Exophiala_salmonis_CBS157.67_T,ERR1085147.60067,86.73,98,13,0,1,98,3,100,9e-24,110
Exophiala_salmonis_CBS157.67_T,ERR1085147.59125,86.87,99,11,2,1,98,3,100,9e-24,110
Exophiala_salmonis_CBS157.67_T,ERR1085147.58802,86.73,98,13,0,1,98,3,100,9e-24,110
Exophiala_salmonis_CBS157.67_T,ERR1085147.55130,86.73,98,13,0,1,98,3,100,9e-24,110
Exophiala_salmonis_CBS157.67_T,ERR1085147.53564,86.73,98,13,0,1,98,3,100,9e-24,110
Exophiala_salmonis_CBS157.67_T,ERR1085147.52476,86.73,98,13,0,1,98,3,100,9e-24,110
Exophiala_salmonis_CBS157.67_T,ERR1085147.50845,86.73,98,13,0,1,98,3,100,9e-24,110
Exophiala_salmonis_CBS157.67_T,ERR1085147.50180,86.73,98,13,0,1,98,3,100,9e-24,110
Exophiala_salmonis_CBS157.67_T,ERR1085147.49933,86.73,98,13,0,1,98,3,100,9e-24,110
Exophiala_salmonis_CBS157.67_T,ERR1085147.47386,86.87,99,11,2,1,98,3,100,9e-24,110
Exophiala_salmonis_CBS157.67_T,ERR1085147.46005,86.73,98,13,0,1,98,3,100,9e-24,110
Exophiala_salmonis_CBS157.67_T,ERR1085147.44619,86.87,99,11,2,1,98,3,100,9e-24,110
Exophiala_salmonis_CBS157.67_T,ERR1085147.43433,86.87,99,11,2,1,98,3,100,9e-24,110
Exophiala_salmonis_CBS157.67_T,ERR1085147.43289,86.87,99,11,2,1,98,3,100,9e-24,110
Exophiala_salmonis_CBS157.67_T,ERR1085147.40471,86.73,98,13,0,1,98,3,100,9e-24,110
Exophiala_salmonis_CBS157.67_T,ERR1085147.32993,86.87,99,11,2,1,98,3,100,9e-24,110
Exophiala_salmonis_CBS157.67_T,ERR1085147.30621,86.73,98,13,0,1,98,3,100,9e-24,110
Exophiala_salmonis_CBS157.67_T,ERR1085147.29175,86.73,98,13,0,1,98,3,100,9e-24,110
Exophiala_salmonis_CBS157.67_T,ERR1085147.29174,86.73,98,13,0,1,98,3,100,9e-24,110
Exophiala_salmonis_CBS157.67_T,ERR1085147.27668,86.73,98,13,0,1,98,3,100,9e-24,110
Exophiala_salmonis_CBS157.67_T,ERR1085147.27483,86.73,98,13,0,1,98,3,100,9e-24,110
Exophiala_salmonis_CBS157.67_T,ERR1085147.21152,86.87,99,11,2,1,98,3,100,9e-24,110
Exophiala_salmonis_CBS157.67_T,ERR1085147.16750,86.87,99,11,2,1,98,3,100,9e-24,110
Exophiala_salmonis_CBS157.67_T,ERR1085147.14809,86.73,98,13,0,1,98,3,100,9e-24,110
Exophiala_salmonis_CBS157.67_T,ERR1085147.14379,86.73,98,13,0,1,98,3,100,9e-24,110
Exophiala_salmonis_CBS157.67_T,ERR1085147.12723,86.87,99,11,2,1,98,3,100,9e-24,110
Exophiala_salmonis_CBS157.67_T,ERR1085147.11089,86.87,99,11,2,1,98,3,100,9e-24,110
Exophiala_salmonis_CBS157.67_T,ERR1085147.11015,86.73,98,13,0,1,98,3,100,9e-24,110
Exophiala_salmonis_CBS157.67_T,ERR1085147.9875,86.73,98,13,0,1,98,3,100,9e-24,110
Exophiala_salmonis_CBS157.67_T,ERR1085147.9679,86.73,98,13,0,1,98,3,100,9e-24,110
Exophiala_salmonis_CBS157.67_T,ERR1085147.8461,86.73,98,13,0,1,98,3,100,9e-24,110
Exophiala_salmonis_CBS157.67_T,ERR1085147.6360,86.73,98,13,0,1,98,3,100,9e-24,110
Exophiala_salmonis_CBS157.67_T,ERR1085147.4269,86.87,99,11,2,1,98,3,100,9e-24,110
Exophiala_salmonis_CBS157.67_T,ERR1085147.212162,85.71,98,14,0,1,98,3,100,4e-22,104
Exophiala_salmonis_CBS157.67_T,ERR1085147.177308,85.71,98,14,0,1,98,3,100,4e-22,104
Exophiala_salmonis_CBS157.67_T,ERR1085147.172313,85.71,98,14,0,1,98,3,100,4e-22,104
Exophiala_salmonis_CBS157.67_T,ERR1085147.157650,85.86,99,12,2,1,98,3,100,4e-22,104
Exophiala_salmonis_CBS157.67_T,ERR1085147.146138,85.86,99,12,2,1,98,3,100,4e-22,104
Exophiala_salmonis_CBS157.67_T,ERR1085147.145501,85.71,98,14,0,1,98,3,100,4e-22,104
Exophiala_salmonis_CBS157.67_T,ERR1085147.145039,85.71,98,14,0,1,98,3,100,4e-22,104
Exophiala_salmonis_CBS157.67_T,ERR1085147.140894,85.71,98,14,0,1,98,3,100,4e-22,104
Exophiala_salmonis_CBS157.67_T,ERR1085147.129597,85.71,98,14,0,1,98,3,100,4e-22,104
Exophiala_salmonis_CBS157.67_T,ERR1085147.110648,85.71,98,14,0,1,98,3,100,4e-22,104
Exophiala_salmonis_CBS157.67_T,ERR1085147.95130,85.86,99,12,2,1,98,3,100,4e-22,104
Exophiala_salmonis_CBS157.67_T,ERR1085147.72309,85.71,98,14,0,1,98,3,100,4e-22,104
Exophiala_salmonis_CBS157.67_T,ERR1085147.49335,85.71,98,14,0,1,98,3,100,4e-22,104
Exophiala_salmonis_CBS157.67_T,ERR1085147.41371,85.71,98,14,0,1,98,3,100,4e-22,104
Exophiala_salmonis_CBS157.67_T,ERR1085147.24348,85.71,98,14,0,1,98,3,100,4e-22,104
Exophiala_salmonis_CBS157.67_T,ERR1085147.16617,86.46,96,11,2,1,95,3,97,4e-22,104
Exophiala_salmonis_CBS157.67_T,ERR1085147.8118,85.86,99,12,2,1,98,3,100,4e-22,104
Exophiala_salmonis_CBS157.67_T,ERR1085147.751,85.71,98,14,0,1,98,3,100,4e-22,104
Exophiala_salmonis_CBS157.67_T,ERR1085147.177073,90.79,76,7,0,1,76,3,78,2e-21,102
Exophiala_salmonis_CBS157.67_T,ERR1085147.138757,85.15,101,9,5,1,98,3,100,2e-20,99.0
Exophiala_salmonis_CBS157.67_T,ERR1085147.111161,85.15,101,9,5,1,98,3,100,2e-20,99.0
Exophiala_salmonis_CBS157.67_T,ERR1085147.69883,84.85,99,13,2,1,98,3,100,2e-20,99.0
Exophiala_salmonis_CBS157.67_T,ERR1085147.177991,90.41,73,7,0,1,73,3,75,7e-20,97.1
Exophiala_salmonis_CBS157.67_T,ERR1085147.181591,92.31,39,3,0,1,39,3,41,1e-07,56.5
Cyphellophora_laciniata_CBS190.61_T,ERR1085147.49335,100.00,30,0,0,15,44,71,100,1e-07,56.5
