Exophiala_salmonis_CBS157.67_T,ERR1085107.155413,100.00,98,0,0,1,98,3,100,1e-45,182
Exophiala_salmonis_CBS157.67_T,ERR1085107.42510,92.86,98,7,0,1,98,3,100,7e-34,143
Exophiala_salmonis_CBS157.67_T,ERR1085107.81357,90.82,98,9,0,1,98,3,100,1e-30,132
Exophiala_salmonis_CBS157.67_T,ERR1085107.37096,90.82,98,9,0,1,98,3,100,1e-30,132
Exophiala_salmonis_CBS157.67_T,ERR1085107.1031,90.82,98,9,0,1,98,3,100,1e-30,132
Exophiala_salmonis_CBS157.67_T,ERR1085107.145532,88.78,98,11,0,1,98,3,100,3e-27,121
Exophiala_salmonis_CBS157.67_T,ERR1085107.137513,88.78,98,11,0,1,98,3,100,3e-27,121
Exophiala_salmonis_CBS157.67_T,ERR1085107.118100,88.78,98,11,0,1,98,3,100,3e-27,121
Exophiala_salmonis_CBS157.67_T,ERR1085107.68107,88.78,98,11,0,1,98,3,100,3e-27,121
Exophiala_salmonis_CBS157.67_T,ERR1085107.63682,88.78,98,11,0,1,98,3,100,3e-27,121
Exophiala_salmonis_CBS157.67_T,ERR1085107.61656,88.78,98,11,0,1,98,3,100,3e-27,121
Exophiala_salmonis_CBS157.67_T,ERR1085107.54976,88.78,98,11,0,1,98,3,100,3e-27,121
Exophiala_salmonis_CBS157.67_T,ERR1085107.49579,88.78,98,11,0,1,98,3,100,3e-27,121
Exophiala_salmonis_CBS157.67_T,ERR1085107.38903,88.78,98,11,0,1,98,3,100,3e-27,121
Exophiala_salmonis_CBS157.67_T,ERR1085107.37328,88.78,98,11,0,1,98,3,100,3e-27,121
Exophiala_salmonis_CBS157.67_T,ERR1085107.11798,88.78,98,11,0,1,98,3,100,3e-27,121
Exophiala_salmonis_CBS157.67_T,ERR1085107.10935,88.78,98,11,0,1,98,3,100,3e-27,121
Exophiala_salmonis_CBS157.67_T,ERR1085107.8622,88.78,98,11,0,1,98,3,100,3e-27,121
Exophiala_salmonis_CBS157.67_T,ERR1085107.132929,87.76,98,12,0,1,98,3,100,1e-25,115
Exophiala_salmonis_CBS157.67_T,ERR1085107.128625,87.76,98,12,0,1,98,3,100,1e-25,115
Exophiala_salmonis_CBS157.67_T,ERR1085107.126200,93.33,75,5,0,1,75,3,77,2e-24,111
Exophiala_salmonis_CBS157.67_T,ERR1085107.164353,86.73,98,13,0,1,98,3,100,7e-24,110
Exophiala_salmonis_CBS157.67_T,ERR1085107.154725,86.73,98,13,0,1,98,3,100,7e-24,110
Exophiala_salmonis_CBS157.67_T,ERR1085107.149180,86.73,98,13,0,1,98,3,100,7e-24,110
Exophiala_salmonis_CBS157.67_T,ERR1085107.132707,86.73,98,13,0,1,98,3,100,7e-24,110
Exophiala_salmonis_CBS157.67_T,ERR1085107.129536,86.73,98,13,0,1,98,3,100,7e-24,110
Exophiala_salmonis_CBS157.67_T,ERR1085107.126226,86.73,98,13,0,1,98,3,100,7e-24,110
Exophiala_salmonis_CBS157.67_T,ERR1085107.117626,86.73,98,13,0,1,98,3,100,7e-24,110
Exophiala_salmonis_CBS157.67_T,ERR1085107.116204,86.87,99,11,2,1,98,3,100,7e-24,110
Exophiala_salmonis_CBS157.67_T,ERR1085107.108546,86.73,98,13,0,1,98,3,100,7e-24,110
Exophiala_salmonis_CBS157.67_T,ERR1085107.98480,86.73,98,13,0,1,98,3,100,7e-24,110
Exophiala_salmonis_CBS157.67_T,ERR1085107.91344,86.73,98,13,0,1,98,3,100,7e-24,110
Exophiala_salmonis_CBS157.67_T,ERR1085107.89741,86.73,98,13,0,1,98,3,100,7e-24,110
Exophiala_salmonis_CBS157.67_T,ERR1085107.85338,86.73,98,13,0,1,98,3,100,7e-24,110
Exophiala_salmonis_CBS157.67_T,ERR1085107.81407,86.87,99,11,2,1,98,3,100,7e-24,110
Exophiala_salmonis_CBS157.67_T,ERR1085107.80463,86.73,98,13,0,1,98,3,100,7e-24,110
Exophiala_salmonis_CBS157.67_T,ERR1085107.76117,86.87,99,11,2,1,98,3,100,7e-24,110
Exophiala_salmonis_CBS157.67_T,ERR1085107.72239,86.73,98,13,0,1,98,3,100,7e-24,110
Exophiala_salmonis_CBS157.67_T,ERR1085107.69921,86.73,98,13,0,1,98,3,100,7e-24,110
Exophiala_salmonis_CBS157.67_T,ERR1085107.65371,86.73,98,13,0,1,98,3,100,7e-24,110
Exophiala_salmonis_CBS157.67_T,ERR1085107.61797,86.87,99,11,2,1,98,3,100,7e-24,110
Exophiala_salmonis_CBS157.67_T,ERR1085107.59323,86.73,98,13,0,1,98,3,100,7e-24,110
Exophiala_salmonis_CBS157.67_T,ERR1085107.53883,86.73,98,13,0,1,98,3,100,7e-24,110
Exophiala_salmonis_CBS157.67_T,ERR1085107.45884,86.87,99,11,2,1,98,3,100,7e-24,110
Exophiala_salmonis_CBS157.67_T,ERR1085107.45452,86.73,98,13,0,1,98,3,100,7e-24,110
Exophiala_salmonis_CBS157.67_T,ERR1085107.40042,86.87,99,11,2,1,98,3,100,7e-24,110
Exophiala_salmonis_CBS157.67_T,ERR1085107.39430,86.87,99,11,2,1,98,3,100,7e-24,110
Exophiala_salmonis_CBS157.67_T,ERR1085107.33910,86.73,98,13,0,1,98,3,100,7e-24,110
Exophiala_salmonis_CBS157.67_T,ERR1085107.33518,86.73,98,13,0,1,98,3,100,7e-24,110
Exophiala_salmonis_CBS157.67_T,ERR1085107.32964,86.87,99,11,2,1,98,3,100,7e-24,110
Exophiala_salmonis_CBS157.67_T,ERR1085107.30359,86.73,98,13,0,1,98,3,100,7e-24,110
Exophiala_salmonis_CBS157.67_T,ERR1085107.29451,86.73,98,13,0,1,98,3,100,7e-24,110
Exophiala_salmonis_CBS157.67_T,ERR1085107.27012,86.73,98,13,0,1,98,3,100,7e-24,110
Exophiala_salmonis_CBS157.67_T,ERR1085107.26890,86.87,99,11,2,1,98,3,100,7e-24,110
Exophiala_salmonis_CBS157.67_T,ERR1085107.25181,86.87,99,11,2,1,98,3,100,7e-24,110
Exophiala_salmonis_CBS157.67_T,ERR1085107.24753,86.73,98,13,0,1,98,3,100,7e-24,110
Exophiala_salmonis_CBS157.67_T,ERR1085107.23384,86.73,98,13,0,1,98,3,100,7e-24,110
Exophiala_salmonis_CBS157.67_T,ERR1085107.23068,86.73,98,13,0,1,98,3,100,7e-24,110
Exophiala_salmonis_CBS157.67_T,ERR1085107.22457,86.87,99,11,2,1,98,3,100,7e-24,110
Exophiala_salmonis_CBS157.67_T,ERR1085107.21307,86.87,99,11,2,1,98,3,100,7e-24,110
Exophiala_salmonis_CBS157.67_T,ERR1085107.20374,86.73,98,13,0,1,98,3,100,7e-24,110
Exophiala_salmonis_CBS157.67_T,ERR1085107.19820,86.87,99,11,2,1,98,3,100,7e-24,110
Exophiala_salmonis_CBS157.67_T,ERR1085107.18487,86.73,98,13,0,1,98,3,100,7e-24,110
Exophiala_salmonis_CBS157.67_T,ERR1085107.12181,86.73,98,13,0,1,98,3,100,7e-24,110
Exophiala_salmonis_CBS157.67_T,ERR1085107.10728,86.73,98,13,0,1,98,3,100,7e-24,110
Exophiala_salmonis_CBS157.67_T,ERR1085107.6677,86.73,98,13,0,1,98,3,100,7e-24,110
Exophiala_salmonis_CBS157.67_T,ERR1085107.5676,86.73,98,13,0,1,98,3,100,7e-24,110
Exophiala_salmonis_CBS157.67_T,ERR1085107.5265,86.73,98,13,0,1,98,3,100,7e-24,110
Exophiala_salmonis_CBS157.67_T,ERR1085107.4988,86.73,98,13,0,1,98,3,100,7e-24,110
Exophiala_salmonis_CBS157.67_T,ERR1085107.1946,86.73,98,13,0,1,98,3,100,7e-24,110
Exophiala_salmonis_CBS157.67_T,ERR1085107.127815,85.71,98,14,0,1,98,3,100,3e-22,104
Exophiala_salmonis_CBS157.67_T,ERR1085107.125606,85.71,98,14,0,1,98,3,100,3e-22,104
Exophiala_salmonis_CBS157.67_T,ERR1085107.122739,85.71,98,14,0,1,98,3,100,3e-22,104
Exophiala_salmonis_CBS157.67_T,ERR1085107.83339,85.86,99,12,2,1,98,3,100,3e-22,104
Exophiala_salmonis_CBS157.67_T,ERR1085107.130823,90.79,76,7,0,1,76,3,78,1e-21,102
Exophiala_salmonis_CBS157.67_T,ERR1085107.68461,85.71,77,9,2,1,76,3,78,5e-15,80.5
Cyphellophora_laciniata_CBS190.61_T,ERR1085107.155413,100.00,44,0,0,1,44,57,100,1e-15,82.4
