Exophiala_salmonis_CBS157.67_T,ERR1084928.60131,97.96,98,2,0,1,98,3,100,3e-42,171
Exophiala_salmonis_CBS157.67_T,ERR1084928.59061,95.92,98,4,0,1,98,3,100,6e-39,159
Exophiala_salmonis_CBS157.67_T,ERR1084928.145719,94.90,98,5,0,1,98,3,100,3e-37,154
Exophiala_salmonis_CBS157.67_T,ERR1084928.53426,94.90,98,5,0,1,98,3,100,3e-37,154
Exophiala_salmonis_CBS157.67_T,ERR1084928.47818,94.90,98,5,0,1,98,3,100,3e-37,154
Exophiala_salmonis_CBS157.67_T,ERR1084928.21792,94.90,98,5,0,1,98,3,100,3e-37,154
Exophiala_salmonis_CBS157.67_T,ERR1084928.132851,93.94,99,4,2,1,98,3,100,1e-35,148
Exophiala_salmonis_CBS157.67_T,ERR1084928.131095,93.94,99,4,2,1,98,3,100,1e-35,148
Exophiala_salmonis_CBS157.67_T,ERR1084928.125693,93.94,99,4,2,1,98,3,100,1e-35,148
Exophiala_salmonis_CBS157.67_T,ERR1084928.102666,93.88,98,6,0,1,98,3,100,1e-35,148
Exophiala_salmonis_CBS157.67_T,ERR1084928.91774,93.94,99,4,2,1,98,3,100,1e-35,148
Exophiala_salmonis_CBS157.67_T,ERR1084928.109934,93.81,97,4,2,1,96,3,98,2e-34,145
Exophiala_salmonis_CBS157.67_T,ERR1084928.16751,93.81,97,4,2,1,96,3,98,2e-34,145
Exophiala_salmonis_CBS157.67_T,ERR1084928.150979,91.84,98,8,0,1,98,3,100,3e-32,137
Exophiala_salmonis_CBS157.67_T,ERR1084928.150425,91.84,98,8,0,1,98,3,100,3e-32,137
Exophiala_salmonis_CBS157.67_T,ERR1084928.150136,91.84,98,8,0,1,98,3,100,3e-32,137
Exophiala_salmonis_CBS157.67_T,ERR1084928.143287,91.84,98,8,0,1,98,3,100,3e-32,137
Exophiala_salmonis_CBS157.67_T,ERR1084928.134836,91.84,98,8,0,1,98,3,100,3e-32,137
Exophiala_salmonis_CBS157.67_T,ERR1084928.133528,91.84,98,8,0,1,98,3,100,3e-32,137
Exophiala_salmonis_CBS157.67_T,ERR1084928.128546,91.84,98,8,0,1,98,3,100,3e-32,137
Exophiala_salmonis_CBS157.67_T,ERR1084928.128117,91.84,98,8,0,1,98,3,100,3e-32,137
Exophiala_salmonis_CBS157.67_T,ERR1084928.127526,91.84,98,8,0,1,98,3,100,3e-32,137
Exophiala_salmonis_CBS157.67_T,ERR1084928.123626,91.84,98,8,0,1,98,3,100,3e-32,137
Exophiala_salmonis_CBS157.67_T,ERR1084928.122738,91.84,98,8,0,1,98,3,100,3e-32,137
Exophiala_salmonis_CBS157.67_T,ERR1084928.118167,91.84,98,8,0,1,98,3,100,3e-32,137
Exophiala_salmonis_CBS157.67_T,ERR1084928.117690,91.84,98,8,0,1,98,3,100,3e-32,137
Exophiala_salmonis_CBS157.67_T,ERR1084928.116593,91.84,98,8,0,1,98,3,100,3e-32,137
Exophiala_salmonis_CBS157.67_T,ERR1084928.111377,91.84,98,8,0,1,98,3,100,3e-32,137
Exophiala_salmonis_CBS157.67_T,ERR1084928.111217,91.84,98,8,0,1,98,3,100,3e-32,137
Exophiala_salmonis_CBS157.67_T,ERR1084928.110621,91.84,98,8,0,1,98,3,100,3e-32,137
Exophiala_salmonis_CBS157.67_T,ERR1084928.107439,91.84,98,8,0,1,98,3,100,3e-32,137
Exophiala_salmonis_CBS157.67_T,ERR1084928.106990,91.84,98,8,0,1,98,3,100,3e-32,137
Exophiala_salmonis_CBS157.67_T,ERR1084928.100335,91.84,98,8,0,1,98,3,100,3e-32,137
Exophiala_salmonis_CBS157.67_T,ERR1084928.97646,91.84,98,8,0,1,98,3,100,3e-32,137
Exophiala_salmonis_CBS157.67_T,ERR1084928.96155,91.84,98,8,0,1,98,3,100,3e-32,137
Exophiala_salmonis_CBS157.67_T,ERR1084928.84641,91.84,98,8,0,1,98,3,100,3e-32,137
Exophiala_salmonis_CBS157.67_T,ERR1084928.82900,91.84,98,8,0,1,98,3,100,3e-32,137
Exophiala_salmonis_CBS157.67_T,ERR1084928.81263,91.84,98,8,0,1,98,3,100,3e-32,137
Exophiala_salmonis_CBS157.67_T,ERR1084928.73044,91.84,98,8,0,1,98,3,100,3e-32,137
Exophiala_salmonis_CBS157.67_T,ERR1084928.69077,91.84,98,8,0,1,98,3,100,3e-32,137
Exophiala_salmonis_CBS157.67_T,ERR1084928.66246,91.84,98,8,0,1,98,3,100,3e-32,137
Exophiala_salmonis_CBS157.67_T,ERR1084928.63528,91.84,98,8,0,1,98,3,100,3e-32,137
Exophiala_salmonis_CBS157.67_T,ERR1084928.62543,91.84,98,8,0,1,98,3,100,3e-32,137
Exophiala_salmonis_CBS157.67_T,ERR1084928.59502,91.84,98,8,0,1,98,3,100,3e-32,137
Exophiala_salmonis_CBS157.67_T,ERR1084928.59060,91.84,98,8,0,1,98,3,100,3e-32,137
Exophiala_salmonis_CBS157.67_T,ERR1084928.47986,91.84,98,8,0,1,98,3,100,3e-32,137
Exophiala_salmonis_CBS157.67_T,ERR1084928.42523,91.84,98,8,0,1,98,3,100,3e-32,137
Exophiala_salmonis_CBS157.67_T,ERR1084928.42059,91.84,98,8,0,1,98,3,100,3e-32,137
Exophiala_salmonis_CBS157.67_T,ERR1084928.41305,91.84,98,8,0,1,98,3,100,3e-32,137
Exophiala_salmonis_CBS157.67_T,ERR1084928.38510,91.84,98,8,0,1,98,3,100,3e-32,137
Exophiala_salmonis_CBS157.67_T,ERR1084928.35754,91.84,98,8,0,1,98,3,100,3e-32,137
Exophiala_salmonis_CBS157.67_T,ERR1084928.35043,91.84,98,8,0,1,98,3,100,3e-32,137
Exophiala_salmonis_CBS157.67_T,ERR1084928.29682,91.84,98,8,0,1,98,3,100,3e-32,137
Exophiala_salmonis_CBS157.67_T,ERR1084928.20916,91.84,98,8,0,1,98,3,100,3e-32,137
Exophiala_salmonis_CBS157.67_T,ERR1084928.20368,91.84,98,8,0,1,98,3,100,3e-32,137
Exophiala_salmonis_CBS157.67_T,ERR1084928.19660,91.84,98,8,0,1,98,3,100,3e-32,137
Exophiala_salmonis_CBS157.67_T,ERR1084928.18241,91.84,98,8,0,1,98,3,100,3e-32,137
Exophiala_salmonis_CBS157.67_T,ERR1084928.13813,91.84,98,8,0,1,98,3,100,3e-32,137
Exophiala_salmonis_CBS157.67_T,ERR1084928.13036,91.84,98,8,0,1,98,3,100,3e-32,137
Exophiala_salmonis_CBS157.67_T,ERR1084928.4088,91.84,98,8,0,1,98,3,100,3e-32,137
Exophiala_salmonis_CBS157.67_T,ERR1084928.40,91.84,98,8,0,1,98,3,100,3e-32,137
Exophiala_salmonis_CBS157.67_T,ERR1084928.141648,90.82,98,9,0,1,98,3,100,1e-30,132
Exophiala_salmonis_CBS157.67_T,ERR1084928.139646,90.82,98,9,0,1,98,3,100,1e-30,132
Exophiala_salmonis_CBS157.67_T,ERR1084928.138396,90.82,98,9,0,1,98,3,100,1e-30,132
Exophiala_salmonis_CBS157.67_T,ERR1084928.136813,90.82,98,9,0,1,98,3,100,1e-30,132
Exophiala_salmonis_CBS157.67_T,ERR1084928.132691,90.82,98,9,0,1,98,3,100,1e-30,132
Exophiala_salmonis_CBS157.67_T,ERR1084928.127937,90.82,98,9,0,1,98,3,100,1e-30,132
Exophiala_salmonis_CBS157.67_T,ERR1084928.125237,90.91,99,7,2,1,98,3,100,1e-30,132
Exophiala_salmonis_CBS157.67_T,ERR1084928.119157,90.82,98,9,0,1,98,3,100,1e-30,132
Exophiala_salmonis_CBS157.67_T,ERR1084928.118487,90.82,98,9,0,1,98,3,100,1e-30,132
Exophiala_salmonis_CBS157.67_T,ERR1084928.114477,90.82,98,9,0,1,98,3,100,1e-30,132
Exophiala_salmonis_CBS157.67_T,ERR1084928.113426,90.91,99,7,2,1,98,3,100,1e-30,132
Exophiala_salmonis_CBS157.67_T,ERR1084928.111026,90.82,98,9,0,1,98,3,100,1e-30,132
Exophiala_salmonis_CBS157.67_T,ERR1084928.110121,90.82,98,9,0,1,98,3,100,1e-30,132
Exophiala_salmonis_CBS157.67_T,ERR1084928.101373,90.82,98,9,0,1,98,3,100,1e-30,132
Exophiala_salmonis_CBS157.67_T,ERR1084928.97542,90.82,98,9,0,1,98,3,100,1e-30,132
Exophiala_salmonis_CBS157.67_T,ERR1084928.91935,90.82,98,9,0,1,98,3,100,1e-30,132
Exophiala_salmonis_CBS157.67_T,ERR1084928.90157,90.82,98,9,0,1,98,3,100,1e-30,132
Exophiala_salmonis_CBS157.67_T,ERR1084928.89873,90.82,98,9,0,1,98,3,100,1e-30,132
Exophiala_salmonis_CBS157.67_T,ERR1084928.81473,90.82,98,9,0,1,98,3,100,1e-30,132
Exophiala_salmonis_CBS157.67_T,ERR1084928.80601,90.82,98,9,0,1,98,3,100,1e-30,132
Exophiala_salmonis_CBS157.67_T,ERR1084928.80493,90.82,98,9,0,1,98,3,100,1e-30,132
Exophiala_salmonis_CBS157.67_T,ERR1084928.78397,90.82,98,9,0,1,98,3,100,1e-30,132
Exophiala_salmonis_CBS157.67_T,ERR1084928.73825,90.82,98,9,0,1,98,3,100,1e-30,132
Exophiala_salmonis_CBS157.67_T,ERR1084928.72456,90.82,98,9,0,1,98,3,100,1e-30,132
Exophiala_salmonis_CBS157.67_T,ERR1084928.69524,90.82,98,9,0,1,98,3,100,1e-30,132
Exophiala_salmonis_CBS157.67_T,ERR1084928.68000,90.82,98,9,0,1,98,3,100,1e-30,132
Exophiala_salmonis_CBS157.67_T,ERR1084928.64437,90.82,98,9,0,1,98,3,100,1e-30,132
Exophiala_salmonis_CBS157.67_T,ERR1084928.61788,90.82,98,9,0,1,98,3,100,1e-30,132
Exophiala_salmonis_CBS157.67_T,ERR1084928.58485,90.82,98,9,0,1,98,3,100,1e-30,132
Exophiala_salmonis_CBS157.67_T,ERR1084928.52730,90.82,98,9,0,1,98,3,100,1e-30,132
Exophiala_salmonis_CBS157.67_T,ERR1084928.46927,90.82,98,9,0,1,98,3,100,1e-30,132
Exophiala_salmonis_CBS157.67_T,ERR1084928.45995,90.82,98,9,0,1,98,3,100,1e-30,132
Exophiala_salmonis_CBS157.67_T,ERR1084928.45681,90.82,98,9,0,1,98,3,100,1e-30,132
Exophiala_salmonis_CBS157.67_T,ERR1084928.45541,90.82,98,9,0,1,98,3,100,1e-30,132
Exophiala_salmonis_CBS157.67_T,ERR1084928.42822,90.82,98,9,0,1,98,3,100,1e-30,132
Exophiala_salmonis_CBS157.67_T,ERR1084928.26599,90.82,98,9,0,1,98,3,100,1e-30,132
Exophiala_salmonis_CBS157.67_T,ERR1084928.14698,90.82,98,9,0,1,98,3,100,1e-30,132
Exophiala_salmonis_CBS157.67_T,ERR1084928.1507,90.82,98,9,0,1,98,3,100,1e-30,132
Exophiala_salmonis_CBS157.67_T,ERR1084928.49244,90.72,97,9,0,1,97,3,99,5e-30,130
Exophiala_salmonis_CBS157.67_T,ERR1084928.128895,90.62,96,9,0,3,98,5,100,2e-29,128
Exophiala_salmonis_CBS157.67_T,ERR1084928.130862,89.80,98,10,0,1,98,3,100,6e-29,126
Exophiala_salmonis_CBS157.67_T,ERR1084928.120795,89.80,98,10,0,1,98,3,100,6e-29,126
Exophiala_salmonis_CBS157.67_T,ERR1084928.113951,89.80,98,10,0,1,98,3,100,6e-29,126
Exophiala_salmonis_CBS157.67_T,ERR1084928.109359,89.80,98,10,0,1,98,3,100,6e-29,126
Exophiala_salmonis_CBS157.67_T,ERR1084928.102048,90.53,95,9,0,1,95,3,97,6e-29,126
Exophiala_salmonis_CBS157.67_T,ERR1084928.94888,89.80,98,10,0,1,98,3,100,6e-29,126
Exophiala_salmonis_CBS157.67_T,ERR1084928.14261,89.80,98,10,0,1,98,3,100,6e-29,126
Exophiala_salmonis_CBS157.67_T,ERR1084928.2660,89.80,98,10,0,1,98,3,100,6e-29,126
Exophiala_salmonis_CBS157.67_T,ERR1084928.113892,88.78,98,11,0,1,98,3,100,3e-27,121
Exophiala_salmonis_CBS157.67_T,ERR1084928.88031,88.78,98,11,0,1,98,3,100,3e-27,121
Exophiala_salmonis_CBS157.67_T,ERR1084928.77413,88.78,98,11,0,1,98,3,100,3e-27,121
Exophiala_salmonis_CBS157.67_T,ERR1084928.59565,88.78,98,11,0,1,98,3,100,3e-27,121
Exophiala_salmonis_CBS157.67_T,ERR1084928.48244,88.78,98,11,0,1,98,3,100,3e-27,121
Exophiala_salmonis_CBS157.67_T,ERR1084928.44580,88.78,98,11,0,1,98,3,100,3e-27,121
Exophiala_salmonis_CBS157.67_T,ERR1084928.35865,88.78,98,11,0,1,98,3,100,3e-27,121
Exophiala_salmonis_CBS157.67_T,ERR1084928.1645,88.78,98,11,0,1,98,3,100,3e-27,121
Exophiala_salmonis_CBS157.67_T,ERR1084928.50865,87.76,98,12,0,1,98,3,100,1e-25,115
Exophiala_salmonis_CBS157.67_T,ERR1084928.21704,87.76,98,12,0,1,98,3,100,1e-25,115
Exophiala_salmonis_CBS157.67_T,ERR1084928.122212,85.71,98,14,0,1,98,3,100,3e-22,104
Exophiala_salmonis_CBS157.67_T,ERR1084928.112530,85.71,98,14,0,1,98,3,100,3e-22,104
Exophiala_salmonis_CBS157.67_T,ERR1084928.90244,85.71,98,14,0,1,98,3,100,3e-22,104
Exophiala_salmonis_CBS157.67_T,ERR1084928.13369,85.71,98,14,0,1,98,3,100,3e-22,104
Exophiala_salmonis_CBS157.67_T,ERR1084928.99176,84.31,102,8,8,1,98,3,100,6e-19,93.5
Exophiala_salmonis_CBS157.67_T,ERR1084928.14702,83.67,98,16,0,1,98,3,100,6e-19,93.5
Exophiala_salmonis_CBS157.67_T,ERR1084928.34012,83.33,102,9,8,1,98,3,100,3e-17,87.9
Exophiala_salmonis_CBS157.67_T,ERR1084928.151157,81.82,110,8,9,1,110,3,100,1e-15,82.4
Exophiala_salmonis_CBS157.67_T,ERR1084928.131187,81.98,111,6,11,1,110,3,100,1e-15,82.4
Exophiala_salmonis_CBS157.67_T,ERR1084928.33424,81.82,110,8,9,1,110,3,100,1e-15,82.4
Exophiala_salmonis_CBS157.67_T,ERR1084928.147126,97.06,34,1,0,78,111,67,100,2e-08,58.4
Exophiala_salmonis_CBS157.67_T,ERR1084928.111088,94.74,38,1,1,73,110,64,100,2e-08,58.4
Exophiala_salmonis_CBS157.67_T,ERR1084928.107119,94.74,38,1,1,73,110,64,100,2e-08,58.4
Exophiala_salmonis_CBS157.67_T,ERR1084928.46673,94.74,38,1,1,74,111,64,100,2e-08,58.4
Exophiala_salmonis_CBS157.67_T,ERR1084928.30248,94.74,38,1,1,73,110,64,100,2e-08,58.4
Exophiala_salmonis_CBS157.67_T,ERR1084928.7191,94.74,38,1,1,74,111,64,100,2e-08,58.4
Exophiala_salmonis_CBS157.67_T,ERR1084928.6871,94.74,38,1,1,74,111,64,100,2e-08,58.4
Exophiala_salmonis_CBS157.67_T,ERR1084928.101273,96.97,33,1,0,78,110,68,100,8e-08,56.5
Rhinocladiella_atrovirens_CBS264.49,ERR1084928.49197,100.00,30,0,0,1,30,71,100,7e-08,56.5
Rhinocladiella_atrovirens_CBS264.49,ERR1084928.141090,100.00,28,0,0,1,28,73,100,9e-07,52.8
Rhinocladiella_atrovirens_CBS264.49,ERR1084928.35585,100.00,28,0,0,1,28,73,100,9e-07,52.8
Cyphellophora_laciniata_CBS190.61_T,ERR1084928.60131,97.73,44,1,0,1,44,57,100,6e-14,76.8
Cyphellophora_laciniata_CBS190.61_T,ERR1084928.145719,95.45,44,2,0,1,44,57,100,3e-12,71.3
Cyphellophora_laciniata_CBS190.61_T,ERR1084928.102666,95.45,44,2,0,1,44,57,100,3e-12,71.3
Cyphellophora_laciniata_CBS190.61_T,ERR1084928.59061,95.45,44,2,0,1,44,57,100,3e-12,71.3
Cyphellophora_laciniata_CBS190.61_T,ERR1084928.53426,95.45,44,2,0,1,44,57,100,3e-12,71.3
Cyphellophora_laciniata_CBS190.61_T,ERR1084928.21792,95.45,44,2,0,1,44,57,100,3e-12,71.3
Cyphellophora_laciniata_CBS190.61_T,ERR1084928.49197,100.00,32,0,0,55,86,69,100,6e-09,60.2
Cyphellophora_laciniata_CBS190.61_T,ERR1084928.151157,94.74,38,1,1,19,56,64,100,2e-08,58.4
Cyphellophora_laciniata_CBS190.61_T,ERR1084928.147126,97.06,34,1,0,24,57,67,100,2e-08,58.4
Cyphellophora_laciniata_CBS190.61_T,ERR1084928.131187,94.74,38,1,1,19,56,64,100,2e-08,58.4
Cyphellophora_laciniata_CBS190.61_T,ERR1084928.111088,94.74,38,1,1,19,56,64,100,2e-08,58.4
Cyphellophora_laciniata_CBS190.61_T,ERR1084928.107119,94.74,38,1,1,19,56,64,100,2e-08,58.4
Cyphellophora_laciniata_CBS190.61_T,ERR1084928.46673,94.74,38,1,1,20,57,64,100,2e-08,58.4
Cyphellophora_laciniata_CBS190.61_T,ERR1084928.33424,94.74,38,1,1,19,56,64,100,2e-08,58.4
Cyphellophora_laciniata_CBS190.61_T,ERR1084928.30248,94.74,38,1,1,19,56,64,100,2e-08,58.4
Cyphellophora_laciniata_CBS190.61_T,ERR1084928.7191,94.74,38,1,1,20,57,64,100,2e-08,58.4
Cyphellophora_laciniata_CBS190.61_T,ERR1084928.6871,94.74,38,1,1,20,57,64,100,2e-08,58.4
Cyphellophora_laciniata_CBS190.61_T,ERR1084928.141090,100.00,30,0,0,55,84,71,100,8e-08,56.5
Cyphellophora_laciniata_CBS190.61_T,ERR1084928.101273,96.97,33,1,0,24,56,68,100,8e-08,56.5
Cyphellophora_laciniata_CBS190.61_T,ERR1084928.35585,100.00,30,0,0,55,84,71,100,8e-08,56.5
Cyphellophora_laciniata_CBS190.61_T,ERR1084928.131770,100.00,29,0,0,55,83,72,100,3e-07,54.7
