Exophiala_salmonis_CBS157.67_T,ERR1085106.37993,100.00,98,0,0,1,98,3,100,3e-46,182
Exophiala_salmonis_CBS157.67_T,ERR1085106.37749,100.00,98,0,0,1,98,3,100,3e-46,182
Exophiala_salmonis_CBS157.67_T,ERR1085106.37735,100.00,98,0,0,1,98,3,100,3e-46,182
Exophiala_salmonis_CBS157.67_T,ERR1085106.37666,100.00,98,0,0,1,98,3,100,3e-46,182
Exophiala_salmonis_CBS157.67_T,ERR1085106.37551,100.00,98,0,0,1,98,3,100,3e-46,182
Exophiala_salmonis_CBS157.67_T,ERR1085106.36015,100.00,98,0,0,1,98,3,100,3e-46,182
Exophiala_salmonis_CBS157.67_T,ERR1085106.35426,100.00,98,0,0,1,98,3,100,3e-46,182
Exophiala_salmonis_CBS157.67_T,ERR1085106.35041,100.00,98,0,0,1,98,3,100,3e-46,182
Exophiala_salmonis_CBS157.67_T,ERR1085106.34977,100.00,98,0,0,1,98,3,100,3e-46,182
Exophiala_salmonis_CBS157.67_T,ERR1085106.34528,100.00,98,0,0,1,98,3,100,3e-46,182
Exophiala_salmonis_CBS157.67_T,ERR1085106.34048,100.00,98,0,0,1,98,3,100,3e-46,182
Exophiala_salmonis_CBS157.67_T,ERR1085106.33779,100.00,98,0,0,1,98,3,100,3e-46,182
Exophiala_salmonis_CBS157.67_T,ERR1085106.33661,100.00,98,0,0,1,98,3,100,3e-46,182
Exophiala_salmonis_CBS157.67_T,ERR1085106.33639,100.00,98,0,0,1,98,3,100,3e-46,182
Exophiala_salmonis_CBS157.67_T,ERR1085106.32887,100.00,98,0,0,1,98,3,100,3e-46,182
Exophiala_salmonis_CBS157.67_T,ERR1085106.32778,100.00,98,0,0,1,98,3,100,3e-46,182
Exophiala_salmonis_CBS157.67_T,ERR1085106.32618,100.00,98,0,0,1,98,3,100,3e-46,182
Exophiala_salmonis_CBS157.67_T,ERR1085106.32174,100.00,98,0,0,1,98,3,100,3e-46,182
Exophiala_salmonis_CBS157.67_T,ERR1085106.31864,100.00,98,0,0,1,98,3,100,3e-46,182
Exophiala_salmonis_CBS157.67_T,ERR1085106.31842,100.00,98,0,0,1,98,3,100,3e-46,182
Exophiala_salmonis_CBS157.67_T,ERR1085106.28886,100.00,98,0,0,1,98,3,100,3e-46,182
Exophiala_salmonis_CBS157.67_T,ERR1085106.28476,100.00,98,0,0,1,98,3,100,3e-46,182
Exophiala_salmonis_CBS157.67_T,ERR1085106.28332,100.00,98,0,0,1,98,3,100,3e-46,182
Exophiala_salmonis_CBS157.67_T,ERR1085106.27613,100.00,98,0,0,1,98,3,100,3e-46,182
Exophiala_salmonis_CBS157.67_T,ERR1085106.26206,100.00,98,0,0,1,98,3,100,3e-46,182
Exophiala_salmonis_CBS157.67_T,ERR1085106.25988,100.00,98,0,0,1,98,3,100,3e-46,182
Exophiala_salmonis_CBS157.67_T,ERR1085106.24535,100.00,98,0,0,1,98,3,100,3e-46,182
Exophiala_salmonis_CBS157.67_T,ERR1085106.24500,100.00,98,0,0,1,98,3,100,3e-46,182
Exophiala_salmonis_CBS157.67_T,ERR1085106.24273,100.00,98,0,0,1,98,3,100,3e-46,182
Exophiala_salmonis_CBS157.67_T,ERR1085106.23913,100.00,98,0,0,1,98,3,100,3e-46,182
Exophiala_salmonis_CBS157.67_T,ERR1085106.23172,100.00,98,0,0,1,98,3,100,3e-46,182
Exophiala_salmonis_CBS157.67_T,ERR1085106.20918,100.00,98,0,0,1,98,3,100,3e-46,182
Exophiala_salmonis_CBS157.67_T,ERR1085106.20591,100.00,98,0,0,1,98,3,100,3e-46,182
Exophiala_salmonis_CBS157.67_T,ERR1085106.20519,100.00,98,0,0,1,98,3,100,3e-46,182
Exophiala_salmonis_CBS157.67_T,ERR1085106.20513,100.00,98,0,0,1,98,3,100,3e-46,182
Exophiala_salmonis_CBS157.67_T,ERR1085106.20250,100.00,98,0,0,1,98,3,100,3e-46,182
Exophiala_salmonis_CBS157.67_T,ERR1085106.18909,100.00,98,0,0,1,98,3,100,3e-46,182
Exophiala_salmonis_CBS157.67_T,ERR1085106.18876,100.00,98,0,0,1,98,3,100,3e-46,182
Exophiala_salmonis_CBS157.67_T,ERR1085106.18679,100.00,98,0,0,1,98,3,100,3e-46,182
Exophiala_salmonis_CBS157.67_T,ERR1085106.17951,100.00,98,0,0,1,98,3,100,3e-46,182
Exophiala_salmonis_CBS157.67_T,ERR1085106.17540,100.00,98,0,0,1,98,3,100,3e-46,182
Exophiala_salmonis_CBS157.67_T,ERR1085106.17537,100.00,98,0,0,1,98,3,100,3e-46,182
Exophiala_salmonis_CBS157.67_T,ERR1085106.17056,100.00,98,0,0,1,98,3,100,3e-46,182
Exophiala_salmonis_CBS157.67_T,ERR1085106.16859,100.00,98,0,0,1,98,3,100,3e-46,182
Exophiala_salmonis_CBS157.67_T,ERR1085106.16548,100.00,98,0,0,1,98,3,100,3e-46,182
Exophiala_salmonis_CBS157.67_T,ERR1085106.15857,100.00,98,0,0,1,98,3,100,3e-46,182
Exophiala_salmonis_CBS157.67_T,ERR1085106.15187,100.00,98,0,0,1,98,3,100,3e-46,182
Exophiala_salmonis_CBS157.67_T,ERR1085106.15063,100.00,98,0,0,1,98,3,100,3e-46,182
Exophiala_salmonis_CBS157.67_T,ERR1085106.13641,100.00,98,0,0,1,98,3,100,3e-46,182
Exophiala_salmonis_CBS157.67_T,ERR1085106.13585,100.00,98,0,0,1,98,3,100,3e-46,182
Exophiala_salmonis_CBS157.67_T,ERR1085106.13106,100.00,98,0,0,1,98,3,100,3e-46,182
Exophiala_salmonis_CBS157.67_T,ERR1085106.12460,100.00,98,0,0,1,98,3,100,3e-46,182
Exophiala_salmonis_CBS157.67_T,ERR1085106.11346,100.00,98,0,0,1,98,3,100,3e-46,182
Exophiala_salmonis_CBS157.67_T,ERR1085106.11062,100.00,98,0,0,1,98,3,100,3e-46,182
Exophiala_salmonis_CBS157.67_T,ERR1085106.9828,100.00,98,0,0,1,98,3,100,3e-46,182
Exophiala_salmonis_CBS157.67_T,ERR1085106.9273,100.00,98,0,0,1,98,3,100,3e-46,182
Exophiala_salmonis_CBS157.67_T,ERR1085106.6370,100.00,98,0,0,1,98,3,100,3e-46,182
Exophiala_salmonis_CBS157.67_T,ERR1085106.5048,100.00,98,0,0,1,98,3,100,3e-46,182
Exophiala_salmonis_CBS157.67_T,ERR1085106.4892,100.00,98,0,0,1,98,3,100,3e-46,182
Exophiala_salmonis_CBS157.67_T,ERR1085106.4864,100.00,98,0,0,1,98,3,100,3e-46,182
Exophiala_salmonis_CBS157.67_T,ERR1085106.3392,100.00,98,0,0,1,98,3,100,3e-46,182
Exophiala_salmonis_CBS157.67_T,ERR1085106.2109,100.00,98,0,0,1,98,3,100,3e-46,182
Exophiala_salmonis_CBS157.67_T,ERR1085106.1739,100.00,98,0,0,1,98,3,100,3e-46,182
Exophiala_salmonis_CBS157.67_T,ERR1085106.1460,100.00,98,0,0,1,98,3,100,3e-46,182
Exophiala_salmonis_CBS157.67_T,ERR1085106.236,100.00,98,0,0,1,98,3,100,3e-46,182
Exophiala_salmonis_CBS157.67_T,ERR1085106.164,100.00,98,0,0,1,98,3,100,3e-46,182
Exophiala_salmonis_CBS157.67_T,ERR1085106.23,100.00,98,0,0,1,98,3,100,3e-46,182
Exophiala_salmonis_CBS157.67_T,ERR1085106.6932,100.00,96,0,0,1,96,3,98,4e-45,178
Exophiala_salmonis_CBS157.67_T,ERR1085106.37015,98.98,98,1,0,1,98,3,100,2e-44,176
Exophiala_salmonis_CBS157.67_T,ERR1085106.29396,98.98,98,1,0,1,98,3,100,2e-44,176
Exophiala_salmonis_CBS157.67_T,ERR1085106.28878,98.98,98,1,0,1,98,3,100,2e-44,176
Exophiala_salmonis_CBS157.67_T,ERR1085106.27415,98.98,98,1,0,1,98,3,100,2e-44,176
Exophiala_salmonis_CBS157.67_T,ERR1085106.22643,98.98,98,1,0,1,98,3,100,2e-44,176
Exophiala_salmonis_CBS157.67_T,ERR1085106.22434,98.98,98,1,0,1,98,3,100,2e-44,176
Exophiala_salmonis_CBS157.67_T,ERR1085106.17277,98.98,98,1,0,1,98,3,100,2e-44,176
Exophiala_salmonis_CBS157.67_T,ERR1085106.13064,98.98,98,1,0,1,98,3,100,2e-44,176
Exophiala_salmonis_CBS157.67_T,ERR1085106.12532,98.98,98,1,0,1,98,3,100,2e-44,176
Exophiala_salmonis_CBS157.67_T,ERR1085106.10653,98.98,98,1,0,1,98,3,100,2e-44,176
Exophiala_salmonis_CBS157.67_T,ERR1085106.8363,98.98,98,1,0,1,98,3,100,2e-44,176
Exophiala_salmonis_CBS157.67_T,ERR1085106.6901,98.98,98,1,0,1,98,3,100,2e-44,176
Exophiala_salmonis_CBS157.67_T,ERR1085106.2300,100.00,95,0,0,1,95,3,97,2e-44,176
Exophiala_salmonis_CBS157.67_T,ERR1085106.300,98.98,98,1,0,1,98,3,100,2e-44,176
Exophiala_salmonis_CBS157.67_T,ERR1085106.26479,98.97,97,1,0,1,97,3,99,6e-44,174
Exophiala_salmonis_CBS157.67_T,ERR1085106.34974,97.96,98,2,0,1,98,3,100,7e-43,171
Exophiala_salmonis_CBS157.67_T,ERR1085106.34026,97.96,98,2,0,1,98,3,100,7e-43,171
Exophiala_salmonis_CBS157.67_T,ERR1085106.31399,97.96,98,2,0,1,98,3,100,7e-43,171
Exophiala_salmonis_CBS157.67_T,ERR1085106.30763,97.96,98,2,0,1,98,3,100,7e-43,171
Exophiala_salmonis_CBS157.67_T,ERR1085106.30711,97.96,98,2,0,1,98,3,100,7e-43,171
Exophiala_salmonis_CBS157.67_T,ERR1085106.30673,97.96,98,2,0,1,98,3,100,7e-43,171
Exophiala_salmonis_CBS157.67_T,ERR1085106.30670,97.96,98,2,0,1,98,3,100,7e-43,171
Exophiala_salmonis_CBS157.67_T,ERR1085106.29948,97.96,98,2,0,1,98,3,100,7e-43,171
Exophiala_salmonis_CBS157.67_T,ERR1085106.29832,97.96,98,2,0,1,98,3,100,7e-43,171
Exophiala_salmonis_CBS157.67_T,ERR1085106.27817,97.96,98,2,0,1,98,3,100,7e-43,171
Exophiala_salmonis_CBS157.67_T,ERR1085106.26988,97.96,98,2,0,1,98,3,100,7e-43,171
Exophiala_salmonis_CBS157.67_T,ERR1085106.25009,97.96,98,2,0,1,98,3,100,7e-43,171
Exophiala_salmonis_CBS157.67_T,ERR1085106.24111,97.96,98,2,0,1,98,3,100,7e-43,171
Exophiala_salmonis_CBS157.67_T,ERR1085106.20747,97.96,98,2,0,1,98,3,100,7e-43,171
Exophiala_salmonis_CBS157.67_T,ERR1085106.19146,97.96,98,2,0,1,98,3,100,7e-43,171
Exophiala_salmonis_CBS157.67_T,ERR1085106.18059,97.96,98,2,0,1,98,3,100,7e-43,171
Exophiala_salmonis_CBS157.67_T,ERR1085106.15590,97.96,98,2,0,1,98,3,100,7e-43,171
Exophiala_salmonis_CBS157.67_T,ERR1085106.13239,97.96,98,2,0,1,98,3,100,7e-43,171
Exophiala_salmonis_CBS157.67_T,ERR1085106.11204,97.96,98,2,0,1,98,3,100,7e-43,171
Exophiala_salmonis_CBS157.67_T,ERR1085106.10452,97.96,98,2,0,1,98,3,100,7e-43,171
Exophiala_salmonis_CBS157.67_T,ERR1085106.9085,97.96,98,2,0,1,98,3,100,7e-43,171
Exophiala_salmonis_CBS157.67_T,ERR1085106.9071,97.96,98,2,0,1,98,3,100,7e-43,171
Exophiala_salmonis_CBS157.67_T,ERR1085106.5956,97.96,98,2,0,1,98,3,100,7e-43,171
Exophiala_salmonis_CBS157.67_T,ERR1085106.4173,97.96,98,2,0,1,98,3,100,7e-43,171
Exophiala_salmonis_CBS157.67_T,ERR1085106.3112,97.96,98,2,0,1,98,3,100,7e-43,171
Exophiala_salmonis_CBS157.67_T,ERR1085106.1972,97.96,98,2,0,1,98,3,100,7e-43,171
Exophiala_salmonis_CBS157.67_T,ERR1085106.27818,97.94,97,2,0,2,98,4,100,3e-42,169
Exophiala_salmonis_CBS157.67_T,ERR1085106.30492,96.94,98,3,0,1,98,3,100,3e-41,165
Exophiala_salmonis_CBS157.67_T,ERR1085106.29894,96.94,98,3,0,1,98,3,100,3e-41,165
Exophiala_salmonis_CBS157.67_T,ERR1085106.28361,96.94,98,3,0,1,98,3,100,3e-41,165
Exophiala_salmonis_CBS157.67_T,ERR1085106.22676,96.94,98,3,0,1,98,3,100,3e-41,165
Exophiala_salmonis_CBS157.67_T,ERR1085106.8317,96.94,98,3,0,1,98,3,100,3e-41,165
Exophiala_salmonis_CBS157.67_T,ERR1085106.38415,95.92,98,4,0,1,98,3,100,2e-39,159
Exophiala_salmonis_CBS157.67_T,ERR1085106.37778,95.92,98,4,0,1,98,3,100,2e-39,159
Exophiala_salmonis_CBS157.67_T,ERR1085106.37501,95.92,98,4,0,1,98,3,100,2e-39,159
Exophiala_salmonis_CBS157.67_T,ERR1085106.37411,95.92,98,4,0,1,98,3,100,2e-39,159
Exophiala_salmonis_CBS157.67_T,ERR1085106.37374,95.92,98,4,0,1,98,3,100,2e-39,159
Exophiala_salmonis_CBS157.67_T,ERR1085106.37180,95.92,98,4,0,1,98,3,100,2e-39,159
Exophiala_salmonis_CBS157.67_T,ERR1085106.36531,95.92,98,4,0,1,98,3,100,2e-39,159
Exophiala_salmonis_CBS157.67_T,ERR1085106.36397,95.92,98,4,0,1,98,3,100,2e-39,159
Exophiala_salmonis_CBS157.67_T,ERR1085106.36125,95.92,98,4,0,1,98,3,100,2e-39,159
Exophiala_salmonis_CBS157.67_T,ERR1085106.36076,95.92,98,4,0,1,98,3,100,2e-39,159
Exophiala_salmonis_CBS157.67_T,ERR1085106.35740,95.92,98,4,0,1,98,3,100,2e-39,159
Exophiala_salmonis_CBS157.67_T,ERR1085106.35528,95.92,98,4,0,1,98,3,100,2e-39,159
Exophiala_salmonis_CBS157.67_T,ERR1085106.34908,95.92,98,4,0,1,98,3,100,2e-39,159
Exophiala_salmonis_CBS157.67_T,ERR1085106.34563,95.92,98,4,0,1,98,3,100,2e-39,159
Exophiala_salmonis_CBS157.67_T,ERR1085106.34501,95.92,98,4,0,1,98,3,100,2e-39,159
Exophiala_salmonis_CBS157.67_T,ERR1085106.34434,95.92,98,4,0,1,98,3,100,2e-39,159
Exophiala_salmonis_CBS157.67_T,ERR1085106.33981,95.92,98,4,0,1,98,3,100,2e-39,159
Exophiala_salmonis_CBS157.67_T,ERR1085106.33432,95.92,98,4,0,1,98,3,100,2e-39,159
Exophiala_salmonis_CBS157.67_T,ERR1085106.33419,95.92,98,4,0,1,98,3,100,2e-39,159
Exophiala_salmonis_CBS157.67_T,ERR1085106.33151,95.92,98,4,0,1,98,3,100,2e-39,159
Exophiala_salmonis_CBS157.67_T,ERR1085106.32649,95.92,98,4,0,1,98,3,100,2e-39,159
Exophiala_salmonis_CBS157.67_T,ERR1085106.32305,95.92,98,4,0,1,98,3,100,2e-39,159
Exophiala_salmonis_CBS157.67_T,ERR1085106.31946,95.92,98,4,0,1,98,3,100,2e-39,159
Exophiala_salmonis_CBS157.67_T,ERR1085106.28679,95.92,98,4,0,1,98,3,100,2e-39,159
Exophiala_salmonis_CBS157.67_T,ERR1085106.28529,95.92,98,4,0,1,98,3,100,2e-39,159
Exophiala_salmonis_CBS157.67_T,ERR1085106.27927,95.92,98,4,0,1,98,3,100,2e-39,159
Exophiala_salmonis_CBS157.67_T,ERR1085106.27774,95.92,98,4,0,1,98,3,100,2e-39,159
Exophiala_salmonis_CBS157.67_T,ERR1085106.27582,95.92,98,4,0,1,98,3,100,2e-39,159
Exophiala_salmonis_CBS157.67_T,ERR1085106.26249,95.92,98,4,0,1,98,3,100,2e-39,159
Exophiala_salmonis_CBS157.67_T,ERR1085106.26236,95.92,98,4,0,1,98,3,100,2e-39,159
Exophiala_salmonis_CBS157.67_T,ERR1085106.25732,95.92,98,4,0,1,98,3,100,2e-39,159
Exophiala_salmonis_CBS157.67_T,ERR1085106.25059,95.92,98,4,0,1,98,3,100,2e-39,159
Exophiala_salmonis_CBS157.67_T,ERR1085106.25052,95.92,98,4,0,1,98,3,100,2e-39,159
Exophiala_salmonis_CBS157.67_T,ERR1085106.24664,95.92,98,4,0,1,98,3,100,2e-39,159
Exophiala_salmonis_CBS157.67_T,ERR1085106.24638,95.92,98,4,0,1,98,3,100,2e-39,159
Exophiala_salmonis_CBS157.67_T,ERR1085106.24512,95.92,98,4,0,1,98,3,100,2e-39,159
Exophiala_salmonis_CBS157.67_T,ERR1085106.23958,95.92,98,4,0,1,98,3,100,2e-39,159
Exophiala_salmonis_CBS157.67_T,ERR1085106.23791,95.92,98,4,0,1,98,3,100,2e-39,159
Exophiala_salmonis_CBS157.67_T,ERR1085106.23382,95.92,98,4,0,1,98,3,100,2e-39,159
Exophiala_salmonis_CBS157.67_T,ERR1085106.22709,95.92,98,4,0,1,98,3,100,2e-39,159
Exophiala_salmonis_CBS157.67_T,ERR1085106.22708,95.92,98,4,0,1,98,3,100,2e-39,159
Exophiala_salmonis_CBS157.67_T,ERR1085106.22618,95.92,98,4,0,1,98,3,100,2e-39,159
Exophiala_salmonis_CBS157.67_T,ERR1085106.22257,95.92,98,4,0,1,98,3,100,2e-39,159
Exophiala_salmonis_CBS157.67_T,ERR1085106.21656,95.92,98,4,0,1,98,3,100,2e-39,159
Exophiala_salmonis_CBS157.67_T,ERR1085106.21016,95.92,98,4,0,1,98,3,100,2e-39,159
Exophiala_salmonis_CBS157.67_T,ERR1085106.20878,95.92,98,4,0,1,98,3,100,2e-39,159
Exophiala_salmonis_CBS157.67_T,ERR1085106.19947,95.92,98,4,0,1,98,3,100,2e-39,159
Exophiala_salmonis_CBS157.67_T,ERR1085106.19645,95.92,98,4,0,1,98,3,100,2e-39,159
Exophiala_salmonis_CBS157.67_T,ERR1085106.19497,95.92,98,4,0,1,98,3,100,2e-39,159
Exophiala_salmonis_CBS157.67_T,ERR1085106.18145,95.92,98,4,0,1,98,3,100,2e-39,159
Exophiala_salmonis_CBS157.67_T,ERR1085106.17398,95.92,98,4,0,1,98,3,100,2e-39,159
Exophiala_salmonis_CBS157.67_T,ERR1085106.16949,95.92,98,4,0,1,98,3,100,2e-39,159
Exophiala_salmonis_CBS157.67_T,ERR1085106.16776,95.92,98,4,0,1,98,3,100,2e-39,159
Exophiala_salmonis_CBS157.67_T,ERR1085106.16559,95.92,98,4,0,1,98,3,100,2e-39,159
Exophiala_salmonis_CBS157.67_T,ERR1085106.15981,95.92,98,4,0,1,98,3,100,2e-39,159
Exophiala_salmonis_CBS157.67_T,ERR1085106.15904,95.92,98,4,0,1,98,3,100,2e-39,159
Exophiala_salmonis_CBS157.67_T,ERR1085106.15391,95.92,98,4,0,1,98,3,100,2e-39,159
Exophiala_salmonis_CBS157.67_T,ERR1085106.15323,95.92,98,4,0,1,98,3,100,2e-39,159
Exophiala_salmonis_CBS157.67_T,ERR1085106.14225,95.92,98,4,0,1,98,3,100,2e-39,159
Exophiala_salmonis_CBS157.67_T,ERR1085106.13322,95.92,98,4,0,1,98,3,100,2e-39,159
Exophiala_salmonis_CBS157.67_T,ERR1085106.12906,95.92,98,4,0,1,98,3,100,2e-39,159
Exophiala_salmonis_CBS157.67_T,ERR1085106.12593,95.92,98,4,0,1,98,3,100,2e-39,159
Exophiala_salmonis_CBS157.67_T,ERR1085106.12535,95.92,98,4,0,1,98,3,100,2e-39,159
Exophiala_salmonis_CBS157.67_T,ERR1085106.12250,95.92,98,4,0,1,98,3,100,2e-39,159
Exophiala_salmonis_CBS157.67_T,ERR1085106.11946,95.92,98,4,0,1,98,3,100,2e-39,159
Exophiala_salmonis_CBS157.67_T,ERR1085106.11887,95.92,98,4,0,1,98,3,100,2e-39,159
Exophiala_salmonis_CBS157.67_T,ERR1085106.11835,95.92,98,4,0,1,98,3,100,2e-39,159
Exophiala_salmonis_CBS157.67_T,ERR1085106.11461,95.92,98,4,0,1,98,3,100,2e-39,159
Exophiala_salmonis_CBS157.67_T,ERR1085106.10762,95.92,98,4,0,1,98,3,100,2e-39,159
Exophiala_salmonis_CBS157.67_T,ERR1085106.10379,95.92,98,4,0,1,98,3,100,2e-39,159
Exophiala_salmonis_CBS157.67_T,ERR1085106.10081,95.92,98,4,0,1,98,3,100,2e-39,159
Exophiala_salmonis_CBS157.67_T,ERR1085106.9621,95.92,98,4,0,1,98,3,100,2e-39,159
Exophiala_salmonis_CBS157.67_T,ERR1085106.9599,95.92,98,4,0,1,98,3,100,2e-39,159
Exophiala_salmonis_CBS157.67_T,ERR1085106.9236,95.92,98,4,0,1,98,3,100,2e-39,159
Exophiala_salmonis_CBS157.67_T,ERR1085106.8894,95.92,98,4,0,1,98,3,100,2e-39,159
Exophiala_salmonis_CBS157.67_T,ERR1085106.8273,95.92,98,4,0,1,98,3,100,2e-39,159
Exophiala_salmonis_CBS157.67_T,ERR1085106.7796,95.92,98,4,0,1,98,3,100,2e-39,159
Exophiala_salmonis_CBS157.67_T,ERR1085106.7650,95.92,98,4,0,1,98,3,100,2e-39,159
Exophiala_salmonis_CBS157.67_T,ERR1085106.7622,95.92,98,4,0,1,98,3,100,2e-39,159
Exophiala_salmonis_CBS157.67_T,ERR1085106.6766,95.92,98,4,0,1,98,3,100,2e-39,159
Exophiala_salmonis_CBS157.67_T,ERR1085106.6502,95.92,98,4,0,1,98,3,100,2e-39,159
Exophiala_salmonis_CBS157.67_T,ERR1085106.6277,95.92,98,4,0,1,98,3,100,2e-39,159
Exophiala_salmonis_CBS157.67_T,ERR1085106.6241,95.92,98,4,0,1,98,3,100,2e-39,159
Exophiala_salmonis_CBS157.67_T,ERR1085106.5577,95.92,98,4,0,1,98,3,100,2e-39,159
Exophiala_salmonis_CBS157.67_T,ERR1085106.5418,95.92,98,4,0,1,98,3,100,2e-39,159
Exophiala_salmonis_CBS157.67_T,ERR1085106.4742,95.92,98,4,0,1,98,3,100,2e-39,159
Exophiala_salmonis_CBS157.67_T,ERR1085106.4309,95.92,98,4,0,1,98,3,100,2e-39,159
Exophiala_salmonis_CBS157.67_T,ERR1085106.4189,95.92,98,4,0,1,98,3,100,2e-39,159
Exophiala_salmonis_CBS157.67_T,ERR1085106.3868,95.92,98,4,0,1,98,3,100,2e-39,159
Exophiala_salmonis_CBS157.67_T,ERR1085106.3813,95.92,98,4,0,1,98,3,100,2e-39,159
Exophiala_salmonis_CBS157.67_T,ERR1085106.3223,95.92,98,4,0,1,98,3,100,2e-39,159
Exophiala_salmonis_CBS157.67_T,ERR1085106.2840,95.92,98,4,0,1,98,3,100,2e-39,159
Exophiala_salmonis_CBS157.67_T,ERR1085106.2794,95.92,98,4,0,1,98,3,100,2e-39,159
Exophiala_salmonis_CBS157.67_T,ERR1085106.2689,95.92,98,4,0,1,98,3,100,2e-39,159
Exophiala_salmonis_CBS157.67_T,ERR1085106.2177,95.92,98,4,0,1,98,3,100,2e-39,159
Exophiala_salmonis_CBS157.67_T,ERR1085106.1622,95.92,98,4,0,1,98,3,100,2e-39,159
Exophiala_salmonis_CBS157.67_T,ERR1085106.984,95.92,98,4,0,1,98,3,100,2e-39,159
Exophiala_salmonis_CBS157.67_T,ERR1085106.821,95.92,98,4,0,1,98,3,100,2e-39,159
Exophiala_salmonis_CBS157.67_T,ERR1085106.529,95.92,98,4,0,1,98,3,100,2e-39,159
Exophiala_salmonis_CBS157.67_T,ERR1085106.210,95.92,98,4,0,1,98,3,100,2e-39,159
Exophiala_salmonis_CBS157.67_T,ERR1085106.12975,95.83,96,4,0,3,98,5,100,2e-38,156
Exophiala_salmonis_CBS157.67_T,ERR1085106.12974,95.83,96,4,0,3,98,5,100,2e-38,156
Exophiala_salmonis_CBS157.67_T,ERR1085106.9431,95.83,96,4,0,1,96,3,98,2e-38,156
Exophiala_salmonis_CBS157.67_T,ERR1085106.38361,94.90,98,5,0,1,98,3,100,8e-38,154
Exophiala_salmonis_CBS157.67_T,ERR1085106.37783,94.90,98,5,0,1,98,3,100,8e-38,154
Exophiala_salmonis_CBS157.67_T,ERR1085106.37712,94.90,98,5,0,1,98,3,100,8e-38,154
Exophiala_salmonis_CBS157.67_T,ERR1085106.37674,94.90,98,5,0,1,98,3,100,8e-38,154
Exophiala_salmonis_CBS157.67_T,ERR1085106.37669,94.90,98,5,0,1,98,3,100,8e-38,154
Exophiala_salmonis_CBS157.67_T,ERR1085106.37533,94.90,98,5,0,1,98,3,100,8e-38,154
Exophiala_salmonis_CBS157.67_T,ERR1085106.37520,94.90,98,5,0,1,98,3,100,8e-38,154
Exophiala_salmonis_CBS157.67_T,ERR1085106.37246,94.90,98,5,0,1,98,3,100,8e-38,154
Exophiala_salmonis_CBS157.67_T,ERR1085106.37217,94.90,98,5,0,1,98,3,100,8e-38,154
Exophiala_salmonis_CBS157.67_T,ERR1085106.37026,94.90,98,5,0,1,98,3,100,8e-38,154
Exophiala_salmonis_CBS157.67_T,ERR1085106.36962,94.90,98,5,0,1,98,3,100,8e-38,154
Exophiala_salmonis_CBS157.67_T,ERR1085106.36760,94.90,98,5,0,1,98,3,100,8e-38,154
Exophiala_salmonis_CBS157.67_T,ERR1085106.36583,94.90,98,5,0,1,98,3,100,8e-38,154
Exophiala_salmonis_CBS157.67_T,ERR1085106.36141,94.90,98,5,0,1,98,3,100,8e-38,154
Exophiala_salmonis_CBS157.67_T,ERR1085106.36083,94.90,98,5,0,1,98,3,100,8e-38,154
Exophiala_salmonis_CBS157.67_T,ERR1085106.35696,94.90,98,5,0,1,98,3,100,8e-38,154
Exophiala_salmonis_CBS157.67_T,ERR1085106.34998,94.90,98,5,0,1,98,3,100,8e-38,154
Exophiala_salmonis_CBS157.67_T,ERR1085106.34537,94.90,98,5,0,1,98,3,100,8e-38,154
Exophiala_salmonis_CBS157.67_T,ERR1085106.34288,94.90,98,5,0,1,98,3,100,8e-38,154
Exophiala_salmonis_CBS157.67_T,ERR1085106.34213,94.90,98,5,0,1,98,3,100,8e-38,154
Exophiala_salmonis_CBS157.67_T,ERR1085106.33893,94.90,98,5,0,1,98,3,100,8e-38,154
Exophiala_salmonis_CBS157.67_T,ERR1085106.33699,94.90,98,5,0,1,98,3,100,8e-38,154
Exophiala_salmonis_CBS157.67_T,ERR1085106.33549,94.90,98,5,0,1,98,3,100,8e-38,154
Exophiala_salmonis_CBS157.67_T,ERR1085106.32891,94.90,98,5,0,1,98,3,100,8e-38,154
Exophiala_salmonis_CBS157.67_T,ERR1085106.31899,94.90,98,5,0,1,98,3,100,8e-38,154
Exophiala_salmonis_CBS157.67_T,ERR1085106.31887,94.90,98,5,0,1,98,3,100,8e-38,154
Exophiala_salmonis_CBS157.67_T,ERR1085106.31885,94.90,98,5,0,1,98,3,100,8e-38,154
Exophiala_salmonis_CBS157.67_T,ERR1085106.31795,94.90,98,5,0,1,98,3,100,8e-38,154
Exophiala_salmonis_CBS157.67_T,ERR1085106.31754,94.90,98,5,0,1,98,3,100,8e-38,154
Exophiala_salmonis_CBS157.67_T,ERR1085106.31682,94.90,98,5,0,1,98,3,100,8e-38,154
Exophiala_salmonis_CBS157.67_T,ERR1085106.31666,94.90,98,5,0,1,98,3,100,8e-38,154
Exophiala_salmonis_CBS157.67_T,ERR1085106.31436,94.90,98,5,0,1,98,3,100,8e-38,154
Exophiala_salmonis_CBS157.67_T,ERR1085106.31430,94.90,98,5,0,1,98,3,100,8e-38,154
Exophiala_salmonis_CBS157.67_T,ERR1085106.30595,94.90,98,5,0,1,98,3,100,8e-38,154
Exophiala_salmonis_CBS157.67_T,ERR1085106.30075,94.90,98,5,0,1,98,3,100,8e-38,154
Exophiala_salmonis_CBS157.67_T,ERR1085106.29368,94.90,98,5,0,1,98,3,100,8e-38,154
Exophiala_salmonis_CBS157.67_T,ERR1085106.29330,94.90,98,5,0,1,98,3,100,8e-38,154
Exophiala_salmonis_CBS157.67_T,ERR1085106.28977,94.90,98,5,0,1,98,3,100,8e-38,154
Exophiala_salmonis_CBS157.67_T,ERR1085106.28530,94.90,98,5,0,1,98,3,100,8e-38,154
Exophiala_salmonis_CBS157.67_T,ERR1085106.28425,94.90,98,5,0,1,98,3,100,8e-38,154
Exophiala_salmonis_CBS157.67_T,ERR1085106.28129,94.90,98,5,0,1,98,3,100,8e-38,154
Exophiala_salmonis_CBS157.67_T,ERR1085106.28049,94.90,98,5,0,1,98,3,100,8e-38,154
Exophiala_salmonis_CBS157.67_T,ERR1085106.28003,94.90,98,5,0,1,98,3,100,8e-38,154
Exophiala_salmonis_CBS157.67_T,ERR1085106.27827,94.90,98,5,0,1,98,3,100,8e-38,154
Exophiala_salmonis_CBS157.67_T,ERR1085106.27492,94.90,98,5,0,1,98,3,100,8e-38,154
Exophiala_salmonis_CBS157.67_T,ERR1085106.27402,94.90,98,5,0,1,98,3,100,8e-38,154
Exophiala_salmonis_CBS157.67_T,ERR1085106.27059,94.90,98,5,0,1,98,3,100,8e-38,154
Exophiala_salmonis_CBS157.67_T,ERR1085106.26896,94.90,98,5,0,1,98,3,100,8e-38,154
Exophiala_salmonis_CBS157.67_T,ERR1085106.26328,94.90,98,5,0,1,98,3,100,8e-38,154
Exophiala_salmonis_CBS157.67_T,ERR1085106.26193,94.90,98,5,0,1,98,3,100,8e-38,154
Exophiala_salmonis_CBS157.67_T,ERR1085106.26032,94.90,98,5,0,1,98,3,100,8e-38,154
Exophiala_salmonis_CBS157.67_T,ERR1085106.25811,94.90,98,5,0,1,98,3,100,8e-38,154
Exophiala_salmonis_CBS157.67_T,ERR1085106.25281,94.90,98,5,0,1,98,3,100,8e-38,154
Exophiala_salmonis_CBS157.67_T,ERR1085106.25273,94.90,98,5,0,1,98,3,100,8e-38,154
Exophiala_salmonis_CBS157.67_T,ERR1085106.24947,94.90,98,5,0,1,98,3,100,8e-38,154
Exophiala_salmonis_CBS157.67_T,ERR1085106.24071,94.90,98,5,0,1,98,3,100,8e-38,154
Exophiala_salmonis_CBS157.67_T,ERR1085106.22989,94.90,98,5,0,1,98,3,100,8e-38,154
Exophiala_salmonis_CBS157.67_T,ERR1085106.22727,94.90,98,5,0,1,98,3,100,8e-38,154
Exophiala_salmonis_CBS157.67_T,ERR1085106.22537,94.90,98,5,0,1,98,3,100,8e-38,154
Exophiala_salmonis_CBS157.67_T,ERR1085106.21736,94.90,98,5,0,1,98,3,100,8e-38,154
Exophiala_salmonis_CBS157.67_T,ERR1085106.21735,94.90,98,5,0,1,98,3,100,8e-38,154
Exophiala_salmonis_CBS157.67_T,ERR1085106.21617,94.90,98,5,0,1,98,3,100,8e-38,154
Exophiala_salmonis_CBS157.67_T,ERR1085106.21123,94.90,98,5,0,1,98,3,100,8e-38,154
Exophiala_salmonis_CBS157.67_T,ERR1085106.20594,94.90,98,5,0,1,98,3,100,8e-38,154
Exophiala_salmonis_CBS157.67_T,ERR1085106.19979,94.90,98,5,0,1,98,3,100,8e-38,154
Exophiala_salmonis_CBS157.67_T,ERR1085106.19307,94.90,98,5,0,1,98,3,100,8e-38,154
Exophiala_salmonis_CBS157.67_T,ERR1085106.18932,94.90,98,5,0,1,98,3,100,8e-38,154
Exophiala_salmonis_CBS157.67_T,ERR1085106.18923,94.90,98,5,0,1,98,3,100,8e-38,154
Exophiala_salmonis_CBS157.67_T,ERR1085106.18817,94.90,98,5,0,1,98,3,100,8e-38,154
Exophiala_salmonis_CBS157.67_T,ERR1085106.18535,94.90,98,5,0,1,98,3,100,8e-38,154
Exophiala_salmonis_CBS157.67_T,ERR1085106.18381,94.90,98,5,0,1,98,3,100,8e-38,154
Exophiala_salmonis_CBS157.67_T,ERR1085106.18371,94.90,98,5,0,1,98,3,100,8e-38,154
Exophiala_salmonis_CBS157.67_T,ERR1085106.18297,95.79,95,4,0,4,98,6,100,8e-38,154
Exophiala_salmonis_CBS157.67_T,ERR1085106.18166,94.90,98,5,0,1,98,3,100,8e-38,154
Exophiala_salmonis_CBS157.67_T,ERR1085106.17997,94.90,98,5,0,1,98,3,100,8e-38,154
Exophiala_salmonis_CBS157.67_T,ERR1085106.17781,94.90,98,5,0,1,98,3,100,8e-38,154
Exophiala_salmonis_CBS157.67_T,ERR1085106.17611,94.90,98,5,0,1,98,3,100,8e-38,154
Exophiala_salmonis_CBS157.67_T,ERR1085106.17483,94.90,98,5,0,1,98,3,100,8e-38,154
Exophiala_salmonis_CBS157.67_T,ERR1085106.17302,94.90,98,5,0,1,98,3,100,8e-38,154
Exophiala_salmonis_CBS157.67_T,ERR1085106.17097,94.90,98,5,0,1,98,3,100,8e-38,154
Exophiala_salmonis_CBS157.67_T,ERR1085106.16745,94.90,98,5,0,1,98,3,100,8e-38,154
Exophiala_salmonis_CBS157.67_T,ERR1085106.16739,94.90,98,5,0,1,98,3,100,8e-38,154
Exophiala_salmonis_CBS157.67_T,ERR1085106.16619,94.90,98,5,0,1,98,3,100,8e-38,154
Exophiala_salmonis_CBS157.67_T,ERR1085106.16279,94.90,98,5,0,1,98,3,100,8e-38,154
Exophiala_salmonis_CBS157.67_T,ERR1085106.15862,94.90,98,5,0,1,98,3,100,8e-38,154
Exophiala_salmonis_CBS157.67_T,ERR1085106.15036,94.90,98,5,0,1,98,3,100,8e-38,154
Exophiala_salmonis_CBS157.67_T,ERR1085106.14933,94.90,98,5,0,1,98,3,100,8e-38,154
Exophiala_salmonis_CBS157.67_T,ERR1085106.14644,94.90,98,5,0,1,98,3,100,8e-38,154
Exophiala_salmonis_CBS157.67_T,ERR1085106.14487,94.90,98,5,0,1,98,3,100,8e-38,154
Exophiala_salmonis_CBS157.67_T,ERR1085106.14155,94.90,98,5,0,1,98,3,100,8e-38,154
Exophiala_salmonis_CBS157.67_T,ERR1085106.13887,94.90,98,5,0,1,98,3,100,8e-38,154
Exophiala_salmonis_CBS157.67_T,ERR1085106.13867,94.90,98,5,0,1,98,3,100,8e-38,154
Exophiala_salmonis_CBS157.67_T,ERR1085106.13739,94.90,98,5,0,1,98,3,100,8e-38,154
Exophiala_salmonis_CBS157.67_T,ERR1085106.13551,94.90,98,5,0,1,98,3,100,8e-38,154
Exophiala_salmonis_CBS157.67_T,ERR1085106.13447,94.90,98,5,0,1,98,3,100,8e-38,154
Exophiala_salmonis_CBS157.67_T,ERR1085106.13200,94.90,98,5,0,1,98,3,100,8e-38,154
Exophiala_salmonis_CBS157.67_T,ERR1085106.13180,94.90,98,5,0,1,98,3,100,8e-38,154
Exophiala_salmonis_CBS157.67_T,ERR1085106.12846,94.90,98,5,0,1,98,3,100,8e-38,154
Exophiala_salmonis_CBS157.67_T,ERR1085106.12801,94.90,98,5,0,1,98,3,100,8e-38,154
Exophiala_salmonis_CBS157.67_T,ERR1085106.12739,94.90,98,5,0,1,98,3,100,8e-38,154
Exophiala_salmonis_CBS157.67_T,ERR1085106.12669,94.90,98,5,0,1,98,3,100,8e-38,154
Exophiala_salmonis_CBS157.67_T,ERR1085106.12662,94.90,98,5,0,1,98,3,100,8e-38,154
Exophiala_salmonis_CBS157.67_T,ERR1085106.12645,94.90,98,5,0,1,98,3,100,8e-38,154
Exophiala_salmonis_CBS157.67_T,ERR1085106.12406,94.90,98,5,0,1,98,3,100,8e-38,154
Exophiala_salmonis_CBS157.67_T,ERR1085106.12323,94.90,98,5,0,1,98,3,100,8e-38,154
Exophiala_salmonis_CBS157.67_T,ERR1085106.12309,94.90,98,5,0,1,98,3,100,8e-38,154
Exophiala_salmonis_CBS157.67_T,ERR1085106.12217,94.90,98,5,0,1,98,3,100,8e-38,154
Exophiala_salmonis_CBS157.67_T,ERR1085106.11588,94.90,98,5,0,1,98,3,100,8e-38,154
Exophiala_salmonis_CBS157.67_T,ERR1085106.11561,94.90,98,5,0,1,98,3,100,8e-38,154
Exophiala_salmonis_CBS157.67_T,ERR1085106.11353,94.90,98,5,0,1,98,3,100,8e-38,154
Exophiala_salmonis_CBS157.67_T,ERR1085106.11253,94.90,98,5,0,1,98,3,100,8e-38,154
Exophiala_salmonis_CBS157.67_T,ERR1085106.11147,94.90,98,5,0,1,98,3,100,8e-38,154
Exophiala_salmonis_CBS157.67_T,ERR1085106.11093,94.90,98,5,0,1,98,3,100,8e-38,154
Exophiala_salmonis_CBS157.67_T,ERR1085106.10890,94.90,98,5,0,1,98,3,100,8e-38,154
Exophiala_salmonis_CBS157.67_T,ERR1085106.10406,94.90,98,5,0,1,98,3,100,8e-38,154
Exophiala_salmonis_CBS157.67_T,ERR1085106.10256,94.90,98,5,0,1,98,3,100,8e-38,154
Exophiala_salmonis_CBS157.67_T,ERR1085106.9744,94.90,98,5,0,1,98,3,100,8e-38,154
Exophiala_salmonis_CBS157.67_T,ERR1085106.9666,94.90,98,5,0,1,98,3,100,8e-38,154
Exophiala_salmonis_CBS157.67_T,ERR1085106.9592,94.90,98,5,0,1,98,3,100,8e-38,154
Exophiala_salmonis_CBS157.67_T,ERR1085106.9319,94.90,98,5,0,1,98,3,100,8e-38,154
Exophiala_salmonis_CBS157.67_T,ERR1085106.9253,94.90,98,5,0,1,98,3,100,8e-38,154
Exophiala_salmonis_CBS157.67_T,ERR1085106.9164,94.90,98,5,0,1,98,3,100,8e-38,154
Exophiala_salmonis_CBS157.67_T,ERR1085106.9097,94.90,98,5,0,1,98,3,100,8e-38,154
Exophiala_salmonis_CBS157.67_T,ERR1085106.8228,94.90,98,5,0,1,98,3,100,8e-38,154
Exophiala_salmonis_CBS157.67_T,ERR1085106.8194,94.90,98,5,0,1,98,3,100,8e-38,154
Exophiala_salmonis_CBS157.67_T,ERR1085106.8088,94.90,98,5,0,1,98,3,100,8e-38,154
Exophiala_salmonis_CBS157.67_T,ERR1085106.8025,94.90,98,5,0,1,98,3,100,8e-38,154
Exophiala_salmonis_CBS157.67_T,ERR1085106.7874,94.90,98,5,0,1,98,3,100,8e-38,154
Exophiala_salmonis_CBS157.67_T,ERR1085106.7708,94.90,98,5,0,1,98,3,100,8e-38,154
Exophiala_salmonis_CBS157.67_T,ERR1085106.7489,94.90,98,5,0,1,98,3,100,8e-38,154
Exophiala_salmonis_CBS157.67_T,ERR1085106.7184,94.90,98,5,0,1,98,3,100,8e-38,154
Exophiala_salmonis_CBS157.67_T,ERR1085106.7039,94.90,98,5,0,1,98,3,100,8e-38,154
Exophiala_salmonis_CBS157.67_T,ERR1085106.6306,94.90,98,5,0,1,98,3,100,8e-38,154
Exophiala_salmonis_CBS157.67_T,ERR1085106.5774,94.90,98,5,0,1,98,3,100,8e-38,154
Exophiala_salmonis_CBS157.67_T,ERR1085106.5621,94.90,98,5,0,1,98,3,100,8e-38,154
Exophiala_salmonis_CBS157.67_T,ERR1085106.5620,94.90,98,5,0,1,98,3,100,8e-38,154
Exophiala_salmonis_CBS157.67_T,ERR1085106.5301,94.90,98,5,0,1,98,3,100,8e-38,154
Exophiala_salmonis_CBS157.67_T,ERR1085106.4266,94.90,98,5,0,1,98,3,100,8e-38,154
Exophiala_salmonis_CBS157.67_T,ERR1085106.3670,94.90,98,5,0,1,98,3,100,8e-38,154
Exophiala_salmonis_CBS157.67_T,ERR1085106.3613,94.90,98,5,0,1,98,3,100,8e-38,154
Exophiala_salmonis_CBS157.67_T,ERR1085106.3584,94.90,98,5,0,1,98,3,100,8e-38,154
Exophiala_salmonis_CBS157.67_T,ERR1085106.3355,94.90,98,5,0,1,98,3,100,8e-38,154
Exophiala_salmonis_CBS157.67_T,ERR1085106.3228,94.90,98,5,0,1,98,3,100,8e-38,154
Exophiala_salmonis_CBS157.67_T,ERR1085106.3140,94.90,98,5,0,1,98,3,100,8e-38,154
Exophiala_salmonis_CBS157.67_T,ERR1085106.2835,94.90,98,5,0,1,98,3,100,8e-38,154
Exophiala_salmonis_CBS157.67_T,ERR1085106.2593,94.90,98,5,0,1,98,3,100,8e-38,154
Exophiala_salmonis_CBS157.67_T,ERR1085106.2277,94.90,98,5,0,1,98,3,100,8e-38,154
Exophiala_salmonis_CBS157.67_T,ERR1085106.1859,94.90,98,5,0,1,98,3,100,8e-38,154
Exophiala_salmonis_CBS157.67_T,ERR1085106.1434,94.90,98,5,0,1,98,3,100,8e-38,154
Exophiala_salmonis_CBS157.67_T,ERR1085106.1310,95.79,95,4,0,4,98,6,100,8e-38,154
Exophiala_salmonis_CBS157.67_T,ERR1085106.1125,94.90,98,5,0,1,98,3,100,8e-38,154
Exophiala_salmonis_CBS157.67_T,ERR1085106.851,94.90,98,5,0,1,98,3,100,8e-38,154
Exophiala_salmonis_CBS157.67_T,ERR1085106.838,94.90,98,5,0,1,98,3,100,8e-38,154
Exophiala_salmonis_CBS157.67_T,ERR1085106.499,94.90,98,5,0,1,98,3,100,8e-38,154
Exophiala_salmonis_CBS157.67_T,ERR1085106.34037,94.85,97,5,0,2,98,4,100,3e-37,152
Exophiala_salmonis_CBS157.67_T,ERR1085106.23619,94.85,97,5,0,1,97,3,99,3e-37,152
Exophiala_salmonis_CBS157.67_T,ERR1085106.27958,94.79,96,5,0,3,98,5,100,1e-36,150
Exophiala_salmonis_CBS157.67_T,ERR1085106.21135,94.79,96,5,0,3,98,5,100,1e-36,150
Exophiala_salmonis_CBS157.67_T,ERR1085106.14543,94.79,96,5,0,3,98,5,100,1e-36,150
Exophiala_salmonis_CBS157.67_T,ERR1085106.37772,93.94,99,4,2,1,98,3,100,3e-36,148
Exophiala_salmonis_CBS157.67_T,ERR1085106.37582,93.94,99,4,2,1,98,3,100,3e-36,148
Exophiala_salmonis_CBS157.67_T,ERR1085106.37577,93.94,99,4,2,1,98,3,100,3e-36,148
Exophiala_salmonis_CBS157.67_T,ERR1085106.37547,93.94,99,4,2,1,98,3,100,3e-36,148
Exophiala_salmonis_CBS157.67_T,ERR1085106.37515,93.94,99,4,2,1,98,3,100,3e-36,148
Exophiala_salmonis_CBS157.67_T,ERR1085106.37348,93.94,99,4,2,1,98,3,100,3e-36,148
Exophiala_salmonis_CBS157.67_T,ERR1085106.37235,93.88,98,6,0,1,98,3,100,3e-36,148
Exophiala_salmonis_CBS157.67_T,ERR1085106.37175,93.94,99,4,2,1,98,3,100,3e-36,148
Exophiala_salmonis_CBS157.67_T,ERR1085106.37082,93.94,99,4,2,1,98,3,100,3e-36,148
Exophiala_salmonis_CBS157.67_T,ERR1085106.36847,93.94,99,4,2,1,98,3,100,3e-36,148
Exophiala_salmonis_CBS157.67_T,ERR1085106.36730,93.94,99,4,2,1,98,3,100,3e-36,148
Exophiala_salmonis_CBS157.67_T,ERR1085106.36706,93.94,99,4,2,1,98,3,100,3e-36,148
Exophiala_salmonis_CBS157.67_T,ERR1085106.36639,93.94,99,4,2,1,98,3,100,3e-36,148
Exophiala_salmonis_CBS157.67_T,ERR1085106.36528,93.94,99,4,2,1,98,3,100,3e-36,148
Exophiala_salmonis_CBS157.67_T,ERR1085106.36221,93.88,98,6,0,1,98,3,100,3e-36,148
Exophiala_salmonis_CBS157.67_T,ERR1085106.36186,93.94,99,4,2,1,98,3,100,3e-36,148
Exophiala_salmonis_CBS157.67_T,ERR1085106.36134,93.94,99,4,2,1,98,3,100,3e-36,148
Exophiala_salmonis_CBS157.67_T,ERR1085106.36081,93.94,99,4,2,1,98,3,100,3e-36,148
Exophiala_salmonis_CBS157.67_T,ERR1085106.35543,93.94,99,4,2,1,98,3,100,3e-36,148
Exophiala_salmonis_CBS157.67_T,ERR1085106.35267,93.94,99,4,2,1,98,3,100,3e-36,148
Exophiala_salmonis_CBS157.67_T,ERR1085106.35167,93.94,99,4,2,1,98,3,100,3e-36,148
Exophiala_salmonis_CBS157.67_T,ERR1085106.34911,93.88,98,6,0,1,98,3,100,3e-36,148
Exophiala_salmonis_CBS157.67_T,ERR1085106.34820,93.88,98,6,0,1,98,3,100,3e-36,148
Exophiala_salmonis_CBS157.67_T,ERR1085106.34485,93.94,99,4,2,1,98,3,100,3e-36,148
Exophiala_salmonis_CBS157.67_T,ERR1085106.34375,93.94,99,4,2,1,98,3,100,3e-36,148
Exophiala_salmonis_CBS157.67_T,ERR1085106.34279,93.94,99,4,2,1,98,3,100,3e-36,148
Exophiala_salmonis_CBS157.67_T,ERR1085106.34149,93.94,99,4,2,1,98,3,100,3e-36,148
Exophiala_salmonis_CBS157.67_T,ERR1085106.34135,93.94,99,4,2,1,98,3,100,3e-36,148
Exophiala_salmonis_CBS157.67_T,ERR1085106.33927,93.94,99,4,2,1,98,3,100,3e-36,148
Exophiala_salmonis_CBS157.67_T,ERR1085106.33322,93.94,99,4,2,1,98,3,100,3e-36,148
Exophiala_salmonis_CBS157.67_T,ERR1085106.32558,93.94,99,4,2,1,98,3,100,3e-36,148
Exophiala_salmonis_CBS157.67_T,ERR1085106.32396,93.94,99,4,2,1,98,3,100,3e-36,148
Exophiala_salmonis_CBS157.67_T,ERR1085106.32287,93.94,99,4,2,1,98,3,100,3e-36,148
Exophiala_salmonis_CBS157.67_T,ERR1085106.32281,93.94,99,4,2,1,98,3,100,3e-36,148
Exophiala_salmonis_CBS157.67_T,ERR1085106.32073,93.94,99,4,2,1,98,3,100,3e-36,148
Exophiala_salmonis_CBS157.67_T,ERR1085106.32027,93.94,99,4,2,1,98,3,100,3e-36,148
Exophiala_salmonis_CBS157.67_T,ERR1085106.31725,93.94,99,4,2,1,98,3,100,3e-36,148
Exophiala_salmonis_CBS157.67_T,ERR1085106.31695,93.94,99,4,2,1,98,3,100,3e-36,148
Exophiala_salmonis_CBS157.67_T,ERR1085106.31545,93.94,99,4,2,1,98,3,100,3e-36,148
Exophiala_salmonis_CBS157.67_T,ERR1085106.31520,93.94,99,4,2,1,98,3,100,3e-36,148
Exophiala_salmonis_CBS157.67_T,ERR1085106.31512,93.94,99,4,2,1,98,3,100,3e-36,148
Exophiala_salmonis_CBS157.67_T,ERR1085106.30956,93.88,98,6,0,1,98,3,100,3e-36,148
Exophiala_salmonis_CBS157.67_T,ERR1085106.30767,93.88,98,6,0,1,98,3,100,3e-36,148
Exophiala_salmonis_CBS157.67_T,ERR1085106.30583,93.88,98,6,0,1,98,3,100,3e-36,148
Exophiala_salmonis_CBS157.67_T,ERR1085106.30411,93.88,98,6,0,1,98,3,100,3e-36,148
Exophiala_salmonis_CBS157.67_T,ERR1085106.30250,93.88,98,6,0,1,98,3,100,3e-36,148
Exophiala_salmonis_CBS157.67_T,ERR1085106.30184,93.88,98,6,0,1,98,3,100,3e-36,148
Exophiala_salmonis_CBS157.67_T,ERR1085106.29618,93.88,98,6,0,1,98,3,100,3e-36,148
Exophiala_salmonis_CBS157.67_T,ERR1085106.29587,93.88,98,6,0,1,98,3,100,3e-36,148
Exophiala_salmonis_CBS157.67_T,ERR1085106.29219,93.88,98,6,0,1,98,3,100,3e-36,148
Exophiala_salmonis_CBS157.67_T,ERR1085106.29135,93.94,99,4,2,1,98,3,100,3e-36,148
Exophiala_salmonis_CBS157.67_T,ERR1085106.28928,93.94,99,4,2,1,98,3,100,3e-36,148
Exophiala_salmonis_CBS157.67_T,ERR1085106.28847,93.94,99,4,2,1,98,3,100,3e-36,148
Exophiala_salmonis_CBS157.67_T,ERR1085106.28750,93.94,99,4,2,1,98,3,100,3e-36,148
Exophiala_salmonis_CBS157.67_T,ERR1085106.28694,93.94,99,4,2,1,98,3,100,3e-36,148
Exophiala_salmonis_CBS157.67_T,ERR1085106.28457,93.88,98,6,0,1,98,3,100,3e-36,148
Exophiala_salmonis_CBS157.67_T,ERR1085106.28400,93.88,98,6,0,1,98,3,100,3e-36,148
Exophiala_salmonis_CBS157.67_T,ERR1085106.28060,93.94,99,4,2,1,98,3,100,3e-36,148
Exophiala_salmonis_CBS157.67_T,ERR1085106.28057,93.94,99,4,2,1,98,3,100,3e-36,148
Exophiala_salmonis_CBS157.67_T,ERR1085106.27962,93.94,99,4,2,1,98,3,100,3e-36,148
Exophiala_salmonis_CBS157.67_T,ERR1085106.27945,93.94,99,4,2,1,98,3,100,3e-36,148
Exophiala_salmonis_CBS157.67_T,ERR1085106.27712,93.88,98,6,0,1,98,3,100,3e-36,148
Exophiala_salmonis_CBS157.67_T,ERR1085106.27695,93.88,98,6,0,1,98,3,100,3e-36,148
Exophiala_salmonis_CBS157.67_T,ERR1085106.27559,93.94,99,4,2,1,98,3,100,3e-36,148
Exophiala_salmonis_CBS157.67_T,ERR1085106.27495,93.94,99,4,2,1,98,3,100,3e-36,148
Exophiala_salmonis_CBS157.67_T,ERR1085106.27357,93.88,98,6,0,1,98,3,100,3e-36,148
Exophiala_salmonis_CBS157.67_T,ERR1085106.27356,93.88,98,6,0,1,98,3,100,3e-36,148
Exophiala_salmonis_CBS157.67_T,ERR1085106.27306,93.94,99,4,2,1,98,3,100,3e-36,148
Exophiala_salmonis_CBS157.67_T,ERR1085106.27264,93.88,98,6,0,1,98,3,100,3e-36,148
Exophiala_salmonis_CBS157.67_T,ERR1085106.27214,93.94,99,4,2,1,98,3,100,3e-36,148
Exophiala_salmonis_CBS157.67_T,ERR1085106.26159,93.94,99,4,2,1,98,3,100,3e-36,148
Exophiala_salmonis_CBS157.67_T,ERR1085106.26157,93.94,99,4,2,1,98,3,100,3e-36,148
Exophiala_salmonis_CBS157.67_T,ERR1085106.26088,93.94,99,4,2,1,98,3,100,3e-36,148
Exophiala_salmonis_CBS157.67_T,ERR1085106.25874,93.94,99,4,2,1,98,3,100,3e-36,148
Exophiala_salmonis_CBS157.67_T,ERR1085106.25568,93.94,99,4,2,1,98,3,100,3e-36,148
Exophiala_salmonis_CBS157.67_T,ERR1085106.25524,93.94,99,4,2,1,98,3,100,3e-36,148
Exophiala_salmonis_CBS157.67_T,ERR1085106.25431,93.88,98,6,0,1,98,3,100,3e-36,148
Exophiala_salmonis_CBS157.67_T,ERR1085106.25322,93.94,99,4,2,1,98,3,100,3e-36,148
Exophiala_salmonis_CBS157.67_T,ERR1085106.25144,93.88,98,6,0,1,98,3,100,3e-36,148
Exophiala_salmonis_CBS157.67_T,ERR1085106.24925,93.94,99,4,2,1,98,3,100,3e-36,148
Exophiala_salmonis_CBS157.67_T,ERR1085106.24915,93.94,99,4,2,1,98,3,100,3e-36,148
Exophiala_salmonis_CBS157.67_T,ERR1085106.24913,93.94,99,4,2,1,98,3,100,3e-36,148
Exophiala_salmonis_CBS157.67_T,ERR1085106.24885,93.94,99,4,2,1,98,3,100,3e-36,148
Exophiala_salmonis_CBS157.67_T,ERR1085106.24842,93.94,99,4,2,1,98,3,100,3e-36,148
Exophiala_salmonis_CBS157.67_T,ERR1085106.24823,93.94,99,4,2,1,98,3,100,3e-36,148
Exophiala_salmonis_CBS157.67_T,ERR1085106.24699,93.94,99,4,2,1,98,3,100,3e-36,148
Exophiala_salmonis_CBS157.67_T,ERR1085106.24613,93.94,99,4,2,1,98,3,100,3e-36,148
Exophiala_salmonis_CBS157.67_T,ERR1085106.24390,93.94,99,4,2,1,98,3,100,3e-36,148
Exophiala_salmonis_CBS157.67_T,ERR1085106.24101,93.94,99,4,2,1,98,3,100,3e-36,148
Exophiala_salmonis_CBS157.67_T,ERR1085106.24087,93.94,99,4,2,1,98,3,100,3e-36,148
Exophiala_salmonis_CBS157.67_T,ERR1085106.24061,93.94,99,4,2,1,98,3,100,3e-36,148
Exophiala_salmonis_CBS157.67_T,ERR1085106.23947,93.94,99,4,2,1,98,3,100,3e-36,148
Exophiala_salmonis_CBS157.67_T,ERR1085106.23888,93.94,99,4,2,1,98,3,100,3e-36,148
Exophiala_salmonis_CBS157.67_T,ERR1085106.23883,93.94,99,4,2,1,98,3,100,3e-36,148
Exophiala_salmonis_CBS157.67_T,ERR1085106.23784,93.88,98,6,0,1,98,3,100,3e-36,148
Exophiala_salmonis_CBS157.67_T,ERR1085106.23731,93.94,99,4,2,1,98,3,100,3e-36,148
Exophiala_salmonis_CBS157.67_T,ERR1085106.23330,93.94,99,4,2,1,98,3,100,3e-36,148
Exophiala_salmonis_CBS157.67_T,ERR1085106.22903,93.94,99,4,2,1,98,3,100,3e-36,148
Exophiala_salmonis_CBS157.67_T,ERR1085106.22871,93.94,99,4,2,1,98,3,100,3e-36,148
Exophiala_salmonis_CBS157.67_T,ERR1085106.22843,93.88,98,6,0,1,98,3,100,3e-36,148
Exophiala_salmonis_CBS157.67_T,ERR1085106.22805,93.94,99,4,2,1,98,3,100,3e-36,148
Exophiala_salmonis_CBS157.67_T,ERR1085106.22763,93.94,99,4,2,1,98,3,100,3e-36,148
Exophiala_salmonis_CBS157.67_T,ERR1085106.22614,93.88,98,6,0,1,98,3,100,3e-36,148
Exophiala_salmonis_CBS157.67_T,ERR1085106.22400,93.94,99,4,2,1,98,3,100,3e-36,148
Exophiala_salmonis_CBS157.67_T,ERR1085106.22082,93.94,99,4,2,1,98,3,100,3e-36,148
Exophiala_salmonis_CBS157.67_T,ERR1085106.22009,93.94,99,4,2,1,98,3,100,3e-36,148
Exophiala_salmonis_CBS157.67_T,ERR1085106.21778,93.94,99,4,2,1,98,3,100,3e-36,148
Exophiala_salmonis_CBS157.67_T,ERR1085106.21763,93.94,99,4,2,1,98,3,100,3e-36,148
Exophiala_salmonis_CBS157.67_T,ERR1085106.20973,93.94,99,4,2,1,98,3,100,3e-36,148
Exophiala_salmonis_CBS157.67_T,ERR1085106.20386,93.94,99,4,2,1,98,3,100,3e-36,148
Exophiala_salmonis_CBS157.67_T,ERR1085106.20243,93.94,99,4,2,1,98,3,100,3e-36,148
Exophiala_salmonis_CBS157.67_T,ERR1085106.20126,93.88,98,6,0,1,98,3,100,3e-36,148
Exophiala_salmonis_CBS157.67_T,ERR1085106.20021,93.94,99,4,2,1,98,3,100,3e-36,148
Exophiala_salmonis_CBS157.67_T,ERR1085106.19981,93.94,99,4,2,1,98,3,100,3e-36,148
Exophiala_salmonis_CBS157.67_T,ERR1085106.19636,93.88,98,6,0,1,98,3,100,3e-36,148
Exophiala_salmonis_CBS157.67_T,ERR1085106.19364,93.94,99,4,2,1,98,3,100,3e-36,148
Exophiala_salmonis_CBS157.67_T,ERR1085106.19245,93.94,99,4,2,1,98,3,100,3e-36,148
Exophiala_salmonis_CBS157.67_T,ERR1085106.19094,93.94,99,4,2,1,98,3,100,3e-36,148
Exophiala_salmonis_CBS157.67_T,ERR1085106.18906,93.94,99,4,2,1,98,3,100,3e-36,148
Exophiala_salmonis_CBS157.67_T,ERR1085106.18779,93.94,99,4,2,1,98,3,100,3e-36,148
Exophiala_salmonis_CBS157.67_T,ERR1085106.18766,93.94,99,4,2,1,98,3,100,3e-36,148
Exophiala_salmonis_CBS157.67_T,ERR1085106.18636,93.94,99,4,2,1,98,3,100,3e-36,148
Exophiala_salmonis_CBS157.67_T,ERR1085106.18424,93.94,99,4,2,1,98,3,100,3e-36,148
Cyphellophora_laciniata_CBS190.61_T,ERR1085106.37993,100.00,44,0,0,1,44,57,100,3e-16,82.4
Cyphellophora_laciniata_CBS190.61_T,ERR1085106.37749,100.00,44,0,0,1,44,57,100,3e-16,82.4
Cyphellophora_laciniata_CBS190.61_T,ERR1085106.37735,100.00,44,0,0,1,44,57,100,3e-16,82.4
Cyphellophora_laciniata_CBS190.61_T,ERR1085106.37666,100.00,44,0,0,1,44,57,100,3e-16,82.4
Cyphellophora_laciniata_CBS190.61_T,ERR1085106.37551,100.00,44,0,0,1,44,57,100,3e-16,82.4
Cyphellophora_laciniata_CBS190.61_T,ERR1085106.37015,100.00,44,0,0,1,44,57,100,3e-16,82.4
Cyphellophora_laciniata_CBS190.61_T,ERR1085106.36015,100.00,44,0,0,1,44,57,100,3e-16,82.4
Cyphellophora_laciniata_CBS190.61_T,ERR1085106.35426,100.00,44,0,0,1,44,57,100,3e-16,82.4
Cyphellophora_laciniata_CBS190.61_T,ERR1085106.35041,100.00,44,0,0,1,44,57,100,3e-16,82.4
Cyphellophora_laciniata_CBS190.61_T,ERR1085106.34977,100.00,44,0,0,1,44,57,100,3e-16,82.4
Cyphellophora_laciniata_CBS190.61_T,ERR1085106.34528,100.00,44,0,0,1,44,57,100,3e-16,82.4
Cyphellophora_laciniata_CBS190.61_T,ERR1085106.34048,100.00,44,0,0,1,44,57,100,3e-16,82.4
Cyphellophora_laciniata_CBS190.61_T,ERR1085106.33779,100.00,44,0,0,1,44,57,100,3e-16,82.4
Cyphellophora_laciniata_CBS190.61_T,ERR1085106.33661,100.00,44,0,0,1,44,57,100,3e-16,82.4
Cyphellophora_laciniata_CBS190.61_T,ERR1085106.33639,100.00,44,0,0,1,44,57,100,3e-16,82.4
Cyphellophora_laciniata_CBS190.61_T,ERR1085106.32887,100.00,44,0,0,1,44,57,100,3e-16,82.4
Cyphellophora_laciniata_CBS190.61_T,ERR1085106.32778,100.00,44,0,0,1,44,57,100,3e-16,82.4
Cyphellophora_laciniata_CBS190.61_T,ERR1085106.32618,100.00,44,0,0,1,44,57,100,3e-16,82.4
Cyphellophora_laciniata_CBS190.61_T,ERR1085106.32174,100.00,44,0,0,1,44,57,100,3e-16,82.4
Cyphellophora_laciniata_CBS190.61_T,ERR1085106.31864,100.00,44,0,0,1,44,57,100,3e-16,82.4
Cyphellophora_laciniata_CBS190.61_T,ERR1085106.31842,100.00,44,0,0,1,44,57,100,3e-16,82.4
Cyphellophora_laciniata_CBS190.61_T,ERR1085106.31399,100.00,44,0,0,1,44,57,100,3e-16,82.4
Cyphellophora_laciniata_CBS190.61_T,ERR1085106.28886,100.00,44,0,0,1,44,57,100,3e-16,82.4
Cyphellophora_laciniata_CBS190.61_T,ERR1085106.28476,100.00,44,0,0,1,44,57,100,3e-16,82.4
Cyphellophora_laciniata_CBS190.61_T,ERR1085106.28332,100.00,44,0,0,1,44,57,100,3e-16,82.4
Cyphellophora_laciniata_CBS190.61_T,ERR1085106.27613,100.00,44,0,0,1,44,57,100,3e-16,82.4
Cyphellophora_laciniata_CBS190.61_T,ERR1085106.26206,100.00,44,0,0,1,44,57,100,3e-16,82.4
Cyphellophora_laciniata_CBS190.61_T,ERR1085106.25988,100.00,44,0,0,1,44,57,100,3e-16,82.4
Cyphellophora_laciniata_CBS190.61_T,ERR1085106.24535,100.00,44,0,0,1,44,57,100,3e-16,82.4
Cyphellophora_laciniata_CBS190.61_T,ERR1085106.24500,100.00,44,0,0,1,44,57,100,3e-16,82.4
Cyphellophora_laciniata_CBS190.61_T,ERR1085106.24273,100.00,44,0,0,1,44,57,100,3e-16,82.4
Cyphellophora_laciniata_CBS190.61_T,ERR1085106.23913,100.00,44,0,0,1,44,57,100,3e-16,82.4
Cyphellophora_laciniata_CBS190.61_T,ERR1085106.23172,100.00,44,0,0,1,44,57,100,3e-16,82.4
Cyphellophora_laciniata_CBS190.61_T,ERR1085106.22643,100.00,44,0,0,1,44,57,100,3e-16,82.4
Cyphellophora_laciniata_CBS190.61_T,ERR1085106.20918,100.00,44,0,0,1,44,57,100,3e-16,82.4
Cyphellophora_laciniata_CBS190.61_T,ERR1085106.20591,100.00,44,0,0,1,44,57,100,3e-16,82.4
Cyphellophora_laciniata_CBS190.61_T,ERR1085106.20519,100.00,44,0,0,1,44,57,100,3e-16,82.4
Cyphellophora_laciniata_CBS190.61_T,ERR1085106.20513,100.00,44,0,0,1,44,57,100,3e-16,82.4
Cyphellophora_laciniata_CBS190.61_T,ERR1085106.20250,100.00,44,0,0,1,44,57,100,3e-16,82.4
Cyphellophora_laciniata_CBS190.61_T,ERR1085106.18909,100.00,44,0,0,1,44,57,100,3e-16,82.4
Cyphellophora_laciniata_CBS190.61_T,ERR1085106.18876,100.00,44,0,0,1,44,57,100,3e-16,82.4
Cyphellophora_laciniata_CBS190.61_T,ERR1085106.18679,100.00,44,0,0,1,44,57,100,3e-16,82.4
Cyphellophora_laciniata_CBS190.61_T,ERR1085106.17951,100.00,44,0,0,1,44,57,100,3e-16,82.4
Cyphellophora_laciniata_CBS190.61_T,ERR1085106.17540,100.00,44,0,0,1,44,57,100,3e-16,82.4
Cyphellophora_laciniata_CBS190.61_T,ERR1085106.17537,100.00,44,0,0,1,44,57,100,3e-16,82.4
Cyphellophora_laciniata_CBS190.61_T,ERR1085106.17056,100.00,44,0,0,1,44,57,100,3e-16,82.4
Cyphellophora_laciniata_CBS190.61_T,ERR1085106.16859,100.00,44,0,0,1,44,57,100,3e-16,82.4
Cyphellophora_laciniata_CBS190.61_T,ERR1085106.16548,100.00,44,0,0,1,44,57,100,3e-16,82.4
Cyphellophora_laciniata_CBS190.61_T,ERR1085106.15857,100.00,44,0,0,1,44,57,100,3e-16,82.4
Cyphellophora_laciniata_CBS190.61_T,ERR1085106.15187,100.00,44,0,0,1,44,57,100,3e-16,82.4
Cyphellophora_laciniata_CBS190.61_T,ERR1085106.15063,100.00,44,0,0,1,44,57,100,3e-16,82.4
Cyphellophora_laciniata_CBS190.61_T,ERR1085106.13641,100.00,44,0,0,1,44,57,100,3e-16,82.4
Cyphellophora_laciniata_CBS190.61_T,ERR1085106.13585,100.00,44,0,0,1,44,57,100,3e-16,82.4
Cyphellophora_laciniata_CBS190.61_T,ERR1085106.13106,100.00,44,0,0,1,44,57,100,3e-16,82.4
Cyphellophora_laciniata_CBS190.61_T,ERR1085106.12532,100.00,44,0,0,1,44,57,100,3e-16,82.4
Cyphellophora_laciniata_CBS190.61_T,ERR1085106.12460,100.00,44,0,0,1,44,57,100,3e-16,82.4
Cyphellophora_laciniata_CBS190.61_T,ERR1085106.11346,100.00,44,0,0,1,44,57,100,3e-16,82.4
Cyphellophora_laciniata_CBS190.61_T,ERR1085106.11062,100.00,44,0,0,1,44,57,100,3e-16,82.4
Cyphellophora_laciniata_CBS190.61_T,ERR1085106.10653,100.00,44,0,0,1,44,57,100,3e-16,82.4
Cyphellophora_laciniata_CBS190.61_T,ERR1085106.9828,100.00,44,0,0,1,44,57,100,3e-16,82.4
Cyphellophora_laciniata_CBS190.61_T,ERR1085106.9273,100.00,44,0,0,1,44,57,100,3e-16,82.4
Cyphellophora_laciniata_CBS190.61_T,ERR1085106.8363,100.00,44,0,0,1,44,57,100,3e-16,82.4
Cyphellophora_laciniata_CBS190.61_T,ERR1085106.6370,100.00,44,0,0,1,44,57,100,3e-16,82.4
Cyphellophora_laciniata_CBS190.61_T,ERR1085106.5956,100.00,44,0,0,1,44,57,100,3e-16,82.4
Cyphellophora_laciniata_CBS190.61_T,ERR1085106.5048,100.00,44,0,0,1,44,57,100,3e-16,82.4
Cyphellophora_laciniata_CBS190.61_T,ERR1085106.4892,100.00,44,0,0,1,44,57,100,3e-16,82.4
Cyphellophora_laciniata_CBS190.61_T,ERR1085106.4864,100.00,44,0,0,1,44,57,100,3e-16,82.4
Cyphellophora_laciniata_CBS190.61_T,ERR1085106.3392,100.00,44,0,0,1,44,57,100,3e-16,82.4
Cyphellophora_laciniata_CBS190.61_T,ERR1085106.2109,100.00,44,0,0,1,44,57,100,3e-16,82.4
Cyphellophora_laciniata_CBS190.61_T,ERR1085106.1739,100.00,44,0,0,1,44,57,100,3e-16,82.4
Cyphellophora_laciniata_CBS190.61_T,ERR1085106.1460,100.00,44,0,0,1,44,57,100,3e-16,82.4
Cyphellophora_laciniata_CBS190.61_T,ERR1085106.300,100.00,44,0,0,1,44,57,100,3e-16,82.4
Cyphellophora_laciniata_CBS190.61_T,ERR1085106.236,100.00,44,0,0,1,44,57,100,3e-16,82.4
Cyphellophora_laciniata_CBS190.61_T,ERR1085106.164,100.00,44,0,0,1,44,57,100,3e-16,82.4
Cyphellophora_laciniata_CBS190.61_T,ERR1085106.23,100.00,44,0,0,1,44,57,100,3e-16,82.4
Cyphellophora_laciniata_CBS190.61_T,ERR1085106.26479,100.00,43,0,0,1,43,57,99,1e-15,80.5
Cyphellophora_laciniata_CBS190.61_T,ERR1085106.13064,100.00,43,0,0,2,44,58,100,1e-15,80.5
Cyphellophora_laciniata_CBS190.61_T,ERR1085106.27818,100.00,42,0,0,3,44,59,100,4e-15,78.7
Cyphellophora_laciniata_CBS190.61_T,ERR1085106.27817,100.00,42,0,0,3,44,59,100,4e-15,78.7
Cyphellophora_laciniata_CBS190.61_T,ERR1085106.6932,100.00,42,0,0,1,42,57,98,4e-15,78.7
Cyphellophora_laciniata_CBS190.61_T,ERR1085106.34974,97.73,44,1,0,1,44,57,100,2e-14,76.8
Cyphellophora_laciniata_CBS190.61_T,ERR1085106.34026,97.73,44,1,0,1,44,57,100,2e-14,76.8
Cyphellophora_laciniata_CBS190.61_T,ERR1085106.30763,97.73,44,1,0,1,44,57,100,2e-14,76.8
Cyphellophora_laciniata_CBS190.61_T,ERR1085106.29396,97.73,44,1,0,1,44,57,100,2e-14,76.8
Cyphellophora_laciniata_CBS190.61_T,ERR1085106.28361,97.73,44,1,0,1,44,57,100,2e-14,76.8
Cyphellophora_laciniata_CBS190.61_T,ERR1085106.27415,97.73,44,1,0,1,44,57,100,2e-14,76.8
Cyphellophora_laciniata_CBS190.61_T,ERR1085106.26988,97.73,44,1,0,1,44,57,100,2e-14,76.8
Cyphellophora_laciniata_CBS190.61_T,ERR1085106.25009,97.73,44,1,0,1,44,57,100,2e-14,76.8
Cyphellophora_laciniata_CBS190.61_T,ERR1085106.24111,97.73,44,1,0,1,44,57,100,2e-14,76.8
Cyphellophora_laciniata_CBS190.61_T,ERR1085106.22676,97.73,44,1,0,1,44,57,100,2e-14,76.8
Cyphellophora_laciniata_CBS190.61_T,ERR1085106.22434,100.00,41,0,0,4,44,60,100,2e-14,76.8
Cyphellophora_laciniata_CBS190.61_T,ERR1085106.20747,97.73,44,1,0,1,44,57,100,2e-14,76.8
Cyphellophora_laciniata_CBS190.61_T,ERR1085106.19146,97.73,44,1,0,1,44,57,100,2e-14,76.8
Cyphellophora_laciniata_CBS190.61_T,ERR1085106.18059,97.73,44,1,0,1,44,57,100,2e-14,76.8
Cyphellophora_laciniata_CBS190.61_T,ERR1085106.17277,97.73,44,1,0,1,44,57,100,2e-14,76.8
Cyphellophora_laciniata_CBS190.61_T,ERR1085106.15590,97.73,44,1,0,1,44,57,100,2e-14,76.8
Cyphellophora_laciniata_CBS190.61_T,ERR1085106.13239,97.73,44,1,0,1,44,57,100,2e-14,76.8
Cyphellophora_laciniata_CBS190.61_T,ERR1085106.11204,97.73,44,1,0,1,44,57,100,2e-14,76.8
Cyphellophora_laciniata_CBS190.61_T,ERR1085106.10452,97.73,44,1,0,1,44,57,100,2e-14,76.8
Cyphellophora_laciniata_CBS190.61_T,ERR1085106.9085,97.73,44,1,0,1,44,57,100,2e-14,76.8
Cyphellophora_laciniata_CBS190.61_T,ERR1085106.9071,97.73,44,1,0,1,44,57,100,2e-14,76.8
Cyphellophora_laciniata_CBS190.61_T,ERR1085106.8317,97.73,44,1,0,1,44,57,100,2e-14,76.8
Cyphellophora_laciniata_CBS190.61_T,ERR1085106.6901,97.73,44,1,0,1,44,57,100,2e-14,76.8
Cyphellophora_laciniata_CBS190.61_T,ERR1085106.4173,97.73,44,1,0,1,44,57,100,2e-14,76.8
Cyphellophora_laciniata_CBS190.61_T,ERR1085106.3112,97.73,44,1,0,1,44,57,100,2e-14,76.8
Cyphellophora_laciniata_CBS190.61_T,ERR1085106.2300,100.00,41,0,0,1,41,57,97,2e-14,76.8
Cyphellophora_laciniata_CBS190.61_T,ERR1085106.1972,97.73,44,1,0,1,44,57,100,2e-14,76.8
Cyphellophora_laciniata_CBS190.61_T,ERR1085106.13322,97.62,42,1,0,3,44,59,100,2e-13,73.1
Cyphellophora_laciniata_CBS190.61_T,ERR1085106.38415,95.45,44,2,0,1,44,57,100,7e-13,71.3
Cyphellophora_laciniata_CBS190.61_T,ERR1085106.37778,95.45,44,2,0,1,44,57,100,7e-13,71.3
Cyphellophora_laciniata_CBS190.61_T,ERR1085106.37520,95.45,44,2,0,1,44,57,100,7e-13,71.3
Cyphellophora_laciniata_CBS190.61_T,ERR1085106.37501,95.45,44,2,0,1,44,57,100,7e-13,71.3
Cyphellophora_laciniata_CBS190.61_T,ERR1085106.37411,95.45,44,2,0,1,44,57,100,7e-13,71.3
Cyphellophora_laciniata_CBS190.61_T,ERR1085106.37374,95.45,44,2,0,1,44,57,100,7e-13,71.3
Cyphellophora_laciniata_CBS190.61_T,ERR1085106.37246,95.45,44,2,0,1,44,57,100,7e-13,71.3
Cyphellophora_laciniata_CBS190.61_T,ERR1085106.37217,95.45,44,2,0,1,44,57,100,7e-13,71.3
Cyphellophora_laciniata_CBS190.61_T,ERR1085106.37180,95.45,44,2,0,1,44,57,100,7e-13,71.3
Cyphellophora_laciniata_CBS190.61_T,ERR1085106.36531,95.45,44,2,0,1,44,57,100,7e-13,71.3
Cyphellophora_laciniata_CBS190.61_T,ERR1085106.36397,95.45,44,2,0,1,44,57,100,7e-13,71.3
Cyphellophora_laciniata_CBS190.61_T,ERR1085106.36125,95.45,44,2,0,1,44,57,100,7e-13,71.3
Cyphellophora_laciniata_CBS190.61_T,ERR1085106.36076,95.45,44,2,0,1,44,57,100,7e-13,71.3
Cyphellophora_laciniata_CBS190.61_T,ERR1085106.35740,95.45,44,2,0,1,44,57,100,7e-13,71.3
Cyphellophora_laciniata_CBS190.61_T,ERR1085106.35528,95.45,44,2,0,1,44,57,100,7e-13,71.3
Cyphellophora_laciniata_CBS190.61_T,ERR1085106.34908,95.45,44,2,0,1,44,57,100,7e-13,71.3
Cyphellophora_laciniata_CBS190.61_T,ERR1085106.34563,95.45,44,2,0,1,44,57,100,7e-13,71.3
Cyphellophora_laciniata_CBS190.61_T,ERR1085106.34501,95.45,44,2,0,1,44,57,100,7e-13,71.3
Cyphellophora_laciniata_CBS190.61_T,ERR1085106.34434,95.45,44,2,0,1,44,57,100,7e-13,71.3
Cyphellophora_laciniata_CBS190.61_T,ERR1085106.34288,95.45,44,2,0,1,44,57,100,7e-13,71.3
Cyphellophora_laciniata_CBS190.61_T,ERR1085106.34213,95.45,44,2,0,1,44,57,100,7e-13,71.3
Cyphellophora_laciniata_CBS190.61_T,ERR1085106.34037,95.45,44,2,0,1,44,57,100,7e-13,71.3
Cyphellophora_laciniata_CBS190.61_T,ERR1085106.33981,95.45,44,2,0,1,44,57,100,7e-13,71.3
Cyphellophora_laciniata_CBS190.61_T,ERR1085106.33432,95.45,44,2,0,1,44,57,100,7e-13,71.3
Cyphellophora_laciniata_CBS190.61_T,ERR1085106.33419,95.45,44,2,0,1,44,57,100,7e-13,71.3
Cyphellophora_laciniata_CBS190.61_T,ERR1085106.33151,95.45,44,2,0,1,44,57,100,7e-13,71.3
Cyphellophora_laciniata_CBS190.61_T,ERR1085106.32649,95.45,44,2,0,1,44,57,100,7e-13,71.3
Cyphellophora_laciniata_CBS190.61_T,ERR1085106.32305,95.45,44,2,0,1,44,57,100,7e-13,71.3
Cyphellophora_laciniata_CBS190.61_T,ERR1085106.31946,95.45,44,2,0,1,44,57,100,7e-13,71.3
Cyphellophora_laciniata_CBS190.61_T,ERR1085106.31887,95.45,44,2,0,1,44,57,100,7e-13,71.3
Cyphellophora_laciniata_CBS190.61_T,ERR1085106.31885,95.45,44,2,0,1,44,57,100,7e-13,71.3
Cyphellophora_laciniata_CBS190.61_T,ERR1085106.31682,95.45,44,2,0,1,44,57,100,7e-13,71.3
Cyphellophora_laciniata_CBS190.61_T,ERR1085106.31430,95.45,44,2,0,1,44,57,100,7e-13,71.3
Cyphellophora_laciniata_CBS190.61_T,ERR1085106.28679,95.45,44,2,0,1,44,57,100,7e-13,71.3
Cyphellophora_laciniata_CBS190.61_T,ERR1085106.28529,95.45,44,2,0,1,44,57,100,7e-13,71.3
Cyphellophora_laciniata_CBS190.61_T,ERR1085106.28457,95.45,44,2,0,1,44,57,100,7e-13,71.3
Cyphellophora_laciniata_CBS190.61_T,ERR1085106.28425,95.45,44,2,0,1,44,57,100,7e-13,71.3
Cyphellophora_laciniata_CBS190.61_T,ERR1085106.28129,95.45,44,2,0,1,44,57,100,7e-13,71.3
Cyphellophora_laciniata_CBS190.61_T,ERR1085106.28049,95.45,44,2,0,1,44,57,100,7e-13,71.3
Cyphellophora_laciniata_CBS190.61_T,ERR1085106.28003,95.45,44,2,0,1,44,57,100,7e-13,71.3
Cyphellophora_laciniata_CBS190.61_T,ERR1085106.27927,95.45,44,2,0,1,44,57,100,7e-13,71.3
Cyphellophora_laciniata_CBS190.61_T,ERR1085106.27827,95.45,44,2,0,1,44,57,100,7e-13,71.3
Cyphellophora_laciniata_CBS190.61_T,ERR1085106.27774,95.45,44,2,0,1,44,57,100,7e-13,71.3
Cyphellophora_laciniata_CBS190.61_T,ERR1085106.27582,95.45,44,2,0,1,44,57,100,7e-13,71.3
Cyphellophora_laciniata_CBS190.61_T,ERR1085106.26754,95.45,44,2,0,1,44,57,100,7e-13,71.3
Cyphellophora_laciniata_CBS190.61_T,ERR1085106.26249,95.45,44,2,0,1,44,57,100,7e-13,71.3
Cyphellophora_laciniata_CBS190.61_T,ERR1085106.26236,95.45,44,2,0,1,44,57,100,7e-13,71.3
Cyphellophora_laciniata_CBS190.61_T,ERR1085106.26032,95.45,44,2,0,1,44,57,100,7e-13,71.3
Cyphellophora_laciniata_CBS190.61_T,ERR1085106.25811,95.45,44,2,0,1,44,57,100,7e-13,71.3
Cyphellophora_laciniata_CBS190.61_T,ERR1085106.25732,95.45,44,2,0,1,44,57,100,7e-13,71.3
Cyphellophora_laciniata_CBS190.61_T,ERR1085106.25273,95.45,44,2,0,1,44,57,100,7e-13,71.3
Cyphellophora_laciniata_CBS190.61_T,ERR1085106.25144,95.45,44,2,0,1,44,57,100,7e-13,71.3
Cyphellophora_laciniata_CBS190.61_T,ERR1085106.25059,95.45,44,2,0,1,44,57,100,7e-13,71.3
Cyphellophora_laciniata_CBS190.61_T,ERR1085106.25052,95.45,44,2,0,1,44,57,100,7e-13,71.3
Cyphellophora_laciniata_CBS190.61_T,ERR1085106.24664,95.45,44,2,0,1,44,57,100,7e-13,71.3
Cyphellophora_laciniata_CBS190.61_T,ERR1085106.24638,95.45,44,2,0,1,44,57,100,7e-13,71.3
Cyphellophora_laciniata_CBS190.61_T,ERR1085106.24512,95.45,44,2,0,1,44,57,100,7e-13,71.3
Cyphellophora_laciniata_CBS190.61_T,ERR1085106.24071,95.45,44,2,0,1,44,57,100,7e-13,71.3
Cyphellophora_laciniata_CBS190.61_T,ERR1085106.23958,95.45,44,2,0,1,44,57,100,7e-13,71.3
Cyphellophora_laciniata_CBS190.61_T,ERR1085106.23791,95.45,44,2,0,1,44,57,100,7e-13,71.3
Cyphellophora_laciniata_CBS190.61_T,ERR1085106.23382,95.45,44,2,0,1,44,57,100,7e-13,71.3
Cyphellophora_laciniata_CBS190.61_T,ERR1085106.22709,95.45,44,2,0,1,44,57,100,7e-13,71.3
Cyphellophora_laciniata_CBS190.61_T,ERR1085106.22708,95.45,44,2,0,1,44,57,100,7e-13,71.3
Cyphellophora_laciniata_CBS190.61_T,ERR1085106.22618,95.45,44,2,0,1,44,57,100,7e-13,71.3
Cyphellophora_laciniata_CBS190.61_T,ERR1085106.22257,95.45,44,2,0,1,44,57,100,7e-13,71.3
Cyphellophora_laciniata_CBS190.61_T,ERR1085106.21736,95.45,44,2,0,1,44,57,100,7e-13,71.3
Cyphellophora_laciniata_CBS190.61_T,ERR1085106.21735,95.45,44,2,0,1,44,57,100,7e-13,71.3
Cyphellophora_laciniata_CBS190.61_T,ERR1085106.21656,95.45,44,2,0,1,44,57,100,7e-13,71.3
Cyphellophora_laciniata_CBS190.61_T,ERR1085106.21617,95.45,44,2,0,1,44,57,100,7e-13,71.3
Cyphellophora_laciniata_CBS190.61_T,ERR1085106.21016,95.45,44,2,0,1,44,57,100,7e-13,71.3
Cyphellophora_laciniata_CBS190.61_T,ERR1085106.20878,95.45,44,2,0,1,44,57,100,7e-13,71.3
Cyphellophora_laciniata_CBS190.61_T,ERR1085106.19947,95.45,44,2,0,1,44,57,100,7e-13,71.3
Cyphellophora_laciniata_CBS190.61_T,ERR1085106.19645,95.45,44,2,0,1,44,57,100,7e-13,71.3
Cyphellophora_laciniata_CBS190.61_T,ERR1085106.19497,95.45,44,2,0,1,44,57,100,7e-13,71.3
Cyphellophora_laciniata_CBS190.61_T,ERR1085106.19307,95.45,44,2,0,1,44,57,100,7e-13,71.3
Cyphellophora_laciniata_CBS190.61_T,ERR1085106.18371,95.45,44,2,0,1,44,57,100,7e-13,71.3
Cyphellophora_laciniata_CBS190.61_T,ERR1085106.18297,95.45,44,2,0,1,44,57,100,7e-13,71.3
Cyphellophora_laciniata_CBS190.61_T,ERR1085106.18145,95.45,44,2,0,1,44,57,100,7e-13,71.3
Cyphellophora_laciniata_CBS190.61_T,ERR1085106.17611,95.45,44,2,0,1,44,57,100,7e-13,71.3
Cyphellophora_laciniata_CBS190.61_T,ERR1085106.17398,95.45,44,2,0,1,44,57,100,7e-13,71.3
Cyphellophora_laciniata_CBS190.61_T,ERR1085106.17097,95.45,44,2,0,1,44,57,100,7e-13,71.3
Cyphellophora_laciniata_CBS190.61_T,ERR1085106.16949,95.45,44,2,0,1,44,57,100,7e-13,71.3
Cyphellophora_laciniata_CBS190.61_T,ERR1085106.16776,95.45,44,2,0,1,44,57,100,7e-13,71.3
Cyphellophora_laciniata_CBS190.61_T,ERR1085106.16619,95.45,44,2,0,1,44,57,100,7e-13,71.3
Cyphellophora_laciniata_CBS190.61_T,ERR1085106.16559,95.45,44,2,0,1,44,57,100,7e-13,71.3
Cyphellophora_laciniata_CBS190.61_T,ERR1085106.15981,95.45,44,2,0,1,44,57,100,7e-13,71.3
Cyphellophora_laciniata_CBS190.61_T,ERR1085106.15904,95.45,44,2,0,1,44,57,100,7e-13,71.3
Cyphellophora_laciniata_CBS190.61_T,ERR1085106.15391,95.45,44,2,0,1,44,57,100,7e-13,71.3
Cyphellophora_laciniata_CBS190.61_T,ERR1085106.15323,95.45,44,2,0,1,44,57,100,7e-13,71.3
Cyphellophora_laciniata_CBS190.61_T,ERR1085106.14644,95.45,44,2,0,1,44,57,100,7e-13,71.3
Cyphellophora_laciniata_CBS190.61_T,ERR1085106.14225,95.45,44,2,0,1,44,57,100,7e-13,71.3
Cyphellophora_laciniata_CBS190.61_T,ERR1085106.14155,95.45,44,2,0,1,44,57,100,7e-13,71.3
Cyphellophora_laciniata_CBS190.61_T,ERR1085106.13887,95.45,44,2,0,1,44,57,100,7e-13,71.3
Cyphellophora_laciniata_CBS190.61_T,ERR1085106.13739,95.45,44,2,0,1,44,57,100,7e-13,71.3
Cyphellophora_laciniata_CBS190.61_T,ERR1085106.13737,95.45,44,2,0,1,44,57,100,7e-13,71.3
Cyphellophora_laciniata_CBS190.61_T,ERR1085106.12975,95.45,44,2,0,1,44,57,100,7e-13,71.3
Cyphellophora_laciniata_CBS190.61_T,ERR1085106.12974,95.45,44,2,0,1,44,57,100,7e-13,71.3
Cyphellophora_laciniata_CBS190.61_T,ERR1085106.12906,95.45,44,2,0,1,44,57,100,7e-13,71.3
Cyphellophora_laciniata_CBS190.61_T,ERR1085106.12593,95.45,44,2,0,1,44,57,100,7e-13,71.3
Cyphellophora_laciniata_CBS190.61_T,ERR1085106.12535,95.45,44,2,0,1,44,57,100,7e-13,71.3
Cyphellophora_laciniata_CBS190.61_T,ERR1085106.12406,95.45,44,2,0,1,44,57,100,7e-13,71.3
Cyphellophora_laciniata_CBS190.61_T,ERR1085106.12250,95.45,44,2,0,1,44,57,100,7e-13,71.3
Cyphellophora_laciniata_CBS190.61_T,ERR1085106.11946,95.45,44,2,0,1,44,57,100,7e-13,71.3
Cyphellophora_laciniata_CBS190.61_T,ERR1085106.11887,95.45,44,2,0,1,44,57,100,7e-13,71.3
Cyphellophora_laciniata_CBS190.61_T,ERR1085106.11835,95.45,44,2,0,1,44,57,100,7e-13,71.3
Cyphellophora_laciniata_CBS190.61_T,ERR1085106.11561,95.45,44,2,0,1,44,57,100,7e-13,71.3
Cyphellophora_laciniata_CBS190.61_T,ERR1085106.11461,95.45,44,2,0,1,44,57,100,7e-13,71.3
Cyphellophora_laciniata_CBS190.61_T,ERR1085106.11147,95.45,44,2,0,1,44,57,100,7e-13,71.3
Cyphellophora_laciniata_CBS190.61_T,ERR1085106.10762,95.45,44,2,0,1,44,57,100,7e-13,71.3
Cyphellophora_laciniata_CBS190.61_T,ERR1085106.10379,95.45,44,2,0,1,44,57,100,7e-13,71.3
Cyphellophora_laciniata_CBS190.61_T,ERR1085106.10081,95.45,44,2,0,1,44,57,100,7e-13,71.3
Cyphellophora_laciniata_CBS190.61_T,ERR1085106.9621,95.45,44,2,0,1,44,57,100,7e-13,71.3
Cyphellophora_laciniata_CBS190.61_T,ERR1085106.9599,95.45,44,2,0,1,44,57,100,7e-13,71.3
Cyphellophora_laciniata_CBS190.61_T,ERR1085106.9277,95.45,44,2,0,1,44,57,100,7e-13,71.3
Cyphellophora_laciniata_CBS190.61_T,ERR1085106.9253,95.45,44,2,0,1,44,57,100,7e-13,71.3
Cyphellophora_laciniata_CBS190.61_T,ERR1085106.9236,95.45,44,2,0,1,44,57,100,7e-13,71.3
Cyphellophora_laciniata_CBS190.61_T,ERR1085106.8894,95.45,44,2,0,1,44,57,100,7e-13,71.3
Cyphellophora_laciniata_CBS190.61_T,ERR1085106.8273,95.45,44,2,0,1,44,57,100,7e-13,71.3
Cyphellophora_laciniata_CBS190.61_T,ERR1085106.8088,95.45,44,2,0,1,44,57,100,7e-13,71.3
Cyphellophora_laciniata_CBS190.61_T,ERR1085106.8025,95.45,44,2,0,1,44,57,100,7e-13,71.3
Cyphellophora_laciniata_CBS190.61_T,ERR1085106.7796,95.45,44,2,0,1,44,57,100,7e-13,71.3
Cyphellophora_laciniata_CBS190.61_T,ERR1085106.7650,95.45,44,2,0,1,44,57,100,7e-13,71.3
Cyphellophora_laciniata_CBS190.61_T,ERR1085106.7622,95.45,44,2,0,1,44,57,100,7e-13,71.3
Cyphellophora_laciniata_CBS190.61_T,ERR1085106.7184,95.45,44,2,0,1,44,57,100,7e-13,71.3
Cyphellophora_laciniata_CBS190.61_T,ERR1085106.6766,95.45,44,2,0,1,44,57,100,7e-13,71.3
Cyphellophora_laciniata_CBS190.61_T,ERR1085106.6502,95.45,44,2,0,1,44,57,100,7e-13,71.3
Cyphellophora_laciniata_CBS190.61_T,ERR1085106.6277,95.45,44,2,0,1,44,57,100,7e-13,71.3
Cyphellophora_laciniata_CBS190.61_T,ERR1085106.6241,95.45,44,2,0,1,44,57,100,7e-13,71.3
Cyphellophora_laciniata_CBS190.61_T,ERR1085106.5742,95.45,44,2,0,1,44,57,100,7e-13,71.3
Cyphellophora_laciniata_CBS190.61_T,ERR1085106.5577,95.45,44,2,0,1,44,57,100,7e-13,71.3
Cyphellophora_laciniata_CBS190.61_T,ERR1085106.5418,95.45,44,2,0,1,44,57,100,7e-13,71.3
Cyphellophora_laciniata_CBS190.61_T,ERR1085106.4742,95.45,44,2,0,1,44,57,100,7e-13,71.3
Cyphellophora_laciniata_CBS190.61_T,ERR1085106.4309,95.45,44,2,0,1,44,57,100,7e-13,71.3
Cyphellophora_laciniata_CBS190.61_T,ERR1085106.4266,95.45,44,2,0,1,44,57,100,7e-13,71.3
Cyphellophora_laciniata_CBS190.61_T,ERR1085106.4189,95.45,44,2,0,1,44,57,100,7e-13,71.3
Cyphellophora_laciniata_CBS190.61_T,ERR1085106.4184,95.45,44,2,0,1,44,57,100,7e-13,71.3
Cyphellophora_laciniata_CBS190.61_T,ERR1085106.3868,95.45,44,2,0,1,44,57,100,7e-13,71.3
Cyphellophora_laciniata_CBS190.61_T,ERR1085106.3813,95.45,44,2,0,1,44,57,100,7e-13,71.3
Cyphellophora_laciniata_CBS190.61_T,ERR1085106.3228,95.45,44,2,0,1,44,57,100,7e-13,71.3
Cyphellophora_laciniata_CBS190.61_T,ERR1085106.3223,95.45,44,2,0,1,44,57,100,7e-13,71.3
Cyphellophora_laciniata_CBS190.61_T,ERR1085106.3140,95.45,44,2,0,1,44,57,100,7e-13,71.3
Cyphellophora_laciniata_CBS190.61_T,ERR1085106.2840,95.45,44,2,0,1,44,57,100,7e-13,71.3
Cyphellophora_laciniata_CBS190.61_T,ERR1085106.2794,95.45,44,2,0,1,44,57,100,7e-13,71.3
Cyphellophora_laciniata_CBS190.61_T,ERR1085106.2689,95.45,44,2,0,1,44,57,100,7e-13,71.3
Cyphellophora_laciniata_CBS190.61_T,ERR1085106.2277,95.45,44,2,0,1,44,57,100,7e-13,71.3
Cyphellophora_laciniata_CBS190.61_T,ERR1085106.2177,95.45,44,2,0,1,44,57,100,7e-13,71.3
Cyphellophora_laciniata_CBS190.61_T,ERR1085106.1622,95.45,44,2,0,1,44,57,100,7e-13,71.3
Cyphellophora_laciniata_CBS190.61_T,ERR1085106.1310,95.45,44,2,0,1,44,57,100,7e-13,71.3
Cyphellophora_laciniata_CBS190.61_T,ERR1085106.984,95.45,44,2,0,1,44,57,100,7e-13,71.3
Cyphellophora_laciniata_CBS190.61_T,ERR1085106.851,95.45,44,2,0,1,44,57,100,7e-13,71.3
Cyphellophora_laciniata_CBS190.61_T,ERR1085106.821,95.45,44,2,0,1,44,57,100,7e-13,71.3
Cyphellophora_laciniata_CBS190.61_T,ERR1085106.529,95.45,44,2,0,1,44,57,100,7e-13,71.3
Cyphellophora_laciniata_CBS190.61_T,ERR1085106.210,95.45,44,2,0,1,44,57,100,7e-13,71.3
Cyphellophora_laciniata_CBS190.61_T,ERR1085106.27712,95.24,42,2,0,3,44,59,100,1e-11,67.6
Cyphellophora_laciniata_CBS190.61_T,ERR1085106.9431,95.24,42,2,0,1,42,57,98,1e-11,67.6
Cyphellophora_laciniata_CBS190.61_T,ERR1085106.31754,93.18,44,3,0,1,44,57,100,3e-11,65.8
Cyphellophora_laciniata_CBS190.61_T,ERR1085106.30595,93.18,44,3,0,1,44,57,100,3e-11,65.8
Cyphellophora_laciniata_CBS190.61_T,ERR1085106.29368,93.18,44,3,0,1,44,57,100,3e-11,65.8
Cyphellophora_laciniata_CBS190.61_T,ERR1085106.27264,93.18,44,3,0,1,44,57,100,3e-11,65.8
