Exophiala_salmonis_CBS157.67_T,ERR1085115.142894,100.00,98,0,0,1,98,3,100,1e-45,182
Exophiala_salmonis_CBS157.67_T,ERR1085115.136161,100.00,98,0,0,1,98,3,100,1e-45,182
Exophiala_salmonis_CBS157.67_T,ERR1085115.78278,100.00,98,0,0,1,98,3,100,1e-45,182
Exophiala_salmonis_CBS157.67_T,ERR1085115.17373,100.00,98,0,0,1,98,3,100,1e-45,182
Exophiala_salmonis_CBS157.67_T,ERR1085115.165518,97.96,98,2,0,1,98,3,100,3e-42,171
Exophiala_salmonis_CBS157.67_T,ERR1085115.164994,97.96,98,2,0,1,98,3,100,3e-42,171
Exophiala_salmonis_CBS157.67_T,ERR1085115.164774,97.96,98,2,0,1,98,3,100,3e-42,171
Exophiala_salmonis_CBS157.67_T,ERR1085115.163472,97.96,98,2,0,1,98,3,100,3e-42,171
Exophiala_salmonis_CBS157.67_T,ERR1085115.163274,97.96,98,2,0,1,98,3,100,3e-42,171
Exophiala_salmonis_CBS157.67_T,ERR1085115.159299,97.96,98,2,0,1,98,3,100,3e-42,171
Exophiala_salmonis_CBS157.67_T,ERR1085115.157887,97.96,98,2,0,1,98,3,100,3e-42,171
Exophiala_salmonis_CBS157.67_T,ERR1085115.157726,97.96,98,2,0,1,98,3,100,3e-42,171
Exophiala_salmonis_CBS157.67_T,ERR1085115.157701,97.96,98,2,0,1,98,3,100,3e-42,171
Exophiala_salmonis_CBS157.67_T,ERR1085115.156389,97.96,98,2,0,1,98,3,100,3e-42,171
Exophiala_salmonis_CBS157.67_T,ERR1085115.155474,97.96,98,2,0,1,98,3,100,3e-42,171
Exophiala_salmonis_CBS157.67_T,ERR1085115.154531,97.96,98,2,0,1,98,3,100,3e-42,171
Exophiala_salmonis_CBS157.67_T,ERR1085115.153474,97.96,98,2,0,1,98,3,100,3e-42,171
Exophiala_salmonis_CBS157.67_T,ERR1085115.152504,97.96,98,2,0,1,98,3,100,3e-42,171
Exophiala_salmonis_CBS157.67_T,ERR1085115.152460,97.96,98,2,0,1,98,3,100,3e-42,171
Exophiala_salmonis_CBS157.67_T,ERR1085115.151910,97.96,98,2,0,1,98,3,100,3e-42,171
Exophiala_salmonis_CBS157.67_T,ERR1085115.150965,97.96,98,2,0,1,98,3,100,3e-42,171
Exophiala_salmonis_CBS157.67_T,ERR1085115.149903,97.96,98,2,0,1,98,3,100,3e-42,171
Exophiala_salmonis_CBS157.67_T,ERR1085115.148998,97.96,98,2,0,1,98,3,100,3e-42,171
Exophiala_salmonis_CBS157.67_T,ERR1085115.144720,97.96,98,2,0,1,98,3,100,3e-42,171
Exophiala_salmonis_CBS157.67_T,ERR1085115.143322,97.96,98,2,0,1,98,3,100,3e-42,171
Exophiala_salmonis_CBS157.67_T,ERR1085115.141039,97.96,98,2,0,1,98,3,100,3e-42,171
Exophiala_salmonis_CBS157.67_T,ERR1085115.136651,97.96,98,2,0,1,98,3,100,3e-42,171
Exophiala_salmonis_CBS157.67_T,ERR1085115.134313,97.96,98,2,0,1,98,3,100,3e-42,171
Exophiala_salmonis_CBS157.67_T,ERR1085115.133620,97.96,98,2,0,1,98,3,100,3e-42,171
Exophiala_salmonis_CBS157.67_T,ERR1085115.130273,97.96,98,2,0,1,98,3,100,3e-42,171
Exophiala_salmonis_CBS157.67_T,ERR1085115.129506,97.96,98,2,0,1,98,3,100,3e-42,171
Exophiala_salmonis_CBS157.67_T,ERR1085115.128238,97.96,98,2,0,1,98,3,100,3e-42,171
Exophiala_salmonis_CBS157.67_T,ERR1085115.127520,97.96,98,2,0,1,98,3,100,3e-42,171
Exophiala_salmonis_CBS157.67_T,ERR1085115.126554,97.96,98,2,0,1,98,3,100,3e-42,171
Exophiala_salmonis_CBS157.67_T,ERR1085115.125954,97.96,98,2,0,1,98,3,100,3e-42,171
Exophiala_salmonis_CBS157.67_T,ERR1085115.123532,97.96,98,2,0,1,98,3,100,3e-42,171
Exophiala_salmonis_CBS157.67_T,ERR1085115.123217,97.96,98,2,0,1,98,3,100,3e-42,171
Exophiala_salmonis_CBS157.67_T,ERR1085115.123037,97.96,98,2,0,1,98,3,100,3e-42,171
Exophiala_salmonis_CBS157.67_T,ERR1085115.121957,97.96,98,2,0,1,98,3,100,3e-42,171
Exophiala_salmonis_CBS157.67_T,ERR1085115.121349,97.96,98,2,0,1,98,3,100,3e-42,171
Exophiala_salmonis_CBS157.67_T,ERR1085115.120971,97.96,98,2,0,1,98,3,100,3e-42,171
Exophiala_salmonis_CBS157.67_T,ERR1085115.120904,97.96,98,2,0,1,98,3,100,3e-42,171
Exophiala_salmonis_CBS157.67_T,ERR1085115.119876,97.96,98,2,0,1,98,3,100,3e-42,171
Exophiala_salmonis_CBS157.67_T,ERR1085115.119178,97.96,98,2,0,1,98,3,100,3e-42,171
Exophiala_salmonis_CBS157.67_T,ERR1085115.118237,97.96,98,2,0,1,98,3,100,3e-42,171
Exophiala_salmonis_CBS157.67_T,ERR1085115.116309,97.96,98,2,0,1,98,3,100,3e-42,171
Exophiala_salmonis_CBS157.67_T,ERR1085115.115306,97.96,98,2,0,1,98,3,100,3e-42,171
Exophiala_salmonis_CBS157.67_T,ERR1085115.114294,97.96,98,2,0,1,98,3,100,3e-42,171
Exophiala_salmonis_CBS157.67_T,ERR1085115.108664,97.96,98,2,0,1,98,3,100,3e-42,171
Exophiala_salmonis_CBS157.67_T,ERR1085115.103257,97.96,98,2,0,1,98,3,100,3e-42,171
Exophiala_salmonis_CBS157.67_T,ERR1085115.102871,97.96,98,2,0,1,98,3,100,3e-42,171
Exophiala_salmonis_CBS157.67_T,ERR1085115.102374,97.96,98,2,0,1,98,3,100,3e-42,171
Exophiala_salmonis_CBS157.67_T,ERR1085115.98545,97.96,98,2,0,1,98,3,100,3e-42,171
Exophiala_salmonis_CBS157.67_T,ERR1085115.96920,97.96,98,2,0,1,98,3,100,3e-42,171
Exophiala_salmonis_CBS157.67_T,ERR1085115.95397,97.96,98,2,0,1,98,3,100,3e-42,171
Exophiala_salmonis_CBS157.67_T,ERR1085115.94384,97.96,98,2,0,1,98,3,100,3e-42,171
Exophiala_salmonis_CBS157.67_T,ERR1085115.93839,97.96,98,2,0,1,98,3,100,3e-42,171
Exophiala_salmonis_CBS157.67_T,ERR1085115.93035,97.96,98,2,0,1,98,3,100,3e-42,171
Exophiala_salmonis_CBS157.67_T,ERR1085115.91450,97.96,98,2,0,1,98,3,100,3e-42,171
Exophiala_salmonis_CBS157.67_T,ERR1085115.89251,97.96,98,2,0,1,98,3,100,3e-42,171
Exophiala_salmonis_CBS157.67_T,ERR1085115.88606,97.96,98,2,0,1,98,3,100,3e-42,171
Exophiala_salmonis_CBS157.67_T,ERR1085115.81117,97.96,98,2,0,1,98,3,100,3e-42,171
Exophiala_salmonis_CBS157.67_T,ERR1085115.80573,97.96,98,2,0,1,98,3,100,3e-42,171
Exophiala_salmonis_CBS157.67_T,ERR1085115.79282,97.96,98,2,0,1,98,3,100,3e-42,171
Exophiala_salmonis_CBS157.67_T,ERR1085115.78664,97.96,98,2,0,1,98,3,100,3e-42,171
Exophiala_salmonis_CBS157.67_T,ERR1085115.78231,97.96,98,2,0,1,98,3,100,3e-42,171
Exophiala_salmonis_CBS157.67_T,ERR1085115.77718,97.96,98,2,0,1,98,3,100,3e-42,171
Exophiala_salmonis_CBS157.67_T,ERR1085115.77131,97.96,98,2,0,1,98,3,100,3e-42,171
Exophiala_salmonis_CBS157.67_T,ERR1085115.75913,97.96,98,2,0,1,98,3,100,3e-42,171
Exophiala_salmonis_CBS157.67_T,ERR1085115.75483,97.96,98,2,0,1,98,3,100,3e-42,171
Exophiala_salmonis_CBS157.67_T,ERR1085115.74017,97.96,98,2,0,1,98,3,100,3e-42,171
Exophiala_salmonis_CBS157.67_T,ERR1085115.72473,97.96,98,2,0,1,98,3,100,3e-42,171
Exophiala_salmonis_CBS157.67_T,ERR1085115.71833,97.96,98,2,0,1,98,3,100,3e-42,171
Exophiala_salmonis_CBS157.67_T,ERR1085115.70496,97.96,98,2,0,1,98,3,100,3e-42,171
Exophiala_salmonis_CBS157.67_T,ERR1085115.70099,97.96,98,2,0,1,98,3,100,3e-42,171
Exophiala_salmonis_CBS157.67_T,ERR1085115.68988,97.96,98,2,0,1,98,3,100,3e-42,171
Exophiala_salmonis_CBS157.67_T,ERR1085115.68457,97.96,98,2,0,1,98,3,100,3e-42,171
Exophiala_salmonis_CBS157.67_T,ERR1085115.67487,97.96,98,2,0,1,98,3,100,3e-42,171
Exophiala_salmonis_CBS157.67_T,ERR1085115.66274,97.96,98,2,0,1,98,3,100,3e-42,171
Exophiala_salmonis_CBS157.67_T,ERR1085115.66163,97.96,98,2,0,1,98,3,100,3e-42,171
Exophiala_salmonis_CBS157.67_T,ERR1085115.62804,97.96,98,2,0,1,98,3,100,3e-42,171
Exophiala_salmonis_CBS157.67_T,ERR1085115.62501,97.96,98,2,0,1,98,3,100,3e-42,171
Exophiala_salmonis_CBS157.67_T,ERR1085115.62425,97.96,98,2,0,1,98,3,100,3e-42,171
Exophiala_salmonis_CBS157.67_T,ERR1085115.61656,97.96,98,2,0,1,98,3,100,3e-42,171
Exophiala_salmonis_CBS157.67_T,ERR1085115.60836,97.96,98,2,0,1,98,3,100,3e-42,171
Exophiala_salmonis_CBS157.67_T,ERR1085115.59684,97.96,98,2,0,1,98,3,100,3e-42,171
Exophiala_salmonis_CBS157.67_T,ERR1085115.58782,97.96,98,2,0,1,98,3,100,3e-42,171
Exophiala_salmonis_CBS157.67_T,ERR1085115.58657,97.96,98,2,0,1,98,3,100,3e-42,171
Exophiala_salmonis_CBS157.67_T,ERR1085115.51750,97.96,98,2,0,1,98,3,100,3e-42,171
Exophiala_salmonis_CBS157.67_T,ERR1085115.51023,97.96,98,2,0,1,98,3,100,3e-42,171
Exophiala_salmonis_CBS157.67_T,ERR1085115.50720,97.96,98,2,0,1,98,3,100,3e-42,171
Exophiala_salmonis_CBS157.67_T,ERR1085115.50145,97.96,98,2,0,1,98,3,100,3e-42,171
Exophiala_salmonis_CBS157.67_T,ERR1085115.48861,97.96,98,2,0,1,98,3,100,3e-42,171
Exophiala_salmonis_CBS157.67_T,ERR1085115.47672,97.96,98,2,0,1,98,3,100,3e-42,171
Exophiala_salmonis_CBS157.67_T,ERR1085115.46929,97.96,98,2,0,1,98,3,100,3e-42,171
Exophiala_salmonis_CBS157.67_T,ERR1085115.46726,97.96,98,2,0,1,98,3,100,3e-42,171
Exophiala_salmonis_CBS157.67_T,ERR1085115.46414,97.96,98,2,0,1,98,3,100,3e-42,171
Exophiala_salmonis_CBS157.67_T,ERR1085115.45289,97.96,98,2,0,1,98,3,100,3e-42,171
Exophiala_salmonis_CBS157.67_T,ERR1085115.45030,97.96,98,2,0,1,98,3,100,3e-42,171
Exophiala_salmonis_CBS157.67_T,ERR1085115.43640,97.96,98,2,0,1,98,3,100,3e-42,171
Exophiala_salmonis_CBS157.67_T,ERR1085115.42315,97.96,98,2,0,1,98,3,100,3e-42,171
Exophiala_salmonis_CBS157.67_T,ERR1085115.41827,97.96,98,2,0,1,98,3,100,3e-42,171
Exophiala_salmonis_CBS157.67_T,ERR1085115.38114,97.96,98,2,0,1,98,3,100,3e-42,171
Exophiala_salmonis_CBS157.67_T,ERR1085115.35718,97.96,98,2,0,1,98,3,100,3e-42,171
Exophiala_salmonis_CBS157.67_T,ERR1085115.33929,97.96,98,2,0,1,98,3,100,3e-42,171
Exophiala_salmonis_CBS157.67_T,ERR1085115.32619,97.96,98,2,0,1,98,3,100,3e-42,171
Exophiala_salmonis_CBS157.67_T,ERR1085115.32360,97.96,98,2,0,1,98,3,100,3e-42,171
Exophiala_salmonis_CBS157.67_T,ERR1085115.30368,97.96,98,2,0,1,98,3,100,3e-42,171
Exophiala_salmonis_CBS157.67_T,ERR1085115.28082,97.96,98,2,0,1,98,3,100,3e-42,171
Exophiala_salmonis_CBS157.67_T,ERR1085115.22674,97.96,98,2,0,1,98,3,100,3e-42,171
Exophiala_salmonis_CBS157.67_T,ERR1085115.19615,97.96,98,2,0,1,98,3,100,3e-42,171
Exophiala_salmonis_CBS157.67_T,ERR1085115.18250,97.96,98,2,0,1,98,3,100,3e-42,171
Exophiala_salmonis_CBS157.67_T,ERR1085115.18121,97.96,98,2,0,1,98,3,100,3e-42,171
Exophiala_salmonis_CBS157.67_T,ERR1085115.17769,97.96,98,2,0,1,98,3,100,3e-42,171
Exophiala_salmonis_CBS157.67_T,ERR1085115.16287,97.96,98,2,0,1,98,3,100,3e-42,171
Exophiala_salmonis_CBS157.67_T,ERR1085115.15814,97.96,98,2,0,1,98,3,100,3e-42,171
Exophiala_salmonis_CBS157.67_T,ERR1085115.14219,97.96,98,2,0,1,98,3,100,3e-42,171
Exophiala_salmonis_CBS157.67_T,ERR1085115.14196,97.96,98,2,0,1,98,3,100,3e-42,171
Exophiala_salmonis_CBS157.67_T,ERR1085115.13943,97.96,98,2,0,1,98,3,100,3e-42,171
Exophiala_salmonis_CBS157.67_T,ERR1085115.13030,97.96,98,2,0,1,98,3,100,3e-42,171
Exophiala_salmonis_CBS157.67_T,ERR1085115.12482,97.96,98,2,0,1,98,3,100,3e-42,171
Exophiala_salmonis_CBS157.67_T,ERR1085115.12133,97.96,98,2,0,1,98,3,100,3e-42,171
Exophiala_salmonis_CBS157.67_T,ERR1085115.11712,97.96,98,2,0,1,98,3,100,3e-42,171
Exophiala_salmonis_CBS157.67_T,ERR1085115.10304,97.96,98,2,0,1,98,3,100,3e-42,171
Exophiala_salmonis_CBS157.67_T,ERR1085115.8469,97.96,98,2,0,1,98,3,100,3e-42,171
Exophiala_salmonis_CBS157.67_T,ERR1085115.6144,97.96,98,2,0,1,98,3,100,3e-42,171
Exophiala_salmonis_CBS157.67_T,ERR1085115.4674,97.96,98,2,0,1,98,3,100,3e-42,171
Exophiala_salmonis_CBS157.67_T,ERR1085115.3544,97.96,98,2,0,1,98,3,100,3e-42,171
Exophiala_salmonis_CBS157.67_T,ERR1085115.1650,97.96,98,2,0,1,98,3,100,3e-42,171
Exophiala_salmonis_CBS157.67_T,ERR1085115.1086,97.96,98,2,0,1,98,3,100,3e-42,171
Exophiala_salmonis_CBS157.67_T,ERR1085115.103211,97.94,97,2,0,1,97,3,99,1e-41,169
Exophiala_salmonis_CBS157.67_T,ERR1085115.165098,97.92,96,2,0,3,98,5,100,4e-41,167
Exophiala_salmonis_CBS157.67_T,ERR1085115.167455,96.94,98,3,0,1,98,3,100,1e-40,165
Exophiala_salmonis_CBS157.67_T,ERR1085115.166399,96.94,98,3,0,1,98,3,100,1e-40,165
Exophiala_salmonis_CBS157.67_T,ERR1085115.162560,96.94,98,3,0,1,98,3,100,1e-40,165
Exophiala_salmonis_CBS157.67_T,ERR1085115.158786,96.94,98,3,0,1,98,3,100,1e-40,165
Exophiala_salmonis_CBS157.67_T,ERR1085115.157857,96.94,98,3,0,1,98,3,100,1e-40,165
Exophiala_salmonis_CBS157.67_T,ERR1085115.157018,96.94,98,3,0,1,98,3,100,1e-40,165
Exophiala_salmonis_CBS157.67_T,ERR1085115.151761,96.94,98,3,0,1,98,3,100,1e-40,165
Exophiala_salmonis_CBS157.67_T,ERR1085115.148751,96.94,98,3,0,1,98,3,100,1e-40,165
Exophiala_salmonis_CBS157.67_T,ERR1085115.145147,96.94,98,3,0,1,98,3,100,1e-40,165
Exophiala_salmonis_CBS157.67_T,ERR1085115.133371,96.94,98,3,0,1,98,3,100,1e-40,165
Exophiala_salmonis_CBS157.67_T,ERR1085115.132449,96.94,98,3,0,1,98,3,100,1e-40,165
Exophiala_salmonis_CBS157.67_T,ERR1085115.123449,96.94,98,3,0,1,98,3,100,1e-40,165
Exophiala_salmonis_CBS157.67_T,ERR1085115.121741,96.94,98,3,0,1,98,3,100,1e-40,165
Exophiala_salmonis_CBS157.67_T,ERR1085115.116284,97.89,95,2,0,1,95,3,97,1e-40,165
Exophiala_salmonis_CBS157.67_T,ERR1085115.109241,96.94,98,3,0,1,98,3,100,1e-40,165
Exophiala_salmonis_CBS157.67_T,ERR1085115.106958,96.94,98,3,0,1,98,3,100,1e-40,165
Exophiala_salmonis_CBS157.67_T,ERR1085115.103983,96.94,98,3,0,1,98,3,100,1e-40,165
Exophiala_salmonis_CBS157.67_T,ERR1085115.89241,96.94,98,3,0,1,98,3,100,1e-40,165
Exophiala_salmonis_CBS157.67_T,ERR1085115.79595,96.94,98,3,0,1,98,3,100,1e-40,165
Exophiala_salmonis_CBS157.67_T,ERR1085115.79582,96.94,98,3,0,1,98,3,100,1e-40,165
Exophiala_salmonis_CBS157.67_T,ERR1085115.76366,96.94,98,3,0,1,98,3,100,1e-40,165
Exophiala_salmonis_CBS157.67_T,ERR1085115.73822,96.94,98,3,0,1,98,3,100,1e-40,165
Exophiala_salmonis_CBS157.67_T,ERR1085115.62484,96.94,98,3,0,1,98,3,100,1e-40,165
Exophiala_salmonis_CBS157.67_T,ERR1085115.53419,96.94,98,3,0,1,98,3,100,1e-40,165
Exophiala_salmonis_CBS157.67_T,ERR1085115.53160,96.94,98,3,0,1,98,3,100,1e-40,165
Exophiala_salmonis_CBS157.67_T,ERR1085115.52756,96.94,98,3,0,1,98,3,100,1e-40,165
Exophiala_salmonis_CBS157.67_T,ERR1085115.32627,96.94,98,3,0,1,98,3,100,1e-40,165
Exophiala_salmonis_CBS157.67_T,ERR1085115.20354,96.94,98,3,0,1,98,3,100,1e-40,165
Exophiala_salmonis_CBS157.67_T,ERR1085115.18472,96.94,98,3,0,1,98,3,100,1e-40,165
Exophiala_salmonis_CBS157.67_T,ERR1085115.17935,96.94,98,3,0,1,98,3,100,1e-40,165
Exophiala_salmonis_CBS157.67_T,ERR1085115.41,96.94,98,3,0,1,98,3,100,1e-40,165
Exophiala_salmonis_CBS157.67_T,ERR1085115.134627,96.91,97,3,0,1,97,3,99,5e-40,163
Exophiala_salmonis_CBS157.67_T,ERR1085115.92022,96.91,97,3,0,1,97,3,99,5e-40,163
Exophiala_salmonis_CBS157.67_T,ERR1085115.165810,96.84,95,3,0,4,98,6,100,7e-39,159
Exophiala_salmonis_CBS157.67_T,ERR1085115.139199,95.92,98,4,0,1,98,3,100,7e-39,159
Exophiala_salmonis_CBS157.67_T,ERR1085115.98003,95.92,98,4,0,1,98,3,100,7e-39,159
Exophiala_salmonis_CBS157.67_T,ERR1085115.52764,95.92,98,4,0,1,98,3,100,7e-39,159
Exophiala_salmonis_CBS157.67_T,ERR1085115.131675,94.90,98,5,0,1,98,3,100,3e-37,154
Exophiala_salmonis_CBS157.67_T,ERR1085115.117376,94.90,98,5,0,1,98,3,100,3e-37,154
Exophiala_salmonis_CBS157.67_T,ERR1085115.100508,94.90,98,5,0,1,98,3,100,3e-37,154
Exophiala_salmonis_CBS157.67_T,ERR1085115.69787,94.90,98,5,0,1,98,3,100,3e-37,154
Exophiala_salmonis_CBS157.67_T,ERR1085115.64831,94.90,98,5,0,1,98,3,100,3e-37,154
Exophiala_salmonis_CBS157.67_T,ERR1085115.11155,94.90,98,5,0,1,98,3,100,3e-37,154
Exophiala_salmonis_CBS157.67_T,ERR1085115.152650,93.94,99,4,2,1,98,3,100,1e-35,148
Exophiala_salmonis_CBS157.67_T,ERR1085115.136408,93.88,98,6,0,1,98,3,100,1e-35,148
Exophiala_salmonis_CBS157.67_T,ERR1085115.25807,93.88,98,6,0,1,98,3,100,1e-35,148
Exophiala_salmonis_CBS157.67_T,ERR1085115.12573,93.94,99,4,2,1,98,3,100,1e-35,148
Exophiala_salmonis_CBS157.67_T,ERR1085115.12495,93.88,98,6,0,1,98,3,100,1e-35,148
Exophiala_salmonis_CBS157.67_T,ERR1085115.10093,93.88,98,6,0,1,98,3,100,1e-35,148
Exophiala_salmonis_CBS157.67_T,ERR1085115.310,93.94,99,4,2,1,98,3,100,1e-35,148
Exophiala_salmonis_CBS157.67_T,ERR1085115.166966,92.86,98,7,0,1,98,3,100,7e-34,143
Exophiala_salmonis_CBS157.67_T,ERR1085115.159185,92.86,98,7,0,1,98,3,100,7e-34,143
Exophiala_salmonis_CBS157.67_T,ERR1085115.157899,92.86,98,7,0,1,98,3,100,7e-34,143
Exophiala_salmonis_CBS157.67_T,ERR1085115.154691,92.86,98,7,0,1,98,3,100,7e-34,143
Exophiala_salmonis_CBS157.67_T,ERR1085115.152894,92.86,98,7,0,1,98,3,100,7e-34,143
Exophiala_salmonis_CBS157.67_T,ERR1085115.142747,92.86,98,7,0,1,98,3,100,7e-34,143
Exophiala_salmonis_CBS157.67_T,ERR1085115.137004,92.86,98,7,0,1,98,3,100,7e-34,143
Exophiala_salmonis_CBS157.67_T,ERR1085115.129955,92.86,98,7,0,1,98,3,100,7e-34,143
Exophiala_salmonis_CBS157.67_T,ERR1085115.127626,92.86,98,7,0,1,98,3,100,7e-34,143
Exophiala_salmonis_CBS157.67_T,ERR1085115.126475,92.86,98,7,0,1,98,3,100,7e-34,143
Exophiala_salmonis_CBS157.67_T,ERR1085115.125848,92.86,98,7,0,1,98,3,100,7e-34,143
Exophiala_salmonis_CBS157.67_T,ERR1085115.125176,92.86,98,7,0,1,98,3,100,7e-34,143
Exophiala_salmonis_CBS157.67_T,ERR1085115.103301,92.86,98,7,0,1,98,3,100,7e-34,143
Exophiala_salmonis_CBS157.67_T,ERR1085115.96940,92.86,98,7,0,1,98,3,100,7e-34,143
Exophiala_salmonis_CBS157.67_T,ERR1085115.96688,92.86,98,7,0,1,98,3,100,7e-34,143
Exophiala_salmonis_CBS157.67_T,ERR1085115.86265,92.86,98,7,0,1,98,3,100,7e-34,143
Exophiala_salmonis_CBS157.67_T,ERR1085115.72407,92.86,98,7,0,1,98,3,100,7e-34,143
Exophiala_salmonis_CBS157.67_T,ERR1085115.70646,92.86,98,7,0,1,98,3,100,7e-34,143
Exophiala_salmonis_CBS157.67_T,ERR1085115.68243,92.86,98,7,0,1,98,3,100,7e-34,143
Exophiala_salmonis_CBS157.67_T,ERR1085115.67618,92.86,98,7,0,1,98,3,100,7e-34,143
Exophiala_salmonis_CBS157.67_T,ERR1085115.65475,92.86,98,7,0,1,98,3,100,7e-34,143
Exophiala_salmonis_CBS157.67_T,ERR1085115.63275,92.86,98,7,0,1,98,3,100,7e-34,143
Exophiala_salmonis_CBS157.67_T,ERR1085115.56248,92.86,98,7,0,1,98,3,100,7e-34,143
Exophiala_salmonis_CBS157.67_T,ERR1085115.54575,92.86,98,7,0,1,98,3,100,7e-34,143
Exophiala_salmonis_CBS157.67_T,ERR1085115.54396,92.86,98,7,0,1,98,3,100,7e-34,143
Exophiala_salmonis_CBS157.67_T,ERR1085115.52110,92.86,98,7,0,1,98,3,100,7e-34,143
Exophiala_salmonis_CBS157.67_T,ERR1085115.38178,92.86,98,7,0,1,98,3,100,7e-34,143
Exophiala_salmonis_CBS157.67_T,ERR1085115.29082,92.86,98,7,0,1,98,3,100,7e-34,143
Exophiala_salmonis_CBS157.67_T,ERR1085115.27036,92.86,98,7,0,1,98,3,100,7e-34,143
Exophiala_salmonis_CBS157.67_T,ERR1085115.26552,92.86,98,7,0,1,98,3,100,7e-34,143
Exophiala_salmonis_CBS157.67_T,ERR1085115.21268,92.86,98,7,0,1,98,3,100,7e-34,143
Exophiala_salmonis_CBS157.67_T,ERR1085115.18343,92.86,98,7,0,1,98,3,100,7e-34,143
Exophiala_salmonis_CBS157.67_T,ERR1085115.14489,92.93,99,5,2,1,98,3,100,7e-34,143
Exophiala_salmonis_CBS157.67_T,ERR1085115.92452,92.71,96,7,0,3,98,5,100,9e-33,139
Exophiala_salmonis_CBS157.67_T,ERR1085115.72780,92.71,96,7,0,3,98,5,100,9e-33,139
Exophiala_salmonis_CBS157.67_T,ERR1085115.163958,91.84,98,8,0,1,98,3,100,3e-32,137
Exophiala_salmonis_CBS157.67_T,ERR1085115.162296,91.84,98,8,0,1,98,3,100,3e-32,137
Exophiala_salmonis_CBS157.67_T,ERR1085115.161698,91.84,98,8,0,1,98,3,100,3e-32,137
Exophiala_salmonis_CBS157.67_T,ERR1085115.160498,91.84,98,8,0,1,98,3,100,3e-32,137
Exophiala_salmonis_CBS157.67_T,ERR1085115.159244,91.84,98,8,0,1,98,3,100,3e-32,137
Exophiala_salmonis_CBS157.67_T,ERR1085115.157930,91.84,98,8,0,1,98,3,100,3e-32,137
Exophiala_salmonis_CBS157.67_T,ERR1085115.156803,91.84,98,8,0,1,98,3,100,3e-32,137
Exophiala_salmonis_CBS157.67_T,ERR1085115.156014,92.00,100,4,4,1,98,3,100,3e-32,137
Exophiala_salmonis_CBS157.67_T,ERR1085115.154853,91.84,98,8,0,1,98,3,100,3e-32,137
Exophiala_salmonis_CBS157.67_T,ERR1085115.150567,91.84,98,8,0,1,98,3,100,3e-32,137
Exophiala_salmonis_CBS157.67_T,ERR1085115.150194,91.84,98,8,0,1,98,3,100,3e-32,137
Exophiala_salmonis_CBS157.67_T,ERR1085115.149790,91.84,98,8,0,1,98,3,100,3e-32,137
Exophiala_salmonis_CBS157.67_T,ERR1085115.148720,91.84,98,8,0,1,98,3,100,3e-32,137
Exophiala_salmonis_CBS157.67_T,ERR1085115.145652,91.84,98,8,0,1,98,3,100,3e-32,137
Exophiala_salmonis_CBS157.67_T,ERR1085115.145283,91.84,98,8,0,1,98,3,100,3e-32,137
Exophiala_salmonis_CBS157.67_T,ERR1085115.142838,91.84,98,8,0,1,98,3,100,3e-32,137
Exophiala_salmonis_CBS157.67_T,ERR1085115.141950,91.84,98,8,0,1,98,3,100,3e-32,137
Exophiala_salmonis_CBS157.67_T,ERR1085115.136996,91.84,98,8,0,1,98,3,100,3e-32,137
Exophiala_salmonis_CBS157.67_T,ERR1085115.135943,91.84,98,8,0,1,98,3,100,3e-32,137
Exophiala_salmonis_CBS157.67_T,ERR1085115.134019,91.84,98,8,0,1,98,3,100,3e-32,137
Exophiala_salmonis_CBS157.67_T,ERR1085115.133510,91.84,98,8,0,1,98,3,100,3e-32,137
Exophiala_salmonis_CBS157.67_T,ERR1085115.130989,91.84,98,8,0,1,98,3,100,3e-32,137
Exophiala_salmonis_CBS157.67_T,ERR1085115.128776,92.00,100,4,4,1,98,3,100,3e-32,137
Exophiala_salmonis_CBS157.67_T,ERR1085115.128029,91.84,98,8,0,1,98,3,100,3e-32,137
Exophiala_salmonis_CBS157.67_T,ERR1085115.127401,92.00,100,4,4,1,98,3,100,3e-32,137
Exophiala_salmonis_CBS157.67_T,ERR1085115.125678,91.84,98,8,0,1,98,3,100,3e-32,137
Exophiala_salmonis_CBS157.67_T,ERR1085115.125298,91.84,98,8,0,1,98,3,100,3e-32,137
Exophiala_salmonis_CBS157.67_T,ERR1085115.125218,91.84,98,8,0,1,98,3,100,3e-32,137
Exophiala_salmonis_CBS157.67_T,ERR1085115.122688,91.84,98,8,0,1,98,3,100,3e-32,137
Exophiala_salmonis_CBS157.67_T,ERR1085115.122226,91.84,98,8,0,1,98,3,100,3e-32,137
Exophiala_salmonis_CBS157.67_T,ERR1085115.121583,91.84,98,8,0,1,98,3,100,3e-32,137
Exophiala_salmonis_CBS157.67_T,ERR1085115.121329,91.84,98,8,0,1,98,3,100,3e-32,137
Exophiala_salmonis_CBS157.67_T,ERR1085115.118891,91.84,98,8,0,1,98,3,100,3e-32,137
Exophiala_salmonis_CBS157.67_T,ERR1085115.115194,91.84,98,8,0,1,98,3,100,3e-32,137
Exophiala_salmonis_CBS157.67_T,ERR1085115.115077,91.84,98,8,0,1,98,3,100,3e-32,137
Exophiala_salmonis_CBS157.67_T,ERR1085115.113130,91.84,98,8,0,1,98,3,100,3e-32,137
Exophiala_salmonis_CBS157.67_T,ERR1085115.112286,91.84,98,8,0,1,98,3,100,3e-32,137
Exophiala_salmonis_CBS157.67_T,ERR1085115.109933,91.84,98,8,0,1,98,3,100,3e-32,137
Exophiala_salmonis_CBS157.67_T,ERR1085115.107945,91.84,98,8,0,1,98,3,100,3e-32,137
Exophiala_salmonis_CBS157.67_T,ERR1085115.106991,91.84,98,8,0,1,98,3,100,3e-32,137
Exophiala_salmonis_CBS157.67_T,ERR1085115.106378,91.84,98,8,0,1,98,3,100,3e-32,137
Exophiala_salmonis_CBS157.67_T,ERR1085115.101672,91.84,98,8,0,1,98,3,100,3e-32,137
Exophiala_salmonis_CBS157.67_T,ERR1085115.97849,91.84,98,8,0,1,98,3,100,3e-32,137
Exophiala_salmonis_CBS157.67_T,ERR1085115.96503,91.84,98,8,0,1,98,3,100,3e-32,137
Exophiala_salmonis_CBS157.67_T,ERR1085115.95585,91.84,98,8,0,1,98,3,100,3e-32,137
Exophiala_salmonis_CBS157.67_T,ERR1085115.94548,91.84,98,8,0,1,98,3,100,3e-32,137
Exophiala_salmonis_CBS157.67_T,ERR1085115.94522,91.84,98,8,0,1,98,3,100,3e-32,137
Exophiala_salmonis_CBS157.67_T,ERR1085115.91121,91.84,98,8,0,1,98,3,100,3e-32,137
Exophiala_salmonis_CBS157.67_T,ERR1085115.87898,91.84,98,8,0,1,98,3,100,3e-32,137
Exophiala_salmonis_CBS157.67_T,ERR1085115.86864,91.84,98,8,0,1,98,3,100,3e-32,137
Exophiala_salmonis_CBS157.67_T,ERR1085115.83802,91.84,98,8,0,1,98,3,100,3e-32,137
Exophiala_salmonis_CBS157.67_T,ERR1085115.83046,91.84,98,8,0,1,98,3,100,3e-32,137
Exophiala_salmonis_CBS157.67_T,ERR1085115.81528,91.84,98,8,0,1,98,3,100,3e-32,137
Exophiala_salmonis_CBS157.67_T,ERR1085115.80372,91.84,98,8,0,1,98,3,100,3e-32,137
Exophiala_salmonis_CBS157.67_T,ERR1085115.78685,91.84,98,8,0,1,98,3,100,3e-32,137
Exophiala_salmonis_CBS157.67_T,ERR1085115.78559,91.84,98,8,0,1,98,3,100,3e-32,137
Exophiala_salmonis_CBS157.67_T,ERR1085115.77604,91.84,98,8,0,1,98,3,100,3e-32,137
Exophiala_salmonis_CBS157.67_T,ERR1085115.77173,91.84,98,8,0,1,98,3,100,3e-32,137
Exophiala_salmonis_CBS157.67_T,ERR1085115.74543,91.84,98,8,0,1,98,3,100,3e-32,137
Exophiala_salmonis_CBS157.67_T,ERR1085115.74417,91.84,98,8,0,1,98,3,100,3e-32,137
Exophiala_salmonis_CBS157.67_T,ERR1085115.73697,91.92,99,6,2,1,98,3,100,3e-32,137
Exophiala_salmonis_CBS157.67_T,ERR1085115.72142,91.84,98,8,0,1,98,3,100,3e-32,137
Exophiala_salmonis_CBS157.67_T,ERR1085115.71774,92.00,100,4,4,1,98,3,100,3e-32,137
Exophiala_salmonis_CBS157.67_T,ERR1085115.66615,91.84,98,8,0,1,98,3,100,3e-32,137
Exophiala_salmonis_CBS157.67_T,ERR1085115.66367,91.84,98,8,0,1,98,3,100,3e-32,137
Exophiala_salmonis_CBS157.67_T,ERR1085115.65763,91.84,98,8,0,1,98,3,100,3e-32,137
Exophiala_salmonis_CBS157.67_T,ERR1085115.65040,91.84,98,8,0,1,98,3,100,3e-32,137
Exophiala_salmonis_CBS157.67_T,ERR1085115.59863,91.84,98,8,0,1,98,3,100,3e-32,137
Exophiala_salmonis_CBS157.67_T,ERR1085115.57143,91.84,98,8,0,1,98,3,100,3e-32,137
Exophiala_salmonis_CBS157.67_T,ERR1085115.52121,91.84,98,8,0,1,98,3,100,3e-32,137
Exophiala_salmonis_CBS157.67_T,ERR1085115.47106,91.84,98,8,0,1,98,3,100,3e-32,137
Exophiala_salmonis_CBS157.67_T,ERR1085115.45284,91.84,98,8,0,1,98,3,100,3e-32,137
Exophiala_salmonis_CBS157.67_T,ERR1085115.45052,91.84,98,8,0,1,98,3,100,3e-32,137
Exophiala_salmonis_CBS157.67_T,ERR1085115.44127,91.84,98,8,0,1,98,3,100,3e-32,137
Exophiala_salmonis_CBS157.67_T,ERR1085115.43675,91.84,98,8,0,1,98,3,100,3e-32,137
Exophiala_salmonis_CBS157.67_T,ERR1085115.43364,91.84,98,8,0,1,98,3,100,3e-32,137
Exophiala_salmonis_CBS157.67_T,ERR1085115.42295,92.00,100,4,4,1,98,3,100,3e-32,137
Exophiala_salmonis_CBS157.67_T,ERR1085115.39495,91.84,98,8,0,1,98,3,100,3e-32,137
Exophiala_salmonis_CBS157.67_T,ERR1085115.39137,91.84,98,8,0,1,98,3,100,3e-32,137
Exophiala_salmonis_CBS157.67_T,ERR1085115.39008,91.84,98,8,0,1,98,3,100,3e-32,137
Exophiala_salmonis_CBS157.67_T,ERR1085115.37728,91.84,98,8,0,1,98,3,100,3e-32,137
Exophiala_salmonis_CBS157.67_T,ERR1085115.34371,91.84,98,8,0,1,98,3,100,3e-32,137
Exophiala_salmonis_CBS157.67_T,ERR1085115.31421,91.84,98,8,0,1,98,3,100,3e-32,137
Exophiala_salmonis_CBS157.67_T,ERR1085115.30930,91.84,98,8,0,1,98,3,100,3e-32,137
Exophiala_salmonis_CBS157.67_T,ERR1085115.30770,91.84,98,8,0,1,98,3,100,3e-32,137
Exophiala_salmonis_CBS157.67_T,ERR1085115.29850,91.84,98,8,0,1,98,3,100,3e-32,137
Exophiala_salmonis_CBS157.67_T,ERR1085115.28783,91.84,98,8,0,1,98,3,100,3e-32,137
Exophiala_salmonis_CBS157.67_T,ERR1085115.27836,91.84,98,8,0,1,98,3,100,3e-32,137
Exophiala_salmonis_CBS157.67_T,ERR1085115.25897,91.84,98,8,0,1,98,3,100,3e-32,137
Exophiala_salmonis_CBS157.67_T,ERR1085115.24817,91.92,99,6,2,1,98,3,100,3e-32,137
Exophiala_salmonis_CBS157.67_T,ERR1085115.24720,91.84,98,8,0,1,98,3,100,3e-32,137
Exophiala_salmonis_CBS157.67_T,ERR1085115.23873,91.84,98,8,0,1,98,3,100,3e-32,137
Exophiala_salmonis_CBS157.67_T,ERR1085115.20109,91.84,98,8,0,1,98,3,100,3e-32,137
Exophiala_salmonis_CBS157.67_T,ERR1085115.18380,91.84,98,8,0,1,98,3,100,3e-32,137
Exophiala_salmonis_CBS157.67_T,ERR1085115.15992,91.84,98,8,0,1,98,3,100,3e-32,137
Exophiala_salmonis_CBS157.67_T,ERR1085115.14152,91.84,98,8,0,1,98,3,100,3e-32,137
Exophiala_salmonis_CBS157.67_T,ERR1085115.13286,91.84,98,8,0,1,98,3,100,3e-32,137
Exophiala_salmonis_CBS157.67_T,ERR1085115.12041,91.84,98,8,0,1,98,3,100,3e-32,137
Exophiala_salmonis_CBS157.67_T,ERR1085115.10695,91.84,98,8,0,1,98,3,100,3e-32,137
Exophiala_salmonis_CBS157.67_T,ERR1085115.8125,91.84,98,8,0,1,98,3,100,3e-32,137
Exophiala_salmonis_CBS157.67_T,ERR1085115.7685,91.84,98,8,0,1,98,3,100,3e-32,137
Exophiala_salmonis_CBS157.67_T,ERR1085115.6468,91.84,98,8,0,1,98,3,100,3e-32,137
Exophiala_salmonis_CBS157.67_T,ERR1085115.5094,91.84,98,8,0,1,98,3,100,3e-32,137
Exophiala_salmonis_CBS157.67_T,ERR1085115.3673,91.84,98,8,0,1,98,3,100,3e-32,137
Exophiala_salmonis_CBS157.67_T,ERR1085115.2498,91.84,98,8,0,1,98,3,100,3e-32,137
Exophiala_salmonis_CBS157.67_T,ERR1085115.2343,91.84,98,8,0,1,98,3,100,3e-32,137
Exophiala_salmonis_CBS157.67_T,ERR1085115.1689,91.84,98,8,0,1,98,3,100,3e-32,137
Exophiala_salmonis_CBS157.67_T,ERR1085115.1355,92.00,100,4,4,1,98,3,100,3e-32,137
Exophiala_salmonis_CBS157.67_T,ERR1085115.138163,91.67,96,8,0,3,98,5,100,4e-31,134
Exophiala_salmonis_CBS157.67_T,ERR1085115.167172,90.82,98,9,0,1,98,3,100,1e-30,132
Exophiala_salmonis_CBS157.67_T,ERR1085115.166976,90.82,98,9,0,1,98,3,100,1e-30,132
Exophiala_salmonis_CBS157.67_T,ERR1085115.164854,90.82,98,9,0,1,98,3,100,1e-30,132
Exophiala_salmonis_CBS157.67_T,ERR1085115.163471,90.82,98,9,0,1,98,3,100,1e-30,132
Exophiala_salmonis_CBS157.67_T,ERR1085115.155626,90.82,98,9,0,1,98,3,100,1e-30,132
Exophiala_salmonis_CBS157.67_T,ERR1085115.151617,90.82,98,9,0,1,98,3,100,1e-30,132
Exophiala_salmonis_CBS157.67_T,ERR1085115.149194,90.82,98,9,0,1,98,3,100,1e-30,132
Exophiala_salmonis_CBS157.67_T,ERR1085115.148207,90.82,98,9,0,1,98,3,100,1e-30,132
Exophiala_salmonis_CBS157.67_T,ERR1085115.146928,90.82,98,9,0,1,98,3,100,1e-30,132
Exophiala_salmonis_CBS157.67_T,ERR1085115.146377,90.82,98,9,0,1,98,3,100,1e-30,132
Exophiala_salmonis_CBS157.67_T,ERR1085115.142417,90.82,98,9,0,1,98,3,100,1e-30,132
Exophiala_salmonis_CBS157.67_T,ERR1085115.134860,90.82,98,9,0,1,98,3,100,1e-30,132
Exophiala_salmonis_CBS157.67_T,ERR1085115.133630,90.82,98,9,0,1,98,3,100,1e-30,132
Exophiala_salmonis_CBS157.67_T,ERR1085115.130930,90.82,98,9,0,1,98,3,100,1e-30,132
Exophiala_salmonis_CBS157.67_T,ERR1085115.130650,90.82,98,9,0,1,98,3,100,1e-30,132
Exophiala_salmonis_CBS157.67_T,ERR1085115.128948,90.82,98,9,0,1,98,3,100,1e-30,132
Exophiala_salmonis_CBS157.67_T,ERR1085115.125604,90.82,98,9,0,1,98,3,100,1e-30,132
Exophiala_salmonis_CBS157.67_T,ERR1085115.125157,90.82,98,9,0,1,98,3,100,1e-30,132
Exophiala_salmonis_CBS157.67_T,ERR1085115.124315,90.82,98,9,0,1,98,3,100,1e-30,132
Exophiala_salmonis_CBS157.67_T,ERR1085115.123207,90.82,98,9,0,1,98,3,100,1e-30,132
Exophiala_salmonis_CBS157.67_T,ERR1085115.121746,90.82,98,9,0,1,98,3,100,1e-30,132
Exophiala_salmonis_CBS157.67_T,ERR1085115.119940,91.00,100,5,4,1,98,3,100,1e-30,132
Exophiala_salmonis_CBS157.67_T,ERR1085115.116019,91.00,100,5,4,1,98,3,100,1e-30,132
Exophiala_salmonis_CBS157.67_T,ERR1085115.114207,90.82,98,9,0,1,98,3,100,1e-30,132
Exophiala_salmonis_CBS157.67_T,ERR1085115.109627,90.82,98,9,0,1,98,3,100,1e-30,132
Exophiala_salmonis_CBS157.67_T,ERR1085115.109448,91.00,100,5,4,1,98,3,100,1e-30,132
Exophiala_salmonis_CBS157.67_T,ERR1085115.109355,90.82,98,9,0,1,98,3,100,1e-30,132
Exophiala_salmonis_CBS157.67_T,ERR1085115.106503,90.82,98,9,0,1,98,3,100,1e-30,132
Exophiala_salmonis_CBS157.67_T,ERR1085115.105073,90.82,98,9,0,1,98,3,100,1e-30,132
Exophiala_salmonis_CBS157.67_T,ERR1085115.103136,90.82,98,9,0,1,98,3,100,1e-30,132
Exophiala_salmonis_CBS157.67_T,ERR1085115.102744,90.82,98,9,0,1,98,3,100,1e-30,132
Exophiala_salmonis_CBS157.67_T,ERR1085115.102385,90.82,98,9,0,1,98,3,100,1e-30,132
Exophiala_salmonis_CBS157.67_T,ERR1085115.101796,90.82,98,9,0,1,98,3,100,1e-30,132
Exophiala_salmonis_CBS157.67_T,ERR1085115.100647,90.82,98,9,0,1,98,3,100,1e-30,132
Exophiala_salmonis_CBS157.67_T,ERR1085115.100450,90.82,98,9,0,1,98,3,100,1e-30,132
Exophiala_salmonis_CBS157.67_T,ERR1085115.99116,90.82,98,9,0,1,98,3,100,1e-30,132
Exophiala_salmonis_CBS157.67_T,ERR1085115.94907,90.82,98,9,0,1,98,3,100,1e-30,132
Exophiala_salmonis_CBS157.67_T,ERR1085115.92985,90.82,98,9,0,1,98,3,100,1e-30,132
Exophiala_salmonis_CBS157.67_T,ERR1085115.90598,90.82,98,9,0,1,98,3,100,1e-30,132
Exophiala_salmonis_CBS157.67_T,ERR1085115.90265,90.82,98,9,0,1,98,3,100,1e-30,132
Exophiala_salmonis_CBS157.67_T,ERR1085115.86228,90.82,98,9,0,1,98,3,100,1e-30,132
Exophiala_salmonis_CBS157.67_T,ERR1085115.86162,90.82,98,9,0,1,98,3,100,1e-30,132
Exophiala_salmonis_CBS157.67_T,ERR1085115.85704,90.82,98,9,0,1,98,3,100,1e-30,132
Exophiala_salmonis_CBS157.67_T,ERR1085115.84251,90.82,98,9,0,1,98,3,100,1e-30,132
Exophiala_salmonis_CBS157.67_T,ERR1085115.83757,90.82,98,9,0,1,98,3,100,1e-30,132
Exophiala_salmonis_CBS157.67_T,ERR1085115.80477,90.82,98,9,0,1,98,3,100,1e-30,132
Exophiala_salmonis_CBS157.67_T,ERR1085115.77619,90.82,98,9,0,1,98,3,100,1e-30,132
Exophiala_salmonis_CBS157.67_T,ERR1085115.76097,90.82,98,9,0,1,98,3,100,1e-30,132
Exophiala_salmonis_CBS157.67_T,ERR1085115.75606,90.82,98,9,0,1,98,3,100,1e-30,132
Exophiala_salmonis_CBS157.67_T,ERR1085115.73054,90.82,98,9,0,1,98,3,100,1e-30,132
Exophiala_salmonis_CBS157.67_T,ERR1085115.72859,90.82,98,9,0,1,98,3,100,1e-30,132
Exophiala_salmonis_CBS157.67_T,ERR1085115.70559,90.82,98,9,0,1,98,3,100,1e-30,132
Exophiala_salmonis_CBS157.67_T,ERR1085115.68325,90.82,98,9,0,1,98,3,100,1e-30,132
Exophiala_salmonis_CBS157.67_T,ERR1085115.66173,90.82,98,9,0,1,98,3,100,1e-30,132
Exophiala_salmonis_CBS157.67_T,ERR1085115.65358,90.82,98,9,0,1,98,3,100,1e-30,132
Exophiala_salmonis_CBS157.67_T,ERR1085115.64335,90.82,98,9,0,1,98,3,100,1e-30,132
Exophiala_salmonis_CBS157.67_T,ERR1085115.63689,90.82,98,9,0,1,98,3,100,1e-30,132
Exophiala_salmonis_CBS157.67_T,ERR1085115.61568,90.82,98,9,0,1,98,3,100,1e-30,132
Exophiala_salmonis_CBS157.67_T,ERR1085115.54375,90.82,98,9,0,1,98,3,100,1e-30,132
Exophiala_salmonis_CBS157.67_T,ERR1085115.53997,90.91,99,7,2,1,98,3,100,1e-30,132
Exophiala_salmonis_CBS157.67_T,ERR1085115.52136,91.00,100,5,4,1,98,3,100,1e-30,132
Exophiala_salmonis_CBS157.67_T,ERR1085115.50918,90.82,98,9,0,1,98,3,100,1e-30,132
Exophiala_salmonis_CBS157.67_T,ERR1085115.49801,90.82,98,9,0,1,98,3,100,1e-30,132
Exophiala_salmonis_CBS157.67_T,ERR1085115.49510,90.82,98,9,0,1,98,3,100,1e-30,132
Exophiala_salmonis_CBS157.67_T,ERR1085115.46739,90.82,98,9,0,1,98,3,100,1e-30,132
Exophiala_salmonis_CBS157.67_T,ERR1085115.45010,90.82,98,9,0,1,98,3,100,1e-30,132
Exophiala_salmonis_CBS157.67_T,ERR1085115.40519,90.82,98,9,0,1,98,3,100,1e-30,132
Exophiala_salmonis_CBS157.67_T,ERR1085115.37846,90.82,98,9,0,1,98,3,100,1e-30,132
Exophiala_salmonis_CBS157.67_T,ERR1085115.35758,90.82,98,9,0,1,98,3,100,1e-30,132
Exophiala_salmonis_CBS157.67_T,ERR1085115.35708,90.82,98,9,0,1,98,3,100,1e-30,132
Exophiala_salmonis_CBS157.67_T,ERR1085115.34642,90.82,98,9,0,1,98,3,100,1e-30,132
Exophiala_salmonis_CBS157.67_T,ERR1085115.31227,90.82,98,9,0,1,98,3,100,1e-30,132
Exophiala_salmonis_CBS157.67_T,ERR1085115.31131,90.82,98,9,0,1,98,3,100,1e-30,132
Exophiala_salmonis_CBS157.67_T,ERR1085115.30724,91.58,95,8,0,1,95,3,97,1e-30,132
Exophiala_salmonis_CBS157.67_T,ERR1085115.27999,91.58,95,8,0,1,95,3,97,1e-30,132
Exophiala_salmonis_CBS157.67_T,ERR1085115.27753,90.82,98,9,0,1,98,3,100,1e-30,132
Exophiala_salmonis_CBS157.67_T,ERR1085115.27680,90.82,98,9,0,1,98,3,100,1e-30,132
Exophiala_salmonis_CBS157.67_T,ERR1085115.24858,90.82,98,9,0,1,98,3,100,1e-30,132
Exophiala_salmonis_CBS157.67_T,ERR1085115.24764,90.82,98,9,0,1,98,3,100,1e-30,132
Exophiala_salmonis_CBS157.67_T,ERR1085115.24167,90.82,98,9,0,1,98,3,100,1e-30,132
Exophiala_salmonis_CBS157.67_T,ERR1085115.20884,90.82,98,9,0,1,98,3,100,1e-30,132
Exophiala_salmonis_CBS157.67_T,ERR1085115.18546,90.82,98,9,0,1,98,3,100,1e-30,132
Exophiala_salmonis_CBS157.67_T,ERR1085115.17278,90.82,98,9,0,1,98,3,100,1e-30,132
Exophiala_salmonis_CBS157.67_T,ERR1085115.16351,90.82,98,9,0,1,98,3,100,1e-30,132
Exophiala_salmonis_CBS157.67_T,ERR1085115.15937,90.82,98,9,0,1,98,3,100,1e-30,132
Exophiala_salmonis_CBS157.67_T,ERR1085115.15696,90.82,98,9,0,1,98,3,100,1e-30,132
Exophiala_salmonis_CBS157.67_T,ERR1085115.13028,90.82,98,9,0,1,98,3,100,1e-30,132
Exophiala_salmonis_CBS157.67_T,ERR1085115.11120,90.82,98,9,0,1,98,3,100,1e-30,132
Exophiala_salmonis_CBS157.67_T,ERR1085115.9503,90.82,98,9,0,1,98,3,100,1e-30,132
Exophiala_salmonis_CBS157.67_T,ERR1085115.9303,90.82,98,9,0,1,98,3,100,1e-30,132
Exophiala_salmonis_CBS157.67_T,ERR1085115.8389,90.82,98,9,0,1,98,3,100,1e-30,132
Exophiala_salmonis_CBS157.67_T,ERR1085115.8128,90.82,98,9,0,1,98,3,100,1e-30,132
Exophiala_salmonis_CBS157.67_T,ERR1085115.8012,90.82,98,9,0,1,98,3,100,1e-30,132
Exophiala_salmonis_CBS157.67_T,ERR1085115.5961,90.82,98,9,0,1,98,3,100,1e-30,132
Exophiala_salmonis_CBS157.67_T,ERR1085115.4034,90.82,98,9,0,1,98,3,100,1e-30,132
Exophiala_salmonis_CBS157.67_T,ERR1085115.3516,90.82,98,9,0,1,98,3,100,1e-30,132
Exophiala_salmonis_CBS157.67_T,ERR1085115.2372,90.82,98,9,0,1,98,3,100,1e-30,132
Exophiala_salmonis_CBS157.67_T,ERR1085115.1480,91.00,100,5,4,1,98,3,100,1e-30,132
Exophiala_salmonis_CBS157.67_T,ERR1085115.1287,90.82,98,9,0,1,98,3,100,1e-30,132
Exophiala_salmonis_CBS157.67_T,ERR1085115.289,90.82,98,9,0,1,98,3,100,1e-30,132
Exophiala_salmonis_CBS157.67_T,ERR1085115.26589,90.91,99,5,4,1,97,3,99,5e-30,130
Exophiala_salmonis_CBS157.67_T,ERR1085115.52577,90.62,96,9,0,1,96,3,98,2e-29,128
Exophiala_salmonis_CBS157.67_T,ERR1085115.167950,89.80,98,10,0,1,98,3,100,7e-29,126
Exophiala_salmonis_CBS157.67_T,ERR1085115.167657,89.80,98,10,0,1,98,3,100,7e-29,126
Exophiala_salmonis_CBS157.67_T,ERR1085115.167344,89.80,98,10,0,1,98,3,100,7e-29,126
Exophiala_salmonis_CBS157.67_T,ERR1085115.166780,89.80,98,10,0,1,98,3,100,7e-29,126
Exophiala_salmonis_CBS157.67_T,ERR1085115.165119,89.80,98,10,0,1,98,3,100,7e-29,126
Exophiala_salmonis_CBS157.67_T,ERR1085115.164905,89.80,98,10,0,1,98,3,100,7e-29,126
Exophiala_salmonis_CBS157.67_T,ERR1085115.162185,89.80,98,10,0,1,98,3,100,7e-29,126
Exophiala_salmonis_CBS157.67_T,ERR1085115.162176,89.80,98,10,0,1,98,3,100,7e-29,126
Exophiala_salmonis_CBS157.67_T,ERR1085115.161968,89.80,98,10,0,1,98,3,100,7e-29,126
Exophiala_salmonis_CBS157.67_T,ERR1085115.161147,89.80,98,10,0,1,98,3,100,7e-29,126
Exophiala_salmonis_CBS157.67_T,ERR1085115.152774,89.80,98,10,0,1,98,3,100,7e-29,126
Exophiala_salmonis_CBS157.67_T,ERR1085115.150665,89.80,98,10,0,1,98,3,100,7e-29,126
Exophiala_salmonis_CBS157.67_T,ERR1085115.149360,89.80,98,10,0,1,98,3,100,7e-29,126
Exophiala_salmonis_CBS157.67_T,ERR1085115.147168,89.80,98,10,0,1,98,3,100,7e-29,126
Exophiala_salmonis_CBS157.67_T,ERR1085115.145946,90.00,100,6,4,1,98,3,100,7e-29,126
Exophiala_salmonis_CBS157.67_T,ERR1085115.145685,89.80,98,10,0,1,98,3,100,7e-29,126
Exophiala_salmonis_CBS157.67_T,ERR1085115.145100,89.80,98,10,0,1,98,3,100,7e-29,126
Exophiala_salmonis_CBS157.67_T,ERR1085115.144541,89.80,98,10,0,1,98,3,100,7e-29,126
Exophiala_salmonis_CBS157.67_T,ERR1085115.142662,90.00,100,6,4,1,98,3,100,7e-29,126
Exophiala_salmonis_CBS157.67_T,ERR1085115.139370,89.80,98,10,0,1,98,3,100,7e-29,126
Exophiala_salmonis_CBS157.67_T,ERR1085115.137785,89.80,98,10,0,1,98,3,100,7e-29,126
Exophiala_salmonis_CBS157.67_T,ERR1085115.136502,89.80,98,10,0,1,98,3,100,7e-29,126
Exophiala_salmonis_CBS157.67_T,ERR1085115.133766,89.80,98,10,0,1,98,3,100,7e-29,126
Exophiala_salmonis_CBS157.67_T,ERR1085115.133296,89.80,98,10,0,1,98,3,100,7e-29,126
Exophiala_salmonis_CBS157.67_T,ERR1085115.132232,89.80,98,10,0,1,98,3,100,7e-29,126
Exophiala_salmonis_CBS157.67_T,ERR1085115.131589,89.80,98,10,0,1,98,3,100,7e-29,126
Exophiala_salmonis_CBS157.67_T,ERR1085115.129687,89.80,98,10,0,1,98,3,100,7e-29,126
Exophiala_salmonis_CBS157.67_T,ERR1085115.128032,89.80,98,10,0,1,98,3,100,7e-29,126
Exophiala_salmonis_CBS157.67_T,ERR1085115.127903,89.80,98,10,0,1,98,3,100,7e-29,126
Exophiala_salmonis_CBS157.67_T,ERR1085115.123658,89.80,98,10,0,1,98,3,100,7e-29,126
Exophiala_salmonis_CBS157.67_T,ERR1085115.122222,89.80,98,10,0,1,98,3,100,7e-29,126
Exophiala_salmonis_CBS157.67_T,ERR1085115.120244,89.80,98,10,0,1,98,3,100,7e-29,126
Exophiala_salmonis_CBS157.67_T,ERR1085115.118812,89.80,98,10,0,1,98,3,100,7e-29,126
Exophiala_salmonis_CBS157.67_T,ERR1085115.117965,89.80,98,10,0,1,98,3,100,7e-29,126
Exophiala_salmonis_CBS157.67_T,ERR1085115.114284,89.80,98,10,0,1,98,3,100,7e-29,126
Exophiala_salmonis_CBS157.67_T,ERR1085115.111777,89.80,98,10,0,1,98,3,100,7e-29,126
Exophiala_salmonis_CBS157.67_T,ERR1085115.110464,90.00,100,6,4,1,98,3,100,7e-29,126
Exophiala_salmonis_CBS157.67_T,ERR1085115.108273,89.80,98,10,0,1,98,3,100,7e-29,126
Exophiala_salmonis_CBS157.67_T,ERR1085115.108190,89.80,98,10,0,1,98,3,100,7e-29,126
Exophiala_salmonis_CBS157.67_T,ERR1085115.108119,89.80,98,10,0,1,98,3,100,7e-29,126
Exophiala_salmonis_CBS157.67_T,ERR1085115.108035,89.80,98,10,0,1,98,3,100,7e-29,126
Exophiala_salmonis_CBS157.67_T,ERR1085115.107029,89.80,98,10,0,1,98,3,100,7e-29,126
Exophiala_salmonis_CBS157.67_T,ERR1085115.106907,89.80,98,10,0,1,98,3,100,7e-29,126
Exophiala_salmonis_CBS157.67_T,ERR1085115.106717,89.80,98,10,0,1,98,3,100,7e-29,126
Exophiala_salmonis_CBS157.67_T,ERR1085115.103860,89.80,98,10,0,1,98,3,100,7e-29,126
Exophiala_salmonis_CBS157.67_T,ERR1085115.103322,89.80,98,10,0,1,98,3,100,7e-29,126
Exophiala_salmonis_CBS157.67_T,ERR1085115.101835,89.80,98,10,0,1,98,3,100,7e-29,126
Exophiala_salmonis_CBS157.67_T,ERR1085115.100506,89.80,98,10,0,1,98,3,100,7e-29,126
Exophiala_salmonis_CBS157.67_T,ERR1085115.99645,89.80,98,10,0,1,98,3,100,7e-29,126
Exophiala_salmonis_CBS157.67_T,ERR1085115.99450,89.80,98,10,0,1,98,3,100,7e-29,126
Exophiala_salmonis_CBS157.67_T,ERR1085115.98999,89.80,98,10,0,1,98,3,100,7e-29,126
Exophiala_salmonis_CBS157.67_T,ERR1085115.94209,89.80,98,10,0,1,98,3,100,7e-29,126
Exophiala_salmonis_CBS157.67_T,ERR1085115.93460,89.80,98,10,0,1,98,3,100,7e-29,126
Exophiala_salmonis_CBS157.67_T,ERR1085115.93038,89.80,98,10,0,1,98,3,100,7e-29,126
Exophiala_salmonis_CBS157.67_T,ERR1085115.91763,89.80,98,10,0,1,98,3,100,7e-29,126
Exophiala_salmonis_CBS157.67_T,ERR1085115.91744,90.00,100,6,4,1,98,3,100,7e-29,126
Exophiala_salmonis_CBS157.67_T,ERR1085115.91650,89.80,98,10,0,1,98,3,100,7e-29,126
Exophiala_salmonis_CBS157.67_T,ERR1085115.90744,90.00,100,6,4,1,98,3,100,7e-29,126
Exophiala_salmonis_CBS157.67_T,ERR1085115.89020,89.80,98,10,0,1,98,3,100,7e-29,126
Exophiala_salmonis_CBS157.67_T,ERR1085115.87920,89.80,98,10,0,1,98,3,100,7e-29,126
Exophiala_salmonis_CBS157.67_T,ERR1085115.87114,89.80,98,10,0,1,98,3,100,7e-29,126
Exophiala_salmonis_CBS157.67_T,ERR1085115.84038,89.80,98,10,0,1,98,3,100,7e-29,126
Exophiala_salmonis_CBS157.67_T,ERR1085115.83236,89.80,98,10,0,1,98,3,100,7e-29,126
Exophiala_salmonis_CBS157.67_T,ERR1085115.82929,89.80,98,10,0,1,98,3,100,7e-29,126
Exophiala_salmonis_CBS157.67_T,ERR1085115.82511,89.80,98,10,0,1,98,3,100,7e-29,126
Exophiala_salmonis_CBS157.67_T,ERR1085115.80730,89.80,98,10,0,1,98,3,100,7e-29,126
Exophiala_salmonis_CBS157.67_T,ERR1085115.78631,89.80,98,10,0,1,98,3,100,7e-29,126
Exophiala_salmonis_CBS157.67_T,ERR1085115.77560,89.80,98,10,0,1,98,3,100,7e-29,126
Exophiala_salmonis_CBS157.67_T,ERR1085115.77346,89.80,98,10,0,1,98,3,100,7e-29,126
Exophiala_salmonis_CBS157.67_T,ERR1085115.77164,89.80,98,10,0,1,98,3,100,7e-29,126
Exophiala_salmonis_CBS157.67_T,ERR1085115.72578,89.80,98,10,0,1,98,3,100,7e-29,126
Exophiala_salmonis_CBS157.67_T,ERR1085115.72551,89.80,98,10,0,1,98,3,100,7e-29,126
Rhinocladiella_atrovirens_CBS264.49,ERR1085115.104254,100.00,30,0,0,1,30,71,100,8e-08,56.5
Rhinocladiella_atrovirens_CBS264.49,ERR1085115.84190,100.00,30,0,0,1,30,71,100,8e-08,56.5
Rhinocladiella_atrovirens_CBS264.49,ERR1085115.59889,100.00,30,0,0,1,30,71,100,8e-08,56.5
Rhinocladiella_atrovirens_CBS264.49,ERR1085115.49735,100.00,30,0,0,1,30,71,100,8e-08,56.5
Rhinocladiella_atrovirens_CBS264.49,ERR1085115.98717,100.00,29,0,0,1,29,72,100,3e-07,54.7
Rhinocladiella_atrovirens_CBS264.49,ERR1085115.117151,100.00,28,0,0,1,28,73,100,1e-06,52.8
Rhinocladiella_atrovirens_CBS264.49,ERR1085115.85652,100.00,28,0,0,1,28,73,100,1e-06,52.8
Rhinocladiella_atrovirens_CBS264.49,ERR1085115.61870,100.00,28,0,0,1,28,73,100,1e-06,52.8
Rhinocladiella_atrovirens_CBS264.49,ERR1085115.39735,100.00,28,0,0,1,28,73,100,1e-06,52.8
Rhinocladiella_atrovirens_CBS264.49,ERR1085115.34839,100.00,28,0,0,1,28,73,100,1e-06,52.8
Cyphellophora_laciniata_CBS190.61_T,ERR1085115.39735,96.49,57,2,0,28,84,44,100,2e-19,95.3
Cyphellophora_laciniata_CBS190.61_T,ERR1085115.142894,100.00,44,0,0,1,44,57,100,1e-15,82.4
Cyphellophora_laciniata_CBS190.61_T,ERR1085115.136161,100.00,44,0,0,1,44,57,100,1e-15,82.4
Cyphellophora_laciniata_CBS190.61_T,ERR1085115.78278,100.00,44,0,0,1,44,57,100,1e-15,82.4
Cyphellophora_laciniata_CBS190.61_T,ERR1085115.17373,100.00,44,0,0,1,44,57,100,1e-15,82.4
Cyphellophora_laciniata_CBS190.61_T,ERR1085115.166399,97.73,44,1,0,1,44,57,100,7e-14,76.8
Cyphellophora_laciniata_CBS190.61_T,ERR1085115.165810,97.73,44,1,0,1,44,57,100,7e-14,76.8
Cyphellophora_laciniata_CBS190.61_T,ERR1085115.165518,97.73,44,1,0,1,44,57,100,7e-14,76.8
Cyphellophora_laciniata_CBS190.61_T,ERR1085115.165098,97.73,44,1,0,1,44,57,100,7e-14,76.8
Cyphellophora_laciniata_CBS190.61_T,ERR1085115.164994,97.73,44,1,0,1,44,57,100,7e-14,76.8
Cyphellophora_laciniata_CBS190.61_T,ERR1085115.164774,97.73,44,1,0,1,44,57,100,7e-14,76.8
Cyphellophora_laciniata_CBS190.61_T,ERR1085115.163472,97.73,44,1,0,1,44,57,100,7e-14,76.8
Cyphellophora_laciniata_CBS190.61_T,ERR1085115.163274,97.73,44,1,0,1,44,57,100,7e-14,76.8
Cyphellophora_laciniata_CBS190.61_T,ERR1085115.159299,97.73,44,1,0,1,44,57,100,7e-14,76.8
Cyphellophora_laciniata_CBS190.61_T,ERR1085115.157887,97.73,44,1,0,1,44,57,100,7e-14,76.8
Cyphellophora_laciniata_CBS190.61_T,ERR1085115.157726,97.73,44,1,0,1,44,57,100,7e-14,76.8
Cyphellophora_laciniata_CBS190.61_T,ERR1085115.157701,97.73,44,1,0,1,44,57,100,7e-14,76.8
Cyphellophora_laciniata_CBS190.61_T,ERR1085115.157018,97.73,44,1,0,1,44,57,100,7e-14,76.8
Cyphellophora_laciniata_CBS190.61_T,ERR1085115.156389,97.73,44,1,0,1,44,57,100,7e-14,76.8
Cyphellophora_laciniata_CBS190.61_T,ERR1085115.155474,97.73,44,1,0,1,44,57,100,7e-14,76.8
Cyphellophora_laciniata_CBS190.61_T,ERR1085115.154531,97.73,44,1,0,1,44,57,100,7e-14,76.8
Cyphellophora_laciniata_CBS190.61_T,ERR1085115.153474,97.73,44,1,0,1,44,57,100,7e-14,76.8
Cyphellophora_laciniata_CBS190.61_T,ERR1085115.152504,97.73,44,1,0,1,44,57,100,7e-14,76.8
Cyphellophora_laciniata_CBS190.61_T,ERR1085115.152460,97.73,44,1,0,1,44,57,100,7e-14,76.8
Cyphellophora_laciniata_CBS190.61_T,ERR1085115.151910,97.73,44,1,0,1,44,57,100,7e-14,76.8
Cyphellophora_laciniata_CBS190.61_T,ERR1085115.151761,97.73,44,1,0,1,44,57,100,7e-14,76.8
Cyphellophora_laciniata_CBS190.61_T,ERR1085115.150965,97.73,44,1,0,1,44,57,100,7e-14,76.8
Cyphellophora_laciniata_CBS190.61_T,ERR1085115.149903,97.73,44,1,0,1,44,57,100,7e-14,76.8
Cyphellophora_laciniata_CBS190.61_T,ERR1085115.148998,97.73,44,1,0,1,44,57,100,7e-14,76.8
Cyphellophora_laciniata_CBS190.61_T,ERR1085115.145147,97.73,44,1,0,1,44,57,100,7e-14,76.8
Cyphellophora_laciniata_CBS190.61_T,ERR1085115.144720,97.73,44,1,0,1,44,57,100,7e-14,76.8
Cyphellophora_laciniata_CBS190.61_T,ERR1085115.143322,97.73,44,1,0,1,44,57,100,7e-14,76.8
Cyphellophora_laciniata_CBS190.61_T,ERR1085115.141039,97.73,44,1,0,1,44,57,100,7e-14,76.8
Cyphellophora_laciniata_CBS190.61_T,ERR1085115.136651,97.73,44,1,0,1,44,57,100,7e-14,76.8
Cyphellophora_laciniata_CBS190.61_T,ERR1085115.134313,97.73,44,1,0,1,44,57,100,7e-14,76.8
Cyphellophora_laciniata_CBS190.61_T,ERR1085115.133620,97.73,44,1,0,1,44,57,100,7e-14,76.8
Cyphellophora_laciniata_CBS190.61_T,ERR1085115.133371,97.73,44,1,0,1,44,57,100,7e-14,76.8
Cyphellophora_laciniata_CBS190.61_T,ERR1085115.132449,97.73,44,1,0,1,44,57,100,7e-14,76.8
Cyphellophora_laciniata_CBS190.61_T,ERR1085115.130273,97.73,44,1,0,1,44,57,100,7e-14,76.8
Cyphellophora_laciniata_CBS190.61_T,ERR1085115.129506,97.73,44,1,0,1,44,57,100,7e-14,76.8
Cyphellophora_laciniata_CBS190.61_T,ERR1085115.128238,97.73,44,1,0,1,44,57,100,7e-14,76.8
Cyphellophora_laciniata_CBS190.61_T,ERR1085115.127520,97.73,44,1,0,1,44,57,100,7e-14,76.8
Cyphellophora_laciniata_CBS190.61_T,ERR1085115.126554,97.73,44,1,0,1,44,57,100,7e-14,76.8
Cyphellophora_laciniata_CBS190.61_T,ERR1085115.125954,97.73,44,1,0,1,44,57,100,7e-14,76.8
Cyphellophora_laciniata_CBS190.61_T,ERR1085115.123532,97.73,44,1,0,1,44,57,100,7e-14,76.8
Cyphellophora_laciniata_CBS190.61_T,ERR1085115.123449,97.73,44,1,0,1,44,57,100,7e-14,76.8
Cyphellophora_laciniata_CBS190.61_T,ERR1085115.123217,97.73,44,1,0,1,44,57,100,7e-14,76.8
Cyphellophora_laciniata_CBS190.61_T,ERR1085115.123037,97.73,44,1,0,1,44,57,100,7e-14,76.8
Cyphellophora_laciniata_CBS190.61_T,ERR1085115.121957,97.73,44,1,0,1,44,57,100,7e-14,76.8
Cyphellophora_laciniata_CBS190.61_T,ERR1085115.121349,97.73,44,1,0,1,44,57,100,7e-14,76.8
Cyphellophora_laciniata_CBS190.61_T,ERR1085115.120971,97.73,44,1,0,1,44,57,100,7e-14,76.8
Cyphellophora_laciniata_CBS190.61_T,ERR1085115.120904,97.73,44,1,0,1,44,57,100,7e-14,76.8
Cyphellophora_laciniata_CBS190.61_T,ERR1085115.119876,97.73,44,1,0,1,44,57,100,7e-14,76.8
Cyphellophora_laciniata_CBS190.61_T,ERR1085115.119178,97.73,44,1,0,1,44,57,100,7e-14,76.8
Cyphellophora_laciniata_CBS190.61_T,ERR1085115.118237,97.73,44,1,0,1,44,57,100,7e-14,76.8
Cyphellophora_laciniata_CBS190.61_T,ERR1085115.116309,97.73,44,1,0,1,44,57,100,7e-14,76.8
Cyphellophora_laciniata_CBS190.61_T,ERR1085115.115306,97.73,44,1,0,1,44,57,100,7e-14,76.8
Cyphellophora_laciniata_CBS190.61_T,ERR1085115.114294,97.73,44,1,0,1,44,57,100,7e-14,76.8
Cyphellophora_laciniata_CBS190.61_T,ERR1085115.108664,97.73,44,1,0,1,44,57,100,7e-14,76.8
Cyphellophora_laciniata_CBS190.61_T,ERR1085115.103257,97.73,44,1,0,1,44,57,100,7e-14,76.8
Cyphellophora_laciniata_CBS190.61_T,ERR1085115.102871,97.73,44,1,0,1,44,57,100,7e-14,76.8
Cyphellophora_laciniata_CBS190.61_T,ERR1085115.102374,97.73,44,1,0,1,44,57,100,7e-14,76.8
Cyphellophora_laciniata_CBS190.61_T,ERR1085115.98545,97.73,44,1,0,1,44,57,100,7e-14,76.8
Cyphellophora_laciniata_CBS190.61_T,ERR1085115.96920,97.73,44,1,0,1,44,57,100,7e-14,76.8
Cyphellophora_laciniata_CBS190.61_T,ERR1085115.95397,97.73,44,1,0,1,44,57,100,7e-14,76.8
Cyphellophora_laciniata_CBS190.61_T,ERR1085115.94384,97.73,44,1,0,1,44,57,100,7e-14,76.8
Cyphellophora_laciniata_CBS190.61_T,ERR1085115.93839,97.73,44,1,0,1,44,57,100,7e-14,76.8
Cyphellophora_laciniata_CBS190.61_T,ERR1085115.93035,97.73,44,1,0,1,44,57,100,7e-14,76.8
Cyphellophora_laciniata_CBS190.61_T,ERR1085115.91450,97.73,44,1,0,1,44,57,100,7e-14,76.8
Cyphellophora_laciniata_CBS190.61_T,ERR1085115.89251,97.73,44,1,0,1,44,57,100,7e-14,76.8
Cyphellophora_laciniata_CBS190.61_T,ERR1085115.88606,97.73,44,1,0,1,44,57,100,7e-14,76.8
Cyphellophora_laciniata_CBS190.61_T,ERR1085115.81117,97.73,44,1,0,1,44,57,100,7e-14,76.8
Cyphellophora_laciniata_CBS190.61_T,ERR1085115.80573,97.73,44,1,0,1,44,57,100,7e-14,76.8
Cyphellophora_laciniata_CBS190.61_T,ERR1085115.79282,97.73,44,1,0,1,44,57,100,7e-14,76.8
Cyphellophora_laciniata_CBS190.61_T,ERR1085115.78664,97.73,44,1,0,1,44,57,100,7e-14,76.8
Cyphellophora_laciniata_CBS190.61_T,ERR1085115.78231,97.73,44,1,0,1,44,57,100,7e-14,76.8
Cyphellophora_laciniata_CBS190.61_T,ERR1085115.77718,97.73,44,1,0,1,44,57,100,7e-14,76.8
Cyphellophora_laciniata_CBS190.61_T,ERR1085115.77131,97.73,44,1,0,1,44,57,100,7e-14,76.8
Cyphellophora_laciniata_CBS190.61_T,ERR1085115.76366,97.73,44,1,0,1,44,57,100,7e-14,76.8
Cyphellophora_laciniata_CBS190.61_T,ERR1085115.75913,97.73,44,1,0,1,44,57,100,7e-14,76.8
Cyphellophora_laciniata_CBS190.61_T,ERR1085115.75483,97.73,44,1,0,1,44,57,100,7e-14,76.8
Cyphellophora_laciniata_CBS190.61_T,ERR1085115.74017,97.73,44,1,0,1,44,57,100,7e-14,76.8
Cyphellophora_laciniata_CBS190.61_T,ERR1085115.73822,97.73,44,1,0,1,44,57,100,7e-14,76.8
Cyphellophora_laciniata_CBS190.61_T,ERR1085115.72473,97.73,44,1,0,1,44,57,100,7e-14,76.8
Cyphellophora_laciniata_CBS190.61_T,ERR1085115.71833,97.73,44,1,0,1,44,57,100,7e-14,76.8
Cyphellophora_laciniata_CBS190.61_T,ERR1085115.70496,97.73,44,1,0,1,44,57,100,7e-14,76.8
Cyphellophora_laciniata_CBS190.61_T,ERR1085115.70099,97.73,44,1,0,1,44,57,100,7e-14,76.8
Cyphellophora_laciniata_CBS190.61_T,ERR1085115.68988,97.73,44,1,0,1,44,57,100,7e-14,76.8
Cyphellophora_laciniata_CBS190.61_T,ERR1085115.68457,97.73,44,1,0,1,44,57,100,7e-14,76.8
Cyphellophora_laciniata_CBS190.61_T,ERR1085115.67487,97.73,44,1,0,1,44,57,100,7e-14,76.8
Cyphellophora_laciniata_CBS190.61_T,ERR1085115.66274,97.73,44,1,0,1,44,57,100,7e-14,76.8
Cyphellophora_laciniata_CBS190.61_T,ERR1085115.66163,97.73,44,1,0,1,44,57,100,7e-14,76.8
Cyphellophora_laciniata_CBS190.61_T,ERR1085115.62804,97.73,44,1,0,1,44,57,100,7e-14,76.8
Cyphellophora_laciniata_CBS190.61_T,ERR1085115.62501,97.73,44,1,0,1,44,57,100,7e-14,76.8
Cyphellophora_laciniata_CBS190.61_T,ERR1085115.62425,97.73,44,1,0,1,44,57,100,7e-14,76.8
Cyphellophora_laciniata_CBS190.61_T,ERR1085115.61656,97.73,44,1,0,1,44,57,100,7e-14,76.8
Cyphellophora_laciniata_CBS190.61_T,ERR1085115.60836,97.73,44,1,0,1,44,57,100,7e-14,76.8
Cyphellophora_laciniata_CBS190.61_T,ERR1085115.59684,97.73,44,1,0,1,44,57,100,7e-14,76.8
Cyphellophora_laciniata_CBS190.61_T,ERR1085115.58782,97.73,44,1,0,1,44,57,100,7e-14,76.8
Cyphellophora_laciniata_CBS190.61_T,ERR1085115.58657,97.73,44,1,0,1,44,57,100,7e-14,76.8
Cyphellophora_laciniata_CBS190.61_T,ERR1085115.51750,97.73,44,1,0,1,44,57,100,7e-14,76.8
Cyphellophora_laciniata_CBS190.61_T,ERR1085115.51023,97.73,44,1,0,1,44,57,100,7e-14,76.8
Cyphellophora_laciniata_CBS190.61_T,ERR1085115.50720,97.73,44,1,0,1,44,57,100,7e-14,76.8
Cyphellophora_laciniata_CBS190.61_T,ERR1085115.50145,97.73,44,1,0,1,44,57,100,7e-14,76.8
Cyphellophora_laciniata_CBS190.61_T,ERR1085115.48861,97.73,44,1,0,1,44,57,100,7e-14,76.8
Cyphellophora_laciniata_CBS190.61_T,ERR1085115.47672,97.73,44,1,0,1,44,57,100,7e-14,76.8
Cyphellophora_laciniata_CBS190.61_T,ERR1085115.46929,97.73,44,1,0,1,44,57,100,7e-14,76.8
Cyphellophora_laciniata_CBS190.61_T,ERR1085115.46726,97.73,44,1,0,1,44,57,100,7e-14,76.8
Cyphellophora_laciniata_CBS190.61_T,ERR1085115.46414,97.73,44,1,0,1,44,57,100,7e-14,76.8
Cyphellophora_laciniata_CBS190.61_T,ERR1085115.45289,97.73,44,1,0,1,44,57,100,7e-14,76.8
Cyphellophora_laciniata_CBS190.61_T,ERR1085115.45030,97.73,44,1,0,1,44,57,100,7e-14,76.8
Cyphellophora_laciniata_CBS190.61_T,ERR1085115.43640,97.73,44,1,0,1,44,57,100,7e-14,76.8
Cyphellophora_laciniata_CBS190.61_T,ERR1085115.42315,97.73,44,1,0,1,44,57,100,7e-14,76.8
Cyphellophora_laciniata_CBS190.61_T,ERR1085115.41827,97.73,44,1,0,1,44,57,100,7e-14,76.8
Cyphellophora_laciniata_CBS190.61_T,ERR1085115.38114,97.73,44,1,0,1,44,57,100,7e-14,76.8
Cyphellophora_laciniata_CBS190.61_T,ERR1085115.35718,97.73,44,1,0,1,44,57,100,7e-14,76.8
Cyphellophora_laciniata_CBS190.61_T,ERR1085115.33929,97.73,44,1,0,1,44,57,100,7e-14,76.8
Cyphellophora_laciniata_CBS190.61_T,ERR1085115.32627,97.73,44,1,0,1,44,57,100,7e-14,76.8
Cyphellophora_laciniata_CBS190.61_T,ERR1085115.32619,97.73,44,1,0,1,44,57,100,7e-14,76.8
Cyphellophora_laciniata_CBS190.61_T,ERR1085115.32360,97.73,44,1,0,1,44,57,100,7e-14,76.8
Cyphellophora_laciniata_CBS190.61_T,ERR1085115.30368,97.73,44,1,0,1,44,57,100,7e-14,76.8
Cyphellophora_laciniata_CBS190.61_T,ERR1085115.28082,97.73,44,1,0,1,44,57,100,7e-14,76.8
Cyphellophora_laciniata_CBS190.61_T,ERR1085115.22674,97.73,44,1,0,1,44,57,100,7e-14,76.8
Cyphellophora_laciniata_CBS190.61_T,ERR1085115.19615,97.73,44,1,0,1,44,57,100,7e-14,76.8
Cyphellophora_laciniata_CBS190.61_T,ERR1085115.18472,97.73,44,1,0,1,44,57,100,7e-14,76.8
Cyphellophora_laciniata_CBS190.61_T,ERR1085115.18250,97.73,44,1,0,1,44,57,100,7e-14,76.8
Cyphellophora_laciniata_CBS190.61_T,ERR1085115.18121,97.73,44,1,0,1,44,57,100,7e-14,76.8
Cyphellophora_laciniata_CBS190.61_T,ERR1085115.17769,97.73,44,1,0,1,44,57,100,7e-14,76.8
Cyphellophora_laciniata_CBS190.61_T,ERR1085115.16287,97.73,44,1,0,1,44,57,100,7e-14,76.8
Cyphellophora_laciniata_CBS190.61_T,ERR1085115.15814,97.73,44,1,0,1,44,57,100,7e-14,76.8
Cyphellophora_laciniata_CBS190.61_T,ERR1085115.14489,97.73,44,1,0,1,44,57,100,7e-14,76.8
Cyphellophora_laciniata_CBS190.61_T,ERR1085115.14219,97.73,44,1,0,1,44,57,100,7e-14,76.8
Cyphellophora_laciniata_CBS190.61_T,ERR1085115.14196,97.73,44,1,0,1,44,57,100,7e-14,76.8
Cyphellophora_laciniata_CBS190.61_T,ERR1085115.13943,97.73,44,1,0,1,44,57,100,7e-14,76.8
Cyphellophora_laciniata_CBS190.61_T,ERR1085115.13030,97.73,44,1,0,1,44,57,100,7e-14,76.8
Cyphellophora_laciniata_CBS190.61_T,ERR1085115.12482,97.73,44,1,0,1,44,57,100,7e-14,76.8
Cyphellophora_laciniata_CBS190.61_T,ERR1085115.12133,97.73,44,1,0,1,44,57,100,7e-14,76.8
Cyphellophora_laciniata_CBS190.61_T,ERR1085115.11712,97.73,44,1,0,1,44,57,100,7e-14,76.8
Cyphellophora_laciniata_CBS190.61_T,ERR1085115.10304,97.73,44,1,0,1,44,57,100,7e-14,76.8
Cyphellophora_laciniata_CBS190.61_T,ERR1085115.8469,97.73,44,1,0,1,44,57,100,7e-14,76.8
Cyphellophora_laciniata_CBS190.61_T,ERR1085115.6144,97.73,44,1,0,1,44,57,100,7e-14,76.8
Cyphellophora_laciniata_CBS190.61_T,ERR1085115.4674,97.73,44,1,0,1,44,57,100,7e-14,76.8
Cyphellophora_laciniata_CBS190.61_T,ERR1085115.3544,97.73,44,1,0,1,44,57,100,7e-14,76.8
Cyphellophora_laciniata_CBS190.61_T,ERR1085115.1650,97.73,44,1,0,1,44,57,100,7e-14,76.8
Cyphellophora_laciniata_CBS190.61_T,ERR1085115.1086,97.73,44,1,0,1,44,57,100,7e-14,76.8
Cyphellophora_laciniata_CBS190.61_T,ERR1085115.134627,97.67,43,1,0,1,43,57,99,2e-13,75.0
Cyphellophora_laciniata_CBS190.61_T,ERR1085115.103211,97.67,43,1,0,1,43,57,99,2e-13,75.0
Cyphellophora_laciniata_CBS190.61_T,ERR1085115.92022,97.67,43,1,0,1,43,57,99,2e-13,75.0
Cyphellophora_laciniata_CBS190.61_T,ERR1085115.121741,97.62,42,1,0,3,44,59,100,9e-13,73.1
Cyphellophora_laciniata_CBS190.61_T,ERR1085115.20354,97.62,42,1,0,3,44,59,100,9e-13,73.1
Cyphellophora_laciniata_CBS190.61_T,ERR1085115.162560,95.45,44,2,0,1,44,57,100,3e-12,71.3
Cyphellophora_laciniata_CBS190.61_T,ERR1085115.158786,95.45,44,2,0,1,44,57,100,3e-12,71.3
Cyphellophora_laciniata_CBS190.61_T,ERR1085115.148751,95.45,44,2,0,1,44,57,100,3e-12,71.3
Cyphellophora_laciniata_CBS190.61_T,ERR1085115.17935,95.45,44,2,0,1,44,57,100,3e-12,71.3
Cyphellophora_laciniata_CBS190.61_T,ERR1085115.98003,95.24,42,2,0,3,44,59,100,4e-11,67.6
Cyphellophora_laciniata_CBS190.61_T,ERR1085115.104254,100.00,32,0,0,55,86,69,100,7e-09,60.2
Cyphellophora_laciniata_CBS190.61_T,ERR1085115.84190,100.00,32,0,0,55,86,69,100,7e-09,60.2
Cyphellophora_laciniata_CBS190.61_T,ERR1085115.59889,100.00,32,0,0,55,86,69,100,7e-09,60.2
Cyphellophora_laciniata_CBS190.61_T,ERR1085115.49735,100.00,32,0,0,55,86,69,100,7e-09,60.2
Cyphellophora_laciniata_CBS190.61_T,ERR1085115.98717,100.00,31,0,0,55,85,70,100,2e-08,58.4
Cyphellophora_laciniata_CBS190.61_T,ERR1085115.117151,100.00,30,0,0,55,84,71,100,9e-08,56.5
Cyphellophora_laciniata_CBS190.61_T,ERR1085115.85652,100.00,30,0,0,55,84,71,100,9e-08,56.5
Cyphellophora_laciniata_CBS190.61_T,ERR1085115.61870,100.00,30,0,0,55,84,71,100,9e-08,56.5
Cyphellophora_laciniata_CBS190.61_T,ERR1085115.34839,100.00,30,0,0,55,84,71,100,9e-08,56.5
Cyphellophora_laciniata_CBS190.61_T,ERR1085115.83870,100.00,29,0,0,55,83,72,100,3e-07,54.7
Cyphellophora_laciniata_CBS190.61_T,ERR1085115.4966,100.00,28,0,0,55,82,73,100,1e-06,52.8
