Exophiala_nigra_CBS535.94_T,SRR10526140.3761,94.44,36,2,0,201,236,254,289,4e-08,56.5
Exophiala_spinifera_CBS899.68_T,SRR10526140.3761,94.44,36,2,0,198,233,254,289,4e-08,56.5
Exophiala_exophialae_CBS668.76_T,SRR10526140.3761,94.44,36,2,0,199,234,254,289,4e-08,56.5
Exophiala_polymorpha_CBS138920_T,SRR10526140.3761,94.44,36,2,0,301,336,254,289,5e-08,56.5
Exophiala_oligosperma_CBS725.88_T,SRR10526140.3761,94.44,36,2,0,211,246,254,289,4e-08,56.5
Exophiala_jeanselmei_CBS507.90_T,SRR10526140.3761,94.44,36,2,0,203,238,254,289,4e-08,56.5
Exophiala_bergeri_CBS353.52,SRR10526140.3761,94.44,36,2,0,164,199,254,289,3e-08,56.5
Exophiala_moniliae_CBS520.76_T,SRR10526140.3761,94.44,36,2,0,201,236,254,289,4e-08,56.5
Exophiala_pisciphila_CBS537.73_T,SRR10526140.3761,94.44,36,2,0,204,239,254,289,4e-08,56.5
Exophiala_xenobiotica_CBS117642,SRR10526140.3761,94.44,36,2,0,196,231,254,289,4e-08,56.5
Exophiala_brunnea_CBS,SRR10526140.3761,94.44,36,2,0,232,267,254,289,4e-08,56.5
Exophiala_mesophila_CBS402.95_T,SRR10526140.3761,94.44,36,2,0,194,229,254,289,4e-08,56.5
Exophiala_castellanii_CBS158.58_T,SRR10526140.3761,94.44,36,2,0,192,227,254,289,4e-08,56.5
Exophiala_lecanii-corni_CBS123.33_T,SRR10526140.3761,94.44,36,2,0,215,250,254,289,4e-08,56.5
Exophiala_dermatitidis_CBS748.88,SRR10526140.3761,94.44,36,1,1,208,242,254,289,4e-07,54.7
Exophiala_angulospora_CBS482.92_T,SRR10526140.3761,94.44,36,2,0,198,233,254,289,4e-08,56.5
Exophiala_opportunistica_CBS109811_T,SRR10526140.3761,94.44,36,2,0,197,232,254,289,4e-08,56.5
Exophiala_salmonis_CBS157.67_T,SRR10526140.3761,94.44,36,2,0,326,361,254,289,5e-08,56.5
Exophiala_aquamarina_CBS119918_T,SRR10526140.3761,94.44,36,2,0,204,239,254,289,4e-08,56.5
Exophiala_cancerae_CBS120420_T,SRR10526140.3761,94.44,36,2,0,219,254,254,289,4e-08,56.5
Exophiala_tremulae_CBS129355,SRR10526140.3761,94.44,36,2,0,231,266,254,289,4e-08,56.5
Exophiala_equina_CBS116009,SRR10526140.3761,94.44,36,2,0,197,232,254,289,4e-08,56.5
Exophiala_alcalophila_CBS520.82_T,SRR10526140.3761,94.44,36,2,0,208,243,254,289,4e-08,56.5
Exophiala_crusticola_CBS119970_T,SRR10526140.3761,94.44,36,2,0,213,248,254,289,4e-08,56.5
Rhinocladiella_atrovirens_CBS264.49,SRR10526140.3761,94.44,36,2,0,239,274,254,289,4e-08,56.5
Rhinocladiella_basitona_CBS101460_T,SRR10526140.3761,94.44,36,2,0,198,233,254,289,4e-08,56.5
Rhinocladiella_phaeophora_CBS496.78_T,SRR10526140.3761,94.74,38,2,0,204,241,252,289,3e-09,60.2
Rhinocladiella_aquaspersa_CBS313.73_T,SRR10526140.3761,94.74,38,2,0,198,235,252,289,3e-09,60.2
Rhinocladiella_anceps_CBS181.65_T,SRR10526140.3761,94.44,36,2,0,198,233,254,289,4e-08,56.5
Rhinocladiella_mackenziei_CBS367.92,SRR10526140.3761,94.44,36,2,0,187,222,254,289,4e-08,56.5
Veronaea_compacta_CBS268.75_T,SRR10526140.3761,94.44,36,2,0,220,255,254,289,4e-08,56.5
Capronia_pilosella_AFTOL-ID657,SRR10526140.3761,94.44,36,2,0,298,333,254,289,5e-08,56.5
Capronia_dactylotricha_DAOM208471_T,SRR10526140.3761,94.44,36,2,0,200,235,254,289,4e-08,56.5
Capronia_kleinmondensis_CBS122671_T,SRR10526140.3761,94.44,36,2,0,225,260,254,289,4e-08,56.5
Capronia_mansonii_CBS101.67_T,SRR10526140.3761,94.44,36,2,0,211,246,254,289,4e-08,56.5
Capronia_munkii_DAOM216390_T,SRR10526140.3761,94.44,36,2,0,211,246,254,289,4e-08,56.5
Capronia_coronata_ATCC56201_T,SRR10526140.3761,94.44,36,2,0,199,234,254,289,4e-08,56.5
Capronia_parasitica_CBS123.88,SRR10526140.3761,94.44,36,2,0,205,240,254,289,4e-08,56.5
Veronaea_japonica_CBS776.83_T,SRR10526140.3761,94.44,36,2,0,233,268,254,289,4e-08,56.5
Thysanorea_papuana_CBS212.96_T,SRR10526140.3761,94.44,36,2,0,207,242,254,289,4e-08,56.5
Capronia_acutiseta_ATCC56428_T,SRR10526140.3761,94.44,36,2,0,201,236,254,289,4e-08,56.5
Fonsecaea_brasiliensis_CBS119710_T,SRR10526140.3761,94.59,37,2,0,206,242,253,289,1e-08,58.4
Fonsecaea_pedrosoi_CBS271.37_T,SRR10526140.3761,94.59,37,2,0,234,270,253,289,1e-08,58.4
Fonsecaea_multimorphosa_CBS980.96_T,SRR10526140.3761,94.59,37,2,0,204,240,253,289,1e-08,58.4
Fonsecaea_minima_CBS125760_T,SRR10526140.3761,94.59,37,2,0,200,236,253,289,1e-08,58.4
Fonsecaea_nubica_CBS269.64_T,SRR10526140.3761,94.59,37,2,0,211,247,253,289,1e-08,58.4
Fonsecaea_monophora_CBS269.37_T,SRR10526140.3761,94.59,37,2,0,211,247,253,289,1e-08,58.4
Fonsecaea_erecta_CBS125763_T,SRR10526140.3761,94.59,37,2,0,195,231,253,289,1e-08,58.4
Fonsecaea_pugnacius_CBS139214_T,SRR10526140.3761,94.59,37,2,0,204,240,253,289,1e-08,58.4
Cladophialophora_psammophila_CBS,SRR10526140.3761,94.59,37,2,0,210,246,253,289,1e-08,58.4
Cladophialophora_devriesii_CBS,SRR10526140.3761,94.59,37,2,0,206,242,253,289,1e-08,58.4
Cladophialophora_immunda_CBS834.96,SRR10526140.3761,94.59,37,2,0,208,244,253,289,1e-08,58.4
Cladophialophora_arxii_CBS306.94_T,SRR10526140.3761,94.59,37,2,0,210,246,253,289,1e-08,58.4
Cladophialophora_bantiana_CBS173.52,SRR10526140.3761,94.59,37,2,0,204,240,253,289,1e-08,58.4
Cladophialophora_emmonsii_CBS102594,SRR10526140.3761,94.59,37,2,0,195,231,253,289,1e-08,58.4
Cladophialophora_minourae_CBS556.83,SRR10526140.3761,94.59,37,2,0,203,239,253,289,1e-08,58.4
Cladophialophora_australiensis_CBS112793,SRR10526140.3761,94.44,36,2,0,206,241,254,289,1e-07,56.5
Cladophialophora_potulentorum_CBS112222,SRR10526140.3761,94.44,36,2,0,205,240,254,289,1e-07,56.5
Cladophialophora_matsushimae_CMRP1198,SRR10526140.3761,94.44,36,2,0,209,244,254,289,3e-08,56.5
Cladophialophora_mycetomatis_CBS122637,SRR10526140.3761,94.44,36,2,0,194,229,254,289,4e-08,56.5
Cladophialophora_boppii_CBS126.86_T,SRR10526140.3761,94.44,36,2,0,202,237,254,289,4e-08,56.5
Cladophialophora_abundans_CBS126736,SRR10526140.3761,94.44,36,2,0,139,174,254,289,3e-08,56.5
Capronia_semi-immersa_CBS102234,SRR10526140.3761,94.59,37,2,0,200,236,253,289,1e-08,58.4
Phialophora_americana_CBS400.67,SRR10526140.3761,94.59,37,2,0,202,238,253,289,3e-08,58.4
Phialophora_verrucosa_CBS140325_T,SRR10526140.3761,94.59,37,2,0,206,242,253,289,1e-08,58.4
Cladophialophora_samoensis_CBS259.83_T,SRR10526140.3761,94.59,37,2,0,206,242,253,289,1e-08,58.4
Cladophialophora_carrionii_CBS260.83,SRR10526140.3761,94.59,37,2,0,222,258,253,289,1e-08,58.4
Exophiala_palmae_UPCB86822_T,SRR10526140.3761,94.44,36,2,0,166,201,254,289,3e-08,56.5
Cladophialophora_yegresii_CBS114405_T,SRR10526140.3761,94.59,37,2,0,207,243,253,289,1e-08,58.4
Knufia_epidermidis_CBS120353_T,SRR10526140.3761,94.44,36,2,0,206,241,254,289,4e-08,56.5
Arthrocladium_fulminans_CBS136243_T,SRR10526140.3761,94.44,36,2,0,201,236,254,289,4e-08,56.5
Anthopsis_deltoidea_CBS263.77_T,SRR10526140.3761,94.59,37,2,0,209,245,253,289,1e-08,58.4
Cyphellophora_laciniata_CBS190.61_T,SRR10526140.4198,85.14,74,9,2,379,451,575,503,1e-13,75.0
Cyphellophora_suttonii_CBS449.91,SRR10526140.4198,85.14,74,9,2,282,354,575,503,1e-13,75.0
Cyphellophora_suttonii_CBS449.91,SRR10526140.3761,84.13,63,8,1,171,233,229,289,3e-09,60.2
Cyphellophora_pauciseptata_CBS284.85_T,SRR10526140.4198,85.14,74,9,2,293,365,575,503,1e-13,75.0
Cyphellophora_pauciseptata_CBS284.85_T,SRR10526140.3761,84.13,63,8,1,182,244,229,289,3e-09,60.2
Phialophora_europaea_CBS101466,SRR10526140.3761,94.44,36,2,0,204,239,254,289,4e-08,56.5
Phialophora_ambigua_CBS235.93,SRR10526140.3761,84.13,63,8,2,174,236,229,289,3e-09,60.2
Cladophialophora_modesta_CBS985.96_T,SRR10526140.3761,82.35,68,9,3,166,233,225,289,4e-08,56.5
Cyphellophora_fusarioides_MUCL44033_T,SRR10526140.4198,83.78,74,10,2,281,353,575,503,5e-12,69.4
