Exophiala_brunnea_CBS,ERR1083431.6,100.00,39,0,0,1,39,8,46,7e-17,73.1
Exophiala_tremulae_CBS129355,ERR1083431.6,100.00,39,0,0,1,39,8,46,7e-17,73.1
Rhinocladiella_atrovirens_CBS264.49,ERR1083431.6,100.00,44,0,0,1,44,3,46,1e-19,82.4
Capronia_kleinmondensis_CBS122671_T,ERR1083431.6,100.00,30,0,0,1,30,17,46,7e-12,56.5
Veronaea_japonica_CBS776.83_T,ERR1083431.6,100.00,38,0,0,1,38,9,46,2e-16,71.3
Fonsecaea_pedrosoi_CBS271.37_T,ERR1083431.6,100.00,30,0,0,1,30,17,46,7e-12,56.5
Cladophialophora_chaetospira_CBS127573,ERR1083431.6,100.00,31,0,0,379,409,16,46,3e-12,58.4
Cyphellophora_laciniata_CBS190.61_T,ERR1083431.6,100.00,46,0,0,55,100,1,46,1e-20,86.1
