Exophiala_salmonis_CBS157.67_T,ERR1084894.54936,93.94,99,4,2,1,98,3,100,5e-36,148
Exophiala_salmonis_CBS157.67_T,ERR1084894.52158,93.94,99,4,2,1,98,3,100,5e-36,148
Exophiala_salmonis_CBS157.67_T,ERR1084894.44430,93.94,99,4,2,1,98,3,100,5e-36,148
Exophiala_salmonis_CBS157.67_T,ERR1084894.42813,93.94,99,4,2,1,98,3,100,5e-36,148
Exophiala_salmonis_CBS157.67_T,ERR1084894.39444,93.94,99,4,2,1,98,3,100,5e-36,148
Exophiala_salmonis_CBS157.67_T,ERR1084894.39297,93.94,99,4,2,1,98,3,100,5e-36,148
Exophiala_salmonis_CBS157.67_T,ERR1084894.35114,93.94,99,4,2,1,98,3,100,5e-36,148
Exophiala_salmonis_CBS157.67_T,ERR1084894.34077,93.94,99,4,2,1,98,3,100,5e-36,148
Exophiala_salmonis_CBS157.67_T,ERR1084894.32181,93.94,99,4,2,1,98,3,100,5e-36,148
Exophiala_salmonis_CBS157.67_T,ERR1084894.26590,93.94,99,4,2,1,98,3,100,5e-36,148
Exophiala_salmonis_CBS157.67_T,ERR1084894.25717,93.94,99,4,2,1,98,3,100,5e-36,148
Exophiala_salmonis_CBS157.67_T,ERR1084894.20018,93.94,99,4,2,1,98,3,100,5e-36,148
Exophiala_salmonis_CBS157.67_T,ERR1084894.17695,93.94,99,4,2,1,98,3,100,5e-36,148
Exophiala_salmonis_CBS157.67_T,ERR1084894.11965,93.94,99,4,2,1,98,3,100,5e-36,148
Exophiala_salmonis_CBS157.67_T,ERR1084894.11459,93.94,99,4,2,1,98,3,100,5e-36,148
Exophiala_salmonis_CBS157.67_T,ERR1084894.10483,93.94,99,4,2,1,98,3,100,5e-36,148
Exophiala_salmonis_CBS157.67_T,ERR1084894.4617,93.94,99,4,2,1,98,3,100,5e-36,148
Exophiala_salmonis_CBS157.67_T,ERR1084894.4064,93.94,99,4,2,1,98,3,100,5e-36,148
Exophiala_salmonis_CBS157.67_T,ERR1084894.2365,93.94,99,4,2,1,98,3,100,5e-36,148
Exophiala_salmonis_CBS157.67_T,ERR1084894.2018,93.94,99,4,2,1,98,3,100,5e-36,148
Exophiala_salmonis_CBS157.67_T,ERR1084894.1887,93.94,99,4,2,1,98,3,100,5e-36,148
Exophiala_salmonis_CBS157.67_T,ERR1084894.1871,93.94,99,4,2,1,98,3,100,5e-36,148
Exophiala_salmonis_CBS157.67_T,ERR1084894.1762,93.94,99,4,2,1,98,3,100,5e-36,148
Exophiala_salmonis_CBS157.67_T,ERR1084894.57951,92.86,98,7,0,1,98,3,100,2e-34,143
Exophiala_salmonis_CBS157.67_T,ERR1084894.57539,92.86,98,7,0,1,98,3,100,2e-34,143
Exophiala_salmonis_CBS157.67_T,ERR1084894.57465,92.86,98,7,0,1,98,3,100,2e-34,143
Exophiala_salmonis_CBS157.67_T,ERR1084894.57133,92.86,98,7,0,1,98,3,100,2e-34,143
Exophiala_salmonis_CBS157.67_T,ERR1084894.56698,92.86,98,7,0,1,98,3,100,2e-34,143
Exophiala_salmonis_CBS157.67_T,ERR1084894.56306,92.86,98,7,0,1,98,3,100,2e-34,143
Exophiala_salmonis_CBS157.67_T,ERR1084894.56302,92.86,98,7,0,1,98,3,100,2e-34,143
Exophiala_salmonis_CBS157.67_T,ERR1084894.56261,92.86,98,7,0,1,98,3,100,2e-34,143
Exophiala_salmonis_CBS157.67_T,ERR1084894.55622,92.86,98,7,0,1,98,3,100,2e-34,143
Exophiala_salmonis_CBS157.67_T,ERR1084894.54279,92.86,98,7,0,1,98,3,100,2e-34,143
Exophiala_salmonis_CBS157.67_T,ERR1084894.54181,92.86,98,7,0,1,98,3,100,2e-34,143
Exophiala_salmonis_CBS157.67_T,ERR1084894.53370,92.86,98,7,0,1,98,3,100,2e-34,143
Exophiala_salmonis_CBS157.67_T,ERR1084894.52608,92.86,98,7,0,1,98,3,100,2e-34,143
Exophiala_salmonis_CBS157.67_T,ERR1084894.51264,92.86,98,7,0,1,98,3,100,2e-34,143
Exophiala_salmonis_CBS157.67_T,ERR1084894.50690,92.86,98,7,0,1,98,3,100,2e-34,143
Exophiala_salmonis_CBS157.67_T,ERR1084894.50435,92.86,98,7,0,1,98,3,100,2e-34,143
Exophiala_salmonis_CBS157.67_T,ERR1084894.50416,92.86,98,7,0,1,98,3,100,2e-34,143
Exophiala_salmonis_CBS157.67_T,ERR1084894.50188,92.86,98,7,0,1,98,3,100,2e-34,143
Exophiala_salmonis_CBS157.67_T,ERR1084894.49641,92.86,98,7,0,1,98,3,100,2e-34,143
Exophiala_salmonis_CBS157.67_T,ERR1084894.49374,92.86,98,7,0,1,98,3,100,2e-34,143
Exophiala_salmonis_CBS157.67_T,ERR1084894.49117,92.86,98,7,0,1,98,3,100,2e-34,143
Exophiala_salmonis_CBS157.67_T,ERR1084894.47671,92.93,99,5,2,1,98,3,100,2e-34,143
Exophiala_salmonis_CBS157.67_T,ERR1084894.47595,92.86,98,7,0,1,98,3,100,2e-34,143
Exophiala_salmonis_CBS157.67_T,ERR1084894.46822,92.86,98,7,0,1,98,3,100,2e-34,143
Exophiala_salmonis_CBS157.67_T,ERR1084894.44824,92.93,99,5,2,1,98,3,100,2e-34,143
Exophiala_salmonis_CBS157.67_T,ERR1084894.44714,92.86,98,7,0,1,98,3,100,2e-34,143
Exophiala_salmonis_CBS157.67_T,ERR1084894.43716,92.86,98,7,0,1,98,3,100,2e-34,143
Exophiala_salmonis_CBS157.67_T,ERR1084894.43247,92.86,98,7,0,1,98,3,100,2e-34,143
Exophiala_salmonis_CBS157.67_T,ERR1084894.43228,92.86,98,7,0,1,98,3,100,2e-34,143
Exophiala_salmonis_CBS157.67_T,ERR1084894.42225,92.86,98,7,0,1,98,3,100,2e-34,143
Exophiala_salmonis_CBS157.67_T,ERR1084894.42080,92.86,98,7,0,1,98,3,100,2e-34,143
Exophiala_salmonis_CBS157.67_T,ERR1084894.41320,92.86,98,7,0,1,98,3,100,2e-34,143
Exophiala_salmonis_CBS157.67_T,ERR1084894.40969,92.86,98,7,0,1,98,3,100,2e-34,143
Exophiala_salmonis_CBS157.67_T,ERR1084894.40622,92.86,98,7,0,1,98,3,100,2e-34,143
Exophiala_salmonis_CBS157.67_T,ERR1084894.39891,92.86,98,7,0,1,98,3,100,2e-34,143
Exophiala_salmonis_CBS157.67_T,ERR1084894.39816,92.86,98,7,0,1,98,3,100,2e-34,143
Exophiala_salmonis_CBS157.67_T,ERR1084894.39260,92.86,98,7,0,1,98,3,100,2e-34,143
Exophiala_salmonis_CBS157.67_T,ERR1084894.37810,92.93,99,5,2,1,98,3,100,2e-34,143
Exophiala_salmonis_CBS157.67_T,ERR1084894.36853,92.86,98,7,0,1,98,3,100,2e-34,143
Exophiala_salmonis_CBS157.67_T,ERR1084894.36775,92.93,99,5,2,1,98,3,100,2e-34,143
Exophiala_salmonis_CBS157.67_T,ERR1084894.36773,92.86,98,7,0,1,98,3,100,2e-34,143
Exophiala_salmonis_CBS157.67_T,ERR1084894.36226,92.93,99,5,2,1,98,3,100,2e-34,143
Exophiala_salmonis_CBS157.67_T,ERR1084894.36036,92.86,98,7,0,1,98,3,100,2e-34,143
Exophiala_salmonis_CBS157.67_T,ERR1084894.35724,92.86,98,7,0,1,98,3,100,2e-34,143
Exophiala_salmonis_CBS157.67_T,ERR1084894.35374,92.86,98,7,0,1,98,3,100,2e-34,143
Exophiala_salmonis_CBS157.67_T,ERR1084894.34363,92.86,98,7,0,1,98,3,100,2e-34,143
Exophiala_salmonis_CBS157.67_T,ERR1084894.34175,92.86,98,7,0,1,98,3,100,2e-34,143
Exophiala_salmonis_CBS157.67_T,ERR1084894.33742,92.86,98,7,0,1,98,3,100,2e-34,143
Exophiala_salmonis_CBS157.67_T,ERR1084894.33615,92.86,98,7,0,1,98,3,100,2e-34,143
Exophiala_salmonis_CBS157.67_T,ERR1084894.31569,92.86,98,7,0,1,98,3,100,2e-34,143
Exophiala_salmonis_CBS157.67_T,ERR1084894.31311,92.86,98,7,0,1,98,3,100,2e-34,143
Exophiala_salmonis_CBS157.67_T,ERR1084894.31309,92.86,98,7,0,1,98,3,100,2e-34,143
Exophiala_salmonis_CBS157.67_T,ERR1084894.31163,92.86,98,7,0,1,98,3,100,2e-34,143
Exophiala_salmonis_CBS157.67_T,ERR1084894.30430,92.86,98,7,0,1,98,3,100,2e-34,143
Exophiala_salmonis_CBS157.67_T,ERR1084894.29548,92.86,98,7,0,1,98,3,100,2e-34,143
Exophiala_salmonis_CBS157.67_T,ERR1084894.28561,92.86,98,7,0,1,98,3,100,2e-34,143
Exophiala_salmonis_CBS157.67_T,ERR1084894.28099,92.93,99,5,2,1,98,3,100,2e-34,143
Exophiala_salmonis_CBS157.67_T,ERR1084894.27940,92.86,98,7,0,1,98,3,100,2e-34,143
Exophiala_salmonis_CBS157.67_T,ERR1084894.27792,92.86,98,7,0,1,98,3,100,2e-34,143
Exophiala_salmonis_CBS157.67_T,ERR1084894.24517,92.86,98,7,0,1,98,3,100,2e-34,143
Exophiala_salmonis_CBS157.67_T,ERR1084894.23558,92.86,98,7,0,1,98,3,100,2e-34,143
Exophiala_salmonis_CBS157.67_T,ERR1084894.23445,92.86,98,7,0,1,98,3,100,2e-34,143
Exophiala_salmonis_CBS157.67_T,ERR1084894.22561,92.86,98,7,0,1,98,3,100,2e-34,143
Exophiala_salmonis_CBS157.67_T,ERR1084894.22003,92.86,98,7,0,1,98,3,100,2e-34,143
Exophiala_salmonis_CBS157.67_T,ERR1084894.21568,92.86,98,7,0,1,98,3,100,2e-34,143
Exophiala_salmonis_CBS157.67_T,ERR1084894.21241,92.86,98,7,0,1,98,3,100,2e-34,143
Exophiala_salmonis_CBS157.67_T,ERR1084894.20721,92.86,98,7,0,1,98,3,100,2e-34,143
Exophiala_salmonis_CBS157.67_T,ERR1084894.20502,92.86,98,7,0,1,98,3,100,2e-34,143
Exophiala_salmonis_CBS157.67_T,ERR1084894.20134,92.86,98,7,0,1,98,3,100,2e-34,143
Exophiala_salmonis_CBS157.67_T,ERR1084894.19455,92.86,98,7,0,1,98,3,100,2e-34,143
Exophiala_salmonis_CBS157.67_T,ERR1084894.18843,92.86,98,7,0,1,98,3,100,2e-34,143
Exophiala_salmonis_CBS157.67_T,ERR1084894.18443,92.93,99,5,2,1,98,3,100,2e-34,143
Exophiala_salmonis_CBS157.67_T,ERR1084894.17570,92.86,98,7,0,1,98,3,100,2e-34,143
Exophiala_salmonis_CBS157.67_T,ERR1084894.17219,92.86,98,7,0,1,98,3,100,2e-34,143
Exophiala_salmonis_CBS157.67_T,ERR1084894.15954,92.86,98,7,0,1,98,3,100,2e-34,143
Exophiala_salmonis_CBS157.67_T,ERR1084894.15671,92.86,98,7,0,1,98,3,100,2e-34,143
Exophiala_salmonis_CBS157.67_T,ERR1084894.15091,92.86,98,7,0,1,98,3,100,2e-34,143
Exophiala_salmonis_CBS157.67_T,ERR1084894.14938,92.86,98,7,0,1,98,3,100,2e-34,143
Exophiala_salmonis_CBS157.67_T,ERR1084894.14551,92.86,98,7,0,1,98,3,100,2e-34,143
Exophiala_salmonis_CBS157.67_T,ERR1084894.14317,92.86,98,7,0,1,98,3,100,2e-34,143
Exophiala_salmonis_CBS157.67_T,ERR1084894.13962,92.86,98,7,0,1,98,3,100,2e-34,143
Exophiala_salmonis_CBS157.67_T,ERR1084894.13400,92.86,98,7,0,1,98,3,100,2e-34,143
Exophiala_salmonis_CBS157.67_T,ERR1084894.11780,92.86,98,7,0,1,98,3,100,2e-34,143
Exophiala_salmonis_CBS157.67_T,ERR1084894.10249,92.86,98,7,0,1,98,3,100,2e-34,143
Exophiala_salmonis_CBS157.67_T,ERR1084894.9753,92.86,98,7,0,1,98,3,100,2e-34,143
Exophiala_salmonis_CBS157.67_T,ERR1084894.8584,92.86,98,7,0,1,98,3,100,2e-34,143
Exophiala_salmonis_CBS157.67_T,ERR1084894.7067,92.86,98,7,0,1,98,3,100,2e-34,143
Exophiala_salmonis_CBS157.67_T,ERR1084894.6336,92.86,98,7,0,1,98,3,100,2e-34,143
Exophiala_salmonis_CBS157.67_T,ERR1084894.6097,92.86,98,7,0,1,98,3,100,2e-34,143
Exophiala_salmonis_CBS157.67_T,ERR1084894.6047,92.86,98,7,0,1,98,3,100,2e-34,143
Exophiala_salmonis_CBS157.67_T,ERR1084894.5584,92.86,98,7,0,1,98,3,100,2e-34,143
Exophiala_salmonis_CBS157.67_T,ERR1084894.4161,92.86,98,7,0,1,98,3,100,2e-34,143
Exophiala_salmonis_CBS157.67_T,ERR1084894.4102,92.86,98,7,0,1,98,3,100,2e-34,143
Exophiala_salmonis_CBS157.67_T,ERR1084894.3858,92.86,98,7,0,1,98,3,100,2e-34,143
Exophiala_salmonis_CBS157.67_T,ERR1084894.3833,92.86,98,7,0,1,98,3,100,2e-34,143
Exophiala_salmonis_CBS157.67_T,ERR1084894.3520,92.86,98,7,0,1,98,3,100,2e-34,143
Exophiala_salmonis_CBS157.67_T,ERR1084894.3255,92.86,98,7,0,1,98,3,100,2e-34,143
Exophiala_salmonis_CBS157.67_T,ERR1084894.2711,92.86,98,7,0,1,98,3,100,2e-34,143
Exophiala_salmonis_CBS157.67_T,ERR1084894.1473,92.86,98,7,0,1,98,3,100,2e-34,143
Exophiala_salmonis_CBS157.67_T,ERR1084894.1335,92.86,98,7,0,1,98,3,100,2e-34,143
Exophiala_salmonis_CBS157.67_T,ERR1084894.1158,92.86,98,7,0,1,98,3,100,2e-34,143
Exophiala_salmonis_CBS157.67_T,ERR1084894.481,92.86,98,7,0,1,98,3,100,2e-34,143
Exophiala_salmonis_CBS157.67_T,ERR1084894.327,92.86,98,7,0,1,98,3,100,2e-34,143
Exophiala_salmonis_CBS157.67_T,ERR1084894.310,92.86,98,7,0,1,98,3,100,2e-34,143
Exophiala_salmonis_CBS157.67_T,ERR1084894.57633,91.84,98,8,0,1,98,3,100,1e-32,137
Exophiala_salmonis_CBS157.67_T,ERR1084894.54906,91.84,98,8,0,1,98,3,100,1e-32,137
Exophiala_salmonis_CBS157.67_T,ERR1084894.54533,91.92,99,6,2,1,98,3,100,1e-32,137
Exophiala_salmonis_CBS157.67_T,ERR1084894.52301,91.84,98,8,0,1,98,3,100,1e-32,137
Exophiala_salmonis_CBS157.67_T,ERR1084894.50529,91.84,98,8,0,1,98,3,100,1e-32,137
Exophiala_salmonis_CBS157.67_T,ERR1084894.43599,91.84,98,8,0,1,98,3,100,1e-32,137
Exophiala_salmonis_CBS157.67_T,ERR1084894.42893,91.84,98,8,0,1,98,3,100,1e-32,137
Exophiala_salmonis_CBS157.67_T,ERR1084894.42139,91.84,98,8,0,1,98,3,100,1e-32,137
Exophiala_salmonis_CBS157.67_T,ERR1084894.41863,91.84,98,8,0,1,98,3,100,1e-32,137
Exophiala_salmonis_CBS157.67_T,ERR1084894.40233,91.84,98,8,0,1,98,3,100,1e-32,137
Exophiala_salmonis_CBS157.67_T,ERR1084894.39725,91.92,99,6,2,1,98,3,100,1e-32,137
Exophiala_salmonis_CBS157.67_T,ERR1084894.37291,91.84,98,8,0,1,98,3,100,1e-32,137
Exophiala_salmonis_CBS157.67_T,ERR1084894.37186,91.84,98,8,0,1,98,3,100,1e-32,137
Exophiala_salmonis_CBS157.67_T,ERR1084894.36882,91.92,99,6,2,1,98,3,100,1e-32,137
Exophiala_salmonis_CBS157.67_T,ERR1084894.35748,91.84,98,8,0,1,98,3,100,1e-32,137
Exophiala_salmonis_CBS157.67_T,ERR1084894.35653,91.84,98,8,0,1,98,3,100,1e-32,137
Exophiala_salmonis_CBS157.67_T,ERR1084894.34555,91.84,98,8,0,1,98,3,100,1e-32,137
Exophiala_salmonis_CBS157.67_T,ERR1084894.34227,91.84,98,8,0,1,98,3,100,1e-32,137
Exophiala_salmonis_CBS157.67_T,ERR1084894.33567,91.92,99,6,2,1,98,3,100,1e-32,137
Exophiala_salmonis_CBS157.67_T,ERR1084894.33195,91.84,98,8,0,1,98,3,100,1e-32,137
Exophiala_salmonis_CBS157.67_T,ERR1084894.30333,91.84,98,8,0,1,98,3,100,1e-32,137
Exophiala_salmonis_CBS157.67_T,ERR1084894.29841,91.84,98,8,0,1,98,3,100,1e-32,137
Exophiala_salmonis_CBS157.67_T,ERR1084894.28632,91.84,98,8,0,1,98,3,100,1e-32,137
Exophiala_salmonis_CBS157.67_T,ERR1084894.26404,91.84,98,8,0,1,98,3,100,1e-32,137
Exophiala_salmonis_CBS157.67_T,ERR1084894.25771,91.84,98,8,0,1,98,3,100,1e-32,137
Exophiala_salmonis_CBS157.67_T,ERR1084894.23428,91.84,98,8,0,1,98,3,100,1e-32,137
Exophiala_salmonis_CBS157.67_T,ERR1084894.22471,91.84,98,8,0,1,98,3,100,1e-32,137
Exophiala_salmonis_CBS157.67_T,ERR1084894.21997,91.84,98,8,0,1,98,3,100,1e-32,137
Exophiala_salmonis_CBS157.67_T,ERR1084894.21235,91.84,98,8,0,1,98,3,100,1e-32,137
Exophiala_salmonis_CBS157.67_T,ERR1084894.18845,91.84,98,8,0,1,98,3,100,1e-32,137
Exophiala_salmonis_CBS157.67_T,ERR1084894.18741,91.84,98,8,0,1,98,3,100,1e-32,137
Exophiala_salmonis_CBS157.67_T,ERR1084894.18239,91.84,98,8,0,1,98,3,100,1e-32,137
Exophiala_salmonis_CBS157.67_T,ERR1084894.17744,91.84,98,8,0,1,98,3,100,1e-32,137
Exophiala_salmonis_CBS157.67_T,ERR1084894.17723,91.84,98,8,0,1,98,3,100,1e-32,137
Exophiala_salmonis_CBS157.67_T,ERR1084894.16870,91.92,99,6,2,1,98,3,100,1e-32,137
Exophiala_salmonis_CBS157.67_T,ERR1084894.11983,91.84,98,8,0,1,98,3,100,1e-32,137
Exophiala_salmonis_CBS157.67_T,ERR1084894.10063,91.92,99,6,2,1,98,3,100,1e-32,137
Exophiala_salmonis_CBS157.67_T,ERR1084894.10020,91.84,98,8,0,1,98,3,100,1e-32,137
Exophiala_salmonis_CBS157.67_T,ERR1084894.8975,91.84,98,8,0,1,98,3,100,1e-32,137
Exophiala_salmonis_CBS157.67_T,ERR1084894.6173,91.84,98,8,0,1,98,3,100,1e-32,137
Exophiala_salmonis_CBS157.67_T,ERR1084894.3814,91.84,98,8,0,1,98,3,100,1e-32,137
Exophiala_salmonis_CBS157.67_T,ERR1084894.1709,91.84,98,8,0,1,98,3,100,1e-32,137
Exophiala_salmonis_CBS157.67_T,ERR1084894.35354,91.67,96,8,0,1,96,3,98,1e-31,134
Exophiala_salmonis_CBS157.67_T,ERR1084894.58356,90.82,98,9,0,1,98,3,100,5e-31,132
Exophiala_salmonis_CBS157.67_T,ERR1084894.58101,90.91,99,7,2,1,98,3,100,5e-31,132
Exophiala_salmonis_CBS157.67_T,ERR1084894.57136,90.91,99,7,2,1,98,3,100,5e-31,132
Exophiala_salmonis_CBS157.67_T,ERR1084894.57070,90.91,99,7,2,1,98,3,100,5e-31,132
Exophiala_salmonis_CBS157.67_T,ERR1084894.56827,91.00,100,6,3,1,99,3,100,5e-31,132
Exophiala_salmonis_CBS157.67_T,ERR1084894.56517,90.91,99,7,2,1,98,3,100,5e-31,132
Exophiala_salmonis_CBS157.67_T,ERR1084894.56339,90.91,99,7,2,1,98,3,100,5e-31,132
Exophiala_salmonis_CBS157.67_T,ERR1084894.56243,90.91,99,7,2,1,98,3,100,5e-31,132
Exophiala_salmonis_CBS157.67_T,ERR1084894.55642,90.91,99,7,2,1,98,3,100,5e-31,132
Exophiala_salmonis_CBS157.67_T,ERR1084894.55378,90.91,99,7,2,1,98,3,100,5e-31,132
Exophiala_salmonis_CBS157.67_T,ERR1084894.54700,90.91,99,7,2,1,98,3,100,5e-31,132
Exophiala_salmonis_CBS157.67_T,ERR1084894.54359,90.91,99,7,2,1,98,3,100,5e-31,132
Exophiala_salmonis_CBS157.67_T,ERR1084894.54342,90.91,99,7,2,1,98,3,100,5e-31,132
Exophiala_salmonis_CBS157.67_T,ERR1084894.54312,90.91,99,7,2,1,98,3,100,5e-31,132
Exophiala_salmonis_CBS157.67_T,ERR1084894.54263,90.91,99,7,2,1,98,3,100,5e-31,132
Exophiala_salmonis_CBS157.67_T,ERR1084894.54034,90.91,99,7,2,1,98,3,100,5e-31,132
Exophiala_salmonis_CBS157.67_T,ERR1084894.53831,90.91,99,7,2,1,98,3,100,5e-31,132
Exophiala_salmonis_CBS157.67_T,ERR1084894.53623,90.91,99,7,2,1,98,3,100,5e-31,132
Exophiala_salmonis_CBS157.67_T,ERR1084894.53535,90.91,99,7,2,1,98,3,100,5e-31,132
Exophiala_salmonis_CBS157.67_T,ERR1084894.53480,90.91,99,7,2,1,98,3,100,5e-31,132
Exophiala_salmonis_CBS157.67_T,ERR1084894.53263,90.91,99,7,2,1,98,3,100,5e-31,132
Exophiala_salmonis_CBS157.67_T,ERR1084894.53102,90.91,99,7,2,1,98,3,100,5e-31,132
Exophiala_salmonis_CBS157.67_T,ERR1084894.52665,90.91,99,7,2,1,98,3,100,5e-31,132
Exophiala_salmonis_CBS157.67_T,ERR1084894.52644,90.91,99,7,2,1,98,3,100,5e-31,132
Exophiala_salmonis_CBS157.67_T,ERR1084894.52409,90.91,99,7,2,1,98,3,100,5e-31,132
Exophiala_salmonis_CBS157.67_T,ERR1084894.52074,90.91,99,7,2,1,98,3,100,5e-31,132
Exophiala_salmonis_CBS157.67_T,ERR1084894.51993,90.91,99,7,2,1,98,3,100,5e-31,132
Exophiala_salmonis_CBS157.67_T,ERR1084894.51938,90.91,99,7,2,1,98,3,100,5e-31,132
Exophiala_salmonis_CBS157.67_T,ERR1084894.51918,90.91,99,7,2,1,98,3,100,5e-31,132
Exophiala_salmonis_CBS157.67_T,ERR1084894.51356,90.91,99,7,2,1,98,3,100,5e-31,132
Exophiala_salmonis_CBS157.67_T,ERR1084894.51194,90.91,99,7,2,1,98,3,100,5e-31,132
Exophiala_salmonis_CBS157.67_T,ERR1084894.50870,90.91,99,7,2,1,98,3,100,5e-31,132
Exophiala_salmonis_CBS157.67_T,ERR1084894.50771,90.91,99,7,2,1,98,3,100,5e-31,132
Exophiala_salmonis_CBS157.67_T,ERR1084894.50373,90.91,99,7,2,1,98,3,100,5e-31,132
Exophiala_salmonis_CBS157.67_T,ERR1084894.50074,90.91,99,7,2,1,98,3,100,5e-31,132
Exophiala_salmonis_CBS157.67_T,ERR1084894.49701,90.91,99,8,1,1,99,3,100,5e-31,132
Exophiala_salmonis_CBS157.67_T,ERR1084894.49545,90.91,99,7,2,1,98,3,100,5e-31,132
Exophiala_salmonis_CBS157.67_T,ERR1084894.49462,90.91,99,7,2,1,98,3,100,5e-31,132
Exophiala_salmonis_CBS157.67_T,ERR1084894.48803,90.91,99,7,2,1,98,3,100,5e-31,132
Exophiala_salmonis_CBS157.67_T,ERR1084894.48349,90.82,98,9,0,1,98,3,100,5e-31,132
Exophiala_salmonis_CBS157.67_T,ERR1084894.48191,90.91,99,7,2,1,98,3,100,5e-31,132
Exophiala_salmonis_CBS157.67_T,ERR1084894.47902,90.91,99,7,2,1,98,3,100,5e-31,132
Exophiala_salmonis_CBS157.67_T,ERR1084894.47724,90.82,98,9,0,1,98,3,100,5e-31,132
Exophiala_salmonis_CBS157.67_T,ERR1084894.47320,90.91,99,7,2,1,98,3,100,5e-31,132
Exophiala_salmonis_CBS157.67_T,ERR1084894.47308,90.91,99,7,2,1,98,3,100,5e-31,132
Exophiala_salmonis_CBS157.67_T,ERR1084894.47178,90.91,99,7,2,1,98,3,100,5e-31,132
Exophiala_salmonis_CBS157.67_T,ERR1084894.47112,90.91,99,7,2,1,98,3,100,5e-31,132
Exophiala_salmonis_CBS157.67_T,ERR1084894.47107,90.91,99,7,2,1,98,3,100,5e-31,132
Exophiala_salmonis_CBS157.67_T,ERR1084894.47081,90.91,99,7,2,1,98,3,100,5e-31,132
Exophiala_salmonis_CBS157.67_T,ERR1084894.47040,90.91,99,7,2,1,98,3,100,5e-31,132
Exophiala_salmonis_CBS157.67_T,ERR1084894.46836,90.91,99,7,2,1,98,3,100,5e-31,132
Exophiala_salmonis_CBS157.67_T,ERR1084894.46794,90.91,99,7,2,1,98,3,100,5e-31,132
Exophiala_salmonis_CBS157.67_T,ERR1084894.46670,90.91,99,7,2,1,98,3,100,5e-31,132
Exophiala_salmonis_CBS157.67_T,ERR1084894.46571,90.91,99,7,2,1,98,3,100,5e-31,132
Exophiala_salmonis_CBS157.67_T,ERR1084894.46557,90.91,99,7,2,1,98,3,100,5e-31,132
Exophiala_salmonis_CBS157.67_T,ERR1084894.46230,90.91,99,7,2,1,98,3,100,5e-31,132
Exophiala_salmonis_CBS157.67_T,ERR1084894.46120,90.91,99,7,2,1,98,3,100,5e-31,132
Exophiala_salmonis_CBS157.67_T,ERR1084894.46034,90.91,99,7,2,1,98,3,100,5e-31,132
Exophiala_salmonis_CBS157.67_T,ERR1084894.45858,90.91,99,7,2,1,98,3,100,5e-31,132
Exophiala_salmonis_CBS157.67_T,ERR1084894.45563,90.91,99,7,2,1,98,3,100,5e-31,132
Exophiala_salmonis_CBS157.67_T,ERR1084894.45180,90.91,99,7,2,1,98,3,100,5e-31,132
Exophiala_salmonis_CBS157.67_T,ERR1084894.45167,90.91,99,7,2,1,98,3,100,5e-31,132
Exophiala_salmonis_CBS157.67_T,ERR1084894.44935,90.91,99,7,2,1,98,3,100,5e-31,132
Exophiala_salmonis_CBS157.67_T,ERR1084894.44753,90.91,99,7,2,1,98,3,100,5e-31,132
Exophiala_salmonis_CBS157.67_T,ERR1084894.44515,90.91,99,7,2,1,98,3,100,5e-31,132
Exophiala_salmonis_CBS157.67_T,ERR1084894.44455,90.82,98,9,0,1,98,3,100,5e-31,132
Exophiala_salmonis_CBS157.67_T,ERR1084894.44025,90.91,99,7,2,1,98,3,100,5e-31,132
Exophiala_salmonis_CBS157.67_T,ERR1084894.43664,90.91,99,7,2,1,98,3,100,5e-31,132
Exophiala_salmonis_CBS157.67_T,ERR1084894.43623,90.91,99,7,2,1,98,3,100,5e-31,132
Exophiala_salmonis_CBS157.67_T,ERR1084894.43495,90.91,99,7,2,1,98,3,100,5e-31,132
Exophiala_salmonis_CBS157.67_T,ERR1084894.42987,90.91,99,7,2,1,98,3,100,5e-31,132
Exophiala_salmonis_CBS157.67_T,ERR1084894.42935,90.91,99,7,2,1,98,3,100,5e-31,132
Exophiala_salmonis_CBS157.67_T,ERR1084894.42934,90.91,99,7,2,1,98,3,100,5e-31,132
Exophiala_salmonis_CBS157.67_T,ERR1084894.42932,90.91,99,7,2,1,98,3,100,5e-31,132
Exophiala_salmonis_CBS157.67_T,ERR1084894.42509,90.91,99,7,2,1,98,3,100,5e-31,132
Exophiala_salmonis_CBS157.67_T,ERR1084894.42361,90.91,99,7,2,1,98,3,100,5e-31,132
Exophiala_salmonis_CBS157.67_T,ERR1084894.41894,91.00,100,6,3,1,99,3,100,5e-31,132
Exophiala_salmonis_CBS157.67_T,ERR1084894.41742,90.91,99,7,2,1,98,3,100,5e-31,132
Exophiala_salmonis_CBS157.67_T,ERR1084894.41698,90.91,99,7,2,1,98,3,100,5e-31,132
Exophiala_salmonis_CBS157.67_T,ERR1084894.41557,90.91,99,7,2,1,98,3,100,5e-31,132
Exophiala_salmonis_CBS157.67_T,ERR1084894.41490,90.91,99,7,2,1,98,3,100,5e-31,132
Exophiala_salmonis_CBS157.67_T,ERR1084894.41449,90.91,99,7,2,1,98,3,100,5e-31,132
Exophiala_salmonis_CBS157.67_T,ERR1084894.41143,90.91,99,7,2,1,98,3,100,5e-31,132
Exophiala_salmonis_CBS157.67_T,ERR1084894.40919,90.91,99,7,2,1,98,3,100,5e-31,132
Exophiala_salmonis_CBS157.67_T,ERR1084894.40837,90.91,99,7,2,1,98,3,100,5e-31,132
Exophiala_salmonis_CBS157.67_T,ERR1084894.40565,90.91,99,7,2,1,98,3,100,5e-31,132
Exophiala_salmonis_CBS157.67_T,ERR1084894.40338,90.91,99,7,2,1,98,3,100,5e-31,132
Exophiala_salmonis_CBS157.67_T,ERR1084894.40300,90.91,99,7,2,1,98,3,100,5e-31,132
Exophiala_salmonis_CBS157.67_T,ERR1084894.40242,90.91,99,7,2,1,98,3,100,5e-31,132
Exophiala_salmonis_CBS157.67_T,ERR1084894.40111,90.91,99,7,2,1,98,3,100,5e-31,132
Exophiala_salmonis_CBS157.67_T,ERR1084894.39615,90.91,99,7,2,1,98,3,100,5e-31,132
Exophiala_salmonis_CBS157.67_T,ERR1084894.39602,90.91,99,7,2,1,98,3,100,5e-31,132
Exophiala_salmonis_CBS157.67_T,ERR1084894.39494,90.91,99,7,2,1,98,3,100,5e-31,132
Exophiala_salmonis_CBS157.67_T,ERR1084894.39423,90.91,99,7,2,1,98,3,100,5e-31,132
Exophiala_salmonis_CBS157.67_T,ERR1084894.39390,90.91,99,7,2,1,98,3,100,5e-31,132
Exophiala_salmonis_CBS157.67_T,ERR1084894.39368,90.91,99,7,2,1,98,3,100,5e-31,132
Exophiala_salmonis_CBS157.67_T,ERR1084894.39355,90.91,99,7,2,1,98,3,100,5e-31,132
Exophiala_salmonis_CBS157.67_T,ERR1084894.39270,90.91,99,7,2,1,98,3,100,5e-31,132
Exophiala_salmonis_CBS157.67_T,ERR1084894.39240,90.91,99,7,2,1,98,3,100,5e-31,132
Exophiala_salmonis_CBS157.67_T,ERR1084894.39163,90.91,99,7,2,1,98,3,100,5e-31,132
Exophiala_salmonis_CBS157.67_T,ERR1084894.38816,90.91,99,7,2,1,98,3,100,5e-31,132
Exophiala_salmonis_CBS157.67_T,ERR1084894.38573,90.91,99,7,2,1,98,3,100,5e-31,132
Exophiala_salmonis_CBS157.67_T,ERR1084894.38039,90.91,99,7,2,1,98,3,100,5e-31,132
Exophiala_salmonis_CBS157.67_T,ERR1084894.38018,90.91,99,7,2,1,98,3,100,5e-31,132
Exophiala_salmonis_CBS157.67_T,ERR1084894.37803,90.91,99,7,2,1,98,3,100,5e-31,132
Exophiala_salmonis_CBS157.67_T,ERR1084894.37336,90.91,99,7,2,1,98,3,100,5e-31,132
Exophiala_salmonis_CBS157.67_T,ERR1084894.36911,90.91,99,7,2,1,98,3,100,5e-31,132
Exophiala_salmonis_CBS157.67_T,ERR1084894.36636,90.91,99,7,2,1,98,3,100,5e-31,132
Exophiala_salmonis_CBS157.67_T,ERR1084894.36556,90.91,99,7,2,1,98,3,100,5e-31,132
Exophiala_salmonis_CBS157.67_T,ERR1084894.35900,90.91,99,7,2,1,98,3,100,5e-31,132
Exophiala_salmonis_CBS157.67_T,ERR1084894.35504,90.91,99,7,2,1,98,3,100,5e-31,132
Exophiala_salmonis_CBS157.67_T,ERR1084894.35343,90.91,99,7,2,1,98,3,100,5e-31,132
Exophiala_salmonis_CBS157.67_T,ERR1084894.35188,90.91,99,7,2,1,98,3,100,5e-31,132
Exophiala_salmonis_CBS157.67_T,ERR1084894.35094,90.91,99,7,2,1,98,3,100,5e-31,132
Exophiala_salmonis_CBS157.67_T,ERR1084894.34857,90.91,99,7,2,1,98,3,100,5e-31,132
Exophiala_salmonis_CBS157.67_T,ERR1084894.34840,90.91,99,7,2,1,98,3,100,5e-31,132
Exophiala_salmonis_CBS157.67_T,ERR1084894.34730,90.91,99,7,2,1,98,3,100,5e-31,132
Exophiala_salmonis_CBS157.67_T,ERR1084894.34704,90.91,99,7,2,1,98,3,100,5e-31,132
Exophiala_salmonis_CBS157.67_T,ERR1084894.33981,90.91,99,7,2,1,98,3,100,5e-31,132
Exophiala_salmonis_CBS157.67_T,ERR1084894.33971,90.91,99,7,2,1,98,3,100,5e-31,132
Exophiala_salmonis_CBS157.67_T,ERR1084894.32886,90.91,99,7,2,1,98,3,100,5e-31,132
Exophiala_salmonis_CBS157.67_T,ERR1084894.32839,90.91,99,7,2,1,98,3,100,5e-31,132
Exophiala_salmonis_CBS157.67_T,ERR1084894.32714,90.91,99,7,2,1,98,3,100,5e-31,132
Exophiala_salmonis_CBS157.67_T,ERR1084894.32501,90.91,99,7,2,1,98,3,100,5e-31,132
Exophiala_salmonis_CBS157.67_T,ERR1084894.32425,90.91,99,7,2,1,98,3,100,5e-31,132
Exophiala_salmonis_CBS157.67_T,ERR1084894.30622,90.91,99,7,2,1,98,3,100,5e-31,132
Exophiala_salmonis_CBS157.67_T,ERR1084894.30461,90.91,99,7,2,1,98,3,100,5e-31,132
Exophiala_salmonis_CBS157.67_T,ERR1084894.29797,90.91,99,7,2,1,98,3,100,5e-31,132
Exophiala_salmonis_CBS157.67_T,ERR1084894.29683,90.91,99,7,2,1,98,3,100,5e-31,132
Exophiala_salmonis_CBS157.67_T,ERR1084894.29446,90.91,99,7,2,1,98,3,100,5e-31,132
Exophiala_salmonis_CBS157.67_T,ERR1084894.28903,90.91,99,7,2,1,98,3,100,5e-31,132
Exophiala_salmonis_CBS157.67_T,ERR1084894.28902,90.91,99,7,2,1,98,3,100,5e-31,132
Exophiala_salmonis_CBS157.67_T,ERR1084894.28707,90.91,99,7,2,1,98,3,100,5e-31,132
Exophiala_salmonis_CBS157.67_T,ERR1084894.28674,90.91,99,7,2,1,98,3,100,5e-31,132
Exophiala_salmonis_CBS157.67_T,ERR1084894.28504,90.91,99,7,2,1,98,3,100,5e-31,132
Exophiala_salmonis_CBS157.67_T,ERR1084894.28211,90.91,99,7,2,1,98,3,100,5e-31,132
Exophiala_salmonis_CBS157.67_T,ERR1084894.28056,90.91,99,7,2,1,98,3,100,5e-31,132
Exophiala_salmonis_CBS157.67_T,ERR1084894.27949,90.91,99,7,2,1,98,3,100,5e-31,132
Exophiala_salmonis_CBS157.67_T,ERR1084894.27825,90.91,99,7,2,1,98,3,100,5e-31,132
Exophiala_salmonis_CBS157.67_T,ERR1084894.27762,90.91,99,7,2,1,98,3,100,5e-31,132
Exophiala_salmonis_CBS157.67_T,ERR1084894.27740,90.91,99,7,2,1,98,3,100,5e-31,132
Exophiala_salmonis_CBS157.67_T,ERR1084894.27285,90.91,99,7,2,1,98,3,100,5e-31,132
Exophiala_salmonis_CBS157.67_T,ERR1084894.27271,90.91,99,7,2,1,98,3,100,5e-31,132
Exophiala_salmonis_CBS157.67_T,ERR1084894.26713,90.91,99,7,2,1,98,3,100,5e-31,132
Exophiala_salmonis_CBS157.67_T,ERR1084894.25925,90.91,99,7,2,1,98,3,100,5e-31,132
Exophiala_salmonis_CBS157.67_T,ERR1084894.25528,90.91,99,7,2,1,98,3,100,5e-31,132
Exophiala_salmonis_CBS157.67_T,ERR1084894.25379,90.91,99,7,2,1,98,3,100,5e-31,132
Exophiala_salmonis_CBS157.67_T,ERR1084894.25278,90.91,99,7,2,1,98,3,100,5e-31,132
Exophiala_salmonis_CBS157.67_T,ERR1084894.25024,90.91,99,7,2,1,98,3,100,5e-31,132
Exophiala_salmonis_CBS157.67_T,ERR1084894.24621,90.91,99,7,2,1,98,3,100,5e-31,132
Exophiala_salmonis_CBS157.67_T,ERR1084894.24504,90.91,99,7,2,1,98,3,100,5e-31,132
Exophiala_salmonis_CBS157.67_T,ERR1084894.24269,90.91,99,7,2,1,98,3,100,5e-31,132
Exophiala_salmonis_CBS157.67_T,ERR1084894.24224,90.91,99,7,2,1,98,3,100,5e-31,132
Exophiala_salmonis_CBS157.67_T,ERR1084894.24208,90.91,99,7,2,1,98,3,100,5e-31,132
Exophiala_salmonis_CBS157.67_T,ERR1084894.24079,90.91,99,7,2,1,98,3,100,5e-31,132
Exophiala_salmonis_CBS157.67_T,ERR1084894.23792,90.91,99,7,2,1,98,3,100,5e-31,132
Exophiala_salmonis_CBS157.67_T,ERR1084894.23748,90.91,99,7,2,1,98,3,100,5e-31,132
Exophiala_salmonis_CBS157.67_T,ERR1084894.23583,90.91,99,7,2,1,98,3,100,5e-31,132
Exophiala_salmonis_CBS157.67_T,ERR1084894.22412,90.91,99,7,2,1,98,3,100,5e-31,132
Exophiala_salmonis_CBS157.67_T,ERR1084894.22333,90.91,99,7,2,1,98,3,100,5e-31,132
Exophiala_salmonis_CBS157.67_T,ERR1084894.22319,90.91,99,7,2,1,98,3,100,5e-31,132
Exophiala_salmonis_CBS157.67_T,ERR1084894.22209,90.91,99,7,2,1,98,3,100,5e-31,132
Exophiala_salmonis_CBS157.67_T,ERR1084894.22188,90.91,99,7,2,1,98,3,100,5e-31,132
Exophiala_salmonis_CBS157.67_T,ERR1084894.21840,90.91,99,7,2,1,98,3,100,5e-31,132
Exophiala_salmonis_CBS157.67_T,ERR1084894.21833,90.91,99,7,2,1,98,3,100,5e-31,132
Exophiala_salmonis_CBS157.67_T,ERR1084894.21566,90.91,99,7,2,1,98,3,100,5e-31,132
Exophiala_salmonis_CBS157.67_T,ERR1084894.20939,91.00,100,5,4,1,98,3,100,5e-31,132
Exophiala_salmonis_CBS157.67_T,ERR1084894.20746,90.91,99,7,2,1,98,3,100,5e-31,132
Exophiala_salmonis_CBS157.67_T,ERR1084894.20625,90.91,99,7,2,1,98,3,100,5e-31,132
Exophiala_salmonis_CBS157.67_T,ERR1084894.20320,90.91,99,7,2,1,98,3,100,5e-31,132
Exophiala_salmonis_CBS157.67_T,ERR1084894.20203,90.91,99,7,2,1,98,3,100,5e-31,132
Exophiala_salmonis_CBS157.67_T,ERR1084894.19997,90.91,99,7,2,1,98,3,100,5e-31,132
Exophiala_salmonis_CBS157.67_T,ERR1084894.19951,90.91,99,7,2,1,98,3,100,5e-31,132
Exophiala_salmonis_CBS157.67_T,ERR1084894.17690,90.91,99,7,2,1,98,3,100,5e-31,132
Exophiala_salmonis_CBS157.67_T,ERR1084894.17600,90.91,99,7,2,1,98,3,100,5e-31,132
Exophiala_salmonis_CBS157.67_T,ERR1084894.17461,90.91,99,7,2,1,98,3,100,5e-31,132
Exophiala_salmonis_CBS157.67_T,ERR1084894.17358,90.91,99,7,2,1,98,3,100,5e-31,132
Exophiala_salmonis_CBS157.67_T,ERR1084894.16968,90.91,99,7,2,1,98,3,100,5e-31,132
Exophiala_salmonis_CBS157.67_T,ERR1084894.16937,90.91,99,7,2,1,98,3,100,5e-31,132
Exophiala_salmonis_CBS157.67_T,ERR1084894.16810,90.91,99,7,2,1,98,3,100,5e-31,132
Exophiala_salmonis_CBS157.67_T,ERR1084894.16780,90.91,99,7,2,1,98,3,100,5e-31,132
Exophiala_salmonis_CBS157.67_T,ERR1084894.16672,90.91,99,7,2,1,98,3,100,5e-31,132
Exophiala_salmonis_CBS157.67_T,ERR1084894.16271,90.91,99,7,2,1,98,3,100,5e-31,132
Exophiala_salmonis_CBS157.67_T,ERR1084894.16101,90.91,99,7,2,1,98,3,100,5e-31,132
Exophiala_salmonis_CBS157.67_T,ERR1084894.15909,90.91,99,7,2,1,98,3,100,5e-31,132
Exophiala_salmonis_CBS157.67_T,ERR1084894.15814,90.91,99,7,2,1,98,3,100,5e-31,132
Exophiala_salmonis_CBS157.67_T,ERR1084894.15430,90.91,99,7,2,1,98,3,100,5e-31,132
Exophiala_salmonis_CBS157.67_T,ERR1084894.15234,90.91,99,7,2,1,98,3,100,5e-31,132
Exophiala_salmonis_CBS157.67_T,ERR1084894.15233,90.91,99,7,2,1,98,3,100,5e-31,132
Exophiala_salmonis_CBS157.67_T,ERR1084894.15054,90.91,99,7,2,1,98,3,100,5e-31,132
Exophiala_salmonis_CBS157.67_T,ERR1084894.15014,90.91,99,7,2,1,98,3,100,5e-31,132
Exophiala_salmonis_CBS157.67_T,ERR1084894.14918,90.91,99,7,2,1,98,3,100,5e-31,132
Exophiala_salmonis_CBS157.67_T,ERR1084894.14306,90.91,99,7,2,1,98,3,100,5e-31,132
Exophiala_salmonis_CBS157.67_T,ERR1084894.14215,90.91,99,7,2,1,98,3,100,5e-31,132
Exophiala_salmonis_CBS157.67_T,ERR1084894.14144,90.91,99,7,2,1,98,3,100,5e-31,132
Exophiala_salmonis_CBS157.67_T,ERR1084894.14093,90.91,99,7,2,1,98,3,100,5e-31,132
Exophiala_salmonis_CBS157.67_T,ERR1084894.14065,90.91,99,7,2,1,98,3,100,5e-31,132
Exophiala_salmonis_CBS157.67_T,ERR1084894.14019,90.91,99,7,2,1,98,3,100,5e-31,132
Exophiala_salmonis_CBS157.67_T,ERR1084894.13992,90.91,99,7,2,1,98,3,100,5e-31,132
Exophiala_salmonis_CBS157.67_T,ERR1084894.13813,90.91,99,7,2,1,98,3,100,5e-31,132
Exophiala_salmonis_CBS157.67_T,ERR1084894.13448,90.91,99,7,2,1,98,3,100,5e-31,132
Exophiala_salmonis_CBS157.67_T,ERR1084894.12717,90.91,99,7,2,1,98,3,100,5e-31,132
Exophiala_salmonis_CBS157.67_T,ERR1084894.12489,90.91,99,7,2,1,98,3,100,5e-31,132
Exophiala_salmonis_CBS157.67_T,ERR1084894.12452,90.91,99,7,2,1,98,3,100,5e-31,132
Exophiala_salmonis_CBS157.67_T,ERR1084894.11364,90.91,99,7,2,1,98,3,100,5e-31,132
Exophiala_salmonis_CBS157.67_T,ERR1084894.11197,90.91,99,7,2,1,98,3,100,5e-31,132
Exophiala_salmonis_CBS157.67_T,ERR1084894.10908,90.91,99,7,2,1,98,3,100,5e-31,132
Exophiala_salmonis_CBS157.67_T,ERR1084894.10723,90.91,99,7,2,1,98,3,100,5e-31,132
Exophiala_salmonis_CBS157.67_T,ERR1084894.10508,90.91,99,7,2,1,98,3,100,5e-31,132
Exophiala_salmonis_CBS157.67_T,ERR1084894.10385,90.91,99,7,2,1,98,3,100,5e-31,132
Exophiala_salmonis_CBS157.67_T,ERR1084894.10352,90.91,99,7,2,1,98,3,100,5e-31,132
Exophiala_salmonis_CBS157.67_T,ERR1084894.9988,90.91,99,7,2,1,98,3,100,5e-31,132
Exophiala_salmonis_CBS157.67_T,ERR1084894.9984,90.91,99,7,2,1,98,3,100,5e-31,132
Exophiala_salmonis_CBS157.67_T,ERR1084894.9783,90.91,99,7,2,1,98,3,100,5e-31,132
Exophiala_salmonis_CBS157.67_T,ERR1084894.9780,90.91,99,7,2,1,98,3,100,5e-31,132
Exophiala_salmonis_CBS157.67_T,ERR1084894.9756,90.91,99,7,2,1,98,3,100,5e-31,132
Exophiala_salmonis_CBS157.67_T,ERR1084894.9583,90.91,99,7,2,1,98,3,100,5e-31,132
Exophiala_salmonis_CBS157.67_T,ERR1084894.9580,90.91,99,7,2,1,98,3,100,5e-31,132
Exophiala_salmonis_CBS157.67_T,ERR1084894.9426,90.91,99,7,2,1,98,3,100,5e-31,132
Exophiala_salmonis_CBS157.67_T,ERR1084894.9398,90.91,99,7,2,1,98,3,100,5e-31,132
Exophiala_salmonis_CBS157.67_T,ERR1084894.8675,90.91,99,7,2,1,98,3,100,5e-31,132
Exophiala_salmonis_CBS157.67_T,ERR1084894.8616,91.00,100,6,3,1,99,3,100,5e-31,132
Exophiala_salmonis_CBS157.67_T,ERR1084894.8183,90.91,99,7,2,1,98,3,100,5e-31,132
Exophiala_salmonis_CBS157.67_T,ERR1084894.7644,90.91,99,7,2,1,98,3,100,5e-31,132
Exophiala_salmonis_CBS157.67_T,ERR1084894.7213,90.91,99,7,2,1,98,3,100,5e-31,132
Exophiala_salmonis_CBS157.67_T,ERR1084894.6802,90.91,99,7,2,1,98,3,100,5e-31,132
Exophiala_salmonis_CBS157.67_T,ERR1084894.6736,90.91,99,7,2,1,98,3,100,5e-31,132
Exophiala_salmonis_CBS157.67_T,ERR1084894.5947,90.91,99,7,2,1,98,3,100,5e-31,132
Exophiala_salmonis_CBS157.67_T,ERR1084894.5831,90.91,99,7,2,1,98,3,100,5e-31,132
Exophiala_salmonis_CBS157.67_T,ERR1084894.5793,90.91,99,7,2,1,98,3,100,5e-31,132
Exophiala_salmonis_CBS157.67_T,ERR1084894.4504,90.91,99,7,2,1,98,3,100,5e-31,132
Exophiala_salmonis_CBS157.67_T,ERR1084894.3929,90.91,99,7,2,1,98,3,100,5e-31,132
Exophiala_salmonis_CBS157.67_T,ERR1084894.3686,90.91,99,7,2,1,98,3,100,5e-31,132
Exophiala_salmonis_CBS157.67_T,ERR1084894.3664,90.91,99,7,2,1,98,3,100,5e-31,132
Exophiala_salmonis_CBS157.67_T,ERR1084894.3516,90.91,99,7,2,1,98,3,100,5e-31,132
Exophiala_salmonis_CBS157.67_T,ERR1084894.3479,90.91,99,7,2,1,98,3,100,5e-31,132
Exophiala_salmonis_CBS157.67_T,ERR1084894.3312,90.91,99,7,2,1,98,3,100,5e-31,132
Exophiala_salmonis_CBS157.67_T,ERR1084894.3200,90.91,99,7,2,1,98,3,100,5e-31,132
Exophiala_salmonis_CBS157.67_T,ERR1084894.2697,90.91,99,7,2,1,98,3,100,5e-31,132
Exophiala_salmonis_CBS157.67_T,ERR1084894.2623,90.91,99,7,2,1,98,3,100,5e-31,132
Exophiala_salmonis_CBS157.67_T,ERR1084894.2530,90.91,99,7,2,1,98,3,100,5e-31,132
Exophiala_salmonis_CBS157.67_T,ERR1084894.2089,90.91,99,7,2,1,98,3,100,5e-31,132
Exophiala_salmonis_CBS157.67_T,ERR1084894.1721,90.91,99,7,2,1,98,3,100,5e-31,132
Exophiala_salmonis_CBS157.67_T,ERR1084894.1534,90.91,99,7,2,1,98,3,100,5e-31,132
Exophiala_salmonis_CBS157.67_T,ERR1084894.1531,90.91,99,7,2,1,98,3,100,5e-31,132
Exophiala_salmonis_CBS157.67_T,ERR1084894.1122,90.91,99,7,2,1,98,3,100,5e-31,132
Exophiala_salmonis_CBS157.67_T,ERR1084894.1059,90.91,99,7,2,1,98,3,100,5e-31,132
Exophiala_salmonis_CBS157.67_T,ERR1084894.587,90.91,99,7,2,1,98,3,100,5e-31,132
Exophiala_salmonis_CBS157.67_T,ERR1084894.364,90.91,99,7,2,1,98,3,100,5e-31,132
Exophiala_salmonis_CBS157.67_T,ERR1084894.330,90.91,99,7,2,1,98,3,100,5e-31,132
Exophiala_salmonis_CBS157.67_T,ERR1084894.221,90.91,99,7,2,1,98,3,100,5e-31,132
Exophiala_salmonis_CBS157.67_T,ERR1084894.54931,90.62,96,9,0,1,96,3,98,7e-30,128
Exophiala_salmonis_CBS157.67_T,ERR1084894.34256,90.72,97,7,2,1,96,3,98,7e-30,128
Exophiala_salmonis_CBS157.67_T,ERR1084894.15967,90.72,97,7,2,1,96,3,98,7e-30,128
Exophiala_salmonis_CBS157.67_T,ERR1084894.14532,90.72,97,7,2,1,96,3,98,7e-30,128
Exophiala_salmonis_CBS157.67_T,ERR1084894.56997,89.90,99,8,2,1,98,3,100,2e-29,126
Exophiala_salmonis_CBS157.67_T,ERR1084894.56163,89.90,99,8,2,1,98,3,100,2e-29,126
Exophiala_salmonis_CBS157.67_T,ERR1084894.54880,89.90,99,8,2,1,98,3,100,2e-29,126
Exophiala_salmonis_CBS157.67_T,ERR1084894.54246,89.90,99,8,2,1,98,3,100,2e-29,126
Exophiala_salmonis_CBS157.67_T,ERR1084894.54175,89.90,99,8,2,1,98,3,100,2e-29,126
Exophiala_salmonis_CBS157.67_T,ERR1084894.54001,89.90,99,8,2,1,98,3,100,2e-29,126
Exophiala_salmonis_CBS157.67_T,ERR1084894.53679,89.90,99,8,2,1,98,3,100,2e-29,126
Exophiala_salmonis_CBS157.67_T,ERR1084894.50943,89.90,99,8,2,1,98,3,100,2e-29,126
Exophiala_salmonis_CBS157.67_T,ERR1084894.49940,89.90,99,8,2,1,98,3,100,2e-29,126
Exophiala_salmonis_CBS157.67_T,ERR1084894.48404,89.90,99,8,2,1,98,3,100,2e-29,126
Exophiala_salmonis_CBS157.67_T,ERR1084894.48283,89.90,99,8,2,1,98,3,100,2e-29,126
Exophiala_salmonis_CBS157.67_T,ERR1084894.47744,89.90,99,8,2,1,98,3,100,2e-29,126
Exophiala_salmonis_CBS157.67_T,ERR1084894.47683,89.80,98,10,0,1,98,3,100,2e-29,126
Exophiala_salmonis_CBS157.67_T,ERR1084894.41768,89.90,99,8,2,1,98,3,100,2e-29,126
Exophiala_salmonis_CBS157.67_T,ERR1084894.41645,90.62,96,7,2,1,95,3,97,2e-29,126
Exophiala_salmonis_CBS157.67_T,ERR1084894.41230,89.90,99,8,2,1,98,3,100,2e-29,126
Exophiala_salmonis_CBS157.67_T,ERR1084894.40050,89.90,99,8,2,1,98,3,100,2e-29,126
Exophiala_salmonis_CBS157.67_T,ERR1084894.38815,89.90,99,8,2,1,98,3,100,2e-29,126
Exophiala_salmonis_CBS157.67_T,ERR1084894.37583,89.90,99,8,2,1,98,3,100,2e-29,126
Exophiala_salmonis_CBS157.67_T,ERR1084894.37505,89.90,99,8,2,1,98,3,100,2e-29,126
Exophiala_salmonis_CBS157.67_T,ERR1084894.33438,89.90,99,8,2,1,98,3,100,2e-29,126
Exophiala_salmonis_CBS157.67_T,ERR1084894.31023,89.90,99,8,2,1,98,3,100,2e-29,126
Exophiala_salmonis_CBS157.67_T,ERR1084894.28766,89.90,99,8,2,1,98,3,100,2e-29,126
Exophiala_salmonis_CBS157.67_T,ERR1084894.28698,89.90,99,8,2,1,98,3,100,2e-29,126
Exophiala_salmonis_CBS157.67_T,ERR1084894.27616,89.90,99,8,2,1,98,3,100,2e-29,126
Exophiala_salmonis_CBS157.67_T,ERR1084894.27593,89.90,99,8,2,1,98,3,100,2e-29,126
Exophiala_salmonis_CBS157.67_T,ERR1084894.27279,89.90,99,8,2,1,98,3,100,2e-29,126
Exophiala_salmonis_CBS157.67_T,ERR1084894.25611,89.90,99,8,2,1,98,3,100,2e-29,126
Exophiala_salmonis_CBS157.67_T,ERR1084894.24521,89.90,99,8,2,1,98,3,100,2e-29,126
Exophiala_salmonis_CBS157.67_T,ERR1084894.22538,89.90,99,8,2,1,98,3,100,2e-29,126
Exophiala_salmonis_CBS157.67_T,ERR1084894.19140,89.90,99,8,2,1,98,3,100,2e-29,126
Exophiala_salmonis_CBS157.67_T,ERR1084894.18226,89.90,99,8,2,1,98,3,100,2e-29,126
Exophiala_salmonis_CBS157.67_T,ERR1084894.17976,89.90,99,8,2,1,98,3,100,2e-29,126
Exophiala_salmonis_CBS157.67_T,ERR1084894.17683,89.90,99,8,2,1,98,3,100,2e-29,126
Exophiala_salmonis_CBS157.67_T,ERR1084894.17521,89.90,99,8,2,1,98,3,100,2e-29,126
Exophiala_salmonis_CBS157.67_T,ERR1084894.16201,89.90,99,8,2,1,98,3,100,2e-29,126
Exophiala_salmonis_CBS157.67_T,ERR1084894.16167,89.90,99,8,2,1,98,3,100,2e-29,126
Exophiala_salmonis_CBS157.67_T,ERR1084894.14240,89.90,99,8,2,1,98,3,100,2e-29,126
Exophiala_salmonis_CBS157.67_T,ERR1084894.10439,89.90,99,8,2,1,98,3,100,2e-29,126
Exophiala_salmonis_CBS157.67_T,ERR1084894.10406,89.90,99,8,2,1,98,3,100,2e-29,126
Exophiala_salmonis_CBS157.67_T,ERR1084894.9628,89.90,99,8,2,1,98,3,100,2e-29,126
Exophiala_salmonis_CBS157.67_T,ERR1084894.6476,89.90,99,8,2,1,98,3,100,2e-29,126
Exophiala_salmonis_CBS157.67_T,ERR1084894.3540,89.90,99,8,2,1,98,3,100,2e-29,126
Exophiala_salmonis_CBS157.67_T,ERR1084894.2902,89.90,99,8,2,1,98,3,100,2e-29,126
Exophiala_salmonis_CBS157.67_T,ERR1084894.25607,89.69,97,10,0,1,97,3,99,9e-29,124
Exophiala_salmonis_CBS157.67_T,ERR1084894.30729,90.32,93,9,0,1,93,3,95,3e-28,122
Exophiala_salmonis_CBS157.67_T,ERR1084894.57082,88.78,98,11,0,1,98,3,100,1e-27,121
Exophiala_salmonis_CBS157.67_T,ERR1084894.55781,88.78,98,11,0,1,98,3,100,1e-27,121
Exophiala_salmonis_CBS157.67_T,ERR1084894.54491,88.78,98,11,0,1,98,3,100,1e-27,121
Exophiala_salmonis_CBS157.67_T,ERR1084894.54320,88.78,98,11,0,1,98,3,100,1e-27,121
Exophiala_salmonis_CBS157.67_T,ERR1084894.53842,88.78,98,11,0,1,98,3,100,1e-27,121
Exophiala_salmonis_CBS157.67_T,ERR1084894.53551,88.78,98,11,0,1,98,3,100,1e-27,121
Exophiala_salmonis_CBS157.67_T,ERR1084894.53504,88.89,99,9,2,1,98,3,100,1e-27,121
Exophiala_salmonis_CBS157.67_T,ERR1084894.52959,88.78,98,11,0,1,98,3,100,1e-27,121
Exophiala_salmonis_CBS157.67_T,ERR1084894.52717,88.89,99,9,2,1,98,3,100,1e-27,121
Exophiala_salmonis_CBS157.67_T,ERR1084894.50338,88.78,98,11,0,1,98,3,100,1e-27,121
Exophiala_salmonis_CBS157.67_T,ERR1084894.48074,89.00,100,8,3,1,99,3,100,1e-27,121
Exophiala_salmonis_CBS157.67_T,ERR1084894.48026,88.89,99,9,2,1,98,3,100,1e-27,121
Exophiala_salmonis_CBS157.67_T,ERR1084894.44250,88.89,99,9,2,1,98,3,100,1e-27,121
Exophiala_salmonis_CBS157.67_T,ERR1084894.42198,88.78,98,11,0,1,98,3,100,1e-27,121
Exophiala_salmonis_CBS157.67_T,ERR1084894.34909,88.78,98,11,0,1,98,3,100,1e-27,121
Exophiala_salmonis_CBS157.67_T,ERR1084894.34381,88.78,98,11,0,1,98,3,100,1e-27,121
Exophiala_salmonis_CBS157.67_T,ERR1084894.34147,88.78,98,11,0,1,98,3,100,1e-27,121
Exophiala_salmonis_CBS157.67_T,ERR1084894.33532,88.78,98,11,0,1,98,3,100,1e-27,121
Exophiala_salmonis_CBS157.67_T,ERR1084894.28619,88.78,98,11,0,1,98,3,100,1e-27,121
Exophiala_salmonis_CBS157.67_T,ERR1084894.28178,88.78,98,11,0,1,98,3,100,1e-27,121
Exophiala_salmonis_CBS157.67_T,ERR1084894.28146,88.78,98,11,0,1,98,3,100,1e-27,121
Exophiala_salmonis_CBS157.67_T,ERR1084894.23836,88.78,98,11,0,1,98,3,100,1e-27,121
Exophiala_salmonis_CBS157.67_T,ERR1084894.23689,88.89,99,9,2,1,98,3,100,1e-27,121
Exophiala_salmonis_CBS157.67_T,ERR1084894.15493,88.78,98,11,0,1,98,3,100,1e-27,121
Exophiala_salmonis_CBS157.67_T,ERR1084894.15045,88.78,98,11,0,1,98,3,100,1e-27,121
Exophiala_salmonis_CBS157.67_T,ERR1084894.13908,88.78,98,11,0,1,98,3,100,1e-27,121
Exophiala_salmonis_CBS157.67_T,ERR1084894.12959,88.78,98,11,0,1,98,3,100,1e-27,121
Exophiala_salmonis_CBS157.67_T,ERR1084894.11343,88.78,98,11,0,1,98,3,100,1e-27,121
Exophiala_salmonis_CBS157.67_T,ERR1084894.11110,89.58,96,8,2,1,95,3,97,1e-27,121
