Exophiala_salmonis_CBS157.67_T,ERR1085096.91132,92.86,98,7,0,1,98,3,100,6e-34,143
Exophiala_salmonis_CBS157.67_T,ERR1085096.58693,92.86,98,7,0,1,98,3,100,6e-34,143
Exophiala_salmonis_CBS157.67_T,ERR1085096.52766,92.86,98,7,0,1,98,3,100,6e-34,143
Exophiala_salmonis_CBS157.67_T,ERR1085096.40261,92.86,98,7,0,1,98,3,100,6e-34,143
Exophiala_salmonis_CBS157.67_T,ERR1085096.22433,92.86,98,7,0,1,98,3,100,6e-34,143
Exophiala_salmonis_CBS157.67_T,ERR1085096.9576,92.86,98,7,0,1,98,3,100,6e-34,143
Exophiala_salmonis_CBS157.67_T,ERR1085096.135469,90.82,98,9,0,1,98,3,100,1e-30,132
Exophiala_salmonis_CBS157.67_T,ERR1085096.126671,90.91,99,7,2,1,98,3,100,1e-30,132
Exophiala_salmonis_CBS157.67_T,ERR1085096.20653,90.82,98,9,0,1,98,3,100,1e-30,132
Exophiala_salmonis_CBS157.67_T,ERR1085096.109953,92.31,91,7,0,1,91,3,93,5e-30,130
Exophiala_salmonis_CBS157.67_T,ERR1085096.15387,89.90,99,8,2,1,98,3,100,6e-29,126
Exophiala_salmonis_CBS157.67_T,ERR1085096.14416,89.80,98,10,0,1,98,3,100,6e-29,126
Exophiala_salmonis_CBS157.67_T,ERR1085096.134869,88.78,98,11,0,1,98,3,100,3e-27,121
Exophiala_salmonis_CBS157.67_T,ERR1085096.125238,88.78,98,11,0,1,98,3,100,3e-27,121
Exophiala_salmonis_CBS157.67_T,ERR1085096.107872,88.78,98,11,0,1,98,3,100,3e-27,121
Exophiala_salmonis_CBS157.67_T,ERR1085096.97765,88.78,98,11,0,1,98,3,100,3e-27,121
Exophiala_salmonis_CBS157.67_T,ERR1085096.86399,88.78,98,11,0,1,98,3,100,3e-27,121
Exophiala_salmonis_CBS157.67_T,ERR1085096.80341,88.78,98,11,0,1,98,3,100,3e-27,121
Exophiala_salmonis_CBS157.67_T,ERR1085096.64304,88.78,98,11,0,1,98,3,100,3e-27,121
Exophiala_salmonis_CBS157.67_T,ERR1085096.61781,88.78,98,11,0,1,98,3,100,3e-27,121
Exophiala_salmonis_CBS157.67_T,ERR1085096.21868,88.78,98,11,0,1,98,3,100,3e-27,121
Exophiala_salmonis_CBS157.67_T,ERR1085096.93167,87.76,98,12,0,1,98,3,100,1e-25,115
Exophiala_salmonis_CBS157.67_T,ERR1085096.100809,86.73,98,13,0,1,98,3,100,6e-24,110
Exophiala_salmonis_CBS157.67_T,ERR1085096.94236,86.87,99,11,2,1,98,3,100,6e-24,110
Exophiala_salmonis_CBS157.67_T,ERR1085096.90153,86.87,99,11,2,1,98,3,100,6e-24,110
Exophiala_salmonis_CBS157.67_T,ERR1085096.89337,86.87,99,11,2,1,98,3,100,6e-24,110
Exophiala_salmonis_CBS157.67_T,ERR1085096.87701,86.87,99,11,2,1,98,3,100,6e-24,110
Exophiala_salmonis_CBS157.67_T,ERR1085096.54871,86.73,98,13,0,1,98,3,100,6e-24,110
Exophiala_salmonis_CBS157.67_T,ERR1085096.53555,86.87,99,11,2,1,98,3,100,6e-24,110
Exophiala_salmonis_CBS157.67_T,ERR1085096.44661,86.73,98,13,0,1,98,3,100,6e-24,110
Exophiala_salmonis_CBS157.67_T,ERR1085096.30438,86.73,98,13,0,1,98,3,100,6e-24,110
Exophiala_salmonis_CBS157.67_T,ERR1085096.7767,86.87,99,11,2,1,98,3,100,6e-24,110
Exophiala_salmonis_CBS157.67_T,ERR1085096.110244,85.86,99,12,2,1,98,3,100,3e-22,104
Exophiala_salmonis_CBS157.67_T,ERR1085096.67854,85.86,99,12,2,1,98,3,100,3e-22,104
Exophiala_salmonis_CBS157.67_T,ERR1085096.54776,85.71,98,14,0,1,98,3,100,3e-22,104
