Exophiala_salmonis_CBS157.67_T,ERR1085141.33925,91.84,98,8,0,1,98,3,100,1e-32,137
Exophiala_salmonis_CBS157.67_T,ERR1085141.29092,90.82,98,9,0,1,98,3,100,5e-31,132
Exophiala_salmonis_CBS157.67_T,ERR1085141.3229,90.82,98,9,0,1,98,3,100,5e-31,132
Exophiala_salmonis_CBS157.67_T,ERR1085141.50655,89.80,98,10,0,1,98,3,100,2e-29,126
Exophiala_salmonis_CBS157.67_T,ERR1085141.50588,89.80,98,10,0,1,98,3,100,2e-29,126
Exophiala_salmonis_CBS157.67_T,ERR1085141.46201,89.80,98,10,0,1,98,3,100,2e-29,126
Exophiala_salmonis_CBS157.67_T,ERR1085141.43693,89.80,98,10,0,1,98,3,100,2e-29,126
Exophiala_salmonis_CBS157.67_T,ERR1085141.35422,89.80,98,10,0,1,98,3,100,2e-29,126
Exophiala_salmonis_CBS157.67_T,ERR1085141.35274,89.80,98,10,0,1,98,3,100,2e-29,126
Exophiala_salmonis_CBS157.67_T,ERR1085141.34634,89.80,98,10,0,1,98,3,100,2e-29,126
Exophiala_salmonis_CBS157.67_T,ERR1085141.33932,89.80,98,10,0,1,98,3,100,2e-29,126
Exophiala_salmonis_CBS157.67_T,ERR1085141.31463,89.80,98,10,0,1,98,3,100,2e-29,126
Exophiala_salmonis_CBS157.67_T,ERR1085141.30315,89.80,98,10,0,1,98,3,100,2e-29,126
Exophiala_salmonis_CBS157.67_T,ERR1085141.29864,89.80,98,10,0,1,98,3,100,2e-29,126
Exophiala_salmonis_CBS157.67_T,ERR1085141.26366,89.80,98,10,0,1,98,3,100,2e-29,126
Exophiala_salmonis_CBS157.67_T,ERR1085141.25025,89.80,98,10,0,1,98,3,100,2e-29,126
Exophiala_salmonis_CBS157.67_T,ERR1085141.24377,89.80,98,10,0,1,98,3,100,2e-29,126
Exophiala_salmonis_CBS157.67_T,ERR1085141.21181,89.80,98,10,0,1,98,3,100,2e-29,126
Exophiala_salmonis_CBS157.67_T,ERR1085141.20134,89.80,98,10,0,1,98,3,100,2e-29,126
Exophiala_salmonis_CBS157.67_T,ERR1085141.17886,89.80,98,10,0,1,98,3,100,2e-29,126
Exophiala_salmonis_CBS157.67_T,ERR1085141.17404,89.80,98,10,0,1,98,3,100,2e-29,126
Exophiala_salmonis_CBS157.67_T,ERR1085141.14782,89.80,98,10,0,1,98,3,100,2e-29,126
Exophiala_salmonis_CBS157.67_T,ERR1085141.11011,89.80,98,10,0,1,98,3,100,2e-29,126
Exophiala_salmonis_CBS157.67_T,ERR1085141.9982,89.80,98,10,0,1,98,3,100,2e-29,126
Exophiala_salmonis_CBS157.67_T,ERR1085141.2461,89.80,98,10,0,1,98,3,100,2e-29,126
Exophiala_salmonis_CBS157.67_T,ERR1085141.1415,89.80,98,10,0,1,98,3,100,2e-29,126
Exophiala_salmonis_CBS157.67_T,ERR1085141.31293,89.69,97,10,0,1,97,3,99,8e-29,124
Exophiala_salmonis_CBS157.67_T,ERR1085141.31476,88.78,98,11,0,1,98,3,100,1e-27,121
Exophiala_salmonis_CBS157.67_T,ERR1085141.13041,88.78,98,11,0,1,98,3,100,1e-27,121
Exophiala_salmonis_CBS157.67_T,ERR1085141.46620,92.31,39,3,0,1,39,3,41,3e-08,56.5
Rhinocladiella_atrovirens_CBS264.49,ERR1085141.14364,100.00,28,0,0,1,28,73,100,3e-07,52.8
Cyphellophora_laciniata_CBS190.61_T,ERR1085141.14364,100.00,30,0,0,55,84,71,100,3e-08,56.5
