Exophiala_brunnea_CBS,ERR1084895.17989,100.00,37,0,0,1,37,51,87,4e-12,69.4
Exophiala_salmonis_CBS157.67_T,ERR1084895.61178,100.00,98,0,0,1,98,3,100,6e-46,182
Exophiala_salmonis_CBS157.67_T,ERR1084895.59481,100.00,98,0,0,1,98,3,100,6e-46,182
Exophiala_salmonis_CBS157.67_T,ERR1084895.59343,100.00,98,0,0,1,98,3,100,6e-46,182
Exophiala_salmonis_CBS157.67_T,ERR1084895.58654,100.00,98,0,0,1,98,3,100,6e-46,182
Exophiala_salmonis_CBS157.67_T,ERR1084895.53117,100.00,98,0,0,1,98,3,100,6e-46,182
Exophiala_salmonis_CBS157.67_T,ERR1084895.50643,100.00,98,0,0,1,98,3,100,6e-46,182
Exophiala_salmonis_CBS157.67_T,ERR1084895.50403,100.00,98,0,0,1,98,3,100,6e-46,182
Exophiala_salmonis_CBS157.67_T,ERR1084895.50368,100.00,98,0,0,1,98,3,100,6e-46,182
Exophiala_salmonis_CBS157.67_T,ERR1084895.45838,100.00,98,0,0,1,98,3,100,6e-46,182
Exophiala_salmonis_CBS157.67_T,ERR1084895.45640,100.00,98,0,0,1,98,3,100,6e-46,182
Exophiala_salmonis_CBS157.67_T,ERR1084895.44782,100.00,98,0,0,1,98,3,100,6e-46,182
Exophiala_salmonis_CBS157.67_T,ERR1084895.42848,100.00,98,0,0,1,98,3,100,6e-46,182
Exophiala_salmonis_CBS157.67_T,ERR1084895.41579,100.00,98,0,0,1,98,3,100,6e-46,182
Exophiala_salmonis_CBS157.67_T,ERR1084895.41449,100.00,98,0,0,1,98,3,100,6e-46,182
Exophiala_salmonis_CBS157.67_T,ERR1084895.39573,100.00,98,0,0,1,98,3,100,6e-46,182
Exophiala_salmonis_CBS157.67_T,ERR1084895.39388,100.00,98,0,0,1,98,3,100,6e-46,182
Exophiala_salmonis_CBS157.67_T,ERR1084895.39350,100.00,98,0,0,1,98,3,100,6e-46,182
Exophiala_salmonis_CBS157.67_T,ERR1084895.38277,100.00,98,0,0,1,98,3,100,6e-46,182
Exophiala_salmonis_CBS157.67_T,ERR1084895.37829,100.00,98,0,0,1,98,3,100,6e-46,182
Exophiala_salmonis_CBS157.67_T,ERR1084895.35941,100.00,98,0,0,1,98,3,100,6e-46,182
Exophiala_salmonis_CBS157.67_T,ERR1084895.35518,100.00,98,0,0,1,98,3,100,6e-46,182
Exophiala_salmonis_CBS157.67_T,ERR1084895.33766,100.00,98,0,0,1,98,3,100,6e-46,182
Exophiala_salmonis_CBS157.67_T,ERR1084895.33595,100.00,98,0,0,1,98,3,100,6e-46,182
Exophiala_salmonis_CBS157.67_T,ERR1084895.33356,100.00,98,0,0,1,98,3,100,6e-46,182
Exophiala_salmonis_CBS157.67_T,ERR1084895.31677,100.00,98,0,0,1,98,3,100,6e-46,182
Exophiala_salmonis_CBS157.67_T,ERR1084895.31299,100.00,98,0,0,1,98,3,100,6e-46,182
Exophiala_salmonis_CBS157.67_T,ERR1084895.29702,100.00,98,0,0,1,98,3,100,6e-46,182
Exophiala_salmonis_CBS157.67_T,ERR1084895.28272,100.00,98,0,0,1,98,3,100,6e-46,182
Exophiala_salmonis_CBS157.67_T,ERR1084895.27726,100.00,98,0,0,1,98,3,100,6e-46,182
Exophiala_salmonis_CBS157.67_T,ERR1084895.23996,100.00,98,0,0,1,98,3,100,6e-46,182
Exophiala_salmonis_CBS157.67_T,ERR1084895.19923,100.00,98,0,0,1,98,3,100,6e-46,182
Exophiala_salmonis_CBS157.67_T,ERR1084895.19332,100.00,98,0,0,1,98,3,100,6e-46,182
Exophiala_salmonis_CBS157.67_T,ERR1084895.17779,100.00,98,0,0,1,98,3,100,6e-46,182
Exophiala_salmonis_CBS157.67_T,ERR1084895.17548,100.00,98,0,0,1,98,3,100,6e-46,182
Exophiala_salmonis_CBS157.67_T,ERR1084895.16218,100.00,98,0,0,1,98,3,100,6e-46,182
Exophiala_salmonis_CBS157.67_T,ERR1084895.10509,100.00,98,0,0,1,98,3,100,6e-46,182
Exophiala_salmonis_CBS157.67_T,ERR1084895.10131,100.00,98,0,0,1,98,3,100,6e-46,182
Exophiala_salmonis_CBS157.67_T,ERR1084895.8703,100.00,98,0,0,1,98,3,100,6e-46,182
Exophiala_salmonis_CBS157.67_T,ERR1084895.7674,100.00,98,0,0,1,98,3,100,6e-46,182
Exophiala_salmonis_CBS157.67_T,ERR1084895.7673,100.00,98,0,0,1,98,3,100,6e-46,182
Exophiala_salmonis_CBS157.67_T,ERR1084895.7143,100.00,98,0,0,1,98,3,100,6e-46,182
Exophiala_salmonis_CBS157.67_T,ERR1084895.4941,100.00,98,0,0,1,98,3,100,6e-46,182
Exophiala_salmonis_CBS157.67_T,ERR1084895.4209,100.00,98,0,0,1,98,3,100,6e-46,182
Exophiala_salmonis_CBS157.67_T,ERR1084895.3466,100.00,98,0,0,1,98,3,100,6e-46,182
Exophiala_salmonis_CBS157.67_T,ERR1084895.61435,98.98,98,1,0,1,98,3,100,3e-44,176
Exophiala_salmonis_CBS157.67_T,ERR1084895.59360,98.98,98,1,0,1,98,3,100,3e-44,176
Exophiala_salmonis_CBS157.67_T,ERR1084895.34224,98.98,98,1,0,1,98,3,100,3e-44,176
Exophiala_salmonis_CBS157.67_T,ERR1084895.34022,98.98,98,1,0,1,98,3,100,3e-44,176
Exophiala_salmonis_CBS157.67_T,ERR1084895.8231,100.00,93,0,0,1,93,3,95,4e-43,172
Exophiala_salmonis_CBS157.67_T,ERR1084895.63134,97.96,98,2,0,1,98,3,100,1e-42,171
Exophiala_salmonis_CBS157.67_T,ERR1084895.62728,97.96,98,2,0,1,98,3,100,1e-42,171
Exophiala_salmonis_CBS157.67_T,ERR1084895.57050,97.96,98,2,0,1,98,3,100,1e-42,171
Exophiala_salmonis_CBS157.67_T,ERR1084895.56583,97.96,98,2,0,1,98,3,100,1e-42,171
Exophiala_salmonis_CBS157.67_T,ERR1084895.55646,97.96,98,2,0,1,98,3,100,1e-42,171
Exophiala_salmonis_CBS157.67_T,ERR1084895.54241,97.96,98,2,0,1,98,3,100,1e-42,171
Exophiala_salmonis_CBS157.67_T,ERR1084895.50799,97.96,98,2,0,1,98,3,100,1e-42,171
Exophiala_salmonis_CBS157.67_T,ERR1084895.50791,97.96,98,2,0,1,98,3,100,1e-42,171
Exophiala_salmonis_CBS157.67_T,ERR1084895.50632,97.96,98,2,0,1,98,3,100,1e-42,171
Exophiala_salmonis_CBS157.67_T,ERR1084895.49192,97.96,98,2,0,1,98,3,100,1e-42,171
Exophiala_salmonis_CBS157.67_T,ERR1084895.48185,97.96,98,2,0,1,98,3,100,1e-42,171
Exophiala_salmonis_CBS157.67_T,ERR1084895.44862,97.96,98,2,0,1,98,3,100,1e-42,171
Exophiala_salmonis_CBS157.67_T,ERR1084895.41412,97.96,98,2,0,1,98,3,100,1e-42,171
Exophiala_salmonis_CBS157.67_T,ERR1084895.39144,97.96,98,2,0,1,98,3,100,1e-42,171
Exophiala_salmonis_CBS157.67_T,ERR1084895.38195,97.96,98,2,0,1,98,3,100,1e-42,171
Exophiala_salmonis_CBS157.67_T,ERR1084895.36266,97.96,98,2,0,1,98,3,100,1e-42,171
Exophiala_salmonis_CBS157.67_T,ERR1084895.35730,97.96,98,2,0,1,98,3,100,1e-42,171
Exophiala_salmonis_CBS157.67_T,ERR1084895.33892,97.96,98,2,0,1,98,3,100,1e-42,171
Exophiala_salmonis_CBS157.67_T,ERR1084895.32132,97.96,98,2,0,1,98,3,100,1e-42,171
Exophiala_salmonis_CBS157.67_T,ERR1084895.31416,97.96,98,2,0,1,98,3,100,1e-42,171
Exophiala_salmonis_CBS157.67_T,ERR1084895.28593,97.96,98,2,0,1,98,3,100,1e-42,171
Exophiala_salmonis_CBS157.67_T,ERR1084895.27826,97.96,98,2,0,1,98,3,100,1e-42,171
Exophiala_salmonis_CBS157.67_T,ERR1084895.27780,97.96,98,2,0,1,98,3,100,1e-42,171
Exophiala_salmonis_CBS157.67_T,ERR1084895.27774,97.96,98,2,0,1,98,3,100,1e-42,171
Exophiala_salmonis_CBS157.67_T,ERR1084895.25484,97.96,98,2,0,1,98,3,100,1e-42,171
Exophiala_salmonis_CBS157.67_T,ERR1084895.25349,97.96,98,2,0,1,98,3,100,1e-42,171
Exophiala_salmonis_CBS157.67_T,ERR1084895.25121,97.96,98,2,0,1,98,3,100,1e-42,171
Exophiala_salmonis_CBS157.67_T,ERR1084895.22433,97.96,98,2,0,1,98,3,100,1e-42,171
Exophiala_salmonis_CBS157.67_T,ERR1084895.20186,97.96,98,2,0,1,98,3,100,1e-42,171
Exophiala_salmonis_CBS157.67_T,ERR1084895.19431,97.96,98,2,0,1,98,3,100,1e-42,171
Exophiala_salmonis_CBS157.67_T,ERR1084895.18292,97.96,98,2,0,1,98,3,100,1e-42,171
Exophiala_salmonis_CBS157.67_T,ERR1084895.17862,97.96,98,2,0,1,98,3,100,1e-42,171
Exophiala_salmonis_CBS157.67_T,ERR1084895.16288,97.96,98,2,0,1,98,3,100,1e-42,171
Exophiala_salmonis_CBS157.67_T,ERR1084895.13831,97.96,98,2,0,1,98,3,100,1e-42,171
Exophiala_salmonis_CBS157.67_T,ERR1084895.13216,97.96,98,2,0,1,98,3,100,1e-42,171
Exophiala_salmonis_CBS157.67_T,ERR1084895.13097,97.96,98,2,0,1,98,3,100,1e-42,171
Exophiala_salmonis_CBS157.67_T,ERR1084895.12265,97.96,98,2,0,1,98,3,100,1e-42,171
Exophiala_salmonis_CBS157.67_T,ERR1084895.8325,97.96,98,2,0,1,98,3,100,1e-42,171
Exophiala_salmonis_CBS157.67_T,ERR1084895.4581,97.96,98,2,0,1,98,3,100,1e-42,171
Exophiala_salmonis_CBS157.67_T,ERR1084895.3733,97.96,98,2,0,1,98,3,100,1e-42,171
Exophiala_salmonis_CBS157.67_T,ERR1084895.3612,97.96,98,2,0,1,98,3,100,1e-42,171
Exophiala_salmonis_CBS157.67_T,ERR1084895.3268,97.96,98,2,0,1,98,3,100,1e-42,171
Exophiala_salmonis_CBS157.67_T,ERR1084895.3245,97.96,98,2,0,1,98,3,100,1e-42,171
Exophiala_salmonis_CBS157.67_T,ERR1084895.3060,97.96,98,2,0,1,98,3,100,1e-42,171
Exophiala_salmonis_CBS157.67_T,ERR1084895.2818,97.96,98,2,0,1,98,3,100,1e-42,171
Exophiala_salmonis_CBS157.67_T,ERR1084895.1632,97.96,98,2,0,1,98,3,100,1e-42,171
Exophiala_salmonis_CBS157.67_T,ERR1084895.590,97.96,98,2,0,1,98,3,100,1e-42,171
Exophiala_salmonis_CBS157.67_T,ERR1084895.34292,96.94,98,3,0,1,98,3,100,6e-41,165
Exophiala_salmonis_CBS157.67_T,ERR1084895.32868,96.94,98,3,0,1,98,3,100,6e-41,165
Exophiala_salmonis_CBS157.67_T,ERR1084895.28849,96.94,98,3,0,1,98,3,100,6e-41,165
Exophiala_salmonis_CBS157.67_T,ERR1084895.28189,96.94,98,3,0,1,98,3,100,6e-41,165
Exophiala_salmonis_CBS157.67_T,ERR1084895.27633,96.94,98,3,0,1,98,3,100,6e-41,165
Exophiala_salmonis_CBS157.67_T,ERR1084895.26468,96.94,98,3,0,1,98,3,100,6e-41,165
Exophiala_salmonis_CBS157.67_T,ERR1084895.21445,96.94,98,3,0,1,98,3,100,6e-41,165
Exophiala_salmonis_CBS157.67_T,ERR1084895.10419,96.94,98,3,0,1,98,3,100,6e-41,165
Exophiala_salmonis_CBS157.67_T,ERR1084895.4468,96.94,98,3,0,1,98,3,100,6e-41,165
Exophiala_salmonis_CBS157.67_T,ERR1084895.2731,96.94,98,3,0,1,98,3,100,6e-41,165
Exophiala_salmonis_CBS157.67_T,ERR1084895.58584,96.88,96,3,0,3,98,5,100,8e-40,161
Exophiala_salmonis_CBS157.67_T,ERR1084895.43470,97.85,93,2,0,1,93,3,95,8e-40,161
Exophiala_salmonis_CBS157.67_T,ERR1084895.64357,95.92,98,4,0,1,98,3,100,3e-39,159
Exophiala_salmonis_CBS157.67_T,ERR1084895.63994,95.92,98,4,0,1,98,3,100,3e-39,159
Exophiala_salmonis_CBS157.67_T,ERR1084895.61798,95.92,98,4,0,1,98,3,100,3e-39,159
Exophiala_salmonis_CBS157.67_T,ERR1084895.61483,95.92,98,4,0,1,98,3,100,3e-39,159
Exophiala_salmonis_CBS157.67_T,ERR1084895.60534,95.92,98,4,0,1,98,3,100,3e-39,159
Exophiala_salmonis_CBS157.67_T,ERR1084895.59974,95.92,98,4,0,1,98,3,100,3e-39,159
Exophiala_salmonis_CBS157.67_T,ERR1084895.58571,95.92,98,4,0,1,98,3,100,3e-39,159
Exophiala_salmonis_CBS157.67_T,ERR1084895.57393,95.92,98,4,0,1,98,3,100,3e-39,159
Exophiala_salmonis_CBS157.67_T,ERR1084895.56358,95.92,98,4,0,1,98,3,100,3e-39,159
Exophiala_salmonis_CBS157.67_T,ERR1084895.54867,95.92,98,4,0,1,98,3,100,3e-39,159
Exophiala_salmonis_CBS157.67_T,ERR1084895.52625,95.92,98,4,0,1,98,3,100,3e-39,159
Exophiala_salmonis_CBS157.67_T,ERR1084895.50779,95.92,98,4,0,1,98,3,100,3e-39,159
Exophiala_salmonis_CBS157.67_T,ERR1084895.50029,95.92,98,4,0,1,98,3,100,3e-39,159
Exophiala_salmonis_CBS157.67_T,ERR1084895.49602,95.92,98,4,0,1,98,3,100,3e-39,159
Exophiala_salmonis_CBS157.67_T,ERR1084895.48881,95.92,98,4,0,1,98,3,100,3e-39,159
Exophiala_salmonis_CBS157.67_T,ERR1084895.47731,95.92,98,4,0,1,98,3,100,3e-39,159
Exophiala_salmonis_CBS157.67_T,ERR1084895.45627,95.92,98,4,0,1,98,3,100,3e-39,159
Exophiala_salmonis_CBS157.67_T,ERR1084895.42580,95.92,98,4,0,1,98,3,100,3e-39,159
Exophiala_salmonis_CBS157.67_T,ERR1084895.42122,95.92,98,4,0,1,98,3,100,3e-39,159
Exophiala_salmonis_CBS157.67_T,ERR1084895.41126,95.92,98,4,0,1,98,3,100,3e-39,159
Exophiala_salmonis_CBS157.67_T,ERR1084895.40163,95.92,98,4,0,1,98,3,100,3e-39,159
Exophiala_salmonis_CBS157.67_T,ERR1084895.39271,95.92,98,4,0,1,98,3,100,3e-39,159
Exophiala_salmonis_CBS157.67_T,ERR1084895.39041,95.92,98,4,0,1,98,3,100,3e-39,159
Exophiala_salmonis_CBS157.67_T,ERR1084895.39040,95.92,98,4,0,1,98,3,100,3e-39,159
Exophiala_salmonis_CBS157.67_T,ERR1084895.38340,95.92,98,4,0,1,98,3,100,3e-39,159
Exophiala_salmonis_CBS157.67_T,ERR1084895.34009,95.92,98,4,0,1,98,3,100,3e-39,159
Exophiala_salmonis_CBS157.67_T,ERR1084895.33253,95.92,98,4,0,1,98,3,100,3e-39,159
Exophiala_salmonis_CBS157.67_T,ERR1084895.32278,95.92,98,4,0,1,98,3,100,3e-39,159
Exophiala_salmonis_CBS157.67_T,ERR1084895.27430,95.92,98,4,0,1,98,3,100,3e-39,159
Exophiala_salmonis_CBS157.67_T,ERR1084895.24792,95.92,98,4,0,1,98,3,100,3e-39,159
Exophiala_salmonis_CBS157.67_T,ERR1084895.24791,95.92,98,4,0,1,98,3,100,3e-39,159
Exophiala_salmonis_CBS157.67_T,ERR1084895.24539,95.92,98,4,0,1,98,3,100,3e-39,159
Exophiala_salmonis_CBS157.67_T,ERR1084895.23443,95.92,98,4,0,1,98,3,100,3e-39,159
Exophiala_salmonis_CBS157.67_T,ERR1084895.22740,95.92,98,4,0,1,98,3,100,3e-39,159
Exophiala_salmonis_CBS157.67_T,ERR1084895.20121,95.92,98,4,0,1,98,3,100,3e-39,159
Exophiala_salmonis_CBS157.67_T,ERR1084895.19468,95.92,98,4,0,1,98,3,100,3e-39,159
Exophiala_salmonis_CBS157.67_T,ERR1084895.18765,95.92,98,4,0,1,98,3,100,3e-39,159
Exophiala_salmonis_CBS157.67_T,ERR1084895.16705,95.92,98,4,0,1,98,3,100,3e-39,159
Exophiala_salmonis_CBS157.67_T,ERR1084895.16513,95.92,98,4,0,1,98,3,100,3e-39,159
Exophiala_salmonis_CBS157.67_T,ERR1084895.15979,95.92,98,4,0,1,98,3,100,3e-39,159
Exophiala_salmonis_CBS157.67_T,ERR1084895.14639,95.92,98,4,0,1,98,3,100,3e-39,159
Exophiala_salmonis_CBS157.67_T,ERR1084895.13643,95.92,98,4,0,1,98,3,100,3e-39,159
Exophiala_salmonis_CBS157.67_T,ERR1084895.12944,95.96,99,2,2,1,98,3,100,3e-39,159
Exophiala_salmonis_CBS157.67_T,ERR1084895.11312,95.92,98,4,0,1,98,3,100,3e-39,159
Exophiala_salmonis_CBS157.67_T,ERR1084895.10808,95.92,98,4,0,1,98,3,100,3e-39,159
Exophiala_salmonis_CBS157.67_T,ERR1084895.9128,95.92,98,4,0,1,98,3,100,3e-39,159
Exophiala_salmonis_CBS157.67_T,ERR1084895.8437,95.92,98,4,0,1,98,3,100,3e-39,159
Exophiala_salmonis_CBS157.67_T,ERR1084895.7449,95.92,98,4,0,1,98,3,100,3e-39,159
Exophiala_salmonis_CBS157.67_T,ERR1084895.7321,95.92,98,4,0,1,98,3,100,3e-39,159
Exophiala_salmonis_CBS157.67_T,ERR1084895.5991,95.92,98,4,0,1,98,3,100,3e-39,159
Exophiala_salmonis_CBS157.67_T,ERR1084895.5286,95.92,98,4,0,1,98,3,100,3e-39,159
Exophiala_salmonis_CBS157.67_T,ERR1084895.4600,95.92,98,4,0,1,98,3,100,3e-39,159
Exophiala_salmonis_CBS157.67_T,ERR1084895.65112,94.90,98,5,0,1,98,3,100,1e-37,154
Exophiala_salmonis_CBS157.67_T,ERR1084895.64300,94.90,98,5,0,1,98,3,100,1e-37,154
Exophiala_salmonis_CBS157.67_T,ERR1084895.64106,94.90,98,5,0,1,98,3,100,1e-37,154
Exophiala_salmonis_CBS157.67_T,ERR1084895.64038,94.90,98,5,0,1,98,3,100,1e-37,154
Exophiala_salmonis_CBS157.67_T,ERR1084895.63777,94.90,98,5,0,1,98,3,100,1e-37,154
Exophiala_salmonis_CBS157.67_T,ERR1084895.63568,94.90,98,5,0,1,98,3,100,1e-37,154
Exophiala_salmonis_CBS157.67_T,ERR1084895.63362,94.90,98,5,0,1,98,3,100,1e-37,154
Exophiala_salmonis_CBS157.67_T,ERR1084895.63059,94.90,98,5,0,1,98,3,100,1e-37,154
Exophiala_salmonis_CBS157.67_T,ERR1084895.62193,94.90,98,5,0,1,98,3,100,1e-37,154
Exophiala_salmonis_CBS157.67_T,ERR1084895.62035,94.90,98,5,0,1,98,3,100,1e-37,154
Exophiala_salmonis_CBS157.67_T,ERR1084895.62001,94.90,98,5,0,1,98,3,100,1e-37,154
Exophiala_salmonis_CBS157.67_T,ERR1084895.59637,94.90,98,5,0,1,98,3,100,1e-37,154
Exophiala_salmonis_CBS157.67_T,ERR1084895.58384,94.90,98,5,0,1,98,3,100,1e-37,154
Exophiala_salmonis_CBS157.67_T,ERR1084895.58150,94.90,98,5,0,1,98,3,100,1e-37,154
Exophiala_salmonis_CBS157.67_T,ERR1084895.57683,94.90,98,5,0,1,98,3,100,1e-37,154
Exophiala_salmonis_CBS157.67_T,ERR1084895.57624,94.90,98,5,0,1,98,3,100,1e-37,154
Exophiala_salmonis_CBS157.67_T,ERR1084895.57103,94.90,98,5,0,1,98,3,100,1e-37,154
Exophiala_salmonis_CBS157.67_T,ERR1084895.56976,94.90,98,5,0,1,98,3,100,1e-37,154
Exophiala_salmonis_CBS157.67_T,ERR1084895.56433,94.90,98,5,0,1,98,3,100,1e-37,154
Exophiala_salmonis_CBS157.67_T,ERR1084895.56405,94.90,98,5,0,1,98,3,100,1e-37,154
Exophiala_salmonis_CBS157.67_T,ERR1084895.56393,94.90,98,5,0,1,98,3,100,1e-37,154
Exophiala_salmonis_CBS157.67_T,ERR1084895.56295,94.90,98,5,0,1,98,3,100,1e-37,154
Exophiala_salmonis_CBS157.67_T,ERR1084895.56067,94.90,98,5,0,1,98,3,100,1e-37,154
Exophiala_salmonis_CBS157.67_T,ERR1084895.55876,94.90,98,5,0,1,98,3,100,1e-37,154
Exophiala_salmonis_CBS157.67_T,ERR1084895.55875,94.90,98,5,0,1,98,3,100,1e-37,154
Exophiala_salmonis_CBS157.67_T,ERR1084895.55829,94.90,98,5,0,1,98,3,100,1e-37,154
Exophiala_salmonis_CBS157.67_T,ERR1084895.55738,94.90,98,5,0,1,98,3,100,1e-37,154
Exophiala_salmonis_CBS157.67_T,ERR1084895.55729,94.90,98,5,0,1,98,3,100,1e-37,154
Exophiala_salmonis_CBS157.67_T,ERR1084895.55199,94.90,98,5,0,1,98,3,100,1e-37,154
Exophiala_salmonis_CBS157.67_T,ERR1084895.54821,94.90,98,5,0,1,98,3,100,1e-37,154
Exophiala_salmonis_CBS157.67_T,ERR1084895.52577,94.90,98,5,0,1,98,3,100,1e-37,154
Exophiala_salmonis_CBS157.67_T,ERR1084895.52185,94.90,98,5,0,1,98,3,100,1e-37,154
Exophiala_salmonis_CBS157.67_T,ERR1084895.51869,94.90,98,5,0,1,98,3,100,1e-37,154
Exophiala_salmonis_CBS157.67_T,ERR1084895.51323,94.90,98,5,0,1,98,3,100,1e-37,154
Exophiala_salmonis_CBS157.67_T,ERR1084895.51207,94.90,98,5,0,1,98,3,100,1e-37,154
Exophiala_salmonis_CBS157.67_T,ERR1084895.51036,94.90,98,5,0,1,98,3,100,1e-37,154
Exophiala_salmonis_CBS157.67_T,ERR1084895.50854,94.90,98,5,0,1,98,3,100,1e-37,154
Exophiala_salmonis_CBS157.67_T,ERR1084895.50641,94.90,98,5,0,1,98,3,100,1e-37,154
Exophiala_salmonis_CBS157.67_T,ERR1084895.50280,94.90,98,5,0,1,98,3,100,1e-37,154
Exophiala_salmonis_CBS157.67_T,ERR1084895.50176,94.90,98,5,0,1,98,3,100,1e-37,154
Exophiala_salmonis_CBS157.67_T,ERR1084895.50111,94.90,98,5,0,1,98,3,100,1e-37,154
Exophiala_salmonis_CBS157.67_T,ERR1084895.49884,94.90,98,5,0,1,98,3,100,1e-37,154
Exophiala_salmonis_CBS157.67_T,ERR1084895.49103,94.90,98,5,0,1,98,3,100,1e-37,154
Exophiala_salmonis_CBS157.67_T,ERR1084895.48789,94.90,98,5,0,1,98,3,100,1e-37,154
Exophiala_salmonis_CBS157.67_T,ERR1084895.48486,94.90,98,5,0,1,98,3,100,1e-37,154
Exophiala_salmonis_CBS157.67_T,ERR1084895.48051,94.90,98,5,0,1,98,3,100,1e-37,154
Exophiala_salmonis_CBS157.67_T,ERR1084895.47939,94.90,98,5,0,1,98,3,100,1e-37,154
Exophiala_salmonis_CBS157.67_T,ERR1084895.47880,94.90,98,5,0,1,98,3,100,1e-37,154
Exophiala_salmonis_CBS157.67_T,ERR1084895.47578,94.90,98,5,0,1,98,3,100,1e-37,154
Exophiala_salmonis_CBS157.67_T,ERR1084895.47419,94.90,98,5,0,1,98,3,100,1e-37,154
Exophiala_salmonis_CBS157.67_T,ERR1084895.46184,94.90,98,5,0,1,98,3,100,1e-37,154
Exophiala_salmonis_CBS157.67_T,ERR1084895.46094,94.90,98,5,0,1,98,3,100,1e-37,154
Exophiala_salmonis_CBS157.67_T,ERR1084895.45506,94.90,98,5,0,1,98,3,100,1e-37,154
Exophiala_salmonis_CBS157.67_T,ERR1084895.44693,94.90,98,5,0,1,98,3,100,1e-37,154
Exophiala_salmonis_CBS157.67_T,ERR1084895.44652,94.90,98,5,0,1,98,3,100,1e-37,154
Exophiala_salmonis_CBS157.67_T,ERR1084895.44523,94.90,98,5,0,1,98,3,100,1e-37,154
Exophiala_salmonis_CBS157.67_T,ERR1084895.44353,94.90,98,5,0,1,98,3,100,1e-37,154
Exophiala_salmonis_CBS157.67_T,ERR1084895.43909,94.90,98,5,0,1,98,3,100,1e-37,154
Exophiala_salmonis_CBS157.67_T,ERR1084895.43703,94.90,98,5,0,1,98,3,100,1e-37,154
Exophiala_salmonis_CBS157.67_T,ERR1084895.43060,94.90,98,5,0,1,98,3,100,1e-37,154
Exophiala_salmonis_CBS157.67_T,ERR1084895.42793,94.90,98,5,0,1,98,3,100,1e-37,154
Exophiala_salmonis_CBS157.67_T,ERR1084895.42619,94.90,98,5,0,1,98,3,100,1e-37,154
Exophiala_salmonis_CBS157.67_T,ERR1084895.42539,94.90,98,5,0,1,98,3,100,1e-37,154
Exophiala_salmonis_CBS157.67_T,ERR1084895.42162,94.90,98,5,0,1,98,3,100,1e-37,154
Exophiala_salmonis_CBS157.67_T,ERR1084895.41539,94.90,98,5,0,1,98,3,100,1e-37,154
Exophiala_salmonis_CBS157.67_T,ERR1084895.40940,94.90,98,5,0,1,98,3,100,1e-37,154
Exophiala_salmonis_CBS157.67_T,ERR1084895.40391,94.90,98,5,0,1,98,3,100,1e-37,154
Exophiala_salmonis_CBS157.67_T,ERR1084895.40390,94.90,98,5,0,1,98,3,100,1e-37,154
Exophiala_salmonis_CBS157.67_T,ERR1084895.40234,94.90,98,5,0,1,98,3,100,1e-37,154
Exophiala_salmonis_CBS157.67_T,ERR1084895.40112,94.90,98,5,0,1,98,3,100,1e-37,154
Exophiala_salmonis_CBS157.67_T,ERR1084895.39417,94.90,98,5,0,1,98,3,100,1e-37,154
Exophiala_salmonis_CBS157.67_T,ERR1084895.39118,94.90,98,5,0,1,98,3,100,1e-37,154
Exophiala_salmonis_CBS157.67_T,ERR1084895.38824,94.90,98,5,0,1,98,3,100,1e-37,154
Exophiala_salmonis_CBS157.67_T,ERR1084895.38684,94.90,98,5,0,1,98,3,100,1e-37,154
Exophiala_salmonis_CBS157.67_T,ERR1084895.38472,94.90,98,5,0,1,98,3,100,1e-37,154
Exophiala_salmonis_CBS157.67_T,ERR1084895.38094,94.90,98,5,0,1,98,3,100,1e-37,154
Exophiala_salmonis_CBS157.67_T,ERR1084895.37661,94.90,98,5,0,1,98,3,100,1e-37,154
Exophiala_salmonis_CBS157.67_T,ERR1084895.37465,94.90,98,5,0,1,98,3,100,1e-37,154
Exophiala_salmonis_CBS157.67_T,ERR1084895.37191,94.90,98,5,0,1,98,3,100,1e-37,154
Exophiala_salmonis_CBS157.67_T,ERR1084895.36972,94.90,98,5,0,1,98,3,100,1e-37,154
Exophiala_salmonis_CBS157.67_T,ERR1084895.36521,94.90,98,5,0,1,98,3,100,1e-37,154
Exophiala_salmonis_CBS157.67_T,ERR1084895.35561,94.90,98,5,0,1,98,3,100,1e-37,154
Exophiala_salmonis_CBS157.67_T,ERR1084895.35400,94.90,98,5,0,1,98,3,100,1e-37,154
Exophiala_salmonis_CBS157.67_T,ERR1084895.35397,94.90,98,5,0,1,98,3,100,1e-37,154
Exophiala_salmonis_CBS157.67_T,ERR1084895.35021,94.90,98,5,0,1,98,3,100,1e-37,154
Exophiala_salmonis_CBS157.67_T,ERR1084895.34744,94.90,98,5,0,1,98,3,100,1e-37,154
Exophiala_salmonis_CBS157.67_T,ERR1084895.34219,94.90,98,5,0,1,98,3,100,1e-37,154
Exophiala_salmonis_CBS157.67_T,ERR1084895.34218,94.90,98,5,0,1,98,3,100,1e-37,154
Exophiala_salmonis_CBS157.67_T,ERR1084895.33948,94.90,98,5,0,1,98,3,100,1e-37,154
Exophiala_salmonis_CBS157.67_T,ERR1084895.33247,94.90,98,5,0,1,98,3,100,1e-37,154
Exophiala_salmonis_CBS157.67_T,ERR1084895.33229,94.90,98,5,0,1,98,3,100,1e-37,154
Exophiala_salmonis_CBS157.67_T,ERR1084895.33089,94.90,98,5,0,1,98,3,100,1e-37,154
Exophiala_salmonis_CBS157.67_T,ERR1084895.32764,94.90,98,5,0,1,98,3,100,1e-37,154
Exophiala_salmonis_CBS157.67_T,ERR1084895.32707,94.90,98,5,0,1,98,3,100,1e-37,154
Exophiala_salmonis_CBS157.67_T,ERR1084895.32402,94.90,98,5,0,1,98,3,100,1e-37,154
Exophiala_salmonis_CBS157.67_T,ERR1084895.31999,94.90,98,5,0,1,98,3,100,1e-37,154
Exophiala_salmonis_CBS157.67_T,ERR1084895.31129,94.90,98,5,0,1,98,3,100,1e-37,154
Exophiala_salmonis_CBS157.67_T,ERR1084895.30888,94.90,98,5,0,1,98,3,100,1e-37,154
Exophiala_salmonis_CBS157.67_T,ERR1084895.30093,94.90,98,5,0,1,98,3,100,1e-37,154
Exophiala_salmonis_CBS157.67_T,ERR1084895.29891,94.90,98,5,0,1,98,3,100,1e-37,154
Exophiala_salmonis_CBS157.67_T,ERR1084895.29307,94.90,98,5,0,1,98,3,100,1e-37,154
Exophiala_salmonis_CBS157.67_T,ERR1084895.29204,94.90,98,5,0,1,98,3,100,1e-37,154
Exophiala_salmonis_CBS157.67_T,ERR1084895.29101,94.90,98,5,0,1,98,3,100,1e-37,154
Exophiala_salmonis_CBS157.67_T,ERR1084895.28766,94.90,98,5,0,1,98,3,100,1e-37,154
Exophiala_salmonis_CBS157.67_T,ERR1084895.28629,94.90,98,5,0,1,98,3,100,1e-37,154
Exophiala_salmonis_CBS157.67_T,ERR1084895.28394,94.90,98,5,0,1,98,3,100,1e-37,154
Exophiala_salmonis_CBS157.67_T,ERR1084895.28377,94.90,98,5,0,1,98,3,100,1e-37,154
Exophiala_salmonis_CBS157.67_T,ERR1084895.28119,94.90,98,5,0,1,98,3,100,1e-37,154
Exophiala_salmonis_CBS157.67_T,ERR1084895.27577,94.90,98,5,0,1,98,3,100,1e-37,154
Exophiala_salmonis_CBS157.67_T,ERR1084895.26989,94.90,98,5,0,1,98,3,100,1e-37,154
Exophiala_salmonis_CBS157.67_T,ERR1084895.26955,94.90,98,5,0,1,98,3,100,1e-37,154
Exophiala_salmonis_CBS157.67_T,ERR1084895.26587,94.90,98,5,0,1,98,3,100,1e-37,154
Exophiala_salmonis_CBS157.67_T,ERR1084895.26586,94.90,98,5,0,1,98,3,100,1e-37,154
Exophiala_salmonis_CBS157.67_T,ERR1084895.26375,94.90,98,5,0,1,98,3,100,1e-37,154
Exophiala_salmonis_CBS157.67_T,ERR1084895.26374,94.90,98,5,0,1,98,3,100,1e-37,154
Exophiala_salmonis_CBS157.67_T,ERR1084895.26222,94.90,98,5,0,1,98,3,100,1e-37,154
Exophiala_salmonis_CBS157.67_T,ERR1084895.25915,94.90,98,5,0,1,98,3,100,1e-37,154
Exophiala_salmonis_CBS157.67_T,ERR1084895.25802,94.90,98,5,0,1,98,3,100,1e-37,154
Exophiala_salmonis_CBS157.67_T,ERR1084895.25678,94.90,98,5,0,1,98,3,100,1e-37,154
Exophiala_salmonis_CBS157.67_T,ERR1084895.25376,94.90,98,5,0,1,98,3,100,1e-37,154
Exophiala_salmonis_CBS157.67_T,ERR1084895.25299,94.90,98,5,0,1,98,3,100,1e-37,154
Exophiala_salmonis_CBS157.67_T,ERR1084895.25048,94.90,98,5,0,1,98,3,100,1e-37,154
Exophiala_salmonis_CBS157.67_T,ERR1084895.24886,94.90,98,5,0,1,98,3,100,1e-37,154
Exophiala_salmonis_CBS157.67_T,ERR1084895.24640,94.90,98,5,0,1,98,3,100,1e-37,154
Exophiala_salmonis_CBS157.67_T,ERR1084895.23832,94.90,98,5,0,1,98,3,100,1e-37,154
Exophiala_salmonis_CBS157.67_T,ERR1084895.23603,94.90,98,5,0,1,98,3,100,1e-37,154
Exophiala_salmonis_CBS157.67_T,ERR1084895.23543,94.90,98,5,0,1,98,3,100,1e-37,154
Exophiala_salmonis_CBS157.67_T,ERR1084895.23471,94.90,98,5,0,1,98,3,100,1e-37,154
Exophiala_salmonis_CBS157.67_T,ERR1084895.23310,94.90,98,5,0,1,98,3,100,1e-37,154
Exophiala_salmonis_CBS157.67_T,ERR1084895.23165,94.90,98,5,0,1,98,3,100,1e-37,154
Exophiala_salmonis_CBS157.67_T,ERR1084895.22929,94.90,98,5,0,1,98,3,100,1e-37,154
Exophiala_salmonis_CBS157.67_T,ERR1084895.22795,94.90,98,5,0,1,98,3,100,1e-37,154
Exophiala_salmonis_CBS157.67_T,ERR1084895.22723,94.90,98,5,0,1,98,3,100,1e-37,154
Exophiala_salmonis_CBS157.67_T,ERR1084895.22722,94.90,98,5,0,1,98,3,100,1e-37,154
Exophiala_salmonis_CBS157.67_T,ERR1084895.22430,94.90,98,5,0,1,98,3,100,1e-37,154
Exophiala_salmonis_CBS157.67_T,ERR1084895.22409,94.90,98,5,0,1,98,3,100,1e-37,154
Exophiala_salmonis_CBS157.67_T,ERR1084895.22025,94.90,98,5,0,1,98,3,100,1e-37,154
Exophiala_salmonis_CBS157.67_T,ERR1084895.20695,94.90,98,5,0,1,98,3,100,1e-37,154
Exophiala_salmonis_CBS157.67_T,ERR1084895.20459,94.90,98,5,0,1,98,3,100,1e-37,154
Exophiala_salmonis_CBS157.67_T,ERR1084895.20248,94.90,98,5,0,1,98,3,100,1e-37,154
Exophiala_salmonis_CBS157.67_T,ERR1084895.20146,94.90,98,5,0,1,98,3,100,1e-37,154
Exophiala_salmonis_CBS157.67_T,ERR1084895.20145,94.90,98,5,0,1,98,3,100,1e-37,154
Exophiala_salmonis_CBS157.67_T,ERR1084895.19742,94.90,98,5,0,1,98,3,100,1e-37,154
Exophiala_salmonis_CBS157.67_T,ERR1084895.19721,94.90,98,5,0,1,98,3,100,1e-37,154
Exophiala_salmonis_CBS157.67_T,ERR1084895.19567,94.90,98,5,0,1,98,3,100,1e-37,154
Exophiala_salmonis_CBS157.67_T,ERR1084895.19052,94.90,98,5,0,1,98,3,100,1e-37,154
Exophiala_salmonis_CBS157.67_T,ERR1084895.18762,94.90,98,5,0,1,98,3,100,1e-37,154
Exophiala_salmonis_CBS157.67_T,ERR1084895.18542,94.90,98,5,0,1,98,3,100,1e-37,154
Exophiala_salmonis_CBS157.67_T,ERR1084895.18088,94.90,98,5,0,1,98,3,100,1e-37,154
Exophiala_salmonis_CBS157.67_T,ERR1084895.17854,94.90,98,5,0,1,98,3,100,1e-37,154
Exophiala_salmonis_CBS157.67_T,ERR1084895.17570,94.90,98,5,0,1,98,3,100,1e-37,154
Exophiala_salmonis_CBS157.67_T,ERR1084895.17034,94.90,98,5,0,1,98,3,100,1e-37,154
Exophiala_salmonis_CBS157.67_T,ERR1084895.16994,94.90,98,5,0,1,98,3,100,1e-37,154
Exophiala_salmonis_CBS157.67_T,ERR1084895.16984,94.90,98,5,0,1,98,3,100,1e-37,154
Exophiala_salmonis_CBS157.67_T,ERR1084895.16790,94.90,98,5,0,1,98,3,100,1e-37,154
Exophiala_salmonis_CBS157.67_T,ERR1084895.16789,94.90,98,5,0,1,98,3,100,1e-37,154
Exophiala_salmonis_CBS157.67_T,ERR1084895.16766,94.90,98,5,0,1,98,3,100,1e-37,154
Exophiala_salmonis_CBS157.67_T,ERR1084895.16464,94.90,98,5,0,1,98,3,100,1e-37,154
Exophiala_salmonis_CBS157.67_T,ERR1084895.16310,94.90,98,5,0,1,98,3,100,1e-37,154
Exophiala_salmonis_CBS157.67_T,ERR1084895.16306,94.90,98,5,0,1,98,3,100,1e-37,154
Exophiala_salmonis_CBS157.67_T,ERR1084895.15801,94.90,98,5,0,1,98,3,100,1e-37,154
Exophiala_salmonis_CBS157.67_T,ERR1084895.15141,94.90,98,5,0,1,98,3,100,1e-37,154
Exophiala_salmonis_CBS157.67_T,ERR1084895.14642,94.90,98,5,0,1,98,3,100,1e-37,154
Exophiala_salmonis_CBS157.67_T,ERR1084895.14001,94.90,98,5,0,1,98,3,100,1e-37,154
Exophiala_salmonis_CBS157.67_T,ERR1084895.13924,94.90,98,5,0,1,98,3,100,1e-37,154
Exophiala_salmonis_CBS157.67_T,ERR1084895.13675,94.90,98,5,0,1,98,3,100,1e-37,154
Exophiala_salmonis_CBS157.67_T,ERR1084895.13610,94.90,98,5,0,1,98,3,100,1e-37,154
Exophiala_salmonis_CBS157.67_T,ERR1084895.13570,94.90,98,5,0,1,98,3,100,1e-37,154
Exophiala_salmonis_CBS157.67_T,ERR1084895.13389,94.90,98,5,0,1,98,3,100,1e-37,154
Exophiala_salmonis_CBS157.67_T,ERR1084895.13069,94.90,98,5,0,1,98,3,100,1e-37,154
Exophiala_salmonis_CBS157.67_T,ERR1084895.13023,94.95,99,3,2,1,98,3,100,1e-37,154
Exophiala_salmonis_CBS157.67_T,ERR1084895.12820,94.90,98,5,0,1,98,3,100,1e-37,154
Exophiala_salmonis_CBS157.67_T,ERR1084895.12494,94.90,98,5,0,1,98,3,100,1e-37,154
Exophiala_salmonis_CBS157.67_T,ERR1084895.12025,94.90,98,5,0,1,98,3,100,1e-37,154
Exophiala_salmonis_CBS157.67_T,ERR1084895.11959,94.90,98,5,0,1,98,3,100,1e-37,154
Exophiala_salmonis_CBS157.67_T,ERR1084895.11468,94.90,98,5,0,1,98,3,100,1e-37,154
Exophiala_salmonis_CBS157.67_T,ERR1084895.11422,94.90,98,5,0,1,98,3,100,1e-37,154
Exophiala_salmonis_CBS157.67_T,ERR1084895.11101,94.90,98,5,0,1,98,3,100,1e-37,154
Exophiala_salmonis_CBS157.67_T,ERR1084895.10715,94.90,98,5,0,1,98,3,100,1e-37,154
Exophiala_salmonis_CBS157.67_T,ERR1084895.10480,94.90,98,5,0,1,98,3,100,1e-37,154
Exophiala_salmonis_CBS157.67_T,ERR1084895.10248,94.90,98,5,0,1,98,3,100,1e-37,154
Exophiala_salmonis_CBS157.67_T,ERR1084895.10208,94.90,98,5,0,1,98,3,100,1e-37,154
Exophiala_salmonis_CBS157.67_T,ERR1084895.10078,94.90,98,5,0,1,98,3,100,1e-37,154
Exophiala_salmonis_CBS157.67_T,ERR1084895.10077,94.90,98,5,0,1,98,3,100,1e-37,154
Exophiala_salmonis_CBS157.67_T,ERR1084895.9618,94.90,98,5,0,1,98,3,100,1e-37,154
Exophiala_salmonis_CBS157.67_T,ERR1084895.9372,94.90,98,5,0,1,98,3,100,1e-37,154
Exophiala_salmonis_CBS157.67_T,ERR1084895.9271,94.90,98,5,0,1,98,3,100,1e-37,154
Exophiala_salmonis_CBS157.67_T,ERR1084895.8941,94.90,98,5,0,1,98,3,100,1e-37,154
Exophiala_salmonis_CBS157.67_T,ERR1084895.8571,94.90,98,5,0,1,98,3,100,1e-37,154
Exophiala_salmonis_CBS157.67_T,ERR1084895.8391,94.90,98,5,0,1,98,3,100,1e-37,154
Exophiala_salmonis_CBS157.67_T,ERR1084895.8109,94.90,98,5,0,1,98,3,100,1e-37,154
Exophiala_salmonis_CBS157.67_T,ERR1084895.8093,94.90,98,5,0,1,98,3,100,1e-37,154
Exophiala_salmonis_CBS157.67_T,ERR1084895.7772,94.90,98,5,0,1,98,3,100,1e-37,154
Exophiala_salmonis_CBS157.67_T,ERR1084895.7692,94.90,98,5,0,1,98,3,100,1e-37,154
Exophiala_salmonis_CBS157.67_T,ERR1084895.6872,94.90,98,5,0,1,98,3,100,1e-37,154
Exophiala_salmonis_CBS157.67_T,ERR1084895.6674,94.90,98,5,0,1,98,3,100,1e-37,154
Exophiala_salmonis_CBS157.67_T,ERR1084895.6620,94.90,98,5,0,1,98,3,100,1e-37,154
Exophiala_salmonis_CBS157.67_T,ERR1084895.6332,94.90,98,5,0,1,98,3,100,1e-37,154
Exophiala_salmonis_CBS157.67_T,ERR1084895.6331,94.90,98,5,0,1,98,3,100,1e-37,154
Exophiala_salmonis_CBS157.67_T,ERR1084895.5818,94.90,98,5,0,1,98,3,100,1e-37,154
Exophiala_salmonis_CBS157.67_T,ERR1084895.5704,94.90,98,5,0,1,98,3,100,1e-37,154
Exophiala_salmonis_CBS157.67_T,ERR1084895.4098,94.90,98,5,0,1,98,3,100,1e-37,154
Exophiala_salmonis_CBS157.67_T,ERR1084895.3704,94.90,98,5,0,1,98,3,100,1e-37,154
Exophiala_salmonis_CBS157.67_T,ERR1084895.3173,94.90,98,5,0,1,98,3,100,1e-37,154
Exophiala_salmonis_CBS157.67_T,ERR1084895.2823,94.90,98,5,0,1,98,3,100,1e-37,154
Exophiala_salmonis_CBS157.67_T,ERR1084895.2311,94.90,98,5,0,1,98,3,100,1e-37,154
Exophiala_salmonis_CBS157.67_T,ERR1084895.2280,94.90,98,5,0,1,98,3,100,1e-37,154
Exophiala_salmonis_CBS157.67_T,ERR1084895.1783,94.90,98,5,0,1,98,3,100,1e-37,154
Exophiala_salmonis_CBS157.67_T,ERR1084895.1211,94.90,98,5,0,1,98,3,100,1e-37,154
Exophiala_salmonis_CBS157.67_T,ERR1084895.453,94.90,98,5,0,1,98,3,100,1e-37,154
Exophiala_salmonis_CBS157.67_T,ERR1084895.64013,94.79,96,5,0,3,98,5,100,2e-36,150
Exophiala_salmonis_CBS157.67_T,ERR1084895.47170,94.79,96,5,0,3,98,5,100,2e-36,150
Exophiala_salmonis_CBS157.67_T,ERR1084895.44339,94.79,96,5,0,3,98,5,100,2e-36,150
Exophiala_salmonis_CBS157.67_T,ERR1084895.41170,94.79,96,5,0,1,96,3,98,2e-36,150
Exophiala_salmonis_CBS157.67_T,ERR1084895.64578,93.94,99,4,2,1,98,3,100,6e-36,148
Exophiala_salmonis_CBS157.67_T,ERR1084895.64378,93.94,99,4,2,1,98,3,100,6e-36,148
Exophiala_salmonis_CBS157.67_T,ERR1084895.64272,93.94,99,4,2,1,98,3,100,6e-36,148
Exophiala_salmonis_CBS157.67_T,ERR1084895.64036,93.94,99,4,2,1,98,3,100,6e-36,148
Exophiala_salmonis_CBS157.67_T,ERR1084895.63999,93.94,99,4,2,1,98,3,100,6e-36,148
Exophiala_salmonis_CBS157.67_T,ERR1084895.63871,93.94,99,4,2,1,98,3,100,6e-36,148
Exophiala_salmonis_CBS157.67_T,ERR1084895.63790,93.94,99,4,2,1,98,3,100,6e-36,148
Exophiala_salmonis_CBS157.67_T,ERR1084895.62979,93.88,98,6,0,1,98,3,100,6e-36,148
Exophiala_salmonis_CBS157.67_T,ERR1084895.62777,93.88,98,6,0,1,98,3,100,6e-36,148
Exophiala_salmonis_CBS157.67_T,ERR1084895.62650,93.94,99,4,2,1,98,3,100,6e-36,148
Exophiala_salmonis_CBS157.67_T,ERR1084895.62238,93.88,98,6,0,1,98,3,100,6e-36,148
Exophiala_salmonis_CBS157.67_T,ERR1084895.61678,93.88,98,6,0,1,98,3,100,6e-36,148
Exophiala_salmonis_CBS157.67_T,ERR1084895.61663,93.94,99,4,2,1,98,3,100,6e-36,148
Exophiala_salmonis_CBS157.67_T,ERR1084895.61214,93.88,98,6,0,1,98,3,100,6e-36,148
Exophiala_salmonis_CBS157.67_T,ERR1084895.61103,93.94,99,4,2,1,98,3,100,6e-36,148
Exophiala_salmonis_CBS157.67_T,ERR1084895.61002,93.88,98,6,0,1,98,3,100,6e-36,148
Exophiala_salmonis_CBS157.67_T,ERR1084895.60530,93.88,98,6,0,1,98,3,100,6e-36,148
Exophiala_salmonis_CBS157.67_T,ERR1084895.60529,93.88,98,6,0,1,98,3,100,6e-36,148
Exophiala_salmonis_CBS157.67_T,ERR1084895.60474,93.88,98,6,0,1,98,3,100,6e-36,148
Exophiala_salmonis_CBS157.67_T,ERR1084895.60104,93.94,99,4,2,1,98,3,100,6e-36,148
Exophiala_salmonis_CBS157.67_T,ERR1084895.59086,93.88,98,6,0,1,98,3,100,6e-36,148
Exophiala_salmonis_CBS157.67_T,ERR1084895.58076,93.94,99,4,2,1,98,3,100,6e-36,148
Exophiala_salmonis_CBS157.67_T,ERR1084895.57946,93.88,98,6,0,1,98,3,100,6e-36,148
Exophiala_salmonis_CBS157.67_T,ERR1084895.57803,93.88,98,6,0,1,98,3,100,6e-36,148
Exophiala_salmonis_CBS157.67_T,ERR1084895.57357,93.88,98,6,0,1,98,3,100,6e-36,148
Exophiala_salmonis_CBS157.67_T,ERR1084895.56907,93.88,98,6,0,1,98,3,100,6e-36,148
Exophiala_salmonis_CBS157.67_T,ERR1084895.56674,93.88,98,6,0,1,98,3,100,6e-36,148
Exophiala_salmonis_CBS157.67_T,ERR1084895.56464,93.88,98,6,0,1,98,3,100,6e-36,148
Exophiala_salmonis_CBS157.67_T,ERR1084895.56336,93.94,99,4,2,1,98,3,100,6e-36,148
Exophiala_salmonis_CBS157.67_T,ERR1084895.55830,94.74,95,5,0,1,95,3,97,6e-36,148
Exophiala_salmonis_CBS157.67_T,ERR1084895.55700,93.94,99,4,2,1,98,3,100,6e-36,148
Exophiala_salmonis_CBS157.67_T,ERR1084895.55639,93.94,99,4,2,1,98,3,100,6e-36,148
Exophiala_salmonis_CBS157.67_T,ERR1084895.55327,93.94,99,4,2,1,98,3,100,6e-36,148
Exophiala_salmonis_CBS157.67_T,ERR1084895.55131,93.94,99,4,2,1,98,3,100,6e-36,148
Exophiala_salmonis_CBS157.67_T,ERR1084895.54795,93.88,98,6,0,1,98,3,100,6e-36,148
Exophiala_salmonis_CBS157.67_T,ERR1084895.54683,93.88,98,6,0,1,98,3,100,6e-36,148
Exophiala_salmonis_CBS157.67_T,ERR1084895.54557,93.94,99,4,2,1,98,3,100,6e-36,148
Exophiala_salmonis_CBS157.67_T,ERR1084895.54523,93.94,99,4,2,1,98,3,100,6e-36,148
Exophiala_salmonis_CBS157.67_T,ERR1084895.54465,93.88,98,6,0,1,98,3,100,6e-36,148
Exophiala_salmonis_CBS157.67_T,ERR1084895.53726,93.88,98,6,0,1,98,3,100,6e-36,148
Exophiala_salmonis_CBS157.67_T,ERR1084895.53700,93.88,98,6,0,1,98,3,100,6e-36,148
Exophiala_salmonis_CBS157.67_T,ERR1084895.53019,93.88,98,6,0,1,98,3,100,6e-36,148
Exophiala_salmonis_CBS157.67_T,ERR1084895.52600,93.94,99,4,2,1,98,3,100,6e-36,148
Exophiala_salmonis_CBS157.67_T,ERR1084895.52320,93.88,98,6,0,1,98,3,100,6e-36,148
Exophiala_salmonis_CBS157.67_T,ERR1084895.52227,93.94,99,4,2,1,98,3,100,6e-36,148
Exophiala_salmonis_CBS157.67_T,ERR1084895.51904,93.88,98,6,0,1,98,3,100,6e-36,148
Exophiala_salmonis_CBS157.67_T,ERR1084895.51861,93.88,98,6,0,1,98,3,100,6e-36,148
Exophiala_salmonis_CBS157.67_T,ERR1084895.50942,93.88,98,6,0,1,98,3,100,6e-36,148
Exophiala_salmonis_CBS157.67_T,ERR1084895.50845,93.88,98,6,0,1,98,3,100,6e-36,148
Exophiala_salmonis_CBS157.67_T,ERR1084895.50455,93.94,99,4,2,1,98,3,100,6e-36,148
Exophiala_salmonis_CBS157.67_T,ERR1084895.50262,93.94,99,4,2,1,98,3,100,6e-36,148
Exophiala_salmonis_CBS157.67_T,ERR1084895.50212,93.94,99,4,2,1,98,3,100,6e-36,148
Exophiala_salmonis_CBS157.67_T,ERR1084895.48678,93.88,98,6,0,1,98,3,100,6e-36,148
Exophiala_salmonis_CBS157.67_T,ERR1084895.48331,93.88,98,6,0,1,98,3,100,6e-36,148
Exophiala_salmonis_CBS157.67_T,ERR1084895.48093,93.94,99,4,2,1,98,3,100,6e-36,148
Exophiala_salmonis_CBS157.67_T,ERR1084895.48037,93.88,98,6,0,1,98,3,100,6e-36,148
Exophiala_salmonis_CBS157.67_T,ERR1084895.47992,93.94,99,4,2,1,98,3,100,6e-36,148
Exophiala_salmonis_CBS157.67_T,ERR1084895.47747,93.88,98,6,0,1,98,3,100,6e-36,148
Exophiala_salmonis_CBS157.67_T,ERR1084895.47739,93.88,98,6,0,1,98,3,100,6e-36,148
Exophiala_salmonis_CBS157.67_T,ERR1084895.47380,93.88,98,6,0,1,98,3,100,6e-36,148
Exophiala_salmonis_CBS157.67_T,ERR1084895.47099,93.88,98,6,0,1,98,3,100,6e-36,148
Exophiala_salmonis_CBS157.67_T,ERR1084895.46963,93.88,98,6,0,1,98,3,100,6e-36,148
Exophiala_salmonis_CBS157.67_T,ERR1084895.46822,93.94,99,4,2,1,98,3,100,6e-36,148
Exophiala_salmonis_CBS157.67_T,ERR1084895.46090,93.88,98,6,0,1,98,3,100,6e-36,148
Exophiala_salmonis_CBS157.67_T,ERR1084895.45766,93.94,99,4,2,1,98,3,100,6e-36,148
Exophiala_salmonis_CBS157.67_T,ERR1084895.45504,93.88,98,6,0,1,98,3,100,6e-36,148
Exophiala_salmonis_CBS157.67_T,ERR1084895.44258,93.88,98,6,0,1,98,3,100,6e-36,148
Exophiala_salmonis_CBS157.67_T,ERR1084895.44186,93.88,98,6,0,1,98,3,100,6e-36,148
Exophiala_salmonis_CBS157.67_T,ERR1084895.43925,93.94,99,4,2,1,98,3,100,6e-36,148
Exophiala_salmonis_CBS157.67_T,ERR1084895.43883,93.94,99,4,2,1,98,3,100,6e-36,148
Exophiala_salmonis_CBS157.67_T,ERR1084895.43772,93.88,98,6,0,1,98,3,100,6e-36,148
Exophiala_salmonis_CBS157.67_T,ERR1084895.43494,93.88,98,6,0,1,98,3,100,6e-36,148
Exophiala_salmonis_CBS157.67_T,ERR1084895.43461,93.94,99,4,2,1,98,3,100,6e-36,148
Exophiala_salmonis_CBS157.67_T,ERR1084895.43220,93.94,99,4,2,1,98,3,100,6e-36,148
Exophiala_salmonis_CBS157.67_T,ERR1084895.43176,93.88,98,6,0,1,98,3,100,6e-36,148
Exophiala_salmonis_CBS157.67_T,ERR1084895.42733,93.94,99,4,2,1,98,3,100,6e-36,148
Exophiala_salmonis_CBS157.67_T,ERR1084895.42042,93.88,98,6,0,1,98,3,100,6e-36,148
Exophiala_salmonis_CBS157.67_T,ERR1084895.41842,93.94,99,4,2,1,98,3,100,6e-36,148
Exophiala_salmonis_CBS157.67_T,ERR1084895.40961,93.94,99,4,2,1,98,3,100,6e-36,148
Exophiala_salmonis_CBS157.67_T,ERR1084895.40763,93.94,99,4,2,1,98,3,100,6e-36,148
Exophiala_salmonis_CBS157.67_T,ERR1084895.40467,93.94,99,4,2,1,98,3,100,6e-36,148
Exophiala_salmonis_CBS157.67_T,ERR1084895.39973,93.94,99,4,2,1,98,3,100,6e-36,148
Exophiala_salmonis_CBS157.67_T,ERR1084895.39923,93.88,98,6,0,1,98,3,100,6e-36,148
Exophiala_salmonis_CBS157.67_T,ERR1084895.39868,93.88,98,6,0,1,98,3,100,6e-36,148
Exophiala_salmonis_CBS157.67_T,ERR1084895.39434,93.88,98,6,0,1,98,3,100,6e-36,148
Exophiala_salmonis_CBS157.67_T,ERR1084895.38294,93.88,98,6,0,1,98,3,100,6e-36,148
Exophiala_salmonis_CBS157.67_T,ERR1084895.38075,93.88,98,6,0,1,98,3,100,6e-36,148
Exophiala_salmonis_CBS157.67_T,ERR1084895.38012,93.88,98,6,0,1,98,3,100,6e-36,148
Exophiala_salmonis_CBS157.67_T,ERR1084895.37760,93.88,98,6,0,1,98,3,100,6e-36,148
Exophiala_salmonis_CBS157.67_T,ERR1084895.37307,93.94,99,4,2,1,98,3,100,6e-36,148
Exophiala_salmonis_CBS157.67_T,ERR1084895.37254,93.88,98,6,0,1,98,3,100,6e-36,148
Exophiala_salmonis_CBS157.67_T,ERR1084895.36967,93.88,98,6,0,1,98,3,100,6e-36,148
Exophiala_salmonis_CBS157.67_T,ERR1084895.36864,93.94,99,4,2,1,98,3,100,6e-36,148
Exophiala_salmonis_CBS157.67_T,ERR1084895.36855,93.88,98,6,0,1,98,3,100,6e-36,148
Exophiala_salmonis_CBS157.67_T,ERR1084895.36142,93.94,99,4,2,1,98,3,100,6e-36,148
Exophiala_salmonis_CBS157.67_T,ERR1084895.36053,93.88,98,6,0,1,98,3,100,6e-36,148
Exophiala_salmonis_CBS157.67_T,ERR1084895.35309,93.94,99,4,2,1,98,3,100,6e-36,148
Exophiala_salmonis_CBS157.67_T,ERR1084895.35009,93.94,99,4,2,1,98,3,100,6e-36,148
Exophiala_salmonis_CBS157.67_T,ERR1084895.34862,93.88,98,6,0,1,98,3,100,6e-36,148
Exophiala_salmonis_CBS157.67_T,ERR1084895.34752,93.88,98,6,0,1,98,3,100,6e-36,148
Exophiala_salmonis_CBS157.67_T,ERR1084895.34748,93.94,99,4,2,1,98,3,100,6e-36,148
Exophiala_salmonis_CBS157.67_T,ERR1084895.34397,93.94,99,4,2,1,98,3,100,6e-36,148
Exophiala_salmonis_CBS157.67_T,ERR1084895.34315,93.88,98,6,0,1,98,3,100,6e-36,148
Exophiala_salmonis_CBS157.67_T,ERR1084895.33967,93.94,99,4,2,1,98,3,100,6e-36,148
Exophiala_salmonis_CBS157.67_T,ERR1084895.33890,93.94,99,4,2,1,98,3,100,6e-36,148
Exophiala_salmonis_CBS157.67_T,ERR1084895.33843,93.88,98,6,0,1,98,3,100,6e-36,148
Exophiala_salmonis_CBS157.67_T,ERR1084895.33638,93.88,98,6,0,1,98,3,100,6e-36,148
Exophiala_salmonis_CBS157.67_T,ERR1084895.33584,93.88,98,6,0,1,98,3,100,6e-36,148
Exophiala_salmonis_CBS157.67_T,ERR1084895.33508,93.94,99,4,2,1,98,3,100,6e-36,148
Exophiala_salmonis_CBS157.67_T,ERR1084895.33015,93.94,99,4,2,1,98,3,100,6e-36,148
Exophiala_salmonis_CBS157.67_T,ERR1084895.32791,93.94,99,4,2,1,98,3,100,6e-36,148
Exophiala_salmonis_CBS157.67_T,ERR1084895.32705,93.88,98,6,0,1,98,3,100,6e-36,148
Exophiala_salmonis_CBS157.67_T,ERR1084895.32209,93.88,98,6,0,1,98,3,100,6e-36,148
Exophiala_salmonis_CBS157.67_T,ERR1084895.31889,93.94,99,4,2,1,98,3,100,6e-36,148
Exophiala_salmonis_CBS157.67_T,ERR1084895.31854,93.94,99,4,2,1,98,3,100,6e-36,148
Exophiala_salmonis_CBS157.67_T,ERR1084895.31529,93.88,98,6,0,1,98,3,100,6e-36,148
Exophiala_salmonis_CBS157.67_T,ERR1084895.31359,93.88,98,6,0,1,98,3,100,6e-36,148
Exophiala_salmonis_CBS157.67_T,ERR1084895.31163,93.88,98,6,0,1,98,3,100,6e-36,148
Exophiala_salmonis_CBS157.67_T,ERR1084895.30989,93.88,98,6,0,1,98,3,100,6e-36,148
Exophiala_salmonis_CBS157.67_T,ERR1084895.30960,93.88,98,6,0,1,98,3,100,6e-36,148
Exophiala_salmonis_CBS157.67_T,ERR1084895.30487,93.88,98,6,0,1,98,3,100,6e-36,148
Exophiala_salmonis_CBS157.67_T,ERR1084895.30477,93.88,98,6,0,1,98,3,100,6e-36,148
Exophiala_salmonis_CBS157.67_T,ERR1084895.30396,93.94,99,4,2,1,98,3,100,6e-36,148
Exophiala_salmonis_CBS157.67_T,ERR1084895.30271,93.88,98,6,0,1,98,3,100,6e-36,148
Exophiala_salmonis_CBS157.67_T,ERR1084895.30166,93.88,98,6,0,1,98,3,100,6e-36,148
Exophiala_salmonis_CBS157.67_T,ERR1084895.30165,93.88,98,6,0,1,98,3,100,6e-36,148
Exophiala_tremulae_CBS129355,ERR1084895.17989,100.00,37,0,0,1,37,51,87,4e-12,69.4
Rhinocladiella_atrovirens_CBS264.49,ERR1084895.17989,100.00,42,0,0,1,42,46,87,6e-15,78.7
Rhinocladiella_atrovirens_CBS264.49,ERR1084895.61452,97.62,42,1,0,1,42,46,87,3e-13,73.1
Rhinocladiella_atrovirens_CBS264.49,ERR1084895.57150,97.62,42,1,0,1,42,46,87,3e-13,73.1
Rhinocladiella_atrovirens_CBS264.49,ERR1084895.33139,97.62,42,1,0,1,42,46,87,3e-13,73.1
Rhinocladiella_atrovirens_CBS264.49,ERR1084895.28528,97.62,42,1,0,1,42,46,87,3e-13,73.1
Rhinocladiella_atrovirens_CBS264.49,ERR1084895.19348,97.62,42,1,0,1,42,46,87,3e-13,73.1
Rhinocladiella_atrovirens_CBS264.49,ERR1084895.930,97.62,42,1,0,1,42,46,87,3e-13,73.1
Rhinocladiella_atrovirens_CBS264.49,ERR1084895.64048,100.00,31,0,0,1,31,69,99,8e-09,58.4
Rhinocladiella_atrovirens_CBS264.49,ERR1084895.63693,100.00,31,0,0,1,31,69,99,8e-09,58.4
Rhinocladiella_atrovirens_CBS264.49,ERR1084895.63569,100.00,31,0,0,1,31,69,99,8e-09,58.4
Rhinocladiella_atrovirens_CBS264.49,ERR1084895.63429,100.00,31,0,0,1,31,69,99,8e-09,58.4
Rhinocladiella_atrovirens_CBS264.49,ERR1084895.63370,100.00,31,0,0,1,31,69,99,8e-09,58.4
Rhinocladiella_atrovirens_CBS264.49,ERR1084895.63136,100.00,31,0,0,1,31,69,99,8e-09,58.4
Rhinocladiella_atrovirens_CBS264.49,ERR1084895.62487,100.00,31,0,0,1,31,69,99,8e-09,58.4
Rhinocladiella_atrovirens_CBS264.49,ERR1084895.61475,100.00,31,0,0,1,31,69,99,8e-09,58.4
Rhinocladiella_atrovirens_CBS264.49,ERR1084895.58930,100.00,31,0,0,1,31,69,99,8e-09,58.4
Rhinocladiella_atrovirens_CBS264.49,ERR1084895.57058,100.00,31,0,0,1,31,69,99,8e-09,58.4
Rhinocladiella_atrovirens_CBS264.49,ERR1084895.56938,100.00,31,0,0,1,31,69,99,8e-09,58.4
Rhinocladiella_atrovirens_CBS264.49,ERR1084895.55952,100.00,31,0,0,1,31,69,99,8e-09,58.4
Rhinocladiella_atrovirens_CBS264.49,ERR1084895.55107,100.00,31,0,0,1,31,69,99,8e-09,58.4
Rhinocladiella_atrovirens_CBS264.49,ERR1084895.55026,100.00,31,0,0,1,31,69,99,8e-09,58.4
Rhinocladiella_atrovirens_CBS264.49,ERR1084895.52321,100.00,31,0,0,1,31,69,99,8e-09,58.4
Rhinocladiella_atrovirens_CBS264.49,ERR1084895.52004,100.00,31,0,0,1,31,69,99,8e-09,58.4
Rhinocladiella_atrovirens_CBS264.49,ERR1084895.51735,100.00,31,0,0,1,31,69,99,8e-09,58.4
Rhinocladiella_atrovirens_CBS264.49,ERR1084895.51329,100.00,31,0,0,1,31,69,99,8e-09,58.4
Rhinocladiella_atrovirens_CBS264.49,ERR1084895.49959,100.00,31,0,0,1,31,69,99,8e-09,58.4
Rhinocladiella_atrovirens_CBS264.49,ERR1084895.49831,100.00,31,0,0,1,31,69,99,8e-09,58.4
Rhinocladiella_atrovirens_CBS264.49,ERR1084895.49611,100.00,31,0,0,1,31,69,99,8e-09,58.4
Rhinocladiella_atrovirens_CBS264.49,ERR1084895.49464,100.00,31,0,0,1,31,69,99,8e-09,58.4
Rhinocladiella_atrovirens_CBS264.49,ERR1084895.49437,100.00,31,0,0,1,31,69,99,8e-09,58.4
Rhinocladiella_atrovirens_CBS264.49,ERR1084895.49400,100.00,31,0,0,1,31,69,99,8e-09,58.4
Rhinocladiella_atrovirens_CBS264.49,ERR1084895.49358,100.00,31,0,0,1,31,69,99,8e-09,58.4
Rhinocladiella_atrovirens_CBS264.49,ERR1084895.48756,100.00,31,0,0,1,31,69,99,8e-09,58.4
Rhinocladiella_atrovirens_CBS264.49,ERR1084895.47944,100.00,31,0,0,1,31,69,99,8e-09,58.4
Rhinocladiella_atrovirens_CBS264.49,ERR1084895.47793,100.00,31,0,0,1,31,69,99,8e-09,58.4
Rhinocladiella_atrovirens_CBS264.49,ERR1084895.46893,100.00,31,0,0,1,31,69,99,8e-09,58.4
Rhinocladiella_atrovirens_CBS264.49,ERR1084895.45759,100.00,31,0,0,1,31,69,99,8e-09,58.4
Rhinocladiella_atrovirens_CBS264.49,ERR1084895.44914,100.00,31,0,0,1,31,69,99,8e-09,58.4
Rhinocladiella_atrovirens_CBS264.49,ERR1084895.44574,100.00,31,0,0,1,31,69,99,8e-09,58.4
Rhinocladiella_atrovirens_CBS264.49,ERR1084895.43115,100.00,31,0,0,1,31,69,99,8e-09,58.4
Rhinocladiella_atrovirens_CBS264.49,ERR1084895.42730,100.00,31,0,0,1,31,69,99,8e-09,58.4
Rhinocladiella_atrovirens_CBS264.49,ERR1084895.40380,100.00,31,0,0,1,31,69,99,8e-09,58.4
Rhinocladiella_atrovirens_CBS264.49,ERR1084895.39748,100.00,31,0,0,1,31,69,99,8e-09,58.4
Rhinocladiella_atrovirens_CBS264.49,ERR1084895.38804,100.00,31,0,0,1,31,69,99,8e-09,58.4
Rhinocladiella_atrovirens_CBS264.49,ERR1084895.36548,100.00,31,0,0,1,31,69,99,8e-09,58.4
Rhinocladiella_atrovirens_CBS264.49,ERR1084895.35851,100.00,31,0,0,1,31,69,99,8e-09,58.4
Rhinocladiella_atrovirens_CBS264.49,ERR1084895.33899,100.00,31,0,0,1,31,69,99,8e-09,58.4
Rhinocladiella_atrovirens_CBS264.49,ERR1084895.29874,100.00,31,0,0,1,31,69,99,8e-09,58.4
Rhinocladiella_atrovirens_CBS264.49,ERR1084895.29757,100.00,31,0,0,1,31,69,99,8e-09,58.4
Rhinocladiella_atrovirens_CBS264.49,ERR1084895.29548,100.00,31,0,0,1,31,69,99,8e-09,58.4
Rhinocladiella_atrovirens_CBS264.49,ERR1084895.28895,100.00,31,0,0,1,31,69,99,8e-09,58.4
Rhinocladiella_atrovirens_CBS264.49,ERR1084895.28534,100.00,31,0,0,1,31,69,99,8e-09,58.4
Rhinocladiella_atrovirens_CBS264.49,ERR1084895.26501,100.00,31,0,0,1,31,69,99,8e-09,58.4
Rhinocladiella_atrovirens_CBS264.49,ERR1084895.22799,100.00,31,0,0,1,31,69,99,8e-09,58.4
Rhinocladiella_atrovirens_CBS264.49,ERR1084895.22660,100.00,31,0,0,1,31,69,99,8e-09,58.4
Rhinocladiella_atrovirens_CBS264.49,ERR1084895.22395,100.00,31,0,0,1,31,69,99,8e-09,58.4
Rhinocladiella_atrovirens_CBS264.49,ERR1084895.19652,100.00,31,0,0,1,31,69,99,8e-09,58.4
Rhinocladiella_atrovirens_CBS264.49,ERR1084895.16708,100.00,31,0,0,1,31,69,99,8e-09,58.4
Rhinocladiella_atrovirens_CBS264.49,ERR1084895.15996,100.00,31,0,0,1,31,69,99,8e-09,58.4
Rhinocladiella_atrovirens_CBS264.49,ERR1084895.14434,100.00,31,0,0,1,31,69,99,8e-09,58.4
Rhinocladiella_atrovirens_CBS264.49,ERR1084895.13615,100.00,31,0,0,1,31,69,99,8e-09,58.4
Rhinocladiella_atrovirens_CBS264.49,ERR1084895.13381,100.00,31,0,0,1,31,69,99,8e-09,58.4
Rhinocladiella_atrovirens_CBS264.49,ERR1084895.11761,100.00,31,0,0,1,31,69,99,8e-09,58.4
Rhinocladiella_atrovirens_CBS264.49,ERR1084895.11438,100.00,31,0,0,1,31,69,99,8e-09,58.4
Rhinocladiella_atrovirens_CBS264.49,ERR1084895.11048,100.00,31,0,0,1,31,69,99,8e-09,58.4
Rhinocladiella_atrovirens_CBS264.49,ERR1084895.7185,100.00,31,0,0,1,31,69,99,8e-09,58.4
Rhinocladiella_atrovirens_CBS264.49,ERR1084895.6574,100.00,31,0,0,1,31,69,99,8e-09,58.4
Rhinocladiella_atrovirens_CBS264.49,ERR1084895.4840,100.00,31,0,0,1,31,69,99,8e-09,58.4
Rhinocladiella_atrovirens_CBS264.49,ERR1084895.3498,100.00,31,0,0,1,31,69,99,8e-09,58.4
Rhinocladiella_atrovirens_CBS264.49,ERR1084895.1014,100.00,31,0,0,1,31,69,99,8e-09,58.4
Rhinocladiella_atrovirens_CBS264.49,ERR1084895.1001,100.00,31,0,0,1,31,69,99,8e-09,58.4
Capronia_kleinmondensis_CBS122671_T,ERR1084895.17989,100.00,28,0,0,1,28,60,87,4e-07,52.8
Veronaea_japonica_CBS776.83_T,ERR1084895.17989,100.00,36,0,0,1,36,52,87,1e-11,67.6
Fonsecaea_pedrosoi_CBS271.37_T,ERR1084895.17989,100.00,28,0,0,1,28,60,87,4e-07,52.8
Cladophialophora_chaetospira_CBS127573,ERR1084895.17989,100.00,29,0,0,379,407,59,87,2e-07,54.7
Cyphellophora_laciniata_CBS190.61_T,ERR1084895.17989,96.43,56,2,0,43,98,32,87,3e-19,93.5
Cyphellophora_laciniata_CBS190.61_T,ERR1084895.61452,94.64,56,3,0,43,98,32,87,1e-17,87.9
Cyphellophora_laciniata_CBS190.61_T,ERR1084895.33139,94.64,56,3,0,43,98,32,87,1e-17,87.9
Cyphellophora_laciniata_CBS190.61_T,ERR1084895.28528,94.64,56,3,0,43,98,32,87,1e-17,87.9
Cyphellophora_laciniata_CBS190.61_T,ERR1084895.19348,94.64,56,3,0,43,98,32,87,1e-17,87.9
Cyphellophora_laciniata_CBS190.61_T,ERR1084895.930,94.64,56,3,0,43,98,32,87,1e-17,87.9
Cyphellophora_laciniata_CBS190.61_T,ERR1084895.61435,100.00,44,0,0,1,44,57,100,6e-16,82.4
Cyphellophora_laciniata_CBS190.61_T,ERR1084895.61178,100.00,44,0,0,1,44,57,100,6e-16,82.4
Cyphellophora_laciniata_CBS190.61_T,ERR1084895.59481,100.00,44,0,0,1,44,57,100,6e-16,82.4
Cyphellophora_laciniata_CBS190.61_T,ERR1084895.59360,100.00,44,0,0,1,44,57,100,6e-16,82.4
Cyphellophora_laciniata_CBS190.61_T,ERR1084895.59343,100.00,44,0,0,1,44,57,100,6e-16,82.4
Cyphellophora_laciniata_CBS190.61_T,ERR1084895.58654,100.00,44,0,0,1,44,57,100,6e-16,82.4
Cyphellophora_laciniata_CBS190.61_T,ERR1084895.57150,92.86,56,4,0,43,98,32,87,6e-16,82.4
Cyphellophora_laciniata_CBS190.61_T,ERR1084895.53117,100.00,44,0,0,1,44,57,100,6e-16,82.4
Cyphellophora_laciniata_CBS190.61_T,ERR1084895.50643,100.00,44,0,0,1,44,57,100,6e-16,82.4
Cyphellophora_laciniata_CBS190.61_T,ERR1084895.50403,100.00,44,0,0,1,44,57,100,6e-16,82.4
Cyphellophora_laciniata_CBS190.61_T,ERR1084895.50368,100.00,44,0,0,1,44,57,100,6e-16,82.4
Cyphellophora_laciniata_CBS190.61_T,ERR1084895.45838,100.00,44,0,0,1,44,57,100,6e-16,82.4
Cyphellophora_laciniata_CBS190.61_T,ERR1084895.45640,100.00,44,0,0,1,44,57,100,6e-16,82.4
Cyphellophora_laciniata_CBS190.61_T,ERR1084895.44782,100.00,44,0,0,1,44,57,100,6e-16,82.4
Cyphellophora_laciniata_CBS190.61_T,ERR1084895.42848,100.00,44,0,0,1,44,57,100,6e-16,82.4
Cyphellophora_laciniata_CBS190.61_T,ERR1084895.41579,100.00,44,0,0,1,44,57,100,6e-16,82.4
Cyphellophora_laciniata_CBS190.61_T,ERR1084895.41449,100.00,44,0,0,1,44,57,100,6e-16,82.4
Cyphellophora_laciniata_CBS190.61_T,ERR1084895.39573,100.00,44,0,0,1,44,57,100,6e-16,82.4
Cyphellophora_laciniata_CBS190.61_T,ERR1084895.39388,100.00,44,0,0,1,44,57,100,6e-16,82.4
Cyphellophora_laciniata_CBS190.61_T,ERR1084895.39350,100.00,44,0,0,1,44,57,100,6e-16,82.4
Cyphellophora_laciniata_CBS190.61_T,ERR1084895.38277,100.00,44,0,0,1,44,57,100,6e-16,82.4
Cyphellophora_laciniata_CBS190.61_T,ERR1084895.37829,100.00,44,0,0,1,44,57,100,6e-16,82.4
Cyphellophora_laciniata_CBS190.61_T,ERR1084895.35941,100.00,44,0,0,1,44,57,100,6e-16,82.4
Cyphellophora_laciniata_CBS190.61_T,ERR1084895.35518,100.00,44,0,0,1,44,57,100,6e-16,82.4
Cyphellophora_laciniata_CBS190.61_T,ERR1084895.34224,100.00,44,0,0,1,44,57,100,6e-16,82.4
Cyphellophora_laciniata_CBS190.61_T,ERR1084895.33766,100.00,44,0,0,1,44,57,100,6e-16,82.4
Cyphellophora_laciniata_CBS190.61_T,ERR1084895.33595,100.00,44,0,0,1,44,57,100,6e-16,82.4
Cyphellophora_laciniata_CBS190.61_T,ERR1084895.33356,100.00,44,0,0,1,44,57,100,6e-16,82.4
Cyphellophora_laciniata_CBS190.61_T,ERR1084895.31677,100.00,44,0,0,1,44,57,100,6e-16,82.4
Cyphellophora_laciniata_CBS190.61_T,ERR1084895.31299,100.00,44,0,0,1,44,57,100,6e-16,82.4
Cyphellophora_laciniata_CBS190.61_T,ERR1084895.29702,100.00,44,0,0,1,44,57,100,6e-16,82.4
Cyphellophora_laciniata_CBS190.61_T,ERR1084895.28272,100.00,44,0,0,1,44,57,100,6e-16,82.4
Cyphellophora_laciniata_CBS190.61_T,ERR1084895.27726,100.00,44,0,0,1,44,57,100,6e-16,82.4
Cyphellophora_laciniata_CBS190.61_T,ERR1084895.23996,100.00,44,0,0,1,44,57,100,6e-16,82.4
Cyphellophora_laciniata_CBS190.61_T,ERR1084895.19923,100.00,44,0,0,1,44,57,100,6e-16,82.4
Cyphellophora_laciniata_CBS190.61_T,ERR1084895.19332,100.00,44,0,0,1,44,57,100,6e-16,82.4
Cyphellophora_laciniata_CBS190.61_T,ERR1084895.17779,100.00,44,0,0,1,44,57,100,6e-16,82.4
Cyphellophora_laciniata_CBS190.61_T,ERR1084895.17548,100.00,44,0,0,1,44,57,100,6e-16,82.4
Cyphellophora_laciniata_CBS190.61_T,ERR1084895.16218,100.00,44,0,0,1,44,57,100,6e-16,82.4
Cyphellophora_laciniata_CBS190.61_T,ERR1084895.10509,100.00,44,0,0,1,44,57,100,6e-16,82.4
Cyphellophora_laciniata_CBS190.61_T,ERR1084895.10131,100.00,44,0,0,1,44,57,100,6e-16,82.4
Cyphellophora_laciniata_CBS190.61_T,ERR1084895.8703,100.00,44,0,0,1,44,57,100,6e-16,82.4
Cyphellophora_laciniata_CBS190.61_T,ERR1084895.7674,100.00,44,0,0,1,44,57,100,6e-16,82.4
Cyphellophora_laciniata_CBS190.61_T,ERR1084895.7673,100.00,44,0,0,1,44,57,100,6e-16,82.4
Cyphellophora_laciniata_CBS190.61_T,ERR1084895.7143,100.00,44,0,0,1,44,57,100,6e-16,82.4
Cyphellophora_laciniata_CBS190.61_T,ERR1084895.4941,100.00,44,0,0,1,44,57,100,6e-16,82.4
Cyphellophora_laciniata_CBS190.61_T,ERR1084895.4209,100.00,44,0,0,1,44,57,100,6e-16,82.4
Cyphellophora_laciniata_CBS190.61_T,ERR1084895.3466,100.00,44,0,0,1,44,57,100,6e-16,82.4
Cyphellophora_laciniata_CBS190.61_T,ERR1084895.64048,97.78,45,1,0,43,87,55,99,7e-15,78.7
Cyphellophora_laciniata_CBS190.61_T,ERR1084895.63693,97.78,45,1,0,43,87,55,99,7e-15,78.7
Cyphellophora_laciniata_CBS190.61_T,ERR1084895.63569,97.78,45,1,0,43,87,55,99,7e-15,78.7
Cyphellophora_laciniata_CBS190.61_T,ERR1084895.63429,97.78,45,1,0,43,87,55,99,7e-15,78.7
Cyphellophora_laciniata_CBS190.61_T,ERR1084895.63370,97.78,45,1,0,43,87,55,99,7e-15,78.7
Cyphellophora_laciniata_CBS190.61_T,ERR1084895.63136,97.78,45,1,0,43,87,55,99,7e-15,78.7
Cyphellophora_laciniata_CBS190.61_T,ERR1084895.62487,97.78,45,1,0,43,87,55,99,7e-15,78.7
Cyphellophora_laciniata_CBS190.61_T,ERR1084895.61475,97.78,45,1,0,43,87,55,99,7e-15,78.7
Cyphellophora_laciniata_CBS190.61_T,ERR1084895.58930,97.78,45,1,0,43,87,55,99,7e-15,78.7
Cyphellophora_laciniata_CBS190.61_T,ERR1084895.57058,97.78,45,1,0,43,87,55,99,7e-15,78.7
Cyphellophora_laciniata_CBS190.61_T,ERR1084895.56938,97.78,45,1,0,43,87,55,99,7e-15,78.7
Cyphellophora_laciniata_CBS190.61_T,ERR1084895.55952,97.78,45,1,0,43,87,55,99,7e-15,78.7
Cyphellophora_laciniata_CBS190.61_T,ERR1084895.55107,97.78,45,1,0,43,87,55,99,7e-15,78.7
Cyphellophora_laciniata_CBS190.61_T,ERR1084895.55026,97.78,45,1,0,43,87,55,99,7e-15,78.7
Cyphellophora_laciniata_CBS190.61_T,ERR1084895.52321,97.78,45,1,0,43,87,55,99,7e-15,78.7
Cyphellophora_laciniata_CBS190.61_T,ERR1084895.52004,97.78,45,1,0,43,87,55,99,7e-15,78.7
Cyphellophora_laciniata_CBS190.61_T,ERR1084895.51735,97.78,45,1,0,43,87,55,99,7e-15,78.7
Cyphellophora_laciniata_CBS190.61_T,ERR1084895.51329,97.78,45,1,0,43,87,55,99,7e-15,78.7
Cyphellophora_laciniata_CBS190.61_T,ERR1084895.49959,97.78,45,1,0,43,87,55,99,7e-15,78.7
Cyphellophora_laciniata_CBS190.61_T,ERR1084895.49831,97.78,45,1,0,43,87,55,99,7e-15,78.7
Cyphellophora_laciniata_CBS190.61_T,ERR1084895.49611,97.78,45,1,0,43,87,55,99,7e-15,78.7
Cyphellophora_laciniata_CBS190.61_T,ERR1084895.49464,97.78,45,1,0,43,87,55,99,7e-15,78.7
Cyphellophora_laciniata_CBS190.61_T,ERR1084895.49437,97.78,45,1,0,43,87,55,99,7e-15,78.7
Cyphellophora_laciniata_CBS190.61_T,ERR1084895.49400,97.78,45,1,0,43,87,55,99,7e-15,78.7
Cyphellophora_laciniata_CBS190.61_T,ERR1084895.49358,97.78,45,1,0,43,87,55,99,7e-15,78.7
Cyphellophora_laciniata_CBS190.61_T,ERR1084895.48756,97.78,45,1,0,43,87,55,99,7e-15,78.7
Cyphellophora_laciniata_CBS190.61_T,ERR1084895.47944,97.78,45,1,0,43,87,55,99,7e-15,78.7
Cyphellophora_laciniata_CBS190.61_T,ERR1084895.47793,97.78,45,1,0,43,87,55,99,7e-15,78.7
Cyphellophora_laciniata_CBS190.61_T,ERR1084895.46893,97.78,45,1,0,43,87,55,99,7e-15,78.7
Cyphellophora_laciniata_CBS190.61_T,ERR1084895.44914,97.78,45,1,0,43,87,55,99,7e-15,78.7
Cyphellophora_laciniata_CBS190.61_T,ERR1084895.44574,97.78,45,1,0,43,87,55,99,7e-15,78.7
Cyphellophora_laciniata_CBS190.61_T,ERR1084895.43115,97.78,45,1,0,43,87,55,99,7e-15,78.7
Cyphellophora_laciniata_CBS190.61_T,ERR1084895.42730,97.78,45,1,0,43,87,55,99,7e-15,78.7
Cyphellophora_laciniata_CBS190.61_T,ERR1084895.40380,97.78,45,1,0,43,87,55,99,7e-15,78.7
Cyphellophora_laciniata_CBS190.61_T,ERR1084895.39748,97.78,45,1,0,43,87,55,99,7e-15,78.7
Cyphellophora_laciniata_CBS190.61_T,ERR1084895.38804,97.78,45,1,0,43,87,55,99,7e-15,78.7
Cyphellophora_laciniata_CBS190.61_T,ERR1084895.36548,97.78,45,1,0,43,87,55,99,7e-15,78.7
Cyphellophora_laciniata_CBS190.61_T,ERR1084895.35851,97.78,45,1,0,43,87,55,99,7e-15,78.7
Cyphellophora_laciniata_CBS190.61_T,ERR1084895.33899,97.78,45,1,0,43,87,55,99,7e-15,78.7
Cyphellophora_laciniata_CBS190.61_T,ERR1084895.29874,97.78,45,1,0,43,87,55,99,7e-15,78.7
Cyphellophora_laciniata_CBS190.61_T,ERR1084895.29548,97.78,45,1,0,43,87,55,99,7e-15,78.7
Cyphellophora_laciniata_CBS190.61_T,ERR1084895.28895,97.78,45,1,0,43,87,55,99,7e-15,78.7
Cyphellophora_laciniata_CBS190.61_T,ERR1084895.28534,97.78,45,1,0,43,87,55,99,7e-15,78.7
Cyphellophora_laciniata_CBS190.61_T,ERR1084895.26501,97.78,45,1,0,43,87,55,99,7e-15,78.7
Cyphellophora_laciniata_CBS190.61_T,ERR1084895.22799,97.78,45,1,0,43,87,55,99,7e-15,78.7
Cyphellophora_laciniata_CBS190.61_T,ERR1084895.22660,97.78,45,1,0,43,87,55,99,7e-15,78.7
Cyphellophora_laciniata_CBS190.61_T,ERR1084895.22395,97.78,45,1,0,43,87,55,99,7e-15,78.7
Cyphellophora_laciniata_CBS190.61_T,ERR1084895.19652,97.78,45,1,0,43,87,55,99,7e-15,78.7
Cyphellophora_laciniata_CBS190.61_T,ERR1084895.16708,97.78,45,1,0,43,87,55,99,7e-15,78.7
Cyphellophora_laciniata_CBS190.61_T,ERR1084895.15996,97.78,45,1,0,43,87,55,99,7e-15,78.7
Cyphellophora_laciniata_CBS190.61_T,ERR1084895.13615,97.78,45,1,0,43,87,55,99,7e-15,78.7
Cyphellophora_laciniata_CBS190.61_T,ERR1084895.13381,97.78,45,1,0,43,87,55,99,7e-15,78.7
Cyphellophora_laciniata_CBS190.61_T,ERR1084895.11761,97.78,45,1,0,43,87,55,99,7e-15,78.7
Cyphellophora_laciniata_CBS190.61_T,ERR1084895.11438,97.78,45,1,0,43,87,55,99,7e-15,78.7
Cyphellophora_laciniata_CBS190.61_T,ERR1084895.11048,97.78,45,1,0,43,87,55,99,7e-15,78.7
Cyphellophora_laciniata_CBS190.61_T,ERR1084895.7185,97.78,45,1,0,43,87,55,99,7e-15,78.7
Cyphellophora_laciniata_CBS190.61_T,ERR1084895.1014,97.78,45,1,0,43,87,55,99,7e-15,78.7
Cyphellophora_laciniata_CBS190.61_T,ERR1084895.1001,97.78,45,1,0,43,87,55,99,7e-15,78.7
Cyphellophora_laciniata_CBS190.61_T,ERR1084895.63134,97.73,44,1,0,1,44,57,100,3e-14,76.8
Cyphellophora_laciniata_CBS190.61_T,ERR1084895.62728,97.73,44,1,0,1,44,57,100,3e-14,76.8
Cyphellophora_laciniata_CBS190.61_T,ERR1084895.58584,97.73,44,1,0,1,44,57,100,3e-14,76.8
Cyphellophora_laciniata_CBS190.61_T,ERR1084895.57050,97.73,44,1,0,1,44,57,100,3e-14,76.8
Cyphellophora_laciniata_CBS190.61_T,ERR1084895.56583,97.73,44,1,0,1,44,57,100,3e-14,76.8
Cyphellophora_laciniata_CBS190.61_T,ERR1084895.55646,97.73,44,1,0,1,44,57,100,3e-14,76.8
Cyphellophora_laciniata_CBS190.61_T,ERR1084895.54241,97.73,44,1,0,1,44,57,100,3e-14,76.8
Cyphellophora_laciniata_CBS190.61_T,ERR1084895.50799,97.73,44,1,0,1,44,57,100,3e-14,76.8
Cyphellophora_laciniata_CBS190.61_T,ERR1084895.50791,97.73,44,1,0,1,44,57,100,3e-14,76.8
Cyphellophora_laciniata_CBS190.61_T,ERR1084895.50632,97.73,44,1,0,1,44,57,100,3e-14,76.8
Cyphellophora_laciniata_CBS190.61_T,ERR1084895.49192,97.73,44,1,0,1,44,57,100,3e-14,76.8
Cyphellophora_laciniata_CBS190.61_T,ERR1084895.48185,97.73,44,1,0,1,44,57,100,3e-14,76.8
Cyphellophora_laciniata_CBS190.61_T,ERR1084895.44862,97.73,44,1,0,1,44,57,100,3e-14,76.8
Cyphellophora_laciniata_CBS190.61_T,ERR1084895.41412,97.73,44,1,0,1,44,57,100,3e-14,76.8
Cyphellophora_laciniata_CBS190.61_T,ERR1084895.39144,97.73,44,1,0,1,44,57,100,3e-14,76.8
Cyphellophora_laciniata_CBS190.61_T,ERR1084895.38195,97.73,44,1,0,1,44,57,100,3e-14,76.8
Cyphellophora_laciniata_CBS190.61_T,ERR1084895.36266,97.73,44,1,0,1,44,57,100,3e-14,76.8
Cyphellophora_laciniata_CBS190.61_T,ERR1084895.35730,97.73,44,1,0,1,44,57,100,3e-14,76.8
Cyphellophora_laciniata_CBS190.61_T,ERR1084895.33892,97.73,44,1,0,1,44,57,100,3e-14,76.8
Cyphellophora_laciniata_CBS190.61_T,ERR1084895.32868,97.73,44,1,0,1,44,57,100,3e-14,76.8
Cyphellophora_laciniata_CBS190.61_T,ERR1084895.32132,97.73,44,1,0,1,44,57,100,3e-14,76.8
Cyphellophora_laciniata_CBS190.61_T,ERR1084895.31416,97.73,44,1,0,1,44,57,100,3e-14,76.8
Cyphellophora_laciniata_CBS190.61_T,ERR1084895.28849,97.73,44,1,0,1,44,57,100,3e-14,76.8
Cyphellophora_laciniata_CBS190.61_T,ERR1084895.28593,97.73,44,1,0,1,44,57,100,3e-14,76.8
Cyphellophora_laciniata_CBS190.61_T,ERR1084895.28189,97.73,44,1,0,1,44,57,100,3e-14,76.8
Cyphellophora_laciniata_CBS190.61_T,ERR1084895.27826,97.73,44,1,0,1,44,57,100,3e-14,76.8
Cyphellophora_laciniata_CBS190.61_T,ERR1084895.27780,97.73,44,1,0,1,44,57,100,3e-14,76.8
Cyphellophora_laciniata_CBS190.61_T,ERR1084895.27774,97.73,44,1,0,1,44,57,100,3e-14,76.8
Cyphellophora_laciniata_CBS190.61_T,ERR1084895.25484,97.73,44,1,0,1,44,57,100,3e-14,76.8
Cyphellophora_laciniata_CBS190.61_T,ERR1084895.25349,97.73,44,1,0,1,44,57,100,3e-14,76.8
Cyphellophora_laciniata_CBS190.61_T,ERR1084895.25121,97.73,44,1,0,1,44,57,100,3e-14,76.8
Cyphellophora_laciniata_CBS190.61_T,ERR1084895.22433,97.73,44,1,0,1,44,57,100,3e-14,76.8
Cyphellophora_laciniata_CBS190.61_T,ERR1084895.20186,97.73,44,1,0,1,44,57,100,3e-14,76.8
Cyphellophora_laciniata_CBS190.61_T,ERR1084895.19431,97.73,44,1,0,1,44,57,100,3e-14,76.8
Cyphellophora_laciniata_CBS190.61_T,ERR1084895.18292,97.73,44,1,0,1,44,57,100,3e-14,76.8
Cyphellophora_laciniata_CBS190.61_T,ERR1084895.17862,97.73,44,1,0,1,44,57,100,3e-14,76.8
Cyphellophora_laciniata_CBS190.61_T,ERR1084895.16288,97.73,44,1,0,1,44,57,100,3e-14,76.8
Cyphellophora_laciniata_CBS190.61_T,ERR1084895.13831,97.73,44,1,0,1,44,57,100,3e-14,76.8
Cyphellophora_laciniata_CBS190.61_T,ERR1084895.13216,97.73,44,1,0,1,44,57,100,3e-14,76.8
Cyphellophora_laciniata_CBS190.61_T,ERR1084895.13097,97.73,44,1,0,1,44,57,100,3e-14,76.8
Cyphellophora_laciniata_CBS190.61_T,ERR1084895.12265,97.73,44,1,0,1,44,57,100,3e-14,76.8
Cyphellophora_laciniata_CBS190.61_T,ERR1084895.10419,97.73,44,1,0,1,44,57,100,3e-14,76.8
Cyphellophora_laciniata_CBS190.61_T,ERR1084895.8325,97.73,44,1,0,1,44,57,100,3e-14,76.8
Cyphellophora_laciniata_CBS190.61_T,ERR1084895.4581,97.73,44,1,0,1,44,57,100,3e-14,76.8
Cyphellophora_laciniata_CBS190.61_T,ERR1084895.3733,97.73,44,1,0,1,44,57,100,3e-14,76.8
Cyphellophora_laciniata_CBS190.61_T,ERR1084895.3612,97.73,44,1,0,1,44,57,100,3e-14,76.8
Cyphellophora_laciniata_CBS190.61_T,ERR1084895.3268,97.73,44,1,0,1,44,57,100,3e-14,76.8
Cyphellophora_laciniata_CBS190.61_T,ERR1084895.3245,97.73,44,1,0,1,44,57,100,3e-14,76.8
Cyphellophora_laciniata_CBS190.61_T,ERR1084895.3060,97.73,44,1,0,1,44,57,100,3e-14,76.8
Cyphellophora_laciniata_CBS190.61_T,ERR1084895.2818,97.73,44,1,0,1,44,57,100,3e-14,76.8
Cyphellophora_laciniata_CBS190.61_T,ERR1084895.1632,97.73,44,1,0,1,44,57,100,3e-14,76.8
Cyphellophora_laciniata_CBS190.61_T,ERR1084895.590,97.73,44,1,0,1,44,57,100,3e-14,76.8
Cyphellophora_laciniata_CBS190.61_T,ERR1084895.45759,95.56,45,2,0,43,87,55,99,3e-13,73.1
Cyphellophora_laciniata_CBS190.61_T,ERR1084895.29757,95.56,45,2,0,43,87,55,99,3e-13,73.1
Cyphellophora_laciniata_CBS190.61_T,ERR1084895.14434,95.56,45,2,0,43,87,55,99,3e-13,73.1
Cyphellophora_laciniata_CBS190.61_T,ERR1084895.8231,100.00,39,0,0,1,39,57,95,3e-13,73.1
Cyphellophora_laciniata_CBS190.61_T,ERR1084895.6574,95.56,45,2,0,43,87,55,99,3e-13,73.1
Cyphellophora_laciniata_CBS190.61_T,ERR1084895.4840,95.56,45,2,0,43,87,55,99,3e-13,73.1
Cyphellophora_laciniata_CBS190.61_T,ERR1084895.3498,95.56,45,2,0,43,87,55,99,3e-13,73.1
Cyphellophora_laciniata_CBS190.61_T,ERR1084895.64357,95.45,44,2,0,1,44,57,100,1e-12,71.3
Cyphellophora_laciniata_CBS190.61_T,ERR1084895.63994,95.45,44,2,0,1,44,57,100,1e-12,71.3
Cyphellophora_laciniata_CBS190.61_T,ERR1084895.61798,95.45,44,2,0,1,44,57,100,1e-12,71.3
Cyphellophora_laciniata_CBS190.61_T,ERR1084895.61483,95.45,44,2,0,1,44,57,100,1e-12,71.3
Cyphellophora_laciniata_CBS190.61_T,ERR1084895.60534,95.45,44,2,0,1,44,57,100,1e-12,71.3
Cyphellophora_laciniata_CBS190.61_T,ERR1084895.59974,95.45,44,2,0,1,44,57,100,1e-12,71.3
Cyphellophora_laciniata_CBS190.61_T,ERR1084895.58571,95.45,44,2,0,1,44,57,100,1e-12,71.3
Cyphellophora_laciniata_CBS190.61_T,ERR1084895.57393,95.45,44,2,0,1,44,57,100,1e-12,71.3
Cyphellophora_laciniata_CBS190.61_T,ERR1084895.56358,95.45,44,2,0,1,44,57,100,1e-12,71.3
Cyphellophora_laciniata_CBS190.61_T,ERR1084895.54867,95.45,44,2,0,1,44,57,100,1e-12,71.3
Cyphellophora_laciniata_CBS190.61_T,ERR1084895.50779,95.45,44,2,0,1,44,57,100,1e-12,71.3
Cyphellophora_laciniata_CBS190.61_T,ERR1084895.50029,95.45,44,2,0,1,44,57,100,1e-12,71.3
Cyphellophora_laciniata_CBS190.61_T,ERR1084895.49602,95.45,44,2,0,1,44,57,100,1e-12,71.3
Cyphellophora_laciniata_CBS190.61_T,ERR1084895.48881,95.45,44,2,0,1,44,57,100,1e-12,71.3
Cyphellophora_laciniata_CBS190.61_T,ERR1084895.47939,95.45,44,2,0,1,44,57,100,1e-12,71.3
Cyphellophora_laciniata_CBS190.61_T,ERR1084895.47731,95.45,44,2,0,1,44,57,100,1e-12,71.3
Cyphellophora_laciniata_CBS190.61_T,ERR1084895.45627,95.45,44,2,0,1,44,57,100,1e-12,71.3
Cyphellophora_laciniata_CBS190.61_T,ERR1084895.42580,95.45,44,2,0,1,44,57,100,1e-12,71.3
Cyphellophora_laciniata_CBS190.61_T,ERR1084895.41126,95.45,44,2,0,1,44,57,100,1e-12,71.3
Cyphellophora_laciniata_CBS190.61_T,ERR1084895.40234,95.45,44,2,0,1,44,57,100,1e-12,71.3
Cyphellophora_laciniata_CBS190.61_T,ERR1084895.40163,95.45,44,2,0,1,44,57,100,1e-12,71.3
Cyphellophora_laciniata_CBS190.61_T,ERR1084895.39271,95.45,44,2,0,1,44,57,100,1e-12,71.3
Cyphellophora_laciniata_CBS190.61_T,ERR1084895.39041,95.45,44,2,0,1,44,57,100,1e-12,71.3
Cyphellophora_laciniata_CBS190.61_T,ERR1084895.39040,95.45,44,2,0,1,44,57,100,1e-12,71.3
Cyphellophora_laciniata_CBS190.61_T,ERR1084895.38824,95.45,44,2,0,1,44,57,100,1e-12,71.3
Cyphellophora_laciniata_CBS190.61_T,ERR1084895.38340,95.45,44,2,0,1,44,57,100,1e-12,71.3
Cyphellophora_laciniata_CBS190.61_T,ERR1084895.37465,95.45,44,2,0,1,44,57,100,1e-12,71.3
Cyphellophora_laciniata_CBS190.61_T,ERR1084895.33253,95.45,44,2,0,1,44,57,100,1e-12,71.3
Cyphellophora_laciniata_CBS190.61_T,ERR1084895.32278,95.45,44,2,0,1,44,57,100,1e-12,71.3
Cyphellophora_laciniata_CBS190.61_T,ERR1084895.27430,95.45,44,2,0,1,44,57,100,1e-12,71.3
Cyphellophora_laciniata_CBS190.61_T,ERR1084895.24792,95.45,44,2,0,1,44,57,100,1e-12,71.3
Cyphellophora_laciniata_CBS190.61_T,ERR1084895.24791,95.45,44,2,0,1,44,57,100,1e-12,71.3
Cyphellophora_laciniata_CBS190.61_T,ERR1084895.24539,95.45,44,2,0,1,44,57,100,1e-12,71.3
Cyphellophora_laciniata_CBS190.61_T,ERR1084895.23443,95.45,44,2,0,1,44,57,100,1e-12,71.3
Cyphellophora_laciniata_CBS190.61_T,ERR1084895.22740,95.45,44,2,0,1,44,57,100,1e-12,71.3
Cyphellophora_laciniata_CBS190.61_T,ERR1084895.22409,95.45,44,2,0,1,44,57,100,1e-12,71.3
Cyphellophora_laciniata_CBS190.61_T,ERR1084895.20121,95.45,44,2,0,1,44,57,100,1e-12,71.3
Cyphellophora_laciniata_CBS190.61_T,ERR1084895.19721,95.45,44,2,0,1,44,57,100,1e-12,71.3
Cyphellophora_laciniata_CBS190.61_T,ERR1084895.19468,95.45,44,2,0,1,44,57,100,1e-12,71.3
Cyphellophora_laciniata_CBS190.61_T,ERR1084895.18765,95.45,44,2,0,1,44,57,100,1e-12,71.3
Cyphellophora_laciniata_CBS190.61_T,ERR1084895.16705,95.45,44,2,0,1,44,57,100,1e-12,71.3
Cyphellophora_laciniata_CBS190.61_T,ERR1084895.16513,95.45,44,2,0,1,44,57,100,1e-12,71.3
Cyphellophora_laciniata_CBS190.61_T,ERR1084895.16464,95.45,44,2,0,1,44,57,100,1e-12,71.3
Cyphellophora_laciniata_CBS190.61_T,ERR1084895.15979,95.45,44,2,0,1,44,57,100,1e-12,71.3
Cyphellophora_laciniata_CBS190.61_T,ERR1084895.14639,95.45,44,2,0,1,44,57,100,1e-12,71.3
Cyphellophora_laciniata_CBS190.61_T,ERR1084895.13643,95.45,44,2,0,1,44,57,100,1e-12,71.3
Cyphellophora_laciniata_CBS190.61_T,ERR1084895.12944,95.56,45,0,2,1,44,57,100,1e-12,71.3
Cyphellophora_laciniata_CBS190.61_T,ERR1084895.11312,95.45,44,2,0,1,44,57,100,1e-12,71.3
Cyphellophora_laciniata_CBS190.61_T,ERR1084895.10808,95.45,44,2,0,1,44,57,100,1e-12,71.3
Cyphellophora_laciniata_CBS190.61_T,ERR1084895.9128,95.45,44,2,0,1,44,57,100,1e-12,71.3
Cyphellophora_laciniata_CBS190.61_T,ERR1084895.8437,95.45,44,2,0,1,44,57,100,1e-12,71.3
Cyphellophora_laciniata_CBS190.61_T,ERR1084895.7321,95.45,44,2,0,1,44,57,100,1e-12,71.3
Cyphellophora_laciniata_CBS190.61_T,ERR1084895.5991,95.45,44,2,0,1,44,57,100,1e-12,71.3
Cyphellophora_laciniata_CBS190.61_T,ERR1084895.5286,95.45,44,2,0,1,44,57,100,1e-12,71.3
Cyphellophora_laciniata_CBS190.61_T,ERR1084895.4600,95.45,44,2,0,1,44,57,100,1e-12,71.3
Cyphellophora_laciniata_CBS190.61_T,ERR1084895.2731,95.45,44,2,0,1,44,57,100,1e-12,71.3
Cyphellophora_laciniata_CBS190.61_T,ERR1084895.34009,95.12,41,2,0,4,44,60,100,6e-11,65.8
