Exophiala_salmonis_CBS157.67_T,ERR1084898.79121,100.00,98,0,0,1,98,3,100,1e-45,182
Exophiala_salmonis_CBS157.67_T,ERR1084898.67556,100.00,98,0,0,1,98,3,100,1e-45,182
Exophiala_salmonis_CBS157.67_T,ERR1084898.55214,100.00,98,0,0,1,98,3,100,1e-45,182
Exophiala_salmonis_CBS157.67_T,ERR1084898.54289,100.00,98,0,0,1,98,3,100,1e-45,182
Exophiala_salmonis_CBS157.67_T,ERR1084898.45309,100.00,98,0,0,1,98,3,100,1e-45,182
Exophiala_salmonis_CBS157.67_T,ERR1084898.39976,100.00,98,0,0,1,98,3,100,1e-45,182
Exophiala_salmonis_CBS157.67_T,ERR1084898.16463,100.00,98,0,0,1,98,3,100,1e-45,182
Exophiala_salmonis_CBS157.67_T,ERR1084898.72832,98.98,98,1,0,1,98,3,100,5e-44,176
Exophiala_salmonis_CBS157.67_T,ERR1084898.55867,98.98,98,1,0,1,98,3,100,5e-44,176
Exophiala_salmonis_CBS157.67_T,ERR1084898.24014,98.98,98,1,0,1,98,3,100,5e-44,176
Exophiala_salmonis_CBS157.67_T,ERR1084898.24013,98.98,98,1,0,1,98,3,100,5e-44,176
Exophiala_salmonis_CBS157.67_T,ERR1084898.14265,98.98,98,1,0,1,98,3,100,5e-44,176
Exophiala_salmonis_CBS157.67_T,ERR1084898.132048,97.96,98,2,0,1,98,3,100,3e-42,171
Exophiala_salmonis_CBS157.67_T,ERR1084898.32034,97.96,98,2,0,1,98,3,100,3e-42,171
Exophiala_salmonis_CBS157.67_T,ERR1084898.20153,97.96,98,2,0,1,98,3,100,3e-42,171
Exophiala_salmonis_CBS157.67_T,ERR1084898.70554,97.92,96,2,0,3,98,5,100,3e-41,167
Exophiala_salmonis_CBS157.67_T,ERR1084898.125653,95.92,98,4,0,1,98,3,100,5e-39,159
Exophiala_salmonis_CBS157.67_T,ERR1084898.111770,95.92,98,4,0,1,98,3,100,5e-39,159
Exophiala_salmonis_CBS157.67_T,ERR1084898.67698,95.92,98,4,0,1,98,3,100,5e-39,159
Exophiala_salmonis_CBS157.67_T,ERR1084898.19181,95.92,98,4,0,1,98,3,100,5e-39,159
Exophiala_salmonis_CBS157.67_T,ERR1084898.2723,95.92,98,4,0,1,98,3,100,5e-39,159
Exophiala_salmonis_CBS157.67_T,ERR1084898.2668,95.96,99,2,2,1,98,3,100,5e-39,159
Exophiala_salmonis_CBS157.67_T,ERR1084898.124553,94.90,98,5,0,1,98,3,100,3e-37,154
Exophiala_salmonis_CBS157.67_T,ERR1084898.120796,94.90,98,5,0,1,98,3,100,3e-37,154
Exophiala_salmonis_CBS157.67_T,ERR1084898.117894,94.90,98,5,0,1,98,3,100,3e-37,154
Exophiala_salmonis_CBS157.67_T,ERR1084898.105873,94.90,98,5,0,1,98,3,100,3e-37,154
Exophiala_salmonis_CBS157.67_T,ERR1084898.103117,94.90,98,5,0,1,98,3,100,3e-37,154
Exophiala_salmonis_CBS157.67_T,ERR1084898.90883,94.90,98,5,0,1,98,3,100,3e-37,154
Exophiala_salmonis_CBS157.67_T,ERR1084898.90724,94.90,98,5,0,1,98,3,100,3e-37,154
Exophiala_salmonis_CBS157.67_T,ERR1084898.89274,94.90,98,5,0,1,98,3,100,3e-37,154
Exophiala_salmonis_CBS157.67_T,ERR1084898.88582,94.90,98,5,0,1,98,3,100,3e-37,154
Exophiala_salmonis_CBS157.67_T,ERR1084898.86693,94.90,98,5,0,1,98,3,100,3e-37,154
Exophiala_salmonis_CBS157.67_T,ERR1084898.75244,94.90,98,5,0,1,98,3,100,3e-37,154
Exophiala_salmonis_CBS157.67_T,ERR1084898.71519,94.90,98,5,0,1,98,3,100,3e-37,154
Exophiala_salmonis_CBS157.67_T,ERR1084898.57146,94.90,98,5,0,1,98,3,100,3e-37,154
Exophiala_salmonis_CBS157.67_T,ERR1084898.24447,94.90,98,5,0,1,98,3,100,3e-37,154
Exophiala_salmonis_CBS157.67_T,ERR1084898.13385,94.90,98,5,0,1,98,3,100,3e-37,154
Exophiala_salmonis_CBS157.67_T,ERR1084898.78,94.90,98,5,0,1,98,3,100,3e-37,154
Exophiala_salmonis_CBS157.67_T,ERR1084898.124869,93.94,99,4,2,1,98,3,100,1e-35,148
Exophiala_salmonis_CBS157.67_T,ERR1084898.122939,93.88,98,6,0,1,98,3,100,1e-35,148
Exophiala_salmonis_CBS157.67_T,ERR1084898.120319,93.88,98,6,0,1,98,3,100,1e-35,148
Exophiala_salmonis_CBS157.67_T,ERR1084898.111166,93.88,98,6,0,1,98,3,100,1e-35,148
Exophiala_salmonis_CBS157.67_T,ERR1084898.104445,93.94,99,4,2,1,98,3,100,1e-35,148
Exophiala_salmonis_CBS157.67_T,ERR1084898.87757,93.88,98,6,0,1,98,3,100,1e-35,148
Exophiala_salmonis_CBS157.67_T,ERR1084898.86408,93.88,98,6,0,1,98,3,100,1e-35,148
Exophiala_salmonis_CBS157.67_T,ERR1084898.71523,93.88,98,6,0,1,98,3,100,1e-35,148
Exophiala_salmonis_CBS157.67_T,ERR1084898.69325,93.88,98,6,0,1,98,3,100,1e-35,148
Exophiala_salmonis_CBS157.67_T,ERR1084898.59610,93.88,98,6,0,1,98,3,100,1e-35,148
Exophiala_salmonis_CBS157.67_T,ERR1084898.57563,93.88,98,6,0,1,98,3,100,1e-35,148
Exophiala_salmonis_CBS157.67_T,ERR1084898.54952,93.94,99,4,2,1,98,3,100,1e-35,148
Exophiala_salmonis_CBS157.67_T,ERR1084898.54088,93.94,99,4,2,1,98,3,100,1e-35,148
Exophiala_salmonis_CBS157.67_T,ERR1084898.53091,93.88,98,6,0,1,98,3,100,1e-35,148
Exophiala_salmonis_CBS157.67_T,ERR1084898.48555,93.94,99,4,2,1,98,3,100,1e-35,148
Exophiala_salmonis_CBS157.67_T,ERR1084898.14034,93.94,99,4,2,1,98,3,100,1e-35,148
Exophiala_salmonis_CBS157.67_T,ERR1084898.3622,93.88,98,6,0,1,98,3,100,1e-35,148
Exophiala_salmonis_CBS157.67_T,ERR1084898.87813,92.86,98,7,0,1,98,3,100,6e-34,143
Exophiala_salmonis_CBS157.67_T,ERR1084898.65716,92.93,99,5,2,1,98,3,100,6e-34,143
Exophiala_salmonis_CBS157.67_T,ERR1084898.13839,92.86,98,7,0,1,98,3,100,6e-34,143
Exophiala_salmonis_CBS157.67_T,ERR1084898.131595,91.84,98,8,0,1,98,3,100,3e-32,137
Exophiala_salmonis_CBS157.67_T,ERR1084898.131544,91.84,98,8,0,1,98,3,100,3e-32,137
Exophiala_salmonis_CBS157.67_T,ERR1084898.131033,91.84,98,8,0,1,98,3,100,3e-32,137
Exophiala_salmonis_CBS157.67_T,ERR1084898.124516,91.84,98,8,0,1,98,3,100,3e-32,137
Exophiala_salmonis_CBS157.67_T,ERR1084898.122537,91.84,98,8,0,1,98,3,100,3e-32,137
Exophiala_salmonis_CBS157.67_T,ERR1084898.121809,91.84,98,8,0,1,98,3,100,3e-32,137
Exophiala_salmonis_CBS157.67_T,ERR1084898.121277,91.84,98,8,0,1,98,3,100,3e-32,137
Exophiala_salmonis_CBS157.67_T,ERR1084898.120391,91.84,98,8,0,1,98,3,100,3e-32,137
Exophiala_salmonis_CBS157.67_T,ERR1084898.120274,91.84,98,8,0,1,98,3,100,3e-32,137
Exophiala_salmonis_CBS157.67_T,ERR1084898.119208,91.84,98,8,0,1,98,3,100,3e-32,137
Exophiala_salmonis_CBS157.67_T,ERR1084898.117204,91.84,98,8,0,1,98,3,100,3e-32,137
Exophiala_salmonis_CBS157.67_T,ERR1084898.116672,91.84,98,8,0,1,98,3,100,3e-32,137
Exophiala_salmonis_CBS157.67_T,ERR1084898.114971,91.84,98,8,0,1,98,3,100,3e-32,137
Exophiala_salmonis_CBS157.67_T,ERR1084898.114475,91.84,98,8,0,1,98,3,100,3e-32,137
Exophiala_salmonis_CBS157.67_T,ERR1084898.112060,91.84,98,8,0,1,98,3,100,3e-32,137
Exophiala_salmonis_CBS157.67_T,ERR1084898.111725,91.84,98,8,0,1,98,3,100,3e-32,137
Exophiala_salmonis_CBS157.67_T,ERR1084898.109053,91.84,98,8,0,1,98,3,100,3e-32,137
Exophiala_salmonis_CBS157.67_T,ERR1084898.106948,91.84,98,8,0,1,98,3,100,3e-32,137
Exophiala_salmonis_CBS157.67_T,ERR1084898.106871,91.84,98,8,0,1,98,3,100,3e-32,137
Exophiala_salmonis_CBS157.67_T,ERR1084898.105036,91.84,98,8,0,1,98,3,100,3e-32,137
Exophiala_salmonis_CBS157.67_T,ERR1084898.100471,91.84,98,8,0,1,98,3,100,3e-32,137
Exophiala_salmonis_CBS157.67_T,ERR1084898.99492,91.84,98,8,0,1,98,3,100,3e-32,137
Exophiala_salmonis_CBS157.67_T,ERR1084898.95520,91.84,98,8,0,1,98,3,100,3e-32,137
Exophiala_salmonis_CBS157.67_T,ERR1084898.94601,91.84,98,8,0,1,98,3,100,3e-32,137
Exophiala_salmonis_CBS157.67_T,ERR1084898.91938,91.84,98,8,0,1,98,3,100,3e-32,137
Exophiala_salmonis_CBS157.67_T,ERR1084898.89950,91.84,98,8,0,1,98,3,100,3e-32,137
Exophiala_salmonis_CBS157.67_T,ERR1084898.87975,91.84,98,8,0,1,98,3,100,3e-32,137
Exophiala_salmonis_CBS157.67_T,ERR1084898.86280,91.84,98,8,0,1,98,3,100,3e-32,137
Exophiala_salmonis_CBS157.67_T,ERR1084898.86038,91.84,98,8,0,1,98,3,100,3e-32,137
Exophiala_salmonis_CBS157.67_T,ERR1084898.84640,91.84,98,8,0,1,98,3,100,3e-32,137
Exophiala_salmonis_CBS157.67_T,ERR1084898.82339,91.84,98,8,0,1,98,3,100,3e-32,137
Exophiala_salmonis_CBS157.67_T,ERR1084898.77632,91.84,98,8,0,1,98,3,100,3e-32,137
Exophiala_salmonis_CBS157.67_T,ERR1084898.77251,91.84,98,8,0,1,98,3,100,3e-32,137
Exophiala_salmonis_CBS157.67_T,ERR1084898.77220,91.84,98,8,0,1,98,3,100,3e-32,137
Exophiala_salmonis_CBS157.67_T,ERR1084898.74628,91.84,98,8,0,1,98,3,100,3e-32,137
Exophiala_salmonis_CBS157.67_T,ERR1084898.74187,91.84,98,8,0,1,98,3,100,3e-32,137
Exophiala_salmonis_CBS157.67_T,ERR1084898.72788,91.84,98,8,0,1,98,3,100,3e-32,137
Exophiala_salmonis_CBS157.67_T,ERR1084898.71358,91.84,98,8,0,1,98,3,100,3e-32,137
Exophiala_salmonis_CBS157.67_T,ERR1084898.69452,91.84,98,8,0,1,98,3,100,3e-32,137
Exophiala_salmonis_CBS157.67_T,ERR1084898.69100,91.84,98,8,0,1,98,3,100,3e-32,137
Exophiala_salmonis_CBS157.67_T,ERR1084898.64736,91.84,98,8,0,1,98,3,100,3e-32,137
Exophiala_salmonis_CBS157.67_T,ERR1084898.62684,91.84,98,8,0,1,98,3,100,3e-32,137
Exophiala_salmonis_CBS157.67_T,ERR1084898.61506,91.84,98,8,0,1,98,3,100,3e-32,137
Exophiala_salmonis_CBS157.67_T,ERR1084898.60759,91.84,98,8,0,1,98,3,100,3e-32,137
Exophiala_salmonis_CBS157.67_T,ERR1084898.59849,91.84,98,8,0,1,98,3,100,3e-32,137
Exophiala_salmonis_CBS157.67_T,ERR1084898.56826,91.84,98,8,0,1,98,3,100,3e-32,137
Exophiala_salmonis_CBS157.67_T,ERR1084898.55971,91.84,98,8,0,1,98,3,100,3e-32,137
Exophiala_salmonis_CBS157.67_T,ERR1084898.54369,91.84,98,8,0,1,98,3,100,3e-32,137
Exophiala_salmonis_CBS157.67_T,ERR1084898.53641,91.84,98,8,0,1,98,3,100,3e-32,137
Exophiala_salmonis_CBS157.67_T,ERR1084898.53041,91.84,98,8,0,1,98,3,100,3e-32,137
Exophiala_salmonis_CBS157.67_T,ERR1084898.50618,91.84,98,8,0,1,98,3,100,3e-32,137
Exophiala_salmonis_CBS157.67_T,ERR1084898.50574,91.84,98,8,0,1,98,3,100,3e-32,137
Exophiala_salmonis_CBS157.67_T,ERR1084898.47185,91.84,98,8,0,1,98,3,100,3e-32,137
Exophiala_salmonis_CBS157.67_T,ERR1084898.46775,91.84,98,8,0,1,98,3,100,3e-32,137
Exophiala_salmonis_CBS157.67_T,ERR1084898.45825,91.84,98,8,0,1,98,3,100,3e-32,137
Exophiala_salmonis_CBS157.67_T,ERR1084898.38639,91.84,98,8,0,1,98,3,100,3e-32,137
Exophiala_salmonis_CBS157.67_T,ERR1084898.38230,91.84,98,8,0,1,98,3,100,3e-32,137
Exophiala_salmonis_CBS157.67_T,ERR1084898.36229,91.84,98,8,0,1,98,3,100,3e-32,137
Exophiala_salmonis_CBS157.67_T,ERR1084898.34795,91.84,98,8,0,1,98,3,100,3e-32,137
Exophiala_salmonis_CBS157.67_T,ERR1084898.32896,91.84,98,8,0,1,98,3,100,3e-32,137
Exophiala_salmonis_CBS157.67_T,ERR1084898.31995,91.84,98,8,0,1,98,3,100,3e-32,137
Exophiala_salmonis_CBS157.67_T,ERR1084898.29967,91.84,98,8,0,1,98,3,100,3e-32,137
Exophiala_salmonis_CBS157.67_T,ERR1084898.28827,91.84,98,8,0,1,98,3,100,3e-32,137
Exophiala_salmonis_CBS157.67_T,ERR1084898.27814,91.84,98,8,0,1,98,3,100,3e-32,137
Exophiala_salmonis_CBS157.67_T,ERR1084898.27227,91.84,98,8,0,1,98,3,100,3e-32,137
Exophiala_salmonis_CBS157.67_T,ERR1084898.24976,91.84,98,8,0,1,98,3,100,3e-32,137
Exophiala_salmonis_CBS157.67_T,ERR1084898.20759,91.84,98,8,0,1,98,3,100,3e-32,137
Exophiala_salmonis_CBS157.67_T,ERR1084898.15379,91.84,98,8,0,1,98,3,100,3e-32,137
Exophiala_salmonis_CBS157.67_T,ERR1084898.14813,91.84,98,8,0,1,98,3,100,3e-32,137
Exophiala_salmonis_CBS157.67_T,ERR1084898.12023,91.84,98,8,0,1,98,3,100,3e-32,137
Exophiala_salmonis_CBS157.67_T,ERR1084898.10947,91.84,98,8,0,1,98,3,100,3e-32,137
Exophiala_salmonis_CBS157.67_T,ERR1084898.10745,91.84,98,8,0,1,98,3,100,3e-32,137
Exophiala_salmonis_CBS157.67_T,ERR1084898.9099,91.84,98,8,0,1,98,3,100,3e-32,137
Exophiala_salmonis_CBS157.67_T,ERR1084898.8206,91.84,98,8,0,1,98,3,100,3e-32,137
Exophiala_salmonis_CBS157.67_T,ERR1084898.3578,91.84,98,8,0,1,98,3,100,3e-32,137
Exophiala_salmonis_CBS157.67_T,ERR1084898.3516,91.84,98,8,0,1,98,3,100,3e-32,137
Exophiala_salmonis_CBS157.67_T,ERR1084898.106,91.84,98,8,0,1,98,3,100,3e-32,137
Exophiala_salmonis_CBS157.67_T,ERR1084898.18160,91.67,96,8,0,1,96,3,98,3e-31,134
Exophiala_salmonis_CBS157.67_T,ERR1084898.124644,90.82,98,9,0,1,98,3,100,1e-30,132
Exophiala_salmonis_CBS157.67_T,ERR1084898.112654,90.82,98,9,0,1,98,3,100,1e-30,132
Exophiala_salmonis_CBS157.67_T,ERR1084898.97472,90.82,98,9,0,1,98,3,100,1e-30,132
Exophiala_salmonis_CBS157.67_T,ERR1084898.96554,90.82,98,9,0,1,98,3,100,1e-30,132
Exophiala_salmonis_CBS157.67_T,ERR1084898.93068,90.82,98,9,0,1,98,3,100,1e-30,132
Exophiala_salmonis_CBS157.67_T,ERR1084898.92641,90.82,98,9,0,1,98,3,100,1e-30,132
Exophiala_salmonis_CBS157.67_T,ERR1084898.88445,90.82,98,9,0,1,98,3,100,1e-30,132
Exophiala_salmonis_CBS157.67_T,ERR1084898.67889,90.82,98,9,0,1,98,3,100,1e-30,132
Exophiala_salmonis_CBS157.67_T,ERR1084898.63366,90.82,98,9,0,1,98,3,100,1e-30,132
Exophiala_salmonis_CBS157.67_T,ERR1084898.61362,90.82,98,9,0,1,98,3,100,1e-30,132
Exophiala_salmonis_CBS157.67_T,ERR1084898.57597,90.82,98,9,0,1,98,3,100,1e-30,132
Exophiala_salmonis_CBS157.67_T,ERR1084898.41157,90.82,98,9,0,1,98,3,100,1e-30,132
Exophiala_salmonis_CBS157.67_T,ERR1084898.31010,90.82,98,9,0,1,98,3,100,1e-30,132
Exophiala_salmonis_CBS157.67_T,ERR1084898.17251,90.82,98,9,0,1,98,3,100,1e-30,132
Exophiala_salmonis_CBS157.67_T,ERR1084898.15847,90.82,98,9,0,1,98,3,100,1e-30,132
Exophiala_salmonis_CBS157.67_T,ERR1084898.109213,89.80,98,10,0,1,98,3,100,6e-29,126
Exophiala_salmonis_CBS157.67_T,ERR1084898.44397,89.80,98,10,0,1,98,3,100,6e-29,126
Exophiala_salmonis_CBS157.67_T,ERR1084898.70572,89.00,100,7,4,1,98,3,100,3e-27,121
Exophiala_salmonis_CBS157.67_T,ERR1084898.92831,90.00,90,9,0,1,90,3,92,3e-26,117
Exophiala_salmonis_CBS157.67_T,ERR1084898.130750,87.76,98,12,0,1,98,3,100,1e-25,115
Exophiala_salmonis_CBS157.67_T,ERR1084898.127561,87.76,98,12,0,1,98,3,100,1e-25,115
Exophiala_salmonis_CBS157.67_T,ERR1084898.113214,87.76,98,12,0,1,98,3,100,1e-25,115
Exophiala_salmonis_CBS157.67_T,ERR1084898.112697,88.00,100,8,4,1,98,3,100,1e-25,115
Exophiala_salmonis_CBS157.67_T,ERR1084898.98639,88.00,100,8,4,1,98,3,100,1e-25,115
Exophiala_salmonis_CBS157.67_T,ERR1084898.96340,87.76,98,12,0,1,98,3,100,1e-25,115
Exophiala_salmonis_CBS157.67_T,ERR1084898.94632,87.76,98,12,0,1,98,3,100,1e-25,115
Exophiala_salmonis_CBS157.67_T,ERR1084898.89749,88.00,100,8,4,1,98,3,100,1e-25,115
Exophiala_salmonis_CBS157.67_T,ERR1084898.89065,88.00,100,8,4,1,98,3,100,1e-25,115
Exophiala_salmonis_CBS157.67_T,ERR1084898.85155,87.76,98,12,0,1,98,3,100,1e-25,115
Exophiala_salmonis_CBS157.67_T,ERR1084898.84879,87.76,98,12,0,1,98,3,100,1e-25,115
Exophiala_salmonis_CBS157.67_T,ERR1084898.82572,87.76,98,12,0,1,98,3,100,1e-25,115
Exophiala_salmonis_CBS157.67_T,ERR1084898.77096,87.76,98,12,0,1,98,3,100,1e-25,115
Exophiala_salmonis_CBS157.67_T,ERR1084898.57747,88.00,100,8,4,1,98,3,100,1e-25,115
Exophiala_salmonis_CBS157.67_T,ERR1084898.52510,88.00,100,8,4,1,98,3,100,1e-25,115
Exophiala_salmonis_CBS157.67_T,ERR1084898.50391,88.00,100,8,4,1,98,3,100,1e-25,115
Exophiala_salmonis_CBS157.67_T,ERR1084898.48428,88.00,100,8,4,1,98,3,100,1e-25,115
Exophiala_salmonis_CBS157.67_T,ERR1084898.44830,88.00,100,8,4,1,98,3,100,1e-25,115
Exophiala_salmonis_CBS157.67_T,ERR1084898.36984,87.76,98,12,0,1,98,3,100,1e-25,115
Exophiala_salmonis_CBS157.67_T,ERR1084898.35505,87.76,98,12,0,1,98,3,100,1e-25,115
Exophiala_salmonis_CBS157.67_T,ERR1084898.32045,88.00,100,8,4,1,98,3,100,1e-25,115
Exophiala_salmonis_CBS157.67_T,ERR1084898.32044,88.00,100,8,4,1,98,3,100,1e-25,115
Exophiala_salmonis_CBS157.67_T,ERR1084898.29175,88.00,100,8,4,1,98,3,100,1e-25,115
Exophiala_salmonis_CBS157.67_T,ERR1084898.28780,87.76,98,12,0,1,98,3,100,1e-25,115
Exophiala_salmonis_CBS157.67_T,ERR1084898.28482,87.76,98,12,0,1,98,3,100,1e-25,115
Exophiala_salmonis_CBS157.67_T,ERR1084898.28319,88.00,100,8,4,1,98,3,100,1e-25,115
Exophiala_salmonis_CBS157.67_T,ERR1084898.20286,88.00,100,8,4,1,98,3,100,1e-25,115
Exophiala_salmonis_CBS157.67_T,ERR1084898.12966,88.00,100,8,4,1,98,3,100,1e-25,115
Exophiala_salmonis_CBS157.67_T,ERR1084898.11396,87.76,98,12,0,1,98,3,100,1e-25,115
Exophiala_salmonis_CBS157.67_T,ERR1084898.9974,88.00,100,8,4,1,98,3,100,1e-25,115
Exophiala_salmonis_CBS157.67_T,ERR1084898.8177,87.76,98,12,0,1,98,3,100,1e-25,115
Exophiala_salmonis_CBS157.67_T,ERR1084898.1971,87.76,98,12,0,1,98,3,100,1e-25,115
Exophiala_salmonis_CBS157.67_T,ERR1084898.113654,87.00,100,9,4,1,98,3,100,6e-24,110
Exophiala_salmonis_CBS157.67_T,ERR1084898.104469,86.73,98,13,0,1,98,3,100,6e-24,110
Exophiala_salmonis_CBS157.67_T,ERR1084898.75637,87.00,100,9,4,1,98,3,100,6e-24,110
Exophiala_salmonis_CBS157.67_T,ERR1084898.69855,86.73,98,13,0,1,98,3,100,6e-24,110
Exophiala_salmonis_CBS157.67_T,ERR1084898.46295,87.00,100,9,4,1,98,3,100,6e-24,110
Exophiala_salmonis_CBS157.67_T,ERR1084898.43855,87.00,100,9,4,1,98,3,100,6e-24,110
Exophiala_salmonis_CBS157.67_T,ERR1084898.41839,87.00,100,9,4,1,98,3,100,6e-24,110
Exophiala_salmonis_CBS157.67_T,ERR1084898.28267,86.73,98,13,0,1,98,3,100,6e-24,110
Exophiala_salmonis_CBS157.67_T,ERR1084898.18144,87.00,100,9,4,1,98,3,100,6e-24,110
Exophiala_salmonis_CBS157.67_T,ERR1084898.125205,86.27,102,6,8,1,98,3,100,3e-22,104
Exophiala_salmonis_CBS157.67_T,ERR1084898.118334,86.27,102,6,8,1,98,3,100,3e-22,104
Exophiala_salmonis_CBS157.67_T,ERR1084898.118087,86.14,101,8,6,1,98,3,100,3e-22,104
Exophiala_salmonis_CBS157.67_T,ERR1084898.113408,86.27,102,6,8,1,98,3,100,3e-22,104
Exophiala_salmonis_CBS157.67_T,ERR1084898.111949,86.27,102,6,8,1,98,3,100,3e-22,104
Exophiala_salmonis_CBS157.67_T,ERR1084898.110407,86.27,102,6,8,1,98,3,100,3e-22,104
Exophiala_salmonis_CBS157.67_T,ERR1084898.110257,86.27,102,6,8,1,98,3,100,3e-22,104
Exophiala_salmonis_CBS157.67_T,ERR1084898.103356,86.27,102,6,8,1,98,3,100,3e-22,104
Exophiala_salmonis_CBS157.67_T,ERR1084898.101761,86.27,102,6,8,1,98,3,100,3e-22,104
Exophiala_salmonis_CBS157.67_T,ERR1084898.97232,86.27,102,6,8,1,98,3,100,3e-22,104
Exophiala_salmonis_CBS157.67_T,ERR1084898.81442,86.27,102,6,8,1,98,3,100,3e-22,104
Exophiala_salmonis_CBS157.67_T,ERR1084898.79548,86.00,100,10,4,1,98,3,100,3e-22,104
Exophiala_salmonis_CBS157.67_T,ERR1084898.75129,86.27,102,6,8,1,98,3,100,3e-22,104
Exophiala_salmonis_CBS157.67_T,ERR1084898.45308,86.14,101,8,6,1,98,3,100,3e-22,104
Exophiala_salmonis_CBS157.67_T,ERR1084898.40013,86.27,102,6,8,1,98,3,100,3e-22,104
Exophiala_salmonis_CBS157.67_T,ERR1084898.27662,86.27,102,6,8,1,98,3,100,3e-22,104
Exophiala_salmonis_CBS157.67_T,ERR1084898.22635,86.27,102,6,8,1,98,3,100,3e-22,104
Exophiala_salmonis_CBS157.67_T,ERR1084898.20268,85.71,98,14,0,1,98,3,100,3e-22,104
Exophiala_salmonis_CBS157.67_T,ERR1084898.20173,86.27,102,6,8,1,98,3,100,3e-22,104
Exophiala_salmonis_CBS157.67_T,ERR1084898.17215,86.14,101,8,6,1,98,3,100,3e-22,104
Exophiala_salmonis_CBS157.67_T,ERR1084898.14118,86.14,101,8,6,1,98,3,100,3e-22,104
Exophiala_salmonis_CBS157.67_T,ERR1084898.3398,86.27,102,6,8,1,98,3,100,3e-22,104
Exophiala_salmonis_CBS157.67_T,ERR1084898.3211,86.27,102,6,8,1,98,3,100,3e-22,104
Exophiala_salmonis_CBS157.67_T,ERR1084898.119225,85.29,102,7,8,1,98,3,100,1e-20,99.0
Exophiala_salmonis_CBS157.67_T,ERR1084898.115841,85.15,101,9,6,1,98,3,100,1e-20,99.0
Exophiala_salmonis_CBS157.67_T,ERR1084898.95659,85.29,102,7,8,1,98,3,100,1e-20,99.0
Exophiala_salmonis_CBS157.67_T,ERR1084898.68636,85.29,102,7,8,1,98,3,100,1e-20,99.0
Exophiala_salmonis_CBS157.67_T,ERR1084898.66949,85.15,101,9,6,1,98,3,100,1e-20,99.0
Exophiala_salmonis_CBS157.67_T,ERR1084898.66909,85.29,102,7,8,1,98,3,100,1e-20,99.0
Exophiala_salmonis_CBS157.67_T,ERR1084898.59519,85.29,102,7,8,1,98,3,100,1e-20,99.0
Exophiala_salmonis_CBS157.67_T,ERR1084898.43798,84.69,98,15,0,1,98,3,100,1e-20,99.0
Exophiala_salmonis_CBS157.67_T,ERR1084898.43791,85.00,100,11,3,1,98,3,100,1e-20,99.0
Exophiala_salmonis_CBS157.67_T,ERR1084898.42874,85.29,102,7,8,1,98,3,100,1e-20,99.0
Exophiala_salmonis_CBS157.67_T,ERR1084898.304,84.85,99,12,3,1,97,3,100,4e-20,97.1
Exophiala_salmonis_CBS157.67_T,ERR1084898.110905,84.16,101,10,6,1,98,3,100,6e-19,93.5
Exophiala_salmonis_CBS157.67_T,ERR1084898.102106,84.16,101,10,6,1,98,3,100,6e-19,93.5
Exophiala_salmonis_CBS157.67_T,ERR1084898.94296,84.47,103,6,10,1,98,3,100,6e-19,93.5
Exophiala_salmonis_CBS157.67_T,ERR1084898.57793,84.31,102,8,8,1,98,3,100,6e-19,93.5
Exophiala_salmonis_CBS157.67_T,ERR1084898.34232,84.31,102,8,8,1,98,3,100,6e-19,93.5
Exophiala_salmonis_CBS157.67_T,ERR1084898.32737,84.31,102,8,8,1,98,3,100,6e-19,93.5
Exophiala_salmonis_CBS157.67_T,ERR1084898.14126,84.16,101,10,6,1,98,3,100,6e-19,93.5
Exophiala_salmonis_CBS157.67_T,ERR1084898.6522,84.31,102,8,8,1,98,3,100,6e-19,93.5
Exophiala_salmonis_CBS157.67_T,ERR1084898.3805,84.16,101,10,6,1,98,3,100,6e-19,93.5
Exophiala_salmonis_CBS157.67_T,ERR1084898.109950,83.33,102,9,8,1,98,3,100,3e-17,87.9
Exophiala_salmonis_CBS157.67_T,ERR1084898.111927,80.00,100,16,4,1,98,3,100,3e-12,71.3
Exophiala_salmonis_CBS157.67_T,ERR1084898.97530,78.18,110,12,9,1,110,3,100,6e-09,60.2
Exophiala_salmonis_CBS157.67_T,ERR1084898.72467,78.18,110,12,9,1,110,3,100,6e-09,60.2
Exophiala_salmonis_CBS157.67_T,ERR1084898.50840,78.18,110,12,9,1,110,3,100,6e-09,60.2
Exophiala_salmonis_CBS157.67_T,ERR1084898.41494,78.18,110,12,9,1,110,3,100,6e-09,60.2
Exophiala_salmonis_CBS157.67_T,ERR1084898.14845,78.18,110,12,9,1,110,3,100,6e-09,60.2
Exophiala_salmonis_CBS157.67_T,ERR1084898.14613,78.18,110,12,9,1,110,3,100,6e-09,60.2
Exophiala_salmonis_CBS157.67_T,ERR1084898.6571,78.18,110,12,9,1,110,3,100,6e-09,60.2
Exophiala_salmonis_CBS157.67_T,ERR1084898.124045,94.74,38,1,1,73,110,64,100,2e-08,58.4
Exophiala_salmonis_CBS157.67_T,ERR1084898.103883,94.74,38,1,1,73,110,64,100,2e-08,58.4
Exophiala_salmonis_CBS157.67_T,ERR1084898.102116,94.74,38,1,1,73,110,64,100,2e-08,58.4
Exophiala_salmonis_CBS157.67_T,ERR1084898.82235,94.74,38,1,1,73,110,64,100,2e-08,58.4
Exophiala_salmonis_CBS157.67_T,ERR1084898.81878,94.74,38,1,1,73,110,64,100,2e-08,58.4
Exophiala_salmonis_CBS157.67_T,ERR1084898.56232,94.74,38,1,1,73,110,64,100,2e-08,58.4
Exophiala_salmonis_CBS157.67_T,ERR1084898.41306,94.74,38,1,1,73,110,64,100,2e-08,58.4
Exophiala_salmonis_CBS157.67_T,ERR1084898.27145,94.74,38,1,1,73,110,64,100,2e-08,58.4
Exophiala_salmonis_CBS157.67_T,ERR1084898.15194,94.74,38,1,1,73,110,64,100,2e-08,58.4
Exophiala_salmonis_CBS157.67_T,ERR1084898.3266,92.50,40,3,0,1,40,3,42,2e-08,58.4
Exophiala_salmonis_CBS157.67_T,ERR1084898.121768,92.31,39,3,0,1,39,3,41,7e-08,56.5
Exophiala_salmonis_CBS157.67_T,ERR1084898.121281,92.31,39,3,0,1,39,3,41,7e-08,56.5
Exophiala_salmonis_CBS157.67_T,ERR1084898.109052,92.31,39,3,0,1,39,3,41,7e-08,56.5
Exophiala_salmonis_CBS157.67_T,ERR1084898.105738,92.31,39,3,0,1,39,3,41,7e-08,56.5
Exophiala_salmonis_CBS157.67_T,ERR1084898.99134,92.31,39,3,0,1,39,3,41,7e-08,56.5
Exophiala_salmonis_CBS157.67_T,ERR1084898.96081,92.31,39,3,0,1,39,3,41,7e-08,56.5
Exophiala_salmonis_CBS157.67_T,ERR1084898.95539,92.31,39,3,0,1,39,3,41,7e-08,56.5
Exophiala_salmonis_CBS157.67_T,ERR1084898.87903,92.31,39,3,0,1,39,3,41,7e-08,56.5
Exophiala_salmonis_CBS157.67_T,ERR1084898.83507,92.31,39,3,0,1,39,3,41,7e-08,56.5
Exophiala_salmonis_CBS157.67_T,ERR1084898.77471,92.31,39,3,0,1,39,3,41,7e-08,56.5
Exophiala_salmonis_CBS157.67_T,ERR1084898.61849,92.31,39,3,0,1,39,3,41,7e-08,56.5
Exophiala_salmonis_CBS157.67_T,ERR1084898.59568,92.31,39,3,0,1,39,3,41,7e-08,56.5
Exophiala_salmonis_CBS157.67_T,ERR1084898.53614,92.31,39,3,0,1,39,3,41,7e-08,56.5
Exophiala_salmonis_CBS157.67_T,ERR1084898.49134,92.31,39,3,0,1,39,3,41,7e-08,56.5
Exophiala_salmonis_CBS157.67_T,ERR1084898.47882,92.31,39,3,0,1,39,3,41,7e-08,56.5
Exophiala_salmonis_CBS157.67_T,ERR1084898.26822,92.31,39,3,0,1,39,3,41,7e-08,56.5
Exophiala_salmonis_CBS157.67_T,ERR1084898.22304,92.31,39,3,0,1,39,3,41,7e-08,56.5
Exophiala_salmonis_CBS157.67_T,ERR1084898.14325,92.31,39,3,0,1,39,3,41,7e-08,56.5
Exophiala_salmonis_CBS157.67_T,ERR1084898.5308,92.31,39,3,0,1,39,3,41,7e-08,56.5
Exophiala_salmonis_CBS157.67_T,ERR1084898.1158,92.31,39,3,0,1,39,3,41,7e-08,56.5
Exophiala_salmonis_CBS157.67_T,ERR1084898.117523,77.23,101,17,6,1,98,3,100,3e-07,54.7
Exophiala_salmonis_CBS157.67_T,ERR1084898.81306,77.27,110,13,10,1,110,3,100,3e-07,54.7
Exophiala_salmonis_CBS157.67_T,ERR1084898.48146,77.68,112,9,12,1,110,3,100,3e-07,54.7
Exophiala_salmonis_CBS157.67_T,ERR1084898.33030,77.27,110,13,9,1,110,3,100,3e-07,54.7
Cyphellophora_laciniata_CBS190.61_T,ERR1084898.79121,100.00,44,0,0,1,44,57,100,1e-15,82.4
Cyphellophora_laciniata_CBS190.61_T,ERR1084898.67556,100.00,44,0,0,1,44,57,100,1e-15,82.4
Cyphellophora_laciniata_CBS190.61_T,ERR1084898.55867,100.00,44,0,0,1,44,57,100,1e-15,82.4
Cyphellophora_laciniata_CBS190.61_T,ERR1084898.55214,100.00,44,0,0,1,44,57,100,1e-15,82.4
Cyphellophora_laciniata_CBS190.61_T,ERR1084898.54289,100.00,44,0,0,1,44,57,100,1e-15,82.4
Cyphellophora_laciniata_CBS190.61_T,ERR1084898.45309,100.00,44,0,0,1,44,57,100,1e-15,82.4
Cyphellophora_laciniata_CBS190.61_T,ERR1084898.39976,100.00,44,0,0,1,44,57,100,1e-15,82.4
Cyphellophora_laciniata_CBS190.61_T,ERR1084898.16463,100.00,44,0,0,1,44,57,100,1e-15,82.4
Cyphellophora_laciniata_CBS190.61_T,ERR1084898.72832,97.73,44,1,0,1,44,57,100,5e-14,76.8
Cyphellophora_laciniata_CBS190.61_T,ERR1084898.70554,97.73,44,1,0,1,44,57,100,5e-14,76.8
Cyphellophora_laciniata_CBS190.61_T,ERR1084898.32034,97.73,44,1,0,1,44,57,100,5e-14,76.8
Cyphellophora_laciniata_CBS190.61_T,ERR1084898.24014,97.73,44,1,0,1,44,57,100,5e-14,76.8
Cyphellophora_laciniata_CBS190.61_T,ERR1084898.24013,97.73,44,1,0,1,44,57,100,5e-14,76.8
Cyphellophora_laciniata_CBS190.61_T,ERR1084898.20153,97.73,44,1,0,1,44,57,100,5e-14,76.8
Cyphellophora_laciniata_CBS190.61_T,ERR1084898.14265,97.73,44,1,0,1,44,57,100,5e-14,76.8
Cyphellophora_laciniata_CBS190.61_T,ERR1084898.111770,95.45,44,2,0,1,44,57,100,3e-12,71.3
Cyphellophora_laciniata_CBS190.61_T,ERR1084898.86408,95.45,44,2,0,1,44,57,100,3e-12,71.3
Cyphellophora_laciniata_CBS190.61_T,ERR1084898.67698,95.45,44,2,0,1,44,57,100,3e-12,71.3
Cyphellophora_laciniata_CBS190.61_T,ERR1084898.2723,95.45,44,2,0,1,44,57,100,3e-12,71.3
Cyphellophora_laciniata_CBS190.61_T,ERR1084898.2668,95.56,45,0,2,1,44,57,100,3e-12,71.3
Cyphellophora_laciniata_CBS190.61_T,ERR1084898.124045,94.74,38,1,1,19,56,64,100,2e-08,58.4
Cyphellophora_laciniata_CBS190.61_T,ERR1084898.103883,94.74,38,1,1,19,56,64,100,2e-08,58.4
Cyphellophora_laciniata_CBS190.61_T,ERR1084898.102116,94.74,38,1,1,19,56,64,100,2e-08,58.4
Cyphellophora_laciniata_CBS190.61_T,ERR1084898.82235,94.74,38,1,1,19,56,64,100,2e-08,58.4
Cyphellophora_laciniata_CBS190.61_T,ERR1084898.81878,94.74,38,1,1,19,56,64,100,2e-08,58.4
Cyphellophora_laciniata_CBS190.61_T,ERR1084898.56232,94.74,38,1,1,19,56,64,100,2e-08,58.4
Cyphellophora_laciniata_CBS190.61_T,ERR1084898.41306,94.74,38,1,1,19,56,64,100,2e-08,58.4
Cyphellophora_laciniata_CBS190.61_T,ERR1084898.27145,94.74,38,1,1,19,56,64,100,2e-08,58.4
Cyphellophora_laciniata_CBS190.61_T,ERR1084898.15194,94.74,38,1,1,19,56,64,100,2e-08,58.4
Cyphellophora_laciniata_CBS190.61_T,ERR1084898.97530,92.11,38,2,1,19,56,64,100,9e-07,52.8
Cyphellophora_laciniata_CBS190.61_T,ERR1084898.81306,92.11,38,2,1,19,56,64,100,9e-07,52.8
Cyphellophora_laciniata_CBS190.61_T,ERR1084898.72467,92.11,38,2,1,19,56,64,100,9e-07,52.8
Cyphellophora_laciniata_CBS190.61_T,ERR1084898.50840,92.11,38,2,1,19,56,64,100,9e-07,52.8
Cyphellophora_laciniata_CBS190.61_T,ERR1084898.48146,92.11,38,2,1,19,56,64,100,9e-07,52.8
Cyphellophora_laciniata_CBS190.61_T,ERR1084898.41494,92.11,38,2,1,19,56,64,100,9e-07,52.8
Cyphellophora_laciniata_CBS190.61_T,ERR1084898.33030,92.11,38,2,1,19,56,64,100,9e-07,52.8
Cyphellophora_laciniata_CBS190.61_T,ERR1084898.14845,92.11,38,2,1,19,56,64,100,9e-07,52.8
Cyphellophora_laciniata_CBS190.61_T,ERR1084898.14613,92.11,38,2,1,19,56,64,100,9e-07,52.8
Cyphellophora_laciniata_CBS190.61_T,ERR1084898.6571,92.11,38,2,1,19,56,64,100,9e-07,52.8
