Exophiala_nigra_CBS535.94_T,SRR8283927.578266,94.23,52,3,0,200,251,353,302,2e-13,80.5
Exophiala_nigra_CBS535.94_T,SRR8283927.273865,94.12,51,3,0,201,251,210,260,8e-13,78.7
Exophiala_spinifera_CBS899.68_T,SRR8283927.578266,94.23,52,3,0,197,248,353,302,2e-13,80.5
Exophiala_spinifera_CBS899.68_T,SRR8283927.273865,94.12,51,3,0,198,248,210,260,7e-13,78.7
Exophiala_exophialae_CBS668.76_T,SRR8283927.578266,94.23,52,3,0,198,249,353,302,2e-13,80.5
Exophiala_exophialae_CBS668.76_T,SRR8283927.273865,94.12,51,3,0,199,249,210,260,7e-13,78.7
Exophiala_polymorpha_CBS138920_T,SRR8283927.578266,94.23,52,3,0,300,351,353,302,3e-13,80.5
Exophiala_polymorpha_CBS138920_T,SRR8283927.273865,94.12,51,3,0,301,351,210,260,1e-12,78.7
Exophiala_oligosperma_CBS725.88_T,SRR8283927.578266,91.67,60,5,0,202,261,361,302,2e-14,84.2
Exophiala_oligosperma_CBS725.88_T,SRR8283927.273865,94.12,51,3,0,211,261,210,260,8e-13,78.7
Exophiala_jeanselmei_CBS507.90_T,SRR8283927.578266,94.23,52,3,0,202,253,353,302,2e-13,80.5
Exophiala_jeanselmei_CBS507.90_T,SRR8283927.273865,94.12,51,3,0,203,253,210,260,8e-13,78.7
Exophiala_bergeri_CBS353.52,SRR8283927.578266,94.23,52,3,0,163,214,353,302,2e-13,80.5
Exophiala_bergeri_CBS353.52,SRR8283927.273865,94.12,51,3,0,164,214,210,260,7e-13,78.7
Exophiala_moniliae_CBS520.76_T,SRR8283927.578266,86.36,88,7,4,164,251,384,302,1e-16,91.6
Exophiala_moniliae_CBS520.76_T,SRR8283927.273865,94.12,51,3,0,201,251,210,260,8e-13,78.7
Exophiala_pisciphila_CBS537.73_T,SRR8283927.578266,94.23,52,3,0,203,254,353,302,2e-13,80.5
Exophiala_pisciphila_CBS537.73_T,SRR8283927.273865,94.12,51,3,0,204,254,210,260,9e-13,78.7
Exophiala_xenobiotica_CBS117642,SRR8283927.578266,94.23,52,3,0,195,246,353,302,2e-13,80.5
Exophiala_xenobiotica_CBS117642,SRR8283927.273865,94.12,51,3,0,196,246,210,260,7e-13,78.7
Exophiala_brunnea_CBS,SRR8283927.578266,94.23,52,3,0,231,282,353,302,2e-13,80.5
Exophiala_brunnea_CBS,SRR8283927.273865,94.12,51,3,0,232,282,210,260,9e-13,78.7
Exophiala_nishimurae_CBS101538_T,SRR8283927.578266,94.23,52,3,0,209,260,353,302,2e-13,80.5
Exophiala_mesophila_CBS402.95_T,SRR8283927.578266,94.23,52,3,0,193,244,353,302,2e-13,80.5
Exophiala_mesophila_CBS402.95_T,SRR8283927.273865,94.12,51,3,0,194,244,210,260,9e-13,78.7
Exophiala_castellanii_CBS158.58_T,SRR8283927.578266,94.23,52,3,0,191,242,353,302,2e-13,80.5
Exophiala_castellanii_CBS158.58_T,SRR8283927.273865,94.12,51,3,0,192,242,210,260,9e-13,78.7
Exophiala_lecanii-corni_CBS123.33_T,SRR8283927.578266,94.23,52,3,0,214,265,353,302,2e-13,80.5
Exophiala_lecanii-corni_CBS123.33_T,SRR8283927.273865,94.12,51,3,0,215,265,210,260,8e-13,78.7
Exophiala_dermatitidis_CBS748.88,SRR8283927.273865,92.16,51,3,1,208,257,210,260,4e-10,71.3
Exophiala_angulospora_CBS482.92_T,SRR8283927.578266,91.67,60,5,0,189,248,361,302,2e-14,84.2
Exophiala_angulospora_CBS482.92_T,SRR8283927.273865,94.12,51,3,0,198,248,210,260,7e-13,78.7
Exophiala_opportunistica_CBS109811_T,SRR8283927.578266,94.23,52,3,0,196,247,353,302,2e-13,80.5
Exophiala_opportunistica_CBS109811_T,SRR8283927.273865,94.12,51,3,0,197,247,210,260,8e-13,78.7
Exophiala_salmonis_CBS157.67_T,SRR8283927.578266,94.23,52,3,0,325,376,353,302,3e-13,80.5
Exophiala_salmonis_CBS157.67_T,SRR8283927.273865,94.12,51,3,0,326,376,210,260,1e-12,78.7
Exophiala_aquamarina_CBS119918_T,SRR8283927.578266,94.23,52,3,0,203,254,353,302,2e-13,80.5
Exophiala_aquamarina_CBS119918_T,SRR8283927.273865,94.12,51,3,0,204,254,210,260,8e-13,78.7
Exophiala_cancerae_CBS120420_T,SRR8283927.578266,94.23,52,3,0,218,269,353,302,2e-13,80.5
Exophiala_cancerae_CBS120420_T,SRR8283927.273865,94.12,51,3,0,219,269,210,260,9e-13,78.7
Exophiala_tremulae_CBS129355,SRR8283927.578266,94.23,52,3,0,230,281,353,302,2e-13,80.5
Exophiala_tremulae_CBS129355,SRR8283927.273865,94.12,51,3,0,231,281,210,260,9e-13,78.7
Exophiala_equina_CBS116009,SRR8283927.578266,94.23,52,3,0,196,247,353,302,2e-13,80.5
Exophiala_equina_CBS116009,SRR8283927.273865,94.12,51,3,0,197,247,210,260,8e-13,78.7
Exophiala_alcalophila_CBS520.82_T,SRR8283927.578266,94.23,52,3,0,207,258,353,302,2e-13,80.5
Exophiala_alcalophila_CBS520.82_T,SRR8283927.273865,94.12,51,3,0,208,258,210,260,8e-13,78.7
Exophiala_crusticola_CBS119970_T,SRR8283927.578266,94.23,52,3,0,212,263,353,302,2e-13,80.5
Exophiala_crusticola_CBS119970_T,SRR8283927.273865,94.12,51,3,0,213,263,210,260,7e-13,78.7
Rhinocladiella_atrovirens_CBS264.49,SRR8283927.578266,94.23,52,3,0,238,289,353,302,2e-13,80.5
Rhinocladiella_atrovirens_CBS264.49,SRR8283927.273865,94.12,51,3,0,239,289,210,260,9e-13,78.7
Rhinocladiella_basitona_CBS101460_T,SRR8283927.578266,94.23,52,3,0,197,248,353,302,2e-13,80.5
Rhinocladiella_basitona_CBS101460_T,SRR8283927.273865,94.12,51,3,0,198,248,210,260,7e-13,78.7
Rhinocladiella_phaeophora_CBS496.78_T,SRR8283927.578266,94.12,51,3,0,206,256,352,302,8e-13,78.7
Rhinocladiella_phaeophora_CBS496.78_T,SRR8283927.273865,94.12,51,3,0,206,256,210,260,8e-13,78.7
Rhinocladiella_aquaspersa_CBS313.73_T,SRR8283927.578266,94.12,51,3,0,200,250,352,302,9e-13,78.7
Rhinocladiella_aquaspersa_CBS313.73_T,SRR8283927.273865,94.12,51,3,0,200,250,210,260,9e-13,78.7
Rhinocladiella_fasciculata_CBS132.86_T,SRR8283927.578266,94.12,51,3,0,216,266,352,302,8e-13,78.7
Rhinocladiella_anceps_CBS181.65_T,SRR8283927.578266,94.23,52,3,0,197,248,353,302,2e-13,80.5
Rhinocladiella_anceps_CBS181.65_T,SRR8283927.273865,94.12,51,3,0,198,248,210,260,7e-13,78.7
Rhinocladiella_mackenziei_CBS367.92,SRR8283927.578266,94.23,52,3,0,186,237,353,302,2e-13,80.5
Rhinocladiella_mackenziei_CBS367.92,SRR8283927.273865,94.12,51,3,0,187,237,210,260,8e-13,78.7
Veronaea_compacta_CBS268.75_T,SRR8283927.578266,94.23,52,3,0,219,270,353,302,2e-13,80.5
Veronaea_compacta_CBS268.75_T,SRR8283927.273865,94.12,51,3,0,220,270,210,260,8e-13,78.7
Capronia_pilosella_AFTOL-ID657,SRR8283927.578266,91.67,60,5,0,289,348,361,302,2e-14,84.2
Capronia_pilosella_AFTOL-ID657,SRR8283927.273865,94.12,51,3,0,298,348,210,260,9e-13,78.7
Capronia_dactylotricha_DAOM208471_T,SRR8283927.578266,92.86,56,4,0,195,250,357,302,7e-14,82.4
Capronia_dactylotricha_DAOM208471_T,SRR8283927.273865,94.12,51,3,0,200,250,210,260,9e-13,78.7
Capronia_kleinmondensis_CBS122671_T,SRR8283927.578266,94.23,52,3,0,224,275,353,302,3e-13,80.5
Capronia_kleinmondensis_CBS122671_T,SRR8283927.273865,94.12,51,3,0,225,275,210,260,9e-13,78.7
Capronia_mansonii_CBS101.67_T,SRR8283927.578266,94.23,52,3,0,210,261,353,302,3e-13,80.5
Capronia_mansonii_CBS101.67_T,SRR8283927.273865,94.12,51,3,0,211,261,210,260,9e-13,78.7
Capronia_munkii_DAOM216390_T,SRR8283927.578266,94.23,52,3,0,210,261,353,302,3e-13,80.5
Capronia_munkii_DAOM216390_T,SRR8283927.273865,94.12,51,3,0,211,261,210,260,9e-13,78.7
Capronia_coronata_ATCC56201_T,SRR8283927.578266,91.67,60,5,0,190,249,361,302,2e-14,84.2
Capronia_coronata_ATCC56201_T,SRR8283927.273865,94.12,51,3,0,199,249,210,260,9e-13,78.7
Capronia_parasitica_CBS123.88,SRR8283927.273865,90.32,62,5,1,195,255,199,260,2e-13,80.5
Capronia_parasitica_CBS123.88,SRR8283927.578266,92.73,55,3,1,202,255,356,302,8e-13,78.7
Veronaea_japonica_CBS776.83_T,SRR8283927.578266,94.23,52,3,0,232,283,353,302,2e-13,80.5
Veronaea_japonica_CBS776.83_T,SRR8283927.273865,94.12,51,3,0,233,283,210,260,8e-13,78.7
Thysanorea_papuana_CBS212.96_T,SRR8283927.578266,89.39,66,6,1,192,257,366,302,6e-14,82.4
Thysanorea_papuana_CBS212.96_T,SRR8283927.273865,94.12,51,3,0,207,257,210,260,8e-13,78.7
Capronia_acutiseta_ATCC56428_T,SRR8283927.578266,94.23,52,3,0,200,251,353,302,2e-13,80.5
Capronia_acutiseta_ATCC56428_T,SRR8283927.273865,94.12,51,3,0,201,251,210,260,9e-13,78.7
Fonsecaea_brasiliensis_CBS119710_T,SRR8283927.578266,94.12,51,3,0,207,257,352,302,8e-13,78.7
Fonsecaea_brasiliensis_CBS119710_T,SRR8283927.273865,94.12,51,3,0,207,257,210,260,8e-13,78.7
Fonsecaea_pedrosoi_CBS271.37_T,SRR8283927.578266,94.12,51,3,0,235,285,352,302,9e-13,78.7
Fonsecaea_pedrosoi_CBS271.37_T,SRR8283927.273865,94.12,51,3,0,235,285,210,260,9e-13,78.7
Fonsecaea_multimorphosa_CBS980.96_T,SRR8283927.578266,94.12,51,3,0,205,255,352,302,7e-13,78.7
Fonsecaea_multimorphosa_CBS980.96_T,SRR8283927.273865,94.12,51,3,0,205,255,210,260,7e-13,78.7
Fonsecaea_minima_CBS125760_T,SRR8283927.578266,94.12,51,3,0,201,251,352,302,7e-13,78.7
Fonsecaea_minima_CBS125760_T,SRR8283927.273865,94.12,51,3,0,201,251,210,260,7e-13,78.7
Fonsecaea_nubica_CBS269.64_T,SRR8283927.578266,94.12,51,3,0,212,262,352,302,8e-13,78.7
Fonsecaea_nubica_CBS269.64_T,SRR8283927.273865,94.12,51,3,0,212,262,210,260,8e-13,78.7
Fonsecaea_monophora_CBS269.37_T,SRR8283927.578266,94.12,51,3,0,212,262,352,302,8e-13,78.7
Fonsecaea_monophora_CBS269.37_T,SRR8283927.273865,94.12,51,3,0,212,262,210,260,8e-13,78.7
Fonsecaea_erecta_CBS125763_T,SRR8283927.578266,94.12,51,3,0,196,246,352,302,7e-13,78.7
Fonsecaea_erecta_CBS125763_T,SRR8283927.273865,94.12,51,3,0,196,246,210,260,7e-13,78.7
Fonsecaea_pugnacius_CBS139214_T,SRR8283927.578266,94.12,51,3,0,205,255,352,302,7e-13,78.7
Fonsecaea_pugnacius_CBS139214_T,SRR8283927.273865,94.12,51,3,0,205,255,210,260,7e-13,78.7
Cladophialophora_psammophila_CBS,SRR8283927.578266,94.12,51,3,0,211,261,352,302,8e-13,78.7
Cladophialophora_psammophila_CBS,SRR8283927.273865,94.12,51,3,0,211,261,210,260,8e-13,78.7
Cladophialophora_devriesii_CBS,SRR8283927.578266,94.12,51,3,0,207,257,352,302,7e-13,78.7
Cladophialophora_devriesii_CBS,SRR8283927.273865,94.12,51,3,0,207,257,210,260,7e-13,78.7
Cladophialophora_immunda_CBS834.96,SRR8283927.578266,94.12,51,3,0,209,259,352,302,8e-13,78.7
Cladophialophora_immunda_CBS834.96,SRR8283927.273865,94.12,51,3,0,209,259,210,260,8e-13,78.7
Cladophialophora_arxii_CBS306.94_T,SRR8283927.578266,94.12,51,3,0,211,261,352,302,7e-13,78.7
Cladophialophora_arxii_CBS306.94_T,SRR8283927.273865,94.12,51,3,0,211,261,210,260,7e-13,78.7
Cladophialophora_bantiana_CBS173.52,SRR8283927.578266,94.12,51,3,0,205,255,352,302,8e-13,78.7
Cladophialophora_bantiana_CBS173.52,SRR8283927.273865,94.12,51,3,0,205,255,210,260,8e-13,78.7
Cladophialophora_emmonsii_CBS102594,SRR8283927.578266,94.12,51,3,0,196,246,352,302,7e-13,78.7
Cladophialophora_emmonsii_CBS102594,SRR8283927.273865,94.12,51,3,0,196,246,210,260,7e-13,78.7
Cladophialophora_minourae_CBS556.83,SRR8283927.578266,94.12,51,3,0,204,254,352,302,8e-13,78.7
Cladophialophora_minourae_CBS556.83,SRR8283927.273865,94.12,51,3,0,204,254,210,260,8e-13,78.7
Cladophialophora_australiensis_CBS112793,SRR8283927.273865,94.23,52,3,0,205,256,209,260,6e-13,80.5
Cladophialophora_australiensis_CBS112793,SRR8283927.578266,94.12,51,3,0,206,256,352,302,2e-12,78.7
Cladophialophora_potulentorum_CBS112222,SRR8283927.578266,94.23,52,3,0,204,255,353,302,6e-13,80.5
Cladophialophora_potulentorum_CBS112222,SRR8283927.273865,94.12,51,3,0,205,255,210,260,2e-12,78.7
Cladophialophora_matsushimae_CMRP1198,SRR8283927.578266,91.94,62,4,1,198,259,362,302,4e-15,86.1
Cladophialophora_matsushimae_CMRP1198,SRR8283927.273865,94.12,51,3,0,209,259,210,260,7e-13,78.7
Cladophialophora_mycetomatis_CBS122637,SRR8283927.578266,91.94,62,4,1,183,244,362,302,4e-15,86.1
Cladophialophora_mycetomatis_CBS122637,SRR8283927.273865,94.12,51,3,0,194,244,210,260,7e-13,78.7
Cladophialophora_chaetospira_CBS127573,SRR8283927.578266,88.52,61,6,1,590,650,361,302,6e-11,73.1
Cladophialophora_boppii_CBS126.86_T,SRR8283927.578266,94.23,52,3,0,201,252,353,302,2e-13,80.5
Cladophialophora_boppii_CBS126.86_T,SRR8283927.273865,94.12,51,3,0,202,252,210,260,7e-13,78.7
Cladophialophora_abundans_CBS126736,SRR8283927.578266,94.23,52,3,0,138,189,353,302,2e-13,80.5
Cladophialophora_abundans_CBS126736,SRR8283927.273865,94.12,51,3,0,139,189,210,260,6e-13,78.7
Capronia_semi-immersa_CBS102234,SRR8283927.578266,94.12,51,3,0,201,251,352,302,7e-13,78.7
Capronia_semi-immersa_CBS102234,SRR8283927.273865,94.12,51,3,0,201,251,210,260,7e-13,78.7
Phialophora_americana_CBS400.67,SRR8283927.578266,94.12,51,3,0,203,253,352,302,2e-12,78.7
Phialophora_americana_CBS400.67,SRR8283927.273865,94.12,51,3,0,203,253,210,260,2e-12,78.7
Phialophora_verrucosa_CBS140325_T,SRR8283927.578266,94.12,51,3,0,207,257,352,302,8e-13,78.7
Phialophora_verrucosa_CBS140325_T,SRR8283927.273865,94.12,51,3,0,207,257,210,260,8e-13,78.7
Cladophialophora_samoensis_CBS259.83_T,SRR8283927.578266,94.12,51,3,0,207,257,352,302,8e-13,78.7
Cladophialophora_samoensis_CBS259.83_T,SRR8283927.273865,94.12,51,3,0,207,257,210,260,8e-13,78.7
Cladophialophora_carrionii_CBS260.83,SRR8283927.578266,94.12,51,3,0,223,273,352,302,8e-13,78.7
Cladophialophora_carrionii_CBS260.83,SRR8283927.273865,94.12,51,3,0,223,273,210,260,8e-13,78.7
Exophiala_palmae_UPCB86822_T,SRR8283927.578266,94.23,52,3,0,165,216,353,302,2e-13,80.5
Exophiala_palmae_UPCB86822_T,SRR8283927.273865,94.12,51,3,0,166,216,210,260,7e-13,78.7
Cladophialophora_yegresii_CBS114405_T,SRR8283927.578266,94.12,51,3,0,208,258,352,302,8e-13,78.7
Cladophialophora_yegresii_CBS114405_T,SRR8283927.273865,94.12,51,3,0,208,258,210,260,8e-13,78.7
Knufia_epidermidis_CBS120353_T,SRR8283927.578266,94.23,52,3,0,205,256,353,302,2e-13,80.5
Knufia_epidermidis_CBS120353_T,SRR8283927.273865,94.12,51,3,0,206,256,210,260,7e-13,78.7
Arthrocladium_fulminans_CBS136243_T,SRR8283927.578266,94.23,52,3,0,200,251,353,302,2e-13,80.5
Arthrocladium_fulminans_CBS136243_T,SRR8283927.273865,94.12,51,3,0,201,251,210,260,8e-13,78.7
Anthopsis_deltoidea_CBS263.77_T,SRR8283927.578266,94.12,51,3,0,210,260,352,302,7e-13,78.7
Anthopsis_deltoidea_CBS263.77_T,SRR8283927.273865,94.12,51,3,0,210,260,210,260,7e-13,78.7
Cyphellophora_laciniata_CBS190.61_T,SRR8283927.578266,81.13,106,16,3,242,345,405,302,8e-14,82.4
Cyphellophora_suttonii_CBS449.91,SRR8283927.578266,85.54,83,12,0,166,248,384,302,1e-15,87.9
Cyphellophora_suttonii_CBS449.91,SRR8283927.273865,94.12,51,3,0,198,248,210,260,7e-13,78.7
Cyphellophora_pauciseptata_CBS284.85_T,SRR8283927.578266,84.34,83,13,0,177,259,384,302,6e-14,82.4
Cyphellophora_pauciseptata_CBS284.85_T,SRR8283927.273865,88.41,69,7,1,191,259,193,260,6e-14,82.4
Phialophora_europaea_CBS101466,SRR8283927.578266,84.38,96,10,4,160,254,393,302,3e-16,89.8
Phialophora_europaea_CBS101466,SRR8283927.273865,94.44,54,3,0,201,254,207,260,2e-14,84.2
Phialophora_ambigua_CBS235.93,SRR8283927.578266,85.54,83,12,0,169,251,384,302,1e-15,87.9
Phialophora_ambigua_CBS235.93,SRR8283927.273865,94.12,51,3,0,201,251,210,260,7e-13,78.7
Cladophialophora_modesta_CBS985.96_T,SRR8283927.578266,94.23,52,3,0,197,248,353,302,2e-13,80.5
Cladophialophora_modesta_CBS985.96_T,SRR8283927.273865,94.12,51,3,0,198,248,210,260,8e-13,78.7
Cyphellophora_fusarioides_MUCL44033_T,SRR8283927.578266,82.86,105,14,3,145,247,404,302,9e-17,91.6
