Exophiala_brunnea_CBS,ERR1083631.1,100.00,40,0,0,1,40,8,47,2e-17,75.0
Exophiala_brunnea_CBS,ERR1083631.3,100.00,38,0,0,1,38,8,45,2e-16,71.3
Exophiala_tremulae_CBS129355,ERR1083631.1,100.00,40,0,0,1,40,8,47,2e-17,75.0
Exophiala_tremulae_CBS129355,ERR1083631.3,100.00,38,0,0,1,38,8,45,2e-16,71.3
Rhinocladiella_atrovirens_CBS264.49,ERR1083631.1,100.00,44,0,0,1,44,3,46,9e-20,82.4
Rhinocladiella_atrovirens_CBS264.49,ERR1083631.3,100.00,43,0,0,1,43,3,45,3e-19,80.5
Veronaea_compacta_CBS268.75_T,ERR1083631.1,100.00,28,0,0,1,28,20,47,7e-11,52.8
Capronia_pilosella_AFTOL-ID657,ERR1083631.1,100.00,29,0,0,80,108,21,49,2e-11,54.7
Capronia_kleinmondensis_CBS122671_T,ERR1083631.1,100.00,30,0,0,1,30,17,46,6e-12,56.5
Capronia_kleinmondensis_CBS122671_T,ERR1083631.3,100.00,29,0,0,1,29,17,45,2e-11,54.7
Veronaea_japonica_CBS776.83_T,ERR1083631.1,100.00,39,0,0,1,39,9,47,6e-17,73.1
Veronaea_japonica_CBS776.83_T,ERR1083631.3,100.00,37,0,0,1,37,9,45,7e-16,69.4
Fonsecaea_pedrosoi_CBS271.37_T,ERR1083631.1,100.00,31,0,0,1,31,17,47,2e-12,58.4
Fonsecaea_pedrosoi_CBS271.37_T,ERR1083631.3,100.00,29,0,0,1,29,17,45,2e-11,54.7
Cladophialophora_chaetospira_CBS127573,ERR1083631.1,100.00,32,0,0,379,410,16,47,7e-13,60.2
Cladophialophora_chaetospira_CBS127573,ERR1083631.3,100.00,30,0,0,379,408,16,45,9e-12,56.5
Cyphellophora_laciniata_CBS190.61_T,ERR1083631.1,100.00,46,0,0,55,100,1,46,9e-21,86.1
Cyphellophora_laciniata_CBS190.61_T,ERR1083631.3,100.00,45,0,0,55,99,1,45,3e-20,84.2
