Exophiala_nigra_CBS535.94_T,SRR10526074.5458,94.87,39,2,0,201,239,254,292,2e-09,62.1
Exophiala_nigra_CBS535.94_T,SRR10526074.14591,100.00,29,0,0,201,229,254,282,3e-07,54.7
Exophiala_spinifera_CBS899.68_T,SRR10526074.5458,94.87,39,2,0,198,236,254,292,1e-09,62.1
Exophiala_spinifera_CBS899.68_T,SRR10526074.14591,100.00,29,0,0,198,226,254,282,2e-07,54.7
Exophiala_exophialae_CBS668.76_T,SRR10526074.5458,94.87,39,2,0,199,237,254,292,1e-09,62.1
Exophiala_exophialae_CBS668.76_T,SRR10526074.14591,100.00,29,0,0,199,227,254,282,2e-07,54.7
Exophiala_polymorpha_CBS138920_T,SRR10526074.5458,94.87,39,2,0,301,339,254,292,2e-09,62.1
Exophiala_polymorpha_CBS138920_T,SRR10526074.14591,100.00,29,0,0,301,329,254,282,3e-07,54.7
Exophiala_oligosperma_CBS725.88_T,SRR10526074.5458,94.87,39,2,0,211,249,254,292,2e-09,62.1
Exophiala_oligosperma_CBS725.88_T,SRR10526074.14591,100.00,29,0,0,211,239,254,282,3e-07,54.7
Exophiala_jeanselmei_CBS507.90_T,SRR10526074.5458,94.87,39,2,0,203,241,254,292,2e-09,62.1
Exophiala_jeanselmei_CBS507.90_T,SRR10526074.14591,100.00,29,0,0,203,231,254,282,3e-07,54.7
Exophiala_bergeri_CBS353.52,SRR10526074.5458,94.87,39,2,0,164,202,254,292,1e-09,62.1
Exophiala_bergeri_CBS353.52,SRR10526074.14591,100.00,29,0,0,164,192,254,282,2e-07,54.7
Exophiala_moniliae_CBS520.76_T,SRR10526074.5458,94.87,39,2,0,201,239,254,292,2e-09,62.1
Exophiala_moniliae_CBS520.76_T,SRR10526074.14591,100.00,29,0,0,201,229,254,282,3e-07,54.7
Exophiala_pisciphila_CBS537.73_T,SRR10526074.5458,94.87,39,2,0,204,242,254,292,2e-09,62.1
Exophiala_pisciphila_CBS537.73_T,SRR10526074.14591,100.00,29,0,0,204,232,254,282,3e-07,54.7
Exophiala_xenobiotica_CBS117642,SRR10526074.5458,94.87,39,2,0,196,234,254,292,1e-09,62.1
Exophiala_xenobiotica_CBS117642,SRR10526074.14591,100.00,29,0,0,196,224,254,282,2e-07,54.7
Exophiala_brunnea_CBS,SRR10526074.5458,94.87,39,2,0,232,270,254,292,2e-09,62.1
Exophiala_brunnea_CBS,SRR10526074.14591,100.00,29,0,0,232,260,254,282,3e-07,54.7
Exophiala_mesophila_CBS402.95_T,SRR10526074.5458,94.87,39,2,0,194,232,254,292,2e-09,62.1
Exophiala_mesophila_CBS402.95_T,SRR10526074.14591,100.00,29,0,0,194,222,254,282,3e-07,54.7
Exophiala_castellanii_CBS158.58_T,SRR10526074.5458,94.87,39,2,0,192,230,254,292,2e-09,62.1
Exophiala_castellanii_CBS158.58_T,SRR10526074.14591,100.00,29,0,0,192,220,254,282,3e-07,54.7
Exophiala_lecanii-corni_CBS123.33_T,SRR10526074.5458,94.87,39,2,0,215,253,254,292,2e-09,62.1
Exophiala_lecanii-corni_CBS123.33_T,SRR10526074.14591,100.00,29,0,0,215,243,254,282,3e-07,54.7
Exophiala_dermatitidis_CBS748.88,SRR10526074.5458,94.87,39,1,1,208,245,254,292,2e-08,60.2
Exophiala_dermatitidis_CBS748.88,SRR10526074.14591,100.00,29,0,0,208,236,254,282,7e-07,54.7
Exophiala_angulospora_CBS482.92_T,SRR10526074.5458,94.87,39,2,0,198,236,254,292,1e-09,62.1
Exophiala_angulospora_CBS482.92_T,SRR10526074.14591,100.00,29,0,0,198,226,254,282,3e-07,54.7
Exophiala_opportunistica_CBS109811_T,SRR10526074.5458,94.87,39,2,0,197,235,254,292,2e-09,62.1
Exophiala_opportunistica_CBS109811_T,SRR10526074.14591,100.00,29,0,0,197,225,254,282,3e-07,54.7
Exophiala_salmonis_CBS157.67_T,SRR10526074.5458,94.87,39,2,0,326,364,254,292,2e-09,62.1
Exophiala_salmonis_CBS157.67_T,SRR10526074.14591,100.00,29,0,0,326,354,254,282,4e-07,54.7
Exophiala_aquamarina_CBS119918_T,SRR10526074.5458,94.87,39,2,0,204,242,254,292,2e-09,62.1
Exophiala_aquamarina_CBS119918_T,SRR10526074.14591,100.00,29,0,0,204,232,254,282,3e-07,54.7
Exophiala_cancerae_CBS120420_T,SRR10526074.5458,94.87,39,2,0,219,257,254,292,2e-09,62.1
Exophiala_cancerae_CBS120420_T,SRR10526074.14591,100.00,29,0,0,219,247,254,282,3e-07,54.7
Exophiala_tremulae_CBS129355,SRR10526074.5458,94.87,39,2,0,231,269,254,292,2e-09,62.1
Exophiala_tremulae_CBS129355,SRR10526074.14591,100.00,29,0,0,231,259,254,282,3e-07,54.7
Exophiala_equina_CBS116009,SRR10526074.5458,94.87,39,2,0,197,235,254,292,2e-09,62.1
Exophiala_equina_CBS116009,SRR10526074.14591,100.00,29,0,0,197,225,254,282,3e-07,54.7
Exophiala_alcalophila_CBS520.82_T,SRR10526074.5458,94.87,39,2,0,208,246,254,292,2e-09,62.1
Exophiala_alcalophila_CBS520.82_T,SRR10526074.14591,100.00,29,0,0,208,236,254,282,3e-07,54.7
Exophiala_crusticola_CBS119970_T,SRR10526074.5458,94.87,39,2,0,213,251,254,292,2e-09,62.1
Exophiala_crusticola_CBS119970_T,SRR10526074.14591,100.00,29,0,0,213,241,254,282,3e-07,54.7
Rhinocladiella_atrovirens_CBS264.49,SRR10526074.5458,94.87,39,2,0,239,277,254,292,2e-09,62.1
Rhinocladiella_atrovirens_CBS264.49,SRR10526074.14591,100.00,29,0,0,239,267,254,282,3e-07,54.7
Rhinocladiella_basitona_CBS101460_T,SRR10526074.5458,94.87,39,2,0,198,236,254,292,1e-09,62.1
Rhinocladiella_basitona_CBS101460_T,SRR10526074.14591,100.00,29,0,0,198,226,254,282,2e-07,54.7
Rhinocladiella_phaeophora_CBS496.78_T,SRR10526074.5458,95.12,41,2,0,204,244,252,292,1e-10,65.8
Rhinocladiella_phaeophora_CBS496.78_T,SRR10526074.14591,100.00,31,0,0,204,234,252,282,2e-08,58.4
Rhinocladiella_aquaspersa_CBS313.73_T,SRR10526074.5458,95.12,41,2,0,198,238,252,292,1e-10,65.8
Rhinocladiella_aquaspersa_CBS313.73_T,SRR10526074.14591,100.00,31,0,0,198,228,252,282,2e-08,58.4
Rhinocladiella_anceps_CBS181.65_T,SRR10526074.5458,94.87,39,2,0,198,236,254,292,2e-09,62.1
Rhinocladiella_anceps_CBS181.65_T,SRR10526074.14591,100.00,29,0,0,198,226,254,282,3e-07,54.7
Rhinocladiella_mackenziei_CBS367.92,SRR10526074.5458,94.87,39,2,0,187,225,254,292,2e-09,62.1
Rhinocladiella_mackenziei_CBS367.92,SRR10526074.14591,100.00,29,0,0,187,215,254,282,3e-07,54.7
Veronaea_compacta_CBS268.75_T,SRR10526074.5458,94.87,39,2,0,220,258,254,292,2e-09,62.1
Veronaea_compacta_CBS268.75_T,SRR10526074.14591,100.00,29,0,0,220,248,254,282,3e-07,54.7
Capronia_pilosella_AFTOL-ID657,SRR10526074.5458,94.87,39,2,0,298,336,254,292,2e-09,62.1
Capronia_pilosella_AFTOL-ID657,SRR10526074.14591,100.00,29,0,0,298,326,254,282,3e-07,54.7
Capronia_dactylotricha_DAOM208471_T,SRR10526074.5458,94.87,39,2,0,200,238,254,292,2e-09,62.1
Capronia_dactylotricha_DAOM208471_T,SRR10526074.14591,100.00,29,0,0,200,228,254,282,3e-07,54.7
Capronia_kleinmondensis_CBS122671_T,SRR10526074.5458,94.87,39,2,0,225,263,254,292,2e-09,62.1
Capronia_kleinmondensis_CBS122671_T,SRR10526074.14591,100.00,29,0,0,225,253,254,282,3e-07,54.7
Capronia_mansonii_CBS101.67_T,SRR10526074.5458,94.87,39,2,0,211,249,254,292,2e-09,62.1
Capronia_mansonii_CBS101.67_T,SRR10526074.14591,100.00,29,0,0,211,239,254,282,3e-07,54.7
Capronia_munkii_DAOM216390_T,SRR10526074.5458,94.87,39,2,0,211,249,254,292,2e-09,62.1
Capronia_munkii_DAOM216390_T,SRR10526074.14591,100.00,29,0,0,211,239,254,282,3e-07,54.7
Capronia_coronata_ATCC56201_T,SRR10526074.5458,94.87,39,2,0,199,237,254,292,2e-09,62.1
Capronia_coronata_ATCC56201_T,SRR10526074.14591,100.00,29,0,0,199,227,254,282,3e-07,54.7
Capronia_parasitica_CBS123.88,SRR10526074.5458,94.87,39,2,0,205,243,254,292,2e-09,62.1
Capronia_parasitica_CBS123.88,SRR10526074.14591,100.00,29,0,0,205,233,254,282,3e-07,54.7
Veronaea_japonica_CBS776.83_T,SRR10526074.5458,94.87,39,2,0,233,271,254,292,2e-09,62.1
Veronaea_japonica_CBS776.83_T,SRR10526074.14591,100.00,29,0,0,233,261,254,282,3e-07,54.7
Thysanorea_papuana_CBS212.96_T,SRR10526074.5458,94.87,39,2,0,207,245,254,292,2e-09,62.1
Thysanorea_papuana_CBS212.96_T,SRR10526074.14591,100.00,29,0,0,207,235,254,282,3e-07,54.7
Capronia_acutiseta_ATCC56428_T,SRR10526074.5458,94.87,39,2,0,201,239,254,292,2e-09,62.1
Capronia_acutiseta_ATCC56428_T,SRR10526074.14591,100.00,29,0,0,201,229,254,282,3e-07,54.7
Fonsecaea_brasiliensis_CBS119710_T,SRR10526074.5458,95.00,40,2,0,206,245,253,292,4e-10,63.9
Fonsecaea_brasiliensis_CBS119710_T,SRR10526074.14591,100.00,30,0,0,206,235,253,282,7e-08,56.5
Fonsecaea_pedrosoi_CBS271.37_T,SRR10526074.5458,95.00,40,2,0,234,273,253,292,5e-10,63.9
Fonsecaea_pedrosoi_CBS271.37_T,SRR10526074.14591,100.00,30,0,0,234,263,253,282,8e-08,56.5
Fonsecaea_multimorphosa_CBS980.96_T,SRR10526074.5458,95.00,40,2,0,204,243,253,292,4e-10,63.9
Fonsecaea_multimorphosa_CBS980.96_T,SRR10526074.14591,100.00,30,0,0,204,233,253,282,7e-08,56.5
Fonsecaea_minima_CBS125760_T,SRR10526074.5458,95.00,40,2,0,200,239,253,292,4e-10,63.9
Fonsecaea_minima_CBS125760_T,SRR10526074.14591,100.00,30,0,0,200,229,253,282,7e-08,56.5
Fonsecaea_nubica_CBS269.64_T,SRR10526074.5458,95.00,40,2,0,211,250,253,292,4e-10,63.9
Fonsecaea_nubica_CBS269.64_T,SRR10526074.14591,100.00,30,0,0,211,240,253,282,7e-08,56.5
Fonsecaea_monophora_CBS269.37_T,SRR10526074.5458,95.00,40,2,0,211,250,253,292,4e-10,63.9
Fonsecaea_monophora_CBS269.37_T,SRR10526074.14591,100.00,30,0,0,211,240,253,282,7e-08,56.5
Fonsecaea_erecta_CBS125763_T,SRR10526074.5458,95.00,40,2,0,195,234,253,292,4e-10,63.9
Fonsecaea_erecta_CBS125763_T,SRR10526074.14591,100.00,30,0,0,195,224,253,282,7e-08,56.5
Fonsecaea_pugnacius_CBS139214_T,SRR10526074.5458,95.00,40,2,0,204,243,253,292,4e-10,63.9
Fonsecaea_pugnacius_CBS139214_T,SRR10526074.14591,100.00,30,0,0,204,233,253,282,7e-08,56.5
Cladophialophora_psammophila_CBS,SRR10526074.5458,95.00,40,2,0,210,249,253,292,4e-10,63.9
Cladophialophora_psammophila_CBS,SRR10526074.14591,100.00,30,0,0,210,239,253,282,7e-08,56.5
Cladophialophora_devriesii_CBS,SRR10526074.5458,95.00,40,2,0,206,245,253,292,4e-10,63.9
Cladophialophora_devriesii_CBS,SRR10526074.14591,100.00,30,0,0,206,235,253,282,7e-08,56.5
Cladophialophora_immunda_CBS834.96,SRR10526074.5458,95.00,40,2,0,208,247,253,292,4e-10,63.9
Cladophialophora_immunda_CBS834.96,SRR10526074.14591,100.00,30,0,0,208,237,253,282,7e-08,56.5
Cladophialophora_arxii_CBS306.94_T,SRR10526074.5458,95.00,40,2,0,210,249,253,292,4e-10,63.9
Cladophialophora_arxii_CBS306.94_T,SRR10526074.14591,100.00,30,0,0,210,239,253,282,7e-08,56.5
Cladophialophora_bantiana_CBS173.52,SRR10526074.5458,95.00,40,2,0,204,243,253,292,4e-10,63.9
Cladophialophora_bantiana_CBS173.52,SRR10526074.14591,100.00,30,0,0,204,233,253,282,7e-08,56.5
Cladophialophora_emmonsii_CBS102594,SRR10526074.5458,95.00,40,2,0,195,234,253,292,4e-10,63.9
Cladophialophora_emmonsii_CBS102594,SRR10526074.14591,100.00,30,0,0,195,224,253,282,7e-08,56.5
Cladophialophora_minourae_CBS556.83,SRR10526074.5458,95.00,40,2,0,203,242,253,292,4e-10,63.9
Cladophialophora_minourae_CBS556.83,SRR10526074.14591,100.00,30,0,0,203,232,253,282,7e-08,56.5
Cladophialophora_australiensis_CBS112793,SRR10526074.5458,94.87,39,2,0,206,244,254,292,4e-09,62.1
Cladophialophora_australiensis_CBS112793,SRR10526074.14591,100.00,29,0,0,206,234,254,282,7e-07,54.7
Cladophialophora_potulentorum_CBS112222,SRR10526074.5458,94.87,39,2,0,205,243,254,292,4e-09,62.1
Cladophialophora_potulentorum_CBS112222,SRR10526074.14591,100.00,29,0,0,205,233,254,282,7e-07,54.7
Cladophialophora_matsushimae_CMRP1198,SRR10526074.5458,94.87,39,2,0,209,247,254,292,1e-09,62.1
Cladophialophora_matsushimae_CMRP1198,SRR10526074.14591,100.00,29,0,0,209,237,254,282,2e-07,54.7
Cladophialophora_mycetomatis_CBS122637,SRR10526074.5458,94.87,39,2,0,194,232,254,292,1e-09,62.1
Cladophialophora_mycetomatis_CBS122637,SRR10526074.14591,100.00,29,0,0,194,222,254,282,3e-07,54.7
Cladophialophora_boppii_CBS126.86_T,SRR10526074.5458,94.87,39,2,0,202,240,254,292,1e-09,62.1
Cladophialophora_boppii_CBS126.86_T,SRR10526074.14591,100.00,29,0,0,202,230,254,282,2e-07,54.7
Cladophialophora_abundans_CBS126736,SRR10526074.5458,94.87,39,2,0,139,177,254,292,1e-09,62.1
Cladophialophora_abundans_CBS126736,SRR10526074.14591,100.00,29,0,0,139,167,254,282,2e-07,54.7
Capronia_semi-immersa_CBS102234,SRR10526074.5458,95.00,40,2,0,200,239,253,292,4e-10,63.9
Capronia_semi-immersa_CBS102234,SRR10526074.14591,100.00,30,0,0,200,229,253,282,7e-08,56.5
Phialophora_americana_CBS400.67,SRR10526074.5458,95.00,40,2,0,202,241,253,292,1e-09,63.9
Phialophora_americana_CBS400.67,SRR10526074.14591,100.00,30,0,0,202,231,253,282,2e-07,56.5
Phialophora_verrucosa_CBS140325_T,SRR10526074.5458,95.00,40,2,0,206,245,253,292,4e-10,63.9
Phialophora_verrucosa_CBS140325_T,SRR10526074.14591,100.00,30,0,0,206,235,253,282,7e-08,56.5
Cladophialophora_samoensis_CBS259.83_T,SRR10526074.5458,95.00,40,2,0,206,245,253,292,4e-10,63.9
Cladophialophora_samoensis_CBS259.83_T,SRR10526074.14591,100.00,30,0,0,206,235,253,282,7e-08,56.5
Cladophialophora_carrionii_CBS260.83,SRR10526074.5458,95.00,40,2,0,222,261,253,292,5e-10,63.9
Cladophialophora_carrionii_CBS260.83,SRR10526074.14591,100.00,30,0,0,222,251,253,282,8e-08,56.5
Exophiala_palmae_UPCB86822_T,SRR10526074.5458,94.87,39,2,0,166,204,254,292,1e-09,62.1
Exophiala_palmae_UPCB86822_T,SRR10526074.14591,100.00,29,0,0,166,194,254,282,2e-07,54.7
Cladophialophora_yegresii_CBS114405_T,SRR10526074.5458,95.00,40,2,0,207,246,253,292,4e-10,63.9
Cladophialophora_yegresii_CBS114405_T,SRR10526074.14591,100.00,30,0,0,207,236,253,282,7e-08,56.5
Knufia_epidermidis_CBS120353_T,SRR10526074.5458,94.87,39,2,0,206,244,254,292,1e-09,62.1
Knufia_epidermidis_CBS120353_T,SRR10526074.14591,100.00,29,0,0,206,234,254,282,2e-07,54.7
Arthrocladium_fulminans_CBS136243_T,SRR10526074.5458,94.87,39,2,0,201,239,254,292,2e-09,62.1
Arthrocladium_fulminans_CBS136243_T,SRR10526074.14591,100.00,29,0,0,201,229,254,282,3e-07,54.7
Anthopsis_deltoidea_CBS263.77_T,SRR10526074.5458,95.00,40,2,0,209,248,253,292,4e-10,63.9
Anthopsis_deltoidea_CBS263.77_T,SRR10526074.14591,92.86,42,1,2,197,238,243,282,5e-09,60.2
Cyphellophora_suttonii_CBS449.91,SRR10526074.5458,78.18,110,15,7,128,236,191,292,1e-09,62.1
Cyphellophora_suttonii_CBS449.91,SRR10526074.14591,100.00,29,0,0,198,226,254,282,2e-07,54.7
Cyphellophora_pauciseptata_CBS284.85_T,SRR10526074.5458,94.87,39,2,0,209,247,254,292,1e-09,62.1
Cyphellophora_pauciseptata_CBS284.85_T,SRR10526074.14591,100.00,29,0,0,209,237,254,282,3e-07,54.7
Phialophora_europaea_CBS101466,SRR10526074.5458,94.87,39,2,0,204,242,254,292,1e-09,62.1
Phialophora_europaea_CBS101466,SRR10526074.14591,100.00,29,0,0,204,232,254,282,2e-07,54.7
Phialophora_ambigua_CBS235.93,SRR10526074.5458,94.87,39,2,0,201,239,254,292,1e-09,62.1
Phialophora_ambigua_CBS235.93,SRR10526074.14591,100.00,29,0,0,201,229,254,282,2e-07,54.7
Cladophialophora_modesta_CBS985.96_T,SRR10526074.5458,94.87,39,2,0,198,236,254,292,2e-09,62.1
Cladophialophora_modesta_CBS985.96_T,SRR10526074.14591,100.00,29,0,0,198,226,254,282,3e-07,54.7
