Exophiala_nigra_CBS535.94_T,SRR10526073.11325,94.59,37,2,0,201,237,254,290,1e-08,58.4
Exophiala_nigra_CBS535.94_T,SRR10526073.2492,92.31,39,3,0,202,240,255,293,4e-08,56.5
Exophiala_spinifera_CBS899.68_T,SRR10526073.11325,94.59,37,2,0,198,234,254,290,1e-08,58.4
Exophiala_spinifera_CBS899.68_T,SRR10526073.2492,92.31,39,3,0,199,237,255,293,4e-08,56.5
Exophiala_exophialae_CBS668.76_T,SRR10526073.11325,94.59,37,2,0,199,235,254,290,1e-08,58.4
Exophiala_exophialae_CBS668.76_T,SRR10526073.2492,92.31,39,3,0,200,238,255,293,4e-08,56.5
Exophiala_polymorpha_CBS138920_T,SRR10526073.11325,94.59,37,2,0,301,337,254,290,1e-08,58.4
Exophiala_polymorpha_CBS138920_T,SRR10526073.2492,92.31,39,3,0,302,340,255,293,5e-08,56.5
Exophiala_oligosperma_CBS725.88_T,SRR10526073.11325,94.59,37,2,0,211,247,254,290,1e-08,58.4
Exophiala_oligosperma_CBS725.88_T,SRR10526073.2492,92.31,39,3,0,212,250,255,293,4e-08,56.5
Exophiala_jeanselmei_CBS507.90_T,SRR10526073.11325,94.59,37,2,0,203,239,254,290,1e-08,58.4
Exophiala_jeanselmei_CBS507.90_T,SRR10526073.2492,92.31,39,3,0,204,242,255,293,4e-08,56.5
Exophiala_bergeri_CBS353.52,SRR10526073.11325,94.59,37,2,0,164,200,254,290,1e-08,58.4
Exophiala_bergeri_CBS353.52,SRR10526073.2492,92.31,39,3,0,165,203,255,293,4e-08,56.5
Exophiala_moniliae_CBS520.76_T,SRR10526073.11325,94.59,37,2,0,201,237,254,290,1e-08,58.4
Exophiala_moniliae_CBS520.76_T,SRR10526073.2492,92.31,39,3,0,202,240,255,293,4e-08,56.5
Exophiala_pisciphila_CBS537.73_T,SRR10526073.11325,94.59,37,2,0,204,240,254,290,1e-08,58.4
Exophiala_pisciphila_CBS537.73_T,SRR10526073.2492,92.31,39,3,0,205,243,255,293,5e-08,56.5
Exophiala_xenobiotica_CBS117642,SRR10526073.11325,94.59,37,2,0,196,232,254,290,1e-08,58.4
Exophiala_xenobiotica_CBS117642,SRR10526073.2492,92.31,39,3,0,197,235,255,293,4e-08,56.5
Exophiala_brunnea_CBS,SRR10526073.11325,94.59,37,2,0,232,268,254,290,1e-08,58.4
Exophiala_brunnea_CBS,SRR10526073.2492,92.31,39,3,0,233,271,255,293,5e-08,56.5
Exophiala_mesophila_CBS402.95_T,SRR10526073.11325,94.59,37,2,0,194,230,254,290,1e-08,58.4
Exophiala_mesophila_CBS402.95_T,SRR10526073.2492,92.31,39,3,0,195,233,255,293,5e-08,56.5
Exophiala_castellanii_CBS158.58_T,SRR10526073.11325,94.59,37,2,0,192,228,254,290,1e-08,58.4
Exophiala_castellanii_CBS158.58_T,SRR10526073.2492,92.31,39,3,0,193,231,255,293,5e-08,56.5
Exophiala_lecanii-corni_CBS123.33_T,SRR10526073.11325,94.59,37,2,0,215,251,254,290,1e-08,58.4
Exophiala_lecanii-corni_CBS123.33_T,SRR10526073.2492,92.31,39,3,0,216,254,255,293,4e-08,56.5
Exophiala_dermatitidis_CBS748.88,SRR10526073.11325,94.59,37,1,1,208,243,254,290,1e-07,56.5
Exophiala_dermatitidis_CBS748.88,SRR10526073.2492,92.31,39,2,1,209,246,255,293,4e-07,54.7
Exophiala_angulospora_CBS482.92_T,SRR10526073.11325,94.59,37,2,0,198,234,254,290,1e-08,58.4
Exophiala_angulospora_CBS482.92_T,SRR10526073.2492,92.31,39,3,0,199,237,255,293,4e-08,56.5
Exophiala_opportunistica_CBS109811_T,SRR10526073.11325,94.59,37,2,0,197,233,254,290,1e-08,58.4
Exophiala_opportunistica_CBS109811_T,SRR10526073.2492,92.31,39,3,0,198,236,255,293,4e-08,56.5
Exophiala_salmonis_CBS157.67_T,SRR10526073.11325,94.59,37,2,0,326,362,254,290,2e-08,58.4
Exophiala_salmonis_CBS157.67_T,SRR10526073.2492,92.31,39,3,0,327,365,255,293,6e-08,56.5
Exophiala_aquamarina_CBS119918_T,SRR10526073.11325,94.59,37,2,0,204,240,254,290,1e-08,58.4
Exophiala_aquamarina_CBS119918_T,SRR10526073.2492,92.31,39,3,0,205,243,255,293,4e-08,56.5
Exophiala_cancerae_CBS120420_T,SRR10526073.11325,94.59,37,2,0,219,255,254,290,1e-08,58.4
Exophiala_cancerae_CBS120420_T,SRR10526073.2492,92.31,39,3,0,220,258,255,293,5e-08,56.5
Exophiala_tremulae_CBS129355,SRR10526073.11325,94.59,37,2,0,231,267,254,290,1e-08,58.4
Exophiala_tremulae_CBS129355,SRR10526073.2492,92.31,39,3,0,232,270,255,293,5e-08,56.5
Exophiala_equina_CBS116009,SRR10526073.11325,94.59,37,2,0,197,233,254,290,1e-08,58.4
Exophiala_equina_CBS116009,SRR10526073.2492,92.31,39,3,0,198,236,255,293,4e-08,56.5
Exophiala_alcalophila_CBS520.82_T,SRR10526073.11325,94.59,37,2,0,208,244,254,290,1e-08,58.4
Exophiala_alcalophila_CBS520.82_T,SRR10526073.2492,92.31,39,3,0,209,247,255,293,4e-08,56.5
Exophiala_crusticola_CBS119970_T,SRR10526073.11325,94.59,37,2,0,213,249,254,290,1e-08,58.4
Exophiala_crusticola_CBS119970_T,SRR10526073.2492,92.31,39,3,0,214,252,255,293,4e-08,56.5
Rhinocladiella_atrovirens_CBS264.49,SRR10526073.11325,94.59,37,2,0,239,275,254,290,1e-08,58.4
Rhinocladiella_atrovirens_CBS264.49,SRR10526073.2492,92.31,39,3,0,240,278,255,293,5e-08,56.5
Rhinocladiella_basitona_CBS101460_T,SRR10526073.11325,94.59,37,2,0,198,234,254,290,1e-08,58.4
Rhinocladiella_basitona_CBS101460_T,SRR10526073.2492,92.31,39,3,0,199,237,255,293,4e-08,56.5
Rhinocladiella_phaeophora_CBS496.78_T,SRR10526073.11325,95.00,40,2,0,203,242,251,290,3e-10,63.9
Rhinocladiella_phaeophora_CBS496.78_T,SRR10526073.2492,92.31,39,3,0,207,245,255,293,4e-08,56.5
Rhinocladiella_aquaspersa_CBS313.73_T,SRR10526073.11325,95.00,40,2,0,197,236,251,290,3e-10,63.9
Rhinocladiella_aquaspersa_CBS313.73_T,SRR10526073.2492,92.31,39,3,0,201,239,255,293,5e-08,56.5
Rhinocladiella_anceps_CBS181.65_T,SRR10526073.11325,94.59,37,2,0,198,234,254,290,1e-08,58.4
Rhinocladiella_anceps_CBS181.65_T,SRR10526073.2492,92.31,39,3,0,199,237,255,293,4e-08,56.5
Rhinocladiella_mackenziei_CBS367.92,SRR10526073.11325,94.59,37,2,0,187,223,254,290,1e-08,58.4
Rhinocladiella_mackenziei_CBS367.92,SRR10526073.2492,92.31,39,3,0,188,226,255,293,4e-08,56.5
Veronaea_compacta_CBS268.75_T,SRR10526073.11325,94.59,37,2,0,220,256,254,290,1e-08,58.4
Veronaea_compacta_CBS268.75_T,SRR10526073.2492,92.31,39,3,0,221,259,255,293,4e-08,56.5
Capronia_pilosella_AFTOL-ID657,SRR10526073.11325,94.59,37,2,0,298,334,254,290,1e-08,58.4
Capronia_pilosella_AFTOL-ID657,SRR10526073.2492,92.31,39,3,0,299,337,255,293,5e-08,56.5
Capronia_dactylotricha_DAOM208471_T,SRR10526073.11325,94.59,37,2,0,200,236,254,290,1e-08,58.4
Capronia_dactylotricha_DAOM208471_T,SRR10526073.2492,92.31,39,3,0,201,239,255,293,5e-08,56.5
Capronia_kleinmondensis_CBS122671_T,SRR10526073.11325,94.59,37,2,0,225,261,254,290,1e-08,58.4
Capronia_kleinmondensis_CBS122671_T,SRR10526073.2492,92.31,39,3,0,226,264,255,293,5e-08,56.5
Capronia_mansonii_CBS101.67_T,SRR10526073.11325,94.59,37,2,0,211,247,254,290,1e-08,58.4
Capronia_mansonii_CBS101.67_T,SRR10526073.2492,92.31,39,3,0,212,250,255,293,5e-08,56.5
Capronia_munkii_DAOM216390_T,SRR10526073.11325,94.59,37,2,0,211,247,254,290,1e-08,58.4
Capronia_munkii_DAOM216390_T,SRR10526073.2492,92.31,39,3,0,212,250,255,293,5e-08,56.5
Capronia_coronata_ATCC56201_T,SRR10526073.11325,94.59,37,2,0,199,235,254,290,1e-08,58.4
Capronia_coronata_ATCC56201_T,SRR10526073.2492,92.31,39,3,0,200,238,255,293,5e-08,56.5
Capronia_parasitica_CBS123.88,SRR10526073.11325,94.59,37,2,0,205,241,254,290,1e-08,58.4
Capronia_parasitica_CBS123.88,SRR10526073.2492,92.31,39,3,0,206,244,255,293,4e-08,56.5
Veronaea_japonica_CBS776.83_T,SRR10526073.11325,94.59,37,2,0,233,269,254,290,1e-08,58.4
Veronaea_japonica_CBS776.83_T,SRR10526073.2492,92.31,39,3,0,234,272,255,293,4e-08,56.5
Thysanorea_papuana_CBS212.96_T,SRR10526073.11325,94.59,37,2,0,207,243,254,290,1e-08,58.4
Thysanorea_papuana_CBS212.96_T,SRR10526073.2492,92.31,39,3,0,208,246,255,293,4e-08,56.5
Capronia_acutiseta_ATCC56428_T,SRR10526073.11325,94.59,37,2,0,201,237,254,290,1e-08,58.4
Capronia_acutiseta_ATCC56428_T,SRR10526073.2492,92.31,39,3,0,202,240,255,293,5e-08,56.5
Fonsecaea_brasiliensis_CBS119710_T,SRR10526073.11325,94.74,38,2,0,206,243,253,290,3e-09,60.2
Fonsecaea_brasiliensis_CBS119710_T,SRR10526073.2492,92.31,39,3,0,208,246,255,293,4e-08,56.5
Fonsecaea_pedrosoi_CBS271.37_T,SRR10526073.11325,94.74,38,2,0,234,271,253,290,4e-09,60.2
Fonsecaea_pedrosoi_CBS271.37_T,SRR10526073.2492,92.31,39,3,0,236,274,255,293,5e-08,56.5
Fonsecaea_multimorphosa_CBS980.96_T,SRR10526073.11325,94.74,38,2,0,204,241,253,290,3e-09,60.2
Fonsecaea_multimorphosa_CBS980.96_T,SRR10526073.2492,92.31,39,3,0,206,244,255,293,4e-08,56.5
Fonsecaea_minima_CBS125760_T,SRR10526073.11325,94.74,38,2,0,200,237,253,290,3e-09,60.2
Fonsecaea_minima_CBS125760_T,SRR10526073.2492,92.31,39,3,0,202,240,255,293,4e-08,56.5
Fonsecaea_nubica_CBS269.64_T,SRR10526073.11325,94.74,38,2,0,211,248,253,290,3e-09,60.2
Fonsecaea_nubica_CBS269.64_T,SRR10526073.2492,92.31,39,3,0,213,251,255,293,4e-08,56.5
Fonsecaea_monophora_CBS269.37_T,SRR10526073.11325,94.74,38,2,0,211,248,253,290,3e-09,60.2
Fonsecaea_monophora_CBS269.37_T,SRR10526073.2492,92.31,39,3,0,213,251,255,293,4e-08,56.5
Fonsecaea_erecta_CBS125763_T,SRR10526073.11325,94.74,38,2,0,195,232,253,290,3e-09,60.2
Fonsecaea_erecta_CBS125763_T,SRR10526073.2492,92.31,39,3,0,197,235,255,293,4e-08,56.5
Fonsecaea_pugnacius_CBS139214_T,SRR10526073.11325,94.74,38,2,0,204,241,253,290,3e-09,60.2
Fonsecaea_pugnacius_CBS139214_T,SRR10526073.2492,92.31,39,3,0,206,244,255,293,4e-08,56.5
Cladophialophora_psammophila_CBS,SRR10526073.11325,94.74,38,2,0,210,247,253,290,3e-09,60.2
Cladophialophora_psammophila_CBS,SRR10526073.2492,92.31,39,3,0,212,250,255,293,4e-08,56.5
Cladophialophora_devriesii_CBS,SRR10526073.11325,94.74,38,2,0,206,243,253,290,3e-09,60.2
Cladophialophora_devriesii_CBS,SRR10526073.2492,92.31,39,3,0,208,246,255,293,4e-08,56.5
Cladophialophora_immunda_CBS834.96,SRR10526073.11325,94.74,38,2,0,208,245,253,290,3e-09,60.2
Cladophialophora_immunda_CBS834.96,SRR10526073.2492,92.31,39,3,0,210,248,255,293,4e-08,56.5
Cladophialophora_arxii_CBS306.94_T,SRR10526073.11325,94.74,38,2,0,210,247,253,290,3e-09,60.2
Cladophialophora_arxii_CBS306.94_T,SRR10526073.2492,92.31,39,3,0,212,250,255,293,4e-08,56.5
Cladophialophora_bantiana_CBS173.52,SRR10526073.11325,94.74,38,2,0,204,241,253,290,3e-09,60.2
Cladophialophora_bantiana_CBS173.52,SRR10526073.2492,92.31,39,3,0,206,244,255,293,4e-08,56.5
Cladophialophora_emmonsii_CBS102594,SRR10526073.11325,94.74,38,2,0,195,232,253,290,3e-09,60.2
Cladophialophora_emmonsii_CBS102594,SRR10526073.2492,92.31,39,3,0,197,235,255,293,4e-08,56.5
Cladophialophora_minourae_CBS556.83,SRR10526073.11325,94.74,38,2,0,203,240,253,290,3e-09,60.2
Cladophialophora_minourae_CBS556.83,SRR10526073.2492,92.31,39,3,0,205,243,255,293,4e-08,56.5
Cladophialophora_australiensis_CBS112793,SRR10526073.11325,94.59,37,2,0,206,242,254,290,3e-08,58.4
Cladophialophora_australiensis_CBS112793,SRR10526073.2492,92.31,39,3,0,207,245,255,293,1e-07,56.5
Cladophialophora_potulentorum_CBS112222,SRR10526073.11325,94.59,37,2,0,205,241,254,290,3e-08,58.4
Cladophialophora_potulentorum_CBS112222,SRR10526073.2492,92.31,39,3,0,206,244,255,293,1e-07,56.5
Cladophialophora_matsushimae_CMRP1198,SRR10526073.11325,94.59,37,2,0,209,245,254,290,1e-08,58.4
Cladophialophora_matsushimae_CMRP1198,SRR10526073.2492,92.31,39,3,0,210,248,255,293,4e-08,56.5
Cladophialophora_mycetomatis_CBS122637,SRR10526073.11325,94.59,37,2,0,194,230,254,290,1e-08,58.4
Cladophialophora_mycetomatis_CBS122637,SRR10526073.2492,92.31,39,3,0,195,233,255,293,4e-08,56.5
Cladophialophora_boppii_CBS126.86_T,SRR10526073.11325,94.59,37,2,0,202,238,254,290,1e-08,58.4
Cladophialophora_boppii_CBS126.86_T,SRR10526073.2492,92.31,39,3,0,203,241,255,293,4e-08,56.5
Cladophialophora_abundans_CBS126736,SRR10526073.11325,94.59,37,2,0,139,175,254,290,1e-08,58.4
Cladophialophora_abundans_CBS126736,SRR10526073.2492,92.31,39,3,0,140,178,255,293,4e-08,56.5
Capronia_semi-immersa_CBS102234,SRR10526073.11325,94.74,38,2,0,200,237,253,290,3e-09,60.2
Capronia_semi-immersa_CBS102234,SRR10526073.2492,92.31,39,3,0,202,240,255,293,4e-08,56.5
Phialophora_americana_CBS400.67,SRR10526073.11325,94.74,38,2,0,202,239,253,290,8e-09,60.2
Phialophora_americana_CBS400.67,SRR10526073.2492,92.31,39,3,0,204,242,255,293,1e-07,56.5
Phialophora_verrucosa_CBS140325_T,SRR10526073.11325,94.74,38,2,0,206,243,253,290,3e-09,60.2
Phialophora_verrucosa_CBS140325_T,SRR10526073.2492,92.31,39,3,0,208,246,255,293,4e-08,56.5
Cladophialophora_samoensis_CBS259.83_T,SRR10526073.11325,94.74,38,2,0,206,243,253,290,3e-09,60.2
Cladophialophora_samoensis_CBS259.83_T,SRR10526073.2492,92.31,39,3,0,208,246,255,293,4e-08,56.5
Cladophialophora_carrionii_CBS260.83,SRR10526073.11325,94.74,38,2,0,222,259,253,290,3e-09,60.2
Cladophialophora_carrionii_CBS260.83,SRR10526073.2492,92.31,39,3,0,224,262,255,293,4e-08,56.5
Exophiala_palmae_UPCB86822_T,SRR10526073.11325,94.59,37,2,0,166,202,254,290,1e-08,58.4
Exophiala_palmae_UPCB86822_T,SRR10526073.2492,92.31,39,3,0,167,205,255,293,4e-08,56.5
Cladophialophora_yegresii_CBS114405_T,SRR10526073.11325,94.74,38,2,0,207,244,253,290,3e-09,60.2
Cladophialophora_yegresii_CBS114405_T,SRR10526073.2492,92.31,39,3,0,209,247,255,293,4e-08,56.5
Knufia_epidermidis_CBS120353_T,SRR10526073.11325,94.59,37,2,0,206,242,254,290,1e-08,58.4
Knufia_epidermidis_CBS120353_T,SRR10526073.2492,92.31,39,3,0,207,245,255,293,4e-08,56.5
Arthrocladium_fulminans_CBS136243_T,SRR10526073.11325,94.59,37,2,0,201,237,254,290,1e-08,58.4
Arthrocladium_fulminans_CBS136243_T,SRR10526073.2492,92.31,39,3,0,202,240,255,293,4e-08,56.5
Anthopsis_deltoidea_CBS263.77_T,SRR10526073.11325,90.00,50,3,2,197,246,243,290,2e-10,63.9
Anthopsis_deltoidea_CBS263.77_T,SRR10526073.2492,92.31,39,3,0,211,249,255,293,4e-08,56.5
Cyphellophora_suttonii_CBS449.91,SRR10526073.2492,83.82,68,7,3,171,237,229,293,9e-10,62.1
Cyphellophora_suttonii_CBS449.91,SRR10526073.11325,94.59,37,2,0,198,234,254,290,1e-08,58.4
Cyphellophora_pauciseptata_CBS284.85_T,SRR10526073.2492,83.82,68,7,3,182,248,229,293,9e-10,62.1
Cyphellophora_pauciseptata_CBS284.85_T,SRR10526073.11325,94.59,37,2,0,209,245,254,290,1e-08,58.4
Phialophora_europaea_CBS101466,SRR10526073.11325,94.59,37,2,0,204,240,254,290,1e-08,58.4
Phialophora_europaea_CBS101466,SRR10526073.2492,90.70,43,3,1,202,243,251,293,4e-08,56.5
Phialophora_ambigua_CBS235.93,SRR10526073.2492,83.82,68,7,4,174,240,229,293,9e-10,62.1
Phialophora_ambigua_CBS235.93,SRR10526073.11325,94.59,37,2,0,201,237,254,290,1e-08,58.4
Cladophialophora_modesta_CBS985.96_T,SRR10526073.11325,94.59,37,2,0,198,234,254,290,1e-08,58.4
Cladophialophora_modesta_CBS985.96_T,SRR10526073.2492,82.35,68,9,3,170,237,229,293,5e-08,56.5
