Exophiala_salmonis_CBS157.67_T,ERR1085090.94151,100.00,98,0,0,1,98,3,100,9e-46,182
Exophiala_salmonis_CBS157.67_T,ERR1085090.88525,100.00,98,0,0,1,98,3,100,9e-46,182
Exophiala_salmonis_CBS157.67_T,ERR1085090.53454,100.00,98,0,0,1,98,3,100,9e-46,182
Exophiala_salmonis_CBS157.67_T,ERR1085090.51082,100.00,98,0,0,1,98,3,100,9e-46,182
Exophiala_salmonis_CBS157.67_T,ERR1085090.46282,100.00,98,0,0,1,98,3,100,9e-46,182
Exophiala_salmonis_CBS157.67_T,ERR1085090.42221,100.00,98,0,0,1,98,3,100,9e-46,182
Exophiala_salmonis_CBS157.67_T,ERR1085090.12464,100.00,98,0,0,1,98,3,100,9e-46,182
Exophiala_salmonis_CBS157.67_T,ERR1085090.6796,100.00,98,0,0,1,98,3,100,9e-46,182
Exophiala_salmonis_CBS157.67_T,ERR1085090.94245,98.98,98,1,0,1,98,3,100,4e-44,176
Exophiala_salmonis_CBS157.67_T,ERR1085090.40396,98.98,98,1,0,1,98,3,100,4e-44,176
Exophiala_salmonis_CBS157.67_T,ERR1085090.24272,98.98,98,1,0,1,98,3,100,4e-44,176
Exophiala_salmonis_CBS157.67_T,ERR1085090.101857,97.96,98,2,0,1,98,3,100,2e-42,171
Exophiala_salmonis_CBS157.67_T,ERR1085090.100225,97.96,98,2,0,1,98,3,100,2e-42,171
Exophiala_salmonis_CBS157.67_T,ERR1085090.89631,97.96,98,2,0,1,98,3,100,2e-42,171
Exophiala_salmonis_CBS157.67_T,ERR1085090.82544,97.96,98,2,0,1,98,3,100,2e-42,171
Exophiala_salmonis_CBS157.67_T,ERR1085090.77854,97.96,98,2,0,1,98,3,100,2e-42,171
Exophiala_salmonis_CBS157.67_T,ERR1085090.76185,97.96,98,2,0,1,98,3,100,2e-42,171
Exophiala_salmonis_CBS157.67_T,ERR1085090.69630,97.96,98,2,0,1,98,3,100,2e-42,171
Exophiala_salmonis_CBS157.67_T,ERR1085090.68557,97.96,98,2,0,1,98,3,100,2e-42,171
Exophiala_salmonis_CBS157.67_T,ERR1085090.56494,97.96,98,2,0,1,98,3,100,2e-42,171
Exophiala_salmonis_CBS157.67_T,ERR1085090.55071,97.96,98,2,0,1,98,3,100,2e-42,171
Exophiala_salmonis_CBS157.67_T,ERR1085090.52898,97.96,98,2,0,1,98,3,100,2e-42,171
Exophiala_salmonis_CBS157.67_T,ERR1085090.52268,97.96,98,2,0,1,98,3,100,2e-42,171
Exophiala_salmonis_CBS157.67_T,ERR1085090.51249,97.96,98,2,0,1,98,3,100,2e-42,171
Exophiala_salmonis_CBS157.67_T,ERR1085090.28851,97.96,98,2,0,1,98,3,100,2e-42,171
Exophiala_salmonis_CBS157.67_T,ERR1085090.26065,97.96,98,2,0,1,98,3,100,2e-42,171
Exophiala_salmonis_CBS157.67_T,ERR1085090.25200,97.96,98,2,0,1,98,3,100,2e-42,171
Exophiala_salmonis_CBS157.67_T,ERR1085090.23030,97.96,98,2,0,1,98,3,100,2e-42,171
Exophiala_salmonis_CBS157.67_T,ERR1085090.17941,97.96,98,2,0,1,98,3,100,2e-42,171
Exophiala_salmonis_CBS157.67_T,ERR1085090.16810,97.96,98,2,0,1,98,3,100,2e-42,171
Exophiala_salmonis_CBS157.67_T,ERR1085090.11431,97.96,98,2,0,1,98,3,100,2e-42,171
Exophiala_salmonis_CBS157.67_T,ERR1085090.8866,97.96,98,2,0,1,98,3,100,2e-42,171
Exophiala_salmonis_CBS157.67_T,ERR1085090.2329,97.96,98,2,0,1,98,3,100,2e-42,171
Exophiala_salmonis_CBS157.67_T,ERR1085090.85428,96.94,98,3,0,1,98,3,100,9e-41,165
Exophiala_salmonis_CBS157.67_T,ERR1085090.78046,96.94,98,3,0,1,98,3,100,9e-41,165
Exophiala_salmonis_CBS157.67_T,ERR1085090.71443,96.94,98,3,0,1,98,3,100,9e-41,165
Exophiala_salmonis_CBS157.67_T,ERR1085090.59819,96.94,98,3,0,1,98,3,100,9e-41,165
Exophiala_salmonis_CBS157.67_T,ERR1085090.59172,96.94,98,3,0,1,98,3,100,9e-41,165
Exophiala_salmonis_CBS157.67_T,ERR1085090.54002,96.94,98,3,0,1,98,3,100,9e-41,165
Exophiala_salmonis_CBS157.67_T,ERR1085090.5669,96.94,98,3,0,1,98,3,100,9e-41,165
Exophiala_salmonis_CBS157.67_T,ERR1085090.91940,95.92,98,4,0,1,98,3,100,4e-39,159
Exophiala_salmonis_CBS157.67_T,ERR1085090.91714,95.92,98,4,0,1,98,3,100,4e-39,159
Exophiala_salmonis_CBS157.67_T,ERR1085090.67148,95.92,98,4,0,1,98,3,100,4e-39,159
Exophiala_salmonis_CBS157.67_T,ERR1085090.60366,95.92,98,4,0,1,98,3,100,4e-39,159
Exophiala_salmonis_CBS157.67_T,ERR1085090.59497,95.92,98,4,0,1,98,3,100,4e-39,159
Exophiala_salmonis_CBS157.67_T,ERR1085090.58399,95.92,98,4,0,1,98,3,100,4e-39,159
Exophiala_salmonis_CBS157.67_T,ERR1085090.58223,95.92,98,4,0,1,98,3,100,4e-39,159
Exophiala_salmonis_CBS157.67_T,ERR1085090.56082,95.92,98,4,0,1,98,3,100,4e-39,159
Exophiala_salmonis_CBS157.67_T,ERR1085090.54013,95.92,98,4,0,1,98,3,100,4e-39,159
Exophiala_salmonis_CBS157.67_T,ERR1085090.47230,95.92,98,4,0,1,98,3,100,4e-39,159
Exophiala_salmonis_CBS157.67_T,ERR1085090.44030,95.92,98,4,0,1,98,3,100,4e-39,159
Exophiala_salmonis_CBS157.67_T,ERR1085090.37057,95.92,98,4,0,1,98,3,100,4e-39,159
Exophiala_salmonis_CBS157.67_T,ERR1085090.21768,95.92,98,4,0,1,98,3,100,4e-39,159
Exophiala_salmonis_CBS157.67_T,ERR1085090.20060,95.92,98,4,0,1,98,3,100,4e-39,159
Exophiala_salmonis_CBS157.67_T,ERR1085090.15825,95.92,98,4,0,1,98,3,100,4e-39,159
Exophiala_salmonis_CBS157.67_T,ERR1085090.8872,95.92,98,4,0,1,98,3,100,4e-39,159
Exophiala_salmonis_CBS157.67_T,ERR1085090.104556,94.90,98,5,0,1,98,3,100,2e-37,154
Exophiala_salmonis_CBS157.67_T,ERR1085090.102869,94.90,98,5,0,1,98,3,100,2e-37,154
Exophiala_salmonis_CBS157.67_T,ERR1085090.102698,94.90,98,5,0,1,98,3,100,2e-37,154
Exophiala_salmonis_CBS157.67_T,ERR1085090.100840,94.90,98,5,0,1,98,3,100,2e-37,154
Exophiala_salmonis_CBS157.67_T,ERR1085090.100790,94.90,98,5,0,1,98,3,100,2e-37,154
Exophiala_salmonis_CBS157.67_T,ERR1085090.97284,100.00,83,0,0,1,83,3,85,2e-37,154
Exophiala_salmonis_CBS157.67_T,ERR1085090.96884,94.90,98,5,0,1,98,3,100,2e-37,154
Exophiala_salmonis_CBS157.67_T,ERR1085090.95472,94.90,98,5,0,1,98,3,100,2e-37,154
Exophiala_salmonis_CBS157.67_T,ERR1085090.93879,94.90,98,5,0,1,98,3,100,2e-37,154
Exophiala_salmonis_CBS157.67_T,ERR1085090.91832,94.90,98,5,0,1,98,3,100,2e-37,154
Exophiala_salmonis_CBS157.67_T,ERR1085090.86085,94.90,98,5,0,1,98,3,100,2e-37,154
Exophiala_salmonis_CBS157.67_T,ERR1085090.78844,94.90,98,5,0,1,98,3,100,2e-37,154
Exophiala_salmonis_CBS157.67_T,ERR1085090.66595,94.90,98,5,0,1,98,3,100,2e-37,154
Exophiala_salmonis_CBS157.67_T,ERR1085090.66058,94.90,98,5,0,1,98,3,100,2e-37,154
Exophiala_salmonis_CBS157.67_T,ERR1085090.64452,94.90,98,5,0,1,98,3,100,2e-37,154
Exophiala_salmonis_CBS157.67_T,ERR1085090.64420,94.90,98,5,0,1,98,3,100,2e-37,154
Exophiala_salmonis_CBS157.67_T,ERR1085090.64269,94.90,98,5,0,1,98,3,100,2e-37,154
Exophiala_salmonis_CBS157.67_T,ERR1085090.55855,94.90,98,5,0,1,98,3,100,2e-37,154
Exophiala_salmonis_CBS157.67_T,ERR1085090.52417,94.90,98,5,0,1,98,3,100,2e-37,154
Exophiala_salmonis_CBS157.67_T,ERR1085090.51816,94.90,98,5,0,1,98,3,100,2e-37,154
Exophiala_salmonis_CBS157.67_T,ERR1085090.50622,94.90,98,5,0,1,98,3,100,2e-37,154
Exophiala_salmonis_CBS157.67_T,ERR1085090.49568,94.90,98,5,0,1,98,3,100,2e-37,154
Exophiala_salmonis_CBS157.67_T,ERR1085090.49433,94.90,98,5,0,1,98,3,100,2e-37,154
Exophiala_salmonis_CBS157.67_T,ERR1085090.45550,94.90,98,5,0,1,98,3,100,2e-37,154
Exophiala_salmonis_CBS157.67_T,ERR1085090.42541,94.90,98,5,0,1,98,3,100,2e-37,154
Exophiala_salmonis_CBS157.67_T,ERR1085090.42385,94.90,98,5,0,1,98,3,100,2e-37,154
Exophiala_salmonis_CBS157.67_T,ERR1085090.42002,94.90,98,5,0,1,98,3,100,2e-37,154
Exophiala_salmonis_CBS157.67_T,ERR1085090.40208,94.90,98,5,0,1,98,3,100,2e-37,154
Exophiala_salmonis_CBS157.67_T,ERR1085090.22241,94.90,98,5,0,1,98,3,100,2e-37,154
Exophiala_salmonis_CBS157.67_T,ERR1085090.21554,94.90,98,5,0,1,98,3,100,2e-37,154
Exophiala_salmonis_CBS157.67_T,ERR1085090.17909,94.90,98,5,0,1,98,3,100,2e-37,154
Exophiala_salmonis_CBS157.67_T,ERR1085090.13983,94.90,98,5,0,1,98,3,100,2e-37,154
Exophiala_salmonis_CBS157.67_T,ERR1085090.10509,94.90,98,5,0,1,98,3,100,2e-37,154
Exophiala_salmonis_CBS157.67_T,ERR1085090.8837,94.90,98,5,0,1,98,3,100,2e-37,154
Exophiala_salmonis_CBS157.67_T,ERR1085090.7079,94.95,99,3,2,1,98,3,100,2e-37,154
Exophiala_salmonis_CBS157.67_T,ERR1085090.5201,94.90,98,5,0,1,98,3,100,2e-37,154
Exophiala_salmonis_CBS157.67_T,ERR1085090.616,94.90,98,5,0,1,98,3,100,2e-37,154
Exophiala_salmonis_CBS157.67_T,ERR1085090.245,94.90,98,5,0,1,98,3,100,2e-37,154
Exophiala_salmonis_CBS157.67_T,ERR1085090.103483,93.88,98,6,0,1,98,3,100,9e-36,148
Exophiala_salmonis_CBS157.67_T,ERR1085090.102457,93.94,99,4,2,1,98,3,100,9e-36,148
Exophiala_salmonis_CBS157.67_T,ERR1085090.99671,93.94,99,4,2,1,98,3,100,9e-36,148
Exophiala_salmonis_CBS157.67_T,ERR1085090.99620,93.94,99,4,2,1,98,3,100,9e-36,148
Exophiala_salmonis_CBS157.67_T,ERR1085090.99569,93.88,98,6,0,1,98,3,100,9e-36,148
Exophiala_salmonis_CBS157.67_T,ERR1085090.99463,93.94,99,4,2,1,98,3,100,9e-36,148
Exophiala_salmonis_CBS157.67_T,ERR1085090.95326,93.94,99,4,2,1,98,3,100,9e-36,148
Exophiala_salmonis_CBS157.67_T,ERR1085090.94751,93.88,98,6,0,1,98,3,100,9e-36,148
Exophiala_salmonis_CBS157.67_T,ERR1085090.92595,93.88,98,6,0,1,98,3,100,9e-36,148
Exophiala_salmonis_CBS157.67_T,ERR1085090.91287,93.88,98,6,0,1,98,3,100,9e-36,148
Exophiala_salmonis_CBS157.67_T,ERR1085090.89395,93.94,99,4,2,1,98,3,100,9e-36,148
Exophiala_salmonis_CBS157.67_T,ERR1085090.88527,93.88,98,6,0,1,98,3,100,9e-36,148
Exophiala_salmonis_CBS157.67_T,ERR1085090.87645,93.94,99,4,2,1,98,3,100,9e-36,148
Exophiala_salmonis_CBS157.67_T,ERR1085090.87637,93.94,99,4,2,1,98,3,100,9e-36,148
Exophiala_salmonis_CBS157.67_T,ERR1085090.86356,93.94,99,4,2,1,98,3,100,9e-36,148
Exophiala_salmonis_CBS157.67_T,ERR1085090.85749,93.94,99,4,2,1,98,3,100,9e-36,148
Exophiala_salmonis_CBS157.67_T,ERR1085090.85627,93.94,99,4,2,1,98,3,100,9e-36,148
Exophiala_salmonis_CBS157.67_T,ERR1085090.79359,93.88,98,6,0,1,98,3,100,9e-36,148
Exophiala_salmonis_CBS157.67_T,ERR1085090.77733,93.94,99,4,2,1,98,3,100,9e-36,148
Exophiala_salmonis_CBS157.67_T,ERR1085090.77496,93.94,99,4,2,1,98,3,100,9e-36,148
Exophiala_salmonis_CBS157.67_T,ERR1085090.77357,93.94,99,4,2,1,98,3,100,9e-36,148
Exophiala_salmonis_CBS157.67_T,ERR1085090.76748,93.88,98,6,0,1,98,3,100,9e-36,148
Exophiala_salmonis_CBS157.67_T,ERR1085090.76536,93.94,99,4,2,1,98,3,100,9e-36,148
Exophiala_salmonis_CBS157.67_T,ERR1085090.76197,93.94,99,4,2,1,98,3,100,9e-36,148
Exophiala_salmonis_CBS157.67_T,ERR1085090.76055,93.94,99,4,2,1,98,3,100,9e-36,148
Exophiala_salmonis_CBS157.67_T,ERR1085090.74593,93.88,98,6,0,1,98,3,100,9e-36,148
Exophiala_salmonis_CBS157.67_T,ERR1085090.74138,93.88,98,6,0,1,98,3,100,9e-36,148
Exophiala_salmonis_CBS157.67_T,ERR1085090.72259,93.94,99,4,2,1,98,3,100,9e-36,148
Exophiala_salmonis_CBS157.67_T,ERR1085090.67764,93.88,98,6,0,1,98,3,100,9e-36,148
Exophiala_salmonis_CBS157.67_T,ERR1085090.67703,93.94,99,4,2,1,98,3,100,9e-36,148
Exophiala_salmonis_CBS157.67_T,ERR1085090.67109,93.94,99,4,2,1,98,3,100,9e-36,148
Exophiala_salmonis_CBS157.67_T,ERR1085090.65097,93.94,99,4,2,1,98,3,100,9e-36,148
Exophiala_salmonis_CBS157.67_T,ERR1085090.63085,93.94,99,4,2,1,98,3,100,9e-36,148
Exophiala_salmonis_CBS157.67_T,ERR1085090.62393,93.88,98,6,0,1,98,3,100,9e-36,148
Exophiala_salmonis_CBS157.67_T,ERR1085090.61708,93.94,99,4,2,1,98,3,100,9e-36,148
Exophiala_salmonis_CBS157.67_T,ERR1085090.61014,93.88,98,6,0,1,98,3,100,9e-36,148
Exophiala_salmonis_CBS157.67_T,ERR1085090.59910,93.94,99,4,2,1,98,3,100,9e-36,148
Exophiala_salmonis_CBS157.67_T,ERR1085090.59238,93.88,98,6,0,1,98,3,100,9e-36,148
Exophiala_salmonis_CBS157.67_T,ERR1085090.58408,93.88,98,6,0,1,98,3,100,9e-36,148
Exophiala_salmonis_CBS157.67_T,ERR1085090.58140,93.94,99,4,2,1,98,3,100,9e-36,148
Exophiala_salmonis_CBS157.67_T,ERR1085090.57725,93.94,99,4,2,1,98,3,100,9e-36,148
Exophiala_salmonis_CBS157.67_T,ERR1085090.57417,93.94,99,4,2,1,98,3,100,9e-36,148
Exophiala_salmonis_CBS157.67_T,ERR1085090.56390,93.94,99,4,2,1,98,3,100,9e-36,148
Exophiala_salmonis_CBS157.67_T,ERR1085090.55720,93.94,99,4,2,1,98,3,100,9e-36,148
Exophiala_salmonis_CBS157.67_T,ERR1085090.53780,93.88,98,6,0,1,98,3,100,9e-36,148
Exophiala_salmonis_CBS157.67_T,ERR1085090.52991,93.94,99,4,2,1,98,3,100,9e-36,148
Exophiala_salmonis_CBS157.67_T,ERR1085090.52160,93.94,99,4,2,1,98,3,100,9e-36,148
Exophiala_salmonis_CBS157.67_T,ERR1085090.51320,93.94,99,4,2,1,98,3,100,9e-36,148
Exophiala_salmonis_CBS157.67_T,ERR1085090.50767,93.94,99,4,2,1,98,3,100,9e-36,148
Exophiala_salmonis_CBS157.67_T,ERR1085090.50594,93.94,99,4,2,1,98,3,100,9e-36,148
Exophiala_salmonis_CBS157.67_T,ERR1085090.50569,93.88,98,6,0,1,98,3,100,9e-36,148
Exophiala_salmonis_CBS157.67_T,ERR1085090.49876,93.94,99,4,2,1,98,3,100,9e-36,148
Exophiala_salmonis_CBS157.67_T,ERR1085090.49648,93.94,99,4,2,1,98,3,100,9e-36,148
Exophiala_salmonis_CBS157.67_T,ERR1085090.48716,93.94,99,4,2,1,98,3,100,9e-36,148
Exophiala_salmonis_CBS157.67_T,ERR1085090.47616,93.94,99,4,2,1,98,3,100,9e-36,148
Exophiala_salmonis_CBS157.67_T,ERR1085090.46257,93.94,99,4,2,1,98,3,100,9e-36,148
Exophiala_salmonis_CBS157.67_T,ERR1085090.44774,93.94,99,4,2,1,98,3,100,9e-36,148
Exophiala_salmonis_CBS157.67_T,ERR1085090.44066,93.94,99,4,2,1,98,3,100,9e-36,148
Exophiala_salmonis_CBS157.67_T,ERR1085090.43910,93.94,99,4,2,1,98,3,100,9e-36,148
Exophiala_salmonis_CBS157.67_T,ERR1085090.41120,93.88,98,6,0,1,98,3,100,9e-36,148
Exophiala_salmonis_CBS157.67_T,ERR1085090.41035,93.94,99,4,2,1,98,3,100,9e-36,148
Exophiala_salmonis_CBS157.67_T,ERR1085090.39728,93.88,98,6,0,1,98,3,100,9e-36,148
Exophiala_salmonis_CBS157.67_T,ERR1085090.37532,93.94,99,4,2,1,98,3,100,9e-36,148
Exophiala_salmonis_CBS157.67_T,ERR1085090.36860,93.94,99,4,2,1,98,3,100,9e-36,148
Exophiala_salmonis_CBS157.67_T,ERR1085090.33795,93.94,99,4,2,1,98,3,100,9e-36,148
Exophiala_salmonis_CBS157.67_T,ERR1085090.29531,93.94,99,4,2,1,98,3,100,9e-36,148
Exophiala_salmonis_CBS157.67_T,ERR1085090.29308,93.94,99,4,2,1,98,3,100,9e-36,148
Exophiala_salmonis_CBS157.67_T,ERR1085090.28842,93.94,99,4,2,1,98,3,100,9e-36,148
Exophiala_salmonis_CBS157.67_T,ERR1085090.26784,93.94,99,4,2,1,98,3,100,9e-36,148
Exophiala_salmonis_CBS157.67_T,ERR1085090.24816,93.94,99,4,2,1,98,3,100,9e-36,148
Exophiala_salmonis_CBS157.67_T,ERR1085090.24552,93.88,98,6,0,1,98,3,100,9e-36,148
Exophiala_salmonis_CBS157.67_T,ERR1085090.22041,93.94,99,4,2,1,98,3,100,9e-36,148
Exophiala_salmonis_CBS157.67_T,ERR1085090.21400,93.94,99,4,2,1,98,3,100,9e-36,148
Exophiala_salmonis_CBS157.67_T,ERR1085090.18214,93.88,98,6,0,1,98,3,100,9e-36,148
Exophiala_salmonis_CBS157.67_T,ERR1085090.17822,93.94,99,4,2,1,98,3,100,9e-36,148
Exophiala_salmonis_CBS157.67_T,ERR1085090.17628,93.94,99,4,2,1,98,3,100,9e-36,148
Exophiala_salmonis_CBS157.67_T,ERR1085090.16201,93.94,99,4,2,1,98,3,100,9e-36,148
Exophiala_salmonis_CBS157.67_T,ERR1085090.15935,93.94,99,4,2,1,98,3,100,9e-36,148
Exophiala_salmonis_CBS157.67_T,ERR1085090.15880,93.88,98,6,0,1,98,3,100,9e-36,148
Exophiala_salmonis_CBS157.67_T,ERR1085090.14695,93.94,99,4,2,1,98,3,100,9e-36,148
Exophiala_salmonis_CBS157.67_T,ERR1085090.13141,93.94,99,4,2,1,98,3,100,9e-36,148
Exophiala_salmonis_CBS157.67_T,ERR1085090.12513,93.94,99,4,2,1,98,3,100,9e-36,148
Exophiala_salmonis_CBS157.67_T,ERR1085090.11319,93.88,98,6,0,1,98,3,100,9e-36,148
Exophiala_salmonis_CBS157.67_T,ERR1085090.6797,93.94,99,4,2,1,98,3,100,9e-36,148
Exophiala_salmonis_CBS157.67_T,ERR1085090.6059,93.94,99,4,2,1,98,3,100,9e-36,148
Exophiala_salmonis_CBS157.67_T,ERR1085090.5083,93.94,99,4,2,1,98,3,100,9e-36,148
Exophiala_salmonis_CBS157.67_T,ERR1085090.4396,93.88,98,6,0,1,98,3,100,9e-36,148
Exophiala_salmonis_CBS157.67_T,ERR1085090.1906,93.94,99,4,2,1,98,3,100,9e-36,148
Exophiala_salmonis_CBS157.67_T,ERR1085090.1665,93.94,99,4,2,1,98,3,100,9e-36,148
Exophiala_salmonis_CBS157.67_T,ERR1085090.873,93.94,99,4,2,1,98,3,100,9e-36,148
Exophiala_salmonis_CBS157.67_T,ERR1085090.375,93.94,99,4,2,1,98,3,100,9e-36,148
Exophiala_salmonis_CBS157.67_T,ERR1085090.87862,93.88,98,4,2,1,97,3,99,3e-35,147
Exophiala_salmonis_CBS157.67_T,ERR1085090.49078,93.88,98,4,2,2,98,4,100,3e-35,147
Exophiala_salmonis_CBS157.67_T,ERR1085090.90366,93.81,97,4,2,3,98,5,100,1e-34,145
Exophiala_salmonis_CBS157.67_T,ERR1085090.99814,92.93,99,5,2,1,98,3,100,4e-34,143
Exophiala_salmonis_CBS157.67_T,ERR1085090.93032,92.93,99,5,2,1,98,3,100,4e-34,143
Exophiala_salmonis_CBS157.67_T,ERR1085090.92730,92.93,99,5,2,1,98,3,100,4e-34,143
Exophiala_salmonis_CBS157.67_T,ERR1085090.91470,92.86,98,7,0,1,98,3,100,4e-34,143
Exophiala_salmonis_CBS157.67_T,ERR1085090.91344,92.93,99,5,2,1,98,3,100,4e-34,143
Exophiala_salmonis_CBS157.67_T,ERR1085090.90249,92.93,99,5,2,1,98,3,100,4e-34,143
Exophiala_salmonis_CBS157.67_T,ERR1085090.84910,92.93,99,5,2,1,98,3,100,4e-34,143
Exophiala_salmonis_CBS157.67_T,ERR1085090.84561,92.86,98,7,0,1,98,3,100,4e-34,143
Exophiala_salmonis_CBS157.67_T,ERR1085090.84469,92.93,99,5,2,1,98,3,100,4e-34,143
Exophiala_salmonis_CBS157.67_T,ERR1085090.83923,92.93,99,5,2,1,98,3,100,4e-34,143
Exophiala_salmonis_CBS157.67_T,ERR1085090.83622,92.93,99,5,2,1,98,3,100,4e-34,143
Exophiala_salmonis_CBS157.67_T,ERR1085090.82457,92.93,99,5,2,1,98,3,100,4e-34,143
Exophiala_salmonis_CBS157.67_T,ERR1085090.82027,92.93,99,5,2,1,98,3,100,4e-34,143
Exophiala_salmonis_CBS157.67_T,ERR1085090.81107,92.86,98,7,0,1,98,3,100,4e-34,143
Exophiala_salmonis_CBS157.67_T,ERR1085090.79506,92.86,98,7,0,1,98,3,100,4e-34,143
Exophiala_salmonis_CBS157.67_T,ERR1085090.75270,92.93,99,5,2,1,98,3,100,4e-34,143
Exophiala_salmonis_CBS157.67_T,ERR1085090.64485,92.93,99,5,2,1,98,3,100,4e-34,143
Exophiala_salmonis_CBS157.67_T,ERR1085090.62468,92.93,99,5,2,1,98,3,100,4e-34,143
Exophiala_salmonis_CBS157.67_T,ERR1085090.57212,92.86,98,7,0,1,98,3,100,4e-34,143
Exophiala_salmonis_CBS157.67_T,ERR1085090.40071,92.86,98,7,0,1,98,3,100,4e-34,143
Exophiala_salmonis_CBS157.67_T,ERR1085090.38731,92.93,99,5,2,1,98,3,100,4e-34,143
Exophiala_salmonis_CBS157.67_T,ERR1085090.38679,92.93,99,5,2,1,98,3,100,4e-34,143
Exophiala_salmonis_CBS157.67_T,ERR1085090.32931,92.93,99,5,2,1,98,3,100,4e-34,143
Exophiala_salmonis_CBS157.67_T,ERR1085090.24133,92.93,99,5,2,1,98,3,100,4e-34,143
Exophiala_salmonis_CBS157.67_T,ERR1085090.22631,92.93,99,5,2,1,98,3,100,4e-34,143
Exophiala_salmonis_CBS157.67_T,ERR1085090.16418,92.93,99,5,2,1,98,3,100,4e-34,143
Exophiala_salmonis_CBS157.67_T,ERR1085090.10397,92.93,99,5,2,1,98,3,100,4e-34,143
Exophiala_salmonis_CBS157.67_T,ERR1085090.9481,92.93,99,5,2,1,98,3,100,4e-34,143
Exophiala_salmonis_CBS157.67_T,ERR1085090.1096,92.93,99,5,2,1,98,3,100,4e-34,143
Exophiala_salmonis_CBS157.67_T,ERR1085090.75610,92.93,99,4,3,1,97,3,100,2e-33,141
Exophiala_salmonis_CBS157.67_T,ERR1085090.21099,92.93,99,4,3,1,97,3,100,2e-33,141
Exophiala_salmonis_CBS157.67_T,ERR1085090.103657,91.84,98,8,0,1,98,3,100,2e-32,137
Exophiala_salmonis_CBS157.67_T,ERR1085090.103407,91.84,98,8,0,1,98,3,100,2e-32,137
Exophiala_salmonis_CBS157.67_T,ERR1085090.103041,91.84,98,8,0,1,98,3,100,2e-32,137
Exophiala_salmonis_CBS157.67_T,ERR1085090.102652,91.84,98,8,0,1,98,3,100,2e-32,137
Exophiala_salmonis_CBS157.67_T,ERR1085090.101410,91.84,98,8,0,1,98,3,100,2e-32,137
Exophiala_salmonis_CBS157.67_T,ERR1085090.101194,91.84,98,8,0,1,98,3,100,2e-32,137
Exophiala_salmonis_CBS157.67_T,ERR1085090.100261,91.84,98,8,0,1,98,3,100,2e-32,137
Exophiala_salmonis_CBS157.67_T,ERR1085090.99318,91.84,98,8,0,1,98,3,100,2e-32,137
Exophiala_salmonis_CBS157.67_T,ERR1085090.98648,91.84,98,8,0,1,98,3,100,2e-32,137
Exophiala_salmonis_CBS157.67_T,ERR1085090.97504,91.84,98,8,0,1,98,3,100,2e-32,137
Exophiala_salmonis_CBS157.67_T,ERR1085090.97295,91.84,98,8,0,1,98,3,100,2e-32,137
Exophiala_salmonis_CBS157.67_T,ERR1085090.96701,91.84,98,8,0,1,98,3,100,2e-32,137
Exophiala_salmonis_CBS157.67_T,ERR1085090.95926,91.84,98,8,0,1,98,3,100,2e-32,137
Exophiala_salmonis_CBS157.67_T,ERR1085090.95107,91.84,98,8,0,1,98,3,100,2e-32,137
Exophiala_salmonis_CBS157.67_T,ERR1085090.94960,91.84,98,8,0,1,98,3,100,2e-32,137
Exophiala_salmonis_CBS157.67_T,ERR1085090.94466,91.84,98,8,0,1,98,3,100,2e-32,137
Exophiala_salmonis_CBS157.67_T,ERR1085090.94396,91.84,98,8,0,1,98,3,100,2e-32,137
Exophiala_salmonis_CBS157.67_T,ERR1085090.93152,91.84,98,8,0,1,98,3,100,2e-32,137
Exophiala_salmonis_CBS157.67_T,ERR1085090.91908,91.84,98,8,0,1,98,3,100,2e-32,137
Exophiala_salmonis_CBS157.67_T,ERR1085090.91462,91.84,98,8,0,1,98,3,100,2e-32,137
Exophiala_salmonis_CBS157.67_T,ERR1085090.90185,91.84,98,8,0,1,98,3,100,2e-32,137
Exophiala_salmonis_CBS157.67_T,ERR1085090.89215,91.84,98,8,0,1,98,3,100,2e-32,137
Exophiala_salmonis_CBS157.67_T,ERR1085090.88738,91.84,98,8,0,1,98,3,100,2e-32,137
Exophiala_salmonis_CBS157.67_T,ERR1085090.87907,91.84,98,8,0,1,98,3,100,2e-32,137
Exophiala_salmonis_CBS157.67_T,ERR1085090.87821,91.84,98,8,0,1,98,3,100,2e-32,137
Exophiala_salmonis_CBS157.67_T,ERR1085090.87284,91.84,98,8,0,1,98,3,100,2e-32,137
Exophiala_salmonis_CBS157.67_T,ERR1085090.87209,91.84,98,8,0,1,98,3,100,2e-32,137
Exophiala_salmonis_CBS157.67_T,ERR1085090.86602,91.84,98,8,0,1,98,3,100,2e-32,137
Exophiala_salmonis_CBS157.67_T,ERR1085090.84757,91.84,98,8,0,1,98,3,100,2e-32,137
Exophiala_salmonis_CBS157.67_T,ERR1085090.83351,91.84,98,8,0,1,98,3,100,2e-32,137
Exophiala_salmonis_CBS157.67_T,ERR1085090.82855,91.92,99,6,2,1,98,3,100,2e-32,137
Exophiala_salmonis_CBS157.67_T,ERR1085090.81135,91.92,99,6,2,1,98,3,100,2e-32,137
Exophiala_salmonis_CBS157.67_T,ERR1085090.80970,91.84,98,8,0,1,98,3,100,2e-32,137
Exophiala_salmonis_CBS157.67_T,ERR1085090.80439,91.92,99,6,2,1,98,3,100,2e-32,137
Exophiala_salmonis_CBS157.67_T,ERR1085090.79982,91.92,99,6,2,1,98,3,100,2e-32,137
Exophiala_salmonis_CBS157.67_T,ERR1085090.78418,91.84,98,8,0,1,98,3,100,2e-32,137
Exophiala_salmonis_CBS157.67_T,ERR1085090.76711,91.84,98,8,0,1,98,3,100,2e-32,137
Exophiala_salmonis_CBS157.67_T,ERR1085090.76500,91.84,98,8,0,1,98,3,100,2e-32,137
Exophiala_salmonis_CBS157.67_T,ERR1085090.74683,91.84,98,8,0,1,98,3,100,2e-32,137
Exophiala_salmonis_CBS157.67_T,ERR1085090.74113,91.84,98,8,0,1,98,3,100,2e-32,137
Exophiala_salmonis_CBS157.67_T,ERR1085090.74044,91.84,98,8,0,1,98,3,100,2e-32,137
Exophiala_salmonis_CBS157.67_T,ERR1085090.73378,91.84,98,8,0,1,98,3,100,2e-32,137
Exophiala_salmonis_CBS157.67_T,ERR1085090.72880,91.84,98,8,0,1,98,3,100,2e-32,137
Exophiala_salmonis_CBS157.67_T,ERR1085090.72399,91.84,98,8,0,1,98,3,100,2e-32,137
Exophiala_salmonis_CBS157.67_T,ERR1085090.72331,91.84,98,8,0,1,98,3,100,2e-32,137
Exophiala_salmonis_CBS157.67_T,ERR1085090.71237,91.84,98,8,0,1,98,3,100,2e-32,137
Exophiala_salmonis_CBS157.67_T,ERR1085090.71115,91.84,98,8,0,1,98,3,100,2e-32,137
Exophiala_salmonis_CBS157.67_T,ERR1085090.70808,91.84,98,8,0,1,98,3,100,2e-32,137
Exophiala_salmonis_CBS157.67_T,ERR1085090.70639,91.84,98,8,0,1,98,3,100,2e-32,137
Exophiala_salmonis_CBS157.67_T,ERR1085090.70248,91.84,98,8,0,1,98,3,100,2e-32,137
Exophiala_salmonis_CBS157.67_T,ERR1085090.69190,91.84,98,8,0,1,98,3,100,2e-32,137
Exophiala_salmonis_CBS157.67_T,ERR1085090.69103,91.84,98,8,0,1,98,3,100,2e-32,137
Exophiala_salmonis_CBS157.67_T,ERR1085090.68810,91.84,98,8,0,1,98,3,100,2e-32,137
Exophiala_salmonis_CBS157.67_T,ERR1085090.67933,91.84,98,8,0,1,98,3,100,2e-32,137
Exophiala_salmonis_CBS157.67_T,ERR1085090.67565,91.84,98,8,0,1,98,3,100,2e-32,137
Exophiala_salmonis_CBS157.67_T,ERR1085090.67374,91.84,98,8,0,1,98,3,100,2e-32,137
Exophiala_salmonis_CBS157.67_T,ERR1085090.67172,91.84,98,8,0,1,98,3,100,2e-32,137
Exophiala_salmonis_CBS157.67_T,ERR1085090.65228,91.92,99,6,2,1,98,3,100,2e-32,137
Exophiala_salmonis_CBS157.67_T,ERR1085090.65118,91.84,98,8,0,1,98,3,100,2e-32,137
Exophiala_salmonis_CBS157.67_T,ERR1085090.64373,91.84,98,8,0,1,98,3,100,2e-32,137
Exophiala_salmonis_CBS157.67_T,ERR1085090.63446,91.84,98,8,0,1,98,3,100,2e-32,137
Exophiala_salmonis_CBS157.67_T,ERR1085090.63021,91.84,98,8,0,1,98,3,100,2e-32,137
Exophiala_salmonis_CBS157.67_T,ERR1085090.62461,91.84,98,8,0,1,98,3,100,2e-32,137
Exophiala_salmonis_CBS157.67_T,ERR1085090.61265,91.84,98,8,0,1,98,3,100,2e-32,137
Exophiala_salmonis_CBS157.67_T,ERR1085090.60043,91.84,98,8,0,1,98,3,100,2e-32,137
Exophiala_salmonis_CBS157.67_T,ERR1085090.59824,91.84,98,8,0,1,98,3,100,2e-32,137
Exophiala_salmonis_CBS157.67_T,ERR1085090.59691,91.84,98,8,0,1,98,3,100,2e-32,137
Exophiala_salmonis_CBS157.67_T,ERR1085090.59489,91.84,98,8,0,1,98,3,100,2e-32,137
Exophiala_salmonis_CBS157.67_T,ERR1085090.59390,91.84,98,8,0,1,98,3,100,2e-32,137
Exophiala_salmonis_CBS157.67_T,ERR1085090.59371,91.84,98,8,0,1,98,3,100,2e-32,137
Exophiala_salmonis_CBS157.67_T,ERR1085090.57443,91.84,98,8,0,1,98,3,100,2e-32,137
Exophiala_salmonis_CBS157.67_T,ERR1085090.57250,91.84,98,8,0,1,98,3,100,2e-32,137
Exophiala_salmonis_CBS157.67_T,ERR1085090.56259,91.84,98,8,0,1,98,3,100,2e-32,137
Exophiala_salmonis_CBS157.67_T,ERR1085090.55314,91.84,98,8,0,1,98,3,100,2e-32,137
Exophiala_salmonis_CBS157.67_T,ERR1085090.53261,91.84,98,8,0,1,98,3,100,2e-32,137
Exophiala_salmonis_CBS157.67_T,ERR1085090.53020,91.84,98,8,0,1,98,3,100,2e-32,137
Exophiala_salmonis_CBS157.67_T,ERR1085090.50592,91.84,98,8,0,1,98,3,100,2e-32,137
Exophiala_salmonis_CBS157.67_T,ERR1085090.50543,91.84,98,8,0,1,98,3,100,2e-32,137
Exophiala_salmonis_CBS157.67_T,ERR1085090.50285,91.84,98,8,0,1,98,3,100,2e-32,137
Exophiala_salmonis_CBS157.67_T,ERR1085090.49671,91.92,99,6,2,1,98,3,100,2e-32,137
Exophiala_salmonis_CBS157.67_T,ERR1085090.49328,91.84,98,8,0,1,98,3,100,2e-32,137
Exophiala_salmonis_CBS157.67_T,ERR1085090.49011,91.84,98,8,0,1,98,3,100,2e-32,137
Exophiala_salmonis_CBS157.67_T,ERR1085090.47252,91.84,98,8,0,1,98,3,100,2e-32,137
Exophiala_salmonis_CBS157.67_T,ERR1085090.43273,91.92,99,6,2,1,98,3,100,2e-32,137
Exophiala_salmonis_CBS157.67_T,ERR1085090.42569,91.84,98,8,0,1,98,3,100,2e-32,137
Exophiala_salmonis_CBS157.67_T,ERR1085090.42443,91.84,98,8,0,1,98,3,100,2e-32,137
Exophiala_salmonis_CBS157.67_T,ERR1085090.42118,91.84,98,8,0,1,98,3,100,2e-32,137
Exophiala_salmonis_CBS157.67_T,ERR1085090.41638,91.84,98,8,0,1,98,3,100,2e-32,137
Exophiala_salmonis_CBS157.67_T,ERR1085090.40103,91.84,98,8,0,1,98,3,100,2e-32,137
Exophiala_salmonis_CBS157.67_T,ERR1085090.39566,91.84,98,8,0,1,98,3,100,2e-32,137
Exophiala_salmonis_CBS157.67_T,ERR1085090.39510,91.84,98,8,0,1,98,3,100,2e-32,137
Exophiala_salmonis_CBS157.67_T,ERR1085090.38807,91.84,98,8,0,1,98,3,100,2e-32,137
Exophiala_salmonis_CBS157.67_T,ERR1085090.36946,91.84,98,8,0,1,98,3,100,2e-32,137
Exophiala_salmonis_CBS157.67_T,ERR1085090.36839,91.84,98,8,0,1,98,3,100,2e-32,137
Exophiala_salmonis_CBS157.67_T,ERR1085090.36158,91.84,98,8,0,1,98,3,100,2e-32,137
Exophiala_salmonis_CBS157.67_T,ERR1085090.35542,91.84,98,8,0,1,98,3,100,2e-32,137
Exophiala_salmonis_CBS157.67_T,ERR1085090.35151,91.84,98,8,0,1,98,3,100,2e-32,137
Exophiala_salmonis_CBS157.67_T,ERR1085090.35004,91.84,98,8,0,1,98,3,100,2e-32,137
Exophiala_salmonis_CBS157.67_T,ERR1085090.34803,91.84,98,8,0,1,98,3,100,2e-32,137
Exophiala_salmonis_CBS157.67_T,ERR1085090.34464,91.84,98,8,0,1,98,3,100,2e-32,137
Exophiala_salmonis_CBS157.67_T,ERR1085090.34355,91.84,98,8,0,1,98,3,100,2e-32,137
Exophiala_salmonis_CBS157.67_T,ERR1085090.33539,91.92,99,6,2,1,98,3,100,2e-32,137
Exophiala_salmonis_CBS157.67_T,ERR1085090.33177,91.84,98,8,0,1,98,3,100,2e-32,137
Exophiala_salmonis_CBS157.67_T,ERR1085090.32511,91.84,98,8,0,1,98,3,100,2e-32,137
Exophiala_salmonis_CBS157.67_T,ERR1085090.32497,91.84,98,8,0,1,98,3,100,2e-32,137
Exophiala_salmonis_CBS157.67_T,ERR1085090.32396,91.84,98,8,0,1,98,3,100,2e-32,137
Exophiala_salmonis_CBS157.67_T,ERR1085090.31460,91.84,98,8,0,1,98,3,100,2e-32,137
Exophiala_salmonis_CBS157.67_T,ERR1085090.30807,91.84,98,8,0,1,98,3,100,2e-32,137
Exophiala_salmonis_CBS157.67_T,ERR1085090.30716,91.84,98,8,0,1,98,3,100,2e-32,137
Exophiala_salmonis_CBS157.67_T,ERR1085090.29298,91.84,98,8,0,1,98,3,100,2e-32,137
Exophiala_salmonis_CBS157.67_T,ERR1085090.27330,91.84,98,8,0,1,98,3,100,2e-32,137
Exophiala_salmonis_CBS157.67_T,ERR1085090.26710,91.84,98,8,0,1,98,3,100,2e-32,137
Exophiala_salmonis_CBS157.67_T,ERR1085090.25635,91.84,98,8,0,1,98,3,100,2e-32,137
Exophiala_salmonis_CBS157.67_T,ERR1085090.25497,91.84,98,8,0,1,98,3,100,2e-32,137
Exophiala_salmonis_CBS157.67_T,ERR1085090.25150,91.84,98,8,0,1,98,3,100,2e-32,137
Exophiala_salmonis_CBS157.67_T,ERR1085090.23139,91.84,98,8,0,1,98,3,100,2e-32,137
Exophiala_salmonis_CBS157.67_T,ERR1085090.23011,91.84,98,8,0,1,98,3,100,2e-32,137
Exophiala_salmonis_CBS157.67_T,ERR1085090.23004,91.84,98,8,0,1,98,3,100,2e-32,137
Exophiala_salmonis_CBS157.67_T,ERR1085090.22612,91.84,98,8,0,1,98,3,100,2e-32,137
Exophiala_salmonis_CBS157.67_T,ERR1085090.21599,91.84,98,8,0,1,98,3,100,2e-32,137
Exophiala_salmonis_CBS157.67_T,ERR1085090.21407,91.84,98,8,0,1,98,3,100,2e-32,137
Exophiala_salmonis_CBS157.67_T,ERR1085090.20765,91.84,98,8,0,1,98,3,100,2e-32,137
Exophiala_salmonis_CBS157.67_T,ERR1085090.19166,91.84,98,8,0,1,98,3,100,2e-32,137
Exophiala_salmonis_CBS157.67_T,ERR1085090.18317,91.84,98,8,0,1,98,3,100,2e-32,137
Exophiala_salmonis_CBS157.67_T,ERR1085090.17991,91.84,98,8,0,1,98,3,100,2e-32,137
Exophiala_salmonis_CBS157.67_T,ERR1085090.17345,91.84,98,8,0,1,98,3,100,2e-32,137
Exophiala_salmonis_CBS157.67_T,ERR1085090.17290,91.84,98,8,0,1,98,3,100,2e-32,137
Exophiala_salmonis_CBS157.67_T,ERR1085090.15936,91.84,98,8,0,1,98,3,100,2e-32,137
Exophiala_salmonis_CBS157.67_T,ERR1085090.15545,91.84,98,8,0,1,98,3,100,2e-32,137
Exophiala_salmonis_CBS157.67_T,ERR1085090.14765,91.92,99,6,2,1,98,3,100,2e-32,137
Exophiala_salmonis_CBS157.67_T,ERR1085090.10031,91.84,98,8,0,1,98,3,100,2e-32,137
Exophiala_salmonis_CBS157.67_T,ERR1085090.9698,91.84,98,8,0,1,98,3,100,2e-32,137
Exophiala_salmonis_CBS157.67_T,ERR1085090.9439,91.84,98,8,0,1,98,3,100,2e-32,137
Exophiala_salmonis_CBS157.67_T,ERR1085090.7315,91.84,98,8,0,1,98,3,100,2e-32,137
Exophiala_salmonis_CBS157.67_T,ERR1085090.7081,91.84,98,8,0,1,98,3,100,2e-32,137
Exophiala_salmonis_CBS157.67_T,ERR1085090.6896,91.84,98,8,0,1,98,3,100,2e-32,137
Exophiala_salmonis_CBS157.67_T,ERR1085090.6751,91.84,98,8,0,1,98,3,100,2e-32,137
Exophiala_salmonis_CBS157.67_T,ERR1085090.6100,91.92,99,6,2,1,98,3,100,2e-32,137
Exophiala_salmonis_CBS157.67_T,ERR1085090.6010,91.84,98,8,0,1,98,3,100,2e-32,137
Exophiala_salmonis_CBS157.67_T,ERR1085090.5898,91.84,98,8,0,1,98,3,100,2e-32,137
Exophiala_salmonis_CBS157.67_T,ERR1085090.5279,91.84,98,8,0,1,98,3,100,2e-32,137
Exophiala_salmonis_CBS157.67_T,ERR1085090.4038,91.84,98,8,0,1,98,3,100,2e-32,137
Exophiala_salmonis_CBS157.67_T,ERR1085090.2713,91.92,99,6,2,1,98,3,100,2e-32,137
Exophiala_salmonis_CBS157.67_T,ERR1085090.2646,91.84,98,8,0,1,98,3,100,2e-32,137
Exophiala_salmonis_CBS157.67_T,ERR1085090.1936,91.84,98,8,0,1,98,3,100,2e-32,137
Exophiala_salmonis_CBS157.67_T,ERR1085090.1216,91.84,98,8,0,1,98,3,100,2e-32,137
Exophiala_salmonis_CBS157.67_T,ERR1085090.376,91.84,98,8,0,1,98,3,100,2e-32,137
Exophiala_salmonis_CBS157.67_T,ERR1085090.313,91.84,98,8,0,1,98,3,100,2e-32,137
Exophiala_salmonis_CBS157.67_T,ERR1085090.242,91.84,98,8,0,1,98,3,100,2e-32,137
Exophiala_salmonis_CBS157.67_T,ERR1085090.174,91.84,98,8,0,1,98,3,100,2e-32,137
Exophiala_salmonis_CBS157.67_T,ERR1085090.71,91.84,98,8,0,1,98,3,100,2e-32,137
Exophiala_salmonis_CBS157.67_T,ERR1085090.79996,94.38,89,3,2,1,88,3,90,7e-32,135
Exophiala_salmonis_CBS157.67_T,ERR1085090.47590,91.75,97,8,0,1,97,3,99,7e-32,135
Exophiala_salmonis_CBS157.67_T,ERR1085090.104865,90.91,99,7,2,1,98,3,100,9e-31,132
Exophiala_salmonis_CBS157.67_T,ERR1085090.95480,90.82,98,9,0,1,98,3,100,9e-31,132
Exophiala_salmonis_CBS157.67_T,ERR1085090.91662,90.82,98,9,0,1,98,3,100,9e-31,132
Exophiala_salmonis_CBS157.67_T,ERR1085090.88881,91.00,100,5,4,1,98,3,100,9e-31,132
Exophiala_salmonis_CBS157.67_T,ERR1085090.85039,90.91,99,8,1,1,99,3,100,9e-31,132
Exophiala_salmonis_CBS157.67_T,ERR1085090.84027,90.82,98,9,0,1,98,3,100,9e-31,132
Exophiala_salmonis_CBS157.67_T,ERR1085090.82270,90.82,98,9,0,1,98,3,100,9e-31,132
Exophiala_salmonis_CBS157.67_T,ERR1085090.79463,90.82,98,9,0,1,98,3,100,9e-31,132
Exophiala_salmonis_CBS157.67_T,ERR1085090.76869,90.82,98,9,0,1,98,3,100,9e-31,132
Exophiala_salmonis_CBS157.67_T,ERR1085090.76301,90.82,98,9,0,1,98,3,100,9e-31,132
Exophiala_salmonis_CBS157.67_T,ERR1085090.75324,90.82,98,9,0,1,98,3,100,9e-31,132
Exophiala_salmonis_CBS157.67_T,ERR1085090.74894,90.82,98,9,0,1,98,3,100,9e-31,132
Exophiala_salmonis_CBS157.67_T,ERR1085090.71454,90.82,98,9,0,1,98,3,100,9e-31,132
Exophiala_salmonis_CBS157.67_T,ERR1085090.69705,90.82,98,9,0,1,98,3,100,9e-31,132
Exophiala_salmonis_CBS157.67_T,ERR1085090.67958,90.82,98,9,0,1,98,3,100,9e-31,132
Exophiala_salmonis_CBS157.67_T,ERR1085090.63681,90.82,98,9,0,1,98,3,100,9e-31,132
Exophiala_salmonis_CBS157.67_T,ERR1085090.60585,90.82,98,9,0,1,98,3,100,9e-31,132
Exophiala_salmonis_CBS157.67_T,ERR1085090.60350,90.82,98,9,0,1,98,3,100,9e-31,132
Exophiala_salmonis_CBS157.67_T,ERR1085090.60158,90.82,98,9,0,1,98,3,100,9e-31,132
Exophiala_salmonis_CBS157.67_T,ERR1085090.59493,90.82,98,9,0,1,98,3,100,9e-31,132
Exophiala_salmonis_CBS157.67_T,ERR1085090.55082,90.82,98,9,0,1,98,3,100,9e-31,132
Exophiala_salmonis_CBS157.67_T,ERR1085090.52004,90.82,98,9,0,1,98,3,100,9e-31,132
Exophiala_salmonis_CBS157.67_T,ERR1085090.49766,90.82,98,9,0,1,98,3,100,9e-31,132
Exophiala_salmonis_CBS157.67_T,ERR1085090.48442,90.82,98,9,0,1,98,3,100,9e-31,132
Exophiala_salmonis_CBS157.67_T,ERR1085090.43299,90.82,98,9,0,1,98,3,100,9e-31,132
Exophiala_salmonis_CBS157.67_T,ERR1085090.40057,91.00,100,5,4,1,98,3,100,9e-31,132
Exophiala_salmonis_CBS157.67_T,ERR1085090.35418,90.82,98,9,0,1,98,3,100,9e-31,132
Exophiala_salmonis_CBS157.67_T,ERR1085090.35272,90.82,98,9,0,1,98,3,100,9e-31,132
Exophiala_salmonis_CBS157.67_T,ERR1085090.33082,90.82,98,9,0,1,98,3,100,9e-31,132
Exophiala_salmonis_CBS157.67_T,ERR1085090.28148,90.82,98,9,0,1,98,3,100,9e-31,132
Exophiala_salmonis_CBS157.67_T,ERR1085090.27484,91.58,95,8,0,1,95,3,97,9e-31,132
Exophiala_salmonis_CBS157.67_T,ERR1085090.25689,90.82,98,9,0,1,98,3,100,9e-31,132
Exophiala_salmonis_CBS157.67_T,ERR1085090.23989,90.82,98,9,0,1,98,3,100,9e-31,132
Exophiala_salmonis_CBS157.67_T,ERR1085090.17119,90.82,98,9,0,1,98,3,100,9e-31,132
Exophiala_salmonis_CBS157.67_T,ERR1085090.15146,90.82,98,9,0,1,98,3,100,9e-31,132
Exophiala_salmonis_CBS157.67_T,ERR1085090.14650,90.82,98,9,0,1,98,3,100,9e-31,132
Exophiala_salmonis_CBS157.67_T,ERR1085090.12014,90.82,98,9,0,1,98,3,100,9e-31,132
Exophiala_salmonis_CBS157.67_T,ERR1085090.11882,90.82,98,9,0,1,98,3,100,9e-31,132
Exophiala_salmonis_CBS157.67_T,ERR1085090.9507,90.82,98,9,0,1,98,3,100,9e-31,132
Exophiala_salmonis_CBS157.67_T,ERR1085090.7323,90.82,98,9,0,1,98,3,100,9e-31,132
Exophiala_salmonis_CBS157.67_T,ERR1085090.4932,90.82,98,9,0,1,98,3,100,9e-31,132
Exophiala_salmonis_CBS157.67_T,ERR1085090.268,90.82,98,9,0,1,98,3,100,9e-31,132
Exophiala_salmonis_CBS157.67_T,ERR1085090.100704,89.80,98,10,0,1,98,3,100,4e-29,126
Exophiala_salmonis_CBS157.67_T,ERR1085090.100701,89.80,98,10,0,1,98,3,100,4e-29,126
Exophiala_salmonis_CBS157.67_T,ERR1085090.80430,93.10,87,4,2,1,86,3,88,4e-29,126
Exophiala_salmonis_CBS157.67_T,ERR1085090.80372,89.80,98,10,0,1,98,3,100,4e-29,126
Exophiala_salmonis_CBS157.67_T,ERR1085090.75375,89.80,98,10,0,1,98,3,100,4e-29,126
Exophiala_salmonis_CBS157.67_T,ERR1085090.65062,89.80,98,10,0,1,98,3,100,4e-29,126
Exophiala_salmonis_CBS157.67_T,ERR1085090.64715,89.80,98,10,0,1,98,3,100,4e-29,126
Exophiala_salmonis_CBS157.67_T,ERR1085090.64151,89.80,98,10,0,1,98,3,100,4e-29,126
Exophiala_salmonis_CBS157.67_T,ERR1085090.63731,89.80,98,10,0,1,98,3,100,4e-29,126
Exophiala_salmonis_CBS157.67_T,ERR1085090.56628,89.80,98,10,0,1,98,3,100,4e-29,126
Exophiala_salmonis_CBS157.67_T,ERR1085090.55151,89.80,98,10,0,1,98,3,100,4e-29,126
Exophiala_salmonis_CBS157.67_T,ERR1085090.49698,89.80,98,10,0,1,98,3,100,4e-29,126
Exophiala_salmonis_CBS157.67_T,ERR1085090.48624,89.80,98,10,0,1,98,3,100,4e-29,126
Exophiala_salmonis_CBS157.67_T,ERR1085090.46519,89.80,98,10,0,1,98,3,100,4e-29,126
Exophiala_salmonis_CBS157.67_T,ERR1085090.27777,89.80,98,10,0,1,98,3,100,4e-29,126
Exophiala_salmonis_CBS157.67_T,ERR1085090.26417,89.80,98,10,0,1,98,3,100,4e-29,126
Exophiala_salmonis_CBS157.67_T,ERR1085090.18812,89.80,98,10,0,1,98,3,100,4e-29,126
Exophiala_salmonis_CBS157.67_T,ERR1085090.11886,89.80,98,10,0,1,98,3,100,4e-29,126
Exophiala_salmonis_CBS157.67_T,ERR1085090.3551,89.80,98,10,0,1,98,3,100,4e-29,126
Exophiala_salmonis_CBS157.67_T,ERR1085090.84932,91.11,90,8,0,1,90,3,92,6e-28,122
Exophiala_salmonis_CBS157.67_T,ERR1085090.102246,88.78,98,11,0,1,98,3,100,2e-27,121
Exophiala_salmonis_CBS157.67_T,ERR1085090.87593,88.78,98,11,0,1,98,3,100,2e-27,121
Exophiala_salmonis_CBS157.67_T,ERR1085090.75024,88.78,98,11,0,1,98,3,100,2e-27,121
Exophiala_salmonis_CBS157.67_T,ERR1085090.72916,88.78,98,11,0,1,98,3,100,2e-27,121
Exophiala_salmonis_CBS157.67_T,ERR1085090.67979,88.78,98,11,0,1,98,3,100,2e-27,121
Exophiala_salmonis_CBS157.67_T,ERR1085090.53205,88.78,98,11,0,1,98,3,100,2e-27,121
Exophiala_salmonis_CBS157.67_T,ERR1085090.24333,88.78,98,11,0,1,98,3,100,2e-27,121
Exophiala_salmonis_CBS157.67_T,ERR1085090.21342,88.78,98,11,0,1,98,3,100,2e-27,121
Exophiala_salmonis_CBS157.67_T,ERR1085090.19236,88.78,98,11,0,1,98,3,100,2e-27,121
Exophiala_salmonis_CBS157.67_T,ERR1085090.5944,89.11,101,5,6,1,98,3,100,2e-27,121
Exophiala_salmonis_CBS157.67_T,ERR1085090.5146,88.78,98,11,0,1,98,3,100,2e-27,121
Exophiala_salmonis_CBS157.67_T,ERR1085090.104888,87.76,98,12,0,1,98,3,100,1e-25,115
Exophiala_salmonis_CBS157.67_T,ERR1085090.104887,87.76,98,12,0,1,98,3,100,1e-25,115
Exophiala_salmonis_CBS157.67_T,ERR1085090.103494,87.76,98,12,0,1,98,3,100,1e-25,115
Exophiala_salmonis_CBS157.67_T,ERR1085090.103240,87.76,98,12,0,1,98,3,100,1e-25,115
Exophiala_salmonis_CBS157.67_T,ERR1085090.101105,87.76,98,12,0,1,98,3,100,1e-25,115
Exophiala_salmonis_CBS157.67_T,ERR1085090.101051,87.76,98,12,0,1,98,3,100,1e-25,115
Exophiala_salmonis_CBS157.67_T,ERR1085090.100722,87.76,98,12,0,1,98,3,100,1e-25,115
Exophiala_salmonis_CBS157.67_T,ERR1085090.100483,87.76,98,12,0,1,98,3,100,1e-25,115
Exophiala_salmonis_CBS157.67_T,ERR1085090.100058,87.76,98,12,0,1,98,3,100,1e-25,115
Exophiala_salmonis_CBS157.67_T,ERR1085090.99697,87.76,98,12,0,1,98,3,100,1e-25,115
Exophiala_salmonis_CBS157.67_T,ERR1085090.99575,87.76,98,12,0,1,98,3,100,1e-25,115
Exophiala_salmonis_CBS157.67_T,ERR1085090.99455,87.76,98,12,0,1,98,3,100,1e-25,115
Exophiala_salmonis_CBS157.67_T,ERR1085090.99424,87.76,98,12,0,1,98,3,100,1e-25,115
Exophiala_salmonis_CBS157.67_T,ERR1085090.99099,87.76,98,12,0,1,98,3,100,1e-25,115
Exophiala_salmonis_CBS157.67_T,ERR1085090.98830,88.12,101,7,5,1,99,3,100,1e-25,115
Exophiala_salmonis_CBS157.67_T,ERR1085090.97291,87.76,98,12,0,1,98,3,100,1e-25,115
Exophiala_salmonis_CBS157.67_T,ERR1085090.96687,87.76,98,12,0,1,98,3,100,1e-25,115
Exophiala_salmonis_CBS157.67_T,ERR1085090.94225,87.76,98,12,0,1,98,3,100,1e-25,115
Exophiala_salmonis_CBS157.67_T,ERR1085090.93071,87.76,98,12,0,1,98,3,100,1e-25,115
Exophiala_salmonis_CBS157.67_T,ERR1085090.93059,87.76,98,12,0,1,98,3,100,1e-25,115
Exophiala_salmonis_CBS157.67_T,ERR1085090.91870,87.76,98,12,0,1,98,3,100,1e-25,115
Exophiala_salmonis_CBS157.67_T,ERR1085090.91396,87.76,98,12,0,1,98,3,100,1e-25,115
Exophiala_salmonis_CBS157.67_T,ERR1085090.89882,87.76,98,12,0,1,98,3,100,1e-25,115
Exophiala_salmonis_CBS157.67_T,ERR1085090.88977,87.76,98,12,0,1,98,3,100,1e-25,115
Exophiala_salmonis_CBS157.67_T,ERR1085090.88764,87.76,98,12,0,1,98,3,100,1e-25,115
Exophiala_salmonis_CBS157.67_T,ERR1085090.88569,87.76,98,12,0,1,98,3,100,1e-25,115
Exophiala_salmonis_CBS157.67_T,ERR1085090.88406,87.76,98,12,0,1,98,3,100,1e-25,115
Exophiala_salmonis_CBS157.67_T,ERR1085090.87826,87.76,98,12,0,1,98,3,100,1e-25,115
Exophiala_salmonis_CBS157.67_T,ERR1085090.86982,87.76,98,12,0,1,98,3,100,1e-25,115
Exophiala_salmonis_CBS157.67_T,ERR1085090.86865,87.76,98,12,0,1,98,3,100,1e-25,115
Exophiala_salmonis_CBS157.67_T,ERR1085090.86309,88.00,100,8,4,1,98,3,100,1e-25,115
Exophiala_salmonis_CBS157.67_T,ERR1085090.86208,87.76,98,12,0,1,98,3,100,1e-25,115
Exophiala_salmonis_CBS157.67_T,ERR1085090.82295,89.89,89,9,0,1,89,3,91,1e-25,115
Exophiala_salmonis_CBS157.67_T,ERR1085090.78357,87.76,98,12,0,1,98,3,100,1e-25,115
Exophiala_salmonis_CBS157.67_T,ERR1085090.78318,87.76,98,12,0,1,98,3,100,1e-25,115
Exophiala_salmonis_CBS157.67_T,ERR1085090.78317,87.76,98,12,0,1,98,3,100,1e-25,115
Exophiala_salmonis_CBS157.67_T,ERR1085090.77387,87.76,98,12,0,1,98,3,100,1e-25,115
Exophiala_salmonis_CBS157.67_T,ERR1085090.77320,87.76,98,12,0,1,98,3,100,1e-25,115
Exophiala_salmonis_CBS157.67_T,ERR1085090.76245,87.76,98,12,0,1,98,3,100,1e-25,115
Exophiala_salmonis_CBS157.67_T,ERR1085090.76078,87.76,98,12,0,1,98,3,100,1e-25,115
Exophiala_salmonis_CBS157.67_T,ERR1085090.76077,87.76,98,12,0,1,98,3,100,1e-25,115
Exophiala_salmonis_CBS157.67_T,ERR1085090.75627,87.76,98,12,0,1,98,3,100,1e-25,115
Exophiala_salmonis_CBS157.67_T,ERR1085090.74449,87.76,98,12,0,1,98,3,100,1e-25,115
Exophiala_salmonis_CBS157.67_T,ERR1085090.73814,87.76,98,12,0,1,98,3,100,1e-25,115
Exophiala_salmonis_CBS157.67_T,ERR1085090.73549,87.76,98,12,0,1,98,3,100,1e-25,115
Exophiala_salmonis_CBS157.67_T,ERR1085090.72671,87.76,98,12,0,1,98,3,100,1e-25,115
Exophiala_salmonis_CBS157.67_T,ERR1085090.72635,87.76,98,12,0,1,98,3,100,1e-25,115
Exophiala_salmonis_CBS157.67_T,ERR1085090.72362,87.76,98,12,0,1,98,3,100,1e-25,115
Exophiala_salmonis_CBS157.67_T,ERR1085090.72216,87.76,98,12,0,1,98,3,100,1e-25,115
Exophiala_salmonis_CBS157.67_T,ERR1085090.71886,87.76,98,12,0,1,98,3,100,1e-25,115
Exophiala_salmonis_CBS157.67_T,ERR1085090.70925,87.76,98,12,0,1,98,3,100,1e-25,115
Exophiala_salmonis_CBS157.67_T,ERR1085090.70761,87.76,98,12,0,1,98,3,100,1e-25,115
Exophiala_salmonis_CBS157.67_T,ERR1085090.69767,87.76,98,12,0,1,98,3,100,1e-25,115
Exophiala_salmonis_CBS157.67_T,ERR1085090.69100,87.76,98,12,0,1,98,3,100,1e-25,115
Exophiala_salmonis_CBS157.67_T,ERR1085090.67829,87.76,98,12,0,1,98,3,100,1e-25,115
Rhinocladiella_atrovirens_CBS264.49,ERR1085090.66234,100.00,30,0,0,1,30,71,100,5e-08,56.5
Rhinocladiella_atrovirens_CBS264.49,ERR1085090.19730,100.00,30,0,0,1,30,71,100,5e-08,56.5
Rhinocladiella_atrovirens_CBS264.49,ERR1085090.14314,100.00,30,0,0,1,30,71,100,5e-08,56.5
Rhinocladiella_atrovirens_CBS264.49,ERR1085090.103933,100.00,29,0,0,1,29,71,99,2e-07,54.7
Rhinocladiella_atrovirens_CBS264.49,ERR1085090.73273,100.00,29,0,0,1,29,72,100,2e-07,54.7
Rhinocladiella_atrovirens_CBS264.49,ERR1085090.91340,100.00,28,0,0,1,28,73,100,6e-07,52.8
Rhinocladiella_atrovirens_CBS264.49,ERR1085090.88712,100.00,28,0,0,1,28,73,100,6e-07,52.8
Rhinocladiella_atrovirens_CBS264.49,ERR1085090.85777,100.00,28,0,0,1,28,73,100,6e-07,52.8
Rhinocladiella_atrovirens_CBS264.49,ERR1085090.52102,100.00,28,0,0,1,28,73,100,6e-07,52.8
Rhinocladiella_atrovirens_CBS264.49,ERR1085090.48722,100.00,28,0,0,1,28,73,100,6e-07,52.8
Rhinocladiella_atrovirens_CBS264.49,ERR1085090.40714,100.00,28,0,0,1,28,73,100,6e-07,52.8
Rhinocladiella_atrovirens_CBS264.49,ERR1085090.37994,100.00,28,0,0,1,28,73,100,6e-07,52.8
Rhinocladiella_atrovirens_CBS264.49,ERR1085090.37070,100.00,28,0,0,1,28,73,100,6e-07,52.8
Rhinocladiella_atrovirens_CBS264.49,ERR1085090.37003,100.00,28,0,0,1,28,73,100,6e-07,52.8
Rhinocladiella_atrovirens_CBS264.49,ERR1085090.6191,100.00,28,0,0,1,28,73,100,6e-07,52.8
Rhinocladiella_atrovirens_CBS264.49,ERR1085090.4422,100.00,28,0,0,1,28,73,100,6e-07,52.8
Rhinocladiella_atrovirens_CBS264.49,ERR1085090.1713,100.00,28,0,0,1,28,73,100,6e-07,52.8
Cyphellophora_laciniata_CBS190.61_T,ERR1085090.94245,100.00,44,0,0,1,44,57,100,9e-16,82.4
Cyphellophora_laciniata_CBS190.61_T,ERR1085090.94151,100.00,44,0,0,1,44,57,100,9e-16,82.4
Cyphellophora_laciniata_CBS190.61_T,ERR1085090.88525,100.00,44,0,0,1,44,57,100,9e-16,82.4
Cyphellophora_laciniata_CBS190.61_T,ERR1085090.53454,100.00,44,0,0,1,44,57,100,9e-16,82.4
Cyphellophora_laciniata_CBS190.61_T,ERR1085090.51082,100.00,44,0,0,1,44,57,100,9e-16,82.4
Cyphellophora_laciniata_CBS190.61_T,ERR1085090.46282,100.00,44,0,0,1,44,57,100,9e-16,82.4
Cyphellophora_laciniata_CBS190.61_T,ERR1085090.42221,100.00,44,0,0,1,44,57,100,9e-16,82.4
Cyphellophora_laciniata_CBS190.61_T,ERR1085090.24272,100.00,44,0,0,1,44,57,100,9e-16,82.4
Cyphellophora_laciniata_CBS190.61_T,ERR1085090.12464,100.00,44,0,0,1,44,57,100,9e-16,82.4
Cyphellophora_laciniata_CBS190.61_T,ERR1085090.6796,100.00,44,0,0,1,44,57,100,9e-16,82.4
Cyphellophora_laciniata_CBS190.61_T,ERR1085090.103737,97.73,44,1,0,28,71,57,100,4e-14,76.8
Cyphellophora_laciniata_CBS190.61_T,ERR1085090.103146,97.73,44,1,0,28,71,57,100,4e-14,76.8
Cyphellophora_laciniata_CBS190.61_T,ERR1085090.103076,97.73,44,1,0,28,71,57,100,4e-14,76.8
Cyphellophora_laciniata_CBS190.61_T,ERR1085090.101857,97.73,44,1,0,1,44,57,100,4e-14,76.8
Cyphellophora_laciniata_CBS190.61_T,ERR1085090.100409,97.73,44,1,0,28,71,57,100,4e-14,76.8
Cyphellophora_laciniata_CBS190.61_T,ERR1085090.100225,97.73,44,1,0,1,44,57,100,4e-14,76.8
Cyphellophora_laciniata_CBS190.61_T,ERR1085090.99884,97.73,44,1,0,28,71,57,100,4e-14,76.8
Cyphellophora_laciniata_CBS190.61_T,ERR1085090.96231,97.73,44,1,0,28,71,57,100,4e-14,76.8
Cyphellophora_laciniata_CBS190.61_T,ERR1085090.91683,97.73,44,1,0,28,71,57,100,4e-14,76.8
Cyphellophora_laciniata_CBS190.61_T,ERR1085090.90936,97.73,44,1,0,28,71,57,100,4e-14,76.8
Cyphellophora_laciniata_CBS190.61_T,ERR1085090.89631,97.73,44,1,0,1,44,57,100,4e-14,76.8
Cyphellophora_laciniata_CBS190.61_T,ERR1085090.86223,97.73,44,1,0,28,71,57,100,4e-14,76.8
Cyphellophora_laciniata_CBS190.61_T,ERR1085090.85428,97.73,44,1,0,1,44,57,100,4e-14,76.8
Cyphellophora_laciniata_CBS190.61_T,ERR1085090.82544,97.73,44,1,0,1,44,57,100,4e-14,76.8
Cyphellophora_laciniata_CBS190.61_T,ERR1085090.78443,97.73,44,1,0,28,71,57,100,4e-14,76.8
Cyphellophora_laciniata_CBS190.61_T,ERR1085090.77854,97.73,44,1,0,1,44,57,100,4e-14,76.8
Cyphellophora_laciniata_CBS190.61_T,ERR1085090.76185,97.73,44,1,0,1,44,57,100,4e-14,76.8
Cyphellophora_laciniata_CBS190.61_T,ERR1085090.73699,97.73,44,1,0,28,71,57,100,4e-14,76.8
Cyphellophora_laciniata_CBS190.61_T,ERR1085090.72953,97.73,44,1,0,28,71,57,100,4e-14,76.8
Cyphellophora_laciniata_CBS190.61_T,ERR1085090.71508,97.73,44,1,0,28,71,57,100,4e-14,76.8
Cyphellophora_laciniata_CBS190.61_T,ERR1085090.71443,97.73,44,1,0,1,44,57,100,4e-14,76.8
Cyphellophora_laciniata_CBS190.61_T,ERR1085090.69630,97.73,44,1,0,1,44,57,100,4e-14,76.8
Cyphellophora_laciniata_CBS190.61_T,ERR1085090.68557,97.73,44,1,0,1,44,57,100,4e-14,76.8
Cyphellophora_laciniata_CBS190.61_T,ERR1085090.67743,97.73,44,1,0,28,71,57,100,4e-14,76.8
Cyphellophora_laciniata_CBS190.61_T,ERR1085090.62035,97.73,44,1,0,28,71,57,100,4e-14,76.8
Cyphellophora_laciniata_CBS190.61_T,ERR1085090.59172,97.73,44,1,0,1,44,57,100,4e-14,76.8
Cyphellophora_laciniata_CBS190.61_T,ERR1085090.56494,97.73,44,1,0,1,44,57,100,4e-14,76.8
Cyphellophora_laciniata_CBS190.61_T,ERR1085090.56492,97.73,44,1,0,28,71,57,100,4e-14,76.8
Cyphellophora_laciniata_CBS190.61_T,ERR1085090.55071,97.73,44,1,0,1,44,57,100,4e-14,76.8
Cyphellophora_laciniata_CBS190.61_T,ERR1085090.54002,97.73,44,1,0,1,44,57,100,4e-14,76.8
Cyphellophora_laciniata_CBS190.61_T,ERR1085090.52898,97.73,44,1,0,1,44,57,100,4e-14,76.8
Cyphellophora_laciniata_CBS190.61_T,ERR1085090.52268,97.73,44,1,0,1,44,57,100,4e-14,76.8
Cyphellophora_laciniata_CBS190.61_T,ERR1085090.51249,97.73,44,1,0,1,44,57,100,4e-14,76.8
Cyphellophora_laciniata_CBS190.61_T,ERR1085090.47964,97.73,44,1,0,28,71,57,100,4e-14,76.8
Cyphellophora_laciniata_CBS190.61_T,ERR1085090.46064,97.73,44,1,0,28,71,57,100,4e-14,76.8
Cyphellophora_laciniata_CBS190.61_T,ERR1085090.40884,97.73,44,1,0,28,71,57,100,4e-14,76.8
Cyphellophora_laciniata_CBS190.61_T,ERR1085090.40396,97.73,44,1,0,1,44,57,100,4e-14,76.8
Cyphellophora_laciniata_CBS190.61_T,ERR1085090.31178,97.73,44,1,0,28,71,57,100,4e-14,76.8
Cyphellophora_laciniata_CBS190.61_T,ERR1085090.28851,97.73,44,1,0,1,44,57,100,4e-14,76.8
Cyphellophora_laciniata_CBS190.61_T,ERR1085090.28354,97.73,44,1,0,28,71,57,100,4e-14,76.8
Cyphellophora_laciniata_CBS190.61_T,ERR1085090.26065,97.73,44,1,0,1,44,57,100,4e-14,76.8
Cyphellophora_laciniata_CBS190.61_T,ERR1085090.25506,97.73,44,1,0,28,71,57,100,4e-14,76.8
Cyphellophora_laciniata_CBS190.61_T,ERR1085090.25200,97.73,44,1,0,1,44,57,100,4e-14,76.8
Cyphellophora_laciniata_CBS190.61_T,ERR1085090.23232,97.73,44,1,0,28,71,57,100,4e-14,76.8
Cyphellophora_laciniata_CBS190.61_T,ERR1085090.23030,97.73,44,1,0,1,44,57,100,4e-14,76.8
Cyphellophora_laciniata_CBS190.61_T,ERR1085090.19193,97.73,44,1,0,28,71,57,100,4e-14,76.8
Cyphellophora_laciniata_CBS190.61_T,ERR1085090.17941,97.73,44,1,0,1,44,57,100,4e-14,76.8
Cyphellophora_laciniata_CBS190.61_T,ERR1085090.16810,97.73,44,1,0,1,44,57,100,4e-14,76.8
Cyphellophora_laciniata_CBS190.61_T,ERR1085090.13905,97.73,44,1,0,28,71,57,100,4e-14,76.8
Cyphellophora_laciniata_CBS190.61_T,ERR1085090.11431,97.73,44,1,0,1,44,57,100,4e-14,76.8
Cyphellophora_laciniata_CBS190.61_T,ERR1085090.10154,97.73,44,1,0,28,71,57,100,4e-14,76.8
Cyphellophora_laciniata_CBS190.61_T,ERR1085090.9159,97.73,44,1,0,28,71,57,100,4e-14,76.8
Cyphellophora_laciniata_CBS190.61_T,ERR1085090.8866,97.73,44,1,0,1,44,57,100,4e-14,76.8
Cyphellophora_laciniata_CBS190.61_T,ERR1085090.2329,97.73,44,1,0,1,44,57,100,4e-14,76.8
Cyphellophora_laciniata_CBS190.61_T,ERR1085090.103033,97.56,41,1,0,31,71,60,100,2e-12,71.3
Cyphellophora_laciniata_CBS190.61_T,ERR1085090.102698,95.45,44,2,0,1,44,57,100,2e-12,71.3
Cyphellophora_laciniata_CBS190.61_T,ERR1085090.100790,95.45,44,2,0,1,44,57,100,2e-12,71.3
Cyphellophora_laciniata_CBS190.61_T,ERR1085090.95472,95.45,44,2,0,1,44,57,100,2e-12,71.3
Cyphellophora_laciniata_CBS190.61_T,ERR1085090.91940,95.45,44,2,0,1,44,57,100,2e-12,71.3
Cyphellophora_laciniata_CBS190.61_T,ERR1085090.91714,95.45,44,2,0,1,44,57,100,2e-12,71.3
Cyphellophora_laciniata_CBS190.61_T,ERR1085090.67148,95.45,44,2,0,1,44,57,100,2e-12,71.3
Cyphellophora_laciniata_CBS190.61_T,ERR1085090.63199,95.45,44,2,0,28,71,57,100,2e-12,71.3
Cyphellophora_laciniata_CBS190.61_T,ERR1085090.61014,95.45,44,2,0,1,44,57,100,2e-12,71.3
Cyphellophora_laciniata_CBS190.61_T,ERR1085090.60366,95.45,44,2,0,1,44,57,100,2e-12,71.3
Cyphellophora_laciniata_CBS190.61_T,ERR1085090.59497,95.45,44,2,0,1,44,57,100,2e-12,71.3
Cyphellophora_laciniata_CBS190.61_T,ERR1085090.58399,95.45,44,2,0,1,44,57,100,2e-12,71.3
Cyphellophora_laciniata_CBS190.61_T,ERR1085090.56082,95.45,44,2,0,1,44,57,100,2e-12,71.3
Cyphellophora_laciniata_CBS190.61_T,ERR1085090.55855,95.45,44,2,0,1,44,57,100,2e-12,71.3
Cyphellophora_laciniata_CBS190.61_T,ERR1085090.54013,95.45,44,2,0,1,44,57,100,2e-12,71.3
Cyphellophora_laciniata_CBS190.61_T,ERR1085090.49433,95.45,44,2,0,1,44,57,100,2e-12,71.3
Cyphellophora_laciniata_CBS190.61_T,ERR1085090.47230,95.45,44,2,0,1,44,57,100,2e-12,71.3
Cyphellophora_laciniata_CBS190.61_T,ERR1085090.44030,95.45,44,2,0,1,44,57,100,2e-12,71.3
Cyphellophora_laciniata_CBS190.61_T,ERR1085090.37057,95.45,44,2,0,1,44,57,100,2e-12,71.3
Cyphellophora_laciniata_CBS190.61_T,ERR1085090.21768,95.45,44,2,0,1,44,57,100,2e-12,71.3
Cyphellophora_laciniata_CBS190.61_T,ERR1085090.20060,95.45,44,2,0,1,44,57,100,2e-12,71.3
Cyphellophora_laciniata_CBS190.61_T,ERR1085090.18635,95.56,45,1,1,28,72,57,100,2e-12,71.3
Cyphellophora_laciniata_CBS190.61_T,ERR1085090.15825,95.45,44,2,0,1,44,57,100,2e-12,71.3
Cyphellophora_laciniata_CBS190.61_T,ERR1085090.8872,95.45,44,2,0,1,44,57,100,2e-12,71.3
Cyphellophora_laciniata_CBS190.61_T,ERR1085090.7079,95.45,44,2,0,1,44,57,100,2e-12,71.3
Cyphellophora_laciniata_CBS190.61_T,ERR1085090.5669,95.45,44,2,0,1,44,57,100,2e-12,71.3
Cyphellophora_laciniata_CBS190.61_T,ERR1085090.76748,95.35,43,2,0,2,44,58,100,7e-12,69.4
Cyphellophora_laciniata_CBS190.61_T,ERR1085090.3264,95.00,40,1,1,29,67,57,96,1e-09,62.1
Cyphellophora_laciniata_CBS190.61_T,ERR1085090.66234,100.00,32,0,0,55,86,69,100,4e-09,60.2
Cyphellophora_laciniata_CBS190.61_T,ERR1085090.19730,100.00,32,0,0,55,86,69,100,4e-09,60.2
Cyphellophora_laciniata_CBS190.61_T,ERR1085090.14314,100.00,32,0,0,55,86,69,100,4e-09,60.2
Cyphellophora_laciniata_CBS190.61_T,ERR1085090.103933,100.00,31,0,0,55,85,69,99,2e-08,58.4
Cyphellophora_laciniata_CBS190.61_T,ERR1085090.73273,100.00,31,0,0,55,85,70,100,2e-08,58.4
Cyphellophora_laciniata_CBS190.61_T,ERR1085090.53718,94.74,38,1,1,19,56,64,100,2e-08,58.4
Cyphellophora_laciniata_CBS190.61_T,ERR1085090.23901,94.59,37,2,0,20,56,64,100,2e-08,58.4
Cyphellophora_laciniata_CBS190.61_T,ERR1085090.91340,100.00,30,0,0,55,84,71,100,6e-08,56.5
Cyphellophora_laciniata_CBS190.61_T,ERR1085090.88712,100.00,30,0,0,55,84,71,100,6e-08,56.5
Cyphellophora_laciniata_CBS190.61_T,ERR1085090.85777,100.00,30,0,0,55,84,71,100,6e-08,56.5
Cyphellophora_laciniata_CBS190.61_T,ERR1085090.52102,100.00,30,0,0,55,84,71,100,6e-08,56.5
Cyphellophora_laciniata_CBS190.61_T,ERR1085090.48722,100.00,30,0,0,55,84,71,100,6e-08,56.5
Cyphellophora_laciniata_CBS190.61_T,ERR1085090.40714,100.00,30,0,0,55,84,71,100,6e-08,56.5
Cyphellophora_laciniata_CBS190.61_T,ERR1085090.37994,100.00,30,0,0,55,84,71,100,6e-08,56.5
Cyphellophora_laciniata_CBS190.61_T,ERR1085090.37070,100.00,30,0,0,55,84,71,100,6e-08,56.5
Cyphellophora_laciniata_CBS190.61_T,ERR1085090.37003,100.00,30,0,0,55,84,71,100,6e-08,56.5
Cyphellophora_laciniata_CBS190.61_T,ERR1085090.6191,100.00,30,0,0,55,84,71,100,6e-08,56.5
Cyphellophora_laciniata_CBS190.61_T,ERR1085090.4422,100.00,30,0,0,55,84,71,100,6e-08,56.5
Cyphellophora_laciniata_CBS190.61_T,ERR1085090.1713,100.00,30,0,0,55,84,71,100,6e-08,56.5
Cyphellophora_laciniata_CBS190.61_T,ERR1085090.97284,100.00,29,0,0,1,29,57,85,2e-07,54.7
Cyphellophora_laciniata_CBS190.61_T,ERR1085090.99846,92.11,38,2,1,19,56,64,100,7e-07,52.8
Cyphellophora_laciniata_CBS190.61_T,ERR1085090.98938,92.11,38,2,1,19,56,64,100,7e-07,52.8
Cyphellophora_laciniata_CBS190.61_T,ERR1085090.98100,92.11,38,2,1,19,56,64,100,7e-07,52.8
Cyphellophora_laciniata_CBS190.61_T,ERR1085090.95242,92.11,38,2,1,19,56,64,100,7e-07,52.8
Cyphellophora_laciniata_CBS190.61_T,ERR1085090.95078,100.00,28,0,0,55,82,73,100,7e-07,52.8
Cyphellophora_laciniata_CBS190.61_T,ERR1085090.92149,92.11,38,2,1,19,56,64,100,7e-07,52.8
Cyphellophora_laciniata_CBS190.61_T,ERR1085090.90646,92.11,38,2,1,19,56,64,100,7e-07,52.8
Cyphellophora_laciniata_CBS190.61_T,ERR1085090.88340,92.11,38,2,1,19,56,64,100,7e-07,52.8
Cyphellophora_laciniata_CBS190.61_T,ERR1085090.85982,92.11,38,2,1,19,56,64,100,7e-07,52.8
Cyphellophora_laciniata_CBS190.61_T,ERR1085090.85907,92.11,38,2,1,19,56,64,100,7e-07,52.8
Cyphellophora_laciniata_CBS190.61_T,ERR1085090.85519,92.11,38,2,1,19,56,64,100,7e-07,52.8
Cyphellophora_laciniata_CBS190.61_T,ERR1085090.76304,92.11,38,2,1,19,56,64,100,7e-07,52.8
Cyphellophora_laciniata_CBS190.61_T,ERR1085090.74658,92.11,38,2,1,19,56,64,100,7e-07,52.8
Cyphellophora_laciniata_CBS190.61_T,ERR1085090.70712,92.11,38,2,1,19,56,64,100,7e-07,52.8
Cyphellophora_laciniata_CBS190.61_T,ERR1085090.69950,92.11,38,2,1,19,56,64,100,7e-07,52.8
Cyphellophora_laciniata_CBS190.61_T,ERR1085090.68094,92.11,38,2,1,19,56,64,100,7e-07,52.8
Cyphellophora_laciniata_CBS190.61_T,ERR1085090.68012,92.11,38,2,1,19,56,64,100,7e-07,52.8
Cyphellophora_laciniata_CBS190.61_T,ERR1085090.63109,92.11,38,2,1,19,56,64,100,7e-07,52.8
Cyphellophora_laciniata_CBS190.61_T,ERR1085090.51773,92.11,38,2,1,19,56,64,100,7e-07,52.8
Cyphellophora_laciniata_CBS190.61_T,ERR1085090.51640,92.11,38,2,1,19,56,64,100,7e-07,52.8
Cyphellophora_laciniata_CBS190.61_T,ERR1085090.49699,92.11,38,2,1,19,56,64,100,7e-07,52.8
Cyphellophora_laciniata_CBS190.61_T,ERR1085090.48138,92.11,38,2,1,19,56,64,100,7e-07,52.8
Cyphellophora_laciniata_CBS190.61_T,ERR1085090.36960,92.11,38,2,1,19,56,64,100,7e-07,52.8
Cyphellophora_laciniata_CBS190.61_T,ERR1085090.34496,92.11,38,2,1,19,56,64,100,7e-07,52.8
Cyphellophora_laciniata_CBS190.61_T,ERR1085090.33247,92.11,38,2,1,19,56,64,100,7e-07,52.8
Cyphellophora_laciniata_CBS190.61_T,ERR1085090.33215,92.11,38,2,1,19,56,64,100,7e-07,52.8
Cyphellophora_laciniata_CBS190.61_T,ERR1085090.32960,92.11,38,2,1,19,56,64,100,7e-07,52.8
Cyphellophora_laciniata_CBS190.61_T,ERR1085090.32564,92.11,38,2,1,19,56,64,100,7e-07,52.8
Cyphellophora_laciniata_CBS190.61_T,ERR1085090.30461,92.11,38,2,1,19,56,64,100,7e-07,52.8
Cyphellophora_laciniata_CBS190.61_T,ERR1085090.30368,92.11,38,2,1,19,56,64,100,7e-07,52.8
Cyphellophora_laciniata_CBS190.61_T,ERR1085090.29727,92.11,38,2,1,19,56,64,100,7e-07,52.8
Cyphellophora_laciniata_CBS190.61_T,ERR1085090.29604,92.11,38,2,1,19,56,64,100,7e-07,52.8
Cyphellophora_laciniata_CBS190.61_T,ERR1085090.29036,92.11,38,2,1,19,56,64,100,7e-07,52.8
Cyphellophora_laciniata_CBS190.61_T,ERR1085090.27968,92.11,38,2,1,19,56,64,100,7e-07,52.8
Cyphellophora_laciniata_CBS190.61_T,ERR1085090.26044,92.11,38,2,1,19,56,64,100,7e-07,52.8
Cyphellophora_laciniata_CBS190.61_T,ERR1085090.20168,92.11,38,2,1,19,56,64,100,7e-07,52.8
Cyphellophora_laciniata_CBS190.61_T,ERR1085090.19608,92.11,38,2,1,19,56,64,100,7e-07,52.8
Cyphellophora_laciniata_CBS190.61_T,ERR1085090.15779,100.00,28,0,0,55,82,73,100,7e-07,52.8
Cyphellophora_laciniata_CBS190.61_T,ERR1085090.14410,92.11,38,2,1,19,56,64,100,7e-07,52.8
Cyphellophora_laciniata_CBS190.61_T,ERR1085090.12185,92.11,38,2,1,19,56,64,100,7e-07,52.8
Cyphellophora_laciniata_CBS190.61_T,ERR1085090.10535,92.11,38,2,1,19,56,64,100,7e-07,52.8
Cyphellophora_laciniata_CBS190.61_T,ERR1085090.10505,92.11,38,2,1,19,56,64,100,7e-07,52.8
Cyphellophora_laciniata_CBS190.61_T,ERR1085090.9785,92.11,38,2,1,19,56,64,100,7e-07,52.8
Cyphellophora_laciniata_CBS190.61_T,ERR1085090.9080,92.11,38,2,1,19,56,64,100,7e-07,52.8
Cyphellophora_laciniata_CBS190.61_T,ERR1085090.6146,92.11,38,2,1,19,56,64,100,7e-07,52.8
Cyphellophora_laciniata_CBS190.61_T,ERR1085090.4566,92.11,38,2,1,19,56,64,100,7e-07,52.8
Cyphellophora_laciniata_CBS190.61_T,ERR1085090.4082,100.00,28,0,0,43,70,73,100,7e-07,52.8
Cyphellophora_laciniata_CBS190.61_T,ERR1085090.3301,92.11,38,2,1,19,56,64,100,7e-07,52.8
Cyphellophora_laciniata_CBS190.61_T,ERR1085090.2710,92.11,38,2,1,19,56,64,100,7e-07,52.8
