Exophiala_salmonis_CBS157.67_T,ERR1085119.54068,92.86,98,7,0,1,98,3,100,3e-34,143
Exophiala_salmonis_CBS157.67_T,ERR1085119.53603,92.86,98,7,0,1,98,3,100,3e-34,143
Exophiala_salmonis_CBS157.67_T,ERR1085119.44601,92.86,98,7,0,1,98,3,100,3e-34,143
Exophiala_salmonis_CBS157.67_T,ERR1085119.40701,92.86,98,7,0,1,98,3,100,3e-34,143
Exophiala_salmonis_CBS157.67_T,ERR1085119.38301,92.86,98,7,0,1,98,3,100,3e-34,143
Exophiala_salmonis_CBS157.67_T,ERR1085119.37741,92.86,98,7,0,1,98,3,100,3e-34,143
Exophiala_salmonis_CBS157.67_T,ERR1085119.66571,91.84,98,8,0,1,98,3,100,1e-32,137
Exophiala_salmonis_CBS157.67_T,ERR1085119.66036,91.92,99,6,2,1,98,3,100,1e-32,137
Exophiala_salmonis_CBS157.67_T,ERR1085119.65292,91.84,98,8,0,1,98,3,100,1e-32,137
Exophiala_salmonis_CBS157.67_T,ERR1085119.65123,91.84,98,8,0,1,98,3,100,1e-32,137
Exophiala_salmonis_CBS157.67_T,ERR1085119.64534,91.84,98,8,0,1,98,3,100,1e-32,137
Exophiala_salmonis_CBS157.67_T,ERR1085119.63931,91.84,98,8,0,1,98,3,100,1e-32,137
Exophiala_salmonis_CBS157.67_T,ERR1085119.63174,91.84,98,8,0,1,98,3,100,1e-32,137
Exophiala_salmonis_CBS157.67_T,ERR1085119.62456,91.84,98,8,0,1,98,3,100,1e-32,137
Exophiala_salmonis_CBS157.67_T,ERR1085119.62428,91.84,98,8,0,1,98,3,100,1e-32,137
Exophiala_salmonis_CBS157.67_T,ERR1085119.60586,91.84,98,8,0,1,98,3,100,1e-32,137
Exophiala_salmonis_CBS157.67_T,ERR1085119.60080,91.84,98,8,0,1,98,3,100,1e-32,137
Exophiala_salmonis_CBS157.67_T,ERR1085119.59071,91.84,98,8,0,1,98,3,100,1e-32,137
Exophiala_salmonis_CBS157.67_T,ERR1085119.58680,91.84,98,8,0,1,98,3,100,1e-32,137
Exophiala_salmonis_CBS157.67_T,ERR1085119.58642,91.84,98,8,0,1,98,3,100,1e-32,137
Exophiala_salmonis_CBS157.67_T,ERR1085119.58065,91.84,98,8,0,1,98,3,100,1e-32,137
Exophiala_salmonis_CBS157.67_T,ERR1085119.58036,91.84,98,8,0,1,98,3,100,1e-32,137
Exophiala_salmonis_CBS157.67_T,ERR1085119.52751,91.84,98,8,0,1,98,3,100,1e-32,137
Exophiala_salmonis_CBS157.67_T,ERR1085119.51862,91.84,98,8,0,1,98,3,100,1e-32,137
Exophiala_salmonis_CBS157.67_T,ERR1085119.51820,91.84,98,8,0,1,98,3,100,1e-32,137
Exophiala_salmonis_CBS157.67_T,ERR1085119.51559,91.84,98,8,0,1,98,3,100,1e-32,137
Exophiala_salmonis_CBS157.67_T,ERR1085119.50688,91.84,98,8,0,1,98,3,100,1e-32,137
Exophiala_salmonis_CBS157.67_T,ERR1085119.49907,91.84,98,8,0,1,98,3,100,1e-32,137
Exophiala_salmonis_CBS157.67_T,ERR1085119.48523,91.84,98,8,0,1,98,3,100,1e-32,137
Exophiala_salmonis_CBS157.67_T,ERR1085119.48144,91.84,98,8,0,1,98,3,100,1e-32,137
Exophiala_salmonis_CBS157.67_T,ERR1085119.48129,91.84,98,8,0,1,98,3,100,1e-32,137
Exophiala_salmonis_CBS157.67_T,ERR1085119.47035,91.84,98,8,0,1,98,3,100,1e-32,137
Exophiala_salmonis_CBS157.67_T,ERR1085119.46795,91.84,98,8,0,1,98,3,100,1e-32,137
Exophiala_salmonis_CBS157.67_T,ERR1085119.45184,91.84,98,8,0,1,98,3,100,1e-32,137
Exophiala_salmonis_CBS157.67_T,ERR1085119.44591,91.84,98,8,0,1,98,3,100,1e-32,137
Exophiala_salmonis_CBS157.67_T,ERR1085119.44043,91.84,98,8,0,1,98,3,100,1e-32,137
Exophiala_salmonis_CBS157.67_T,ERR1085119.42907,91.84,98,8,0,1,98,3,100,1e-32,137
Exophiala_salmonis_CBS157.67_T,ERR1085119.41927,91.84,98,8,0,1,98,3,100,1e-32,137
Exophiala_salmonis_CBS157.67_T,ERR1085119.40644,91.84,98,8,0,1,98,3,100,1e-32,137
Exophiala_salmonis_CBS157.67_T,ERR1085119.37933,91.92,99,6,2,1,98,3,100,1e-32,137
Exophiala_salmonis_CBS157.67_T,ERR1085119.33960,91.84,98,8,0,1,98,3,100,1e-32,137
Exophiala_salmonis_CBS157.67_T,ERR1085119.33101,91.84,98,8,0,1,98,3,100,1e-32,137
Exophiala_salmonis_CBS157.67_T,ERR1085119.31337,91.84,98,8,0,1,98,3,100,1e-32,137
Exophiala_salmonis_CBS157.67_T,ERR1085119.31133,91.84,98,8,0,1,98,3,100,1e-32,137
Exophiala_salmonis_CBS157.67_T,ERR1085119.31129,91.84,98,8,0,1,98,3,100,1e-32,137
Exophiala_salmonis_CBS157.67_T,ERR1085119.30712,91.84,98,8,0,1,98,3,100,1e-32,137
Exophiala_salmonis_CBS157.67_T,ERR1085119.30654,91.84,98,8,0,1,98,3,100,1e-32,137
Exophiala_salmonis_CBS157.67_T,ERR1085119.30582,91.84,98,8,0,1,98,3,100,1e-32,137
Exophiala_salmonis_CBS157.67_T,ERR1085119.28186,91.92,99,6,2,1,98,3,100,1e-32,137
Exophiala_salmonis_CBS157.67_T,ERR1085119.26253,91.84,98,8,0,1,98,3,100,1e-32,137
Exophiala_salmonis_CBS157.67_T,ERR1085119.25769,91.84,98,8,0,1,98,3,100,1e-32,137
Exophiala_salmonis_CBS157.67_T,ERR1085119.25389,91.84,98,8,0,1,98,3,100,1e-32,137
Exophiala_salmonis_CBS157.67_T,ERR1085119.24725,91.84,98,8,0,1,98,3,100,1e-32,137
Exophiala_salmonis_CBS157.67_T,ERR1085119.23604,91.84,98,8,0,1,98,3,100,1e-32,137
Exophiala_salmonis_CBS157.67_T,ERR1085119.23480,91.84,98,8,0,1,98,3,100,1e-32,137
Exophiala_salmonis_CBS157.67_T,ERR1085119.21783,91.84,98,8,0,1,98,3,100,1e-32,137
Exophiala_salmonis_CBS157.67_T,ERR1085119.20038,91.84,98,8,0,1,98,3,100,1e-32,137
Exophiala_salmonis_CBS157.67_T,ERR1085119.19745,91.84,98,8,0,1,98,3,100,1e-32,137
Exophiala_salmonis_CBS157.67_T,ERR1085119.16091,91.84,98,8,0,1,98,3,100,1e-32,137
Exophiala_salmonis_CBS157.67_T,ERR1085119.15920,91.84,98,8,0,1,98,3,100,1e-32,137
Exophiala_salmonis_CBS157.67_T,ERR1085119.15873,91.84,98,8,0,1,98,3,100,1e-32,137
Exophiala_salmonis_CBS157.67_T,ERR1085119.14526,91.84,98,8,0,1,98,3,100,1e-32,137
Exophiala_salmonis_CBS157.67_T,ERR1085119.13490,91.84,98,8,0,1,98,3,100,1e-32,137
Exophiala_salmonis_CBS157.67_T,ERR1085119.13332,91.84,98,8,0,1,98,3,100,1e-32,137
Exophiala_salmonis_CBS157.67_T,ERR1085119.12964,91.84,98,8,0,1,98,3,100,1e-32,137
Exophiala_salmonis_CBS157.67_T,ERR1085119.12962,91.84,98,8,0,1,98,3,100,1e-32,137
Exophiala_salmonis_CBS157.67_T,ERR1085119.12726,91.84,98,8,0,1,98,3,100,1e-32,137
Exophiala_salmonis_CBS157.67_T,ERR1085119.12671,91.84,98,8,0,1,98,3,100,1e-32,137
Exophiala_salmonis_CBS157.67_T,ERR1085119.12534,91.84,98,8,0,1,98,3,100,1e-32,137
Exophiala_salmonis_CBS157.67_T,ERR1085119.11952,91.84,98,8,0,1,98,3,100,1e-32,137
Exophiala_salmonis_CBS157.67_T,ERR1085119.9177,91.84,98,8,0,1,98,3,100,1e-32,137
Exophiala_salmonis_CBS157.67_T,ERR1085119.9167,91.84,98,8,0,1,98,3,100,1e-32,137
Exophiala_salmonis_CBS157.67_T,ERR1085119.8756,91.84,98,8,0,1,98,3,100,1e-32,137
Exophiala_salmonis_CBS157.67_T,ERR1085119.8101,91.84,98,8,0,1,98,3,100,1e-32,137
Exophiala_salmonis_CBS157.67_T,ERR1085119.6859,91.84,98,8,0,1,98,3,100,1e-32,137
Exophiala_salmonis_CBS157.67_T,ERR1085119.6043,91.84,98,8,0,1,98,3,100,1e-32,137
Exophiala_salmonis_CBS157.67_T,ERR1085119.4969,91.84,98,8,0,1,98,3,100,1e-32,137
Exophiala_salmonis_CBS157.67_T,ERR1085119.4405,91.84,98,8,0,1,98,3,100,1e-32,137
Exophiala_salmonis_CBS157.67_T,ERR1085119.3751,91.84,98,8,0,1,98,3,100,1e-32,137
Exophiala_salmonis_CBS157.67_T,ERR1085119.3034,91.84,98,8,0,1,98,3,100,1e-32,137
Exophiala_salmonis_CBS157.67_T,ERR1085119.2545,91.92,99,6,2,1,98,3,100,1e-32,137
Exophiala_salmonis_CBS157.67_T,ERR1085119.700,91.84,98,8,0,1,98,3,100,1e-32,137
Exophiala_salmonis_CBS157.67_T,ERR1085119.41232,91.75,97,8,0,1,97,3,99,5e-32,135
Exophiala_salmonis_CBS157.67_T,ERR1085119.66112,90.82,98,9,0,1,98,3,100,6e-31,132
Exophiala_salmonis_CBS157.67_T,ERR1085119.66101,90.82,98,9,0,1,98,3,100,6e-31,132
Exophiala_salmonis_CBS157.67_T,ERR1085119.66078,90.82,98,9,0,1,98,3,100,6e-31,132
Exophiala_salmonis_CBS157.67_T,ERR1085119.65614,90.91,99,7,2,1,98,3,100,6e-31,132
Exophiala_salmonis_CBS157.67_T,ERR1085119.65142,90.82,98,9,0,1,98,3,100,6e-31,132
Exophiala_salmonis_CBS157.67_T,ERR1085119.65022,90.82,98,9,0,1,98,3,100,6e-31,132
Exophiala_salmonis_CBS157.67_T,ERR1085119.64865,90.82,98,9,0,1,98,3,100,6e-31,132
Exophiala_salmonis_CBS157.67_T,ERR1085119.64854,90.91,99,7,2,1,98,3,100,6e-31,132
Exophiala_salmonis_CBS157.67_T,ERR1085119.64816,90.91,99,7,2,1,98,3,100,6e-31,132
Exophiala_salmonis_CBS157.67_T,ERR1085119.64227,90.91,99,7,2,1,98,3,100,6e-31,132
Exophiala_salmonis_CBS157.67_T,ERR1085119.63140,90.91,99,7,2,1,98,3,100,6e-31,132
Exophiala_salmonis_CBS157.67_T,ERR1085119.63027,90.91,99,7,2,1,98,3,100,6e-31,132
Exophiala_salmonis_CBS157.67_T,ERR1085119.62996,90.91,99,7,2,1,98,3,100,6e-31,132
Exophiala_salmonis_CBS157.67_T,ERR1085119.62988,90.91,99,7,2,1,98,3,100,6e-31,132
Exophiala_salmonis_CBS157.67_T,ERR1085119.62838,90.91,99,7,2,1,98,3,100,6e-31,132
Exophiala_salmonis_CBS157.67_T,ERR1085119.62597,90.91,99,7,2,1,98,3,100,6e-31,132
Exophiala_salmonis_CBS157.67_T,ERR1085119.61569,90.91,99,7,2,1,98,3,100,6e-31,132
Exophiala_salmonis_CBS157.67_T,ERR1085119.61538,90.82,98,9,0,1,98,3,100,6e-31,132
Exophiala_salmonis_CBS157.67_T,ERR1085119.61359,90.82,98,9,0,1,98,3,100,6e-31,132
Exophiala_salmonis_CBS157.67_T,ERR1085119.61287,90.82,98,9,0,1,98,3,100,6e-31,132
Exophiala_salmonis_CBS157.67_T,ERR1085119.61267,90.82,98,9,0,1,98,3,100,6e-31,132
Exophiala_salmonis_CBS157.67_T,ERR1085119.60969,90.91,99,7,2,1,98,3,100,6e-31,132
Exophiala_salmonis_CBS157.67_T,ERR1085119.60039,90.91,99,7,2,1,98,3,100,6e-31,132
Exophiala_salmonis_CBS157.67_T,ERR1085119.59879,90.82,98,9,0,1,98,3,100,6e-31,132
Exophiala_salmonis_CBS157.67_T,ERR1085119.59706,90.91,99,7,2,1,98,3,100,6e-31,132
Exophiala_salmonis_CBS157.67_T,ERR1085119.59562,90.91,99,7,2,1,98,3,100,6e-31,132
Exophiala_salmonis_CBS157.67_T,ERR1085119.59469,90.91,99,7,2,1,98,3,100,6e-31,132
Exophiala_salmonis_CBS157.67_T,ERR1085119.59115,90.91,99,7,2,1,98,3,100,6e-31,132
Exophiala_salmonis_CBS157.67_T,ERR1085119.59104,90.91,99,7,2,1,98,3,100,6e-31,132
Exophiala_salmonis_CBS157.67_T,ERR1085119.58995,90.91,99,7,2,1,98,3,100,6e-31,132
Exophiala_salmonis_CBS157.67_T,ERR1085119.58979,90.91,99,7,2,1,98,3,100,6e-31,132
Exophiala_salmonis_CBS157.67_T,ERR1085119.58310,90.82,98,9,0,1,98,3,100,6e-31,132
Exophiala_salmonis_CBS157.67_T,ERR1085119.58188,90.91,99,7,2,1,98,3,100,6e-31,132
Exophiala_salmonis_CBS157.67_T,ERR1085119.58008,90.82,98,9,0,1,98,3,100,6e-31,132
Exophiala_salmonis_CBS157.67_T,ERR1085119.57642,90.82,98,9,0,1,98,3,100,6e-31,132
Exophiala_salmonis_CBS157.67_T,ERR1085119.57512,90.91,99,7,2,1,98,3,100,6e-31,132
Exophiala_salmonis_CBS157.67_T,ERR1085119.57479,90.82,98,9,0,1,98,3,100,6e-31,132
Exophiala_salmonis_CBS157.67_T,ERR1085119.57009,90.82,98,9,0,1,98,3,100,6e-31,132
Exophiala_salmonis_CBS157.67_T,ERR1085119.56888,90.91,99,7,2,1,98,3,100,6e-31,132
Exophiala_salmonis_CBS157.67_T,ERR1085119.56603,90.91,99,7,2,1,98,3,100,6e-31,132
Exophiala_salmonis_CBS157.67_T,ERR1085119.56493,90.91,99,7,2,1,98,3,100,6e-31,132
Exophiala_salmonis_CBS157.67_T,ERR1085119.54874,90.82,98,9,0,1,98,3,100,6e-31,132
Exophiala_salmonis_CBS157.67_T,ERR1085119.54533,90.91,99,7,2,1,98,3,100,6e-31,132
Exophiala_salmonis_CBS157.67_T,ERR1085119.53644,90.82,98,9,0,1,98,3,100,6e-31,132
Exophiala_salmonis_CBS157.67_T,ERR1085119.53058,90.82,98,9,0,1,98,3,100,6e-31,132
Exophiala_salmonis_CBS157.67_T,ERR1085119.52493,90.82,98,9,0,1,98,3,100,6e-31,132
Exophiala_salmonis_CBS157.67_T,ERR1085119.51879,90.82,98,9,0,1,98,3,100,6e-31,132
Exophiala_salmonis_CBS157.67_T,ERR1085119.51726,90.91,99,7,2,1,98,3,100,6e-31,132
Exophiala_salmonis_CBS157.67_T,ERR1085119.51635,90.82,98,9,0,1,98,3,100,6e-31,132
Exophiala_salmonis_CBS157.67_T,ERR1085119.51634,90.82,98,9,0,1,98,3,100,6e-31,132
Exophiala_salmonis_CBS157.67_T,ERR1085119.51464,90.82,98,9,0,1,98,3,100,6e-31,132
Exophiala_salmonis_CBS157.67_T,ERR1085119.51081,90.82,98,9,0,1,98,3,100,6e-31,132
Exophiala_salmonis_CBS157.67_T,ERR1085119.50729,90.91,99,7,2,1,98,3,100,6e-31,132
Exophiala_salmonis_CBS157.67_T,ERR1085119.50453,90.91,99,7,2,1,98,3,100,6e-31,132
Exophiala_salmonis_CBS157.67_T,ERR1085119.50090,90.91,99,7,2,1,98,3,100,6e-31,132
Exophiala_salmonis_CBS157.67_T,ERR1085119.49850,90.91,99,7,2,1,98,3,100,6e-31,132
Exophiala_salmonis_CBS157.67_T,ERR1085119.49564,90.91,99,7,2,1,98,3,100,6e-31,132
Exophiala_salmonis_CBS157.67_T,ERR1085119.48083,90.82,98,9,0,1,98,3,100,6e-31,132
Exophiala_salmonis_CBS157.67_T,ERR1085119.47621,90.82,98,9,0,1,98,3,100,6e-31,132
Exophiala_salmonis_CBS157.67_T,ERR1085119.47463,90.82,98,9,0,1,98,3,100,6e-31,132
Exophiala_salmonis_CBS157.67_T,ERR1085119.47350,90.82,98,9,0,1,98,3,100,6e-31,132
Exophiala_salmonis_CBS157.67_T,ERR1085119.47279,90.91,99,7,2,1,98,3,100,6e-31,132
Exophiala_salmonis_CBS157.67_T,ERR1085119.46874,90.82,98,9,0,1,98,3,100,6e-31,132
Exophiala_salmonis_CBS157.67_T,ERR1085119.46796,90.91,99,7,2,1,98,3,100,6e-31,132
Exophiala_salmonis_CBS157.67_T,ERR1085119.46517,90.82,98,9,0,1,98,3,100,6e-31,132
Exophiala_salmonis_CBS157.67_T,ERR1085119.46444,90.91,99,7,2,1,98,3,100,6e-31,132
Exophiala_salmonis_CBS157.67_T,ERR1085119.46078,90.82,98,9,0,1,98,3,100,6e-31,132
Exophiala_salmonis_CBS157.67_T,ERR1085119.45511,90.91,99,7,2,1,98,3,100,6e-31,132
Exophiala_salmonis_CBS157.67_T,ERR1085119.45507,90.82,98,9,0,1,98,3,100,6e-31,132
Exophiala_salmonis_CBS157.67_T,ERR1085119.45367,90.82,98,9,0,1,98,3,100,6e-31,132
Exophiala_salmonis_CBS157.67_T,ERR1085119.44718,90.91,99,7,2,1,98,3,100,6e-31,132
Exophiala_salmonis_CBS157.67_T,ERR1085119.44515,91.00,100,5,4,1,98,3,100,6e-31,132
Exophiala_salmonis_CBS157.67_T,ERR1085119.44354,90.91,99,7,2,1,98,3,100,6e-31,132
Exophiala_salmonis_CBS157.67_T,ERR1085119.44174,90.91,99,7,2,1,98,3,100,6e-31,132
Exophiala_salmonis_CBS157.67_T,ERR1085119.44173,90.91,99,7,2,1,98,3,100,6e-31,132
Exophiala_salmonis_CBS157.67_T,ERR1085119.44093,90.91,99,7,2,1,98,3,100,6e-31,132
Exophiala_salmonis_CBS157.67_T,ERR1085119.42614,90.91,99,7,2,1,98,3,100,6e-31,132
Exophiala_salmonis_CBS157.67_T,ERR1085119.42325,90.91,99,7,2,1,98,3,100,6e-31,132
Exophiala_salmonis_CBS157.67_T,ERR1085119.41596,90.91,99,7,2,1,98,3,100,6e-31,132
Exophiala_salmonis_CBS157.67_T,ERR1085119.41324,91.00,100,5,4,1,98,3,100,6e-31,132
Exophiala_salmonis_CBS157.67_T,ERR1085119.40694,90.82,98,9,0,1,98,3,100,6e-31,132
Exophiala_salmonis_CBS157.67_T,ERR1085119.40678,90.91,99,7,2,1,98,3,100,6e-31,132
Exophiala_salmonis_CBS157.67_T,ERR1085119.40312,90.82,98,9,0,1,98,3,100,6e-31,132
Exophiala_salmonis_CBS157.67_T,ERR1085119.39716,90.82,98,9,0,1,98,3,100,6e-31,132
Exophiala_salmonis_CBS157.67_T,ERR1085119.39557,90.91,99,7,2,1,98,3,100,6e-31,132
Exophiala_salmonis_CBS157.67_T,ERR1085119.39409,90.82,98,9,0,1,98,3,100,6e-31,132
Exophiala_salmonis_CBS157.67_T,ERR1085119.39022,90.82,98,9,0,1,98,3,100,6e-31,132
Exophiala_salmonis_CBS157.67_T,ERR1085119.38829,90.91,99,7,2,1,98,3,100,6e-31,132
Exophiala_salmonis_CBS157.67_T,ERR1085119.38680,90.82,98,9,0,1,98,3,100,6e-31,132
Exophiala_salmonis_CBS157.67_T,ERR1085119.38630,90.91,99,7,2,1,98,3,100,6e-31,132
Exophiala_salmonis_CBS157.67_T,ERR1085119.38428,90.82,98,9,0,1,98,3,100,6e-31,132
Exophiala_salmonis_CBS157.67_T,ERR1085119.38389,90.91,99,7,2,1,98,3,100,6e-31,132
Exophiala_salmonis_CBS157.67_T,ERR1085119.38172,90.82,98,9,0,1,98,3,100,6e-31,132
Exophiala_salmonis_CBS157.67_T,ERR1085119.38086,90.82,98,9,0,1,98,3,100,6e-31,132
Exophiala_salmonis_CBS157.67_T,ERR1085119.37700,90.91,99,7,2,1,98,3,100,6e-31,132
Exophiala_salmonis_CBS157.67_T,ERR1085119.37535,90.82,98,9,0,1,98,3,100,6e-31,132
Exophiala_salmonis_CBS157.67_T,ERR1085119.37199,90.82,98,9,0,1,98,3,100,6e-31,132
Exophiala_salmonis_CBS157.67_T,ERR1085119.36832,90.82,98,9,0,1,98,3,100,6e-31,132
Exophiala_salmonis_CBS157.67_T,ERR1085119.34410,90.82,98,9,0,1,98,3,100,6e-31,132
Exophiala_salmonis_CBS157.67_T,ERR1085119.34409,90.91,99,7,2,1,98,3,100,6e-31,132
Exophiala_salmonis_CBS157.67_T,ERR1085119.34180,90.91,99,7,2,1,98,3,100,6e-31,132
Exophiala_salmonis_CBS157.67_T,ERR1085119.33802,90.91,99,7,2,1,98,3,100,6e-31,132
Exophiala_salmonis_CBS157.67_T,ERR1085119.33778,90.91,99,7,2,1,98,3,100,6e-31,132
Exophiala_salmonis_CBS157.67_T,ERR1085119.33575,90.91,99,7,2,1,98,3,100,6e-31,132
Exophiala_salmonis_CBS157.67_T,ERR1085119.33554,90.82,98,9,0,1,98,3,100,6e-31,132
Exophiala_salmonis_CBS157.67_T,ERR1085119.33252,90.91,99,7,2,1,98,3,100,6e-31,132
Exophiala_salmonis_CBS157.67_T,ERR1085119.33170,90.82,98,9,0,1,98,3,100,6e-31,132
Exophiala_salmonis_CBS157.67_T,ERR1085119.32721,90.91,99,7,2,1,98,3,100,6e-31,132
Exophiala_salmonis_CBS157.67_T,ERR1085119.32675,90.82,98,9,0,1,98,3,100,6e-31,132
Exophiala_salmonis_CBS157.67_T,ERR1085119.32657,90.82,98,9,0,1,98,3,100,6e-31,132
Exophiala_salmonis_CBS157.67_T,ERR1085119.32520,90.82,98,9,0,1,98,3,100,6e-31,132
Exophiala_salmonis_CBS157.67_T,ERR1085119.31803,90.91,99,7,2,1,98,3,100,6e-31,132
Exophiala_salmonis_CBS157.67_T,ERR1085119.31084,90.91,99,7,2,1,98,3,100,6e-31,132
Exophiala_salmonis_CBS157.67_T,ERR1085119.31015,90.91,99,7,2,1,98,3,100,6e-31,132
Exophiala_salmonis_CBS157.67_T,ERR1085119.30958,90.82,98,9,0,1,98,3,100,6e-31,132
Exophiala_salmonis_CBS157.67_T,ERR1085119.30838,90.82,98,9,0,1,98,3,100,6e-31,132
Exophiala_salmonis_CBS157.67_T,ERR1085119.30629,90.82,98,9,0,1,98,3,100,6e-31,132
Exophiala_salmonis_CBS157.67_T,ERR1085119.30206,90.91,99,7,2,1,98,3,100,6e-31,132
Exophiala_salmonis_CBS157.67_T,ERR1085119.30009,91.00,100,5,4,1,98,3,100,6e-31,132
Exophiala_salmonis_CBS157.67_T,ERR1085119.29570,90.91,99,7,2,1,98,3,100,6e-31,132
Exophiala_salmonis_CBS157.67_T,ERR1085119.29253,90.91,99,7,2,1,98,3,100,6e-31,132
Exophiala_salmonis_CBS157.67_T,ERR1085119.29246,90.82,98,9,0,1,98,3,100,6e-31,132
Exophiala_salmonis_CBS157.67_T,ERR1085119.29045,90.91,99,7,2,1,98,3,100,6e-31,132
Exophiala_salmonis_CBS157.67_T,ERR1085119.28954,90.82,98,9,0,1,98,3,100,6e-31,132
Exophiala_salmonis_CBS157.67_T,ERR1085119.28950,90.91,99,7,2,1,98,3,100,6e-31,132
Exophiala_salmonis_CBS157.67_T,ERR1085119.28872,90.82,98,9,0,1,98,3,100,6e-31,132
Exophiala_salmonis_CBS157.67_T,ERR1085119.28707,90.82,98,9,0,1,98,3,100,6e-31,132
Exophiala_salmonis_CBS157.67_T,ERR1085119.28633,90.82,98,9,0,1,98,3,100,6e-31,132
Exophiala_salmonis_CBS157.67_T,ERR1085119.28607,91.00,100,5,4,1,98,3,100,6e-31,132
Exophiala_salmonis_CBS157.67_T,ERR1085119.28571,90.82,98,9,0,1,98,3,100,6e-31,132
Exophiala_salmonis_CBS157.67_T,ERR1085119.27441,90.82,98,9,0,1,98,3,100,6e-31,132
Exophiala_salmonis_CBS157.67_T,ERR1085119.27438,90.91,99,7,2,1,98,3,100,6e-31,132
Exophiala_salmonis_CBS157.67_T,ERR1085119.27292,90.91,99,7,2,1,98,3,100,6e-31,132
Exophiala_salmonis_CBS157.67_T,ERR1085119.26893,90.91,99,7,2,1,98,3,100,6e-31,132
Exophiala_salmonis_CBS157.67_T,ERR1085119.26728,90.91,99,7,2,1,98,3,100,6e-31,132
Exophiala_salmonis_CBS157.67_T,ERR1085119.25928,90.91,99,7,2,1,98,3,100,6e-31,132
Exophiala_salmonis_CBS157.67_T,ERR1085119.25468,90.91,99,7,2,1,98,3,100,6e-31,132
Exophiala_salmonis_CBS157.67_T,ERR1085119.25002,90.91,99,7,2,1,98,3,100,6e-31,132
Exophiala_salmonis_CBS157.67_T,ERR1085119.24918,90.82,98,9,0,1,98,3,100,6e-31,132
Exophiala_salmonis_CBS157.67_T,ERR1085119.24684,90.91,99,7,2,1,98,3,100,6e-31,132
Exophiala_salmonis_CBS157.67_T,ERR1085119.23764,90.82,98,9,0,1,98,3,100,6e-31,132
Exophiala_salmonis_CBS157.67_T,ERR1085119.23709,90.91,99,7,2,1,98,3,100,6e-31,132
Exophiala_salmonis_CBS157.67_T,ERR1085119.23366,90.82,98,9,0,1,98,3,100,6e-31,132
Exophiala_salmonis_CBS157.67_T,ERR1085119.22468,90.91,99,7,2,1,98,3,100,6e-31,132
Exophiala_salmonis_CBS157.67_T,ERR1085119.22030,90.91,99,7,2,1,98,3,100,6e-31,132
Exophiala_salmonis_CBS157.67_T,ERR1085119.21824,90.82,98,9,0,1,98,3,100,6e-31,132
Exophiala_salmonis_CBS157.67_T,ERR1085119.21809,90.91,99,7,2,1,98,3,100,6e-31,132
Exophiala_salmonis_CBS157.67_T,ERR1085119.21479,90.82,98,9,0,1,98,3,100,6e-31,132
Exophiala_salmonis_CBS157.67_T,ERR1085119.21415,90.82,98,9,0,1,98,3,100,6e-31,132
Exophiala_salmonis_CBS157.67_T,ERR1085119.21374,90.82,98,9,0,1,98,3,100,6e-31,132
Exophiala_salmonis_CBS157.67_T,ERR1085119.21028,90.91,99,7,2,1,98,3,100,6e-31,132
Exophiala_salmonis_CBS157.67_T,ERR1085119.21020,90.91,99,7,2,1,98,3,100,6e-31,132
Exophiala_salmonis_CBS157.67_T,ERR1085119.20717,90.91,99,7,2,1,98,3,100,6e-31,132
Exophiala_salmonis_CBS157.67_T,ERR1085119.20438,90.82,98,9,0,1,98,3,100,6e-31,132
Exophiala_salmonis_CBS157.67_T,ERR1085119.20030,90.82,98,9,0,1,98,3,100,6e-31,132
Exophiala_salmonis_CBS157.67_T,ERR1085119.19714,90.82,98,9,0,1,98,3,100,6e-31,132
Exophiala_salmonis_CBS157.67_T,ERR1085119.19109,90.91,99,7,2,1,98,3,100,6e-31,132
Exophiala_salmonis_CBS157.67_T,ERR1085119.18261,90.91,99,7,2,1,98,3,100,6e-31,132
Exophiala_salmonis_CBS157.67_T,ERR1085119.17895,90.91,99,7,2,1,98,3,100,6e-31,132
Exophiala_salmonis_CBS157.67_T,ERR1085119.17588,90.91,99,7,2,1,98,3,100,6e-31,132
Exophiala_salmonis_CBS157.67_T,ERR1085119.17340,90.82,98,9,0,1,98,3,100,6e-31,132
Exophiala_salmonis_CBS157.67_T,ERR1085119.17302,90.91,99,7,2,1,98,3,100,6e-31,132
Exophiala_salmonis_CBS157.67_T,ERR1085119.17295,90.91,99,7,2,1,98,3,100,6e-31,132
Exophiala_salmonis_CBS157.67_T,ERR1085119.17277,90.82,98,9,0,1,98,3,100,6e-31,132
Exophiala_salmonis_CBS157.67_T,ERR1085119.16573,90.91,99,7,2,1,98,3,100,6e-31,132
Exophiala_salmonis_CBS157.67_T,ERR1085119.16548,90.91,99,7,2,1,98,3,100,6e-31,132
Exophiala_salmonis_CBS157.67_T,ERR1085119.16217,90.82,98,9,0,1,98,3,100,6e-31,132
Exophiala_salmonis_CBS157.67_T,ERR1085119.16136,90.82,98,9,0,1,98,3,100,6e-31,132
Exophiala_salmonis_CBS157.67_T,ERR1085119.15961,90.82,98,9,0,1,98,3,100,6e-31,132
Exophiala_salmonis_CBS157.67_T,ERR1085119.14957,90.82,98,9,0,1,98,3,100,6e-31,132
Exophiala_salmonis_CBS157.67_T,ERR1085119.14827,90.82,98,9,0,1,98,3,100,6e-31,132
Exophiala_salmonis_CBS157.67_T,ERR1085119.14489,90.91,99,7,2,1,98,3,100,6e-31,132
Exophiala_salmonis_CBS157.67_T,ERR1085119.14353,90.82,98,9,0,1,98,3,100,6e-31,132
Exophiala_salmonis_CBS157.67_T,ERR1085119.13772,90.82,98,9,0,1,98,3,100,6e-31,132
Exophiala_salmonis_CBS157.67_T,ERR1085119.13548,90.82,98,9,0,1,98,3,100,6e-31,132
Exophiala_salmonis_CBS157.67_T,ERR1085119.13057,90.82,98,9,0,1,98,3,100,6e-31,132
Exophiala_salmonis_CBS157.67_T,ERR1085119.12981,90.91,99,7,2,1,98,3,100,6e-31,132
Exophiala_salmonis_CBS157.67_T,ERR1085119.12897,90.82,98,9,0,1,98,3,100,6e-31,132
Exophiala_salmonis_CBS157.67_T,ERR1085119.12734,90.91,99,7,2,1,98,3,100,6e-31,132
Exophiala_salmonis_CBS157.67_T,ERR1085119.12562,90.91,99,7,2,1,98,3,100,6e-31,132
Exophiala_salmonis_CBS157.67_T,ERR1085119.12544,90.91,99,7,2,1,98,3,100,6e-31,132
Exophiala_salmonis_CBS157.67_T,ERR1085119.12498,90.91,99,7,2,1,98,3,100,6e-31,132
Exophiala_salmonis_CBS157.67_T,ERR1085119.12469,90.91,99,7,2,1,98,3,100,6e-31,132
Exophiala_salmonis_CBS157.67_T,ERR1085119.11577,90.91,99,7,2,1,98,3,100,6e-31,132
Exophiala_salmonis_CBS157.67_T,ERR1085119.11316,90.91,99,7,2,1,98,3,100,6e-31,132
Exophiala_salmonis_CBS157.67_T,ERR1085119.10973,91.58,95,8,0,1,95,3,97,6e-31,132
Exophiala_salmonis_CBS157.67_T,ERR1085119.10854,90.82,98,9,0,1,98,3,100,6e-31,132
Exophiala_salmonis_CBS157.67_T,ERR1085119.10590,90.91,99,7,2,1,98,3,100,6e-31,132
Exophiala_salmonis_CBS157.67_T,ERR1085119.10546,90.82,98,9,0,1,98,3,100,6e-31,132
Exophiala_salmonis_CBS157.67_T,ERR1085119.9809,90.82,98,9,0,1,98,3,100,6e-31,132
Exophiala_salmonis_CBS157.67_T,ERR1085119.9349,90.82,98,9,0,1,98,3,100,6e-31,132
Exophiala_salmonis_CBS157.67_T,ERR1085119.9279,90.91,99,7,2,1,98,3,100,6e-31,132
Exophiala_salmonis_CBS157.67_T,ERR1085119.8666,90.91,99,7,2,1,98,3,100,6e-31,132
Exophiala_salmonis_CBS157.67_T,ERR1085119.8481,90.91,99,7,2,1,98,3,100,6e-31,132
Exophiala_salmonis_CBS157.67_T,ERR1085119.8256,90.91,99,7,2,1,98,3,100,6e-31,132
Exophiala_salmonis_CBS157.67_T,ERR1085119.8152,90.91,99,7,2,1,98,3,100,6e-31,132
Exophiala_salmonis_CBS157.67_T,ERR1085119.6933,90.82,98,9,0,1,98,3,100,6e-31,132
Exophiala_salmonis_CBS157.67_T,ERR1085119.6882,90.91,99,7,2,1,98,3,100,6e-31,132
Exophiala_salmonis_CBS157.67_T,ERR1085119.6177,90.82,98,9,0,1,98,3,100,6e-31,132
Exophiala_salmonis_CBS157.67_T,ERR1085119.6033,90.82,98,9,0,1,98,3,100,6e-31,132
Exophiala_salmonis_CBS157.67_T,ERR1085119.6002,90.91,99,7,2,1,98,3,100,6e-31,132
Exophiala_salmonis_CBS157.67_T,ERR1085119.5998,90.82,98,9,0,1,98,3,100,6e-31,132
Exophiala_salmonis_CBS157.67_T,ERR1085119.5146,90.82,98,9,0,1,98,3,100,6e-31,132
Exophiala_salmonis_CBS157.67_T,ERR1085119.4586,90.82,98,9,0,1,98,3,100,6e-31,132
Exophiala_salmonis_CBS157.67_T,ERR1085119.3941,90.82,98,9,0,1,98,3,100,6e-31,132
Exophiala_salmonis_CBS157.67_T,ERR1085119.3673,90.91,99,7,2,1,98,3,100,6e-31,132
Exophiala_salmonis_CBS157.67_T,ERR1085119.3544,90.91,99,7,2,1,98,3,100,6e-31,132
Exophiala_salmonis_CBS157.67_T,ERR1085119.2858,91.00,100,5,4,1,98,3,100,6e-31,132
Exophiala_salmonis_CBS157.67_T,ERR1085119.2519,91.00,100,5,4,1,98,3,100,6e-31,132
Exophiala_salmonis_CBS157.67_T,ERR1085119.2429,90.82,98,9,0,1,98,3,100,6e-31,132
Exophiala_salmonis_CBS157.67_T,ERR1085119.2265,90.82,98,9,0,1,98,3,100,6e-31,132
Exophiala_salmonis_CBS157.67_T,ERR1085119.1788,90.91,99,7,2,1,98,3,100,6e-31,132
Exophiala_salmonis_CBS157.67_T,ERR1085119.1672,90.82,98,9,0,1,98,3,100,6e-31,132
Exophiala_salmonis_CBS157.67_T,ERR1085119.404,90.82,98,9,0,1,98,3,100,6e-31,132
Exophiala_salmonis_CBS157.67_T,ERR1085119.96,90.91,99,7,2,1,98,3,100,6e-31,132
Exophiala_salmonis_CBS157.67_T,ERR1085119.39922,90.82,98,7,2,2,98,4,100,2e-30,130
Exophiala_salmonis_CBS157.67_T,ERR1085119.7928,90.72,97,9,0,2,98,4,100,2e-30,130
Exophiala_salmonis_CBS157.67_T,ERR1085119.66795,89.80,98,10,0,1,98,3,100,3e-29,126
Exophiala_salmonis_CBS157.67_T,ERR1085119.65767,89.80,98,10,0,1,98,3,100,3e-29,126
Exophiala_salmonis_CBS157.67_T,ERR1085119.65509,89.90,99,8,2,1,98,3,100,3e-29,126
Exophiala_salmonis_CBS157.67_T,ERR1085119.65144,89.80,98,10,0,1,98,3,100,3e-29,126
Exophiala_salmonis_CBS157.67_T,ERR1085119.64890,89.90,99,8,2,1,98,3,100,3e-29,126
Exophiala_salmonis_CBS157.67_T,ERR1085119.64528,89.90,99,8,2,1,98,3,100,3e-29,126
Exophiala_salmonis_CBS157.67_T,ERR1085119.64204,89.90,99,8,2,1,98,3,100,3e-29,126
Exophiala_salmonis_CBS157.67_T,ERR1085119.63699,90.00,100,6,4,1,98,3,100,3e-29,126
Exophiala_salmonis_CBS157.67_T,ERR1085119.61781,89.90,99,8,2,1,98,3,100,3e-29,126
Exophiala_salmonis_CBS157.67_T,ERR1085119.61499,89.90,99,8,2,1,98,3,100,3e-29,126
Exophiala_salmonis_CBS157.67_T,ERR1085119.61321,89.90,99,8,2,1,98,3,100,3e-29,126
Exophiala_salmonis_CBS157.67_T,ERR1085119.60284,89.80,98,10,0,1,98,3,100,3e-29,126
Exophiala_salmonis_CBS157.67_T,ERR1085119.59926,89.90,99,8,2,1,98,3,100,3e-29,126
Exophiala_salmonis_CBS157.67_T,ERR1085119.59220,89.90,99,8,2,1,98,3,100,3e-29,126
Exophiala_salmonis_CBS157.67_T,ERR1085119.58219,89.90,99,8,2,1,98,3,100,3e-29,126
Exophiala_salmonis_CBS157.67_T,ERR1085119.58022,89.90,99,8,2,1,98,3,100,3e-29,126
Exophiala_salmonis_CBS157.67_T,ERR1085119.57598,89.90,99,8,2,1,98,3,100,3e-29,126
Exophiala_salmonis_CBS157.67_T,ERR1085119.57516,89.90,99,8,2,1,98,3,100,3e-29,126
Exophiala_salmonis_CBS157.67_T,ERR1085119.56648,89.90,99,8,2,1,98,3,100,3e-29,126
Exophiala_salmonis_CBS157.67_T,ERR1085119.56470,89.90,99,8,2,1,98,3,100,3e-29,126
Exophiala_salmonis_CBS157.67_T,ERR1085119.55799,89.80,98,10,0,1,98,3,100,3e-29,126
Exophiala_salmonis_CBS157.67_T,ERR1085119.55623,89.90,99,8,2,1,98,3,100,3e-29,126
Exophiala_salmonis_CBS157.67_T,ERR1085119.54928,89.80,98,10,0,1,98,3,100,3e-29,126
Exophiala_salmonis_CBS157.67_T,ERR1085119.54915,89.90,99,8,2,1,98,3,100,3e-29,126
Exophiala_salmonis_CBS157.67_T,ERR1085119.54518,89.90,99,8,2,1,98,3,100,3e-29,126
Exophiala_salmonis_CBS157.67_T,ERR1085119.54204,89.90,99,8,2,1,98,3,100,3e-29,126
Exophiala_salmonis_CBS157.67_T,ERR1085119.53658,89.90,99,8,2,1,98,3,100,3e-29,126
Exophiala_salmonis_CBS157.67_T,ERR1085119.52474,89.90,99,8,2,1,98,3,100,3e-29,126
Exophiala_salmonis_CBS157.67_T,ERR1085119.51545,89.90,99,8,2,1,98,3,100,3e-29,126
Exophiala_salmonis_CBS157.67_T,ERR1085119.49741,89.90,99,8,2,1,98,3,100,3e-29,126
Exophiala_salmonis_CBS157.67_T,ERR1085119.48645,89.90,99,8,2,1,98,3,100,3e-29,126
Exophiala_salmonis_CBS157.67_T,ERR1085119.48422,89.90,99,8,2,1,98,3,100,3e-29,126
Exophiala_salmonis_CBS157.67_T,ERR1085119.47874,89.90,99,8,2,1,98,3,100,3e-29,126
Exophiala_salmonis_CBS157.67_T,ERR1085119.47445,89.90,99,8,2,1,98,3,100,3e-29,126
Exophiala_salmonis_CBS157.67_T,ERR1085119.47314,89.80,98,10,0,1,98,3,100,3e-29,126
Exophiala_salmonis_CBS157.67_T,ERR1085119.47243,89.90,99,8,2,1,98,3,100,3e-29,126
Exophiala_salmonis_CBS157.67_T,ERR1085119.46827,89.90,99,8,2,1,98,3,100,3e-29,126
Exophiala_salmonis_CBS157.67_T,ERR1085119.45374,89.90,99,8,2,1,98,3,100,3e-29,126
Exophiala_salmonis_CBS157.67_T,ERR1085119.45322,89.90,99,8,2,1,98,3,100,3e-29,126
Exophiala_salmonis_CBS157.67_T,ERR1085119.45236,89.90,99,8,2,1,98,3,100,3e-29,126
Exophiala_salmonis_CBS157.67_T,ERR1085119.40597,89.90,99,8,2,1,98,3,100,3e-29,126
Exophiala_salmonis_CBS157.67_T,ERR1085119.38997,89.90,99,8,2,1,98,3,100,3e-29,126
Exophiala_salmonis_CBS157.67_T,ERR1085119.38991,89.90,99,8,2,1,98,3,100,3e-29,126
Exophiala_salmonis_CBS157.67_T,ERR1085119.37911,89.90,99,8,2,1,98,3,100,3e-29,126
Exophiala_salmonis_CBS157.67_T,ERR1085119.37175,89.90,99,8,2,1,98,3,100,3e-29,126
Exophiala_salmonis_CBS157.67_T,ERR1085119.34911,89.80,98,10,0,1,98,3,100,3e-29,126
Exophiala_salmonis_CBS157.67_T,ERR1085119.33801,89.90,99,8,2,1,98,3,100,3e-29,126
Exophiala_salmonis_CBS157.67_T,ERR1085119.32291,89.90,99,8,2,1,98,3,100,3e-29,126
Exophiala_salmonis_CBS157.67_T,ERR1085119.31497,89.80,98,10,0,1,98,3,100,3e-29,126
Exophiala_salmonis_CBS157.67_T,ERR1085119.31043,89.90,99,8,2,1,98,3,100,3e-29,126
Exophiala_salmonis_CBS157.67_T,ERR1085119.30813,89.90,99,8,2,1,98,3,100,3e-29,126
Exophiala_salmonis_CBS157.67_T,ERR1085119.30622,89.80,98,10,0,1,98,3,100,3e-29,126
Exophiala_salmonis_CBS157.67_T,ERR1085119.30532,90.00,100,6,4,1,98,3,100,3e-29,126
Exophiala_salmonis_CBS157.67_T,ERR1085119.29209,89.90,99,8,2,1,98,3,100,3e-29,126
Exophiala_salmonis_CBS157.67_T,ERR1085119.27894,89.90,99,8,2,1,98,3,100,3e-29,126
Exophiala_salmonis_CBS157.67_T,ERR1085119.27530,89.90,99,8,2,1,98,3,100,3e-29,126
Exophiala_salmonis_CBS157.67_T,ERR1085119.27345,89.90,99,8,2,1,98,3,100,3e-29,126
Exophiala_salmonis_CBS157.67_T,ERR1085119.26548,89.80,98,10,0,1,98,3,100,3e-29,126
Exophiala_salmonis_CBS157.67_T,ERR1085119.25778,89.90,99,8,2,1,98,3,100,3e-29,126
Exophiala_salmonis_CBS157.67_T,ERR1085119.23777,89.90,99,8,2,1,98,3,100,3e-29,126
Exophiala_salmonis_CBS157.67_T,ERR1085119.23487,89.90,99,8,2,1,98,3,100,3e-29,126
Exophiala_salmonis_CBS157.67_T,ERR1085119.23348,89.90,99,8,2,1,98,3,100,3e-29,126
Exophiala_salmonis_CBS157.67_T,ERR1085119.22717,89.80,98,10,0,1,98,3,100,3e-29,126
Exophiala_salmonis_CBS157.67_T,ERR1085119.22334,89.80,98,10,0,1,98,3,100,3e-29,126
Exophiala_salmonis_CBS157.67_T,ERR1085119.22291,89.90,99,8,2,1,98,3,100,3e-29,126
Exophiala_salmonis_CBS157.67_T,ERR1085119.22250,89.90,99,8,2,1,98,3,100,3e-29,126
Exophiala_salmonis_CBS157.67_T,ERR1085119.22043,89.90,99,8,2,1,98,3,100,3e-29,126
Exophiala_salmonis_CBS157.67_T,ERR1085119.21904,89.80,98,10,0,1,98,3,100,3e-29,126
Exophiala_salmonis_CBS157.67_T,ERR1085119.21447,89.90,99,8,2,1,98,3,100,3e-29,126
Exophiala_salmonis_CBS157.67_T,ERR1085119.21401,90.00,100,6,4,1,98,3,100,3e-29,126
Exophiala_salmonis_CBS157.67_T,ERR1085119.21212,89.90,99,8,2,1,98,3,100,3e-29,126
Exophiala_salmonis_CBS157.67_T,ERR1085119.20657,89.90,99,8,2,1,98,3,100,3e-29,126
Exophiala_salmonis_CBS157.67_T,ERR1085119.20359,89.90,99,8,2,1,98,3,100,3e-29,126
Exophiala_salmonis_CBS157.67_T,ERR1085119.19106,89.90,99,8,2,1,98,3,100,3e-29,126
Exophiala_salmonis_CBS157.67_T,ERR1085119.16251,89.90,99,8,2,1,98,3,100,3e-29,126
Exophiala_salmonis_CBS157.67_T,ERR1085119.15563,89.90,99,8,2,1,98,3,100,3e-29,126
Exophiala_salmonis_CBS157.67_T,ERR1085119.15037,89.90,99,8,2,1,98,3,100,3e-29,126
Exophiala_salmonis_CBS157.67_T,ERR1085119.13302,90.00,100,7,3,1,99,3,100,3e-29,126
Exophiala_salmonis_CBS157.67_T,ERR1085119.12348,89.90,99,8,2,1,98,3,100,3e-29,126
Exophiala_salmonis_CBS157.67_T,ERR1085119.11712,89.90,99,8,2,1,98,3,100,3e-29,126
Exophiala_salmonis_CBS157.67_T,ERR1085119.10122,89.90,99,8,2,1,98,3,100,3e-29,126
Exophiala_salmonis_CBS157.67_T,ERR1085119.10088,89.90,99,8,2,1,98,3,100,3e-29,126
Exophiala_salmonis_CBS157.67_T,ERR1085119.8926,90.00,100,6,4,1,98,3,100,3e-29,126
Exophiala_salmonis_CBS157.67_T,ERR1085119.8069,89.90,99,8,2,1,98,3,100,3e-29,126
Exophiala_salmonis_CBS157.67_T,ERR1085119.8024,89.90,99,8,2,1,98,3,100,3e-29,126
Exophiala_salmonis_CBS157.67_T,ERR1085119.5816,89.90,99,8,2,1,98,3,100,3e-29,126
Exophiala_salmonis_CBS157.67_T,ERR1085119.4156,89.90,99,8,2,1,98,3,100,3e-29,126
Exophiala_salmonis_CBS157.67_T,ERR1085119.3186,89.90,99,8,2,1,98,3,100,3e-29,126
Exophiala_salmonis_CBS157.67_T,ERR1085119.3017,89.90,99,8,2,1,98,3,100,3e-29,126
Exophiala_salmonis_CBS157.67_T,ERR1085119.2498,89.80,98,10,0,1,98,3,100,3e-29,126
Exophiala_salmonis_CBS157.67_T,ERR1085119.2323,89.90,99,8,2,1,98,3,100,3e-29,126
Exophiala_salmonis_CBS157.67_T,ERR1085119.1889,90.00,100,6,4,1,98,3,100,3e-29,126
Exophiala_salmonis_CBS157.67_T,ERR1085119.1461,92.22,90,5,2,1,89,3,91,3e-29,126
Exophiala_salmonis_CBS157.67_T,ERR1085119.887,89.80,98,10,0,1,98,3,100,3e-29,126
Exophiala_salmonis_CBS157.67_T,ERR1085119.52936,89.69,97,8,2,1,96,3,98,4e-28,122
Exophiala_salmonis_CBS157.67_T,ERR1085119.51312,90.43,94,7,2,1,93,3,95,4e-28,122
Exophiala_salmonis_CBS157.67_T,ERR1085119.17949,89.69,97,8,2,1,96,3,98,4e-28,122
Exophiala_salmonis_CBS157.67_T,ERR1085119.67354,88.78,98,11,0,1,98,3,100,1e-27,121
Exophiala_salmonis_CBS157.67_T,ERR1085119.60335,88.89,99,9,2,1,98,3,100,1e-27,121
Exophiala_salmonis_CBS157.67_T,ERR1085119.59291,88.89,99,9,2,1,98,3,100,1e-27,121
Exophiala_salmonis_CBS157.67_T,ERR1085119.58032,88.89,99,9,2,1,98,3,100,1e-27,121
Exophiala_salmonis_CBS157.67_T,ERR1085119.57684,88.89,99,9,2,1,98,3,100,1e-27,121
Exophiala_salmonis_CBS157.67_T,ERR1085119.56199,88.89,99,9,2,1,98,3,100,1e-27,121
Exophiala_salmonis_CBS157.67_T,ERR1085119.55436,88.89,99,9,2,1,98,3,100,1e-27,121
Exophiala_salmonis_CBS157.67_T,ERR1085119.53976,89.58,96,8,2,1,95,3,97,1e-27,121
Exophiala_salmonis_CBS157.67_T,ERR1085119.53840,88.89,99,9,2,1,98,3,100,1e-27,121
Exophiala_salmonis_CBS157.67_T,ERR1085119.51542,88.78,98,11,0,1,98,3,100,1e-27,121
Exophiala_salmonis_CBS157.67_T,ERR1085119.47422,88.78,98,11,0,1,98,3,100,1e-27,121
Exophiala_salmonis_CBS157.67_T,ERR1085119.46761,88.89,99,9,2,1,98,3,100,1e-27,121
Exophiala_salmonis_CBS157.67_T,ERR1085119.45555,88.89,99,9,2,1,98,3,100,1e-27,121
Exophiala_salmonis_CBS157.67_T,ERR1085119.44846,88.89,99,9,2,1,98,3,100,1e-27,121
Exophiala_salmonis_CBS157.67_T,ERR1085119.37125,88.89,99,9,2,1,98,3,100,1e-27,121
Exophiala_salmonis_CBS157.67_T,ERR1085119.36738,88.89,99,9,2,1,98,3,100,1e-27,121
Exophiala_salmonis_CBS157.67_T,ERR1085119.34056,88.89,99,9,2,1,98,3,100,1e-27,121
Exophiala_salmonis_CBS157.67_T,ERR1085119.32347,88.78,98,11,0,1,98,3,100,1e-27,121
Exophiala_salmonis_CBS157.67_T,ERR1085119.31717,88.89,99,9,2,1,98,3,100,1e-27,121
Exophiala_salmonis_CBS157.67_T,ERR1085119.30989,88.89,99,9,2,1,98,3,100,1e-27,121
Exophiala_salmonis_CBS157.67_T,ERR1085119.28704,88.78,98,11,0,1,98,3,100,1e-27,121
Exophiala_salmonis_CBS157.67_T,ERR1085119.26694,88.89,99,9,2,1,98,3,100,1e-27,121
Exophiala_salmonis_CBS157.67_T,ERR1085119.24499,88.89,99,9,2,1,98,3,100,1e-27,121
Exophiala_salmonis_CBS157.67_T,ERR1085119.22372,88.89,99,9,2,1,98,3,100,1e-27,121
Exophiala_salmonis_CBS157.67_T,ERR1085119.22156,88.89,99,9,2,1,98,3,100,1e-27,121
Exophiala_salmonis_CBS157.67_T,ERR1085119.21110,89.00,100,7,4,1,98,3,100,1e-27,121
Exophiala_salmonis_CBS157.67_T,ERR1085119.19334,88.89,99,9,2,1,98,3,100,1e-27,121
Exophiala_salmonis_CBS157.67_T,ERR1085119.18752,88.89,99,9,2,1,98,3,100,1e-27,121
Exophiala_salmonis_CBS157.67_T,ERR1085119.13093,88.89,99,9,2,1,98,3,100,1e-27,121
Exophiala_salmonis_CBS157.67_T,ERR1085119.12048,88.89,99,9,2,1,98,3,100,1e-27,121
Exophiala_salmonis_CBS157.67_T,ERR1085119.12046,88.89,99,9,2,1,98,3,100,1e-27,121
Exophiala_salmonis_CBS157.67_T,ERR1085119.8955,88.89,99,9,2,1,98,3,100,1e-27,121
Exophiala_salmonis_CBS157.67_T,ERR1085119.8834,88.78,98,11,0,1,98,3,100,1e-27,121
Exophiala_salmonis_CBS157.67_T,ERR1085119.7349,88.78,98,11,0,1,98,3,100,1e-27,121
Exophiala_salmonis_CBS157.67_T,ERR1085119.5412,88.89,99,9,2,1,98,3,100,1e-27,121
Exophiala_salmonis_CBS157.67_T,ERR1085119.4937,88.89,99,9,2,1,98,3,100,1e-27,121
Exophiala_salmonis_CBS157.67_T,ERR1085119.2039,88.89,99,9,2,1,98,3,100,1e-27,121
Exophiala_salmonis_CBS157.67_T,ERR1085119.65398,90.91,88,8,0,1,88,3,90,5e-27,119
Exophiala_salmonis_CBS157.67_T,ERR1085119.41512,88.78,98,9,2,2,98,4,100,5e-27,119
Exophiala_salmonis_CBS157.67_T,ERR1085119.37314,91.01,89,6,2,1,88,3,90,5e-27,119
Exophiala_salmonis_CBS157.67_T,ERR1085119.24057,91.01,89,6,2,1,88,3,90,5e-27,119
Exophiala_salmonis_CBS157.67_T,ERR1085119.22971,91.01,89,6,2,1,88,3,90,5e-27,119
Exophiala_salmonis_CBS157.67_T,ERR1085119.11118,90.91,88,8,0,1,88,3,90,5e-27,119
Exophiala_salmonis_CBS157.67_T,ERR1085119.60331,87.76,98,12,0,1,98,3,100,6e-26,115
Exophiala_salmonis_CBS157.67_T,ERR1085119.59828,87.88,99,10,2,1,98,3,100,6e-26,115
Exophiala_salmonis_CBS157.67_T,ERR1085119.57561,87.88,99,10,2,1,98,3,100,6e-26,115
Exophiala_salmonis_CBS157.67_T,ERR1085119.56317,87.88,99,10,2,1,98,3,100,6e-26,115
Exophiala_salmonis_CBS157.67_T,ERR1085119.56153,87.88,99,10,2,1,98,3,100,6e-26,115
Exophiala_salmonis_CBS157.67_T,ERR1085119.56149,87.88,99,10,2,1,98,3,100,6e-26,115
Exophiala_salmonis_CBS157.67_T,ERR1085119.38982,87.88,99,10,2,1,98,3,100,6e-26,115
Exophiala_salmonis_CBS157.67_T,ERR1085119.38053,87.88,99,10,2,1,98,3,100,6e-26,115
Exophiala_salmonis_CBS157.67_T,ERR1085119.37708,87.76,98,12,0,1,98,3,100,6e-26,115
Exophiala_salmonis_CBS157.67_T,ERR1085119.34900,87.88,99,10,2,1,98,3,100,6e-26,115
Exophiala_salmonis_CBS157.67_T,ERR1085119.19408,87.88,99,10,2,1,98,3,100,6e-26,115
Exophiala_salmonis_CBS157.67_T,ERR1085119.16322,87.88,99,10,2,1,98,3,100,6e-26,115
Exophiala_salmonis_CBS157.67_T,ERR1085119.45812,87.76,98,10,2,1,97,3,99,2e-25,113
Exophiala_salmonis_CBS157.67_T,ERR1085119.29249,88.42,95,9,2,1,94,3,96,2e-25,113
Exophiala_salmonis_CBS157.67_T,ERR1085119.24604,89.89,89,7,2,1,88,3,90,2e-25,113
Exophiala_salmonis_CBS157.67_T,ERR1085119.23432,89.89,89,7,2,1,88,3,90,2e-25,113
Exophiala_salmonis_CBS157.67_T,ERR1085119.12075,89.89,89,7,2,1,88,3,90,2e-25,113
Exophiala_salmonis_CBS157.67_T,ERR1085119.10330,87.76,98,10,2,1,97,3,99,2e-25,113
Exophiala_salmonis_CBS157.67_T,ERR1085119.47249,89.77,88,7,2,1,87,3,89,8e-25,111
Exophiala_salmonis_CBS157.67_T,ERR1085119.66387,86.73,98,13,0,1,98,3,100,3e-24,110
Exophiala_salmonis_CBS157.67_T,ERR1085119.65346,86.73,98,13,0,1,98,3,100,3e-24,110
Exophiala_salmonis_CBS157.67_T,ERR1085119.64017,86.73,98,13,0,1,98,3,100,3e-24,110
Exophiala_salmonis_CBS157.67_T,ERR1085119.62859,86.73,98,13,0,1,98,3,100,3e-24,110
Exophiala_salmonis_CBS157.67_T,ERR1085119.62523,86.73,98,13,0,1,98,3,100,3e-24,110
Exophiala_salmonis_CBS157.67_T,ERR1085119.61309,86.73,98,13,0,1,98,3,100,3e-24,110
Exophiala_salmonis_CBS157.67_T,ERR1085119.61225,86.73,98,13,0,1,98,3,100,3e-24,110
Exophiala_salmonis_CBS157.67_T,ERR1085119.60690,86.87,99,11,2,1,98,3,100,3e-24,110
Exophiala_salmonis_CBS157.67_T,ERR1085119.60628,86.73,98,13,0,1,98,3,100,3e-24,110
Exophiala_salmonis_CBS157.67_T,ERR1085119.59698,86.73,98,13,0,1,98,3,100,3e-24,110
Exophiala_salmonis_CBS157.67_T,ERR1085119.58648,86.73,98,13,0,1,98,3,100,3e-24,110
Exophiala_salmonis_CBS157.67_T,ERR1085119.57503,86.73,98,13,0,1,98,3,100,3e-24,110
Exophiala_salmonis_CBS157.67_T,ERR1085119.56883,86.73,98,13,0,1,98,3,100,3e-24,110
Exophiala_salmonis_CBS157.67_T,ERR1085119.56824,86.73,98,13,0,1,98,3,100,3e-24,110
Exophiala_salmonis_CBS157.67_T,ERR1085119.55680,86.73,98,13,0,1,98,3,100,3e-24,110
Exophiala_salmonis_CBS157.67_T,ERR1085119.54188,86.73,98,13,0,1,98,3,100,3e-24,110
Exophiala_salmonis_CBS157.67_T,ERR1085119.53711,86.73,98,13,0,1,98,3,100,3e-24,110
Exophiala_salmonis_CBS157.67_T,ERR1085119.53703,86.73,98,13,0,1,98,3,100,3e-24,110
Exophiala_salmonis_CBS157.67_T,ERR1085119.52056,86.73,98,13,0,1,98,3,100,3e-24,110
Exophiala_salmonis_CBS157.67_T,ERR1085119.51960,86.73,98,13,0,1,98,3,100,3e-24,110
Exophiala_salmonis_CBS157.67_T,ERR1085119.51938,86.73,98,13,0,1,98,3,100,3e-24,110
Exophiala_salmonis_CBS157.67_T,ERR1085119.51689,86.73,98,13,0,1,98,3,100,3e-24,110
Exophiala_salmonis_CBS157.67_T,ERR1085119.50579,86.73,98,13,0,1,98,3,100,3e-24,110
Exophiala_salmonis_CBS157.67_T,ERR1085119.50307,86.87,99,11,2,1,98,3,100,3e-24,110
Exophiala_salmonis_CBS157.67_T,ERR1085119.48849,86.87,99,11,2,1,98,3,100,3e-24,110
Exophiala_salmonis_CBS157.67_T,ERR1085119.48414,86.73,98,13,0,1,98,3,100,3e-24,110
Exophiala_salmonis_CBS157.67_T,ERR1085119.47551,86.87,99,11,2,1,98,3,100,3e-24,110
Exophiala_salmonis_CBS157.67_T,ERR1085119.46210,86.73,98,13,0,1,98,3,100,3e-24,110
Exophiala_salmonis_CBS157.67_T,ERR1085119.44307,86.87,99,11,2,1,98,3,100,3e-24,110
Exophiala_salmonis_CBS157.67_T,ERR1085119.43666,86.73,98,13,0,1,98,3,100,3e-24,110
Exophiala_salmonis_CBS157.67_T,ERR1085119.42777,86.73,98,13,0,1,98,3,100,3e-24,110
Exophiala_salmonis_CBS157.67_T,ERR1085119.42763,86.87,99,11,2,1,98,3,100,3e-24,110
Exophiala_salmonis_CBS157.67_T,ERR1085119.41651,86.87,99,11,2,1,98,3,100,3e-24,110
Exophiala_salmonis_CBS157.67_T,ERR1085119.40409,86.73,98,13,0,1,98,3,100,3e-24,110
Exophiala_salmonis_CBS157.67_T,ERR1085119.40008,86.73,98,13,0,1,98,3,100,3e-24,110
Exophiala_salmonis_CBS157.67_T,ERR1085119.39729,86.73,98,13,0,1,98,3,100,3e-24,110
Exophiala_salmonis_CBS157.67_T,ERR1085119.39405,86.73,98,13,0,1,98,3,100,3e-24,110
Exophiala_salmonis_CBS157.67_T,ERR1085119.38957,86.73,98,13,0,1,98,3,100,3e-24,110
Exophiala_salmonis_CBS157.67_T,ERR1085119.37739,86.73,98,13,0,1,98,3,100,3e-24,110
Exophiala_salmonis_CBS157.67_T,ERR1085119.35563,86.73,98,13,0,1,98,3,100,3e-24,110
Exophiala_salmonis_CBS157.67_T,ERR1085119.35400,86.73,98,13,0,1,98,3,100,3e-24,110
