Exophiala_salmonis_CBS157.67_T,ERR1085136.69564,100.00,98,0,0,1,98,3,100,6e-46,182
Exophiala_salmonis_CBS157.67_T,ERR1085136.67714,100.00,98,0,0,1,98,3,100,6e-46,182
Exophiala_salmonis_CBS157.67_T,ERR1085136.66793,100.00,98,0,0,1,98,3,100,6e-46,182
Exophiala_salmonis_CBS157.67_T,ERR1085136.64661,100.00,98,0,0,1,98,3,100,6e-46,182
Exophiala_salmonis_CBS157.67_T,ERR1085136.64463,100.00,98,0,0,1,98,3,100,6e-46,182
Exophiala_salmonis_CBS157.67_T,ERR1085136.63607,100.00,98,0,0,1,98,3,100,6e-46,182
Exophiala_salmonis_CBS157.67_T,ERR1085136.60732,100.00,98,0,0,1,98,3,100,6e-46,182
Exophiala_salmonis_CBS157.67_T,ERR1085136.57997,100.00,98,0,0,1,98,3,100,6e-46,182
Exophiala_salmonis_CBS157.67_T,ERR1085136.54895,100.00,98,0,0,1,98,3,100,6e-46,182
Exophiala_salmonis_CBS157.67_T,ERR1085136.52467,100.00,98,0,0,1,98,3,100,6e-46,182
Exophiala_salmonis_CBS157.67_T,ERR1085136.50508,100.00,98,0,0,1,98,3,100,6e-46,182
Exophiala_salmonis_CBS157.67_T,ERR1085136.50226,100.00,98,0,0,1,98,3,100,6e-46,182
Exophiala_salmonis_CBS157.67_T,ERR1085136.49622,100.00,98,0,0,1,98,3,100,6e-46,182
Exophiala_salmonis_CBS157.67_T,ERR1085136.46977,100.00,98,0,0,1,98,3,100,6e-46,182
Exophiala_salmonis_CBS157.67_T,ERR1085136.42463,100.00,98,0,0,1,98,3,100,6e-46,182
Exophiala_salmonis_CBS157.67_T,ERR1085136.42161,100.00,98,0,0,1,98,3,100,6e-46,182
Exophiala_salmonis_CBS157.67_T,ERR1085136.40618,100.00,98,0,0,1,98,3,100,6e-46,182
Exophiala_salmonis_CBS157.67_T,ERR1085136.38044,100.00,98,0,0,1,98,3,100,6e-46,182
Exophiala_salmonis_CBS157.67_T,ERR1085136.35249,100.00,98,0,0,1,98,3,100,6e-46,182
Exophiala_salmonis_CBS157.67_T,ERR1085136.33151,100.00,98,0,0,1,98,3,100,6e-46,182
Exophiala_salmonis_CBS157.67_T,ERR1085136.32095,100.00,98,0,0,1,98,3,100,6e-46,182
Exophiala_salmonis_CBS157.67_T,ERR1085136.30448,100.00,98,0,0,1,98,3,100,6e-46,182
Exophiala_salmonis_CBS157.67_T,ERR1085136.27467,100.00,98,0,0,1,98,3,100,6e-46,182
Exophiala_salmonis_CBS157.67_T,ERR1085136.26962,100.00,98,0,0,1,98,3,100,6e-46,182
Exophiala_salmonis_CBS157.67_T,ERR1085136.26843,100.00,98,0,0,1,98,3,100,6e-46,182
Exophiala_salmonis_CBS157.67_T,ERR1085136.26489,100.00,98,0,0,1,98,3,100,6e-46,182
Exophiala_salmonis_CBS157.67_T,ERR1085136.26306,100.00,98,0,0,1,98,3,100,6e-46,182
Exophiala_salmonis_CBS157.67_T,ERR1085136.25461,100.00,98,0,0,1,98,3,100,6e-46,182
Exophiala_salmonis_CBS157.67_T,ERR1085136.18606,100.00,98,0,0,1,98,3,100,6e-46,182
Exophiala_salmonis_CBS157.67_T,ERR1085136.17928,100.00,98,0,0,1,98,3,100,6e-46,182
Exophiala_salmonis_CBS157.67_T,ERR1085136.13584,100.00,98,0,0,1,98,3,100,6e-46,182
Exophiala_salmonis_CBS157.67_T,ERR1085136.4363,100.00,98,0,0,1,98,3,100,6e-46,182
Exophiala_salmonis_CBS157.67_T,ERR1085136.4297,100.00,98,0,0,1,98,3,100,6e-46,182
Exophiala_salmonis_CBS157.67_T,ERR1085136.3659,100.00,98,0,0,1,98,3,100,6e-46,182
Exophiala_salmonis_CBS157.67_T,ERR1085136.3247,100.00,98,0,0,1,98,3,100,6e-46,182
Exophiala_salmonis_CBS157.67_T,ERR1085136.2271,100.00,98,0,0,1,98,3,100,6e-46,182
Exophiala_salmonis_CBS157.67_T,ERR1085136.2036,100.00,98,0,0,1,98,3,100,6e-46,182
Exophiala_salmonis_CBS157.67_T,ERR1085136.1983,100.00,98,0,0,1,98,3,100,6e-46,182
Exophiala_salmonis_CBS157.67_T,ERR1085136.69306,98.98,98,1,0,1,98,3,100,3e-44,176
Exophiala_salmonis_CBS157.67_T,ERR1085136.67064,98.98,98,1,0,1,98,3,100,3e-44,176
Exophiala_salmonis_CBS157.67_T,ERR1085136.65786,98.98,98,1,0,1,98,3,100,3e-44,176
Exophiala_salmonis_CBS157.67_T,ERR1085136.62878,98.98,98,1,0,1,98,3,100,3e-44,176
Exophiala_salmonis_CBS157.67_T,ERR1085136.61893,98.98,98,1,0,1,98,3,100,3e-44,176
Exophiala_salmonis_CBS157.67_T,ERR1085136.52432,98.98,98,1,0,1,98,3,100,3e-44,176
Exophiala_salmonis_CBS157.67_T,ERR1085136.50091,98.98,98,1,0,1,98,3,100,3e-44,176
Exophiala_salmonis_CBS157.67_T,ERR1085136.41773,98.98,98,1,0,1,98,3,100,3e-44,176
Exophiala_salmonis_CBS157.67_T,ERR1085136.34839,98.98,98,1,0,1,98,3,100,3e-44,176
Exophiala_salmonis_CBS157.67_T,ERR1085136.33622,98.98,98,1,0,1,98,3,100,3e-44,176
Exophiala_salmonis_CBS157.67_T,ERR1085136.29822,98.98,98,1,0,1,98,3,100,3e-44,176
Exophiala_salmonis_CBS157.67_T,ERR1085136.24310,98.98,98,1,0,1,98,3,100,3e-44,176
Exophiala_salmonis_CBS157.67_T,ERR1085136.23307,98.98,98,1,0,1,98,3,100,3e-44,176
Exophiala_salmonis_CBS157.67_T,ERR1085136.17892,98.98,98,1,0,1,98,3,100,3e-44,176
Exophiala_salmonis_CBS157.67_T,ERR1085136.13102,98.98,98,1,0,1,98,3,100,3e-44,176
Exophiala_salmonis_CBS157.67_T,ERR1085136.8349,98.98,98,1,0,1,98,3,100,3e-44,176
Exophiala_salmonis_CBS157.67_T,ERR1085136.778,98.98,98,1,0,1,98,3,100,3e-44,176
Exophiala_salmonis_CBS157.67_T,ERR1085136.61956,97.96,98,2,0,1,98,3,100,1e-42,171
Exophiala_salmonis_CBS157.67_T,ERR1085136.54361,97.96,98,2,0,1,98,3,100,1e-42,171
Exophiala_salmonis_CBS157.67_T,ERR1085136.51061,97.96,98,2,0,1,98,3,100,1e-42,171
Exophiala_salmonis_CBS157.67_T,ERR1085136.31357,97.96,98,2,0,1,98,3,100,1e-42,171
Exophiala_salmonis_CBS157.67_T,ERR1085136.28730,97.96,98,2,0,1,98,3,100,1e-42,171
Exophiala_salmonis_CBS157.67_T,ERR1085136.16907,97.96,98,2,0,1,98,3,100,1e-42,171
Exophiala_salmonis_CBS157.67_T,ERR1085136.4457,97.96,98,2,0,1,98,3,100,1e-42,171
Exophiala_salmonis_CBS157.67_T,ERR1085136.7359,100.00,91,0,0,1,91,3,93,5e-42,169
Exophiala_salmonis_CBS157.67_T,ERR1085136.69926,96.94,98,3,0,1,98,3,100,6e-41,165
Exophiala_salmonis_CBS157.67_T,ERR1085136.69741,96.94,98,3,0,1,98,3,100,6e-41,165
Exophiala_salmonis_CBS157.67_T,ERR1085136.69443,96.94,98,3,0,1,98,3,100,6e-41,165
Exophiala_salmonis_CBS157.67_T,ERR1085136.67877,96.94,98,3,0,1,98,3,100,6e-41,165
Exophiala_salmonis_CBS157.67_T,ERR1085136.66517,96.94,98,3,0,1,98,3,100,6e-41,165
Exophiala_salmonis_CBS157.67_T,ERR1085136.66170,96.94,98,3,0,1,98,3,100,6e-41,165
Exophiala_salmonis_CBS157.67_T,ERR1085136.64738,96.94,98,3,0,1,98,3,100,6e-41,165
Exophiala_salmonis_CBS157.67_T,ERR1085136.64676,96.94,98,3,0,1,98,3,100,6e-41,165
Exophiala_salmonis_CBS157.67_T,ERR1085136.64500,96.94,98,3,0,1,98,3,100,6e-41,165
Exophiala_salmonis_CBS157.67_T,ERR1085136.63508,96.94,98,3,0,1,98,3,100,6e-41,165
Exophiala_salmonis_CBS157.67_T,ERR1085136.63507,96.94,98,3,0,1,98,3,100,6e-41,165
Exophiala_salmonis_CBS157.67_T,ERR1085136.63098,96.94,98,3,0,1,98,3,100,6e-41,165
Exophiala_salmonis_CBS157.67_T,ERR1085136.62226,96.94,98,3,0,1,98,3,100,6e-41,165
Exophiala_salmonis_CBS157.67_T,ERR1085136.60782,96.94,98,3,0,1,98,3,100,6e-41,165
Exophiala_salmonis_CBS157.67_T,ERR1085136.60639,96.94,98,3,0,1,98,3,100,6e-41,165
Exophiala_salmonis_CBS157.67_T,ERR1085136.60520,96.94,98,3,0,1,98,3,100,6e-41,165
Exophiala_salmonis_CBS157.67_T,ERR1085136.60179,96.94,98,3,0,1,98,3,100,6e-41,165
Exophiala_salmonis_CBS157.67_T,ERR1085136.59880,96.94,98,3,0,1,98,3,100,6e-41,165
Exophiala_salmonis_CBS157.67_T,ERR1085136.57888,96.94,98,3,0,1,98,3,100,6e-41,165
Exophiala_salmonis_CBS157.67_T,ERR1085136.57858,96.94,98,3,0,1,98,3,100,6e-41,165
Exophiala_salmonis_CBS157.67_T,ERR1085136.57135,96.94,98,3,0,1,98,3,100,6e-41,165
Exophiala_salmonis_CBS157.67_T,ERR1085136.56159,96.94,98,3,0,1,98,3,100,6e-41,165
Exophiala_salmonis_CBS157.67_T,ERR1085136.54371,96.94,98,3,0,1,98,3,100,6e-41,165
Exophiala_salmonis_CBS157.67_T,ERR1085136.53439,96.94,98,3,0,1,98,3,100,6e-41,165
Exophiala_salmonis_CBS157.67_T,ERR1085136.53410,96.94,98,3,0,1,98,3,100,6e-41,165
Exophiala_salmonis_CBS157.67_T,ERR1085136.53191,96.94,98,3,0,1,98,3,100,6e-41,165
Exophiala_salmonis_CBS157.67_T,ERR1085136.53190,96.94,98,3,0,1,98,3,100,6e-41,165
Exophiala_salmonis_CBS157.67_T,ERR1085136.53176,96.94,98,3,0,1,98,3,100,6e-41,165
Exophiala_salmonis_CBS157.67_T,ERR1085136.53076,96.94,98,3,0,1,98,3,100,6e-41,165
Exophiala_salmonis_CBS157.67_T,ERR1085136.52839,96.94,98,3,0,1,98,3,100,6e-41,165
Exophiala_salmonis_CBS157.67_T,ERR1085136.50367,96.94,98,3,0,1,98,3,100,6e-41,165
Exophiala_salmonis_CBS157.67_T,ERR1085136.48466,96.94,98,3,0,1,98,3,100,6e-41,165
Exophiala_salmonis_CBS157.67_T,ERR1085136.48105,96.94,98,3,0,1,98,3,100,6e-41,165
Exophiala_salmonis_CBS157.67_T,ERR1085136.47626,96.94,98,3,0,1,98,3,100,6e-41,165
Exophiala_salmonis_CBS157.67_T,ERR1085136.47151,96.94,98,3,0,1,98,3,100,6e-41,165
Exophiala_salmonis_CBS157.67_T,ERR1085136.46438,96.94,98,3,0,1,98,3,100,6e-41,165
Exophiala_salmonis_CBS157.67_T,ERR1085136.44075,96.94,98,3,0,1,98,3,100,6e-41,165
Exophiala_salmonis_CBS157.67_T,ERR1085136.43977,96.94,98,3,0,1,98,3,100,6e-41,165
Exophiala_salmonis_CBS157.67_T,ERR1085136.42594,96.94,98,3,0,1,98,3,100,6e-41,165
Exophiala_salmonis_CBS157.67_T,ERR1085136.42427,96.94,98,3,0,1,98,3,100,6e-41,165
Exophiala_salmonis_CBS157.67_T,ERR1085136.42417,96.94,98,3,0,1,98,3,100,6e-41,165
Exophiala_salmonis_CBS157.67_T,ERR1085136.41337,96.94,98,3,0,1,98,3,100,6e-41,165
Exophiala_salmonis_CBS157.67_T,ERR1085136.39657,96.94,98,3,0,1,98,3,100,6e-41,165
Exophiala_salmonis_CBS157.67_T,ERR1085136.37445,96.94,98,3,0,1,98,3,100,6e-41,165
Exophiala_salmonis_CBS157.67_T,ERR1085136.36372,96.94,98,3,0,1,98,3,100,6e-41,165
Exophiala_salmonis_CBS157.67_T,ERR1085136.35885,96.94,98,3,0,1,98,3,100,6e-41,165
Exophiala_salmonis_CBS157.67_T,ERR1085136.35126,96.94,98,3,0,1,98,3,100,6e-41,165
Exophiala_salmonis_CBS157.67_T,ERR1085136.34553,96.94,98,3,0,1,98,3,100,6e-41,165
Exophiala_salmonis_CBS157.67_T,ERR1085136.34002,96.94,98,3,0,1,98,3,100,6e-41,165
Exophiala_salmonis_CBS157.67_T,ERR1085136.32746,96.94,98,3,0,1,98,3,100,6e-41,165
Exophiala_salmonis_CBS157.67_T,ERR1085136.32000,96.94,98,3,0,1,98,3,100,6e-41,165
Exophiala_salmonis_CBS157.67_T,ERR1085136.31277,96.94,98,3,0,1,98,3,100,6e-41,165
Exophiala_salmonis_CBS157.67_T,ERR1085136.31275,96.94,98,3,0,1,98,3,100,6e-41,165
Exophiala_salmonis_CBS157.67_T,ERR1085136.30931,96.94,98,3,0,1,98,3,100,6e-41,165
Exophiala_salmonis_CBS157.67_T,ERR1085136.30734,96.94,98,3,0,1,98,3,100,6e-41,165
Exophiala_salmonis_CBS157.67_T,ERR1085136.30072,96.94,98,3,0,1,98,3,100,6e-41,165
Exophiala_salmonis_CBS157.67_T,ERR1085136.29882,96.94,98,3,0,1,98,3,100,6e-41,165
Exophiala_salmonis_CBS157.67_T,ERR1085136.29724,96.94,98,3,0,1,98,3,100,6e-41,165
Exophiala_salmonis_CBS157.67_T,ERR1085136.29723,96.94,98,3,0,1,98,3,100,6e-41,165
Exophiala_salmonis_CBS157.67_T,ERR1085136.29398,96.94,98,3,0,1,98,3,100,6e-41,165
Exophiala_salmonis_CBS157.67_T,ERR1085136.29087,96.94,98,3,0,1,98,3,100,6e-41,165
Exophiala_salmonis_CBS157.67_T,ERR1085136.28959,96.94,98,3,0,1,98,3,100,6e-41,165
Exophiala_salmonis_CBS157.67_T,ERR1085136.28316,96.94,98,3,0,1,98,3,100,6e-41,165
Exophiala_salmonis_CBS157.67_T,ERR1085136.27260,96.94,98,3,0,1,98,3,100,6e-41,165
Exophiala_salmonis_CBS157.67_T,ERR1085136.26535,96.94,98,3,0,1,98,3,100,6e-41,165
Exophiala_salmonis_CBS157.67_T,ERR1085136.25807,96.94,98,3,0,1,98,3,100,6e-41,165
Exophiala_salmonis_CBS157.67_T,ERR1085136.24318,96.94,98,3,0,1,98,3,100,6e-41,165
Exophiala_salmonis_CBS157.67_T,ERR1085136.21508,96.94,98,3,0,1,98,3,100,6e-41,165
Exophiala_salmonis_CBS157.67_T,ERR1085136.21161,96.94,98,3,0,1,98,3,100,6e-41,165
Exophiala_salmonis_CBS157.67_T,ERR1085136.20423,96.94,98,3,0,1,98,3,100,6e-41,165
Exophiala_salmonis_CBS157.67_T,ERR1085136.19609,96.94,98,3,0,1,98,3,100,6e-41,165
Exophiala_salmonis_CBS157.67_T,ERR1085136.19424,96.94,98,3,0,1,98,3,100,6e-41,165
Exophiala_salmonis_CBS157.67_T,ERR1085136.18985,96.94,98,3,0,1,98,3,100,6e-41,165
Exophiala_salmonis_CBS157.67_T,ERR1085136.18717,96.94,98,3,0,1,98,3,100,6e-41,165
Exophiala_salmonis_CBS157.67_T,ERR1085136.18275,96.94,98,3,0,1,98,3,100,6e-41,165
Exophiala_salmonis_CBS157.67_T,ERR1085136.18051,96.94,98,3,0,1,98,3,100,6e-41,165
Exophiala_salmonis_CBS157.67_T,ERR1085136.16645,96.94,98,3,0,1,98,3,100,6e-41,165
Exophiala_salmonis_CBS157.67_T,ERR1085136.16411,96.94,98,3,0,1,98,3,100,6e-41,165
Exophiala_salmonis_CBS157.67_T,ERR1085136.15724,96.94,98,3,0,1,98,3,100,6e-41,165
Exophiala_salmonis_CBS157.67_T,ERR1085136.15549,96.94,98,3,0,1,98,3,100,6e-41,165
Exophiala_salmonis_CBS157.67_T,ERR1085136.14570,96.94,98,3,0,1,98,3,100,6e-41,165
Exophiala_salmonis_CBS157.67_T,ERR1085136.14355,96.94,98,3,0,1,98,3,100,6e-41,165
Exophiala_salmonis_CBS157.67_T,ERR1085136.14085,96.94,98,3,0,1,98,3,100,6e-41,165
Exophiala_salmonis_CBS157.67_T,ERR1085136.13748,96.94,98,3,0,1,98,3,100,6e-41,165
Exophiala_salmonis_CBS157.67_T,ERR1085136.13418,96.94,98,3,0,1,98,3,100,6e-41,165
Exophiala_salmonis_CBS157.67_T,ERR1085136.12727,96.94,98,3,0,1,98,3,100,6e-41,165
Exophiala_salmonis_CBS157.67_T,ERR1085136.11897,96.94,98,3,0,1,98,3,100,6e-41,165
Exophiala_salmonis_CBS157.67_T,ERR1085136.10978,96.94,98,3,0,1,98,3,100,6e-41,165
Exophiala_salmonis_CBS157.67_T,ERR1085136.10450,96.94,98,3,0,1,98,3,100,6e-41,165
Exophiala_salmonis_CBS157.67_T,ERR1085136.10294,96.94,98,3,0,1,98,3,100,6e-41,165
Exophiala_salmonis_CBS157.67_T,ERR1085136.10108,96.94,98,3,0,1,98,3,100,6e-41,165
Exophiala_salmonis_CBS157.67_T,ERR1085136.8505,96.94,98,3,0,1,98,3,100,6e-41,165
Exophiala_salmonis_CBS157.67_T,ERR1085136.6424,96.94,98,3,0,1,98,3,100,6e-41,165
Exophiala_salmonis_CBS157.67_T,ERR1085136.6299,96.94,98,3,0,1,98,3,100,6e-41,165
Exophiala_salmonis_CBS157.67_T,ERR1085136.5761,96.94,98,3,0,1,98,3,100,6e-41,165
Exophiala_salmonis_CBS157.67_T,ERR1085136.5484,96.94,98,3,0,1,98,3,100,6e-41,165
Exophiala_salmonis_CBS157.67_T,ERR1085136.5468,96.94,98,3,0,1,98,3,100,6e-41,165
Exophiala_salmonis_CBS157.67_T,ERR1085136.5223,96.94,98,3,0,1,98,3,100,6e-41,165
Exophiala_salmonis_CBS157.67_T,ERR1085136.4871,96.94,98,3,0,1,98,3,100,6e-41,165
Exophiala_salmonis_CBS157.67_T,ERR1085136.3629,96.94,98,3,0,1,98,3,100,6e-41,165
Exophiala_salmonis_CBS157.67_T,ERR1085136.3485,96.94,98,3,0,1,98,3,100,6e-41,165
Exophiala_salmonis_CBS157.67_T,ERR1085136.3102,96.94,98,3,0,1,98,3,100,6e-41,165
Exophiala_salmonis_CBS157.67_T,ERR1085136.3101,96.94,98,3,0,1,98,3,100,6e-41,165
Exophiala_salmonis_CBS157.67_T,ERR1085136.2273,96.94,98,3,0,1,98,3,100,6e-41,165
Exophiala_salmonis_CBS157.67_T,ERR1085136.2252,96.94,98,3,0,1,98,3,100,6e-41,165
Exophiala_salmonis_CBS157.67_T,ERR1085136.2196,96.94,98,3,0,1,98,3,100,6e-41,165
Exophiala_salmonis_CBS157.67_T,ERR1085136.2024,96.94,98,3,0,1,98,3,100,6e-41,165
Exophiala_salmonis_CBS157.67_T,ERR1085136.1996,96.94,98,3,0,1,98,3,100,6e-41,165
Exophiala_salmonis_CBS157.67_T,ERR1085136.1192,96.94,98,3,0,1,98,3,100,6e-41,165
Exophiala_salmonis_CBS157.67_T,ERR1085136.698,96.94,98,3,0,1,98,3,100,6e-41,165
Exophiala_salmonis_CBS157.67_T,ERR1085136.70859,95.92,98,4,0,1,98,3,100,3e-39,159
Exophiala_salmonis_CBS157.67_T,ERR1085136.70810,95.92,98,4,0,1,98,3,100,3e-39,159
Exophiala_salmonis_CBS157.67_T,ERR1085136.70485,95.92,98,4,0,1,98,3,100,3e-39,159
Exophiala_salmonis_CBS157.67_T,ERR1085136.70396,95.92,98,4,0,1,98,3,100,3e-39,159
Exophiala_salmonis_CBS157.67_T,ERR1085136.69764,95.92,98,4,0,1,98,3,100,3e-39,159
Exophiala_salmonis_CBS157.67_T,ERR1085136.69503,95.92,98,4,0,1,98,3,100,3e-39,159
Exophiala_salmonis_CBS157.67_T,ERR1085136.69393,95.92,98,4,0,1,98,3,100,3e-39,159
Exophiala_salmonis_CBS157.67_T,ERR1085136.69392,95.92,98,4,0,1,98,3,100,3e-39,159
Exophiala_salmonis_CBS157.67_T,ERR1085136.69288,95.92,98,4,0,1,98,3,100,3e-39,159
Exophiala_salmonis_CBS157.67_T,ERR1085136.69094,95.92,98,4,0,1,98,3,100,3e-39,159
Exophiala_salmonis_CBS157.67_T,ERR1085136.68553,95.92,98,4,0,1,98,3,100,3e-39,159
Exophiala_salmonis_CBS157.67_T,ERR1085136.68426,95.92,98,4,0,1,98,3,100,3e-39,159
Exophiala_salmonis_CBS157.67_T,ERR1085136.68409,95.92,98,4,0,1,98,3,100,3e-39,159
Exophiala_salmonis_CBS157.67_T,ERR1085136.68408,95.92,98,4,0,1,98,3,100,3e-39,159
Exophiala_salmonis_CBS157.67_T,ERR1085136.67994,95.92,98,4,0,1,98,3,100,3e-39,159
Exophiala_salmonis_CBS157.67_T,ERR1085136.67951,95.92,98,4,0,1,98,3,100,3e-39,159
Exophiala_salmonis_CBS157.67_T,ERR1085136.67937,95.92,98,4,0,1,98,3,100,3e-39,159
Exophiala_salmonis_CBS157.67_T,ERR1085136.67624,95.92,98,4,0,1,98,3,100,3e-39,159
Exophiala_salmonis_CBS157.67_T,ERR1085136.67564,95.92,98,4,0,1,98,3,100,3e-39,159
Exophiala_salmonis_CBS157.67_T,ERR1085136.67420,95.92,98,4,0,1,98,3,100,3e-39,159
Exophiala_salmonis_CBS157.67_T,ERR1085136.66655,95.92,98,4,0,1,98,3,100,3e-39,159
Exophiala_salmonis_CBS157.67_T,ERR1085136.66551,95.92,98,4,0,1,98,3,100,3e-39,159
Exophiala_salmonis_CBS157.67_T,ERR1085136.66463,95.92,98,4,0,1,98,3,100,3e-39,159
Exophiala_salmonis_CBS157.67_T,ERR1085136.66447,95.92,98,4,0,1,98,3,100,3e-39,159
Exophiala_salmonis_CBS157.67_T,ERR1085136.66119,95.92,98,4,0,1,98,3,100,3e-39,159
Exophiala_salmonis_CBS157.67_T,ERR1085136.66118,95.92,98,4,0,1,98,3,100,3e-39,159
Exophiala_salmonis_CBS157.67_T,ERR1085136.65754,95.92,98,4,0,1,98,3,100,3e-39,159
Exophiala_salmonis_CBS157.67_T,ERR1085136.65286,95.92,98,4,0,1,98,3,100,3e-39,159
Exophiala_salmonis_CBS157.67_T,ERR1085136.65079,95.92,98,4,0,1,98,3,100,3e-39,159
Exophiala_salmonis_CBS157.67_T,ERR1085136.64882,95.92,98,4,0,1,98,3,100,3e-39,159
Exophiala_salmonis_CBS157.67_T,ERR1085136.64855,95.92,98,4,0,1,98,3,100,3e-39,159
Exophiala_salmonis_CBS157.67_T,ERR1085136.64752,95.92,98,4,0,1,98,3,100,3e-39,159
Exophiala_salmonis_CBS157.67_T,ERR1085136.64716,95.92,98,4,0,1,98,3,100,3e-39,159
Exophiala_salmonis_CBS157.67_T,ERR1085136.64352,95.92,98,4,0,1,98,3,100,3e-39,159
Exophiala_salmonis_CBS157.67_T,ERR1085136.64351,95.92,98,4,0,1,98,3,100,3e-39,159
Exophiala_salmonis_CBS157.67_T,ERR1085136.64215,95.92,98,4,0,1,98,3,100,3e-39,159
Exophiala_salmonis_CBS157.67_T,ERR1085136.64046,95.92,98,4,0,1,98,3,100,3e-39,159
Exophiala_salmonis_CBS157.67_T,ERR1085136.64023,95.92,98,4,0,1,98,3,100,3e-39,159
Exophiala_salmonis_CBS157.67_T,ERR1085136.63767,95.92,98,4,0,1,98,3,100,3e-39,159
Exophiala_salmonis_CBS157.67_T,ERR1085136.63699,95.92,98,4,0,1,98,3,100,3e-39,159
Exophiala_salmonis_CBS157.67_T,ERR1085136.63651,95.92,98,4,0,1,98,3,100,3e-39,159
Exophiala_salmonis_CBS157.67_T,ERR1085136.63407,95.92,98,4,0,1,98,3,100,3e-39,159
Exophiala_salmonis_CBS157.67_T,ERR1085136.63344,95.92,98,4,0,1,98,3,100,3e-39,159
Exophiala_salmonis_CBS157.67_T,ERR1085136.62983,95.92,98,4,0,1,98,3,100,3e-39,159
Exophiala_salmonis_CBS157.67_T,ERR1085136.61914,95.92,98,4,0,1,98,3,100,3e-39,159
Exophiala_salmonis_CBS157.67_T,ERR1085136.61298,95.92,98,4,0,1,98,3,100,3e-39,159
Exophiala_salmonis_CBS157.67_T,ERR1085136.61092,95.92,98,4,0,1,98,3,100,3e-39,159
Exophiala_salmonis_CBS157.67_T,ERR1085136.60977,95.92,98,4,0,1,98,3,100,3e-39,159
Exophiala_salmonis_CBS157.67_T,ERR1085136.60976,95.92,98,4,0,1,98,3,100,3e-39,159
Exophiala_salmonis_CBS157.67_T,ERR1085136.60693,95.92,98,4,0,1,98,3,100,3e-39,159
Exophiala_salmonis_CBS157.67_T,ERR1085136.60572,95.92,98,4,0,1,98,3,100,3e-39,159
Exophiala_salmonis_CBS157.67_T,ERR1085136.60145,95.92,98,4,0,1,98,3,100,3e-39,159
Exophiala_salmonis_CBS157.67_T,ERR1085136.60039,95.92,98,4,0,1,98,3,100,3e-39,159
Exophiala_salmonis_CBS157.67_T,ERR1085136.59916,95.92,98,4,0,1,98,3,100,3e-39,159
Exophiala_salmonis_CBS157.67_T,ERR1085136.59473,95.92,98,4,0,1,98,3,100,3e-39,159
Exophiala_salmonis_CBS157.67_T,ERR1085136.58446,95.92,98,4,0,1,98,3,100,3e-39,159
Exophiala_salmonis_CBS157.67_T,ERR1085136.58336,95.92,98,4,0,1,98,3,100,3e-39,159
Exophiala_salmonis_CBS157.67_T,ERR1085136.58113,95.92,98,4,0,1,98,3,100,3e-39,159
Exophiala_salmonis_CBS157.67_T,ERR1085136.57984,95.92,98,4,0,1,98,3,100,3e-39,159
Exophiala_salmonis_CBS157.67_T,ERR1085136.57695,95.92,98,4,0,1,98,3,100,3e-39,159
Exophiala_salmonis_CBS157.67_T,ERR1085136.57662,95.92,98,4,0,1,98,3,100,3e-39,159
Exophiala_salmonis_CBS157.67_T,ERR1085136.57661,95.92,98,4,0,1,98,3,100,3e-39,159
Exophiala_salmonis_CBS157.67_T,ERR1085136.57491,95.92,98,4,0,1,98,3,100,3e-39,159
Exophiala_salmonis_CBS157.67_T,ERR1085136.57295,95.92,98,4,0,1,98,3,100,3e-39,159
Exophiala_salmonis_CBS157.67_T,ERR1085136.56768,95.92,98,4,0,1,98,3,100,3e-39,159
Exophiala_salmonis_CBS157.67_T,ERR1085136.56750,95.92,98,4,0,1,98,3,100,3e-39,159
Exophiala_salmonis_CBS157.67_T,ERR1085136.56605,95.92,98,4,0,1,98,3,100,3e-39,159
Exophiala_salmonis_CBS157.67_T,ERR1085136.56604,95.92,98,4,0,1,98,3,100,3e-39,159
Exophiala_salmonis_CBS157.67_T,ERR1085136.56020,95.92,98,4,0,1,98,3,100,3e-39,159
Exophiala_salmonis_CBS157.67_T,ERR1085136.55562,95.92,98,4,0,1,98,3,100,3e-39,159
Exophiala_salmonis_CBS157.67_T,ERR1085136.54911,95.92,98,4,0,1,98,3,100,3e-39,159
Exophiala_salmonis_CBS157.67_T,ERR1085136.53633,95.92,98,4,0,1,98,3,100,3e-39,159
Exophiala_salmonis_CBS157.67_T,ERR1085136.52949,95.92,98,4,0,1,98,3,100,3e-39,159
Exophiala_salmonis_CBS157.67_T,ERR1085136.52596,95.92,98,4,0,1,98,3,100,3e-39,159
Exophiala_salmonis_CBS157.67_T,ERR1085136.52192,95.96,99,2,2,1,98,3,100,3e-39,159
Exophiala_salmonis_CBS157.67_T,ERR1085136.51211,95.92,98,4,0,1,98,3,100,3e-39,159
Exophiala_salmonis_CBS157.67_T,ERR1085136.51064,95.92,98,4,0,1,98,3,100,3e-39,159
Exophiala_salmonis_CBS157.67_T,ERR1085136.50880,95.92,98,4,0,1,98,3,100,3e-39,159
Exophiala_salmonis_CBS157.67_T,ERR1085136.50463,95.92,98,4,0,1,98,3,100,3e-39,159
Exophiala_salmonis_CBS157.67_T,ERR1085136.49824,95.92,98,4,0,1,98,3,100,3e-39,159
Exophiala_salmonis_CBS157.67_T,ERR1085136.49714,95.92,98,4,0,1,98,3,100,3e-39,159
Exophiala_salmonis_CBS157.67_T,ERR1085136.49691,95.92,98,4,0,1,98,3,100,3e-39,159
Exophiala_salmonis_CBS157.67_T,ERR1085136.48937,95.92,98,4,0,1,98,3,100,3e-39,159
Exophiala_salmonis_CBS157.67_T,ERR1085136.48862,95.92,98,4,0,1,98,3,100,3e-39,159
Exophiala_salmonis_CBS157.67_T,ERR1085136.48305,95.92,98,4,0,1,98,3,100,3e-39,159
Exophiala_salmonis_CBS157.67_T,ERR1085136.47228,95.92,98,4,0,1,98,3,100,3e-39,159
Exophiala_salmonis_CBS157.67_T,ERR1085136.46967,95.92,98,4,0,1,98,3,100,3e-39,159
Exophiala_salmonis_CBS157.67_T,ERR1085136.46901,95.92,98,4,0,1,98,3,100,3e-39,159
Exophiala_salmonis_CBS157.67_T,ERR1085136.46900,95.92,98,4,0,1,98,3,100,3e-39,159
Exophiala_salmonis_CBS157.67_T,ERR1085136.46604,95.92,98,4,0,1,98,3,100,3e-39,159
Exophiala_salmonis_CBS157.67_T,ERR1085136.46603,95.92,98,4,0,1,98,3,100,3e-39,159
Exophiala_salmonis_CBS157.67_T,ERR1085136.46358,95.92,98,4,0,1,98,3,100,3e-39,159
Exophiala_salmonis_CBS157.67_T,ERR1085136.46094,95.92,98,4,0,1,98,3,100,3e-39,159
Exophiala_salmonis_CBS157.67_T,ERR1085136.45881,95.92,98,4,0,1,98,3,100,3e-39,159
Exophiala_salmonis_CBS157.67_T,ERR1085136.45547,95.92,98,4,0,1,98,3,100,3e-39,159
Exophiala_salmonis_CBS157.67_T,ERR1085136.45407,95.92,98,4,0,1,98,3,100,3e-39,159
Exophiala_salmonis_CBS157.67_T,ERR1085136.45138,95.92,98,4,0,1,98,3,100,3e-39,159
Exophiala_salmonis_CBS157.67_T,ERR1085136.45066,95.92,98,4,0,1,98,3,100,3e-39,159
Exophiala_salmonis_CBS157.67_T,ERR1085136.44990,95.92,98,4,0,1,98,3,100,3e-39,159
Exophiala_salmonis_CBS157.67_T,ERR1085136.44939,95.92,98,4,0,1,98,3,100,3e-39,159
Exophiala_salmonis_CBS157.67_T,ERR1085136.44757,95.92,98,4,0,1,98,3,100,3e-39,159
Exophiala_salmonis_CBS157.67_T,ERR1085136.44461,95.92,98,4,0,1,98,3,100,3e-39,159
Exophiala_salmonis_CBS157.67_T,ERR1085136.44200,95.92,98,4,0,1,98,3,100,3e-39,159
Exophiala_salmonis_CBS157.67_T,ERR1085136.44199,95.92,98,4,0,1,98,3,100,3e-39,159
Exophiala_salmonis_CBS157.67_T,ERR1085136.43719,95.92,98,4,0,1,98,3,100,3e-39,159
Exophiala_salmonis_CBS157.67_T,ERR1085136.43718,95.92,98,4,0,1,98,3,100,3e-39,159
Exophiala_salmonis_CBS157.67_T,ERR1085136.43622,95.92,98,4,0,1,98,3,100,3e-39,159
Exophiala_salmonis_CBS157.67_T,ERR1085136.43257,95.92,98,4,0,1,98,3,100,3e-39,159
Exophiala_salmonis_CBS157.67_T,ERR1085136.43203,95.92,98,4,0,1,98,3,100,3e-39,159
Exophiala_salmonis_CBS157.67_T,ERR1085136.42866,95.92,98,4,0,1,98,3,100,3e-39,159
Exophiala_salmonis_CBS157.67_T,ERR1085136.42771,95.92,98,4,0,1,98,3,100,3e-39,159
Exophiala_salmonis_CBS157.67_T,ERR1085136.42770,95.92,98,4,0,1,98,3,100,3e-39,159
Exophiala_salmonis_CBS157.67_T,ERR1085136.42761,95.92,98,4,0,1,98,3,100,3e-39,159
Exophiala_salmonis_CBS157.67_T,ERR1085136.42625,95.92,98,4,0,1,98,3,100,3e-39,159
Exophiala_salmonis_CBS157.67_T,ERR1085136.42578,95.92,98,4,0,1,98,3,100,3e-39,159
Exophiala_salmonis_CBS157.67_T,ERR1085136.42286,95.92,98,4,0,1,98,3,100,3e-39,159
Exophiala_salmonis_CBS157.67_T,ERR1085136.41948,95.92,98,4,0,1,98,3,100,3e-39,159
Exophiala_salmonis_CBS157.67_T,ERR1085136.41924,95.92,98,4,0,1,98,3,100,3e-39,159
Exophiala_salmonis_CBS157.67_T,ERR1085136.41865,95.92,98,4,0,1,98,3,100,3e-39,159
Exophiala_salmonis_CBS157.67_T,ERR1085136.41810,95.92,98,4,0,1,98,3,100,3e-39,159
Exophiala_salmonis_CBS157.67_T,ERR1085136.41673,95.92,98,4,0,1,98,3,100,3e-39,159
Exophiala_salmonis_CBS157.67_T,ERR1085136.41465,95.92,98,4,0,1,98,3,100,3e-39,159
Exophiala_salmonis_CBS157.67_T,ERR1085136.41307,95.92,98,4,0,1,98,3,100,3e-39,159
Exophiala_salmonis_CBS157.67_T,ERR1085136.40967,95.92,98,4,0,1,98,3,100,3e-39,159
Exophiala_salmonis_CBS157.67_T,ERR1085136.40662,95.92,98,4,0,1,98,3,100,3e-39,159
Exophiala_salmonis_CBS157.67_T,ERR1085136.40564,95.92,98,4,0,1,98,3,100,3e-39,159
Exophiala_salmonis_CBS157.67_T,ERR1085136.40311,95.92,98,4,0,1,98,3,100,3e-39,159
Exophiala_salmonis_CBS157.67_T,ERR1085136.40148,95.92,98,4,0,1,98,3,100,3e-39,159
Exophiala_salmonis_CBS157.67_T,ERR1085136.39958,95.92,98,4,0,1,98,3,100,3e-39,159
Exophiala_salmonis_CBS157.67_T,ERR1085136.39881,95.92,98,4,0,1,98,3,100,3e-39,159
Exophiala_salmonis_CBS157.67_T,ERR1085136.39880,95.92,98,4,0,1,98,3,100,3e-39,159
Exophiala_salmonis_CBS157.67_T,ERR1085136.39867,95.92,98,4,0,1,98,3,100,3e-39,159
Exophiala_salmonis_CBS157.67_T,ERR1085136.39694,95.92,98,4,0,1,98,3,100,3e-39,159
Exophiala_salmonis_CBS157.67_T,ERR1085136.39690,95.92,98,4,0,1,98,3,100,3e-39,159
Exophiala_salmonis_CBS157.67_T,ERR1085136.39550,95.92,98,4,0,1,98,3,100,3e-39,159
Exophiala_salmonis_CBS157.67_T,ERR1085136.39424,95.92,98,4,0,1,98,3,100,3e-39,159
Exophiala_salmonis_CBS157.67_T,ERR1085136.38883,95.92,98,4,0,1,98,3,100,3e-39,159
Exophiala_salmonis_CBS157.67_T,ERR1085136.38852,95.92,98,4,0,1,98,3,100,3e-39,159
Exophiala_salmonis_CBS157.67_T,ERR1085136.38503,95.92,98,4,0,1,98,3,100,3e-39,159
Exophiala_salmonis_CBS157.67_T,ERR1085136.38129,95.92,98,4,0,1,98,3,100,3e-39,159
Exophiala_salmonis_CBS157.67_T,ERR1085136.38091,95.92,98,4,0,1,98,3,100,3e-39,159
Exophiala_salmonis_CBS157.67_T,ERR1085136.37956,95.92,98,4,0,1,98,3,100,3e-39,159
Exophiala_salmonis_CBS157.67_T,ERR1085136.37882,95.92,98,4,0,1,98,3,100,3e-39,159
Exophiala_salmonis_CBS157.67_T,ERR1085136.37704,95.92,98,4,0,1,98,3,100,3e-39,159
Exophiala_salmonis_CBS157.67_T,ERR1085136.37183,95.92,98,4,0,1,98,3,100,3e-39,159
Exophiala_salmonis_CBS157.67_T,ERR1085136.36539,95.92,98,4,0,1,98,3,100,3e-39,159
Exophiala_salmonis_CBS157.67_T,ERR1085136.36405,95.92,98,4,0,1,98,3,100,3e-39,159
Exophiala_salmonis_CBS157.67_T,ERR1085136.36354,95.92,98,4,0,1,98,3,100,3e-39,159
Exophiala_salmonis_CBS157.67_T,ERR1085136.36145,95.92,98,4,0,1,98,3,100,3e-39,159
Exophiala_salmonis_CBS157.67_T,ERR1085136.35826,95.92,98,4,0,1,98,3,100,3e-39,159
Exophiala_salmonis_CBS157.67_T,ERR1085136.35076,95.92,98,4,0,1,98,3,100,3e-39,159
Exophiala_salmonis_CBS157.67_T,ERR1085136.34970,95.92,98,4,0,1,98,3,100,3e-39,159
Exophiala_salmonis_CBS157.67_T,ERR1085136.34966,95.92,98,4,0,1,98,3,100,3e-39,159
Exophiala_salmonis_CBS157.67_T,ERR1085136.34802,95.92,98,4,0,1,98,3,100,3e-39,159
Exophiala_salmonis_CBS157.67_T,ERR1085136.34801,95.92,98,4,0,1,98,3,100,3e-39,159
Exophiala_salmonis_CBS157.67_T,ERR1085136.34544,95.92,98,4,0,1,98,3,100,3e-39,159
Exophiala_salmonis_CBS157.67_T,ERR1085136.34061,95.92,98,4,0,1,98,3,100,3e-39,159
Exophiala_salmonis_CBS157.67_T,ERR1085136.33982,95.92,98,4,0,1,98,3,100,3e-39,159
Exophiala_salmonis_CBS157.67_T,ERR1085136.33807,95.92,98,4,0,1,98,3,100,3e-39,159
Exophiala_salmonis_CBS157.67_T,ERR1085136.33324,95.92,98,4,0,1,98,3,100,3e-39,159
Exophiala_salmonis_CBS157.67_T,ERR1085136.31889,95.92,98,4,0,1,98,3,100,3e-39,159
Exophiala_salmonis_CBS157.67_T,ERR1085136.31815,95.92,98,4,0,1,98,3,100,3e-39,159
Exophiala_salmonis_CBS157.67_T,ERR1085136.31812,95.92,98,4,0,1,98,3,100,3e-39,159
Exophiala_salmonis_CBS157.67_T,ERR1085136.30956,95.92,98,4,0,1,98,3,100,3e-39,159
Exophiala_salmonis_CBS157.67_T,ERR1085136.30796,95.92,98,4,0,1,98,3,100,3e-39,159
Exophiala_salmonis_CBS157.67_T,ERR1085136.30759,95.92,98,4,0,1,98,3,100,3e-39,159
Exophiala_salmonis_CBS157.67_T,ERR1085136.30758,95.92,98,4,0,1,98,3,100,3e-39,159
Exophiala_salmonis_CBS157.67_T,ERR1085136.30533,95.92,98,4,0,1,98,3,100,3e-39,159
Exophiala_salmonis_CBS157.67_T,ERR1085136.30153,95.92,98,4,0,1,98,3,100,3e-39,159
Exophiala_salmonis_CBS157.67_T,ERR1085136.29920,95.92,98,4,0,1,98,3,100,3e-39,159
Exophiala_salmonis_CBS157.67_T,ERR1085136.29919,95.92,98,4,0,1,98,3,100,3e-39,159
Exophiala_salmonis_CBS157.67_T,ERR1085136.29564,95.92,98,4,0,1,98,3,100,3e-39,159
Exophiala_salmonis_CBS157.67_T,ERR1085136.29474,95.92,98,4,0,1,98,3,100,3e-39,159
Exophiala_salmonis_CBS157.67_T,ERR1085136.29400,95.92,98,4,0,1,98,3,100,3e-39,159
Exophiala_salmonis_CBS157.67_T,ERR1085136.29387,95.92,98,4,0,1,98,3,100,3e-39,159
Exophiala_salmonis_CBS157.67_T,ERR1085136.29311,95.92,98,4,0,1,98,3,100,3e-39,159
Exophiala_salmonis_CBS157.67_T,ERR1085136.29269,95.92,98,4,0,1,98,3,100,3e-39,159
Exophiala_salmonis_CBS157.67_T,ERR1085136.29206,95.92,98,4,0,1,98,3,100,3e-39,159
Exophiala_salmonis_CBS157.67_T,ERR1085136.29199,95.92,98,4,0,1,98,3,100,3e-39,159
Exophiala_salmonis_CBS157.67_T,ERR1085136.29108,95.92,98,4,0,1,98,3,100,3e-39,159
Exophiala_salmonis_CBS157.67_T,ERR1085136.29107,95.92,98,4,0,1,98,3,100,3e-39,159
Exophiala_salmonis_CBS157.67_T,ERR1085136.29047,95.92,98,4,0,1,98,3,100,3e-39,159
Exophiala_salmonis_CBS157.67_T,ERR1085136.28744,95.92,98,4,0,1,98,3,100,3e-39,159
Exophiala_salmonis_CBS157.67_T,ERR1085136.28473,95.92,98,4,0,1,98,3,100,3e-39,159
Exophiala_salmonis_CBS157.67_T,ERR1085136.28281,95.92,98,4,0,1,98,3,100,3e-39,159
Exophiala_salmonis_CBS157.67_T,ERR1085136.28204,95.92,98,4,0,1,98,3,100,3e-39,159
Exophiala_salmonis_CBS157.67_T,ERR1085136.27766,95.92,98,4,0,1,98,3,100,3e-39,159
Exophiala_salmonis_CBS157.67_T,ERR1085136.27553,95.92,98,4,0,1,98,3,100,3e-39,159
Exophiala_salmonis_CBS157.67_T,ERR1085136.27485,95.92,98,4,0,1,98,3,100,3e-39,159
Exophiala_salmonis_CBS157.67_T,ERR1085136.27444,95.92,98,4,0,1,98,3,100,3e-39,159
Exophiala_salmonis_CBS157.67_T,ERR1085136.27421,95.92,98,4,0,1,98,3,100,3e-39,159
Exophiala_salmonis_CBS157.67_T,ERR1085136.27396,95.92,98,4,0,1,98,3,100,3e-39,159
Exophiala_salmonis_CBS157.67_T,ERR1085136.27383,95.92,98,4,0,1,98,3,100,3e-39,159
Exophiala_salmonis_CBS157.67_T,ERR1085136.27108,95.92,98,4,0,1,98,3,100,3e-39,159
Exophiala_salmonis_CBS157.67_T,ERR1085136.27044,95.92,98,4,0,1,98,3,100,3e-39,159
Exophiala_salmonis_CBS157.67_T,ERR1085136.26953,95.92,98,4,0,1,98,3,100,3e-39,159
Exophiala_salmonis_CBS157.67_T,ERR1085136.26638,95.92,98,4,0,1,98,3,100,3e-39,159
Exophiala_salmonis_CBS157.67_T,ERR1085136.26597,95.92,98,4,0,1,98,3,100,3e-39,159
Exophiala_salmonis_CBS157.67_T,ERR1085136.26504,95.92,98,4,0,1,98,3,100,3e-39,159
Exophiala_salmonis_CBS157.67_T,ERR1085136.26424,95.92,98,4,0,1,98,3,100,3e-39,159
Exophiala_salmonis_CBS157.67_T,ERR1085136.26423,95.92,98,4,0,1,98,3,100,3e-39,159
Exophiala_salmonis_CBS157.67_T,ERR1085136.26355,95.92,98,4,0,1,98,3,100,3e-39,159
Exophiala_salmonis_CBS157.67_T,ERR1085136.26284,95.92,98,4,0,1,98,3,100,3e-39,159
Exophiala_salmonis_CBS157.67_T,ERR1085136.26138,95.92,98,4,0,1,98,3,100,3e-39,159
Exophiala_salmonis_CBS157.67_T,ERR1085136.25980,95.92,98,4,0,1,98,3,100,3e-39,159
Exophiala_salmonis_CBS157.67_T,ERR1085136.25959,95.92,98,4,0,1,98,3,100,3e-39,159
Exophiala_salmonis_CBS157.67_T,ERR1085136.25636,95.92,98,4,0,1,98,3,100,3e-39,159
Exophiala_salmonis_CBS157.67_T,ERR1085136.25635,95.92,98,4,0,1,98,3,100,3e-39,159
Exophiala_salmonis_CBS157.67_T,ERR1085136.25314,95.92,98,4,0,1,98,3,100,3e-39,159
Exophiala_salmonis_CBS157.67_T,ERR1085136.25037,95.92,98,4,0,1,98,3,100,3e-39,159
Exophiala_salmonis_CBS157.67_T,ERR1085136.24468,95.92,98,4,0,1,98,3,100,3e-39,159
Exophiala_salmonis_CBS157.67_T,ERR1085136.24000,95.92,98,4,0,1,98,3,100,3e-39,159
Exophiala_salmonis_CBS157.67_T,ERR1085136.23973,95.92,98,4,0,1,98,3,100,3e-39,159
Exophiala_salmonis_CBS157.67_T,ERR1085136.23854,95.92,98,4,0,1,98,3,100,3e-39,159
Exophiala_salmonis_CBS157.67_T,ERR1085136.22109,95.92,98,4,0,1,98,3,100,3e-39,159
Exophiala_salmonis_CBS157.67_T,ERR1085136.21800,95.92,98,4,0,1,98,3,100,3e-39,159
Exophiala_salmonis_CBS157.67_T,ERR1085136.21559,95.92,98,4,0,1,98,3,100,3e-39,159
Exophiala_salmonis_CBS157.67_T,ERR1085136.21363,95.92,98,4,0,1,98,3,100,3e-39,159
Exophiala_salmonis_CBS157.67_T,ERR1085136.20926,95.92,98,4,0,1,98,3,100,3e-39,159
Exophiala_salmonis_CBS157.67_T,ERR1085136.20871,95.92,98,4,0,1,98,3,100,3e-39,159
Exophiala_salmonis_CBS157.67_T,ERR1085136.20869,95.92,98,4,0,1,98,3,100,3e-39,159
Exophiala_salmonis_CBS157.67_T,ERR1085136.20830,95.92,98,4,0,1,98,3,100,3e-39,159
Exophiala_salmonis_CBS157.67_T,ERR1085136.20758,95.92,98,4,0,1,98,3,100,3e-39,159
Exophiala_salmonis_CBS157.67_T,ERR1085136.20621,95.92,98,4,0,1,98,3,100,3e-39,159
Exophiala_salmonis_CBS157.67_T,ERR1085136.20306,95.96,99,2,2,1,98,3,100,3e-39,159
Exophiala_salmonis_CBS157.67_T,ERR1085136.20303,95.92,98,4,0,1,98,3,100,3e-39,159
Exophiala_salmonis_CBS157.67_T,ERR1085136.20302,95.92,98,4,0,1,98,3,100,3e-39,159
Exophiala_salmonis_CBS157.67_T,ERR1085136.20272,95.92,98,4,0,1,98,3,100,3e-39,159
Exophiala_salmonis_CBS157.67_T,ERR1085136.20184,95.92,98,4,0,1,98,3,100,3e-39,159
Exophiala_salmonis_CBS157.67_T,ERR1085136.20066,95.92,98,4,0,1,98,3,100,3e-39,159
Exophiala_salmonis_CBS157.67_T,ERR1085136.19918,95.92,98,4,0,1,98,3,100,3e-39,159
Exophiala_salmonis_CBS157.67_T,ERR1085136.19647,95.92,98,4,0,1,98,3,100,3e-39,159
Exophiala_salmonis_CBS157.67_T,ERR1085136.18820,95.92,98,4,0,1,98,3,100,3e-39,159
Exophiala_salmonis_CBS157.67_T,ERR1085136.18467,95.92,98,4,0,1,98,3,100,3e-39,159
Exophiala_salmonis_CBS157.67_T,ERR1085136.18448,95.92,98,4,0,1,98,3,100,3e-39,159
Exophiala_salmonis_CBS157.67_T,ERR1085136.17980,95.92,98,4,0,1,98,3,100,3e-39,159
Exophiala_salmonis_CBS157.67_T,ERR1085136.17876,95.92,98,4,0,1,98,3,100,3e-39,159
Exophiala_salmonis_CBS157.67_T,ERR1085136.17507,95.92,98,4,0,1,98,3,100,3e-39,159
Exophiala_salmonis_CBS157.67_T,ERR1085136.17451,95.92,98,4,0,1,98,3,100,3e-39,159
Exophiala_salmonis_CBS157.67_T,ERR1085136.17376,95.92,98,4,0,1,98,3,100,3e-39,159
Exophiala_salmonis_CBS157.67_T,ERR1085136.16942,95.92,98,4,0,1,98,3,100,3e-39,159
Exophiala_salmonis_CBS157.67_T,ERR1085136.16668,95.92,98,4,0,1,98,3,100,3e-39,159
Exophiala_salmonis_CBS157.67_T,ERR1085136.16441,95.92,98,4,0,1,98,3,100,3e-39,159
Exophiala_salmonis_CBS157.67_T,ERR1085136.16134,95.92,98,4,0,1,98,3,100,3e-39,159
Exophiala_salmonis_CBS157.67_T,ERR1085136.15949,95.92,98,4,0,1,98,3,100,3e-39,159
Exophiala_salmonis_CBS157.67_T,ERR1085136.15948,95.92,98,4,0,1,98,3,100,3e-39,159
Exophiala_salmonis_CBS157.67_T,ERR1085136.15921,95.92,98,4,0,1,98,3,100,3e-39,159
Exophiala_salmonis_CBS157.67_T,ERR1085136.15643,95.92,98,4,0,1,98,3,100,3e-39,159
Exophiala_salmonis_CBS157.67_T,ERR1085136.15629,95.92,98,4,0,1,98,3,100,3e-39,159
Exophiala_salmonis_CBS157.67_T,ERR1085136.15454,95.92,98,4,0,1,98,3,100,3e-39,159
Exophiala_salmonis_CBS157.67_T,ERR1085136.14760,95.92,98,4,0,1,98,3,100,3e-39,159
Exophiala_salmonis_CBS157.67_T,ERR1085136.14254,95.92,98,4,0,1,98,3,100,3e-39,159
Exophiala_salmonis_CBS157.67_T,ERR1085136.13871,95.92,98,4,0,1,98,3,100,3e-39,159
Exophiala_salmonis_CBS157.67_T,ERR1085136.13521,95.92,98,4,0,1,98,3,100,3e-39,159
Exophiala_salmonis_CBS157.67_T,ERR1085136.12931,95.92,98,4,0,1,98,3,100,3e-39,159
Exophiala_salmonis_CBS157.67_T,ERR1085136.12736,95.92,98,4,0,1,98,3,100,3e-39,159
Exophiala_salmonis_CBS157.67_T,ERR1085136.12203,95.92,98,4,0,1,98,3,100,3e-39,159
Exophiala_salmonis_CBS157.67_T,ERR1085136.12202,95.92,98,4,0,1,98,3,100,3e-39,159
Exophiala_salmonis_CBS157.67_T,ERR1085136.12094,95.92,98,4,0,1,98,3,100,3e-39,159
Exophiala_salmonis_CBS157.67_T,ERR1085136.12072,95.92,98,4,0,1,98,3,100,3e-39,159
Exophiala_salmonis_CBS157.67_T,ERR1085136.12031,95.92,98,4,0,1,98,3,100,3e-39,159
Exophiala_salmonis_CBS157.67_T,ERR1085136.11626,95.92,98,4,0,1,98,3,100,3e-39,159
Exophiala_salmonis_CBS157.67_T,ERR1085136.10168,95.92,98,4,0,1,98,3,100,3e-39,159
Exophiala_salmonis_CBS157.67_T,ERR1085136.10158,95.92,98,4,0,1,98,3,100,3e-39,159
Exophiala_salmonis_CBS157.67_T,ERR1085136.10120,95.92,98,4,0,1,98,3,100,3e-39,159
Exophiala_salmonis_CBS157.67_T,ERR1085136.10007,95.96,99,2,2,1,98,3,100,3e-39,159
Exophiala_salmonis_CBS157.67_T,ERR1085136.9687,95.92,98,4,0,1,98,3,100,3e-39,159
Exophiala_salmonis_CBS157.67_T,ERR1085136.9296,95.92,98,4,0,1,98,3,100,3e-39,159
Exophiala_salmonis_CBS157.67_T,ERR1085136.9254,95.92,98,4,0,1,98,3,100,3e-39,159
Exophiala_salmonis_CBS157.67_T,ERR1085136.9147,95.92,98,4,0,1,98,3,100,3e-39,159
Exophiala_salmonis_CBS157.67_T,ERR1085136.8897,95.92,98,4,0,1,98,3,100,3e-39,159
Exophiala_salmonis_CBS157.67_T,ERR1085136.8195,95.92,98,4,0,1,98,3,100,3e-39,159
Exophiala_salmonis_CBS157.67_T,ERR1085136.8026,95.92,98,4,0,1,98,3,100,3e-39,159
Exophiala_salmonis_CBS157.67_T,ERR1085136.7636,95.92,98,4,0,1,98,3,100,3e-39,159
Exophiala_salmonis_CBS157.67_T,ERR1085136.7630,95.92,98,4,0,1,98,3,100,3e-39,159
Exophiala_salmonis_CBS157.67_T,ERR1085136.7314,95.92,98,4,0,1,98,3,100,3e-39,159
Exophiala_salmonis_CBS157.67_T,ERR1085136.6710,95.92,98,4,0,1,98,3,100,3e-39,159
Exophiala_salmonis_CBS157.67_T,ERR1085136.6709,95.92,98,4,0,1,98,3,100,3e-39,159
Exophiala_salmonis_CBS157.67_T,ERR1085136.6707,95.92,98,4,0,1,98,3,100,3e-39,159
Exophiala_salmonis_CBS157.67_T,ERR1085136.6628,95.92,98,4,0,1,98,3,100,3e-39,159
Exophiala_salmonis_CBS157.67_T,ERR1085136.6598,95.92,98,4,0,1,98,3,100,3e-39,159
Exophiala_salmonis_CBS157.67_T,ERR1085136.6546,95.92,98,4,0,1,98,3,100,3e-39,159
Exophiala_salmonis_CBS157.67_T,ERR1085136.6456,95.92,98,4,0,1,98,3,100,3e-39,159
Exophiala_salmonis_CBS157.67_T,ERR1085136.6334,95.92,98,4,0,1,98,3,100,3e-39,159
Exophiala_salmonis_CBS157.67_T,ERR1085136.6233,95.92,98,4,0,1,98,3,100,3e-39,159
Exophiala_salmonis_CBS157.67_T,ERR1085136.6113,95.92,98,4,0,1,98,3,100,3e-39,159
Exophiala_salmonis_CBS157.67_T,ERR1085136.6044,95.92,98,4,0,1,98,3,100,3e-39,159
Exophiala_salmonis_CBS157.67_T,ERR1085136.5818,95.92,98,4,0,1,98,3,100,3e-39,159
Exophiala_salmonis_CBS157.67_T,ERR1085136.5734,95.92,98,4,0,1,98,3,100,3e-39,159
Exophiala_salmonis_CBS157.67_T,ERR1085136.5730,95.92,98,4,0,1,98,3,100,3e-39,159
Exophiala_salmonis_CBS157.67_T,ERR1085136.5419,95.92,98,4,0,1,98,3,100,3e-39,159
Exophiala_salmonis_CBS157.67_T,ERR1085136.5345,95.92,98,4,0,1,98,3,100,3e-39,159
Exophiala_salmonis_CBS157.67_T,ERR1085136.5314,95.92,98,4,0,1,98,3,100,3e-39,159
Exophiala_salmonis_CBS157.67_T,ERR1085136.5253,95.92,98,4,0,1,98,3,100,3e-39,159
Exophiala_salmonis_CBS157.67_T,ERR1085136.5235,95.92,98,4,0,1,98,3,100,3e-39,159
Exophiala_salmonis_CBS157.67_T,ERR1085136.5234,95.92,98,4,0,1,98,3,100,3e-39,159
Exophiala_salmonis_CBS157.67_T,ERR1085136.5101,95.92,98,4,0,1,98,3,100,3e-39,159
Exophiala_salmonis_CBS157.67_T,ERR1085136.4917,95.92,98,4,0,1,98,3,100,3e-39,159
Exophiala_salmonis_CBS157.67_T,ERR1085136.4739,95.92,98,4,0,1,98,3,100,3e-39,159
Exophiala_salmonis_CBS157.67_T,ERR1085136.4315,95.92,98,4,0,1,98,3,100,3e-39,159
Exophiala_salmonis_CBS157.67_T,ERR1085136.4020,95.92,98,4,0,1,98,3,100,3e-39,159
Exophiala_salmonis_CBS157.67_T,ERR1085136.3824,95.92,98,4,0,1,98,3,100,3e-39,159
Exophiala_salmonis_CBS157.67_T,ERR1085136.3823,95.92,98,4,0,1,98,3,100,3e-39,159
Exophiala_salmonis_CBS157.67_T,ERR1085136.3663,95.92,98,4,0,1,98,3,100,3e-39,159
Exophiala_salmonis_CBS157.67_T,ERR1085136.3526,95.92,98,4,0,1,98,3,100,3e-39,159
Exophiala_salmonis_CBS157.67_T,ERR1085136.3091,95.92,98,4,0,1,98,3,100,3e-39,159
Exophiala_salmonis_CBS157.67_T,ERR1085136.3090,95.92,98,4,0,1,98,3,100,3e-39,159
Exophiala_salmonis_CBS157.67_T,ERR1085136.2799,95.92,98,4,0,1,98,3,100,3e-39,159
Exophiala_salmonis_CBS157.67_T,ERR1085136.2755,95.92,98,4,0,1,98,3,100,3e-39,159
Exophiala_salmonis_CBS157.67_T,ERR1085136.2699,95.92,98,4,0,1,98,3,100,3e-39,159
Exophiala_salmonis_CBS157.67_T,ERR1085136.2698,95.92,98,4,0,1,98,3,100,3e-39,159
Exophiala_salmonis_CBS157.67_T,ERR1085136.2692,95.92,98,4,0,1,98,3,100,3e-39,159
Exophiala_salmonis_CBS157.67_T,ERR1085136.2344,95.92,98,4,0,1,98,3,100,3e-39,159
Exophiala_salmonis_CBS157.67_T,ERR1085136.1965,95.92,98,4,0,1,98,3,100,3e-39,159
Exophiala_salmonis_CBS157.67_T,ERR1085136.1723,95.92,98,4,0,1,98,3,100,3e-39,159
Exophiala_salmonis_CBS157.67_T,ERR1085136.1653,95.92,98,4,0,1,98,3,100,3e-39,159
Exophiala_salmonis_CBS157.67_T,ERR1085136.1319,95.92,98,4,0,1,98,3,100,3e-39,159
Exophiala_salmonis_CBS157.67_T,ERR1085136.1318,95.92,98,4,0,1,98,3,100,3e-39,159
Exophiala_salmonis_CBS157.67_T,ERR1085136.1228,95.92,98,4,0,1,98,3,100,3e-39,159
Exophiala_salmonis_CBS157.67_T,ERR1085136.1216,95.92,98,4,0,1,98,3,100,3e-39,159
Exophiala_salmonis_CBS157.67_T,ERR1085136.1116,95.92,98,4,0,1,98,3,100,3e-39,159
Exophiala_salmonis_CBS157.67_T,ERR1085136.1115,95.92,98,4,0,1,98,3,100,3e-39,159
Exophiala_salmonis_CBS157.67_T,ERR1085136.756,95.92,98,4,0,1,98,3,100,3e-39,159
Exophiala_salmonis_CBS157.67_T,ERR1085136.726,95.92,98,4,0,1,98,3,100,3e-39,159
Exophiala_salmonis_CBS157.67_T,ERR1085136.191,95.92,98,4,0,1,98,3,100,3e-39,159
Exophiala_salmonis_CBS157.67_T,ERR1085136.126,95.92,98,4,0,1,98,3,100,3e-39,159
Exophiala_salmonis_CBS157.67_T,ERR1085136.18192,100.00,85,0,0,1,85,3,87,1e-38,158
Rhinocladiella_atrovirens_CBS264.49,ERR1085136.70481,97.62,42,1,0,1,42,56,97,3e-13,73.1
Rhinocladiella_atrovirens_CBS264.49,ERR1085136.69862,97.62,42,1,0,1,42,56,97,3e-13,73.1
Rhinocladiella_atrovirens_CBS264.49,ERR1085136.68559,97.62,42,1,0,1,42,56,97,3e-13,73.1
Rhinocladiella_atrovirens_CBS264.49,ERR1085136.68501,97.62,42,1,0,1,42,56,97,3e-13,73.1
Rhinocladiella_atrovirens_CBS264.49,ERR1085136.67744,97.62,42,1,0,1,42,56,97,3e-13,73.1
Rhinocladiella_atrovirens_CBS264.49,ERR1085136.67074,97.62,42,1,0,1,42,56,97,3e-13,73.1
Rhinocladiella_atrovirens_CBS264.49,ERR1085136.63196,97.62,42,1,0,1,42,56,97,3e-13,73.1
Rhinocladiella_atrovirens_CBS264.49,ERR1085136.62994,97.62,42,1,0,1,42,56,97,3e-13,73.1
Rhinocladiella_atrovirens_CBS264.49,ERR1085136.61759,97.62,42,1,0,1,42,56,97,3e-13,73.1
Rhinocladiella_atrovirens_CBS264.49,ERR1085136.60151,97.62,42,1,0,1,42,56,97,3e-13,73.1
Rhinocladiella_atrovirens_CBS264.49,ERR1085136.59659,97.62,42,1,0,1,42,56,97,3e-13,73.1
Rhinocladiella_atrovirens_CBS264.49,ERR1085136.59198,97.62,42,1,0,1,42,56,97,3e-13,73.1
Rhinocladiella_atrovirens_CBS264.49,ERR1085136.58360,97.62,42,1,0,1,42,56,97,3e-13,73.1
Rhinocladiella_atrovirens_CBS264.49,ERR1085136.58331,97.62,42,1,0,1,42,56,97,3e-13,73.1
Rhinocladiella_atrovirens_CBS264.49,ERR1085136.56738,97.62,42,1,0,1,42,56,97,3e-13,73.1
Rhinocladiella_atrovirens_CBS264.49,ERR1085136.55499,97.62,42,1,0,1,42,56,97,3e-13,73.1
Rhinocladiella_atrovirens_CBS264.49,ERR1085136.55214,97.62,42,1,0,1,42,56,97,3e-13,73.1
Rhinocladiella_atrovirens_CBS264.49,ERR1085136.53225,97.62,42,1,0,1,42,56,97,3e-13,73.1
Rhinocladiella_atrovirens_CBS264.49,ERR1085136.52701,97.62,42,1,0,1,42,56,97,3e-13,73.1
Rhinocladiella_atrovirens_CBS264.49,ERR1085136.51572,97.62,42,1,0,1,42,56,97,3e-13,73.1
Rhinocladiella_atrovirens_CBS264.49,ERR1085136.50346,97.62,42,1,0,1,42,56,97,3e-13,73.1
Rhinocladiella_atrovirens_CBS264.49,ERR1085136.49752,97.62,42,1,0,1,42,56,97,3e-13,73.1
Rhinocladiella_atrovirens_CBS264.49,ERR1085136.48096,97.62,42,1,0,1,42,56,97,3e-13,73.1
Rhinocladiella_atrovirens_CBS264.49,ERR1085136.47597,97.62,42,1,0,1,42,56,97,3e-13,73.1
Rhinocladiella_atrovirens_CBS264.49,ERR1085136.47253,97.62,42,1,0,1,42,56,97,3e-13,73.1
Rhinocladiella_atrovirens_CBS264.49,ERR1085136.46759,97.62,42,1,0,1,42,56,97,3e-13,73.1
Rhinocladiella_atrovirens_CBS264.49,ERR1085136.45899,97.62,42,1,0,1,42,56,97,3e-13,73.1
Rhinocladiella_atrovirens_CBS264.49,ERR1085136.44275,97.62,42,1,0,1,42,56,97,3e-13,73.1
Rhinocladiella_atrovirens_CBS264.49,ERR1085136.44005,97.62,42,1,0,1,42,56,97,3e-13,73.1
Rhinocladiella_atrovirens_CBS264.49,ERR1085136.43147,97.62,42,1,0,1,42,56,97,3e-13,73.1
Rhinocladiella_atrovirens_CBS264.49,ERR1085136.41702,97.62,42,1,0,1,42,56,97,3e-13,73.1
Rhinocladiella_atrovirens_CBS264.49,ERR1085136.41564,97.62,42,1,0,1,42,56,97,3e-13,73.1
Rhinocladiella_atrovirens_CBS264.49,ERR1085136.41554,97.62,42,1,0,1,42,56,97,3e-13,73.1
Rhinocladiella_atrovirens_CBS264.49,ERR1085136.38993,97.62,42,1,0,1,42,56,97,3e-13,73.1
Rhinocladiella_atrovirens_CBS264.49,ERR1085136.37025,97.62,42,1,0,1,42,56,97,3e-13,73.1
Rhinocladiella_atrovirens_CBS264.49,ERR1085136.36587,97.62,42,1,0,1,42,56,97,3e-13,73.1
Rhinocladiella_atrovirens_CBS264.49,ERR1085136.35806,97.62,42,1,0,1,42,56,97,3e-13,73.1
Rhinocladiella_atrovirens_CBS264.49,ERR1085136.35059,97.62,42,1,0,1,42,56,97,3e-13,73.1
Rhinocladiella_atrovirens_CBS264.49,ERR1085136.34975,97.62,42,1,0,1,42,56,97,3e-13,73.1
Rhinocladiella_atrovirens_CBS264.49,ERR1085136.34453,97.62,42,1,0,1,42,56,97,3e-13,73.1
Rhinocladiella_atrovirens_CBS264.49,ERR1085136.33051,97.62,42,1,0,1,42,56,97,3e-13,73.1
Rhinocladiella_atrovirens_CBS264.49,ERR1085136.32299,97.62,42,1,0,1,42,56,97,3e-13,73.1
Rhinocladiella_atrovirens_CBS264.49,ERR1085136.30891,97.62,42,1,0,1,42,56,97,3e-13,73.1
Rhinocladiella_atrovirens_CBS264.49,ERR1085136.30230,97.62,42,1,0,1,42,56,97,3e-13,73.1
Rhinocladiella_atrovirens_CBS264.49,ERR1085136.27740,97.62,42,1,0,1,42,56,97,3e-13,73.1
Rhinocladiella_atrovirens_CBS264.49,ERR1085136.27190,97.62,42,1,0,1,42,56,97,3e-13,73.1
Rhinocladiella_atrovirens_CBS264.49,ERR1085136.26137,97.62,42,1,0,1,42,56,97,3e-13,73.1
Rhinocladiella_atrovirens_CBS264.49,ERR1085136.25783,97.62,42,1,0,1,42,56,97,3e-13,73.1
Rhinocladiella_atrovirens_CBS264.49,ERR1085136.25379,97.62,42,1,0,1,42,56,97,3e-13,73.1
Rhinocladiella_atrovirens_CBS264.49,ERR1085136.25208,97.62,42,1,0,1,42,56,97,3e-13,73.1
Rhinocladiella_atrovirens_CBS264.49,ERR1085136.24447,97.62,42,1,0,1,42,56,97,3e-13,73.1
Rhinocladiella_atrovirens_CBS264.49,ERR1085136.24372,97.62,42,1,0,1,42,56,97,3e-13,73.1
Rhinocladiella_atrovirens_CBS264.49,ERR1085136.22203,97.62,42,1,0,1,42,56,97,3e-13,73.1
Rhinocladiella_atrovirens_CBS264.49,ERR1085136.21259,97.62,42,1,0,1,42,56,97,3e-13,73.1
Rhinocladiella_atrovirens_CBS264.49,ERR1085136.21098,97.62,42,1,0,1,42,56,97,3e-13,73.1
Rhinocladiella_atrovirens_CBS264.49,ERR1085136.20373,97.62,42,1,0,1,42,56,97,3e-13,73.1
Rhinocladiella_atrovirens_CBS264.49,ERR1085136.18934,97.62,42,1,0,1,42,56,97,3e-13,73.1
Rhinocladiella_atrovirens_CBS264.49,ERR1085136.18546,97.62,42,1,0,1,42,56,97,3e-13,73.1
Rhinocladiella_atrovirens_CBS264.49,ERR1085136.17328,97.62,42,1,0,1,42,56,97,3e-13,73.1
Rhinocladiella_atrovirens_CBS264.49,ERR1085136.16793,97.62,42,1,0,1,42,56,97,3e-13,73.1
Rhinocladiella_atrovirens_CBS264.49,ERR1085136.16092,97.62,42,1,0,1,42,56,97,3e-13,73.1
Rhinocladiella_atrovirens_CBS264.49,ERR1085136.15727,97.62,42,1,0,1,42,56,97,3e-13,73.1
Rhinocladiella_atrovirens_CBS264.49,ERR1085136.15013,97.62,42,1,0,1,42,56,97,3e-13,73.1
Rhinocladiella_atrovirens_CBS264.49,ERR1085136.13537,97.62,42,1,0,1,42,56,97,3e-13,73.1
Rhinocladiella_atrovirens_CBS264.49,ERR1085136.11380,97.62,42,1,0,1,42,56,97,3e-13,73.1
Rhinocladiella_atrovirens_CBS264.49,ERR1085136.8503,97.62,42,1,0,1,42,56,97,3e-13,73.1
Rhinocladiella_atrovirens_CBS264.49,ERR1085136.8325,97.62,42,1,0,1,42,56,97,3e-13,73.1
Rhinocladiella_atrovirens_CBS264.49,ERR1085136.8247,97.62,42,1,0,1,42,56,97,3e-13,73.1
Rhinocladiella_atrovirens_CBS264.49,ERR1085136.7096,97.62,42,1,0,1,42,56,97,3e-13,73.1
Rhinocladiella_atrovirens_CBS264.49,ERR1085136.5722,97.62,42,1,0,1,42,56,97,3e-13,73.1
Rhinocladiella_atrovirens_CBS264.49,ERR1085136.3613,97.62,42,1,0,1,42,56,97,3e-13,73.1
Rhinocladiella_atrovirens_CBS264.49,ERR1085136.2599,97.62,42,1,0,1,42,56,97,3e-13,73.1
Rhinocladiella_atrovirens_CBS264.49,ERR1085136.1264,97.62,42,1,0,1,42,56,97,3e-13,73.1
Rhinocladiella_atrovirens_CBS264.49,ERR1085136.1206,97.62,42,1,0,1,42,56,97,3e-13,73.1
Rhinocladiella_atrovirens_CBS264.49,ERR1085136.43654,97.44,39,1,0,4,42,59,97,1e-11,67.6
Rhinocladiella_atrovirens_CBS264.49,ERR1085136.40511,95.24,42,1,1,1,42,56,96,5e-11,65.8
Rhinocladiella_atrovirens_CBS264.49,ERR1085136.65854,100.00,31,0,0,1,31,69,99,9e-09,58.4
Rhinocladiella_atrovirens_CBS264.49,ERR1085136.16004,100.00,31,0,0,1,31,69,99,9e-09,58.4
Rhinocladiella_atrovirens_CBS264.49,ERR1085136.65580,100.00,30,0,0,1,30,71,100,3e-08,56.5
Cyphellophora_laciniata_CBS190.61_T,ERR1085136.65854,95.24,63,3,0,25,87,37,99,2e-21,100
Cyphellophora_laciniata_CBS190.61_T,ERR1085136.16004,95.24,63,3,0,25,87,37,99,2e-21,100
Cyphellophora_laciniata_CBS190.61_T,ERR1085136.70481,97.92,48,1,0,51,98,50,97,2e-16,84.2
Cyphellophora_laciniata_CBS190.61_T,ERR1085136.69862,97.92,48,1,0,51,98,50,97,2e-16,84.2
Cyphellophora_laciniata_CBS190.61_T,ERR1085136.68559,97.92,48,1,0,51,98,50,97,2e-16,84.2
Cyphellophora_laciniata_CBS190.61_T,ERR1085136.67744,97.92,48,1,0,51,98,50,97,2e-16,84.2
Cyphellophora_laciniata_CBS190.61_T,ERR1085136.67074,97.92,48,1,0,51,98,50,97,2e-16,84.2
Cyphellophora_laciniata_CBS190.61_T,ERR1085136.63196,97.92,48,1,0,51,98,50,97,2e-16,84.2
Cyphellophora_laciniata_CBS190.61_T,ERR1085136.62994,97.92,48,1,0,51,98,50,97,2e-16,84.2
Cyphellophora_laciniata_CBS190.61_T,ERR1085136.61759,97.92,48,1,0,51,98,50,97,2e-16,84.2
Cyphellophora_laciniata_CBS190.61_T,ERR1085136.60151,97.92,48,1,0,51,98,50,97,2e-16,84.2
Cyphellophora_laciniata_CBS190.61_T,ERR1085136.59659,97.92,48,1,0,51,98,50,97,2e-16,84.2
Cyphellophora_laciniata_CBS190.61_T,ERR1085136.58360,97.92,48,1,0,51,98,50,97,2e-16,84.2
Cyphellophora_laciniata_CBS190.61_T,ERR1085136.58331,97.92,48,1,0,51,98,50,97,2e-16,84.2
Cyphellophora_laciniata_CBS190.61_T,ERR1085136.56738,97.92,48,1,0,51,98,50,97,2e-16,84.2
Cyphellophora_laciniata_CBS190.61_T,ERR1085136.55499,97.92,48,1,0,51,98,50,97,2e-16,84.2
Cyphellophora_laciniata_CBS190.61_T,ERR1085136.55214,97.92,48,1,0,51,98,50,97,2e-16,84.2
Cyphellophora_laciniata_CBS190.61_T,ERR1085136.53225,97.92,48,1,0,51,98,50,97,2e-16,84.2
Cyphellophora_laciniata_CBS190.61_T,ERR1085136.52701,97.92,48,1,0,51,98,50,97,2e-16,84.2
Cyphellophora_laciniata_CBS190.61_T,ERR1085136.51572,97.92,48,1,0,51,98,50,97,2e-16,84.2
Cyphellophora_laciniata_CBS190.61_T,ERR1085136.50346,97.92,48,1,0,51,98,50,97,2e-16,84.2
Cyphellophora_laciniata_CBS190.61_T,ERR1085136.49752,97.92,48,1,0,51,98,50,97,2e-16,84.2
Cyphellophora_laciniata_CBS190.61_T,ERR1085136.47597,97.92,48,1,0,51,98,50,97,2e-16,84.2
Cyphellophora_laciniata_CBS190.61_T,ERR1085136.47253,97.92,48,1,0,51,98,50,97,2e-16,84.2
Cyphellophora_laciniata_CBS190.61_T,ERR1085136.46759,97.92,48,1,0,51,98,50,97,2e-16,84.2
Cyphellophora_laciniata_CBS190.61_T,ERR1085136.45899,97.92,48,1,0,51,98,50,97,2e-16,84.2
Cyphellophora_laciniata_CBS190.61_T,ERR1085136.44275,97.92,48,1,0,51,98,50,97,2e-16,84.2
Cyphellophora_laciniata_CBS190.61_T,ERR1085136.44005,97.92,48,1,0,51,98,50,97,2e-16,84.2
Cyphellophora_laciniata_CBS190.61_T,ERR1085136.41702,97.92,48,1,0,51,98,50,97,2e-16,84.2
Cyphellophora_laciniata_CBS190.61_T,ERR1085136.41564,97.92,48,1,0,51,98,50,97,2e-16,84.2
Cyphellophora_laciniata_CBS190.61_T,ERR1085136.41554,97.92,48,1,0,51,98,50,97,2e-16,84.2
Cyphellophora_laciniata_CBS190.61_T,ERR1085136.37025,97.92,48,1,0,51,98,50,97,2e-16,84.2
Cyphellophora_laciniata_CBS190.61_T,ERR1085136.36587,97.92,48,1,0,51,98,50,97,2e-16,84.2
Cyphellophora_laciniata_CBS190.61_T,ERR1085136.35806,97.92,48,1,0,51,98,50,97,2e-16,84.2
Cyphellophora_laciniata_CBS190.61_T,ERR1085136.35059,97.92,48,1,0,51,98,50,97,2e-16,84.2
Cyphellophora_laciniata_CBS190.61_T,ERR1085136.34975,97.92,48,1,0,51,98,50,97,2e-16,84.2
Cyphellophora_laciniata_CBS190.61_T,ERR1085136.34453,97.92,48,1,0,51,98,50,97,2e-16,84.2
Cyphellophora_laciniata_CBS190.61_T,ERR1085136.32299,97.92,48,1,0,51,98,50,97,2e-16,84.2
Cyphellophora_laciniata_CBS190.61_T,ERR1085136.30891,97.92,48,1,0,51,98,50,97,2e-16,84.2
Cyphellophora_laciniata_CBS190.61_T,ERR1085136.30230,97.92,48,1,0,51,98,50,97,2e-16,84.2
Cyphellophora_laciniata_CBS190.61_T,ERR1085136.27740,97.92,48,1,0,51,98,50,97,2e-16,84.2
Cyphellophora_laciniata_CBS190.61_T,ERR1085136.27190,97.92,48,1,0,51,98,50,97,2e-16,84.2
Cyphellophora_laciniata_CBS190.61_T,ERR1085136.26137,97.92,48,1,0,51,98,50,97,2e-16,84.2
Cyphellophora_laciniata_CBS190.61_T,ERR1085136.25379,97.92,48,1,0,51,98,50,97,2e-16,84.2
Cyphellophora_laciniata_CBS190.61_T,ERR1085136.25208,97.92,48,1,0,51,98,50,97,2e-16,84.2
Cyphellophora_laciniata_CBS190.61_T,ERR1085136.24372,97.92,48,1,0,51,98,50,97,2e-16,84.2
Cyphellophora_laciniata_CBS190.61_T,ERR1085136.22203,97.92,48,1,0,51,98,50,97,2e-16,84.2
Cyphellophora_laciniata_CBS190.61_T,ERR1085136.21259,97.92,48,1,0,51,98,50,97,2e-16,84.2
Cyphellophora_laciniata_CBS190.61_T,ERR1085136.21098,97.92,48,1,0,51,98,50,97,2e-16,84.2
Cyphellophora_laciniata_CBS190.61_T,ERR1085136.20373,97.92,48,1,0,51,98,50,97,2e-16,84.2
Cyphellophora_laciniata_CBS190.61_T,ERR1085136.18934,97.92,48,1,0,51,98,50,97,2e-16,84.2
Cyphellophora_laciniata_CBS190.61_T,ERR1085136.18546,97.92,48,1,0,51,98,50,97,2e-16,84.2
Cyphellophora_laciniata_CBS190.61_T,ERR1085136.17328,97.92,48,1,0,51,98,50,97,2e-16,84.2
Cyphellophora_laciniata_CBS190.61_T,ERR1085136.16793,97.92,48,1,0,51,98,50,97,2e-16,84.2
Cyphellophora_laciniata_CBS190.61_T,ERR1085136.16092,97.92,48,1,0,51,98,50,97,2e-16,84.2
Cyphellophora_laciniata_CBS190.61_T,ERR1085136.15727,97.92,48,1,0,51,98,50,97,2e-16,84.2
Cyphellophora_laciniata_CBS190.61_T,ERR1085136.15013,97.92,48,1,0,51,98,50,97,2e-16,84.2
Cyphellophora_laciniata_CBS190.61_T,ERR1085136.13537,97.92,48,1,0,51,98,50,97,2e-16,84.2
Cyphellophora_laciniata_CBS190.61_T,ERR1085136.11380,97.92,48,1,0,51,98,50,97,2e-16,84.2
Cyphellophora_laciniata_CBS190.61_T,ERR1085136.8503,97.92,48,1,0,51,98,50,97,2e-16,84.2
Cyphellophora_laciniata_CBS190.61_T,ERR1085136.8325,97.92,48,1,0,51,98,50,97,2e-16,84.2
Cyphellophora_laciniata_CBS190.61_T,ERR1085136.8247,97.92,48,1,0,51,98,50,97,2e-16,84.2
Cyphellophora_laciniata_CBS190.61_T,ERR1085136.7096,97.92,48,1,0,51,98,50,97,2e-16,84.2
Cyphellophora_laciniata_CBS190.61_T,ERR1085136.5722,97.92,48,1,0,51,98,50,97,2e-16,84.2
Cyphellophora_laciniata_CBS190.61_T,ERR1085136.3613,97.92,48,1,0,51,98,50,97,2e-16,84.2
Cyphellophora_laciniata_CBS190.61_T,ERR1085136.2599,97.92,48,1,0,51,98,50,97,2e-16,84.2
Cyphellophora_laciniata_CBS190.61_T,ERR1085136.1264,97.92,48,1,0,51,98,50,97,2e-16,84.2
Cyphellophora_laciniata_CBS190.61_T,ERR1085136.1206,97.92,48,1,0,51,98,50,97,2e-16,84.2
Cyphellophora_laciniata_CBS190.61_T,ERR1085136.69564,100.00,44,0,0,1,44,57,100,6e-16,82.4
Cyphellophora_laciniata_CBS190.61_T,ERR1085136.67714,100.00,44,0,0,1,44,57,100,6e-16,82.4
Cyphellophora_laciniata_CBS190.61_T,ERR1085136.67064,100.00,44,0,0,1,44,57,100,6e-16,82.4
Cyphellophora_laciniata_CBS190.61_T,ERR1085136.66793,100.00,44,0,0,1,44,57,100,6e-16,82.4
Cyphellophora_laciniata_CBS190.61_T,ERR1085136.64661,100.00,44,0,0,1,44,57,100,6e-16,82.4
Cyphellophora_laciniata_CBS190.61_T,ERR1085136.64463,100.00,44,0,0,1,44,57,100,6e-16,82.4
Cyphellophora_laciniata_CBS190.61_T,ERR1085136.63607,100.00,44,0,0,1,44,57,100,6e-16,82.4
Cyphellophora_laciniata_CBS190.61_T,ERR1085136.62878,100.00,44,0,0,1,44,57,100,6e-16,82.4
Cyphellophora_laciniata_CBS190.61_T,ERR1085136.60732,100.00,44,0,0,1,44,57,100,6e-16,82.4
Cyphellophora_laciniata_CBS190.61_T,ERR1085136.57997,100.00,44,0,0,1,44,57,100,6e-16,82.4
Cyphellophora_laciniata_CBS190.61_T,ERR1085136.54895,100.00,44,0,0,1,44,57,100,6e-16,82.4
Cyphellophora_laciniata_CBS190.61_T,ERR1085136.52467,100.00,44,0,0,1,44,57,100,6e-16,82.4
Cyphellophora_laciniata_CBS190.61_T,ERR1085136.50508,100.00,44,0,0,1,44,57,100,6e-16,82.4
Cyphellophora_laciniata_CBS190.61_T,ERR1085136.50226,100.00,44,0,0,1,44,57,100,6e-16,82.4
Cyphellophora_laciniata_CBS190.61_T,ERR1085136.49622,100.00,44,0,0,1,44,57,100,6e-16,82.4
Cyphellophora_laciniata_CBS190.61_T,ERR1085136.46977,100.00,44,0,0,1,44,57,100,6e-16,82.4
Cyphellophora_laciniata_CBS190.61_T,ERR1085136.42463,100.00,44,0,0,1,44,57,100,6e-16,82.4
Cyphellophora_laciniata_CBS190.61_T,ERR1085136.42161,100.00,44,0,0,1,44,57,100,6e-16,82.4
Cyphellophora_laciniata_CBS190.61_T,ERR1085136.41773,100.00,44,0,0,1,44,57,100,6e-16,82.4
Cyphellophora_laciniata_CBS190.61_T,ERR1085136.40618,100.00,44,0,0,1,44,57,100,6e-16,82.4
Cyphellophora_laciniata_CBS190.61_T,ERR1085136.38044,100.00,44,0,0,1,44,57,100,6e-16,82.4
Cyphellophora_laciniata_CBS190.61_T,ERR1085136.35249,100.00,44,0,0,1,44,57,100,6e-16,82.4
Cyphellophora_laciniata_CBS190.61_T,ERR1085136.34839,100.00,44,0,0,1,44,57,100,6e-16,82.4
Cyphellophora_laciniata_CBS190.61_T,ERR1085136.33622,100.00,44,0,0,1,44,57,100,6e-16,82.4
Cyphellophora_laciniata_CBS190.61_T,ERR1085136.33151,100.00,44,0,0,1,44,57,100,6e-16,82.4
Cyphellophora_laciniata_CBS190.61_T,ERR1085136.32095,100.00,44,0,0,1,44,57,100,6e-16,82.4
Cyphellophora_laciniata_CBS190.61_T,ERR1085136.30448,100.00,44,0,0,1,44,57,100,6e-16,82.4
Cyphellophora_laciniata_CBS190.61_T,ERR1085136.29822,100.00,44,0,0,1,44,57,100,6e-16,82.4
Cyphellophora_laciniata_CBS190.61_T,ERR1085136.27467,100.00,44,0,0,1,44,57,100,6e-16,82.4
Cyphellophora_laciniata_CBS190.61_T,ERR1085136.26962,100.00,44,0,0,1,44,57,100,6e-16,82.4
Cyphellophora_laciniata_CBS190.61_T,ERR1085136.26843,100.00,44,0,0,1,44,57,100,6e-16,82.4
Cyphellophora_laciniata_CBS190.61_T,ERR1085136.26489,100.00,44,0,0,1,44,57,100,6e-16,82.4
Cyphellophora_laciniata_CBS190.61_T,ERR1085136.26306,100.00,44,0,0,1,44,57,100,6e-16,82.4
Cyphellophora_laciniata_CBS190.61_T,ERR1085136.25461,100.00,44,0,0,1,44,57,100,6e-16,82.4
Cyphellophora_laciniata_CBS190.61_T,ERR1085136.18606,100.00,44,0,0,1,44,57,100,6e-16,82.4
Cyphellophora_laciniata_CBS190.61_T,ERR1085136.17928,100.00,44,0,0,1,44,57,100,6e-16,82.4
Cyphellophora_laciniata_CBS190.61_T,ERR1085136.17892,100.00,44,0,0,1,44,57,100,6e-16,82.4
Cyphellophora_laciniata_CBS190.61_T,ERR1085136.13584,100.00,44,0,0,1,44,57,100,6e-16,82.4
Cyphellophora_laciniata_CBS190.61_T,ERR1085136.13102,100.00,44,0,0,1,44,57,100,6e-16,82.4
Cyphellophora_laciniata_CBS190.61_T,ERR1085136.8349,100.00,44,0,0,1,44,57,100,6e-16,82.4
Cyphellophora_laciniata_CBS190.61_T,ERR1085136.4363,100.00,44,0,0,1,44,57,100,6e-16,82.4
Cyphellophora_laciniata_CBS190.61_T,ERR1085136.4297,100.00,44,0,0,1,44,57,100,6e-16,82.4
Cyphellophora_laciniata_CBS190.61_T,ERR1085136.3659,100.00,44,0,0,1,44,57,100,6e-16,82.4
Cyphellophora_laciniata_CBS190.61_T,ERR1085136.3247,100.00,44,0,0,1,44,57,100,6e-16,82.4
Cyphellophora_laciniata_CBS190.61_T,ERR1085136.2271,100.00,44,0,0,1,44,57,100,6e-16,82.4
Cyphellophora_laciniata_CBS190.61_T,ERR1085136.2036,100.00,44,0,0,1,44,57,100,6e-16,82.4
Cyphellophora_laciniata_CBS190.61_T,ERR1085136.1983,100.00,44,0,0,1,44,57,100,6e-16,82.4
Cyphellophora_laciniata_CBS190.61_T,ERR1085136.68501,95.83,48,2,0,51,98,50,97,8e-15,78.7
Cyphellophora_laciniata_CBS190.61_T,ERR1085136.59198,95.83,48,2,0,51,98,50,97,8e-15,78.7
Cyphellophora_laciniata_CBS190.61_T,ERR1085136.48096,95.83,48,2,0,51,98,50,97,8e-15,78.7
Cyphellophora_laciniata_CBS190.61_T,ERR1085136.43654,95.83,48,2,0,51,98,50,97,8e-15,78.7
Cyphellophora_laciniata_CBS190.61_T,ERR1085136.43147,95.83,48,2,0,51,98,50,97,8e-15,78.7
Cyphellophora_laciniata_CBS190.61_T,ERR1085136.38993,95.83,48,2,0,51,98,50,97,8e-15,78.7
Cyphellophora_laciniata_CBS190.61_T,ERR1085136.33051,95.83,48,2,0,51,98,50,97,8e-15,78.7
Cyphellophora_laciniata_CBS190.61_T,ERR1085136.25783,95.83,48,2,0,51,98,50,97,8e-15,78.7
Cyphellophora_laciniata_CBS190.61_T,ERR1085136.24447,95.83,48,2,0,51,98,50,97,8e-15,78.7
Cyphellophora_laciniata_CBS190.61_T,ERR1085136.69306,97.73,44,1,0,1,44,57,100,3e-14,76.8
Cyphellophora_laciniata_CBS190.61_T,ERR1085136.65786,97.73,44,1,0,1,44,57,100,3e-14,76.8
Cyphellophora_laciniata_CBS190.61_T,ERR1085136.61956,97.73,44,1,0,1,44,57,100,3e-14,76.8
Cyphellophora_laciniata_CBS190.61_T,ERR1085136.61893,97.73,44,1,0,1,44,57,100,3e-14,76.8
Cyphellophora_laciniata_CBS190.61_T,ERR1085136.54361,97.73,44,1,0,1,44,57,100,3e-14,76.8
Cyphellophora_laciniata_CBS190.61_T,ERR1085136.53176,97.73,44,1,0,1,44,57,100,3e-14,76.8
Cyphellophora_laciniata_CBS190.61_T,ERR1085136.52432,97.73,44,1,0,1,44,57,100,3e-14,76.8
Cyphellophora_laciniata_CBS190.61_T,ERR1085136.51061,97.73,44,1,0,1,44,57,100,3e-14,76.8
Cyphellophora_laciniata_CBS190.61_T,ERR1085136.50091,97.73,44,1,0,1,44,57,100,3e-14,76.8
Cyphellophora_laciniata_CBS190.61_T,ERR1085136.40511,95.83,48,1,1,51,98,50,96,3e-14,76.8
Cyphellophora_laciniata_CBS190.61_T,ERR1085136.31357,97.73,44,1,0,1,44,57,100,3e-14,76.8
Cyphellophora_laciniata_CBS190.61_T,ERR1085136.28730,97.73,44,1,0,1,44,57,100,3e-14,76.8
Cyphellophora_laciniata_CBS190.61_T,ERR1085136.23307,97.73,44,1,0,1,44,57,100,3e-14,76.8
Cyphellophora_laciniata_CBS190.61_T,ERR1085136.16907,97.73,44,1,0,1,44,57,100,3e-14,76.8
Cyphellophora_laciniata_CBS190.61_T,ERR1085136.4457,97.73,44,1,0,1,44,57,100,3e-14,76.8
Cyphellophora_laciniata_CBS190.61_T,ERR1085136.778,97.73,44,1,0,1,44,57,100,3e-14,76.8
Cyphellophora_laciniata_CBS190.61_T,ERR1085136.70810,95.45,44,2,0,1,44,57,100,1e-12,71.3
Cyphellophora_laciniata_CBS190.61_T,ERR1085136.69764,95.45,44,2,0,1,44,57,100,1e-12,71.3
Cyphellophora_laciniata_CBS190.61_T,ERR1085136.69503,95.45,44,2,0,1,44,57,100,1e-12,71.3
Cyphellophora_laciniata_CBS190.61_T,ERR1085136.69393,95.45,44,2,0,1,44,57,100,1e-12,71.3
Cyphellophora_laciniata_CBS190.61_T,ERR1085136.69392,95.45,44,2,0,1,44,57,100,1e-12,71.3
Cyphellophora_laciniata_CBS190.61_T,ERR1085136.68426,95.45,44,2,0,1,44,57,100,1e-12,71.3
Cyphellophora_laciniata_CBS190.61_T,ERR1085136.67564,95.45,44,2,0,1,44,57,100,1e-12,71.3
Cyphellophora_laciniata_CBS190.61_T,ERR1085136.66551,95.45,44,2,0,1,44,57,100,1e-12,71.3
Cyphellophora_laciniata_CBS190.61_T,ERR1085136.66463,95.45,44,2,0,1,44,57,100,1e-12,71.3
Cyphellophora_laciniata_CBS190.61_T,ERR1085136.65079,95.45,44,2,0,1,44,57,100,1e-12,71.3
Cyphellophora_laciniata_CBS190.61_T,ERR1085136.64882,95.45,44,2,0,1,44,57,100,1e-12,71.3
Cyphellophora_laciniata_CBS190.61_T,ERR1085136.64716,95.45,44,2,0,1,44,57,100,1e-12,71.3
Cyphellophora_laciniata_CBS190.61_T,ERR1085136.64352,95.45,44,2,0,1,44,57,100,1e-12,71.3
Cyphellophora_laciniata_CBS190.61_T,ERR1085136.64351,95.45,44,2,0,1,44,57,100,1e-12,71.3
Cyphellophora_laciniata_CBS190.61_T,ERR1085136.64152,95.45,44,2,0,1,44,57,100,1e-12,71.3
Cyphellophora_laciniata_CBS190.61_T,ERR1085136.64128,95.45,44,2,0,1,44,57,100,1e-12,71.3
Cyphellophora_laciniata_CBS190.61_T,ERR1085136.64046,95.45,44,2,0,1,44,57,100,1e-12,71.3
Cyphellophora_laciniata_CBS190.61_T,ERR1085136.63767,95.45,44,2,0,1,44,57,100,1e-12,71.3
Cyphellophora_laciniata_CBS190.61_T,ERR1085136.62983,95.45,44,2,0,1,44,57,100,1e-12,71.3
Cyphellophora_laciniata_CBS190.61_T,ERR1085136.61914,95.45,44,2,0,1,44,57,100,1e-12,71.3
Cyphellophora_laciniata_CBS190.61_T,ERR1085136.60693,95.45,44,2,0,1,44,57,100,1e-12,71.3
Cyphellophora_laciniata_CBS190.61_T,ERR1085136.60039,95.45,44,2,0,1,44,57,100,1e-12,71.3
Cyphellophora_laciniata_CBS190.61_T,ERR1085136.59473,95.45,44,2,0,1,44,57,100,1e-12,71.3
Cyphellophora_laciniata_CBS190.61_T,ERR1085136.59142,95.45,44,2,0,1,44,57,100,1e-12,71.3
Cyphellophora_laciniata_CBS190.61_T,ERR1085136.58446,95.45,44,2,0,1,44,57,100,1e-12,71.3
Cyphellophora_laciniata_CBS190.61_T,ERR1085136.57590,95.45,44,2,0,1,44,57,100,1e-12,71.3
Cyphellophora_laciniata_CBS190.61_T,ERR1085136.57491,95.45,44,2,0,1,44,57,100,1e-12,71.3
Cyphellophora_laciniata_CBS190.61_T,ERR1085136.57295,95.45,44,2,0,1,44,57,100,1e-12,71.3
Cyphellophora_laciniata_CBS190.61_T,ERR1085136.56768,95.45,44,2,0,1,44,57,100,1e-12,71.3
Cyphellophora_laciniata_CBS190.61_T,ERR1085136.56750,95.45,44,2,0,1,44,57,100,1e-12,71.3
Cyphellophora_laciniata_CBS190.61_T,ERR1085136.56605,95.45,44,2,0,1,44,57,100,1e-12,71.3
Cyphellophora_laciniata_CBS190.61_T,ERR1085136.56604,95.45,44,2,0,1,44,57,100,1e-12,71.3
Cyphellophora_laciniata_CBS190.61_T,ERR1085136.55562,95.45,44,2,0,1,44,57,100,1e-12,71.3
Cyphellophora_laciniata_CBS190.61_T,ERR1085136.53633,95.45,44,2,0,1,44,57,100,1e-12,71.3
Cyphellophora_laciniata_CBS190.61_T,ERR1085136.52949,95.45,44,2,0,1,44,57,100,1e-12,71.3
Cyphellophora_laciniata_CBS190.61_T,ERR1085136.52596,95.45,44,2,0,1,44,57,100,1e-12,71.3
Cyphellophora_laciniata_CBS190.61_T,ERR1085136.52192,95.56,45,0,2,1,44,57,100,1e-12,71.3
Cyphellophora_laciniata_CBS190.61_T,ERR1085136.51211,95.45,44,2,0,1,44,57,100,1e-12,71.3
Cyphellophora_laciniata_CBS190.61_T,ERR1085136.51064,95.45,44,2,0,1,44,57,100,1e-12,71.3
Cyphellophora_laciniata_CBS190.61_T,ERR1085136.49824,95.45,44,2,0,1,44,57,100,1e-12,71.3
Cyphellophora_laciniata_CBS190.61_T,ERR1085136.48937,95.45,44,2,0,1,44,57,100,1e-12,71.3
Cyphellophora_laciniata_CBS190.61_T,ERR1085136.48862,95.45,44,2,0,1,44,57,100,1e-12,71.3
Cyphellophora_laciniata_CBS190.61_T,ERR1085136.48305,95.45,44,2,0,1,44,57,100,1e-12,71.3
Cyphellophora_laciniata_CBS190.61_T,ERR1085136.48018,95.45,44,2,0,1,44,57,100,1e-12,71.3
Cyphellophora_laciniata_CBS190.61_T,ERR1085136.48017,95.45,44,2,0,1,44,57,100,1e-12,71.3
Cyphellophora_laciniata_CBS190.61_T,ERR1085136.47228,95.45,44,2,0,1,44,57,100,1e-12,71.3
Cyphellophora_laciniata_CBS190.61_T,ERR1085136.46967,95.45,44,2,0,1,44,57,100,1e-12,71.3
Cyphellophora_laciniata_CBS190.61_T,ERR1085136.46604,95.45,44,2,0,1,44,57,100,1e-12,71.3
Cyphellophora_laciniata_CBS190.61_T,ERR1085136.46603,95.45,44,2,0,1,44,57,100,1e-12,71.3
Cyphellophora_laciniata_CBS190.61_T,ERR1085136.46358,95.45,44,2,0,1,44,57,100,1e-12,71.3
Cyphellophora_laciniata_CBS190.61_T,ERR1085136.46094,95.45,44,2,0,1,44,57,100,1e-12,71.3
Cyphellophora_laciniata_CBS190.61_T,ERR1085136.45881,95.45,44,2,0,1,44,57,100,1e-12,71.3
Cyphellophora_laciniata_CBS190.61_T,ERR1085136.45407,95.45,44,2,0,1,44,57,100,1e-12,71.3
Cyphellophora_laciniata_CBS190.61_T,ERR1085136.45138,95.45,44,2,0,1,44,57,100,1e-12,71.3
Cyphellophora_laciniata_CBS190.61_T,ERR1085136.45066,95.45,44,2,0,1,44,57,100,1e-12,71.3
Cyphellophora_laciniata_CBS190.61_T,ERR1085136.44990,95.45,44,2,0,1,44,57,100,1e-12,71.3
Cyphellophora_laciniata_CBS190.61_T,ERR1085136.44939,95.45,44,2,0,1,44,57,100,1e-12,71.3
Cyphellophora_laciniata_CBS190.61_T,ERR1085136.44470,95.45,44,2,0,1,44,57,100,1e-12,71.3
Cyphellophora_laciniata_CBS190.61_T,ERR1085136.44456,95.45,44,2,0,1,44,57,100,1e-12,71.3
Cyphellophora_laciniata_CBS190.61_T,ERR1085136.44200,95.45,44,2,0,1,44,57,100,1e-12,71.3
Cyphellophora_laciniata_CBS190.61_T,ERR1085136.44199,95.45,44,2,0,1,44,57,100,1e-12,71.3
Cyphellophora_laciniata_CBS190.61_T,ERR1085136.43622,95.45,44,2,0,1,44,57,100,1e-12,71.3
Cyphellophora_laciniata_CBS190.61_T,ERR1085136.43203,95.45,44,2,0,1,44,57,100,1e-12,71.3
Cyphellophora_laciniata_CBS190.61_T,ERR1085136.42866,95.45,44,2,0,1,44,57,100,1e-12,71.3
Cyphellophora_laciniata_CBS190.61_T,ERR1085136.42761,95.45,44,2,0,1,44,57,100,1e-12,71.3
Cyphellophora_laciniata_CBS190.61_T,ERR1085136.42625,95.45,44,2,0,1,44,57,100,1e-12,71.3
Cyphellophora_laciniata_CBS190.61_T,ERR1085136.42578,95.45,44,2,0,1,44,57,100,1e-12,71.3
Cyphellophora_laciniata_CBS190.61_T,ERR1085136.41924,95.45,44,2,0,1,44,57,100,1e-12,71.3
Cyphellophora_laciniata_CBS190.61_T,ERR1085136.41673,95.45,44,2,0,1,44,57,100,1e-12,71.3
Cyphellophora_laciniata_CBS190.61_T,ERR1085136.41307,95.45,44,2,0,1,44,57,100,1e-12,71.3
Cyphellophora_laciniata_CBS190.61_T,ERR1085136.40662,95.45,44,2,0,1,44,57,100,1e-12,71.3
Cyphellophora_laciniata_CBS190.61_T,ERR1085136.40656,95.45,44,2,0,1,44,57,100,1e-12,71.3
Cyphellophora_laciniata_CBS190.61_T,ERR1085136.40148,95.45,44,2,0,1,44,57,100,1e-12,71.3
Cyphellophora_laciniata_CBS190.61_T,ERR1085136.39881,95.45,44,2,0,1,44,57,100,1e-12,71.3
Cyphellophora_laciniata_CBS190.61_T,ERR1085136.39880,95.45,44,2,0,1,44,57,100,1e-12,71.3
Cyphellophora_laciniata_CBS190.61_T,ERR1085136.39867,95.45,44,2,0,1,44,57,100,1e-12,71.3
Cyphellophora_laciniata_CBS190.61_T,ERR1085136.39694,95.45,44,2,0,1,44,57,100,1e-12,71.3
Cyphellophora_laciniata_CBS190.61_T,ERR1085136.39424,95.45,44,2,0,1,44,57,100,1e-12,71.3
Cyphellophora_laciniata_CBS190.61_T,ERR1085136.38883,95.45,44,2,0,1,44,57,100,1e-12,71.3
Cyphellophora_laciniata_CBS190.61_T,ERR1085136.38852,95.45,44,2,0,1,44,57,100,1e-12,71.3
Cyphellophora_laciniata_CBS190.61_T,ERR1085136.38739,95.45,44,2,0,1,44,57,100,1e-12,71.3
Cyphellophora_laciniata_CBS190.61_T,ERR1085136.38738,95.45,44,2,0,1,44,57,100,1e-12,71.3
Cyphellophora_laciniata_CBS190.61_T,ERR1085136.38503,95.45,44,2,0,1,44,57,100,1e-12,71.3
Cyphellophora_laciniata_CBS190.61_T,ERR1085136.38129,95.45,44,2,0,1,44,57,100,1e-12,71.3
Cyphellophora_laciniata_CBS190.61_T,ERR1085136.38091,95.45,44,2,0,1,44,57,100,1e-12,71.3
Cyphellophora_laciniata_CBS190.61_T,ERR1085136.37956,95.45,44,2,0,1,44,57,100,1e-12,71.3
Cyphellophora_laciniata_CBS190.61_T,ERR1085136.37882,95.45,44,2,0,1,44,57,100,1e-12,71.3
Cyphellophora_laciniata_CBS190.61_T,ERR1085136.37704,95.45,44,2,0,1,44,57,100,1e-12,71.3
Cyphellophora_laciniata_CBS190.61_T,ERR1085136.37247,95.45,44,2,0,1,44,57,100,1e-12,71.3
Cyphellophora_laciniata_CBS190.61_T,ERR1085136.37183,95.45,44,2,0,1,44,57,100,1e-12,71.3
Cyphellophora_laciniata_CBS190.61_T,ERR1085136.36539,95.45,44,2,0,1,44,57,100,1e-12,71.3
Cyphellophora_laciniata_CBS190.61_T,ERR1085136.36145,95.45,44,2,0,1,44,57,100,1e-12,71.3
Cyphellophora_laciniata_CBS190.61_T,ERR1085136.36019,95.45,44,2,0,1,44,57,100,1e-12,71.3
Cyphellophora_laciniata_CBS190.61_T,ERR1085136.34970,95.45,44,2,0,1,44,57,100,1e-12,71.3
Cyphellophora_laciniata_CBS190.61_T,ERR1085136.34802,95.45,44,2,0,1,44,57,100,1e-12,71.3
Cyphellophora_laciniata_CBS190.61_T,ERR1085136.34801,95.45,44,2,0,1,44,57,100,1e-12,71.3
Cyphellophora_laciniata_CBS190.61_T,ERR1085136.34061,95.45,44,2,0,1,44,57,100,1e-12,71.3
Cyphellophora_laciniata_CBS190.61_T,ERR1085136.33982,95.45,44,2,0,1,44,57,100,1e-12,71.3
Cyphellophora_laciniata_CBS190.61_T,ERR1085136.33807,95.45,44,2,0,1,44,57,100,1e-12,71.3
Cyphellophora_laciniata_CBS190.61_T,ERR1085136.31812,95.45,44,2,0,1,44,57,100,1e-12,71.3
Cyphellophora_laciniata_CBS190.61_T,ERR1085136.31442,95.45,44,2,0,1,44,57,100,1e-12,71.3
Cyphellophora_laciniata_CBS190.61_T,ERR1085136.31367,95.45,44,2,0,1,44,57,100,1e-12,71.3
Cyphellophora_laciniata_CBS190.61_T,ERR1085136.30956,95.45,44,2,0,1,44,57,100,1e-12,71.3
Cyphellophora_laciniata_CBS190.61_T,ERR1085136.30796,95.45,44,2,0,1,44,57,100,1e-12,71.3
Cyphellophora_laciniata_CBS190.61_T,ERR1085136.30759,95.45,44,2,0,1,44,57,100,1e-12,71.3
Cyphellophora_laciniata_CBS190.61_T,ERR1085136.30758,95.45,44,2,0,1,44,57,100,1e-12,71.3
Cyphellophora_laciniata_CBS190.61_T,ERR1085136.30705,95.45,44,2,0,1,44,57,100,1e-12,71.3
Cyphellophora_laciniata_CBS190.61_T,ERR1085136.30533,95.45,44,2,0,1,44,57,100,1e-12,71.3
Cyphellophora_laciniata_CBS190.61_T,ERR1085136.30153,95.45,44,2,0,1,44,57,100,1e-12,71.3
Cyphellophora_laciniata_CBS190.61_T,ERR1085136.29920,95.45,44,2,0,1,44,57,100,1e-12,71.3
Cyphellophora_laciniata_CBS190.61_T,ERR1085136.29919,95.45,44,2,0,1,44,57,100,1e-12,71.3
Cyphellophora_laciniata_CBS190.61_T,ERR1085136.29474,95.45,44,2,0,1,44,57,100,1e-12,71.3
Cyphellophora_laciniata_CBS190.61_T,ERR1085136.29400,95.45,44,2,0,1,44,57,100,1e-12,71.3
Cyphellophora_laciniata_CBS190.61_T,ERR1085136.29199,95.45,44,2,0,1,44,57,100,1e-12,71.3
Cyphellophora_laciniata_CBS190.61_T,ERR1085136.29047,95.45,44,2,0,1,44,57,100,1e-12,71.3
Cyphellophora_laciniata_CBS190.61_T,ERR1085136.28744,95.45,44,2,0,1,44,57,100,1e-12,71.3
Cyphellophora_laciniata_CBS190.61_T,ERR1085136.28281,95.45,44,2,0,1,44,57,100,1e-12,71.3
Cyphellophora_laciniata_CBS190.61_T,ERR1085136.28204,95.45,44,2,0,1,44,57,100,1e-12,71.3
Cyphellophora_laciniata_CBS190.61_T,ERR1085136.28150,95.45,44,2,0,1,44,57,100,1e-12,71.3
Cyphellophora_laciniata_CBS190.61_T,ERR1085136.27766,95.45,44,2,0,1,44,57,100,1e-12,71.3
Cyphellophora_laciniata_CBS190.61_T,ERR1085136.27485,95.45,44,2,0,1,44,57,100,1e-12,71.3
Cyphellophora_laciniata_CBS190.61_T,ERR1085136.27383,95.45,44,2,0,1,44,57,100,1e-12,71.3
Cyphellophora_laciniata_CBS190.61_T,ERR1085136.27108,95.45,44,2,0,1,44,57,100,1e-12,71.3
Cyphellophora_laciniata_CBS190.61_T,ERR1085136.26953,95.45,44,2,0,1,44,57,100,1e-12,71.3
Cyphellophora_laciniata_CBS190.61_T,ERR1085136.26638,95.45,44,2,0,1,44,57,100,1e-12,71.3
Cyphellophora_laciniata_CBS190.61_T,ERR1085136.26597,95.45,44,2,0,1,44,57,100,1e-12,71.3
Cyphellophora_laciniata_CBS190.61_T,ERR1085136.26424,95.45,44,2,0,1,44,57,100,1e-12,71.3
Cyphellophora_laciniata_CBS190.61_T,ERR1085136.26423,95.45,44,2,0,1,44,57,100,1e-12,71.3
Cyphellophora_laciniata_CBS190.61_T,ERR1085136.26355,95.45,44,2,0,1,44,57,100,1e-12,71.3
Cyphellophora_laciniata_CBS190.61_T,ERR1085136.26138,95.45,44,2,0,1,44,57,100,1e-12,71.3
Cyphellophora_laciniata_CBS190.61_T,ERR1085136.25980,95.45,44,2,0,1,44,57,100,1e-12,71.3
Cyphellophora_laciniata_CBS190.61_T,ERR1085136.25636,95.45,44,2,0,1,44,57,100,1e-12,71.3
Cyphellophora_laciniata_CBS190.61_T,ERR1085136.25635,95.45,44,2,0,1,44,57,100,1e-12,71.3
Cyphellophora_laciniata_CBS190.61_T,ERR1085136.24468,95.45,44,2,0,1,44,57,100,1e-12,71.3
Cyphellophora_laciniata_CBS190.61_T,ERR1085136.24000,95.45,44,2,0,1,44,57,100,1e-12,71.3
Cyphellophora_laciniata_CBS190.61_T,ERR1085136.21800,95.45,44,2,0,1,44,57,100,1e-12,71.3
Cyphellophora_laciniata_CBS190.61_T,ERR1085136.21559,95.45,44,2,0,1,44,57,100,1e-12,71.3
Cyphellophora_laciniata_CBS190.61_T,ERR1085136.21363,95.45,44,2,0,1,44,57,100,1e-12,71.3
Cyphellophora_laciniata_CBS190.61_T,ERR1085136.20869,95.45,44,2,0,1,44,57,100,1e-12,71.3
Cyphellophora_laciniata_CBS190.61_T,ERR1085136.20758,95.45,44,2,0,1,44,57,100,1e-12,71.3
Cyphellophora_laciniata_CBS190.61_T,ERR1085136.20621,95.45,44,2,0,1,44,57,100,1e-12,71.3
Cyphellophora_laciniata_CBS190.61_T,ERR1085136.20306,95.56,45,0,2,1,44,57,100,1e-12,71.3
Cyphellophora_laciniata_CBS190.61_T,ERR1085136.20303,95.45,44,2,0,1,44,57,100,1e-12,71.3
Cyphellophora_laciniata_CBS190.61_T,ERR1085136.20302,95.45,44,2,0,1,44,57,100,1e-12,71.3
Cyphellophora_laciniata_CBS190.61_T,ERR1085136.20272,95.45,44,2,0,1,44,57,100,1e-12,71.3
Cyphellophora_laciniata_CBS190.61_T,ERR1085136.20066,95.45,44,2,0,1,44,57,100,1e-12,71.3
Cyphellophora_laciniata_CBS190.61_T,ERR1085136.19918,95.45,44,2,0,1,44,57,100,1e-12,71.3
Cyphellophora_laciniata_CBS190.61_T,ERR1085136.19647,95.45,44,2,0,1,44,57,100,1e-12,71.3
Cyphellophora_laciniata_CBS190.61_T,ERR1085136.18820,95.45,44,2,0,1,44,57,100,1e-12,71.3
Cyphellophora_laciniata_CBS190.61_T,ERR1085136.18467,95.45,44,2,0,1,44,57,100,1e-12,71.3
Cyphellophora_laciniata_CBS190.61_T,ERR1085136.18448,95.45,44,2,0,1,44,57,100,1e-12,71.3
Cyphellophora_laciniata_CBS190.61_T,ERR1085136.17980,95.45,44,2,0,1,44,57,100,1e-12,71.3
Cyphellophora_laciniata_CBS190.61_T,ERR1085136.17451,95.45,44,2,0,1,44,57,100,1e-12,71.3
Cyphellophora_laciniata_CBS190.61_T,ERR1085136.17376,95.45,44,2,0,1,44,57,100,1e-12,71.3
Cyphellophora_laciniata_CBS190.61_T,ERR1085136.16441,95.45,44,2,0,1,44,57,100,1e-12,71.3
Cyphellophora_laciniata_CBS190.61_T,ERR1085136.16134,95.45,44,2,0,1,44,57,100,1e-12,71.3
Cyphellophora_laciniata_CBS190.61_T,ERR1085136.15949,95.45,44,2,0,1,44,57,100,1e-12,71.3
Cyphellophora_laciniata_CBS190.61_T,ERR1085136.15948,95.45,44,2,0,1,44,57,100,1e-12,71.3
Cyphellophora_laciniata_CBS190.61_T,ERR1085136.15629,95.45,44,2,0,1,44,57,100,1e-12,71.3
Cyphellophora_laciniata_CBS190.61_T,ERR1085136.15454,95.45,44,2,0,1,44,57,100,1e-12,71.3
Cyphellophora_laciniata_CBS190.61_T,ERR1085136.14760,95.45,44,2,0,1,44,57,100,1e-12,71.3
Cyphellophora_laciniata_CBS190.61_T,ERR1085136.14254,95.45,44,2,0,1,44,57,100,1e-12,71.3
Cyphellophora_laciniata_CBS190.61_T,ERR1085136.13871,95.45,44,2,0,1,44,57,100,1e-12,71.3
Cyphellophora_laciniata_CBS190.61_T,ERR1085136.13748,95.45,44,2,0,1,44,57,100,1e-12,71.3
Cyphellophora_laciniata_CBS190.61_T,ERR1085136.12736,95.45,44,2,0,1,44,57,100,1e-12,71.3
Cyphellophora_laciniata_CBS190.61_T,ERR1085136.12094,95.45,44,2,0,1,44,57,100,1e-12,71.3
Cyphellophora_laciniata_CBS190.61_T,ERR1085136.12031,95.45,44,2,0,1,44,57,100,1e-12,71.3
Cyphellophora_laciniata_CBS190.61_T,ERR1085136.10168,95.45,44,2,0,1,44,57,100,1e-12,71.3
Cyphellophora_laciniata_CBS190.61_T,ERR1085136.10158,95.45,44,2,0,1,44,57,100,1e-12,71.3
Cyphellophora_laciniata_CBS190.61_T,ERR1085136.10007,95.56,45,0,2,1,44,57,100,1e-12,71.3
Cyphellophora_laciniata_CBS190.61_T,ERR1085136.9147,95.45,44,2,0,1,44,57,100,1e-12,71.3
Cyphellophora_laciniata_CBS190.61_T,ERR1085136.9146,95.45,44,2,0,1,44,57,100,1e-12,71.3
Cyphellophora_laciniata_CBS190.61_T,ERR1085136.8897,95.45,44,2,0,1,44,57,100,1e-12,71.3
Cyphellophora_laciniata_CBS190.61_T,ERR1085136.6710,95.45,44,2,0,1,44,57,100,1e-12,71.3
Cyphellophora_laciniata_CBS190.61_T,ERR1085136.6709,95.45,44,2,0,1,44,57,100,1e-12,71.3
Cyphellophora_laciniata_CBS190.61_T,ERR1085136.6598,95.45,44,2,0,1,44,57,100,1e-12,71.3
Cyphellophora_laciniata_CBS190.61_T,ERR1085136.6456,95.45,44,2,0,1,44,57,100,1e-12,71.3
Cyphellophora_laciniata_CBS190.61_T,ERR1085136.6113,95.45,44,2,0,1,44,57,100,1e-12,71.3
Cyphellophora_laciniata_CBS190.61_T,ERR1085136.5818,95.45,44,2,0,1,44,57,100,1e-12,71.3
Cyphellophora_laciniata_CBS190.61_T,ERR1085136.5734,95.45,44,2,0,1,44,57,100,1e-12,71.3
Cyphellophora_laciniata_CBS190.61_T,ERR1085136.5730,95.45,44,2,0,1,44,57,100,1e-12,71.3
Cyphellophora_laciniata_CBS190.61_T,ERR1085136.5487,95.45,44,2,0,1,44,57,100,1e-12,71.3
Cyphellophora_laciniata_CBS190.61_T,ERR1085136.5419,95.45,44,2,0,1,44,57,100,1e-12,71.3
Cyphellophora_laciniata_CBS190.61_T,ERR1085136.5235,95.45,44,2,0,1,44,57,100,1e-12,71.3
Cyphellophora_laciniata_CBS190.61_T,ERR1085136.5234,95.45,44,2,0,1,44,57,100,1e-12,71.3
Cyphellophora_laciniata_CBS190.61_T,ERR1085136.4020,95.45,44,2,0,1,44,57,100,1e-12,71.3
Cyphellophora_laciniata_CBS190.61_T,ERR1085136.3824,95.45,44,2,0,1,44,57,100,1e-12,71.3
Cyphellophora_laciniata_CBS190.61_T,ERR1085136.3823,95.45,44,2,0,1,44,57,100,1e-12,71.3
Cyphellophora_laciniata_CBS190.61_T,ERR1085136.2699,95.45,44,2,0,1,44,57,100,1e-12,71.3
Cyphellophora_laciniata_CBS190.61_T,ERR1085136.2698,95.45,44,2,0,1,44,57,100,1e-12,71.3
Cyphellophora_laciniata_CBS190.61_T,ERR1085136.2344,95.45,44,2,0,1,44,57,100,1e-12,71.3
Cyphellophora_laciniata_CBS190.61_T,ERR1085136.1965,95.45,44,2,0,1,44,57,100,1e-12,71.3
Cyphellophora_laciniata_CBS190.61_T,ERR1085136.1319,95.45,44,2,0,1,44,57,100,1e-12,71.3
Cyphellophora_laciniata_CBS190.61_T,ERR1085136.1318,95.45,44,2,0,1,44,57,100,1e-12,71.3
Cyphellophora_laciniata_CBS190.61_T,ERR1085136.1216,95.45,44,2,0,1,44,57,100,1e-12,71.3
Cyphellophora_laciniata_CBS190.61_T,ERR1085136.1116,95.45,44,2,0,1,44,57,100,1e-12,71.3
Cyphellophora_laciniata_CBS190.61_T,ERR1085136.1115,95.45,44,2,0,1,44,57,100,1e-12,71.3
Cyphellophora_laciniata_CBS190.61_T,ERR1085136.726,95.45,44,2,0,1,44,57,100,1e-12,71.3
Cyphellophora_laciniata_CBS190.61_T,ERR1085136.191,95.45,44,2,0,1,44,57,100,1e-12,71.3
Cyphellophora_laciniata_CBS190.61_T,ERR1085136.10650,95.35,43,2,0,2,44,58,100,5e-12,69.4
Cyphellophora_laciniata_CBS190.61_T,ERR1085136.7359,100.00,37,0,0,1,37,57,93,5e-12,69.4
Cyphellophora_laciniata_CBS190.61_T,ERR1085136.60021,95.24,42,2,0,1,42,57,98,2e-11,67.6
Cyphellophora_laciniata_CBS190.61_T,ERR1085136.10577,95.24,42,2,0,1,42,57,98,2e-11,67.6
Cyphellophora_laciniata_CBS190.61_T,ERR1085136.10576,95.24,42,2,0,1,42,57,98,2e-11,67.6
Cyphellophora_laciniata_CBS190.61_T,ERR1085136.69782,93.18,44,3,0,1,44,57,100,6e-11,65.8
Cyphellophora_laciniata_CBS190.61_T,ERR1085136.69739,93.18,44,3,0,1,44,57,100,6e-11,65.8
Cyphellophora_laciniata_CBS190.61_T,ERR1085136.61755,93.18,44,3,0,1,44,57,100,6e-11,65.8
Cyphellophora_laciniata_CBS190.61_T,ERR1085136.60497,93.18,44,3,0,1,44,57,100,6e-11,65.8
Cyphellophora_laciniata_CBS190.61_T,ERR1085136.44701,93.18,44,3,0,1,44,57,100,6e-11,65.8
Cyphellophora_laciniata_CBS190.61_T,ERR1085136.43204,93.18,44,3,0,1,44,57,100,6e-11,65.8
Cyphellophora_laciniata_CBS190.61_T,ERR1085136.42675,95.12,41,2,0,4,44,60,100,6e-11,65.8
Cyphellophora_laciniata_CBS190.61_T,ERR1085136.31639,93.18,44,3,0,1,44,57,100,6e-11,65.8
Cyphellophora_laciniata_CBS190.61_T,ERR1085136.30852,93.18,44,3,0,1,44,57,100,6e-11,65.8
Cyphellophora_laciniata_CBS190.61_T,ERR1085136.20166,95.12,41,2,0,4,44,60,100,6e-11,65.8
Cyphellophora_laciniata_CBS190.61_T,ERR1085136.19967,93.18,44,3,0,1,44,57,100,6e-11,65.8
Cyphellophora_laciniata_CBS190.61_T,ERR1085136.18314,93.18,44,3,0,1,44,57,100,6e-11,65.8
Cyphellophora_laciniata_CBS190.61_T,ERR1085136.15282,93.18,44,3,0,1,44,57,100,6e-11,65.8
Cyphellophora_laciniata_CBS190.61_T,ERR1085136.3313,93.18,44,3,0,1,44,57,100,6e-11,65.8
Cyphellophora_laciniata_CBS190.61_T,ERR1085136.68136,95.00,40,2,0,1,40,57,96,2e-10,63.9
Cyphellophora_laciniata_CBS190.61_T,ERR1085136.65580,100.00,32,0,0,55,86,69,100,3e-09,60.2
Cyphellophora_laciniata_CBS190.61_T,ERR1085136.19966,92.50,40,3,0,1,40,57,96,1e-08,58.4
Cyphellophora_laciniata_CBS190.61_T,ERR1085136.18192,100.00,31,0,0,1,31,57,87,1e-08,58.4
