SONDA_E_E_xenobiotica,SRR1066275.440857,100.00,34,0,0,1,34,111,144,2e-10,63.9
SONDA_E_E_xenobiotica,SRR1066275.428238,100.00,34,0,0,1,34,111,144,2e-10,63.9
SONDA_E_E_xenobiotica,SRR1066275.420466,100.00,34,0,0,1,34,111,144,2e-10,63.9
SONDA_E_E_xenobiotica,SRR1066275.420449,100.00,34,0,0,1,34,111,144,2e-10,63.9
SONDA_E_E_xenobiotica,SRR1066275.418152,100.00,34,0,0,1,34,111,144,2e-10,63.9
SONDA_E_E_xenobiotica,SRR1066275.418135,100.00,34,0,0,1,34,111,144,2e-10,63.9
SONDA_E_E_xenobiotica,SRR1066275.416903,100.00,34,0,0,1,34,111,144,2e-10,63.9
SONDA_E_E_xenobiotica,SRR1066275.404836,100.00,34,0,0,1,34,111,144,2e-10,63.9
SONDA_E_E_xenobiotica,SRR1066275.404820,100.00,34,0,0,1,34,111,144,2e-10,63.9
SONDA_E_E_xenobiotica,SRR1066275.398161,100.00,34,0,0,1,34,111,144,2e-10,63.9
SONDA_E_E_xenobiotica,SRR1066275.398160,100.00,34,0,0,1,34,111,144,2e-10,63.9
SONDA_E_E_xenobiotica,SRR1066275.389310,100.00,34,0,0,1,34,111,144,2e-10,63.9
SONDA_E_E_xenobiotica,SRR1066275.388095,100.00,34,0,0,1,34,111,144,2e-10,63.9
SONDA_E_E_xenobiotica,SRR1066275.383779,100.00,34,0,0,1,34,111,144,2e-10,63.9
SONDA_E_E_xenobiotica,SRR1066275.380783,100.00,34,0,0,1,34,111,144,2e-10,63.9
SONDA_E_E_xenobiotica,SRR1066275.380645,100.00,34,0,0,1,34,111,144,2e-10,63.9
SONDA_E_E_xenobiotica,SRR1066275.378342,100.00,34,0,0,1,34,111,144,2e-10,63.9
SONDA_E_E_xenobiotica,SRR1066275.371697,100.00,34,0,0,1,34,111,144,2e-10,63.9
SONDA_E_E_xenobiotica,SRR1066275.366965,100.00,34,0,0,1,34,111,144,2e-10,63.9
SONDA_E_E_xenobiotica,SRR1066275.355643,100.00,34,0,0,1,34,111,144,2e-10,63.9
SONDA_E_E_xenobiotica,SRR1066275.353840,100.00,34,0,0,1,34,111,144,2e-10,63.9
SONDA_E_E_xenobiotica,SRR1066275.351501,100.00,34,0,0,1,34,111,144,2e-10,63.9
SONDA_E_E_xenobiotica,SRR1066275.349377,100.00,34,0,0,1,34,111,144,2e-10,63.9
SONDA_E_E_xenobiotica,SRR1066275.338951,100.00,34,0,0,1,34,111,144,2e-10,63.9
SONDA_E_E_xenobiotica,SRR1066275.338430,100.00,34,0,0,1,34,111,144,2e-10,63.9
SONDA_E_E_xenobiotica,SRR1066275.336868,100.00,34,0,0,1,34,110,143,2e-10,63.9
SONDA_E_E_xenobiotica,SRR1066275.333222,100.00,34,0,0,1,34,111,144,2e-10,63.9
SONDA_E_E_xenobiotica,SRR1066275.330453,100.00,34,0,0,1,34,111,144,2e-10,63.9
SONDA_E_E_xenobiotica,SRR1066275.313724,100.00,34,0,0,1,34,111,144,2e-10,63.9
SONDA_E_E_xenobiotica,SRR1066275.313700,100.00,34,0,0,1,34,111,144,2e-10,63.9
SONDA_E_E_xenobiotica,SRR1066275.305245,100.00,34,0,0,1,34,111,144,2e-10,63.9
SONDA_E_E_xenobiotica,SRR1066275.300071,100.00,34,0,0,1,34,111,144,2e-10,63.9
SONDA_E_E_xenobiotica,SRR1066275.280358,100.00,34,0,0,1,34,111,144,2e-10,63.9
SONDA_E_E_xenobiotica,SRR1066275.280355,100.00,34,0,0,1,34,111,144,2e-10,63.9
SONDA_E_E_xenobiotica,SRR1066275.264115,100.00,34,0,0,1,34,111,144,2e-10,63.9
SONDA_E_E_xenobiotica,SRR1066275.259280,100.00,34,0,0,1,34,111,144,2e-10,63.9
SONDA_E_E_xenobiotica,SRR1066275.256706,100.00,34,0,0,1,34,111,144,2e-10,63.9
SONDA_E_E_xenobiotica,SRR1066275.252852,100.00,34,0,0,1,34,111,144,2e-10,63.9
SONDA_E_E_xenobiotica,SRR1066275.218858,100.00,34,0,0,1,34,111,144,2e-10,63.9
SONDA_E_E_xenobiotica,SRR1066275.218854,100.00,34,0,0,1,34,111,144,2e-10,63.9
SONDA_E_E_xenobiotica,SRR1066275.206424,100.00,34,0,0,1,34,111,144,2e-10,63.9
SONDA_E_E_xenobiotica,SRR1066275.203192,100.00,34,0,0,1,34,111,144,2e-10,63.9
SONDA_E_E_xenobiotica,SRR1066275.202723,100.00,34,0,0,1,34,111,144,2e-10,63.9
SONDA_E_E_xenobiotica,SRR1066275.198832,100.00,34,0,0,1,34,111,144,2e-10,63.9
SONDA_E_E_xenobiotica,SRR1066275.191223,100.00,34,0,0,1,34,111,144,2e-10,63.9
SONDA_E_E_xenobiotica,SRR1066275.188129,100.00,34,0,0,1,34,111,144,2e-10,63.9
SONDA_E_E_xenobiotica,SRR1066275.188109,100.00,34,0,0,1,34,111,144,2e-10,63.9
SONDA_E_E_xenobiotica,SRR1066275.162242,100.00,34,0,0,1,34,111,144,2e-10,63.9
SONDA_E_E_xenobiotica,SRR1066275.162241,100.00,34,0,0,1,34,111,144,2e-10,63.9
SONDA_E_E_xenobiotica,SRR1066275.160323,100.00,34,0,0,1,34,111,144,2e-10,63.9
SONDA_E_E_xenobiotica,SRR1066275.150790,100.00,34,0,0,1,34,111,144,2e-10,63.9
SONDA_E_E_xenobiotica,SRR1066275.149347,100.00,34,0,0,1,34,111,144,2e-10,63.9
SONDA_E_E_xenobiotica,SRR1066275.141454,100.00,34,0,0,1,34,111,144,2e-10,63.9
SONDA_E_E_xenobiotica,SRR1066275.134566,100.00,34,0,0,1,34,111,144,2e-10,63.9
SONDA_E_E_xenobiotica,SRR1066275.128983,100.00,34,0,0,1,34,111,144,2e-10,63.9
SONDA_E_E_xenobiotica,SRR1066275.120491,100.00,34,0,0,1,34,111,144,2e-10,63.9
SONDA_E_E_xenobiotica,SRR1066275.120322,100.00,34,0,0,1,34,111,144,2e-10,63.9
SONDA_E_E_xenobiotica,SRR1066275.110633,100.00,34,0,0,1,34,111,144,2e-10,63.9
SONDA_E_E_xenobiotica,SRR1066275.104695,100.00,34,0,0,1,34,111,144,2e-10,63.9
SONDA_E_E_xenobiotica,SRR1066275.101634,100.00,34,0,0,1,34,111,144,2e-10,63.9
SONDA_E_E_xenobiotica,SRR1066275.100206,100.00,34,0,0,1,34,111,144,2e-10,63.9
SONDA_E_E_xenobiotica,SRR1066275.100203,100.00,34,0,0,1,34,111,144,2e-10,63.9
SONDA_E_E_xenobiotica,SRR1066275.94115,100.00,34,0,0,1,34,111,144,2e-10,63.9
SONDA_E_E_xenobiotica,SRR1066275.93016,100.00,34,0,0,1,34,111,144,2e-10,63.9
SONDA_E_E_xenobiotica,SRR1066275.93013,100.00,34,0,0,1,34,111,144,2e-10,63.9
SONDA_E_E_xenobiotica,SRR1066275.80213,100.00,34,0,0,1,34,111,144,2e-10,63.9
SONDA_E_E_xenobiotica,SRR1066275.80188,100.00,34,0,0,1,34,111,144,2e-10,63.9
SONDA_E_E_xenobiotica,SRR1066275.77657,100.00,34,0,0,1,34,111,144,2e-10,63.9
SONDA_E_E_xenobiotica,SRR1066275.70005,100.00,34,0,0,1,34,111,144,2e-10,63.9
SONDA_E_E_xenobiotica,SRR1066275.64999,100.00,34,0,0,1,34,111,144,2e-10,63.9
SONDA_E_E_xenobiotica,SRR1066275.64996,100.00,34,0,0,1,34,111,144,2e-10,63.9
SONDA_E_E_xenobiotica,SRR1066275.64146,100.00,34,0,0,1,34,111,144,2e-10,63.9
SONDA_E_E_xenobiotica,SRR1066275.53935,100.00,34,0,0,1,34,111,144,2e-10,63.9
SONDA_E_E_xenobiotica,SRR1066275.50864,100.00,34,0,0,1,34,111,144,2e-10,63.9
SONDA_E_E_xenobiotica,SRR1066275.49343,100.00,34,0,0,1,34,111,144,2e-10,63.9
SONDA_E_E_xenobiotica,SRR1066275.49330,100.00,34,0,0,1,34,111,144,2e-10,63.9
SONDA_E_E_xenobiotica,SRR1066275.27604,100.00,34,0,0,1,34,111,144,2e-10,63.9
SONDA_E_E_xenobiotica,SRR1066275.25467,100.00,34,0,0,1,34,111,144,2e-10,63.9
SONDA_E_E_xenobiotica,SRR1066275.25451,100.00,34,0,0,1,34,111,144,2e-10,63.9
SONDA_E_E_xenobiotica,SRR1066275.22326,100.00,34,0,0,1,34,111,144,2e-10,63.9
SONDA_E_E_xenobiotica,SRR1066275.19906,100.00,34,0,0,1,34,111,144,2e-10,63.9
SONDA_E_E_xenobiotica,SRR1066275.19898,100.00,34,0,0,1,34,111,144,2e-10,63.9
SONDA_E_E_xenobiotica,SRR1066275.19884,100.00,34,0,0,1,34,111,144,2e-10,63.9
SONDA_E_E_xenobiotica,SRR1066275.17057,100.00,34,0,0,1,34,111,144,2e-10,63.9
SONDA_E_E_xenobiotica,SRR1066275.6775,100.00,34,0,0,1,34,111,144,2e-10,63.9
SONDA_E_E_xenobiotica,SRR1066275.329319,100.00,32,0,0,1,32,111,142,2e-09,60.2
SONDA_E_E_xenobiotica,SRR1066275.110884,100.00,32,0,0,2,33,112,143,2e-09,60.2
SONDA_E_E_xenobiotica,SRR1066275.448930,100.00,31,0,0,4,34,114,144,9e-09,58.4
SONDA_E_E_xenobiotica,SRR1066275.448909,100.00,31,0,0,4,34,114,144,9e-09,58.4
SONDA_E_E_xenobiotica,SRR1066275.348645,100.00,31,0,0,4,34,114,144,9e-09,58.4
SONDA_E_E_xenobiotica,SRR1066275.114681,100.00,31,0,0,4,34,114,144,9e-09,58.4
