SONDA_E_E_xenobiotica,SRR1066179.164328,100.00,33,0,0,1,33,96,128,3e-10,62.1
SONDA_E_E_xenobiotica,SRR1066179.164327,100.00,33,0,0,1,33,96,128,3e-10,62.1
SONDA_E_E_xenobiotica,SRR1066179.164323,100.00,33,0,0,1,33,96,128,3e-10,62.1
SONDA_E_E_xenobiotica,SRR1066179.164322,100.00,33,0,0,1,33,96,128,3e-10,62.1
