SONDA_E_E_xenobiotica,SRR1066222.379192,100.00,34,0,0,1,34,111,144,2e-10,63.9
SONDA_E_E_xenobiotica,SRR1066222.379191,100.00,34,0,0,1,34,111,144,2e-10,63.9
SONDA_E_E_xenobiotica,SRR1066222.379181,100.00,34,0,0,1,34,111,144,2e-10,63.9
SONDA_E_E_xenobiotica,SRR1066222.302020,100.00,34,0,0,1,34,111,144,2e-10,63.9
SONDA_E_E_xenobiotica,SRR1066222.302019,100.00,34,0,0,1,34,111,144,2e-10,63.9
SONDA_E_E_xenobiotica,SRR1066222.302006,100.00,34,0,0,1,34,111,144,2e-10,63.9
SONDA_E_E_xenobiotica,SRR1066222.302003,100.00,34,0,0,1,34,111,144,2e-10,63.9
SONDA_E_E_xenobiotica,SRR1066222.276043,100.00,34,0,0,1,34,111,144,2e-10,63.9
SONDA_E_E_xenobiotica,SRR1066222.276032,100.00,34,0,0,1,34,111,144,2e-10,63.9
SONDA_E_E_xenobiotica,SRR1066222.123696,100.00,34,0,0,1,34,111,144,2e-10,63.9
SONDA_E_E_xenobiotica,SRR1066222.69899,100.00,34,0,0,1,34,111,144,2e-10,63.9
SONDA_E_E_xenobiotica,SRR1066222.69895,100.00,34,0,0,1,34,111,144,2e-10,63.9
SONDA_E_E_xenobiotica,SRR1066222.69886,100.00,34,0,0,1,34,111,144,2e-10,63.9
SONDA_E_E_xenobiotica,SRR1066222.32714,100.00,34,0,0,1,34,111,144,2e-10,63.9
SONDA_E_E_xenobiotica,SRR1066222.32708,100.00,34,0,0,1,34,111,144,2e-10,63.9
SONDA_E_E_xenobiotica,SRR1066222.29809,100.00,34,0,0,1,34,111,144,2e-10,63.9
SONDA_E_E_xenobiotica,SRR1066222.2795,100.00,34,0,0,1,34,111,144,2e-10,63.9
SONDA_E_E_xenobiotica,SRR1066222.2783,100.00,34,0,0,1,34,111,144,2e-10,63.9
SONDA_E_E_xenobiotica,SRR1066222.2779,100.00,34,0,0,1,34,111,144,2e-10,63.9
SONDA_E_E_xenobiotica,SRR1066222.2777,100.00,34,0,0,1,34,111,144,2e-10,63.9
