SONDA_E_E_xenobiotica,SRR1066233.116489,100.00,34,0,0,1,34,111,144,6e-11,63.9
SONDA_E_E_xenobiotica,SRR1066233.116479,100.00,34,0,0,1,34,111,144,6e-11,63.9
SONDA_E_E_xenobiotica,SRR1066233.116047,100.00,34,0,0,1,34,111,144,6e-11,63.9
SONDA_E_E_xenobiotica,SRR1066233.76091,100.00,34,0,0,1,34,111,144,6e-11,63.9
SONDA_E_E_xenobiotica,SRR1066233.76086,100.00,34,0,0,1,34,111,144,6e-11,63.9
SONDA_E_E_xenobiotica,SRR1066233.71733,100.00,34,0,0,1,34,111,144,6e-11,63.9
SONDA_E_E_xenobiotica,SRR1066233.70967,100.00,34,0,0,1,34,111,144,6e-11,63.9
SONDA_E_E_xenobiotica,SRR1066233.57683,100.00,34,0,0,1,34,111,144,6e-11,63.9
SONDA_E_E_xenobiotica,SRR1066233.57681,100.00,34,0,0,1,34,111,144,6e-11,63.9
SONDA_E_E_xenobiotica,SRR1066233.56476,100.00,34,0,0,1,34,111,144,6e-11,63.9
SONDA_E_E_xenobiotica,SRR1066233.56472,100.00,34,0,0,1,34,111,144,6e-11,63.9
SONDA_E_E_xenobiotica,SRR1066233.42162,100.00,34,0,0,1,34,111,144,6e-11,63.9
SONDA_E_E_xenobiotica,SRR1066233.42157,100.00,34,0,0,1,34,111,144,6e-11,63.9
SONDA_E_E_xenobiotica,SRR1066233.40570,100.00,34,0,0,1,34,111,144,6e-11,63.9
SONDA_E_E_xenobiotica,SRR1066233.40566,100.00,34,0,0,1,34,111,144,6e-11,63.9
SONDA_E_E_xenobiotica,SRR1066233.39514,100.00,34,0,0,1,34,111,144,6e-11,63.9
SONDA_E_E_xenobiotica,SRR1066233.36484,100.00,34,0,0,1,34,111,144,6e-11,63.9
SONDA_E_E_xenobiotica,SRR1066233.36395,100.00,34,0,0,1,34,111,144,6e-11,63.9
SONDA_E_E_xenobiotica,SRR1066233.36392,100.00,34,0,0,1,34,111,144,6e-11,63.9
SONDA_E_E_xenobiotica,SRR1066233.6971,100.00,34,0,0,1,34,111,144,6e-11,63.9
