SONDA_C_chaetospira,SRR6513495.5613,100.00,39,0,0,1,39,138,100,4e-15,73.1
SONDA_C_chaetospira,SRR6513495.4962,100.00,39,0,0,1,39,138,100,4e-15,73.1
SONDA_C_chaetospira,SRR6513495.4163,100.00,39,0,0,1,39,138,100,4e-15,73.1
