SONDA_E_E_xenobiotica,SRR1066583.513503,100.00,34,0,0,1,34,111,144,2e-10,63.9
SONDA_E_E_xenobiotica,SRR1066583.295946,100.00,34,0,0,1,34,111,144,2e-10,63.9
SONDA_E_E_xenobiotica,SRR1066583.110069,100.00,34,0,0,1,34,111,144,2e-10,63.9
