SONDA_E_E_xenobiotica,SRR1066580.563298,100.00,34,0,0,1,34,88,121,2e-10,63.9
SONDA_E_E_xenobiotica,SRR1066580.563297,100.00,34,0,0,1,34,88,121,2e-10,63.9
SONDA_E_E_xenobiotica,SRR1066580.483946,100.00,34,0,0,1,34,87,120,2e-10,63.9
SONDA_E_E_xenobiotica,SRR1066580.356438,100.00,34,0,0,1,34,87,120,2e-10,63.9
SONDA_E_E_xenobiotica,SRR1066580.356416,100.00,34,0,0,1,34,87,120,2e-10,63.9
SONDA_E_E_xenobiotica,SRR1066580.356415,100.00,34,0,0,1,34,87,120,2e-10,63.9
SONDA_E_E_xenobiotica,SRR1066580.253618,100.00,34,0,0,1,34,87,120,2e-10,63.9
