Exophiala_equina_1_CBS119.23T,ERR2673931.349,100.00,38,0,0,1,38,168,205,8e-14,71.3
Exophiala_equina_1_CBS119.23T,ERR2673931.349,100.00,38,0,0,1,38,469,432,8e-14,71.3
Exophiala_equina_2_CBS122263,ERR2673931.17422,100.00,38,0,0,1,38,169,206,8e-14,71.3
Exophiala_equina_2_CBS122263,ERR2673931.17421,100.00,38,0,0,1,38,169,206,8e-14,71.3
Exophiala_equina_2_CBS122263,ERR2673931.17421,100.00,38,0,0,1,38,469,432,8e-14,71.3
Phaeoannelomyces_elegans_CBS110172,ERR2673931.349,100.00,38,0,0,1,38,168,205,8e-14,71.3
Phaeoannelomyces_elegans_CBS110172,ERR2673931.349,100.00,38,0,0,1,38,469,432,8e-14,71.3
