Exophiala_equina_1_CBS119.23T,ERR2673947.5568,100.00,38,0,0,1,38,169,206,6e-14,71.3
Exophiala_equina_1_CBS119.23T,ERR2673947.5568,100.00,38,0,0,1,38,469,432,6e-14,71.3
Exophiala_equina_1_CBS119.23T,ERR2673947.5567,100.00,38,0,0,1,38,169,206,6e-14,71.3
Exophiala_equina_1_CBS119.23T,ERR2673947.5567,100.00,38,0,0,1,38,469,432,6e-14,71.3
Phaeoannelomyces_elegans_CBS110172,ERR2673947.5568,100.00,38,0,0,1,38,169,206,6e-14,71.3
Phaeoannelomyces_elegans_CBS110172,ERR2673947.5568,100.00,38,0,0,1,38,469,432,6e-14,71.3
Phaeoannelomyces_elegans_CBS110172,ERR2673947.5567,100.00,38,0,0,1,38,169,206,6e-14,71.3
Phaeoannelomyces_elegans_CBS110172,ERR2673947.5567,100.00,38,0,0,1,38,469,432,6e-14,71.3
