Exophiala_equina_1_CBS119.23T,ERR2439041.46305,100.00,29,0,0,1,29,519,491,2e-08,54.7
Exophiala_equina_2_CBS122263,ERR2439041.39539,100.00,28,0,0,1,28,519,492,7e-08,52.8
Phaeoannelomyces_elegans_CBS110172,ERR2439041.46305,100.00,29,0,0,1,29,519,491,2e-08,54.7
