Exophiala_equina_1_CBS119.23T,ERR2438986.12544,100.00,38,0,0,1,38,519,482,1e-13,71.3
Exophiala_equina_2_CBS122263,ERR2438986.12330,100.00,38,0,0,1,38,519,482,1e-13,71.3
Exophiala_equina_2_CBS122263,ERR2438986.8856,97.30,37,1,0,1,37,519,483,2e-11,63.9
Phaeoannelomyces_elegans_CBS110172,ERR2438986.12544,100.00,38,0,0,1,38,519,482,1e-13,71.3
