Exophiala_equina_1_CBS119.23T,ERR2673991.25402,100.00,38,0,0,1,38,170,207,8e-14,71.3
Exophiala_equina_1_CBS119.23T,ERR2673991.25402,100.00,38,0,0,1,38,469,432,8e-14,71.3
Phaeoannelomyces_elegans_CBS110172,ERR2673991.25402,100.00,38,0,0,1,38,170,207,8e-14,71.3
Phaeoannelomyces_elegans_CBS110172,ERR2673991.25402,100.00,38,0,0,1,38,469,432,8e-14,71.3
