Exophiala_equina_1_CBS119.23T,ERR2439057.28962,100.00,33,0,0,1,33,522,490,7e-11,62.1
Exophiala_equina_2_CBS122263,ERR2439057.19523,96.97,33,1,0,1,33,519,487,3e-09,56.5
Phaeoannelomyces_elegans_CBS110172,ERR2439057.28962,100.00,33,0,0,1,33,522,490,7e-11,62.1
