Cyphellophora_laciniata_CBS190.61T,ERR2439058.3966,100.00,35,0,0,1,35,516,482,2e-12,65.8
Cyphellophora_suttonii_CBS449.91T,ERR2439058.3966,100.00,30,0,0,6,35,511,482,1e-09,56.5
Cyphellophora_vermispora_CBS228.86T,ERR2439058.3966,100.00,35,0,0,1,35,516,482,2e-12,65.8
Exophiala_equina_1_CBS119.23T,ERR2439058.6796,100.00,38,0,0,1,38,519,482,6e-14,71.3
Exophiala_equina_2_CBS122263,ERR2439058.13268,97.06,34,1,0,1,34,519,486,5e-10,58.4
Phaeoannelomyces_elegans_CBS110172,ERR2439058.6796,100.00,38,0,0,1,38,519,482,6e-14,71.3
