Exophiala_equina_1_CBS119.23T,ERR2673956.25807,100.00,38,0,0,1,38,169,206,8e-14,71.3
Exophiala_equina_1_CBS119.23T,ERR2673956.25060,100.00,38,0,0,1,38,169,206,8e-14,71.3
Exophiala_equina_1_CBS119.23T,ERR2673956.24264,100.00,38,0,0,1,38,169,206,8e-14,71.3
Exophiala_equina_1_CBS119.23T,ERR2673956.24262,100.00,38,0,0,1,38,169,206,8e-14,71.3
Exophiala_equina_1_CBS119.23T,ERR2673956.24262,100.00,38,0,0,1,38,469,432,8e-14,71.3
Exophiala_equina_1_CBS119.23T,ERR2673956.24080,100.00,38,0,0,1,38,169,206,8e-14,71.3
Exophiala_equina_1_CBS119.23T,ERR2673956.24080,94.44,36,2,0,3,38,467,432,2e-09,56.5
Exophiala_equina_1_CBS119.23T,ERR2673956.23395,100.00,38,0,0,1,38,169,206,8e-14,71.3
Exophiala_equina_1_CBS119.23T,ERR2673956.23324,100.00,38,0,0,1,38,469,432,8e-14,71.3
Exophiala_equina_1_CBS119.23T,ERR2673956.23324,97.37,38,1,0,1,38,169,206,4e-12,65.8
Exophiala_equina_1_CBS119.23T,ERR2673956.22997,100.00,38,0,0,1,38,169,206,8e-14,71.3
Exophiala_equina_1_CBS119.23T,ERR2673956.22978,100.00,38,0,0,1,38,170,207,8e-14,71.3
Exophiala_equina_1_CBS119.23T,ERR2673956.22978,100.00,38,0,0,1,38,469,432,8e-14,71.3
Exophiala_equina_1_CBS119.23T,ERR2673956.20151,100.00,38,0,0,1,38,169,206,8e-14,71.3
Exophiala_equina_1_CBS119.23T,ERR2673956.20151,100.00,38,0,0,1,38,469,432,8e-14,71.3
Exophiala_equina_1_CBS119.23T,ERR2673956.19027,100.00,38,0,0,1,38,169,206,8e-14,71.3
Exophiala_equina_1_CBS119.23T,ERR2673956.19027,100.00,38,0,0,1,38,474,437,8e-14,71.3
Exophiala_equina_1_CBS119.23T,ERR2673956.18161,100.00,38,0,0,1,38,168,205,8e-14,71.3
Exophiala_equina_1_CBS119.23T,ERR2673956.18161,100.00,38,0,0,1,38,469,432,8e-14,71.3
Exophiala_equina_1_CBS119.23T,ERR2673956.18160,100.00,38,0,0,1,38,168,205,8e-14,71.3
Exophiala_equina_1_CBS119.23T,ERR2673956.14989,100.00,38,0,0,1,38,169,206,8e-14,71.3
Exophiala_equina_1_CBS119.23T,ERR2673956.14988,100.00,38,0,0,1,38,169,206,8e-14,71.3
Exophiala_equina_1_CBS119.23T,ERR2673956.14988,100.00,38,0,0,1,38,469,432,8e-14,71.3
Exophiala_equina_1_CBS119.23T,ERR2673956.13919,100.00,38,0,0,1,38,169,206,8e-14,71.3
Exophiala_equina_1_CBS119.23T,ERR2673956.13919,100.00,38,0,0,1,38,469,432,8e-14,71.3
Exophiala_equina_1_CBS119.23T,ERR2673956.13918,100.00,38,0,0,1,38,169,206,8e-14,71.3
Exophiala_equina_1_CBS119.23T,ERR2673956.10557,100.00,38,0,0,1,38,169,206,8e-14,71.3
Exophiala_equina_1_CBS119.23T,ERR2673956.10556,100.00,38,0,0,1,38,169,206,8e-14,71.3
Exophiala_equina_1_CBS119.23T,ERR2673956.10556,100.00,38,0,0,1,38,469,432,8e-14,71.3
Exophiala_equina_1_CBS119.23T,ERR2673956.10184,100.00,38,0,0,1,38,169,206,8e-14,71.3
Exophiala_equina_1_CBS119.23T,ERR2673956.10184,100.00,38,0,0,1,38,469,432,8e-14,71.3
Exophiala_equina_1_CBS119.23T,ERR2673956.10095,100.00,38,0,0,1,38,168,205,8e-14,71.3
Exophiala_equina_1_CBS119.23T,ERR2673956.9288,100.00,38,0,0,1,38,169,206,8e-14,71.3
Exophiala_equina_1_CBS119.23T,ERR2673956.7941,100.00,38,0,0,1,38,469,432,8e-14,71.3
Exophiala_equina_1_CBS119.23T,ERR2673956.7941,97.37,38,1,0,1,38,169,206,4e-12,65.8
Exophiala_equina_1_CBS119.23T,ERR2673956.7939,100.00,38,0,0,1,38,169,206,8e-14,71.3
Exophiala_equina_1_CBS119.23T,ERR2673956.7939,100.00,38,0,0,1,38,469,432,8e-14,71.3
Exophiala_equina_1_CBS119.23T,ERR2673956.7119,100.00,38,0,0,1,38,169,206,8e-14,71.3
Exophiala_equina_1_CBS119.23T,ERR2673956.6319,100.00,38,0,0,1,38,168,205,8e-14,71.3
Exophiala_equina_1_CBS119.23T,ERR2673956.6319,100.00,38,0,0,1,38,469,432,8e-14,71.3
Exophiala_equina_1_CBS119.23T,ERR2673956.6318,100.00,38,0,0,1,38,168,205,8e-14,71.3
Exophiala_equina_1_CBS119.23T,ERR2673956.6318,100.00,38,0,0,1,38,469,432,8e-14,71.3
Exophiala_equina_1_CBS119.23T,ERR2673956.6317,100.00,38,0,0,1,38,168,205,8e-14,71.3
Exophiala_equina_1_CBS119.23T,ERR2673956.1276,100.00,38,0,0,1,38,169,206,8e-14,71.3
Exophiala_equina_1_CBS119.23T,ERR2673956.1276,100.00,38,0,0,1,38,469,432,8e-14,71.3
Exophiala_equina_1_CBS119.23T,ERR2673956.7120,97.37,38,1,0,1,38,169,206,4e-12,65.8
Exophiala_equina_2_CBS122263,ERR2673956.26269,100.00,38,0,0,1,38,169,206,8e-14,71.3
Exophiala_equina_2_CBS122263,ERR2673956.26269,100.00,38,0,0,1,38,469,432,8e-14,71.3
Exophiala_equina_2_CBS122263,ERR2673956.26268,100.00,38,0,0,1,38,169,206,8e-14,71.3
Exophiala_equina_2_CBS122263,ERR2673956.26268,100.00,38,0,0,1,38,469,432,8e-14,71.3
Exophiala_equina_2_CBS122263,ERR2673956.22997,100.00,38,0,0,1,38,469,432,8e-14,71.3
Exophiala_equina_2_CBS122263,ERR2673956.4579,100.00,38,0,0,1,38,169,206,8e-14,71.3
Exophiala_equina_2_CBS122263,ERR2673956.26267,97.37,38,1,0,1,38,469,432,4e-12,65.8
Phaeoannelomyces_elegans_CBS110172,ERR2673956.25807,100.00,38,0,0,1,38,169,206,8e-14,71.3
Phaeoannelomyces_elegans_CBS110172,ERR2673956.25060,100.00,38,0,0,1,38,169,206,8e-14,71.3
Phaeoannelomyces_elegans_CBS110172,ERR2673956.24264,100.00,38,0,0,1,38,169,206,8e-14,71.3
Phaeoannelomyces_elegans_CBS110172,ERR2673956.24262,100.00,38,0,0,1,38,169,206,8e-14,71.3
Phaeoannelomyces_elegans_CBS110172,ERR2673956.24262,100.00,38,0,0,1,38,469,432,8e-14,71.3
Phaeoannelomyces_elegans_CBS110172,ERR2673956.24080,100.00,38,0,0,1,38,169,206,8e-14,71.3
Phaeoannelomyces_elegans_CBS110172,ERR2673956.24080,94.44,36,2,0,3,38,467,432,2e-09,56.5
Phaeoannelomyces_elegans_CBS110172,ERR2673956.23395,100.00,38,0,0,1,38,169,206,8e-14,71.3
Phaeoannelomyces_elegans_CBS110172,ERR2673956.23324,100.00,38,0,0,1,38,469,432,8e-14,71.3
Phaeoannelomyces_elegans_CBS110172,ERR2673956.23324,97.37,38,1,0,1,38,169,206,4e-12,65.8
Phaeoannelomyces_elegans_CBS110172,ERR2673956.22997,100.00,38,0,0,1,38,169,206,8e-14,71.3
Phaeoannelomyces_elegans_CBS110172,ERR2673956.22978,100.00,38,0,0,1,38,170,207,8e-14,71.3
Phaeoannelomyces_elegans_CBS110172,ERR2673956.22978,100.00,38,0,0,1,38,469,432,8e-14,71.3
Phaeoannelomyces_elegans_CBS110172,ERR2673956.20151,100.00,38,0,0,1,38,169,206,8e-14,71.3
Phaeoannelomyces_elegans_CBS110172,ERR2673956.20151,100.00,38,0,0,1,38,469,432,8e-14,71.3
Phaeoannelomyces_elegans_CBS110172,ERR2673956.19027,100.00,38,0,0,1,38,169,206,8e-14,71.3
Phaeoannelomyces_elegans_CBS110172,ERR2673956.19027,100.00,38,0,0,1,38,474,437,8e-14,71.3
Phaeoannelomyces_elegans_CBS110172,ERR2673956.18161,100.00,38,0,0,1,38,168,205,8e-14,71.3
Phaeoannelomyces_elegans_CBS110172,ERR2673956.18161,100.00,38,0,0,1,38,469,432,8e-14,71.3
Phaeoannelomyces_elegans_CBS110172,ERR2673956.18160,100.00,38,0,0,1,38,168,205,8e-14,71.3
Phaeoannelomyces_elegans_CBS110172,ERR2673956.14989,100.00,38,0,0,1,38,169,206,8e-14,71.3
Phaeoannelomyces_elegans_CBS110172,ERR2673956.14988,100.00,38,0,0,1,38,169,206,8e-14,71.3
Phaeoannelomyces_elegans_CBS110172,ERR2673956.14988,100.00,38,0,0,1,38,469,432,8e-14,71.3
Phaeoannelomyces_elegans_CBS110172,ERR2673956.13919,100.00,38,0,0,1,38,169,206,8e-14,71.3
Phaeoannelomyces_elegans_CBS110172,ERR2673956.13919,100.00,38,0,0,1,38,469,432,8e-14,71.3
Phaeoannelomyces_elegans_CBS110172,ERR2673956.13918,100.00,38,0,0,1,38,169,206,8e-14,71.3
Phaeoannelomyces_elegans_CBS110172,ERR2673956.10557,100.00,38,0,0,1,38,169,206,8e-14,71.3
Phaeoannelomyces_elegans_CBS110172,ERR2673956.10556,100.00,38,0,0,1,38,169,206,8e-14,71.3
Phaeoannelomyces_elegans_CBS110172,ERR2673956.10556,100.00,38,0,0,1,38,469,432,8e-14,71.3
Phaeoannelomyces_elegans_CBS110172,ERR2673956.10184,100.00,38,0,0,1,38,169,206,8e-14,71.3
Phaeoannelomyces_elegans_CBS110172,ERR2673956.10184,100.00,38,0,0,1,38,469,432,8e-14,71.3
Phaeoannelomyces_elegans_CBS110172,ERR2673956.10095,100.00,38,0,0,1,38,168,205,8e-14,71.3
Phaeoannelomyces_elegans_CBS110172,ERR2673956.9288,100.00,38,0,0,1,38,169,206,8e-14,71.3
Phaeoannelomyces_elegans_CBS110172,ERR2673956.7941,100.00,38,0,0,1,38,469,432,8e-14,71.3
Phaeoannelomyces_elegans_CBS110172,ERR2673956.7941,97.37,38,1,0,1,38,169,206,4e-12,65.8
Phaeoannelomyces_elegans_CBS110172,ERR2673956.7939,100.00,38,0,0,1,38,169,206,8e-14,71.3
Phaeoannelomyces_elegans_CBS110172,ERR2673956.7939,100.00,38,0,0,1,38,469,432,8e-14,71.3
Phaeoannelomyces_elegans_CBS110172,ERR2673956.7119,100.00,38,0,0,1,38,169,206,8e-14,71.3
Phaeoannelomyces_elegans_CBS110172,ERR2673956.6319,100.00,38,0,0,1,38,168,205,8e-14,71.3
Phaeoannelomyces_elegans_CBS110172,ERR2673956.6319,100.00,38,0,0,1,38,469,432,8e-14,71.3
Phaeoannelomyces_elegans_CBS110172,ERR2673956.6318,100.00,38,0,0,1,38,168,205,8e-14,71.3
Phaeoannelomyces_elegans_CBS110172,ERR2673956.6318,100.00,38,0,0,1,38,469,432,8e-14,71.3
Phaeoannelomyces_elegans_CBS110172,ERR2673956.6317,100.00,38,0,0,1,38,168,205,8e-14,71.3
Phaeoannelomyces_elegans_CBS110172,ERR2673956.1276,100.00,38,0,0,1,38,169,206,8e-14,71.3
Phaeoannelomyces_elegans_CBS110172,ERR2673956.1276,100.00,38,0,0,1,38,469,432,8e-14,71.3
Phaeoannelomyces_elegans_CBS110172,ERR2673956.7120,97.37,38,1,0,1,38,169,206,4e-12,65.8
