Exophiala_equina_1_CBS119.23T,ERR2438989.10783,100.00,38,0,0,1,38,519,482,1e-13,71.3
Exophiala_equina_1_CBS119.23T,ERR2438989.13421,97.37,38,1,0,1,38,519,482,6e-12,65.8
Exophiala_equina_1_CBS119.23T,ERR2438989.12604,97.37,38,1,0,1,38,519,482,6e-12,65.8
Exophiala_equina_2_CBS122263,ERR2438989.21536,97.14,35,1,0,1,35,519,485,3e-10,60.2
Exophiala_equina_2_CBS122263,ERR2438989.10247,97.14,35,1,0,1,35,519,485,3e-10,60.2
Phaeoannelomyces_elegans_CBS110172,ERR2438989.10783,100.00,38,0,0,1,38,519,482,1e-13,71.3
Phaeoannelomyces_elegans_CBS110172,ERR2438989.13421,97.37,38,1,0,1,38,519,482,6e-12,65.8
Phaeoannelomyces_elegans_CBS110172,ERR2438989.12604,97.37,38,1,0,1,38,519,482,6e-12,65.8
