Cyphellophora_laciniata_CBS190.61T,ERR2673938.12455,100.00,35,0,0,1,35,165,199,3e-12,65.8
Cyphellophora_laciniata_CBS190.61T,ERR2673938.12455,100.00,35,0,0,1,35,466,432,3e-12,65.8
Cyphellophora_laciniata_CBS190.61T,ERR2673938.12454,100.00,35,0,0,1,35,165,199,3e-12,65.8
Cyphellophora_laciniata_CBS190.61T,ERR2673938.12454,97.14,35,1,0,1,35,466,432,1e-10,60.2
Cyphellophora_laciniata_CBS190.61T,ERR2673938.11553,100.00,35,0,0,1,35,165,199,3e-12,65.8
Cyphellophora_laciniata_CBS190.61T,ERR2673938.11553,97.14,35,1,0,1,35,466,432,1e-10,60.2
Cyphellophora_suttonii_CBS449.91T,ERR2673938.12455,100.00,30,0,0,6,35,170,199,2e-09,56.5
Cyphellophora_suttonii_CBS449.91T,ERR2673938.12455,100.00,30,0,0,6,35,461,432,2e-09,56.5
Cyphellophora_suttonii_CBS449.91T,ERR2673938.12454,100.00,30,0,0,6,35,170,199,2e-09,56.5
Cyphellophora_suttonii_CBS449.91T,ERR2673938.12454,100.00,30,0,0,6,35,461,432,2e-09,56.5
Cyphellophora_suttonii_CBS449.91T,ERR2673938.11553,100.00,30,0,0,6,35,170,199,2e-09,56.5
Cyphellophora_suttonii_CBS449.91T,ERR2673938.11553,100.00,30,0,0,6,35,461,432,2e-09,56.5
Cyphellophora_vermispora_CBS228.86T,ERR2673938.12455,100.00,35,0,0,1,35,165,199,3e-12,65.8
Cyphellophora_vermispora_CBS228.86T,ERR2673938.12455,100.00,35,0,0,1,35,466,432,3e-12,65.8
Cyphellophora_vermispora_CBS228.86T,ERR2673938.12454,100.00,35,0,0,1,35,165,199,3e-12,65.8
Cyphellophora_vermispora_CBS228.86T,ERR2673938.12454,97.14,35,1,0,1,35,466,432,1e-10,60.2
Cyphellophora_vermispora_CBS228.86T,ERR2673938.11553,100.00,35,0,0,1,35,165,199,3e-12,65.8
Cyphellophora_vermispora_CBS228.86T,ERR2673938.11553,97.14,35,1,0,1,35,466,432,1e-10,60.2
Exophiala_equina_1_CBS119.23T,ERR2673938.12049,100.00,38,0,0,1,38,169,206,7e-14,71.3
Exophiala_equina_1_CBS119.23T,ERR2673938.10999,100.00,38,0,0,1,38,169,206,7e-14,71.3
Exophiala_equina_1_CBS119.23T,ERR2673938.10999,97.37,38,1,0,1,38,469,432,3e-12,65.8
Exophiala_equina_1_CBS119.23T,ERR2673938.10998,100.00,38,0,0,1,38,169,206,7e-14,71.3
Exophiala_equina_1_CBS119.23T,ERR2673938.10998,100.00,38,0,0,1,38,469,432,7e-14,71.3
Exophiala_equina_1_CBS119.23T,ERR2673938.8813,100.00,38,0,0,1,38,169,206,7e-14,71.3
Exophiala_equina_1_CBS119.23T,ERR2673938.8813,100.00,38,0,0,1,38,469,432,7e-14,71.3
Exophiala_equina_1_CBS119.23T,ERR2673938.8812,100.00,38,0,0,1,38,469,432,7e-14,71.3
Exophiala_equina_1_CBS119.23T,ERR2673938.8812,100.00,37,0,0,1,37,169,205,3e-13,69.4
Exophiala_equina_1_CBS119.23T,ERR2673938.8611,100.00,38,0,0,1,38,169,206,7e-14,71.3
Exophiala_equina_1_CBS119.23T,ERR2673938.8611,100.00,38,0,0,1,38,469,432,7e-14,71.3
Exophiala_equina_2_CBS122263,ERR2673938.12084,100.00,38,0,0,1,38,169,206,7e-14,71.3
Exophiala_equina_2_CBS122263,ERR2673938.12084,100.00,38,0,0,1,38,469,432,7e-14,71.3
Exophiala_equina_2_CBS122263,ERR2673938.12082,100.00,38,0,0,1,38,169,206,7e-14,71.3
Exophiala_equina_2_CBS122263,ERR2673938.12082,100.00,38,0,0,1,38,469,432,7e-14,71.3
Phaeoannelomyces_elegans_CBS110172,ERR2673938.12049,100.00,38,0,0,1,38,169,206,7e-14,71.3
Phaeoannelomyces_elegans_CBS110172,ERR2673938.10999,100.00,38,0,0,1,38,169,206,7e-14,71.3
Phaeoannelomyces_elegans_CBS110172,ERR2673938.10999,97.37,38,1,0,1,38,469,432,3e-12,65.8
Phaeoannelomyces_elegans_CBS110172,ERR2673938.10998,100.00,38,0,0,1,38,169,206,7e-14,71.3
Phaeoannelomyces_elegans_CBS110172,ERR2673938.10998,100.00,38,0,0,1,38,469,432,7e-14,71.3
Phaeoannelomyces_elegans_CBS110172,ERR2673938.8813,100.00,38,0,0,1,38,169,206,7e-14,71.3
Phaeoannelomyces_elegans_CBS110172,ERR2673938.8813,100.00,38,0,0,1,38,469,432,7e-14,71.3
Phaeoannelomyces_elegans_CBS110172,ERR2673938.8812,100.00,38,0,0,1,38,469,432,7e-14,71.3
Phaeoannelomyces_elegans_CBS110172,ERR2673938.8812,100.00,37,0,0,1,37,169,205,3e-13,69.4
Phaeoannelomyces_elegans_CBS110172,ERR2673938.8611,100.00,38,0,0,1,38,169,206,7e-14,71.3
Phaeoannelomyces_elegans_CBS110172,ERR2673938.8611,100.00,38,0,0,1,38,469,432,7e-14,71.3
