Exophiala_equina_1_CBS119.23T,ERR2673953.22131,100.00,38,0,0,1,38,168,205,1e-13,71.3
Exophiala_equina_1_CBS119.23T,ERR2673953.22130,100.00,38,0,0,1,38,168,205,1e-13,71.3
Phaeoannelomyces_elegans_CBS110172,ERR2673953.22131,100.00,38,0,0,1,38,168,205,1e-13,71.3
Phaeoannelomyces_elegans_CBS110172,ERR2673953.22130,100.00,38,0,0,1,38,168,205,1e-13,71.3
