Exophiala_equina_1_CBS119.23T,ERR2439017.25532,100.00,38,0,0,1,38,519,482,2e-13,71.3
Exophiala_equina_1_CBS119.23T,ERR2439017.28386,97.30,37,1,0,1,37,519,483,4e-11,63.9
Exophiala_equina_1_CBS119.23T,ERR2439017.54838,100.00,28,0,0,1,28,519,492,8e-08,52.8
Phaeoannelomyces_elegans_CBS110172,ERR2439017.25532,100.00,38,0,0,1,38,519,482,2e-13,71.3
Phaeoannelomyces_elegans_CBS110172,ERR2439017.28386,97.30,37,1,0,1,37,519,483,4e-11,63.9
Phaeoannelomyces_elegans_CBS110172,ERR2439017.54838,100.00,28,0,0,1,28,519,492,8e-08,52.8
