Exophiala_nigra_CBS535.94_T,ERR476491.12502,91.21,91,7,1,259,349,1,90,6e-28,122
Exophiala_spinifera_CBS899.68_T,ERR476491.12502,90.11,91,8,1,256,346,1,90,2e-26,117
Exophiala_exophialae_CBS668.76_T,ERR476491.12502,90.11,91,8,1,257,347,1,90,2e-26,117
Exophiala_polymorpha_CBS138920_T,ERR476491.12502,90.11,91,8,1,359,449,1,90,3e-26,117
Exophiala_oligosperma_CBS725.88_T,ERR476491.12502,90.11,91,8,1,269,359,1,90,3e-26,117
Exophiala_jeanselmei_CBS507.90_T,ERR476491.12502,90.11,91,8,1,261,351,1,90,3e-26,117
Exophiala_bergeri_CBS353.52,ERR476491.12502,91.21,91,7,1,222,312,1,90,5e-28,122
Exophiala_moniliae_CBS520.76_T,ERR476491.12502,91.21,91,7,1,259,349,1,90,6e-28,122
Exophiala_pisciphila_CBS537.73_T,ERR476491.12502,91.21,91,7,1,262,352,1,90,6e-28,122
Exophiala_xenobiotica_CBS117642,ERR476491.12502,91.21,91,7,1,254,344,1,90,5e-28,122
Exophiala_brunnea_CBS,ERR476491.12502,90.11,91,8,1,290,380,1,90,3e-26,117
Exophiala_nishimurae_CBS101538_T,ERR476491.12502,90.11,91,8,1,268,358,1,90,3e-26,117
Exophiala_mesophila_CBS402.95_T,ERR476491.12502,90.11,91,8,1,252,342,1,90,3e-26,117
Exophiala_castellanii_CBS158.58_T,ERR476491.12502,90.11,91,8,1,250,340,1,90,3e-26,117
Exophiala_lecanii-corni_CBS123.33_T,ERR476491.12502,90.11,91,8,1,273,363,1,90,3e-26,117
Exophiala_dermatitidis_CBS748.88,ERR476491.25426,84.27,178,21,7,1162,1337,173,1,7e-41,167
Exophiala_dermatitidis_CBS748.88,ERR476491.12502,91.21,91,7,1,265,355,1,90,2e-27,122
Exophiala_angulospora_CBS482.92_T,ERR476491.12502,91.21,91,7,1,256,346,1,90,5e-28,122
Exophiala_opportunistica_CBS109811_T,ERR476491.12502,91.21,91,7,1,255,345,1,90,6e-28,122
Exophiala_salmonis_CBS157.67_T,ERR476491.12502,91.21,91,7,1,384,474,1,90,8e-28,122
Exophiala_aquamarina_CBS119918_T,ERR476491.12502,91.21,91,7,1,262,352,1,90,6e-28,122
Exophiala_cancerae_CBS120420_T,ERR476491.12502,91.21,91,7,1,277,367,1,90,6e-28,122
Exophiala_tremulae_CBS129355,ERR476491.12502,91.21,91,7,1,289,379,1,90,6e-28,122
Exophiala_equina_CBS116009,ERR476491.12502,91.21,91,7,1,255,345,1,90,6e-28,122
Exophiala_alcalophila_CBS520.82_T,ERR476491.12502,91.21,91,7,1,266,356,1,90,6e-28,122
Exophiala_crusticola_CBS119970_T,ERR476491.12502,91.21,91,7,1,271,361,1,90,5e-28,122
Rhinocladiella_atrovirens_CBS264.49,ERR476491.12502,90.11,91,8,1,297,387,1,90,3e-26,117
Rhinocladiella_basitona_CBS101460_T,ERR476491.12502,90.11,91,8,1,256,346,1,90,2e-26,117
Rhinocladiella_phaeophora_CBS496.78_T,ERR476491.12502,91.21,91,7,1,264,354,1,90,6e-28,122
Rhinocladiella_aquaspersa_CBS313.73_T,ERR476491.12502,91.21,91,7,1,258,348,1,90,6e-28,122
Rhinocladiella_fasciculata_CBS132.86_T,ERR476491.12502,91.01,89,7,1,274,362,1,88,7e-27,119
Rhinocladiella_anceps_CBS181.65_T,ERR476491.12502,90.11,91,8,1,256,346,1,90,3e-26,117
Rhinocladiella_mackenziei_CBS367.92,ERR476491.12502,91.21,91,7,1,245,335,1,90,6e-28,122
Veronaea_compacta_CBS268.75_T,ERR476491.12502,90.11,91,8,1,278,368,1,90,3e-26,117
Capronia_pilosella_AFTOL-ID657,ERR476491.12502,91.21,91,7,1,356,446,1,90,7e-28,122
Capronia_dactylotricha_DAOM208471_T,ERR476491.12502,91.21,91,7,1,258,348,1,90,7e-28,122
Capronia_kleinmondensis_CBS122671_T,ERR476491.12502,90.11,91,8,1,283,373,1,90,3e-26,117
Capronia_mansonii_CBS101.67_T,ERR476491.12502,91.21,91,7,1,269,359,1,90,7e-28,122
Capronia_munkii_DAOM216390_T,ERR476491.12502,91.21,91,7,1,269,359,1,90,7e-28,122
Capronia_coronata_ATCC56201_T,ERR476491.12502,91.21,91,7,1,257,347,1,90,6e-28,122
Capronia_parasitica_CBS123.88,ERR476491.12502,91.21,91,7,1,263,353,1,90,6e-28,122
Veronaea_japonica_CBS776.83_T,ERR476491.12502,91.21,91,7,1,291,381,1,90,6e-28,122
Thysanorea_papuana_CBS212.96_T,ERR476491.12502,91.21,91,7,1,265,355,1,90,6e-28,122
Capronia_acutiseta_ATCC56428_T,ERR476491.12502,91.21,91,7,1,258,348,1,90,6e-28,122
Fonsecaea_brasiliensis_CBS119710_T,ERR476491.12502,91.21,91,7,1,265,355,1,90,5e-28,122
Fonsecaea_pedrosoi_CBS271.37_T,ERR476491.12502,91.21,91,7,1,293,383,1,90,6e-28,122
Fonsecaea_multimorphosa_CBS980.96_T,ERR476491.12502,91.21,91,7,1,263,353,1,90,5e-28,122
Fonsecaea_minima_CBS125760_T,ERR476491.12502,91.21,91,7,1,259,349,1,90,5e-28,122
Fonsecaea_nubica_CBS269.64_T,ERR476491.12502,91.21,91,7,1,270,360,1,90,6e-28,122
Fonsecaea_monophora_CBS269.37_T,ERR476491.12502,91.21,91,7,1,271,361,1,90,6e-28,122
Fonsecaea_erecta_CBS125763_T,ERR476491.12502,91.21,91,7,1,254,344,1,90,5e-28,122
Fonsecaea_pugnacius_CBS139214_T,ERR476491.12502,91.21,91,7,1,263,353,1,90,5e-28,122
Cladophialophora_psammophila_CBS,ERR476491.12502,91.21,91,7,1,269,359,1,90,6e-28,122
Cladophialophora_devriesii_CBS,ERR476491.12502,91.21,91,7,1,265,355,1,90,5e-28,122
Cladophialophora_immunda_CBS834.96,ERR476491.12502,91.21,91,7,1,267,357,1,90,5e-28,122
Cladophialophora_arxii_CBS306.94_T,ERR476491.12502,91.21,91,7,1,269,359,1,90,5e-28,122
Cladophialophora_bantiana_CBS173.52,ERR476491.12502,91.21,91,7,1,263,353,1,90,5e-28,122
Cladophialophora_emmonsii_CBS102594,ERR476491.12502,91.21,91,7,1,254,344,1,90,5e-28,122
Cladophialophora_minourae_CBS556.83,ERR476491.12502,90.11,91,6,3,262,352,1,88,9e-26,115
Cladophialophora_australiensis_CBS112793,ERR476491.25426,83.05,177,21,8,1129,1302,173,3,2e-36,152
Cladophialophora_australiensis_CBS112793,ERR476491.12502,91.01,89,7,1,264,352,1,88,2e-26,119
Cladophialophora_potulentorum_CBS112222,ERR476491.25426,82.39,176,24,7,1131,1304,173,3,9e-35,147
Cladophialophora_potulentorum_CBS112222,ERR476491.12502,89.89,89,8,1,263,351,1,88,9e-25,113
Cladophialophora_matsushimae_CMRP1198,ERR476491.12502,90.11,91,8,1,267,357,1,90,2e-26,117
Cladophialophora_mycetomatis_CBS122637,ERR476491.12502,90.11,91,8,1,252,342,1,90,2e-26,117
Cladophialophora_chaetospira_CBS127573,ERR476491.12502,91.21,91,7,1,658,748,1,90,9e-28,122
Cladophialophora_boppii_CBS126.86_T,ERR476491.12502,91.21,91,7,1,260,350,1,90,5e-28,122
Cladophialophora_abundans_CBS126736,ERR476491.12502,91.21,91,7,1,197,287,1,90,5e-28,122
Capronia_semi-immersa_CBS102234,ERR476491.12502,91.01,89,7,1,259,347,1,88,7e-27,119
Phialophora_americana_CBS400.67,ERR476491.25426,84.09,176,21,7,1123,1296,173,3,9e-40,163
Phialophora_americana_CBS400.67,ERR476491.12502,91.01,89,7,1,261,349,1,88,2e-26,119
Phialophora_verrucosa_CBS140325_T,ERR476491.12502,91.01,89,7,1,265,353,1,88,7e-27,119
Cladophialophora_samoensis_CBS259.83_T,ERR476491.12502,91.21,91,7,1,265,355,1,90,5e-28,122
Cladophialophora_carrionii_CBS260.83,ERR476491.12502,92.31,91,6,1,281,371,1,90,1e-29,128
Exophiala_palmae_UPCB86822_T,ERR476491.12502,91.21,91,7,1,224,314,1,90,5e-28,122
Cladophialophora_yegresii_CBS114405_T,ERR476491.12502,92.31,91,6,1,266,356,1,90,1e-29,128
Knufia_epidermidis_CBS120353_T,ERR476491.12502,89.01,91,9,1,264,354,1,90,1e-24,111
Arthrocladium_fulminans_CBS136243_T,ERR476491.12502,90.22,92,6,3,259,349,1,90,3e-26,117
Cyphellophora_laciniata_CBS190.61_T,ERR476491.12502,90.00,90,8,1,353,441,1,90,1e-25,115
Cyphellophora_suttonii_CBS449.91,ERR476491.12502,90.00,90,8,1,256,344,1,90,9e-26,115
Cyphellophora_pauciseptata_CBS284.85_T,ERR476491.12502,90.00,90,8,1,267,355,1,90,9e-26,115
Cyphellophora_pluriseptata_CBS286.85_T,ERR476491.12502,88.89,90,9,1,272,360,1,90,4e-24,110
Phialophora_europaea_CBS101466,ERR476491.12502,88.89,90,9,1,262,350,1,90,4e-24,110
Phialophora_ambigua_CBS235.93,ERR476491.12502,88.89,90,9,1,259,347,1,90,4e-24,110
Cladophialophora_modesta_CBS985.96_T,ERR476491.12502,90.11,91,8,1,256,346,1,90,3e-26,117
