Exophiala_nigra_CBS535.94_T,ERR476489.35924,91.46,164,12,2,212,375,1,162,1e-58,224
Exophiala_nigra_CBS535.94_T,ERR476489.13888,96.63,89,2,1,226,314,88,1,2e-35,147
Exophiala_spinifera_CBS899.68_T,ERR476489.35924,89.39,179,15,4,209,387,1,175,3e-58,222
Exophiala_spinifera_CBS899.68_T,ERR476489.13888,95.51,89,3,1,223,311,88,1,9e-34,141
Exophiala_exophialae_CBS668.76_T,ERR476489.35924,89.39,179,15,4,210,388,1,175,3e-58,222
Exophiala_exophialae_CBS668.76_T,ERR476489.13888,95.51,89,3,1,224,312,88,1,9e-34,141
Exophiala_polymorpha_CBS138920_T,ERR476489.35924,89.39,179,15,4,312,490,1,175,4e-58,222
Exophiala_polymorpha_CBS138920_T,ERR476489.13888,95.51,89,3,1,326,414,88,1,1e-33,141
Exophiala_polymorpha_CBS138920_T,ERR476489.10619,100.00,37,0,0,644,680,141,177,6e-12,69.4
Exophiala_polymorpha_CBS138920_T,ERR476489.56397,100.00,35,0,0,644,678,26,60,7e-11,65.8
Exophiala_polymorpha_CBS138920_T,ERR476489.23182,92.50,40,3,0,655,694,31,70,1e-08,58.4
Exophiala_polymorpha_CBS138920_T,ERR476489.81730,100.00,28,0,0,644,671,82,109,6e-07,52.8
Exophiala_oligosperma_CBS725.88_T,ERR476489.35924,89.39,179,15,4,222,400,1,175,3e-58,222
Exophiala_oligosperma_CBS725.88_T,ERR476489.13888,95.51,89,3,1,236,324,88,1,1e-33,141
Exophiala_jeanselmei_CBS507.90_T,ERR476489.35924,89.39,179,15,4,214,392,1,175,4e-58,222
Exophiala_jeanselmei_CBS507.90_T,ERR476489.13888,95.51,89,3,1,228,316,88,1,1e-33,141
Exophiala_jeanselmei_CBS507.90_T,ERR476489.10619,100.00,37,0,0,546,582,141,177,5e-12,69.4
Exophiala_jeanselmei_CBS507.90_T,ERR476489.56397,100.00,35,0,0,546,580,26,60,6e-11,65.8
Exophiala_jeanselmei_CBS507.90_T,ERR476489.23182,92.68,41,3,0,557,597,31,71,3e-09,60.2
Exophiala_jeanselmei_CBS507.90_T,ERR476489.81730,100.00,28,0,0,546,573,82,109,5e-07,52.8
Exophiala_bergeri_CBS353.52,ERR476489.35924,91.46,164,12,2,175,338,1,162,8e-59,224
Exophiala_bergeri_CBS353.52,ERR476489.13888,96.63,89,2,1,189,277,88,1,2e-35,147
Exophiala_moniliae_CBS520.76_T,ERR476489.35924,90.91,165,12,3,212,376,1,162,4e-57,219
Exophiala_moniliae_CBS520.76_T,ERR476489.13888,96.63,89,2,1,226,314,88,1,2e-35,147
Exophiala_pisciphila_CBS537.73_T,ERR476489.35924,89.94,179,14,4,215,393,1,175,8e-60,228
Exophiala_pisciphila_CBS537.73_T,ERR476489.13888,96.63,89,2,1,229,317,88,1,2e-35,147
Exophiala_pisciphila_CBS537.73_T,ERR476489.23182,84.85,66,7,3,543,606,7,71,2e-10,63.9
Exophiala_xenobiotica_CBS117642,ERR476489.35924,89.94,179,14,4,207,385,1,175,7e-60,228
Exophiala_xenobiotica_CBS117642,ERR476489.13888,96.63,89,2,1,221,309,88,1,2e-35,147
Exophiala_brunnea_CBS,ERR476489.35924,89.39,179,15,4,243,421,1,175,4e-58,222
Exophiala_brunnea_CBS,ERR476489.13888,96.63,89,2,1,257,345,88,1,2e-35,147
Exophiala_nishimurae_CBS101538_T,ERR476489.35924,89.39,179,15,4,221,399,1,175,4e-58,222
Exophiala_nishimurae_CBS101538_T,ERR476489.13888,95.51,89,3,1,235,323,88,1,1e-33,141
Exophiala_nishimurae_CBS101538_T,ERR476489.10619,100.00,37,0,0,553,589,141,177,5e-12,69.4
Exophiala_nishimurae_CBS101538_T,ERR476489.56397,100.00,35,0,0,553,587,26,60,6e-11,65.8
Exophiala_nishimurae_CBS101538_T,ERR476489.81730,100.00,28,0,0,553,580,82,109,5e-07,52.8
Exophiala_mesophila_CBS402.95_T,ERR476489.35924,90.85,164,13,2,205,368,1,162,5e-57,219
Exophiala_mesophila_CBS402.95_T,ERR476489.13888,96.63,89,2,1,219,307,88,1,2e-35,147
Exophiala_mesophila_CBS402.95_T,ERR476489.10619,100.00,37,0,0,552,588,141,177,5e-12,69.4
Exophiala_mesophila_CBS402.95_T,ERR476489.56397,100.00,35,0,0,552,586,26,60,7e-11,65.8
Exophiala_mesophila_CBS402.95_T,ERR476489.23182,92.68,41,3,0,563,603,31,71,3e-09,60.2
Exophiala_mesophila_CBS402.95_T,ERR476489.81730,100.00,28,0,0,552,579,82,109,5e-07,52.8
Exophiala_castellanii_CBS158.58_T,ERR476489.35924,90.85,164,13,2,203,366,1,162,5e-57,219
Exophiala_castellanii_CBS158.58_T,ERR476489.13888,96.63,89,2,1,217,305,88,1,2e-35,147
Exophiala_castellanii_CBS158.58_T,ERR476489.10619,100.00,37,0,0,551,587,141,177,5e-12,69.4
Exophiala_castellanii_CBS158.58_T,ERR476489.56397,100.00,35,0,0,551,585,26,60,7e-11,65.8
Exophiala_castellanii_CBS158.58_T,ERR476489.23182,92.68,41,3,0,562,602,31,71,3e-09,60.2
Exophiala_castellanii_CBS158.58_T,ERR476489.81730,100.00,28,0,0,551,578,82,109,5e-07,52.8
Exophiala_lecanii-corni_CBS123.33_T,ERR476489.35924,90.24,164,14,2,226,389,1,162,2e-55,213
Exophiala_lecanii-corni_CBS123.33_T,ERR476489.13888,96.63,89,2,1,240,328,88,1,2e-35,147
Exophiala_dermatitidis_CBS748.88,ERR476489.81262,94.00,150,9,0,852,1001,159,10,2e-59,228
Exophiala_dermatitidis_CBS748.88,ERR476489.35924,90.85,164,12,3,219,381,1,162,4e-56,217
Exophiala_dermatitidis_CBS748.88,ERR476489.9308,85.64,188,22,5,1206,1392,184,1,7e-49,193
Exophiala_dermatitidis_CBS748.88,ERR476489.74792,90.58,138,8,5,1306,1441,12,146,2e-44,178
Exophiala_dermatitidis_CBS748.88,ERR476489.13888,95.51,89,2,2,233,320,88,1,3e-33,141
Exophiala_dermatitidis_CBS748.88,ERR476489.16813,97.53,81,2,0,925,1005,1,81,9e-33,139
Exophiala_dermatitidis_CBS748.88,ERR476489.41287,91.09,101,9,0,825,925,10,110,3e-32,137
Exophiala_dermatitidis_CBS748.88,ERR476489.41809,100.00,61,0,0,1444,1504,1,61,6e-25,113
Exophiala_dermatitidis_CBS748.88,ERR476489.10619,100.00,37,0,0,577,613,141,177,1e-11,69.4
Exophiala_dermatitidis_CBS748.88,ERR476489.56397,100.00,35,0,0,577,611,26,60,2e-10,65.8
Exophiala_dermatitidis_CBS748.88,ERR476489.23182,92.68,41,3,0,588,628,31,71,7e-09,60.2
Exophiala_dermatitidis_CBS748.88,ERR476489.81730,100.00,28,0,0,577,604,82,109,1e-06,52.8
Exophiala_angulospora_CBS482.92_T,ERR476489.35924,92.07,164,11,2,209,372,1,162,2e-60,230
Exophiala_angulospora_CBS482.92_T,ERR476489.13888,96.63,89,2,1,223,311,88,1,2e-35,147
Exophiala_opportunistica_CBS109811_T,ERR476489.35924,89.94,179,14,4,208,386,1,175,7e-60,228
Exophiala_opportunistica_CBS109811_T,ERR476489.13888,96.63,89,2,1,222,310,88,1,2e-35,147
Exophiala_salmonis_CBS157.67_T,ERR476489.35924,89.94,179,14,4,337,515,1,175,1e-59,228
Exophiala_salmonis_CBS157.67_T,ERR476489.41210,89.34,122,13,0,1,122,185,64,2e-37,154
Exophiala_salmonis_CBS157.67_T,ERR476489.29689,89.34,122,13,0,1,122,165,44,2e-37,154
Exophiala_salmonis_CBS157.67_T,ERR476489.13888,96.63,89,2,1,351,439,88,1,3e-35,147
Exophiala_salmonis_CBS157.67_T,ERR476489.24354,88.89,90,10,0,33,122,113,24,1e-24,111
Exophiala_salmonis_CBS157.67_T,ERR476489.38424,93.55,62,2,2,1,61,67,7,1e-18,91.6
Exophiala_salmonis_CBS157.67_T,ERR476489.23182,84.85,66,7,3,663,726,7,71,3e-10,63.9
Exophiala_aquamarina_CBS119918_T,ERR476489.35924,89.44,180,14,5,215,394,1,175,3e-58,222
Exophiala_aquamarina_CBS119918_T,ERR476489.13888,96.63,89,2,1,229,317,88,1,2e-35,147
Exophiala_cancerae_CBS120420_T,ERR476489.35924,89.94,179,14,4,230,408,1,175,8e-60,228
Exophiala_cancerae_CBS120420_T,ERR476489.13888,96.63,89,2,1,244,332,88,1,2e-35,147
Exophiala_cancerae_CBS120420_T,ERR476489.23182,84.85,66,8,2,553,617,7,71,7e-11,65.8
Exophiala_tremulae_CBS129355,ERR476489.35924,89.94,179,14,4,242,420,1,175,8e-60,228
Exophiala_tremulae_CBS129355,ERR476489.13888,96.63,89,2,1,256,344,88,1,2e-35,147
Exophiala_equina_CBS116009,ERR476489.35924,89.94,179,14,4,208,386,1,175,7e-60,228
Exophiala_equina_CBS116009,ERR476489.13888,96.63,89,2,1,222,310,88,1,2e-35,147
Exophiala_alcalophila_CBS520.82_T,ERR476489.35924,89.44,180,14,5,219,398,1,175,3e-58,222
Exophiala_alcalophila_CBS520.82_T,ERR476489.13888,96.63,89,2,1,233,321,88,1,2e-35,147
Exophiala_crusticola_CBS119970_T,ERR476489.35924,91.46,164,12,2,224,387,1,162,9e-59,224
Exophiala_crusticola_CBS119970_T,ERR476489.13888,96.63,89,2,1,238,326,88,1,2e-35,147
Rhinocladiella_atrovirens_CBS264.49,ERR476489.35924,89.14,175,14,4,250,421,1,173,2e-55,213
Rhinocladiella_atrovirens_CBS264.49,ERR476489.13888,96.63,89,2,1,264,352,88,1,2e-35,147
Rhinocladiella_basitona_CBS101460_T,ERR476489.35924,89.39,179,15,4,209,387,1,175,3e-58,222
Rhinocladiella_basitona_CBS101460_T,ERR476489.13888,95.51,89,3,1,223,311,88,1,9e-34,141
Rhinocladiella_phaeophora_CBS496.78_T,ERR476489.35924,91.46,164,12,2,217,380,1,162,1e-58,224
Rhinocladiella_phaeophora_CBS496.78_T,ERR476489.13888,96.63,89,2,1,231,319,88,1,2e-35,147
Rhinocladiella_aquaspersa_CBS313.73_T,ERR476489.35924,91.46,164,12,2,211,374,1,162,1e-58,224
Rhinocladiella_aquaspersa_CBS313.73_T,ERR476489.13888,96.63,89,2,1,225,313,88,1,2e-35,147
Rhinocladiella_aquaspersa_CBS313.73_T,ERR476489.23182,92.68,41,2,1,559,598,31,71,1e-08,58.4
Rhinocladiella_fasciculata_CBS132.86_T,ERR476489.35924,90.30,165,13,3,227,391,1,162,2e-55,213
Rhinocladiella_fasciculata_CBS132.86_T,ERR476489.13888,96.63,89,2,1,241,329,88,1,2e-35,147
Rhinocladiella_anceps_CBS181.65_T,ERR476489.35924,90.24,164,14,2,209,372,1,162,2e-55,213
Rhinocladiella_anceps_CBS181.65_T,ERR476489.13888,96.63,89,2,1,223,311,88,1,2e-35,147
Rhinocladiella_mackenziei_CBS367.92,ERR476489.35924,91.72,157,10,3,198,353,1,155,6e-56,215
Rhinocladiella_mackenziei_CBS367.92,ERR476489.13888,96.63,89,2,1,212,300,88,1,2e-35,147
Veronaea_compacta_CBS268.75_T,ERR476489.35924,88.89,180,15,5,231,410,1,175,2e-56,217
Veronaea_compacta_CBS268.75_T,ERR476489.13888,96.63,89,2,1,245,333,88,1,2e-35,147
Capronia_pilosella_AFTOL-ID657,ERR476489.35924,91.46,164,12,2,309,472,1,162,1e-58,224
Capronia_pilosella_AFTOL-ID657,ERR476489.13888,96.63,89,2,1,323,411,88,1,3e-35,147
Capronia_pilosella_AFTOL-ID657,ERR476489.10619,100.00,37,0,0,645,681,141,177,6e-12,69.4
Capronia_pilosella_AFTOL-ID657,ERR476489.56397,100.00,35,0,0,645,679,26,60,7e-11,65.8
Capronia_pilosella_AFTOL-ID657,ERR476489.81730,100.00,28,0,0,645,672,82,109,6e-07,52.8
Capronia_dactylotricha_DAOM208471_T,ERR476489.35924,89.77,176,12,4,211,383,1,173,1e-57,220
Capronia_dactylotricha_DAOM208471_T,ERR476489.13888,96.63,89,2,1,225,313,88,1,2e-35,147
Capronia_dactylotricha_DAOM208471_T,ERR476489.23182,92.86,42,1,2,571,611,31,71,3e-09,60.2
Capronia_kleinmondensis_CBS122671_T,ERR476489.35924,89.14,175,14,4,236,407,1,173,2e-55,213
Capronia_kleinmondensis_CBS122671_T,ERR476489.13888,96.63,89,2,1,250,338,88,1,2e-35,147
Capronia_kleinmondensis_CBS122671_T,ERR476489.23182,92.86,42,1,2,577,617,31,71,3e-09,60.2
Capronia_mansonii_CBS101.67_T,ERR476489.35924,91.46,164,12,2,222,385,1,162,1e-58,224
Capronia_mansonii_CBS101.67_T,ERR476489.13888,96.63,89,2,1,236,324,88,1,2e-35,147
Capronia_mansonii_CBS101.67_T,ERR476489.10619,100.00,37,0,0,570,606,141,177,5e-12,69.4
Capronia_mansonii_CBS101.67_T,ERR476489.56397,100.00,35,0,0,570,604,26,60,7e-11,65.8
Capronia_mansonii_CBS101.67_T,ERR476489.23182,92.68,41,3,0,581,621,31,71,3e-09,60.2
Capronia_mansonii_CBS101.67_T,ERR476489.81730,100.00,28,0,0,570,597,82,109,6e-07,52.8
Capronia_munkii_DAOM216390_T,ERR476489.35924,91.46,164,12,2,222,385,1,162,1e-58,224
Capronia_munkii_DAOM216390_T,ERR476489.13888,96.63,89,2,1,236,324,88,1,2e-35,147
Capronia_munkii_DAOM216390_T,ERR476489.10619,95.65,46,1,1,562,606,132,177,4e-13,73.1
Capronia_munkii_DAOM216390_T,ERR476489.56397,100.00,35,0,0,570,604,26,60,7e-11,65.8
Capronia_munkii_DAOM216390_T,ERR476489.23182,92.68,41,3,0,581,621,31,71,3e-09,60.2
Capronia_munkii_DAOM216390_T,ERR476489.81730,100.00,28,0,0,570,597,82,109,6e-07,52.8
Capronia_coronata_ATCC56201_T,ERR476489.35924,92.07,164,11,2,210,373,1,162,2e-60,230
Capronia_coronata_ATCC56201_T,ERR476489.13888,96.63,89,2,1,224,312,88,1,2e-35,147
Capronia_coronata_ATCC56201_T,ERR476489.10619,100.00,37,0,0,541,577,141,177,5e-12,69.4
Capronia_coronata_ATCC56201_T,ERR476489.56397,100.00,35,0,0,541,575,26,60,7e-11,65.8
Capronia_coronata_ATCC56201_T,ERR476489.23182,92.68,41,3,0,552,592,31,71,3e-09,60.2
Capronia_coronata_ATCC56201_T,ERR476489.81730,100.00,28,0,0,541,568,82,109,5e-07,52.8
Capronia_parasitica_CBS123.88,ERR476489.35924,91.19,159,12,2,216,374,1,157,6e-56,215
Capronia_parasitica_CBS123.88,ERR476489.13888,96.63,89,2,1,230,318,88,1,2e-35,147
Veronaea_japonica_CBS776.83_T,ERR476489.35924,89.94,179,14,4,244,422,1,175,8e-60,228
Veronaea_japonica_CBS776.83_T,ERR476489.13888,96.63,89,2,1,258,346,88,1,2e-35,147
Thysanorea_papuana_CBS212.96_T,ERR476489.35924,89.94,179,14,4,218,396,1,175,7e-60,228
Thysanorea_papuana_CBS212.96_T,ERR476489.13888,96.63,89,2,1,232,320,88,1,2e-35,147
Capronia_acutiseta_ATCC56428_T,ERR476489.35924,91.19,159,11,3,212,369,1,157,2e-55,213
Capronia_acutiseta_ATCC56428_T,ERR476489.13888,95.51,89,2,2,226,313,88,1,1e-33,141
Capronia_acutiseta_ATCC56428_T,ERR476489.23182,92.86,42,1,2,551,591,31,71,3e-09,60.2
Fonsecaea_brasiliensis_CBS119710_T,ERR476489.35924,89.44,180,14,5,218,397,1,175,3e-58,222
Fonsecaea_brasiliensis_CBS119710_T,ERR476489.13888,96.63,89,2,1,232,320,88,1,2e-35,147
Fonsecaea_pedrosoi_CBS271.37_T,ERR476489.35924,90.91,165,12,3,246,410,1,162,5e-57,219
Fonsecaea_pedrosoi_CBS271.37_T,ERR476489.13888,96.63,89,2,1,260,348,88,1,2e-35,147
Fonsecaea_multimorphosa_CBS980.96_T,ERR476489.35924,89.44,180,14,5,216,395,1,175,3e-58,222
Fonsecaea_multimorphosa_CBS980.96_T,ERR476489.13888,96.63,89,2,1,230,318,88,1,2e-35,147
Fonsecaea_minima_CBS125760_T,ERR476489.35924,89.44,180,14,5,212,391,1,175,3e-58,222
Fonsecaea_minima_CBS125760_T,ERR476489.13888,96.63,89,2,1,226,314,88,1,2e-35,147
Fonsecaea_nubica_CBS269.64_T,ERR476489.35924,89.50,181,13,6,223,403,1,175,9e-59,224
Fonsecaea_nubica_CBS269.64_T,ERR476489.13888,96.63,89,2,1,237,325,88,1,2e-35,147
Fonsecaea_monophora_CBS269.37_T,ERR476489.35924,90.36,166,12,4,223,388,1,162,6e-56,215
Fonsecaea_erecta_CBS125763_T,ERR476489.35924,91.46,164,12,2,207,370,1,162,9e-59,224
Fonsecaea_erecta_CBS125763_T,ERR476489.13888,96.63,89,2,1,221,309,88,1,2e-35,147
Fonsecaea_pugnacius_CBS139214_T,ERR476489.35924,90.91,165,12,3,216,380,1,162,4e-57,219
Fonsecaea_pugnacius_CBS139214_T,ERR476489.13888,96.63,89,2,1,230,318,88,1,2e-35,147
Cladophialophora_psammophila_CBS,ERR476489.35924,91.46,164,12,2,222,385,1,162,9e-59,224
Cladophialophora_psammophila_CBS,ERR476489.13888,96.63,89,2,1,236,324,88,1,2e-35,147
Cladophialophora_devriesii_CBS,ERR476489.35924,89.44,180,14,5,218,397,1,175,3e-58,222
Cladophialophora_devriesii_CBS,ERR476489.13888,96.63,89,2,1,232,320,88,1,2e-35,147
Cladophialophora_immunda_CBS834.96,ERR476489.35924,89.44,180,14,5,220,399,1,175,3e-58,222
Cladophialophora_immunda_CBS834.96,ERR476489.13888,96.63,89,2,1,234,322,88,1,2e-35,147
Cladophialophora_arxii_CBS306.94_T,ERR476489.35924,91.67,156,11,2,222,377,1,154,6e-56,215
Cladophialophora_arxii_CBS306.94_T,ERR476489.13888,96.63,89,2,1,236,324,88,1,2e-35,147
Cladophialophora_bantiana_CBS173.52,ERR476489.35924,91.46,164,12,2,216,379,1,162,9e-59,224
Cladophialophora_bantiana_CBS173.52,ERR476489.13888,96.63,89,2,1,230,318,88,1,2e-35,147
Cladophialophora_emmonsii_CBS102594,ERR476489.35924,91.46,164,12,2,207,370,1,162,9e-59,224
Cladophialophora_emmonsii_CBS102594,ERR476489.13888,96.63,89,2,1,221,309,88,1,2e-35,147
Cladophialophora_minourae_CBS556.83,ERR476489.35924,88.55,166,15,4,215,380,1,162,6e-51,198
Cladophialophora_minourae_CBS556.83,ERR476489.13888,95.51,89,3,1,229,317,88,1,1e-33,141
Cladophialophora_australiensis_CBS112793,ERR476489.81262,93.33,150,10,0,822,971,159,10,9e-58,222
Cladophialophora_australiensis_CBS112793,ERR476489.35924,89.39,179,15,4,217,395,1,175,9e-58,222
Cladophialophora_australiensis_CBS112793,ERR476489.9308,84.21,190,21,8,1173,1359,184,1,7e-44,176
Cladophialophora_australiensis_CBS112793,ERR476489.74792,89.78,137,11,3,1273,1408,12,146,9e-43,172
Cladophialophora_australiensis_CBS112793,ERR476489.13888,96.63,89,2,1,231,319,88,1,5e-35,147
Cladophialophora_australiensis_CBS112793,ERR476489.41287,90.57,106,10,0,790,895,5,110,3e-33,141
Cladophialophora_australiensis_CBS112793,ERR476489.16813,96.20,79,3,0,895,973,1,79,6e-30,130
Cladophialophora_australiensis_CBS112793,ERR476489.41809,100.00,61,0,0,1411,1471,1,61,6e-25,113
Cladophialophora_potulentorum_CBS112222,ERR476489.81262,93.33,150,10,0,824,973,159,10,9e-58,222
Cladophialophora_potulentorum_CBS112222,ERR476489.35924,88.83,179,16,4,216,394,1,175,4e-56,217
Cladophialophora_potulentorum_CBS112222,ERR476489.9308,84.32,185,22,7,1179,1361,180,1,3e-43,174
Cladophialophora_potulentorum_CBS112222,ERR476489.74792,89.78,137,11,3,1275,1410,12,146,9e-43,172
Cladophialophora_potulentorum_CBS112222,ERR476489.13888,96.63,89,2,1,230,318,88,1,6e-35,147
Cladophialophora_potulentorum_CBS112222,ERR476489.41809,98.77,81,1,0,1413,1493,1,81,2e-34,145
Cladophialophora_potulentorum_CBS112222,ERR476489.41287,90.57,106,10,0,792,897,5,110,3e-33,141
Cladophialophora_potulentorum_CBS112222,ERR476489.16813,96.30,81,3,0,897,977,1,81,4e-31,134
Cladophialophora_matsushimae_CMRP1198,ERR476489.35924,89.94,179,14,4,220,398,1,175,6e-60,228
Cladophialophora_matsushimae_CMRP1198,ERR476489.13888,96.63,89,2,1,234,322,88,1,2e-35,147
Cladophialophora_mycetomatis_CBS122637,ERR476489.35924,89.94,179,14,4,205,383,1,175,7e-60,228
Cladophialophora_mycetomatis_CBS122637,ERR476489.13888,96.63,89,2,1,219,307,88,1,2e-35,147
Cladophialophora_chaetospira_CBS127573,ERR476489.35924,89.39,179,15,4,611,789,1,175,6e-58,222
Cladophialophora_chaetospira_CBS127573,ERR476489.13888,96.63,89,2,1,625,713,88,1,3e-35,147
Cladophialophora_boppii_CBS126.86_T,ERR476489.35924,91.41,163,12,2,213,375,1,161,3e-58,222
Cladophialophora_boppii_CBS126.86_T,ERR476489.13888,96.63,89,2,1,227,315,88,1,2e-35,147
Cladophialophora_abundans_CBS126736,ERR476489.35924,88.83,179,16,4,150,328,1,175,1e-56,217
Cladophialophora_abundans_CBS126736,ERR476489.13888,95.51,89,3,1,164,252,88,1,8e-34,141
Capronia_semi-immersa_CBS102234,ERR476489.35924,88.27,179,17,4,212,390,1,175,7e-55,211
Capronia_semi-immersa_CBS102234,ERR476489.13888,95.51,89,3,1,226,314,88,1,9e-34,141
Phialophora_americana_CBS400.67,ERR476489.81262,92.67,150,11,0,816,965,159,10,4e-56,217
Phialophora_americana_CBS400.67,ERR476489.35924,88.27,179,17,4,214,392,1,175,2e-54,211
Phialophora_americana_CBS400.67,ERR476489.9308,85.11,188,23,5,1167,1353,184,1,3e-47,187
Phialophora_americana_CBS400.67,ERR476489.74792,89.86,138,9,5,1267,1402,12,146,9e-43,172
Phialophora_americana_CBS400.67,ERR476489.41287,91.51,106,9,0,784,889,5,110,5e-35,147
Phialophora_americana_CBS400.67,ERR476489.13888,95.51,89,3,1,228,316,88,1,2e-33,141
Phialophora_americana_CBS400.67,ERR476489.41809,100.00,41,0,0,1405,1445,1,41,7e-14,76.8
Phialophora_verrucosa_CBS140325_T,ERR476489.35924,88.27,179,17,4,218,396,1,175,8e-55,211
Phialophora_verrucosa_CBS140325_T,ERR476489.13888,95.51,89,3,1,232,320,88,1,1e-33,141
Cladophialophora_samoensis_CBS259.83_T,ERR476489.35924,89.39,179,15,4,218,396,1,175,3e-58,222
Cladophialophora_samoensis_CBS259.83_T,ERR476489.13888,96.63,89,2,1,232,320,88,1,2e-35,147
Cladophialophora_carrionii_CBS260.83,ERR476489.35924,89.39,179,15,4,234,412,1,175,4e-58,222
Cladophialophora_carrionii_CBS260.83,ERR476489.13888,96.63,89,2,1,248,336,88,1,2e-35,147
Exophiala_palmae_UPCB86822_T,ERR476489.35924,91.46,164,12,2,177,340,1,162,9e-59,224
Exophiala_palmae_UPCB86822_T,ERR476489.13888,96.63,89,2,1,191,279,88,1,2e-35,147
Cladophialophora_yegresii_CBS114405_T,ERR476489.35924,89.39,179,15,4,219,397,1,175,3e-58,222
Cladophialophora_yegresii_CBS114405_T,ERR476489.13888,96.63,89,2,1,233,321,88,1,2e-35,147
Knufia_epidermidis_CBS120353_T,ERR476489.35924,90.57,159,13,2,217,375,1,157,3e-54,209
Knufia_epidermidis_CBS120353_T,ERR476489.13888,95.51,89,3,1,231,319,88,1,9e-34,141
Arthrocladium_fulminans_CBS136243_T,ERR476489.35924,89.94,159,14,2,212,370,1,157,1e-52,204
Arthrocladium_fulminans_CBS136243_T,ERR476489.13888,95.51,89,3,1,226,314,88,1,1e-33,141
Anthopsis_deltoidea_CBS263.77_T,ERR476489.35924,89.20,176,17,2,221,395,1,175,4e-57,219
Anthopsis_deltoidea_CBS263.77_T,ERR476489.13888,95.29,85,3,1,235,318,88,4,2e-31,134
Cyphellophora_laciniata_CBS190.61_T,ERR476489.35924,89.77,176,16,2,306,480,1,175,1e-58,224
Cyphellophora_laciniata_CBS190.61_T,ERR476489.13888,95.45,88,3,1,320,406,88,1,5e-33,139
Cyphellophora_laciniata_CBS190.61_T,ERR476489.29689,88.89,108,12,0,1,108,111,4,2e-31,134
Cyphellophora_laciniata_CBS190.61_T,ERR476489.41210,88.79,107,12,0,1,107,131,25,8e-31,132
Cyphellophora_laciniata_CBS190.61_T,ERR476489.24354,87.78,90,11,0,1,90,91,2,5e-23,106
Cyphellophora_laciniata_CBS190.61_T,ERR476489.10619,100.00,37,0,0,637,673,141,177,6e-12,69.4
Cyphellophora_laciniata_CBS190.61_T,ERR476489.56397,100.00,35,0,0,637,671,26,60,8e-11,65.8
Cyphellophora_laciniata_CBS190.61_T,ERR476489.23182,92.68,41,3,0,648,688,31,71,4e-09,60.2
Cyphellophora_laciniata_CBS190.61_T,ERR476489.81730,100.00,28,0,0,637,664,82,109,6e-07,52.8
Cyphellophora_suttonii_CBS449.91,ERR476489.35924,89.77,176,16,2,209,383,1,175,9e-59,224
Cyphellophora_suttonii_CBS449.91,ERR476489.13888,95.45,88,3,1,223,309,88,1,3e-33,139
Cyphellophora_pauciseptata_CBS284.85_T,ERR476489.35924,89.77,176,16,2,220,394,1,175,9e-59,224
Cyphellophora_pauciseptata_CBS284.85_T,ERR476489.13888,95.45,88,3,1,234,320,88,1,3e-33,139
Cyphellophora_pluriseptata_CBS286.85_T,ERR476489.35924,89.20,176,17,2,225,399,1,175,4e-57,219
Cyphellophora_pluriseptata_CBS286.85_T,ERR476489.13888,94.32,88,4,1,239,325,88,1,2e-31,134
Phialophora_europaea_CBS101466,ERR476489.35924,89.77,176,16,2,215,389,1,175,9e-59,224
Phialophora_europaea_CBS101466,ERR476489.13888,95.45,88,3,1,229,315,88,1,3e-33,139
Phialophora_ambigua_CBS235.93,ERR476489.35924,89.77,176,16,2,212,386,1,175,9e-59,224
Phialophora_ambigua_CBS235.93,ERR476489.13888,95.45,88,3,1,226,312,88,1,3e-33,139
Cladophialophora_modesta_CBS985.96_T,ERR476489.35924,89.89,178,15,3,209,386,1,175,3e-59,226
Cladophialophora_modesta_CBS985.96_T,ERR476489.13888,95.51,89,3,1,223,311,88,1,1e-33,141
Cladophialophora_modesta_CBS985.96_T,ERR476489.23182,92.68,41,3,0,532,572,31,71,3e-09,60.2
Cyphellophora_fusarioides_MUCL44033_T,ERR476489.35924,89.20,176,17,2,208,382,1,175,4e-57,219
Cyphellophora_fusarioides_MUCL44033_T,ERR476489.13888,95.29,85,3,1,222,305,88,4,2e-31,134
