Exophiala_nigra_CBS535.94_T,ERR476530.138972,96.55,87,2,1,235,321,1,86,7e-34,143
Exophiala_spinifera_CBS899.68_T,ERR476530.138972,95.40,87,3,1,232,318,1,86,3e-32,137
Exophiala_exophialae_CBS668.76_T,ERR476530.138972,95.40,87,3,1,233,319,1,86,3e-32,137
Exophiala_polymorpha_CBS138920_T,ERR476530.138972,95.40,87,3,1,335,421,1,86,4e-32,137
Exophiala_polymorpha_CBS138920_T,ERR476530.80458,97.22,36,1,0,659,694,132,97,2e-09,62.1
Exophiala_oligosperma_CBS725.88_T,ERR476530.138972,95.40,87,3,1,245,331,1,86,3e-32,137
Exophiala_jeanselmei_CBS507.90_T,ERR476530.138972,95.40,87,3,1,237,323,1,86,3e-32,137
Exophiala_jeanselmei_CBS507.90_T,ERR476530.80458,97.73,44,1,0,561,604,132,89,7e-14,76.8
Exophiala_bergeri_CBS353.52,ERR476530.138972,96.55,87,2,1,198,284,1,86,6e-34,143
Exophiala_moniliae_CBS520.76_T,ERR476530.138972,96.55,87,2,1,235,321,1,86,7e-34,143
Exophiala_pisciphila_CBS537.73_T,ERR476530.138972,96.55,87,2,1,238,324,1,86,7e-34,143
Exophiala_pisciphila_CBS537.73_T,ERR476530.80458,90.48,84,8,0,570,653,132,49,2e-24,111
Exophiala_xenobiotica_CBS117642,ERR476530.138972,96.55,87,2,1,230,316,1,86,6e-34,143
Exophiala_brunnea_CBS,ERR476530.138972,96.55,87,2,1,266,352,1,86,7e-34,143
Exophiala_brunnea_CBS,ERR476530.47013,100.00,39,0,0,1,39,98,60,1e-12,73.1
Exophiala_brunnea_CBS,ERR476530.134533,100.00,38,0,0,1,38,72,109,3e-12,71.3
Exophiala_nishimurae_CBS101538_T,ERR476530.138972,95.40,87,3,1,244,330,1,86,3e-32,137
Exophiala_mesophila_CBS402.95_T,ERR476530.138972,96.55,87,2,1,228,314,1,86,7e-34,143
Exophiala_mesophila_CBS402.95_T,ERR476530.80458,91.67,84,7,0,567,650,132,49,4e-26,117
Exophiala_castellanii_CBS158.58_T,ERR476530.138972,96.55,87,2,1,226,312,1,86,7e-34,143
Exophiala_castellanii_CBS158.58_T,ERR476530.80458,91.67,84,7,0,566,649,132,49,4e-26,117
Exophiala_lecanii-corni_CBS123.33_T,ERR476530.138972,96.55,87,2,1,249,335,1,86,7e-34,143
Exophiala_dermatitidis_CBS748.88,ERR476530.123399,88.72,195,17,5,1248,1441,2,192,1e-60,233
Exophiala_dermatitidis_CBS748.88,ERR476530.680,85.78,211,23,7,767,973,13,220,1e-55,217
Exophiala_dermatitidis_CBS748.88,ERR476530.140835,98.29,117,2,0,1366,1482,1,117,2e-52,206
Exophiala_dermatitidis_CBS748.88,ERR476530.73174,98.18,110,2,0,1395,1504,1,110,2e-48,193
Exophiala_dermatitidis_CBS748.88,ERR476530.80458,88.64,132,13,2,592,721,132,1,2e-38,159
Exophiala_dermatitidis_CBS748.88,ERR476530.138972,96.55,87,2,1,241,327,1,86,2e-33,143
Exophiala_angulospora_CBS482.92_T,ERR476530.138972,96.55,87,2,1,232,318,1,86,6e-34,143
Exophiala_opportunistica_CBS109811_T,ERR476530.138972,96.55,87,2,1,231,317,1,86,6e-34,143
Exophiala_salmonis_CBS157.67_T,ERR476530.138972,96.55,87,2,1,360,446,1,86,9e-34,143
Exophiala_salmonis_CBS157.67_T,ERR476530.80458,90.48,84,8,0,690,773,132,49,2e-24,111
Exophiala_salmonis_CBS157.67_T,ERR476530.47013,100.00,41,0,0,82,122,132,92,9e-14,76.8
Exophiala_aquamarina_CBS119918_T,ERR476530.138972,96.55,87,2,1,238,324,1,86,6e-34,143
Exophiala_cancerae_CBS120420_T,ERR476530.138972,96.55,87,2,1,253,339,1,86,7e-34,143
Exophiala_cancerae_CBS120420_T,ERR476530.80458,95.45,44,2,0,581,624,132,89,3e-12,71.3
Exophiala_tremulae_CBS129355,ERR476530.138972,96.55,87,2,1,265,351,1,86,7e-34,143
Exophiala_tremulae_CBS129355,ERR476530.47013,100.00,39,0,0,1,39,98,60,9e-13,73.1
Exophiala_tremulae_CBS129355,ERR476530.134533,100.00,38,0,0,1,38,72,109,3e-12,71.3
Exophiala_equina_CBS116009,ERR476530.138972,96.55,87,2,1,231,317,1,86,6e-34,143
Exophiala_alcalophila_CBS520.82_T,ERR476530.138972,96.55,87,2,1,242,328,1,86,6e-34,143
Exophiala_crusticola_CBS119970_T,ERR476530.138972,96.55,87,2,1,247,333,1,86,6e-34,143
Rhinocladiella_atrovirens_CBS264.49,ERR476530.138972,96.55,87,2,1,273,359,1,86,7e-34,143
Rhinocladiella_atrovirens_CBS264.49,ERR476530.47013,100.00,45,0,0,1,45,103,59,4e-16,84.2
Rhinocladiella_atrovirens_CBS264.49,ERR476530.134533,100.00,43,0,0,1,43,67,109,6e-15,80.5
Rhinocladiella_basitona_CBS101460_T,ERR476530.138972,95.40,87,3,1,232,318,1,86,3e-32,137
Rhinocladiella_phaeophora_CBS496.78_T,ERR476530.138972,96.55,87,2,1,240,326,1,86,7e-34,143
Rhinocladiella_aquaspersa_CBS313.73_T,ERR476530.138972,96.55,87,2,1,234,320,1,86,7e-34,143
Rhinocladiella_aquaspersa_CBS313.73_T,ERR476530.80458,90.80,87,8,0,563,649,131,45,4e-26,117
Rhinocladiella_fasciculata_CBS132.86_T,ERR476530.138972,96.55,87,2,1,250,336,1,86,7e-34,143
Rhinocladiella_fasciculata_CBS132.86_T,ERR476530.47013,100.00,28,0,0,1,28,86,59,1e-06,52.8
Rhinocladiella_anceps_CBS181.65_T,ERR476530.138972,96.55,87,2,1,232,318,1,86,6e-34,143
Rhinocladiella_mackenziei_CBS367.92,ERR476530.138972,96.55,87,2,1,221,307,1,86,7e-34,143
Veronaea_compacta_CBS268.75_T,ERR476530.138972,96.55,87,2,1,254,340,1,86,7e-34,143
Capronia_pilosella_AFTOL-ID657,ERR476530.138972,96.55,87,2,1,332,418,1,86,8e-34,143
Capronia_dactylotricha_DAOM208471_T,ERR476530.138972,96.55,87,2,1,234,320,1,86,7e-34,143
Capronia_dactylotricha_DAOM208471_T,ERR476530.80458,90.48,84,8,0,575,658,132,49,2e-24,111
Capronia_kleinmondensis_CBS122671_T,ERR476530.138972,96.55,87,2,1,259,345,1,86,8e-34,143
Capronia_kleinmondensis_CBS122671_T,ERR476530.80458,90.48,84,8,0,581,664,132,49,2e-24,111
Capronia_kleinmondensis_CBS122671_T,ERR476530.47013,100.00,31,0,0,1,31,89,59,3e-08,58.4
Capronia_kleinmondensis_CBS122671_T,ERR476530.134533,100.00,29,0,0,1,29,81,109,4e-07,54.7
Capronia_mansonii_CBS101.67_T,ERR476530.138972,96.55,87,2,1,245,331,1,86,8e-34,143
Capronia_mansonii_CBS101.67_T,ERR476530.80458,91.67,84,7,0,585,668,132,49,5e-26,117
Capronia_munkii_DAOM216390_T,ERR476530.138972,96.55,87,2,1,245,331,1,86,8e-34,143
Capronia_munkii_DAOM216390_T,ERR476530.80458,91.67,84,7,0,585,668,132,49,5e-26,117
Capronia_coronata_ATCC56201_T,ERR476530.138972,96.55,87,2,1,233,319,1,86,7e-34,143
Capronia_coronata_ATCC56201_T,ERR476530.80458,91.67,84,7,0,556,639,132,49,4e-26,117
Capronia_parasitica_CBS123.88,ERR476530.138972,96.55,87,2,1,239,325,1,86,7e-34,143
Veronaea_japonica_CBS776.83_T,ERR476530.138972,96.55,87,2,1,267,353,1,86,7e-34,143
Veronaea_japonica_CBS776.83_T,ERR476530.47013,100.00,38,0,0,1,38,97,60,3e-12,71.3
Veronaea_japonica_CBS776.83_T,ERR476530.134533,100.00,37,0,0,1,37,73,109,1e-11,69.4
Thysanorea_papuana_CBS212.96_T,ERR476530.138972,96.55,87,2,1,241,327,1,86,7e-34,143
Capronia_acutiseta_ATCC56428_T,ERR476530.138972,95.40,87,2,2,235,320,1,86,3e-32,137
Capronia_acutiseta_ATCC56428_T,ERR476530.80458,90.48,84,8,0,555,638,132,49,2e-24,111
Fonsecaea_brasiliensis_CBS119710_T,ERR476530.138972,96.55,87,2,1,241,327,1,86,6e-34,143
Fonsecaea_pedrosoi_CBS271.37_T,ERR476530.138972,96.55,87,2,1,269,355,1,86,7e-34,143
Fonsecaea_pedrosoi_CBS271.37_T,ERR476530.80458,95.45,44,2,0,602,645,132,89,4e-12,71.3
Fonsecaea_pedrosoi_CBS271.37_T,ERR476530.47013,100.00,30,0,0,1,30,89,60,1e-07,56.5
Fonsecaea_pedrosoi_CBS271.37_T,ERR476530.134533,100.00,29,0,0,1,29,81,109,4e-07,54.7
Fonsecaea_multimorphosa_CBS980.96_T,ERR476530.138972,96.55,87,2,1,239,325,1,86,6e-34,143
Fonsecaea_minima_CBS125760_T,ERR476530.138972,96.55,87,2,1,235,321,1,86,6e-34,143
Fonsecaea_nubica_CBS269.64_T,ERR476530.138972,96.55,87,2,1,246,332,1,86,7e-34,143
Fonsecaea_monophora_CBS269.37_T,ERR476530.138972,95.45,88,2,2,246,333,1,86,8e-33,139
Fonsecaea_erecta_CBS125763_T,ERR476530.138972,96.55,87,2,1,230,316,1,86,6e-34,143
Fonsecaea_pugnacius_CBS139214_T,ERR476530.138972,96.55,87,2,1,239,325,1,86,6e-34,143
Cladophialophora_psammophila_CBS,ERR476530.138972,96.55,87,2,1,245,331,1,86,6e-34,143
Cladophialophora_devriesii_CBS,ERR476530.138972,96.55,87,2,1,241,327,1,86,6e-34,143
Cladophialophora_immunda_CBS834.96,ERR476530.138972,96.55,87,2,1,243,329,1,86,6e-34,143
Cladophialophora_arxii_CBS306.94_T,ERR476530.138972,96.55,87,2,1,245,331,1,86,6e-34,143
Cladophialophora_bantiana_CBS173.52,ERR476530.138972,96.55,87,2,1,239,325,1,86,6e-34,143
Cladophialophora_emmonsii_CBS102594,ERR476530.138972,96.55,87,2,1,230,316,1,86,6e-34,143
Cladophialophora_minourae_CBS556.83,ERR476530.138972,95.40,87,3,1,238,324,1,86,3e-32,137
Cladophialophora_australiensis_CBS112793,ERR476530.123399,88.60,193,17,5,1217,1408,4,192,1e-59,230
Cladophialophora_australiensis_CBS112793,ERR476530.680,86.60,209,25,3,737,943,13,220,5e-59,228
Cladophialophora_australiensis_CBS112793,ERR476530.140835,98.28,116,2,0,1334,1449,2,117,8e-52,204
Cladophialophora_australiensis_CBS112793,ERR476530.73174,98.18,110,2,0,1362,1471,1,110,2e-48,193
Cladophialophora_australiensis_CBS112793,ERR476530.80458,87.88,132,13,2,563,691,132,1,3e-36,152
Cladophialophora_australiensis_CBS112793,ERR476530.138972,96.55,87,2,1,240,326,1,86,2e-33,143
Cladophialophora_potulentorum_CBS112222,ERR476530.123399,88.21,195,18,5,1217,1410,2,192,5e-59,228
Cladophialophora_potulentorum_CBS112222,ERR476530.73174,97.69,130,3,0,1364,1493,1,130,6e-58,224
Cladophialophora_potulentorum_CBS112222,ERR476530.680,85.58,208,29,1,739,945,13,220,1e-55,217
Cladophialophora_potulentorum_CBS112222,ERR476530.140835,98.28,116,2,0,1336,1451,2,117,8e-52,204
Cladophialophora_potulentorum_CBS112222,ERR476530.80458,87.88,132,13,2,565,693,132,1,3e-36,152
Cladophialophora_potulentorum_CBS112222,ERR476530.138972,96.55,87,2,1,239,325,1,86,2e-33,143
Cladophialophora_matsushimae_CMRP1198,ERR476530.138972,96.55,87,2,1,243,329,1,86,6e-34,143
Cladophialophora_mycetomatis_CBS122637,ERR476530.138972,96.55,87,2,1,228,314,1,86,6e-34,143
Cladophialophora_chaetospira_CBS127573,ERR476530.138972,96.55,87,2,1,634,720,1,86,1e-33,143
Cladophialophora_chaetospira_CBS127573,ERR476530.47013,100.00,31,0,0,379,409,90,60,4e-08,58.4
Cladophialophora_chaetospira_CBS127573,ERR476530.134533,100.00,30,0,0,379,408,80,109,1e-07,56.5
Cladophialophora_boppii_CBS126.86_T,ERR476530.138972,96.55,87,2,1,236,322,1,86,6e-34,143
Cladophialophora_abundans_CBS126736,ERR476530.138972,92.78,97,6,1,173,269,1,96,7e-33,139
Capronia_semi-immersa_CBS102234,ERR476530.138972,95.40,87,3,1,235,321,1,86,3e-32,137
Phialophora_americana_CBS400.67,ERR476530.123399,88.21,195,18,5,1209,1402,2,192,4e-59,228
Phialophora_americana_CBS400.67,ERR476530.680,85.65,209,27,3,731,937,13,220,1e-55,217
Phialophora_americana_CBS400.67,ERR476530.140835,98.29,117,2,0,1327,1443,1,117,2e-52,206
Phialophora_americana_CBS400.67,ERR476530.73174,97.78,90,2,0,1356,1445,1,90,2e-37,156
Phialophora_americana_CBS400.67,ERR476530.138972,95.40,87,3,1,237,323,1,86,8e-32,137
Phialophora_americana_CBS400.67,ERR476530.8976,100.00,50,0,0,573,622,1,50,2e-18,93.5
Phialophora_verrucosa_CBS140325_T,ERR476530.138972,95.40,87,3,1,241,327,1,86,3e-32,137
Cladophialophora_samoensis_CBS259.83_T,ERR476530.138972,93.81,97,5,1,241,337,1,96,2e-34,145
Cladophialophora_carrionii_CBS260.83,ERR476530.138972,96.55,87,2,1,257,343,1,86,7e-34,143
Exophiala_palmae_UPCB86822_T,ERR476530.138972,96.55,87,2,1,200,286,1,86,6e-34,143
Cladophialophora_yegresii_CBS114405_T,ERR476530.138972,96.55,87,2,1,242,328,1,86,6e-34,143
Knufia_epidermidis_CBS120353_T,ERR476530.138972,92.78,97,6,1,240,336,1,96,8e-33,139
Arthrocladium_fulminans_CBS136243_T,ERR476530.138972,95.40,87,3,1,235,321,1,86,3e-32,137
Anthopsis_deltoidea_CBS263.77_T,ERR476530.138972,94.19,86,4,1,244,328,1,86,5e-30,130
Cyphellophora_laciniata_CBS190.61_T,ERR476530.138972,92.71,96,6,1,329,423,1,96,4e-32,137
Cyphellophora_laciniata_CBS190.61_T,ERR476530.47013,100.00,74,0,0,28,101,132,59,4e-32,137
Cyphellophora_laciniata_CBS190.61_T,ERR476530.80458,92.86,84,6,0,652,735,132,49,1e-27,122
Cyphellophora_laciniata_CBS190.61_T,ERR476530.134533,96.55,58,2,0,42,99,52,109,7e-20,97.1
Cyphellophora_suttonii_CBS449.91,ERR476530.138972,92.71,96,6,1,232,326,1,96,3e-32,137
Cyphellophora_pauciseptata_CBS284.85_T,ERR476530.138972,92.71,96,6,1,243,337,1,96,3e-32,137
Cyphellophora_pluriseptata_CBS286.85_T,ERR476530.138972,92.71,96,6,1,248,342,1,96,3e-32,137
Phialophora_europaea_CBS101466,ERR476530.138972,92.71,96,6,1,238,332,1,96,3e-32,137
Phialophora_ambigua_CBS235.93,ERR476530.138972,92.71,96,6,1,235,329,1,96,3e-32,137
Cladophialophora_modesta_CBS985.96_T,ERR476530.138972,95.40,87,3,1,232,318,1,86,3e-32,137
Cladophialophora_modesta_CBS985.96_T,ERR476530.80458,95.24,84,4,0,536,619,132,49,4e-31,134
Cyphellophora_fusarioides_MUCL44033_T,ERR476530.138972,91.67,96,7,1,231,325,1,96,1e-30,132
