Exophiala_polymorpha_CBS138920_T,ERR476577.101735,100.00,36,0,0,659,694,1,36,3e-11,67.6
Exophiala_jeanselmei_CBS507.90_T,ERR476577.101735,100.00,44,0,0,561,604,1,44,9e-16,82.4
Exophiala_pisciphila_CBS537.73_T,ERR476577.101735,96.43,84,3,0,570,653,1,84,6e-33,139
Exophiala_mesophila_CBS402.95_T,ERR476577.101735,97.62,84,2,0,567,650,1,84,1e-34,145
Exophiala_castellanii_CBS158.58_T,ERR476577.101735,97.62,84,2,0,566,649,1,84,1e-34,145
Exophiala_dermatitidis_CBS748.88,ERR476577.101735,98.23,113,2,0,592,704,1,113,2e-50,198
Exophiala_salmonis_CBS157.67_T,ERR476577.101735,96.43,84,3,0,690,773,1,84,7e-33,139
Exophiala_cancerae_CBS120420_T,ERR476577.101735,97.73,44,1,0,581,624,1,44,4e-14,76.8
Rhinocladiella_aquaspersa_CBS313.73_T,ERR476577.101735,96.59,88,3,0,563,650,2,89,3e-35,147
Capronia_dactylotricha_DAOM208471_T,ERR476577.101735,96.43,84,3,0,575,658,1,84,6e-33,139
Capronia_kleinmondensis_CBS122671_T,ERR476577.101735,96.43,84,3,0,581,664,1,84,6e-33,139
Capronia_mansonii_CBS101.67_T,ERR476577.101735,97.62,84,2,0,585,668,1,84,1e-34,145
Capronia_munkii_DAOM216390_T,ERR476577.101735,97.62,84,2,0,585,668,1,84,1e-34,145
Capronia_coronata_ATCC56201_T,ERR476577.101735,97.62,84,2,0,556,639,1,84,1e-34,145
Capronia_acutiseta_ATCC56428_T,ERR476577.101735,95.24,84,4,0,555,638,1,84,3e-31,134
Fonsecaea_pedrosoi_CBS271.37_T,ERR476577.101735,97.73,44,1,0,602,645,1,44,4e-14,76.8
Cladophialophora_australiensis_CBS112793,ERR476577.101735,92.54,134,6,2,563,696,1,130,1e-47,189
Cladophialophora_potulentorum_CBS112222,ERR476577.101735,92.54,134,6,2,565,698,1,130,1e-47,189
Phialophora_americana_CBS400.67,ERR476577.101735,92.54,134,6,2,557,690,1,130,1e-47,189
Cyphellophora_laciniata_CBS190.61_T,ERR476577.101735,98.81,84,1,0,652,735,1,84,3e-36,150
Cladophialophora_modesta_CBS985.96_T,ERR476577.101735,98.81,84,1,0,536,619,1,84,2e-36,150
