Exophiala_nigra_CBS535.94_T,ERR2673935.51930,88.81,143,13,3,233,375,11,150,2e-42,172
Exophiala_nigra_CBS535.94_T,ERR2673935.17421,87.21,86,10,1,236,321,14,98,1e-19,97.1
Exophiala_nigra_CBS535.94_T,ERR2673935.1212,85.56,90,12,1,233,322,11,99,1e-18,93.5
Exophiala_nigra_CBS535.94_T,ERR2673935.25464,85.39,89,12,1,233,321,11,98,5e-18,91.6
Exophiala_nigra_CBS535.94_T,ERR2673935.16275,87.93,58,6,1,233,290,11,67,8e-11,67.6
Exophiala_nigra_CBS535.94_T,ERR2673935.4847,80.77,78,10,3,233,308,11,85,2e-07,56.5
Exophiala_nigra_CBS535.94_T,ERR2673935.44642,100.00,29,0,0,233,261,11,39,6e-07,54.7
Exophiala_nigra_CBS535.94_T,ERR2673935.323,100.00,29,0,0,233,261,299,271,6e-07,54.7
Exophiala_nigra_CBS535.94_T,ERR2673935.322,100.00,29,0,0,233,261,11,39,6e-07,54.7
Exophiala_nigra_CBS535.94_T,ERR2673935.322,100.00,29,0,0,233,261,299,271,6e-07,54.7
Exophiala_spinifera_CBS899.68_T,ERR2673935.51930,86.88,160,14,6,230,387,11,165,1e-42,172
Exophiala_spinifera_CBS899.68_T,ERR2673935.1212,85.56,90,12,1,230,319,11,99,1e-18,93.5
Exophiala_spinifera_CBS899.68_T,ERR2673935.25464,85.39,89,12,1,230,318,11,98,4e-18,91.6
Exophiala_spinifera_CBS899.68_T,ERR2673935.17421,84.88,86,12,1,233,318,14,98,2e-16,86.1
Exophiala_spinifera_CBS899.68_T,ERR2673935.16275,90.00,50,5,0,230,279,11,60,3e-10,65.8
Exophiala_spinifera_CBS899.68_T,ERR2673935.4847,80.77,78,10,3,230,305,11,85,2e-07,56.5
Exophiala_spinifera_CBS899.68_T,ERR2673935.44642,100.00,29,0,0,230,258,11,39,6e-07,54.7
Exophiala_spinifera_CBS899.68_T,ERR2673935.323,100.00,29,0,0,230,258,299,271,6e-07,54.7
Exophiala_spinifera_CBS899.68_T,ERR2673935.322,100.00,29,0,0,230,258,11,39,6e-07,54.7
Exophiala_spinifera_CBS899.68_T,ERR2673935.322,100.00,29,0,0,230,258,299,271,6e-07,54.7
Exophiala_exophialae_CBS668.76_T,ERR2673935.51930,86.88,160,14,6,231,388,11,165,1e-42,172
Exophiala_exophialae_CBS668.76_T,ERR2673935.1212,85.56,90,12,1,231,320,11,99,1e-18,93.5
Exophiala_exophialae_CBS668.76_T,ERR2673935.25464,85.39,89,12,1,231,319,11,98,4e-18,91.6
Exophiala_exophialae_CBS668.76_T,ERR2673935.17421,84.88,86,12,1,234,319,14,98,2e-16,86.1
Exophiala_exophialae_CBS668.76_T,ERR2673935.16275,90.00,50,5,0,231,280,11,60,3e-10,65.8
Exophiala_exophialae_CBS668.76_T,ERR2673935.4847,80.77,78,10,3,231,306,11,85,2e-07,56.5
Exophiala_exophialae_CBS668.76_T,ERR2673935.44642,100.00,29,0,0,231,259,11,39,6e-07,54.7
Exophiala_exophialae_CBS668.76_T,ERR2673935.323,100.00,29,0,0,231,259,299,271,6e-07,54.7
Exophiala_exophialae_CBS668.76_T,ERR2673935.322,100.00,29,0,0,231,259,11,39,6e-07,54.7
Exophiala_exophialae_CBS668.76_T,ERR2673935.322,100.00,29,0,0,231,259,299,271,6e-07,54.7
Exophiala_polymorpha_CBS138920_T,ERR2673935.51930,86.88,160,14,6,333,490,11,165,2e-42,172
Exophiala_polymorpha_CBS138920_T,ERR2673935.51930,93.33,60,4,0,635,694,318,259,2e-17,89.8
Exophiala_polymorpha_CBS138920_T,ERR2673935.1212,85.56,90,12,1,333,422,11,99,2e-18,93.5
Exophiala_polymorpha_CBS138920_T,ERR2673935.25464,85.39,89,12,1,333,421,11,98,6e-18,91.6
Exophiala_polymorpha_CBS138920_T,ERR2673935.17421,84.88,86,12,1,336,421,14,98,3e-16,86.1
Exophiala_polymorpha_CBS138920_T,ERR2673935.13781,95.83,48,2,0,647,694,306,259,4e-14,78.7
Exophiala_polymorpha_CBS138920_T,ERR2673935.13778,95.83,48,2,0,647,694,306,259,4e-14,78.7
Exophiala_polymorpha_CBS138920_T,ERR2673935.51184,94.00,50,3,0,645,694,308,259,2e-13,76.8
Exophiala_polymorpha_CBS138920_T,ERR2673935.651,97.44,39,1,0,656,694,297,259,9e-11,67.6
Exophiala_polymorpha_CBS138920_T,ERR2673935.16275,90.00,50,5,0,333,382,11,60,3e-10,65.8
Exophiala_polymorpha_CBS138920_T,ERR2673935.4847,80.77,78,10,3,333,408,11,85,2e-07,56.5
Exophiala_polymorpha_CBS138920_T,ERR2673935.3459,92.31,39,3,0,656,694,297,259,2e-07,56.5
Exophiala_polymorpha_CBS138920_T,ERR2673935.44642,100.00,29,0,0,333,361,11,39,7e-07,54.7
Exophiala_polymorpha_CBS138920_T,ERR2673935.323,100.00,29,0,0,333,361,299,271,7e-07,54.7
Exophiala_polymorpha_CBS138920_T,ERR2673935.322,100.00,29,0,0,333,361,11,39,7e-07,54.7
Exophiala_polymorpha_CBS138920_T,ERR2673935.322,100.00,29,0,0,333,361,299,271,7e-07,54.7
Exophiala_oligosperma_CBS725.88_T,ERR2673935.51930,86.88,160,14,6,243,400,11,165,2e-42,172
Exophiala_oligosperma_CBS725.88_T,ERR2673935.1212,85.56,90,12,1,243,332,11,99,1e-18,93.5
Exophiala_oligosperma_CBS725.88_T,ERR2673935.25464,85.39,89,12,1,243,331,11,98,4e-18,91.6
Exophiala_oligosperma_CBS725.88_T,ERR2673935.17421,84.88,86,12,1,246,331,14,98,2e-16,86.1
Exophiala_oligosperma_CBS725.88_T,ERR2673935.16275,90.00,50,5,0,243,292,11,60,3e-10,65.8
Exophiala_oligosperma_CBS725.88_T,ERR2673935.4847,80.77,78,10,3,243,318,11,85,2e-07,56.5
Exophiala_oligosperma_CBS725.88_T,ERR2673935.44642,100.00,29,0,0,243,271,11,39,6e-07,54.7
Exophiala_oligosperma_CBS725.88_T,ERR2673935.323,100.00,29,0,0,243,271,299,271,6e-07,54.7
Exophiala_oligosperma_CBS725.88_T,ERR2673935.322,100.00,29,0,0,243,271,11,39,6e-07,54.7
Exophiala_oligosperma_CBS725.88_T,ERR2673935.322,100.00,29,0,0,243,271,299,271,6e-07,54.7
Exophiala_jeanselmei_CBS507.90_T,ERR2673935.51930,86.88,160,14,6,235,392,11,165,2e-42,172
Exophiala_jeanselmei_CBS507.90_T,ERR2673935.51930,91.30,69,5,1,537,604,319,251,1e-18,93.5
Exophiala_jeanselmei_CBS507.90_T,ERR2673935.1212,85.56,90,12,1,235,324,11,99,1e-18,93.5
Exophiala_jeanselmei_CBS507.90_T,ERR2673935.51184,94.83,58,3,0,547,604,308,251,5e-18,91.6
Exophiala_jeanselmei_CBS507.90_T,ERR2673935.25464,85.39,89,12,1,235,323,11,98,5e-18,91.6
Exophiala_jeanselmei_CBS507.90_T,ERR2673935.13781,94.64,56,3,0,549,604,306,251,6e-17,87.9
Exophiala_jeanselmei_CBS507.90_T,ERR2673935.13778,94.64,56,3,0,549,604,306,251,6e-17,87.9
Exophiala_jeanselmei_CBS507.90_T,ERR2673935.17421,84.88,86,12,1,238,323,14,98,2e-16,86.1
Exophiala_jeanselmei_CBS507.90_T,ERR2673935.651,97.87,47,1,0,558,604,297,251,3e-15,82.4
Exophiala_jeanselmei_CBS507.90_T,ERR2673935.3459,93.62,47,3,0,558,604,297,251,6e-12,71.3
Exophiala_jeanselmei_CBS507.90_T,ERR2673935.16275,90.00,50,5,0,235,284,11,60,3e-10,65.8
Exophiala_jeanselmei_CBS507.90_T,ERR2673935.4847,80.77,78,10,3,235,310,11,85,2e-07,56.5
Exophiala_jeanselmei_CBS507.90_T,ERR2673935.44642,100.00,29,0,0,235,263,11,39,6e-07,54.7
Exophiala_jeanselmei_CBS507.90_T,ERR2673935.323,100.00,29,0,0,235,263,299,271,6e-07,54.7
Exophiala_jeanselmei_CBS507.90_T,ERR2673935.322,100.00,29,0,0,235,263,11,39,6e-07,54.7
Exophiala_jeanselmei_CBS507.90_T,ERR2673935.322,100.00,29,0,0,235,263,299,271,6e-07,54.7
Exophiala_bergeri_CBS353.52,ERR2673935.51930,88.81,143,13,3,196,338,11,150,1e-42,172
Exophiala_bergeri_CBS353.52,ERR2673935.17421,87.21,86,10,1,199,284,14,98,8e-20,97.1
Exophiala_bergeri_CBS353.52,ERR2673935.1212,85.56,90,12,1,196,285,11,99,1e-18,93.5
Exophiala_bergeri_CBS353.52,ERR2673935.25464,85.39,89,12,1,196,284,11,98,4e-18,91.6
Exophiala_bergeri_CBS353.52,ERR2673935.16275,87.93,58,6,1,196,253,11,67,6e-11,67.6
Exophiala_bergeri_CBS353.52,ERR2673935.4847,80.77,78,10,3,196,271,11,85,1e-07,56.5
Exophiala_bergeri_CBS353.52,ERR2673935.44642,100.00,29,0,0,196,224,11,39,5e-07,54.7
Exophiala_bergeri_CBS353.52,ERR2673935.323,100.00,29,0,0,196,224,299,271,5e-07,54.7
Exophiala_bergeri_CBS353.52,ERR2673935.322,100.00,29,0,0,196,224,11,39,5e-07,54.7
Exophiala_bergeri_CBS353.52,ERR2673935.322,100.00,29,0,0,196,224,299,271,5e-07,54.7
Exophiala_moniliae_CBS520.76_T,ERR2673935.51930,86.79,159,15,6,233,388,11,166,2e-42,172
Exophiala_moniliae_CBS520.76_T,ERR2673935.17421,87.21,86,10,1,236,321,14,98,1e-19,97.1
Exophiala_moniliae_CBS520.76_T,ERR2673935.1212,85.56,90,12,1,233,322,11,99,1e-18,93.5
Exophiala_moniliae_CBS520.76_T,ERR2673935.25464,85.39,89,12,1,233,321,11,98,5e-18,91.6
Exophiala_moniliae_CBS520.76_T,ERR2673935.16275,87.93,58,6,1,233,290,11,67,8e-11,67.6
Exophiala_moniliae_CBS520.76_T,ERR2673935.4847,80.77,78,10,3,233,308,11,85,2e-07,56.5
Exophiala_moniliae_CBS520.76_T,ERR2673935.44642,100.00,29,0,0,233,261,11,39,6e-07,54.7
Exophiala_moniliae_CBS520.76_T,ERR2673935.323,100.00,29,0,0,233,261,299,271,6e-07,54.7
Exophiala_moniliae_CBS520.76_T,ERR2673935.322,100.00,29,0,0,233,261,11,39,6e-07,54.7
Exophiala_moniliae_CBS520.76_T,ERR2673935.322,100.00,29,0,0,233,261,299,271,6e-07,54.7
Exophiala_pisciphila_CBS537.73_T,ERR2673935.51930,87.50,160,13,6,236,393,11,165,4e-44,178
Exophiala_pisciphila_CBS537.73_T,ERR2673935.51930,96.61,59,2,0,555,613,309,251,3e-20,99.0
Exophiala_pisciphila_CBS537.73_T,ERR2673935.17421,86.05,86,11,1,239,324,14,98,5e-18,91.6
Exophiala_pisciphila_CBS537.73_T,ERR2673935.1212,84.44,90,13,1,236,325,11,99,7e-17,87.9
Exophiala_pisciphila_CBS537.73_T,ERR2673935.51184,93.10,58,4,0,556,613,308,251,2e-16,86.1
Exophiala_pisciphila_CBS537.73_T,ERR2673935.25464,84.27,89,13,1,236,324,11,98,2e-16,86.1
Exophiala_pisciphila_CBS537.73_T,ERR2673935.13781,92.86,56,4,0,558,613,306,251,3e-15,82.4
Exophiala_pisciphila_CBS537.73_T,ERR2673935.13778,92.86,56,4,0,558,613,306,251,3e-15,82.4
Exophiala_pisciphila_CBS537.73_T,ERR2673935.651,95.74,47,2,0,567,613,297,251,1e-13,76.8
Exophiala_pisciphila_CBS537.73_T,ERR2673935.3459,93.75,48,1,2,567,613,297,251,7e-12,71.3
Exophiala_pisciphila_CBS537.73_T,ERR2673935.16275,90.00,50,5,0,236,285,11,60,3e-10,65.8
Exophiala_pisciphila_CBS537.73_T,ERR2673935.4847,100.00,30,0,0,236,265,11,40,2e-07,56.5
Exophiala_pisciphila_CBS537.73_T,ERR2673935.44642,100.00,29,0,0,236,264,11,39,7e-07,54.7
Exophiala_pisciphila_CBS537.73_T,ERR2673935.14981,100.00,29,0,0,592,620,272,244,7e-07,54.7
Exophiala_pisciphila_CBS537.73_T,ERR2673935.323,100.00,29,0,0,236,264,299,271,7e-07,54.7
Exophiala_pisciphila_CBS537.73_T,ERR2673935.322,100.00,29,0,0,236,264,11,39,7e-07,54.7
Exophiala_pisciphila_CBS537.73_T,ERR2673935.322,100.00,29,0,0,236,264,299,271,7e-07,54.7
Exophiala_pisciphila_CBS537.73_T,ERR2673935.38183,100.00,28,0,0,594,621,270,243,2e-06,52.8
Exophiala_pisciphila_CBS537.73_T,ERR2673935.26247,100.00,28,0,0,593,620,271,244,2e-06,52.8
Exophiala_xenobiotica_CBS117642,ERR2673935.51930,87.50,160,13,6,228,385,11,165,3e-44,178
Exophiala_xenobiotica_CBS117642,ERR2673935.17421,87.21,86,10,1,231,316,14,98,9e-20,97.1
Exophiala_xenobiotica_CBS117642,ERR2673935.1212,85.56,90,12,1,228,317,11,99,1e-18,93.5
Exophiala_xenobiotica_CBS117642,ERR2673935.25464,85.39,89,12,1,228,316,11,98,4e-18,91.6
Exophiala_xenobiotica_CBS117642,ERR2673935.16275,87.93,58,6,1,228,285,11,67,7e-11,67.6
Exophiala_xenobiotica_CBS117642,ERR2673935.4847,80.77,78,10,3,228,303,11,85,2e-07,56.5
Exophiala_xenobiotica_CBS117642,ERR2673935.44642,100.00,29,0,0,228,256,11,39,6e-07,54.7
Exophiala_xenobiotica_CBS117642,ERR2673935.323,100.00,29,0,0,228,256,299,271,6e-07,54.7
Exophiala_xenobiotica_CBS117642,ERR2673935.322,100.00,29,0,0,228,256,11,39,6e-07,54.7
Exophiala_xenobiotica_CBS117642,ERR2673935.322,100.00,29,0,0,228,256,299,271,6e-07,54.7
Exophiala_brunnea_CBS,ERR2673935.51930,86.88,160,14,6,264,421,11,165,2e-42,172
Exophiala_brunnea_CBS,ERR2673935.51930,95.83,48,2,0,586,633,309,262,1e-14,80.5
Exophiala_brunnea_CBS,ERR2673935.17421,87.21,86,10,1,267,352,14,98,1e-19,97.1
Exophiala_brunnea_CBS,ERR2673935.1212,85.56,90,12,1,264,353,11,99,1e-18,93.5
Exophiala_brunnea_CBS,ERR2673935.25464,85.39,89,12,1,264,352,11,98,5e-18,91.6
Exophiala_brunnea_CBS,ERR2673935.16275,87.93,58,6,1,264,321,11,67,9e-11,67.6
Exophiala_brunnea_CBS,ERR2673935.4847,80.77,78,10,3,264,339,11,85,2e-07,56.5
Exophiala_brunnea_CBS,ERR2673935.44642,100.00,29,0,0,264,292,11,39,7e-07,54.7
Exophiala_brunnea_CBS,ERR2673935.323,100.00,29,0,0,264,292,299,271,7e-07,54.7
Exophiala_brunnea_CBS,ERR2673935.322,100.00,29,0,0,264,292,11,39,7e-07,54.7
Exophiala_brunnea_CBS,ERR2673935.322,100.00,29,0,0,264,292,299,271,7e-07,54.7
Exophiala_nishimurae_CBS101538_T,ERR2673935.51930,86.88,160,14,6,242,399,11,165,2e-42,172
Exophiala_nishimurae_CBS101538_T,ERR2673935.1212,85.56,90,12,1,242,331,11,99,1e-18,93.5
Exophiala_nishimurae_CBS101538_T,ERR2673935.25464,85.39,89,12,1,242,330,11,98,5e-18,91.6
Exophiala_nishimurae_CBS101538_T,ERR2673935.17421,84.88,86,12,1,245,330,14,98,2e-16,86.1
Exophiala_nishimurae_CBS101538_T,ERR2673935.16275,90.00,50,5,0,242,291,11,60,3e-10,65.8
Exophiala_nishimurae_CBS101538_T,ERR2673935.4847,80.77,78,10,3,242,317,11,85,2e-07,56.5
Exophiala_nishimurae_CBS101538_T,ERR2673935.44642,100.00,29,0,0,242,270,11,39,6e-07,54.7
Exophiala_nishimurae_CBS101538_T,ERR2673935.323,100.00,29,0,0,242,270,299,271,6e-07,54.7
Exophiala_nishimurae_CBS101538_T,ERR2673935.322,100.00,29,0,0,242,270,11,39,6e-07,54.7
Exophiala_nishimurae_CBS101538_T,ERR2673935.322,100.00,29,0,0,242,270,299,271,6e-07,54.7
Exophiala_mesophila_CBS402.95_T,ERR2673935.51930,88.11,143,14,3,226,368,11,150,8e-41,167
Exophiala_mesophila_CBS402.95_T,ERR2673935.51930,94.92,59,3,0,552,610,309,251,1e-18,93.5
Exophiala_mesophila_CBS402.95_T,ERR2673935.17421,87.21,86,10,1,229,314,14,98,1e-19,97.1
Exophiala_mesophila_CBS402.95_T,ERR2673935.1212,85.56,90,12,1,226,315,11,99,1e-18,93.5
Exophiala_mesophila_CBS402.95_T,ERR2673935.51184,94.83,58,3,0,553,610,308,251,5e-18,91.6
Exophiala_mesophila_CBS402.95_T,ERR2673935.25464,85.39,89,12,1,226,314,11,98,5e-18,91.6
Exophiala_mesophila_CBS402.95_T,ERR2673935.13781,94.64,56,3,0,555,610,306,251,7e-17,87.9
Exophiala_mesophila_CBS402.95_T,ERR2673935.13778,94.64,56,3,0,555,610,306,251,7e-17,87.9
Exophiala_mesophila_CBS402.95_T,ERR2673935.651,97.87,47,1,0,564,610,297,251,3e-15,82.4
Exophiala_mesophila_CBS402.95_T,ERR2673935.3459,93.62,47,3,0,564,610,297,251,7e-12,71.3
Exophiala_mesophila_CBS402.95_T,ERR2673935.16275,87.93,58,6,1,226,283,11,67,9e-11,67.6
Exophiala_mesophila_CBS402.95_T,ERR2673935.4847,80.77,78,10,3,226,301,11,85,2e-07,56.5
Exophiala_mesophila_CBS402.95_T,ERR2673935.44642,100.00,29,0,0,226,254,11,39,7e-07,54.7
Exophiala_mesophila_CBS402.95_T,ERR2673935.14981,100.00,29,0,0,589,617,272,244,7e-07,54.7
Exophiala_mesophila_CBS402.95_T,ERR2673935.323,100.00,29,0,0,226,254,299,271,7e-07,54.7
Exophiala_mesophila_CBS402.95_T,ERR2673935.322,100.00,29,0,0,226,254,11,39,7e-07,54.7
Exophiala_mesophila_CBS402.95_T,ERR2673935.322,100.00,29,0,0,226,254,299,271,7e-07,54.7
Exophiala_mesophila_CBS402.95_T,ERR2673935.38183,100.00,28,0,0,591,618,270,243,2e-06,52.8
Exophiala_mesophila_CBS402.95_T,ERR2673935.26247,100.00,28,0,0,590,617,271,244,2e-06,52.8
Exophiala_castellanii_CBS158.58_T,ERR2673935.51930,88.11,143,14,3,224,366,11,150,8e-41,167
Exophiala_castellanii_CBS158.58_T,ERR2673935.51930,90.28,72,6,1,538,609,321,251,1e-18,93.5
Exophiala_castellanii_CBS158.58_T,ERR2673935.17421,87.21,86,10,1,227,312,14,98,1e-19,97.1
Exophiala_castellanii_CBS158.58_T,ERR2673935.1212,85.56,90,12,1,224,313,11,99,1e-18,93.5
Exophiala_castellanii_CBS158.58_T,ERR2673935.51184,94.83,58,3,0,552,609,308,251,5e-18,91.6
Exophiala_castellanii_CBS158.58_T,ERR2673935.25464,85.39,89,12,1,224,312,11,98,5e-18,91.6
Exophiala_castellanii_CBS158.58_T,ERR2673935.13781,94.64,56,3,0,554,609,306,251,7e-17,87.9
Exophiala_castellanii_CBS158.58_T,ERR2673935.13778,94.64,56,3,0,554,609,306,251,7e-17,87.9
Exophiala_castellanii_CBS158.58_T,ERR2673935.651,97.87,47,1,0,563,609,297,251,3e-15,82.4
Exophiala_castellanii_CBS158.58_T,ERR2673935.3459,93.62,47,3,0,563,609,297,251,7e-12,71.3
Exophiala_castellanii_CBS158.58_T,ERR2673935.16275,87.93,58,6,1,224,281,11,67,9e-11,67.6
Exophiala_castellanii_CBS158.58_T,ERR2673935.4847,80.77,78,10,3,224,299,11,85,2e-07,56.5
Exophiala_castellanii_CBS158.58_T,ERR2673935.44642,100.00,29,0,0,224,252,11,39,7e-07,54.7
Exophiala_castellanii_CBS158.58_T,ERR2673935.14981,100.00,29,0,0,588,616,272,244,7e-07,54.7
Exophiala_castellanii_CBS158.58_T,ERR2673935.323,100.00,29,0,0,224,252,299,271,7e-07,54.7
Exophiala_castellanii_CBS158.58_T,ERR2673935.322,100.00,29,0,0,224,252,11,39,7e-07,54.7
Exophiala_castellanii_CBS158.58_T,ERR2673935.322,100.00,29,0,0,224,252,299,271,7e-07,54.7
Exophiala_castellanii_CBS158.58_T,ERR2673935.38183,100.00,28,0,0,590,617,270,243,2e-06,52.8
Exophiala_castellanii_CBS158.58_T,ERR2673935.26247,100.00,28,0,0,589,616,271,244,2e-06,52.8
Exophiala_lecanii-corni_CBS123.33_T,ERR2673935.51930,87.41,143,15,3,247,389,11,150,3e-39,161
Exophiala_lecanii-corni_CBS123.33_T,ERR2673935.17421,87.21,86,10,1,250,335,14,98,1e-19,97.1
Exophiala_lecanii-corni_CBS123.33_T,ERR2673935.1212,85.56,90,12,1,247,336,11,99,1e-18,93.5
Exophiala_lecanii-corni_CBS123.33_T,ERR2673935.25464,85.39,89,12,1,247,335,11,98,5e-18,91.6
Exophiala_lecanii-corni_CBS123.33_T,ERR2673935.16275,87.93,58,6,1,247,304,11,67,8e-11,67.6
Exophiala_lecanii-corni_CBS123.33_T,ERR2673935.4847,80.77,78,10,3,247,322,11,85,2e-07,56.5
Exophiala_lecanii-corni_CBS123.33_T,ERR2673935.44642,100.00,29,0,0,247,275,11,39,6e-07,54.7
Exophiala_lecanii-corni_CBS123.33_T,ERR2673935.323,100.00,29,0,0,247,275,299,271,6e-07,54.7
Exophiala_lecanii-corni_CBS123.33_T,ERR2673935.322,100.00,29,0,0,247,275,11,39,6e-07,54.7
Exophiala_lecanii-corni_CBS123.33_T,ERR2673935.322,100.00,29,0,0,247,275,299,271,6e-07,54.7
Exophiala_dermatitidis_CBS748.88,ERR2673935.51930,86.96,161,13,6,239,397,11,165,1e-42,174
Exophiala_dermatitidis_CBS748.88,ERR2673935.51930,92.86,70,5,0,566,635,320,251,6e-21,102
Exophiala_dermatitidis_CBS748.88,ERR2673935.17421,87.21,86,10,1,242,327,14,98,3e-19,97.1
Exophiala_dermatitidis_CBS748.88,ERR2673935.1212,85.56,90,12,1,239,328,11,99,3e-18,93.5
Exophiala_dermatitidis_CBS748.88,ERR2673935.51184,94.83,58,3,0,578,635,308,251,1e-17,91.6
Exophiala_dermatitidis_CBS748.88,ERR2673935.25464,85.39,89,12,1,239,327,11,98,1e-17,91.6
Exophiala_dermatitidis_CBS748.88,ERR2673935.13781,94.64,56,3,0,580,635,306,251,2e-16,87.9
Exophiala_dermatitidis_CBS748.88,ERR2673935.13778,94.64,56,3,0,580,635,306,251,2e-16,87.9
Exophiala_dermatitidis_CBS748.88,ERR2673935.651,97.87,47,1,0,589,635,297,251,7e-15,82.4
Exophiala_dermatitidis_CBS748.88,ERR2673935.3459,93.62,47,3,0,589,635,297,251,2e-11,71.3
Exophiala_dermatitidis_CBS748.88,ERR2673935.16275,87.93,58,6,1,239,296,11,67,2e-10,67.6
Exophiala_dermatitidis_CBS748.88,ERR2673935.4847,80.77,78,10,3,239,314,11,85,4e-07,56.5
Exophiala_dermatitidis_CBS748.88,ERR2673935.44642,100.00,29,0,0,239,267,11,39,2e-06,54.7
Exophiala_dermatitidis_CBS748.88,ERR2673935.14981,100.00,29,0,0,614,642,272,244,2e-06,54.7
Exophiala_dermatitidis_CBS748.88,ERR2673935.323,100.00,29,0,0,239,267,299,271,2e-06,54.7
Exophiala_dermatitidis_CBS748.88,ERR2673935.322,100.00,29,0,0,239,267,11,39,2e-06,54.7
Exophiala_dermatitidis_CBS748.88,ERR2673935.322,100.00,29,0,0,239,267,299,271,2e-06,54.7
Exophiala_dermatitidis_CBS748.88,ERR2673935.38183,100.00,28,0,0,616,643,270,243,6e-06,52.8
Exophiala_dermatitidis_CBS748.88,ERR2673935.26247,100.00,28,0,0,615,642,271,244,6e-06,52.8
Exophiala_angulospora_CBS482.92_T,ERR2673935.51930,86.34,161,14,7,230,388,11,165,2e-41,169
Exophiala_angulospora_CBS482.92_T,ERR2673935.17421,87.21,86,10,1,233,318,14,98,9e-20,97.1
Exophiala_angulospora_CBS482.92_T,ERR2673935.1212,85.56,90,12,1,230,319,11,99,1e-18,93.5
Exophiala_angulospora_CBS482.92_T,ERR2673935.25464,85.39,89,12,1,230,318,11,98,4e-18,91.6
Exophiala_angulospora_CBS482.92_T,ERR2673935.16275,87.93,58,6,1,230,287,11,67,7e-11,67.6
Exophiala_angulospora_CBS482.92_T,ERR2673935.4847,80.77,78,10,3,230,305,11,85,2e-07,56.5
Exophiala_angulospora_CBS482.92_T,ERR2673935.44642,100.00,29,0,0,230,258,11,39,6e-07,54.7
Exophiala_angulospora_CBS482.92_T,ERR2673935.323,100.00,29,0,0,230,258,299,271,6e-07,54.7
Exophiala_angulospora_CBS482.92_T,ERR2673935.322,100.00,29,0,0,230,258,11,39,6e-07,54.7
Exophiala_angulospora_CBS482.92_T,ERR2673935.322,100.00,29,0,0,230,258,299,271,6e-07,54.7
Exophiala_opportunistica_CBS109811_T,ERR2673935.51930,87.50,160,13,6,229,386,11,165,3e-44,178
Exophiala_opportunistica_CBS109811_T,ERR2673935.17421,87.21,86,10,1,232,317,14,98,1e-19,97.1
Exophiala_opportunistica_CBS109811_T,ERR2673935.1212,85.56,90,12,1,229,318,11,99,1e-18,93.5
Exophiala_opportunistica_CBS109811_T,ERR2673935.25464,85.39,89,12,1,229,317,11,98,5e-18,91.6
Exophiala_opportunistica_CBS109811_T,ERR2673935.16275,87.93,58,6,1,229,286,11,67,8e-11,67.6
Exophiala_opportunistica_CBS109811_T,ERR2673935.4847,80.77,78,10,3,229,304,11,85,2e-07,56.5
Exophiala_opportunistica_CBS109811_T,ERR2673935.44642,100.00,29,0,0,229,257,11,39,6e-07,54.7
Exophiala_opportunistica_CBS109811_T,ERR2673935.323,100.00,29,0,0,229,257,299,271,6e-07,54.7
Exophiala_opportunistica_CBS109811_T,ERR2673935.322,100.00,29,0,0,229,257,11,39,6e-07,54.7
Exophiala_opportunistica_CBS109811_T,ERR2673935.322,100.00,29,0,0,229,257,299,271,6e-07,54.7
Exophiala_salmonis_CBS157.67_T,ERR2673935.51930,87.50,160,13,6,358,515,11,165,5e-44,178
Exophiala_salmonis_CBS157.67_T,ERR2673935.51930,96.61,59,2,0,675,733,309,251,4e-20,99.0
Exophiala_salmonis_CBS157.67_T,ERR2673935.17421,87.21,86,10,1,361,446,14,98,1e-19,97.1
Exophiala_salmonis_CBS157.67_T,ERR2673935.1212,85.56,90,12,1,358,447,11,99,2e-18,93.5
Exophiala_salmonis_CBS157.67_T,ERR2673935.25464,85.39,89,12,1,358,446,11,98,6e-18,91.6
Exophiala_salmonis_CBS157.67_T,ERR2673935.51184,93.10,58,4,0,676,733,308,251,3e-16,86.1
Exophiala_salmonis_CBS157.67_T,ERR2673935.13781,92.86,56,4,0,678,733,306,251,4e-15,82.4
Exophiala_salmonis_CBS157.67_T,ERR2673935.13778,92.86,56,4,0,678,733,306,251,4e-15,82.4
Exophiala_salmonis_CBS157.67_T,ERR2673935.651,95.74,47,2,0,687,733,297,251,2e-13,76.8
Exophiala_salmonis_CBS157.67_T,ERR2673935.3459,93.75,48,1,2,687,733,297,251,8e-12,71.3
Exophiala_salmonis_CBS157.67_T,ERR2673935.16275,87.93,58,6,1,358,415,11,67,1e-10,67.6
Exophiala_salmonis_CBS157.67_T,ERR2673935.4847,80.77,78,10,3,358,433,11,85,2e-07,56.5
Exophiala_salmonis_CBS157.67_T,ERR2673935.44642,100.00,29,0,0,358,386,11,39,8e-07,54.7
Exophiala_salmonis_CBS157.67_T,ERR2673935.14981,100.00,29,0,0,712,740,272,244,8e-07,54.7
Exophiala_salmonis_CBS157.67_T,ERR2673935.323,100.00,29,0,0,358,386,299,271,8e-07,54.7
Exophiala_salmonis_CBS157.67_T,ERR2673935.322,100.00,29,0,0,358,386,11,39,8e-07,54.7
Exophiala_salmonis_CBS157.67_T,ERR2673935.322,100.00,29,0,0,358,386,299,271,8e-07,54.7
Exophiala_salmonis_CBS157.67_T,ERR2673935.38183,100.00,28,0,0,714,741,270,243,3e-06,52.8
Exophiala_salmonis_CBS157.67_T,ERR2673935.26247,100.00,28,0,0,713,740,271,244,3e-06,52.8
Exophiala_aquamarina_CBS119918_T,ERR2673935.51930,86.96,161,13,7,236,394,11,165,4e-43,174
Exophiala_aquamarina_CBS119918_T,ERR2673935.17421,87.21,86,10,1,239,324,14,98,1e-19,97.1
Exophiala_aquamarina_CBS119918_T,ERR2673935.1212,85.56,90,12,1,236,325,11,99,1e-18,93.5
Exophiala_aquamarina_CBS119918_T,ERR2673935.25464,85.39,89,12,1,236,324,11,98,4e-18,91.6
Exophiala_aquamarina_CBS119918_T,ERR2673935.16275,87.93,58,6,1,236,293,11,67,8e-11,67.6
Exophiala_aquamarina_CBS119918_T,ERR2673935.4847,80.77,78,10,3,236,311,11,85,2e-07,56.5
Exophiala_aquamarina_CBS119918_T,ERR2673935.44642,100.00,29,0,0,236,264,11,39,6e-07,54.7
Exophiala_aquamarina_CBS119918_T,ERR2673935.323,100.00,29,0,0,236,264,299,271,6e-07,54.7
Exophiala_aquamarina_CBS119918_T,ERR2673935.322,100.00,29,0,0,236,264,11,39,6e-07,54.7
Exophiala_aquamarina_CBS119918_T,ERR2673935.322,100.00,29,0,0,236,264,299,271,6e-07,54.7
Exophiala_cancerae_CBS120420_T,ERR2673935.51930,87.50,160,13,6,251,408,11,165,4e-44,178
Exophiala_cancerae_CBS120420_T,ERR2673935.51930,91.67,72,6,0,553,624,322,251,8e-21,100
Exophiala_cancerae_CBS120420_T,ERR2673935.17421,87.21,86,10,1,254,339,14,98,1e-19,97.1
Exophiala_cancerae_CBS120420_T,ERR2673935.1212,85.56,90,12,1,251,340,11,99,1e-18,93.5
Exophiala_cancerae_CBS120420_T,ERR2673935.25464,85.39,89,12,1,251,339,11,98,5e-18,91.6
Exophiala_cancerae_CBS120420_T,ERR2673935.51184,93.10,58,4,0,567,624,308,251,2e-16,86.1
Exophiala_cancerae_CBS120420_T,ERR2673935.13781,92.86,56,4,0,569,624,306,251,3e-15,82.4
Exophiala_cancerae_CBS120420_T,ERR2673935.13778,92.86,56,4,0,569,624,306,251,3e-15,82.4
Exophiala_cancerae_CBS120420_T,ERR2673935.651,95.74,47,2,0,578,624,297,251,1e-13,76.8
Exophiala_cancerae_CBS120420_T,ERR2673935.3459,93.75,48,1,2,578,624,297,251,6e-12,71.3
Exophiala_cancerae_CBS120420_T,ERR2673935.16275,87.93,58,6,1,251,308,11,67,8e-11,67.6
Exophiala_cancerae_CBS120420_T,ERR2673935.4847,80.77,78,10,3,251,326,11,85,2e-07,56.5
Exophiala_cancerae_CBS120420_T,ERR2673935.44642,100.00,29,0,0,251,279,11,39,7e-07,54.7
Exophiala_cancerae_CBS120420_T,ERR2673935.323,100.00,29,0,0,251,279,299,271,7e-07,54.7
Exophiala_cancerae_CBS120420_T,ERR2673935.322,100.00,29,0,0,251,279,11,39,7e-07,54.7
Exophiala_cancerae_CBS120420_T,ERR2673935.322,100.00,29,0,0,251,279,299,271,7e-07,54.7
Exophiala_tremulae_CBS129355,ERR2673935.51930,87.50,160,13,6,263,420,11,165,4e-44,178
Exophiala_tremulae_CBS129355,ERR2673935.51930,97.92,48,1,0,581,628,309,262,8e-16,84.2
Exophiala_tremulae_CBS129355,ERR2673935.17421,87.21,86,10,1,266,351,14,98,1e-19,97.1
Exophiala_tremulae_CBS129355,ERR2673935.1212,85.56,90,12,1,263,352,11,99,1e-18,93.5
Exophiala_tremulae_CBS129355,ERR2673935.25464,85.39,89,12,1,263,351,11,98,5e-18,91.6
Exophiala_tremulae_CBS129355,ERR2673935.16275,87.93,58,6,1,263,320,11,67,8e-11,67.6
Exophiala_tremulae_CBS129355,ERR2673935.4847,80.77,78,10,3,263,338,11,85,2e-07,56.5
Exophiala_tremulae_CBS129355,ERR2673935.44642,100.00,29,0,0,263,291,11,39,7e-07,54.7
Exophiala_tremulae_CBS129355,ERR2673935.323,100.00,29,0,0,263,291,299,271,7e-07,54.7
Exophiala_tremulae_CBS129355,ERR2673935.322,100.00,29,0,0,263,291,11,39,7e-07,54.7
Exophiala_tremulae_CBS129355,ERR2673935.322,100.00,29,0,0,263,291,299,271,7e-07,54.7
Exophiala_equina_CBS116009,ERR2673935.51930,87.50,160,13,6,229,386,11,165,3e-44,178
Exophiala_equina_CBS116009,ERR2673935.17421,87.21,86,10,1,232,317,14,98,1e-19,97.1
Exophiala_equina_CBS116009,ERR2673935.1212,85.56,90,12,1,229,318,11,99,1e-18,93.5
Exophiala_equina_CBS116009,ERR2673935.25464,85.39,89,12,1,229,317,11,98,4e-18,91.6
Exophiala_equina_CBS116009,ERR2673935.16275,87.93,58,6,1,229,286,11,67,8e-11,67.6
Exophiala_equina_CBS116009,ERR2673935.4847,80.77,78,10,3,229,304,11,85,2e-07,56.5
Exophiala_equina_CBS116009,ERR2673935.44642,100.00,29,0,0,229,257,11,39,6e-07,54.7
Exophiala_equina_CBS116009,ERR2673935.323,100.00,29,0,0,229,257,299,271,6e-07,54.7
Exophiala_equina_CBS116009,ERR2673935.322,100.00,29,0,0,229,257,11,39,6e-07,54.7
Exophiala_equina_CBS116009,ERR2673935.322,100.00,29,0,0,229,257,299,271,6e-07,54.7
Exophiala_alcalophila_CBS520.82_T,ERR2673935.51930,86.34,161,14,7,240,398,11,165,2e-41,169
Exophiala_alcalophila_CBS520.82_T,ERR2673935.17421,87.21,86,10,1,243,328,14,98,1e-19,97.1
Exophiala_alcalophila_CBS520.82_T,ERR2673935.1212,85.56,90,12,1,240,329,11,99,1e-18,93.5
Exophiala_alcalophila_CBS520.82_T,ERR2673935.25464,85.39,89,12,1,240,328,11,98,4e-18,91.6
Exophiala_alcalophila_CBS520.82_T,ERR2673935.16275,87.93,58,6,1,240,297,11,67,8e-11,67.6
Exophiala_alcalophila_CBS520.82_T,ERR2673935.4847,80.77,78,10,3,240,315,11,85,2e-07,56.5
Exophiala_alcalophila_CBS520.82_T,ERR2673935.44642,100.00,29,0,0,240,268,11,39,6e-07,54.7
Exophiala_alcalophila_CBS520.82_T,ERR2673935.323,100.00,29,0,0,240,268,299,271,6e-07,54.7
Exophiala_alcalophila_CBS520.82_T,ERR2673935.322,100.00,29,0,0,240,268,11,39,6e-07,54.7
Exophiala_alcalophila_CBS520.82_T,ERR2673935.322,100.00,29,0,0,240,268,299,271,6e-07,54.7
Exophiala_crusticola_CBS119970_T,ERR2673935.51930,88.81,143,13,3,245,387,11,150,2e-42,172
Exophiala_crusticola_CBS119970_T,ERR2673935.17421,87.21,86,10,1,248,333,14,98,9e-20,97.1
Exophiala_crusticola_CBS119970_T,ERR2673935.1212,85.56,90,12,1,245,334,11,99,1e-18,93.5
Exophiala_crusticola_CBS119970_T,ERR2673935.25464,85.39,89,12,1,245,333,11,98,4e-18,91.6
Exophiala_crusticola_CBS119970_T,ERR2673935.16275,87.93,58,6,1,245,302,11,67,7e-11,67.6
Exophiala_crusticola_CBS119970_T,ERR2673935.4847,80.77,78,10,3,245,320,11,85,2e-07,56.5
Exophiala_crusticola_CBS119970_T,ERR2673935.44642,100.00,29,0,0,245,273,11,39,6e-07,54.7
Exophiala_crusticola_CBS119970_T,ERR2673935.323,100.00,29,0,0,245,273,299,271,6e-07,54.7
Exophiala_crusticola_CBS119970_T,ERR2673935.322,100.00,29,0,0,245,273,11,39,6e-07,54.7
Exophiala_crusticola_CBS119970_T,ERR2673935.322,100.00,29,0,0,245,273,299,271,6e-07,54.7
Rhinocladiella_atrovirens_CBS264.49,ERR2673935.51930,87.41,143,15,3,271,413,11,150,4e-39,161
Rhinocladiella_atrovirens_CBS264.49,ERR2673935.51930,91.80,61,3,2,568,626,323,263,8e-16,84.2
Rhinocladiella_atrovirens_CBS264.49,ERR2673935.17421,87.21,86,10,1,274,359,14,98,1e-19,97.1
Rhinocladiella_atrovirens_CBS264.49,ERR2673935.1212,85.56,90,12,1,271,360,11,99,1e-18,93.5
Rhinocladiella_atrovirens_CBS264.49,ERR2673935.25464,85.39,89,12,1,271,359,11,98,5e-18,91.6
Rhinocladiella_atrovirens_CBS264.49,ERR2673935.16275,87.93,58,6,1,271,328,11,67,8e-11,67.6
Rhinocladiella_atrovirens_CBS264.49,ERR2673935.4847,80.77,78,10,3,271,346,11,85,2e-07,56.5
Rhinocladiella_atrovirens_CBS264.49,ERR2673935.44642,100.00,29,0,0,271,299,11,39,7e-07,54.7
Rhinocladiella_atrovirens_CBS264.49,ERR2673935.323,100.00,29,0,0,271,299,299,271,7e-07,54.7
Rhinocladiella_atrovirens_CBS264.49,ERR2673935.322,100.00,29,0,0,271,299,11,39,7e-07,54.7
Rhinocladiella_atrovirens_CBS264.49,ERR2673935.322,100.00,29,0,0,271,299,299,271,7e-07,54.7
Rhinocladiella_basitona_CBS101460_T,ERR2673935.51930,86.88,160,14,6,230,387,11,165,1e-42,172
Rhinocladiella_basitona_CBS101460_T,ERR2673935.1212,85.56,90,12,1,230,319,11,99,1e-18,93.5
Rhinocladiella_basitona_CBS101460_T,ERR2673935.25464,85.39,89,12,1,230,318,11,98,4e-18,91.6
Rhinocladiella_basitona_CBS101460_T,ERR2673935.17421,84.88,86,12,1,233,318,14,98,2e-16,86.1
Rhinocladiella_basitona_CBS101460_T,ERR2673935.16275,90.00,50,5,0,230,279,11,60,3e-10,65.8
Rhinocladiella_basitona_CBS101460_T,ERR2673935.4847,80.77,78,10,3,230,305,11,85,2e-07,56.5
Rhinocladiella_basitona_CBS101460_T,ERR2673935.44642,100.00,29,0,0,230,258,11,39,6e-07,54.7
Rhinocladiella_basitona_CBS101460_T,ERR2673935.323,100.00,29,0,0,230,258,299,271,6e-07,54.7
Rhinocladiella_basitona_CBS101460_T,ERR2673935.322,100.00,29,0,0,230,258,11,39,6e-07,54.7
Rhinocladiella_basitona_CBS101460_T,ERR2673935.322,100.00,29,0,0,230,258,299,271,6e-07,54.7
Rhinocladiella_phaeophora_CBS496.78_T,ERR2673935.51930,88.81,143,13,3,238,380,11,150,2e-42,172
Rhinocladiella_phaeophora_CBS496.78_T,ERR2673935.17421,86.05,86,11,1,241,326,14,98,5e-18,91.6
Rhinocladiella_phaeophora_CBS496.78_T,ERR2673935.1212,84.44,90,13,1,238,327,11,99,6e-17,87.9
Rhinocladiella_phaeophora_CBS496.78_T,ERR2673935.25464,84.27,89,13,1,238,326,11,98,2e-16,86.1
Rhinocladiella_phaeophora_CBS496.78_T,ERR2673935.16275,90.00,50,5,0,238,287,11,60,3e-10,65.8
Rhinocladiella_phaeophora_CBS496.78_T,ERR2673935.4847,100.00,30,0,0,238,267,11,40,2e-07,56.5
Rhinocladiella_phaeophora_CBS496.78_T,ERR2673935.44642,100.00,29,0,0,238,266,11,39,6e-07,54.7
Rhinocladiella_phaeophora_CBS496.78_T,ERR2673935.323,100.00,29,0,0,238,266,299,271,6e-07,54.7
Rhinocladiella_phaeophora_CBS496.78_T,ERR2673935.322,100.00,29,0,0,238,266,11,39,6e-07,54.7
Rhinocladiella_phaeophora_CBS496.78_T,ERR2673935.322,100.00,29,0,0,238,266,299,271,6e-07,54.7
Rhinocladiella_aquaspersa_CBS313.73_T,ERR2673935.51930,88.81,143,13,3,232,374,11,150,2e-42,172
Rhinocladiella_aquaspersa_CBS313.73_T,ERR2673935.51930,88.57,70,4,4,540,605,320,251,3e-15,82.4
Rhinocladiella_aquaspersa_CBS313.73_T,ERR2673935.17421,86.05,86,11,1,235,320,14,98,5e-18,91.6
Rhinocladiella_aquaspersa_CBS313.73_T,ERR2673935.1212,84.44,90,13,1,232,321,11,99,7e-17,87.9
Rhinocladiella_aquaspersa_CBS313.73_T,ERR2673935.25464,84.27,89,13,1,232,320,11,98,2e-16,86.1
Rhinocladiella_aquaspersa_CBS313.73_T,ERR2673935.51184,89.66,58,3,3,551,605,308,251,7e-12,71.3
Rhinocladiella_aquaspersa_CBS313.73_T,ERR2673935.13781,90.74,54,3,2,554,605,304,251,7e-12,71.3
Rhinocladiella_aquaspersa_CBS313.73_T,ERR2673935.13778,90.74,54,3,2,554,605,304,251,7e-12,71.3
Rhinocladiella_aquaspersa_CBS313.73_T,ERR2673935.651,97.56,41,1,0,565,605,291,251,7e-12,71.3
Rhinocladiella_aquaspersa_CBS313.73_T,ERR2673935.3459,97.56,41,0,1,566,605,291,251,2e-11,69.4
Rhinocladiella_aquaspersa_CBS313.73_T,ERR2673935.16275,90.00,50,5,0,232,281,11,60,3e-10,65.8
Rhinocladiella_aquaspersa_CBS313.73_T,ERR2673935.4847,100.00,30,0,0,232,261,11,40,2e-07,56.5
Rhinocladiella_aquaspersa_CBS313.73_T,ERR2673935.44642,100.00,29,0,0,232,260,11,39,7e-07,54.7
Rhinocladiella_aquaspersa_CBS313.73_T,ERR2673935.14981,100.00,29,0,0,584,612,272,244,7e-07,54.7
Rhinocladiella_aquaspersa_CBS313.73_T,ERR2673935.323,100.00,29,0,0,232,260,299,271,7e-07,54.7
Rhinocladiella_aquaspersa_CBS313.73_T,ERR2673935.322,100.00,29,0,0,232,260,11,39,7e-07,54.7
Rhinocladiella_aquaspersa_CBS313.73_T,ERR2673935.322,100.00,29,0,0,232,260,299,271,7e-07,54.7
Rhinocladiella_aquaspersa_CBS313.73_T,ERR2673935.38183,100.00,28,0,0,586,613,270,243,2e-06,52.8
Rhinocladiella_aquaspersa_CBS313.73_T,ERR2673935.26247,100.00,28,0,0,585,612,271,244,2e-06,52.8
Rhinocladiella_fasciculata_CBS132.86_T,ERR2673935.51930,88.81,143,13,3,248,390,11,150,2e-42,172
Rhinocladiella_fasciculata_CBS132.86_T,ERR2673935.17421,86.05,86,11,1,251,336,14,98,5e-18,91.6
Rhinocladiella_fasciculata_CBS132.86_T,ERR2673935.1212,84.44,90,13,1,248,337,11,99,6e-17,87.9
Rhinocladiella_fasciculata_CBS132.86_T,ERR2673935.25464,84.27,89,13,1,248,336,11,98,2e-16,86.1
Rhinocladiella_fasciculata_CBS132.86_T,ERR2673935.16275,90.00,50,5,0,248,297,11,60,3e-10,65.8
Rhinocladiella_fasciculata_CBS132.86_T,ERR2673935.4847,100.00,30,0,0,248,277,11,40,2e-07,56.5
Rhinocladiella_fasciculata_CBS132.86_T,ERR2673935.44642,100.00,29,0,0,248,276,11,39,6e-07,54.7
Rhinocladiella_fasciculata_CBS132.86_T,ERR2673935.323,100.00,29,0,0,248,276,299,271,6e-07,54.7
Rhinocladiella_fasciculata_CBS132.86_T,ERR2673935.322,100.00,29,0,0,248,276,11,39,6e-07,54.7
Rhinocladiella_fasciculata_CBS132.86_T,ERR2673935.322,100.00,29,0,0,248,276,299,271,6e-07,54.7
Rhinocladiella_anceps_CBS181.65_T,ERR2673935.51930,86.96,161,13,6,230,388,11,165,4e-43,174
Rhinocladiella_anceps_CBS181.65_T,ERR2673935.17421,86.05,86,11,1,233,318,14,98,4e-18,91.6
Rhinocladiella_anceps_CBS181.65_T,ERR2673935.1212,84.44,90,13,1,230,319,11,99,6e-17,87.9
Rhinocladiella_anceps_CBS181.65_T,ERR2673935.25464,84.27,89,13,1,230,318,11,98,2e-16,86.1
Rhinocladiella_anceps_CBS181.65_T,ERR2673935.16275,90.00,50,5,0,230,279,11,60,3e-10,65.8
Rhinocladiella_anceps_CBS181.65_T,ERR2673935.4847,100.00,30,0,0,230,259,11,40,2e-07,56.5
Rhinocladiella_anceps_CBS181.65_T,ERR2673935.44642,100.00,29,0,0,230,258,11,39,6e-07,54.7
Rhinocladiella_anceps_CBS181.65_T,ERR2673935.323,100.00,29,0,0,230,258,299,271,6e-07,54.7
Rhinocladiella_anceps_CBS181.65_T,ERR2673935.322,100.00,29,0,0,230,258,11,39,6e-07,54.7
Rhinocladiella_anceps_CBS181.65_T,ERR2673935.322,100.00,29,0,0,230,258,299,271,6e-07,54.7
Rhinocladiella_mackenziei_CBS367.92,ERR2673935.51930,90.55,127,10,2,219,345,11,135,8e-41,167
Rhinocladiella_mackenziei_CBS367.92,ERR2673935.51930,97.62,42,1,0,567,608,309,268,2e-12,73.1
Rhinocladiella_mackenziei_CBS367.92,ERR2673935.17421,87.21,86,10,1,222,307,14,98,1e-19,97.1
Rhinocladiella_mackenziei_CBS367.92,ERR2673935.1212,85.56,90,12,1,219,308,11,99,1e-18,93.5
Rhinocladiella_mackenziei_CBS367.92,ERR2673935.25464,85.39,89,12,1,219,307,11,98,5e-18,91.6
Rhinocladiella_mackenziei_CBS367.92,ERR2673935.16275,87.93,58,6,1,219,276,11,67,8e-11,67.6
Rhinocladiella_mackenziei_CBS367.92,ERR2673935.4847,80.77,78,10,3,219,294,11,85,2e-07,56.5
Rhinocladiella_mackenziei_CBS367.92,ERR2673935.44642,100.00,29,0,0,219,247,11,39,6e-07,54.7
Rhinocladiella_mackenziei_CBS367.92,ERR2673935.323,100.00,29,0,0,219,247,299,271,6e-07,54.7
Rhinocladiella_mackenziei_CBS367.92,ERR2673935.322,100.00,29,0,0,219,247,11,39,6e-07,54.7
Rhinocladiella_mackenziei_CBS367.92,ERR2673935.322,100.00,29,0,0,219,247,299,271,6e-07,54.7
Veronaea_compacta_CBS268.75_T,ERR2673935.51930,86.34,161,14,7,252,410,11,165,2e-41,169
Veronaea_compacta_CBS268.75_T,ERR2673935.17421,87.21,86,10,1,255,340,14,98,1e-19,97.1
Veronaea_compacta_CBS268.75_T,ERR2673935.1212,85.56,90,12,1,252,341,11,99,1e-18,93.5
Veronaea_compacta_CBS268.75_T,ERR2673935.25464,85.39,89,12,1,252,340,11,98,5e-18,91.6
Veronaea_compacta_CBS268.75_T,ERR2673935.16275,87.93,58,6,1,252,309,11,67,8e-11,67.6
Veronaea_compacta_CBS268.75_T,ERR2673935.4847,80.77,78,10,3,252,327,11,85,2e-07,56.5
Veronaea_compacta_CBS268.75_T,ERR2673935.44642,100.00,29,0,0,252,280,11,39,6e-07,54.7
Veronaea_compacta_CBS268.75_T,ERR2673935.323,100.00,29,0,0,252,280,299,271,6e-07,54.7
Veronaea_compacta_CBS268.75_T,ERR2673935.322,100.00,29,0,0,252,280,11,39,6e-07,54.7
Veronaea_compacta_CBS268.75_T,ERR2673935.322,100.00,29,0,0,252,280,299,271,6e-07,54.7
Capronia_pilosella_AFTOL-ID657,ERR2673935.51930,86.96,161,13,7,330,488,11,165,5e-43,174
Capronia_pilosella_AFTOL-ID657,ERR2673935.17421,87.21,86,10,1,333,418,14,98,1e-19,97.1
Capronia_pilosella_AFTOL-ID657,ERR2673935.1212,85.56,90,12,1,330,419,11,99,2e-18,93.5
Capronia_pilosella_AFTOL-ID657,ERR2673935.25464,85.39,89,12,1,330,418,11,98,5e-18,91.6
Capronia_pilosella_AFTOL-ID657,ERR2673935.16275,87.93,58,6,1,330,387,11,67,9e-11,67.6
Capronia_pilosella_AFTOL-ID657,ERR2673935.4847,80.77,78,10,3,330,405,11,85,2e-07,56.5
Capronia_pilosella_AFTOL-ID657,ERR2673935.44642,100.00,29,0,0,330,358,11,39,7e-07,54.7
Capronia_pilosella_AFTOL-ID657,ERR2673935.323,100.00,29,0,0,330,358,299,271,7e-07,54.7
Capronia_pilosella_AFTOL-ID657,ERR2673935.322,100.00,29,0,0,330,358,11,39,7e-07,54.7
Capronia_pilosella_AFTOL-ID657,ERR2673935.322,100.00,29,0,0,330,358,299,271,7e-07,54.7
Capronia_dactylotricha_DAOM208471_T,ERR2673935.51930,88.89,144,12,4,232,375,11,150,5e-43,174
Capronia_dactylotricha_DAOM208471_T,ERR2673935.51930,95.24,63,3,0,556,618,313,251,9e-21,100
Capronia_dactylotricha_DAOM208471_T,ERR2673935.17421,87.21,86,10,1,235,320,14,98,1e-19,97.1
Capronia_dactylotricha_DAOM208471_T,ERR2673935.1212,85.56,90,12,1,232,321,11,99,1e-18,93.5
Capronia_dactylotricha_DAOM208471_T,ERR2673935.25464,85.39,89,12,1,232,320,11,98,5e-18,91.6
Capronia_dactylotricha_DAOM208471_T,ERR2673935.51184,93.10,58,4,0,561,618,308,251,2e-16,86.1
Capronia_dactylotricha_DAOM208471_T,ERR2673935.13781,92.86,56,4,0,563,618,306,251,3e-15,82.4
Capronia_dactylotricha_DAOM208471_T,ERR2673935.13778,92.86,56,4,0,563,618,306,251,3e-15,82.4
Capronia_dactylotricha_DAOM208471_T,ERR2673935.651,95.74,47,2,0,572,618,297,251,1e-13,76.8
Capronia_dactylotricha_DAOM208471_T,ERR2673935.3459,93.75,48,1,2,572,618,297,251,7e-12,71.3
Capronia_dactylotricha_DAOM208471_T,ERR2673935.16275,87.93,58,6,1,232,289,11,67,9e-11,67.6
Capronia_dactylotricha_DAOM208471_T,ERR2673935.4847,80.77,78,10,3,232,307,11,85,2e-07,56.5
Capronia_dactylotricha_DAOM208471_T,ERR2673935.44642,100.00,29,0,0,232,260,11,39,7e-07,54.7
Capronia_dactylotricha_DAOM208471_T,ERR2673935.14981,100.00,29,0,0,597,625,272,244,7e-07,54.7
Capronia_dactylotricha_DAOM208471_T,ERR2673935.323,100.00,29,0,0,232,260,299,271,7e-07,54.7
Capronia_dactylotricha_DAOM208471_T,ERR2673935.322,100.00,29,0,0,232,260,11,39,7e-07,54.7
Capronia_dactylotricha_DAOM208471_T,ERR2673935.322,100.00,29,0,0,232,260,299,271,7e-07,54.7
Capronia_dactylotricha_DAOM208471_T,ERR2673935.38183,100.00,28,0,0,599,626,270,243,2e-06,52.8
Capronia_dactylotricha_DAOM208471_T,ERR2673935.26247,100.00,28,0,0,598,625,271,244,2e-06,52.8
Capronia_kleinmondensis_CBS122671_T,ERR2673935.51930,87.41,143,15,3,257,399,11,150,4e-39,161
Capronia_kleinmondensis_CBS122671_T,ERR2673935.51930,93.15,73,3,2,554,624,323,251,2e-22,106
Capronia_kleinmondensis_CBS122671_T,ERR2673935.17421,87.21,86,10,1,260,345,14,98,1e-19,97.1
Capronia_kleinmondensis_CBS122671_T,ERR2673935.1212,85.56,90,12,1,257,346,11,99,1e-18,93.5
Capronia_kleinmondensis_CBS122671_T,ERR2673935.25464,85.39,89,12,1,257,345,11,98,5e-18,91.6
Capronia_kleinmondensis_CBS122671_T,ERR2673935.51184,93.10,58,4,0,567,624,308,251,2e-16,86.1
Capronia_kleinmondensis_CBS122671_T,ERR2673935.13781,92.86,56,4,0,569,624,306,251,3e-15,82.4
Capronia_kleinmondensis_CBS122671_T,ERR2673935.13778,92.86,56,4,0,569,624,306,251,3e-15,82.4
Capronia_kleinmondensis_CBS122671_T,ERR2673935.651,95.74,47,2,0,578,624,297,251,1e-13,76.8
Capronia_kleinmondensis_CBS122671_T,ERR2673935.3459,93.75,48,1,2,578,624,297,251,7e-12,71.3
Capronia_kleinmondensis_CBS122671_T,ERR2673935.16275,87.93,58,6,1,257,314,11,67,9e-11,67.6
Capronia_kleinmondensis_CBS122671_T,ERR2673935.4847,80.77,78,10,3,257,332,11,85,2e-07,56.5
Capronia_kleinmondensis_CBS122671_T,ERR2673935.44642,100.00,29,0,0,257,285,11,39,7e-07,54.7
Capronia_kleinmondensis_CBS122671_T,ERR2673935.14981,100.00,29,0,0,603,631,272,244,7e-07,54.7
Capronia_kleinmondensis_CBS122671_T,ERR2673935.323,100.00,29,0,0,257,285,299,271,7e-07,54.7
Capronia_kleinmondensis_CBS122671_T,ERR2673935.322,100.00,29,0,0,257,285,11,39,7e-07,54.7
Capronia_kleinmondensis_CBS122671_T,ERR2673935.322,100.00,29,0,0,257,285,299,271,7e-07,54.7
Capronia_kleinmondensis_CBS122671_T,ERR2673935.38183,100.00,28,0,0,605,632,270,243,3e-06,52.8
Capronia_kleinmondensis_CBS122671_T,ERR2673935.26247,100.00,28,0,0,604,631,271,244,3e-06,52.8
Capronia_mansonii_CBS101.67_T,ERR2673935.51930,86.96,161,13,6,243,401,11,165,5e-43,174
Capronia_mansonii_CBS101.67_T,ERR2673935.51930,94.92,59,3,0,570,628,309,251,1e-18,93.5
Capronia_mansonii_CBS101.67_T,ERR2673935.17421,87.21,86,10,1,246,331,14,98,1e-19,97.1
Capronia_mansonii_CBS101.67_T,ERR2673935.1212,85.56,90,12,1,243,332,11,99,1e-18,93.5
Capronia_mansonii_CBS101.67_T,ERR2673935.51184,94.83,58,3,0,571,628,308,251,5e-18,91.6
Capronia_mansonii_CBS101.67_T,ERR2673935.25464,85.39,89,12,1,243,331,11,98,5e-18,91.6
Capronia_mansonii_CBS101.67_T,ERR2673935.13781,94.64,56,3,0,573,628,306,251,7e-17,87.9
Capronia_mansonii_CBS101.67_T,ERR2673935.13778,94.64,56,3,0,573,628,306,251,7e-17,87.9
Capronia_mansonii_CBS101.67_T,ERR2673935.651,97.87,47,1,0,582,628,297,251,3e-15,82.4
Capronia_mansonii_CBS101.67_T,ERR2673935.3459,93.62,47,3,0,582,628,297,251,7e-12,71.3
Capronia_mansonii_CBS101.67_T,ERR2673935.16275,87.93,58,6,1,243,300,11,67,9e-11,67.6
Capronia_mansonii_CBS101.67_T,ERR2673935.4847,80.77,78,10,3,243,318,11,85,2e-07,56.5
Capronia_mansonii_CBS101.67_T,ERR2673935.44642,100.00,29,0,0,243,271,11,39,7e-07,54.7
Capronia_mansonii_CBS101.67_T,ERR2673935.14981,100.00,29,0,0,607,635,272,244,7e-07,54.7
Capronia_mansonii_CBS101.67_T,ERR2673935.323,100.00,29,0,0,243,271,299,271,7e-07,54.7
Capronia_mansonii_CBS101.67_T,ERR2673935.322,100.00,29,0,0,243,271,11,39,7e-07,54.7
Capronia_mansonii_CBS101.67_T,ERR2673935.322,100.00,29,0,0,243,271,299,271,7e-07,54.7
Capronia_mansonii_CBS101.67_T,ERR2673935.38183,100.00,28,0,0,609,636,270,243,3e-06,52.8
Capronia_mansonii_CBS101.67_T,ERR2673935.26247,100.00,28,0,0,608,635,271,244,3e-06,52.8
Capronia_munkii_DAOM216390_T,ERR2673935.51930,86.96,161,13,6,243,401,11,165,5e-43,174
Capronia_munkii_DAOM216390_T,ERR2673935.51930,94.92,59,3,0,570,628,309,251,1e-18,93.5
Capronia_munkii_DAOM216390_T,ERR2673935.17421,87.21,86,10,1,246,331,14,98,1e-19,97.1
Capronia_munkii_DAOM216390_T,ERR2673935.1212,85.56,90,12,1,243,332,11,99,1e-18,93.5
Capronia_munkii_DAOM216390_T,ERR2673935.51184,94.83,58,3,0,571,628,308,251,5e-18,91.6
Capronia_munkii_DAOM216390_T,ERR2673935.25464,85.39,89,12,1,243,331,11,98,5e-18,91.6
Capronia_munkii_DAOM216390_T,ERR2673935.13781,94.64,56,3,0,573,628,306,251,7e-17,87.9
Capronia_munkii_DAOM216390_T,ERR2673935.13778,94.64,56,3,0,573,628,306,251,7e-17,87.9
Capronia_munkii_DAOM216390_T,ERR2673935.651,97.87,47,1,0,582,628,297,251,3e-15,82.4
Capronia_munkii_DAOM216390_T,ERR2673935.3459,93.62,47,3,0,582,628,297,251,7e-12,71.3
Capronia_munkii_DAOM216390_T,ERR2673935.16275,87.93,58,6,1,243,300,11,67,9e-11,67.6
Capronia_munkii_DAOM216390_T,ERR2673935.4847,80.77,78,10,3,243,318,11,85,2e-07,56.5
Capronia_munkii_DAOM216390_T,ERR2673935.44642,100.00,29,0,0,243,271,11,39,7e-07,54.7
Capronia_munkii_DAOM216390_T,ERR2673935.14981,100.00,29,0,0,607,635,272,244,7e-07,54.7
Capronia_munkii_DAOM216390_T,ERR2673935.323,100.00,29,0,0,243,271,299,271,7e-07,54.7
Capronia_munkii_DAOM216390_T,ERR2673935.322,100.00,29,0,0,243,271,11,39,7e-07,54.7
Capronia_munkii_DAOM216390_T,ERR2673935.322,100.00,29,0,0,243,271,299,271,7e-07,54.7
Capronia_munkii_DAOM216390_T,ERR2673935.38183,100.00,28,0,0,609,636,270,243,3e-06,52.8
Capronia_munkii_DAOM216390_T,ERR2673935.26247,100.00,28,0,0,608,635,271,244,3e-06,52.8
Capronia_coronata_ATCC56201_T,ERR2673935.51930,86.34,161,14,7,231,389,11,165,2e-41,169
Capronia_coronata_ATCC56201_T,ERR2673935.51930,90.41,73,6,1,528,599,323,251,4e-19,95.3
Capronia_coronata_ATCC56201_T,ERR2673935.17421,87.21,86,10,1,234,319,14,98,1e-19,97.1
Capronia_coronata_ATCC56201_T,ERR2673935.1212,85.56,90,12,1,231,320,11,99,1e-18,93.5
Capronia_coronata_ATCC56201_T,ERR2673935.51184,94.83,58,3,0,542,599,308,251,5e-18,91.6
Capronia_coronata_ATCC56201_T,ERR2673935.25464,85.39,89,12,1,231,319,11,98,5e-18,91.6
Capronia_coronata_ATCC56201_T,ERR2673935.13781,94.64,56,3,0,544,599,306,251,7e-17,87.9
Capronia_coronata_ATCC56201_T,ERR2673935.13778,94.64,56,3,0,544,599,306,251,7e-17,87.9
Capronia_coronata_ATCC56201_T,ERR2673935.651,97.87,47,1,0,553,599,297,251,3e-15,82.4
Capronia_coronata_ATCC56201_T,ERR2673935.3459,93.62,47,3,0,553,599,297,251,7e-12,71.3
Capronia_coronata_ATCC56201_T,ERR2673935.16275,87.93,58,6,1,231,288,11,67,9e-11,67.6
Capronia_coronata_ATCC56201_T,ERR2673935.4847,80.77,78,10,3,231,306,11,85,2e-07,56.5
Capronia_coronata_ATCC56201_T,ERR2673935.44642,100.00,29,0,0,231,259,11,39,7e-07,54.7
Capronia_coronata_ATCC56201_T,ERR2673935.14981,100.00,29,0,0,578,606,272,244,7e-07,54.7
Capronia_coronata_ATCC56201_T,ERR2673935.323,100.00,29,0,0,231,259,299,271,7e-07,54.7
Capronia_coronata_ATCC56201_T,ERR2673935.322,100.00,29,0,0,231,259,11,39,7e-07,54.7
Capronia_coronata_ATCC56201_T,ERR2673935.322,100.00,29,0,0,231,259,299,271,7e-07,54.7
Capronia_coronata_ATCC56201_T,ERR2673935.38183,100.00,28,0,0,580,607,270,243,2e-06,52.8
Capronia_coronata_ATCC56201_T,ERR2673935.26247,100.00,28,0,0,579,606,271,244,2e-06,52.8
Capronia_parasitica_CBS123.88,ERR2673935.51930,90.55,127,10,2,237,363,11,135,8e-41,167
Capronia_parasitica_CBS123.88,ERR2673935.17421,87.21,86,10,1,240,325,14,98,1e-19,97.1
Capronia_parasitica_CBS123.88,ERR2673935.1212,85.56,90,12,1,237,326,11,99,1e-18,93.5
Capronia_parasitica_CBS123.88,ERR2673935.25464,85.39,89,12,1,237,325,11,98,5e-18,91.6
Capronia_parasitica_CBS123.88,ERR2673935.16275,87.93,58,6,1,237,294,11,67,8e-11,67.6
Capronia_parasitica_CBS123.88,ERR2673935.4847,80.77,78,10,3,237,312,11,85,2e-07,56.5
Capronia_parasitica_CBS123.88,ERR2673935.44642,100.00,29,0,0,237,265,11,39,6e-07,54.7
Capronia_parasitica_CBS123.88,ERR2673935.323,100.00,29,0,0,237,265,299,271,6e-07,54.7
Capronia_parasitica_CBS123.88,ERR2673935.322,100.00,29,0,0,237,265,11,39,6e-07,54.7
Capronia_parasitica_CBS123.88,ERR2673935.322,100.00,29,0,0,237,265,299,271,6e-07,54.7
Veronaea_japonica_CBS776.83_T,ERR2673935.51930,87.50,160,13,6,265,422,11,165,4e-44,178
Veronaea_japonica_CBS776.83_T,ERR2673935.17421,87.21,86,10,1,268,353,14,98,1e-19,97.1
Veronaea_japonica_CBS776.83_T,ERR2673935.1212,85.56,90,12,1,265,354,11,99,1e-18,93.5
Veronaea_japonica_CBS776.83_T,ERR2673935.25464,85.39,89,12,1,265,353,11,98,5e-18,91.6
Veronaea_japonica_CBS776.83_T,ERR2673935.16275,87.93,58,6,1,265,322,11,67,8e-11,67.6
Veronaea_japonica_CBS776.83_T,ERR2673935.4847,80.77,78,10,3,265,340,11,85,2e-07,56.5
Veronaea_japonica_CBS776.83_T,ERR2673935.44642,100.00,29,0,0,265,293,11,39,6e-07,54.7
Veronaea_japonica_CBS776.83_T,ERR2673935.323,100.00,29,0,0,265,293,299,271,6e-07,54.7
Veronaea_japonica_CBS776.83_T,ERR2673935.322,100.00,29,0,0,265,293,11,39,6e-07,54.7
Veronaea_japonica_CBS776.83_T,ERR2673935.322,100.00,29,0,0,265,293,299,271,6e-07,54.7
Thysanorea_papuana_CBS212.96_T,ERR2673935.51930,87.50,160,13,7,239,396,11,165,3e-44,178
Thysanorea_papuana_CBS212.96_T,ERR2673935.17421,87.21,86,10,1,242,327,14,98,1e-19,97.1
Thysanorea_papuana_CBS212.96_T,ERR2673935.1212,85.56,90,12,1,239,328,11,99,1e-18,93.5
Thysanorea_papuana_CBS212.96_T,ERR2673935.25464,85.39,89,12,1,239,327,11,98,5e-18,91.6
Thysanorea_papuana_CBS212.96_T,ERR2673935.16275,87.93,58,6,1,239,296,11,67,8e-11,67.6
Thysanorea_papuana_CBS212.96_T,ERR2673935.4847,80.77,78,10,3,239,314,11,85,2e-07,56.5
Thysanorea_papuana_CBS212.96_T,ERR2673935.44642,100.00,29,0,0,239,267,11,39,6e-07,54.7
Thysanorea_papuana_CBS212.96_T,ERR2673935.323,100.00,29,0,0,239,267,299,271,6e-07,54.7
Thysanorea_papuana_CBS212.96_T,ERR2673935.322,100.00,29,0,0,239,267,11,39,6e-07,54.7
Thysanorea_papuana_CBS212.96_T,ERR2673935.322,100.00,29,0,0,239,267,299,271,6e-07,54.7
Capronia_acutiseta_ATCC56428_T,ERR2673935.51930,92.75,69,5,0,530,598,319,251,8e-21,100
Capronia_acutiseta_ATCC56428_T,ERR2673935.51184,93.10,58,4,0,541,598,308,251,2e-16,86.1
Capronia_acutiseta_ATCC56428_T,ERR2673935.13781,92.86,56,4,0,543,598,306,251,3e-15,82.4
Capronia_acutiseta_ATCC56428_T,ERR2673935.13778,92.86,56,4,0,543,598,306,251,3e-15,82.4
Capronia_acutiseta_ATCC56428_T,ERR2673935.651,95.74,47,2,0,552,598,297,251,1e-13,76.8
Capronia_acutiseta_ATCC56428_T,ERR2673935.3459,93.75,48,1,2,552,598,297,251,7e-12,71.3
Capronia_acutiseta_ATCC56428_T,ERR2673935.14981,100.00,29,0,0,577,605,272,244,7e-07,54.7
Capronia_acutiseta_ATCC56428_T,ERR2673935.38183,100.00,28,0,0,579,606,270,243,2e-06,52.8
Capronia_acutiseta_ATCC56428_T,ERR2673935.26247,100.00,28,0,0,578,605,271,244,2e-06,52.8
Fonsecaea_brasiliensis_CBS119710_T,ERR2673935.51930,86.96,161,13,8,239,397,11,165,4e-43,174
Fonsecaea_brasiliensis_CBS119710_T,ERR2673935.17421,87.21,86,10,1,242,327,14,98,9e-20,97.1
Fonsecaea_brasiliensis_CBS119710_T,ERR2673935.1212,85.56,90,12,1,239,328,11,99,1e-18,93.5
Fonsecaea_brasiliensis_CBS119710_T,ERR2673935.25464,85.39,89,12,1,239,327,11,98,4e-18,91.6
Fonsecaea_brasiliensis_CBS119710_T,ERR2673935.16275,87.93,58,6,1,239,296,11,67,7e-11,67.6
Fonsecaea_brasiliensis_CBS119710_T,ERR2673935.4847,80.77,78,10,3,239,314,11,85,2e-07,56.5
Fonsecaea_brasiliensis_CBS119710_T,ERR2673935.44642,100.00,29,0,0,239,267,11,39,6e-07,54.7
Fonsecaea_brasiliensis_CBS119710_T,ERR2673935.323,100.00,29,0,0,239,267,299,271,6e-07,54.7
Fonsecaea_brasiliensis_CBS119710_T,ERR2673935.322,100.00,29,0,0,239,267,11,39,6e-07,54.7
Fonsecaea_brasiliensis_CBS119710_T,ERR2673935.322,100.00,29,0,0,239,267,299,271,6e-07,54.7
Fonsecaea_pedrosoi_CBS271.37_T,ERR2673935.51930,86.42,162,13,8,267,426,11,165,2e-41,169
Fonsecaea_pedrosoi_CBS271.37_T,ERR2673935.17421,87.21,86,10,1,270,355,14,98,1e-19,97.1
Fonsecaea_pedrosoi_CBS271.37_T,ERR2673935.1212,85.56,90,12,1,267,356,11,99,1e-18,93.5
Fonsecaea_pedrosoi_CBS271.37_T,ERR2673935.25464,85.39,89,12,1,267,355,11,98,5e-18,91.6
Fonsecaea_pedrosoi_CBS271.37_T,ERR2673935.51184,93.10,58,4,0,588,645,308,251,2e-16,86.1
Fonsecaea_pedrosoi_CBS271.37_T,ERR2673935.651,95.74,47,2,0,599,645,297,251,1e-13,76.8
Fonsecaea_pedrosoi_CBS271.37_T,ERR2673935.16275,87.93,58,6,1,267,324,11,67,9e-11,67.6
Fonsecaea_pedrosoi_CBS271.37_T,ERR2673935.3459,91.49,47,4,0,599,645,297,251,3e-10,65.8
Fonsecaea_pedrosoi_CBS271.37_T,ERR2673935.4847,80.77,78,10,3,267,342,11,85,2e-07,56.5
Fonsecaea_pedrosoi_CBS271.37_T,ERR2673935.44642,100.00,29,0,0,267,295,11,39,7e-07,54.7
Fonsecaea_pedrosoi_CBS271.37_T,ERR2673935.323,100.00,29,0,0,267,295,299,271,7e-07,54.7
Fonsecaea_pedrosoi_CBS271.37_T,ERR2673935.322,100.00,29,0,0,267,295,11,39,7e-07,54.7
Fonsecaea_pedrosoi_CBS271.37_T,ERR2673935.322,100.00,29,0,0,267,295,299,271,7e-07,54.7
Fonsecaea_multimorphosa_CBS980.96_T,ERR2673935.51930,86.96,161,13,8,237,395,11,165,4e-43,174
Fonsecaea_multimorphosa_CBS980.96_T,ERR2673935.17421,87.21,86,10,1,240,325,14,98,9e-20,97.1
Fonsecaea_multimorphosa_CBS980.96_T,ERR2673935.1212,85.56,90,12,1,237,326,11,99,1e-18,93.5
Fonsecaea_multimorphosa_CBS980.96_T,ERR2673935.25464,85.39,89,12,1,237,325,11,98,4e-18,91.6
Fonsecaea_multimorphosa_CBS980.96_T,ERR2673935.16275,87.93,58,6,1,237,294,11,67,7e-11,67.6
Fonsecaea_multimorphosa_CBS980.96_T,ERR2673935.4847,80.77,78,10,3,237,312,11,85,2e-07,56.5
Fonsecaea_multimorphosa_CBS980.96_T,ERR2673935.44642,100.00,29,0,0,237,265,11,39,6e-07,54.7
Fonsecaea_multimorphosa_CBS980.96_T,ERR2673935.323,100.00,29,0,0,237,265,299,271,6e-07,54.7
Fonsecaea_multimorphosa_CBS980.96_T,ERR2673935.322,100.00,29,0,0,237,265,11,39,6e-07,54.7
Fonsecaea_multimorphosa_CBS980.96_T,ERR2673935.322,100.00,29,0,0,237,265,299,271,6e-07,54.7
Fonsecaea_minima_CBS125760_T,ERR2673935.51930,86.96,161,13,8,233,391,11,165,4e-43,174
Fonsecaea_minima_CBS125760_T,ERR2673935.17421,87.21,86,10,1,236,321,14,98,9e-20,97.1
Fonsecaea_minima_CBS125760_T,ERR2673935.1212,85.56,90,12,1,233,322,11,99,1e-18,93.5
Fonsecaea_minima_CBS125760_T,ERR2673935.25464,85.39,89,12,1,233,321,11,98,4e-18,91.6
Fonsecaea_minima_CBS125760_T,ERR2673935.16275,87.93,58,6,1,233,290,11,67,7e-11,67.6
Fonsecaea_minima_CBS125760_T,ERR2673935.4847,80.77,78,10,3,233,308,11,85,2e-07,56.5
Fonsecaea_minima_CBS125760_T,ERR2673935.44642,100.00,29,0,0,233,261,11,39,6e-07,54.7
Fonsecaea_minima_CBS125760_T,ERR2673935.323,100.00,29,0,0,233,261,299,271,6e-07,54.7
Fonsecaea_minima_CBS125760_T,ERR2673935.322,100.00,29,0,0,233,261,11,39,6e-07,54.7
Fonsecaea_minima_CBS125760_T,ERR2673935.322,100.00,29,0,0,233,261,299,271,6e-07,54.7
Fonsecaea_nubica_CBS269.64_T,ERR2673935.51930,86.42,162,13,8,244,403,11,165,2e-41,169
Fonsecaea_nubica_CBS269.64_T,ERR2673935.17421,87.21,86,10,1,247,332,14,98,1e-19,97.1
Fonsecaea_nubica_CBS269.64_T,ERR2673935.1212,85.56,90,12,1,244,333,11,99,1e-18,93.5
Fonsecaea_nubica_CBS269.64_T,ERR2673935.25464,85.39,89,12,1,244,332,11,98,5e-18,91.6
Fonsecaea_nubica_CBS269.64_T,ERR2673935.16275,87.93,58,6,1,244,301,11,67,8e-11,67.6
Fonsecaea_nubica_CBS269.64_T,ERR2673935.4847,80.77,78,10,3,244,319,11,85,2e-07,56.5
Fonsecaea_nubica_CBS269.64_T,ERR2673935.44642,100.00,29,0,0,244,272,11,39,6e-07,54.7
Fonsecaea_nubica_CBS269.64_T,ERR2673935.323,100.00,29,0,0,244,272,299,271,6e-07,54.7
Fonsecaea_nubica_CBS269.64_T,ERR2673935.322,100.00,29,0,0,244,272,11,39,6e-07,54.7
Fonsecaea_nubica_CBS269.64_T,ERR2673935.322,100.00,29,0,0,244,272,299,271,6e-07,54.7
Fonsecaea_erecta_CBS125763_T,ERR2673935.51930,86.96,161,13,7,228,386,11,165,4e-43,174
Fonsecaea_erecta_CBS125763_T,ERR2673935.17421,87.21,86,10,1,231,316,14,98,9e-20,97.1
Fonsecaea_erecta_CBS125763_T,ERR2673935.1212,85.56,90,12,1,228,317,11,99,1e-18,93.5
Fonsecaea_erecta_CBS125763_T,ERR2673935.25464,85.39,89,12,1,228,316,11,98,4e-18,91.6
Fonsecaea_erecta_CBS125763_T,ERR2673935.16275,87.93,58,6,1,228,285,11,67,7e-11,67.6
Fonsecaea_erecta_CBS125763_T,ERR2673935.4847,80.77,78,10,3,228,303,11,85,2e-07,56.5
Fonsecaea_erecta_CBS125763_T,ERR2673935.44642,100.00,29,0,0,228,256,11,39,6e-07,54.7
Fonsecaea_erecta_CBS125763_T,ERR2673935.323,100.00,29,0,0,228,256,299,271,6e-07,54.7
Fonsecaea_erecta_CBS125763_T,ERR2673935.322,100.00,29,0,0,228,256,11,39,6e-07,54.7
Fonsecaea_erecta_CBS125763_T,ERR2673935.322,100.00,29,0,0,228,256,299,271,6e-07,54.7
Fonsecaea_pugnacius_CBS139214_T,ERR2673935.51930,88.19,144,13,4,237,380,11,150,2e-41,169
Fonsecaea_pugnacius_CBS139214_T,ERR2673935.17421,87.21,86,10,1,240,325,14,98,9e-20,97.1
Fonsecaea_pugnacius_CBS139214_T,ERR2673935.1212,85.56,90,12,1,237,326,11,99,1e-18,93.5
Fonsecaea_pugnacius_CBS139214_T,ERR2673935.25464,85.39,89,12,1,237,325,11,98,4e-18,91.6
Fonsecaea_pugnacius_CBS139214_T,ERR2673935.16275,87.93,58,6,1,237,294,11,67,7e-11,67.6
Fonsecaea_pugnacius_CBS139214_T,ERR2673935.4847,80.77,78,10,3,237,312,11,85,2e-07,56.5
Fonsecaea_pugnacius_CBS139214_T,ERR2673935.44642,100.00,29,0,0,237,265,11,39,6e-07,54.7
Fonsecaea_pugnacius_CBS139214_T,ERR2673935.323,100.00,29,0,0,237,265,299,271,6e-07,54.7
Fonsecaea_pugnacius_CBS139214_T,ERR2673935.322,100.00,29,0,0,237,265,11,39,6e-07,54.7
Fonsecaea_pugnacius_CBS139214_T,ERR2673935.322,100.00,29,0,0,237,265,299,271,6e-07,54.7
Cladophialophora_psammophila_CBS,ERR2673935.51930,86.96,161,13,7,243,401,11,165,4e-43,174
Cladophialophora_psammophila_CBS,ERR2673935.17421,87.21,86,10,1,246,331,14,98,1e-19,97.1
Cladophialophora_psammophila_CBS,ERR2673935.1212,85.56,90,12,1,243,332,11,99,1e-18,93.5
Cladophialophora_psammophila_CBS,ERR2673935.25464,85.39,89,12,1,243,331,11,98,5e-18,91.6
Cladophialophora_psammophila_CBS,ERR2673935.16275,87.93,58,6,1,243,300,11,67,8e-11,67.6
Cladophialophora_psammophila_CBS,ERR2673935.4847,80.77,78,10,3,243,318,11,85,2e-07,56.5
Cladophialophora_psammophila_CBS,ERR2673935.44642,100.00,29,0,0,243,271,11,39,6e-07,54.7
Cladophialophora_psammophila_CBS,ERR2673935.323,100.00,29,0,0,243,271,299,271,6e-07,54.7
Cladophialophora_psammophila_CBS,ERR2673935.322,100.00,29,0,0,243,271,11,39,6e-07,54.7
Cladophialophora_psammophila_CBS,ERR2673935.322,100.00,29,0,0,243,271,299,271,6e-07,54.7
Cladophialophora_devriesii_CBS,ERR2673935.51930,86.96,161,13,8,239,397,11,165,4e-43,174
Cladophialophora_devriesii_CBS,ERR2673935.17421,87.21,86,10,1,242,327,14,98,9e-20,97.1
Cladophialophora_devriesii_CBS,ERR2673935.1212,85.56,90,12,1,239,328,11,99,1e-18,93.5
Cladophialophora_devriesii_CBS,ERR2673935.25464,85.39,89,12,1,239,327,11,98,4e-18,91.6
Cladophialophora_devriesii_CBS,ERR2673935.16275,87.93,58,6,1,239,296,11,67,7e-11,67.6
Cladophialophora_devriesii_CBS,ERR2673935.4847,80.77,78,10,3,239,314,11,85,2e-07,56.5
Cladophialophora_devriesii_CBS,ERR2673935.44642,100.00,29,0,0,239,267,11,39,6e-07,54.7
Cladophialophora_devriesii_CBS,ERR2673935.323,100.00,29,0,0,239,267,299,271,6e-07,54.7
Cladophialophora_devriesii_CBS,ERR2673935.322,100.00,29,0,0,239,267,11,39,6e-07,54.7
Cladophialophora_devriesii_CBS,ERR2673935.322,100.00,29,0,0,239,267,299,271,6e-07,54.7
Cladophialophora_immunda_CBS834.96,ERR2673935.51930,86.96,161,13,8,241,399,11,165,4e-43,174
Cladophialophora_immunda_CBS834.96,ERR2673935.17421,87.21,86,10,1,244,329,14,98,9e-20,97.1
Cladophialophora_immunda_CBS834.96,ERR2673935.1212,85.56,90,12,1,241,330,11,99,1e-18,93.5
Cladophialophora_immunda_CBS834.96,ERR2673935.25464,85.39,89,12,1,241,329,11,98,4e-18,91.6
Cladophialophora_immunda_CBS834.96,ERR2673935.16275,87.93,58,6,1,241,298,11,67,7e-11,67.6
Cladophialophora_immunda_CBS834.96,ERR2673935.4847,80.77,78,10,3,241,316,11,85,2e-07,56.5
Cladophialophora_immunda_CBS834.96,ERR2673935.44642,100.00,29,0,0,241,269,11,39,6e-07,54.7
Cladophialophora_immunda_CBS834.96,ERR2673935.323,100.00,29,0,0,241,269,299,271,6e-07,54.7
Cladophialophora_immunda_CBS834.96,ERR2673935.322,100.00,29,0,0,241,269,11,39,6e-07,54.7
Cladophialophora_immunda_CBS834.96,ERR2673935.322,100.00,29,0,0,241,269,299,271,6e-07,54.7
Cladophialophora_arxii_CBS306.94_T,ERR2673935.51930,90.55,127,10,2,243,369,11,135,7e-41,167
Cladophialophora_arxii_CBS306.94_T,ERR2673935.17421,87.21,86,10,1,246,331,14,98,9e-20,97.1
Cladophialophora_arxii_CBS306.94_T,ERR2673935.1212,85.56,90,12,1,243,332,11,99,1e-18,93.5
Cladophialophora_arxii_CBS306.94_T,ERR2673935.25464,85.39,89,12,1,243,331,11,98,4e-18,91.6
Cladophialophora_arxii_CBS306.94_T,ERR2673935.16275,87.93,58,6,1,243,300,11,67,7e-11,67.6
Cladophialophora_arxii_CBS306.94_T,ERR2673935.4847,80.77,78,10,3,243,318,11,85,2e-07,56.5
Cladophialophora_arxii_CBS306.94_T,ERR2673935.44642,100.00,29,0,0,243,271,11,39,6e-07,54.7
Cladophialophora_arxii_CBS306.94_T,ERR2673935.323,100.00,29,0,0,243,271,299,271,6e-07,54.7
Cladophialophora_arxii_CBS306.94_T,ERR2673935.322,100.00,29,0,0,243,271,11,39,6e-07,54.7
Cladophialophora_arxii_CBS306.94_T,ERR2673935.322,100.00,29,0,0,243,271,299,271,6e-07,54.7
Cladophialophora_bantiana_CBS173.52,ERR2673935.51930,86.96,161,13,7,237,395,11,165,4e-43,174
Cladophialophora_bantiana_CBS173.52,ERR2673935.17421,87.21,86,10,1,240,325,14,98,1e-19,97.1
Cladophialophora_bantiana_CBS173.52,ERR2673935.1212,85.56,90,12,1,237,326,11,99,1e-18,93.5
Cladophialophora_bantiana_CBS173.52,ERR2673935.25464,85.39,89,12,1,237,325,11,98,4e-18,91.6
Cladophialophora_bantiana_CBS173.52,ERR2673935.16275,87.93,58,6,1,237,294,11,67,7e-11,67.6
Cladophialophora_bantiana_CBS173.52,ERR2673935.4847,80.77,78,10,3,237,312,11,85,2e-07,56.5
Cladophialophora_bantiana_CBS173.52,ERR2673935.44642,100.00,29,0,0,237,265,11,39,6e-07,54.7
Cladophialophora_bantiana_CBS173.52,ERR2673935.323,100.00,29,0,0,237,265,299,271,6e-07,54.7
Cladophialophora_bantiana_CBS173.52,ERR2673935.322,100.00,29,0,0,237,265,11,39,6e-07,54.7
Cladophialophora_bantiana_CBS173.52,ERR2673935.322,100.00,29,0,0,237,265,299,271,6e-07,54.7
Cladophialophora_emmonsii_CBS102594,ERR2673935.51930,88.81,143,13,3,228,370,11,150,2e-42,172
Cladophialophora_emmonsii_CBS102594,ERR2673935.17421,87.21,86,10,1,231,316,14,98,9e-20,97.1
Cladophialophora_emmonsii_CBS102594,ERR2673935.1212,85.56,90,12,1,228,317,11,99,1e-18,93.5
Cladophialophora_emmonsii_CBS102594,ERR2673935.25464,85.39,89,12,1,228,316,11,98,4e-18,91.6
Cladophialophora_emmonsii_CBS102594,ERR2673935.16275,87.93,58,6,1,228,285,11,67,7e-11,67.6
Cladophialophora_emmonsii_CBS102594,ERR2673935.4847,80.77,78,10,3,228,303,11,85,2e-07,56.5
Cladophialophora_emmonsii_CBS102594,ERR2673935.44642,100.00,29,0,0,228,256,11,39,6e-07,54.7
Cladophialophora_emmonsii_CBS102594,ERR2673935.323,100.00,29,0,0,228,256,299,271,6e-07,54.7
Cladophialophora_emmonsii_CBS102594,ERR2673935.322,100.00,29,0,0,228,256,11,39,6e-07,54.7
Cladophialophora_emmonsii_CBS102594,ERR2673935.322,100.00,29,0,0,228,256,299,271,6e-07,54.7
Cladophialophora_minourae_CBS556.83,ERR2673935.51930,86.62,157,13,8,236,392,11,159,7e-41,167
Cladophialophora_minourae_CBS556.83,ERR2673935.25464,86.52,89,11,1,236,324,11,98,1e-19,97.1
Cladophialophora_minourae_CBS556.83,ERR2673935.1212,86.52,89,11,1,236,324,11,98,1e-19,97.1
Cladophialophora_minourae_CBS556.83,ERR2673935.17421,86.05,86,11,1,239,324,14,98,4e-18,91.6
Cladophialophora_minourae_CBS556.83,ERR2673935.16275,87.93,58,6,1,236,293,11,67,7e-11,67.6
Cladophialophora_minourae_CBS556.83,ERR2673935.4847,82.05,78,9,3,236,311,11,85,3e-09,62.1
Cladophialophora_minourae_CBS556.83,ERR2673935.44642,100.00,29,0,0,236,264,11,39,6e-07,54.7
Cladophialophora_minourae_CBS556.83,ERR2673935.323,100.00,29,0,0,236,264,299,271,6e-07,54.7
Cladophialophora_minourae_CBS556.83,ERR2673935.322,100.00,29,0,0,236,264,11,39,6e-07,54.7
Cladophialophora_minourae_CBS556.83,ERR2673935.322,100.00,29,0,0,236,264,299,271,6e-07,54.7
Cladophialophora_australiensis_CBS112793,ERR2673935.51930,88.12,160,12,7,238,395,11,165,2e-45,183
Cladophialophora_australiensis_CBS112793,ERR2673935.17421,87.21,86,10,1,241,326,14,98,3e-19,97.1
Cladophialophora_australiensis_CBS112793,ERR2673935.1212,85.56,90,12,1,238,327,11,99,3e-18,93.5
Cladophialophora_australiensis_CBS112793,ERR2673935.25464,85.39,89,12,1,238,326,11,98,1e-17,91.6
Cladophialophora_australiensis_CBS112793,ERR2673935.51184,93.10,58,4,0,549,606,308,251,6e-16,86.1
Cladophialophora_australiensis_CBS112793,ERR2673935.651,95.74,47,2,0,560,606,297,251,3e-13,76.8
Cladophialophora_australiensis_CBS112793,ERR2673935.16275,87.93,58,6,1,238,295,11,67,2e-10,67.6
Cladophialophora_australiensis_CBS112793,ERR2673935.3459,91.49,47,4,0,560,606,297,251,7e-10,65.8
Cladophialophora_australiensis_CBS112793,ERR2673935.4847,80.77,78,10,3,238,313,11,85,4e-07,56.5
Cladophialophora_australiensis_CBS112793,ERR2673935.44642,100.00,29,0,0,238,266,11,39,2e-06,54.7
Cladophialophora_australiensis_CBS112793,ERR2673935.14981,100.00,29,0,0,585,613,272,244,2e-06,54.7
Cladophialophora_australiensis_CBS112793,ERR2673935.323,100.00,29,0,0,238,266,299,271,2e-06,54.7
Cladophialophora_australiensis_CBS112793,ERR2673935.322,100.00,29,0,0,238,266,11,39,2e-06,54.7
Cladophialophora_australiensis_CBS112793,ERR2673935.322,100.00,29,0,0,238,266,299,271,2e-06,54.7
Cladophialophora_australiensis_CBS112793,ERR2673935.38183,100.00,28,0,0,587,614,270,243,6e-06,52.8
Cladophialophora_australiensis_CBS112793,ERR2673935.26247,100.00,28,0,0,586,613,271,244,6e-06,52.8
Cladophialophora_potulentorum_CBS112222,ERR2673935.51930,87.50,160,13,7,237,394,11,165,9e-44,178
Cladophialophora_potulentorum_CBS112222,ERR2673935.17421,87.21,86,10,1,240,325,14,98,3e-19,97.1
Cladophialophora_potulentorum_CBS112222,ERR2673935.1212,85.56,90,12,1,237,326,11,99,3e-18,93.5
Cladophialophora_potulentorum_CBS112222,ERR2673935.25464,85.39,89,12,1,237,325,11,98,1e-17,91.6
Cladophialophora_potulentorum_CBS112222,ERR2673935.51184,93.10,58,4,0,551,608,308,251,6e-16,86.1
Cladophialophora_potulentorum_CBS112222,ERR2673935.651,95.74,47,2,0,562,608,297,251,3e-13,76.8
Cladophialophora_potulentorum_CBS112222,ERR2673935.16275,87.93,58,6,1,237,294,11,67,2e-10,67.6
Cladophialophora_potulentorum_CBS112222,ERR2673935.3459,91.49,47,4,0,562,608,297,251,7e-10,65.8
Cladophialophora_potulentorum_CBS112222,ERR2673935.4847,80.77,78,10,3,237,312,11,85,4e-07,56.5
Cladophialophora_potulentorum_CBS112222,ERR2673935.44642,100.00,29,0,0,237,265,11,39,2e-06,54.7
Cladophialophora_potulentorum_CBS112222,ERR2673935.14981,100.00,29,0,0,587,615,272,244,2e-06,54.7
Cladophialophora_potulentorum_CBS112222,ERR2673935.323,100.00,29,0,0,237,265,299,271,2e-06,54.7
Cladophialophora_potulentorum_CBS112222,ERR2673935.322,100.00,29,0,0,237,265,11,39,2e-06,54.7
Cladophialophora_potulentorum_CBS112222,ERR2673935.322,100.00,29,0,0,237,265,299,271,2e-06,54.7
Cladophialophora_potulentorum_CBS112222,ERR2673935.38183,100.00,28,0,0,589,616,270,243,6e-06,52.8
Cladophialophora_potulentorum_CBS112222,ERR2673935.26247,100.00,28,0,0,588,615,271,244,6e-06,52.8
Cladophialophora_matsushimae_CMRP1198,ERR2673935.51930,86.96,161,12,9,241,398,11,165,1e-42,172
Cladophialophora_matsushimae_CMRP1198,ERR2673935.17421,87.21,86,10,1,244,329,14,98,8e-20,97.1
Cladophialophora_matsushimae_CMRP1198,ERR2673935.1212,85.56,90,12,1,241,330,11,99,1e-18,93.5
Cladophialophora_matsushimae_CMRP1198,ERR2673935.25464,85.39,89,12,1,241,329,11,98,4e-18,91.6
Cladophialophora_matsushimae_CMRP1198,ERR2673935.16275,87.93,58,6,1,241,298,11,67,6e-11,67.6
Cladophialophora_matsushimae_CMRP1198,ERR2673935.4847,80.77,78,10,3,241,316,11,85,1e-07,56.5
Cladophialophora_matsushimae_CMRP1198,ERR2673935.44642,100.00,29,0,0,241,269,11,39,5e-07,54.7
Cladophialophora_matsushimae_CMRP1198,ERR2673935.323,100.00,29,0,0,241,269,299,271,5e-07,54.7
Cladophialophora_matsushimae_CMRP1198,ERR2673935.322,100.00,29,0,0,241,269,11,39,5e-07,54.7
Cladophialophora_matsushimae_CMRP1198,ERR2673935.322,100.00,29,0,0,241,269,299,271,5e-07,54.7
Cladophialophora_mycetomatis_CBS122637,ERR2673935.51930,86.88,160,14,7,226,383,11,165,2e-42,172
Cladophialophora_mycetomatis_CBS122637,ERR2673935.17421,87.21,86,10,1,229,314,14,98,9e-20,97.1
Cladophialophora_mycetomatis_CBS122637,ERR2673935.1212,85.56,90,12,1,226,315,11,99,1e-18,93.5
Cladophialophora_mycetomatis_CBS122637,ERR2673935.25464,85.39,89,12,1,226,314,11,98,4e-18,91.6
Cladophialophora_mycetomatis_CBS122637,ERR2673935.16275,87.93,58,6,1,226,283,11,67,7e-11,67.6
Cladophialophora_mycetomatis_CBS122637,ERR2673935.4847,80.77,78,10,3,226,301,11,85,2e-07,56.5
Cladophialophora_mycetomatis_CBS122637,ERR2673935.44642,100.00,29,0,0,226,254,11,39,6e-07,54.7
Cladophialophora_mycetomatis_CBS122637,ERR2673935.323,100.00,29,0,0,226,254,299,271,6e-07,54.7
Cladophialophora_mycetomatis_CBS122637,ERR2673935.322,100.00,29,0,0,226,254,11,39,6e-07,54.7
Cladophialophora_mycetomatis_CBS122637,ERR2673935.322,100.00,29,0,0,226,254,299,271,6e-07,54.7
Cladophialophora_chaetospira_CBS127573,ERR2673935.51930,87.50,160,13,7,632,789,11,165,6e-44,178
Cladophialophora_chaetospira_CBS127573,ERR2673935.17421,87.21,86,10,1,635,720,14,98,2e-19,97.1
Cladophialophora_chaetospira_CBS127573,ERR2673935.1212,85.56,90,12,1,632,721,11,99,2e-18,93.5
Cladophialophora_chaetospira_CBS127573,ERR2673935.25464,85.39,89,12,1,632,720,11,98,8e-18,91.6
Cladophialophora_chaetospira_CBS127573,ERR2673935.16275,87.93,58,6,1,632,689,11,67,1e-10,67.6
Cladophialophora_chaetospira_CBS127573,ERR2673935.4847,80.77,78,10,3,632,707,11,85,3e-07,56.5
Cladophialophora_chaetospira_CBS127573,ERR2673935.44642,100.00,29,0,0,632,660,11,39,1e-06,54.7
Cladophialophora_chaetospira_CBS127573,ERR2673935.323,100.00,29,0,0,632,660,299,271,1e-06,54.7
Cladophialophora_chaetospira_CBS127573,ERR2673935.322,100.00,29,0,0,632,660,11,39,1e-06,54.7
Cladophialophora_chaetospira_CBS127573,ERR2673935.322,100.00,29,0,0,632,660,299,271,1e-06,54.7
Cladophialophora_boppii_CBS126.86_T,ERR2673935.51930,87.74,155,13,6,234,388,11,159,1e-43,176
Cladophialophora_boppii_CBS126.86_T,ERR2673935.17421,87.21,86,10,1,237,322,14,98,9e-20,97.1
Cladophialophora_boppii_CBS126.86_T,ERR2673935.1212,85.56,90,12,1,234,323,11,99,1e-18,93.5
Cladophialophora_boppii_CBS126.86_T,ERR2673935.25464,85.39,89,12,1,234,322,11,98,4e-18,91.6
Cladophialophora_boppii_CBS126.86_T,ERR2673935.16275,87.93,58,6,1,234,291,11,67,7e-11,67.6
Cladophialophora_boppii_CBS126.86_T,ERR2673935.4847,80.77,78,10,3,234,309,11,85,2e-07,56.5
Cladophialophora_boppii_CBS126.86_T,ERR2673935.44642,100.00,29,0,0,234,262,11,39,6e-07,54.7
Cladophialophora_boppii_CBS126.86_T,ERR2673935.323,100.00,29,0,0,234,262,299,271,6e-07,54.7
Cladophialophora_boppii_CBS126.86_T,ERR2673935.322,100.00,29,0,0,234,262,11,39,6e-07,54.7
Cladophialophora_boppii_CBS126.86_T,ERR2673935.322,100.00,29,0,0,234,262,299,271,6e-07,54.7
Cladophialophora_abundans_CBS126736,ERR2673935.51930,88.12,160,12,7,171,328,11,165,6e-46,183
Cladophialophora_abundans_CBS126736,ERR2673935.25464,86.52,89,11,1,171,259,11,98,8e-20,97.1
Cladophialophora_abundans_CBS126736,ERR2673935.1212,86.52,89,11,1,171,259,11,98,8e-20,97.1
Cladophialophora_abundans_CBS126736,ERR2673935.17421,86.05,86,11,1,174,259,14,98,4e-18,91.6
Cladophialophora_abundans_CBS126736,ERR2673935.16275,87.93,58,6,1,171,228,11,67,6e-11,67.6
Cladophialophora_abundans_CBS126736,ERR2673935.4847,82.05,78,9,3,171,246,11,85,3e-09,62.1
Cladophialophora_abundans_CBS126736,ERR2673935.44642,100.00,29,0,0,171,199,11,39,5e-07,54.7
Cladophialophora_abundans_CBS126736,ERR2673935.323,100.00,29,0,0,171,199,299,271,5e-07,54.7
Cladophialophora_abundans_CBS126736,ERR2673935.322,100.00,29,0,0,171,199,11,39,5e-07,54.7
Cladophialophora_abundans_CBS126736,ERR2673935.322,100.00,29,0,0,171,199,299,271,5e-07,54.7
Capronia_semi-immersa_CBS102234,ERR2673935.51930,86.88,160,14,7,233,390,11,165,2e-42,172
Capronia_semi-immersa_CBS102234,ERR2673935.1212,86.67,90,11,1,233,322,11,99,3e-20,99.0
Capronia_semi-immersa_CBS102234,ERR2673935.25464,86.52,89,11,1,233,321,11,98,9e-20,97.1
Capronia_semi-immersa_CBS102234,ERR2673935.17421,86.05,86,11,1,236,321,14,98,4e-18,91.6
Capronia_semi-immersa_CBS102234,ERR2673935.16275,87.93,58,6,1,233,290,11,67,7e-11,67.6
Capronia_semi-immersa_CBS102234,ERR2673935.4847,82.05,78,9,3,233,308,11,85,3e-09,62.1
Capronia_semi-immersa_CBS102234,ERR2673935.44642,100.00,29,0,0,233,261,11,39,6e-07,54.7
Capronia_semi-immersa_CBS102234,ERR2673935.323,100.00,29,0,0,233,261,299,271,6e-07,54.7
Capronia_semi-immersa_CBS102234,ERR2673935.322,100.00,29,0,0,233,261,11,39,6e-07,54.7
Capronia_semi-immersa_CBS102234,ERR2673935.322,100.00,29,0,0,233,261,299,271,6e-07,54.7
Phialophora_americana_CBS400.67,ERR2673935.51930,86.88,160,14,7,235,392,11,165,4e-42,172
Phialophora_americana_CBS400.67,ERR2673935.51930,90.41,73,6,1,529,600,323,251,9e-19,95.3
Phialophora_americana_CBS400.67,ERR2673935.1212,86.67,90,11,1,235,324,11,99,7e-20,99.0
Phialophora_americana_CBS400.67,ERR2673935.25464,86.52,89,11,1,235,323,11,98,3e-19,97.1
Phialophora_americana_CBS400.67,ERR2673935.17421,86.05,86,11,1,238,323,14,98,1e-17,91.6
Phialophora_americana_CBS400.67,ERR2673935.13781,94.64,56,3,0,545,600,306,251,2e-16,87.9
Phialophora_americana_CBS400.67,ERR2673935.13778,94.64,56,3,0,545,600,306,251,2e-16,87.9
Phialophora_americana_CBS400.67,ERR2673935.16275,87.93,58,6,1,235,292,11,67,2e-10,67.6
Phialophora_americana_CBS400.67,ERR2673935.31948,88.68,53,6,0,554,606,297,245,7e-10,65.8
Phialophora_americana_CBS400.67,ERR2673935.15093,88.68,53,6,0,554,606,297,245,7e-10,65.8
Phialophora_americana_CBS400.67,ERR2673935.4847,82.05,78,9,3,235,310,11,85,9e-09,62.1
Phialophora_americana_CBS400.67,ERR2673935.44642,100.00,29,0,0,235,263,11,39,2e-06,54.7
Phialophora_americana_CBS400.67,ERR2673935.323,100.00,29,0,0,235,263,299,271,2e-06,54.7
Phialophora_americana_CBS400.67,ERR2673935.322,100.00,29,0,0,235,263,11,39,2e-06,54.7
Phialophora_americana_CBS400.67,ERR2673935.322,100.00,29,0,0,235,263,299,271,2e-06,54.7
Phialophora_americana_CBS400.67,ERR2673935.19784,100.00,28,0,0,580,607,271,244,6e-06,52.8
Phialophora_verrucosa_CBS140325_T,ERR2673935.51930,86.88,160,14,7,239,396,11,165,2e-42,172
Phialophora_verrucosa_CBS140325_T,ERR2673935.1212,86.67,90,11,1,239,328,11,99,3e-20,99.0
Phialophora_verrucosa_CBS140325_T,ERR2673935.25464,86.52,89,11,1,239,327,11,98,1e-19,97.1
Phialophora_verrucosa_CBS140325_T,ERR2673935.17421,86.05,86,11,1,242,327,14,98,5e-18,91.6
Phialophora_verrucosa_CBS140325_T,ERR2673935.16275,87.93,58,6,1,239,296,11,67,8e-11,67.6
Phialophora_verrucosa_CBS140325_T,ERR2673935.4847,82.05,78,9,3,239,314,11,85,4e-09,62.1
Phialophora_verrucosa_CBS140325_T,ERR2673935.44642,100.00,29,0,0,239,267,11,39,6e-07,54.7
Phialophora_verrucosa_CBS140325_T,ERR2673935.323,100.00,29,0,0,239,267,299,271,6e-07,54.7
Phialophora_verrucosa_CBS140325_T,ERR2673935.322,100.00,29,0,0,239,267,11,39,6e-07,54.7
Phialophora_verrucosa_CBS140325_T,ERR2673935.322,100.00,29,0,0,239,267,299,271,6e-07,54.7
Cladophialophora_samoensis_CBS259.83_T,ERR2673935.28798,89.74,156,11,5,242,396,14,165,3e-49,195
Cladophialophora_samoensis_CBS259.83_T,ERR2673935.51930,88.12,160,12,7,239,396,11,165,7e-46,183
Cladophialophora_samoensis_CBS259.83_T,ERR2673935.17421,87.21,86,10,1,242,327,14,98,1e-19,97.1
Cladophialophora_samoensis_CBS259.83_T,ERR2673935.1212,85.56,90,12,1,239,328,11,99,1e-18,93.5
Cladophialophora_samoensis_CBS259.83_T,ERR2673935.25464,85.39,89,12,1,239,327,11,98,4e-18,91.6
Cladophialophora_samoensis_CBS259.83_T,ERR2673935.16275,87.93,58,6,1,239,296,11,67,7e-11,67.6
Cladophialophora_samoensis_CBS259.83_T,ERR2673935.4847,80.77,78,10,3,239,314,11,85,2e-07,56.5
Cladophialophora_samoensis_CBS259.83_T,ERR2673935.44642,100.00,29,0,0,239,267,11,39,6e-07,54.7
Cladophialophora_samoensis_CBS259.83_T,ERR2673935.323,100.00,29,0,0,239,267,299,271,6e-07,54.7
Cladophialophora_samoensis_CBS259.83_T,ERR2673935.322,100.00,29,0,0,239,267,11,39,6e-07,54.7
Cladophialophora_samoensis_CBS259.83_T,ERR2673935.322,100.00,29,0,0,239,267,299,271,6e-07,54.7
Cladophialophora_carrionii_CBS260.83,ERR2673935.51930,86.88,160,14,7,255,412,11,165,2e-42,172
Cladophialophora_carrionii_CBS260.83,ERR2673935.17421,87.21,86,10,1,258,343,14,98,1e-19,97.1
Cladophialophora_carrionii_CBS260.83,ERR2673935.1212,85.56,90,12,1,255,344,11,99,1e-18,93.5
Cladophialophora_carrionii_CBS260.83,ERR2673935.25464,85.39,89,12,1,255,343,11,98,5e-18,91.6
Cladophialophora_carrionii_CBS260.83,ERR2673935.16275,87.93,58,6,1,255,312,11,67,8e-11,67.6
Cladophialophora_carrionii_CBS260.83,ERR2673935.4847,80.77,78,10,3,255,330,11,85,2e-07,56.5
Cladophialophora_carrionii_CBS260.83,ERR2673935.44642,100.00,29,0,0,255,283,11,39,6e-07,54.7
Cladophialophora_carrionii_CBS260.83,ERR2673935.323,100.00,29,0,0,255,283,299,271,6e-07,54.7
Cladophialophora_carrionii_CBS260.83,ERR2673935.322,100.00,29,0,0,255,283,11,39,6e-07,54.7
Cladophialophora_carrionii_CBS260.83,ERR2673935.322,100.00,29,0,0,255,283,299,271,6e-07,54.7
Exophiala_palmae_UPCB86822_T,ERR2673935.51930,88.81,143,13,3,198,340,11,150,1e-42,172
Exophiala_palmae_UPCB86822_T,ERR2673935.17421,87.21,86,10,1,201,286,14,98,9e-20,97.1
Exophiala_palmae_UPCB86822_T,ERR2673935.1212,85.56,90,12,1,198,287,11,99,1e-18,93.5
Exophiala_palmae_UPCB86822_T,ERR2673935.25464,85.39,89,12,1,198,286,11,98,4e-18,91.6
Exophiala_palmae_UPCB86822_T,ERR2673935.16275,87.93,58,6,1,198,255,11,67,7e-11,67.6
Exophiala_palmae_UPCB86822_T,ERR2673935.4847,80.77,78,10,3,198,273,11,85,1e-07,56.5
Exophiala_palmae_UPCB86822_T,ERR2673935.44642,100.00,29,0,0,198,226,11,39,5e-07,54.7
Exophiala_palmae_UPCB86822_T,ERR2673935.323,100.00,29,0,0,198,226,299,271,5e-07,54.7
Exophiala_palmae_UPCB86822_T,ERR2673935.322,100.00,29,0,0,198,226,11,39,5e-07,54.7
Exophiala_palmae_UPCB86822_T,ERR2673935.322,100.00,29,0,0,198,226,299,271,5e-07,54.7
Cladophialophora_yegresii_CBS114405_T,ERR2673935.51930,86.88,160,14,7,240,397,11,165,2e-42,172
Cladophialophora_yegresii_CBS114405_T,ERR2673935.17421,87.21,86,10,1,243,328,14,98,9e-20,97.1
Cladophialophora_yegresii_CBS114405_T,ERR2673935.1212,85.56,90,12,1,240,329,11,99,1e-18,93.5
Cladophialophora_yegresii_CBS114405_T,ERR2673935.25464,85.39,89,12,1,240,328,11,98,4e-18,91.6
Cladophialophora_yegresii_CBS114405_T,ERR2673935.16275,87.93,58,6,1,240,297,11,67,7e-11,67.6
Cladophialophora_yegresii_CBS114405_T,ERR2673935.4847,80.77,78,10,3,240,315,11,85,2e-07,56.5
Cladophialophora_yegresii_CBS114405_T,ERR2673935.44642,100.00,29,0,0,240,268,11,39,6e-07,54.7
Cladophialophora_yegresii_CBS114405_T,ERR2673935.323,100.00,29,0,0,240,268,299,271,6e-07,54.7
Cladophialophora_yegresii_CBS114405_T,ERR2673935.322,100.00,29,0,0,240,268,11,39,6e-07,54.7
Cladophialophora_yegresii_CBS114405_T,ERR2673935.322,100.00,29,0,0,240,268,299,271,6e-07,54.7
Knufia_epidermidis_CBS120353_T,ERR2673935.51930,86.50,163,17,5,238,399,11,169,4e-43,174
Knufia_epidermidis_CBS120353_T,ERR2673935.25464,85.39,89,12,1,238,326,11,98,4e-18,91.6
Knufia_epidermidis_CBS120353_T,ERR2673935.1212,85.39,89,12,1,238,326,11,98,4e-18,91.6
Knufia_epidermidis_CBS120353_T,ERR2673935.17421,84.88,86,12,1,241,326,14,98,2e-16,86.1
Knufia_epidermidis_CBS120353_T,ERR2673935.16275,90.00,50,5,0,238,287,11,60,3e-10,65.8
Knufia_epidermidis_CBS120353_T,ERR2673935.4847,80.77,78,10,3,238,313,11,85,2e-07,56.5
Knufia_epidermidis_CBS120353_T,ERR2673935.44642,100.00,29,0,0,238,266,11,39,6e-07,54.7
Knufia_epidermidis_CBS120353_T,ERR2673935.323,100.00,29,0,0,238,266,299,271,6e-07,54.7
Knufia_epidermidis_CBS120353_T,ERR2673935.322,100.00,29,0,0,238,266,11,39,6e-07,54.7
Knufia_epidermidis_CBS120353_T,ERR2673935.322,100.00,29,0,0,238,266,299,271,6e-07,54.7
Arthrocladium_fulminans_CBS136243_T,ERR2673935.51930,88.98,127,12,2,233,359,11,135,2e-37,156
Arthrocladium_fulminans_CBS136243_T,ERR2673935.25464,85.39,89,12,1,233,321,11,98,4e-18,91.6
Arthrocladium_fulminans_CBS136243_T,ERR2673935.1212,85.39,89,12,1,233,321,11,98,4e-18,91.6
Arthrocladium_fulminans_CBS136243_T,ERR2673935.17421,84.88,86,12,1,236,321,14,98,2e-16,86.1
Arthrocladium_fulminans_CBS136243_T,ERR2673935.16275,90.00,50,5,0,233,282,11,60,3e-10,65.8
Arthrocladium_fulminans_CBS136243_T,ERR2673935.4847,80.77,78,10,3,233,308,11,85,2e-07,56.5
Arthrocladium_fulminans_CBS136243_T,ERR2673935.44642,100.00,29,0,0,233,261,11,39,6e-07,54.7
Arthrocladium_fulminans_CBS136243_T,ERR2673935.323,100.00,29,0,0,233,261,299,271,6e-07,54.7
Arthrocladium_fulminans_CBS136243_T,ERR2673935.322,100.00,29,0,0,233,261,11,39,6e-07,54.7
Arthrocladium_fulminans_CBS136243_T,ERR2673935.322,100.00,29,0,0,233,261,299,271,6e-07,54.7
Anthopsis_deltoidea_CBS263.77_T,ERR2673935.51930,87.42,151,17,2,242,392,11,159,1e-42,172
Anthopsis_deltoidea_CBS263.77_T,ERR2673935.1212,86.52,89,11,1,242,329,11,99,9e-20,97.1
Anthopsis_deltoidea_CBS263.77_T,ERR2673935.25464,86.36,88,11,1,242,328,11,98,3e-19,95.3
Anthopsis_deltoidea_CBS263.77_T,ERR2673935.17421,87.06,85,10,1,245,328,14,98,3e-19,95.3
Anthopsis_deltoidea_CBS263.77_T,ERR2673935.16275,90.38,52,5,0,242,293,11,62,2e-11,69.4
Anthopsis_deltoidea_CBS263.77_T,ERR2673935.4847,81.82,77,9,3,242,315,11,85,1e-08,60.2
Anthopsis_deltoidea_CBS263.77_T,ERR2673935.44642,100.00,29,0,0,242,270,11,39,5e-07,54.7
Anthopsis_deltoidea_CBS263.77_T,ERR2673935.323,100.00,29,0,0,242,270,299,271,5e-07,54.7
Anthopsis_deltoidea_CBS263.77_T,ERR2673935.322,100.00,29,0,0,242,270,11,39,5e-07,54.7
Anthopsis_deltoidea_CBS263.77_T,ERR2673935.322,100.00,29,0,0,242,270,299,271,5e-07,54.7
Cyphellophora_laciniata_CBS190.61_T,ERR2673935.51930,89.74,156,13,3,327,480,11,165,1e-49,196
Cyphellophora_laciniata_CBS190.61_T,ERR2673935.51930,90.91,77,6,1,619,695,326,251,3e-21,102
Cyphellophora_laciniata_CBS190.61_T,ERR2673935.28798,90.20,153,12,3,330,480,14,165,1e-49,196
Cyphellophora_laciniata_CBS190.61_T,ERR2673935.1212,86.52,89,11,1,327,414,11,99,1e-19,97.1
Cyphellophora_laciniata_CBS190.61_T,ERR2673935.25464,86.36,88,11,1,327,413,11,98,5e-19,95.3
Cyphellophora_laciniata_CBS190.61_T,ERR2673935.17421,87.06,85,10,1,330,413,14,98,5e-19,95.3
Cyphellophora_laciniata_CBS190.61_T,ERR2673935.51184,94.83,58,3,0,638,695,308,251,6e-18,91.6
Cyphellophora_laciniata_CBS190.61_T,ERR2673935.13781,94.64,56,3,0,640,695,306,251,8e-17,87.9
Cyphellophora_laciniata_CBS190.61_T,ERR2673935.13778,94.64,56,3,0,640,695,306,251,8e-17,87.9
Cyphellophora_laciniata_CBS190.61_T,ERR2673935.651,97.87,47,1,0,649,695,297,251,4e-15,82.4
Cyphellophora_laciniata_CBS190.61_T,ERR2673935.3459,93.62,47,3,0,649,695,297,251,8e-12,71.3
Cyphellophora_laciniata_CBS190.61_T,ERR2673935.16275,90.38,52,5,0,327,378,11,62,3e-11,69.4
Cyphellophora_laciniata_CBS190.61_T,ERR2673935.4847,81.82,77,9,3,327,400,11,85,2e-08,60.2
Cyphellophora_laciniata_CBS190.61_T,ERR2673935.44642,100.00,29,0,0,327,355,11,39,8e-07,54.7
Cyphellophora_laciniata_CBS190.61_T,ERR2673935.14981,100.00,29,0,0,674,702,272,244,8e-07,54.7
Cyphellophora_laciniata_CBS190.61_T,ERR2673935.323,100.00,29,0,0,327,355,299,271,8e-07,54.7
Cyphellophora_laciniata_CBS190.61_T,ERR2673935.322,100.00,29,0,0,327,355,11,39,8e-07,54.7
Cyphellophora_laciniata_CBS190.61_T,ERR2673935.322,100.00,29,0,0,327,355,299,271,8e-07,54.7
Cyphellophora_laciniata_CBS190.61_T,ERR2673935.38183,100.00,28,0,0,676,703,270,243,3e-06,52.8
Cyphellophora_laciniata_CBS190.61_T,ERR2673935.26247,100.00,28,0,0,675,702,271,244,3e-06,52.8
Cyphellophora_suttonii_CBS449.91,ERR2673935.51930,89.74,156,13,3,230,383,11,165,9e-50,196
Cyphellophora_suttonii_CBS449.91,ERR2673935.28798,90.20,153,12,3,233,383,14,165,9e-50,196
Cyphellophora_suttonii_CBS449.91,ERR2673935.1212,86.52,89,11,1,230,317,11,99,9e-20,97.1
Cyphellophora_suttonii_CBS449.91,ERR2673935.25464,86.36,88,11,1,230,316,11,98,3e-19,95.3
Cyphellophora_suttonii_CBS449.91,ERR2673935.17421,87.06,85,10,1,233,316,14,98,3e-19,95.3
Cyphellophora_suttonii_CBS449.91,ERR2673935.16275,90.38,52,5,0,230,281,11,62,2e-11,69.4
Cyphellophora_suttonii_CBS449.91,ERR2673935.4847,81.82,77,9,3,230,303,11,85,1e-08,60.2
Cyphellophora_suttonii_CBS449.91,ERR2673935.44642,100.00,29,0,0,230,258,11,39,6e-07,54.7
Cyphellophora_suttonii_CBS449.91,ERR2673935.323,100.00,29,0,0,230,258,299,271,6e-07,54.7
Cyphellophora_suttonii_CBS449.91,ERR2673935.322,100.00,29,0,0,230,258,11,39,6e-07,54.7
Cyphellophora_suttonii_CBS449.91,ERR2673935.322,100.00,29,0,0,230,258,299,271,6e-07,54.7
Cyphellophora_pauciseptata_CBS284.85_T,ERR2673935.51930,89.74,156,13,3,241,394,11,165,9e-50,196
Cyphellophora_pauciseptata_CBS284.85_T,ERR2673935.28798,90.20,153,12,3,244,394,14,165,9e-50,196
Cyphellophora_pauciseptata_CBS284.85_T,ERR2673935.1212,86.52,89,11,1,241,328,11,99,9e-20,97.1
Cyphellophora_pauciseptata_CBS284.85_T,ERR2673935.25464,86.36,88,11,1,241,327,11,98,3e-19,95.3
Cyphellophora_pauciseptata_CBS284.85_T,ERR2673935.17421,87.06,85,10,1,244,327,14,98,3e-19,95.3
Cyphellophora_pauciseptata_CBS284.85_T,ERR2673935.16275,90.38,52,5,0,241,292,11,62,2e-11,69.4
Cyphellophora_pauciseptata_CBS284.85_T,ERR2673935.4847,81.82,77,9,3,241,314,11,85,1e-08,60.2
Cyphellophora_pauciseptata_CBS284.85_T,ERR2673935.44642,100.00,29,0,0,241,269,11,39,6e-07,54.7
Cyphellophora_pauciseptata_CBS284.85_T,ERR2673935.323,100.00,29,0,0,241,269,299,271,6e-07,54.7
Cyphellophora_pauciseptata_CBS284.85_T,ERR2673935.322,100.00,29,0,0,241,269,11,39,6e-07,54.7
Cyphellophora_pauciseptata_CBS284.85_T,ERR2673935.322,100.00,29,0,0,241,269,299,271,6e-07,54.7
Cyphellophora_pluriseptata_CBS286.85_T,ERR2673935.28798,90.85,153,11,3,249,399,14,165,2e-51,202
Cyphellophora_pluriseptata_CBS286.85_T,ERR2673935.51930,89.03,155,14,3,247,399,12,165,2e-47,189
Cyphellophora_pluriseptata_CBS286.85_T,ERR2673935.17421,87.06,85,10,1,249,332,14,98,3e-19,95.3
Cyphellophora_pluriseptata_CBS286.85_T,ERR2673935.1212,86.36,88,11,1,247,333,12,99,3e-19,95.3
Cyphellophora_pluriseptata_CBS286.85_T,ERR2673935.25464,86.21,87,11,1,247,332,12,98,1e-18,93.5
Cyphellophora_pluriseptata_CBS286.85_T,ERR2673935.16275,90.20,51,5,0,247,297,12,62,7e-11,67.6
Cyphellophora_pluriseptata_CBS286.85_T,ERR2673935.4847,81.58,76,9,3,247,319,12,85,4e-08,58.4
Cyphellophora_pluriseptata_CBS286.85_T,ERR2673935.44642,100.00,28,0,0,247,274,12,39,2e-06,52.8
Cyphellophora_pluriseptata_CBS286.85_T,ERR2673935.323,100.00,28,0,0,247,274,298,271,2e-06,52.8
Cyphellophora_pluriseptata_CBS286.85_T,ERR2673935.322,100.00,28,0,0,247,274,12,39,2e-06,52.8
Cyphellophora_pluriseptata_CBS286.85_T,ERR2673935.322,100.00,28,0,0,247,274,298,271,2e-06,52.8
Phialophora_europaea_CBS101466,ERR2673935.28798,90.85,153,11,3,239,389,14,165,2e-51,202
Phialophora_europaea_CBS101466,ERR2673935.51930,89.10,156,14,3,236,389,11,165,4e-48,191
Phialophora_europaea_CBS101466,ERR2673935.1212,86.52,89,11,1,236,323,11,99,9e-20,97.1
Phialophora_europaea_CBS101466,ERR2673935.25464,86.36,88,11,1,236,322,11,98,3e-19,95.3
Phialophora_europaea_CBS101466,ERR2673935.17421,87.06,85,10,1,239,322,14,98,3e-19,95.3
Phialophora_europaea_CBS101466,ERR2673935.16275,90.38,52,5,0,236,287,11,62,2e-11,69.4
Phialophora_europaea_CBS101466,ERR2673935.4847,81.82,77,9,3,236,309,11,85,1e-08,60.2
Phialophora_europaea_CBS101466,ERR2673935.44642,100.00,29,0,0,236,264,11,39,6e-07,54.7
Phialophora_europaea_CBS101466,ERR2673935.323,100.00,29,0,0,236,264,299,271,6e-07,54.7
Phialophora_europaea_CBS101466,ERR2673935.322,100.00,29,0,0,236,264,11,39,6e-07,54.7
Phialophora_europaea_CBS101466,ERR2673935.322,100.00,29,0,0,236,264,299,271,6e-07,54.7
Phialophora_ambigua_CBS235.93,ERR2673935.28798,90.85,153,11,3,236,386,14,165,2e-51,202
Phialophora_ambigua_CBS235.93,ERR2673935.51930,89.10,156,14,3,233,386,11,165,4e-48,191
Phialophora_ambigua_CBS235.93,ERR2673935.1212,86.52,89,11,1,233,320,11,99,9e-20,97.1
Phialophora_ambigua_CBS235.93,ERR2673935.25464,86.36,88,11,1,233,319,11,98,3e-19,95.3
Phialophora_ambigua_CBS235.93,ERR2673935.17421,87.06,85,10,1,236,319,14,98,3e-19,95.3
Phialophora_ambigua_CBS235.93,ERR2673935.16275,90.38,52,5,0,233,284,11,62,2e-11,69.4
Phialophora_ambigua_CBS235.93,ERR2673935.4847,81.82,77,9,3,233,306,11,85,1e-08,60.2
Phialophora_ambigua_CBS235.93,ERR2673935.44642,100.00,29,0,0,233,261,11,39,6e-07,54.7
Phialophora_ambigua_CBS235.93,ERR2673935.323,100.00,29,0,0,233,261,299,271,6e-07,54.7
Phialophora_ambigua_CBS235.93,ERR2673935.322,100.00,29,0,0,233,261,11,39,6e-07,54.7
Phialophora_ambigua_CBS235.93,ERR2673935.322,100.00,29,0,0,233,261,299,271,6e-07,54.7
Cladophialophora_modesta_CBS985.96_T,ERR2673935.51930,87.42,159,14,6,230,386,11,165,4e-44,178
Cladophialophora_modesta_CBS985.96_T,ERR2673935.51930,93.22,59,4,0,521,579,309,251,6e-17,87.9
Cladophialophora_modesta_CBS985.96_T,ERR2673935.51184,96.55,58,2,0,522,579,308,251,1e-19,97.1
Cladophialophora_modesta_CBS985.96_T,ERR2673935.1212,85.56,90,12,1,230,319,11,99,1e-18,93.5
Cladophialophora_modesta_CBS985.96_T,ERR2673935.25464,85.39,89,12,1,230,318,11,98,5e-18,91.6
Cladophialophora_modesta_CBS985.96_T,ERR2673935.13781,94.64,56,3,0,524,579,306,251,6e-17,87.9
Cladophialophora_modesta_CBS985.96_T,ERR2673935.13778,94.64,56,3,0,524,579,306,251,6e-17,87.9
Cladophialophora_modesta_CBS985.96_T,ERR2673935.17421,84.88,86,12,1,233,318,14,98,2e-16,86.1
Cladophialophora_modesta_CBS985.96_T,ERR2673935.651,95.74,47,2,0,533,579,297,251,1e-13,76.8
Cladophialophora_modesta_CBS985.96_T,ERR2673935.3459,93.62,47,3,0,533,579,297,251,6e-12,71.3
Cladophialophora_modesta_CBS985.96_T,ERR2673935.16275,90.00,50,5,0,230,279,11,60,3e-10,65.8
Cladophialophora_modesta_CBS985.96_T,ERR2673935.4847,80.77,78,10,3,230,305,11,85,2e-07,56.5
Cladophialophora_modesta_CBS985.96_T,ERR2673935.44642,100.00,29,0,0,230,258,11,39,6e-07,54.7
Cladophialophora_modesta_CBS985.96_T,ERR2673935.14981,100.00,29,0,0,558,586,272,244,6e-07,54.7
Cladophialophora_modesta_CBS985.96_T,ERR2673935.323,100.00,29,0,0,230,258,299,271,6e-07,54.7
Cladophialophora_modesta_CBS985.96_T,ERR2673935.322,100.00,29,0,0,230,258,11,39,6e-07,54.7
Cladophialophora_modesta_CBS985.96_T,ERR2673935.322,100.00,29,0,0,230,258,299,271,6e-07,54.7
Cladophialophora_modesta_CBS985.96_T,ERR2673935.38183,100.00,28,0,0,560,587,270,243,2e-06,52.8
Cladophialophora_modesta_CBS985.96_T,ERR2673935.26247,100.00,28,0,0,559,586,271,244,2e-06,52.8
Cyphellophora_fusarioides_MUCL44033_T,ERR2673935.51930,89.10,156,14,3,229,382,11,165,4e-48,191
Cyphellophora_fusarioides_MUCL44033_T,ERR2673935.1212,86.52,89,11,1,229,316,11,99,9e-20,97.1
Cyphellophora_fusarioides_MUCL44033_T,ERR2673935.25464,86.36,88,11,1,229,315,11,98,3e-19,95.3
Cyphellophora_fusarioides_MUCL44033_T,ERR2673935.17421,87.06,85,10,1,232,315,14,98,3e-19,95.3
Cyphellophora_fusarioides_MUCL44033_T,ERR2673935.16275,90.38,52,5,0,229,280,11,62,2e-11,69.4
Cyphellophora_fusarioides_MUCL44033_T,ERR2673935.4847,81.82,77,9,3,229,302,11,85,1e-08,60.2
Cyphellophora_fusarioides_MUCL44033_T,ERR2673935.44642,100.00,29,0,0,229,257,11,39,6e-07,54.7
Cyphellophora_fusarioides_MUCL44033_T,ERR2673935.323,100.00,29,0,0,229,257,299,271,6e-07,54.7
Cyphellophora_fusarioides_MUCL44033_T,ERR2673935.322,100.00,29,0,0,229,257,11,39,6e-07,54.7
Cyphellophora_fusarioides_MUCL44033_T,ERR2673935.322,100.00,29,0,0,229,257,299,271,6e-07,54.7
