Exophiala_nigra_CBS535.94_T,ERR2438975.387,93.13,131,8,1,243,373,6,135,1e-48,191
Exophiala_spinifera_CBS899.68_T,ERR2438975.387,89.86,148,12,3,240,387,6,150,2e-47,187
Exophiala_exophialae_CBS668.76_T,ERR2438975.387,89.86,148,12,3,241,388,6,150,2e-47,187
Exophiala_polymorpha_CBS138920_T,ERR2438975.387,89.86,148,12,3,343,490,6,150,2e-47,187
Exophiala_oligosperma_CBS725.88_T,ERR2438975.387,89.86,148,12,3,253,400,6,150,2e-47,187
Exophiala_jeanselmei_CBS507.90_T,ERR2438975.387,89.86,148,12,3,245,392,6,150,2e-47,187
Exophiala_jeanselmei_CBS507.90_T,ERR2438975.446,94.83,58,3,0,547,604,358,301,1e-18,91.6
Exophiala_bergeri_CBS353.52,ERR2438975.387,93.13,131,8,1,206,336,6,135,1e-48,191
Exophiala_moniliae_CBS520.76_T,ERR2438975.387,93.13,131,8,1,243,373,6,135,1e-48,191
Exophiala_pisciphila_CBS537.73_T,ERR2438975.387,91.22,148,10,3,246,393,6,150,8e-51,198
Exophiala_pisciphila_CBS537.73_T,ERR2438975.446,93.22,59,4,0,556,614,358,300,2e-17,87.9
Exophiala_xenobiotica_CBS117642,ERR2438975.387,90.54,148,11,3,238,385,6,150,3e-49,193
Exophiala_brunnea_CBS,ERR2438975.387,90.54,148,11,3,274,421,6,150,4e-49,193
Exophiala_nishimurae_CBS101538_T,ERR2438975.387,89.86,148,12,3,252,399,6,150,2e-47,187
Exophiala_mesophila_CBS402.95_T,ERR2438975.387,93.13,131,8,1,236,366,6,135,1e-48,191
Exophiala_mesophila_CBS402.95_T,ERR2438975.446,94.92,59,3,0,553,611,358,300,4e-19,93.5
Exophiala_castellanii_CBS158.58_T,ERR2438975.387,93.13,131,8,1,234,364,6,135,1e-48,191
Exophiala_castellanii_CBS158.58_T,ERR2438975.446,91.55,71,4,2,542,610,370,300,3e-20,97.1
Exophiala_lecanii-corni_CBS123.33_T,ERR2438975.387,92.37,131,9,1,257,387,6,135,6e-47,185
Exophiala_dermatitidis_CBS748.88,ERR2438975.387,93.89,131,7,1,249,379,6,135,7e-50,196
Exophiala_dermatitidis_CBS748.88,ERR2438975.446,94.92,59,3,0,578,636,358,300,1e-18,93.5
Exophiala_angulospora_CBS482.92_T,ERR2438975.387,93.75,128,7,1,240,367,6,132,1e-48,191
Exophiala_opportunistica_CBS109811_T,ERR2438975.387,91.89,148,9,3,239,386,6,150,2e-52,204
Exophiala_salmonis_CBS157.67_T,ERR2438975.387,91.22,148,10,3,368,515,6,150,1e-50,198
Exophiala_salmonis_CBS157.67_T,ERR2438975.446,93.22,59,4,0,676,734,358,300,2e-17,87.9
Exophiala_aquamarina_CBS119918_T,ERR2438975.387,91.28,149,9,4,246,394,6,150,2e-51,200
Exophiala_cancerae_CBS120420_T,ERR2438975.387,91.89,148,9,3,261,408,6,150,2e-52,204
Exophiala_cancerae_CBS120420_T,ERR2438975.446,93.10,58,4,0,567,624,358,301,7e-17,86.1
Exophiala_tremulae_CBS129355,ERR2438975.387,91.89,148,9,3,273,420,6,150,2e-52,204
Exophiala_equina_CBS116009,ERR2438975.387,91.89,148,9,3,239,386,6,150,2e-52,204
Exophiala_alcalophila_CBS520.82_T,ERR2438975.387,93.13,131,8,1,250,380,6,135,1e-48,191
Exophiala_crusticola_CBS119970_T,ERR2438975.387,93.89,131,7,1,255,385,6,135,3e-50,196
Rhinocladiella_atrovirens_CBS264.49,ERR2438975.387,92.37,131,9,1,281,411,6,135,6e-47,185
Rhinocladiella_basitona_CBS101460_T,ERR2438975.387,89.86,148,12,3,240,387,6,150,2e-47,187
Rhinocladiella_phaeophora_CBS496.78_T,ERR2438975.387,93.89,131,7,1,248,378,6,135,3e-50,196
Rhinocladiella_aquaspersa_CBS313.73_T,ERR2438975.387,93.89,131,7,1,242,372,6,135,3e-50,196
Rhinocladiella_aquaspersa_CBS313.73_T,ERR2438975.446,87.14,70,5,4,541,606,369,300,4e-14,76.8
Rhinocladiella_fasciculata_CBS132.86_T,ERR2438975.387,92.37,131,9,1,258,388,6,135,6e-47,185
Rhinocladiella_anceps_CBS181.65_T,ERR2438975.387,92.37,131,9,1,240,370,6,135,6e-47,185
Rhinocladiella_mackenziei_CBS367.92,ERR2438975.387,94.62,130,6,1,229,358,6,134,2e-51,200
Veronaea_compacta_CBS268.75_T,ERR2438975.387,89.93,149,11,4,262,410,6,150,5e-48,189
Capronia_pilosella_AFTOL-ID657,ERR2438975.387,91.28,149,9,3,340,488,6,150,2e-51,200
Capronia_dactylotricha_DAOM208471_T,ERR2438975.387,93.18,132,7,2,242,373,6,135,4e-49,193
Capronia_dactylotricha_DAOM208471_T,ERR2438975.446,93.22,59,4,0,561,619,358,300,2e-17,87.9
Capronia_kleinmondensis_CBS122671_T,ERR2438975.387,92.37,131,9,1,267,397,6,135,7e-47,185
Capronia_kleinmondensis_CBS122671_T,ERR2438975.446,89.04,73,7,1,554,625,372,300,5e-18,89.8
Capronia_mansonii_CBS101.67_T,ERR2438975.387,91.28,149,9,3,253,401,6,150,2e-51,200
Capronia_mansonii_CBS101.67_T,ERR2438975.446,94.92,59,3,0,571,629,358,300,4e-19,93.5
Capronia_munkii_DAOM216390_T,ERR2438975.387,91.28,149,9,3,253,401,6,150,2e-51,200
Capronia_munkii_DAOM216390_T,ERR2438975.446,94.92,59,3,0,571,629,358,300,4e-19,93.5
Capronia_coronata_ATCC56201_T,ERR2438975.387,93.75,128,7,1,241,368,6,132,1e-48,191
Capronia_coronata_ATCC56201_T,ERR2438975.446,90.54,74,5,2,528,600,372,300,3e-20,97.1
Capronia_parasitica_CBS123.88,ERR2438975.387,94.31,123,6,1,247,369,6,127,2e-47,187
Veronaea_japonica_CBS776.83_T,ERR2438975.387,91.22,148,10,3,275,422,6,150,8e-51,198
Thysanorea_papuana_CBS212.96_T,ERR2438975.387,91.89,148,9,2,249,396,6,150,2e-52,204
Capronia_acutiseta_ATCC56428_T,ERR2438975.387,93.80,129,6,2,243,370,6,133,4e-49,193
Capronia_acutiseta_ATCC56428_T,ERR2438975.446,87.34,79,7,3,522,599,376,300,2e-17,87.9
Fonsecaea_brasiliensis_CBS119710_T,ERR2438975.387,91.28,149,9,3,249,397,6,150,2e-51,200
Fonsecaea_pedrosoi_CBS271.37_T,ERR2438975.387,91.33,150,8,4,277,426,6,150,2e-51,200
Fonsecaea_pedrosoi_CBS271.37_T,ERR2438975.446,93.10,58,4,0,588,645,358,301,7e-17,86.1
Fonsecaea_multimorphosa_CBS980.96_T,ERR2438975.387,91.95,149,8,3,247,395,6,150,4e-53,206
Fonsecaea_minima_CBS125760_T,ERR2438975.387,91.28,149,9,3,243,391,6,150,2e-51,200
Fonsecaea_nubica_CBS269.64_T,ERR2438975.387,90.67,150,9,4,254,403,6,150,9e-50,195
Fonsecaea_monophora_CBS269.37_T,ERR2438975.387,90.73,151,8,5,254,404,6,150,3e-50,196
Fonsecaea_erecta_CBS125763_T,ERR2438975.387,91.95,149,8,3,238,386,6,150,4e-53,206
Fonsecaea_pugnacius_CBS139214_T,ERR2438975.387,90.73,151,8,4,247,397,6,150,3e-50,196
Cladophialophora_psammophila_CBS,ERR2438975.387,91.95,149,8,3,253,401,6,150,4e-53,206
Cladophialophora_devriesii_CBS,ERR2438975.387,91.95,149,8,3,249,397,6,150,4e-53,206
Cladophialophora_immunda_CBS834.96,ERR2438975.387,91.28,149,9,3,251,399,6,150,2e-51,200
Cladophialophora_arxii_CBS306.94_T,ERR2438975.387,90.73,151,8,4,253,403,6,150,3e-50,196
Cladophialophora_bantiana_CBS173.52,ERR2438975.387,91.95,149,8,3,247,395,6,150,4e-53,206
Cladophialophora_emmonsii_CBS102594,ERR2438975.387,91.33,150,8,3,238,387,6,150,2e-51,200
Cladophialophora_minourae_CBS556.83,ERR2438975.387,88.67,150,12,4,246,395,6,150,3e-45,180
Cladophialophora_australiensis_CBS112793,ERR2438975.387,91.22,148,10,2,248,395,6,150,2e-50,198
Cladophialophora_australiensis_CBS112793,ERR2438975.446,93.22,59,4,0,549,607,358,300,4e-17,87.9
Cladophialophora_potulentorum_CBS112222,ERR2438975.387,90.54,148,11,2,247,394,6,150,9e-49,193
Cladophialophora_potulentorum_CBS112222,ERR2438975.446,93.22,59,4,0,551,609,358,300,4e-17,87.9
Cladophialophora_matsushimae_CMRP1198,ERR2438975.387,89.86,148,12,2,251,398,6,150,1e-47,187
Cladophialophora_mycetomatis_CBS122637,ERR2438975.387,91.22,148,10,2,236,383,6,150,7e-51,198
Cladophialophora_chaetospira_CBS127573,ERR2438975.387,92.57,148,8,3,642,789,6,150,6e-54,209
Cladophialophora_boppii_CBS126.86_T,ERR2438975.387,91.89,148,9,2,244,391,6,150,2e-52,204
Cladophialophora_abundans_CBS126736,ERR2438975.387,91.28,149,8,5,181,328,6,150,6e-51,198
Capronia_semi-immersa_CBS102234,ERR2438975.387,89.86,148,12,2,243,390,6,150,2e-47,187
Phialophora_americana_CBS400.67,ERR2438975.387,89.86,148,12,2,245,392,6,150,4e-47,187
Phialophora_verrucosa_CBS140325_T,ERR2438975.387,89.86,148,12,2,249,396,6,150,2e-47,187
Cladophialophora_samoensis_CBS259.83_T,ERR2438975.387,90.60,149,9,4,249,396,6,150,3e-49,193
Cladophialophora_samoensis_CBS259.83_T,ERR2438975.13000,88.59,149,12,5,249,396,5,149,3e-44,176
Cladophialophora_carrionii_CBS260.83,ERR2438975.387,91.89,148,9,3,265,412,6,150,2e-52,204
Exophiala_palmae_UPCB86822_T,ERR2438975.387,93.89,131,7,1,208,338,6,135,2e-50,196
Cladophialophora_yegresii_CBS114405_T,ERR2438975.387,91.22,148,10,2,250,397,6,150,7e-51,198
Knufia_epidermidis_CBS120353_T,ERR2438975.387,91.67,120,9,1,248,367,6,124,7e-41,165
Arthrocladium_fulminans_CBS136243_T,ERR2438975.387,92.50,120,8,1,243,362,6,124,2e-42,171
Anthopsis_deltoidea_CBS263.77_T,ERR2438975.387,90.34,145,13,1,252,395,6,150,4e-48,189
Cyphellophora_laciniata_CBS190.61_T,ERR2438975.387,90.34,145,13,1,337,480,6,150,6e-48,189
Cyphellophora_laciniata_CBS190.61_T,ERR2438975.13000,89.04,146,13,3,337,480,5,149,1e-44,178
Cyphellophora_laciniata_CBS190.61_T,ERR2438975.446,94.92,59,3,0,638,696,358,300,5e-19,93.5
Cyphellophora_suttonii_CBS449.91,ERR2438975.387,90.34,145,13,1,240,383,6,150,4e-48,189
Cyphellophora_suttonii_CBS449.91,ERR2438975.13000,89.04,146,13,3,240,383,5,149,9e-45,178
Cyphellophora_pauciseptata_CBS284.85_T,ERR2438975.387,90.34,145,13,1,251,394,6,150,4e-48,189
Cyphellophora_pauciseptata_CBS284.85_T,ERR2438975.13000,89.04,146,13,3,251,394,5,149,9e-45,178
Cyphellophora_pluriseptata_CBS286.85_T,ERR2438975.13000,89.73,146,12,3,256,399,5,149,2e-46,183
Cyphellophora_pluriseptata_CBS286.85_T,ERR2438975.387,89.66,145,14,1,256,399,6,150,2e-46,183
Phialophora_europaea_CBS101466,ERR2438975.13000,89.73,146,12,3,246,389,5,149,2e-46,183
Phialophora_europaea_CBS101466,ERR2438975.387,89.66,145,14,1,246,389,6,150,2e-46,183
Phialophora_ambigua_CBS235.93,ERR2438975.13000,89.73,146,12,3,243,386,5,149,2e-46,183
Phialophora_ambigua_CBS235.93,ERR2438975.387,89.66,145,14,1,243,386,6,150,2e-46,183
Cladophialophora_modesta_CBS985.96_T,ERR2438975.387,91.84,147,10,2,240,386,6,150,2e-52,204
Cladophialophora_modesta_CBS985.96_T,ERR2438975.446,93.22,59,4,0,522,580,358,300,2e-17,87.9
Cyphellophora_fusarioides_MUCL44033_T,ERR2438975.387,89.66,145,14,1,239,382,6,150,2e-46,183
