Exophiala_nigra_CBS535.94_T,ERR2438891.4410,93.18,132,8,1,243,374,6,136,8e-49,193
Exophiala_nigra_CBS535.94_T,ERR2438891.26115,89.93,149,11,3,243,391,6,150,1e-47,189
Exophiala_nigra_CBS535.94_T,ERR2438891.14007,87.90,157,15,4,243,398,6,159,2e-45,182
Exophiala_nigra_CBS535.94_T,ERR2438891.19201,89.31,131,12,2,243,373,6,134,6e-40,163
Exophiala_nigra_CBS535.94_T,ERR2438891.31330,85.33,150,18,4,243,392,6,151,1e-36,152
Exophiala_spinifera_CBS899.68_T,ERR2438891.4410,90.07,151,11,4,240,389,6,153,8e-49,193
Exophiala_spinifera_CBS899.68_T,ERR2438891.26115,91.67,132,10,1,240,371,6,136,2e-45,182
Exophiala_spinifera_CBS899.68_T,ERR2438891.14007,88.67,150,13,3,240,387,6,153,6e-45,180
Exophiala_spinifera_CBS899.68_T,ERR2438891.19201,87.16,148,15,4,240,387,6,149,2e-40,165
Exophiala_spinifera_CBS899.68_T,ERR2438891.31330,85.91,149,18,3,240,388,6,151,1e-37,156
Exophiala_exophialae_CBS668.76_T,ERR2438891.4410,90.07,151,11,4,241,390,6,153,8e-49,193
Exophiala_exophialae_CBS668.76_T,ERR2438891.26115,91.67,132,10,1,241,372,6,136,2e-45,182
Exophiala_exophialae_CBS668.76_T,ERR2438891.14007,88.67,150,13,3,241,388,6,153,6e-45,180
Exophiala_exophialae_CBS668.76_T,ERR2438891.19201,87.16,148,15,4,241,388,6,149,2e-40,165
Exophiala_exophialae_CBS668.76_T,ERR2438891.31330,85.91,149,18,3,241,389,6,151,1e-37,156
Exophiala_polymorpha_CBS138920_T,ERR2438891.4410,90.07,151,11,4,343,492,6,153,1e-48,193
Exophiala_polymorpha_CBS138920_T,ERR2438891.4410,96.00,50,2,0,645,694,358,309,2e-15,82.4
Exophiala_polymorpha_CBS138920_T,ERR2438891.26115,91.67,132,10,1,343,474,6,136,2e-45,182
Exophiala_polymorpha_CBS138920_T,ERR2438891.14007,88.67,150,13,3,343,490,6,153,8e-45,180
Exophiala_polymorpha_CBS138920_T,ERR2438891.14007,98.08,52,1,0,643,694,360,309,4e-18,91.6
Exophiala_polymorpha_CBS138920_T,ERR2438891.19201,87.16,148,15,4,343,490,6,149,2e-40,165
Exophiala_polymorpha_CBS138920_T,ERR2438891.19201,98.00,50,1,0,645,694,358,309,5e-17,87.9
Exophiala_polymorpha_CBS138920_T,ERR2438891.31330,85.91,149,18,3,343,491,6,151,1e-37,156
Exophiala_oligosperma_CBS725.88_T,ERR2438891.4410,90.07,151,11,4,253,402,6,153,8e-49,193
Exophiala_oligosperma_CBS725.88_T,ERR2438891.26115,91.67,132,10,1,253,384,6,136,2e-45,182
Exophiala_oligosperma_CBS725.88_T,ERR2438891.14007,88.67,150,13,3,253,400,6,153,6e-45,180
Exophiala_oligosperma_CBS725.88_T,ERR2438891.19201,87.16,148,15,4,253,400,6,149,2e-40,165
Exophiala_oligosperma_CBS725.88_T,ERR2438891.31330,85.91,149,18,3,253,401,6,151,1e-37,156
Exophiala_jeanselmei_CBS507.90_T,ERR2438891.4410,90.07,151,11,4,245,394,6,153,9e-49,193
Exophiala_jeanselmei_CBS507.90_T,ERR2438891.4410,92.65,68,4,1,537,604,367,301,7e-20,97.1
Exophiala_jeanselmei_CBS507.90_T,ERR2438891.26115,91.67,132,10,1,245,376,6,136,2e-45,182
Exophiala_jeanselmei_CBS507.90_T,ERR2438891.14007,88.67,150,13,3,245,392,6,153,7e-45,180
Exophiala_jeanselmei_CBS507.90_T,ERR2438891.14007,95.65,69,2,1,537,604,369,301,9e-24,110
Exophiala_jeanselmei_CBS507.90_T,ERR2438891.19201,85.80,162,17,5,245,406,6,161,5e-41,167
Exophiala_jeanselmei_CBS507.90_T,ERR2438891.19201,94.12,68,4,0,537,604,368,301,4e-22,104
Exophiala_jeanselmei_CBS507.90_T,ERR2438891.31330,85.91,149,18,3,245,393,6,151,1e-37,156
Exophiala_bergeri_CBS353.52,ERR2438891.4410,93.18,132,8,1,206,337,6,136,7e-49,193
Exophiala_bergeri_CBS353.52,ERR2438891.26115,92.42,132,9,1,206,337,6,136,3e-47,187
Exophiala_bergeri_CBS353.52,ERR2438891.14007,90.98,133,10,2,206,338,6,136,2e-44,178
Exophiala_bergeri_CBS353.52,ERR2438891.19201,89.31,131,12,2,206,336,6,134,5e-40,163
Exophiala_bergeri_CBS353.52,ERR2438891.31330,85.33,150,18,4,206,355,6,151,1e-36,152
Exophiala_moniliae_CBS520.76_T,ERR2438891.4410,93.18,132,8,1,243,374,6,136,8e-49,193
Exophiala_moniliae_CBS520.76_T,ERR2438891.26115,92.42,132,9,1,243,374,6,136,4e-47,187
Exophiala_moniliae_CBS520.76_T,ERR2438891.14007,90.23,133,11,2,243,375,6,136,1e-42,172
Exophiala_moniliae_CBS520.76_T,ERR2438891.19201,91.45,117,9,1,243,359,6,121,8e-39,159
Exophiala_moniliae_CBS520.76_T,ERR2438891.31330,85.82,134,17,2,243,376,6,137,3e-33,141
Exophiala_pisciphila_CBS537.73_T,ERR2438891.4410,91.39,151,9,4,246,395,6,153,4e-52,204
Exophiala_pisciphila_CBS537.73_T,ERR2438891.4410,94.12,68,3,1,547,613,368,301,2e-21,102
Exophiala_pisciphila_CBS537.73_T,ERR2438891.26115,93.18,132,8,1,246,377,6,136,9e-49,193
Exophiala_pisciphila_CBS537.73_T,ERR2438891.26115,97.78,45,0,1,546,590,257,300,1e-13,76.8
Exophiala_pisciphila_CBS537.73_T,ERR2438891.14007,89.33,150,12,3,246,393,6,153,2e-46,185
Exophiala_pisciphila_CBS537.73_T,ERR2438891.14007,94.20,69,3,1,547,614,368,300,4e-22,104
Exophiala_pisciphila_CBS537.73_T,ERR2438891.19201,87.16,148,15,4,246,393,6,149,2e-40,165
Exophiala_pisciphila_CBS537.73_T,ERR2438891.19201,100.00,58,0,0,556,613,358,301,3e-23,108
Exophiala_pisciphila_CBS537.73_T,ERR2438891.31330,86.58,149,17,3,246,394,6,151,3e-39,161
Exophiala_xenobiotica_CBS117642,ERR2438891.4410,90.73,151,10,4,238,387,6,153,2e-50,198
Exophiala_xenobiotica_CBS117642,ERR2438891.26115,92.42,132,9,1,238,369,6,136,4e-47,187
Exophiala_xenobiotica_CBS117642,ERR2438891.14007,89.33,150,12,3,238,385,6,153,1e-46,185
Exophiala_xenobiotica_CBS117642,ERR2438891.19201,87.84,148,14,4,238,385,6,149,4e-42,171
Exophiala_xenobiotica_CBS117642,ERR2438891.31330,86.58,149,17,3,238,386,6,151,2e-39,161
Exophiala_brunnea_CBS,ERR2438891.4410,90.73,151,10,4,274,423,6,153,2e-50,198
Exophiala_brunnea_CBS,ERR2438891.4410,95.74,47,2,0,587,633,358,312,3e-14,78.7
Exophiala_brunnea_CBS,ERR2438891.26115,92.42,132,9,1,274,405,6,136,4e-47,187
Exophiala_brunnea_CBS,ERR2438891.14007,88.67,150,13,3,274,421,6,153,7e-45,180
Exophiala_brunnea_CBS,ERR2438891.19201,86.49,148,16,4,274,421,6,149,9e-39,159
Exophiala_brunnea_CBS,ERR2438891.19201,97.87,47,1,0,587,633,358,312,6e-16,84.2
Exophiala_brunnea_CBS,ERR2438891.31330,85.91,149,18,3,274,422,6,151,1e-37,156
Exophiala_nishimurae_CBS101538_T,ERR2438891.4410,90.07,151,11,4,252,401,6,153,8e-49,193
Exophiala_nishimurae_CBS101538_T,ERR2438891.26115,91.67,132,10,1,252,383,6,136,2e-45,182
Exophiala_nishimurae_CBS101538_T,ERR2438891.14007,87.90,157,14,4,252,406,6,159,7e-45,180
Exophiala_nishimurae_CBS101538_T,ERR2438891.19201,87.16,148,15,4,252,399,6,149,2e-40,165
Exophiala_nishimurae_CBS101538_T,ERR2438891.31330,85.91,149,18,3,252,400,6,151,1e-37,156
Exophiala_mesophila_CBS402.95_T,ERR2438891.4410,93.18,132,8,1,236,367,6,136,9e-49,193
Exophiala_mesophila_CBS402.95_T,ERR2438891.4410,96.55,58,2,0,553,610,358,301,7e-20,97.1
Exophiala_mesophila_CBS402.95_T,ERR2438891.26115,92.42,132,9,1,236,367,6,136,4e-47,187
Exophiala_mesophila_CBS402.95_T,ERR2438891.14007,90.23,133,11,2,236,368,6,136,1e-42,172
Exophiala_mesophila_CBS402.95_T,ERR2438891.14007,98.36,61,1,0,551,611,360,300,3e-23,108
Exophiala_mesophila_CBS402.95_T,ERR2438891.19201,90.60,117,10,1,236,352,6,121,4e-37,154
Exophiala_mesophila_CBS402.95_T,ERR2438891.19201,98.28,58,1,0,553,610,358,301,2e-21,102
Exophiala_mesophila_CBS402.95_T,ERR2438891.31330,85.82,134,17,2,236,369,6,137,3e-33,141
Exophiala_castellanii_CBS158.58_T,ERR2438891.4410,93.18,132,8,1,234,365,6,136,9e-49,193
Exophiala_castellanii_CBS158.58_T,ERR2438891.4410,92.65,68,4,1,543,609,368,301,7e-20,97.1
Exophiala_castellanii_CBS158.58_T,ERR2438891.26115,92.42,132,9,1,234,365,6,136,4e-47,187
Exophiala_castellanii_CBS158.58_T,ERR2438891.14007,90.23,133,11,2,234,366,6,136,1e-42,172
Exophiala_castellanii_CBS158.58_T,ERR2438891.14007,94.44,72,2,2,541,610,371,300,1e-23,110
Exophiala_castellanii_CBS158.58_T,ERR2438891.19201,90.60,117,10,1,234,350,6,121,4e-37,154
Exophiala_castellanii_CBS158.58_T,ERR2438891.19201,98.28,58,1,0,552,609,358,301,2e-21,102
Exophiala_castellanii_CBS158.58_T,ERR2438891.31330,85.82,134,17,2,234,367,6,137,3e-33,141
Exophiala_lecanii-corni_CBS123.33_T,ERR2438891.26115,92.42,132,9,1,257,388,6,136,4e-47,187
Exophiala_lecanii-corni_CBS123.33_T,ERR2438891.4410,92.42,132,9,1,257,388,6,136,4e-47,187
Exophiala_lecanii-corni_CBS123.33_T,ERR2438891.14007,89.47,133,12,2,257,389,6,136,5e-41,167
Exophiala_lecanii-corni_CBS123.33_T,ERR2438891.19201,88.55,131,13,2,257,387,6,134,3e-38,158
Exophiala_lecanii-corni_CBS123.33_T,ERR2438891.31330,85.07,134,18,2,257,390,6,137,1e-31,135
Exophiala_dermatitidis_CBS748.88,ERR2438891.4410,93.94,132,7,1,249,380,6,136,5e-50,198
Exophiala_dermatitidis_CBS748.88,ERR2438891.4410,90.12,81,7,1,556,635,381,301,1e-21,104
Exophiala_dermatitidis_CBS748.88,ERR2438891.26115,93.18,132,8,1,249,380,6,136,2e-48,193
Exophiala_dermatitidis_CBS748.88,ERR2438891.14007,88.67,150,14,3,249,397,6,153,2e-44,180
Exophiala_dermatitidis_CBS748.88,ERR2438891.14007,95.00,80,3,1,558,636,379,300,8e-28,124
Exophiala_dermatitidis_CBS748.88,ERR2438891.19201,91.45,117,9,1,249,365,6,121,2e-38,159
Exophiala_dermatitidis_CBS748.88,ERR2438891.19201,98.28,58,1,0,578,635,358,301,4e-21,102
Exophiala_dermatitidis_CBS748.88,ERR2438891.31330,86.00,150,17,4,249,398,6,151,8e-38,158
Exophiala_angulospora_CBS482.92_T,ERR2438891.4410,93.18,132,8,1,240,371,6,136,8e-49,193
Exophiala_angulospora_CBS482.92_T,ERR2438891.26115,92.42,132,9,1,240,371,6,136,4e-47,187
Exophiala_angulospora_CBS482.92_T,ERR2438891.14007,88.67,150,14,3,240,388,6,153,6e-45,180
Exophiala_angulospora_CBS482.92_T,ERR2438891.19201,91.45,117,9,1,240,356,6,121,8e-39,159
Exophiala_angulospora_CBS482.92_T,ERR2438891.31330,84.71,157,19,5,240,396,6,157,1e-36,152
Exophiala_opportunistica_CBS109811_T,ERR2438891.4410,92.05,151,8,4,239,388,6,153,8e-54,209
Exophiala_opportunistica_CBS109811_T,ERR2438891.26115,91.22,148,10,3,239,386,6,150,2e-50,198
Exophiala_opportunistica_CBS109811_T,ERR2438891.14007,90.00,150,11,3,239,386,6,153,3e-48,191
Exophiala_opportunistica_CBS109811_T,ERR2438891.19201,87.84,148,14,4,239,386,6,149,4e-42,171
Exophiala_opportunistica_CBS109811_T,ERR2438891.31330,85.91,149,18,3,239,387,6,151,1e-37,156
Exophiala_salmonis_CBS157.67_T,ERR2438891.4410,91.39,151,9,4,368,517,6,153,5e-52,204
Exophiala_salmonis_CBS157.67_T,ERR2438891.4410,94.12,68,3,1,667,733,368,301,2e-21,102
Exophiala_salmonis_CBS157.67_T,ERR2438891.26115,93.18,132,8,1,368,499,6,136,1e-48,193
Exophiala_salmonis_CBS157.67_T,ERR2438891.26115,97.78,45,0,1,666,710,257,300,1e-13,76.8
Exophiala_salmonis_CBS157.67_T,ERR2438891.14007,89.33,150,12,3,368,515,6,153,2e-46,185
Exophiala_salmonis_CBS157.67_T,ERR2438891.14007,94.20,69,3,1,667,734,368,300,5e-22,104
Exophiala_salmonis_CBS157.67_T,ERR2438891.19201,87.16,148,15,4,368,515,6,149,2e-40,165
Exophiala_salmonis_CBS157.67_T,ERR2438891.19201,100.00,58,0,0,676,733,358,301,4e-23,108
Exophiala_salmonis_CBS157.67_T,ERR2438891.31330,86.58,149,17,3,368,516,6,151,3e-39,161
Exophiala_aquamarina_CBS119918_T,ERR2438891.4410,91.45,152,8,4,246,396,6,153,4e-52,204
Exophiala_aquamarina_CBS119918_T,ERR2438891.26115,90.60,149,10,3,246,394,6,150,2e-49,195
Exophiala_aquamarina_CBS119918_T,ERR2438891.14007,87.97,158,13,5,246,401,6,159,2e-45,182
Exophiala_aquamarina_CBS119918_T,ERR2438891.19201,87.25,149,14,4,246,394,6,149,2e-40,165
Exophiala_aquamarina_CBS119918_T,ERR2438891.31330,86.00,150,17,4,246,395,6,151,3e-38,158
Exophiala_cancerae_CBS120420_T,ERR2438891.4410,92.05,151,8,4,261,410,6,153,9e-54,209
Exophiala_cancerae_CBS120420_T,ERR2438891.4410,98.28,58,1,0,567,624,358,301,2e-21,102
Exophiala_cancerae_CBS120420_T,ERR2438891.26115,91.22,148,10,3,261,408,6,150,2e-50,198
Exophiala_cancerae_CBS120420_T,ERR2438891.26115,100.00,39,0,0,563,601,262,300,1e-12,73.1
Exophiala_cancerae_CBS120420_T,ERR2438891.14007,90.00,150,11,3,261,408,6,153,3e-48,191
Exophiala_cancerae_CBS120420_T,ERR2438891.14007,96.67,60,2,0,565,624,360,301,6e-21,100
Exophiala_cancerae_CBS120420_T,ERR2438891.19201,87.84,148,14,4,261,408,6,149,4e-42,171
Exophiala_cancerae_CBS120420_T,ERR2438891.19201,100.00,58,0,0,567,624,358,301,3e-23,108
Exophiala_cancerae_CBS120420_T,ERR2438891.31330,85.91,149,18,3,261,409,6,151,1e-37,156
Exophiala_tremulae_CBS129355,ERR2438891.4410,92.05,151,8,3,273,422,6,153,9e-54,209
Exophiala_tremulae_CBS129355,ERR2438891.4410,92.98,57,3,1,573,628,368,312,2e-15,82.4
Exophiala_tremulae_CBS129355,ERR2438891.26115,91.22,148,10,2,273,420,6,150,2e-50,198
Exophiala_tremulae_CBS129355,ERR2438891.26115,97.78,45,0,1,572,616,257,300,9e-14,76.8
Exophiala_tremulae_CBS129355,ERR2438891.14007,89.33,150,12,3,273,420,6,153,1e-46,185
Exophiala_tremulae_CBS129355,ERR2438891.19201,87.84,148,14,4,273,420,6,149,4e-42,171
Exophiala_tremulae_CBS129355,ERR2438891.19201,100.00,47,0,0,582,628,358,312,4e-17,87.9
Exophiala_tremulae_CBS129355,ERR2438891.31330,86.58,149,17,3,273,421,6,151,3e-39,161
Exophiala_equina_CBS116009,ERR2438891.4410,92.05,151,8,3,239,388,6,153,8e-54,209
Exophiala_equina_CBS116009,ERR2438891.26115,91.22,148,10,2,239,386,6,150,2e-50,198
Exophiala_equina_CBS116009,ERR2438891.14007,89.33,150,12,3,239,386,6,153,1e-46,185
Exophiala_equina_CBS116009,ERR2438891.19201,87.84,148,14,4,239,386,6,149,4e-42,171
Exophiala_equina_CBS116009,ERR2438891.31330,86.58,149,17,3,239,387,6,151,2e-39,161
Exophiala_alcalophila_CBS520.82_T,ERR2438891.4410,93.18,132,8,1,250,381,6,136,8e-49,193
Exophiala_alcalophila_CBS520.82_T,ERR2438891.26115,92.42,132,9,1,250,381,6,136,4e-47,187
Exophiala_alcalophila_CBS520.82_T,ERR2438891.14007,87.90,157,15,4,250,405,6,159,2e-45,182
Exophiala_alcalophila_CBS520.82_T,ERR2438891.19201,91.45,117,9,1,250,366,6,121,8e-39,159
Exophiala_alcalophila_CBS520.82_T,ERR2438891.31330,85.33,150,18,4,250,399,6,151,1e-36,152
Exophiala_crusticola_CBS119970_T,ERR2438891.4410,93.94,132,7,1,255,386,6,136,2e-50,198
Exophiala_crusticola_CBS119970_T,ERR2438891.26115,93.18,132,8,1,255,386,6,136,8e-49,193
Exophiala_crusticola_CBS119970_T,ERR2438891.14007,87.90,157,15,4,255,409,6,160,2e-45,182
Exophiala_crusticola_CBS119970_T,ERR2438891.19201,91.45,117,9,1,255,371,6,121,8e-39,159
Exophiala_crusticola_CBS119970_T,ERR2438891.31330,85.53,152,18,4,255,406,6,153,1e-37,156
Rhinocladiella_atrovirens_CBS264.49,ERR2438891.26115,92.42,132,9,1,281,412,6,136,4e-47,187
Rhinocladiella_atrovirens_CBS264.49,ERR2438891.26115,100.00,38,0,0,578,615,263,300,4e-12,71.3
Rhinocladiella_atrovirens_CBS264.49,ERR2438891.4410,92.42,132,9,1,281,412,6,136,4e-47,187
Rhinocladiella_atrovirens_CBS264.49,ERR2438891.4410,97.83,46,1,0,581,626,358,313,7e-15,80.5
Rhinocladiella_atrovirens_CBS264.49,ERR2438891.14007,89.47,133,12,2,281,413,6,136,5e-41,167
Rhinocladiella_atrovirens_CBS264.49,ERR2438891.19201,88.55,131,13,2,281,411,6,134,3e-38,158
Rhinocladiella_atrovirens_CBS264.49,ERR2438891.19201,100.00,46,0,0,581,626,358,313,2e-16,86.1
Rhinocladiella_atrovirens_CBS264.49,ERR2438891.31330,85.07,134,18,2,281,414,6,137,2e-31,135
Rhinocladiella_basitona_CBS101460_T,ERR2438891.4410,90.07,151,11,4,240,389,6,153,8e-49,193
Rhinocladiella_basitona_CBS101460_T,ERR2438891.26115,91.67,132,10,1,240,371,6,136,2e-45,182
Rhinocladiella_basitona_CBS101460_T,ERR2438891.14007,88.67,150,13,3,240,387,6,153,6e-45,180
Rhinocladiella_basitona_CBS101460_T,ERR2438891.19201,87.16,148,15,4,240,387,6,149,2e-40,165
Rhinocladiella_basitona_CBS101460_T,ERR2438891.31330,85.91,149,18,3,240,388,6,151,1e-37,156
Rhinocladiella_phaeophora_CBS496.78_T,ERR2438891.4410,93.94,132,7,1,248,379,6,136,2e-50,198
Rhinocladiella_phaeophora_CBS496.78_T,ERR2438891.26115,93.18,132,8,1,248,379,6,136,8e-49,193
Rhinocladiella_phaeophora_CBS496.78_T,ERR2438891.14007,89.33,150,14,2,248,397,6,153,4e-47,187
Rhinocladiella_phaeophora_CBS496.78_T,ERR2438891.19201,91.45,117,9,1,248,364,6,121,8e-39,159
Rhinocladiella_phaeophora_CBS496.78_T,ERR2438891.31330,84.77,151,18,5,248,398,6,151,6e-35,147
Rhinocladiella_aquaspersa_CBS313.73_T,ERR2438891.4410,93.94,132,7,1,242,373,6,136,2e-50,198
Rhinocladiella_aquaspersa_CBS313.73_T,ERR2438891.4410,89.19,74,4,4,536,605,374,301,1e-17,89.8
Rhinocladiella_aquaspersa_CBS313.73_T,ERR2438891.26115,93.18,132,8,1,242,373,6,136,9e-49,193
Rhinocladiella_aquaspersa_CBS313.73_T,ERR2438891.14007,89.33,150,14,2,242,391,6,153,4e-47,187
Rhinocladiella_aquaspersa_CBS313.73_T,ERR2438891.14007,88.16,76,4,5,536,606,375,300,2e-16,86.1
Rhinocladiella_aquaspersa_CBS313.73_T,ERR2438891.19201,91.45,117,9,1,242,358,6,121,9e-39,159
Rhinocladiella_aquaspersa_CBS313.73_T,ERR2438891.19201,94.83,58,0,3,551,605,358,301,5e-17,87.9
Rhinocladiella_aquaspersa_CBS313.73_T,ERR2438891.31330,84.77,151,18,5,242,392,6,151,7e-35,147
Rhinocladiella_fasciculata_CBS132.86_T,ERR2438891.4410,92.42,132,9,1,258,389,6,136,4e-47,187
Rhinocladiella_fasciculata_CBS132.86_T,ERR2438891.26115,91.67,132,10,1,258,389,6,136,2e-45,182
Rhinocladiella_fasciculata_CBS132.86_T,ERR2438891.14007,88.08,151,15,3,258,408,6,153,8e-44,176
Rhinocladiella_fasciculata_CBS132.86_T,ERR2438891.19201,90.60,117,10,1,258,374,6,121,4e-37,154
Rhinocladiella_fasciculata_CBS132.86_T,ERR2438891.31330,83.55,152,19,6,258,409,6,151,4e-32,137
Rhinocladiella_anceps_CBS181.65_T,ERR2438891.4410,88.27,162,13,5,240,401,6,161,1e-47,189
Rhinocladiella_anceps_CBS181.65_T,ERR2438891.26115,91.67,132,10,1,240,371,6,136,2e-45,182
Rhinocladiella_anceps_CBS181.65_T,ERR2438891.14007,87.33,150,16,3,240,388,6,153,1e-41,169
Rhinocladiella_anceps_CBS181.65_T,ERR2438891.19201,86.58,149,15,4,240,388,6,149,8e-39,159
Rhinocladiella_anceps_CBS181.65_T,ERR2438891.31330,84.08,157,20,5,240,396,6,157,6e-35,147
Rhinocladiella_mackenziei_CBS367.92,ERR2438891.4410,93.08,130,8,1,229,358,6,134,1e-47,189
Rhinocladiella_mackenziei_CBS367.92,ERR2438891.4410,96.15,52,2,0,557,608,369,318,2e-16,86.1
Rhinocladiella_mackenziei_CBS367.92,ERR2438891.26115,92.31,130,9,1,229,358,6,134,5e-46,183
Rhinocladiella_mackenziei_CBS367.92,ERR2438891.26115,97.73,44,0,1,559,602,258,300,3e-13,75.0
Rhinocladiella_mackenziei_CBS367.92,ERR2438891.14007,89.55,134,11,3,229,362,6,136,5e-41,167
Rhinocladiella_mackenziei_CBS367.92,ERR2438891.19201,89.23,130,12,2,229,358,6,133,2e-39,161
Rhinocladiella_mackenziei_CBS367.92,ERR2438891.19201,100.00,41,0,0,568,608,358,318,9e-14,76.8
Rhinocladiella_mackenziei_CBS367.92,ERR2438891.31330,85.93,135,16,3,229,363,6,137,3e-33,141
Veronaea_compacta_CBS268.75_T,ERR2438891.4410,90.13,152,10,5,262,412,6,153,8e-49,193
Veronaea_compacta_CBS268.75_T,ERR2438891.26115,91.73,133,9,2,262,394,6,136,5e-46,183
Veronaea_compacta_CBS268.75_T,ERR2438891.14007,88.08,151,13,4,262,410,6,153,3e-43,174
Veronaea_compacta_CBS268.75_T,ERR2438891.31330,86.00,150,17,4,262,411,6,151,3e-38,158
Veronaea_compacta_CBS268.75_T,ERR2438891.19201,90.60,117,10,1,262,378,6,121,4e-37,154
Capronia_pilosella_AFTOL-ID657,ERR2438891.4410,91.45,152,8,4,340,490,6,153,5e-52,204
Capronia_pilosella_AFTOL-ID657,ERR2438891.26115,90.60,149,10,3,340,488,6,150,3e-49,195
Capronia_pilosella_AFTOL-ID657,ERR2438891.26115,97.67,43,1,0,638,680,258,300,4e-13,75.0
Capronia_pilosella_AFTOL-ID657,ERR2438891.14007,89.33,150,13,3,340,488,6,153,2e-46,185
Capronia_pilosella_AFTOL-ID657,ERR2438891.19201,87.25,149,14,4,340,488,6,149,2e-40,165
Capronia_pilosella_AFTOL-ID657,ERR2438891.31330,86.00,150,17,4,340,489,6,151,4e-38,158
Capronia_dactylotricha_DAOM208471_T,ERR2438891.4410,93.23,133,7,2,242,374,6,136,3e-49,195
Capronia_dactylotricha_DAOM208471_T,ERR2438891.4410,98.28,58,1,0,561,618,358,301,2e-21,102
Capronia_dactylotricha_DAOM208471_T,ERR2438891.26115,92.48,133,8,2,242,374,6,136,1e-47,189
Capronia_dactylotricha_DAOM208471_T,ERR2438891.26115,100.00,38,0,0,558,595,263,300,5e-12,71.3
Capronia_dactylotricha_DAOM208471_T,ERR2438891.14007,90.30,134,10,2,242,375,6,136,1e-42,172
Capronia_dactylotricha_DAOM208471_T,ERR2438891.14007,96.72,61,2,0,559,619,360,300,2e-21,102
Capronia_dactylotricha_DAOM208471_T,ERR2438891.19201,89.39,132,11,3,242,373,6,134,7e-40,163
Capronia_dactylotricha_DAOM208471_T,ERR2438891.19201,100.00,58,0,0,561,618,358,301,4e-23,108
Capronia_dactylotricha_DAOM208471_T,ERR2438891.31330,85.93,135,16,2,242,376,6,137,3e-33,141
Capronia_kleinmondensis_CBS122671_T,ERR2438891.26115,92.42,132,9,1,267,398,6,136,4e-47,187
Capronia_kleinmondensis_CBS122671_T,ERR2438891.26115,100.00,38,0,0,564,601,263,300,5e-12,71.3
Capronia_kleinmondensis_CBS122671_T,ERR2438891.4410,92.42,132,9,1,267,398,6,136,4e-47,187
Capronia_kleinmondensis_CBS122671_T,ERR2438891.4410,98.28,58,1,0,567,624,358,301,2e-21,102
Capronia_kleinmondensis_CBS122671_T,ERR2438891.14007,89.47,133,12,2,267,399,6,136,6e-41,167
Capronia_kleinmondensis_CBS122671_T,ERR2438891.14007,96.72,61,2,0,565,625,360,300,2e-21,102
Capronia_kleinmondensis_CBS122671_T,ERR2438891.19201,88.55,131,13,2,267,397,6,134,3e-38,158
Capronia_kleinmondensis_CBS122671_T,ERR2438891.19201,100.00,58,0,0,567,624,358,301,4e-23,108
Capronia_kleinmondensis_CBS122671_T,ERR2438891.31330,85.07,134,18,2,267,400,6,137,2e-31,135
Capronia_mansonii_CBS101.67_T,ERR2438891.4410,91.45,152,8,5,253,403,6,153,4e-52,204
Capronia_mansonii_CBS101.67_T,ERR2438891.4410,92.50,80,4,2,550,628,379,301,8e-25,113
Capronia_mansonii_CBS101.67_T,ERR2438891.26115,90.60,149,10,4,253,401,6,150,3e-49,195
Capronia_mansonii_CBS101.67_T,ERR2438891.26115,97.73,44,1,0,562,605,257,300,1e-13,76.8
Capronia_mansonii_CBS101.67_T,ERR2438891.14007,89.33,150,13,3,253,401,6,153,2e-46,185
Capronia_mansonii_CBS101.67_T,ERR2438891.14007,92.68,82,5,1,549,629,381,300,6e-26,117
Capronia_mansonii_CBS101.67_T,ERR2438891.19201,87.25,149,14,4,253,401,6,149,2e-40,165
Capronia_mansonii_CBS101.67_T,ERR2438891.19201,98.28,58,1,0,571,628,358,301,2e-21,102
Capronia_mansonii_CBS101.67_T,ERR2438891.31330,86.00,150,17,4,253,402,6,151,3e-38,158
Capronia_munkii_DAOM216390_T,ERR2438891.4410,91.45,152,8,5,253,403,6,153,4e-52,204
Capronia_munkii_DAOM216390_T,ERR2438891.4410,91.25,80,5,2,550,628,379,301,4e-23,108
Capronia_munkii_DAOM216390_T,ERR2438891.26115,90.60,149,10,4,253,401,6,150,3e-49,195
Capronia_munkii_DAOM216390_T,ERR2438891.14007,89.33,150,13,3,253,401,6,153,2e-46,185
Capronia_munkii_DAOM216390_T,ERR2438891.14007,92.68,82,5,1,549,629,381,300,6e-26,117
Capronia_munkii_DAOM216390_T,ERR2438891.19201,87.25,149,14,4,253,401,6,149,2e-40,165
Capronia_munkii_DAOM216390_T,ERR2438891.19201,98.28,58,1,0,571,628,358,301,2e-21,102
Capronia_munkii_DAOM216390_T,ERR2438891.31330,86.00,150,17,4,253,402,6,151,3e-38,158
Capronia_coronata_ATCC56201_T,ERR2438891.4410,93.18,132,8,1,241,372,6,136,9e-49,193
Capronia_coronata_ATCC56201_T,ERR2438891.4410,92.75,69,4,1,532,599,369,301,2e-20,99.0
Capronia_coronata_ATCC56201_T,ERR2438891.26115,92.42,132,9,1,241,372,6,136,4e-47,187
Capronia_coronata_ATCC56201_T,ERR2438891.14007,87.90,157,15,4,241,396,6,159,2e-45,182
Capronia_coronata_ATCC56201_T,ERR2438891.14007,98.36,61,1,0,540,600,360,300,3e-23,108
Capronia_coronata_ATCC56201_T,ERR2438891.19201,91.45,117,9,1,241,357,6,121,9e-39,159
Capronia_coronata_ATCC56201_T,ERR2438891.19201,98.28,58,1,0,542,599,358,301,2e-21,102
Capronia_coronata_ATCC56201_T,ERR2438891.31330,85.33,150,18,4,241,390,6,151,2e-36,152
Capronia_parasitica_CBS123.88,ERR2438891.26115,93.02,129,8,1,247,375,6,133,4e-47,187
Capronia_parasitica_CBS123.88,ERR2438891.26115,100.00,37,0,0,559,595,262,298,1e-11,69.4
Capronia_parasitica_CBS123.88,ERR2438891.4410,93.02,129,8,1,247,375,6,133,4e-47,187
Capronia_parasitica_CBS123.88,ERR2438891.14007,89.92,129,11,2,247,375,6,132,2e-40,165
Capronia_parasitica_CBS123.88,ERR2438891.19201,91.45,117,9,1,247,363,6,121,9e-39,159
Capronia_parasitica_CBS123.88,ERR2438891.19201,93.02,43,3,0,553,595,368,326,7e-10,63.9
Capronia_parasitica_CBS123.88,ERR2438891.31330,84.21,152,18,6,247,398,6,151,9e-34,143
Veronaea_japonica_CBS776.83_T,ERR2438891.4410,91.39,151,9,4,275,424,6,153,4e-52,204
Veronaea_japonica_CBS776.83_T,ERR2438891.26115,93.18,132,8,1,275,406,6,136,9e-49,193
Veronaea_japonica_CBS776.83_T,ERR2438891.14007,89.33,150,12,3,275,422,6,153,1e-46,185
Veronaea_japonica_CBS776.83_T,ERR2438891.19201,87.16,148,15,4,275,422,6,149,2e-40,165
Veronaea_japonica_CBS776.83_T,ERR2438891.31330,86.58,149,17,3,275,423,6,151,2e-39,161
Thysanorea_papuana_CBS212.96_T,ERR2438891.4410,92.05,151,8,4,249,398,6,153,8e-54,209
Thysanorea_papuana_CBS212.96_T,ERR2438891.26115,91.22,148,10,3,249,396,6,150,2e-50,198
Thysanorea_papuana_CBS212.96_T,ERR2438891.14007,90.00,150,11,3,249,396,6,153,3e-48,191
Thysanorea_papuana_CBS212.96_T,ERR2438891.19201,87.84,148,14,3,249,396,6,149,4e-42,171
Thysanorea_papuana_CBS212.96_T,ERR2438891.31330,85.91,149,18,3,249,397,6,151,1e-37,156
Capronia_acutiseta_ATCC56428_T,ERR2438891.4410,93.23,133,7,2,243,374,6,137,3e-49,195
Capronia_acutiseta_ATCC56428_T,ERR2438891.4410,98.28,58,1,0,541,598,358,301,2e-21,102
Capronia_acutiseta_ATCC56428_T,ERR2438891.26115,92.48,133,8,2,243,374,6,137,1e-47,189
Capronia_acutiseta_ATCC56428_T,ERR2438891.26115,100.00,39,0,0,537,575,262,300,1e-12,73.1
Capronia_acutiseta_ATCC56428_T,ERR2438891.14007,90.70,129,9,3,243,370,6,132,2e-41,169
Capronia_acutiseta_ATCC56428_T,ERR2438891.14007,93.06,72,5,0,528,599,371,300,1e-22,106
Capronia_acutiseta_ATCC56428_T,ERR2438891.19201,91.45,117,8,2,243,358,6,121,9e-39,159
Capronia_acutiseta_ATCC56428_T,ERR2438891.19201,100.00,58,0,0,541,598,358,301,3e-23,108
Capronia_acutiseta_ATCC56428_T,ERR2438891.31330,84.18,158,18,7,243,399,6,157,7e-35,147
Fonsecaea_brasiliensis_CBS119710_T,ERR2438891.4410,90.79,152,9,4,249,399,6,153,2e-50,198
Fonsecaea_brasiliensis_CBS119710_T,ERR2438891.26115,92.48,133,8,2,249,381,6,136,1e-47,189
Fonsecaea_brasiliensis_CBS119710_T,ERR2438891.14007,88.61,158,12,6,249,404,6,159,4e-47,187
Fonsecaea_brasiliensis_CBS119710_T,ERR2438891.19201,87.25,149,14,3,249,397,6,149,2e-40,165
Fonsecaea_brasiliensis_CBS119710_T,ERR2438891.31330,85.33,150,18,4,249,398,6,151,1e-36,152
Fonsecaea_pedrosoi_CBS271.37_T,ERR2438891.4410,90.85,153,8,5,277,428,6,153,6e-51,200
Fonsecaea_pedrosoi_CBS271.37_T,ERR2438891.4410,92.75,69,4,1,578,645,369,301,2e-20,99.0
Fonsecaea_pedrosoi_CBS271.37_T,ERR2438891.26115,90.00,150,10,4,277,426,6,150,1e-47,189
Fonsecaea_pedrosoi_CBS271.37_T,ERR2438891.14007,88.61,158,13,5,277,433,6,159,4e-47,187
Fonsecaea_pedrosoi_CBS271.37_T,ERR2438891.14007,94.20,69,3,1,578,645,369,301,4e-22,104
Fonsecaea_pedrosoi_CBS271.37_T,ERR2438891.19201,86.67,150,14,4,277,426,6,149,3e-39,161
Fonsecaea_pedrosoi_CBS271.37_T,ERR2438891.19201,96.55,58,2,0,588,645,358,301,7e-20,97.1
Fonsecaea_pedrosoi_CBS271.37_T,ERR2438891.31330,85.43,151,17,5,277,427,6,151,2e-36,152
Fonsecaea_multimorphosa_CBS980.96_T,ERR2438891.4410,91.45,152,8,4,247,397,6,153,4e-52,204
Fonsecaea_multimorphosa_CBS980.96_T,ERR2438891.26115,90.60,149,10,3,247,395,6,150,2e-49,195
Fonsecaea_multimorphosa_CBS980.96_T,ERR2438891.14007,89.40,151,11,5,247,395,6,153,1e-46,185
Fonsecaea_multimorphosa_CBS980.96_T,ERR2438891.19201,87.92,149,13,4,247,395,6,149,4e-42,171
Fonsecaea_multimorphosa_CBS980.96_T,ERR2438891.31330,84.67,150,19,4,247,396,6,151,6e-35,147
Fonsecaea_minima_CBS125760_T,ERR2438891.4410,90.79,152,9,4,243,393,6,153,2e-50,198
Fonsecaea_minima_CBS125760_T,ERR2438891.26115,88.82,161,11,5,243,402,6,160,3e-48,191
Fonsecaea_minima_CBS125760_T,ERR2438891.14007,89.40,151,11,5,243,391,6,153,1e-46,185
Fonsecaea_minima_CBS125760_T,ERR2438891.19201,87.25,149,14,3,243,391,6,149,2e-40,165
Fonsecaea_minima_CBS125760_T,ERR2438891.31330,85.33,150,18,4,243,392,6,151,1e-36,152
Fonsecaea_nubica_CBS269.64_T,ERR2438891.4410,90.85,153,8,5,254,405,6,153,5e-51,200
Fonsecaea_nubica_CBS269.64_T,ERR2438891.26115,90.00,150,10,4,254,403,6,150,1e-47,189
Fonsecaea_nubica_CBS269.64_T,ERR2438891.14007,88.74,151,13,4,254,403,6,153,2e-45,182
Fonsecaea_nubica_CBS269.64_T,ERR2438891.19201,86.67,150,14,4,254,403,6,149,2e-39,161
Fonsecaea_nubica_CBS269.64_T,ERR2438891.31330,85.43,151,17,5,254,404,6,151,1e-36,152
Fonsecaea_monophora_CBS269.37_T,ERR2438891.4410,90.26,154,8,6,254,406,6,153,2e-49,195
Fonsecaea_monophora_CBS269.37_T,ERR2438891.26115,89.40,151,10,5,254,404,6,150,1e-46,185
Fonsecaea_monophora_CBS269.37_T,ERR2438891.14007,88.05,159,13,6,254,411,6,159,5e-46,183
Fonsecaea_monophora_CBS269.37_T,ERR2438891.19201,86.09,151,14,5,254,404,6,149,1e-37,156
Fonsecaea_monophora_CBS269.37_T,ERR2438891.31330,84.87,152,17,6,254,405,6,151,2e-35,148
Fonsecaea_erecta_CBS125763_T,ERR2438891.4410,91.45,152,8,4,238,388,6,153,3e-52,204
Fonsecaea_erecta_CBS125763_T,ERR2438891.14007,90.67,150,11,3,238,386,6,153,6e-50,196
Fonsecaea_erecta_CBS125763_T,ERR2438891.26115,90.60,149,10,3,238,386,6,150,2e-49,195
Fonsecaea_erecta_CBS125763_T,ERR2438891.19201,87.92,149,13,4,238,386,6,149,4e-42,171
Fonsecaea_erecta_CBS125763_T,ERR2438891.31330,85.33,150,18,4,238,387,6,151,1e-36,152
Fonsecaea_pugnacius_CBS139214_T,ERR2438891.4410,90.26,154,8,5,247,399,6,153,2e-49,195
Fonsecaea_pugnacius_CBS139214_T,ERR2438891.26115,92.48,133,8,2,247,379,6,136,1e-47,189
Fonsecaea_pugnacius_CBS139214_T,ERR2438891.14007,88.74,151,14,3,247,397,6,153,2e-45,182
Fonsecaea_pugnacius_CBS139214_T,ERR2438891.19201,91.45,117,9,1,247,363,6,121,8e-39,159
Fonsecaea_pugnacius_CBS139214_T,ERR2438891.31330,84.87,152,17,6,247,398,6,151,2e-35,148
Cladophialophora_psammophila_CBS,ERR2438891.4410,91.45,152,8,4,253,403,6,153,4e-52,204
Cladophialophora_psammophila_CBS,ERR2438891.14007,90.67,150,11,3,253,401,6,153,6e-50,196
Cladophialophora_psammophila_CBS,ERR2438891.26115,90.60,149,10,3,253,401,6,150,2e-49,195
Cladophialophora_psammophila_CBS,ERR2438891.19201,87.92,149,13,4,253,401,6,149,4e-42,171
Cladophialophora_psammophila_CBS,ERR2438891.31330,85.33,150,18,4,253,402,6,151,1e-36,152
Cladophialophora_devriesii_CBS,ERR2438891.4410,91.45,152,8,4,249,399,6,153,3e-52,204
Cladophialophora_devriesii_CBS,ERR2438891.26115,90.60,149,10,3,249,397,6,150,2e-49,195
Cladophialophora_devriesii_CBS,ERR2438891.14007,88.61,158,12,6,249,404,6,159,4e-47,187
Cladophialophora_devriesii_CBS,ERR2438891.19201,87.92,149,13,4,249,397,6,149,4e-42,171
Cladophialophora_devriesii_CBS,ERR2438891.31330,84.67,150,19,4,249,398,6,151,6e-35,147
Cladophialophora_immunda_CBS834.96,ERR2438891.4410,90.79,152,9,4,251,401,6,153,2e-50,198
Cladophialophora_immunda_CBS834.96,ERR2438891.26115,92.48,133,8,2,251,383,6,136,1e-47,189
Cladophialophora_immunda_CBS834.96,ERR2438891.14007,89.40,151,11,5,251,399,6,153,1e-46,185
Cladophialophora_immunda_CBS834.96,ERR2438891.19201,87.25,149,14,3,251,399,6,149,2e-40,165
Cladophialophora_immunda_CBS834.96,ERR2438891.31330,85.33,150,18,4,251,400,6,151,1e-36,152
Cladophialophora_arxii_CBS306.94_T,ERR2438891.4410,90.26,154,8,5,253,405,6,153,2e-49,195
Cladophialophora_arxii_CBS306.94_T,ERR2438891.26115,89.40,151,10,4,253,403,6,150,1e-46,185
Cladophialophora_arxii_CBS306.94_T,ERR2438891.14007,88.82,152,12,4,253,403,6,153,2e-45,182
Cladophialophora_arxii_CBS306.94_T,ERR2438891.19201,91.45,117,9,1,253,369,6,121,8e-39,159
Cladophialophora_arxii_CBS306.94_T,ERR2438891.31330,84.87,152,17,5,253,404,6,151,2e-35,148
Cladophialophora_bantiana_CBS173.52,ERR2438891.4410,91.45,152,8,4,247,397,6,153,4e-52,204
Cladophialophora_bantiana_CBS173.52,ERR2438891.14007,90.67,150,11,3,247,395,6,153,6e-50,196
Cladophialophora_bantiana_CBS173.52,ERR2438891.26115,90.60,149,10,3,247,395,6,150,2e-49,195
Cladophialophora_bantiana_CBS173.52,ERR2438891.19201,87.92,149,13,4,247,395,6,149,4e-42,171
Cladophialophora_bantiana_CBS173.52,ERR2438891.31330,85.33,150,18,4,247,396,6,151,1e-36,152
Cladophialophora_emmonsii_CBS102594,ERR2438891.4410,90.85,153,8,4,238,389,6,153,5e-51,200
Cladophialophora_emmonsii_CBS102594,ERR2438891.26115,93.18,132,8,1,238,369,6,136,8e-49,193
Cladophialophora_emmonsii_CBS102594,ERR2438891.14007,89.33,150,14,2,238,387,6,153,4e-47,187
Cladophialophora_emmonsii_CBS102594,ERR2438891.19201,86.67,150,14,4,238,387,6,149,2e-39,161
Cladophialophora_emmonsii_CBS102594,ERR2438891.31330,84.57,162,18,7,238,399,6,160,4e-37,154
Cladophialophora_minourae_CBS556.83,ERR2438891.4410,91.04,134,9,3,246,379,6,136,2e-44,178
Cladophialophora_minourae_CBS556.83,ERR2438891.26115,90.30,134,10,3,246,379,6,136,1e-42,172
Cladophialophora_minourae_CBS556.83,ERR2438891.14007,87.50,152,13,6,246,395,6,153,1e-42,172
Cladophialophora_minourae_CBS556.83,ERR2438891.19201,86.00,150,15,5,246,395,6,149,3e-38,158
Cladophialophora_minourae_CBS556.83,ERR2438891.31330,82.78,151,21,5,246,396,6,151,6e-30,130
Cladophialophora_australiensis_CBS112793,ERR2438891.4410,90.73,151,10,3,248,397,6,153,5e-50,198
Cladophialophora_australiensis_CBS112793,ERR2438891.4410,91.30,69,5,1,539,606,369,301,2e-18,93.5
Cladophialophora_australiensis_CBS112793,ERR2438891.26115,92.42,132,9,1,248,379,6,136,1e-46,187
Cladophialophora_australiensis_CBS112793,ERR2438891.14007,89.33,150,12,4,248,395,6,153,4e-46,185
Cladophialophora_australiensis_CBS112793,ERR2438891.14007,94.29,70,3,1,539,607,369,300,3e-22,106
Cladophialophora_australiensis_CBS112793,ERR2438891.19201,87.16,148,15,3,248,395,6,149,5e-40,165
Cladophialophora_australiensis_CBS112793,ERR2438891.19201,96.55,58,2,0,549,606,358,301,2e-19,97.1
Cladophialophora_australiensis_CBS112793,ERR2438891.31330,84.62,156,20,4,248,403,6,157,4e-36,152
Cladophialophora_potulentorum_CBS112222,ERR2438891.4410,90.07,151,11,3,247,396,6,153,2e-48,193
Cladophialophora_potulentorum_CBS112222,ERR2438891.4410,91.30,69,5,1,540,608,368,301,2e-18,93.5
Cladophialophora_potulentorum_CBS112222,ERR2438891.26115,91.67,132,10,1,247,378,6,136,5e-45,182
Cladophialophora_potulentorum_CBS112222,ERR2438891.14007,88.67,150,13,4,247,394,6,153,2e-44,180
Cladophialophora_potulentorum_CBS112222,ERR2438891.14007,94.29,70,3,1,541,609,369,300,3e-22,106
Cladophialophora_potulentorum_CBS112222,ERR2438891.19201,86.49,148,16,3,247,394,6,149,2e-38,159
Cladophialophora_potulentorum_CBS112222,ERR2438891.19201,92.75,69,5,0,540,608,369,301,1e-20,100
Cladophialophora_potulentorum_CBS112222,ERR2438891.31330,83.97,156,21,4,247,402,6,157,2e-34,147
Cladophialophora_matsushimae_CMRP1198,ERR2438891.4410,90.07,151,11,3,251,400,6,153,7e-49,193
Cladophialophora_matsushimae_CMRP1198,ERR2438891.26115,91.67,132,10,1,251,382,6,136,1e-45,182
Cladophialophora_matsushimae_CMRP1198,ERR2438891.14007,88.67,150,13,4,251,398,6,153,5e-45,180
Cladophialophora_matsushimae_CMRP1198,ERR2438891.19201,86.49,148,16,3,251,398,6,149,7e-39,159
Cladophialophora_matsushimae_CMRP1198,ERR2438891.31330,85.23,149,19,3,251,399,6,151,4e-36,150
Cladophialophora_mycetomatis_CBS122637,ERR2438891.4410,91.39,151,9,4,236,385,6,153,4e-52,204
Cladophialophora_mycetomatis_CBS122637,ERR2438891.26115,90.54,148,11,3,236,383,6,150,8e-49,193
Cladophialophora_mycetomatis_CBS122637,ERR2438891.14007,89.33,150,12,4,236,383,6,153,1e-46,185
Cladophialophora_mycetomatis_CBS122637,ERR2438891.19201,87.16,148,15,3,236,383,6,149,2e-40,165
Cladophialophora_mycetomatis_CBS122637,ERR2438891.31330,84.56,149,20,3,236,384,6,151,2e-34,145
Cladophialophora_chaetospira_CBS127573,ERR2438891.4410,92.05,151,8,4,642,791,6,153,1e-53,209
Cladophialophora_chaetospira_CBS127573,ERR2438891.26115,91.22,148,10,3,642,789,6,150,3e-50,198
Cladophialophora_chaetospira_CBS127573,ERR2438891.14007,90.67,150,10,4,642,789,6,153,1e-49,196
Cladophialophora_chaetospira_CBS127573,ERR2438891.19201,87.84,148,14,3,642,789,6,149,6e-42,171
Cladophialophora_chaetospira_CBS127573,ERR2438891.31330,85.23,149,19,3,642,790,6,151,8e-36,150
Cladophialophora_boppii_CBS126.86_T,ERR2438891.4410,91.39,151,9,3,244,393,6,153,4e-52,204
Cladophialophora_boppii_CBS126.86_T,ERR2438891.26115,93.23,133,8,1,244,376,6,137,2e-49,195
Cladophialophora_boppii_CBS126.86_T,ERR2438891.14007,88.54,157,13,5,244,398,6,159,1e-46,185
Cladophialophora_boppii_CBS126.86_T,ERR2438891.19201,87.84,148,14,4,244,391,6,149,4e-42,171
Cladophialophora_boppii_CBS126.86_T,ERR2438891.31330,85.23,149,19,3,244,392,6,151,5e-36,150
Cladophialophora_abundans_CBS126736,ERR2438891.4410,90.79,152,8,6,181,330,6,153,1e-50,198
Cladophialophora_abundans_CBS126736,ERR2438891.26115,89.93,149,10,5,181,328,6,150,3e-47,187
Cladophialophora_abundans_CBS126736,ERR2438891.14007,89.33,150,12,4,181,328,6,153,1e-46,185
Cladophialophora_abundans_CBS126736,ERR2438891.19201,87.84,148,14,3,181,328,6,149,3e-42,171
Cladophialophora_abundans_CBS126736,ERR2438891.31330,85.23,149,19,3,181,329,6,151,4e-36,150
Capronia_semi-immersa_CBS102234,ERR2438891.4410,89.40,151,12,3,243,392,6,153,4e-47,187
Capronia_semi-immersa_CBS102234,ERR2438891.14007,89.33,150,12,4,243,390,6,153,1e-46,185
Capronia_semi-immersa_CBS102234,ERR2438891.26115,90.91,132,11,1,243,374,6,136,8e-44,176
Capronia_semi-immersa_CBS102234,ERR2438891.19201,87.16,148,15,3,243,390,6,149,2e-40,165
Capronia_semi-immersa_CBS102234,ERR2438891.31330,83.89,149,21,3,243,391,6,151,1e-32,139
Capronia_semi-immersa_CBS102234,ERR2438891.5418,86.11,72,7,2,319,390,81,149,3e-13,75.0
Phialophora_americana_CBS400.67,ERR2438891.4410,89.40,151,12,3,245,394,6,153,1e-46,187
Phialophora_americana_CBS400.67,ERR2438891.14007,89.33,150,12,4,245,392,6,153,4e-46,185
Phialophora_americana_CBS400.67,ERR2438891.26115,90.91,132,11,1,245,376,6,136,2e-43,176
Phialophora_americana_CBS400.67,ERR2438891.19201,87.16,148,15,3,245,392,6,149,5e-40,165
Phialophora_americana_CBS400.67,ERR2438891.31330,83.89,149,21,3,245,393,6,151,3e-32,139
Phialophora_americana_CBS400.67,ERR2438891.5418,86.11,72,7,2,321,392,81,149,8e-13,75.0
Phialophora_verrucosa_CBS140325_T,ERR2438891.4410,89.40,151,12,3,249,398,6,153,4e-47,187
Phialophora_verrucosa_CBS140325_T,ERR2438891.14007,89.33,150,12,4,249,396,6,153,1e-46,185
Phialophora_verrucosa_CBS140325_T,ERR2438891.26115,90.91,132,11,1,249,380,6,136,8e-44,176
Phialophora_verrucosa_CBS140325_T,ERR2438891.19201,87.16,148,15,3,249,396,6,149,2e-40,165
Phialophora_verrucosa_CBS140325_T,ERR2438891.31330,83.89,149,21,3,249,397,6,151,1e-32,139
Phialophora_verrucosa_CBS140325_T,ERR2438891.5418,86.11,72,7,2,325,396,81,149,3e-13,75.0
Cladophialophora_samoensis_CBS259.83_T,ERR2438891.4410,90.54,148,9,4,249,395,6,149,3e-48,191
Cladophialophora_samoensis_CBS259.83_T,ERR2438891.14007,88.96,154,12,5,249,400,6,156,1e-46,185
Cladophialophora_samoensis_CBS259.83_T,ERR2438891.26115,91.73,133,8,3,249,380,6,136,2e-45,182
Cladophialophora_samoensis_CBS259.83_T,ERR2438891.19201,87.84,148,14,3,249,396,6,149,4e-42,171
Cladophialophora_samoensis_CBS259.83_T,ERR2438891.31330,86.67,150,17,3,249,398,6,152,6e-40,163
Cladophialophora_carrionii_CBS260.83,ERR2438891.4410,91.39,151,9,4,265,414,6,153,4e-52,204
Cladophialophora_carrionii_CBS260.83,ERR2438891.14007,91.33,150,9,4,265,412,6,153,1e-51,202
Cladophialophora_carrionii_CBS260.83,ERR2438891.26115,90.54,148,11,3,265,412,6,150,9e-49,193
Cladophialophora_carrionii_CBS260.83,ERR2438891.19201,88.51,148,13,3,265,412,6,149,9e-44,176
Cladophialophora_carrionii_CBS260.83,ERR2438891.31330,84.56,149,20,3,265,413,6,151,2e-34,145
Cladophialophora_carrionii_CBS260.83,ERR2438891.5418,88.89,72,5,3,341,412,81,149,2e-16,86.1
Cladophialophora_carrionii_CBS260.83,ERR2438891.32672,86.30,73,7,3,340,412,80,149,9e-14,76.8
Exophiala_palmae_UPCB86822_T,ERR2438891.4410,93.94,132,7,1,208,339,6,136,2e-50,198
Exophiala_palmae_UPCB86822_T,ERR2438891.26115,93.18,132,8,1,208,339,6,136,7e-49,193
Exophiala_palmae_UPCB86822_T,ERR2438891.14007,90.98,133,10,2,208,340,6,136,2e-44,178
Exophiala_palmae_UPCB86822_T,ERR2438891.19201,91.45,117,9,1,208,324,6,121,7e-39,159
Exophiala_palmae_UPCB86822_T,ERR2438891.31330,85.33,150,18,4,208,357,6,151,1e-36,152
Cladophialophora_yegresii_CBS114405_T,ERR2438891.4410,90.73,151,10,3,250,399,6,153,2e-50,198
Cladophialophora_yegresii_CBS114405_T,ERR2438891.14007,90.67,150,10,4,250,397,6,153,6e-50,196
Cladophialophora_yegresii_CBS114405_T,ERR2438891.26115,92.42,132,9,1,250,381,6,136,4e-47,187
Cladophialophora_yegresii_CBS114405_T,ERR2438891.19201,88.51,148,13,3,250,397,6,149,8e-44,176
Cladophialophora_yegresii_CBS114405_T,ERR2438891.31330,85.23,149,19,3,250,398,6,151,5e-36,150
Cladophialophora_yegresii_CBS114405_T,ERR2438891.5418,83.70,92,9,5,326,415,81,168,2e-15,82.4
Cladophialophora_yegresii_CBS114405_T,ERR2438891.32672,97.62,42,1,0,325,366,80,121,1e-12,73.1
Knufia_epidermidis_CBS120353_T,ERR2438891.4410,86.84,152,16,4,248,398,6,154,5e-41,167
Knufia_epidermidis_CBS120353_T,ERR2438891.26115,91.60,119,9,1,248,366,6,123,6e-40,163
Knufia_epidermidis_CBS120353_T,ERR2438891.14007,86.67,150,16,3,248,395,6,153,6e-40,163
Knufia_epidermidis_CBS120353_T,ERR2438891.31330,84.97,153,19,4,248,399,6,155,1e-36,152
Knufia_epidermidis_CBS120353_T,ERR2438891.19201,89.74,117,11,1,248,364,6,121,2e-35,148
Arthrocladium_fulminans_CBS136243_T,ERR2438891.4410,90.70,129,11,1,243,371,6,133,4e-42,171
Arthrocladium_fulminans_CBS136243_T,ERR2438891.26115,92.44,119,8,1,243,361,6,123,1e-41,169
Arthrocladium_fulminans_CBS136243_T,ERR2438891.14007,89.92,129,11,2,243,371,6,132,2e-40,165
Arthrocladium_fulminans_CBS136243_T,ERR2438891.19201,90.68,118,8,3,243,359,6,121,4e-37,154
Arthrocladium_fulminans_CBS136243_T,ERR2438891.31330,82.78,151,21,5,243,393,6,151,6e-30,130
Anthopsis_deltoidea_CBS263.77_T,ERR2438891.4410,89.02,164,13,5,252,413,6,166,2e-50,198
Cyphellophora_laciniata_CBS190.61_T,ERR2438891.4410,90.54,148,12,2,337,482,6,153,3e-49,195
Cyphellophora_laciniata_CBS190.61_T,ERR2438891.4410,96.55,58,2,0,638,695,358,301,9e-20,97.1
Cyphellophora_laciniata_CBS190.61_T,ERR2438891.26115,89.66,145,14,1,337,480,6,150,6e-46,183
Cyphellophora_laciniata_CBS190.61_T,ERR2438891.19201,86.90,145,17,2,337,480,6,149,3e-39,161
Cyphellophora_laciniata_CBS190.61_T,ERR2438891.19201,98.28,58,1,0,638,695,358,301,2e-21,102
Cyphellophora_laciniata_CBS190.61_T,ERR2438891.14007,88.64,132,13,2,337,467,6,136,1e-38,159
Cyphellophora_laciniata_CBS190.61_T,ERR2438891.14007,98.36,61,1,0,636,696,360,300,4e-23,108
Cyphellophora_laciniata_CBS190.61_T,ERR2438891.31330,86.49,148,15,4,337,481,6,151,4e-38,158
Cyphellophora_suttonii_CBS449.91,ERR2438891.4410,90.97,144,12,1,240,382,6,149,8e-49,193
Cyphellophora_suttonii_CBS449.91,ERR2438891.26115,89.66,145,14,1,240,383,6,150,5e-46,183
Cyphellophora_suttonii_CBS449.91,ERR2438891.19201,86.67,150,18,2,240,388,6,154,2e-40,165
Cyphellophora_suttonii_CBS449.91,ERR2438891.14007,85.99,157,15,5,240,394,6,157,2e-39,161
Cyphellophora_suttonii_CBS449.91,ERR2438891.31330,86.49,148,15,4,240,384,6,151,3e-38,158
Cyphellophora_pauciseptata_CBS284.85_T,ERR2438891.4410,90.97,144,12,1,251,393,6,149,8e-49,193
Cyphellophora_pauciseptata_CBS284.85_T,ERR2438891.26115,89.66,145,14,1,251,394,6,150,5e-46,183
Cyphellophora_pauciseptata_CBS284.85_T,ERR2438891.19201,86.58,149,18,2,251,398,6,153,6e-40,163
Cyphellophora_pauciseptata_CBS284.85_T,ERR2438891.14007,88.64,132,13,2,251,381,6,136,8e-39,159
Cyphellophora_pauciseptata_CBS284.85_T,ERR2438891.31330,86.49,148,15,4,251,395,6,151,3e-38,158
Cyphellophora_pluriseptata_CBS286.85_T,ERR2438891.4410,89.86,148,13,2,256,401,6,153,1e-47,189
Cyphellophora_pluriseptata_CBS286.85_T,ERR2438891.26115,88.97,145,15,1,256,399,6,150,2e-44,178
Cyphellophora_pluriseptata_CBS286.85_T,ERR2438891.31330,85.44,158,17,5,256,409,6,161,8e-39,159
Cyphellophora_pluriseptata_CBS286.85_T,ERR2438891.14007,88.64,132,13,2,256,386,6,136,8e-39,159
Cyphellophora_pluriseptata_CBS286.85_T,ERR2438891.19201,86.21,145,18,2,256,399,6,149,1e-37,156
Phialophora_europaea_CBS101466,ERR2438891.4410,90.28,144,13,1,246,388,6,149,4e-47,187
Phialophora_europaea_CBS101466,ERR2438891.26115,88.97,145,15,1,246,389,6,150,2e-44,178
Phialophora_europaea_CBS101466,ERR2438891.14007,88.64,132,13,2,246,376,6,136,8e-39,159
Phialophora_europaea_CBS101466,ERR2438891.19201,85.91,149,19,2,246,393,6,153,3e-38,158
Phialophora_europaea_CBS101466,ERR2438891.31330,86.39,147,15,4,246,389,6,150,1e-37,156
Phialophora_ambigua_CBS235.93,ERR2438891.4410,89.86,148,13,2,243,388,6,153,1e-47,189
Phialophora_ambigua_CBS235.93,ERR2438891.26115,88.97,145,15,1,243,386,6,150,2e-44,178
Phialophora_ambigua_CBS235.93,ERR2438891.14007,88.64,132,13,2,243,373,6,136,8e-39,159
Phialophora_ambigua_CBS235.93,ERR2438891.31330,86.49,148,15,4,243,387,6,151,3e-38,158
Phialophora_ambigua_CBS235.93,ERR2438891.19201,86.21,145,18,2,243,386,6,149,1e-37,156
Cladophialophora_modesta_CBS985.96_T,ERR2438891.4410,92.47,146,9,2,240,385,6,149,3e-53,207
Cladophialophora_modesta_CBS985.96_T,ERR2438891.4410,91.43,70,5,1,511,579,370,301,3e-19,95.3
Cladophialophora_modesta_CBS985.96_T,ERR2438891.26115,91.16,147,11,2,240,386,6,150,2e-50,198
Cladophialophora_modesta_CBS985.96_T,ERR2438891.14007,89.33,150,11,4,240,386,6,153,5e-46,183
Cladophialophora_modesta_CBS985.96_T,ERR2438891.14007,97.22,72,1,1,510,580,371,300,4e-27,121
Cladophialophora_modesta_CBS985.96_T,ERR2438891.19201,87.76,147,15,3,240,386,6,149,1e-41,169
Cladophialophora_modesta_CBS985.96_T,ERR2438891.19201,96.55,58,2,0,522,579,358,301,7e-20,97.1
Cladophialophora_modesta_CBS985.96_T,ERR2438891.31330,85.23,149,18,4,240,387,6,151,5e-36,150
Cyphellophora_fusarioides_MUCL44033_T,ERR2438891.4410,89.86,148,13,2,239,384,6,153,1e-47,189
