Exophiala_polymorpha_CBS138920_T,ERR476574.53994,100.00,50,0,0,644,693,61,110,6e-19,93.5
Exophiala_jeanselmei_CBS507.90_T,ERR476574.53994,100.00,50,0,0,546,595,61,110,5e-19,93.5
Exophiala_pisciphila_CBS537.73_T,ERR476574.53994,94.83,58,2,1,548,604,53,110,7e-18,89.8
Exophiala_nishimurae_CBS101538_T,ERR476574.53994,100.00,39,0,0,553,591,61,99,6e-13,73.1
Exophiala_mesophila_CBS402.95_T,ERR476574.53994,100.00,50,0,0,552,601,61,110,5e-19,93.5
Exophiala_castellanii_CBS158.58_T,ERR476574.53994,100.00,50,0,0,551,600,61,110,5e-19,93.5
Exophiala_dermatitidis_CBS748.88,ERR476574.53994,100.00,50,0,0,577,626,61,110,1e-18,93.5
Exophiala_salmonis_CBS157.67_T,ERR476574.53994,94.83,58,2,1,668,724,53,110,8e-18,89.8
Exophiala_cancerae_CBS120420_T,ERR476574.53994,94.83,58,3,0,558,615,53,110,2e-18,91.6
Rhinocladiella_aquaspersa_CBS313.73_T,ERR476574.53994,92.00,50,1,3,550,596,61,110,3e-11,67.6
Capronia_pilosella_AFTOL-ID657,ERR476574.53994,100.00,39,0,0,645,683,61,99,7e-13,73.1
Capronia_dactylotricha_DAOM208471_T,ERR476574.53994,98.00,50,1,0,560,609,61,110,2e-17,87.9
Capronia_kleinmondensis_CBS122671_T,ERR476574.53994,98.00,50,1,0,566,615,61,110,2e-17,87.9
Capronia_mansonii_CBS101.67_T,ERR476574.53994,100.00,50,0,0,570,619,61,110,5e-19,93.5
Capronia_munkii_DAOM216390_T,ERR476574.53994,96.61,59,1,1,562,619,52,110,4e-20,97.1
Capronia_coronata_ATCC56201_T,ERR476574.53994,100.00,50,0,0,541,590,61,110,5e-19,93.5
Capronia_acutiseta_ATCC56428_T,ERR476574.53994,94.83,58,3,0,532,589,53,110,2e-18,91.6
Cyphellophora_laciniata_CBS190.61_T,ERR476574.53994,100.00,50,0,0,637,686,61,110,6e-19,93.5
