Exophiala_nigra_CBS535.94_T,ERR476556.85148,97.87,47,1,0,238,284,47,1,1e-15,82.4
Exophiala_spinifera_CBS899.68_T,ERR476556.85148,97.87,47,1,0,235,281,47,1,1e-15,82.4
Exophiala_exophialae_CBS668.76_T,ERR476556.85148,97.87,47,1,0,236,282,47,1,1e-15,82.4
Exophiala_polymorpha_CBS138920_T,ERR476556.146092,98.11,53,1,0,642,694,21,73,7e-19,93.5
Exophiala_polymorpha_CBS138920_T,ERR476556.85148,97.87,47,1,0,338,384,47,1,2e-15,82.4
Exophiala_oligosperma_CBS725.88_T,ERR476556.85148,97.87,47,1,0,248,294,47,1,1e-15,82.4
Exophiala_jeanselmei_CBS507.90_T,ERR476556.146092,98.39,62,1,0,543,604,20,81,6e-24,110
Exophiala_jeanselmei_CBS507.90_T,ERR476556.85148,97.87,47,1,0,240,286,47,1,1e-15,82.4
Exophiala_bergeri_CBS353.52,ERR476556.85148,97.87,47,1,0,201,247,47,1,1e-15,82.4
Exophiala_moniliae_CBS520.76_T,ERR476556.85148,97.87,47,1,0,238,284,47,1,1e-15,82.4
Exophiala_pisciphila_CBS537.73_T,ERR476556.146092,100.00,86,0,0,547,632,15,100,7e-39,159
Exophiala_pisciphila_CBS537.73_T,ERR476556.85148,97.83,46,1,0,241,286,47,2,5e-15,80.5
Exophiala_xenobiotica_CBS117642,ERR476556.85148,97.87,47,1,0,233,279,47,1,1e-15,82.4
Exophiala_brunnea_CBS,ERR476556.146092,98.04,51,1,0,583,633,20,70,2e-18,91.6
Exophiala_brunnea_CBS,ERR476556.85148,97.87,47,1,0,269,315,47,1,1e-15,82.4
Exophiala_nishimurae_CBS101538_T,ERR476556.85148,97.87,47,1,0,247,293,47,1,1e-15,82.4
Exophiala_mesophila_CBS402.95_T,ERR476556.146092,97.65,85,2,0,545,629,16,100,5e-35,147
Exophiala_mesophila_CBS402.95_T,ERR476556.85148,97.87,47,1,0,231,277,47,1,1e-15,82.4
Exophiala_castellanii_CBS158.58_T,ERR476556.146092,96.55,87,3,0,542,628,14,100,2e-34,145
Exophiala_castellanii_CBS158.58_T,ERR476556.85148,97.87,47,1,0,229,275,47,1,1e-15,82.4
Exophiala_lecanii-corni_CBS123.33_T,ERR476556.85148,97.87,47,1,0,252,298,47,1,1e-15,82.4
Exophiala_dermatitidis_CBS748.88,ERR476556.146092,98.77,81,1,0,574,654,20,100,4e-34,145
Exophiala_dermatitidis_CBS748.88,ERR476556.158394,98.44,64,1,0,644,707,1,64,1e-24,113
Exophiala_dermatitidis_CBS748.88,ERR476556.136811,100.00,44,0,0,1371,1414,44,1,3e-15,82.4
Exophiala_dermatitidis_CBS748.88,ERR476556.85148,97.87,47,1,0,244,290,47,1,3e-15,82.4
Exophiala_angulospora_CBS482.92_T,ERR476556.85148,97.87,47,1,0,235,281,47,1,1e-15,82.4
Exophiala_opportunistica_CBS109811_T,ERR476556.85148,97.87,47,1,0,234,280,47,1,1e-15,82.4
Exophiala_salmonis_CBS157.67_T,ERR476556.146092,100.00,86,0,0,667,752,15,100,8e-39,159
Exophiala_salmonis_CBS157.67_T,ERR476556.104313,92.06,63,5,0,1,63,22,84,1e-17,89.8
Exophiala_salmonis_CBS157.67_T,ERR476556.85148,97.87,47,1,0,363,409,47,1,2e-15,82.4
Exophiala_aquamarina_CBS119918_T,ERR476556.85148,97.87,47,1,0,241,287,47,1,1e-15,82.4
Exophiala_cancerae_CBS120420_T,ERR476556.146092,98.53,68,0,1,557,624,15,81,1e-26,119
Exophiala_cancerae_CBS120420_T,ERR476556.85148,97.87,47,1,0,256,302,47,1,1e-15,82.4
Exophiala_tremulae_CBS129355,ERR476556.146092,100.00,56,0,0,573,628,15,70,3e-22,104
Exophiala_tremulae_CBS129355,ERR476556.85148,97.87,47,1,0,268,314,47,1,1e-15,82.4
Exophiala_equina_CBS116009,ERR476556.85148,97.87,47,1,0,234,280,47,1,1e-15,82.4
Exophiala_alcalophila_CBS520.82_T,ERR476556.85148,97.87,47,1,0,245,291,47,1,1e-15,82.4
Exophiala_crusticola_CBS119970_T,ERR476556.85148,97.87,47,1,0,250,296,47,1,1e-15,82.4
Rhinocladiella_atrovirens_CBS264.49,ERR476556.146092,98.18,55,1,0,572,626,15,69,5e-20,97.1
Rhinocladiella_atrovirens_CBS264.49,ERR476556.85148,97.87,47,1,0,276,322,47,1,1e-15,82.4
Rhinocladiella_basitona_CBS101460_T,ERR476556.85148,97.87,47,1,0,235,281,47,1,1e-15,82.4
Rhinocladiella_phaeophora_CBS496.78_T,ERR476556.85148,97.87,47,1,0,243,289,47,1,1e-15,82.4
Rhinocladiella_aquaspersa_CBS313.73_T,ERR476556.146092,93.55,93,2,4,535,624,9,100,1e-31,135
Rhinocladiella_aquaspersa_CBS313.73_T,ERR476556.85148,97.87,47,1,0,237,283,47,1,1e-15,82.4
Rhinocladiella_fasciculata_CBS132.86_T,ERR476556.85148,97.87,47,1,0,253,299,47,1,1e-15,82.4
Rhinocladiella_anceps_CBS181.65_T,ERR476556.85148,97.87,47,1,0,235,281,47,1,1e-15,82.4
Rhinocladiella_mackenziei_CBS367.92,ERR476556.146092,96.08,51,1,1,558,608,15,64,1e-15,82.4
Rhinocladiella_mackenziei_CBS367.92,ERR476556.85148,97.87,47,1,0,224,270,47,1,1e-15,82.4
Veronaea_compacta_CBS268.75_T,ERR476556.85148,97.87,47,1,0,257,303,47,1,1e-15,82.4
Capronia_pilosella_AFTOL-ID657,ERR476556.85148,97.87,47,1,0,335,381,47,1,2e-15,82.4
Capronia_dactylotricha_DAOM208471_T,ERR476556.146092,100.00,80,0,0,558,637,21,100,1e-35,148
Capronia_dactylotricha_DAOM208471_T,ERR476556.85148,97.87,47,1,0,237,283,47,1,2e-15,82.4
Capronia_kleinmondensis_CBS122671_T,ERR476556.146092,100.00,80,0,0,564,643,21,100,1e-35,148
Capronia_kleinmondensis_CBS122671_T,ERR476556.85148,97.87,47,1,0,262,308,47,1,2e-15,82.4
Capronia_mansonii_CBS101.67_T,ERR476556.146092,97.67,86,1,1,563,647,15,100,5e-35,147
Capronia_mansonii_CBS101.67_T,ERR476556.85148,97.87,47,1,0,248,294,47,1,2e-15,82.4
Capronia_munkii_DAOM216390_T,ERR476556.146092,98.82,85,1,0,563,647,16,100,1e-36,152
Capronia_munkii_DAOM216390_T,ERR476556.85148,97.87,47,1,0,248,294,47,1,2e-15,82.4
Capronia_coronata_ATCC56201_T,ERR476556.146092,97.67,86,1,1,534,618,15,100,5e-35,147
Capronia_coronata_ATCC56201_T,ERR476556.85148,97.87,47,1,0,236,282,47,1,1e-15,82.4
Capronia_parasitica_CBS123.88,ERR476556.85148,97.87,47,1,0,242,288,47,1,1e-15,82.4
Capronia_parasitica_CBS123.88,ERR476556.146092,100.00,37,0,0,559,595,20,56,1e-11,69.4
Veronaea_japonica_CBS776.83_T,ERR476556.85148,97.87,47,1,0,270,316,47,1,1e-15,82.4
Thysanorea_papuana_CBS212.96_T,ERR476556.85148,97.87,47,1,0,244,290,47,1,1e-15,82.4
Thysanorea_papuana_CBS212.96_T,ERR476556.146092,100.00,28,0,0,550,577,15,42,1e-06,52.8
Capronia_acutiseta_ATCC56428_T,ERR476556.146092,98.85,87,0,1,531,617,15,100,3e-37,154
Fonsecaea_brasiliensis_CBS119710_T,ERR476556.85148,97.87,47,1,0,244,290,47,1,1e-15,82.4
Fonsecaea_pedrosoi_CBS271.37_T,ERR476556.146092,95.52,67,3,0,579,645,15,81,2e-23,108
Fonsecaea_pedrosoi_CBS271.37_T,ERR476556.85148,97.87,47,1,0,272,318,47,1,1e-15,82.4
Fonsecaea_multimorphosa_CBS980.96_T,ERR476556.85148,97.87,47,1,0,242,288,47,1,1e-15,82.4
Fonsecaea_minima_CBS125760_T,ERR476556.85148,97.87,47,1,0,238,284,47,1,1e-15,82.4
Fonsecaea_nubica_CBS269.64_T,ERR476556.85148,97.87,47,1,0,249,295,47,1,1e-15,82.4
Fonsecaea_erecta_CBS125763_T,ERR476556.85148,97.87,47,1,0,233,279,47,1,1e-15,82.4
Fonsecaea_pugnacius_CBS139214_T,ERR476556.85148,97.87,47,1,0,242,288,47,1,1e-15,82.4
Cladophialophora_psammophila_CBS,ERR476556.85148,97.87,47,1,0,248,294,47,1,1e-15,82.4
Cladophialophora_devriesii_CBS,ERR476556.85148,97.87,47,1,0,244,290,47,1,1e-15,82.4
Cladophialophora_immunda_CBS834.96,ERR476556.85148,97.87,47,1,0,246,292,47,1,1e-15,82.4
Cladophialophora_arxii_CBS306.94_T,ERR476556.85148,97.87,47,1,0,248,294,47,1,1e-15,82.4
Cladophialophora_bantiana_CBS173.52,ERR476556.85148,97.87,47,1,0,242,288,47,1,1e-15,82.4
Cladophialophora_emmonsii_CBS102594,ERR476556.85148,97.87,47,1,0,233,279,47,1,1e-15,82.4
Cladophialophora_minourae_CBS556.83,ERR476556.85148,97.87,47,1,0,241,287,47,1,1e-15,82.4
Cladophialophora_australiensis_CBS112793,ERR476556.146092,97.67,86,2,0,540,625,15,100,3e-35,148
Cladophialophora_australiensis_CBS112793,ERR476556.136811,91.80,61,2,3,1322,1381,59,1,3e-15,82.4
Cladophialophora_australiensis_CBS112793,ERR476556.85148,97.87,47,1,0,243,289,47,1,3e-15,82.4
Cladophialophora_potulentorum_CBS112222,ERR476556.146092,97.53,81,2,0,547,627,20,100,2e-32,139
Cladophialophora_potulentorum_CBS112222,ERR476556.136811,91.80,61,2,3,1324,1383,59,1,3e-15,82.4
Cladophialophora_potulentorum_CBS112222,ERR476556.85148,97.87,47,1,0,242,288,47,1,3e-15,82.4
Cladophialophora_matsushimae_CMRP1198,ERR476556.85148,97.87,47,1,0,246,292,47,1,1e-15,82.4
Cladophialophora_mycetomatis_CBS122637,ERR476556.85148,97.87,47,1,0,231,277,47,1,1e-15,82.4
Cladophialophora_chaetospira_CBS127573,ERR476556.85148,97.87,47,1,0,637,683,47,1,2e-15,82.4
Cladophialophora_boppii_CBS126.86_T,ERR476556.85148,97.87,47,1,0,239,285,47,1,1e-15,82.4
Cladophialophora_abundans_CBS126736,ERR476556.85148,97.87,47,1,0,176,222,47,1,1e-15,82.4
Capronia_semi-immersa_CBS102234,ERR476556.85148,97.87,47,1,0,238,284,47,1,1e-15,82.4
Phialophora_americana_CBS400.67,ERR476556.158394,92.68,82,2,2,609,690,1,78,3e-25,115
Phialophora_americana_CBS400.67,ERR476556.136811,100.00,44,0,0,1332,1375,44,1,3e-15,82.4
Phialophora_americana_CBS400.67,ERR476556.85148,97.87,47,1,0,240,286,47,1,3e-15,82.4
Phialophora_verrucosa_CBS140325_T,ERR476556.85148,97.87,47,1,0,244,290,47,1,1e-15,82.4
Cladophialophora_samoensis_CBS259.83_T,ERR476556.85148,97.87,47,1,0,244,290,47,1,1e-15,82.4
Cladophialophora_carrionii_CBS260.83,ERR476556.85148,97.87,47,1,0,260,306,47,1,1e-15,82.4
Exophiala_palmae_UPCB86822_T,ERR476556.85148,97.87,47,1,0,203,249,47,1,1e-15,82.4
Cladophialophora_yegresii_CBS114405_T,ERR476556.85148,97.87,47,1,0,245,291,47,1,1e-15,82.4
Knufia_epidermidis_CBS120353_T,ERR476556.85148,97.83,46,1,0,243,288,47,2,4e-15,80.5
Arthrocladium_fulminans_CBS136243_T,ERR476556.85148,97.83,46,1,0,238,283,47,2,5e-15,80.5
Anthopsis_deltoidea_CBS263.77_T,ERR476556.85148,97.78,45,1,0,247,291,47,3,2e-14,78.7
Cyphellophora_laciniata_CBS190.61_T,ERR476556.146092,98.77,81,1,0,634,714,20,100,2e-34,145
Cyphellophora_laciniata_CBS190.61_T,ERR476556.85148,97.78,45,1,0,332,376,47,3,2e-14,78.7
Cyphellophora_suttonii_CBS449.91,ERR476556.85148,97.78,45,1,0,235,279,47,3,2e-14,78.7
Cyphellophora_pauciseptata_CBS284.85_T,ERR476556.85148,97.78,45,1,0,246,290,47,3,2e-14,78.7
Cyphellophora_pluriseptata_CBS286.85_T,ERR476556.85148,97.78,45,1,0,251,295,47,3,2e-14,78.7
Phialophora_europaea_CBS101466,ERR476556.85148,97.78,45,1,0,241,285,47,3,2e-14,78.7
Phialophora_ambigua_CBS235.93,ERR476556.85148,97.78,45,1,0,238,282,47,3,2e-14,78.7
Cladophialophora_modesta_CBS985.96_T,ERR476556.146092,97.67,86,2,0,513,598,15,100,1e-35,148
Cladophialophora_modesta_CBS985.96_T,ERR476556.85148,97.83,46,1,0,235,280,47,2,5e-15,80.5
Cyphellophora_fusarioides_MUCL44033_T,ERR476556.85148,97.78,45,1,0,234,278,47,3,2e-14,78.7
