Exophiala_dermatitidis_CBS748.88,ERR476520.133336,86.70,203,25,2,1131,1332,202,1,5e-58,224
Cladophialophora_australiensis_CBS112793,ERR476520.133336,86.21,203,26,2,1098,1299,202,1,2e-56,219
Cladophialophora_potulentorum_CBS112222,ERR476520.133336,86.21,203,26,2,1100,1301,202,1,2e-56,219
Phialophora_americana_CBS400.67,ERR476520.133336,86.76,204,23,4,1092,1293,202,1,5e-58,224
