Exophiala_nigra_CBS535.94_T,ERR2438876.14222,88.59,149,12,4,243,391,6,149,4e-44,176
Exophiala_nigra_CBS535.94_T,ERR2438876.4132,90.84,131,10,2,243,373,7,135,1e-43,174
Exophiala_nigra_CBS535.94_T,ERR2438876.1273,87.92,149,14,4,243,391,6,150,5e-43,172
Exophiala_nigra_CBS535.94_T,ERR2438876.12192,86.67,150,16,4,243,392,6,151,3e-40,163
Exophiala_nigra_CBS535.94_T,ERR2438876.4320,86.67,150,16,4,243,392,5,150,3e-40,163
Exophiala_nigra_CBS535.94_T,ERR2438876.2933,89.83,118,11,1,243,360,6,122,2e-36,150
Exophiala_spinifera_CBS899.68_T,ERR2438876.14222,87.65,162,14,5,240,401,6,161,2e-46,183
Exophiala_spinifera_CBS899.68_T,ERR2438876.4320,87.92,149,15,3,240,388,5,150,5e-43,172
Exophiala_spinifera_CBS899.68_T,ERR2438876.1273,87.84,148,15,3,240,387,6,150,2e-42,171
Exophiala_spinifera_CBS899.68_T,ERR2438876.4132,90.08,131,11,2,240,370,7,135,6e-42,169
Exophiala_spinifera_CBS899.68_T,ERR2438876.12192,87.25,149,16,3,240,388,6,151,2e-41,167
Exophiala_spinifera_CBS899.68_T,ERR2438876.2933,88.98,118,12,1,240,357,6,122,1e-34,145
Exophiala_exophialae_CBS668.76_T,ERR2438876.14222,87.65,162,14,5,241,402,6,161,2e-46,183
Exophiala_exophialae_CBS668.76_T,ERR2438876.4320,87.92,149,15,3,241,389,5,150,5e-43,172
Exophiala_exophialae_CBS668.76_T,ERR2438876.1273,87.84,148,15,3,241,388,6,150,2e-42,171
Exophiala_exophialae_CBS668.76_T,ERR2438876.4132,90.08,131,11,2,241,371,7,135,6e-42,169
Exophiala_exophialae_CBS668.76_T,ERR2438876.12192,87.25,149,16,3,241,389,6,151,2e-41,167
Exophiala_exophialae_CBS668.76_T,ERR2438876.2933,88.98,118,12,1,241,358,6,122,1e-34,145
Exophiala_polymorpha_CBS138920_T,ERR2438876.14222,89.19,148,12,4,343,490,6,149,1e-45,182
Exophiala_polymorpha_CBS138920_T,ERR2438876.4320,87.92,149,15,3,343,491,5,150,6e-43,172
Exophiala_polymorpha_CBS138920_T,ERR2438876.1273,87.84,148,15,3,343,490,6,150,2e-42,171
Exophiala_polymorpha_CBS138920_T,ERR2438876.4132,90.08,131,11,2,343,473,7,135,8e-42,169
Exophiala_polymorpha_CBS138920_T,ERR2438876.12192,87.25,149,16,3,343,491,6,151,3e-41,167
Exophiala_polymorpha_CBS138920_T,ERR2438876.12192,100.00,29,0,0,642,670,273,301,2e-07,54.7
Exophiala_polymorpha_CBS138920_T,ERR2438876.2933,88.98,118,12,1,343,460,6,122,1e-34,145
Exophiala_polymorpha_CBS138920_T,ERR2438876.2933,98.15,54,1,0,641,694,362,309,1e-19,95.3
Exophiala_oligosperma_CBS725.88_T,ERR2438876.14222,88.12,160,13,5,253,412,6,159,6e-47,185
Exophiala_oligosperma_CBS725.88_T,ERR2438876.4320,87.92,149,15,3,253,401,5,150,5e-43,172
Exophiala_oligosperma_CBS725.88_T,ERR2438876.1273,87.84,148,15,3,253,400,6,150,2e-42,171
Exophiala_oligosperma_CBS725.88_T,ERR2438876.4132,90.08,131,11,2,253,383,7,135,6e-42,169
Exophiala_oligosperma_CBS725.88_T,ERR2438876.12192,87.25,149,16,3,253,401,6,151,2e-41,167
Exophiala_oligosperma_CBS725.88_T,ERR2438876.2933,88.98,118,12,1,253,370,6,122,1e-34,145
Exophiala_jeanselmei_CBS507.90_T,ERR2438876.14222,89.19,148,12,4,245,392,6,149,9e-46,182
Exophiala_jeanselmei_CBS507.90_T,ERR2438876.4320,87.92,149,15,3,245,393,5,150,5e-43,172
Exophiala_jeanselmei_CBS507.90_T,ERR2438876.1273,87.84,148,15,3,245,392,6,150,2e-42,171
Exophiala_jeanselmei_CBS507.90_T,ERR2438876.4132,90.08,131,11,2,245,375,7,135,7e-42,169
Exophiala_jeanselmei_CBS507.90_T,ERR2438876.12192,87.25,149,16,3,245,393,6,151,2e-41,167
Exophiala_jeanselmei_CBS507.90_T,ERR2438876.12192,100.00,31,0,0,542,572,271,301,2e-08,58.4
Exophiala_jeanselmei_CBS507.90_T,ERR2438876.2933,88.98,118,12,1,245,362,6,122,1e-34,145
Exophiala_jeanselmei_CBS507.90_T,ERR2438876.2933,95.59,68,3,0,537,604,368,301,4e-24,110
Exophiala_bergeri_CBS353.52,ERR2438876.14222,87.90,157,13,4,206,362,6,156,3e-45,180
Exophiala_bergeri_CBS353.52,ERR2438876.4132,90.84,131,10,2,206,336,7,135,1e-43,174
Exophiala_bergeri_CBS353.52,ERR2438876.1273,87.67,146,14,4,206,350,6,148,2e-41,167
Exophiala_bergeri_CBS353.52,ERR2438876.12192,86.67,150,16,4,206,355,6,151,3e-40,163
Exophiala_bergeri_CBS353.52,ERR2438876.4320,86.67,150,16,4,206,355,5,150,3e-40,163
Exophiala_bergeri_CBS353.52,ERR2438876.2933,89.83,118,11,1,206,323,6,122,2e-36,150
Exophiala_moniliae_CBS520.76_T,ERR2438876.4132,90.84,131,10,2,243,373,7,135,1e-43,174
Exophiala_moniliae_CBS520.76_T,ERR2438876.14222,89.31,131,12,2,243,373,6,134,3e-40,163
Exophiala_moniliae_CBS520.76_T,ERR2438876.1273,88.06,134,14,2,243,376,6,137,1e-38,158
Exophiala_moniliae_CBS520.76_T,ERR2438876.12192,87.88,132,14,2,243,374,6,135,2e-37,154
Exophiala_moniliae_CBS520.76_T,ERR2438876.4320,87.31,134,15,2,243,376,5,136,7e-37,152
Exophiala_moniliae_CBS520.76_T,ERR2438876.2933,89.74,117,11,1,243,359,6,121,8e-36,148
Exophiala_pisciphila_CBS537.73_T,ERR2438876.14222,89.19,148,12,4,246,393,6,149,1e-45,182
Exophiala_pisciphila_CBS537.73_T,ERR2438876.4132,91.60,131,9,2,246,376,7,135,3e-45,180
Exophiala_pisciphila_CBS537.73_T,ERR2438876.4132,100.00,33,0,0,552,584,268,300,1e-09,62.1
Exophiala_pisciphila_CBS537.73_T,ERR2438876.1273,88.51,148,14,3,246,393,6,150,4e-44,176
Exophiala_pisciphila_CBS537.73_T,ERR2438876.12192,87.92,149,15,3,246,394,6,151,6e-43,172
Exophiala_pisciphila_CBS537.73_T,ERR2438876.4320,87.25,149,16,3,246,394,5,150,3e-41,167
Exophiala_pisciphila_CBS537.73_T,ERR2438876.2933,89.74,117,11,1,246,362,6,121,1e-35,148
Exophiala_pisciphila_CBS537.73_T,ERR2438876.2933,100.00,62,0,0,553,614,361,300,1e-25,115
Exophiala_pisciphila_CBS537.73_T,ERR2438876.2933,100.00,33,0,0,553,585,268,300,1e-09,62.1
Exophiala_xenobiotica_CBS117642,ERR2438876.14222,89.86,148,11,4,238,385,6,149,2e-47,187
Exophiala_xenobiotica_CBS117642,ERR2438876.1273,88.51,148,14,3,238,385,6,150,4e-44,176
Exophiala_xenobiotica_CBS117642,ERR2438876.4132,90.84,131,10,2,238,368,7,135,1e-43,174
Exophiala_xenobiotica_CBS117642,ERR2438876.12192,87.92,149,15,3,238,386,6,151,5e-43,172
Exophiala_xenobiotica_CBS117642,ERR2438876.4320,87.92,149,15,3,238,386,5,150,5e-43,172
Exophiala_xenobiotica_CBS117642,ERR2438876.2933,89.83,118,11,1,238,355,6,122,2e-36,150
Exophiala_brunnea_CBS,ERR2438876.14222,88.51,148,13,4,274,421,6,149,4e-44,176
Exophiala_brunnea_CBS,ERR2438876.4132,90.84,131,10,2,274,404,7,135,2e-43,174
Exophiala_brunnea_CBS,ERR2438876.1273,87.84,148,15,3,274,421,6,150,2e-42,171
Exophiala_brunnea_CBS,ERR2438876.12192,87.25,149,16,3,274,422,6,151,3e-41,167
Exophiala_brunnea_CBS,ERR2438876.4320,87.25,149,16,3,274,422,5,150,3e-41,167
Exophiala_brunnea_CBS,ERR2438876.2933,88.89,117,12,1,274,390,6,121,4e-34,143
Exophiala_brunnea_CBS,ERR2438876.2933,98.00,50,1,0,584,633,361,312,6e-18,89.8
Exophiala_nishimurae_CBS101538_T,ERR2438876.14222,89.19,148,12,4,252,399,6,149,9e-46,182
Exophiala_nishimurae_CBS101538_T,ERR2438876.4320,87.92,149,15,3,252,400,5,150,5e-43,172
Exophiala_nishimurae_CBS101538_T,ERR2438876.1273,87.84,148,15,3,252,399,6,150,2e-42,171
Exophiala_nishimurae_CBS101538_T,ERR2438876.4132,90.08,131,11,2,252,382,7,135,7e-42,169
Exophiala_nishimurae_CBS101538_T,ERR2438876.12192,87.25,149,16,3,252,400,6,151,2e-41,167
Exophiala_nishimurae_CBS101538_T,ERR2438876.12192,97.14,35,1,0,545,579,267,301,4e-09,60.2
Exophiala_nishimurae_CBS101538_T,ERR2438876.2933,88.98,118,12,1,252,369,6,122,1e-34,145
Exophiala_mesophila_CBS402.95_T,ERR2438876.4132,90.84,131,10,2,236,366,7,135,2e-43,174
Exophiala_mesophila_CBS402.95_T,ERR2438876.14222,88.41,138,14,2,236,373,6,141,1e-40,165
Exophiala_mesophila_CBS402.95_T,ERR2438876.1273,88.06,134,14,2,236,369,6,137,2e-38,158
Exophiala_mesophila_CBS402.95_T,ERR2438876.12192,87.88,132,14,2,236,367,6,135,2e-37,154
Exophiala_mesophila_CBS402.95_T,ERR2438876.12192,97.22,36,0,1,544,578,266,301,5e-09,60.2
Exophiala_mesophila_CBS402.95_T,ERR2438876.4320,87.31,134,15,2,236,369,5,136,8e-37,152
Exophiala_mesophila_CBS402.95_T,ERR2438876.2933,88.89,117,12,1,236,352,6,121,5e-34,143
Exophiala_mesophila_CBS402.95_T,ERR2438876.2933,98.44,64,1,0,548,611,363,300,4e-25,113
Exophiala_castellanii_CBS158.58_T,ERR2438876.4132,90.84,131,10,2,234,364,7,135,2e-43,174
Exophiala_castellanii_CBS158.58_T,ERR2438876.14222,88.41,138,14,2,234,371,6,141,1e-40,165
Exophiala_castellanii_CBS158.58_T,ERR2438876.1273,88.06,134,14,2,234,367,6,137,2e-38,158
Exophiala_castellanii_CBS158.58_T,ERR2438876.12192,87.88,132,14,2,234,365,6,135,2e-37,154
Exophiala_castellanii_CBS158.58_T,ERR2438876.12192,100.00,29,0,0,549,577,273,301,2e-07,54.7
Exophiala_castellanii_CBS158.58_T,ERR2438876.4320,87.31,134,15,2,234,367,5,136,8e-37,152
Exophiala_castellanii_CBS158.58_T,ERR2438876.2933,88.89,117,12,1,234,350,6,121,5e-34,143
Exophiala_castellanii_CBS158.58_T,ERR2438876.2933,97.14,70,1,1,542,610,369,300,3e-26,117
Exophiala_lecanii-corni_CBS123.33_T,ERR2438876.4132,90.08,131,11,2,257,387,7,135,7e-42,169
Exophiala_lecanii-corni_CBS123.33_T,ERR2438876.14222,87.68,138,15,2,257,394,6,141,4e-39,159
Exophiala_lecanii-corni_CBS123.33_T,ERR2438876.1273,87.31,134,15,2,257,390,6,137,7e-37,152
Exophiala_lecanii-corni_CBS123.33_T,ERR2438876.12192,87.12,132,15,2,257,388,6,135,9e-36,148
Exophiala_lecanii-corni_CBS123.33_T,ERR2438876.4320,86.57,134,16,2,257,390,5,136,3e-35,147
Exophiala_lecanii-corni_CBS123.33_T,ERR2438876.2933,88.89,117,12,1,257,373,6,121,4e-34,143
Exophiala_dermatitidis_CBS748.88,ERR2438876.14222,84.66,189,20,7,249,436,6,186,8e-45,180
Exophiala_dermatitidis_CBS748.88,ERR2438876.4132,91.60,131,9,2,249,379,7,135,8e-45,180
Exophiala_dermatitidis_CBS748.88,ERR2438876.1273,87.92,149,14,4,249,397,6,150,1e-42,172
Exophiala_dermatitidis_CBS748.88,ERR2438876.12192,87.33,150,15,4,249,398,6,151,2e-41,169
Exophiala_dermatitidis_CBS748.88,ERR2438876.12192,91.49,47,4,0,557,603,255,301,2e-10,65.8
Exophiala_dermatitidis_CBS748.88,ERR2438876.4320,87.33,150,15,4,249,398,5,150,2e-41,169
Exophiala_dermatitidis_CBS748.88,ERR2438876.2933,89.74,117,11,1,249,365,6,121,2e-35,148
Exophiala_dermatitidis_CBS748.88,ERR2438876.2933,96.20,79,2,1,558,636,377,300,3e-29,128
Exophiala_angulospora_CBS482.92_T,ERR2438876.4132,91.41,128,9,2,240,367,7,132,1e-43,174
Exophiala_angulospora_CBS482.92_T,ERR2438876.1273,87.92,149,14,4,240,388,6,150,5e-43,172
Exophiala_angulospora_CBS482.92_T,ERR2438876.14222,87.92,149,13,4,240,388,6,149,2e-42,171
Exophiala_angulospora_CBS482.92_T,ERR2438876.12192,85.99,157,17,5,240,396,6,157,3e-40,163
Exophiala_angulospora_CBS482.92_T,ERR2438876.4320,85.99,157,17,5,240,396,5,156,3e-40,163
Exophiala_angulospora_CBS482.92_T,ERR2438876.2933,89.74,117,11,1,240,356,6,121,8e-36,148
Exophiala_opportunistica_CBS109811_T,ERR2438876.4132,90.21,143,10,4,239,381,7,145,2e-46,183
Exophiala_opportunistica_CBS109811_T,ERR2438876.14222,89.19,148,12,4,239,386,6,149,8e-46,182
Exophiala_opportunistica_CBS109811_T,ERR2438876.12192,88.00,150,13,5,239,387,6,151,5e-43,172
Exophiala_opportunistica_CBS109811_T,ERR2438876.1273,87.84,148,15,3,239,386,6,150,2e-42,171
Exophiala_opportunistica_CBS109811_T,ERR2438876.4320,87.25,149,16,3,239,387,5,150,2e-41,167
Exophiala_opportunistica_CBS109811_T,ERR2438876.2933,89.74,117,11,1,239,355,6,121,8e-36,148
Exophiala_salmonis_CBS157.67_T,ERR2438876.14222,89.19,148,12,4,368,515,6,149,1e-45,182
Exophiala_salmonis_CBS157.67_T,ERR2438876.4132,91.60,131,9,2,368,498,7,135,4e-45,180
Exophiala_salmonis_CBS157.67_T,ERR2438876.4132,100.00,33,0,0,672,704,268,300,2e-09,62.1
Exophiala_salmonis_CBS157.67_T,ERR2438876.1273,88.51,148,14,3,368,515,6,150,5e-44,176
Exophiala_salmonis_CBS157.67_T,ERR2438876.12192,87.92,149,15,3,368,516,6,151,7e-43,172
Exophiala_salmonis_CBS157.67_T,ERR2438876.4320,87.92,149,15,3,368,516,5,150,7e-43,172
Exophiala_salmonis_CBS157.67_T,ERR2438876.2933,89.74,117,11,1,368,484,6,121,1e-35,148
Exophiala_salmonis_CBS157.67_T,ERR2438876.2933,100.00,62,0,0,673,734,361,300,1e-25,115
Exophiala_salmonis_CBS157.67_T,ERR2438876.2933,100.00,33,0,0,673,705,268,300,2e-09,62.1
Exophiala_aquamarina_CBS119918_T,ERR2438876.14222,89.93,149,10,5,246,394,6,149,2e-47,187
Exophiala_aquamarina_CBS119918_T,ERR2438876.4132,89.58,144,10,5,246,389,7,145,1e-44,178
Exophiala_aquamarina_CBS119918_T,ERR2438876.1273,87.92,149,14,4,246,394,6,150,5e-43,172
Exophiala_aquamarina_CBS119918_T,ERR2438876.12192,87.33,150,15,4,246,395,6,151,6e-42,169
Exophiala_aquamarina_CBS119918_T,ERR2438876.4320,87.33,150,15,4,246,395,5,150,6e-42,169
Exophiala_aquamarina_CBS119918_T,ERR2438876.2933,89.74,117,11,1,246,362,6,121,8e-36,148
Exophiala_cancerae_CBS120420_T,ERR2438876.4132,90.21,143,10,4,261,403,7,145,3e-46,183
Exophiala_cancerae_CBS120420_T,ERR2438876.4132,100.00,33,0,0,563,595,268,300,1e-09,62.1
Exophiala_cancerae_CBS120420_T,ERR2438876.14222,89.19,148,12,4,261,408,6,149,9e-46,182
Exophiala_cancerae_CBS120420_T,ERR2438876.12192,88.00,150,13,5,261,409,6,151,6e-43,172
Exophiala_cancerae_CBS120420_T,ERR2438876.12192,97.14,35,1,0,558,592,267,301,5e-09,60.2
Exophiala_cancerae_CBS120420_T,ERR2438876.1273,87.84,148,15,3,261,408,6,150,2e-42,171
Exophiala_cancerae_CBS120420_T,ERR2438876.4320,87.25,149,16,3,261,409,5,150,3e-41,167
Exophiala_cancerae_CBS120420_T,ERR2438876.2933,89.74,117,11,1,261,377,6,121,9e-36,148
Exophiala_cancerae_CBS120420_T,ERR2438876.2933,97.06,68,1,1,557,624,367,301,3e-25,113
Exophiala_cancerae_CBS120420_T,ERR2438876.2933,95.00,40,1,1,557,596,262,300,1e-09,62.1
Exophiala_tremulae_CBS129355,ERR2438876.4132,90.21,143,10,4,273,415,7,145,3e-46,183
Exophiala_tremulae_CBS129355,ERR2438876.4132,100.00,33,0,0,578,610,268,300,1e-09,62.1
Exophiala_tremulae_CBS129355,ERR2438876.14222,89.19,148,12,4,273,420,6,149,9e-46,182
Exophiala_tremulae_CBS129355,ERR2438876.1273,88.51,148,14,3,273,420,6,150,4e-44,176
Exophiala_tremulae_CBS129355,ERR2438876.12192,87.92,149,15,3,273,421,6,151,6e-43,172
Exophiala_tremulae_CBS129355,ERR2438876.4320,87.92,149,15,3,273,421,5,150,6e-43,172
Exophiala_tremulae_CBS129355,ERR2438876.2933,89.74,117,11,1,273,389,6,121,9e-36,148
Exophiala_tremulae_CBS129355,ERR2438876.2933,100.00,50,0,0,579,628,361,312,4e-19,93.5
Exophiala_tremulae_CBS129355,ERR2438876.2933,100.00,33,0,0,579,611,268,300,1e-09,62.1
Exophiala_equina_CBS116009,ERR2438876.4132,90.21,143,10,4,239,381,7,145,2e-46,183
Exophiala_equina_CBS116009,ERR2438876.14222,89.19,148,12,4,239,386,6,149,8e-46,182
Exophiala_equina_CBS116009,ERR2438876.1273,88.51,148,14,3,239,386,6,150,4e-44,176
Exophiala_equina_CBS116009,ERR2438876.12192,87.92,149,15,3,239,387,6,151,5e-43,172
Exophiala_equina_CBS116009,ERR2438876.4320,87.92,149,15,3,239,387,5,150,5e-43,172
Exophiala_equina_CBS116009,ERR2438876.2933,89.74,117,11,1,239,355,6,121,8e-36,148
Exophiala_alcalophila_CBS520.82_T,ERR2438876.4132,90.84,131,10,2,250,380,7,135,1e-43,174
Exophiala_alcalophila_CBS520.82_T,ERR2438876.1273,87.92,149,14,4,250,398,6,150,5e-43,172
Exophiala_alcalophila_CBS520.82_T,ERR2438876.14222,87.92,149,13,4,250,398,6,149,2e-42,171
Exophiala_alcalophila_CBS520.82_T,ERR2438876.12192,86.67,150,16,4,250,399,6,151,3e-40,163
Exophiala_alcalophila_CBS520.82_T,ERR2438876.4320,86.67,150,16,4,250,399,5,150,3e-40,163
Exophiala_alcalophila_CBS520.82_T,ERR2438876.2933,89.74,117,11,1,250,366,6,121,8e-36,148
Exophiala_crusticola_CBS119970_T,ERR2438876.4132,91.60,131,9,2,255,385,7,135,3e-45,180
Exophiala_crusticola_CBS119970_T,ERR2438876.1273,88.36,146,13,4,255,399,6,148,5e-43,172
Exophiala_crusticola_CBS119970_T,ERR2438876.14222,87.92,149,13,4,255,403,6,149,2e-42,171
Exophiala_crusticola_CBS119970_T,ERR2438876.12192,86.84,152,16,4,255,406,6,153,2e-41,167
Exophiala_crusticola_CBS119970_T,ERR2438876.4320,86.84,152,16,4,255,406,5,152,2e-41,167
Exophiala_crusticola_CBS119970_T,ERR2438876.2933,89.74,117,11,1,255,371,6,121,8e-36,148
Rhinocladiella_atrovirens_CBS264.49,ERR2438876.4132,90.08,131,11,2,281,411,7,135,7e-42,169
Rhinocladiella_atrovirens_CBS264.49,ERR2438876.4132,100.00,32,0,0,578,609,269,300,5e-09,60.2
Rhinocladiella_atrovirens_CBS264.49,ERR2438876.14222,86.99,146,15,4,281,424,6,149,1e-39,161
Rhinocladiella_atrovirens_CBS264.49,ERR2438876.1273,87.31,134,15,2,281,414,6,137,7e-37,152
Rhinocladiella_atrovirens_CBS264.49,ERR2438876.12192,87.12,132,15,2,281,412,6,135,9e-36,148
Rhinocladiella_atrovirens_CBS264.49,ERR2438876.4320,86.57,134,16,2,281,414,5,136,3e-35,147
Rhinocladiella_atrovirens_CBS264.49,ERR2438876.2933,88.89,117,12,1,281,397,6,121,4e-34,143
Rhinocladiella_atrovirens_CBS264.49,ERR2438876.2933,98.25,57,1,0,570,626,369,313,3e-21,100
Rhinocladiella_atrovirens_CBS264.49,ERR2438876.2933,97.56,41,1,0,570,610,260,300,2e-12,71.3
Rhinocladiella_basitona_CBS101460_T,ERR2438876.14222,89.19,148,12,4,240,387,6,149,8e-46,182
Rhinocladiella_basitona_CBS101460_T,ERR2438876.4320,87.92,149,15,3,240,388,5,150,5e-43,172
Rhinocladiella_basitona_CBS101460_T,ERR2438876.1273,87.84,148,15,3,240,387,6,150,2e-42,171
Rhinocladiella_basitona_CBS101460_T,ERR2438876.4132,90.08,131,11,2,240,370,7,135,6e-42,169
Rhinocladiella_basitona_CBS101460_T,ERR2438876.12192,87.25,149,16,3,240,388,6,151,2e-41,167
Rhinocladiella_basitona_CBS101460_T,ERR2438876.2933,88.98,118,12,1,240,357,6,122,1e-34,145
Rhinocladiella_phaeophora_CBS496.78_T,ERR2438876.4132,91.60,131,9,2,248,378,7,135,3e-45,180
Rhinocladiella_phaeophora_CBS496.78_T,ERR2438876.14222,88.36,146,13,4,248,391,6,149,5e-43,172
Rhinocladiella_phaeophora_CBS496.78_T,ERR2438876.1273,87.33,150,14,5,248,397,6,150,2e-41,167
Rhinocladiella_phaeophora_CBS496.78_T,ERR2438876.12192,88.64,132,13,2,248,379,6,135,4e-39,159
Rhinocladiella_phaeophora_CBS496.78_T,ERR2438876.4320,85.43,151,17,5,248,398,5,150,7e-37,152
Rhinocladiella_phaeophora_CBS496.78_T,ERR2438876.2933,89.74,117,11,1,248,364,6,121,9e-36,148
Rhinocladiella_aquaspersa_CBS313.73_T,ERR2438876.4132,91.60,131,9,2,242,372,7,135,3e-45,180
Rhinocladiella_aquaspersa_CBS313.73_T,ERR2438876.14222,88.36,146,13,4,242,385,6,149,6e-43,172
Rhinocladiella_aquaspersa_CBS313.73_T,ERR2438876.1273,87.33,150,14,5,242,391,6,150,3e-41,167
Rhinocladiella_aquaspersa_CBS313.73_T,ERR2438876.12192,88.64,132,13,2,242,373,6,135,5e-39,159
Rhinocladiella_aquaspersa_CBS313.73_T,ERR2438876.4320,85.43,151,17,5,242,392,5,150,8e-37,152
Rhinocladiella_aquaspersa_CBS313.73_T,ERR2438876.2933,89.74,117,11,1,242,358,6,121,1e-35,148
Rhinocladiella_aquaspersa_CBS313.73_T,ERR2438876.2933,92.00,75,1,5,536,606,373,300,3e-21,100
Rhinocladiella_fasciculata_CBS132.86_T,ERR2438876.4132,90.08,131,11,2,258,388,7,135,7e-42,169
Rhinocladiella_fasciculata_CBS132.86_T,ERR2438876.1273,87.42,151,13,5,258,408,6,150,7e-42,169
Rhinocladiella_fasciculata_CBS132.86_T,ERR2438876.14222,85.53,159,15,4,258,416,6,156,4e-39,159
Rhinocladiella_fasciculata_CBS132.86_T,ERR2438876.12192,87.12,132,15,2,258,389,6,135,9e-36,148
Rhinocladiella_fasciculata_CBS132.86_T,ERR2438876.4320,84.21,152,18,6,258,409,5,150,4e-34,143
Rhinocladiella_fasciculata_CBS132.86_T,ERR2438876.2933,88.89,117,12,1,258,374,6,121,4e-34,143
Rhinocladiella_anceps_CBS181.65_T,ERR2438876.14222,87.92,149,13,4,240,388,6,149,2e-42,171
Rhinocladiella_anceps_CBS181.65_T,ERR2438876.4132,90.08,131,11,2,240,370,7,135,6e-42,169
Rhinocladiella_anceps_CBS181.65_T,ERR2438876.1273,86.58,149,16,4,240,388,6,150,1e-39,161
Rhinocladiella_anceps_CBS181.65_T,ERR2438876.12192,85.35,157,18,5,240,396,6,157,1e-38,158
Rhinocladiella_anceps_CBS181.65_T,ERR2438876.4320,84.71,157,19,5,240,396,5,156,6e-37,152
Rhinocladiella_anceps_CBS181.65_T,ERR2438876.2933,88.89,117,12,1,240,356,6,121,4e-34,143
Rhinocladiella_mackenziei_CBS367.92,ERR2438876.4132,90.77,130,10,2,229,358,7,134,5e-43,172
Rhinocladiella_mackenziei_CBS367.92,ERR2438876.4132,97.14,35,1,0,562,596,266,300,4e-09,60.2
Rhinocladiella_mackenziei_CBS367.92,ERR2438876.14222,88.81,134,12,3,229,361,6,137,1e-39,161
Rhinocladiella_mackenziei_CBS367.92,ERR2438876.1273,88.15,135,13,3,229,363,6,137,2e-38,158
Rhinocladiella_mackenziei_CBS367.92,ERR2438876.12192,88.46,130,13,2,229,358,6,133,5e-38,156
Rhinocladiella_mackenziei_CBS367.92,ERR2438876.4320,87.41,135,14,3,229,363,5,136,7e-37,152
Rhinocladiella_mackenziei_CBS367.92,ERR2438876.2933,89.74,117,11,1,229,345,6,121,9e-36,148
Rhinocladiella_mackenziei_CBS367.92,ERR2438876.2933,100.00,43,0,0,566,608,360,318,3e-15,80.5
Rhinocladiella_mackenziei_CBS367.92,ERR2438876.2933,100.00,32,0,0,566,597,269,300,4e-09,60.2
Veronaea_compacta_CBS268.75_T,ERR2438876.14222,87.92,149,13,5,262,410,6,149,2e-42,171
Veronaea_compacta_CBS268.75_T,ERR2438876.4132,90.70,129,10,2,262,390,7,133,2e-42,171
Veronaea_compacta_CBS268.75_T,ERR2438876.1273,87.25,149,15,4,262,410,6,150,2e-41,167
Veronaea_compacta_CBS268.75_T,ERR2438876.12192,86.67,150,16,4,262,411,6,151,3e-40,163
Veronaea_compacta_CBS268.75_T,ERR2438876.4320,86.67,150,16,4,262,411,5,150,3e-40,163
Veronaea_compacta_CBS268.75_T,ERR2438876.2933,88.89,117,12,1,262,378,6,121,4e-34,143
Capronia_pilosella_AFTOL-ID657,ERR2438876.4132,91.60,131,9,2,340,470,7,135,4e-45,180
Capronia_pilosella_AFTOL-ID657,ERR2438876.1273,88.59,149,13,4,340,488,6,150,1e-44,178
Capronia_pilosella_AFTOL-ID657,ERR2438876.14222,88.59,149,12,4,340,488,6,149,5e-44,176
Capronia_pilosella_AFTOL-ID657,ERR2438876.12192,87.33,150,15,4,340,489,6,151,8e-42,169
Capronia_pilosella_AFTOL-ID657,ERR2438876.12192,100.00,30,0,0,642,671,272,301,6e-08,56.5
Capronia_pilosella_AFTOL-ID657,ERR2438876.4320,87.33,150,15,4,340,489,5,150,8e-42,169
Capronia_pilosella_AFTOL-ID657,ERR2438876.2933,89.74,117,11,1,340,456,6,121,1e-35,148
Capronia_dactylotricha_DAOM208471_T,ERR2438876.4132,90.91,132,9,2,242,373,7,135,2e-43,174
Capronia_dactylotricha_DAOM208471_T,ERR2438876.4132,100.00,32,0,0,558,589,269,300,5e-09,60.2
Capronia_dactylotricha_DAOM208471_T,ERR2438876.14222,87.76,147,13,4,242,386,6,149,3e-41,167
Capronia_dactylotricha_DAOM208471_T,ERR2438876.1273,88.15,135,13,2,242,376,6,137,2e-38,158
Capronia_dactylotricha_DAOM208471_T,ERR2438876.12192,87.97,133,13,2,242,374,6,135,2e-37,154
Capronia_dactylotricha_DAOM208471_T,ERR2438876.4320,87.41,135,14,2,242,376,5,136,8e-37,152
Capronia_dactylotricha_DAOM208471_T,ERR2438876.2933,89.74,117,11,1,242,358,6,121,1e-35,148
Capronia_dactylotricha_DAOM208471_T,ERR2438876.2933,100.00,63,0,0,557,619,362,300,3e-26,117
Capronia_dactylotricha_DAOM208471_T,ERR2438876.2933,100.00,34,0,0,557,590,267,300,4e-10,63.9
Capronia_kleinmondensis_CBS122671_T,ERR2438876.4132,90.08,131,11,2,267,397,7,135,8e-42,169
Capronia_kleinmondensis_CBS122671_T,ERR2438876.4132,100.00,32,0,0,564,595,269,300,5e-09,60.2
Capronia_kleinmondensis_CBS122671_T,ERR2438876.14222,86.99,146,15,4,267,410,6,149,1e-39,161
Capronia_kleinmondensis_CBS122671_T,ERR2438876.1273,87.31,134,15,2,267,400,6,137,8e-37,152
Capronia_kleinmondensis_CBS122671_T,ERR2438876.12192,87.12,132,15,2,267,398,6,135,1e-35,148
Capronia_kleinmondensis_CBS122671_T,ERR2438876.4320,86.57,134,16,2,267,400,5,136,4e-35,147
Capronia_kleinmondensis_CBS122671_T,ERR2438876.2933,88.89,117,12,1,267,383,6,121,5e-34,143
Capronia_kleinmondensis_CBS122671_T,ERR2438876.2933,97.14,70,2,0,556,625,369,300,8e-27,119
Capronia_kleinmondensis_CBS122671_T,ERR2438876.2933,95.12,41,2,0,556,596,260,300,1e-10,65.8
Capronia_mansonii_CBS101.67_T,ERR2438876.14222,88.54,157,12,5,253,409,6,156,8e-47,185
Capronia_mansonii_CBS101.67_T,ERR2438876.4132,91.60,131,9,2,253,383,7,135,4e-45,180
Capronia_mansonii_CBS101.67_T,ERR2438876.12192,88.00,150,14,4,253,402,6,151,2e-43,174
Capronia_mansonii_CBS101.67_T,ERR2438876.12192,90.91,44,2,2,554,596,259,301,2e-08,58.4
Capronia_mansonii_CBS101.67_T,ERR2438876.1273,87.92,149,14,4,253,401,6,150,6e-43,172
Capronia_mansonii_CBS101.67_T,ERR2438876.4320,87.33,150,15,4,253,402,5,150,8e-42,169
Capronia_mansonii_CBS101.67_T,ERR2438876.2933,89.74,117,11,1,253,369,6,121,1e-35,148
Capronia_mansonii_CBS101.67_T,ERR2438876.2933,93.51,77,4,1,553,629,375,300,4e-25,113
Capronia_munkii_DAOM216390_T,ERR2438876.14222,88.54,157,12,5,253,409,6,156,8e-47,185
Capronia_munkii_DAOM216390_T,ERR2438876.4132,91.60,131,9,2,253,383,7,135,4e-45,180
Capronia_munkii_DAOM216390_T,ERR2438876.12192,88.00,150,14,4,253,402,6,151,2e-43,174
Capronia_munkii_DAOM216390_T,ERR2438876.12192,93.18,44,1,2,554,596,259,301,4e-10,63.9
Capronia_munkii_DAOM216390_T,ERR2438876.1273,87.92,149,14,4,253,401,6,150,6e-43,172
Capronia_munkii_DAOM216390_T,ERR2438876.4320,87.33,150,15,4,253,402,5,150,8e-42,169
Capronia_munkii_DAOM216390_T,ERR2438876.2933,89.74,117,11,1,253,369,6,121,1e-35,148
Capronia_munkii_DAOM216390_T,ERR2438876.2933,93.51,77,4,1,553,629,375,300,4e-25,113
Capronia_coronata_ATCC56201_T,ERR2438876.4132,91.41,128,9,2,241,368,7,132,2e-43,174
Capronia_coronata_ATCC56201_T,ERR2438876.1273,87.92,149,14,4,241,389,6,150,6e-43,172
Capronia_coronata_ATCC56201_T,ERR2438876.14222,87.92,149,13,4,241,389,6,149,2e-42,171
Capronia_coronata_ATCC56201_T,ERR2438876.12192,86.67,150,16,4,241,390,6,151,3e-40,163
Capronia_coronata_ATCC56201_T,ERR2438876.12192,100.00,32,0,0,536,567,270,301,5e-09,60.2
Capronia_coronata_ATCC56201_T,ERR2438876.4320,86.67,150,16,4,241,390,5,150,3e-40,163
Capronia_coronata_ATCC56201_T,ERR2438876.2933,89.74,117,11,1,241,357,6,121,1e-35,148
Capronia_coronata_ATCC56201_T,ERR2438876.2933,95.71,70,1,2,532,600,368,300,1e-24,111
Capronia_parasitica_CBS123.88,ERR2438876.4132,90.70,129,10,2,247,375,7,133,2e-42,171
Capronia_parasitica_CBS123.88,ERR2438876.4132,93.33,45,1,2,547,591,258,300,9e-11,65.8
Capronia_parasitica_CBS123.88,ERR2438876.14222,91.45,117,9,1,247,363,6,121,4e-39,159
Capronia_parasitica_CBS123.88,ERR2438876.1273,85.43,151,16,6,247,397,6,150,7e-37,152
Capronia_parasitica_CBS123.88,ERR2438876.12192,89.26,121,11,2,247,367,6,124,2e-36,150
Capronia_parasitica_CBS123.88,ERR2438876.4320,84.87,152,17,6,247,398,5,150,9e-36,148
Capronia_parasitica_CBS123.88,ERR2438876.2933,89.74,117,11,1,247,363,6,121,9e-36,148
Capronia_parasitica_CBS123.88,ERR2438876.2933,95.35,43,2,0,553,595,368,326,7e-12,69.4
Capronia_parasitica_CBS123.88,ERR2438876.2933,95.00,40,2,0,553,592,261,300,3e-10,63.9
Veronaea_japonica_CBS776.83_T,ERR2438876.14222,89.19,148,12,4,275,422,6,149,9e-46,182
Veronaea_japonica_CBS776.83_T,ERR2438876.4132,91.60,131,9,2,275,405,7,135,3e-45,180
Veronaea_japonica_CBS776.83_T,ERR2438876.1273,88.51,148,14,3,275,422,6,150,4e-44,176
Veronaea_japonica_CBS776.83_T,ERR2438876.12192,87.92,149,15,3,275,423,6,151,5e-43,172
Veronaea_japonica_CBS776.83_T,ERR2438876.4320,87.92,149,15,3,275,423,5,150,5e-43,172
Veronaea_japonica_CBS776.83_T,ERR2438876.2933,89.74,117,11,1,275,391,6,121,9e-36,148
Thysanorea_papuana_CBS212.96_T,ERR2438876.4132,90.21,143,10,3,249,391,7,145,2e-46,183
Thysanorea_papuana_CBS212.96_T,ERR2438876.14222,88.51,148,13,3,249,396,6,149,4e-44,176
Thysanorea_papuana_CBS212.96_T,ERR2438876.1273,88.51,148,14,3,249,396,6,150,4e-44,176
Thysanorea_papuana_CBS212.96_T,ERR2438876.12192,87.25,149,16,3,249,397,6,151,2e-41,167
Thysanorea_papuana_CBS212.96_T,ERR2438876.4320,87.25,149,16,3,249,397,5,150,2e-41,167
Thysanorea_papuana_CBS212.96_T,ERR2438876.2933,89.74,117,11,1,249,365,6,121,9e-36,148
Capronia_acutiseta_ATCC56428_T,ERR2438876.4132,91.47,129,8,3,243,370,7,133,2e-43,174
Capronia_acutiseta_ATCC56428_T,ERR2438876.4132,100.00,33,0,0,537,569,268,300,1e-09,62.1
Capronia_acutiseta_ATCC56428_T,ERR2438876.14222,87.33,150,12,7,243,391,6,149,9e-41,165
Capronia_acutiseta_ATCC56428_T,ERR2438876.1273,86.67,150,14,6,243,391,6,150,1e-39,161
Capronia_acutiseta_ATCC56428_T,ERR2438876.12192,85.44,158,16,7,243,399,6,157,2e-38,158
Capronia_acutiseta_ATCC56428_T,ERR2438876.12192,97.14,35,1,0,532,566,267,301,5e-09,60.2
Capronia_acutiseta_ATCC56428_T,ERR2438876.4320,84.81,158,17,7,243,399,5,156,7e-37,152
Capronia_acutiseta_ATCC56428_T,ERR2438876.2933,89.74,117,10,2,243,358,6,121,1e-35,148
Capronia_acutiseta_ATCC56428_T,ERR2438876.2933,97.18,71,1,1,529,599,369,300,7e-27,119
Capronia_acutiseta_ATCC56428_T,ERR2438876.2933,95.24,42,1,1,529,570,260,300,1e-10,65.8
Fonsecaea_brasiliensis_CBS119710_T,ERR2438876.14222,89.93,149,10,4,249,397,6,149,2e-47,187
Fonsecaea_brasiliensis_CBS119710_T,ERR2438876.4132,89.58,144,10,4,249,392,7,145,1e-44,178
Fonsecaea_brasiliensis_CBS119710_T,ERR2438876.1273,87.92,149,14,4,249,397,6,150,5e-43,172
Fonsecaea_brasiliensis_CBS119710_T,ERR2438876.12192,86.67,150,16,4,249,398,6,151,3e-40,163
Fonsecaea_brasiliensis_CBS119710_T,ERR2438876.4320,86.67,150,16,4,249,398,5,150,3e-40,163
Fonsecaea_brasiliensis_CBS119710_T,ERR2438876.2933,89.74,117,11,1,249,365,6,121,8e-36,148
Fonsecaea_pedrosoi_CBS271.37_T,ERR2438876.14222,89.33,150,10,5,277,426,6,149,3e-46,183
Fonsecaea_pedrosoi_CBS271.37_T,ERR2438876.4132,90.91,132,9,3,277,408,7,135,2e-43,174
Fonsecaea_pedrosoi_CBS271.37_T,ERR2438876.1273,87.33,150,14,5,277,426,6,150,3e-41,167
Fonsecaea_pedrosoi_CBS271.37_T,ERR2438876.12192,86.75,151,15,5,277,427,6,151,3e-40,163
Fonsecaea_pedrosoi_CBS271.37_T,ERR2438876.12192,100.00,29,0,0,584,612,272,300,2e-07,54.7
Fonsecaea_pedrosoi_CBS271.37_T,ERR2438876.4320,86.75,151,15,5,277,427,5,150,3e-40,163
Fonsecaea_pedrosoi_CBS271.37_T,ERR2438876.2933,89.74,117,11,1,277,393,6,121,1e-35,148
Fonsecaea_pedrosoi_CBS271.37_T,ERR2438876.2933,94.12,68,4,0,578,645,368,301,2e-22,104
Fonsecaea_multimorphosa_CBS980.96_T,ERR2438876.14222,89.93,149,10,5,247,395,6,149,2e-47,187
Fonsecaea_multimorphosa_CBS980.96_T,ERR2438876.4132,90.28,144,9,5,247,390,7,145,2e-46,183
Fonsecaea_multimorphosa_CBS980.96_T,ERR2438876.12192,87.33,150,15,4,247,396,6,151,6e-42,169
Fonsecaea_multimorphosa_CBS980.96_T,ERR2438876.1273,87.25,149,15,4,247,395,6,150,2e-41,167
Fonsecaea_multimorphosa_CBS980.96_T,ERR2438876.4320,86.00,150,17,4,247,396,5,150,1e-38,158
Fonsecaea_multimorphosa_CBS980.96_T,ERR2438876.2933,89.74,117,11,1,247,363,6,121,8e-36,148
Fonsecaea_minima_CBS125760_T,ERR2438876.14222,89.93,149,10,4,243,391,6,149,2e-47,187
Fonsecaea_minima_CBS125760_T,ERR2438876.4132,89.58,144,10,4,243,386,7,145,1e-44,178
Fonsecaea_minima_CBS125760_T,ERR2438876.1273,87.92,149,14,4,243,391,6,150,5e-43,172
Fonsecaea_minima_CBS125760_T,ERR2438876.12192,86.67,150,16,4,243,392,6,151,3e-40,163
Fonsecaea_minima_CBS125760_T,ERR2438876.4320,86.67,150,16,4,243,392,5,150,3e-40,163
Fonsecaea_minima_CBS125760_T,ERR2438876.2933,89.74,117,11,1,243,359,6,121,8e-36,148
Fonsecaea_nubica_CBS269.64_T,ERR2438876.14222,89.33,150,10,5,254,403,6,149,2e-46,183
Fonsecaea_nubica_CBS269.64_T,ERR2438876.4132,90.91,132,9,3,254,385,7,135,1e-43,174
Fonsecaea_nubica_CBS269.64_T,ERR2438876.1273,87.33,150,14,5,254,403,6,150,2e-41,167
Fonsecaea_nubica_CBS269.64_T,ERR2438876.12192,86.75,151,15,5,254,404,6,151,3e-40,163
Fonsecaea_nubica_CBS269.64_T,ERR2438876.4320,86.75,151,15,5,254,404,5,150,3e-40,163
Fonsecaea_nubica_CBS269.64_T,ERR2438876.2933,89.74,117,11,1,254,370,6,121,8e-36,148
Fonsecaea_monophora_CBS269.37_T,ERR2438876.14222,88.74,151,10,6,254,404,6,149,1e-44,178
Fonsecaea_monophora_CBS269.37_T,ERR2438876.4132,90.23,133,9,4,254,386,7,135,2e-42,171
Fonsecaea_monophora_CBS269.37_T,ERR2438876.1273,86.75,151,14,6,254,404,6,150,3e-40,163
Fonsecaea_monophora_CBS269.37_T,ERR2438876.12192,86.18,152,15,6,254,405,6,151,4e-39,159
Fonsecaea_monophora_CBS269.37_T,ERR2438876.4320,86.18,152,15,6,254,405,5,150,4e-39,159
Fonsecaea_monophora_CBS269.37_T,ERR2438876.2933,88.98,118,11,2,254,371,6,121,1e-34,145
Fonsecaea_erecta_CBS125763_T,ERR2438876.4132,90.28,144,9,4,238,381,7,145,2e-46,183
Fonsecaea_erecta_CBS125763_T,ERR2438876.14222,88.59,149,12,4,238,386,6,149,4e-44,176
Fonsecaea_erecta_CBS125763_T,ERR2438876.1273,87.92,149,14,4,238,386,6,150,5e-43,172
Fonsecaea_erecta_CBS125763_T,ERR2438876.12192,87.33,150,15,4,238,387,6,151,6e-42,169
Fonsecaea_erecta_CBS125763_T,ERR2438876.4320,86.67,150,16,4,238,387,5,150,3e-40,163
Fonsecaea_erecta_CBS125763_T,ERR2438876.2933,89.74,117,11,1,238,354,6,121,8e-36,148
Fonsecaea_pugnacius_CBS139214_T,ERR2438876.14222,88.74,151,10,5,247,397,6,149,1e-44,178
Fonsecaea_pugnacius_CBS139214_T,ERR2438876.4132,90.91,132,9,3,247,378,7,135,1e-43,174
Fonsecaea_pugnacius_CBS139214_T,ERR2438876.1273,86.75,151,14,6,247,397,6,150,3e-40,163
Fonsecaea_pugnacius_CBS139214_T,ERR2438876.12192,86.18,152,15,6,247,398,6,151,4e-39,159
Fonsecaea_pugnacius_CBS139214_T,ERR2438876.4320,86.18,152,15,6,247,398,5,150,4e-39,159
Fonsecaea_pugnacius_CBS139214_T,ERR2438876.2933,89.74,117,11,1,247,363,6,121,8e-36,148
Cladophialophora_psammophila_CBS,ERR2438876.4132,90.28,144,9,4,253,396,7,145,2e-46,183
Cladophialophora_psammophila_CBS,ERR2438876.14222,87.90,157,13,5,253,409,6,156,3e-45,180
Cladophialophora_psammophila_CBS,ERR2438876.1273,87.92,149,14,4,253,401,6,150,5e-43,172
Cladophialophora_psammophila_CBS,ERR2438876.12192,87.33,150,15,4,253,402,6,151,6e-42,169
Cladophialophora_psammophila_CBS,ERR2438876.4320,86.67,150,16,4,253,402,5,150,3e-40,163
Cladophialophora_psammophila_CBS,ERR2438876.2933,89.74,117,11,1,253,369,6,121,8e-36,148
Cladophialophora_devriesii_CBS,ERR2438876.14222,89.93,149,10,5,249,397,6,149,2e-47,187
Cladophialophora_devriesii_CBS,ERR2438876.4132,90.28,144,9,5,249,392,7,145,2e-46,183
Cladophialophora_devriesii_CBS,ERR2438876.12192,87.33,150,15,4,249,398,6,151,6e-42,169
Cladophialophora_devriesii_CBS,ERR2438876.1273,87.25,149,15,4,249,397,6,150,2e-41,167
Cladophialophora_devriesii_CBS,ERR2438876.4320,86.00,150,17,4,249,398,5,150,1e-38,158
Cladophialophora_devriesii_CBS,ERR2438876.2933,89.74,117,11,1,249,365,6,121,8e-36,148
Cladophialophora_immunda_CBS834.96,ERR2438876.14222,89.93,149,10,4,251,399,6,149,2e-47,187
Cladophialophora_immunda_CBS834.96,ERR2438876.4132,89.58,144,10,4,251,394,7,145,1e-44,178
Cladophialophora_immunda_CBS834.96,ERR2438876.1273,87.92,149,14,4,251,399,6,150,5e-43,172
Cladophialophora_immunda_CBS834.96,ERR2438876.12192,86.67,150,16,4,251,400,6,151,3e-40,163
Cladophialophora_immunda_CBS834.96,ERR2438876.4320,86.67,150,16,4,251,400,5,150,3e-40,163
Cladophialophora_immunda_CBS834.96,ERR2438876.2933,89.74,117,11,1,251,367,6,121,8e-36,148
Cladophialophora_arxii_CBS306.94_T,ERR2438876.14222,88.74,151,10,6,253,403,6,149,1e-44,178
Cladophialophora_arxii_CBS306.94_T,ERR2438876.4132,90.23,133,9,3,253,385,7,135,2e-42,171
Cladophialophora_arxii_CBS306.94_T,ERR2438876.1273,86.75,151,14,5,253,403,6,150,3e-40,163
Cladophialophora_arxii_CBS306.94_T,ERR2438876.12192,86.18,152,15,5,253,404,6,151,4e-39,159
Cladophialophora_arxii_CBS306.94_T,ERR2438876.4320,86.18,152,15,5,253,404,5,150,4e-39,159
Cladophialophora_arxii_CBS306.94_T,ERR2438876.2933,89.74,117,11,1,253,369,6,121,8e-36,148
Cladophialophora_bantiana_CBS173.52,ERR2438876.4132,90.28,144,9,4,247,390,7,145,2e-46,183
Cladophialophora_bantiana_CBS173.52,ERR2438876.14222,87.90,157,13,5,247,403,6,156,3e-45,180
Cladophialophora_bantiana_CBS173.52,ERR2438876.1273,87.92,149,14,4,247,395,6,150,5e-43,172
Cladophialophora_bantiana_CBS173.52,ERR2438876.12192,87.33,150,15,4,247,396,6,151,6e-42,169
Cladophialophora_bantiana_CBS173.52,ERR2438876.4320,86.67,150,16,4,247,396,5,150,3e-40,163
Cladophialophora_bantiana_CBS173.52,ERR2438876.2933,89.74,117,11,1,247,363,6,121,8e-36,148
Cladophialophora_emmonsii_CBS102594,ERR2438876.4132,91.60,131,9,2,238,368,7,135,3e-45,180
Cladophialophora_emmonsii_CBS102594,ERR2438876.14222,88.00,150,12,4,238,387,6,149,5e-43,172
Cladophialophora_emmonsii_CBS102594,ERR2438876.1273,87.33,150,14,5,238,387,6,150,2e-41,167
Cladophialophora_emmonsii_CBS102594,ERR2438876.12192,85.80,162,16,7,238,399,6,160,8e-41,165
Cladophialophora_emmonsii_CBS102594,ERR2438876.4320,85.80,162,16,7,238,399,5,159,8e-41,165
Cladophialophora_emmonsii_CBS102594,ERR2438876.2933,89.74,117,11,1,238,354,6,121,8e-36,148
Cladophialophora_minourae_CBS556.83,ERR2438876.1273,86.67,150,15,5,246,395,6,150,1e-39,161
Cladophialophora_minourae_CBS556.83,ERR2438876.14222,86.00,150,15,5,246,395,6,149,1e-38,158
Cladophialophora_minourae_CBS556.83,ERR2438876.4132,87.97,133,12,4,246,378,7,135,2e-37,154
Cladophialophora_minourae_CBS556.83,ERR2438876.4320,84.77,151,18,5,246,396,5,150,3e-35,147
Cladophialophora_minourae_CBS556.83,ERR2438876.12192,84.11,151,19,5,246,396,6,151,1e-33,141
Cladophialophora_minourae_CBS556.83,ERR2438876.2933,87.39,119,12,3,246,364,6,121,2e-31,134
Cladophialophora_australiensis_CBS112793,ERR2438876.1273,89.19,148,13,3,248,395,6,150,2e-45,182
Cladophialophora_australiensis_CBS112793,ERR2438876.4132,89.51,143,11,3,248,390,7,145,3e-44,178
Cladophialophora_australiensis_CBS112793,ERR2438876.14222,88.51,148,13,3,248,395,6,149,1e-43,176
Cladophialophora_australiensis_CBS112793,ERR2438876.12192,85.90,156,18,4,248,403,6,157,8e-40,163
Cladophialophora_australiensis_CBS112793,ERR2438876.12192,97.06,34,0,1,541,573,267,300,1e-07,56.5
Cladophialophora_australiensis_CBS112793,ERR2438876.4320,85.90,156,18,4,248,403,5,156,8e-40,163
Cladophialophora_australiensis_CBS112793,ERR2438876.2933,88.89,117,12,1,248,364,6,121,1e-33,143
Cladophialophora_australiensis_CBS112793,ERR2438876.2933,94.20,69,4,0,539,607,368,300,1e-22,106
Cladophialophora_potulentorum_CBS112222,ERR2438876.1273,88.51,148,14,3,247,394,6,150,1e-43,176
Cladophialophora_potulentorum_CBS112222,ERR2438876.4132,88.81,143,12,3,247,389,7,145,1e-42,172
Cladophialophora_potulentorum_CBS112222,ERR2438876.14222,87.84,148,14,3,247,394,6,149,5e-42,171
Cladophialophora_potulentorum_CBS112222,ERR2438876.12192,85.26,156,19,4,247,402,6,157,4e-38,158
Cladophialophora_potulentorum_CBS112222,ERR2438876.12192,100.00,30,0,0,546,575,271,300,1e-07,56.5
Cladophialophora_potulentorum_CBS112222,ERR2438876.4320,85.26,156,19,4,247,402,5,156,4e-38,158
Cladophialophora_potulentorum_CBS112222,ERR2438876.2933,88.03,117,13,1,247,363,6,121,5e-32,137
Cladophialophora_potulentorum_CBS112222,ERR2438876.2933,94.20,69,4,0,541,609,368,300,1e-22,106
Cladophialophora_matsushimae_CMRP1198,ERR2438876.14222,87.82,156,14,4,251,406,6,156,9e-45,178
Cladophialophora_matsushimae_CMRP1198,ERR2438876.1273,87.84,148,15,3,251,398,6,150,2e-42,171
Cladophialophora_matsushimae_CMRP1198,ERR2438876.4132,90.08,131,11,2,251,381,7,135,6e-42,169
Cladophialophora_matsushimae_CMRP1198,ERR2438876.12192,86.58,149,17,3,251,399,6,151,9e-40,161
Cladophialophora_matsushimae_CMRP1198,ERR2438876.4320,86.58,149,17,3,251,399,5,150,9e-40,161
Cladophialophora_matsushimae_CMRP1198,ERR2438876.2933,88.89,117,12,1,251,367,6,121,3e-34,143
Cladophialophora_mycetomatis_CBS122637,ERR2438876.4132,90.44,136,11,2,236,371,7,140,1e-44,178
Cladophialophora_mycetomatis_CBS122637,ERR2438876.14222,88.51,148,13,3,236,383,6,149,4e-44,176
Cladophialophora_mycetomatis_CBS122637,ERR2438876.1273,87.16,148,16,3,236,383,6,150,8e-41,165
Cladophialophora_mycetomatis_CBS122637,ERR2438876.12192,86.67,150,15,5,236,384,6,151,1e-39,161
Cladophialophora_mycetomatis_CBS122637,ERR2438876.4320,85.91,149,18,3,236,384,5,150,5e-38,156
Cladophialophora_mycetomatis_CBS122637,ERR2438876.2933,88.89,117,12,1,236,352,6,121,4e-34,143
Cladophialophora_chaetospira_CBS127573,ERR2438876.4132,90.21,143,10,3,642,784,7,145,4e-46,183
Cladophialophora_chaetospira_CBS127573,ERR2438876.14222,87.74,155,15,3,642,796,6,156,2e-44,178
Cladophialophora_chaetospira_CBS127573,ERR2438876.1273,87.84,148,15,3,642,789,6,150,3e-42,171
Cladophialophora_chaetospira_CBS127573,ERR2438876.12192,87.33,150,14,5,642,790,6,151,4e-41,167
Cladophialophora_chaetospira_CBS127573,ERR2438876.4320,86.58,149,17,3,642,790,5,150,2e-39,161
Cladophialophora_chaetospira_CBS127573,ERR2438876.2933,89.74,117,11,1,642,758,6,121,1e-35,148
Cladophialophora_boppii_CBS126.86_T,ERR2438876.4132,90.78,141,9,4,244,384,7,143,6e-47,185
Cladophialophora_boppii_CBS126.86_T,ERR2438876.14222,88.51,148,13,4,244,391,6,149,4e-44,176
Cladophialophora_boppii_CBS126.86_T,ERR2438876.12192,87.92,149,15,3,244,392,6,151,5e-43,172
Cladophialophora_boppii_CBS126.86_T,ERR2438876.1273,87.84,148,15,3,244,391,6,150,2e-42,171
Cladophialophora_boppii_CBS126.86_T,ERR2438876.4320,86.58,149,17,3,244,392,5,150,1e-39,161
Cladophialophora_boppii_CBS126.86_T,ERR2438876.2933,89.74,117,11,1,244,360,6,121,8e-36,148
Cladophialophora_abundans_CBS126736,ERR2438876.4132,89.51,143,11,3,181,323,7,145,9e-45,178
Cladophialophora_abundans_CBS126736,ERR2438876.14222,87.84,148,14,3,181,328,6,149,2e-42,171
Cladophialophora_abundans_CBS126736,ERR2438876.1273,87.84,148,15,3,181,328,6,150,2e-42,171
Cladophialophora_abundans_CBS126736,ERR2438876.12192,87.33,150,14,5,181,329,6,151,2e-41,167
Cladophialophora_abundans_CBS126736,ERR2438876.4320,87.25,149,16,3,181,329,5,150,2e-41,167
Cladophialophora_abundans_CBS126736,ERR2438876.2933,91.45,117,9,1,181,297,6,121,3e-39,159
Capronia_semi-immersa_CBS102234,ERR2438876.1273,87.84,148,15,3,243,390,6,150,2e-42,171
Capronia_semi-immersa_CBS102234,ERR2438876.4132,88.11,143,13,3,243,385,7,145,2e-41,167
Capronia_semi-immersa_CBS102234,ERR2438876.14222,87.16,148,15,3,243,390,6,149,8e-41,165
Capronia_semi-immersa_CBS102234,ERR2438876.4320,85.91,149,18,3,243,391,5,150,5e-38,156
Capronia_semi-immersa_CBS102234,ERR2438876.12192,85.23,149,19,3,243,391,6,151,2e-36,150
Capronia_semi-immersa_CBS102234,ERR2438876.2933,88.89,117,12,1,243,359,6,121,4e-34,143
Phialophora_americana_CBS400.67,ERR2438876.1273,87.84,148,15,3,245,392,6,150,5e-42,171
Phialophora_americana_CBS400.67,ERR2438876.4132,88.11,143,13,3,245,387,7,145,6e-41,167
Phialophora_americana_CBS400.67,ERR2438876.14222,87.16,148,15,3,245,392,6,149,2e-40,165
Phialophora_americana_CBS400.67,ERR2438876.4320,85.91,149,18,3,245,393,5,150,1e-37,156
Phialophora_americana_CBS400.67,ERR2438876.12192,85.23,149,19,3,245,393,6,151,6e-36,150
Phialophora_americana_CBS400.67,ERR2438876.12192,97.14,35,0,1,533,567,267,300,4e-08,58.4
Phialophora_americana_CBS400.67,ERR2438876.2933,88.89,117,12,1,245,361,6,121,1e-33,143
Phialophora_verrucosa_CBS140325_T,ERR2438876.1273,87.84,148,15,3,249,396,6,150,2e-42,171
Phialophora_verrucosa_CBS140325_T,ERR2438876.4132,88.11,143,13,3,249,391,7,145,2e-41,167
Phialophora_verrucosa_CBS140325_T,ERR2438876.14222,87.16,148,15,3,249,396,6,149,9e-41,165
Phialophora_verrucosa_CBS140325_T,ERR2438876.4320,85.91,149,18,3,249,397,5,150,5e-38,156
Phialophora_verrucosa_CBS140325_T,ERR2438876.12192,85.23,149,19,3,249,397,6,151,2e-36,150
Phialophora_verrucosa_CBS140325_T,ERR2438876.12192,97.14,35,0,1,540,573,266,300,2e-08,58.4
Phialophora_verrucosa_CBS140325_T,ERR2438876.2933,88.89,117,12,1,249,365,6,121,4e-34,143
Cladophialophora_samoensis_CBS259.83_T,ERR2438876.4132,90.91,143,9,3,249,391,7,145,5e-48,189
Cladophialophora_samoensis_CBS259.83_T,ERR2438876.1273,89.19,148,13,3,249,396,6,150,8e-46,182
Cladophialophora_samoensis_CBS259.83_T,ERR2438876.14222,88.51,148,13,3,249,396,6,149,4e-44,176
Cladophialophora_samoensis_CBS259.83_T,ERR2438876.12192,88.00,150,15,3,249,398,6,152,1e-43,174
Cladophialophora_samoensis_CBS259.83_T,ERR2438876.4320,88.00,150,15,3,249,398,5,151,1e-43,174
Cladophialophora_samoensis_CBS259.83_T,ERR2438876.2933,92.31,117,8,1,249,365,6,121,8e-41,165
Cladophialophora_carrionii_CBS260.83,ERR2438876.4132,89.51,143,11,3,265,407,7,145,1e-44,178
Cladophialophora_carrionii_CBS260.83,ERR2438876.14222,87.84,148,14,3,265,412,6,149,2e-42,171
Cladophialophora_carrionii_CBS260.83,ERR2438876.1273,87.16,148,16,3,265,412,6,150,9e-41,165
Cladophialophora_carrionii_CBS260.83,ERR2438876.12192,86.67,150,15,5,265,413,6,151,1e-39,161
Cladophialophora_carrionii_CBS260.83,ERR2438876.12192,100.00,31,0,0,556,586,270,300,2e-08,58.4
Cladophialophora_carrionii_CBS260.83,ERR2438876.4320,85.91,149,18,3,265,413,5,150,5e-38,156
Cladophialophora_carrionii_CBS260.83,ERR2438876.2933,90.60,117,10,1,265,381,6,121,2e-37,154
Exophiala_palmae_UPCB86822_T,ERR2438876.4132,91.60,131,9,2,208,338,7,135,3e-45,180
Exophiala_palmae_UPCB86822_T,ERR2438876.14222,87.92,149,13,4,208,356,6,149,2e-42,171
Exophiala_palmae_UPCB86822_T,ERR2438876.1273,87.25,149,15,4,208,356,6,150,2e-41,167
Exophiala_palmae_UPCB86822_T,ERR2438876.12192,86.67,150,16,4,208,357,6,151,3e-40,163
Exophiala_palmae_UPCB86822_T,ERR2438876.4320,86.67,150,16,4,208,357,5,150,3e-40,163
Exophiala_palmae_UPCB86822_T,ERR2438876.2933,89.74,117,11,1,208,324,6,121,8e-36,148
Cladophialophora_yegresii_CBS114405_T,ERR2438876.4132,89.51,143,11,3,250,392,7,145,1e-44,178
Cladophialophora_yegresii_CBS114405_T,ERR2438876.14222,88.51,148,13,3,250,397,6,149,4e-44,176
Cladophialophora_yegresii_CBS114405_T,ERR2438876.1273,87.84,148,15,3,250,397,6,150,2e-42,171
Cladophialophora_yegresii_CBS114405_T,ERR2438876.12192,86.58,149,17,3,250,398,6,151,1e-39,161
Cladophialophora_yegresii_CBS114405_T,ERR2438876.4320,86.58,149,17,3,250,398,5,150,1e-39,161
Cladophialophora_yegresii_CBS114405_T,ERR2438876.2933,90.60,117,10,1,250,366,6,121,2e-37,154
Knufia_epidermidis_CBS120353_T,ERR2438876.4132,90.70,129,10,2,248,376,7,133,2e-42,171
Knufia_epidermidis_CBS120353_T,ERR2438876.1273,87.84,148,15,3,248,395,6,150,2e-42,171
Knufia_epidermidis_CBS120353_T,ERR2438876.4320,86.93,153,16,4,248,399,5,154,6e-42,169
Knufia_epidermidis_CBS120353_T,ERR2438876.14222,87.16,148,15,4,248,395,6,149,8e-41,165
Knufia_epidermidis_CBS120353_T,ERR2438876.12192,86.27,153,17,4,248,399,6,155,3e-40,163
Knufia_epidermidis_CBS120353_T,ERR2438876.2933,90.60,117,10,1,248,364,6,121,2e-37,154
Arthrocladium_fulminans_CBS136243_T,ERR2438876.14222,86.30,146,16,4,243,386,6,149,5e-38,156
Arthrocladium_fulminans_CBS136243_T,ERR2438876.4132,88.37,129,13,2,243,371,7,133,2e-37,154
Arthrocladium_fulminans_CBS136243_T,ERR2438876.1273,84.67,150,18,5,243,392,6,150,1e-34,145
Arthrocladium_fulminans_CBS136243_T,ERR2438876.4320,84.11,151,19,5,243,393,5,150,1e-33,141
Arthrocladium_fulminans_CBS136243_T,ERR2438876.12192,88.03,117,13,1,243,359,6,121,2e-32,137
Arthrocladium_fulminans_CBS136243_T,ERR2438876.12192,97.06,34,0,1,528,560,267,300,5e-08,56.5
Arthrocladium_fulminans_CBS136243_T,ERR2438876.2933,88.03,117,13,1,243,359,6,121,2e-32,137
Cyphellophora_laciniata_CBS190.61_T,ERR2438876.4132,92.03,138,9,2,337,473,7,143,5e-49,193
Cyphellophora_laciniata_CBS190.61_T,ERR2438876.14222,88.67,150,15,2,337,485,6,154,1e-45,182
Cyphellophora_laciniata_CBS190.61_T,ERR2438876.12192,88.51,148,12,5,337,481,6,151,2e-43,174
Cyphellophora_laciniata_CBS190.61_T,ERR2438876.12192,100.00,31,0,0,633,663,271,301,2e-08,58.4
Cyphellophora_laciniata_CBS190.61_T,ERR2438876.4320,88.51,148,12,4,337,481,5,150,2e-43,174
Cyphellophora_laciniata_CBS190.61_T,ERR2438876.1273,88.44,147,12,5,337,480,6,150,7e-43,172
Cyphellophora_laciniata_CBS190.61_T,ERR2438876.2933,90.52,116,10,1,337,451,6,121,9e-37,152
Cyphellophora_laciniata_CBS190.61_T,ERR2438876.2933,95.71,70,2,1,627,696,368,300,1e-24,111
Cyphellophora_suttonii_CBS449.91,ERR2438876.4132,92.03,138,9,2,240,376,7,143,4e-49,193
Cyphellophora_suttonii_CBS449.91,ERR2438876.14222,88.97,145,14,2,240,383,6,149,1e-44,178
Cyphellophora_suttonii_CBS449.91,ERR2438876.12192,88.51,148,12,5,240,384,6,151,1e-43,174
Cyphellophora_suttonii_CBS449.91,ERR2438876.4320,88.51,148,12,4,240,384,5,150,1e-43,174
Cyphellophora_suttonii_CBS449.91,ERR2438876.1273,88.44,147,12,5,240,383,6,150,5e-43,172
Cyphellophora_suttonii_CBS449.91,ERR2438876.2933,90.52,116,10,1,240,354,6,121,6e-37,152
Cyphellophora_pauciseptata_CBS284.85_T,ERR2438876.4132,92.03,138,9,2,251,387,7,143,4e-49,193
Cyphellophora_pauciseptata_CBS284.85_T,ERR2438876.14222,88.97,145,14,2,251,394,6,149,1e-44,178
Cyphellophora_pauciseptata_CBS284.85_T,ERR2438876.12192,88.51,148,12,5,251,395,6,151,1e-43,174
Cyphellophora_pauciseptata_CBS284.85_T,ERR2438876.4320,88.51,148,12,4,251,395,5,150,1e-43,174
Cyphellophora_pauciseptata_CBS284.85_T,ERR2438876.1273,88.44,147,12,5,251,394,6,150,5e-43,172
Cyphellophora_pauciseptata_CBS284.85_T,ERR2438876.2933,90.52,116,10,1,251,365,6,121,6e-37,152
Cyphellophora_pluriseptata_CBS286.85_T,ERR2438876.4132,91.30,138,10,2,256,392,7,143,2e-47,187
Cyphellophora_pluriseptata_CBS286.85_T,ERR2438876.12192,86.05,172,17,7,256,422,6,175,1e-44,178
Cyphellophora_pluriseptata_CBS286.85_T,ERR2438876.4320,86.05,172,17,6,256,422,5,174,1e-44,178
Cyphellophora_pluriseptata_CBS286.85_T,ERR2438876.14222,88.28,145,15,2,256,399,6,149,5e-43,172
Cyphellophora_pluriseptata_CBS286.85_T,ERR2438876.1273,88.44,147,12,5,256,399,6,150,5e-43,172
Cyphellophora_pluriseptata_CBS286.85_T,ERR2438876.2933,90.52,116,10,1,256,370,6,121,6e-37,152
Phialophora_europaea_CBS101466,ERR2438876.4132,89.86,148,12,3,246,391,7,153,2e-47,187
Phialophora_europaea_CBS101466,ERR2438876.14222,88.28,145,15,2,246,389,6,149,5e-43,172
Phialophora_europaea_CBS101466,ERR2438876.12192,88.44,147,12,5,246,389,6,150,5e-43,172
Phialophora_europaea_CBS101466,ERR2438876.4320,88.44,147,12,4,246,389,5,149,5e-43,172
Phialophora_europaea_CBS101466,ERR2438876.1273,88.44,147,12,5,246,389,6,150,5e-43,172
Phialophora_europaea_CBS101466,ERR2438876.2933,90.52,116,10,1,246,360,6,121,6e-37,152
Phialophora_ambigua_CBS235.93,ERR2438876.4132,91.30,138,10,2,243,379,7,143,2e-47,187
Phialophora_ambigua_CBS235.93,ERR2438876.12192,87.04,162,15,6,243,400,6,165,1e-44,178
Phialophora_ambigua_CBS235.93,ERR2438876.4320,88.51,148,12,4,243,387,5,150,1e-43,174
Phialophora_ambigua_CBS235.93,ERR2438876.14222,88.28,145,15,2,243,386,6,149,5e-43,172
Phialophora_ambigua_CBS235.93,ERR2438876.1273,88.44,147,12,5,243,386,6,150,5e-43,172
Phialophora_ambigua_CBS235.93,ERR2438876.2933,90.52,116,10,1,243,357,6,121,6e-37,152
Cladophialophora_modesta_CBS985.96_T,ERR2438876.4132,90.14,142,11,3,240,381,7,145,9e-46,182
Cladophialophora_modesta_CBS985.96_T,ERR2438876.14222,88.44,147,14,3,240,386,6,149,2e-43,174
Cladophialophora_modesta_CBS985.96_T,ERR2438876.12192,87.25,149,15,4,240,387,6,151,3e-41,167
Cladophialophora_modesta_CBS985.96_T,ERR2438876.4320,87.25,149,15,4,240,387,5,150,3e-41,167
Cladophialophora_modesta_CBS985.96_T,ERR2438876.1273,87.16,148,15,4,240,386,6,150,9e-41,165
Cladophialophora_modesta_CBS985.96_T,ERR2438876.2933,88.89,117,12,1,240,356,6,121,4e-34,143
Cladophialophora_modesta_CBS985.96_T,ERR2438876.2933,94.29,70,4,0,511,580,369,300,2e-23,108
Cyphellophora_fusarioides_MUCL44033_T,ERR2438876.4132,91.30,138,10,2,239,375,7,143,2e-47,187
