Exophiala_nigra_CBS535.94_T,ERR2438882.25582,89.93,149,12,2,243,391,6,151,8e-48,189
Exophiala_nigra_CBS535.94_T,ERR2438882.19087,90.91,132,10,2,243,374,6,135,6e-44,176
Exophiala_nigra_CBS535.94_T,ERR2438882.5308,87.92,149,13,4,243,391,6,149,3e-42,171
Exophiala_nigra_CBS535.94_T,ERR2438882.72,88.55,131,12,3,243,373,6,133,8e-38,156
Exophiala_spinifera_CBS899.68_T,ERR2438882.25582,89.19,148,14,2,240,387,6,151,3e-46,183
Exophiala_spinifera_CBS899.68_T,ERR2438882.5308,87.04,162,15,5,240,401,6,161,2e-44,178
Exophiala_spinifera_CBS899.68_T,ERR2438882.19087,90.15,132,11,2,240,371,6,135,3e-42,171
Exophiala_spinifera_CBS899.68_T,ERR2438882.72,85.81,148,16,5,240,387,6,148,1e-36,152
Exophiala_exophialae_CBS668.76_T,ERR2438882.25582,89.19,148,14,2,241,388,6,151,3e-46,183
Exophiala_exophialae_CBS668.76_T,ERR2438882.5308,87.04,162,15,5,241,402,6,161,2e-44,178
Exophiala_exophialae_CBS668.76_T,ERR2438882.19087,90.15,132,11,2,241,372,6,135,3e-42,171
Exophiala_exophialae_CBS668.76_T,ERR2438882.72,85.81,148,16,5,241,388,6,148,1e-36,152
Exophiala_polymorpha_CBS138920_T,ERR2438882.25582,89.19,148,14,2,343,490,6,151,4e-46,183
Exophiala_polymorpha_CBS138920_T,ERR2438882.5308,88.51,148,13,4,343,490,6,149,8e-44,176
Exophiala_polymorpha_CBS138920_T,ERR2438882.19087,90.15,132,11,2,343,474,6,135,3e-42,171
Exophiala_polymorpha_CBS138920_T,ERR2438882.19087,98.00,50,1,0,645,694,358,309,4e-17,87.9
Exophiala_polymorpha_CBS138920_T,ERR2438882.72,85.81,148,16,5,343,490,6,148,1e-36,152
Exophiala_polymorpha_CBS138920_T,ERR2438882.3037,97.50,40,1,0,655,694,348,309,1e-11,69.4
Exophiala_oligosperma_CBS725.88_T,ERR2438882.25582,89.19,148,14,2,253,400,6,151,4e-46,183
Exophiala_oligosperma_CBS725.88_T,ERR2438882.5308,87.50,160,14,5,253,412,6,159,5e-45,180
Exophiala_oligosperma_CBS725.88_T,ERR2438882.19087,90.15,132,11,2,253,384,6,135,3e-42,171
Exophiala_oligosperma_CBS725.88_T,ERR2438882.72,84.91,159,18,5,253,411,6,158,8e-38,156
Exophiala_jeanselmei_CBS507.90_T,ERR2438882.25582,89.19,148,14,2,245,392,6,151,4e-46,183
Exophiala_jeanselmei_CBS507.90_T,ERR2438882.5308,88.51,148,13,4,245,392,6,149,7e-44,176
Exophiala_jeanselmei_CBS507.90_T,ERR2438882.19087,90.15,132,11,2,245,376,6,135,3e-42,171
Exophiala_jeanselmei_CBS507.90_T,ERR2438882.19087,96.77,62,2,0,543,604,362,301,3e-22,104
Exophiala_jeanselmei_CBS507.90_T,ERR2438882.72,85.81,148,16,5,245,392,6,148,1e-36,152
Exophiala_jeanselmei_CBS507.90_T,ERR2438882.3037,97.92,48,1,0,557,604,348,301,4e-16,84.2
Exophiala_bergeri_CBS353.52,ERR2438882.25582,89.26,149,13,3,206,354,6,151,3e-46,183
Exophiala_bergeri_CBS353.52,ERR2438882.19087,90.91,132,10,2,206,337,6,135,5e-44,176
Exophiala_bergeri_CBS353.52,ERR2438882.5308,87.26,157,14,4,206,362,6,156,2e-43,174
Exophiala_bergeri_CBS353.52,ERR2438882.72,88.55,131,12,3,206,336,6,133,7e-38,156
Exophiala_moniliae_CBS520.76_T,ERR2438882.25582,91.60,131,10,1,243,373,6,135,5e-45,180
Exophiala_moniliae_CBS520.76_T,ERR2438882.19087,90.91,132,10,2,243,374,6,135,6e-44,176
Exophiala_moniliae_CBS520.76_T,ERR2438882.5308,88.55,131,13,2,243,373,6,134,2e-38,158
Exophiala_moniliae_CBS520.76_T,ERR2438882.72,89.74,117,10,2,243,359,6,120,1e-35,148
Exophiala_pisciphila_CBS537.73_T,ERR2438882.25582,90.54,148,12,2,246,393,6,151,2e-49,195
Exophiala_pisciphila_CBS537.73_T,ERR2438882.25582,95.24,42,1,1,543,584,260,300,2e-10,65.8
Exophiala_pisciphila_CBS537.73_T,ERR2438882.19087,91.67,132,9,2,246,377,6,135,2e-45,182
Exophiala_pisciphila_CBS537.73_T,ERR2438882.19087,98.53,68,1,0,546,613,368,301,3e-27,121
Exophiala_pisciphila_CBS537.73_T,ERR2438882.19087,97.50,40,1,0,546,585,262,301,1e-11,69.4
Exophiala_pisciphila_CBS537.73_T,ERR2438882.5308,88.51,148,13,4,246,393,6,149,7e-44,176
Exophiala_pisciphila_CBS537.73_T,ERR2438882.72,85.81,148,16,5,246,393,6,148,1e-36,152
Exophiala_pisciphila_CBS537.73_T,ERR2438882.3037,95.83,48,2,0,566,613,348,301,2e-14,78.7
Exophiala_xenobiotica_CBS117642,ERR2438882.25582,89.86,148,13,2,238,385,6,151,7e-48,189
Exophiala_xenobiotica_CBS117642,ERR2438882.5308,89.19,148,12,4,238,385,6,149,1e-45,182
Exophiala_xenobiotica_CBS117642,ERR2438882.19087,90.91,132,10,2,238,369,6,135,6e-44,176
Exophiala_xenobiotica_CBS117642,ERR2438882.72,86.49,148,15,5,238,385,6,148,2e-38,158
Exophiala_brunnea_CBS,ERR2438882.25582,89.86,148,13,2,274,421,6,151,9e-48,189
Exophiala_brunnea_CBS,ERR2438882.19087,90.91,132,10,2,274,405,6,135,7e-44,176
Exophiala_brunnea_CBS,ERR2438882.19087,96.08,51,2,0,583,633,362,312,1e-16,86.1
Exophiala_brunnea_CBS,ERR2438882.5308,87.84,148,14,4,274,421,6,149,3e-42,171
Exophiala_brunnea_CBS,ERR2438882.72,85.14,148,17,5,274,421,6,148,5e-35,147
Exophiala_nishimurae_CBS101538_T,ERR2438882.25582,89.19,148,14,2,252,399,6,151,4e-46,183
Exophiala_nishimurae_CBS101538_T,ERR2438882.5308,88.51,148,13,4,252,399,6,149,6e-44,176
Exophiala_nishimurae_CBS101538_T,ERR2438882.19087,90.15,132,11,2,252,383,6,135,3e-42,171
Exophiala_nishimurae_CBS101538_T,ERR2438882.72,85.09,161,18,5,252,412,6,160,6e-39,159
Exophiala_mesophila_CBS402.95_T,ERR2438882.25582,91.60,131,10,1,236,366,6,135,5e-45,180
Exophiala_mesophila_CBS402.95_T,ERR2438882.19087,90.91,132,10,2,236,367,6,135,7e-44,176
Exophiala_mesophila_CBS402.95_T,ERR2438882.19087,95.45,66,3,0,545,610,366,301,9e-23,106
Exophiala_mesophila_CBS402.95_T,ERR2438882.5308,87.68,138,15,2,236,373,6,141,7e-39,159
Exophiala_mesophila_CBS402.95_T,ERR2438882.72,87.02,131,14,3,236,366,6,133,2e-34,145
Exophiala_mesophila_CBS402.95_T,ERR2438882.3037,97.92,48,1,0,563,610,348,301,4e-16,84.2
Exophiala_castellanii_CBS158.58_T,ERR2438882.25582,91.60,131,10,1,234,364,6,135,5e-45,180
Exophiala_castellanii_CBS158.58_T,ERR2438882.19087,90.91,132,10,2,234,365,6,135,7e-44,176
Exophiala_castellanii_CBS158.58_T,ERR2438882.19087,98.28,58,1,0,552,609,358,301,1e-21,102
Exophiala_castellanii_CBS158.58_T,ERR2438882.5308,87.68,138,15,2,234,371,6,141,7e-39,159
Exophiala_castellanii_CBS158.58_T,ERR2438882.72,87.02,131,14,3,234,364,6,133,2e-34,145
Exophiala_castellanii_CBS158.58_T,ERR2438882.3037,97.92,48,1,0,562,609,348,301,4e-16,84.2
Exophiala_lecanii-corni_CBS123.33_T,ERR2438882.25582,91.60,131,10,1,257,387,6,135,5e-45,180
Exophiala_lecanii-corni_CBS123.33_T,ERR2438882.19087,90.91,132,10,2,257,388,6,135,6e-44,176
Exophiala_lecanii-corni_CBS123.33_T,ERR2438882.5308,86.96,138,16,2,257,394,6,141,3e-37,154
Exophiala_lecanii-corni_CBS123.33_T,ERR2438882.72,87.02,131,14,3,257,387,6,133,2e-34,145
Exophiala_dermatitidis_CBS748.88,ERR2438882.25582,89.93,149,12,3,249,397,6,151,2e-47,189
Exophiala_dermatitidis_CBS748.88,ERR2438882.19087,91.67,132,9,2,249,380,6,135,4e-45,182
Exophiala_dermatitidis_CBS748.88,ERR2438882.19087,91.03,78,6,1,558,635,377,301,8e-22,104
Exophiala_dermatitidis_CBS748.88,ERR2438882.5308,87.26,157,14,4,249,405,6,156,6e-43,174
Exophiala_dermatitidis_CBS748.88,ERR2438882.72,87.79,131,13,3,249,379,6,133,1e-35,150
Exophiala_dermatitidis_CBS748.88,ERR2438882.3037,97.92,48,1,0,588,635,348,301,1e-15,84.2
Exophiala_angulospora_CBS482.92_T,ERR2438882.25582,89.26,149,13,2,240,388,6,151,4e-46,183
Exophiala_angulospora_CBS482.92_T,ERR2438882.19087,90.91,132,10,2,240,371,6,135,6e-44,176
Exophiala_angulospora_CBS482.92_T,ERR2438882.5308,87.25,149,14,4,240,388,6,149,1e-40,165
Exophiala_angulospora_CBS482.92_T,ERR2438882.72,89.74,117,10,2,240,356,6,120,1e-35,148
Exophiala_opportunistica_CBS109811_T,ERR2438882.25582,91.22,148,11,2,239,386,6,151,4e-51,200
Exophiala_opportunistica_CBS109811_T,ERR2438882.19087,89.86,148,11,4,239,386,6,149,3e-47,187
Exophiala_opportunistica_CBS109811_T,ERR2438882.5308,88.51,148,13,4,239,386,6,149,6e-44,176
Exophiala_opportunistica_CBS109811_T,ERR2438882.72,86.49,148,15,5,239,386,6,148,2e-38,158
Exophiala_salmonis_CBS157.67_T,ERR2438882.25582,90.54,148,12,2,368,515,6,151,2e-49,195
Exophiala_salmonis_CBS157.67_T,ERR2438882.25582,95.24,42,1,1,663,704,260,300,2e-10,65.8
Exophiala_salmonis_CBS157.67_T,ERR2438882.19087,91.67,132,9,2,368,499,6,135,2e-45,182
Exophiala_salmonis_CBS157.67_T,ERR2438882.19087,98.53,68,1,0,666,733,368,301,4e-27,121
Exophiala_salmonis_CBS157.67_T,ERR2438882.19087,97.50,40,1,0,666,705,262,301,1e-11,69.4
Exophiala_salmonis_CBS157.67_T,ERR2438882.5308,88.51,148,13,4,368,515,6,149,8e-44,176
Exophiala_salmonis_CBS157.67_T,ERR2438882.72,85.81,148,16,5,368,515,6,148,1e-36,152
Exophiala_salmonis_CBS157.67_T,ERR2438882.3037,95.83,48,2,0,686,733,348,301,2e-14,78.7
Exophiala_aquamarina_CBS119918_T,ERR2438882.25582,89.93,149,12,3,246,394,6,151,8e-48,189
Exophiala_aquamarina_CBS119918_T,ERR2438882.19087,89.26,149,11,4,246,394,6,149,1e-45,182
Exophiala_aquamarina_CBS119918_T,ERR2438882.5308,89.26,149,11,5,246,394,6,149,1e-45,182
Exophiala_aquamarina_CBS119918_T,ERR2438882.72,85.35,157,17,5,246,402,6,156,2e-38,158
Exophiala_cancerae_CBS120420_T,ERR2438882.25582,91.22,148,11,2,261,408,6,151,4e-51,200
Exophiala_cancerae_CBS120420_T,ERR2438882.25582,100.00,33,0,0,563,595,268,300,2e-09,62.1
Exophiala_cancerae_CBS120420_T,ERR2438882.19087,89.86,148,11,4,261,408,6,149,3e-47,187
Exophiala_cancerae_CBS120420_T,ERR2438882.19087,97.10,69,1,1,556,624,368,301,1e-25,115
Exophiala_cancerae_CBS120420_T,ERR2438882.19087,95.12,41,1,1,556,596,262,301,5e-10,63.9
Exophiala_cancerae_CBS120420_T,ERR2438882.5308,88.51,148,13,4,261,408,6,149,7e-44,176
Exophiala_cancerae_CBS120420_T,ERR2438882.72,86.49,148,15,5,261,408,6,148,2e-38,158
Exophiala_cancerae_CBS120420_T,ERR2438882.3037,95.83,48,2,0,577,624,348,301,2e-14,78.7
Exophiala_tremulae_CBS129355,ERR2438882.25582,90.54,148,12,2,273,420,6,151,2e-49,195
Exophiala_tremulae_CBS129355,ERR2438882.25582,95.24,42,1,1,569,610,260,300,2e-10,65.8
Exophiala_tremulae_CBS129355,ERR2438882.19087,89.86,148,11,3,273,420,6,149,3e-47,187
Exophiala_tremulae_CBS129355,ERR2438882.19087,98.25,57,1,0,572,628,368,312,4e-21,100
Exophiala_tremulae_CBS129355,ERR2438882.19087,97.50,40,1,0,572,611,262,301,1e-11,69.4
Exophiala_tremulae_CBS129355,ERR2438882.5308,88.51,148,13,4,273,420,6,149,7e-44,176
Exophiala_tremulae_CBS129355,ERR2438882.72,86.49,148,15,5,273,420,6,148,2e-38,158
Exophiala_equina_CBS116009,ERR2438882.25582,90.54,148,12,2,239,386,6,151,2e-49,195
Exophiala_equina_CBS116009,ERR2438882.19087,89.86,148,11,3,239,386,6,149,3e-47,187
Exophiala_equina_CBS116009,ERR2438882.5308,88.51,148,13,4,239,386,6,149,6e-44,176
Exophiala_equina_CBS116009,ERR2438882.72,86.49,148,15,5,239,386,6,148,2e-38,158
Exophiala_alcalophila_CBS520.82_T,ERR2438882.25582,89.26,149,13,2,250,398,6,151,4e-46,183
Exophiala_alcalophila_CBS520.82_T,ERR2438882.19087,90.91,132,10,2,250,381,6,135,6e-44,176
Exophiala_alcalophila_CBS520.82_T,ERR2438882.5308,87.25,149,14,4,250,398,6,149,1e-40,165
Exophiala_alcalophila_CBS520.82_T,ERR2438882.72,89.74,117,10,2,250,366,6,120,1e-35,148
Exophiala_crusticola_CBS119970_T,ERR2438882.25582,89.93,149,12,2,255,403,6,151,8e-48,189
Exophiala_crusticola_CBS119970_T,ERR2438882.19087,91.67,132,9,2,255,386,6,135,1e-45,182
Exophiala_crusticola_CBS119970_T,ERR2438882.5308,87.25,149,14,4,255,403,6,149,1e-40,165
Exophiala_crusticola_CBS119970_T,ERR2438882.72,87.79,131,13,3,255,385,6,133,4e-36,150
Rhinocladiella_atrovirens_CBS264.49,ERR2438882.25582,91.60,131,10,1,281,411,6,135,5e-45,180
Rhinocladiella_atrovirens_CBS264.49,ERR2438882.25582,95.12,41,2,0,569,609,260,300,2e-10,65.8
Rhinocladiella_atrovirens_CBS264.49,ERR2438882.19087,90.91,132,10,2,281,412,6,135,7e-44,176
Rhinocladiella_atrovirens_CBS264.49,ERR2438882.19087,96.36,55,2,0,572,626,367,313,3e-18,91.6
Rhinocladiella_atrovirens_CBS264.49,ERR2438882.19087,94.87,39,2,0,572,610,263,301,2e-09,62.1
Rhinocladiella_atrovirens_CBS264.49,ERR2438882.5308,86.30,146,16,4,281,424,6,149,9e-38,156
Rhinocladiella_atrovirens_CBS264.49,ERR2438882.72,87.02,131,14,3,281,411,6,133,2e-34,145
Rhinocladiella_basitona_CBS101460_T,ERR2438882.25582,89.19,148,14,2,240,387,6,151,3e-46,183
Rhinocladiella_basitona_CBS101460_T,ERR2438882.5308,88.51,148,13,4,240,387,6,149,6e-44,176
Rhinocladiella_basitona_CBS101460_T,ERR2438882.19087,90.15,132,11,2,240,371,6,135,3e-42,171
Rhinocladiella_basitona_CBS101460_T,ERR2438882.72,84.47,161,19,5,240,400,6,160,3e-37,154
Rhinocladiella_phaeophora_CBS496.78_T,ERR2438882.25582,89.40,151,12,4,248,395,6,155,3e-47,187
Rhinocladiella_phaeophora_CBS496.78_T,ERR2438882.19087,91.67,132,9,2,248,379,6,135,1e-45,182
Rhinocladiella_phaeophora_CBS496.78_T,ERR2438882.5308,87.67,146,14,4,248,391,6,149,4e-41,167
Rhinocladiella_phaeophora_CBS496.78_T,ERR2438882.72,87.79,131,13,3,248,378,6,133,4e-36,150
Rhinocladiella_aquaspersa_CBS313.73_T,ERR2438882.25582,88.61,158,13,5,242,396,6,161,3e-47,187
Rhinocladiella_aquaspersa_CBS313.73_T,ERR2438882.19087,91.67,132,9,2,242,373,6,135,2e-45,182
Rhinocladiella_aquaspersa_CBS313.73_T,ERR2438882.19087,92.54,67,1,4,543,605,367,301,7e-19,93.5
Rhinocladiella_aquaspersa_CBS313.73_T,ERR2438882.5308,87.67,146,14,4,242,385,6,149,4e-41,167
Rhinocladiella_aquaspersa_CBS313.73_T,ERR2438882.72,87.79,131,13,3,242,372,6,133,4e-36,150
Rhinocladiella_aquaspersa_CBS313.73_T,ERR2438882.3037,93.75,48,2,1,559,605,348,301,3e-12,71.3
Rhinocladiella_fasciculata_CBS132.86_T,ERR2438882.25582,90.84,131,11,1,258,388,6,135,2e-43,174
Rhinocladiella_fasciculata_CBS132.86_T,ERR2438882.19087,90.15,132,11,2,258,389,6,135,3e-42,171
Rhinocladiella_fasciculata_CBS132.86_T,ERR2438882.5308,84.91,159,16,4,258,416,6,156,3e-37,154
Rhinocladiella_fasciculata_CBS132.86_T,ERR2438882.72,88.89,117,11,2,258,374,6,120,6e-34,143
Rhinocladiella_anceps_CBS181.65_T,ERR2438882.25582,88.59,149,14,3,240,388,6,151,2e-44,178
Rhinocladiella_anceps_CBS181.65_T,ERR2438882.19087,90.15,132,11,2,240,371,6,135,3e-42,171
Rhinocladiella_anceps_CBS181.65_T,ERR2438882.5308,87.25,149,14,4,240,388,6,149,1e-40,165
Rhinocladiella_anceps_CBS181.65_T,ERR2438882.72,87.79,131,13,3,240,370,6,133,4e-36,150
Rhinocladiella_mackenziei_CBS367.92,ERR2438882.25582,91.54,130,10,1,229,358,6,134,2e-44,178
Rhinocladiella_mackenziei_CBS367.92,ERR2438882.25582,97.50,40,0,1,557,596,262,300,4e-11,67.6
Rhinocladiella_mackenziei_CBS367.92,ERR2438882.19087,93.91,115,6,1,229,343,6,119,8e-43,172
Rhinocladiella_mackenziei_CBS367.92,ERR2438882.19087,94.12,51,2,1,558,608,367,318,7e-14,76.8
Rhinocladiella_mackenziei_CBS367.92,ERR2438882.19087,92.50,40,2,1,558,597,263,301,9e-08,56.5
Rhinocladiella_mackenziei_CBS367.92,ERR2438882.5308,88.06,134,13,3,229,361,6,137,9e-38,156
Rhinocladiella_mackenziei_CBS367.92,ERR2438882.72,87.69,130,13,3,229,358,6,132,1e-35,148
Veronaea_compacta_CBS268.75_T,ERR2438882.25582,89.26,149,13,3,262,410,6,151,4e-46,183
Veronaea_compacta_CBS268.75_T,ERR2438882.19087,90.23,133,10,3,262,394,6,135,3e-42,171
Veronaea_compacta_CBS268.75_T,ERR2438882.5308,87.25,149,14,5,262,410,6,149,1e-40,165
Veronaea_compacta_CBS268.75_T,ERR2438882.72,88.89,117,11,2,262,378,6,120,6e-34,143
Capronia_pilosella_AFTOL-ID657,ERR2438882.25582,89.93,149,12,3,340,488,6,151,9e-48,189
Capronia_pilosella_AFTOL-ID657,ERR2438882.25582,97.37,38,1,0,637,674,263,300,2e-10,65.8
Capronia_pilosella_AFTOL-ID657,ERR2438882.19087,89.26,149,11,4,340,488,6,149,2e-45,182
Capronia_pilosella_AFTOL-ID657,ERR2438882.5308,87.92,149,13,4,340,488,6,149,3e-42,171
Capronia_pilosella_AFTOL-ID657,ERR2438882.72,85.91,149,15,5,340,488,6,148,3e-37,154
Capronia_dactylotricha_DAOM208471_T,ERR2438882.25582,91.67,132,9,2,242,373,6,135,2e-45,182
Capronia_dactylotricha_DAOM208471_T,ERR2438882.25582,100.00,32,0,0,558,589,269,300,7e-09,60.2
Capronia_dactylotricha_DAOM208471_T,ERR2438882.19087,90.98,133,9,2,242,374,6,135,7e-44,176
Capronia_dactylotricha_DAOM208471_T,ERR2438882.19087,100.00,58,0,0,561,618,358,301,3e-23,108
Capronia_dactylotricha_DAOM208471_T,ERR2438882.19087,100.00,30,0,0,561,590,272,301,1e-07,56.5
Capronia_dactylotricha_DAOM208471_T,ERR2438882.5308,87.07,147,14,4,242,386,6,149,2e-39,161
Capronia_dactylotricha_DAOM208471_T,ERR2438882.72,88.64,132,11,4,242,373,6,133,3e-38,158
Capronia_dactylotricha_DAOM208471_T,ERR2438882.3037,95.83,48,2,0,571,618,348,301,2e-14,78.7
Capronia_kleinmondensis_CBS122671_T,ERR2438882.25582,91.60,131,10,1,267,397,6,135,6e-45,180
Capronia_kleinmondensis_CBS122671_T,ERR2438882.25582,95.12,41,2,0,555,595,260,300,2e-10,65.8
Capronia_kleinmondensis_CBS122671_T,ERR2438882.19087,90.91,132,10,2,267,398,6,135,7e-44,176
Capronia_kleinmondensis_CBS122671_T,ERR2438882.19087,100.00,58,0,0,567,624,358,301,3e-23,108
Capronia_kleinmondensis_CBS122671_T,ERR2438882.19087,100.00,30,0,0,567,596,272,301,1e-07,56.5
Capronia_kleinmondensis_CBS122671_T,ERR2438882.5308,86.30,146,16,4,267,410,6,149,9e-38,156
Capronia_kleinmondensis_CBS122671_T,ERR2438882.72,87.02,131,14,3,267,397,6,133,2e-34,145
Capronia_kleinmondensis_CBS122671_T,ERR2438882.3037,95.83,48,2,0,577,624,348,301,2e-14,78.7
Capronia_mansonii_CBS101.67_T,ERR2438882.25582,90.60,149,11,3,253,401,6,151,2e-49,195
Capronia_mansonii_CBS101.67_T,ERR2438882.25582,97.30,37,1,0,563,599,264,300,6e-10,63.9
Capronia_mansonii_CBS101.67_T,ERR2438882.19087,89.26,149,11,5,253,401,6,149,2e-45,182
Capronia_mansonii_CBS101.67_T,ERR2438882.19087,95.59,68,2,1,562,628,368,301,3e-23,108
Capronia_mansonii_CBS101.67_T,ERR2438882.5308,87.90,157,13,5,253,409,6,156,6e-45,180
Capronia_mansonii_CBS101.67_T,ERR2438882.72,84.52,168,18,6,253,420,6,165,7e-39,159
Capronia_mansonii_CBS101.67_T,ERR2438882.3037,97.92,48,1,0,581,628,348,301,4e-16,84.2
Capronia_munkii_DAOM216390_T,ERR2438882.25582,90.60,149,11,3,253,401,6,151,2e-49,195
Capronia_munkii_DAOM216390_T,ERR2438882.19087,89.26,149,11,5,253,401,6,149,2e-45,182
Capronia_munkii_DAOM216390_T,ERR2438882.19087,96.97,66,2,0,563,628,366,301,2e-24,111
Capronia_munkii_DAOM216390_T,ERR2438882.5308,87.90,157,13,5,253,409,6,156,6e-45,180
Capronia_munkii_DAOM216390_T,ERR2438882.72,84.52,168,18,6,253,420,6,165,7e-39,159
Capronia_munkii_DAOM216390_T,ERR2438882.3037,97.92,48,1,0,581,628,348,301,4e-16,84.2
Capronia_coronata_ATCC56201_T,ERR2438882.25582,89.26,149,13,2,241,389,6,151,4e-46,183
Capronia_coronata_ATCC56201_T,ERR2438882.19087,90.91,132,10,2,241,372,6,135,7e-44,176
Capronia_coronata_ATCC56201_T,ERR2438882.19087,94.37,71,3,1,529,599,370,301,3e-23,108
Capronia_coronata_ATCC56201_T,ERR2438882.5308,87.25,149,14,4,241,389,6,149,1e-40,165
Capronia_coronata_ATCC56201_T,ERR2438882.72,89.74,117,10,2,241,357,6,120,2e-35,148
Capronia_coronata_ATCC56201_T,ERR2438882.3037,97.92,48,1,0,552,599,348,301,4e-16,84.2
Capronia_parasitica_CBS123.88,ERR2438882.25582,92.25,129,9,1,247,375,6,133,1e-45,182
Capronia_parasitica_CBS123.88,ERR2438882.25582,100.00,33,0,0,559,591,268,300,2e-09,62.1
Capronia_parasitica_CBS123.88,ERR2438882.19087,91.47,129,9,2,247,375,6,132,6e-44,176
Capronia_parasitica_CBS123.88,ERR2438882.19087,97.30,37,1,0,559,595,362,326,5e-10,63.9
Capronia_parasitica_CBS123.88,ERR2438882.19087,97.06,34,1,0,559,592,268,301,2e-08,58.4
Capronia_parasitica_CBS123.88,ERR2438882.5308,90.60,117,10,1,247,363,6,121,3e-37,154
Capronia_parasitica_CBS123.88,ERR2438882.72,89.74,117,10,2,247,363,6,120,1e-35,148
Veronaea_japonica_CBS776.83_T,ERR2438882.25582,90.54,148,12,2,275,422,6,151,2e-49,195
Veronaea_japonica_CBS776.83_T,ERR2438882.19087,91.67,132,9,2,275,406,6,135,1e-45,182
Veronaea_japonica_CBS776.83_T,ERR2438882.5308,88.51,148,13,4,275,422,6,149,7e-44,176
Veronaea_japonica_CBS776.83_T,ERR2438882.72,85.81,148,16,5,275,422,6,148,1e-36,152
Thysanorea_papuana_CBS212.96_T,ERR2438882.25582,90.54,148,12,2,249,396,6,151,2e-49,195
Thysanorea_papuana_CBS212.96_T,ERR2438882.19087,89.86,148,11,4,249,396,6,149,3e-47,187
Thysanorea_papuana_CBS212.96_T,ERR2438882.5308,87.84,148,14,3,249,396,6,149,3e-42,171
Thysanorea_papuana_CBS212.96_T,ERR2438882.72,86.49,148,15,4,249,396,6,148,2e-38,158
Capronia_acutiseta_ATCC56428_T,ERR2438882.25582,92.25,129,8,2,243,370,6,133,1e-45,182
Capronia_acutiseta_ATCC56428_T,ERR2438882.25582,95.12,41,1,1,529,569,261,300,6e-10,63.9
Capronia_acutiseta_ATCC56428_T,ERR2438882.19087,90.98,133,9,3,243,374,6,136,7e-44,176
Capronia_acutiseta_ATCC56428_T,ERR2438882.19087,97.06,68,1,1,531,598,367,301,5e-25,113
Capronia_acutiseta_ATCC56428_T,ERR2438882.19087,95.00,40,1,1,531,570,263,301,2e-09,62.1
Capronia_acutiseta_ATCC56428_T,ERR2438882.5308,86.67,150,13,7,243,391,6,149,7e-39,159
Capronia_acutiseta_ATCC56428_T,ERR2438882.72,93.07,101,6,1,258,358,21,120,5e-35,147
Capronia_acutiseta_ATCC56428_T,ERR2438882.3037,95.83,48,2,0,551,598,348,301,2e-14,78.7
Fonsecaea_brasiliensis_CBS119710_T,ERR2438882.25582,89.33,150,11,4,249,397,6,151,4e-46,183
Fonsecaea_brasiliensis_CBS119710_T,ERR2438882.5308,89.26,149,11,4,249,397,6,149,1e-45,182
Fonsecaea_brasiliensis_CBS119710_T,ERR2438882.19087,90.98,133,9,3,249,381,6,135,6e-44,176
Fonsecaea_brasiliensis_CBS119710_T,ERR2438882.72,85.35,157,17,4,249,405,6,156,2e-38,158
Fonsecaea_pedrosoi_CBS271.37_T,ERR2438882.25582,89.33,150,12,4,277,426,6,151,1e-46,185
Fonsecaea_pedrosoi_CBS271.37_T,ERR2438882.19087,88.67,150,11,5,277,426,6,149,2e-44,178
Fonsecaea_pedrosoi_CBS271.37_T,ERR2438882.19087,94.03,67,4,0,579,645,367,301,1e-21,102
Fonsecaea_pedrosoi_CBS271.37_T,ERR2438882.5308,88.67,150,11,5,277,426,6,149,2e-44,178
Fonsecaea_pedrosoi_CBS271.37_T,ERR2438882.72,85.44,158,16,5,277,434,6,156,3e-38,158
Fonsecaea_pedrosoi_CBS271.37_T,ERR2438882.3037,95.83,48,2,0,598,645,348,301,2e-14,78.7
Fonsecaea_multimorphosa_CBS980.96_T,ERR2438882.25582,90.00,150,10,4,247,395,6,151,8e-48,189
Fonsecaea_multimorphosa_CBS980.96_T,ERR2438882.19087,89.26,149,11,4,247,395,6,149,1e-45,182
Fonsecaea_multimorphosa_CBS980.96_T,ERR2438882.5308,89.26,149,11,5,247,395,6,149,1e-45,182
Fonsecaea_multimorphosa_CBS980.96_T,ERR2438882.72,86.58,149,14,4,247,395,6,148,6e-39,159
Fonsecaea_minima_CBS125760_T,ERR2438882.25582,88.61,158,11,5,243,399,6,157,1e-46,185
Fonsecaea_minima_CBS125760_T,ERR2438882.5308,89.26,149,11,4,243,391,6,149,1e-45,182
Fonsecaea_minima_CBS125760_T,ERR2438882.19087,90.98,133,9,3,243,375,6,135,6e-44,176
Fonsecaea_minima_CBS125760_T,ERR2438882.72,85.91,149,15,4,243,391,6,148,3e-37,154
Fonsecaea_nubica_CBS269.64_T,ERR2438882.25582,90.00,150,11,4,254,403,6,151,2e-48,191
Fonsecaea_nubica_CBS269.64_T,ERR2438882.19087,88.67,150,11,5,254,403,6,149,2e-44,178
Fonsecaea_nubica_CBS269.64_T,ERR2438882.5308,88.67,150,11,5,254,403,6,149,2e-44,178
Fonsecaea_nubica_CBS269.64_T,ERR2438882.72,85.33,150,15,5,254,403,6,148,1e-35,148
Fonsecaea_monophora_CBS269.37_T,ERR2438882.25582,88.74,151,12,5,254,404,6,151,5e-45,180
Fonsecaea_monophora_CBS269.37_T,ERR2438882.19087,88.08,151,11,6,254,404,6,149,8e-43,172
Fonsecaea_monophora_CBS269.37_T,ERR2438882.5308,88.08,151,11,6,254,404,6,149,8e-43,172
Fonsecaea_monophora_CBS269.37_T,ERR2438882.72,87.32,142,12,4,271,412,21,156,2e-38,158
Fonsecaea_erecta_CBS125763_T,ERR2438882.25582,90.60,149,11,2,238,386,6,151,2e-49,195
Fonsecaea_erecta_CBS125763_T,ERR2438882.19087,89.26,149,11,4,238,386,6,149,1e-45,182
Fonsecaea_erecta_CBS125763_T,ERR2438882.5308,87.92,149,13,4,238,386,6,149,3e-42,171
Fonsecaea_erecta_CBS125763_T,ERR2438882.72,86.58,149,14,5,238,386,6,148,6e-39,159
Fonsecaea_pugnacius_CBS139214_T,ERR2438882.25582,91.67,132,9,2,247,378,6,135,1e-45,182
Fonsecaea_pugnacius_CBS139214_T,ERR2438882.19087,90.98,133,9,3,247,379,6,135,6e-44,176
Fonsecaea_pugnacius_CBS139214_T,ERR2438882.5308,88.08,151,11,5,247,397,6,149,8e-43,172
Fonsecaea_pugnacius_CBS139214_T,ERR2438882.72,85.43,151,14,5,247,397,6,148,4e-36,150
Cladophialophora_psammophila_CBS,ERR2438882.25582,90.60,149,11,2,253,401,6,151,2e-49,195
Cladophialophora_psammophila_CBS,ERR2438882.19087,89.26,149,11,4,253,401,6,149,1e-45,182
Cladophialophora_psammophila_CBS,ERR2438882.5308,87.26,157,14,5,253,409,6,156,2e-43,174
Cladophialophora_psammophila_CBS,ERR2438882.72,85.90,156,15,6,253,408,6,154,6e-39,159
Cladophialophora_devriesii_CBS,ERR2438882.25582,90.00,150,10,4,249,397,6,151,7e-48,189
Cladophialophora_devriesii_CBS,ERR2438882.19087,89.26,149,11,4,249,397,6,149,1e-45,182
Cladophialophora_devriesii_CBS,ERR2438882.5308,89.26,149,11,5,249,397,6,149,1e-45,182
Cladophialophora_devriesii_CBS,ERR2438882.72,85.99,157,16,4,249,405,6,156,4e-40,163
Cladophialophora_immunda_CBS834.96,ERR2438882.25582,89.33,150,11,4,251,399,6,151,4e-46,183
Cladophialophora_immunda_CBS834.96,ERR2438882.5308,89.26,149,11,4,251,399,6,149,1e-45,182
Cladophialophora_immunda_CBS834.96,ERR2438882.19087,90.98,133,9,3,251,383,6,135,6e-44,176
Cladophialophora_immunda_CBS834.96,ERR2438882.72,85.91,149,15,4,251,399,6,148,3e-37,154
Cladophialophora_arxii_CBS306.94_T,ERR2438882.25582,88.74,151,12,4,253,403,6,151,5e-45,180
Cladophialophora_arxii_CBS306.94_T,ERR2438882.19087,93.91,115,6,1,253,367,6,119,8e-43,172
Cladophialophora_arxii_CBS306.94_T,ERR2438882.5308,88.08,151,11,6,253,403,6,149,8e-43,172
Cladophialophora_arxii_CBS306.94_T,ERR2438882.72,85.43,151,14,5,253,403,6,148,4e-36,150
Cladophialophora_bantiana_CBS173.52,ERR2438882.25582,90.60,149,11,2,247,395,6,151,2e-49,195
Cladophialophora_bantiana_CBS173.52,ERR2438882.19087,89.26,149,11,4,247,395,6,149,1e-45,182
Cladophialophora_bantiana_CBS173.52,ERR2438882.5308,87.26,157,14,5,247,403,6,156,2e-43,174
Cladophialophora_bantiana_CBS173.52,ERR2438882.72,85.90,156,15,6,247,402,6,154,6e-39,159
Cladophialophora_emmonsii_CBS102594,ERR2438882.25582,92.37,131,9,1,238,368,6,135,1e-46,185
Cladophialophora_emmonsii_CBS102594,ERR2438882.19087,91.67,132,9,2,238,369,6,135,1e-45,182
Cladophialophora_emmonsii_CBS102594,ERR2438882.5308,87.33,150,13,4,238,387,6,149,4e-41,167
Cladophialophora_emmonsii_CBS102594,ERR2438882.72,86.00,150,14,5,238,387,6,148,3e-37,154
Cladophialophora_minourae_CBS556.83,ERR2438882.25582,88.72,133,12,3,246,378,6,135,6e-39,159
Cladophialophora_minourae_CBS556.83,ERR2438882.19087,88.06,134,12,4,246,379,6,135,8e-38,156
Cladophialophora_minourae_CBS556.83,ERR2438882.5308,84.67,150,17,5,246,395,6,149,5e-35,147
Cladophialophora_minourae_CBS556.83,ERR2438882.72,84.67,150,16,6,246,395,6,148,2e-34,145
Cladophialophora_australiensis_CBS112793,ERR2438882.25582,89.26,149,12,3,248,395,6,151,1e-45,183
Cladophialophora_australiensis_CBS112793,ERR2438882.19087,90.91,132,10,2,248,379,6,135,2e-43,176
Cladophialophora_australiensis_CBS112793,ERR2438882.19087,94.37,71,3,1,536,606,370,301,6e-23,108
Cladophialophora_australiensis_CBS112793,ERR2438882.5308,87.84,148,14,3,248,395,6,149,8e-42,171
Cladophialophora_australiensis_CBS112793,ERR2438882.72,85.81,148,16,4,248,395,6,148,3e-36,152
Cladophialophora_australiensis_CBS112793,ERR2438882.3037,95.83,48,2,0,559,606,348,301,5e-14,78.7
Cladophialophora_potulentorum_CBS112222,ERR2438882.25582,88.59,149,13,3,247,394,6,151,5e-44,178
Cladophialophora_potulentorum_CBS112222,ERR2438882.19087,90.15,132,11,2,247,378,6,135,8e-42,171
Cladophialophora_potulentorum_CBS112222,ERR2438882.19087,95.16,62,3,0,547,608,362,301,4e-20,99.0
Cladophialophora_potulentorum_CBS112222,ERR2438882.5308,87.16,148,15,3,247,394,6,149,4e-40,165
Cladophialophora_potulentorum_CBS112222,ERR2438882.72,85.14,148,17,4,247,394,6,148,1e-34,147
Cladophialophora_potulentorum_CBS112222,ERR2438882.3037,95.83,48,2,0,561,608,348,301,5e-14,78.7
Cladophialophora_matsushimae_CMRP1198,ERR2438882.25582,89.19,148,14,2,251,398,6,151,3e-46,183
Cladophialophora_matsushimae_CMRP1198,ERR2438882.5308,87.18,156,15,4,251,406,6,156,7e-43,172
Cladophialophora_matsushimae_CMRP1198,ERR2438882.19087,90.15,132,11,2,251,382,6,135,2e-42,171
Cladophialophora_matsushimae_CMRP1198,ERR2438882.72,84.28,159,19,5,251,409,6,158,3e-36,150
Cladophialophora_mycetomatis_CBS122637,ERR2438882.25582,90.54,148,12,2,236,383,6,151,2e-49,195
Cladophialophora_mycetomatis_CBS122637,ERR2438882.19087,89.19,148,12,4,236,383,6,149,1e-45,182
Cladophialophora_mycetomatis_CBS122637,ERR2438882.5308,87.84,148,14,3,236,383,6,149,3e-42,171
Cladophialophora_mycetomatis_CBS122637,ERR2438882.72,85.81,148,16,4,236,383,6,148,1e-36,152
Cladophialophora_chaetospira_CBS127573,ERR2438882.25582,90.54,148,12,2,642,789,6,151,3e-49,195
Cladophialophora_chaetospira_CBS127573,ERR2438882.19087,89.86,148,11,4,642,789,6,149,5e-47,187
Cladophialophora_chaetospira_CBS127573,ERR2438882.5308,87.10,155,16,3,642,796,6,156,1e-42,172
Cladophialophora_chaetospira_CBS127573,ERR2438882.72,86.08,158,17,5,642,799,6,158,2e-40,165
Cladophialophora_boppii_CBS126.86_T,ERR2438882.25582,91.91,136,9,2,244,378,6,140,8e-48,189
Cladophialophora_boppii_CBS126.86_T,ERR2438882.19087,91.73,133,9,2,244,376,6,136,3e-46,183
Cladophialophora_boppii_CBS126.86_T,ERR2438882.5308,87.84,148,14,4,244,391,6,149,3e-42,171
Cladophialophora_boppii_CBS126.86_T,ERR2438882.72,85.90,156,17,4,244,399,6,156,2e-39,161
Cladophialophora_abundans_CBS126736,ERR2438882.25582,89.86,148,13,2,181,328,6,151,7e-48,189
Cladophialophora_abundans_CBS126736,ERR2438882.19087,87.84,148,14,4,181,328,6,149,2e-42,171
Cladophialophora_abundans_CBS126736,ERR2438882.5308,87.84,148,14,3,181,328,6,149,2e-42,171
Cladophialophora_abundans_CBS126736,ERR2438882.72,87.16,148,14,5,181,328,6,148,4e-40,163
Capronia_semi-immersa_CBS102234,ERR2438882.25582,87.92,149,14,3,243,390,6,151,8e-43,172
Capronia_semi-immersa_CBS102234,ERR2438882.19087,89.39,132,12,2,243,374,6,135,1e-40,165
Capronia_semi-immersa_CBS102234,ERR2438882.5308,86.49,148,16,3,243,390,6,149,6e-39,159
Capronia_semi-immersa_CBS102234,ERR2438882.72,85.81,148,16,4,243,390,6,148,1e-36,152
Phialophora_americana_CBS400.67,ERR2438882.25582,87.92,149,14,3,245,392,6,151,2e-42,172
Phialophora_americana_CBS400.67,ERR2438882.19087,89.39,132,12,2,245,376,6,135,3e-40,165
Phialophora_americana_CBS400.67,ERR2438882.5308,86.49,148,16,3,245,392,6,149,2e-38,159
Phialophora_americana_CBS400.67,ERR2438882.72,85.81,148,16,4,245,392,6,148,3e-36,152
Phialophora_verrucosa_CBS140325_T,ERR2438882.25582,87.92,149,14,3,249,396,6,151,8e-43,172
Phialophora_verrucosa_CBS140325_T,ERR2438882.19087,89.39,132,12,2,249,380,6,135,1e-40,165
Phialophora_verrucosa_CBS140325_T,ERR2438882.5308,86.49,148,16,3,249,396,6,149,6e-39,159
Phialophora_verrucosa_CBS140325_T,ERR2438882.72,85.81,148,16,4,249,396,6,148,1e-36,152
Cladophialophora_samoensis_CBS259.83_T,ERR2438882.25582,90.60,149,10,3,249,396,6,151,2e-49,195
Cladophialophora_samoensis_CBS259.83_T,ERR2438882.5308,89.19,148,12,3,249,396,6,149,1e-45,182
Cladophialophora_samoensis_CBS259.83_T,ERR2438882.19087,90.91,132,10,2,249,380,6,135,6e-44,176
Cladophialophora_samoensis_CBS259.83_T,ERR2438882.72,86.49,148,15,4,249,396,6,148,2e-38,158
Cladophialophora_carrionii_CBS260.83,ERR2438882.25582,89.86,148,13,2,265,412,6,151,8e-48,189
Cladophialophora_carrionii_CBS260.83,ERR2438882.19087,89.19,148,12,4,265,412,6,149,1e-45,182
Cladophialophora_carrionii_CBS260.83,ERR2438882.72,87.84,148,13,5,265,412,6,148,1e-41,169
Cladophialophora_carrionii_CBS260.83,ERR2438882.5308,87.16,148,15,3,265,412,6,149,1e-40,165
Exophiala_palmae_UPCB86822_T,ERR2438882.25582,92.37,131,9,1,208,338,6,135,9e-47,185
Exophiala_palmae_UPCB86822_T,ERR2438882.19087,91.67,132,9,2,208,339,6,135,1e-45,182
Exophiala_palmae_UPCB86822_T,ERR2438882.5308,87.25,149,14,4,208,356,6,149,1e-40,165
Exophiala_palmae_UPCB86822_T,ERR2438882.72,87.79,131,13,3,208,338,6,133,3e-36,150
Cladophialophora_yegresii_CBS114405_T,ERR2438882.25582,89.26,149,12,3,250,397,6,151,4e-46,183
Cladophialophora_yegresii_CBS114405_T,ERR2438882.19087,90.91,132,10,2,250,381,6,135,6e-44,176
Cladophialophora_yegresii_CBS114405_T,ERR2438882.5308,87.84,148,14,3,250,397,6,149,3e-42,171
Cladophialophora_yegresii_CBS114405_T,ERR2438882.72,87.16,148,14,4,250,397,6,148,5e-40,163
Knufia_epidermidis_CBS120353_T,ERR2438882.25582,93.28,119,7,1,248,366,6,123,2e-43,174
Knufia_epidermidis_CBS120353_T,ERR2438882.5308,87.84,148,14,4,248,395,6,149,3e-42,171
Knufia_epidermidis_CBS120353_T,ERR2438882.19087,91.30,115,9,1,248,362,6,119,8e-38,156
Knufia_epidermidis_CBS120353_T,ERR2438882.72,88.03,117,12,2,248,364,6,120,3e-32,137
Knufia_epidermidis_CBS120353_T,ERR2438882.330,95.45,44,2,0,323,366,80,123,3e-12,71.3
Arthrocladium_fulminans_CBS136243_T,ERR2438882.25582,90.76,119,10,1,243,361,6,123,2e-38,158
Arthrocladium_fulminans_CBS136243_T,ERR2438882.19087,90.43,115,10,1,243,357,6,119,4e-36,150
Arthrocladium_fulminans_CBS136243_T,ERR2438882.5308,85.62,146,17,4,243,386,6,149,4e-36,150
Arthrocladium_fulminans_CBS136243_T,ERR2438882.72,88.98,118,9,4,243,359,6,120,6e-34,143
Cyphellophora_laciniata_CBS190.61_T,ERR2438882.25582,91.10,146,11,2,337,480,6,151,6e-50,196
Cyphellophora_laciniata_CBS190.61_T,ERR2438882.5308,88.67,150,15,2,337,485,6,154,2e-45,182
Cyphellophora_laciniata_CBS190.61_T,ERR2438882.19087,88.00,150,16,2,337,485,6,154,8e-44,176
Cyphellophora_laciniata_CBS190.61_T,ERR2438882.19087,96.77,62,2,0,634,695,362,301,4e-22,104
Cyphellophora_laciniata_CBS190.61_T,ERR2438882.72,85.33,150,19,3,337,485,6,153,1e-36,152
Cyphellophora_laciniata_CBS190.61_T,ERR2438882.3037,97.92,48,1,0,648,695,348,301,5e-16,84.2
Cyphellophora_laciniata_CBS190.61_T,ERR2438882.21098,90.48,63,5,1,411,473,81,142,2e-15,82.4
Cyphellophora_suttonii_CBS449.91,ERR2438882.25582,89.74,156,13,3,240,393,6,160,4e-50,196
Cyphellophora_suttonii_CBS449.91,ERR2438882.5308,88.97,145,14,2,240,383,6,149,2e-44,178
Cyphellophora_suttonii_CBS449.91,ERR2438882.19087,88.28,145,15,2,240,383,6,149,8e-43,172
Cyphellophora_suttonii_CBS449.91,ERR2438882.72,85.52,145,18,3,240,383,6,148,1e-35,148
Cyphellophora_suttonii_CBS449.91,ERR2438882.21098,90.48,63,5,1,314,376,81,142,1e-15,82.4
Cyphellophora_pauciseptata_CBS284.85_T,ERR2438882.25582,91.10,146,11,2,251,394,6,151,4e-50,196
Cyphellophora_pauciseptata_CBS284.85_T,ERR2438882.5308,88.97,145,14,2,251,394,6,149,2e-44,178
Cyphellophora_pauciseptata_CBS284.85_T,ERR2438882.19087,88.28,145,15,2,251,394,6,149,8e-43,172
Cyphellophora_pauciseptata_CBS284.85_T,ERR2438882.72,85.52,145,18,3,251,394,6,148,1e-35,148
Cyphellophora_pauciseptata_CBS284.85_T,ERR2438882.21098,90.48,63,5,1,325,387,81,142,1e-15,82.4
Cyphellophora_pluriseptata_CBS286.85_T,ERR2438882.25582,90.41,146,12,2,256,399,6,151,2e-48,191
Cyphellophora_pluriseptata_CBS286.85_T,ERR2438882.19087,88.97,145,14,2,256,399,6,149,2e-44,178
Cyphellophora_pluriseptata_CBS286.85_T,ERR2438882.5308,88.97,145,14,2,256,399,6,149,2e-44,178
Cyphellophora_pluriseptata_CBS286.85_T,ERR2438882.72,84.83,145,19,3,256,399,6,148,6e-34,143
Phialophora_europaea_CBS101466,ERR2438882.25582,90.41,146,12,2,246,389,6,151,2e-48,191
Phialophora_europaea_CBS101466,ERR2438882.19087,88.97,145,14,2,246,389,6,149,2e-44,178
Phialophora_europaea_CBS101466,ERR2438882.5308,88.97,145,14,2,246,389,6,149,2e-44,178
Phialophora_europaea_CBS101466,ERR2438882.72,84.83,145,19,3,246,389,6,148,6e-34,143
Phialophora_ambigua_CBS235.93,ERR2438882.25582,90.41,146,12,2,243,386,6,151,2e-48,191
Phialophora_ambigua_CBS235.93,ERR2438882.19087,88.97,145,14,2,243,386,6,149,2e-44,178
Phialophora_ambigua_CBS235.93,ERR2438882.5308,88.97,145,14,2,243,386,6,149,2e-44,178
Phialophora_ambigua_CBS235.93,ERR2438882.72,84.83,145,19,3,243,386,6,148,6e-34,143
Cladophialophora_modesta_CBS985.96_T,ERR2438882.25582,90.48,147,13,1,240,386,6,151,7e-49,193
Cladophialophora_modesta_CBS985.96_T,ERR2438882.19087,89.80,147,12,3,240,386,6,149,1e-46,185
Cladophialophora_modesta_CBS985.96_T,ERR2438882.19087,95.52,67,3,0,513,579,367,301,2e-23,108
Cladophialophora_modesta_CBS985.96_T,ERR2438882.5308,87.76,147,15,3,240,386,6,149,1e-41,169
Cladophialophora_modesta_CBS985.96_T,ERR2438882.72,86.39,147,16,4,240,386,6,148,2e-38,158
Cladophialophora_modesta_CBS985.96_T,ERR2438882.1685,94.83,58,3,0,522,579,358,301,2e-18,91.6
Cladophialophora_modesta_CBS985.96_T,ERR2438882.3037,100.00,48,0,0,532,579,348,301,9e-18,89.8
Cyphellophora_fusarioides_MUCL44033_T,ERR2438882.25582,90.41,146,12,2,239,382,6,151,2e-48,191
Cyphellophora_fusarioides_MUCL44033_T,ERR2438882.21098,90.48,63,5,1,313,375,81,142,1e-15,82.4
