Exophiala_nigra_CBS535.94_T,ERR2674090.42285,88.70,115,12,1,233,347,11,124,1e-32,139
Exophiala_nigra_CBS535.94_T,ERR2674090.24739,91.01,89,7,1,233,321,11,98,2e-26,119
Exophiala_nigra_CBS535.94_T,ERR2674090.18110,87.64,89,10,1,233,321,11,98,2e-21,102
Exophiala_nigra_CBS535.94_T,ERR2674090.46736,86.52,89,11,1,233,321,11,98,7e-20,97.1
Exophiala_nigra_CBS535.94_T,ERR2674090.13159,85.39,89,12,1,233,321,11,98,3e-18,91.6
Exophiala_nigra_CBS535.94_T,ERR2674090.13158,85.39,89,12,1,233,321,11,98,3e-18,91.6
Exophiala_nigra_CBS535.94_T,ERR2674090.46741,84.27,89,13,1,233,321,11,98,2e-16,86.1
Exophiala_nigra_CBS535.94_T,ERR2674090.18286,84.27,89,13,1,233,321,11,98,2e-16,86.1
Exophiala_nigra_CBS535.94_T,ERR2674090.16769,86.08,79,10,1,233,311,11,88,6e-16,84.2
Exophiala_nigra_CBS535.94_T,ERR2674090.1447,83.15,89,14,1,233,321,11,98,7e-15,80.5
Exophiala_nigra_CBS535.94_T,ERR2674090.17608,82.28,79,13,1,233,311,11,88,6e-11,67.6
Exophiala_spinifera_CBS899.68_T,ERR2674090.42285,87.83,115,13,1,230,344,11,124,5e-31,134
Exophiala_spinifera_CBS899.68_T,ERR2674090.24739,91.01,89,7,1,230,318,11,98,1e-26,119
Exophiala_spinifera_CBS899.68_T,ERR2674090.18110,87.64,89,10,1,230,318,11,98,1e-21,102
Exophiala_spinifera_CBS899.68_T,ERR2674090.46736,86.52,89,11,1,230,318,11,98,7e-20,97.1
Exophiala_spinifera_CBS899.68_T,ERR2674090.13159,85.39,89,12,1,230,318,11,98,3e-18,91.6
Exophiala_spinifera_CBS899.68_T,ERR2674090.13158,85.39,89,12,1,230,318,11,98,3e-18,91.6
Exophiala_spinifera_CBS899.68_T,ERR2674090.46741,84.27,89,13,1,230,318,11,98,1e-16,86.1
Exophiala_spinifera_CBS899.68_T,ERR2674090.18286,84.27,89,13,1,230,318,11,98,1e-16,86.1
Exophiala_spinifera_CBS899.68_T,ERR2674090.16769,86.08,79,10,1,230,308,11,88,5e-16,84.2
Exophiala_spinifera_CBS899.68_T,ERR2674090.1447,83.15,89,14,1,230,318,11,98,7e-15,80.5
Exophiala_spinifera_CBS899.68_T,ERR2674090.17608,82.28,79,13,1,230,308,11,88,5e-11,67.6
Exophiala_exophialae_CBS668.76_T,ERR2674090.42285,87.83,115,13,1,231,345,11,124,5e-31,134
Exophiala_exophialae_CBS668.76_T,ERR2674090.24739,91.01,89,7,1,231,319,11,98,1e-26,119
Exophiala_exophialae_CBS668.76_T,ERR2674090.18110,87.64,89,10,1,231,319,11,98,1e-21,102
Exophiala_exophialae_CBS668.76_T,ERR2674090.46736,86.52,89,11,1,231,319,11,98,7e-20,97.1
Exophiala_exophialae_CBS668.76_T,ERR2674090.13159,85.39,89,12,1,231,319,11,98,3e-18,91.6
Exophiala_exophialae_CBS668.76_T,ERR2674090.13158,85.39,89,12,1,231,319,11,98,3e-18,91.6
Exophiala_exophialae_CBS668.76_T,ERR2674090.46741,84.27,89,13,1,231,319,11,98,1e-16,86.1
Exophiala_exophialae_CBS668.76_T,ERR2674090.18286,84.27,89,13,1,231,319,11,98,1e-16,86.1
Exophiala_exophialae_CBS668.76_T,ERR2674090.16769,86.08,79,10,1,231,309,11,88,5e-16,84.2
Exophiala_exophialae_CBS668.76_T,ERR2674090.1447,83.15,89,14,1,231,319,11,98,7e-15,80.5
Exophiala_exophialae_CBS668.76_T,ERR2674090.17608,82.28,79,13,1,231,309,11,88,5e-11,67.6
Exophiala_polymorpha_CBS138920_T,ERR2674090.42285,87.83,115,13,1,333,447,11,124,7e-31,134
Exophiala_polymorpha_CBS138920_T,ERR2674090.24739,91.01,89,7,1,333,421,11,98,2e-26,119
Exophiala_polymorpha_CBS138920_T,ERR2674090.18110,87.64,89,10,1,333,421,11,98,2e-21,102
Exophiala_polymorpha_CBS138920_T,ERR2674090.46736,86.52,89,11,1,333,421,11,98,9e-20,97.1
Exophiala_polymorpha_CBS138920_T,ERR2674090.46736,94.87,39,2,0,656,694,297,259,3e-09,62.1
Exophiala_polymorpha_CBS138920_T,ERR2674090.25343,96.36,55,2,0,640,694,313,259,4e-18,91.6
Exophiala_polymorpha_CBS138920_T,ERR2674090.13159,85.39,89,12,1,333,421,11,98,4e-18,91.6
Exophiala_polymorpha_CBS138920_T,ERR2674090.13158,85.39,89,12,1,333,421,11,98,4e-18,91.6
Exophiala_polymorpha_CBS138920_T,ERR2674090.46741,84.27,89,13,1,333,421,11,98,2e-16,86.1
Exophiala_polymorpha_CBS138920_T,ERR2674090.18286,84.27,89,13,1,333,421,11,98,2e-16,86.1
Exophiala_polymorpha_CBS138920_T,ERR2674090.16769,86.08,79,10,1,333,411,11,88,7e-16,84.2
Exophiala_polymorpha_CBS138920_T,ERR2674090.43421,92.73,55,4,0,640,694,313,259,9e-15,80.5
Exophiala_polymorpha_CBS138920_T,ERR2674090.1447,83.15,89,14,1,333,421,11,98,9e-15,80.5
Exophiala_polymorpha_CBS138920_T,ERR2674090.16568,92.00,50,4,0,645,694,308,259,5e-12,71.3
Exophiala_polymorpha_CBS138920_T,ERR2674090.17608,82.28,79,13,1,333,411,11,88,7e-11,67.6
Exophiala_polymorpha_CBS138920_T,ERR2674090.8359,91.67,48,4,0,647,694,306,259,7e-11,67.6
Exophiala_polymorpha_CBS138920_T,ERR2674090.27603,94.87,39,2,0,656,694,297,259,3e-09,62.1
Exophiala_oligosperma_CBS725.88_T,ERR2674090.42285,87.83,115,13,1,243,357,11,124,5e-31,134
Exophiala_oligosperma_CBS725.88_T,ERR2674090.24739,91.01,89,7,1,243,331,11,98,1e-26,119
Exophiala_oligosperma_CBS725.88_T,ERR2674090.18110,87.64,89,10,1,243,331,11,98,1e-21,102
Exophiala_oligosperma_CBS725.88_T,ERR2674090.46736,86.52,89,11,1,243,331,11,98,7e-20,97.1
Exophiala_oligosperma_CBS725.88_T,ERR2674090.13159,85.39,89,12,1,243,331,11,98,3e-18,91.6
Exophiala_oligosperma_CBS725.88_T,ERR2674090.13158,85.39,89,12,1,243,331,11,98,3e-18,91.6
Exophiala_oligosperma_CBS725.88_T,ERR2674090.46741,84.27,89,13,1,243,331,11,98,1e-16,86.1
Exophiala_oligosperma_CBS725.88_T,ERR2674090.18286,84.27,89,13,1,243,331,11,98,1e-16,86.1
Exophiala_oligosperma_CBS725.88_T,ERR2674090.16769,86.08,79,10,1,243,321,11,88,5e-16,84.2
Exophiala_oligosperma_CBS725.88_T,ERR2674090.1447,83.15,89,14,1,243,331,11,98,7e-15,80.5
Exophiala_oligosperma_CBS725.88_T,ERR2674090.17608,82.28,79,13,1,243,321,11,88,5e-11,67.6
Exophiala_jeanselmei_CBS507.90_T,ERR2674090.42285,87.83,115,13,1,235,349,11,124,6e-31,134
Exophiala_jeanselmei_CBS507.90_T,ERR2674090.24739,91.01,89,7,1,235,323,11,98,2e-26,119
Exophiala_jeanselmei_CBS507.90_T,ERR2674090.18110,87.64,89,10,1,235,323,11,98,2e-21,102
Exophiala_jeanselmei_CBS507.90_T,ERR2674090.25343,92.65,68,5,0,537,604,318,251,2e-20,99.0
Exophiala_jeanselmei_CBS507.90_T,ERR2674090.46736,86.52,89,11,1,235,323,11,98,7e-20,97.1
Exophiala_jeanselmei_CBS507.90_T,ERR2674090.46736,93.62,47,3,0,558,604,297,251,4e-12,71.3
Exophiala_jeanselmei_CBS507.90_T,ERR2674090.13159,85.39,89,12,1,235,323,11,98,3e-18,91.6
Exophiala_jeanselmei_CBS507.90_T,ERR2674090.13158,85.39,89,12,1,235,323,11,98,3e-18,91.6
Exophiala_jeanselmei_CBS507.90_T,ERR2674090.43421,94.64,56,3,0,549,604,306,251,4e-17,87.9
Exophiala_jeanselmei_CBS507.90_T,ERR2674090.46741,84.27,89,13,1,235,323,11,98,2e-16,86.1
Exophiala_jeanselmei_CBS507.90_T,ERR2674090.18286,84.27,89,13,1,235,323,11,98,2e-16,86.1
Exophiala_jeanselmei_CBS507.90_T,ERR2674090.16769,86.08,79,10,1,235,313,11,88,6e-16,84.2
Exophiala_jeanselmei_CBS507.90_T,ERR2674090.16568,88.24,68,8,0,537,604,318,251,2e-15,82.4
Exophiala_jeanselmei_CBS507.90_T,ERR2674090.8359,92.86,56,4,0,549,604,306,251,2e-15,82.4
Exophiala_jeanselmei_CBS507.90_T,ERR2674090.1447,83.15,89,14,1,235,323,11,98,7e-15,80.5
Exophiala_jeanselmei_CBS507.90_T,ERR2674090.27603,95.74,47,2,0,558,604,297,251,1e-13,76.8
Exophiala_jeanselmei_CBS507.90_T,ERR2674090.17608,82.28,79,13,1,235,313,11,88,6e-11,67.6
Exophiala_bergeri_CBS353.52,ERR2674090.42285,88.70,115,12,1,196,310,11,124,1e-32,139
Exophiala_bergeri_CBS353.52,ERR2674090.24739,91.01,89,7,1,196,284,11,98,1e-26,119
Exophiala_bergeri_CBS353.52,ERR2674090.18110,87.64,89,10,1,196,284,11,98,1e-21,102
Exophiala_bergeri_CBS353.52,ERR2674090.46736,86.52,89,11,1,196,284,11,98,6e-20,97.1
Exophiala_bergeri_CBS353.52,ERR2674090.13159,85.39,89,12,1,196,284,11,98,3e-18,91.6
Exophiala_bergeri_CBS353.52,ERR2674090.13158,85.39,89,12,1,196,284,11,98,3e-18,91.6
Exophiala_bergeri_CBS353.52,ERR2674090.46741,84.27,89,13,1,196,284,11,98,1e-16,86.1
Exophiala_bergeri_CBS353.52,ERR2674090.18286,84.27,89,13,1,196,284,11,98,1e-16,86.1
Exophiala_bergeri_CBS353.52,ERR2674090.16769,86.08,79,10,1,196,274,11,88,5e-16,84.2
Exophiala_bergeri_CBS353.52,ERR2674090.1447,83.15,89,14,1,196,284,11,98,6e-15,80.5
Exophiala_bergeri_CBS353.52,ERR2674090.17608,82.28,79,13,1,196,274,11,88,5e-11,67.6
Exophiala_moniliae_CBS520.76_T,ERR2674090.42285,88.70,115,12,1,233,347,11,124,1e-32,139
Exophiala_moniliae_CBS520.76_T,ERR2674090.24739,91.01,89,7,1,233,321,11,98,1e-26,119
Exophiala_moniliae_CBS520.76_T,ERR2674090.18110,87.64,89,10,1,233,321,11,98,1e-21,102
Exophiala_moniliae_CBS520.76_T,ERR2674090.46736,86.52,89,11,1,233,321,11,98,7e-20,97.1
Exophiala_moniliae_CBS520.76_T,ERR2674090.13159,85.39,89,12,1,233,321,11,98,3e-18,91.6
Exophiala_moniliae_CBS520.76_T,ERR2674090.13158,85.39,89,12,1,233,321,11,98,3e-18,91.6
Exophiala_moniliae_CBS520.76_T,ERR2674090.46741,84.27,89,13,1,233,321,11,98,2e-16,86.1
Exophiala_moniliae_CBS520.76_T,ERR2674090.18286,84.27,89,13,1,233,321,11,98,2e-16,86.1
Exophiala_moniliae_CBS520.76_T,ERR2674090.16769,86.08,79,10,1,233,311,11,88,5e-16,84.2
Exophiala_moniliae_CBS520.76_T,ERR2674090.1447,83.15,89,14,1,233,321,11,98,7e-15,80.5
Exophiala_moniliae_CBS520.76_T,ERR2674090.17608,82.28,79,13,1,233,311,11,88,5e-11,67.6
Exophiala_pisciphila_CBS537.73_T,ERR2674090.26294,85.81,155,21,1,363,517,500,347,8e-40,163
Exophiala_pisciphila_CBS537.73_T,ERR2674090.26294,90.83,120,10,1,357,476,132,250,1e-38,159
Exophiala_pisciphila_CBS537.73_T,ERR2674090.42285,88.70,115,12,1,236,350,11,124,1e-32,139
Exophiala_pisciphila_CBS537.73_T,ERR2674090.24739,89.89,89,8,1,236,324,11,98,8e-25,113
Exophiala_pisciphila_CBS537.73_T,ERR2674090.25343,96.72,61,2,0,553,613,311,251,2e-21,102
Exophiala_pisciphila_CBS537.73_T,ERR2674090.18110,86.52,89,11,1,236,324,11,98,8e-20,97.1
Exophiala_pisciphila_CBS537.73_T,ERR2674090.43421,96.43,56,2,0,558,613,306,251,1e-18,93.5
Exophiala_pisciphila_CBS537.73_T,ERR2674090.46736,85.39,89,12,1,236,324,11,98,4e-18,91.6
Exophiala_pisciphila_CBS537.73_T,ERR2674090.46736,91.49,47,4,0,567,613,297,251,2e-10,65.8
Exophiala_pisciphila_CBS537.73_T,ERR2674090.13159,84.27,89,13,1,236,324,11,98,2e-16,86.1
Exophiala_pisciphila_CBS537.73_T,ERR2674090.13158,84.27,89,13,1,236,324,11,98,2e-16,86.1
Exophiala_pisciphila_CBS537.73_T,ERR2674090.46741,83.15,89,14,1,236,324,11,98,8e-15,80.5
Exophiala_pisciphila_CBS537.73_T,ERR2674090.18286,83.15,89,14,1,236,324,11,98,8e-15,80.5
Exophiala_pisciphila_CBS537.73_T,ERR2674090.16769,84.81,79,11,1,236,314,11,88,3e-14,78.7
Exophiala_pisciphila_CBS537.73_T,ERR2674090.8359,91.23,57,5,0,558,614,306,250,3e-14,78.7
Exophiala_pisciphila_CBS537.73_T,ERR2674090.16568,89.83,59,6,0,556,614,308,250,1e-13,76.8
Exophiala_pisciphila_CBS537.73_T,ERR2674090.1447,82.02,89,15,1,236,324,11,98,4e-13,75.0
Exophiala_pisciphila_CBS537.73_T,ERR2674090.27603,93.62,47,3,0,567,613,297,251,5e-12,71.3
Exophiala_pisciphila_CBS537.73_T,ERR2674090.17608,81.01,79,14,1,236,314,11,88,3e-09,62.1
Exophiala_xenobiotica_CBS117642,ERR2674090.42285,88.70,115,12,1,228,342,11,124,1e-32,139
Exophiala_xenobiotica_CBS117642,ERR2674090.24739,91.01,89,7,1,228,316,11,98,1e-26,119
Exophiala_xenobiotica_CBS117642,ERR2674090.18110,87.64,89,10,1,228,316,11,98,1e-21,102
Exophiala_xenobiotica_CBS117642,ERR2674090.46736,86.52,89,11,1,228,316,11,98,7e-20,97.1
Exophiala_xenobiotica_CBS117642,ERR2674090.13159,85.39,89,12,1,228,316,11,98,3e-18,91.6
Exophiala_xenobiotica_CBS117642,ERR2674090.13158,85.39,89,12,1,228,316,11,98,3e-18,91.6
Exophiala_xenobiotica_CBS117642,ERR2674090.46741,84.27,89,13,1,228,316,11,98,1e-16,86.1
Exophiala_xenobiotica_CBS117642,ERR2674090.18286,84.27,89,13,1,228,316,11,98,1e-16,86.1
Exophiala_xenobiotica_CBS117642,ERR2674090.16769,86.08,79,10,1,228,306,11,88,5e-16,84.2
Exophiala_xenobiotica_CBS117642,ERR2674090.1447,83.15,89,14,1,228,316,11,98,7e-15,80.5
Exophiala_xenobiotica_CBS117642,ERR2674090.17608,82.28,79,13,1,228,306,11,88,5e-11,67.6
Exophiala_brunnea_CBS,ERR2674090.42285,87.83,115,13,1,264,378,11,124,6e-31,134
Exophiala_brunnea_CBS,ERR2674090.24739,91.01,89,7,1,264,352,11,98,2e-26,119
Exophiala_brunnea_CBS,ERR2674090.18110,87.64,89,10,1,264,352,11,98,2e-21,102
Exophiala_brunnea_CBS,ERR2674090.46736,86.52,89,11,1,264,352,11,98,8e-20,97.1
Exophiala_brunnea_CBS,ERR2674090.13159,85.39,89,12,1,264,352,11,98,4e-18,91.6
Exophiala_brunnea_CBS,ERR2674090.13158,85.39,89,12,1,264,352,11,98,4e-18,91.6
Exophiala_brunnea_CBS,ERR2674090.46741,84.27,89,13,1,264,352,11,98,2e-16,86.1
Exophiala_brunnea_CBS,ERR2674090.18286,84.27,89,13,1,264,352,11,98,2e-16,86.1
Exophiala_brunnea_CBS,ERR2674090.25343,96.00,50,2,0,584,633,311,262,6e-16,84.2
Exophiala_brunnea_CBS,ERR2674090.16769,86.08,79,10,1,264,342,11,88,6e-16,84.2
Exophiala_brunnea_CBS,ERR2674090.1447,83.15,89,14,1,264,352,11,98,8e-15,80.5
Exophiala_brunnea_CBS,ERR2674090.17608,82.28,79,13,1,264,342,11,88,6e-11,67.6
Exophiala_nishimurae_CBS101538_T,ERR2674090.42285,87.83,115,13,1,242,356,11,124,6e-31,134
Exophiala_nishimurae_CBS101538_T,ERR2674090.24739,91.01,89,7,1,242,330,11,98,2e-26,119
Exophiala_nishimurae_CBS101538_T,ERR2674090.18110,87.64,89,10,1,242,330,11,98,2e-21,102
Exophiala_nishimurae_CBS101538_T,ERR2674090.46736,86.52,89,11,1,242,330,11,98,7e-20,97.1
Exophiala_nishimurae_CBS101538_T,ERR2674090.13159,85.39,89,12,1,242,330,11,98,3e-18,91.6
Exophiala_nishimurae_CBS101538_T,ERR2674090.13158,85.39,89,12,1,242,330,11,98,3e-18,91.6
Exophiala_nishimurae_CBS101538_T,ERR2674090.46741,84.27,89,13,1,242,330,11,98,2e-16,86.1
Exophiala_nishimurae_CBS101538_T,ERR2674090.18286,84.27,89,13,1,242,330,11,98,2e-16,86.1
Exophiala_nishimurae_CBS101538_T,ERR2674090.16769,86.08,79,10,1,242,320,11,88,6e-16,84.2
Exophiala_nishimurae_CBS101538_T,ERR2674090.1447,83.15,89,14,1,242,330,11,98,7e-15,80.5
Exophiala_nishimurae_CBS101538_T,ERR2674090.17608,82.28,79,13,1,242,320,11,88,6e-11,67.6
Exophiala_mesophila_CBS402.95_T,ERR2674090.42285,87.83,115,13,1,226,340,11,124,6e-31,134
Exophiala_mesophila_CBS402.95_T,ERR2674090.24739,91.01,89,7,1,226,314,11,98,2e-26,119
Exophiala_mesophila_CBS402.95_T,ERR2674090.25343,92.96,71,3,2,540,610,319,251,2e-21,102
Exophiala_mesophila_CBS402.95_T,ERR2674090.18110,87.64,89,10,1,226,314,11,98,2e-21,102
Exophiala_mesophila_CBS402.95_T,ERR2674090.46736,86.52,89,11,1,226,314,11,98,8e-20,97.1
Exophiala_mesophila_CBS402.95_T,ERR2674090.46736,93.62,47,3,0,564,610,297,251,5e-12,71.3
Exophiala_mesophila_CBS402.95_T,ERR2674090.43421,91.43,70,5,1,541,610,319,251,3e-19,95.3
Exophiala_mesophila_CBS402.95_T,ERR2674090.13159,85.39,89,12,1,226,314,11,98,4e-18,91.6
Exophiala_mesophila_CBS402.95_T,ERR2674090.13158,85.39,89,12,1,226,314,11,98,4e-18,91.6
Exophiala_mesophila_CBS402.95_T,ERR2674090.46741,84.27,89,13,1,226,314,11,98,2e-16,86.1
Exophiala_mesophila_CBS402.95_T,ERR2674090.18286,84.27,89,13,1,226,314,11,98,2e-16,86.1
Exophiala_mesophila_CBS402.95_T,ERR2674090.16769,86.08,79,10,1,226,304,11,88,6e-16,84.2
Exophiala_mesophila_CBS402.95_T,ERR2674090.16568,87.01,77,7,3,536,611,324,250,6e-16,84.2
Exophiala_mesophila_CBS402.95_T,ERR2674090.8359,92.98,57,4,0,555,611,306,250,6e-16,84.2
Exophiala_mesophila_CBS402.95_T,ERR2674090.1447,83.15,89,14,1,226,314,11,98,8e-15,80.5
Exophiala_mesophila_CBS402.95_T,ERR2674090.27603,95.74,47,2,0,564,610,297,251,1e-13,76.8
Exophiala_mesophila_CBS402.95_T,ERR2674090.17608,82.28,79,13,1,226,304,11,88,6e-11,67.6
Exophiala_castellanii_CBS158.58_T,ERR2674090.42285,87.83,115,13,1,224,338,11,124,6e-31,134
Exophiala_castellanii_CBS158.58_T,ERR2674090.24739,91.01,89,7,1,224,312,11,98,2e-26,119
Exophiala_castellanii_CBS158.58_T,ERR2674090.25343,94.20,69,3,1,542,609,319,251,5e-22,104
Exophiala_castellanii_CBS158.58_T,ERR2674090.18110,87.64,89,10,1,224,312,11,98,2e-21,102
Exophiala_castellanii_CBS158.58_T,ERR2674090.46736,86.52,89,11,1,224,312,11,98,8e-20,97.1
Exophiala_castellanii_CBS158.58_T,ERR2674090.46736,93.62,47,3,0,563,609,297,251,5e-12,71.3
Exophiala_castellanii_CBS158.58_T,ERR2674090.13159,85.39,89,12,1,224,312,11,98,4e-18,91.6
Exophiala_castellanii_CBS158.58_T,ERR2674090.13158,85.39,89,12,1,224,312,11,98,4e-18,91.6
Exophiala_castellanii_CBS158.58_T,ERR2674090.16568,90.00,70,6,1,542,610,319,250,1e-17,89.8
Exophiala_castellanii_CBS158.58_T,ERR2674090.43421,94.64,56,3,0,554,609,306,251,5e-17,87.9
Exophiala_castellanii_CBS158.58_T,ERR2674090.46741,84.27,89,13,1,224,312,11,98,2e-16,86.1
Exophiala_castellanii_CBS158.58_T,ERR2674090.18286,84.27,89,13,1,224,312,11,98,2e-16,86.1
Exophiala_castellanii_CBS158.58_T,ERR2674090.16769,86.08,79,10,1,224,302,11,88,6e-16,84.2
Exophiala_castellanii_CBS158.58_T,ERR2674090.8359,92.98,57,4,0,554,610,306,250,6e-16,84.2
Exophiala_castellanii_CBS158.58_T,ERR2674090.1447,83.15,89,14,1,224,312,11,98,8e-15,80.5
Exophiala_castellanii_CBS158.58_T,ERR2674090.27603,95.74,47,2,0,563,609,297,251,1e-13,76.8
Exophiala_castellanii_CBS158.58_T,ERR2674090.17608,82.28,79,13,1,224,302,11,88,6e-11,67.6
Exophiala_lecanii-corni_CBS123.33_T,ERR2674090.42285,87.83,115,13,1,247,361,11,124,5e-31,134
Exophiala_lecanii-corni_CBS123.33_T,ERR2674090.24739,91.01,89,7,1,247,335,11,98,2e-26,119
Exophiala_lecanii-corni_CBS123.33_T,ERR2674090.18110,87.64,89,10,1,247,335,11,98,2e-21,102
Exophiala_lecanii-corni_CBS123.33_T,ERR2674090.46736,86.52,89,11,1,247,335,11,98,7e-20,97.1
Exophiala_lecanii-corni_CBS123.33_T,ERR2674090.13159,85.39,89,12,1,247,335,11,98,3e-18,91.6
Exophiala_lecanii-corni_CBS123.33_T,ERR2674090.13158,85.39,89,12,1,247,335,11,98,3e-18,91.6
Exophiala_lecanii-corni_CBS123.33_T,ERR2674090.46741,84.27,89,13,1,247,335,11,98,2e-16,86.1
Exophiala_lecanii-corni_CBS123.33_T,ERR2674090.18286,84.27,89,13,1,247,335,11,98,2e-16,86.1
Exophiala_lecanii-corni_CBS123.33_T,ERR2674090.16769,86.08,79,10,1,247,325,11,88,5e-16,84.2
Exophiala_lecanii-corni_CBS123.33_T,ERR2674090.1447,83.15,89,14,1,247,335,11,98,7e-15,80.5
Exophiala_lecanii-corni_CBS123.33_T,ERR2674090.17608,82.28,79,13,1,247,325,11,88,6e-11,67.6
Exophiala_dermatitidis_CBS748.88,ERR2674090.42285,88.70,115,12,1,239,353,11,124,3e-32,139
Exophiala_dermatitidis_CBS748.88,ERR2674090.24739,91.01,89,7,1,239,327,11,98,4e-26,119
Exophiala_dermatitidis_CBS748.88,ERR2674090.18110,87.64,89,10,1,239,327,11,98,4e-21,102
Exophiala_dermatitidis_CBS748.88,ERR2674090.25343,92.75,69,4,1,567,635,318,251,5e-20,99.0
Exophiala_dermatitidis_CBS748.88,ERR2674090.46736,86.52,89,11,1,239,327,11,98,2e-19,97.1
Exophiala_dermatitidis_CBS748.88,ERR2674090.46736,93.62,47,3,0,589,635,297,251,1e-11,71.3
Exophiala_dermatitidis_CBS748.88,ERR2674090.13159,85.39,89,12,1,239,327,11,98,9e-18,91.6
Exophiala_dermatitidis_CBS748.88,ERR2674090.13158,85.39,89,12,1,239,327,11,98,9e-18,91.6
Exophiala_dermatitidis_CBS748.88,ERR2674090.43421,94.64,56,3,0,580,635,306,251,1e-16,87.9
Exophiala_dermatitidis_CBS748.88,ERR2674090.46741,84.27,89,13,1,239,327,11,98,4e-16,86.1
Exophiala_dermatitidis_CBS748.88,ERR2674090.18286,84.27,89,13,1,239,327,11,98,4e-16,86.1
Exophiala_dermatitidis_CBS748.88,ERR2674090.16769,86.08,79,10,1,239,317,11,88,1e-15,84.2
Exophiala_dermatitidis_CBS748.88,ERR2674090.16568,88.57,70,7,1,567,636,318,250,1e-15,84.2
Exophiala_dermatitidis_CBS748.88,ERR2674090.8359,92.98,57,4,0,580,636,306,250,1e-15,84.2
Exophiala_dermatitidis_CBS748.88,ERR2674090.1447,83.15,89,14,1,239,327,11,98,2e-14,80.5
Exophiala_dermatitidis_CBS748.88,ERR2674090.27603,95.74,47,2,0,589,635,297,251,2e-13,76.8
Exophiala_dermatitidis_CBS748.88,ERR2674090.17608,82.28,79,13,1,239,317,11,88,1e-10,67.6
Exophiala_angulospora_CBS482.92_T,ERR2674090.42285,88.70,115,12,1,230,344,11,124,1e-32,139
Exophiala_angulospora_CBS482.92_T,ERR2674090.24739,91.01,89,7,1,230,318,11,98,1e-26,119
Exophiala_angulospora_CBS482.92_T,ERR2674090.18110,87.64,89,10,1,230,318,11,98,1e-21,102
Exophiala_angulospora_CBS482.92_T,ERR2674090.46736,86.52,89,11,1,230,318,11,98,7e-20,97.1
Exophiala_angulospora_CBS482.92_T,ERR2674090.13159,85.39,89,12,1,230,318,11,98,3e-18,91.6
Exophiala_angulospora_CBS482.92_T,ERR2674090.13158,85.39,89,12,1,230,318,11,98,3e-18,91.6
Exophiala_angulospora_CBS482.92_T,ERR2674090.46741,84.27,89,13,1,230,318,11,98,1e-16,86.1
Exophiala_angulospora_CBS482.92_T,ERR2674090.18286,84.27,89,13,1,230,318,11,98,1e-16,86.1
Exophiala_angulospora_CBS482.92_T,ERR2674090.16769,86.08,79,10,1,230,308,11,88,5e-16,84.2
Exophiala_angulospora_CBS482.92_T,ERR2674090.1447,83.15,89,14,1,230,318,11,98,7e-15,80.5
Exophiala_angulospora_CBS482.92_T,ERR2674090.17608,82.28,79,13,1,230,308,11,88,5e-11,67.6
Exophiala_opportunistica_CBS109811_T,ERR2674090.26294,86.45,155,20,1,356,510,500,347,1e-41,169
Exophiala_opportunistica_CBS109811_T,ERR2674090.26294,90.83,120,10,1,350,469,132,250,9e-39,159
Exophiala_opportunistica_CBS109811_T,ERR2674090.42285,88.70,115,12,1,229,343,11,124,1e-32,139
Exophiala_opportunistica_CBS109811_T,ERR2674090.24739,91.01,89,7,1,229,317,11,98,1e-26,119
Exophiala_opportunistica_CBS109811_T,ERR2674090.18110,87.64,89,10,1,229,317,11,98,1e-21,102
Exophiala_opportunistica_CBS109811_T,ERR2674090.46736,86.52,89,11,1,229,317,11,98,7e-20,97.1
Exophiala_opportunistica_CBS109811_T,ERR2674090.13159,85.39,89,12,1,229,317,11,98,3e-18,91.6
Exophiala_opportunistica_CBS109811_T,ERR2674090.13158,85.39,89,12,1,229,317,11,98,3e-18,91.6
Exophiala_opportunistica_CBS109811_T,ERR2674090.46741,84.27,89,13,1,229,317,11,98,2e-16,86.1
Exophiala_opportunistica_CBS109811_T,ERR2674090.18286,84.27,89,13,1,229,317,11,98,2e-16,86.1
Exophiala_opportunistica_CBS109811_T,ERR2674090.16769,86.08,79,10,1,229,307,11,88,5e-16,84.2
Exophiala_opportunistica_CBS109811_T,ERR2674090.1447,83.15,89,14,1,229,317,11,98,7e-15,80.5
Exophiala_opportunistica_CBS109811_T,ERR2674090.17608,82.28,79,13,1,229,307,11,88,5e-11,67.6
Exophiala_salmonis_CBS157.67_T,ERR2674090.26294,84.62,156,23,1,485,639,500,345,6e-37,154
Exophiala_salmonis_CBS157.67_T,ERR2674090.42285,88.70,115,12,1,358,472,11,124,2e-32,139
Exophiala_salmonis_CBS157.67_T,ERR2674090.24739,91.01,89,7,1,358,446,11,98,2e-26,119
Exophiala_salmonis_CBS157.67_T,ERR2674090.25343,96.72,61,2,0,673,733,311,251,2e-21,102
Exophiala_salmonis_CBS157.67_T,ERR2674090.18110,87.64,89,10,1,358,446,11,98,2e-21,102
Exophiala_salmonis_CBS157.67_T,ERR2674090.46736,86.52,89,11,1,358,446,11,98,1e-19,97.1
Exophiala_salmonis_CBS157.67_T,ERR2674090.46736,91.49,47,4,0,687,733,297,251,3e-10,65.8
Exophiala_salmonis_CBS157.67_T,ERR2674090.43421,96.43,56,2,0,678,733,306,251,1e-18,93.5
Exophiala_salmonis_CBS157.67_T,ERR2674090.13159,85.39,89,12,1,358,446,11,98,4e-18,91.6
Exophiala_salmonis_CBS157.67_T,ERR2674090.13158,85.39,89,12,1,358,446,11,98,4e-18,91.6
Exophiala_salmonis_CBS157.67_T,ERR2674090.46741,84.27,89,13,1,358,446,11,98,2e-16,86.1
Exophiala_salmonis_CBS157.67_T,ERR2674090.18286,84.27,89,13,1,358,446,11,98,2e-16,86.1
Exophiala_salmonis_CBS157.67_T,ERR2674090.16769,86.08,79,10,1,358,436,11,88,7e-16,84.2
Exophiala_salmonis_CBS157.67_T,ERR2674090.1447,83.15,89,14,1,358,446,11,98,1e-14,80.5
Exophiala_salmonis_CBS157.67_T,ERR2674090.8359,91.23,57,5,0,678,734,306,250,3e-14,78.7
Exophiala_salmonis_CBS157.67_T,ERR2674090.16568,89.83,59,6,0,676,734,308,250,1e-13,76.8
Exophiala_salmonis_CBS157.67_T,ERR2674090.27603,93.62,47,3,0,687,733,297,251,6e-12,71.3
Exophiala_salmonis_CBS157.67_T,ERR2674090.17608,82.28,79,13,1,358,436,11,88,8e-11,67.6
Exophiala_aquamarina_CBS119918_T,ERR2674090.42285,88.70,115,12,1,236,350,11,124,1e-32,139
Exophiala_aquamarina_CBS119918_T,ERR2674090.26294,82.69,156,24,3,363,517,500,347,1e-31,135
Exophiala_aquamarina_CBS119918_T,ERR2674090.24739,91.01,89,7,1,236,324,11,98,1e-26,119
Exophiala_aquamarina_CBS119918_T,ERR2674090.18110,87.64,89,10,1,236,324,11,98,1e-21,102
Exophiala_aquamarina_CBS119918_T,ERR2674090.46736,86.52,89,11,1,236,324,11,98,7e-20,97.1
Exophiala_aquamarina_CBS119918_T,ERR2674090.13159,85.39,89,12,1,236,324,11,98,3e-18,91.6
Exophiala_aquamarina_CBS119918_T,ERR2674090.13158,85.39,89,12,1,236,324,11,98,3e-18,91.6
Exophiala_aquamarina_CBS119918_T,ERR2674090.46741,84.27,89,13,1,236,324,11,98,1e-16,86.1
Exophiala_aquamarina_CBS119918_T,ERR2674090.18286,84.27,89,13,1,236,324,11,98,1e-16,86.1
Exophiala_aquamarina_CBS119918_T,ERR2674090.16769,86.08,79,10,1,236,314,11,88,5e-16,84.2
Exophiala_aquamarina_CBS119918_T,ERR2674090.1447,83.15,89,14,1,236,324,11,98,7e-15,80.5
Exophiala_aquamarina_CBS119918_T,ERR2674090.17608,82.28,79,13,1,236,314,11,88,5e-11,67.6
Exophiala_cancerae_CBS120420_T,ERR2674090.26294,83.77,154,21,3,378,527,500,347,1e-33,143
Exophiala_cancerae_CBS120420_T,ERR2674090.26294,88.24,119,10,3,372,486,132,250,1e-32,139
Exophiala_cancerae_CBS120420_T,ERR2674090.42285,88.70,115,12,1,251,365,11,124,1e-32,139
Exophiala_cancerae_CBS120420_T,ERR2674090.24739,91.01,89,7,1,251,339,11,98,2e-26,119
Exophiala_cancerae_CBS120420_T,ERR2674090.25343,94.12,68,4,0,557,624,318,251,5e-22,104
Exophiala_cancerae_CBS120420_T,ERR2674090.18110,87.64,89,10,1,251,339,11,98,2e-21,102
Exophiala_cancerae_CBS120420_T,ERR2674090.46736,86.52,89,11,1,251,339,11,98,8e-20,97.1
Exophiala_cancerae_CBS120420_T,ERR2674090.46736,91.49,47,4,0,578,624,297,251,2e-10,65.8
Exophiala_cancerae_CBS120420_T,ERR2674090.43421,91.30,69,5,1,557,624,319,251,1e-18,93.5
Exophiala_cancerae_CBS120420_T,ERR2674090.13159,85.39,89,12,1,251,339,11,98,4e-18,91.6
Exophiala_cancerae_CBS120420_T,ERR2674090.13158,85.39,89,12,1,251,339,11,98,4e-18,91.6
Exophiala_cancerae_CBS120420_T,ERR2674090.46741,84.27,89,13,1,251,339,11,98,2e-16,86.1
Exophiala_cancerae_CBS120420_T,ERR2674090.18286,84.27,89,13,1,251,339,11,98,2e-16,86.1
Exophiala_cancerae_CBS120420_T,ERR2674090.16769,86.08,79,10,1,251,329,11,88,6e-16,84.2
Exophiala_cancerae_CBS120420_T,ERR2674090.1447,83.15,89,14,1,251,339,11,98,8e-15,80.5
Exophiala_cancerae_CBS120420_T,ERR2674090.16568,86.76,68,9,0,557,624,318,251,1e-13,76.8
Exophiala_cancerae_CBS120420_T,ERR2674090.8359,91.07,56,5,0,569,624,306,251,1e-13,76.8
Exophiala_cancerae_CBS120420_T,ERR2674090.27603,93.62,47,3,0,578,624,297,251,5e-12,71.3
Exophiala_cancerae_CBS120420_T,ERR2674090.17608,82.28,79,13,1,251,329,11,88,6e-11,67.6
Exophiala_tremulae_CBS129355,ERR2674090.26294,87.01,154,20,0,390,543,500,347,3e-43,174
Exophiala_tremulae_CBS129355,ERR2674090.26294,92.44,119,9,0,384,502,132,250,4e-42,171
Exophiala_tremulae_CBS129355,ERR2674090.42285,88.70,115,12,1,263,377,11,124,1e-32,139
Exophiala_tremulae_CBS129355,ERR2674090.24739,91.01,89,7,1,263,351,11,98,2e-26,119
Exophiala_tremulae_CBS129355,ERR2674090.18110,87.64,89,10,1,263,351,11,98,2e-21,102
Exophiala_tremulae_CBS129355,ERR2674090.46736,86.52,89,11,1,263,351,11,98,8e-20,97.1
Exophiala_tremulae_CBS129355,ERR2674090.13159,85.39,89,12,1,263,351,11,98,4e-18,91.6
Exophiala_tremulae_CBS129355,ERR2674090.13158,85.39,89,12,1,263,351,11,98,4e-18,91.6
Exophiala_tremulae_CBS129355,ERR2674090.25343,98.00,50,1,0,579,628,311,262,5e-17,87.9
Exophiala_tremulae_CBS129355,ERR2674090.46741,84.27,89,13,1,263,351,11,98,2e-16,86.1
Exophiala_tremulae_CBS129355,ERR2674090.18286,84.27,89,13,1,263,351,11,98,2e-16,86.1
Exophiala_tremulae_CBS129355,ERR2674090.16769,86.08,79,10,1,263,341,11,88,6e-16,84.2
Exophiala_tremulae_CBS129355,ERR2674090.1447,83.15,89,14,1,263,351,11,98,8e-15,80.5
Exophiala_tremulae_CBS129355,ERR2674090.17608,82.28,79,13,1,263,341,11,88,6e-11,67.6
Exophiala_equina_CBS116009,ERR2674090.26294,93.28,119,8,0,350,468,132,250,9e-44,176
Exophiala_equina_CBS116009,ERR2674090.42285,88.70,115,12,1,229,343,11,124,1e-32,139
Exophiala_equina_CBS116009,ERR2674090.24739,91.01,89,7,1,229,317,11,98,1e-26,119
Exophiala_equina_CBS116009,ERR2674090.18110,87.64,89,10,1,229,317,11,98,1e-21,102
Exophiala_equina_CBS116009,ERR2674090.46736,86.52,89,11,1,229,317,11,98,7e-20,97.1
Exophiala_equina_CBS116009,ERR2674090.13159,85.39,89,12,1,229,317,11,98,3e-18,91.6
Exophiala_equina_CBS116009,ERR2674090.13158,85.39,89,12,1,229,317,11,98,3e-18,91.6
Exophiala_equina_CBS116009,ERR2674090.46741,84.27,89,13,1,229,317,11,98,1e-16,86.1
Exophiala_equina_CBS116009,ERR2674090.18286,84.27,89,13,1,229,317,11,98,1e-16,86.1
Exophiala_equina_CBS116009,ERR2674090.16769,86.08,79,10,1,229,307,11,88,5e-16,84.2
Exophiala_equina_CBS116009,ERR2674090.1447,83.15,89,14,1,229,317,11,98,7e-15,80.5
Exophiala_equina_CBS116009,ERR2674090.17608,82.28,79,13,1,229,307,11,88,5e-11,67.6
Exophiala_alcalophila_CBS520.82_T,ERR2674090.42285,88.70,115,12,1,240,354,11,124,1e-32,139
Exophiala_alcalophila_CBS520.82_T,ERR2674090.24739,91.01,89,7,1,240,328,11,98,1e-26,119
Exophiala_alcalophila_CBS520.82_T,ERR2674090.18110,87.64,89,10,1,240,328,11,98,1e-21,102
Exophiala_alcalophila_CBS520.82_T,ERR2674090.46736,86.52,89,11,1,240,328,11,98,7e-20,97.1
Exophiala_alcalophila_CBS520.82_T,ERR2674090.13159,85.39,89,12,1,240,328,11,98,3e-18,91.6
Exophiala_alcalophila_CBS520.82_T,ERR2674090.13158,85.39,89,12,1,240,328,11,98,3e-18,91.6
Exophiala_alcalophila_CBS520.82_T,ERR2674090.46741,84.27,89,13,1,240,328,11,98,1e-16,86.1
Exophiala_alcalophila_CBS520.82_T,ERR2674090.18286,84.27,89,13,1,240,328,11,98,1e-16,86.1
Exophiala_alcalophila_CBS520.82_T,ERR2674090.16769,86.08,79,10,1,240,318,11,88,5e-16,84.2
Exophiala_alcalophila_CBS520.82_T,ERR2674090.1447,83.15,89,14,1,240,328,11,98,7e-15,80.5
Exophiala_alcalophila_CBS520.82_T,ERR2674090.17608,82.28,79,13,1,240,318,11,88,5e-11,67.6
Exophiala_crusticola_CBS119970_T,ERR2674090.42285,88.70,115,12,1,245,359,11,124,1e-32,139
Exophiala_crusticola_CBS119970_T,ERR2674090.24739,91.01,89,7,1,245,333,11,98,1e-26,119
Exophiala_crusticola_CBS119970_T,ERR2674090.18110,87.64,89,10,1,245,333,11,98,1e-21,102
Exophiala_crusticola_CBS119970_T,ERR2674090.46736,86.52,89,11,1,245,333,11,98,7e-20,97.1
Exophiala_crusticola_CBS119970_T,ERR2674090.13159,85.39,89,12,1,245,333,11,98,3e-18,91.6
Exophiala_crusticola_CBS119970_T,ERR2674090.13158,85.39,89,12,1,245,333,11,98,3e-18,91.6
Exophiala_crusticola_CBS119970_T,ERR2674090.46741,84.27,89,13,1,245,333,11,98,1e-16,86.1
Exophiala_crusticola_CBS119970_T,ERR2674090.18286,84.27,89,13,1,245,333,11,98,1e-16,86.1
Exophiala_crusticola_CBS119970_T,ERR2674090.16769,86.08,79,10,1,245,323,11,88,5e-16,84.2
Exophiala_crusticola_CBS119970_T,ERR2674090.1447,83.15,89,14,1,245,333,11,98,7e-15,80.5
Exophiala_crusticola_CBS119970_T,ERR2674090.17608,82.28,79,13,1,245,323,11,88,5e-11,67.6
Rhinocladiella_atrovirens_CBS264.49,ERR2674090.42285,87.83,115,13,1,271,385,11,124,6e-31,134
Rhinocladiella_atrovirens_CBS264.49,ERR2674090.24739,91.01,89,7,1,271,359,11,98,2e-26,119
Rhinocladiella_atrovirens_CBS264.49,ERR2674090.18110,87.64,89,10,1,271,359,11,98,2e-21,102
Rhinocladiella_atrovirens_CBS264.49,ERR2674090.46736,86.52,89,11,1,271,359,11,98,8e-20,97.1
Rhinocladiella_atrovirens_CBS264.49,ERR2674090.25343,96.43,56,1,1,571,626,317,263,4e-18,91.6
Rhinocladiella_atrovirens_CBS264.49,ERR2674090.13159,85.39,89,12,1,271,359,11,98,4e-18,91.6
Rhinocladiella_atrovirens_CBS264.49,ERR2674090.13158,85.39,89,12,1,271,359,11,98,4e-18,91.6
Rhinocladiella_atrovirens_CBS264.49,ERR2674090.46741,84.27,89,13,1,271,359,11,98,2e-16,86.1
Rhinocladiella_atrovirens_CBS264.49,ERR2674090.18286,84.27,89,13,1,271,359,11,98,2e-16,86.1
Rhinocladiella_atrovirens_CBS264.49,ERR2674090.16769,86.08,79,10,1,271,349,11,88,6e-16,84.2
Rhinocladiella_atrovirens_CBS264.49,ERR2674090.1447,83.15,89,14,1,271,359,11,98,8e-15,80.5
Rhinocladiella_atrovirens_CBS264.49,ERR2674090.17608,82.28,79,13,1,271,349,11,88,6e-11,67.6
Rhinocladiella_basitona_CBS101460_T,ERR2674090.42285,87.83,115,13,1,230,344,11,124,5e-31,134
Rhinocladiella_basitona_CBS101460_T,ERR2674090.24739,91.01,89,7,1,230,318,11,98,1e-26,119
Rhinocladiella_basitona_CBS101460_T,ERR2674090.18110,87.64,89,10,1,230,318,11,98,1e-21,102
Rhinocladiella_basitona_CBS101460_T,ERR2674090.46736,86.52,89,11,1,230,318,11,98,7e-20,97.1
Rhinocladiella_basitona_CBS101460_T,ERR2674090.13159,85.39,89,12,1,230,318,11,98,3e-18,91.6
Rhinocladiella_basitona_CBS101460_T,ERR2674090.13158,85.39,89,12,1,230,318,11,98,3e-18,91.6
Rhinocladiella_basitona_CBS101460_T,ERR2674090.46741,84.27,89,13,1,230,318,11,98,1e-16,86.1
Rhinocladiella_basitona_CBS101460_T,ERR2674090.18286,84.27,89,13,1,230,318,11,98,1e-16,86.1
Rhinocladiella_basitona_CBS101460_T,ERR2674090.16769,86.08,79,10,1,230,308,11,88,5e-16,84.2
Rhinocladiella_basitona_CBS101460_T,ERR2674090.1447,83.15,89,14,1,230,318,11,98,7e-15,80.5
Rhinocladiella_basitona_CBS101460_T,ERR2674090.17608,82.28,79,13,1,230,308,11,88,5e-11,67.6
Rhinocladiella_phaeophora_CBS496.78_T,ERR2674090.42285,88.70,115,12,1,238,352,11,124,1e-32,139
Rhinocladiella_phaeophora_CBS496.78_T,ERR2674090.24739,89.89,89,8,1,238,326,11,98,7e-25,113
Rhinocladiella_phaeophora_CBS496.78_T,ERR2674090.18110,86.52,89,11,1,238,326,11,98,7e-20,97.1
Rhinocladiella_phaeophora_CBS496.78_T,ERR2674090.46736,85.39,89,12,1,238,326,11,98,3e-18,91.6
Rhinocladiella_phaeophora_CBS496.78_T,ERR2674090.13159,84.27,89,13,1,238,326,11,98,2e-16,86.1
Rhinocladiella_phaeophora_CBS496.78_T,ERR2674090.13158,84.27,89,13,1,238,326,11,98,2e-16,86.1
Rhinocladiella_phaeophora_CBS496.78_T,ERR2674090.16769,86.08,79,10,1,238,316,11,88,5e-16,84.2
Rhinocladiella_phaeophora_CBS496.78_T,ERR2674090.46741,83.15,89,14,1,238,326,11,98,7e-15,80.5
Rhinocladiella_phaeophora_CBS496.78_T,ERR2674090.18286,83.15,89,14,1,238,326,11,98,7e-15,80.5
Rhinocladiella_phaeophora_CBS496.78_T,ERR2674090.1447,82.02,89,15,1,238,326,11,98,3e-13,75.0
Rhinocladiella_phaeophora_CBS496.78_T,ERR2674090.17608,82.28,79,13,1,238,316,11,88,5e-11,67.6
Rhinocladiella_aquaspersa_CBS313.73_T,ERR2674090.42285,88.70,115,12,1,232,346,11,124,1e-32,139
Rhinocladiella_aquaspersa_CBS313.73_T,ERR2674090.24739,89.89,89,8,1,232,320,11,98,8e-25,113
Rhinocladiella_aquaspersa_CBS313.73_T,ERR2674090.18110,86.52,89,11,1,232,320,11,98,8e-20,97.1
Rhinocladiella_aquaspersa_CBS313.73_T,ERR2674090.46736,85.39,89,12,1,232,320,11,98,4e-18,91.6
Rhinocladiella_aquaspersa_CBS313.73_T,ERR2674090.46736,95.12,41,1,1,566,605,291,251,8e-10,63.9
Rhinocladiella_aquaspersa_CBS313.73_T,ERR2674090.25343,91.18,68,3,3,541,605,318,251,1e-17,89.8
Rhinocladiella_aquaspersa_CBS313.73_T,ERR2674090.13159,84.27,89,13,1,232,320,11,98,2e-16,86.1
Rhinocladiella_aquaspersa_CBS313.73_T,ERR2674090.13158,84.27,89,13,1,232,320,11,98,2e-16,86.1
Rhinocladiella_aquaspersa_CBS313.73_T,ERR2674090.16769,86.08,79,10,1,232,310,11,88,6e-16,84.2
Rhinocladiella_aquaspersa_CBS313.73_T,ERR2674090.46741,83.15,89,14,1,232,320,11,98,8e-15,80.5
Rhinocladiella_aquaspersa_CBS313.73_T,ERR2674090.18286,83.15,89,14,1,232,320,11,98,8e-15,80.5
Rhinocladiella_aquaspersa_CBS313.73_T,ERR2674090.43421,92.59,54,2,2,554,605,304,251,1e-13,76.8
Rhinocladiella_aquaspersa_CBS313.73_T,ERR2674090.1447,82.02,89,15,1,232,320,11,98,4e-13,75.0
Rhinocladiella_aquaspersa_CBS313.73_T,ERR2674090.8359,97.62,42,0,1,566,606,291,250,5e-12,71.3
Rhinocladiella_aquaspersa_CBS313.73_T,ERR2674090.27603,97.56,41,0,1,566,605,291,251,2e-11,69.4
Rhinocladiella_aquaspersa_CBS313.73_T,ERR2674090.16568,85.51,69,7,3,541,606,318,250,2e-11,69.4
Rhinocladiella_aquaspersa_CBS313.73_T,ERR2674090.17608,82.28,79,13,1,232,310,11,88,6e-11,67.6
Rhinocladiella_fasciculata_CBS132.86_T,ERR2674090.42285,88.89,117,12,1,248,364,11,126,9e-34,143
Rhinocladiella_fasciculata_CBS132.86_T,ERR2674090.24739,89.89,89,8,1,248,336,11,98,7e-25,113
Rhinocladiella_fasciculata_CBS132.86_T,ERR2674090.18110,86.52,89,11,1,248,336,11,98,7e-20,97.1
Rhinocladiella_fasciculata_CBS132.86_T,ERR2674090.46736,85.39,89,12,1,248,336,11,98,3e-18,91.6
Rhinocladiella_fasciculata_CBS132.86_T,ERR2674090.13159,84.27,89,13,1,248,336,11,98,2e-16,86.1
Rhinocladiella_fasciculata_CBS132.86_T,ERR2674090.13158,84.27,89,13,1,248,336,11,98,2e-16,86.1
Rhinocladiella_fasciculata_CBS132.86_T,ERR2674090.16769,86.08,79,10,1,248,326,11,88,5e-16,84.2
Rhinocladiella_fasciculata_CBS132.86_T,ERR2674090.46741,83.15,89,14,1,248,336,11,98,7e-15,80.5
Rhinocladiella_fasciculata_CBS132.86_T,ERR2674090.18286,83.15,89,14,1,248,336,11,98,7e-15,80.5
Rhinocladiella_fasciculata_CBS132.86_T,ERR2674090.1447,82.02,89,15,1,248,336,11,98,3e-13,75.0
Rhinocladiella_fasciculata_CBS132.86_T,ERR2674090.17608,82.28,79,13,1,248,326,11,88,6e-11,67.6
Rhinocladiella_anceps_CBS181.65_T,ERR2674090.42285,87.83,115,13,1,230,344,11,124,5e-31,134
Rhinocladiella_anceps_CBS181.65_T,ERR2674090.24739,89.89,89,8,1,230,318,11,98,7e-25,113
Rhinocladiella_anceps_CBS181.65_T,ERR2674090.18110,86.52,89,11,1,230,318,11,98,7e-20,97.1
Rhinocladiella_anceps_CBS181.65_T,ERR2674090.46736,85.39,89,12,1,230,318,11,98,3e-18,91.6
Rhinocladiella_anceps_CBS181.65_T,ERR2674090.13159,84.27,89,13,1,230,318,11,98,1e-16,86.1
Rhinocladiella_anceps_CBS181.65_T,ERR2674090.13158,84.27,89,13,1,230,318,11,98,1e-16,86.1
Rhinocladiella_anceps_CBS181.65_T,ERR2674090.16769,86.08,79,10,1,230,308,11,88,5e-16,84.2
Rhinocladiella_anceps_CBS181.65_T,ERR2674090.46741,83.15,89,14,1,230,318,11,98,7e-15,80.5
Rhinocladiella_anceps_CBS181.65_T,ERR2674090.18286,83.15,89,14,1,230,318,11,98,7e-15,80.5
Rhinocladiella_anceps_CBS181.65_T,ERR2674090.1447,82.02,89,15,1,230,318,11,98,3e-13,75.0
Rhinocladiella_anceps_CBS181.65_T,ERR2674090.17608,82.28,79,13,1,230,308,11,88,5e-11,67.6
Rhinocladiella_mackenziei_CBS367.92,ERR2674090.42285,88.70,115,12,1,219,333,11,124,1e-32,139
Rhinocladiella_mackenziei_CBS367.92,ERR2674090.24739,91.01,89,7,1,219,307,11,98,2e-26,119
Rhinocladiella_mackenziei_CBS367.92,ERR2674090.18110,87.64,89,10,1,219,307,11,98,2e-21,102
Rhinocladiella_mackenziei_CBS367.92,ERR2674090.46736,86.52,89,11,1,219,307,11,98,7e-20,97.1
Rhinocladiella_mackenziei_CBS367.92,ERR2674090.13159,85.39,89,12,1,219,307,11,98,3e-18,91.6
Rhinocladiella_mackenziei_CBS367.92,ERR2674090.13158,85.39,89,12,1,219,307,11,98,3e-18,91.6
Rhinocladiella_mackenziei_CBS367.92,ERR2674090.46741,84.27,89,13,1,219,307,11,98,2e-16,86.1
Rhinocladiella_mackenziei_CBS367.92,ERR2674090.18286,84.27,89,13,1,219,307,11,98,2e-16,86.1
Rhinocladiella_mackenziei_CBS367.92,ERR2674090.16769,86.08,79,10,1,219,297,11,88,6e-16,84.2
Rhinocladiella_mackenziei_CBS367.92,ERR2674090.1447,83.15,89,14,1,219,307,11,98,8e-15,80.5
Rhinocladiella_mackenziei_CBS367.92,ERR2674090.25343,97.67,43,1,0,566,608,310,268,3e-13,75.0
Rhinocladiella_mackenziei_CBS367.92,ERR2674090.17608,82.28,79,13,1,219,297,11,88,6e-11,67.6
Veronaea_compacta_CBS268.75_T,ERR2674090.42285,87.83,115,13,1,252,366,11,124,6e-31,134
Veronaea_compacta_CBS268.75_T,ERR2674090.24739,91.01,89,7,1,252,340,11,98,2e-26,119
Veronaea_compacta_CBS268.75_T,ERR2674090.18110,87.64,89,10,1,252,340,11,98,2e-21,102
Veronaea_compacta_CBS268.75_T,ERR2674090.46736,86.52,89,11,1,252,340,11,98,7e-20,97.1
Veronaea_compacta_CBS268.75_T,ERR2674090.13159,85.39,89,12,1,252,340,11,98,3e-18,91.6
Veronaea_compacta_CBS268.75_T,ERR2674090.13158,85.39,89,12,1,252,340,11,98,3e-18,91.6
Veronaea_compacta_CBS268.75_T,ERR2674090.46741,84.27,89,13,1,252,340,11,98,2e-16,86.1
Veronaea_compacta_CBS268.75_T,ERR2674090.18286,84.27,89,13,1,252,340,11,98,2e-16,86.1
Veronaea_compacta_CBS268.75_T,ERR2674090.16769,86.08,79,10,1,252,330,11,88,6e-16,84.2
Veronaea_compacta_CBS268.75_T,ERR2674090.1447,83.15,89,14,1,252,340,11,98,7e-15,80.5
Veronaea_compacta_CBS268.75_T,ERR2674090.17608,82.28,79,13,1,252,330,11,88,6e-11,67.6
Capronia_pilosella_AFTOL-ID657,ERR2674090.42285,88.70,115,12,1,330,444,11,124,1e-32,139
Capronia_pilosella_AFTOL-ID657,ERR2674090.24739,91.01,89,7,1,330,418,11,98,2e-26,119
Capronia_pilosella_AFTOL-ID657,ERR2674090.18110,87.64,89,10,1,330,418,11,98,2e-21,102
Capronia_pilosella_AFTOL-ID657,ERR2674090.46736,86.52,89,11,1,330,418,11,98,8e-20,97.1
Capronia_pilosella_AFTOL-ID657,ERR2674090.13159,85.39,89,12,1,330,418,11,98,4e-18,91.6
Capronia_pilosella_AFTOL-ID657,ERR2674090.13158,85.39,89,12,1,330,418,11,98,4e-18,91.6
Capronia_pilosella_AFTOL-ID657,ERR2674090.46741,84.27,89,13,1,330,418,11,98,2e-16,86.1
Capronia_pilosella_AFTOL-ID657,ERR2674090.18286,84.27,89,13,1,330,418,11,98,2e-16,86.1
Capronia_pilosella_AFTOL-ID657,ERR2674090.16769,86.08,79,10,1,330,408,11,88,7e-16,84.2
Capronia_pilosella_AFTOL-ID657,ERR2674090.1447,83.15,89,14,1,330,418,11,98,8e-15,80.5
Capronia_pilosella_AFTOL-ID657,ERR2674090.17608,82.28,79,13,1,330,408,11,88,7e-11,67.6
Capronia_dactylotricha_DAOM208471_T,ERR2674090.42285,88.70,115,12,1,232,346,11,124,1e-32,139
Capronia_dactylotricha_DAOM208471_T,ERR2674090.24739,91.01,89,7,1,232,320,11,98,2e-26,119
Capronia_dactylotricha_DAOM208471_T,ERR2674090.25343,96.83,63,2,0,556,618,313,251,1e-22,106
Capronia_dactylotricha_DAOM208471_T,ERR2674090.18110,87.64,89,10,1,232,320,11,98,2e-21,102
Capronia_dactylotricha_DAOM208471_T,ERR2674090.46736,86.52,89,11,1,232,320,11,98,8e-20,97.1
Capronia_dactylotricha_DAOM208471_T,ERR2674090.46736,91.49,47,4,0,572,618,297,251,2e-10,65.8
Capronia_dactylotricha_DAOM208471_T,ERR2674090.43421,93.65,63,4,0,556,618,313,251,3e-19,95.3
Capronia_dactylotricha_DAOM208471_T,ERR2674090.13159,85.39,89,12,1,232,320,11,98,4e-18,91.6
Capronia_dactylotricha_DAOM208471_T,ERR2674090.13158,85.39,89,12,1,232,320,11,98,4e-18,91.6
Capronia_dactylotricha_DAOM208471_T,ERR2674090.46741,84.27,89,13,1,232,320,11,98,2e-16,86.1
Capronia_dactylotricha_DAOM208471_T,ERR2674090.18286,84.27,89,13,1,232,320,11,98,2e-16,86.1
Capronia_dactylotricha_DAOM208471_T,ERR2674090.16769,86.08,79,10,1,232,310,11,88,6e-16,84.2
Capronia_dactylotricha_DAOM208471_T,ERR2674090.1447,83.15,89,14,1,232,320,11,98,8e-15,80.5
Capronia_dactylotricha_DAOM208471_T,ERR2674090.8359,91.23,57,5,0,563,619,306,250,3e-14,78.7
Capronia_dactylotricha_DAOM208471_T,ERR2674090.16568,89.83,59,6,0,561,619,308,250,1e-13,76.8
Capronia_dactylotricha_DAOM208471_T,ERR2674090.27603,93.62,47,3,0,572,618,297,251,5e-12,71.3
Capronia_dactylotricha_DAOM208471_T,ERR2674090.17608,82.28,79,13,1,232,310,11,88,6e-11,67.6
Capronia_kleinmondensis_CBS122671_T,ERR2674090.42285,87.83,115,13,1,257,371,11,124,6e-31,134
Capronia_kleinmondensis_CBS122671_T,ERR2674090.24739,91.01,89,7,1,257,345,11,98,2e-26,119
Capronia_kleinmondensis_CBS122671_T,ERR2674090.25343,97.10,69,2,0,556,624,319,251,6e-26,117
Capronia_kleinmondensis_CBS122671_T,ERR2674090.18110,87.64,89,10,1,257,345,11,98,2e-21,102
Capronia_kleinmondensis_CBS122671_T,ERR2674090.43421,92.75,69,4,1,557,624,319,251,2e-20,99.0
Capronia_kleinmondensis_CBS122671_T,ERR2674090.46736,86.52,89,11,1,257,345,11,98,8e-20,97.1
Capronia_kleinmondensis_CBS122671_T,ERR2674090.46736,91.49,47,4,0,578,624,297,251,2e-10,65.8
Capronia_kleinmondensis_CBS122671_T,ERR2674090.13159,85.39,89,12,1,257,345,11,98,4e-18,91.6
Capronia_kleinmondensis_CBS122671_T,ERR2674090.13158,85.39,89,12,1,257,345,11,98,4e-18,91.6
Capronia_kleinmondensis_CBS122671_T,ERR2674090.46741,84.27,89,13,1,257,345,11,98,2e-16,86.1
Capronia_kleinmondensis_CBS122671_T,ERR2674090.18286,84.27,89,13,1,257,345,11,98,2e-16,86.1
Capronia_kleinmondensis_CBS122671_T,ERR2674090.16568,88.57,70,8,0,556,625,319,250,2e-16,86.1
Capronia_kleinmondensis_CBS122671_T,ERR2674090.16769,86.08,79,10,1,257,335,11,88,6e-16,84.2
Capronia_kleinmondensis_CBS122671_T,ERR2674090.1447,83.15,89,14,1,257,345,11,98,8e-15,80.5
Capronia_kleinmondensis_CBS122671_T,ERR2674090.8359,91.23,57,5,0,569,625,306,250,3e-14,78.7
Capronia_kleinmondensis_CBS122671_T,ERR2674090.27603,93.62,47,3,0,578,624,297,251,5e-12,71.3
Capronia_kleinmondensis_CBS122671_T,ERR2674090.17608,82.28,79,13,1,257,335,11,88,6e-11,67.6
Capronia_mansonii_CBS101.67_T,ERR2674090.42285,88.70,115,12,1,243,357,11,124,1e-32,139
Capronia_mansonii_CBS101.67_T,ERR2674090.24739,91.01,89,7,1,243,331,11,98,2e-26,119
Capronia_mansonii_CBS101.67_T,ERR2674090.18110,87.64,89,10,1,243,331,11,98,2e-21,102
Capronia_mansonii_CBS101.67_T,ERR2674090.46736,86.52,89,11,1,243,331,11,98,8e-20,97.1
Capronia_mansonii_CBS101.67_T,ERR2674090.46736,93.62,47,3,0,582,628,297,251,5e-12,71.3
Capronia_mansonii_CBS101.67_T,ERR2674090.25343,95.08,61,3,0,568,628,311,251,8e-20,97.1
Capronia_mansonii_CBS101.67_T,ERR2674090.13159,85.39,89,12,1,243,331,11,98,4e-18,91.6
Capronia_mansonii_CBS101.67_T,ERR2674090.13158,85.39,89,12,1,243,331,11,98,4e-18,91.6
Capronia_mansonii_CBS101.67_T,ERR2674090.43421,94.64,56,3,0,573,628,306,251,5e-17,87.9
Capronia_mansonii_CBS101.67_T,ERR2674090.46741,84.27,89,13,1,243,331,11,98,2e-16,86.1
Capronia_mansonii_CBS101.67_T,ERR2674090.18286,84.27,89,13,1,243,331,11,98,2e-16,86.1
Capronia_mansonii_CBS101.67_T,ERR2674090.16769,86.08,79,10,1,243,321,11,88,6e-16,84.2
Capronia_mansonii_CBS101.67_T,ERR2674090.8359,92.98,57,4,0,573,629,306,250,6e-16,84.2
Capronia_mansonii_CBS101.67_T,ERR2674090.16568,91.53,59,5,0,571,629,308,250,2e-15,82.4
Capronia_mansonii_CBS101.67_T,ERR2674090.1447,83.15,89,14,1,243,331,11,98,8e-15,80.5
Capronia_mansonii_CBS101.67_T,ERR2674090.27603,95.74,47,2,0,582,628,297,251,1e-13,76.8
Capronia_mansonii_CBS101.67_T,ERR2674090.17608,82.28,79,13,1,243,321,11,88,6e-11,67.6
Capronia_munkii_DAOM216390_T,ERR2674090.42285,88.70,115,12,1,243,357,11,124,1e-32,139
Capronia_munkii_DAOM216390_T,ERR2674090.24739,91.01,89,7,1,243,331,11,98,2e-26,119
Capronia_munkii_DAOM216390_T,ERR2674090.18110,87.64,89,10,1,243,331,11,98,2e-21,102
Capronia_munkii_DAOM216390_T,ERR2674090.46736,86.52,89,11,1,243,331,11,98,8e-20,97.1
Capronia_munkii_DAOM216390_T,ERR2674090.46736,93.62,47,3,0,582,628,297,251,5e-12,71.3
Capronia_munkii_DAOM216390_T,ERR2674090.25343,95.08,61,3,0,568,628,311,251,8e-20,97.1
Capronia_munkii_DAOM216390_T,ERR2674090.13159,85.39,89,12,1,243,331,11,98,4e-18,91.6
Capronia_munkii_DAOM216390_T,ERR2674090.13158,85.39,89,12,1,243,331,11,98,4e-18,91.6
Capronia_munkii_DAOM216390_T,ERR2674090.43421,90.00,70,6,1,559,628,319,251,1e-17,89.8
Capronia_munkii_DAOM216390_T,ERR2674090.46741,84.27,89,13,1,243,331,11,98,2e-16,86.1
Capronia_munkii_DAOM216390_T,ERR2674090.18286,84.27,89,13,1,243,331,11,98,2e-16,86.1
Capronia_munkii_DAOM216390_T,ERR2674090.16769,86.08,79,10,1,243,321,11,88,6e-16,84.2
Capronia_munkii_DAOM216390_T,ERR2674090.8359,92.98,57,4,0,573,629,306,250,6e-16,84.2
Capronia_munkii_DAOM216390_T,ERR2674090.16568,91.53,59,5,0,571,629,308,250,2e-15,82.4
Capronia_munkii_DAOM216390_T,ERR2674090.1447,83.15,89,14,1,243,331,11,98,8e-15,80.5
Capronia_munkii_DAOM216390_T,ERR2674090.27603,95.74,47,2,0,582,628,297,251,1e-13,76.8
Capronia_munkii_DAOM216390_T,ERR2674090.17608,82.28,79,13,1,243,321,11,88,6e-11,67.6
Capronia_coronata_ATCC56201_T,ERR2674090.42285,88.70,115,12,1,231,345,11,124,1e-32,139
Capronia_coronata_ATCC56201_T,ERR2674090.24739,91.01,89,7,1,231,319,11,98,2e-26,119
Capronia_coronata_ATCC56201_T,ERR2674090.25343,94.12,68,4,0,532,599,318,251,5e-22,104
Capronia_coronata_ATCC56201_T,ERR2674090.18110,87.64,89,10,1,231,319,11,98,2e-21,102
Capronia_coronata_ATCC56201_T,ERR2674090.46736,86.52,89,11,1,231,319,11,98,8e-20,97.1
Capronia_coronata_ATCC56201_T,ERR2674090.46736,93.62,47,3,0,553,599,297,251,5e-12,71.3
Capronia_coronata_ATCC56201_T,ERR2674090.13159,85.39,89,12,1,231,319,11,98,4e-18,91.6
Capronia_coronata_ATCC56201_T,ERR2674090.13158,85.39,89,12,1,231,319,11,98,4e-18,91.6
Capronia_coronata_ATCC56201_T,ERR2674090.43421,89.04,73,6,2,529,599,323,251,1e-17,89.8
Capronia_coronata_ATCC56201_T,ERR2674090.16568,89.86,69,7,0,532,600,318,250,1e-17,89.8
Capronia_coronata_ATCC56201_T,ERR2674090.46741,84.27,89,13,1,231,319,11,98,2e-16,86.1
Capronia_coronata_ATCC56201_T,ERR2674090.18286,84.27,89,13,1,231,319,11,98,2e-16,86.1
Capronia_coronata_ATCC56201_T,ERR2674090.16769,86.08,79,10,1,231,309,11,88,6e-16,84.2
Capronia_coronata_ATCC56201_T,ERR2674090.8359,92.98,57,4,0,544,600,306,250,6e-16,84.2
Capronia_coronata_ATCC56201_T,ERR2674090.1447,83.15,89,14,1,231,319,11,98,8e-15,80.5
Capronia_coronata_ATCC56201_T,ERR2674090.27603,95.74,47,2,0,553,599,297,251,1e-13,76.8
Capronia_coronata_ATCC56201_T,ERR2674090.17608,82.28,79,13,1,231,309,11,88,6e-11,67.6
Capronia_parasitica_CBS123.88,ERR2674090.42285,88.70,115,12,1,237,351,11,124,1e-32,139
Capronia_parasitica_CBS123.88,ERR2674090.24739,91.01,89,7,1,237,325,11,98,2e-26,119
Capronia_parasitica_CBS123.88,ERR2674090.18110,87.64,89,10,1,237,325,11,98,2e-21,102
Capronia_parasitica_CBS123.88,ERR2674090.46736,86.52,89,11,1,237,325,11,98,7e-20,97.1
Capronia_parasitica_CBS123.88,ERR2674090.13159,85.39,89,12,1,237,325,11,98,3e-18,91.6
Capronia_parasitica_CBS123.88,ERR2674090.13158,85.39,89,12,1,237,325,11,98,3e-18,91.6
Capronia_parasitica_CBS123.88,ERR2674090.46741,84.27,89,13,1,237,325,11,98,2e-16,86.1
Capronia_parasitica_CBS123.88,ERR2674090.18286,84.27,89,13,1,237,325,11,98,2e-16,86.1
Capronia_parasitica_CBS123.88,ERR2674090.16769,86.08,79,10,1,237,315,11,88,6e-16,84.2
Capronia_parasitica_CBS123.88,ERR2674090.1447,83.15,89,14,1,237,325,11,98,7e-15,80.5
Capronia_parasitica_CBS123.88,ERR2674090.17608,82.28,79,13,1,237,315,11,88,6e-11,67.6
Capronia_parasitica_CBS123.88,ERR2674090.25343,93.02,43,3,0,553,595,318,276,7e-10,63.9
Veronaea_japonica_CBS776.83_T,ERR2674090.42285,88.70,115,12,1,265,379,11,124,1e-32,139
Veronaea_japonica_CBS776.83_T,ERR2674090.24739,91.01,89,7,1,265,353,11,98,2e-26,119
Veronaea_japonica_CBS776.83_T,ERR2674090.18110,87.64,89,10,1,265,353,11,98,2e-21,102
Veronaea_japonica_CBS776.83_T,ERR2674090.46736,86.52,89,11,1,265,353,11,98,7e-20,97.1
Veronaea_japonica_CBS776.83_T,ERR2674090.13159,85.39,89,12,1,265,353,11,98,3e-18,91.6
Veronaea_japonica_CBS776.83_T,ERR2674090.13158,85.39,89,12,1,265,353,11,98,3e-18,91.6
Veronaea_japonica_CBS776.83_T,ERR2674090.46741,84.27,89,13,1,265,353,11,98,2e-16,86.1
Veronaea_japonica_CBS776.83_T,ERR2674090.18286,84.27,89,13,1,265,353,11,98,2e-16,86.1
Veronaea_japonica_CBS776.83_T,ERR2674090.16769,86.08,79,10,1,265,343,11,88,6e-16,84.2
Veronaea_japonica_CBS776.83_T,ERR2674090.1447,83.15,89,14,1,265,353,11,98,8e-15,80.5
Veronaea_japonica_CBS776.83_T,ERR2674090.17608,82.28,79,13,1,265,343,11,88,6e-11,67.6
Thysanorea_papuana_CBS212.96_T,ERR2674090.42285,88.70,115,12,1,239,353,11,124,1e-32,139
Thysanorea_papuana_CBS212.96_T,ERR2674090.24739,91.01,89,7,1,239,327,11,98,2e-26,119
Thysanorea_papuana_CBS212.96_T,ERR2674090.18110,87.64,89,10,1,239,327,11,98,2e-21,102
Thysanorea_papuana_CBS212.96_T,ERR2674090.46736,86.52,89,11,1,239,327,11,98,7e-20,97.1
Thysanorea_papuana_CBS212.96_T,ERR2674090.13159,85.39,89,12,1,239,327,11,98,3e-18,91.6
Thysanorea_papuana_CBS212.96_T,ERR2674090.13158,85.39,89,12,1,239,327,11,98,3e-18,91.6
Thysanorea_papuana_CBS212.96_T,ERR2674090.46741,84.27,89,13,1,239,327,11,98,2e-16,86.1
Thysanorea_papuana_CBS212.96_T,ERR2674090.18286,84.27,89,13,1,239,327,11,98,2e-16,86.1
Thysanorea_papuana_CBS212.96_T,ERR2674090.16769,86.08,79,10,1,239,317,11,88,6e-16,84.2
Thysanorea_papuana_CBS212.96_T,ERR2674090.1447,83.15,89,14,1,239,327,11,98,7e-15,80.5
Thysanorea_papuana_CBS212.96_T,ERR2674090.17608,82.28,79,13,1,239,317,11,88,6e-11,67.6
Capronia_acutiseta_ATCC56428_T,ERR2674090.25343,94.29,70,3,1,529,598,319,251,1e-22,106
Capronia_acutiseta_ATCC56428_T,ERR2674090.43421,91.30,69,5,1,531,598,319,251,1e-18,93.5
Capronia_acutiseta_ATCC56428_T,ERR2674090.16568,87.32,71,8,1,529,599,319,250,8e-15,80.5
Capronia_acutiseta_ATCC56428_T,ERR2674090.8359,91.23,57,5,0,543,599,306,250,3e-14,78.7
Capronia_acutiseta_ATCC56428_T,ERR2674090.27603,93.62,47,3,0,552,598,297,251,5e-12,71.3
Capronia_acutiseta_ATCC56428_T,ERR2674090.46736,91.49,47,4,0,552,598,297,251,2e-10,65.8
Fonsecaea_brasiliensis_CBS119710_T,ERR2674090.42285,88.70,115,12,1,239,353,11,124,1e-32,139
Fonsecaea_brasiliensis_CBS119710_T,ERR2674090.24739,91.01,89,7,1,239,327,11,98,1e-26,119
Fonsecaea_brasiliensis_CBS119710_T,ERR2674090.18110,87.64,89,10,1,239,327,11,98,1e-21,102
Fonsecaea_brasiliensis_CBS119710_T,ERR2674090.46736,86.52,89,11,1,239,327,11,98,7e-20,97.1
Fonsecaea_brasiliensis_CBS119710_T,ERR2674090.13159,85.39,89,12,1,239,327,11,98,3e-18,91.6
Fonsecaea_brasiliensis_CBS119710_T,ERR2674090.13158,85.39,89,12,1,239,327,11,98,3e-18,91.6
Fonsecaea_brasiliensis_CBS119710_T,ERR2674090.46741,84.27,89,13,1,239,327,11,98,1e-16,86.1
Fonsecaea_brasiliensis_CBS119710_T,ERR2674090.18286,84.27,89,13,1,239,327,11,98,1e-16,86.1
Fonsecaea_brasiliensis_CBS119710_T,ERR2674090.16769,86.08,79,10,1,239,317,11,88,5e-16,84.2
Fonsecaea_brasiliensis_CBS119710_T,ERR2674090.1447,83.15,89,14,1,239,327,11,98,7e-15,80.5
Fonsecaea_brasiliensis_CBS119710_T,ERR2674090.17608,82.28,79,13,1,239,317,11,88,5e-11,67.6
Fonsecaea_pedrosoi_CBS271.37_T,ERR2674090.42285,88.70,115,12,1,267,381,11,124,1e-32,139
Fonsecaea_pedrosoi_CBS271.37_T,ERR2674090.24739,91.01,89,7,1,267,355,11,98,2e-26,119
Fonsecaea_pedrosoi_CBS271.37_T,ERR2674090.18110,87.64,89,10,1,267,355,11,98,2e-21,102
Fonsecaea_pedrosoi_CBS271.37_T,ERR2674090.46736,86.52,89,11,1,267,355,11,98,8e-20,97.1
Fonsecaea_pedrosoi_CBS271.37_T,ERR2674090.13159,85.39,89,12,1,267,355,11,98,4e-18,91.6
Fonsecaea_pedrosoi_CBS271.37_T,ERR2674090.13158,85.39,89,12,1,267,355,11,98,4e-18,91.6
Fonsecaea_pedrosoi_CBS271.37_T,ERR2674090.46741,84.27,89,13,1,267,355,11,98,2e-16,86.1
Fonsecaea_pedrosoi_CBS271.37_T,ERR2674090.18286,84.27,89,13,1,267,355,11,98,2e-16,86.1
Fonsecaea_pedrosoi_CBS271.37_T,ERR2674090.16769,86.08,79,10,1,267,345,11,88,6e-16,84.2
Fonsecaea_pedrosoi_CBS271.37_T,ERR2674090.1447,83.15,89,14,1,267,355,11,98,8e-15,80.5
Fonsecaea_pedrosoi_CBS271.37_T,ERR2674090.8359,91.07,56,5,0,590,645,306,251,1e-13,76.8
Fonsecaea_pedrosoi_CBS271.37_T,ERR2674090.27603,93.62,47,3,0,599,645,297,251,5e-12,71.3
Fonsecaea_pedrosoi_CBS271.37_T,ERR2674090.17608,82.28,79,13,1,267,345,11,88,6e-11,67.6
Fonsecaea_multimorphosa_CBS980.96_T,ERR2674090.42285,88.70,115,12,1,237,351,11,124,1e-32,139
Fonsecaea_multimorphosa_CBS980.96_T,ERR2674090.24739,91.01,89,7,1,237,325,11,98,1e-26,119
Fonsecaea_multimorphosa_CBS980.96_T,ERR2674090.18110,87.64,89,10,1,237,325,11,98,1e-21,102
Fonsecaea_multimorphosa_CBS980.96_T,ERR2674090.46736,86.52,89,11,1,237,325,11,98,7e-20,97.1
Fonsecaea_multimorphosa_CBS980.96_T,ERR2674090.13159,85.39,89,12,1,237,325,11,98,3e-18,91.6
Fonsecaea_multimorphosa_CBS980.96_T,ERR2674090.13158,85.39,89,12,1,237,325,11,98,3e-18,91.6
Fonsecaea_multimorphosa_CBS980.96_T,ERR2674090.46741,84.27,89,13,1,237,325,11,98,1e-16,86.1
Fonsecaea_multimorphosa_CBS980.96_T,ERR2674090.18286,84.27,89,13,1,237,325,11,98,1e-16,86.1
Fonsecaea_multimorphosa_CBS980.96_T,ERR2674090.16769,86.08,79,10,1,237,315,11,88,5e-16,84.2
Fonsecaea_multimorphosa_CBS980.96_T,ERR2674090.1447,83.15,89,14,1,237,325,11,98,7e-15,80.5
Fonsecaea_multimorphosa_CBS980.96_T,ERR2674090.17608,82.28,79,13,1,237,315,11,88,5e-11,67.6
Fonsecaea_minima_CBS125760_T,ERR2674090.42285,88.70,115,12,1,233,347,11,124,1e-32,139
Fonsecaea_minima_CBS125760_T,ERR2674090.24739,91.01,89,7,1,233,321,11,98,1e-26,119
Fonsecaea_minima_CBS125760_T,ERR2674090.18110,87.64,89,10,1,233,321,11,98,1e-21,102
Fonsecaea_minima_CBS125760_T,ERR2674090.46736,86.52,89,11,1,233,321,11,98,7e-20,97.1
Fonsecaea_minima_CBS125760_T,ERR2674090.13159,85.39,89,12,1,233,321,11,98,3e-18,91.6
Fonsecaea_minima_CBS125760_T,ERR2674090.13158,85.39,89,12,1,233,321,11,98,3e-18,91.6
Fonsecaea_minima_CBS125760_T,ERR2674090.46741,84.27,89,13,1,233,321,11,98,1e-16,86.1
Fonsecaea_minima_CBS125760_T,ERR2674090.18286,84.27,89,13,1,233,321,11,98,1e-16,86.1
Fonsecaea_minima_CBS125760_T,ERR2674090.16769,86.08,79,10,1,233,311,11,88,5e-16,84.2
Fonsecaea_minima_CBS125760_T,ERR2674090.1447,83.15,89,14,1,233,321,11,98,7e-15,80.5
Fonsecaea_minima_CBS125760_T,ERR2674090.17608,82.28,79,13,1,233,311,11,88,5e-11,67.6
Fonsecaea_nubica_CBS269.64_T,ERR2674090.42285,88.70,115,12,1,244,358,11,124,1e-32,139
Fonsecaea_nubica_CBS269.64_T,ERR2674090.24739,91.01,89,7,1,244,332,11,98,1e-26,119
Fonsecaea_nubica_CBS269.64_T,ERR2674090.18110,87.64,89,10,1,244,332,11,98,1e-21,102
Fonsecaea_nubica_CBS269.64_T,ERR2674090.46736,86.52,89,11,1,244,332,11,98,7e-20,97.1
Fonsecaea_nubica_CBS269.64_T,ERR2674090.13159,85.39,89,12,1,244,332,11,98,3e-18,91.6
Fonsecaea_nubica_CBS269.64_T,ERR2674090.13158,85.39,89,12,1,244,332,11,98,3e-18,91.6
Fonsecaea_nubica_CBS269.64_T,ERR2674090.46741,84.27,89,13,1,244,332,11,98,2e-16,86.1
Fonsecaea_nubica_CBS269.64_T,ERR2674090.18286,84.27,89,13,1,244,332,11,98,2e-16,86.1
Fonsecaea_nubica_CBS269.64_T,ERR2674090.16769,86.08,79,10,1,244,322,11,88,5e-16,84.2
Fonsecaea_nubica_CBS269.64_T,ERR2674090.1447,83.15,89,14,1,244,332,11,98,7e-15,80.5
Fonsecaea_nubica_CBS269.64_T,ERR2674090.17608,82.28,79,13,1,244,322,11,88,5e-11,67.6
Fonsecaea_erecta_CBS125763_T,ERR2674090.42285,88.70,115,12,1,228,342,11,124,1e-32,139
Fonsecaea_erecta_CBS125763_T,ERR2674090.24739,91.01,89,7,1,228,316,11,98,1e-26,119
Fonsecaea_erecta_CBS125763_T,ERR2674090.18110,87.64,89,10,1,228,316,11,98,1e-21,102
Fonsecaea_erecta_CBS125763_T,ERR2674090.46736,86.52,89,11,1,228,316,11,98,7e-20,97.1
Fonsecaea_erecta_CBS125763_T,ERR2674090.13159,85.39,89,12,1,228,316,11,98,3e-18,91.6
Fonsecaea_erecta_CBS125763_T,ERR2674090.13158,85.39,89,12,1,228,316,11,98,3e-18,91.6
Fonsecaea_erecta_CBS125763_T,ERR2674090.46741,84.27,89,13,1,228,316,11,98,1e-16,86.1
Fonsecaea_erecta_CBS125763_T,ERR2674090.18286,84.27,89,13,1,228,316,11,98,1e-16,86.1
Fonsecaea_erecta_CBS125763_T,ERR2674090.16769,86.08,79,10,1,228,306,11,88,5e-16,84.2
Fonsecaea_erecta_CBS125763_T,ERR2674090.1447,83.15,89,14,1,228,316,11,98,7e-15,80.5
Fonsecaea_erecta_CBS125763_T,ERR2674090.17608,82.28,79,13,1,228,306,11,88,5e-11,67.6
Fonsecaea_pugnacius_CBS139214_T,ERR2674090.42285,88.70,115,12,1,237,351,11,124,1e-32,139
Fonsecaea_pugnacius_CBS139214_T,ERR2674090.24739,91.01,89,7,1,237,325,11,98,1e-26,119
Fonsecaea_pugnacius_CBS139214_T,ERR2674090.18110,87.64,89,10,1,237,325,11,98,1e-21,102
Fonsecaea_pugnacius_CBS139214_T,ERR2674090.46736,86.52,89,11,1,237,325,11,98,7e-20,97.1
Fonsecaea_pugnacius_CBS139214_T,ERR2674090.13159,85.39,89,12,1,237,325,11,98,3e-18,91.6
Fonsecaea_pugnacius_CBS139214_T,ERR2674090.13158,85.39,89,12,1,237,325,11,98,3e-18,91.6
Fonsecaea_pugnacius_CBS139214_T,ERR2674090.46741,84.27,89,13,1,237,325,11,98,1e-16,86.1
Fonsecaea_pugnacius_CBS139214_T,ERR2674090.18286,84.27,89,13,1,237,325,11,98,1e-16,86.1
Fonsecaea_pugnacius_CBS139214_T,ERR2674090.16769,86.08,79,10,1,237,315,11,88,5e-16,84.2
Fonsecaea_pugnacius_CBS139214_T,ERR2674090.1447,83.15,89,14,1,237,325,11,98,7e-15,80.5
Fonsecaea_pugnacius_CBS139214_T,ERR2674090.17608,82.28,79,13,1,237,315,11,88,5e-11,67.6
Cladophialophora_psammophila_CBS,ERR2674090.42285,88.70,115,12,1,243,357,11,124,1e-32,139
Cladophialophora_psammophila_CBS,ERR2674090.24739,91.01,89,7,1,243,331,11,98,1e-26,119
Cladophialophora_psammophila_CBS,ERR2674090.18110,87.64,89,10,1,243,331,11,98,1e-21,102
Cladophialophora_psammophila_CBS,ERR2674090.46736,86.52,89,11,1,243,331,11,98,7e-20,97.1
Cladophialophora_psammophila_CBS,ERR2674090.13159,85.39,89,12,1,243,331,11,98,3e-18,91.6
Cladophialophora_psammophila_CBS,ERR2674090.13158,85.39,89,12,1,243,331,11,98,3e-18,91.6
Cladophialophora_psammophila_CBS,ERR2674090.46741,84.27,89,13,1,243,331,11,98,2e-16,86.1
Cladophialophora_psammophila_CBS,ERR2674090.18286,84.27,89,13,1,243,331,11,98,2e-16,86.1
Cladophialophora_psammophila_CBS,ERR2674090.16769,86.08,79,10,1,243,321,11,88,5e-16,84.2
Cladophialophora_psammophila_CBS,ERR2674090.1447,83.15,89,14,1,243,331,11,98,7e-15,80.5
Cladophialophora_psammophila_CBS,ERR2674090.17608,82.28,79,13,1,243,321,11,88,5e-11,67.6
Cladophialophora_devriesii_CBS,ERR2674090.42285,88.70,115,12,1,239,353,11,124,1e-32,139
Cladophialophora_devriesii_CBS,ERR2674090.24739,91.01,89,7,1,239,327,11,98,1e-26,119
Cladophialophora_devriesii_CBS,ERR2674090.18110,87.64,89,10,1,239,327,11,98,1e-21,102
Cladophialophora_devriesii_CBS,ERR2674090.46736,86.52,89,11,1,239,327,11,98,6e-20,97.1
Cladophialophora_devriesii_CBS,ERR2674090.13159,85.39,89,12,1,239,327,11,98,3e-18,91.6
Cladophialophora_devriesii_CBS,ERR2674090.13158,85.39,89,12,1,239,327,11,98,3e-18,91.6
Cladophialophora_devriesii_CBS,ERR2674090.46741,84.27,89,13,1,239,327,11,98,1e-16,86.1
Cladophialophora_devriesii_CBS,ERR2674090.18286,84.27,89,13,1,239,327,11,98,1e-16,86.1
Cladophialophora_devriesii_CBS,ERR2674090.16769,86.08,79,10,1,239,317,11,88,5e-16,84.2
Cladophialophora_devriesii_CBS,ERR2674090.1447,83.15,89,14,1,239,327,11,98,7e-15,80.5
Cladophialophora_devriesii_CBS,ERR2674090.17608,82.28,79,13,1,239,317,11,88,5e-11,67.6
Cladophialophora_immunda_CBS834.96,ERR2674090.42285,88.70,115,12,1,241,355,11,124,1e-32,139
Cladophialophora_immunda_CBS834.96,ERR2674090.24739,91.01,89,7,1,241,329,11,98,1e-26,119
Cladophialophora_immunda_CBS834.96,ERR2674090.18110,87.64,89,10,1,241,329,11,98,1e-21,102
Cladophialophora_immunda_CBS834.96,ERR2674090.46736,86.52,89,11,1,241,329,11,98,7e-20,97.1
Cladophialophora_immunda_CBS834.96,ERR2674090.13159,85.39,89,12,1,241,329,11,98,3e-18,91.6
Cladophialophora_immunda_CBS834.96,ERR2674090.13158,85.39,89,12,1,241,329,11,98,3e-18,91.6
Cladophialophora_immunda_CBS834.96,ERR2674090.46741,84.27,89,13,1,241,329,11,98,1e-16,86.1
Cladophialophora_immunda_CBS834.96,ERR2674090.18286,84.27,89,13,1,241,329,11,98,1e-16,86.1
Cladophialophora_immunda_CBS834.96,ERR2674090.16769,86.08,79,10,1,241,319,11,88,5e-16,84.2
Cladophialophora_immunda_CBS834.96,ERR2674090.1447,83.15,89,14,1,241,329,11,98,7e-15,80.5
Cladophialophora_immunda_CBS834.96,ERR2674090.17608,82.28,79,13,1,241,319,11,88,5e-11,67.6
Cladophialophora_arxii_CBS306.94_T,ERR2674090.42285,88.70,115,12,1,243,357,11,124,1e-32,139
Cladophialophora_arxii_CBS306.94_T,ERR2674090.24739,91.01,89,7,1,243,331,11,98,1e-26,119
Cladophialophora_arxii_CBS306.94_T,ERR2674090.18110,87.64,89,10,1,243,331,11,98,1e-21,102
Cladophialophora_arxii_CBS306.94_T,ERR2674090.46736,86.52,89,11,1,243,331,11,98,7e-20,97.1
Cladophialophora_arxii_CBS306.94_T,ERR2674090.13159,85.39,89,12,1,243,331,11,98,3e-18,91.6
Cladophialophora_arxii_CBS306.94_T,ERR2674090.13158,85.39,89,12,1,243,331,11,98,3e-18,91.6
Cladophialophora_arxii_CBS306.94_T,ERR2674090.46741,84.27,89,13,1,243,331,11,98,1e-16,86.1
Cladophialophora_arxii_CBS306.94_T,ERR2674090.18286,84.27,89,13,1,243,331,11,98,1e-16,86.1
Cladophialophora_arxii_CBS306.94_T,ERR2674090.16769,86.08,79,10,1,243,321,11,88,5e-16,84.2
Cladophialophora_arxii_CBS306.94_T,ERR2674090.1447,83.15,89,14,1,243,331,11,98,7e-15,80.5
Cladophialophora_arxii_CBS306.94_T,ERR2674090.17608,82.28,79,13,1,243,321,11,88,5e-11,67.6
Cladophialophora_bantiana_CBS173.52,ERR2674090.42285,88.70,115,12,1,237,351,11,124,1e-32,139
Cladophialophora_bantiana_CBS173.52,ERR2674090.24739,91.01,89,7,1,237,325,11,98,1e-26,119
Cladophialophora_bantiana_CBS173.52,ERR2674090.18110,87.64,89,10,1,237,325,11,98,1e-21,102
Cladophialophora_bantiana_CBS173.52,ERR2674090.46736,86.52,89,11,1,237,325,11,98,7e-20,97.1
Cladophialophora_bantiana_CBS173.52,ERR2674090.13159,85.39,89,12,1,237,325,11,98,3e-18,91.6
Cladophialophora_bantiana_CBS173.52,ERR2674090.13158,85.39,89,12,1,237,325,11,98,3e-18,91.6
Cladophialophora_bantiana_CBS173.52,ERR2674090.46741,84.27,89,13,1,237,325,11,98,1e-16,86.1
Cladophialophora_bantiana_CBS173.52,ERR2674090.18286,84.27,89,13,1,237,325,11,98,1e-16,86.1
Cladophialophora_bantiana_CBS173.52,ERR2674090.16769,86.08,79,10,1,237,315,11,88,5e-16,84.2
Cladophialophora_bantiana_CBS173.52,ERR2674090.1447,83.15,89,14,1,237,325,11,98,7e-15,80.5
Cladophialophora_bantiana_CBS173.52,ERR2674090.17608,82.28,79,13,1,237,315,11,88,5e-11,67.6
Cladophialophora_emmonsii_CBS102594,ERR2674090.42285,88.70,115,12,1,228,342,11,124,1e-32,139
Cladophialophora_emmonsii_CBS102594,ERR2674090.24739,91.01,89,7,1,228,316,11,98,1e-26,119
Cladophialophora_emmonsii_CBS102594,ERR2674090.18110,87.64,89,10,1,228,316,11,98,1e-21,102
Cladophialophora_emmonsii_CBS102594,ERR2674090.46736,86.52,89,11,1,228,316,11,98,7e-20,97.1
Cladophialophora_emmonsii_CBS102594,ERR2674090.13159,85.39,89,12,1,228,316,11,98,3e-18,91.6
Cladophialophora_emmonsii_CBS102594,ERR2674090.13158,85.39,89,12,1,228,316,11,98,3e-18,91.6
Cladophialophora_emmonsii_CBS102594,ERR2674090.46741,84.27,89,13,1,228,316,11,98,1e-16,86.1
Cladophialophora_emmonsii_CBS102594,ERR2674090.18286,84.27,89,13,1,228,316,11,98,1e-16,86.1
Cladophialophora_emmonsii_CBS102594,ERR2674090.16769,86.08,79,10,1,228,306,11,88,5e-16,84.2
Cladophialophora_emmonsii_CBS102594,ERR2674090.1447,83.15,89,14,1,228,316,11,98,7e-15,80.5
Cladophialophora_emmonsii_CBS102594,ERR2674090.17608,82.28,79,13,1,228,306,11,88,5e-11,67.6
Cladophialophora_minourae_CBS556.83,ERR2674090.42285,90.00,100,8,2,236,335,11,108,2e-29,128
Cladophialophora_minourae_CBS556.83,ERR2674090.24739,92.13,89,6,1,236,324,11,98,3e-28,124
Cladophialophora_minourae_CBS556.83,ERR2674090.46736,87.64,89,10,1,236,324,11,98,1e-21,102
Cladophialophora_minourae_CBS556.83,ERR2674090.18110,87.64,89,10,1,236,324,11,98,1e-21,102
Cladophialophora_minourae_CBS556.83,ERR2674090.13159,86.52,89,11,1,236,324,11,98,7e-20,97.1
Cladophialophora_minourae_CBS556.83,ERR2674090.13158,86.52,89,11,1,236,324,11,98,7e-20,97.1
Cladophialophora_minourae_CBS556.83,ERR2674090.46741,85.39,89,12,1,236,324,11,98,3e-18,91.6
Cladophialophora_minourae_CBS556.83,ERR2674090.18286,85.39,89,12,1,236,324,11,98,3e-18,91.6
Cladophialophora_minourae_CBS556.83,ERR2674090.1447,84.27,89,13,1,236,324,11,98,1e-16,86.1
Cladophialophora_minourae_CBS556.83,ERR2674090.16769,86.08,79,10,1,236,314,11,88,5e-16,84.2
Cladophialophora_minourae_CBS556.83,ERR2674090.17608,82.28,79,13,1,236,314,11,88,5e-11,67.6
Cladophialophora_australiensis_CBS112793,ERR2674090.42285,88.89,117,12,1,238,354,11,126,2e-33,143
Cladophialophora_australiensis_CBS112793,ERR2674090.24739,91.01,89,7,1,238,326,11,98,4e-26,119
Cladophialophora_australiensis_CBS112793,ERR2674090.18110,87.64,89,10,1,238,326,11,98,4e-21,102
Cladophialophora_australiensis_CBS112793,ERR2674090.46736,86.52,89,11,1,238,326,11,98,2e-19,97.1
Cladophialophora_australiensis_CBS112793,ERR2674090.13159,85.39,89,12,1,238,326,11,98,9e-18,91.6
Cladophialophora_australiensis_CBS112793,ERR2674090.13158,85.39,89,12,1,238,326,11,98,9e-18,91.6
Cladophialophora_australiensis_CBS112793,ERR2674090.46741,84.27,89,13,1,238,326,11,98,4e-16,86.1
Cladophialophora_australiensis_CBS112793,ERR2674090.18286,84.27,89,13,1,238,326,11,98,4e-16,86.1
Cladophialophora_australiensis_CBS112793,ERR2674090.16769,86.08,79,10,1,238,316,11,88,1e-15,84.2
Cladophialophora_australiensis_CBS112793,ERR2674090.1447,83.15,89,14,1,238,326,11,98,2e-14,80.5
Cladophialophora_australiensis_CBS112793,ERR2674090.8359,91.23,57,5,0,551,607,306,250,7e-14,78.7
Cladophialophora_australiensis_CBS112793,ERR2674090.27603,93.62,47,3,0,560,606,297,251,1e-11,71.3
Cladophialophora_australiensis_CBS112793,ERR2674090.17608,82.28,79,13,1,238,316,11,88,1e-10,67.6
Cladophialophora_potulentorum_CBS112222,ERR2674090.42285,88.03,117,13,1,237,353,11,126,1e-31,137
Cladophialophora_potulentorum_CBS112222,ERR2674090.24739,91.01,89,7,1,237,325,11,98,4e-26,119
Cladophialophora_potulentorum_CBS112222,ERR2674090.18110,87.64,89,10,1,237,325,11,98,4e-21,102
Cladophialophora_potulentorum_CBS112222,ERR2674090.46736,86.52,89,11,1,237,325,11,98,2e-19,97.1
Cladophialophora_potulentorum_CBS112222,ERR2674090.13159,85.39,89,12,1,237,325,11,98,9e-18,91.6
Cladophialophora_potulentorum_CBS112222,ERR2674090.13158,85.39,89,12,1,237,325,11,98,9e-18,91.6
Cladophialophora_potulentorum_CBS112222,ERR2674090.46741,84.27,89,13,1,237,325,11,98,4e-16,86.1
Cladophialophora_potulentorum_CBS112222,ERR2674090.18286,84.27,89,13,1,237,325,11,98,4e-16,86.1
Cladophialophora_potulentorum_CBS112222,ERR2674090.16769,86.08,79,10,1,237,315,11,88,1e-15,84.2
Cladophialophora_potulentorum_CBS112222,ERR2674090.1447,83.15,89,14,1,237,325,11,98,2e-14,80.5
Cladophialophora_potulentorum_CBS112222,ERR2674090.8359,91.23,57,5,0,553,609,306,250,7e-14,78.7
Cladophialophora_potulentorum_CBS112222,ERR2674090.27603,93.62,47,3,0,562,608,297,251,1e-11,71.3
Cladophialophora_potulentorum_CBS112222,ERR2674090.17608,82.28,79,13,1,237,315,11,88,1e-10,67.6
Cladophialophora_matsushimae_CMRP1198,ERR2674090.42285,87.83,115,13,1,241,355,11,124,4e-31,134
Cladophialophora_matsushimae_CMRP1198,ERR2674090.24739,81.94,144,24,2,241,384,11,152,3e-27,121
Cladophialophora_matsushimae_CMRP1198,ERR2674090.18110,87.64,89,10,1,241,329,11,98,1e-21,102
Cladophialophora_matsushimae_CMRP1198,ERR2674090.46736,86.52,89,11,1,241,329,11,98,6e-20,97.1
Cladophialophora_matsushimae_CMRP1198,ERR2674090.13159,85.39,89,12,1,241,329,11,98,3e-18,91.6
Cladophialophora_matsushimae_CMRP1198,ERR2674090.13158,85.39,89,12,1,241,329,11,98,3e-18,91.6
Cladophialophora_matsushimae_CMRP1198,ERR2674090.46741,84.27,89,13,1,241,329,11,98,1e-16,86.1
Cladophialophora_matsushimae_CMRP1198,ERR2674090.18286,84.27,89,13,1,241,329,11,98,1e-16,86.1
Cladophialophora_matsushimae_CMRP1198,ERR2674090.16769,86.08,79,10,1,241,319,11,88,5e-16,84.2
Cladophialophora_matsushimae_CMRP1198,ERR2674090.1447,83.15,89,14,1,241,329,11,98,6e-15,80.5
Cladophialophora_matsushimae_CMRP1198,ERR2674090.17608,82.28,79,13,1,241,319,11,88,5e-11,67.6
Cladophialophora_mycetomatis_CBS122637,ERR2674090.42285,87.83,115,13,1,226,340,11,124,5e-31,134
Cladophialophora_mycetomatis_CBS122637,ERR2674090.24739,91.01,89,7,1,226,314,11,98,1e-26,119
Cladophialophora_mycetomatis_CBS122637,ERR2674090.18110,87.64,89,10,1,226,314,11,98,1e-21,102
Cladophialophora_mycetomatis_CBS122637,ERR2674090.46736,86.52,89,11,1,226,314,11,98,7e-20,97.1
Cladophialophora_mycetomatis_CBS122637,ERR2674090.13159,85.39,89,12,1,226,314,11,98,3e-18,91.6
Cladophialophora_mycetomatis_CBS122637,ERR2674090.13158,85.39,89,12,1,226,314,11,98,3e-18,91.6
Cladophialophora_mycetomatis_CBS122637,ERR2674090.46741,84.27,89,13,1,226,314,11,98,1e-16,86.1
Cladophialophora_mycetomatis_CBS122637,ERR2674090.18286,84.27,89,13,1,226,314,11,98,1e-16,86.1
Cladophialophora_mycetomatis_CBS122637,ERR2674090.16769,86.08,79,10,1,226,304,11,88,5e-16,84.2
Cladophialophora_mycetomatis_CBS122637,ERR2674090.1447,83.15,89,14,1,226,314,11,98,7e-15,80.5
Cladophialophora_mycetomatis_CBS122637,ERR2674090.17608,82.28,79,13,1,226,304,11,88,5e-11,67.6
Cladophialophora_chaetospira_CBS127573,ERR2674090.42285,88.70,115,12,1,632,746,11,124,2e-32,139
Cladophialophora_chaetospira_CBS127573,ERR2674090.24739,91.01,89,7,1,632,720,11,98,2e-26,119
Cladophialophora_chaetospira_CBS127573,ERR2674090.18110,87.64,89,10,1,632,720,11,98,3e-21,102
Cladophialophora_chaetospira_CBS127573,ERR2674090.46736,86.52,89,11,1,632,720,11,98,1e-19,97.1
Cladophialophora_chaetospira_CBS127573,ERR2674090.13159,85.39,89,12,1,632,720,11,98,5e-18,91.6
Cladophialophora_chaetospira_CBS127573,ERR2674090.13158,85.39,89,12,1,632,720,11,98,5e-18,91.6
Cladophialophora_chaetospira_CBS127573,ERR2674090.46741,84.27,89,13,1,632,720,11,98,3e-16,86.1
Cladophialophora_chaetospira_CBS127573,ERR2674090.18286,84.27,89,13,1,632,720,11,98,3e-16,86.1
Cladophialophora_chaetospira_CBS127573,ERR2674090.16769,86.08,79,10,1,632,710,11,88,9e-16,84.2
Cladophialophora_chaetospira_CBS127573,ERR2674090.1447,83.15,89,14,1,632,720,11,98,1e-14,80.5
Cladophialophora_chaetospira_CBS127573,ERR2674090.17608,82.28,79,13,1,632,710,11,88,9e-11,67.6
Cladophialophora_boppii_CBS126.86_T,ERR2674090.42285,88.70,115,12,1,234,348,11,124,1e-32,139
Cladophialophora_boppii_CBS126.86_T,ERR2674090.24739,91.01,89,7,1,234,322,11,98,1e-26,119
Cladophialophora_boppii_CBS126.86_T,ERR2674090.18110,87.64,89,10,1,234,322,11,98,1e-21,102
Cladophialophora_boppii_CBS126.86_T,ERR2674090.46736,86.52,89,11,1,234,322,11,98,7e-20,97.1
Cladophialophora_boppii_CBS126.86_T,ERR2674090.13159,85.39,89,12,1,234,322,11,98,3e-18,91.6
Cladophialophora_boppii_CBS126.86_T,ERR2674090.13158,85.39,89,12,1,234,322,11,98,3e-18,91.6
Cladophialophora_boppii_CBS126.86_T,ERR2674090.46741,84.27,89,13,1,234,322,11,98,1e-16,86.1
Cladophialophora_boppii_CBS126.86_T,ERR2674090.18286,84.27,89,13,1,234,322,11,98,1e-16,86.1
Cladophialophora_boppii_CBS126.86_T,ERR2674090.16769,86.08,79,10,1,234,312,11,88,5e-16,84.2
Cladophialophora_boppii_CBS126.86_T,ERR2674090.1447,83.15,89,14,1,234,322,11,98,7e-15,80.5
Cladophialophora_boppii_CBS126.86_T,ERR2674090.17608,82.28,79,13,1,234,312,11,88,5e-11,67.6
Cladophialophora_abundans_CBS126736,ERR2674090.42285,87.83,115,13,1,171,285,11,124,4e-31,134
Cladophialophora_abundans_CBS126736,ERR2674090.24739,92.13,89,6,1,171,259,11,98,3e-28,124
Cladophialophora_abundans_CBS126736,ERR2674090.46736,87.64,89,10,1,171,259,11,98,1e-21,102
Cladophialophora_abundans_CBS126736,ERR2674090.18110,87.64,89,10,1,171,259,11,98,1e-21,102
Cladophialophora_abundans_CBS126736,ERR2674090.13159,86.52,89,11,1,171,259,11,98,6e-20,97.1
Cladophialophora_abundans_CBS126736,ERR2674090.13158,86.52,89,11,1,171,259,11,98,6e-20,97.1
Cladophialophora_abundans_CBS126736,ERR2674090.46741,85.39,89,12,1,171,259,11,98,3e-18,91.6
Cladophialophora_abundans_CBS126736,ERR2674090.18286,85.39,89,12,1,171,259,11,98,3e-18,91.6
Cladophialophora_abundans_CBS126736,ERR2674090.1447,84.27,89,13,1,171,259,11,98,1e-16,86.1
Cladophialophora_abundans_CBS126736,ERR2674090.16769,86.08,79,10,1,171,249,11,88,5e-16,84.2
Cladophialophora_abundans_CBS126736,ERR2674090.17608,82.28,79,13,1,171,249,11,88,5e-11,67.6
Capronia_semi-immersa_CBS102234,ERR2674090.42285,90.91,99,8,1,233,331,11,108,2e-30,132
Capronia_semi-immersa_CBS102234,ERR2674090.24739,92.13,89,6,1,233,321,11,98,3e-28,124
Capronia_semi-immersa_CBS102234,ERR2674090.46736,87.64,89,10,1,233,321,11,98,1e-21,102
Capronia_semi-immersa_CBS102234,ERR2674090.18110,87.64,89,10,1,233,321,11,98,1e-21,102
Capronia_semi-immersa_CBS102234,ERR2674090.13159,86.52,89,11,1,233,321,11,98,7e-20,97.1
Capronia_semi-immersa_CBS102234,ERR2674090.13158,86.52,89,11,1,233,321,11,98,7e-20,97.1
Capronia_semi-immersa_CBS102234,ERR2674090.46741,85.39,89,12,1,233,321,11,98,3e-18,91.6
Capronia_semi-immersa_CBS102234,ERR2674090.18286,85.39,89,12,1,233,321,11,98,3e-18,91.6
Capronia_semi-immersa_CBS102234,ERR2674090.1447,84.27,89,13,1,233,321,11,98,1e-16,86.1
Capronia_semi-immersa_CBS102234,ERR2674090.16769,86.08,79,10,1,233,311,11,88,5e-16,84.2
Capronia_semi-immersa_CBS102234,ERR2674090.17608,82.28,79,13,1,233,311,11,88,5e-11,67.6
Phialophora_americana_CBS400.67,ERR2674090.42285,90.91,99,8,1,235,333,11,108,5e-30,132
Phialophora_americana_CBS400.67,ERR2674090.24739,92.13,89,6,1,235,323,11,98,8e-28,124
Phialophora_americana_CBS400.67,ERR2674090.46736,87.64,89,10,1,235,323,11,98,4e-21,102
Phialophora_americana_CBS400.67,ERR2674090.46736,93.62,47,3,0,554,600,297,251,1e-11,71.3
Phialophora_americana_CBS400.67,ERR2674090.18110,87.64,89,10,1,235,323,11,98,4e-21,102
Phialophora_americana_CBS400.67,ERR2674090.25343,92.86,70,4,1,531,600,319,251,1e-20,100
Phialophora_americana_CBS400.67,ERR2674090.13159,86.52,89,11,1,235,323,11,98,2e-19,97.1
Phialophora_americana_CBS400.67,ERR2674090.13158,86.52,89,11,1,235,323,11,98,2e-19,97.1
Phialophora_americana_CBS400.67,ERR2674090.43421,91.30,69,6,0,532,600,319,251,7e-19,95.3
Phialophora_americana_CBS400.67,ERR2674090.46741,85.39,89,12,1,235,323,11,98,8e-18,91.6
Phialophora_americana_CBS400.67,ERR2674090.18286,85.39,89,12,1,235,323,11,98,8e-18,91.6
Phialophora_americana_CBS400.67,ERR2674090.16568,88.73,71,7,1,531,601,319,250,4e-16,86.1
Phialophora_americana_CBS400.67,ERR2674090.1447,84.27,89,13,1,235,323,11,98,4e-16,86.1
Phialophora_americana_CBS400.67,ERR2674090.16769,86.08,79,10,1,235,313,11,88,1e-15,84.2
Phialophora_americana_CBS400.67,ERR2674090.17608,82.28,79,13,1,235,313,11,88,1e-10,67.6
Phialophora_americana_CBS400.67,ERR2674090.25595,88.68,53,6,0,554,606,297,245,5e-10,65.8
Phialophora_americana_CBS400.67,ERR2674090.10847,84.13,63,8,2,545,606,306,245,2e-08,60.2
Phialophora_verrucosa_CBS140325_T,ERR2674090.42285,90.91,99,8,1,239,337,11,108,2e-30,132
Phialophora_verrucosa_CBS140325_T,ERR2674090.24739,92.13,89,6,1,239,327,11,98,3e-28,124
Phialophora_verrucosa_CBS140325_T,ERR2674090.46736,87.64,89,10,1,239,327,11,98,2e-21,102
Phialophora_verrucosa_CBS140325_T,ERR2674090.18110,87.64,89,10,1,239,327,11,98,2e-21,102
Phialophora_verrucosa_CBS140325_T,ERR2674090.13159,86.52,89,11,1,239,327,11,98,7e-20,97.1
Phialophora_verrucosa_CBS140325_T,ERR2674090.13158,86.52,89,11,1,239,327,11,98,7e-20,97.1
Phialophora_verrucosa_CBS140325_T,ERR2674090.46741,85.39,89,12,1,239,327,11,98,3e-18,91.6
Phialophora_verrucosa_CBS140325_T,ERR2674090.18286,85.39,89,12,1,239,327,11,98,3e-18,91.6
Phialophora_verrucosa_CBS140325_T,ERR2674090.1447,84.27,89,13,1,239,327,11,98,2e-16,86.1
Phialophora_verrucosa_CBS140325_T,ERR2674090.16769,86.08,79,10,1,239,317,11,88,6e-16,84.2
Phialophora_verrucosa_CBS140325_T,ERR2674090.17608,82.28,79,13,1,239,317,11,88,6e-11,67.6
Cladophialophora_samoensis_CBS259.83_T,ERR2674090.42285,89.57,115,11,1,239,353,11,124,2e-34,145
Cladophialophora_samoensis_CBS259.83_T,ERR2674090.24739,91.01,89,7,1,239,327,11,98,1e-26,119
Cladophialophora_samoensis_CBS259.83_T,ERR2674090.18110,87.64,89,10,1,239,327,11,98,1e-21,102
Cladophialophora_samoensis_CBS259.83_T,ERR2674090.46736,86.52,89,11,1,239,327,11,98,7e-20,97.1
Cladophialophora_samoensis_CBS259.83_T,ERR2674090.13159,85.39,89,12,1,239,327,11,98,3e-18,91.6
Cladophialophora_samoensis_CBS259.83_T,ERR2674090.13158,85.39,89,12,1,239,327,11,98,3e-18,91.6
Cladophialophora_samoensis_CBS259.83_T,ERR2674090.46741,84.27,89,13,1,239,327,11,98,1e-16,86.1
Cladophialophora_samoensis_CBS259.83_T,ERR2674090.18286,84.27,89,13,1,239,327,11,98,1e-16,86.1
Cladophialophora_samoensis_CBS259.83_T,ERR2674090.16769,86.08,79,10,1,239,317,11,88,5e-16,84.2
Cladophialophora_samoensis_CBS259.83_T,ERR2674090.1447,83.15,89,14,1,239,327,11,98,7e-15,80.5
Cladophialophora_samoensis_CBS259.83_T,ERR2674090.17608,82.28,79,13,1,239,317,11,88,5e-11,67.6
Cladophialophora_carrionii_CBS260.83,ERR2674090.42285,91.92,99,7,1,255,353,11,108,4e-32,137
Cladophialophora_carrionii_CBS260.83,ERR2674090.24739,91.01,89,7,1,255,343,11,98,2e-26,119
Cladophialophora_carrionii_CBS260.83,ERR2674090.18110,87.64,89,10,1,255,343,11,98,2e-21,102
Cladophialophora_carrionii_CBS260.83,ERR2674090.46736,86.52,89,11,1,255,343,11,98,7e-20,97.1
Cladophialophora_carrionii_CBS260.83,ERR2674090.13159,85.39,89,12,1,255,343,11,98,3e-18,91.6
Cladophialophora_carrionii_CBS260.83,ERR2674090.13158,85.39,89,12,1,255,343,11,98,3e-18,91.6
Cladophialophora_carrionii_CBS260.83,ERR2674090.46741,84.27,89,13,1,255,343,11,98,2e-16,86.1
Cladophialophora_carrionii_CBS260.83,ERR2674090.18286,84.27,89,13,1,255,343,11,98,2e-16,86.1
Cladophialophora_carrionii_CBS260.83,ERR2674090.16769,86.08,79,10,1,255,333,11,88,6e-16,84.2
Cladophialophora_carrionii_CBS260.83,ERR2674090.1447,83.15,89,14,1,255,343,11,98,8e-15,80.5
Cladophialophora_carrionii_CBS260.83,ERR2674090.17608,82.28,79,13,1,255,333,11,88,6e-11,67.6
Exophiala_palmae_UPCB86822_T,ERR2674090.42285,88.70,115,12,1,198,312,11,124,1e-32,139
Exophiala_palmae_UPCB86822_T,ERR2674090.24739,91.01,89,7,1,198,286,11,98,1e-26,119
Exophiala_palmae_UPCB86822_T,ERR2674090.18110,87.64,89,10,1,198,286,11,98,1e-21,102
Exophiala_palmae_UPCB86822_T,ERR2674090.46736,86.52,89,11,1,198,286,11,98,6e-20,97.1
Exophiala_palmae_UPCB86822_T,ERR2674090.13159,85.39,89,12,1,198,286,11,98,3e-18,91.6
Exophiala_palmae_UPCB86822_T,ERR2674090.13158,85.39,89,12,1,198,286,11,98,3e-18,91.6
Exophiala_palmae_UPCB86822_T,ERR2674090.46741,84.27,89,13,1,198,286,11,98,1e-16,86.1
Exophiala_palmae_UPCB86822_T,ERR2674090.18286,84.27,89,13,1,198,286,11,98,1e-16,86.1
Exophiala_palmae_UPCB86822_T,ERR2674090.16769,86.08,79,10,1,198,276,11,88,5e-16,84.2
Exophiala_palmae_UPCB86822_T,ERR2674090.1447,83.15,89,14,1,198,286,11,98,6e-15,80.5
Exophiala_palmae_UPCB86822_T,ERR2674090.17608,82.28,79,13,1,198,276,11,88,5e-11,67.6
Cladophialophora_yegresii_CBS114405_T,ERR2674090.42285,91.92,99,7,1,240,338,11,108,4e-32,137
Cladophialophora_yegresii_CBS114405_T,ERR2674090.24739,91.01,89,7,1,240,328,11,98,1e-26,119
Cladophialophora_yegresii_CBS114405_T,ERR2674090.18110,87.64,89,10,1,240,328,11,98,1e-21,102
Cladophialophora_yegresii_CBS114405_T,ERR2674090.46736,86.52,89,11,1,240,328,11,98,7e-20,97.1
Cladophialophora_yegresii_CBS114405_T,ERR2674090.13159,85.39,89,12,1,240,328,11,98,3e-18,91.6
Cladophialophora_yegresii_CBS114405_T,ERR2674090.13158,85.39,89,12,1,240,328,11,98,3e-18,91.6
Cladophialophora_yegresii_CBS114405_T,ERR2674090.46741,84.27,89,13,1,240,328,11,98,1e-16,86.1
Cladophialophora_yegresii_CBS114405_T,ERR2674090.18286,84.27,89,13,1,240,328,11,98,1e-16,86.1
Cladophialophora_yegresii_CBS114405_T,ERR2674090.16769,86.08,79,10,1,240,318,11,88,5e-16,84.2
Cladophialophora_yegresii_CBS114405_T,ERR2674090.1447,83.15,89,14,1,240,328,11,98,7e-15,80.5
Cladophialophora_yegresii_CBS114405_T,ERR2674090.17608,82.28,79,13,1,240,318,11,88,5e-11,67.6
Knufia_epidermidis_CBS120353_T,ERR2674090.42285,87.83,115,13,1,238,352,11,124,5e-31,134
Knufia_epidermidis_CBS120353_T,ERR2674090.24739,91.01,89,7,1,238,326,11,98,1e-26,119
Knufia_epidermidis_CBS120353_T,ERR2674090.18110,87.64,89,10,1,238,326,11,98,1e-21,102
Knufia_epidermidis_CBS120353_T,ERR2674090.46736,86.52,89,11,1,238,326,11,98,7e-20,97.1
Knufia_epidermidis_CBS120353_T,ERR2674090.13159,85.39,89,12,1,238,326,11,98,3e-18,91.6
Knufia_epidermidis_CBS120353_T,ERR2674090.13158,85.39,89,12,1,238,326,11,98,3e-18,91.6
Knufia_epidermidis_CBS120353_T,ERR2674090.46741,84.27,89,13,1,238,326,11,98,1e-16,86.1
Knufia_epidermidis_CBS120353_T,ERR2674090.18286,84.27,89,13,1,238,326,11,98,1e-16,86.1
Knufia_epidermidis_CBS120353_T,ERR2674090.1447,83.15,89,14,1,238,326,11,98,7e-15,80.5
Knufia_epidermidis_CBS120353_T,ERR2674090.16769,84.81,79,11,1,238,316,11,88,2e-14,78.7
Knufia_epidermidis_CBS120353_T,ERR2674090.17608,81.01,79,14,1,238,316,11,88,2e-09,62.1
Arthrocladium_fulminans_CBS136243_T,ERR2674090.42285,86.21,116,13,3,233,347,11,124,1e-27,122
Arthrocladium_fulminans_CBS136243_T,ERR2674090.24739,86.21,116,13,3,233,347,11,124,1e-27,122
Arthrocladium_fulminans_CBS136243_T,ERR2674090.18110,87.64,89,10,1,233,321,11,98,1e-21,102
Arthrocladium_fulminans_CBS136243_T,ERR2674090.46736,86.52,89,11,1,233,321,11,98,7e-20,97.1
Arthrocladium_fulminans_CBS136243_T,ERR2674090.13159,85.39,89,12,1,233,321,11,98,3e-18,91.6
Arthrocladium_fulminans_CBS136243_T,ERR2674090.13158,85.39,89,12,1,233,321,11,98,3e-18,91.6
Arthrocladium_fulminans_CBS136243_T,ERR2674090.46741,84.27,89,13,1,233,321,11,98,1e-16,86.1
Arthrocladium_fulminans_CBS136243_T,ERR2674090.18286,84.27,89,13,1,233,321,11,98,1e-16,86.1
Arthrocladium_fulminans_CBS136243_T,ERR2674090.1447,83.15,89,14,1,233,321,11,98,7e-15,80.5
Arthrocladium_fulminans_CBS136243_T,ERR2674090.16769,84.81,79,11,1,233,311,11,88,2e-14,78.7
Arthrocladium_fulminans_CBS136243_T,ERR2674090.17608,81.01,79,14,1,233,311,11,88,2e-09,62.1
Anthopsis_deltoidea_CBS263.77_T,ERR2674090.42285,86.84,114,14,1,242,354,11,124,8e-29,126
Anthopsis_deltoidea_CBS263.77_T,ERR2674090.24739,92.05,88,6,1,242,328,11,98,1e-27,122
Anthopsis_deltoidea_CBS263.77_T,ERR2674090.46736,87.50,88,10,1,242,328,11,98,5e-21,100
Anthopsis_deltoidea_CBS263.77_T,ERR2674090.18110,87.50,88,10,1,242,328,11,98,5e-21,100
Anthopsis_deltoidea_CBS263.77_T,ERR2674090.13159,86.36,88,11,1,242,328,11,98,2e-19,95.3
Anthopsis_deltoidea_CBS263.77_T,ERR2674090.13158,86.36,88,11,1,242,328,11,98,2e-19,95.3
Anthopsis_deltoidea_CBS263.77_T,ERR2674090.46741,85.23,88,12,1,242,328,11,98,1e-17,89.8
Anthopsis_deltoidea_CBS263.77_T,ERR2674090.18286,85.23,88,12,1,242,328,11,98,1e-17,89.8
Anthopsis_deltoidea_CBS263.77_T,ERR2674090.16769,87.18,78,9,1,242,318,11,88,4e-17,87.9
Anthopsis_deltoidea_CBS263.77_T,ERR2674090.1447,84.09,88,13,1,242,328,11,98,5e-16,84.2
Anthopsis_deltoidea_CBS263.77_T,ERR2674090.17608,83.33,78,12,1,242,318,11,88,4e-12,71.3
Cyphellophora_laciniata_CBS190.61_T,ERR2674090.42285,88.60,114,12,1,327,439,11,124,5e-32,137
Cyphellophora_laciniata_CBS190.61_T,ERR2674090.24739,92.05,88,6,1,327,413,11,98,1e-27,122
Cyphellophora_laciniata_CBS190.61_T,ERR2674090.46736,87.50,88,10,1,327,413,11,98,7e-21,100
Cyphellophora_laciniata_CBS190.61_T,ERR2674090.46736,93.62,47,3,0,649,695,297,251,6e-12,71.3
Cyphellophora_laciniata_CBS190.61_T,ERR2674090.25343,92.86,70,3,2,626,695,318,251,7e-21,100
Cyphellophora_laciniata_CBS190.61_T,ERR2674090.18110,87.50,88,10,1,327,413,11,98,7e-21,100
Cyphellophora_laciniata_CBS190.61_T,ERR2674090.13159,86.36,88,11,1,327,413,11,98,3e-19,95.3
Cyphellophora_laciniata_CBS190.61_T,ERR2674090.13158,86.36,88,11,1,327,413,11,98,3e-19,95.3
Cyphellophora_laciniata_CBS190.61_T,ERR2674090.46741,85.23,88,12,1,327,413,11,98,2e-17,89.8
Cyphellophora_laciniata_CBS190.61_T,ERR2674090.18286,85.23,88,12,1,327,413,11,98,2e-17,89.8
Cyphellophora_laciniata_CBS190.61_T,ERR2674090.43421,94.64,56,3,0,640,695,306,251,5e-17,87.9
Cyphellophora_laciniata_CBS190.61_T,ERR2674090.16769,87.18,78,9,1,327,403,11,88,5e-17,87.9
Cyphellophora_laciniata_CBS190.61_T,ERR2674090.8359,92.98,57,4,0,640,696,306,250,7e-16,84.2
Cyphellophora_laciniata_CBS190.61_T,ERR2674090.1447,84.09,88,13,1,327,413,11,98,7e-16,84.2
Cyphellophora_laciniata_CBS190.61_T,ERR2674090.16568,91.53,59,5,0,638,696,308,250,3e-15,82.4
Cyphellophora_laciniata_CBS190.61_T,ERR2674090.27603,95.74,47,2,0,649,695,297,251,1e-13,76.8
Cyphellophora_laciniata_CBS190.61_T,ERR2674090.17608,83.33,78,12,1,327,403,11,88,6e-12,71.3
Cyphellophora_suttonii_CBS449.91,ERR2674090.42285,88.60,114,12,1,230,342,11,124,4e-32,137
Cyphellophora_suttonii_CBS449.91,ERR2674090.24739,92.05,88,6,1,230,316,11,98,1e-27,122
Cyphellophora_suttonii_CBS449.91,ERR2674090.46736,87.50,88,10,1,230,316,11,98,5e-21,100
Cyphellophora_suttonii_CBS449.91,ERR2674090.18110,87.50,88,10,1,230,316,11,98,5e-21,100
Cyphellophora_suttonii_CBS449.91,ERR2674090.13159,86.36,88,11,1,230,316,11,98,2e-19,95.3
Cyphellophora_suttonii_CBS449.91,ERR2674090.13158,86.36,88,11,1,230,316,11,98,2e-19,95.3
Cyphellophora_suttonii_CBS449.91,ERR2674090.46741,85.23,88,12,1,230,316,11,98,1e-17,89.8
Cyphellophora_suttonii_CBS449.91,ERR2674090.18286,85.23,88,12,1,230,316,11,98,1e-17,89.8
Cyphellophora_suttonii_CBS449.91,ERR2674090.16769,87.18,78,9,1,230,306,11,88,4e-17,87.9
Cyphellophora_suttonii_CBS449.91,ERR2674090.1447,84.09,88,13,1,230,316,11,98,5e-16,84.2
Cyphellophora_suttonii_CBS449.91,ERR2674090.17608,83.33,78,12,1,230,306,11,88,4e-12,71.3
Cyphellophora_pauciseptata_CBS284.85_T,ERR2674090.42285,88.60,114,12,1,241,353,11,124,4e-32,137
Cyphellophora_pauciseptata_CBS284.85_T,ERR2674090.24739,92.05,88,6,1,241,327,11,98,1e-27,122
Cyphellophora_pauciseptata_CBS284.85_T,ERR2674090.46736,87.50,88,10,1,241,327,11,98,5e-21,100
Cyphellophora_pauciseptata_CBS284.85_T,ERR2674090.18110,87.50,88,10,1,241,327,11,98,5e-21,100
Cyphellophora_pauciseptata_CBS284.85_T,ERR2674090.13159,86.36,88,11,1,241,327,11,98,2e-19,95.3
Cyphellophora_pauciseptata_CBS284.85_T,ERR2674090.13158,86.36,88,11,1,241,327,11,98,2e-19,95.3
Cyphellophora_pauciseptata_CBS284.85_T,ERR2674090.46741,85.23,88,12,1,241,327,11,98,1e-17,89.8
Cyphellophora_pauciseptata_CBS284.85_T,ERR2674090.18286,85.23,88,12,1,241,327,11,98,1e-17,89.8
Cyphellophora_pauciseptata_CBS284.85_T,ERR2674090.16769,87.18,78,9,1,241,317,11,88,4e-17,87.9
Cyphellophora_pauciseptata_CBS284.85_T,ERR2674090.1447,84.09,88,13,1,241,327,11,98,5e-16,84.2
Cyphellophora_pauciseptata_CBS284.85_T,ERR2674090.17608,83.33,78,12,1,241,317,11,88,4e-12,71.3
Cyphellophora_pluriseptata_CBS286.85_T,ERR2674090.42285,89.38,113,11,1,247,358,12,124,3e-33,141
Cyphellophora_pluriseptata_CBS286.85_T,ERR2674090.24739,91.95,87,6,1,247,332,12,98,4e-27,121
Cyphellophora_pluriseptata_CBS286.85_T,ERR2674090.46736,87.36,87,10,1,247,332,12,98,2e-20,99.0
Cyphellophora_pluriseptata_CBS286.85_T,ERR2674090.18110,87.36,87,10,1,247,332,12,98,2e-20,99.0
Cyphellophora_pluriseptata_CBS286.85_T,ERR2674090.13159,86.21,87,11,1,247,332,12,98,9e-19,93.5
Cyphellophora_pluriseptata_CBS286.85_T,ERR2674090.13158,86.21,87,11,1,247,332,12,98,9e-19,93.5
Cyphellophora_pluriseptata_CBS286.85_T,ERR2674090.46741,85.06,87,12,1,247,332,12,98,4e-17,87.9
Cyphellophora_pluriseptata_CBS286.85_T,ERR2674090.18286,85.06,87,12,1,247,332,12,98,4e-17,87.9
Cyphellophora_pluriseptata_CBS286.85_T,ERR2674090.16769,87.01,77,9,1,247,322,12,88,1e-16,86.1
Cyphellophora_pluriseptata_CBS286.85_T,ERR2674090.17608,83.12,77,12,1,247,322,12,88,1e-11,69.4
Phialophora_europaea_CBS101466,ERR2674090.42285,89.47,114,11,1,236,348,11,124,8e-34,143
Phialophora_europaea_CBS101466,ERR2674090.24739,92.05,88,6,1,236,322,11,98,1e-27,122
Phialophora_europaea_CBS101466,ERR2674090.46736,87.50,88,10,1,236,322,11,98,5e-21,100
Phialophora_europaea_CBS101466,ERR2674090.18110,87.50,88,10,1,236,322,11,98,5e-21,100
Phialophora_europaea_CBS101466,ERR2674090.13159,86.36,88,11,1,236,322,11,98,2e-19,95.3
Phialophora_europaea_CBS101466,ERR2674090.13158,86.36,88,11,1,236,322,11,98,2e-19,95.3
Phialophora_europaea_CBS101466,ERR2674090.46741,85.23,88,12,1,236,322,11,98,1e-17,89.8
Phialophora_europaea_CBS101466,ERR2674090.18286,85.23,88,12,1,236,322,11,98,1e-17,89.8
Phialophora_europaea_CBS101466,ERR2674090.16769,87.18,78,9,1,236,312,11,88,4e-17,87.9
Phialophora_europaea_CBS101466,ERR2674090.1447,84.09,88,13,1,236,322,11,98,5e-16,84.2
Phialophora_europaea_CBS101466,ERR2674090.17608,83.33,78,12,1,236,312,11,88,4e-12,71.3
Phialophora_ambigua_CBS235.93,ERR2674090.42285,89.47,114,11,1,233,345,11,124,8e-34,143
Phialophora_ambigua_CBS235.93,ERR2674090.24739,92.05,88,6,1,233,319,11,98,1e-27,122
Phialophora_ambigua_CBS235.93,ERR2674090.46736,87.50,88,10,1,233,319,11,98,5e-21,100
Phialophora_ambigua_CBS235.93,ERR2674090.18110,87.50,88,10,1,233,319,11,98,5e-21,100
Phialophora_ambigua_CBS235.93,ERR2674090.13159,86.36,88,11,1,233,319,11,98,2e-19,95.3
Phialophora_ambigua_CBS235.93,ERR2674090.13158,86.36,88,11,1,233,319,11,98,2e-19,95.3
Phialophora_ambigua_CBS235.93,ERR2674090.46741,85.23,88,12,1,233,319,11,98,1e-17,89.8
Phialophora_ambigua_CBS235.93,ERR2674090.18286,85.23,88,12,1,233,319,11,98,1e-17,89.8
Phialophora_ambigua_CBS235.93,ERR2674090.16769,87.18,78,9,1,233,309,11,88,4e-17,87.9
Phialophora_ambigua_CBS235.93,ERR2674090.1447,84.09,88,13,1,233,319,11,98,5e-16,84.2
Phialophora_ambigua_CBS235.93,ERR2674090.17608,83.33,78,12,1,233,309,11,88,4e-12,71.3
Cladophialophora_modesta_CBS985.96_T,ERR2674090.42285,87.83,115,13,1,230,344,11,124,6e-31,134
Cladophialophora_modesta_CBS985.96_T,ERR2674090.24739,91.01,89,7,1,230,318,11,98,2e-26,119
Cladophialophora_modesta_CBS985.96_T,ERR2674090.18110,87.64,89,10,1,230,318,11,98,2e-21,102
Cladophialophora_modesta_CBS985.96_T,ERR2674090.46736,86.52,89,11,1,230,318,11,98,8e-20,97.1
Cladophialophora_modesta_CBS985.96_T,ERR2674090.46736,91.49,47,4,0,533,579,297,251,2e-10,65.8
Cladophialophora_modesta_CBS985.96_T,ERR2674090.43421,96.43,56,2,0,524,579,306,251,1e-18,93.5
Cladophialophora_modesta_CBS985.96_T,ERR2674090.25343,91.18,68,5,1,512,579,317,251,4e-18,91.6
Cladophialophora_modesta_CBS985.96_T,ERR2674090.13159,85.39,89,12,1,230,318,11,98,4e-18,91.6
Cladophialophora_modesta_CBS985.96_T,ERR2674090.13158,85.39,89,12,1,230,318,11,98,4e-18,91.6
Cladophialophora_modesta_CBS985.96_T,ERR2674090.21142,94.74,57,3,0,524,580,306,250,1e-17,89.8
Cladophialophora_modesta_CBS985.96_T,ERR2674090.46741,84.27,89,13,1,230,318,11,98,2e-16,86.1
Cladophialophora_modesta_CBS985.96_T,ERR2674090.18286,84.27,89,13,1,230,318,11,98,2e-16,86.1
Cladophialophora_modesta_CBS985.96_T,ERR2674090.1447,83.15,89,14,1,230,318,11,98,8e-15,80.5
Cladophialophora_modesta_CBS985.96_T,ERR2674090.16769,84.81,79,11,1,230,308,11,88,3e-14,78.7
Cladophialophora_modesta_CBS985.96_T,ERR2674090.8359,91.23,57,5,0,524,580,306,250,3e-14,78.7
Cladophialophora_modesta_CBS985.96_T,ERR2674090.16568,86.96,69,8,1,512,580,317,250,1e-13,76.8
Cladophialophora_modesta_CBS985.96_T,ERR2674090.27603,93.62,47,3,0,533,579,297,251,5e-12,71.3
Cladophialophora_modesta_CBS985.96_T,ERR2674090.17608,81.01,79,14,1,230,308,11,88,3e-09,62.1
Cyphellophora_fusarioides_MUCL44033_T,ERR2674090.42285,87.72,114,13,1,229,341,11,124,2e-30,132
Cyphellophora_fusarioides_MUCL44033_T,ERR2674090.24739,92.05,88,6,1,229,315,11,98,1e-27,122
Cyphellophora_fusarioides_MUCL44033_T,ERR2674090.46736,87.50,88,10,1,229,315,11,98,5e-21,100
Cyphellophora_fusarioides_MUCL44033_T,ERR2674090.18110,87.50,88,10,1,229,315,11,98,5e-21,100
Cyphellophora_fusarioides_MUCL44033_T,ERR2674090.13159,86.36,88,11,1,229,315,11,98,2e-19,95.3
Cyphellophora_fusarioides_MUCL44033_T,ERR2674090.13158,86.36,88,11,1,229,315,11,98,2e-19,95.3
Cyphellophora_fusarioides_MUCL44033_T,ERR2674090.46741,85.23,88,12,1,229,315,11,98,1e-17,89.8
Cyphellophora_fusarioides_MUCL44033_T,ERR2674090.18286,85.23,88,12,1,229,315,11,98,1e-17,89.8
Cyphellophora_fusarioides_MUCL44033_T,ERR2674090.16769,87.18,78,9,1,229,305,11,88,4e-17,87.9
Cyphellophora_fusarioides_MUCL44033_T,ERR2674090.1447,84.09,88,13,1,229,315,11,98,5e-16,84.2
Cyphellophora_fusarioides_MUCL44033_T,ERR2674090.17608,83.33,78,12,1,229,305,11,88,4e-12,71.3
