Exophiala_nigra_CBS535.94_T,ERR2673957.4500,87.64,89,10,1,233,321,11,98,1e-21,102
Exophiala_nigra_CBS535.94_T,ERR2673957.1937,85.39,89,12,1,233,321,11,98,3e-18,91.6
Exophiala_nigra_CBS535.94_T,ERR2673957.1570,85.39,89,12,1,233,321,11,98,3e-18,91.6
Exophiala_nigra_CBS535.94_T,ERR2673957.27239,84.27,89,13,1,233,321,11,98,1e-16,86.1
Exophiala_nigra_CBS535.94_T,ERR2673957.465,80.90,89,16,1,233,321,11,98,1e-11,69.4
Exophiala_nigra_CBS535.94_T,ERR2673957.32740,100.00,28,0,0,233,260,11,38,1e-06,52.8
Exophiala_spinifera_CBS899.68_T,ERR2673957.4500,87.64,89,10,1,230,318,11,98,1e-21,102
Exophiala_spinifera_CBS899.68_T,ERR2673957.1937,85.39,89,12,1,230,318,11,98,3e-18,91.6
Exophiala_spinifera_CBS899.68_T,ERR2673957.1570,85.39,89,12,1,230,318,11,98,3e-18,91.6
Exophiala_spinifera_CBS899.68_T,ERR2673957.27239,84.27,89,13,1,230,318,11,98,1e-16,86.1
Exophiala_spinifera_CBS899.68_T,ERR2673957.465,80.90,89,16,1,230,318,11,98,1e-11,69.4
Exophiala_spinifera_CBS899.68_T,ERR2673957.32740,100.00,28,0,0,230,257,11,38,1e-06,52.8
Exophiala_exophialae_CBS668.76_T,ERR2673957.4500,87.64,89,10,1,231,319,11,98,1e-21,102
Exophiala_exophialae_CBS668.76_T,ERR2673957.1937,85.39,89,12,1,231,319,11,98,3e-18,91.6
Exophiala_exophialae_CBS668.76_T,ERR2673957.1570,85.39,89,12,1,231,319,11,98,3e-18,91.6
Exophiala_exophialae_CBS668.76_T,ERR2673957.27239,84.27,89,13,1,231,319,11,98,1e-16,86.1
Exophiala_exophialae_CBS668.76_T,ERR2673957.465,80.90,89,16,1,231,319,11,98,1e-11,69.4
Exophiala_exophialae_CBS668.76_T,ERR2673957.32740,100.00,28,0,0,231,258,11,38,1e-06,52.8
Exophiala_polymorpha_CBS138920_T,ERR2673957.4500,87.64,89,10,1,333,421,11,98,2e-21,102
Exophiala_polymorpha_CBS138920_T,ERR2673957.1937,85.39,89,12,1,333,421,11,98,3e-18,91.6
Exophiala_polymorpha_CBS138920_T,ERR2673957.1570,85.39,89,12,1,333,421,11,98,3e-18,91.6
Exophiala_polymorpha_CBS138920_T,ERR2673957.27239,84.27,89,13,1,333,421,11,98,2e-16,86.1
Exophiala_polymorpha_CBS138920_T,ERR2673957.23561,93.75,48,3,0,647,694,306,259,1e-12,73.1
Exophiala_polymorpha_CBS138920_T,ERR2673957.465,80.90,89,16,1,333,421,11,98,2e-11,69.4
Exophiala_polymorpha_CBS138920_T,ERR2673957.32740,100.00,28,0,0,333,360,11,38,2e-06,52.8
Exophiala_oligosperma_CBS725.88_T,ERR2673957.4500,87.64,89,10,1,243,331,11,98,1e-21,102
Exophiala_oligosperma_CBS725.88_T,ERR2673957.1937,85.39,89,12,1,243,331,11,98,3e-18,91.6
Exophiala_oligosperma_CBS725.88_T,ERR2673957.1570,85.39,89,12,1,243,331,11,98,3e-18,91.6
Exophiala_oligosperma_CBS725.88_T,ERR2673957.27239,84.27,89,13,1,243,331,11,98,1e-16,86.1
Exophiala_oligosperma_CBS725.88_T,ERR2673957.465,80.90,89,16,1,243,331,11,98,1e-11,69.4
Exophiala_oligosperma_CBS725.88_T,ERR2673957.32740,100.00,28,0,0,243,270,11,38,1e-06,52.8
Exophiala_jeanselmei_CBS507.90_T,ERR2673957.4500,87.64,89,10,1,235,323,11,98,1e-21,102
Exophiala_jeanselmei_CBS507.90_T,ERR2673957.1937,85.39,89,12,1,235,323,11,98,3e-18,91.6
Exophiala_jeanselmei_CBS507.90_T,ERR2673957.1570,85.39,89,12,1,235,323,11,98,3e-18,91.6
Exophiala_jeanselmei_CBS507.90_T,ERR2673957.27239,84.27,89,13,1,235,323,11,98,1e-16,86.1
Exophiala_jeanselmei_CBS507.90_T,ERR2673957.23561,92.86,56,4,0,549,604,306,251,2e-15,82.4
Exophiala_jeanselmei_CBS507.90_T,ERR2673957.465,80.90,89,16,1,235,323,11,98,1e-11,69.4
Exophiala_jeanselmei_CBS507.90_T,ERR2673957.32740,100.00,28,0,0,235,262,11,38,1e-06,52.8
Exophiala_bergeri_CBS353.52,ERR2673957.4500,87.64,89,10,1,196,284,11,98,1e-21,102
Exophiala_bergeri_CBS353.52,ERR2673957.1937,85.39,89,12,1,196,284,11,98,2e-18,91.6
Exophiala_bergeri_CBS353.52,ERR2673957.1570,85.39,89,12,1,196,284,11,98,2e-18,91.6
Exophiala_bergeri_CBS353.52,ERR2673957.27239,84.27,89,13,1,196,284,11,98,1e-16,86.1
Exophiala_bergeri_CBS353.52,ERR2673957.465,80.90,89,16,1,196,284,11,98,1e-11,69.4
Exophiala_bergeri_CBS353.52,ERR2673957.32740,100.00,28,0,0,196,223,11,38,1e-06,52.8
Exophiala_moniliae_CBS520.76_T,ERR2673957.4500,87.64,89,10,1,233,321,11,98,1e-21,102
Exophiala_moniliae_CBS520.76_T,ERR2673957.1937,85.39,89,12,1,233,321,11,98,3e-18,91.6
Exophiala_moniliae_CBS520.76_T,ERR2673957.1570,85.39,89,12,1,233,321,11,98,3e-18,91.6
Exophiala_moniliae_CBS520.76_T,ERR2673957.27239,84.27,89,13,1,233,321,11,98,1e-16,86.1
Exophiala_moniliae_CBS520.76_T,ERR2673957.465,80.90,89,16,1,233,321,11,98,1e-11,69.4
Exophiala_moniliae_CBS520.76_T,ERR2673957.32740,100.00,28,0,0,233,260,11,38,1e-06,52.8
Exophiala_pisciphila_CBS537.73_T,ERR2673957.4500,86.52,89,11,1,236,324,11,98,7e-20,97.1
Exophiala_pisciphila_CBS537.73_T,ERR2673957.23561,94.64,56,3,0,558,613,306,251,4e-17,87.9
Exophiala_pisciphila_CBS537.73_T,ERR2673957.1937,84.27,89,13,1,236,324,11,98,1e-16,86.1
Exophiala_pisciphila_CBS537.73_T,ERR2673957.1570,84.27,89,13,1,236,324,11,98,1e-16,86.1
Exophiala_pisciphila_CBS537.73_T,ERR2673957.27239,83.15,89,14,1,236,324,11,98,7e-15,80.5
Exophiala_pisciphila_CBS537.73_T,ERR2673957.465,79.78,89,17,1,236,324,11,98,7e-10,63.9
Exophiala_pisciphila_CBS537.73_T,ERR2673957.32740,100.00,28,0,0,236,263,11,38,1e-06,52.8
Exophiala_xenobiotica_CBS117642,ERR2673957.4500,87.64,89,10,1,228,316,11,98,1e-21,102
Exophiala_xenobiotica_CBS117642,ERR2673957.1937,85.39,89,12,1,228,316,11,98,3e-18,91.6
Exophiala_xenobiotica_CBS117642,ERR2673957.1570,85.39,89,12,1,228,316,11,98,3e-18,91.6
Exophiala_xenobiotica_CBS117642,ERR2673957.27239,84.27,89,13,1,228,316,11,98,1e-16,86.1
Exophiala_xenobiotica_CBS117642,ERR2673957.465,80.90,89,16,1,228,316,11,98,1e-11,69.4
Exophiala_xenobiotica_CBS117642,ERR2673957.32740,100.00,28,0,0,228,255,11,38,1e-06,52.8
Exophiala_brunnea_CBS,ERR2673957.4500,87.64,89,10,1,264,352,11,98,1e-21,102
Exophiala_brunnea_CBS,ERR2673957.1937,85.39,89,12,1,264,352,11,98,3e-18,91.6
Exophiala_brunnea_CBS,ERR2673957.1570,85.39,89,12,1,264,352,11,98,3e-18,91.6
Exophiala_brunnea_CBS,ERR2673957.27239,84.27,89,13,1,264,352,11,98,1e-16,86.1
Exophiala_brunnea_CBS,ERR2673957.23561,95.56,45,2,0,589,633,306,262,1e-12,73.1
Exophiala_brunnea_CBS,ERR2673957.465,80.90,89,16,1,264,352,11,98,1e-11,69.4
Exophiala_brunnea_CBS,ERR2673957.32740,100.00,28,0,0,264,291,11,38,1e-06,52.8
Exophiala_nishimurae_CBS101538_T,ERR2673957.4500,87.64,89,10,1,242,330,11,98,1e-21,102
Exophiala_nishimurae_CBS101538_T,ERR2673957.1937,85.39,89,12,1,242,330,11,98,3e-18,91.6
Exophiala_nishimurae_CBS101538_T,ERR2673957.1570,85.39,89,12,1,242,330,11,98,3e-18,91.6
Exophiala_nishimurae_CBS101538_T,ERR2673957.27239,84.27,89,13,1,242,330,11,98,1e-16,86.1
Exophiala_nishimurae_CBS101538_T,ERR2673957.465,80.90,89,16,1,242,330,11,98,1e-11,69.4
Exophiala_nishimurae_CBS101538_T,ERR2673957.32740,100.00,28,0,0,242,269,11,38,1e-06,52.8
Exophiala_mesophila_CBS402.95_T,ERR2673957.4500,87.64,89,10,1,226,314,11,98,1e-21,102
Exophiala_mesophila_CBS402.95_T,ERR2673957.1937,85.39,89,12,1,226,314,11,98,3e-18,91.6
Exophiala_mesophila_CBS402.95_T,ERR2673957.1570,85.39,89,12,1,226,314,11,98,3e-18,91.6
Exophiala_mesophila_CBS402.95_T,ERR2673957.27239,84.27,89,13,1,226,314,11,98,1e-16,86.1
Exophiala_mesophila_CBS402.95_T,ERR2673957.23561,92.86,56,4,0,555,610,306,251,2e-15,82.4
Exophiala_mesophila_CBS402.95_T,ERR2673957.465,80.90,89,16,1,226,314,11,98,1e-11,69.4
Exophiala_mesophila_CBS402.95_T,ERR2673957.32740,100.00,28,0,0,226,253,11,38,1e-06,52.8
Exophiala_castellanii_CBS158.58_T,ERR2673957.4500,87.64,89,10,1,224,312,11,98,1e-21,102
Exophiala_castellanii_CBS158.58_T,ERR2673957.1937,85.39,89,12,1,224,312,11,98,3e-18,91.6
Exophiala_castellanii_CBS158.58_T,ERR2673957.1570,85.39,89,12,1,224,312,11,98,3e-18,91.6
Exophiala_castellanii_CBS158.58_T,ERR2673957.27239,84.27,89,13,1,224,312,11,98,1e-16,86.1
Exophiala_castellanii_CBS158.58_T,ERR2673957.23561,92.86,56,4,0,554,609,306,251,2e-15,82.4
Exophiala_castellanii_CBS158.58_T,ERR2673957.465,80.90,89,16,1,224,312,11,98,1e-11,69.4
Exophiala_castellanii_CBS158.58_T,ERR2673957.32740,100.00,28,0,0,224,251,11,38,1e-06,52.8
Exophiala_lecanii-corni_CBS123.33_T,ERR2673957.4500,87.64,89,10,1,247,335,11,98,1e-21,102
Exophiala_lecanii-corni_CBS123.33_T,ERR2673957.1937,85.39,89,12,1,247,335,11,98,3e-18,91.6
Exophiala_lecanii-corni_CBS123.33_T,ERR2673957.1570,85.39,89,12,1,247,335,11,98,3e-18,91.6
Exophiala_lecanii-corni_CBS123.33_T,ERR2673957.27239,84.27,89,13,1,247,335,11,98,1e-16,86.1
Exophiala_lecanii-corni_CBS123.33_T,ERR2673957.465,80.90,89,16,1,247,335,11,98,1e-11,69.4
Exophiala_lecanii-corni_CBS123.33_T,ERR2673957.32740,100.00,28,0,0,247,274,11,38,1e-06,52.8
Exophiala_dermatitidis_CBS748.88,ERR2673957.4500,87.64,89,10,1,239,327,11,98,3e-21,102
Exophiala_dermatitidis_CBS748.88,ERR2673957.1937,85.39,89,12,1,239,327,11,98,7e-18,91.6
Exophiala_dermatitidis_CBS748.88,ERR2673957.1570,85.39,89,12,1,239,327,11,98,7e-18,91.6
Exophiala_dermatitidis_CBS748.88,ERR2673957.27239,84.27,89,13,1,239,327,11,98,3e-16,86.1
Exophiala_dermatitidis_CBS748.88,ERR2673957.23561,92.86,56,4,0,580,635,306,251,4e-15,82.4
Exophiala_dermatitidis_CBS748.88,ERR2673957.465,80.90,89,16,1,239,327,11,98,3e-11,69.4
Exophiala_dermatitidis_CBS748.88,ERR2673957.32740,100.00,28,0,0,239,266,11,38,3e-06,52.8
Exophiala_angulospora_CBS482.92_T,ERR2673957.4500,87.64,89,10,1,230,318,11,98,1e-21,102
Exophiala_angulospora_CBS482.92_T,ERR2673957.1937,85.39,89,12,1,230,318,11,98,3e-18,91.6
Exophiala_angulospora_CBS482.92_T,ERR2673957.1570,85.39,89,12,1,230,318,11,98,3e-18,91.6
Exophiala_angulospora_CBS482.92_T,ERR2673957.27239,84.27,89,13,1,230,318,11,98,1e-16,86.1
Exophiala_angulospora_CBS482.92_T,ERR2673957.465,80.90,89,16,1,230,318,11,98,1e-11,69.4
Exophiala_angulospora_CBS482.92_T,ERR2673957.32740,100.00,28,0,0,230,257,11,38,1e-06,52.8
Exophiala_opportunistica_CBS109811_T,ERR2673957.4500,87.64,89,10,1,229,317,11,98,1e-21,102
Exophiala_opportunistica_CBS109811_T,ERR2673957.1937,85.39,89,12,1,229,317,11,98,3e-18,91.6
Exophiala_opportunistica_CBS109811_T,ERR2673957.1570,85.39,89,12,1,229,317,11,98,3e-18,91.6
Exophiala_opportunistica_CBS109811_T,ERR2673957.27239,84.27,89,13,1,229,317,11,98,1e-16,86.1
Exophiala_opportunistica_CBS109811_T,ERR2673957.465,80.90,89,16,1,229,317,11,98,1e-11,69.4
Exophiala_opportunistica_CBS109811_T,ERR2673957.32740,100.00,28,0,0,229,256,11,38,1e-06,52.8
Exophiala_salmonis_CBS157.67_T,ERR2673957.4500,87.64,89,10,1,358,446,11,98,2e-21,102
Exophiala_salmonis_CBS157.67_T,ERR2673957.1937,85.39,89,12,1,358,446,11,98,4e-18,91.6
Exophiala_salmonis_CBS157.67_T,ERR2673957.1570,85.39,89,12,1,358,446,11,98,4e-18,91.6
Exophiala_salmonis_CBS157.67_T,ERR2673957.23561,94.64,56,3,0,678,733,306,251,5e-17,87.9
Exophiala_salmonis_CBS157.67_T,ERR2673957.27239,84.27,89,13,1,358,446,11,98,2e-16,86.1
Exophiala_salmonis_CBS157.67_T,ERR2673957.465,80.90,89,16,1,358,446,11,98,2e-11,69.4
Exophiala_salmonis_CBS157.67_T,ERR2673957.32740,100.00,28,0,0,358,385,11,38,2e-06,52.8
Exophiala_aquamarina_CBS119918_T,ERR2673957.4500,87.64,89,10,1,236,324,11,98,1e-21,102
Exophiala_aquamarina_CBS119918_T,ERR2673957.1937,85.39,89,12,1,236,324,11,98,3e-18,91.6
Exophiala_aquamarina_CBS119918_T,ERR2673957.1570,85.39,89,12,1,236,324,11,98,3e-18,91.6
Exophiala_aquamarina_CBS119918_T,ERR2673957.27239,84.27,89,13,1,236,324,11,98,1e-16,86.1
Exophiala_aquamarina_CBS119918_T,ERR2673957.465,80.90,89,16,1,236,324,11,98,1e-11,69.4
Exophiala_aquamarina_CBS119918_T,ERR2673957.32740,100.00,28,0,0,236,263,11,38,1e-06,52.8
Exophiala_cancerae_CBS120420_T,ERR2673957.4500,87.64,89,10,1,251,339,11,98,1e-21,102
Exophiala_cancerae_CBS120420_T,ERR2673957.1937,85.39,89,12,1,251,339,11,98,3e-18,91.6
Exophiala_cancerae_CBS120420_T,ERR2673957.1570,85.39,89,12,1,251,339,11,98,3e-18,91.6
Exophiala_cancerae_CBS120420_T,ERR2673957.23561,94.64,56,3,0,569,624,306,251,4e-17,87.9
Exophiala_cancerae_CBS120420_T,ERR2673957.27239,84.27,89,13,1,251,339,11,98,1e-16,86.1
Exophiala_cancerae_CBS120420_T,ERR2673957.465,80.90,89,16,1,251,339,11,98,1e-11,69.4
Exophiala_cancerae_CBS120420_T,ERR2673957.32740,100.00,28,0,0,251,278,11,38,1e-06,52.8
Exophiala_tremulae_CBS129355,ERR2673957.4500,87.64,89,10,1,263,351,11,98,1e-21,102
Exophiala_tremulae_CBS129355,ERR2673957.1937,85.39,89,12,1,263,351,11,98,3e-18,91.6
Exophiala_tremulae_CBS129355,ERR2673957.1570,85.39,89,12,1,263,351,11,98,3e-18,91.6
Exophiala_tremulae_CBS129355,ERR2673957.27239,84.27,89,13,1,263,351,11,98,1e-16,86.1
Exophiala_tremulae_CBS129355,ERR2673957.23561,95.56,45,2,0,584,628,306,262,1e-12,73.1
Exophiala_tremulae_CBS129355,ERR2673957.465,80.90,89,16,1,263,351,11,98,1e-11,69.4
Exophiala_tremulae_CBS129355,ERR2673957.32740,100.00,28,0,0,263,290,11,38,1e-06,52.8
Exophiala_equina_CBS116009,ERR2673957.4500,87.64,89,10,1,229,317,11,98,1e-21,102
Exophiala_equina_CBS116009,ERR2673957.1937,85.39,89,12,1,229,317,11,98,3e-18,91.6
Exophiala_equina_CBS116009,ERR2673957.1570,85.39,89,12,1,229,317,11,98,3e-18,91.6
Exophiala_equina_CBS116009,ERR2673957.27239,84.27,89,13,1,229,317,11,98,1e-16,86.1
Exophiala_equina_CBS116009,ERR2673957.465,80.90,89,16,1,229,317,11,98,1e-11,69.4
Exophiala_equina_CBS116009,ERR2673957.32740,100.00,28,0,0,229,256,11,38,1e-06,52.8
Exophiala_alcalophila_CBS520.82_T,ERR2673957.4500,87.64,89,10,1,240,328,11,98,1e-21,102
Exophiala_alcalophila_CBS520.82_T,ERR2673957.1937,85.39,89,12,1,240,328,11,98,3e-18,91.6
Exophiala_alcalophila_CBS520.82_T,ERR2673957.1570,85.39,89,12,1,240,328,11,98,3e-18,91.6
Exophiala_alcalophila_CBS520.82_T,ERR2673957.27239,84.27,89,13,1,240,328,11,98,1e-16,86.1
Exophiala_alcalophila_CBS520.82_T,ERR2673957.465,80.90,89,16,1,240,328,11,98,1e-11,69.4
Exophiala_alcalophila_CBS520.82_T,ERR2673957.32740,100.00,28,0,0,240,267,11,38,1e-06,52.8
Exophiala_crusticola_CBS119970_T,ERR2673957.4500,87.64,89,10,1,245,333,11,98,1e-21,102
Exophiala_crusticola_CBS119970_T,ERR2673957.1937,85.39,89,12,1,245,333,11,98,3e-18,91.6
Exophiala_crusticola_CBS119970_T,ERR2673957.1570,85.39,89,12,1,245,333,11,98,3e-18,91.6
Exophiala_crusticola_CBS119970_T,ERR2673957.27239,84.27,89,13,1,245,333,11,98,1e-16,86.1
Exophiala_crusticola_CBS119970_T,ERR2673957.465,80.90,89,16,1,245,333,11,98,1e-11,69.4
Exophiala_crusticola_CBS119970_T,ERR2673957.32740,100.00,28,0,0,245,272,11,38,1e-06,52.8
Rhinocladiella_atrovirens_CBS264.49,ERR2673957.4500,87.64,89,10,1,271,359,11,98,1e-21,102
Rhinocladiella_atrovirens_CBS264.49,ERR2673957.1937,85.39,89,12,1,271,359,11,98,3e-18,91.6
Rhinocladiella_atrovirens_CBS264.49,ERR2673957.1570,85.39,89,12,1,271,359,11,98,3e-18,91.6
Rhinocladiella_atrovirens_CBS264.49,ERR2673957.27239,84.27,89,13,1,271,359,11,98,1e-16,86.1
Rhinocladiella_atrovirens_CBS264.49,ERR2673957.23561,95.45,44,2,0,583,626,306,263,4e-12,71.3
Rhinocladiella_atrovirens_CBS264.49,ERR2673957.465,80.90,89,16,1,271,359,11,98,1e-11,69.4
Rhinocladiella_atrovirens_CBS264.49,ERR2673957.32740,100.00,28,0,0,271,298,11,38,1e-06,52.8
Rhinocladiella_basitona_CBS101460_T,ERR2673957.4500,87.64,89,10,1,230,318,11,98,1e-21,102
Rhinocladiella_basitona_CBS101460_T,ERR2673957.1937,85.39,89,12,1,230,318,11,98,3e-18,91.6
Rhinocladiella_basitona_CBS101460_T,ERR2673957.1570,85.39,89,12,1,230,318,11,98,3e-18,91.6
Rhinocladiella_basitona_CBS101460_T,ERR2673957.27239,84.27,89,13,1,230,318,11,98,1e-16,86.1
Rhinocladiella_basitona_CBS101460_T,ERR2673957.465,80.90,89,16,1,230,318,11,98,1e-11,69.4
Rhinocladiella_basitona_CBS101460_T,ERR2673957.32740,100.00,28,0,0,230,257,11,38,1e-06,52.8
Rhinocladiella_phaeophora_CBS496.78_T,ERR2673957.4500,86.52,89,11,1,238,326,11,98,6e-20,97.1
Rhinocladiella_phaeophora_CBS496.78_T,ERR2673957.1937,84.27,89,13,1,238,326,11,98,1e-16,86.1
Rhinocladiella_phaeophora_CBS496.78_T,ERR2673957.1570,84.27,89,13,1,238,326,11,98,1e-16,86.1
Rhinocladiella_phaeophora_CBS496.78_T,ERR2673957.27239,83.15,89,14,1,238,326,11,98,6e-15,80.5
Rhinocladiella_phaeophora_CBS496.78_T,ERR2673957.465,79.78,89,17,1,238,326,11,98,6e-10,63.9
Rhinocladiella_phaeophora_CBS496.78_T,ERR2673957.32740,100.00,28,0,0,238,265,11,38,1e-06,52.8
Rhinocladiella_aquaspersa_CBS313.73_T,ERR2673957.4500,86.52,89,11,1,232,320,11,98,7e-20,97.1
Rhinocladiella_aquaspersa_CBS313.73_T,ERR2673957.1937,84.27,89,13,1,232,320,11,98,1e-16,86.1
Rhinocladiella_aquaspersa_CBS313.73_T,ERR2673957.1570,84.27,89,13,1,232,320,11,98,1e-16,86.1
Rhinocladiella_aquaspersa_CBS313.73_T,ERR2673957.27239,83.15,89,14,1,232,320,11,98,7e-15,80.5
Rhinocladiella_aquaspersa_CBS313.73_T,ERR2673957.23561,97.56,41,1,0,565,605,291,251,4e-12,71.3
Rhinocladiella_aquaspersa_CBS313.73_T,ERR2673957.465,79.78,89,17,1,232,320,11,98,7e-10,63.9
Rhinocladiella_aquaspersa_CBS313.73_T,ERR2673957.32740,100.00,28,0,0,232,259,11,38,1e-06,52.8
Rhinocladiella_fasciculata_CBS132.86_T,ERR2673957.4500,86.52,89,11,1,248,336,11,98,6e-20,97.1
Rhinocladiella_fasciculata_CBS132.86_T,ERR2673957.1937,84.27,89,13,1,248,336,11,98,1e-16,86.1
Rhinocladiella_fasciculata_CBS132.86_T,ERR2673957.1570,84.27,89,13,1,248,336,11,98,1e-16,86.1
Rhinocladiella_fasciculata_CBS132.86_T,ERR2673957.27239,83.15,89,14,1,248,336,11,98,6e-15,80.5
Rhinocladiella_fasciculata_CBS132.86_T,ERR2673957.465,79.78,89,17,1,248,336,11,98,6e-10,63.9
Rhinocladiella_fasciculata_CBS132.86_T,ERR2673957.32740,100.00,28,0,0,248,275,11,38,1e-06,52.8
Rhinocladiella_anceps_CBS181.65_T,ERR2673957.4500,86.52,89,11,1,230,318,11,98,6e-20,97.1
Rhinocladiella_anceps_CBS181.65_T,ERR2673957.1937,84.27,89,13,1,230,318,11,98,1e-16,86.1
Rhinocladiella_anceps_CBS181.65_T,ERR2673957.1570,84.27,89,13,1,230,318,11,98,1e-16,86.1
Rhinocladiella_anceps_CBS181.65_T,ERR2673957.27239,83.15,89,14,1,230,318,11,98,6e-15,80.5
Rhinocladiella_anceps_CBS181.65_T,ERR2673957.465,79.78,89,17,1,230,318,11,98,6e-10,63.9
Rhinocladiella_anceps_CBS181.65_T,ERR2673957.32740,100.00,28,0,0,230,257,11,38,1e-06,52.8
Rhinocladiella_mackenziei_CBS367.92,ERR2673957.4500,87.64,89,10,1,219,307,11,98,1e-21,102
Rhinocladiella_mackenziei_CBS367.92,ERR2673957.1937,85.39,89,12,1,219,307,11,98,3e-18,91.6
Rhinocladiella_mackenziei_CBS367.92,ERR2673957.1570,85.39,89,12,1,219,307,11,98,3e-18,91.6
Rhinocladiella_mackenziei_CBS367.92,ERR2673957.27239,84.27,89,13,1,219,307,11,98,1e-16,86.1
Rhinocladiella_mackenziei_CBS367.92,ERR2673957.465,80.90,89,16,1,219,307,11,98,1e-11,69.4
Rhinocladiella_mackenziei_CBS367.92,ERR2673957.32740,100.00,28,0,0,219,246,11,38,1e-06,52.8
Veronaea_compacta_CBS268.75_T,ERR2673957.4500,87.64,89,10,1,252,340,11,98,1e-21,102
Veronaea_compacta_CBS268.75_T,ERR2673957.1937,85.39,89,12,1,252,340,11,98,3e-18,91.6
Veronaea_compacta_CBS268.75_T,ERR2673957.1570,85.39,89,12,1,252,340,11,98,3e-18,91.6
Veronaea_compacta_CBS268.75_T,ERR2673957.27239,84.27,89,13,1,252,340,11,98,1e-16,86.1
Veronaea_compacta_CBS268.75_T,ERR2673957.465,80.90,89,16,1,252,340,11,98,1e-11,69.4
Veronaea_compacta_CBS268.75_T,ERR2673957.32740,100.00,28,0,0,252,279,11,38,1e-06,52.8
Capronia_pilosella_AFTOL-ID657,ERR2673957.4500,87.64,89,10,1,330,418,11,98,2e-21,102
Capronia_pilosella_AFTOL-ID657,ERR2673957.1937,85.39,89,12,1,330,418,11,98,3e-18,91.6
Capronia_pilosella_AFTOL-ID657,ERR2673957.1570,85.39,89,12,1,330,418,11,98,3e-18,91.6
Capronia_pilosella_AFTOL-ID657,ERR2673957.27239,84.27,89,13,1,330,418,11,98,2e-16,86.1
Capronia_pilosella_AFTOL-ID657,ERR2673957.465,80.90,89,16,1,330,418,11,98,2e-11,69.4
Capronia_pilosella_AFTOL-ID657,ERR2673957.32740,100.00,28,0,0,330,357,11,38,2e-06,52.8
Capronia_dactylotricha_DAOM208471_T,ERR2673957.4500,87.64,89,10,1,232,320,11,98,1e-21,102
Capronia_dactylotricha_DAOM208471_T,ERR2673957.1937,85.39,89,12,1,232,320,11,98,3e-18,91.6
Capronia_dactylotricha_DAOM208471_T,ERR2673957.1570,85.39,89,12,1,232,320,11,98,3e-18,91.6
Capronia_dactylotricha_DAOM208471_T,ERR2673957.23561,94.64,56,3,0,563,618,306,251,4e-17,87.9
Capronia_dactylotricha_DAOM208471_T,ERR2673957.27239,84.27,89,13,1,232,320,11,98,1e-16,86.1
Capronia_dactylotricha_DAOM208471_T,ERR2673957.465,80.90,89,16,1,232,320,11,98,1e-11,69.4
Capronia_dactylotricha_DAOM208471_T,ERR2673957.32740,100.00,28,0,0,232,259,11,38,1e-06,52.8
Capronia_kleinmondensis_CBS122671_T,ERR2673957.4500,87.64,89,10,1,257,345,11,98,1e-21,102
Capronia_kleinmondensis_CBS122671_T,ERR2673957.1937,85.39,89,12,1,257,345,11,98,3e-18,91.6
Capronia_kleinmondensis_CBS122671_T,ERR2673957.1570,85.39,89,12,1,257,345,11,98,3e-18,91.6
Capronia_kleinmondensis_CBS122671_T,ERR2673957.23561,94.64,56,3,0,569,624,306,251,4e-17,87.9
Capronia_kleinmondensis_CBS122671_T,ERR2673957.27239,84.27,89,13,1,257,345,11,98,1e-16,86.1
Capronia_kleinmondensis_CBS122671_T,ERR2673957.465,80.90,89,16,1,257,345,11,98,1e-11,69.4
Capronia_kleinmondensis_CBS122671_T,ERR2673957.32740,100.00,28,0,0,257,284,11,38,2e-06,52.8
Capronia_mansonii_CBS101.67_T,ERR2673957.4500,87.64,89,10,1,243,331,11,98,1e-21,102
Capronia_mansonii_CBS101.67_T,ERR2673957.1937,85.39,89,12,1,243,331,11,98,3e-18,91.6
Capronia_mansonii_CBS101.67_T,ERR2673957.1570,85.39,89,12,1,243,331,11,98,3e-18,91.6
Capronia_mansonii_CBS101.67_T,ERR2673957.27239,84.27,89,13,1,243,331,11,98,1e-16,86.1
Capronia_mansonii_CBS101.67_T,ERR2673957.23561,92.86,56,4,0,573,628,306,251,2e-15,82.4
Capronia_mansonii_CBS101.67_T,ERR2673957.465,80.90,89,16,1,243,331,11,98,2e-11,69.4
Capronia_mansonii_CBS101.67_T,ERR2673957.32740,100.00,28,0,0,243,270,11,38,2e-06,52.8
Capronia_munkii_DAOM216390_T,ERR2673957.4500,87.64,89,10,1,243,331,11,98,1e-21,102
Capronia_munkii_DAOM216390_T,ERR2673957.1937,85.39,89,12,1,243,331,11,98,3e-18,91.6
Capronia_munkii_DAOM216390_T,ERR2673957.1570,85.39,89,12,1,243,331,11,98,3e-18,91.6
Capronia_munkii_DAOM216390_T,ERR2673957.27239,84.27,89,13,1,243,331,11,98,1e-16,86.1
Capronia_munkii_DAOM216390_T,ERR2673957.23561,88.41,69,7,1,560,628,318,251,2e-15,82.4
Capronia_munkii_DAOM216390_T,ERR2673957.465,80.90,89,16,1,243,331,11,98,2e-11,69.4
Capronia_munkii_DAOM216390_T,ERR2673957.32740,100.00,28,0,0,243,270,11,38,2e-06,52.8
Capronia_coronata_ATCC56201_T,ERR2673957.4500,87.64,89,10,1,231,319,11,98,1e-21,102
Capronia_coronata_ATCC56201_T,ERR2673957.1937,85.39,89,12,1,231,319,11,98,3e-18,91.6
Capronia_coronata_ATCC56201_T,ERR2673957.1570,85.39,89,12,1,231,319,11,98,3e-18,91.6
Capronia_coronata_ATCC56201_T,ERR2673957.27239,84.27,89,13,1,231,319,11,98,1e-16,86.1
Capronia_coronata_ATCC56201_T,ERR2673957.23561,92.86,56,4,0,544,599,306,251,2e-15,82.4
Capronia_coronata_ATCC56201_T,ERR2673957.465,80.90,89,16,1,231,319,11,98,1e-11,69.4
Capronia_coronata_ATCC56201_T,ERR2673957.32740,100.00,28,0,0,231,258,11,38,1e-06,52.8
Capronia_parasitica_CBS123.88,ERR2673957.4500,87.64,89,10,1,237,325,11,98,1e-21,102
Capronia_parasitica_CBS123.88,ERR2673957.1937,85.39,89,12,1,237,325,11,98,3e-18,91.6
Capronia_parasitica_CBS123.88,ERR2673957.1570,85.39,89,12,1,237,325,11,98,3e-18,91.6
Capronia_parasitica_CBS123.88,ERR2673957.27239,84.27,89,13,1,237,325,11,98,1e-16,86.1
Capronia_parasitica_CBS123.88,ERR2673957.465,80.90,89,16,1,237,325,11,98,1e-11,69.4
Capronia_parasitica_CBS123.88,ERR2673957.32740,100.00,28,0,0,237,264,11,38,1e-06,52.8
Veronaea_japonica_CBS776.83_T,ERR2673957.4500,87.64,89,10,1,265,353,11,98,1e-21,102
Veronaea_japonica_CBS776.83_T,ERR2673957.1937,85.39,89,12,1,265,353,11,98,3e-18,91.6
Veronaea_japonica_CBS776.83_T,ERR2673957.1570,85.39,89,12,1,265,353,11,98,3e-18,91.6
Veronaea_japonica_CBS776.83_T,ERR2673957.27239,84.27,89,13,1,265,353,11,98,1e-16,86.1
Veronaea_japonica_CBS776.83_T,ERR2673957.465,80.90,89,16,1,265,353,11,98,1e-11,69.4
Veronaea_japonica_CBS776.83_T,ERR2673957.32740,100.00,28,0,0,265,292,11,38,1e-06,52.8
Thysanorea_papuana_CBS212.96_T,ERR2673957.4500,87.64,89,10,1,239,327,11,98,1e-21,102
Thysanorea_papuana_CBS212.96_T,ERR2673957.1937,85.39,89,12,1,239,327,11,98,3e-18,91.6
Thysanorea_papuana_CBS212.96_T,ERR2673957.1570,85.39,89,12,1,239,327,11,98,3e-18,91.6
Thysanorea_papuana_CBS212.96_T,ERR2673957.27239,84.27,89,13,1,239,327,11,98,1e-16,86.1
Thysanorea_papuana_CBS212.96_T,ERR2673957.465,80.90,89,16,1,239,327,11,98,1e-11,69.4
Thysanorea_papuana_CBS212.96_T,ERR2673957.32740,100.00,28,0,0,239,266,11,38,1e-06,52.8
Capronia_acutiseta_ATCC56428_T,ERR2673957.23561,94.64,56,3,0,543,598,306,251,4e-17,87.9
Fonsecaea_brasiliensis_CBS119710_T,ERR2673957.4500,87.64,89,10,1,239,327,11,98,1e-21,102
Fonsecaea_brasiliensis_CBS119710_T,ERR2673957.1937,85.39,89,12,1,239,327,11,98,3e-18,91.6
Fonsecaea_brasiliensis_CBS119710_T,ERR2673957.1570,85.39,89,12,1,239,327,11,98,3e-18,91.6
Fonsecaea_brasiliensis_CBS119710_T,ERR2673957.27239,84.27,89,13,1,239,327,11,98,1e-16,86.1
Fonsecaea_brasiliensis_CBS119710_T,ERR2673957.465,80.90,89,16,1,239,327,11,98,1e-11,69.4
Fonsecaea_brasiliensis_CBS119710_T,ERR2673957.32740,100.00,28,0,0,239,266,11,38,1e-06,52.8
Fonsecaea_pedrosoi_CBS271.37_T,ERR2673957.4500,87.64,89,10,1,267,355,11,98,1e-21,102
Fonsecaea_pedrosoi_CBS271.37_T,ERR2673957.1937,85.39,89,12,1,267,355,11,98,3e-18,91.6
Fonsecaea_pedrosoi_CBS271.37_T,ERR2673957.1570,85.39,89,12,1,267,355,11,98,3e-18,91.6
Fonsecaea_pedrosoi_CBS271.37_T,ERR2673957.27239,84.27,89,13,1,267,355,11,98,1e-16,86.1
Fonsecaea_pedrosoi_CBS271.37_T,ERR2673957.465,80.90,89,16,1,267,355,11,98,1e-11,69.4
Fonsecaea_pedrosoi_CBS271.37_T,ERR2673957.32740,100.00,28,0,0,267,294,11,38,1e-06,52.8
Fonsecaea_multimorphosa_CBS980.96_T,ERR2673957.4500,87.64,89,10,1,237,325,11,98,1e-21,102
Fonsecaea_multimorphosa_CBS980.96_T,ERR2673957.1937,85.39,89,12,1,237,325,11,98,3e-18,91.6
Fonsecaea_multimorphosa_CBS980.96_T,ERR2673957.1570,85.39,89,12,1,237,325,11,98,3e-18,91.6
Fonsecaea_multimorphosa_CBS980.96_T,ERR2673957.27239,84.27,89,13,1,237,325,11,98,1e-16,86.1
Fonsecaea_multimorphosa_CBS980.96_T,ERR2673957.465,80.90,89,16,1,237,325,11,98,1e-11,69.4
Fonsecaea_multimorphosa_CBS980.96_T,ERR2673957.32740,100.00,28,0,0,237,264,11,38,1e-06,52.8
Fonsecaea_minima_CBS125760_T,ERR2673957.4500,87.64,89,10,1,233,321,11,98,1e-21,102
Fonsecaea_minima_CBS125760_T,ERR2673957.1937,85.39,89,12,1,233,321,11,98,3e-18,91.6
Fonsecaea_minima_CBS125760_T,ERR2673957.1570,85.39,89,12,1,233,321,11,98,3e-18,91.6
Fonsecaea_minima_CBS125760_T,ERR2673957.27239,84.27,89,13,1,233,321,11,98,1e-16,86.1
Fonsecaea_minima_CBS125760_T,ERR2673957.465,80.90,89,16,1,233,321,11,98,1e-11,69.4
Fonsecaea_minima_CBS125760_T,ERR2673957.32740,100.00,28,0,0,233,260,11,38,1e-06,52.8
Fonsecaea_nubica_CBS269.64_T,ERR2673957.4500,87.64,89,10,1,244,332,11,98,1e-21,102
Fonsecaea_nubica_CBS269.64_T,ERR2673957.1937,85.39,89,12,1,244,332,11,98,3e-18,91.6
Fonsecaea_nubica_CBS269.64_T,ERR2673957.1570,85.39,89,12,1,244,332,11,98,3e-18,91.6
Fonsecaea_nubica_CBS269.64_T,ERR2673957.27239,84.27,89,13,1,244,332,11,98,1e-16,86.1
Fonsecaea_nubica_CBS269.64_T,ERR2673957.465,80.90,89,16,1,244,332,11,98,1e-11,69.4
Fonsecaea_nubica_CBS269.64_T,ERR2673957.32740,100.00,28,0,0,244,271,11,38,1e-06,52.8
Fonsecaea_erecta_CBS125763_T,ERR2673957.4500,87.64,89,10,1,228,316,11,98,1e-21,102
Fonsecaea_erecta_CBS125763_T,ERR2673957.1937,85.39,89,12,1,228,316,11,98,3e-18,91.6
Fonsecaea_erecta_CBS125763_T,ERR2673957.1570,85.39,89,12,1,228,316,11,98,3e-18,91.6
Fonsecaea_erecta_CBS125763_T,ERR2673957.27239,84.27,89,13,1,228,316,11,98,1e-16,86.1
Fonsecaea_erecta_CBS125763_T,ERR2673957.465,80.90,89,16,1,228,316,11,98,1e-11,69.4
Fonsecaea_erecta_CBS125763_T,ERR2673957.32740,100.00,28,0,0,228,255,11,38,1e-06,52.8
Fonsecaea_pugnacius_CBS139214_T,ERR2673957.4500,87.64,89,10,1,237,325,11,98,1e-21,102
Fonsecaea_pugnacius_CBS139214_T,ERR2673957.1937,85.39,89,12,1,237,325,11,98,3e-18,91.6
Fonsecaea_pugnacius_CBS139214_T,ERR2673957.1570,85.39,89,12,1,237,325,11,98,3e-18,91.6
Fonsecaea_pugnacius_CBS139214_T,ERR2673957.27239,84.27,89,13,1,237,325,11,98,1e-16,86.1
Fonsecaea_pugnacius_CBS139214_T,ERR2673957.465,80.90,89,16,1,237,325,11,98,1e-11,69.4
Fonsecaea_pugnacius_CBS139214_T,ERR2673957.32740,100.00,28,0,0,237,264,11,38,1e-06,52.8
Cladophialophora_psammophila_CBS,ERR2673957.4500,87.64,89,10,1,243,331,11,98,1e-21,102
Cladophialophora_psammophila_CBS,ERR2673957.1937,85.39,89,12,1,243,331,11,98,3e-18,91.6
Cladophialophora_psammophila_CBS,ERR2673957.1570,85.39,89,12,1,243,331,11,98,3e-18,91.6
Cladophialophora_psammophila_CBS,ERR2673957.27239,84.27,89,13,1,243,331,11,98,1e-16,86.1
Cladophialophora_psammophila_CBS,ERR2673957.465,80.90,89,16,1,243,331,11,98,1e-11,69.4
Cladophialophora_psammophila_CBS,ERR2673957.32740,100.00,28,0,0,243,270,11,38,1e-06,52.8
Cladophialophora_devriesii_CBS,ERR2673957.4500,87.64,89,10,1,239,327,11,98,1e-21,102
Cladophialophora_devriesii_CBS,ERR2673957.1937,85.39,89,12,1,239,327,11,98,3e-18,91.6
Cladophialophora_devriesii_CBS,ERR2673957.1570,85.39,89,12,1,239,327,11,98,3e-18,91.6
Cladophialophora_devriesii_CBS,ERR2673957.27239,84.27,89,13,1,239,327,11,98,1e-16,86.1
Cladophialophora_devriesii_CBS,ERR2673957.465,80.90,89,16,1,239,327,11,98,1e-11,69.4
Cladophialophora_devriesii_CBS,ERR2673957.32740,100.00,28,0,0,239,266,11,38,1e-06,52.8
Cladophialophora_immunda_CBS834.96,ERR2673957.4500,87.64,89,10,1,241,329,11,98,1e-21,102
Cladophialophora_immunda_CBS834.96,ERR2673957.1937,85.39,89,12,1,241,329,11,98,3e-18,91.6
Cladophialophora_immunda_CBS834.96,ERR2673957.1570,85.39,89,12,1,241,329,11,98,3e-18,91.6
Cladophialophora_immunda_CBS834.96,ERR2673957.27239,84.27,89,13,1,241,329,11,98,1e-16,86.1
Cladophialophora_immunda_CBS834.96,ERR2673957.465,80.90,89,16,1,241,329,11,98,1e-11,69.4
Cladophialophora_immunda_CBS834.96,ERR2673957.32740,100.00,28,0,0,241,268,11,38,1e-06,52.8
Cladophialophora_arxii_CBS306.94_T,ERR2673957.4500,87.64,89,10,1,243,331,11,98,1e-21,102
Cladophialophora_arxii_CBS306.94_T,ERR2673957.1937,85.39,89,12,1,243,331,11,98,3e-18,91.6
Cladophialophora_arxii_CBS306.94_T,ERR2673957.1570,85.39,89,12,1,243,331,11,98,3e-18,91.6
Cladophialophora_arxii_CBS306.94_T,ERR2673957.27239,84.27,89,13,1,243,331,11,98,1e-16,86.1
Cladophialophora_arxii_CBS306.94_T,ERR2673957.465,80.90,89,16,1,243,331,11,98,1e-11,69.4
Cladophialophora_arxii_CBS306.94_T,ERR2673957.32740,100.00,28,0,0,243,270,11,38,1e-06,52.8
Cladophialophora_bantiana_CBS173.52,ERR2673957.4500,87.64,89,10,1,237,325,11,98,1e-21,102
Cladophialophora_bantiana_CBS173.52,ERR2673957.1937,85.39,89,12,1,237,325,11,98,3e-18,91.6
Cladophialophora_bantiana_CBS173.52,ERR2673957.1570,85.39,89,12,1,237,325,11,98,3e-18,91.6
Cladophialophora_bantiana_CBS173.52,ERR2673957.27239,84.27,89,13,1,237,325,11,98,1e-16,86.1
Cladophialophora_bantiana_CBS173.52,ERR2673957.465,80.90,89,16,1,237,325,11,98,1e-11,69.4
Cladophialophora_bantiana_CBS173.52,ERR2673957.32740,100.00,28,0,0,237,264,11,38,1e-06,52.8
Cladophialophora_emmonsii_CBS102594,ERR2673957.4500,87.64,89,10,1,228,316,11,98,1e-21,102
Cladophialophora_emmonsii_CBS102594,ERR2673957.1937,85.39,89,12,1,228,316,11,98,3e-18,91.6
Cladophialophora_emmonsii_CBS102594,ERR2673957.1570,85.39,89,12,1,228,316,11,98,3e-18,91.6
Cladophialophora_emmonsii_CBS102594,ERR2673957.27239,84.27,89,13,1,228,316,11,98,1e-16,86.1
Cladophialophora_emmonsii_CBS102594,ERR2673957.465,80.90,89,16,1,228,316,11,98,1e-11,69.4
Cladophialophora_emmonsii_CBS102594,ERR2673957.32740,100.00,28,0,0,228,255,11,38,1e-06,52.8
Cladophialophora_minourae_CBS556.83,ERR2673957.4500,88.76,89,9,1,236,324,11,98,3e-23,108
Cladophialophora_minourae_CBS556.83,ERR2673957.1937,86.52,89,11,1,236,324,11,98,6e-20,97.1
Cladophialophora_minourae_CBS556.83,ERR2673957.1570,86.52,89,11,1,236,324,11,98,6e-20,97.1
Cladophialophora_minourae_CBS556.83,ERR2673957.27239,85.39,89,12,1,236,324,11,98,3e-18,91.6
Cladophialophora_minourae_CBS556.83,ERR2673957.465,82.02,89,15,1,236,324,11,98,3e-13,75.0
Cladophialophora_minourae_CBS556.83,ERR2673957.32740,100.00,28,0,0,236,263,11,38,1e-06,52.8
Cladophialophora_australiensis_CBS112793,ERR2673957.4500,87.64,89,10,1,238,326,11,98,3e-21,102
Cladophialophora_australiensis_CBS112793,ERR2673957.1937,85.39,89,12,1,238,326,11,98,7e-18,91.6
Cladophialophora_australiensis_CBS112793,ERR2673957.1570,85.39,89,12,1,238,326,11,98,7e-18,91.6
Cladophialophora_australiensis_CBS112793,ERR2673957.27239,84.27,89,13,1,238,326,11,98,3e-16,86.1
Cladophialophora_australiensis_CBS112793,ERR2673957.465,80.90,89,16,1,238,326,11,98,3e-11,69.4
Cladophialophora_australiensis_CBS112793,ERR2673957.32740,100.00,28,0,0,238,265,11,38,3e-06,52.8
Cladophialophora_potulentorum_CBS112222,ERR2673957.4500,87.64,89,10,1,237,325,11,98,3e-21,102
Cladophialophora_potulentorum_CBS112222,ERR2673957.1937,85.39,89,12,1,237,325,11,98,7e-18,91.6
Cladophialophora_potulentorum_CBS112222,ERR2673957.1570,85.39,89,12,1,237,325,11,98,7e-18,91.6
Cladophialophora_potulentorum_CBS112222,ERR2673957.27239,84.27,89,13,1,237,325,11,98,3e-16,86.1
Cladophialophora_potulentorum_CBS112222,ERR2673957.465,80.90,89,16,1,237,325,11,98,3e-11,69.4
Cladophialophora_potulentorum_CBS112222,ERR2673957.32740,100.00,28,0,0,237,264,11,38,3e-06,52.8
Cladophialophora_matsushimae_CMRP1198,ERR2673957.4500,87.64,89,10,1,241,329,11,98,1e-21,102
Cladophialophora_matsushimae_CMRP1198,ERR2673957.1937,85.39,89,12,1,241,329,11,98,2e-18,91.6
Cladophialophora_matsushimae_CMRP1198,ERR2673957.1570,85.39,89,12,1,241,329,11,98,2e-18,91.6
Cladophialophora_matsushimae_CMRP1198,ERR2673957.27239,84.27,89,13,1,241,329,11,98,1e-16,86.1
Cladophialophora_matsushimae_CMRP1198,ERR2673957.465,80.90,89,16,1,241,329,11,98,1e-11,69.4
Cladophialophora_matsushimae_CMRP1198,ERR2673957.32740,100.00,28,0,0,241,268,11,38,1e-06,52.8
Cladophialophora_mycetomatis_CBS122637,ERR2673957.4500,87.64,89,10,1,226,314,11,98,1e-21,102
Cladophialophora_mycetomatis_CBS122637,ERR2673957.1937,85.39,89,12,1,226,314,11,98,3e-18,91.6
Cladophialophora_mycetomatis_CBS122637,ERR2673957.1570,85.39,89,12,1,226,314,11,98,3e-18,91.6
Cladophialophora_mycetomatis_CBS122637,ERR2673957.27239,84.27,89,13,1,226,314,11,98,1e-16,86.1
Cladophialophora_mycetomatis_CBS122637,ERR2673957.465,80.90,89,16,1,226,314,11,98,1e-11,69.4
Cladophialophora_mycetomatis_CBS122637,ERR2673957.32740,100.00,28,0,0,226,253,11,38,1e-06,52.8
Cladophialophora_chaetospira_CBS127573,ERR2673957.4500,87.64,89,10,1,632,720,11,98,2e-21,102
Cladophialophora_chaetospira_CBS127573,ERR2673957.1937,85.39,89,12,1,632,720,11,98,5e-18,91.6
Cladophialophora_chaetospira_CBS127573,ERR2673957.1570,85.39,89,12,1,632,720,11,98,5e-18,91.6
Cladophialophora_chaetospira_CBS127573,ERR2673957.27239,84.27,89,13,1,632,720,11,98,2e-16,86.1
Cladophialophora_chaetospira_CBS127573,ERR2673957.465,80.90,89,16,1,632,720,11,98,2e-11,69.4
Cladophialophora_chaetospira_CBS127573,ERR2673957.32740,100.00,28,0,0,632,659,11,38,2e-06,52.8
Cladophialophora_boppii_CBS126.86_T,ERR2673957.4500,87.64,89,10,1,234,322,11,98,1e-21,102
Cladophialophora_boppii_CBS126.86_T,ERR2673957.1937,85.39,89,12,1,234,322,11,98,3e-18,91.6
Cladophialophora_boppii_CBS126.86_T,ERR2673957.1570,85.39,89,12,1,234,322,11,98,3e-18,91.6
Cladophialophora_boppii_CBS126.86_T,ERR2673957.27239,84.27,89,13,1,234,322,11,98,1e-16,86.1
Cladophialophora_boppii_CBS126.86_T,ERR2673957.465,80.90,89,16,1,234,322,11,98,1e-11,69.4
Cladophialophora_boppii_CBS126.86_T,ERR2673957.32740,100.00,28,0,0,234,261,11,38,1e-06,52.8
Cladophialophora_abundans_CBS126736,ERR2673957.4500,86.87,99,12,1,171,269,11,108,6e-24,110
Cladophialophora_abundans_CBS126736,ERR2673957.1937,86.52,89,11,1,171,259,11,98,5e-20,97.1
Cladophialophora_abundans_CBS126736,ERR2673957.1570,86.52,89,11,1,171,259,11,98,5e-20,97.1
Cladophialophora_abundans_CBS126736,ERR2673957.27239,85.39,89,12,1,171,259,11,98,2e-18,91.6
Cladophialophora_abundans_CBS126736,ERR2673957.465,82.02,89,15,1,171,259,11,98,2e-13,75.0
Cladophialophora_abundans_CBS126736,ERR2673957.32740,100.00,28,0,0,171,198,11,38,1e-06,52.8
Capronia_semi-immersa_CBS102234,ERR2673957.4500,88.76,89,9,1,233,321,11,98,3e-23,108
Capronia_semi-immersa_CBS102234,ERR2673957.1937,86.52,89,11,1,233,321,11,98,6e-20,97.1
Capronia_semi-immersa_CBS102234,ERR2673957.1570,86.52,89,11,1,233,321,11,98,6e-20,97.1
Capronia_semi-immersa_CBS102234,ERR2673957.27239,85.39,89,12,1,233,321,11,98,3e-18,91.6
Capronia_semi-immersa_CBS102234,ERR2673957.465,82.02,89,15,1,233,321,11,98,3e-13,75.0
Capronia_semi-immersa_CBS102234,ERR2673957.32740,100.00,28,0,0,233,260,11,38,1e-06,52.8
Phialophora_americana_CBS400.67,ERR2673957.4500,88.76,89,9,1,235,323,11,98,7e-23,108
Phialophora_americana_CBS400.67,ERR2673957.1937,86.52,89,11,1,235,323,11,98,2e-19,97.1
Phialophora_americana_CBS400.67,ERR2673957.1570,86.52,89,11,1,235,323,11,98,2e-19,97.1
Phialophora_americana_CBS400.67,ERR2673957.27239,85.39,89,12,1,235,323,11,98,7e-18,91.6
Phialophora_americana_CBS400.67,ERR2673957.23561,92.86,56,4,0,545,600,306,251,4e-15,82.4
Phialophora_americana_CBS400.67,ERR2673957.465,82.02,89,15,1,235,323,11,98,7e-13,75.0
Phialophora_americana_CBS400.67,ERR2673957.9527,88.24,51,6,0,554,604,297,247,6e-09,62.1
Phialophora_americana_CBS400.67,ERR2673957.32740,100.00,28,0,0,235,262,11,38,3e-06,52.8
Phialophora_verrucosa_CBS140325_T,ERR2673957.4500,88.76,89,9,1,239,327,11,98,3e-23,108
Phialophora_verrucosa_CBS140325_T,ERR2673957.1937,86.52,89,11,1,239,327,11,98,6e-20,97.1
Phialophora_verrucosa_CBS140325_T,ERR2673957.1570,86.52,89,11,1,239,327,11,98,6e-20,97.1
Phialophora_verrucosa_CBS140325_T,ERR2673957.27239,85.39,89,12,1,239,327,11,98,3e-18,91.6
Phialophora_verrucosa_CBS140325_T,ERR2673957.465,82.02,89,15,1,239,327,11,98,3e-13,75.0
Phialophora_verrucosa_CBS140325_T,ERR2673957.32740,100.00,28,0,0,239,266,11,38,1e-06,52.8
Cladophialophora_samoensis_CBS259.83_T,ERR2673957.4500,85.86,99,13,1,239,337,11,108,3e-22,104
Cladophialophora_samoensis_CBS259.83_T,ERR2673957.1937,85.39,89,12,1,239,327,11,98,3e-18,91.6
Cladophialophora_samoensis_CBS259.83_T,ERR2673957.1570,85.39,89,12,1,239,327,11,98,3e-18,91.6
Cladophialophora_samoensis_CBS259.83_T,ERR2673957.27239,84.27,89,13,1,239,327,11,98,1e-16,86.1
Cladophialophora_samoensis_CBS259.83_T,ERR2673957.465,80.90,89,16,1,239,327,11,98,1e-11,69.4
Cladophialophora_samoensis_CBS259.83_T,ERR2673957.32740,100.00,28,0,0,239,266,11,38,1e-06,52.8
Cladophialophora_carrionii_CBS260.83,ERR2673957.4500,87.64,89,10,1,255,343,11,98,1e-21,102
Cladophialophora_carrionii_CBS260.83,ERR2673957.1937,85.39,89,12,1,255,343,11,98,3e-18,91.6
Cladophialophora_carrionii_CBS260.83,ERR2673957.1570,85.39,89,12,1,255,343,11,98,3e-18,91.6
Cladophialophora_carrionii_CBS260.83,ERR2673957.27239,84.27,89,13,1,255,343,11,98,1e-16,86.1
Cladophialophora_carrionii_CBS260.83,ERR2673957.465,80.90,89,16,1,255,343,11,98,1e-11,69.4
Cladophialophora_carrionii_CBS260.83,ERR2673957.32740,100.00,28,0,0,255,282,11,38,1e-06,52.8
Exophiala_palmae_UPCB86822_T,ERR2673957.4500,87.64,89,10,1,198,286,11,98,1e-21,102
Exophiala_palmae_UPCB86822_T,ERR2673957.1937,85.39,89,12,1,198,286,11,98,2e-18,91.6
Exophiala_palmae_UPCB86822_T,ERR2673957.1570,85.39,89,12,1,198,286,11,98,2e-18,91.6
Exophiala_palmae_UPCB86822_T,ERR2673957.27239,84.27,89,13,1,198,286,11,98,1e-16,86.1
Exophiala_palmae_UPCB86822_T,ERR2673957.465,80.90,89,16,1,198,286,11,98,1e-11,69.4
Exophiala_palmae_UPCB86822_T,ERR2673957.32740,100.00,28,0,0,198,225,11,38,1e-06,52.8
Cladophialophora_yegresii_CBS114405_T,ERR2673957.4500,87.64,89,10,1,240,328,11,98,1e-21,102
Cladophialophora_yegresii_CBS114405_T,ERR2673957.1937,85.39,89,12,1,240,328,11,98,3e-18,91.6
Cladophialophora_yegresii_CBS114405_T,ERR2673957.1570,85.39,89,12,1,240,328,11,98,3e-18,91.6
Cladophialophora_yegresii_CBS114405_T,ERR2673957.27239,84.27,89,13,1,240,328,11,98,1e-16,86.1
Cladophialophora_yegresii_CBS114405_T,ERR2673957.465,80.90,89,16,1,240,328,11,98,1e-11,69.4
Cladophialophora_yegresii_CBS114405_T,ERR2673957.32740,100.00,28,0,0,240,267,11,38,1e-06,52.8
Knufia_epidermidis_CBS120353_T,ERR2673957.4500,84.55,110,14,2,238,345,11,119,9e-23,106
Knufia_epidermidis_CBS120353_T,ERR2673957.1937,85.39,89,12,1,238,326,11,98,3e-18,91.6
Knufia_epidermidis_CBS120353_T,ERR2673957.1570,85.39,89,12,1,238,326,11,98,3e-18,91.6
Knufia_epidermidis_CBS120353_T,ERR2673957.27239,84.27,89,13,1,238,326,11,98,1e-16,86.1
Knufia_epidermidis_CBS120353_T,ERR2673957.465,80.90,89,16,1,238,326,11,98,1e-11,69.4
Knufia_epidermidis_CBS120353_T,ERR2673957.32740,100.00,28,0,0,238,265,11,38,1e-06,52.8
Arthrocladium_fulminans_CBS136243_T,ERR2673957.4500,87.64,89,10,1,233,321,11,98,1e-21,102
Arthrocladium_fulminans_CBS136243_T,ERR2673957.1937,85.39,89,12,1,233,321,11,98,3e-18,91.6
Arthrocladium_fulminans_CBS136243_T,ERR2673957.1570,85.39,89,12,1,233,321,11,98,3e-18,91.6
Arthrocladium_fulminans_CBS136243_T,ERR2673957.27239,84.27,89,13,1,233,321,11,98,1e-16,86.1
Arthrocladium_fulminans_CBS136243_T,ERR2673957.465,80.90,89,16,1,233,321,11,98,1e-11,69.4
Arthrocladium_fulminans_CBS136243_T,ERR2673957.32740,100.00,28,0,0,233,260,11,38,1e-06,52.8
Anthopsis_deltoidea_CBS263.77_T,ERR2673957.4500,88.64,88,9,1,242,328,11,98,9e-23,106
Anthopsis_deltoidea_CBS263.77_T,ERR2673957.1937,86.36,88,11,1,242,328,11,98,2e-19,95.3
Anthopsis_deltoidea_CBS263.77_T,ERR2673957.1570,86.36,88,11,1,242,328,11,98,2e-19,95.3
Anthopsis_deltoidea_CBS263.77_T,ERR2673957.27239,85.23,88,12,1,242,328,11,98,9e-18,89.8
Anthopsis_deltoidea_CBS263.77_T,ERR2673957.465,81.82,88,15,1,242,328,11,98,9e-13,73.1
Anthopsis_deltoidea_CBS263.77_T,ERR2673957.32740,100.00,28,0,0,242,269,11,38,1e-06,52.8
Cyphellophora_laciniata_CBS190.61_T,ERR2673957.4500,86.73,98,12,1,327,423,11,108,4e-23,108
Cyphellophora_laciniata_CBS190.61_T,ERR2673957.1937,86.36,88,11,1,327,413,11,98,3e-19,95.3
Cyphellophora_laciniata_CBS190.61_T,ERR2673957.1570,86.36,88,11,1,327,413,11,98,3e-19,95.3
Cyphellophora_laciniata_CBS190.61_T,ERR2673957.27239,85.23,88,12,1,327,413,11,98,1e-17,89.8
Cyphellophora_laciniata_CBS190.61_T,ERR2673957.23561,92.86,56,4,0,640,695,306,251,2e-15,82.4
Cyphellophora_laciniata_CBS190.61_T,ERR2673957.465,81.82,88,15,1,327,413,11,98,1e-12,73.1
Cyphellophora_laciniata_CBS190.61_T,ERR2673957.32740,100.00,28,0,0,327,354,11,38,2e-06,52.8
Cyphellophora_suttonii_CBS449.91,ERR2673957.4500,86.73,98,12,1,230,326,11,108,3e-23,108
Cyphellophora_suttonii_CBS449.91,ERR2673957.1937,86.36,88,11,1,230,316,11,98,2e-19,95.3
Cyphellophora_suttonii_CBS449.91,ERR2673957.1570,86.36,88,11,1,230,316,11,98,2e-19,95.3
Cyphellophora_suttonii_CBS449.91,ERR2673957.27239,85.23,88,12,1,230,316,11,98,9e-18,89.8
Cyphellophora_suttonii_CBS449.91,ERR2673957.465,81.82,88,15,1,230,316,11,98,9e-13,73.1
Cyphellophora_suttonii_CBS449.91,ERR2673957.32740,100.00,28,0,0,230,257,11,38,1e-06,52.8
Cyphellophora_pauciseptata_CBS284.85_T,ERR2673957.4500,86.73,98,12,1,241,337,11,108,3e-23,108
Cyphellophora_pauciseptata_CBS284.85_T,ERR2673957.1937,86.36,88,11,1,241,327,11,98,2e-19,95.3
Cyphellophora_pauciseptata_CBS284.85_T,ERR2673957.1570,86.36,88,11,1,241,327,11,98,2e-19,95.3
Cyphellophora_pauciseptata_CBS284.85_T,ERR2673957.27239,85.23,88,12,1,241,327,11,98,9e-18,89.8
Cyphellophora_pauciseptata_CBS284.85_T,ERR2673957.465,81.82,88,15,1,241,327,11,98,9e-13,73.1
Cyphellophora_pauciseptata_CBS284.85_T,ERR2673957.32740,100.00,28,0,0,241,268,11,38,1e-06,52.8
Cyphellophora_pluriseptata_CBS286.85_T,ERR2673957.4500,86.60,97,12,1,247,342,12,108,9e-23,106
Cyphellophora_pluriseptata_CBS286.85_T,ERR2673957.1937,86.21,87,11,1,247,332,12,98,7e-19,93.5
Cyphellophora_pluriseptata_CBS286.85_T,ERR2673957.1570,86.21,87,11,1,247,332,12,98,7e-19,93.5
Cyphellophora_pluriseptata_CBS286.85_T,ERR2673957.27239,85.06,87,12,1,247,332,12,98,3e-17,87.9
Cyphellophora_pluriseptata_CBS286.85_T,ERR2673957.465,81.61,87,15,1,247,332,12,98,3e-12,71.3
Phialophora_europaea_CBS101466,ERR2673957.4500,86.73,98,12,1,236,332,11,108,3e-23,108
Phialophora_europaea_CBS101466,ERR2673957.1937,86.36,88,11,1,236,322,11,98,2e-19,95.3
Phialophora_europaea_CBS101466,ERR2673957.1570,86.36,88,11,1,236,322,11,98,2e-19,95.3
Phialophora_europaea_CBS101466,ERR2673957.27239,85.23,88,12,1,236,322,11,98,9e-18,89.8
Phialophora_europaea_CBS101466,ERR2673957.465,81.82,88,15,1,236,322,11,98,9e-13,73.1
Phialophora_europaea_CBS101466,ERR2673957.32740,100.00,28,0,0,236,263,11,38,1e-06,52.8
Phialophora_ambigua_CBS235.93,ERR2673957.4500,86.73,98,12,1,233,329,11,108,3e-23,108
Phialophora_ambigua_CBS235.93,ERR2673957.1937,86.36,88,11,1,233,319,11,98,2e-19,95.3
Phialophora_ambigua_CBS235.93,ERR2673957.1570,86.36,88,11,1,233,319,11,98,2e-19,95.3
Phialophora_ambigua_CBS235.93,ERR2673957.27239,85.23,88,12,1,233,319,11,98,9e-18,89.8
Phialophora_ambigua_CBS235.93,ERR2673957.465,81.82,88,15,1,233,319,11,98,9e-13,73.1
Phialophora_ambigua_CBS235.93,ERR2673957.32740,100.00,28,0,0,233,260,11,38,1e-06,52.8
Cladophialophora_modesta_CBS985.96_T,ERR2673957.4500,87.64,89,10,1,230,318,11,98,1e-21,102
Cladophialophora_modesta_CBS985.96_T,ERR2673957.1937,85.39,89,12,1,230,318,11,98,3e-18,91.6
Cladophialophora_modesta_CBS985.96_T,ERR2673957.1570,85.39,89,12,1,230,318,11,98,3e-18,91.6
Cladophialophora_modesta_CBS985.96_T,ERR2673957.27239,84.27,89,13,1,230,318,11,98,1e-16,86.1
Cladophialophora_modesta_CBS985.96_T,ERR2673957.23561,91.07,56,5,0,524,579,306,251,8e-14,76.8
Cladophialophora_modesta_CBS985.96_T,ERR2673957.465,80.90,89,16,1,230,318,11,98,1e-11,69.4
Cladophialophora_modesta_CBS985.96_T,ERR2673957.32740,100.00,28,0,0,230,257,11,38,1e-06,52.8
Cyphellophora_fusarioides_MUCL44033_T,ERR2673957.4500,86.73,98,12,1,229,325,11,108,3e-23,108
Cyphellophora_fusarioides_MUCL44033_T,ERR2673957.1937,86.36,88,11,1,229,315,11,98,2e-19,95.3
Cyphellophora_fusarioides_MUCL44033_T,ERR2673957.1570,86.36,88,11,1,229,315,11,98,2e-19,95.3
Cyphellophora_fusarioides_MUCL44033_T,ERR2673957.27239,85.23,88,12,1,229,315,11,98,9e-18,89.8
Cyphellophora_fusarioides_MUCL44033_T,ERR2673957.465,81.82,88,15,1,229,315,11,98,9e-13,73.1
Cyphellophora_fusarioides_MUCL44033_T,ERR2673957.32740,100.00,28,0,0,229,256,11,38,1e-06,52.8
