Exophiala_dermatitidis_CBS748.88,ERR476619.47664,95.70,93,4,0,1181,1273,1,93,8e-36,150
Cladophialophora_australiensis_CBS112793,ERR476619.47664,92.47,93,7,0,1148,1240,1,93,8e-31,134
Cladophialophora_potulentorum_CBS112222,ERR476619.47664,92.47,93,7,0,1150,1242,1,93,8e-31,134
Phialophora_americana_CBS400.67,ERR476619.47664,95.70,93,4,0,1142,1234,1,93,8e-36,150
