Exophiala_nigra_CBS535.94_T,ERR2438976.10287,91.67,132,8,3,243,373,6,135,2e-45,180
Exophiala_nigra_CBS535.94_T,ERR2438976.2315,89.39,132,12,2,242,373,4,133,7e-41,165
Exophiala_nigra_CBS535.94_T,ERR2438976.4417,87.79,131,14,2,243,373,6,134,5e-37,152
Exophiala_spinifera_CBS899.68_T,ERR2438976.10287,88.34,163,12,6,240,401,6,162,4e-48,189
Exophiala_spinifera_CBS899.68_T,ERR2438976.2315,82.99,194,26,7,239,429,4,193,5e-42,169
Exophiala_spinifera_CBS899.68_T,ERR2438976.4417,84.57,162,19,5,240,401,6,161,4e-38,156
Exophiala_exophialae_CBS668.76_T,ERR2438976.10287,88.34,163,12,6,241,402,6,162,4e-48,189
Exophiala_exophialae_CBS668.76_T,ERR2438976.2315,83.08,195,24,9,240,430,4,193,5e-42,169
Exophiala_exophialae_CBS668.76_T,ERR2438976.4417,84.57,162,19,5,241,402,6,161,4e-38,156
Exophiala_polymorpha_CBS138920_T,ERR2438976.10287,88.54,157,12,5,343,498,6,157,6e-47,185
Exophiala_polymorpha_CBS138920_T,ERR2438976.2315,86.67,150,17,3,342,490,4,151,3e-40,163
Exophiala_polymorpha_CBS138920_T,ERR2438976.4417,85.81,148,17,4,343,490,6,149,2e-37,154
Exophiala_polymorpha_CBS138920_T,ERR2438976.10531,94.34,53,3,0,642,694,361,309,8e-16,82.4
Exophiala_oligosperma_CBS725.88_T,ERR2438976.10287,89.26,149,11,5,253,400,6,150,6e-46,182
Exophiala_oligosperma_CBS725.88_T,ERR2438976.2315,85.80,162,18,5,252,412,4,161,2e-41,167
Exophiala_oligosperma_CBS725.88_T,ERR2438976.4417,85.81,148,17,4,253,400,6,149,1e-37,154
Exophiala_jeanselmei_CBS507.90_T,ERR2438976.10287,88.54,157,12,5,245,400,6,157,5e-47,185
Exophiala_jeanselmei_CBS507.90_T,ERR2438976.2315,86.67,150,17,3,244,392,4,151,3e-40,163
Exophiala_jeanselmei_CBS507.90_T,ERR2438976.4417,85.81,148,17,4,245,392,6,149,2e-37,154
Exophiala_jeanselmei_CBS507.90_T,ERR2438976.10531,93.44,61,4,0,543,603,362,302,1e-18,91.6
Exophiala_bergeri_CBS353.52,ERR2438976.10287,91.67,132,8,3,206,336,6,135,2e-45,180
Exophiala_bergeri_CBS353.52,ERR2438976.2315,86.71,158,18,3,205,362,4,158,3e-43,172
Exophiala_bergeri_CBS353.52,ERR2438976.4417,87.79,131,14,2,206,336,6,134,4e-37,152
Exophiala_moniliae_CBS520.76_T,ERR2438976.10287,90.91,132,9,3,243,373,6,135,1e-43,174
Exophiala_moniliae_CBS520.76_T,ERR2438976.2315,90.98,122,9,2,242,363,4,123,2e-40,163
Exophiala_moniliae_CBS520.76_T,ERR2438976.4417,89.74,117,11,1,243,359,6,121,7e-36,148
Exophiala_pisciphila_CBS537.73_T,ERR2438976.10287,89.17,157,11,5,246,401,6,157,1e-48,191
Exophiala_pisciphila_CBS537.73_T,ERR2438976.2315,87.33,150,16,3,245,393,4,151,6e-42,169
Exophiala_pisciphila_CBS537.73_T,ERR2438976.4417,85.81,148,17,4,246,393,6,149,2e-37,154
Exophiala_xenobiotica_CBS117642,ERR2438976.10287,89.17,157,11,5,238,393,6,157,1e-48,191
Exophiala_xenobiotica_CBS117642,ERR2438976.2315,88.00,150,15,3,237,385,4,151,1e-43,174
Exophiala_xenobiotica_CBS117642,ERR2438976.4417,86.49,148,16,4,238,385,6,149,3e-39,159
Exophiala_brunnea_CBS,ERR2438976.10287,88.54,157,12,5,274,429,6,157,6e-47,185
Exophiala_brunnea_CBS,ERR2438976.2315,87.33,150,16,3,273,421,4,151,6e-42,169
Exophiala_brunnea_CBS,ERR2438976.4417,85.14,148,18,4,274,421,6,149,7e-36,148
Exophiala_nishimurae_CBS101538_T,ERR2438976.10287,89.26,149,11,5,252,399,6,150,7e-46,182
Exophiala_nishimurae_CBS101538_T,ERR2438976.2315,86.67,150,17,3,251,399,4,151,2e-40,163
Exophiala_nishimurae_CBS101538_T,ERR2438976.4417,85.81,148,17,4,252,399,6,149,1e-37,154
Exophiala_nishimurae_CBS101538_T,ERR2438976.10531,95.24,42,2,0,550,591,362,321,2e-11,67.6
Exophiala_mesophila_CBS402.95_T,ERR2438976.10287,90.91,132,9,3,236,366,6,135,1e-43,174
Exophiala_mesophila_CBS402.95_T,ERR2438976.2315,88.64,132,13,2,235,366,4,133,4e-39,159
Exophiala_mesophila_CBS402.95_T,ERR2438976.4417,88.89,117,12,1,236,352,6,121,4e-34,143
Exophiala_mesophila_CBS402.95_T,ERR2438976.10531,93.33,60,4,0,550,609,361,302,5e-18,89.8
Exophiala_castellanii_CBS158.58_T,ERR2438976.10287,90.91,132,9,3,234,364,6,135,1e-43,174
Exophiala_castellanii_CBS158.58_T,ERR2438976.2315,88.64,132,13,2,233,364,4,133,4e-39,159
Exophiala_castellanii_CBS158.58_T,ERR2438976.4417,88.89,117,12,1,234,350,6,121,4e-34,143
Exophiala_castellanii_CBS158.58_T,ERR2438976.10531,93.33,60,4,0,549,608,361,302,5e-18,89.8
Exophiala_lecanii-corni_CBS123.33_T,ERR2438976.10287,90.91,132,9,3,257,387,6,135,1e-43,174
Exophiala_lecanii-corni_CBS123.33_T,ERR2438976.2315,88.64,132,13,2,256,387,4,133,3e-39,159
Exophiala_lecanii-corni_CBS123.33_T,ERR2438976.4417,87.02,131,15,2,257,387,6,134,2e-35,147
Exophiala_dermatitidis_CBS748.88,ERR2438976.10287,89.33,150,10,5,249,397,6,150,5e-46,183
Exophiala_dermatitidis_CBS748.88,ERR2438976.2315,85.80,176,20,5,248,423,4,174,2e-45,182
Exophiala_dermatitidis_CBS748.88,ERR2438976.4417,89.74,117,11,1,249,365,6,121,2e-35,148
Exophiala_dermatitidis_CBS748.88,ERR2438976.10531,93.44,61,4,0,574,634,362,302,3e-18,91.6
Exophiala_angulospora_CBS482.92_T,ERR2438976.10287,88.67,150,11,5,240,388,6,150,8e-45,178
Exophiala_angulospora_CBS482.92_T,ERR2438976.2315,86.67,150,18,2,239,388,4,151,6e-41,165
Exophiala_angulospora_CBS482.92_T,ERR2438976.4417,89.74,117,11,1,240,356,6,121,6e-36,148
Exophiala_opportunistica_CBS109811_T,ERR2438976.10287,89.81,157,10,5,239,394,6,157,2e-50,196
Exophiala_opportunistica_CBS109811_T,ERR2438976.2315,88.00,150,15,3,238,386,4,151,1e-43,174
Exophiala_opportunistica_CBS109811_T,ERR2438976.4417,86.49,148,16,4,239,386,6,149,3e-39,159
Exophiala_salmonis_CBS157.67_T,ERR2438976.10287,89.17,157,11,5,368,523,6,157,2e-48,191
Exophiala_salmonis_CBS157.67_T,ERR2438976.2315,88.00,150,15,3,367,515,4,151,2e-43,174
Exophiala_salmonis_CBS157.67_T,ERR2438976.4417,85.81,148,17,4,368,515,6,149,2e-37,154
Exophiala_aquamarina_CBS119918_T,ERR2438976.10287,90.60,149,10,4,246,394,6,150,8e-50,195
Exophiala_aquamarina_CBS119918_T,ERR2438976.2315,87.50,152,13,6,245,394,4,151,1e-42,171
Exophiala_aquamarina_CBS119918_T,ERR2438976.4417,85.91,149,16,4,246,394,6,149,1e-37,154
Exophiala_cancerae_CBS120420_T,ERR2438976.10287,89.81,157,10,5,261,416,6,157,3e-50,196
Exophiala_cancerae_CBS120420_T,ERR2438976.2315,88.00,150,15,3,260,408,4,151,1e-43,174
Exophiala_cancerae_CBS120420_T,ERR2438976.4417,86.49,148,16,4,261,408,6,149,3e-39,159
Exophiala_tremulae_CBS129355,ERR2438976.10287,89.81,157,10,6,273,428,6,157,3e-50,196
Exophiala_tremulae_CBS129355,ERR2438976.2315,88.08,151,13,5,272,420,4,151,1e-43,174
Exophiala_tremulae_CBS129355,ERR2438976.4417,86.49,148,16,4,273,420,6,149,3e-39,159
Exophiala_equina_CBS116009,ERR2438976.10287,89.81,157,10,6,239,394,6,157,2e-50,196
Exophiala_equina_CBS116009,ERR2438976.2315,88.08,151,13,5,238,386,4,151,1e-43,174
Exophiala_equina_CBS116009,ERR2438976.4417,86.49,148,16,4,239,386,6,149,3e-39,159
Exophiala_alcalophila_CBS520.82_T,ERR2438976.10287,88.67,150,11,5,250,398,6,150,8e-45,178
Exophiala_alcalophila_CBS520.82_T,ERR2438976.2315,86.67,150,18,2,249,398,4,151,7e-41,165
Exophiala_alcalophila_CBS520.82_T,ERR2438976.4417,89.74,117,11,1,250,366,6,121,7e-36,148
Exophiala_crusticola_CBS119970_T,ERR2438976.10287,91.67,132,8,3,255,385,6,135,2e-45,180
Exophiala_crusticola_CBS119970_T,ERR2438976.2315,89.39,132,12,2,254,385,4,133,6e-41,165
Exophiala_crusticola_CBS119970_T,ERR2438976.4417,89.74,117,11,1,255,371,6,121,6e-36,148
Rhinocladiella_atrovirens_CBS264.49,ERR2438976.10287,90.91,132,9,3,281,411,6,135,1e-43,174
Rhinocladiella_atrovirens_CBS264.49,ERR2438976.2315,88.64,132,13,2,280,411,4,133,3e-39,159
Rhinocladiella_atrovirens_CBS264.49,ERR2438976.4417,87.02,131,15,2,281,411,6,134,3e-35,147
Rhinocladiella_basitona_CBS101460_T,ERR2438976.10287,88.54,157,12,5,240,395,6,157,5e-47,185
Rhinocladiella_basitona_CBS101460_T,ERR2438976.2315,86.67,150,17,3,239,387,4,151,2e-40,163
Rhinocladiella_basitona_CBS101460_T,ERR2438976.4417,85.81,148,17,4,240,387,6,149,1e-37,154
Rhinocladiella_phaeophora_CBS496.78_T,ERR2438976.10287,91.67,132,8,3,248,378,6,135,2e-45,180
Rhinocladiella_phaeophora_CBS496.78_T,ERR2438976.2315,86.09,151,18,3,247,397,4,151,3e-39,159
Rhinocladiella_phaeophora_CBS496.78_T,ERR2438976.4417,89.74,117,11,1,248,364,6,121,7e-36,148
Rhinocladiella_aquaspersa_CBS313.73_T,ERR2438976.10287,91.67,132,8,3,242,372,6,135,3e-45,180
Rhinocladiella_aquaspersa_CBS313.73_T,ERR2438976.2315,86.09,151,18,3,241,391,4,151,4e-39,159
Rhinocladiella_aquaspersa_CBS313.73_T,ERR2438976.4417,89.74,117,11,1,242,358,6,121,8e-36,148
Rhinocladiella_fasciculata_CBS132.86_T,ERR2438976.10287,90.15,132,10,3,258,388,6,135,5e-42,169
Rhinocladiella_fasciculata_CBS132.86_T,ERR2438976.2315,85.00,160,19,5,257,416,4,158,1e-38,158
Rhinocladiella_fasciculata_CBS132.86_T,ERR2438976.4417,88.89,117,12,1,258,374,6,121,3e-34,143
Rhinocladiella_anceps_CBS181.65_T,ERR2438976.10287,88.00,150,12,5,240,388,6,150,4e-43,172
Rhinocladiella_anceps_CBS181.65_T,ERR2438976.2315,86.00,150,19,2,239,388,4,151,3e-39,159
Rhinocladiella_anceps_CBS181.65_T,ERR2438976.4417,85.23,149,17,4,240,388,6,149,6e-36,148
Rhinocladiella_mackenziei_CBS367.92,ERR2438976.10287,90.84,131,9,3,229,358,6,134,4e-43,172
Rhinocladiella_mackenziei_CBS367.92,ERR2438976.2315,90.98,122,9,2,228,349,4,123,3e-40,163
Rhinocladiella_mackenziei_CBS367.92,ERR2438976.4417,87.69,130,14,2,229,358,6,133,2e-36,150
Veronaea_compacta_CBS268.75_T,ERR2438976.10287,87.97,158,12,6,262,418,6,157,2e-45,180
Veronaea_compacta_CBS268.75_T,ERR2438976.2315,86.75,151,16,4,261,410,4,151,7e-41,165
Veronaea_compacta_CBS268.75_T,ERR2438976.4417,88.89,117,12,1,262,378,6,121,3e-34,143
Capronia_pilosella_AFTOL-ID657,ERR2438976.10287,89.24,158,10,6,340,496,6,157,1e-48,191
Capronia_pilosella_AFTOL-ID657,ERR2438976.2315,87.50,152,13,5,339,488,4,151,2e-42,171
Capronia_pilosella_AFTOL-ID657,ERR2438976.4417,85.91,149,16,4,340,488,6,149,2e-37,154
Capronia_pilosella_AFTOL-ID657,ERR2438976.10531,95.24,42,2,0,642,683,362,321,2e-11,67.6
Capronia_dactylotricha_DAOM208471_T,ERR2438976.10287,90.98,133,8,3,242,373,6,135,4e-44,176
Capronia_dactylotricha_DAOM208471_T,ERR2438976.2315,91.53,118,9,1,241,358,4,120,1e-39,161
Capronia_dactylotricha_DAOM208471_T,ERR2438976.4417,87.88,132,13,3,242,373,6,134,6e-37,152
Capronia_kleinmondensis_CBS122671_T,ERR2438976.10287,90.91,132,9,3,267,397,6,135,1e-43,174
Capronia_kleinmondensis_CBS122671_T,ERR2438976.2315,88.64,132,13,2,266,397,4,133,4e-39,159
Capronia_kleinmondensis_CBS122671_T,ERR2438976.4417,87.02,131,15,2,267,397,6,134,3e-35,147
Capronia_mansonii_CBS101.67_T,ERR2438976.10287,90.00,150,9,5,253,401,6,150,5e-48,189
Capronia_mansonii_CBS101.67_T,ERR2438976.2315,87.42,159,15,5,252,409,4,158,1e-44,178
Capronia_mansonii_CBS101.67_T,ERR2438976.4417,85.91,149,16,4,253,401,6,149,2e-37,154
Capronia_mansonii_CBS101.67_T,ERR2438976.10531,93.44,61,4,0,567,627,362,302,1e-18,91.6
Capronia_munkii_DAOM216390_T,ERR2438976.10287,90.00,150,9,5,253,401,6,150,5e-48,189
Capronia_munkii_DAOM216390_T,ERR2438976.2315,87.42,159,15,5,252,409,4,158,1e-44,178
Capronia_munkii_DAOM216390_T,ERR2438976.4417,85.91,149,16,4,253,401,6,149,2e-37,154
Capronia_munkii_DAOM216390_T,ERR2438976.10531,93.44,61,4,0,567,627,362,302,1e-18,91.6
Capronia_coronata_ATCC56201_T,ERR2438976.10287,88.67,150,11,5,241,389,6,150,1e-44,178
Capronia_coronata_ATCC56201_T,ERR2438976.2315,86.67,150,18,2,240,389,4,151,7e-41,165
Capronia_coronata_ATCC56201_T,ERR2438976.4417,89.74,117,11,1,241,357,6,121,8e-36,148
Capronia_coronata_ATCC56201_T,ERR2438976.10531,93.44,61,4,0,538,598,362,302,1e-18,91.6
Capronia_parasitica_CBS123.88,ERR2438976.10287,91.54,130,8,3,247,375,6,133,3e-44,176
Capronia_parasitica_CBS123.88,ERR2438976.2315,90.98,122,9,2,246,367,4,123,3e-40,163
Capronia_parasitica_CBS123.88,ERR2438976.4417,89.74,117,11,1,247,363,6,121,7e-36,148
Veronaea_japonica_CBS776.83_T,ERR2438976.10287,89.17,157,11,5,275,430,6,157,1e-48,191
Veronaea_japonica_CBS776.83_T,ERR2438976.2315,88.00,150,15,3,274,422,4,151,1e-43,174
Veronaea_japonica_CBS776.83_T,ERR2438976.4417,85.81,148,17,4,275,422,6,149,2e-37,154
Thysanorea_papuana_CBS212.96_T,ERR2438976.10287,90.60,149,9,4,249,396,6,150,3e-49,193
Thysanorea_papuana_CBS212.96_T,ERR2438976.2315,87.50,152,12,5,248,396,4,151,5e-42,169
Thysanorea_papuana_CBS212.96_T,ERR2438976.4417,86.49,148,16,3,249,396,6,149,3e-39,159
Capronia_acutiseta_ATCC56428_T,ERR2438976.10287,91.54,130,7,4,243,370,6,133,3e-44,176
Capronia_acutiseta_ATCC56428_T,ERR2438976.2315,86.75,151,16,4,242,391,4,151,7e-41,165
Capronia_acutiseta_ATCC56428_T,ERR2438976.4417,89.74,117,10,2,243,358,6,121,8e-36,148
Fonsecaea_brasiliensis_CBS119710_T,ERR2438976.10287,90.60,149,10,3,249,397,6,150,8e-50,195
Fonsecaea_brasiliensis_CBS119710_T,ERR2438976.2315,87.42,151,15,4,248,397,4,151,1e-42,171
Fonsecaea_brasiliensis_CBS119710_T,ERR2438976.4417,85.91,149,16,3,249,397,6,149,1e-37,154
Fonsecaea_pedrosoi_CBS271.37_T,ERR2438976.10287,90.00,150,10,4,277,426,6,150,4e-48,189
Fonsecaea_pedrosoi_CBS271.37_T,ERR2438976.2315,87.42,151,16,3,276,426,4,151,2e-42,171
Fonsecaea_pedrosoi_CBS271.37_T,ERR2438976.4417,85.33,150,16,4,277,426,6,149,2e-36,150
Fonsecaea_multimorphosa_CBS980.96_T,ERR2438976.10287,91.28,149,9,4,247,395,6,150,2e-51,200
Fonsecaea_multimorphosa_CBS980.96_T,ERR2438976.2315,88.08,151,14,4,246,395,4,151,3e-44,176
Fonsecaea_multimorphosa_CBS980.96_T,ERR2438976.4417,85.91,149,16,4,247,395,6,149,1e-37,154
Fonsecaea_minima_CBS125760_T,ERR2438976.10287,90.60,149,10,3,243,391,6,150,8e-50,195
Fonsecaea_minima_CBS125760_T,ERR2438976.2315,87.42,151,15,4,242,391,4,151,1e-42,171
Fonsecaea_minima_CBS125760_T,ERR2438976.4417,85.91,149,16,3,243,391,6,149,1e-37,154
Fonsecaea_nubica_CBS269.64_T,ERR2438976.10287,89.24,158,11,5,254,411,6,157,3e-49,193
Fonsecaea_nubica_CBS269.64_T,ERR2438976.2315,86.93,153,13,6,253,403,4,151,7e-41,165
Fonsecaea_nubica_CBS269.64_T,ERR2438976.4417,85.33,150,16,4,254,403,6,149,2e-36,150
Fonsecaea_monophora_CBS269.37_T,ERR2438976.10287,89.40,151,10,5,254,404,6,150,5e-47,185
Fonsecaea_monophora_CBS269.37_T,ERR2438976.2315,86.84,152,16,4,253,404,4,151,2e-41,167
Fonsecaea_monophora_CBS269.37_T,ERR2438976.4417,84.77,151,16,5,254,404,6,149,9e-35,145
Fonsecaea_erecta_CBS125763_T,ERR2438976.10287,90.67,150,8,5,238,386,6,150,8e-50,195
Fonsecaea_erecta_CBS125763_T,ERR2438976.2315,88.08,151,14,4,237,386,4,151,3e-44,176
Fonsecaea_erecta_CBS125763_T,ERR2438976.4417,85.91,149,16,4,238,386,6,149,1e-37,154
Fonsecaea_pugnacius_CBS139214_T,ERR2438976.10287,88.68,159,11,4,247,405,6,157,1e-47,187
Fonsecaea_pugnacius_CBS139214_T,ERR2438976.2315,86.93,153,14,5,246,397,4,151,2e-41,167
Fonsecaea_pugnacius_CBS139214_T,ERR2438976.4417,89.74,117,11,1,247,363,6,121,6e-36,148
Cladophialophora_psammophila_CBS,ERR2438976.10287,90.67,150,8,5,253,401,6,150,8e-50,195
Cladophialophora_psammophila_CBS,ERR2438976.2315,87.42,159,15,5,252,409,4,158,8e-45,178
Cladophialophora_psammophila_CBS,ERR2438976.4417,85.91,149,16,4,253,401,6,149,1e-37,154
Cladophialophora_devriesii_CBS,ERR2438976.10287,91.28,149,9,4,249,397,6,150,2e-51,200
Cladophialophora_devriesii_CBS,ERR2438976.2315,88.08,151,14,4,248,397,4,151,3e-44,176
Cladophialophora_devriesii_CBS,ERR2438976.4417,85.91,149,16,4,249,397,6,149,1e-37,154
Cladophialophora_immunda_CBS834.96,ERR2438976.10287,89.81,157,11,4,251,407,6,157,2e-50,196
Cladophialophora_immunda_CBS834.96,ERR2438976.2315,87.42,151,15,4,250,399,4,151,1e-42,171
Cladophialophora_immunda_CBS834.96,ERR2438976.4417,85.91,149,16,3,251,399,6,149,1e-37,154
Cladophialophora_arxii_CBS306.94_T,ERR2438976.10287,88.68,159,11,5,253,411,6,157,1e-47,187
Cladophialophora_arxii_CBS306.94_T,ERR2438976.2315,86.84,152,16,3,252,403,4,151,2e-41,167
Cladophialophora_arxii_CBS306.94_T,ERR2438976.4417,89.74,117,11,1,253,369,6,121,6e-36,148
Cladophialophora_bantiana_CBS173.52,ERR2438976.10287,90.67,150,8,5,247,395,6,150,8e-50,195
Cladophialophora_bantiana_CBS173.52,ERR2438976.2315,87.42,159,15,5,246,403,4,158,8e-45,178
Cladophialophora_bantiana_CBS173.52,ERR2438976.4417,85.91,149,16,4,247,395,6,149,1e-37,154
Cladophialophora_emmonsii_CBS102594,ERR2438976.10287,89.40,151,9,5,238,387,6,150,2e-46,183
Cladophialophora_emmonsii_CBS102594,ERR2438976.2315,87.50,152,14,4,237,387,4,151,1e-42,171
Cladophialophora_emmonsii_CBS102594,ERR2438976.4417,85.33,150,16,4,238,387,6,149,2e-36,150
Cladophialophora_minourae_CBS556.83,ERR2438976.10287,86.75,151,13,6,246,395,6,150,2e-40,163
Cladophialophora_minourae_CBS556.83,ERR2438976.2315,84.87,152,18,5,245,395,4,151,2e-36,150
Cladophialophora_minourae_CBS556.83,ERR2438976.4417,84.67,150,17,5,246,395,6,149,2e-35,147
Cladophialophora_australiensis_CBS112793,ERR2438976.10287,89.93,149,10,4,248,395,6,150,4e-47,187
Cladophialophora_australiensis_CBS112793,ERR2438976.2315,87.33,150,16,3,247,395,4,151,1e-41,169
Cladophialophora_australiensis_CBS112793,ERR2438976.4417,85.81,148,17,3,248,395,6,149,4e-37,154
Cladophialophora_potulentorum_CBS112222,ERR2438976.10287,89.26,149,11,4,247,394,6,150,2e-45,182
Cladophialophora_potulentorum_CBS112222,ERR2438976.2315,86.67,150,17,3,246,394,4,151,6e-40,163
Cladophialophora_potulentorum_CBS112222,ERR2438976.4417,85.14,148,18,3,247,394,6,149,2e-35,148
Cladophialophora_matsushimae_CMRP1198,ERR2438976.10287,89.26,149,11,4,251,398,6,150,6e-46,182
Cladophialophora_matsushimae_CMRP1198,ERR2438976.2315,86.71,158,17,4,250,406,4,158,3e-43,172
Cladophialophora_matsushimae_CMRP1198,ERR2438976.4417,85.14,148,18,3,251,398,6,149,6e-36,148
Cladophialophora_mycetomatis_CBS122637,ERR2438976.10287,89.17,157,11,5,236,391,6,157,1e-48,191
Cladophialophora_mycetomatis_CBS122637,ERR2438976.2315,86.84,152,13,5,235,383,4,151,2e-40,163
Cladophialophora_mycetomatis_CBS122637,ERR2438976.4417,85.81,148,17,3,236,383,6,149,1e-37,154
Cladophialophora_chaetospira_CBS127573,ERR2438976.10287,90.60,149,9,4,642,789,6,150,5e-49,193
Cladophialophora_chaetospira_CBS127573,ERR2438976.2315,87.26,157,17,3,641,796,4,158,5e-44,176
Cladophialophora_chaetospira_CBS127573,ERR2438976.4417,86.49,148,16,3,642,789,6,149,5e-39,159
Cladophialophora_boppii_CBS126.86_T,ERR2438976.10287,90.60,149,9,5,244,391,6,150,3e-49,193
Cladophialophora_boppii_CBS126.86_T,ERR2438976.2315,88.00,150,15,3,243,391,4,151,1e-43,174
Cladophialophora_boppii_CBS126.86_T,ERR2438976.4417,85.81,148,17,4,244,391,6,149,1e-37,154
Cladophialophora_abundans_CBS126736,ERR2438976.10287,88.59,149,12,4,181,328,6,150,3e-44,176
Cladophialophora_abundans_CBS126736,ERR2438976.2315,86.67,150,17,3,180,328,4,151,2e-40,163
Cladophialophora_abundans_CBS126736,ERR2438976.4417,86.49,148,16,3,181,328,6,149,3e-39,159
Capronia_semi-immersa_CBS102234,ERR2438976.10287,88.59,149,12,4,243,390,6,150,3e-44,176
Capronia_semi-immersa_CBS102234,ERR2438976.2315,86.00,150,18,3,242,390,4,151,1e-38,158
Capronia_semi-immersa_CBS102234,ERR2438976.4417,85.81,148,17,3,243,390,6,149,1e-37,154
Phialophora_americana_CBS400.67,ERR2438976.10287,88.59,149,12,4,245,392,6,150,8e-44,176
Phialophora_americana_CBS400.67,ERR2438976.2315,86.00,150,18,3,244,392,4,151,3e-38,158
Phialophora_americana_CBS400.67,ERR2438976.4417,85.81,148,17,3,245,392,6,149,4e-37,154
Phialophora_verrucosa_CBS140325_T,ERR2438976.10287,88.59,149,12,4,249,396,6,150,3e-44,176
Phialophora_verrucosa_CBS140325_T,ERR2438976.2315,86.00,150,18,3,248,396,4,151,1e-38,158
Phialophora_verrucosa_CBS140325_T,ERR2438976.4417,85.81,148,17,3,249,396,6,149,1e-37,154
Cladophialophora_samoensis_CBS259.83_T,ERR2438976.10287,89.93,149,10,4,249,396,6,150,1e-47,187
Cladophialophora_samoensis_CBS259.83_T,ERR2438976.2315,87.42,151,14,5,248,396,4,151,5e-42,169
Cladophialophora_samoensis_CBS259.83_T,ERR2438976.4417,86.49,148,16,3,249,396,6,149,3e-39,159
Cladophialophora_carrionii_CBS260.83,ERR2438976.10287,89.10,156,11,5,265,419,6,156,4e-48,189
Cladophialophora_carrionii_CBS260.83,ERR2438976.2315,87.33,150,16,3,264,412,4,151,5e-42,169
Cladophialophora_carrionii_CBS260.83,ERR2438976.4417,87.16,148,15,3,265,412,6,149,7e-41,165
Cladophialophora_carrionii_CBS260.83,ERR2438976.9689,85.71,70,7,2,343,412,83,149,2e-12,71.3
Exophiala_palmae_UPCB86822_T,ERR2438976.10287,91.67,132,8,3,208,338,6,135,2e-45,180
Exophiala_palmae_UPCB86822_T,ERR2438976.2315,87.33,150,17,2,207,356,4,151,1e-42,171
Exophiala_palmae_UPCB86822_T,ERR2438976.4417,89.74,117,11,1,208,324,6,121,6e-36,148
Cladophialophora_yegresii_CBS114405_T,ERR2438976.10287,89.10,156,11,5,250,404,6,156,4e-48,189
Cladophialophora_yegresii_CBS114405_T,ERR2438976.2315,87.33,150,16,3,249,397,4,151,5e-42,169
Cladophialophora_yegresii_CBS114405_T,ERR2438976.4417,87.16,148,15,3,250,397,6,149,6e-41,165
Cladophialophora_yegresii_CBS114405_T,ERR2438976.9689,90.57,53,4,1,328,380,83,134,5e-12,69.4
Knufia_epidermidis_CBS120353_T,ERR2438976.10287,89.23,130,11,3,248,376,6,133,3e-39,159
Knufia_epidermidis_CBS120353_T,ERR2438976.2315,89.92,119,9,3,247,364,4,120,2e-36,150
Knufia_epidermidis_CBS120353_T,ERR2438976.4417,88.03,117,13,1,248,364,6,121,1e-32,137
Arthrocladium_fulminans_CBS136243_T,ERR2438976.10287,88.46,130,12,3,243,371,6,133,1e-37,154
Arthrocladium_fulminans_CBS136243_T,ERR2438976.2315,88.98,118,12,1,242,359,4,120,9e-35,145
Arthrocladium_fulminans_CBS136243_T,ERR2438976.4417,88.98,118,10,3,243,359,6,121,3e-34,143
Cyphellophora_laciniata_CBS190.61_T,ERR2438976.10287,88.67,150,14,3,337,484,6,154,3e-45,180
Cyphellophora_laciniata_CBS190.61_T,ERR2438976.2315,87.74,155,12,6,336,485,4,156,1e-43,174
Cyphellophora_laciniata_CBS190.61_T,ERR2438976.4417,85.52,145,19,2,337,480,6,149,2e-36,150
Cyphellophora_laciniata_CBS190.61_T,ERR2438976.10531,93.44,61,4,0,634,694,362,302,1e-18,91.6
Cyphellophora_suttonii_CBS449.91,ERR2438976.10287,89.04,146,13,3,240,383,6,150,8e-45,178
Cyphellophora_suttonii_CBS449.91,ERR2438976.2315,88.00,150,11,6,239,383,4,151,1e-42,171
Cyphellophora_suttonii_CBS449.91,ERR2438976.4417,85.33,150,20,2,240,388,6,154,1e-37,154
Cyphellophora_pauciseptata_CBS284.85_T,ERR2438976.10287,89.04,146,13,3,251,394,6,150,8e-45,178
Cyphellophora_pauciseptata_CBS284.85_T,ERR2438976.2315,88.00,150,11,6,250,394,4,151,1e-42,171
Cyphellophora_pauciseptata_CBS284.85_T,ERR2438976.4417,85.23,149,20,2,251,398,6,153,5e-37,152
Cyphellophora_pluriseptata_CBS286.85_T,ERR2438976.10287,89.73,146,12,3,256,399,6,150,2e-46,183
Cyphellophora_pluriseptata_CBS286.85_T,ERR2438976.2315,87.33,150,12,6,255,399,4,151,6e-41,165
Cyphellophora_pluriseptata_CBS286.85_T,ERR2438976.4417,84.83,145,20,2,256,399,6,149,8e-35,145
Phialophora_europaea_CBS101466,ERR2438976.10287,89.73,146,12,3,246,389,6,150,2e-46,183
Phialophora_europaea_CBS101466,ERR2438976.2315,87.33,150,12,6,245,389,4,151,6e-41,165
Phialophora_europaea_CBS101466,ERR2438976.4417,84.56,149,21,2,246,393,6,153,2e-35,147
Phialophora_ambigua_CBS235.93,ERR2438976.10287,89.73,146,12,3,243,386,6,150,2e-46,183
Phialophora_ambigua_CBS235.93,ERR2438976.2315,87.33,150,12,6,242,386,4,151,6e-41,165
Phialophora_ambigua_CBS235.93,ERR2438976.4417,84.83,145,20,2,243,386,6,149,8e-35,145
Cladophialophora_modesta_CBS985.96_T,ERR2438976.10287,90.54,148,10,4,240,386,6,150,3e-49,193
Cladophialophora_modesta_CBS985.96_T,ERR2438976.2315,86.75,151,14,5,239,386,4,151,3e-40,163
Cladophialophora_modesta_CBS985.96_T,ERR2438976.4417,86.39,147,17,3,240,386,6,149,1e-38,158
