Exophiala_nigra_CBS535.94_T,ERR1713379.1861300,91.76,85,6,1,216,300,64,147,5e-24,117
Exophiala_spinifera_CBS899.68_T,ERR1713379.1861300,91.76,85,6,1,213,297,64,147,5e-24,117
Exophiala_exophialae_CBS668.76_T,ERR1713379.1861300,91.76,85,6,1,214,298,64,147,5e-24,117
Exophiala_polymorpha_CBS138920_T,ERR1713379.1861300,91.76,85,6,1,316,400,64,147,7e-24,117
Exophiala_polymorpha_CBS138920_T,ERR1713379.8140894,100.00,30,0,0,82,111,34,63,1e-05,56.5
Exophiala_oligosperma_CBS725.88_T,ERR1713379.1861300,91.76,85,6,1,226,310,64,147,5e-24,117
Exophiala_jeanselmei_CBS507.90_T,ERR1713379.1861300,91.76,85,6,1,218,302,64,147,6e-24,117
Exophiala_bergeri_CBS353.52,ERR1713379.1861300,91.76,85,6,1,179,263,64,147,4e-24,117
Exophiala_moniliae_CBS520.76_T,ERR1713379.1861300,91.76,85,6,1,216,300,64,147,5e-24,117
Exophiala_pisciphila_CBS537.73_T,ERR1713379.1861300,90.59,85,7,1,219,303,64,147,3e-22,111
Exophiala_pisciphila_CBS537.73_T,ERR1713379.6567531,98.04,51,1,0,603,653,152,202,1e-15,89.8
Exophiala_xenobiotica_CBS117642,ERR1713379.1861300,91.76,85,6,1,211,295,64,147,5e-24,117
Exophiala_brunnea_CBS,ERR1713379.1861300,91.76,85,6,1,247,331,64,147,6e-24,117
Exophiala_brunnea_CBS,ERR1713379.8140894,100.00,43,0,0,1,43,21,63,8e-13,80.5
Exophiala_brunnea_CBS,ERR1713379.6933067,100.00,39,0,0,1,39,73,35,1e-10,73.1
Exophiala_brunnea_CBS,ERR1713379.5828292,100.00,39,0,0,1,39,260,222,1e-10,73.1
Exophiala_brunnea_CBS,ERR1713379.3867175,100.00,39,0,0,1,39,9,47,1e-10,73.1
Exophiala_brunnea_CBS,ERR1713379.5307620,100.00,38,0,0,1,38,105,68,5e-10,71.3
Exophiala_brunnea_CBS,ERR1713379.5307620,100.00,32,0,0,1,32,271,302,1e-06,60.2
Exophiala_brunnea_CBS,ERR1713379.4010482,100.00,38,0,0,1,38,193,156,5e-10,71.3
Exophiala_brunnea_CBS,ERR1713379.3223679,100.00,38,0,0,1,38,235,198,5e-10,71.3
Exophiala_brunnea_CBS,ERR1713379.2861126,100.00,38,0,0,1,38,276,239,5e-10,71.3
Exophiala_brunnea_CBS,ERR1713379.1384924,100.00,38,0,0,1,38,113,150,5e-10,71.3
Exophiala_brunnea_CBS,ERR1713379.1384924,100.00,38,0,0,1,38,278,241,5e-10,71.3
Exophiala_brunnea_CBS,ERR1713379.297997,100.00,38,0,0,1,38,197,160,5e-10,71.3
Exophiala_brunnea_CBS,ERR1713379.28046,100.00,38,0,0,1,38,66,29,5e-10,71.3
Exophiala_brunnea_CBS,ERR1713379.3150468,100.00,33,0,0,1,33,33,1,3e-07,62.1
Exophiala_brunnea_CBS,ERR1713379.3150036,100.00,33,0,0,1,33,33,1,3e-07,62.1
Exophiala_brunnea_CBS,ERR1713379.6069353,100.00,29,0,0,12,40,152,180,5e-05,54.7
Exophiala_nishimurae_CBS101538_T,ERR1713379.1861300,91.76,85,6,1,225,309,64,147,6e-24,117
Exophiala_mesophila_CBS402.95_T,ERR1713379.1861300,91.76,85,6,1,209,293,64,147,6e-24,117
Exophiala_mesophila_CBS402.95_T,ERR1713379.6567531,98.04,51,1,0,600,650,152,202,1e-15,89.8
Exophiala_castellanii_CBS158.58_T,ERR1713379.1861300,91.76,85,6,1,207,291,64,147,6e-24,117
Exophiala_castellanii_CBS158.58_T,ERR1713379.6567531,98.04,51,1,0,599,649,152,202,1e-15,89.8
Exophiala_lecanii-corni_CBS123.33_T,ERR1713379.1861300,91.76,85,6,1,230,314,64,147,5e-24,117
Exophiala_dermatitidis_CBS748.88,ERR1713379.6567531,96.69,151,5,0,866,1016,151,1,4e-64,252
Exophiala_dermatitidis_CBS748.88,ERR1713379.6567531,89.26,121,8,2,625,745,152,267,2e-32,147
Exophiala_dermatitidis_CBS748.88,ERR1713379.8162099,88.28,145,17,0,1308,1452,145,1,8e-41,174
Exophiala_dermatitidis_CBS748.88,ERR1713379.8162099,86.79,106,14,0,1186,1291,173,278,4e-24,119
Exophiala_dermatitidis_CBS748.88,ERR1713379.6620694,88.66,97,11,0,1408,1504,129,33,4e-24,119
Exophiala_dermatitidis_CBS748.88,ERR1713379.1861300,91.76,85,5,2,223,306,64,147,1e-23,117
Exophiala_dermatitidis_CBS748.88,ERR1713379.1344259,90.67,75,7,0,1430,1504,151,225,1e-18,100
Exophiala_dermatitidis_CBS748.88,ERR1713379.4407304,92.65,68,5,0,1437,1504,2,69,5e-18,99.0
Exophiala_dermatitidis_CBS748.88,ERR1713379.4448342,82.47,97,16,1,1198,1294,113,18,1e-13,84.2
Exophiala_dermatitidis_CBS748.88,ERR1713379.4448342,91.11,45,4,0,1198,1242,258,302,7e-07,62.1
Exophiala_dermatitidis_CBS748.88,ERR1713379.1320668,84.34,83,13,0,1211,1293,190,272,5e-13,82.4
Exophiala_dermatitidis_CBS748.88,ERR1713379.6904663,95.65,46,2,0,1213,1258,238,283,9e-11,75.0
Exophiala_dermatitidis_CBS748.88,ERR1713379.980431,85.71,70,9,1,1211,1279,219,150,3e-10,73.1
Exophiala_dermatitidis_CBS748.88,ERR1713379.980431,86.15,65,8,1,1211,1274,87,151,4e-09,69.4
Exophiala_dermatitidis_CBS748.88,ERR1713379.467196,89.66,58,4,2,1213,1270,122,67,3e-10,73.1
Exophiala_dermatitidis_CBS748.88,ERR1713379.7000285,93.62,47,3,0,1213,1259,294,248,1e-09,71.3
Exophiala_dermatitidis_CBS748.88,ERR1713379.7000285,95.00,40,2,0,1211,1250,112,151,2e-07,63.9
Exophiala_dermatitidis_CBS748.88,ERR1713379.5153187,95.45,44,2,0,1213,1256,218,175,1e-09,71.3
Exophiala_dermatitidis_CBS748.88,ERR1713379.8134504,100.00,32,0,0,1470,1501,280,249,2e-06,60.2
Exophiala_dermatitidis_CBS748.88,ERR1713379.4864397,87.27,55,3,3,1368,1420,53,1,2e-06,60.2
Exophiala_dermatitidis_CBS748.88,ERR1713379.3573074,100.00,32,0,0,1470,1501,168,199,2e-06,60.2
Exophiala_angulospora_CBS482.92_T,ERR1713379.1861300,91.76,85,6,1,213,297,64,147,5e-24,117
Exophiala_opportunistica_CBS109811_T,ERR1713379.1861300,91.76,85,6,1,212,296,64,147,5e-24,117
Exophiala_salmonis_CBS157.67_T,ERR1713379.1861300,91.76,85,6,1,341,425,64,147,7e-24,117
Exophiala_salmonis_CBS157.67_T,ERR1713379.6567531,98.04,51,1,0,723,773,152,202,2e-15,89.8
Exophiala_aquamarina_CBS119918_T,ERR1713379.1861300,91.76,85,6,1,219,303,64,147,5e-24,117
Exophiala_cancerae_CBS120420_T,ERR1713379.1861300,91.76,85,6,1,234,318,64,147,6e-24,117
Exophiala_tremulae_CBS129355,ERR1713379.1861300,91.76,85,6,1,246,330,64,147,6e-24,117
Exophiala_tremulae_CBS129355,ERR1713379.8140894,100.00,43,0,0,1,43,21,63,8e-13,80.5
Exophiala_tremulae_CBS129355,ERR1713379.6933067,100.00,39,0,0,1,39,73,35,1e-10,73.1
Exophiala_tremulae_CBS129355,ERR1713379.5828292,100.00,39,0,0,1,39,260,222,1e-10,73.1
Exophiala_tremulae_CBS129355,ERR1713379.3867175,100.00,39,0,0,1,39,9,47,1e-10,73.1
Exophiala_tremulae_CBS129355,ERR1713379.5307620,100.00,38,0,0,1,38,105,68,5e-10,71.3
Exophiala_tremulae_CBS129355,ERR1713379.5307620,100.00,32,0,0,1,32,271,302,1e-06,60.2
Exophiala_tremulae_CBS129355,ERR1713379.4010482,100.00,38,0,0,1,38,193,156,5e-10,71.3
Exophiala_tremulae_CBS129355,ERR1713379.3223679,100.00,38,0,0,1,38,235,198,5e-10,71.3
Exophiala_tremulae_CBS129355,ERR1713379.2861126,100.00,38,0,0,1,38,276,239,5e-10,71.3
Exophiala_tremulae_CBS129355,ERR1713379.1384924,100.00,38,0,0,1,38,113,150,5e-10,71.3
Exophiala_tremulae_CBS129355,ERR1713379.1384924,100.00,38,0,0,1,38,278,241,5e-10,71.3
Exophiala_tremulae_CBS129355,ERR1713379.297997,100.00,38,0,0,1,38,197,160,5e-10,71.3
Exophiala_tremulae_CBS129355,ERR1713379.28046,100.00,38,0,0,1,38,66,29,5e-10,71.3
Exophiala_tremulae_CBS129355,ERR1713379.3150468,100.00,33,0,0,1,33,33,1,3e-07,62.1
Exophiala_tremulae_CBS129355,ERR1713379.3150036,100.00,33,0,0,1,33,33,1,3e-07,62.1
Exophiala_tremulae_CBS129355,ERR1713379.6069353,100.00,29,0,0,12,40,152,180,5e-05,54.7
Exophiala_equina_CBS116009,ERR1713379.1861300,91.76,85,6,1,212,296,64,147,5e-24,117
Exophiala_alcalophila_CBS520.82_T,ERR1713379.1861300,91.76,85,6,1,223,307,64,147,5e-24,117
Exophiala_crusticola_CBS119970_T,ERR1713379.1861300,91.76,85,6,1,228,312,64,147,5e-24,117
Rhinocladiella_atrovirens_CBS264.49,ERR1713379.1861300,91.76,85,6,1,254,338,64,147,6e-24,117
Rhinocladiella_atrovirens_CBS264.49,ERR1713379.6933067,100.00,46,0,0,1,46,78,33,2e-14,86.1
Rhinocladiella_atrovirens_CBS264.49,ERR1713379.3867175,100.00,46,0,0,1,46,4,49,2e-14,86.1
Rhinocladiella_atrovirens_CBS264.49,ERR1713379.8140894,97.92,48,1,0,1,48,16,63,6e-14,84.2
Rhinocladiella_atrovirens_CBS264.49,ERR1713379.5828292,100.00,45,0,0,1,45,265,221,6e-14,84.2
Rhinocladiella_atrovirens_CBS264.49,ERR1713379.5307620,100.00,43,0,0,1,43,110,68,8e-13,80.5
Rhinocladiella_atrovirens_CBS264.49,ERR1713379.5307620,100.00,37,0,0,1,37,266,302,2e-09,69.4
Rhinocladiella_atrovirens_CBS264.49,ERR1713379.4010482,100.00,43,0,0,1,43,198,156,8e-13,80.5
Rhinocladiella_atrovirens_CBS264.49,ERR1713379.3223679,100.00,43,0,0,1,43,240,198,8e-13,80.5
Rhinocladiella_atrovirens_CBS264.49,ERR1713379.2861126,100.00,43,0,0,1,43,281,239,8e-13,80.5
Rhinocladiella_atrovirens_CBS264.49,ERR1713379.1384924,100.00,43,0,0,1,43,108,150,8e-13,80.5
Rhinocladiella_atrovirens_CBS264.49,ERR1713379.1384924,100.00,43,0,0,1,43,283,241,8e-13,80.5
Rhinocladiella_atrovirens_CBS264.49,ERR1713379.297997,100.00,43,0,0,1,43,202,160,8e-13,80.5
Rhinocladiella_atrovirens_CBS264.49,ERR1713379.28046,100.00,43,0,0,1,43,71,29,8e-13,80.5
Rhinocladiella_atrovirens_CBS264.49,ERR1713379.3150468,100.00,38,0,0,1,38,38,1,5e-10,71.3
Rhinocladiella_atrovirens_CBS264.49,ERR1713379.3150036,100.00,38,0,0,1,38,38,1,5e-10,71.3
Rhinocladiella_atrovirens_CBS264.49,ERR1713379.6069353,100.00,28,0,0,17,44,152,179,2e-04,52.8
Rhinocladiella_basitona_CBS101460_T,ERR1713379.1861300,91.76,85,6,1,213,297,64,147,5e-24,117
Rhinocladiella_phaeophora_CBS496.78_T,ERR1713379.1861300,90.59,85,7,1,221,305,64,147,2e-22,111
Rhinocladiella_aquaspersa_CBS313.73_T,ERR1713379.1861300,90.59,85,7,1,215,299,64,147,3e-22,111
Rhinocladiella_aquaspersa_CBS313.73_T,ERR1713379.6567531,98.21,56,1,0,595,650,152,207,2e-18,99.0
Rhinocladiella_fasciculata_CBS132.86_T,ERR1713379.1861300,90.59,85,7,1,231,315,64,147,3e-22,111
Rhinocladiella_fasciculata_CBS132.86_T,ERR1713379.6933067,100.00,29,0,0,1,29,61,33,4e-05,54.7
Rhinocladiella_fasciculata_CBS132.86_T,ERR1713379.3867175,100.00,29,0,0,1,29,21,49,4e-05,54.7
Rhinocladiella_fasciculata_CBS132.86_T,ERR1713379.5828292,100.00,28,0,0,1,28,248,221,2e-04,52.8
Rhinocladiella_anceps_CBS181.65_T,ERR1713379.1861300,90.59,85,7,1,213,297,64,147,2e-22,111
Rhinocladiella_mackenziei_CBS367.92,ERR1713379.1861300,91.76,85,6,1,202,286,64,147,6e-24,117
Rhinocladiella_mackenziei_CBS367.92,ERR1713379.8140894,100.00,30,0,0,1,30,34,63,1e-05,56.5
Veronaea_compacta_CBS268.75_T,ERR1713379.1861300,91.76,85,6,1,235,319,64,147,6e-24,117
Veronaea_compacta_CBS268.75_T,ERR1713379.8140894,100.00,31,0,0,1,31,33,63,3e-06,58.4
Veronaea_compacta_CBS268.75_T,ERR1713379.6069353,100.00,28,0,0,1,28,153,180,2e-04,52.8
Capronia_pilosella_AFTOL-ID657,ERR1713379.1861300,91.76,85,6,1,313,397,64,147,6e-24,117
Capronia_pilosella_AFTOL-ID657,ERR1713379.6069353,100.00,30,0,0,80,109,154,183,1e-05,56.5
Capronia_dactylotricha_DAOM208471_T,ERR1713379.1861300,91.76,85,6,1,215,299,64,147,6e-24,117
Capronia_dactylotricha_DAOM208471_T,ERR1713379.6567531,98.04,51,1,0,608,658,152,202,1e-15,89.8
Capronia_kleinmondensis_CBS122671_T,ERR1713379.1861300,91.76,85,6,1,240,324,64,147,6e-24,117
Capronia_kleinmondensis_CBS122671_T,ERR1713379.6567531,98.04,51,1,0,614,664,152,202,1e-15,89.8
Capronia_kleinmondensis_CBS122671_T,ERR1713379.6933067,100.00,32,0,0,1,32,64,33,1e-06,60.2
Capronia_kleinmondensis_CBS122671_T,ERR1713379.3867175,100.00,32,0,0,1,32,18,49,1e-06,60.2
Capronia_kleinmondensis_CBS122671_T,ERR1713379.8140894,97.06,34,1,0,1,34,30,63,4e-06,58.4
Capronia_kleinmondensis_CBS122671_T,ERR1713379.5828292,100.00,31,0,0,1,31,251,221,4e-06,58.4
Capronia_kleinmondensis_CBS122671_T,ERR1713379.5307620,100.00,29,0,0,1,29,96,68,5e-05,54.7
Capronia_kleinmondensis_CBS122671_T,ERR1713379.4010482,100.00,29,0,0,1,29,184,156,5e-05,54.7
Capronia_kleinmondensis_CBS122671_T,ERR1713379.3223679,100.00,29,0,0,1,29,226,198,5e-05,54.7
Capronia_kleinmondensis_CBS122671_T,ERR1713379.2861126,100.00,29,0,0,1,29,267,239,5e-05,54.7
Capronia_kleinmondensis_CBS122671_T,ERR1713379.1384924,100.00,29,0,0,1,29,122,150,5e-05,54.7
Capronia_kleinmondensis_CBS122671_T,ERR1713379.1384924,100.00,29,0,0,1,29,269,241,5e-05,54.7
Capronia_kleinmondensis_CBS122671_T,ERR1713379.297997,100.00,29,0,0,1,29,188,160,5e-05,54.7
Capronia_kleinmondensis_CBS122671_T,ERR1713379.28046,100.00,29,0,0,1,29,57,29,5e-05,54.7
Capronia_kleinmondensis_CBS122671_T,ERR1713379.6069353,100.00,28,0,0,3,30,152,179,2e-04,52.8
Capronia_mansonii_CBS101.67_T,ERR1713379.1861300,91.76,85,6,1,226,310,64,147,6e-24,117
Capronia_mansonii_CBS101.67_T,ERR1713379.6567531,98.04,51,1,0,618,668,152,202,1e-15,89.8
Capronia_munkii_DAOM216390_T,ERR1713379.1861300,91.76,85,6,1,226,310,64,147,6e-24,117
Capronia_munkii_DAOM216390_T,ERR1713379.6567531,98.04,51,1,0,618,668,152,202,1e-15,89.8
Capronia_coronata_ATCC56201_T,ERR1713379.1861300,91.76,85,6,1,214,298,64,147,6e-24,117
Capronia_coronata_ATCC56201_T,ERR1713379.6567531,98.04,51,1,0,589,639,152,202,1e-15,89.8
Capronia_parasitica_CBS123.88,ERR1713379.1861300,91.76,85,6,1,220,304,64,147,6e-24,117
Veronaea_japonica_CBS776.83_T,ERR1713379.1861300,91.76,85,6,1,248,332,64,147,6e-24,117
Veronaea_japonica_CBS776.83_T,ERR1713379.8140894,100.00,42,0,0,1,42,22,63,3e-12,78.7
Veronaea_japonica_CBS776.83_T,ERR1713379.6933067,100.00,38,0,0,1,38,72,35,4e-10,71.3
Veronaea_japonica_CBS776.83_T,ERR1713379.5828292,100.00,38,0,0,1,38,259,222,4e-10,71.3
Veronaea_japonica_CBS776.83_T,ERR1713379.3867175,100.00,38,0,0,1,38,10,47,4e-10,71.3
Veronaea_japonica_CBS776.83_T,ERR1713379.5307620,100.00,37,0,0,1,37,104,68,2e-09,69.4
Veronaea_japonica_CBS776.83_T,ERR1713379.5307620,100.00,31,0,0,1,31,272,302,3e-06,58.4
Veronaea_japonica_CBS776.83_T,ERR1713379.4010482,100.00,37,0,0,1,37,192,156,2e-09,69.4
Veronaea_japonica_CBS776.83_T,ERR1713379.3223679,100.00,37,0,0,1,37,234,198,2e-09,69.4
Veronaea_japonica_CBS776.83_T,ERR1713379.2861126,100.00,37,0,0,1,37,275,239,2e-09,69.4
Veronaea_japonica_CBS776.83_T,ERR1713379.1384924,100.00,37,0,0,1,37,114,150,2e-09,69.4
Veronaea_japonica_CBS776.83_T,ERR1713379.1384924,100.00,37,0,0,1,37,277,241,2e-09,69.4
Veronaea_japonica_CBS776.83_T,ERR1713379.297997,100.00,37,0,0,1,37,196,160,2e-09,69.4
Veronaea_japonica_CBS776.83_T,ERR1713379.28046,100.00,37,0,0,1,37,65,29,2e-09,69.4
Veronaea_japonica_CBS776.83_T,ERR1713379.3150468,100.00,32,0,0,1,32,32,1,1e-06,60.2
Veronaea_japonica_CBS776.83_T,ERR1713379.3150036,100.00,32,0,0,1,32,32,1,1e-06,60.2
Veronaea_japonica_CBS776.83_T,ERR1713379.6069353,100.00,29,0,0,11,39,152,180,5e-05,54.7
Thysanorea_papuana_CBS212.96_T,ERR1713379.1861300,91.76,85,6,1,222,306,64,147,5e-24,117
Capronia_acutiseta_ATCC56428_T,ERR1713379.1861300,90.59,85,6,2,216,299,64,147,3e-22,111
Capronia_acutiseta_ATCC56428_T,ERR1713379.6567531,96.08,51,2,0,588,638,152,202,6e-14,84.2
Fonsecaea_brasiliensis_CBS119710_T,ERR1713379.1861300,91.76,85,6,1,222,306,64,147,5e-24,117
Fonsecaea_pedrosoi_CBS271.37_T,ERR1713379.1861300,91.76,85,6,1,250,334,64,147,6e-24,117
Fonsecaea_pedrosoi_CBS271.37_T,ERR1713379.8140894,100.00,31,0,0,1,31,30,60,4e-06,58.4
Fonsecaea_pedrosoi_CBS271.37_T,ERR1713379.6933067,100.00,30,0,0,1,30,64,35,1e-05,56.5
Fonsecaea_pedrosoi_CBS271.37_T,ERR1713379.5828292,100.00,30,0,0,1,30,251,222,1e-05,56.5
Fonsecaea_pedrosoi_CBS271.37_T,ERR1713379.3867175,100.00,30,0,0,1,30,18,47,1e-05,56.5
Fonsecaea_pedrosoi_CBS271.37_T,ERR1713379.6069353,100.00,29,0,0,3,31,152,180,5e-05,54.7
Fonsecaea_pedrosoi_CBS271.37_T,ERR1713379.5307620,100.00,29,0,0,1,29,96,68,5e-05,54.7
Fonsecaea_pedrosoi_CBS271.37_T,ERR1713379.4010482,100.00,29,0,0,1,29,184,156,5e-05,54.7
Fonsecaea_pedrosoi_CBS271.37_T,ERR1713379.3223679,100.00,29,0,0,1,29,226,198,5e-05,54.7
Fonsecaea_pedrosoi_CBS271.37_T,ERR1713379.2861126,100.00,29,0,0,1,29,267,239,5e-05,54.7
Fonsecaea_pedrosoi_CBS271.37_T,ERR1713379.1384924,100.00,29,0,0,1,29,122,150,5e-05,54.7
Fonsecaea_pedrosoi_CBS271.37_T,ERR1713379.1384924,100.00,29,0,0,1,29,269,241,5e-05,54.7
Fonsecaea_pedrosoi_CBS271.37_T,ERR1713379.297997,100.00,29,0,0,1,29,188,160,5e-05,54.7
Fonsecaea_pedrosoi_CBS271.37_T,ERR1713379.28046,100.00,29,0,0,1,29,57,29,5e-05,54.7
Fonsecaea_multimorphosa_CBS980.96_T,ERR1713379.1861300,91.76,85,6,1,220,304,64,147,5e-24,117
Fonsecaea_minima_CBS125760_T,ERR1713379.1861300,91.76,85,6,1,216,300,64,147,5e-24,117
Fonsecaea_nubica_CBS269.64_T,ERR1713379.1861300,91.76,85,6,1,227,311,64,147,5e-24,117
Fonsecaea_monophora_CBS269.37_T,ERR1713379.1861300,90.70,86,6,2,227,312,64,147,7e-23,113
Fonsecaea_erecta_CBS125763_T,ERR1713379.1861300,91.76,85,6,1,211,295,64,147,5e-24,117
Fonsecaea_pugnacius_CBS139214_T,ERR1713379.1861300,91.76,85,6,1,220,304,64,147,5e-24,117
Cladophialophora_psammophila_CBS,ERR1713379.1861300,91.76,85,6,1,226,310,64,147,5e-24,117
Cladophialophora_devriesii_CBS,ERR1713379.1861300,91.76,85,6,1,222,306,64,147,5e-24,117
Cladophialophora_immunda_CBS834.96,ERR1713379.1861300,91.76,85,6,1,224,308,64,147,5e-24,117
Cladophialophora_arxii_CBS306.94_T,ERR1713379.1861300,91.76,85,6,1,226,310,64,147,5e-24,117
Cladophialophora_bantiana_CBS173.52,ERR1713379.1861300,91.76,85,6,1,220,304,64,147,5e-24,117
Cladophialophora_emmonsii_CBS102594,ERR1713379.1861300,91.76,85,6,1,211,295,64,147,5e-24,117
Cladophialophora_minourae_CBS556.83,ERR1713379.1861300,91.76,85,6,1,219,303,64,147,5e-24,117
Cladophialophora_australiensis_CBS112793,ERR1713379.6567531,95.36,151,7,0,836,986,151,1,8e-61,241
Cladophialophora_australiensis_CBS112793,ERR1713379.6567531,86.09,151,16,3,596,746,152,297,8e-36,158
Cladophialophora_australiensis_CBS112793,ERR1713379.8162099,87.59,145,18,0,1275,1419,145,1,4e-39,169
Cladophialophora_australiensis_CBS112793,ERR1713379.8162099,86.79,106,14,0,1153,1258,173,278,4e-24,119
Cladophialophora_australiensis_CBS112793,ERR1713379.6620694,88.66,97,11,0,1375,1471,129,33,4e-24,119
Cladophialophora_australiensis_CBS112793,ERR1713379.1861300,91.76,85,6,1,221,305,64,147,1e-23,117
Cladophialophora_australiensis_CBS112793,ERR1713379.1344259,90.67,75,7,0,1397,1471,151,225,1e-18,100
Cladophialophora_australiensis_CBS112793,ERR1713379.4407304,92.65,68,5,0,1404,1471,2,69,5e-18,99.0
Cladophialophora_australiensis_CBS112793,ERR1713379.1320668,85.54,83,12,0,1178,1260,190,272,1e-14,87.9
Cladophialophora_australiensis_CBS112793,ERR1713379.980431,87.14,70,8,1,1178,1246,219,150,7e-12,78.7
Cladophialophora_australiensis_CBS112793,ERR1713379.980431,87.69,65,7,1,1178,1241,87,151,9e-11,75.0
Cladophialophora_australiensis_CBS112793,ERR1713379.4448342,80.41,97,18,1,1165,1261,113,18,3e-10,73.1
Cladophialophora_australiensis_CBS112793,ERR1713379.4448342,91.11,45,4,0,1165,1209,258,302,7e-07,62.1
Cladophialophora_australiensis_CBS112793,ERR1713379.6904663,93.48,46,3,0,1180,1225,238,283,4e-09,69.4
Cladophialophora_australiensis_CBS112793,ERR1713379.467196,87.93,58,5,2,1180,1237,122,67,1e-08,67.6
Cladophialophora_australiensis_CBS112793,ERR1713379.5153187,100.00,33,0,0,1180,1212,218,186,7e-07,62.1
Cladophialophora_australiensis_CBS112793,ERR1713379.8134504,100.00,32,0,0,1437,1468,280,249,2e-06,60.2
Cladophialophora_australiensis_CBS112793,ERR1713379.7000285,89.36,47,5,0,1180,1226,294,248,2e-06,60.2
Cladophialophora_australiensis_CBS112793,ERR1713379.4864397,87.27,55,3,3,1335,1387,53,1,2e-06,60.2
Cladophialophora_australiensis_CBS112793,ERR1713379.3573074,100.00,32,0,0,1437,1468,168,199,2e-06,60.2
Cladophialophora_potulentorum_CBS112222,ERR1713379.6567531,96.03,151,6,0,838,988,151,1,2e-62,246
Cladophialophora_potulentorum_CBS112222,ERR1713379.6567531,86.09,151,16,3,598,748,152,297,8e-36,158
Cladophialophora_potulentorum_CBS112222,ERR1713379.7632710,88.08,151,18,0,1329,1479,302,152,2e-42,180
Cladophialophora_potulentorum_CBS112222,ERR1713379.8162099,87.59,145,18,0,1277,1421,145,1,4e-39,169
Cladophialophora_potulentorum_CBS112222,ERR1713379.8162099,85.85,106,15,0,1155,1260,173,278,2e-22,113
Cladophialophora_potulentorum_CBS112222,ERR1713379.8207748,92.16,102,8,0,1387,1488,155,256,7e-32,145
Cladophialophora_potulentorum_CBS112222,ERR1713379.8207748,93.75,48,3,0,1441,1488,150,103,3e-10,73.1
Cladophialophora_potulentorum_CBS112222,ERR1713379.6620694,89.29,112,12,0,1377,1488,129,18,9e-31,141
Cladophialophora_potulentorum_CBS112222,ERR1713379.1344259,90.53,95,9,0,1399,1493,151,245,2e-26,126
Cladophialophora_potulentorum_CBS112222,ERR1713379.4407304,92.77,83,6,0,1406,1488,2,84,1e-24,121
Cladophialophora_potulentorum_CBS112222,ERR1713379.1861300,91.76,85,6,1,220,304,64,147,1e-23,117
Cladophialophora_potulentorum_CBS112222,ERR1713379.6380226,92.54,67,5,0,1422,1488,152,218,2e-17,97.1
Cladophialophora_potulentorum_CBS112222,ERR1713379.1320668,84.34,83,13,0,1180,1262,190,272,5e-13,82.4
Cladophialophora_potulentorum_CBS112222,ERR1713379.6904663,95.65,46,2,0,1182,1227,238,283,9e-11,75.0
Cladophialophora_potulentorum_CBS112222,ERR1713379.4448342,82.93,82,13,1,1182,1263,98,18,3e-10,73.1
Cladophialophora_potulentorum_CBS112222,ERR1713379.4448342,100.00,30,0,0,1182,1211,273,302,3e-05,56.5
Cladophialophora_potulentorum_CBS112222,ERR1713379.980431,85.71,70,9,1,1180,1248,219,150,3e-10,73.1
Cladophialophora_potulentorum_CBS112222,ERR1713379.980431,86.15,65,8,1,1180,1243,87,151,4e-09,69.4
Cladophialophora_potulentorum_CBS112222,ERR1713379.467196,89.66,58,4,2,1182,1239,122,67,3e-10,73.1
Cladophialophora_potulentorum_CBS112222,ERR1713379.8134504,92.00,50,4,0,1439,1488,280,231,1e-09,71.3
Cladophialophora_potulentorum_CBS112222,ERR1713379.3573074,92.00,50,4,0,1439,1488,168,217,1e-09,71.3
Cladophialophora_potulentorum_CBS112222,ERR1713379.7000285,91.49,47,4,0,1182,1228,294,248,5e-08,65.8
Cladophialophora_potulentorum_CBS112222,ERR1713379.5153187,93.18,44,3,0,1182,1225,218,175,5e-08,65.8
Cladophialophora_potulentorum_CBS112222,ERR1713379.4864397,87.27,55,3,3,1337,1389,53,1,2e-06,60.2
Cladophialophora_matsushimae_CMRP1198,ERR1713379.1861300,91.76,85,6,1,224,308,64,147,4e-24,117
Cladophialophora_mycetomatis_CBS122637,ERR1713379.1861300,91.76,85,6,1,209,293,64,147,5e-24,117
Cladophialophora_chaetospira_CBS127573,ERR1713379.1861300,91.76,85,6,1,615,699,64,147,9e-24,117
Cladophialophora_chaetospira_CBS127573,ERR1713379.8140894,100.00,35,0,0,379,413,29,63,3e-08,65.8
Cladophialophora_chaetospira_CBS127573,ERR1713379.6933067,100.00,31,0,0,379,409,65,35,5e-06,58.4
Cladophialophora_chaetospira_CBS127573,ERR1713379.5828292,100.00,31,0,0,379,409,252,222,5e-06,58.4
Cladophialophora_chaetospira_CBS127573,ERR1713379.3867175,100.00,31,0,0,379,409,17,47,5e-06,58.4
Cladophialophora_chaetospira_CBS127573,ERR1713379.5307620,100.00,30,0,0,379,408,97,68,2e-05,56.5
Cladophialophora_chaetospira_CBS127573,ERR1713379.4010482,100.00,30,0,0,379,408,185,156,2e-05,56.5
Cladophialophora_chaetospira_CBS127573,ERR1713379.3223679,100.00,30,0,0,379,408,227,198,2e-05,56.5
Cladophialophora_chaetospira_CBS127573,ERR1713379.2861126,100.00,30,0,0,379,408,268,239,2e-05,56.5
Cladophialophora_chaetospira_CBS127573,ERR1713379.1384924,100.00,30,0,0,379,408,121,150,2e-05,56.5
Cladophialophora_chaetospira_CBS127573,ERR1713379.1384924,100.00,30,0,0,379,408,270,241,2e-05,56.5
Cladophialophora_chaetospira_CBS127573,ERR1713379.297997,100.00,30,0,0,379,408,189,160,2e-05,56.5
Cladophialophora_chaetospira_CBS127573,ERR1713379.28046,100.00,30,0,0,379,408,58,29,2e-05,56.5
Cladophialophora_chaetospira_CBS127573,ERR1713379.6069353,100.00,29,0,0,382,410,152,180,7e-05,54.7
Cladophialophora_boppii_CBS126.86_T,ERR1713379.1861300,91.76,85,6,1,217,301,64,147,5e-24,117
Cladophialophora_abundans_CBS126736,ERR1713379.1861300,91.76,85,6,1,154,238,64,147,4e-24,117
Capronia_semi-immersa_CBS102234,ERR1713379.1861300,91.76,85,6,1,216,300,64,147,5e-24,117
Phialophora_americana_CBS400.67,ERR1713379.6567531,95.36,151,7,0,830,980,151,1,8e-61,241
Phialophora_americana_CBS400.67,ERR1713379.8162099,87.59,145,18,0,1269,1413,145,1,4e-39,169
Phialophora_americana_CBS400.67,ERR1713379.8162099,86.79,106,14,0,1147,1252,173,278,4e-24,119
Phialophora_americana_CBS400.67,ERR1713379.1861300,91.76,85,6,1,218,302,64,147,1e-23,117
Phialophora_americana_CBS400.67,ERR1713379.6620694,92.06,63,5,0,1369,1431,129,67,3e-15,89.8
Phialophora_americana_CBS400.67,ERR1713379.6423401,91.67,60,5,0,903,962,161,220,1e-13,84.2
Phialophora_americana_CBS400.67,ERR1713379.4448342,82.47,97,16,1,1159,1255,113,18,1e-13,84.2
Phialophora_americana_CBS400.67,ERR1713379.4448342,91.11,45,4,0,1159,1203,258,302,7e-07,62.1
Phialophora_americana_CBS400.67,ERR1713379.1320668,84.34,83,13,0,1172,1254,190,272,5e-13,82.4
Phialophora_americana_CBS400.67,ERR1713379.6904663,95.65,46,2,0,1174,1219,238,283,8e-11,75.0
Phialophora_americana_CBS400.67,ERR1713379.980431,85.71,70,9,1,1172,1240,219,150,3e-10,73.1
Phialophora_americana_CBS400.67,ERR1713379.980431,86.15,65,8,1,1172,1235,87,151,4e-09,69.4
Phialophora_americana_CBS400.67,ERR1713379.467196,89.66,58,4,2,1174,1231,122,67,3e-10,73.1
Phialophora_americana_CBS400.67,ERR1713379.7000285,93.62,47,3,0,1174,1220,294,248,1e-09,71.3
Phialophora_americana_CBS400.67,ERR1713379.7000285,95.00,40,2,0,1172,1211,112,151,2e-07,63.9
Phialophora_americana_CBS400.67,ERR1713379.5153187,95.45,44,2,0,1174,1217,218,175,1e-09,71.3
Phialophora_americana_CBS400.67,ERR1713379.4864397,87.27,55,3,3,1329,1381,53,1,2e-06,60.2
Phialophora_verrucosa_CBS140325_T,ERR1713379.1861300,91.76,85,6,1,222,306,64,147,5e-24,117
Cladophialophora_samoensis_CBS259.83_T,ERR1713379.1861300,91.76,85,6,1,222,306,64,147,5e-24,117
Cladophialophora_carrionii_CBS260.83,ERR1713379.1861300,91.76,85,6,1,238,322,64,147,6e-24,117
Exophiala_palmae_UPCB86822_T,ERR1713379.1861300,91.76,85,6,1,181,265,64,147,5e-24,117
Cladophialophora_yegresii_CBS114405_T,ERR1713379.1861300,91.76,85,6,1,223,307,64,147,5e-24,117
Knufia_epidermidis_CBS120353_T,ERR1713379.1861300,91.76,85,6,1,221,305,64,147,5e-24,117
Arthrocladium_fulminans_CBS136243_T,ERR1713379.1861300,91.76,85,6,1,216,300,64,147,5e-24,117
Anthopsis_deltoidea_CBS263.77_T,ERR1713379.1861300,91.67,84,6,1,225,307,64,147,2e-23,115
Cyphellophora_laciniata_CBS190.61_T,ERR1713379.1861300,91.67,84,6,1,310,392,64,147,2e-23,115
Cyphellophora_laciniata_CBS190.61_T,ERR1713379.8140894,96.77,62,2,0,43,104,2,63,5e-20,104
Cyphellophora_laciniata_CBS190.61_T,ERR1713379.6933067,95.38,65,3,0,38,102,97,33,5e-20,104
Cyphellophora_laciniata_CBS190.61_T,ERR1713379.5828292,96.77,62,2,0,40,101,282,221,5e-20,104
Cyphellophora_laciniata_CBS190.61_T,ERR1713379.4010482,95.16,62,3,0,38,99,217,156,3e-18,99.0
Cyphellophora_laciniata_CBS190.61_T,ERR1713379.3223679,95.16,62,3,0,38,99,259,198,3e-18,99.0
Cyphellophora_laciniata_CBS190.61_T,ERR1713379.2861126,95.16,62,3,0,38,99,300,239,3e-18,99.0
Cyphellophora_laciniata_CBS190.61_T,ERR1713379.1384924,95.16,62,3,0,38,99,89,150,3e-18,99.0
Cyphellophora_laciniata_CBS190.61_T,ERR1713379.1384924,95.16,62,3,0,38,99,302,241,3e-18,99.0
Cyphellophora_laciniata_CBS190.61_T,ERR1713379.297997,95.16,62,3,0,38,99,221,160,3e-18,99.0
Cyphellophora_laciniata_CBS190.61_T,ERR1713379.6567531,100.00,51,0,0,685,735,152,202,3e-17,95.3
Cyphellophora_laciniata_CBS190.61_T,ERR1713379.28046,90.28,72,5,2,29,99,99,29,1e-16,93.5
Cyphellophora_laciniata_CBS190.61_T,ERR1713379.5307620,94.83,58,3,0,42,99,125,68,4e-16,91.6
Cyphellophora_laciniata_CBS190.61_T,ERR1713379.5307620,94.23,52,3,0,42,93,251,302,9e-13,80.5
Cyphellophora_laciniata_CBS190.61_T,ERR1713379.3867175,100.00,48,0,0,55,102,2,49,2e-15,89.8
Cyphellophora_laciniata_CBS190.61_T,ERR1713379.3150468,94.74,57,3,0,38,94,57,1,2e-15,89.8
Cyphellophora_laciniata_CBS190.61_T,ERR1713379.3150036,94.74,57,3,0,38,94,57,1,2e-15,89.8
Cyphellophora_laciniata_CBS190.61_T,ERR1713379.6069353,100.00,28,0,0,73,100,152,179,2e-04,52.8
Cyphellophora_suttonii_CBS449.91,ERR1713379.1861300,91.67,84,6,1,213,295,64,147,2e-23,115
Cyphellophora_pauciseptata_CBS284.85_T,ERR1713379.1861300,91.67,84,6,1,224,306,64,147,2e-23,115
Cyphellophora_pluriseptata_CBS286.85_T,ERR1713379.1861300,90.48,84,7,1,229,311,64,147,9e-22,110
Phialophora_europaea_CBS101466,ERR1713379.1861300,91.67,84,6,1,219,301,64,147,2e-23,115
Phialophora_ambigua_CBS235.93,ERR1713379.1861300,91.67,84,6,1,216,298,64,147,2e-23,115
Cladophialophora_modesta_CBS985.96_T,ERR1713379.1861300,91.76,85,6,1,213,297,64,147,6e-24,117
Cladophialophora_modesta_CBS985.96_T,ERR1713379.6567531,98.04,51,1,0,569,619,152,202,1e-15,89.8
Cyphellophora_fusarioides_MUCL44033_T,ERR1713379.1861300,91.67,84,6,1,212,294,64,147,2e-23,115
