Exophiala_nigra_CBS535.94_T,ERR2673962.28348,90.48,126,11,1,233,358,11,135,2e-40,165
Exophiala_nigra_CBS535.94_T,ERR2673962.39384,91.51,106,8,1,233,338,11,115,2e-34,145
Exophiala_nigra_CBS535.94_T,ERR2673962.20563,85.03,147,16,5,233,377,11,153,2e-34,145
Exophiala_nigra_CBS535.94_T,ERR2673962.1243,87.64,89,10,1,233,321,11,98,1e-21,102
Exophiala_nigra_CBS535.94_T,ERR2673962.3212,86.52,89,11,1,233,321,11,98,6e-20,97.1
Exophiala_nigra_CBS535.94_T,ERR2673962.8985,78.12,160,28,6,233,391,11,164,2e-19,95.3
Exophiala_nigra_CBS535.94_T,ERR2673962.38966,85.39,89,12,1,233,321,11,98,3e-18,91.6
Exophiala_nigra_CBS535.94_T,ERR2673962.30568,85.39,89,12,1,233,321,11,98,3e-18,91.6
Exophiala_nigra_CBS535.94_T,ERR2673962.23126,85.39,89,12,1,233,321,11,98,3e-18,91.6
Exophiala_nigra_CBS535.94_T,ERR2673962.3901,85.39,89,12,1,233,321,11,98,3e-18,91.6
Exophiala_nigra_CBS535.94_T,ERR2673962.3900,85.39,89,12,1,233,321,11,98,3e-18,91.6
Exophiala_spinifera_CBS899.68_T,ERR2673962.28348,89.68,126,12,1,230,355,11,135,7e-39,159
Exophiala_spinifera_CBS899.68_T,ERR2673962.39384,90.57,106,9,1,230,335,11,115,9e-33,139
Exophiala_spinifera_CBS899.68_T,ERR2673962.20563,84.35,147,17,5,230,374,11,153,9e-33,139
Exophiala_spinifera_CBS899.68_T,ERR2673962.3212,86.52,89,11,1,230,318,11,98,6e-20,97.1
Exophiala_spinifera_CBS899.68_T,ERR2673962.38966,85.39,89,12,1,230,318,11,98,3e-18,91.6
Exophiala_spinifera_CBS899.68_T,ERR2673962.30568,85.39,89,12,1,230,318,11,98,3e-18,91.6
Exophiala_spinifera_CBS899.68_T,ERR2673962.23126,85.39,89,12,1,230,318,11,98,3e-18,91.6
Exophiala_spinifera_CBS899.68_T,ERR2673962.3901,85.39,89,12,1,230,318,11,98,3e-18,91.6
Exophiala_spinifera_CBS899.68_T,ERR2673962.3900,85.39,89,12,1,230,318,11,98,3e-18,91.6
Exophiala_spinifera_CBS899.68_T,ERR2673962.1243,85.39,89,12,1,230,318,11,98,3e-18,91.6
Exophiala_spinifera_CBS899.68_T,ERR2673962.8985,77.50,160,28,7,230,387,11,164,1e-17,89.8
Exophiala_exophialae_CBS668.76_T,ERR2673962.28348,89.68,126,12,1,231,356,11,135,7e-39,159
Exophiala_exophialae_CBS668.76_T,ERR2673962.39384,90.57,106,9,1,231,336,11,115,9e-33,139
Exophiala_exophialae_CBS668.76_T,ERR2673962.20563,84.35,147,17,5,231,375,11,153,9e-33,139
Exophiala_exophialae_CBS668.76_T,ERR2673962.3212,86.52,89,11,1,231,319,11,98,6e-20,97.1
Exophiala_exophialae_CBS668.76_T,ERR2673962.38966,85.39,89,12,1,231,319,11,98,3e-18,91.6
Exophiala_exophialae_CBS668.76_T,ERR2673962.30568,85.39,89,12,1,231,319,11,98,3e-18,91.6
Exophiala_exophialae_CBS668.76_T,ERR2673962.23126,85.39,89,12,1,231,319,11,98,3e-18,91.6
Exophiala_exophialae_CBS668.76_T,ERR2673962.3901,85.39,89,12,1,231,319,11,98,3e-18,91.6
Exophiala_exophialae_CBS668.76_T,ERR2673962.3900,85.39,89,12,1,231,319,11,98,3e-18,91.6
Exophiala_exophialae_CBS668.76_T,ERR2673962.1243,85.39,89,12,1,231,319,11,98,3e-18,91.6
Exophiala_exophialae_CBS668.76_T,ERR2673962.8985,77.50,160,28,7,231,388,11,164,1e-17,89.8
Exophiala_polymorpha_CBS138920_T,ERR2673962.28348,89.68,126,12,1,333,458,11,135,9e-39,159
Exophiala_polymorpha_CBS138920_T,ERR2673962.39384,90.57,106,9,1,333,438,11,115,1e-32,139
Exophiala_polymorpha_CBS138920_T,ERR2673962.20563,84.35,147,17,5,333,477,11,153,1e-32,139
Exophiala_polymorpha_CBS138920_T,ERR2673962.15794,98.18,55,1,0,640,694,313,259,7e-20,97.1
Exophiala_polymorpha_CBS138920_T,ERR2673962.3212,86.52,89,11,1,333,421,11,98,7e-20,97.1
Exophiala_polymorpha_CBS138920_T,ERR2673962.2463,98.18,55,1,0,640,694,313,259,7e-20,97.1
Exophiala_polymorpha_CBS138920_T,ERR2673962.38966,85.39,89,12,1,333,421,11,98,3e-18,91.6
Exophiala_polymorpha_CBS138920_T,ERR2673962.30568,85.39,89,12,1,333,421,11,98,3e-18,91.6
Exophiala_polymorpha_CBS138920_T,ERR2673962.23126,85.39,89,12,1,333,421,11,98,3e-18,91.6
Exophiala_polymorpha_CBS138920_T,ERR2673962.3901,85.39,89,12,1,333,421,11,98,3e-18,91.6
Exophiala_polymorpha_CBS138920_T,ERR2673962.3900,85.39,89,12,1,333,421,11,98,3e-18,91.6
Exophiala_polymorpha_CBS138920_T,ERR2673962.1243,85.39,89,12,1,333,421,11,98,3e-18,91.6
Exophiala_polymorpha_CBS138920_T,ERR2673962.8985,77.50,160,28,7,333,490,11,164,1e-17,89.8
Exophiala_polymorpha_CBS138920_T,ERR2673962.26002,92.73,55,4,0,640,694,313,259,7e-15,80.5
Exophiala_polymorpha_CBS138920_T,ERR2673962.32790,91.67,48,4,0,647,694,306,259,6e-11,67.6
Exophiala_polymorpha_CBS138920_T,ERR2673962.21236,89.80,49,5,0,646,694,307,259,8e-10,63.9
Exophiala_polymorpha_CBS138920_T,ERR2673962.27164,91.30,46,3,1,649,694,303,259,3e-09,62.1
Exophiala_oligosperma_CBS725.88_T,ERR2673962.28348,89.68,126,12,1,243,368,11,135,7e-39,159
Exophiala_oligosperma_CBS725.88_T,ERR2673962.39384,90.57,106,9,1,243,348,11,115,1e-32,139
Exophiala_oligosperma_CBS725.88_T,ERR2673962.20563,84.35,147,17,5,243,387,11,153,1e-32,139
Exophiala_oligosperma_CBS725.88_T,ERR2673962.3212,86.52,89,11,1,243,331,11,98,6e-20,97.1
Exophiala_oligosperma_CBS725.88_T,ERR2673962.38966,85.39,89,12,1,243,331,11,98,3e-18,91.6
Exophiala_oligosperma_CBS725.88_T,ERR2673962.30568,85.39,89,12,1,243,331,11,98,3e-18,91.6
Exophiala_oligosperma_CBS725.88_T,ERR2673962.23126,85.39,89,12,1,243,331,11,98,3e-18,91.6
Exophiala_oligosperma_CBS725.88_T,ERR2673962.3901,85.39,89,12,1,243,331,11,98,3e-18,91.6
Exophiala_oligosperma_CBS725.88_T,ERR2673962.3900,85.39,89,12,1,243,331,11,98,3e-18,91.6
Exophiala_oligosperma_CBS725.88_T,ERR2673962.1243,85.39,89,12,1,243,331,11,98,3e-18,91.6
Exophiala_oligosperma_CBS725.88_T,ERR2673962.8985,77.50,160,28,7,243,400,11,164,1e-17,89.8
Exophiala_jeanselmei_CBS507.90_T,ERR2673962.28348,89.68,126,12,1,235,360,11,135,8e-39,159
Exophiala_jeanselmei_CBS507.90_T,ERR2673962.39384,90.57,106,9,1,235,340,11,115,1e-32,139
Exophiala_jeanselmei_CBS507.90_T,ERR2673962.20563,84.35,147,17,5,235,379,11,153,1e-32,139
Exophiala_jeanselmei_CBS507.90_T,ERR2673962.2463,95.59,68,3,0,537,604,318,251,8e-24,110
Exophiala_jeanselmei_CBS507.90_T,ERR2673962.15794,94.12,68,4,0,537,604,318,251,4e-22,104
Exophiala_jeanselmei_CBS507.90_T,ERR2673962.3212,86.52,89,11,1,235,323,11,98,6e-20,97.1
Exophiala_jeanselmei_CBS507.90_T,ERR2673962.38966,85.39,89,12,1,235,323,11,98,3e-18,91.6
Exophiala_jeanselmei_CBS507.90_T,ERR2673962.30568,85.39,89,12,1,235,323,11,98,3e-18,91.6
Exophiala_jeanselmei_CBS507.90_T,ERR2673962.23126,85.39,89,12,1,235,323,11,98,3e-18,91.6
Exophiala_jeanselmei_CBS507.90_T,ERR2673962.3901,85.39,89,12,1,235,323,11,98,3e-18,91.6
Exophiala_jeanselmei_CBS507.90_T,ERR2673962.3900,85.39,89,12,1,235,323,11,98,3e-18,91.6
Exophiala_jeanselmei_CBS507.90_T,ERR2673962.1243,85.39,89,12,1,235,323,11,98,3e-18,91.6
Exophiala_jeanselmei_CBS507.90_T,ERR2673962.8985,77.50,160,28,7,235,392,11,164,1e-17,89.8
Exophiala_jeanselmei_CBS507.90_T,ERR2673962.26002,94.64,56,3,0,549,604,306,251,4e-17,87.9
Exophiala_jeanselmei_CBS507.90_T,ERR2673962.32790,92.86,56,4,0,549,604,306,251,2e-15,82.4
Exophiala_jeanselmei_CBS507.90_T,ERR2673962.27164,92.59,54,3,1,551,604,303,251,8e-14,76.8
Exophiala_jeanselmei_CBS507.90_T,ERR2673962.21236,89.47,57,6,0,548,604,307,251,1e-12,73.1
Exophiala_bergeri_CBS353.52,ERR2673962.28348,90.48,126,11,1,196,321,11,135,1e-40,165
Exophiala_bergeri_CBS353.52,ERR2673962.20563,85.14,148,16,5,196,341,11,154,5e-35,147
Exophiala_bergeri_CBS353.52,ERR2673962.39384,91.51,106,8,1,196,301,11,115,2e-34,145
Exophiala_bergeri_CBS353.52,ERR2673962.1243,87.64,89,10,1,196,284,11,98,1e-21,102
Exophiala_bergeri_CBS353.52,ERR2673962.3212,86.52,89,11,1,196,284,11,98,5e-20,97.1
Exophiala_bergeri_CBS353.52,ERR2673962.38966,85.39,89,12,1,196,284,11,98,2e-18,91.6
Exophiala_bergeri_CBS353.52,ERR2673962.30568,85.39,89,12,1,196,284,11,98,2e-18,91.6
Exophiala_bergeri_CBS353.52,ERR2673962.23126,85.39,89,12,1,196,284,11,98,2e-18,91.6
Exophiala_bergeri_CBS353.52,ERR2673962.3901,85.39,89,12,1,196,284,11,98,2e-18,91.6
Exophiala_bergeri_CBS353.52,ERR2673962.3900,85.39,89,12,1,196,284,11,98,2e-18,91.6
Exophiala_bergeri_CBS353.52,ERR2673962.8985,83.00,100,16,1,196,295,11,109,9e-18,89.8
Exophiala_moniliae_CBS520.76_T,ERR2673962.28348,90.48,126,11,1,233,358,11,135,2e-40,165
Exophiala_moniliae_CBS520.76_T,ERR2673962.39384,91.51,106,8,1,233,338,11,115,2e-34,145
Exophiala_moniliae_CBS520.76_T,ERR2673962.20563,85.03,147,16,5,233,377,11,153,2e-34,145
Exophiala_moniliae_CBS520.76_T,ERR2673962.1243,87.64,89,10,1,233,321,11,98,1e-21,102
Exophiala_moniliae_CBS520.76_T,ERR2673962.3212,86.52,89,11,1,233,321,11,98,6e-20,97.1
Exophiala_moniliae_CBS520.76_T,ERR2673962.38966,85.39,89,12,1,233,321,11,98,3e-18,91.6
Exophiala_moniliae_CBS520.76_T,ERR2673962.30568,85.39,89,12,1,233,321,11,98,3e-18,91.6
Exophiala_moniliae_CBS520.76_T,ERR2673962.23126,85.39,89,12,1,233,321,11,98,3e-18,91.6
Exophiala_moniliae_CBS520.76_T,ERR2673962.3901,85.39,89,12,1,233,321,11,98,3e-18,91.6
Exophiala_moniliae_CBS520.76_T,ERR2673962.3900,85.39,89,12,1,233,321,11,98,3e-18,91.6
Exophiala_moniliae_CBS520.76_T,ERR2673962.8985,83.00,100,16,1,233,332,11,109,1e-17,89.8
Exophiala_pisciphila_CBS537.73_T,ERR2673962.28348,88.65,141,14,2,236,376,11,149,4e-42,171
Exophiala_pisciphila_CBS537.73_T,ERR2673962.20563,85.71,147,15,5,236,380,11,153,5e-36,150
Exophiala_pisciphila_CBS537.73_T,ERR2673962.39384,91.51,106,8,1,236,341,11,115,2e-34,145
Exophiala_pisciphila_CBS537.73_T,ERR2673962.2463,100.00,61,0,0,553,613,311,251,7e-25,113
Exophiala_pisciphila_CBS537.73_T,ERR2673962.15794,98.36,61,1,0,553,613,311,251,3e-23,108
Exophiala_pisciphila_CBS537.73_T,ERR2673962.1243,86.52,89,11,1,236,324,11,98,7e-20,97.1
Exophiala_pisciphila_CBS537.73_T,ERR2673962.8985,77.99,159,29,6,236,393,11,164,3e-19,95.3
Exophiala_pisciphila_CBS537.73_T,ERR2673962.26002,96.43,56,2,0,558,613,306,251,9e-19,93.5
Exophiala_pisciphila_CBS537.73_T,ERR2673962.3212,85.39,89,12,1,236,324,11,98,3e-18,91.6
Exophiala_pisciphila_CBS537.73_T,ERR2673962.32790,94.64,56,3,0,558,613,306,251,4e-17,87.9
Exophiala_pisciphila_CBS537.73_T,ERR2673962.38966,84.27,89,13,1,236,324,11,98,2e-16,86.1
Exophiala_pisciphila_CBS537.73_T,ERR2673962.30568,84.27,89,13,1,236,324,11,98,2e-16,86.1
Exophiala_pisciphila_CBS537.73_T,ERR2673962.23126,84.27,89,13,1,236,324,11,98,2e-16,86.1
Exophiala_pisciphila_CBS537.73_T,ERR2673962.3901,84.27,89,13,1,236,324,11,98,2e-16,86.1
Exophiala_pisciphila_CBS537.73_T,ERR2673962.3900,84.27,89,13,1,236,324,11,98,2e-16,86.1
Exophiala_pisciphila_CBS537.73_T,ERR2673962.21236,89.83,59,4,2,557,614,307,250,3e-13,75.0
Exophiala_pisciphila_CBS537.73_T,ERR2673962.27164,90.74,54,4,1,560,613,303,251,4e-12,71.3
Exophiala_pisciphila_CBS537.73_T,ERR2673962.28241,90.38,52,3,2,567,617,297,247,5e-11,67.6
Exophiala_xenobiotica_CBS117642,ERR2673962.28348,90.48,126,11,1,228,353,11,135,2e-40,165
Exophiala_xenobiotica_CBS117642,ERR2673962.39384,91.51,106,8,1,228,333,11,115,2e-34,145
Exophiala_xenobiotica_CBS117642,ERR2673962.20563,85.03,147,16,5,228,372,11,153,2e-34,145
Exophiala_xenobiotica_CBS117642,ERR2673962.1243,87.64,89,10,1,228,316,11,98,1e-21,102
Exophiala_xenobiotica_CBS117642,ERR2673962.3212,86.52,89,11,1,228,316,11,98,6e-20,97.1
Exophiala_xenobiotica_CBS117642,ERR2673962.8985,77.99,159,29,6,228,385,11,164,2e-19,95.3
Exophiala_xenobiotica_CBS117642,ERR2673962.38966,85.39,89,12,1,228,316,11,98,3e-18,91.6
Exophiala_xenobiotica_CBS117642,ERR2673962.30568,85.39,89,12,1,228,316,11,98,3e-18,91.6
Exophiala_xenobiotica_CBS117642,ERR2673962.23126,85.39,89,12,1,228,316,11,98,3e-18,91.6
Exophiala_xenobiotica_CBS117642,ERR2673962.3901,85.39,89,12,1,228,316,11,98,3e-18,91.6
Exophiala_xenobiotica_CBS117642,ERR2673962.3900,85.39,89,12,1,228,316,11,98,3e-18,91.6
Exophiala_brunnea_CBS,ERR2673962.28348,89.36,141,13,2,264,404,11,149,8e-44,176
Exophiala_brunnea_CBS,ERR2673962.20563,85.03,147,16,5,264,408,11,153,2e-34,145
Exophiala_brunnea_CBS,ERR2673962.39384,90.57,106,9,1,264,369,11,115,1e-32,139
Exophiala_brunnea_CBS,ERR2673962.1243,87.64,89,10,1,264,352,11,98,1e-21,102
Exophiala_brunnea_CBS,ERR2673962.3212,86.52,89,11,1,264,352,11,98,7e-20,97.1
Exophiala_brunnea_CBS,ERR2673962.38966,85.39,89,12,1,264,352,11,98,3e-18,91.6
Exophiala_brunnea_CBS,ERR2673962.30568,85.39,89,12,1,264,352,11,98,3e-18,91.6
Exophiala_brunnea_CBS,ERR2673962.23126,85.39,89,12,1,264,352,11,98,3e-18,91.6
Exophiala_brunnea_CBS,ERR2673962.3901,85.39,89,12,1,264,352,11,98,3e-18,91.6
Exophiala_brunnea_CBS,ERR2673962.3900,85.39,89,12,1,264,352,11,98,3e-18,91.6
Exophiala_brunnea_CBS,ERR2673962.15794,98.00,50,1,0,584,633,311,262,1e-17,89.8
Exophiala_brunnea_CBS,ERR2673962.8985,77.36,159,30,6,264,421,11,164,1e-17,89.8
Exophiala_brunnea_CBS,ERR2673962.2463,98.00,50,1,0,584,633,311,262,1e-17,89.8
Exophiala_brunnea_CBS,ERR2673962.26002,97.78,45,1,0,589,633,306,262,2e-14,78.7
Exophiala_nishimurae_CBS101538_T,ERR2673962.28348,89.68,126,12,1,242,367,11,135,8e-39,159
Exophiala_nishimurae_CBS101538_T,ERR2673962.39384,90.57,106,9,1,242,347,11,115,1e-32,139
Exophiala_nishimurae_CBS101538_T,ERR2673962.20563,84.35,147,17,5,242,386,11,153,1e-32,139
Exophiala_nishimurae_CBS101538_T,ERR2673962.3212,86.52,89,11,1,242,330,11,98,6e-20,97.1
Exophiala_nishimurae_CBS101538_T,ERR2673962.38966,85.39,89,12,1,242,330,11,98,3e-18,91.6
Exophiala_nishimurae_CBS101538_T,ERR2673962.30568,85.39,89,12,1,242,330,11,98,3e-18,91.6
Exophiala_nishimurae_CBS101538_T,ERR2673962.23126,85.39,89,12,1,242,330,11,98,3e-18,91.6
Exophiala_nishimurae_CBS101538_T,ERR2673962.3901,85.39,89,12,1,242,330,11,98,3e-18,91.6
Exophiala_nishimurae_CBS101538_T,ERR2673962.3900,85.39,89,12,1,242,330,11,98,3e-18,91.6
Exophiala_nishimurae_CBS101538_T,ERR2673962.1243,85.39,89,12,1,242,330,11,98,3e-18,91.6
Exophiala_nishimurae_CBS101538_T,ERR2673962.8985,77.50,160,28,7,242,399,11,164,1e-17,89.8
Exophiala_mesophila_CBS402.95_T,ERR2673962.28348,89.36,141,13,2,226,366,11,149,9e-44,176
Exophiala_mesophila_CBS402.95_T,ERR2673962.20563,85.43,151,16,5,226,374,11,157,1e-36,152
Exophiala_mesophila_CBS402.95_T,ERR2673962.39384,90.57,106,9,1,226,331,11,115,1e-32,139
Exophiala_mesophila_CBS402.95_T,ERR2673962.2463,95.71,70,2,1,541,610,319,251,2e-24,111
Exophiala_mesophila_CBS402.95_T,ERR2673962.15794,94.29,70,3,1,541,610,319,251,1e-22,106
Exophiala_mesophila_CBS402.95_T,ERR2673962.1243,87.64,89,10,1,226,314,11,98,1e-21,102
Exophiala_mesophila_CBS402.95_T,ERR2673962.3212,86.52,89,11,1,226,314,11,98,7e-20,97.1
Exophiala_mesophila_CBS402.95_T,ERR2673962.38966,85.39,89,12,1,226,314,11,98,3e-18,91.6
Exophiala_mesophila_CBS402.95_T,ERR2673962.30568,85.39,89,12,1,226,314,11,98,3e-18,91.6
Exophiala_mesophila_CBS402.95_T,ERR2673962.23126,85.39,89,12,1,226,314,11,98,3e-18,91.6
Exophiala_mesophila_CBS402.95_T,ERR2673962.3901,85.39,89,12,1,226,314,11,98,3e-18,91.6
Exophiala_mesophila_CBS402.95_T,ERR2673962.3900,85.39,89,12,1,226,314,11,98,3e-18,91.6
Exophiala_mesophila_CBS402.95_T,ERR2673962.26002,91.04,67,5,1,544,610,316,251,1e-17,89.8
Exophiala_mesophila_CBS402.95_T,ERR2673962.8985,82.00,100,17,1,226,325,11,109,5e-16,84.2
Exophiala_mesophila_CBS402.95_T,ERR2673962.32790,92.86,56,4,0,555,610,306,251,2e-15,82.4
Exophiala_mesophila_CBS402.95_T,ERR2673962.27164,92.59,54,3,1,557,610,303,251,9e-14,76.8
Exophiala_mesophila_CBS402.95_T,ERR2673962.21236,89.66,58,6,0,554,611,307,250,3e-13,75.0
Exophiala_mesophila_CBS402.95_T,ERR2673962.28241,90.20,51,5,0,564,614,297,247,5e-11,67.6
Exophiala_castellanii_CBS158.58_T,ERR2673962.28348,89.36,141,13,2,224,364,11,149,9e-44,176
Exophiala_castellanii_CBS158.58_T,ERR2673962.20563,85.43,151,16,5,224,372,11,157,1e-36,152
Exophiala_castellanii_CBS158.58_T,ERR2673962.39384,90.57,106,9,1,224,329,11,115,1e-32,139
Exophiala_castellanii_CBS158.58_T,ERR2673962.2463,97.06,68,1,1,543,609,318,251,7e-25,113
Exophiala_castellanii_CBS158.58_T,ERR2673962.15794,95.59,68,2,1,543,609,318,251,3e-23,108
Exophiala_castellanii_CBS158.58_T,ERR2673962.1243,87.64,89,10,1,224,312,11,98,1e-21,102
Exophiala_castellanii_CBS158.58_T,ERR2673962.3212,86.52,89,11,1,224,312,11,98,7e-20,97.1
Exophiala_castellanii_CBS158.58_T,ERR2673962.38966,85.39,89,12,1,224,312,11,98,3e-18,91.6
Exophiala_castellanii_CBS158.58_T,ERR2673962.30568,85.39,89,12,1,224,312,11,98,3e-18,91.6
Exophiala_castellanii_CBS158.58_T,ERR2673962.23126,85.39,89,12,1,224,312,11,98,3e-18,91.6
Exophiala_castellanii_CBS158.58_T,ERR2673962.3901,85.39,89,12,1,224,312,11,98,3e-18,91.6
Exophiala_castellanii_CBS158.58_T,ERR2673962.3900,85.39,89,12,1,224,312,11,98,3e-18,91.6
Exophiala_castellanii_CBS158.58_T,ERR2673962.26002,94.64,56,3,0,554,609,306,251,4e-17,87.9
Exophiala_castellanii_CBS158.58_T,ERR2673962.8985,82.00,100,17,1,224,323,11,109,5e-16,84.2
Exophiala_castellanii_CBS158.58_T,ERR2673962.32790,88.41,69,7,1,542,609,319,251,2e-15,82.4
Exophiala_castellanii_CBS158.58_T,ERR2673962.27164,92.59,54,3,1,556,609,303,251,9e-14,76.8
Exophiala_castellanii_CBS158.58_T,ERR2673962.21236,89.66,58,6,0,553,610,307,250,3e-13,75.0
Exophiala_castellanii_CBS158.58_T,ERR2673962.28241,90.20,51,5,0,563,613,297,247,5e-11,67.6
Exophiala_lecanii-corni_CBS123.33_T,ERR2673962.28348,91.27,126,10,1,247,372,11,135,4e-42,171
Exophiala_lecanii-corni_CBS123.33_T,ERR2673962.20563,84.67,150,17,5,247,394,11,156,2e-34,145
Exophiala_lecanii-corni_CBS123.33_T,ERR2673962.39384,90.57,106,9,1,247,352,11,115,1e-32,139
Exophiala_lecanii-corni_CBS123.33_T,ERR2673962.1243,87.64,89,10,1,247,335,11,98,1e-21,102
Exophiala_lecanii-corni_CBS123.33_T,ERR2673962.3212,86.52,89,11,1,247,335,11,98,6e-20,97.1
Exophiala_lecanii-corni_CBS123.33_T,ERR2673962.38966,85.39,89,12,1,247,335,11,98,3e-18,91.6
Exophiala_lecanii-corni_CBS123.33_T,ERR2673962.30568,85.39,89,12,1,247,335,11,98,3e-18,91.6
Exophiala_lecanii-corni_CBS123.33_T,ERR2673962.23126,85.39,89,12,1,247,335,11,98,3e-18,91.6
Exophiala_lecanii-corni_CBS123.33_T,ERR2673962.3901,85.39,89,12,1,247,335,11,98,3e-18,91.6
Exophiala_lecanii-corni_CBS123.33_T,ERR2673962.3900,85.39,89,12,1,247,335,11,98,3e-18,91.6
Exophiala_lecanii-corni_CBS123.33_T,ERR2673962.8985,82.00,100,17,1,247,346,11,109,5e-16,84.2
Exophiala_dermatitidis_CBS748.88,ERR2673962.28348,88.65,141,14,2,239,379,11,149,9e-42,171
Exophiala_dermatitidis_CBS748.88,ERR2673962.20563,85.81,148,15,5,239,384,11,154,3e-36,152
Exophiala_dermatitidis_CBS748.88,ERR2673962.39384,91.51,106,8,1,239,344,11,115,6e-34,145
Exophiala_dermatitidis_CBS748.88,ERR2673962.2463,95.77,71,2,1,565,635,320,251,2e-24,113
Exophiala_dermatitidis_CBS748.88,ERR2673962.15794,94.37,71,3,1,565,635,320,251,8e-23,108
Exophiala_dermatitidis_CBS748.88,ERR2673962.1243,87.64,89,10,1,239,327,11,98,4e-21,102
Exophiala_dermatitidis_CBS748.88,ERR2673962.3212,86.52,89,11,1,239,327,11,98,2e-19,97.1
Exophiala_dermatitidis_CBS748.88,ERR2673962.38966,85.39,89,12,1,239,327,11,98,8e-18,91.6
Exophiala_dermatitidis_CBS748.88,ERR2673962.30568,85.39,89,12,1,239,327,11,98,8e-18,91.6
Exophiala_dermatitidis_CBS748.88,ERR2673962.23126,85.39,89,12,1,239,327,11,98,8e-18,91.6
Exophiala_dermatitidis_CBS748.88,ERR2673962.3901,85.39,89,12,1,239,327,11,98,8e-18,91.6
Exophiala_dermatitidis_CBS748.88,ERR2673962.3900,85.39,89,12,1,239,327,11,98,8e-18,91.6
Exophiala_dermatitidis_CBS748.88,ERR2673962.8985,83.00,100,16,1,239,338,11,109,3e-17,89.8
Exophiala_dermatitidis_CBS748.88,ERR2673962.26002,94.64,56,3,0,580,635,306,251,1e-16,87.9
Exophiala_dermatitidis_CBS748.88,ERR2673962.32790,92.86,56,4,0,580,635,306,251,5e-15,82.4
Exophiala_dermatitidis_CBS748.88,ERR2673962.27164,92.59,54,3,1,582,635,303,251,2e-13,76.8
Exophiala_dermatitidis_CBS748.88,ERR2673962.21236,89.66,58,6,0,579,636,307,250,8e-13,75.0
Exophiala_dermatitidis_CBS748.88,ERR2673962.28241,90.20,51,5,0,589,639,297,247,1e-10,67.6
Exophiala_angulospora_CBS482.92_T,ERR2673962.28348,90.48,126,11,1,230,355,11,135,2e-40,165
Exophiala_angulospora_CBS482.92_T,ERR2673962.39384,91.51,106,8,1,230,335,11,115,2e-34,145
Exophiala_angulospora_CBS482.92_T,ERR2673962.20563,85.03,147,16,5,230,374,11,153,2e-34,145
Exophiala_angulospora_CBS482.92_T,ERR2673962.1243,87.64,89,10,1,230,318,11,98,1e-21,102
Exophiala_angulospora_CBS482.92_T,ERR2673962.3212,86.52,89,11,1,230,318,11,98,6e-20,97.1
Exophiala_angulospora_CBS482.92_T,ERR2673962.38966,85.39,89,12,1,230,318,11,98,3e-18,91.6
Exophiala_angulospora_CBS482.92_T,ERR2673962.30568,85.39,89,12,1,230,318,11,98,3e-18,91.6
Exophiala_angulospora_CBS482.92_T,ERR2673962.23126,85.39,89,12,1,230,318,11,98,3e-18,91.6
Exophiala_angulospora_CBS482.92_T,ERR2673962.3901,85.39,89,12,1,230,318,11,98,3e-18,91.6
Exophiala_angulospora_CBS482.92_T,ERR2673962.3900,85.39,89,12,1,230,318,11,98,3e-18,91.6
Exophiala_angulospora_CBS482.92_T,ERR2673962.8985,83.00,100,16,1,230,329,11,109,1e-17,89.8
Exophiala_opportunistica_CBS109811_T,ERR2673962.28348,88.65,141,14,2,229,369,11,149,3e-42,171
Exophiala_opportunistica_CBS109811_T,ERR2673962.20563,85.52,145,15,5,229,371,11,151,6e-35,147
Exophiala_opportunistica_CBS109811_T,ERR2673962.39384,91.51,106,8,1,229,334,11,115,2e-34,145
Exophiala_opportunistica_CBS109811_T,ERR2673962.1243,87.64,89,10,1,229,317,11,98,1e-21,102
Exophiala_opportunistica_CBS109811_T,ERR2673962.8985,78.62,159,28,6,229,386,11,164,5e-21,100
Exophiala_opportunistica_CBS109811_T,ERR2673962.3212,86.52,89,11,1,229,317,11,98,6e-20,97.1
Exophiala_opportunistica_CBS109811_T,ERR2673962.38966,85.39,89,12,1,229,317,11,98,3e-18,91.6
Exophiala_opportunistica_CBS109811_T,ERR2673962.30568,85.39,89,12,1,229,317,11,98,3e-18,91.6
Exophiala_opportunistica_CBS109811_T,ERR2673962.23126,85.39,89,12,1,229,317,11,98,3e-18,91.6
Exophiala_opportunistica_CBS109811_T,ERR2673962.3901,85.39,89,12,1,229,317,11,98,3e-18,91.6
Exophiala_opportunistica_CBS109811_T,ERR2673962.3900,85.39,89,12,1,229,317,11,98,3e-18,91.6
Exophiala_salmonis_CBS157.67_T,ERR2673962.28348,88.65,141,14,2,358,498,11,149,5e-42,171
Exophiala_salmonis_CBS157.67_T,ERR2673962.20563,85.71,147,15,5,358,502,11,153,6e-36,150
Exophiala_salmonis_CBS157.67_T,ERR2673962.39384,91.51,106,8,1,358,463,11,115,3e-34,145
Exophiala_salmonis_CBS157.67_T,ERR2673962.2463,100.00,61,0,0,673,733,311,251,8e-25,113
Exophiala_salmonis_CBS157.67_T,ERR2673962.15794,98.36,61,1,0,673,733,311,251,4e-23,108
Exophiala_salmonis_CBS157.67_T,ERR2673962.1243,87.64,89,10,1,358,446,11,98,2e-21,102
Exophiala_salmonis_CBS157.67_T,ERR2673962.3212,86.52,89,11,1,358,446,11,98,8e-20,97.1
Exophiala_salmonis_CBS157.67_T,ERR2673962.8985,77.99,159,29,6,358,515,11,164,3e-19,95.3
Exophiala_salmonis_CBS157.67_T,ERR2673962.26002,96.43,56,2,0,678,733,306,251,1e-18,93.5
Exophiala_salmonis_CBS157.67_T,ERR2673962.38966,85.39,89,12,1,358,446,11,98,4e-18,91.6
Exophiala_salmonis_CBS157.67_T,ERR2673962.30568,85.39,89,12,1,358,446,11,98,4e-18,91.6
Exophiala_salmonis_CBS157.67_T,ERR2673962.23126,85.39,89,12,1,358,446,11,98,4e-18,91.6
Exophiala_salmonis_CBS157.67_T,ERR2673962.3901,85.39,89,12,1,358,446,11,98,4e-18,91.6
Exophiala_salmonis_CBS157.67_T,ERR2673962.3900,85.39,89,12,1,358,446,11,98,4e-18,91.6
Exophiala_salmonis_CBS157.67_T,ERR2673962.32790,94.64,56,3,0,678,733,306,251,5e-17,87.9
Exophiala_salmonis_CBS157.67_T,ERR2673962.21236,89.83,59,4,2,677,734,307,250,4e-13,75.0
Exophiala_salmonis_CBS157.67_T,ERR2673962.27164,90.74,54,4,1,680,733,303,251,5e-12,71.3
Exophiala_salmonis_CBS157.67_T,ERR2673962.28241,90.38,52,3,2,687,737,297,247,7e-11,67.6
Exophiala_aquamarina_CBS119918_T,ERR2673962.28348,90.48,126,11,1,236,361,11,135,2e-40,165
Exophiala_aquamarina_CBS119918_T,ERR2673962.39384,86.33,139,16,3,236,373,11,147,2e-35,148
Exophiala_aquamarina_CBS119918_T,ERR2673962.20563,85.71,147,14,6,236,380,11,152,2e-35,148
Exophiala_aquamarina_CBS119918_T,ERR2673962.1243,87.64,89,10,1,236,324,11,98,1e-21,102
Exophiala_aquamarina_CBS119918_T,ERR2673962.3212,86.52,89,11,1,236,324,11,98,6e-20,97.1
Exophiala_aquamarina_CBS119918_T,ERR2673962.38966,85.39,89,12,1,236,324,11,98,3e-18,91.6
Exophiala_aquamarina_CBS119918_T,ERR2673962.30568,85.39,89,12,1,236,324,11,98,3e-18,91.6
Exophiala_aquamarina_CBS119918_T,ERR2673962.23126,85.39,89,12,1,236,324,11,98,3e-18,91.6
Exophiala_aquamarina_CBS119918_T,ERR2673962.3901,85.39,89,12,1,236,324,11,98,3e-18,91.6
Exophiala_aquamarina_CBS119918_T,ERR2673962.3900,85.39,89,12,1,236,324,11,98,3e-18,91.6
Exophiala_aquamarina_CBS119918_T,ERR2673962.8985,83.00,100,16,1,236,335,11,109,1e-17,89.8
Exophiala_cancerae_CBS120420_T,ERR2673962.28348,88.65,141,14,2,251,391,11,149,4e-42,171
Exophiala_cancerae_CBS120420_T,ERR2673962.20563,85.52,145,15,5,251,393,11,151,7e-35,147
Exophiala_cancerae_CBS120420_T,ERR2673962.39384,91.51,106,8,1,251,356,11,115,2e-34,145
Exophiala_cancerae_CBS120420_T,ERR2673962.2463,97.06,68,2,0,557,624,318,251,2e-25,115
Exophiala_cancerae_CBS120420_T,ERR2673962.15794,95.59,68,3,0,557,624,318,251,9e-24,110
Exophiala_cancerae_CBS120420_T,ERR2673962.1243,87.64,89,10,1,251,339,11,98,1e-21,102
Exophiala_cancerae_CBS120420_T,ERR2673962.8985,78.62,159,28,6,251,408,11,164,5e-21,100
Exophiala_cancerae_CBS120420_T,ERR2673962.3212,86.52,89,11,1,251,339,11,98,7e-20,97.1
Exophiala_cancerae_CBS120420_T,ERR2673962.26002,96.43,56,2,0,569,624,306,251,9e-19,93.5
Exophiala_cancerae_CBS120420_T,ERR2673962.38966,85.39,89,12,1,251,339,11,98,3e-18,91.6
Exophiala_cancerae_CBS120420_T,ERR2673962.30568,85.39,89,12,1,251,339,11,98,3e-18,91.6
Exophiala_cancerae_CBS120420_T,ERR2673962.23126,85.39,89,12,1,251,339,11,98,3e-18,91.6
Exophiala_cancerae_CBS120420_T,ERR2673962.3901,85.39,89,12,1,251,339,11,98,3e-18,91.6
Exophiala_cancerae_CBS120420_T,ERR2673962.3900,85.39,89,12,1,251,339,11,98,3e-18,91.6
Exophiala_cancerae_CBS120420_T,ERR2673962.32790,94.64,56,3,0,569,624,306,251,4e-17,87.9
Exophiala_cancerae_CBS120420_T,ERR2673962.21236,89.66,58,4,2,568,624,307,251,1e-12,73.1
Exophiala_cancerae_CBS120420_T,ERR2673962.27164,90.74,54,4,1,571,624,303,251,4e-12,71.3
Exophiala_tremulae_CBS129355,ERR2673962.28348,88.65,141,14,2,263,403,11,149,4e-42,171
Exophiala_tremulae_CBS129355,ERR2673962.20563,85.62,146,15,5,263,406,11,152,2e-35,148
Exophiala_tremulae_CBS129355,ERR2673962.39384,91.51,106,8,1,263,368,11,115,2e-34,145
Exophiala_tremulae_CBS129355,ERR2673962.1243,87.64,89,10,1,263,351,11,98,1e-21,102
Exophiala_tremulae_CBS129355,ERR2673962.3212,86.52,89,11,1,263,351,11,98,7e-20,97.1
Exophiala_tremulae_CBS129355,ERR2673962.8985,77.99,159,29,6,263,420,11,164,2e-19,95.3
Exophiala_tremulae_CBS129355,ERR2673962.15794,100.00,50,0,0,579,628,311,262,9e-19,93.5
Exophiala_tremulae_CBS129355,ERR2673962.2463,100.00,50,0,0,579,628,311,262,9e-19,93.5
Exophiala_tremulae_CBS129355,ERR2673962.38966,85.39,89,12,1,263,351,11,98,3e-18,91.6
Exophiala_tremulae_CBS129355,ERR2673962.30568,85.39,89,12,1,263,351,11,98,3e-18,91.6
Exophiala_tremulae_CBS129355,ERR2673962.23126,85.39,89,12,1,263,351,11,98,3e-18,91.6
Exophiala_tremulae_CBS129355,ERR2673962.3901,85.39,89,12,1,263,351,11,98,3e-18,91.6
Exophiala_tremulae_CBS129355,ERR2673962.3900,85.39,89,12,1,263,351,11,98,3e-18,91.6
Exophiala_tremulae_CBS129355,ERR2673962.26002,97.78,45,1,0,584,628,306,262,2e-14,78.7
Exophiala_equina_CBS116009,ERR2673962.28348,88.65,141,14,2,229,369,11,149,3e-42,171
Exophiala_equina_CBS116009,ERR2673962.20563,85.62,146,15,5,229,372,11,152,2e-35,148
Exophiala_equina_CBS116009,ERR2673962.39384,91.51,106,8,1,229,334,11,115,2e-34,145
Exophiala_equina_CBS116009,ERR2673962.1243,87.64,89,10,1,229,317,11,98,1e-21,102
Exophiala_equina_CBS116009,ERR2673962.3212,86.52,89,11,1,229,317,11,98,6e-20,97.1
Exophiala_equina_CBS116009,ERR2673962.8985,77.99,159,29,6,229,386,11,164,2e-19,95.3
Exophiala_equina_CBS116009,ERR2673962.38966,85.39,89,12,1,229,317,11,98,3e-18,91.6
Exophiala_equina_CBS116009,ERR2673962.30568,85.39,89,12,1,229,317,11,98,3e-18,91.6
Exophiala_equina_CBS116009,ERR2673962.23126,85.39,89,12,1,229,317,11,98,3e-18,91.6
Exophiala_equina_CBS116009,ERR2673962.3901,85.39,89,12,1,229,317,11,98,3e-18,91.6
Exophiala_equina_CBS116009,ERR2673962.3900,85.39,89,12,1,229,317,11,98,3e-18,91.6
Exophiala_alcalophila_CBS520.82_T,ERR2673962.28348,90.48,126,11,1,240,365,11,135,2e-40,165
Exophiala_alcalophila_CBS520.82_T,ERR2673962.39384,91.51,106,8,1,240,345,11,115,2e-34,145
Exophiala_alcalophila_CBS520.82_T,ERR2673962.20563,85.03,147,16,5,240,384,11,153,2e-34,145
Exophiala_alcalophila_CBS520.82_T,ERR2673962.1243,87.64,89,10,1,240,328,11,98,1e-21,102
Exophiala_alcalophila_CBS520.82_T,ERR2673962.3212,86.52,89,11,1,240,328,11,98,6e-20,97.1
Exophiala_alcalophila_CBS520.82_T,ERR2673962.38966,85.39,89,12,1,240,328,11,98,3e-18,91.6
Exophiala_alcalophila_CBS520.82_T,ERR2673962.30568,85.39,89,12,1,240,328,11,98,3e-18,91.6
Exophiala_alcalophila_CBS520.82_T,ERR2673962.23126,85.39,89,12,1,240,328,11,98,3e-18,91.6
Exophiala_alcalophila_CBS520.82_T,ERR2673962.3901,85.39,89,12,1,240,328,11,98,3e-18,91.6
Exophiala_alcalophila_CBS520.82_T,ERR2673962.3900,85.39,89,12,1,240,328,11,98,3e-18,91.6
Exophiala_alcalophila_CBS520.82_T,ERR2673962.8985,83.00,100,16,1,240,339,11,109,1e-17,89.8
Exophiala_crusticola_CBS119970_T,ERR2673962.28348,88.65,141,14,2,245,385,11,149,3e-42,171
Exophiala_crusticola_CBS119970_T,ERR2673962.20563,85.71,147,15,5,245,389,11,153,4e-36,150
Exophiala_crusticola_CBS119970_T,ERR2673962.39384,91.51,106,8,1,245,350,11,115,2e-34,145
Exophiala_crusticola_CBS119970_T,ERR2673962.1243,87.64,89,10,1,245,333,11,98,1e-21,102
Exophiala_crusticola_CBS119970_T,ERR2673962.3212,86.52,89,11,1,245,333,11,98,6e-20,97.1
Exophiala_crusticola_CBS119970_T,ERR2673962.38966,85.39,89,12,1,245,333,11,98,3e-18,91.6
Exophiala_crusticola_CBS119970_T,ERR2673962.30568,85.39,89,12,1,245,333,11,98,3e-18,91.6
Exophiala_crusticola_CBS119970_T,ERR2673962.23126,85.39,89,12,1,245,333,11,98,3e-18,91.6
Exophiala_crusticola_CBS119970_T,ERR2673962.3901,85.39,89,12,1,245,333,11,98,3e-18,91.6
Exophiala_crusticola_CBS119970_T,ERR2673962.3900,85.39,89,12,1,245,333,11,98,3e-18,91.6
Exophiala_crusticola_CBS119970_T,ERR2673962.8985,83.00,100,16,1,245,344,11,109,1e-17,89.8
Rhinocladiella_atrovirens_CBS264.49,ERR2673962.28348,91.27,126,10,1,271,396,11,135,4e-42,171
Rhinocladiella_atrovirens_CBS264.49,ERR2673962.39384,90.57,106,9,1,271,376,11,115,1e-32,139
Rhinocladiella_atrovirens_CBS264.49,ERR2673962.20563,84.35,147,17,5,271,415,11,153,1e-32,139
Rhinocladiella_atrovirens_CBS264.49,ERR2673962.1243,87.64,89,10,1,271,359,11,98,1e-21,102
Rhinocladiella_atrovirens_CBS264.49,ERR2673962.15794,98.21,56,0,1,571,626,317,263,7e-20,97.1
Rhinocladiella_atrovirens_CBS264.49,ERR2673962.3212,86.52,89,11,1,271,359,11,98,7e-20,97.1
Rhinocladiella_atrovirens_CBS264.49,ERR2673962.2463,98.21,56,0,1,571,626,317,263,7e-20,97.1
Rhinocladiella_atrovirens_CBS264.49,ERR2673962.38966,85.39,89,12,1,271,359,11,98,3e-18,91.6
Rhinocladiella_atrovirens_CBS264.49,ERR2673962.30568,85.39,89,12,1,271,359,11,98,3e-18,91.6
Rhinocladiella_atrovirens_CBS264.49,ERR2673962.23126,85.39,89,12,1,271,359,11,98,3e-18,91.6
Rhinocladiella_atrovirens_CBS264.49,ERR2673962.3901,85.39,89,12,1,271,359,11,98,3e-18,91.6
Rhinocladiella_atrovirens_CBS264.49,ERR2673962.3900,85.39,89,12,1,271,359,11,98,3e-18,91.6
Rhinocladiella_atrovirens_CBS264.49,ERR2673962.8985,77.07,157,30,6,271,424,11,164,1e-16,86.1
Rhinocladiella_atrovirens_CBS264.49,ERR2673962.26002,92.59,54,3,1,573,626,315,263,9e-14,76.8
Rhinocladiella_basitona_CBS101460_T,ERR2673962.28348,89.68,126,12,1,230,355,11,135,7e-39,159
Rhinocladiella_basitona_CBS101460_T,ERR2673962.39384,90.57,106,9,1,230,335,11,115,9e-33,139
Rhinocladiella_basitona_CBS101460_T,ERR2673962.20563,84.35,147,17,5,230,374,11,153,9e-33,139
Rhinocladiella_basitona_CBS101460_T,ERR2673962.3212,86.52,89,11,1,230,318,11,98,6e-20,97.1
Rhinocladiella_basitona_CBS101460_T,ERR2673962.38966,85.39,89,12,1,230,318,11,98,3e-18,91.6
Rhinocladiella_basitona_CBS101460_T,ERR2673962.30568,85.39,89,12,1,230,318,11,98,3e-18,91.6
Rhinocladiella_basitona_CBS101460_T,ERR2673962.23126,85.39,89,12,1,230,318,11,98,3e-18,91.6
Rhinocladiella_basitona_CBS101460_T,ERR2673962.3901,85.39,89,12,1,230,318,11,98,3e-18,91.6
Rhinocladiella_basitona_CBS101460_T,ERR2673962.3900,85.39,89,12,1,230,318,11,98,3e-18,91.6
Rhinocladiella_basitona_CBS101460_T,ERR2673962.1243,85.39,89,12,1,230,318,11,98,3e-18,91.6
Rhinocladiella_basitona_CBS101460_T,ERR2673962.8985,77.50,160,28,7,230,387,11,164,1e-17,89.8
Rhinocladiella_phaeophora_CBS496.78_T,ERR2673962.28348,88.65,141,14,2,238,378,11,149,4e-42,171
Rhinocladiella_phaeophora_CBS496.78_T,ERR2673962.20563,85.71,147,15,5,238,382,11,153,5e-36,150
Rhinocladiella_phaeophora_CBS496.78_T,ERR2673962.39384,91.51,106,8,1,238,343,11,115,2e-34,145
Rhinocladiella_phaeophora_CBS496.78_T,ERR2673962.1243,86.52,89,11,1,238,326,11,98,6e-20,97.1
Rhinocladiella_phaeophora_CBS496.78_T,ERR2673962.8985,77.85,158,27,7,238,391,11,164,3e-18,91.6
Rhinocladiella_phaeophora_CBS496.78_T,ERR2673962.3212,85.39,89,12,1,238,326,11,98,3e-18,91.6
Rhinocladiella_phaeophora_CBS496.78_T,ERR2673962.38966,84.27,89,13,1,238,326,11,98,1e-16,86.1
Rhinocladiella_phaeophora_CBS496.78_T,ERR2673962.30568,84.27,89,13,1,238,326,11,98,1e-16,86.1
Rhinocladiella_phaeophora_CBS496.78_T,ERR2673962.23126,84.27,89,13,1,238,326,11,98,1e-16,86.1
Rhinocladiella_phaeophora_CBS496.78_T,ERR2673962.3901,84.27,89,13,1,238,326,11,98,1e-16,86.1
Rhinocladiella_phaeophora_CBS496.78_T,ERR2673962.3900,84.27,89,13,1,238,326,11,98,1e-16,86.1
Rhinocladiella_aquaspersa_CBS313.73_T,ERR2673962.28348,88.65,141,14,2,232,372,11,149,4e-42,171
Rhinocladiella_aquaspersa_CBS313.73_T,ERR2673962.20563,85.71,147,15,5,232,376,11,153,5e-36,150
Rhinocladiella_aquaspersa_CBS313.73_T,ERR2673962.39384,91.51,106,8,1,232,337,11,115,2e-34,145
Rhinocladiella_aquaspersa_CBS313.73_T,ERR2673962.2463,94.29,70,1,3,539,605,320,251,4e-22,104
Rhinocladiella_aquaspersa_CBS313.73_T,ERR2673962.15794,92.86,70,2,3,539,605,320,251,2e-20,99.0
Rhinocladiella_aquaspersa_CBS313.73_T,ERR2673962.1243,86.52,89,11,1,232,320,11,98,7e-20,97.1
Rhinocladiella_aquaspersa_CBS313.73_T,ERR2673962.8985,77.85,158,27,7,232,385,11,164,3e-18,91.6
Rhinocladiella_aquaspersa_CBS313.73_T,ERR2673962.3212,85.39,89,12,1,232,320,11,98,3e-18,91.6
Rhinocladiella_aquaspersa_CBS313.73_T,ERR2673962.38966,84.27,89,13,1,232,320,11,98,2e-16,86.1
Rhinocladiella_aquaspersa_CBS313.73_T,ERR2673962.30568,84.27,89,13,1,232,320,11,98,2e-16,86.1
Rhinocladiella_aquaspersa_CBS313.73_T,ERR2673962.23126,84.27,89,13,1,232,320,11,98,2e-16,86.1
Rhinocladiella_aquaspersa_CBS313.73_T,ERR2673962.3901,84.27,89,13,1,232,320,11,98,2e-16,86.1
Rhinocladiella_aquaspersa_CBS313.73_T,ERR2673962.3900,84.27,89,13,1,232,320,11,98,2e-16,86.1
Rhinocladiella_aquaspersa_CBS313.73_T,ERR2673962.32790,92.59,54,2,2,554,605,304,251,9e-14,76.8
Rhinocladiella_aquaspersa_CBS313.73_T,ERR2673962.26002,92.59,54,2,2,554,605,304,251,9e-14,76.8
Rhinocladiella_aquaspersa_CBS313.73_T,ERR2673962.27164,90.74,54,4,1,553,605,304,251,4e-12,71.3
Rhinocladiella_aquaspersa_CBS313.73_T,ERR2673962.21236,89.09,55,4,2,554,606,304,250,5e-11,67.6
Rhinocladiella_aquaspersa_CBS313.73_T,ERR2673962.28241,93.33,45,2,1,566,609,291,247,2e-10,65.8
Rhinocladiella_fasciculata_CBS132.86_T,ERR2673962.28348,91.27,126,10,1,248,373,11,135,4e-42,171
Rhinocladiella_fasciculata_CBS132.86_T,ERR2673962.20563,85.14,148,16,5,248,393,11,154,6e-35,147
Rhinocladiella_fasciculata_CBS132.86_T,ERR2673962.39384,91.51,106,8,1,248,353,11,115,2e-34,145
Rhinocladiella_fasciculata_CBS132.86_T,ERR2673962.1243,86.52,89,11,1,248,336,11,98,6e-20,97.1
Rhinocladiella_fasciculata_CBS132.86_T,ERR2673962.3212,85.39,89,12,1,248,336,11,98,3e-18,91.6
Rhinocladiella_fasciculata_CBS132.86_T,ERR2673962.8985,83.17,101,14,2,248,347,11,109,1e-17,89.8
Rhinocladiella_fasciculata_CBS132.86_T,ERR2673962.38966,84.27,89,13,1,248,336,11,98,1e-16,86.1
Rhinocladiella_fasciculata_CBS132.86_T,ERR2673962.30568,84.27,89,13,1,248,336,11,98,1e-16,86.1
Rhinocladiella_fasciculata_CBS132.86_T,ERR2673962.23126,84.27,89,13,1,248,336,11,98,1e-16,86.1
Rhinocladiella_fasciculata_CBS132.86_T,ERR2673962.3901,84.27,89,13,1,248,336,11,98,1e-16,86.1
Rhinocladiella_fasciculata_CBS132.86_T,ERR2673962.3900,84.27,89,13,1,248,336,11,98,1e-16,86.1
Rhinocladiella_anceps_CBS181.65_T,ERR2673962.28348,90.07,141,12,2,230,370,11,149,2e-45,182
Rhinocladiella_anceps_CBS181.65_T,ERR2673962.20563,85.14,148,16,5,230,375,11,154,6e-35,147
Rhinocladiella_anceps_CBS181.65_T,ERR2673962.39384,90.57,106,9,1,230,335,11,115,1e-32,139
Rhinocladiella_anceps_CBS181.65_T,ERR2673962.1243,86.52,89,11,1,230,318,11,98,6e-20,97.1
Rhinocladiella_anceps_CBS181.65_T,ERR2673962.3212,85.39,89,12,1,230,318,11,98,3e-18,91.6
Rhinocladiella_anceps_CBS181.65_T,ERR2673962.38966,84.27,89,13,1,230,318,11,98,1e-16,86.1
Rhinocladiella_anceps_CBS181.65_T,ERR2673962.30568,84.27,89,13,1,230,318,11,98,1e-16,86.1
Rhinocladiella_anceps_CBS181.65_T,ERR2673962.23126,84.27,89,13,1,230,318,11,98,1e-16,86.1
Rhinocladiella_anceps_CBS181.65_T,ERR2673962.3901,84.27,89,13,1,230,318,11,98,1e-16,86.1
Rhinocladiella_anceps_CBS181.65_T,ERR2673962.3900,84.27,89,13,1,230,318,11,98,1e-16,86.1
Rhinocladiella_anceps_CBS181.65_T,ERR2673962.8985,82.18,101,15,2,230,329,11,109,5e-16,84.2
Rhinocladiella_mackenziei_CBS367.92,ERR2673962.28348,90.48,126,11,1,219,344,11,135,2e-40,165
Rhinocladiella_mackenziei_CBS367.92,ERR2673962.39384,91.51,106,8,1,219,324,11,115,2e-34,145
Rhinocladiella_mackenziei_CBS367.92,ERR2673962.20563,84.67,150,16,6,219,366,11,155,8e-34,143
Rhinocladiella_mackenziei_CBS367.92,ERR2673962.1243,87.64,89,10,1,219,307,11,98,1e-21,102
Rhinocladiella_mackenziei_CBS367.92,ERR2673962.3212,86.52,89,11,1,219,307,11,98,6e-20,97.1
Rhinocladiella_mackenziei_CBS367.92,ERR2673962.38966,85.39,89,12,1,219,307,11,98,3e-18,91.6
Rhinocladiella_mackenziei_CBS367.92,ERR2673962.30568,85.39,89,12,1,219,307,11,98,3e-18,91.6
Rhinocladiella_mackenziei_CBS367.92,ERR2673962.23126,85.39,89,12,1,219,307,11,98,3e-18,91.6
Rhinocladiella_mackenziei_CBS367.92,ERR2673962.3901,85.39,89,12,1,219,307,11,98,3e-18,91.6
Rhinocladiella_mackenziei_CBS367.92,ERR2673962.3900,85.39,89,12,1,219,307,11,98,3e-18,91.6
Rhinocladiella_mackenziei_CBS367.92,ERR2673962.8985,83.00,100,16,1,219,318,11,109,1e-17,89.8
Rhinocladiella_mackenziei_CBS367.92,ERR2673962.15794,94.34,53,2,1,556,608,319,268,7e-15,80.5
Rhinocladiella_mackenziei_CBS367.92,ERR2673962.2463,94.34,53,2,1,556,608,319,268,7e-15,80.5
Veronaea_compacta_CBS268.75_T,ERR2673962.28348,89.21,139,13,2,252,390,11,147,1e-42,172
Veronaea_compacta_CBS268.75_T,ERR2673962.39384,90.57,106,9,1,252,357,11,115,1e-32,139
Veronaea_compacta_CBS268.75_T,ERR2673962.20563,84.46,148,16,6,252,397,11,153,1e-32,139
Veronaea_compacta_CBS268.75_T,ERR2673962.1243,87.64,89,10,1,252,340,11,98,1e-21,102
Veronaea_compacta_CBS268.75_T,ERR2673962.3212,86.52,89,11,1,252,340,11,98,6e-20,97.1
Veronaea_compacta_CBS268.75_T,ERR2673962.38966,85.39,89,12,1,252,340,11,98,3e-18,91.6
Veronaea_compacta_CBS268.75_T,ERR2673962.30568,85.39,89,12,1,252,340,11,98,3e-18,91.6
Veronaea_compacta_CBS268.75_T,ERR2673962.23126,85.39,89,12,1,252,340,11,98,3e-18,91.6
Veronaea_compacta_CBS268.75_T,ERR2673962.3901,85.39,89,12,1,252,340,11,98,3e-18,91.6
Veronaea_compacta_CBS268.75_T,ERR2673962.3900,85.39,89,12,1,252,340,11,98,3e-18,91.6
Veronaea_compacta_CBS268.75_T,ERR2673962.8985,82.00,100,17,1,252,351,11,109,5e-16,84.2
Capronia_pilosella_AFTOL-ID657,ERR2673962.28348,88.65,141,14,2,330,470,11,149,4e-42,171
Capronia_pilosella_AFTOL-ID657,ERR2673962.20563,85.62,146,15,5,330,473,11,152,2e-35,148
Capronia_pilosella_AFTOL-ID657,ERR2673962.39384,91.51,106,8,1,330,435,11,115,3e-34,145
Capronia_pilosella_AFTOL-ID657,ERR2673962.1243,87.64,89,10,1,330,418,11,98,2e-21,102
Capronia_pilosella_AFTOL-ID657,ERR2673962.3212,86.52,89,11,1,330,418,11,98,7e-20,97.1
Capronia_pilosella_AFTOL-ID657,ERR2673962.38966,85.39,89,12,1,330,418,11,98,3e-18,91.6
Capronia_pilosella_AFTOL-ID657,ERR2673962.30568,85.39,89,12,1,330,418,11,98,3e-18,91.6
Capronia_pilosella_AFTOL-ID657,ERR2673962.23126,85.39,89,12,1,330,418,11,98,3e-18,91.6
Capronia_pilosella_AFTOL-ID657,ERR2673962.3901,85.39,89,12,1,330,418,11,98,3e-18,91.6
Capronia_pilosella_AFTOL-ID657,ERR2673962.3900,85.39,89,12,1,330,418,11,98,3e-18,91.6
Capronia_pilosella_AFTOL-ID657,ERR2673962.8985,83.00,100,16,1,330,429,11,109,1e-17,89.8
Capronia_dactylotricha_DAOM208471_T,ERR2673962.28348,88.73,142,13,3,232,373,11,149,4e-42,171
Capronia_dactylotricha_DAOM208471_T,ERR2673962.39384,86.76,136,16,2,232,367,11,144,5e-36,150
Capronia_dactylotricha_DAOM208471_T,ERR2673962.20563,85.14,148,15,6,232,377,11,153,2e-34,145
Capronia_dactylotricha_DAOM208471_T,ERR2673962.2463,100.00,63,0,0,556,618,313,251,5e-26,117
Capronia_dactylotricha_DAOM208471_T,ERR2673962.15794,98.41,63,1,0,556,618,313,251,3e-24,111
Capronia_dactylotricha_DAOM208471_T,ERR2673962.1243,87.64,89,10,1,232,320,11,98,2e-21,102
Capronia_dactylotricha_DAOM208471_T,ERR2673962.3212,86.52,89,11,1,232,320,11,98,7e-20,97.1
Capronia_dactylotricha_DAOM208471_T,ERR2673962.26002,93.65,63,4,0,556,618,313,251,3e-19,95.3
Capronia_dactylotricha_DAOM208471_T,ERR2673962.38966,85.39,89,12,1,232,320,11,98,3e-18,91.6
Capronia_dactylotricha_DAOM208471_T,ERR2673962.30568,85.39,89,12,1,232,320,11,98,3e-18,91.6
Capronia_dactylotricha_DAOM208471_T,ERR2673962.23126,85.39,89,12,1,232,320,11,98,3e-18,91.6
Capronia_dactylotricha_DAOM208471_T,ERR2673962.3901,85.39,89,12,1,232,320,11,98,3e-18,91.6
Capronia_dactylotricha_DAOM208471_T,ERR2673962.3900,85.39,89,12,1,232,320,11,98,3e-18,91.6
Capronia_dactylotricha_DAOM208471_T,ERR2673962.8985,83.00,100,16,1,232,331,11,109,1e-17,89.8
Capronia_dactylotricha_DAOM208471_T,ERR2673962.32790,94.64,56,3,0,563,618,306,251,4e-17,87.9
Capronia_dactylotricha_DAOM208471_T,ERR2673962.21236,89.83,59,4,2,562,619,307,250,3e-13,75.0
Capronia_dactylotricha_DAOM208471_T,ERR2673962.27164,90.74,54,4,1,565,618,303,251,4e-12,71.3
Capronia_dactylotricha_DAOM208471_T,ERR2673962.28241,90.38,52,3,2,572,622,297,247,6e-11,67.6
Capronia_kleinmondensis_CBS122671_T,ERR2673962.28348,91.27,126,10,1,257,382,11,135,4e-42,171
Capronia_kleinmondensis_CBS122671_T,ERR2673962.39384,90.57,106,9,1,257,362,11,115,1e-32,139
Capronia_kleinmondensis_CBS122671_T,ERR2673962.20563,84.35,147,17,5,257,401,11,153,1e-32,139
Capronia_kleinmondensis_CBS122671_T,ERR2673962.2463,100.00,68,0,0,557,624,318,251,9e-29,126
Capronia_kleinmondensis_CBS122671_T,ERR2673962.15794,98.53,68,1,0,557,624,318,251,4e-27,121
Capronia_kleinmondensis_CBS122671_T,ERR2673962.1243,87.64,89,10,1,257,345,11,98,2e-21,102
Capronia_kleinmondensis_CBS122671_T,ERR2673962.26002,93.85,65,4,0,560,624,315,251,2e-20,99.0
Capronia_kleinmondensis_CBS122671_T,ERR2673962.3212,86.52,89,11,1,257,345,11,98,7e-20,97.1
Capronia_kleinmondensis_CBS122671_T,ERR2673962.38966,85.39,89,12,1,257,345,11,98,3e-18,91.6
Capronia_kleinmondensis_CBS122671_T,ERR2673962.30568,85.39,89,12,1,257,345,11,98,3e-18,91.6
Capronia_kleinmondensis_CBS122671_T,ERR2673962.23126,85.39,89,12,1,257,345,11,98,3e-18,91.6
Capronia_kleinmondensis_CBS122671_T,ERR2673962.3901,85.39,89,12,1,257,345,11,98,3e-18,91.6
Capronia_kleinmondensis_CBS122671_T,ERR2673962.3900,85.39,89,12,1,257,345,11,98,3e-18,91.6
Capronia_kleinmondensis_CBS122671_T,ERR2673962.32790,89.86,69,7,0,556,624,319,251,1e-17,89.8
Capronia_kleinmondensis_CBS122671_T,ERR2673962.8985,77.07,157,30,6,257,410,11,164,2e-16,86.1
Capronia_kleinmondensis_CBS122671_T,ERR2673962.21236,89.83,59,4,2,568,625,307,250,3e-13,75.0
Capronia_kleinmondensis_CBS122671_T,ERR2673962.27164,90.74,54,4,1,571,624,303,251,4e-12,71.3
Capronia_kleinmondensis_CBS122671_T,ERR2673962.28241,90.38,52,3,2,578,628,297,247,6e-11,67.6
Capronia_mansonii_CBS101.67_T,ERR2673962.28348,88.65,141,14,2,243,383,11,149,4e-42,171
Capronia_mansonii_CBS101.67_T,ERR2673962.20563,85.52,145,15,5,243,385,11,151,7e-35,147
Capronia_mansonii_CBS101.67_T,ERR2673962.39384,91.51,106,8,1,243,348,11,115,3e-34,145
Capronia_mansonii_CBS101.67_T,ERR2673962.2463,94.37,71,3,1,558,628,320,251,3e-23,108
Capronia_mansonii_CBS101.67_T,ERR2673962.15794,92.96,71,4,1,558,628,320,251,2e-21,102
Capronia_mansonii_CBS101.67_T,ERR2673962.1243,87.64,89,10,1,243,331,11,98,2e-21,102
Capronia_mansonii_CBS101.67_T,ERR2673962.3212,86.52,89,11,1,243,331,11,98,7e-20,97.1
Capronia_mansonii_CBS101.67_T,ERR2673962.8985,78.12,160,28,7,243,401,11,164,3e-19,95.3
Capronia_mansonii_CBS101.67_T,ERR2673962.38966,85.39,89,12,1,243,331,11,98,3e-18,91.6
Capronia_mansonii_CBS101.67_T,ERR2673962.30568,85.39,89,12,1,243,331,11,98,3e-18,91.6
Capronia_mansonii_CBS101.67_T,ERR2673962.23126,85.39,89,12,1,243,331,11,98,3e-18,91.6
Capronia_mansonii_CBS101.67_T,ERR2673962.3901,85.39,89,12,1,243,331,11,98,3e-18,91.6
Capronia_mansonii_CBS101.67_T,ERR2673962.3900,85.39,89,12,1,243,331,11,98,3e-18,91.6
Capronia_mansonii_CBS101.67_T,ERR2673962.26002,94.64,56,3,0,573,628,306,251,4e-17,87.9
Capronia_mansonii_CBS101.67_T,ERR2673962.32790,92.86,56,4,0,573,628,306,251,2e-15,82.4
Capronia_mansonii_CBS101.67_T,ERR2673962.27164,92.59,54,3,1,575,628,303,251,9e-14,76.8
Capronia_mansonii_CBS101.67_T,ERR2673962.21236,89.66,58,6,0,572,629,307,250,3e-13,75.0
Capronia_mansonii_CBS101.67_T,ERR2673962.28241,90.20,51,5,0,582,632,297,247,6e-11,67.6
Capronia_munkii_DAOM216390_T,ERR2673962.28348,88.65,141,14,2,243,383,11,149,4e-42,171
Capronia_munkii_DAOM216390_T,ERR2673962.20563,85.52,145,15,5,243,385,11,151,7e-35,147
Capronia_munkii_DAOM216390_T,ERR2673962.39384,91.51,106,8,1,243,348,11,115,3e-34,145
Capronia_munkii_DAOM216390_T,ERR2673962.2463,94.37,71,3,1,558,628,320,251,3e-23,108
Capronia_munkii_DAOM216390_T,ERR2673962.15794,92.96,71,4,1,558,628,320,251,2e-21,102
Capronia_munkii_DAOM216390_T,ERR2673962.1243,87.64,89,10,1,243,331,11,98,2e-21,102
Capronia_munkii_DAOM216390_T,ERR2673962.3212,86.52,89,11,1,243,331,11,98,7e-20,97.1
Capronia_munkii_DAOM216390_T,ERR2673962.8985,78.12,160,28,7,243,401,11,164,3e-19,95.3
Capronia_munkii_DAOM216390_T,ERR2673962.38966,85.39,89,12,1,243,331,11,98,3e-18,91.6
Capronia_munkii_DAOM216390_T,ERR2673962.30568,85.39,89,12,1,243,331,11,98,3e-18,91.6
Capronia_munkii_DAOM216390_T,ERR2673962.23126,85.39,89,12,1,243,331,11,98,3e-18,91.6
Capronia_munkii_DAOM216390_T,ERR2673962.3901,85.39,89,12,1,243,331,11,98,3e-18,91.6
Capronia_munkii_DAOM216390_T,ERR2673962.3900,85.39,89,12,1,243,331,11,98,3e-18,91.6
Capronia_munkii_DAOM216390_T,ERR2673962.26002,94.64,56,3,0,573,628,306,251,4e-17,87.9
Capronia_munkii_DAOM216390_T,ERR2673962.32790,92.86,56,4,0,573,628,306,251,2e-15,82.4
Capronia_munkii_DAOM216390_T,ERR2673962.27164,92.59,54,3,1,575,628,303,251,9e-14,76.8
Capronia_munkii_DAOM216390_T,ERR2673962.21236,86.76,68,8,1,562,629,316,250,3e-13,75.0
Capronia_munkii_DAOM216390_T,ERR2673962.28241,90.20,51,5,0,582,632,297,247,6e-11,67.6
Capronia_coronata_ATCC56201_T,ERR2673962.28348,90.48,126,11,1,231,356,11,135,2e-40,165
Capronia_coronata_ATCC56201_T,ERR2673962.39384,91.51,106,8,1,231,336,11,115,2e-34,145
Capronia_coronata_ATCC56201_T,ERR2673962.20563,85.03,147,16,5,231,375,11,153,2e-34,145
Capronia_coronata_ATCC56201_T,ERR2673962.2463,95.89,73,2,1,528,599,323,251,5e-26,117
Capronia_coronata_ATCC56201_T,ERR2673962.15794,94.52,73,3,1,528,599,323,251,2e-24,111
Capronia_coronata_ATCC56201_T,ERR2673962.1243,87.64,89,10,1,231,319,11,98,1e-21,102
Capronia_coronata_ATCC56201_T,ERR2673962.3212,86.52,89,11,1,231,319,11,98,7e-20,97.1
Capronia_coronata_ATCC56201_T,ERR2673962.38966,85.39,89,12,1,231,319,11,98,3e-18,91.6
Capronia_coronata_ATCC56201_T,ERR2673962.30568,85.39,89,12,1,231,319,11,98,3e-18,91.6
Capronia_coronata_ATCC56201_T,ERR2673962.23126,85.39,89,12,1,231,319,11,98,3e-18,91.6
Capronia_coronata_ATCC56201_T,ERR2673962.3901,85.39,89,12,1,231,319,11,98,3e-18,91.6
Capronia_coronata_ATCC56201_T,ERR2673962.3900,85.39,89,12,1,231,319,11,98,3e-18,91.6
Capronia_coronata_ATCC56201_T,ERR2673962.26002,89.04,73,7,1,528,599,323,251,1e-17,89.8
Capronia_coronata_ATCC56201_T,ERR2673962.8985,83.00,100,16,1,231,330,11,109,1e-17,89.8
Capronia_coronata_ATCC56201_T,ERR2673962.32790,92.86,56,4,0,544,599,306,251,2e-15,82.4
Capronia_coronata_ATCC56201_T,ERR2673962.27164,92.59,54,3,1,546,599,303,251,9e-14,76.8
Capronia_coronata_ATCC56201_T,ERR2673962.21236,89.66,58,6,0,543,600,307,250,3e-13,75.0
Capronia_coronata_ATCC56201_T,ERR2673962.28241,90.20,51,5,0,553,603,297,247,5e-11,67.6
Capronia_parasitica_CBS123.88,ERR2673962.28348,90.48,126,11,1,237,362,11,135,2e-40,165
Capronia_parasitica_CBS123.88,ERR2673962.39384,91.51,106,8,1,237,342,11,115,2e-34,145
Capronia_parasitica_CBS123.88,ERR2673962.20563,91.92,99,7,1,237,335,11,108,4e-32,137
Capronia_parasitica_CBS123.88,ERR2673962.1243,87.64,89,10,1,237,325,11,98,1e-21,102
Capronia_parasitica_CBS123.88,ERR2673962.3212,86.52,89,11,1,237,325,11,98,6e-20,97.1
Capronia_parasitica_CBS123.88,ERR2673962.38966,85.39,89,12,1,237,325,11,98,3e-18,91.6
Capronia_parasitica_CBS123.88,ERR2673962.30568,85.39,89,12,1,237,325,11,98,3e-18,91.6
Capronia_parasitica_CBS123.88,ERR2673962.23126,85.39,89,12,1,237,325,11,98,3e-18,91.6
Capronia_parasitica_CBS123.88,ERR2673962.3901,85.39,89,12,1,237,325,11,98,3e-18,91.6
Capronia_parasitica_CBS123.88,ERR2673962.3900,85.39,89,12,1,237,325,11,98,3e-18,91.6
Capronia_parasitica_CBS123.88,ERR2673962.8985,83.00,100,16,1,237,336,11,109,1e-17,89.8
Capronia_parasitica_CBS123.88,ERR2673962.15794,95.35,43,2,0,553,595,318,276,1e-11,69.4
Capronia_parasitica_CBS123.88,ERR2673962.2463,95.35,43,2,0,553,595,318,276,1e-11,69.4
Veronaea_japonica_CBS776.83_T,ERR2673962.28348,88.65,141,14,2,265,405,11,149,4e-42,171
Veronaea_japonica_CBS776.83_T,ERR2673962.20563,85.71,147,15,5,265,409,11,153,5e-36,150
Veronaea_japonica_CBS776.83_T,ERR2673962.39384,91.51,106,8,1,265,370,11,115,2e-34,145
Veronaea_japonica_CBS776.83_T,ERR2673962.1243,87.64,89,10,1,265,353,11,98,1e-21,102
Veronaea_japonica_CBS776.83_T,ERR2673962.3212,86.52,89,11,1,265,353,11,98,6e-20,97.1
Veronaea_japonica_CBS776.83_T,ERR2673962.8985,77.99,159,29,6,265,422,11,164,2e-19,95.3
Veronaea_japonica_CBS776.83_T,ERR2673962.38966,85.39,89,12,1,265,353,11,98,3e-18,91.6
Veronaea_japonica_CBS776.83_T,ERR2673962.30568,85.39,89,12,1,265,353,11,98,3e-18,91.6
Veronaea_japonica_CBS776.83_T,ERR2673962.23126,85.39,89,12,1,265,353,11,98,3e-18,91.6
Veronaea_japonica_CBS776.83_T,ERR2673962.3901,85.39,89,12,1,265,353,11,98,3e-18,91.6
Veronaea_japonica_CBS776.83_T,ERR2673962.3900,85.39,89,12,1,265,353,11,98,3e-18,91.6
Thysanorea_papuana_CBS212.96_T,ERR2673962.28348,88.65,141,14,2,239,379,11,149,4e-42,171
Thysanorea_papuana_CBS212.96_T,ERR2673962.20563,85.52,145,15,5,239,381,11,151,6e-35,147
Thysanorea_papuana_CBS212.96_T,ERR2673962.39384,91.51,106,8,1,239,344,11,115,2e-34,145
Thysanorea_papuana_CBS212.96_T,ERR2673962.1243,87.64,89,10,1,239,327,11,98,1e-21,102
Thysanorea_papuana_CBS212.96_T,ERR2673962.3212,86.52,89,11,1,239,327,11,98,6e-20,97.1
Thysanorea_papuana_CBS212.96_T,ERR2673962.8985,77.99,159,29,6,239,396,11,164,2e-19,95.3
Thysanorea_papuana_CBS212.96_T,ERR2673962.38966,85.39,89,12,1,239,327,11,98,3e-18,91.6
Thysanorea_papuana_CBS212.96_T,ERR2673962.30568,85.39,89,12,1,239,327,11,98,3e-18,91.6
Thysanorea_papuana_CBS212.96_T,ERR2673962.23126,85.39,89,12,1,239,327,11,98,3e-18,91.6
Thysanorea_papuana_CBS212.96_T,ERR2673962.3901,85.39,89,12,1,239,327,11,98,3e-18,91.6
Thysanorea_papuana_CBS212.96_T,ERR2673962.3900,85.39,89,12,1,239,327,11,98,3e-18,91.6
Capronia_acutiseta_ATCC56428_T,ERR2673962.2463,97.10,69,2,0,530,598,319,251,5e-26,117
Capronia_acutiseta_ATCC56428_T,ERR2673962.15794,95.65,69,3,0,530,598,319,251,2e-24,111
Capronia_acutiseta_ATCC56428_T,ERR2673962.26002,96.43,56,2,0,543,598,306,251,9e-19,93.5
Capronia_acutiseta_ATCC56428_T,ERR2673962.32790,94.64,56,3,0,543,598,306,251,4e-17,87.9
Capronia_acutiseta_ATCC56428_T,ERR2673962.21236,89.83,59,4,2,542,599,307,250,3e-13,75.0
Capronia_acutiseta_ATCC56428_T,ERR2673962.27164,90.74,54,4,1,545,598,303,251,4e-12,71.3
Capronia_acutiseta_ATCC56428_T,ERR2673962.28241,90.38,52,3,2,552,602,297,247,5e-11,67.6
Fonsecaea_brasiliensis_CBS119710_T,ERR2673962.28348,90.48,126,11,1,239,364,11,135,2e-40,165
Fonsecaea_brasiliensis_CBS119710_T,ERR2673962.39384,86.33,139,16,3,239,376,11,147,2e-35,148
Fonsecaea_brasiliensis_CBS119710_T,ERR2673962.20563,85.71,147,14,6,239,383,11,152,2e-35,148
Fonsecaea_brasiliensis_CBS119710_T,ERR2673962.1243,87.64,89,10,1,239,327,11,98,1e-21,102
Fonsecaea_brasiliensis_CBS119710_T,ERR2673962.3212,86.52,89,11,1,239,327,11,98,6e-20,97.1
Fonsecaea_brasiliensis_CBS119710_T,ERR2673962.38966,85.39,89,12,1,239,327,11,98,3e-18,91.6
Fonsecaea_brasiliensis_CBS119710_T,ERR2673962.30568,85.39,89,12,1,239,327,11,98,3e-18,91.6
Fonsecaea_brasiliensis_CBS119710_T,ERR2673962.23126,85.39,89,12,1,239,327,11,98,3e-18,91.6
Fonsecaea_brasiliensis_CBS119710_T,ERR2673962.3901,85.39,89,12,1,239,327,11,98,3e-18,91.6
Fonsecaea_brasiliensis_CBS119710_T,ERR2673962.3900,85.39,89,12,1,239,327,11,98,3e-18,91.6
Fonsecaea_brasiliensis_CBS119710_T,ERR2673962.8985,83.00,100,16,1,239,338,11,109,1e-17,89.8
Fonsecaea_pedrosoi_CBS271.37_T,ERR2673962.28348,90.48,126,11,1,267,392,11,135,2e-40,165
Fonsecaea_pedrosoi_CBS271.37_T,ERR2673962.39384,86.33,139,16,3,267,404,11,147,2e-35,148
Fonsecaea_pedrosoi_CBS271.37_T,ERR2673962.20563,85.71,147,14,6,267,411,11,152,2e-35,148
Fonsecaea_pedrosoi_CBS271.37_T,ERR2673962.2463,94.20,69,4,0,577,645,319,251,1e-22,106
Fonsecaea_pedrosoi_CBS271.37_T,ERR2673962.1243,87.64,89,10,1,267,355,11,98,1e-21,102
Fonsecaea_pedrosoi_CBS271.37_T,ERR2673962.3212,86.52,89,11,1,267,355,11,98,7e-20,97.1
Fonsecaea_pedrosoi_CBS271.37_T,ERR2673962.38966,85.39,89,12,1,267,355,11,98,3e-18,91.6
Fonsecaea_pedrosoi_CBS271.37_T,ERR2673962.30568,85.39,89,12,1,267,355,11,98,3e-18,91.6
Fonsecaea_pedrosoi_CBS271.37_T,ERR2673962.23126,85.39,89,12,1,267,355,11,98,3e-18,91.6
Fonsecaea_pedrosoi_CBS271.37_T,ERR2673962.3901,85.39,89,12,1,267,355,11,98,3e-18,91.6
Fonsecaea_pedrosoi_CBS271.37_T,ERR2673962.3900,85.39,89,12,1,267,355,11,98,3e-18,91.6
Fonsecaea_pedrosoi_CBS271.37_T,ERR2673962.8985,83.00,100,16,1,267,366,11,109,1e-17,89.8
Fonsecaea_pedrosoi_CBS271.37_T,ERR2673962.32790,91.07,56,5,0,590,645,306,251,9e-14,76.8
Fonsecaea_pedrosoi_CBS271.37_T,ERR2673962.27164,90.74,54,4,1,592,645,303,251,4e-12,71.3
Fonsecaea_multimorphosa_CBS980.96_T,ERR2673962.28348,90.48,126,11,1,237,362,11,135,2e-40,165
Fonsecaea_multimorphosa_CBS980.96_T,ERR2673962.39384,86.33,139,16,3,237,374,11,147,2e-35,148
Fonsecaea_multimorphosa_CBS980.96_T,ERR2673962.20563,85.52,145,14,6,237,379,11,150,2e-34,145
Fonsecaea_multimorphosa_CBS980.96_T,ERR2673962.1243,87.64,89,10,1,237,325,11,98,1e-21,102
Fonsecaea_multimorphosa_CBS980.96_T,ERR2673962.3212,86.52,89,11,1,237,325,11,98,6e-20,97.1
Fonsecaea_multimorphosa_CBS980.96_T,ERR2673962.8985,78.12,160,28,5,237,395,11,164,2e-19,95.3
Fonsecaea_multimorphosa_CBS980.96_T,ERR2673962.38966,85.39,89,12,1,237,325,11,98,3e-18,91.6
Fonsecaea_multimorphosa_CBS980.96_T,ERR2673962.30568,85.39,89,12,1,237,325,11,98,3e-18,91.6
Fonsecaea_multimorphosa_CBS980.96_T,ERR2673962.23126,85.39,89,12,1,237,325,11,98,3e-18,91.6
Fonsecaea_multimorphosa_CBS980.96_T,ERR2673962.3901,85.39,89,12,1,237,325,11,98,3e-18,91.6
Fonsecaea_multimorphosa_CBS980.96_T,ERR2673962.3900,85.39,89,12,1,237,325,11,98,3e-18,91.6
Fonsecaea_minima_CBS125760_T,ERR2673962.28348,90.48,126,11,1,233,358,11,135,2e-40,165
Fonsecaea_minima_CBS125760_T,ERR2673962.39384,86.33,139,16,3,233,370,11,147,2e-35,148
Fonsecaea_minima_CBS125760_T,ERR2673962.20563,85.71,147,14,6,233,377,11,152,2e-35,148
Fonsecaea_minima_CBS125760_T,ERR2673962.1243,87.64,89,10,1,233,321,11,98,1e-21,102
Fonsecaea_minima_CBS125760_T,ERR2673962.3212,86.52,89,11,1,233,321,11,98,6e-20,97.1
Fonsecaea_minima_CBS125760_T,ERR2673962.38966,85.39,89,12,1,233,321,11,98,3e-18,91.6
Fonsecaea_minima_CBS125760_T,ERR2673962.30568,85.39,89,12,1,233,321,11,98,3e-18,91.6
Fonsecaea_minima_CBS125760_T,ERR2673962.23126,85.39,89,12,1,233,321,11,98,3e-18,91.6
Fonsecaea_minima_CBS125760_T,ERR2673962.3901,85.39,89,12,1,233,321,11,98,3e-18,91.6
Fonsecaea_minima_CBS125760_T,ERR2673962.3900,85.39,89,12,1,233,321,11,98,3e-18,91.6
Fonsecaea_minima_CBS125760_T,ERR2673962.8985,83.00,100,16,1,233,332,11,109,1e-17,89.8
Fonsecaea_nubica_CBS269.64_T,ERR2673962.28348,90.48,126,11,1,244,369,11,135,2e-40,165
Fonsecaea_nubica_CBS269.64_T,ERR2673962.39384,86.33,139,16,3,244,381,11,147,2e-35,148
Fonsecaea_nubica_CBS269.64_T,ERR2673962.20563,85.71,147,14,6,244,388,11,152,2e-35,148
Fonsecaea_nubica_CBS269.64_T,ERR2673962.1243,87.64,89,10,1,244,332,11,98,1e-21,102
Fonsecaea_nubica_CBS269.64_T,ERR2673962.3212,86.52,89,11,1,244,332,11,98,6e-20,97.1
Fonsecaea_nubica_CBS269.64_T,ERR2673962.38966,85.39,89,12,1,244,332,11,98,3e-18,91.6
Fonsecaea_nubica_CBS269.64_T,ERR2673962.30568,85.39,89,12,1,244,332,11,98,3e-18,91.6
Fonsecaea_nubica_CBS269.64_T,ERR2673962.23126,85.39,89,12,1,244,332,11,98,3e-18,91.6
Fonsecaea_nubica_CBS269.64_T,ERR2673962.8985,77.64,161,28,6,244,403,11,164,3e-18,91.6
Fonsecaea_nubica_CBS269.64_T,ERR2673962.3901,85.39,89,12,1,244,332,11,98,3e-18,91.6
Fonsecaea_nubica_CBS269.64_T,ERR2673962.3900,85.39,89,12,1,244,332,11,98,3e-18,91.6
Fonsecaea_erecta_CBS125763_T,ERR2673962.28348,88.65,141,14,2,228,368,11,149,3e-42,171
Fonsecaea_erecta_CBS125763_T,ERR2673962.20563,85.52,145,15,5,228,370,11,151,6e-35,147
Fonsecaea_erecta_CBS125763_T,ERR2673962.39384,91.51,106,8,1,228,333,11,115,2e-34,145
Fonsecaea_erecta_CBS125763_T,ERR2673962.1243,87.64,89,10,1,228,316,11,98,1e-21,102
Fonsecaea_erecta_CBS125763_T,ERR2673962.3212,86.52,89,11,1,228,316,11,98,6e-20,97.1
Fonsecaea_erecta_CBS125763_T,ERR2673962.8985,78.12,160,28,6,228,386,11,164,2e-19,95.3
Fonsecaea_erecta_CBS125763_T,ERR2673962.38966,85.39,89,12,1,228,316,11,98,3e-18,91.6
Fonsecaea_erecta_CBS125763_T,ERR2673962.30568,85.39,89,12,1,228,316,11,98,3e-18,91.6
Fonsecaea_erecta_CBS125763_T,ERR2673962.23126,85.39,89,12,1,228,316,11,98,3e-18,91.6
Fonsecaea_erecta_CBS125763_T,ERR2673962.3901,85.39,89,12,1,228,316,11,98,3e-18,91.6
Fonsecaea_erecta_CBS125763_T,ERR2673962.3900,85.39,89,12,1,228,316,11,98,3e-18,91.6
Fonsecaea_pugnacius_CBS139214_T,ERR2673962.28348,90.48,126,11,1,237,362,11,135,2e-40,165
Fonsecaea_pugnacius_CBS139214_T,ERR2673962.20563,85.81,148,14,6,237,382,11,153,4e-36,150
Fonsecaea_pugnacius_CBS139214_T,ERR2673962.39384,86.33,139,16,3,237,374,11,147,2e-35,148
Fonsecaea_pugnacius_CBS139214_T,ERR2673962.1243,87.64,89,10,1,237,325,11,98,1e-21,102
Fonsecaea_pugnacius_CBS139214_T,ERR2673962.3212,86.52,89,11,1,237,325,11,98,6e-20,97.1
Fonsecaea_pugnacius_CBS139214_T,ERR2673962.38966,85.39,89,12,1,237,325,11,98,3e-18,91.6
Fonsecaea_pugnacius_CBS139214_T,ERR2673962.30568,85.39,89,12,1,237,325,11,98,3e-18,91.6
Fonsecaea_pugnacius_CBS139214_T,ERR2673962.23126,85.39,89,12,1,237,325,11,98,3e-18,91.6
Fonsecaea_pugnacius_CBS139214_T,ERR2673962.3901,85.39,89,12,1,237,325,11,98,3e-18,91.6
Fonsecaea_pugnacius_CBS139214_T,ERR2673962.3900,85.39,89,12,1,237,325,11,98,3e-18,91.6
Fonsecaea_pugnacius_CBS139214_T,ERR2673962.8985,83.00,100,16,1,237,336,11,109,1e-17,89.8
Cladophialophora_psammophila_CBS,ERR2673962.28348,88.65,141,14,2,243,383,11,149,3e-42,171
Cladophialophora_psammophila_CBS,ERR2673962.20563,85.52,145,15,5,243,385,11,151,6e-35,147
Cladophialophora_psammophila_CBS,ERR2673962.39384,91.51,106,8,1,243,348,11,115,2e-34,145
Cladophialophora_psammophila_CBS,ERR2673962.1243,87.64,89,10,1,243,331,11,98,1e-21,102
Cladophialophora_psammophila_CBS,ERR2673962.3212,86.52,89,11,1,243,331,11,98,6e-20,97.1
Cladophialophora_psammophila_CBS,ERR2673962.8985,78.12,160,28,6,243,401,11,164,2e-19,95.3
Cladophialophora_psammophila_CBS,ERR2673962.38966,85.39,89,12,1,243,331,11,98,3e-18,91.6
Cladophialophora_psammophila_CBS,ERR2673962.30568,85.39,89,12,1,243,331,11,98,3e-18,91.6
Cladophialophora_psammophila_CBS,ERR2673962.23126,85.39,89,12,1,243,331,11,98,3e-18,91.6
Cladophialophora_psammophila_CBS,ERR2673962.3901,85.39,89,12,1,243,331,11,98,3e-18,91.6
Cladophialophora_psammophila_CBS,ERR2673962.3900,85.39,89,12,1,243,331,11,98,3e-18,91.6
Cladophialophora_devriesii_CBS,ERR2673962.28348,90.48,126,11,1,239,364,11,135,2e-40,165
Cladophialophora_devriesii_CBS,ERR2673962.39384,86.33,139,16,3,239,376,11,147,2e-35,148
Cladophialophora_devriesii_CBS,ERR2673962.20563,85.52,145,14,6,239,381,11,150,2e-34,145
Cladophialophora_devriesii_CBS,ERR2673962.1243,87.64,89,10,1,239,327,11,98,1e-21,102
Cladophialophora_devriesii_CBS,ERR2673962.3212,86.52,89,11,1,239,327,11,98,6e-20,97.1
Cladophialophora_devriesii_CBS,ERR2673962.8985,78.12,160,28,5,239,397,11,164,2e-19,95.3
Cladophialophora_devriesii_CBS,ERR2673962.38966,85.39,89,12,1,239,327,11,98,3e-18,91.6
Cladophialophora_devriesii_CBS,ERR2673962.30568,85.39,89,12,1,239,327,11,98,3e-18,91.6
Cladophialophora_devriesii_CBS,ERR2673962.23126,85.39,89,12,1,239,327,11,98,3e-18,91.6
Cladophialophora_devriesii_CBS,ERR2673962.3901,85.39,89,12,1,239,327,11,98,3e-18,91.6
Cladophialophora_devriesii_CBS,ERR2673962.3900,85.39,89,12,1,239,327,11,98,3e-18,91.6
Cladophialophora_immunda_CBS834.96,ERR2673962.28348,90.48,126,11,1,241,366,11,135,2e-40,165
Cladophialophora_immunda_CBS834.96,ERR2673962.39384,86.33,139,16,3,241,378,11,147,2e-35,148
Cladophialophora_immunda_CBS834.96,ERR2673962.20563,85.71,147,14,6,241,385,11,152,2e-35,148
Cladophialophora_immunda_CBS834.96,ERR2673962.1243,87.64,89,10,1,241,329,11,98,1e-21,102
Cladophialophora_immunda_CBS834.96,ERR2673962.3212,86.52,89,11,1,241,329,11,98,6e-20,97.1
Cladophialophora_immunda_CBS834.96,ERR2673962.38966,85.39,89,12,1,241,329,11,98,3e-18,91.6
Cladophialophora_immunda_CBS834.96,ERR2673962.30568,85.39,89,12,1,241,329,11,98,3e-18,91.6
Cladophialophora_immunda_CBS834.96,ERR2673962.23126,85.39,89,12,1,241,329,11,98,3e-18,91.6
Cladophialophora_immunda_CBS834.96,ERR2673962.3901,85.39,89,12,1,241,329,11,98,3e-18,91.6
Cladophialophora_immunda_CBS834.96,ERR2673962.3900,85.39,89,12,1,241,329,11,98,3e-18,91.6
Cladophialophora_immunda_CBS834.96,ERR2673962.8985,83.00,100,16,1,241,340,11,109,1e-17,89.8
Cladophialophora_arxii_CBS306.94_T,ERR2673962.28348,90.48,126,11,1,243,368,11,135,2e-40,165
Cladophialophora_arxii_CBS306.94_T,ERR2673962.20563,85.81,148,13,7,243,388,11,152,4e-36,150
Cladophialophora_arxii_CBS306.94_T,ERR2673962.39384,91.51,106,8,1,243,348,11,115,2e-34,145
Cladophialophora_arxii_CBS306.94_T,ERR2673962.1243,87.64,89,10,1,243,331,11,98,1e-21,102
Cladophialophora_arxii_CBS306.94_T,ERR2673962.3212,86.52,89,11,1,243,331,11,98,6e-20,97.1
Cladophialophora_arxii_CBS306.94_T,ERR2673962.38966,85.39,89,12,1,243,331,11,98,3e-18,91.6
Cladophialophora_arxii_CBS306.94_T,ERR2673962.30568,85.39,89,12,1,243,331,11,98,3e-18,91.6
Cladophialophora_arxii_CBS306.94_T,ERR2673962.23126,85.39,89,12,1,243,331,11,98,3e-18,91.6
Cladophialophora_arxii_CBS306.94_T,ERR2673962.3901,85.39,89,12,1,243,331,11,98,3e-18,91.6
Cladophialophora_arxii_CBS306.94_T,ERR2673962.3900,85.39,89,12,1,243,331,11,98,3e-18,91.6
Cladophialophora_arxii_CBS306.94_T,ERR2673962.8985,83.00,100,16,1,243,342,11,109,1e-17,89.8
Cladophialophora_bantiana_CBS173.52,ERR2673962.28348,88.65,141,14,2,237,377,11,149,3e-42,171
Cladophialophora_bantiana_CBS173.52,ERR2673962.20563,85.52,145,15,5,237,379,11,151,6e-35,147
Cladophialophora_bantiana_CBS173.52,ERR2673962.39384,91.51,106,8,1,237,342,11,115,2e-34,145
Cladophialophora_bantiana_CBS173.52,ERR2673962.1243,87.64,89,10,1,237,325,11,98,1e-21,102
Cladophialophora_bantiana_CBS173.52,ERR2673962.3212,86.52,89,11,1,237,325,11,98,6e-20,97.1
Cladophialophora_bantiana_CBS173.52,ERR2673962.8985,78.12,160,28,6,237,395,11,164,2e-19,95.3
Cladophialophora_bantiana_CBS173.52,ERR2673962.38966,85.39,89,12,1,237,325,11,98,3e-18,91.6
Cladophialophora_bantiana_CBS173.52,ERR2673962.30568,85.39,89,12,1,237,325,11,98,3e-18,91.6
Cladophialophora_bantiana_CBS173.52,ERR2673962.23126,85.39,89,12,1,237,325,11,98,3e-18,91.6
Cladophialophora_bantiana_CBS173.52,ERR2673962.3901,85.39,89,12,1,237,325,11,98,3e-18,91.6
Cladophialophora_bantiana_CBS173.52,ERR2673962.3900,85.39,89,12,1,237,325,11,98,3e-18,91.6
Cladophialophora_emmonsii_CBS102594,ERR2673962.28348,88.65,141,14,2,228,368,11,149,3e-42,171
Cladophialophora_emmonsii_CBS102594,ERR2673962.20563,85.71,147,15,5,228,372,11,153,4e-36,150
Cladophialophora_emmonsii_CBS102594,ERR2673962.39384,91.51,106,8,1,228,333,11,115,2e-34,145
Cladophialophora_emmonsii_CBS102594,ERR2673962.1243,87.64,89,10,1,228,316,11,98,1e-21,102
Cladophialophora_emmonsii_CBS102594,ERR2673962.3212,86.52,89,11,1,228,316,11,98,6e-20,97.1
Cladophialophora_emmonsii_CBS102594,ERR2673962.38966,85.39,89,12,1,228,316,11,98,3e-18,91.6
Cladophialophora_emmonsii_CBS102594,ERR2673962.30568,85.39,89,12,1,228,316,11,98,3e-18,91.6
Cladophialophora_emmonsii_CBS102594,ERR2673962.23126,85.39,89,12,1,228,316,11,98,3e-18,91.6
Cladophialophora_emmonsii_CBS102594,ERR2673962.3901,85.39,89,12,1,228,316,11,98,3e-18,91.6
Cladophialophora_emmonsii_CBS102594,ERR2673962.3900,85.39,89,12,1,228,316,11,98,3e-18,91.6
Cladophialophora_emmonsii_CBS102594,ERR2673962.8985,83.00,100,16,1,228,327,11,109,1e-17,89.8
Cladophialophora_minourae_CBS556.83,ERR2673962.28348,87.41,143,14,4,236,378,11,149,2e-39,161
Cladophialophora_minourae_CBS556.83,ERR2673962.39384,90.10,101,8,2,236,336,11,109,6e-30,130
Cladophialophora_minourae_CBS556.83,ERR2673962.20563,90.00,100,8,2,236,335,11,108,2e-29,128
Cladophialophora_minourae_CBS556.83,ERR2673962.3212,87.64,89,10,1,236,324,11,98,1e-21,102
Cladophialophora_minourae_CBS556.83,ERR2673962.38966,86.52,89,11,1,236,324,11,98,6e-20,97.1
Cladophialophora_minourae_CBS556.83,ERR2673962.30568,86.52,89,11,1,236,324,11,98,6e-20,97.1
Cladophialophora_minourae_CBS556.83,ERR2673962.23126,86.52,89,11,1,236,324,11,98,6e-20,97.1
Cladophialophora_minourae_CBS556.83,ERR2673962.3901,86.52,89,11,1,236,324,11,98,6e-20,97.1
Cladophialophora_minourae_CBS556.83,ERR2673962.3900,86.52,89,11,1,236,324,11,98,6e-20,97.1
Cladophialophora_minourae_CBS556.83,ERR2673962.1243,86.52,89,11,1,236,324,11,98,6e-20,97.1
Cladophialophora_minourae_CBS556.83,ERR2673962.8985,82.18,101,16,2,236,336,11,109,1e-16,86.1
Cladophialophora_australiensis_CBS112793,ERR2673962.28348,89.36,141,13,2,238,378,11,149,2e-43,176
Cladophialophora_australiensis_CBS112793,ERR2673962.20563,85.62,146,15,5,238,381,11,152,4e-35,148
Cladophialophora_australiensis_CBS112793,ERR2673962.39384,91.51,106,8,1,238,343,11,115,6e-34,145
Cladophialophora_australiensis_CBS112793,ERR2673962.2463,93.15,73,4,1,535,606,323,251,3e-22,106
Cladophialophora_australiensis_CBS112793,ERR2673962.1243,87.64,89,10,1,238,326,11,98,3e-21,102
Cladophialophora_australiensis_CBS112793,ERR2673962.3212,86.52,89,11,1,238,326,11,98,2e-19,97.1
Cladophialophora_australiensis_CBS112793,ERR2673962.38966,85.39,89,12,1,238,326,11,98,7e-18,91.6
Cladophialophora_australiensis_CBS112793,ERR2673962.30568,85.39,89,12,1,238,326,11,98,7e-18,91.6
Cladophialophora_australiensis_CBS112793,ERR2673962.23126,85.39,89,12,1,238,326,11,98,7e-18,91.6
Cladophialophora_australiensis_CBS112793,ERR2673962.3901,85.39,89,12,1,238,326,11,98,7e-18,91.6
Cladophialophora_australiensis_CBS112793,ERR2673962.3900,85.39,89,12,1,238,326,11,98,7e-18,91.6
Cladophialophora_australiensis_CBS112793,ERR2673962.8985,83.00,100,16,1,238,337,11,109,3e-17,89.8
Cladophialophora_australiensis_CBS112793,ERR2673962.32790,91.07,56,5,0,551,606,306,251,2e-13,76.8
Cladophialophora_australiensis_CBS112793,ERR2673962.27164,90.74,54,4,1,553,606,303,251,1e-11,71.3
Cladophialophora_australiensis_CBS112793,ERR2673962.28241,88.24,51,6,0,560,610,297,247,6e-09,62.1
Cladophialophora_potulentorum_CBS112222,ERR2673962.28348,90.07,141,12,2,237,377,11,149,4e-45,182
Cladophialophora_potulentorum_CBS112222,ERR2673962.20563,84.93,146,16,5,237,380,11,152,2e-33,143
Cladophialophora_potulentorum_CBS112222,ERR2673962.39384,90.57,106,9,1,237,342,11,115,3e-32,139
Cladophialophora_potulentorum_CBS112222,ERR2673962.2463,94.37,71,4,0,538,608,321,251,2e-23,110
Cladophialophora_potulentorum_CBS112222,ERR2673962.1243,87.64,89,10,1,237,325,11,98,3e-21,102
Cladophialophora_potulentorum_CBS112222,ERR2673962.3212,86.52,89,11,1,237,325,11,98,2e-19,97.1
Cladophialophora_potulentorum_CBS112222,ERR2673962.38966,85.39,89,12,1,237,325,11,98,8e-18,91.6
Cladophialophora_potulentorum_CBS112222,ERR2673962.30568,85.39,89,12,1,237,325,11,98,8e-18,91.6
Cladophialophora_potulentorum_CBS112222,ERR2673962.23126,85.39,89,12,1,237,325,11,98,8e-18,91.6
Cladophialophora_potulentorum_CBS112222,ERR2673962.3901,85.39,89,12,1,237,325,11,98,8e-18,91.6
Cladophialophora_potulentorum_CBS112222,ERR2673962.3900,85.39,89,12,1,237,325,11,98,8e-18,91.6
Cladophialophora_potulentorum_CBS112222,ERR2673962.8985,82.00,100,17,1,237,336,11,109,1e-15,84.2
Cladophialophora_potulentorum_CBS112222,ERR2673962.32790,91.07,56,5,0,553,608,306,251,2e-13,76.8
Cladophialophora_potulentorum_CBS112222,ERR2673962.27164,90.74,54,4,1,555,608,303,251,1e-11,71.3
Cladophialophora_potulentorum_CBS112222,ERR2673962.28241,88.24,51,6,0,562,612,297,247,6e-09,62.1
Cladophialophora_matsushimae_CMRP1198,ERR2673962.28348,91.27,126,10,1,241,366,11,135,3e-42,171
Cladophialophora_matsushimae_CMRP1198,ERR2673962.20563,84.93,146,16,5,241,384,11,152,6e-34,143
Cladophialophora_matsushimae_CMRP1198,ERR2673962.39384,90.57,106,9,1,241,346,11,115,8e-33,139
Cladophialophora_matsushimae_CMRP1198,ERR2673962.1243,87.64,89,10,1,241,329,11,98,1e-21,102
Cladophialophora_matsushimae_CMRP1198,ERR2673962.3212,86.52,89,11,1,241,329,11,98,5e-20,97.1
Cladophialophora_matsushimae_CMRP1198,ERR2673962.8985,77.99,159,29,5,241,398,11,164,2e-19,95.3
Cladophialophora_matsushimae_CMRP1198,ERR2673962.38966,85.39,89,12,1,241,329,11,98,2e-18,91.6
Cladophialophora_matsushimae_CMRP1198,ERR2673962.30568,85.39,89,12,1,241,329,11,98,2e-18,91.6
Cladophialophora_matsushimae_CMRP1198,ERR2673962.23126,85.39,89,12,1,241,329,11,98,2e-18,91.6
Cladophialophora_matsushimae_CMRP1198,ERR2673962.3901,85.39,89,12,1,241,329,11,98,2e-18,91.6
Cladophialophora_matsushimae_CMRP1198,ERR2673962.3900,85.39,89,12,1,241,329,11,98,2e-18,91.6
Cladophialophora_mycetomatis_CBS122637,ERR2673962.28348,89.36,141,13,2,226,366,11,149,7e-44,176
Cladophialophora_mycetomatis_CBS122637,ERR2673962.20563,84.83,145,16,5,226,368,11,151,3e-33,141
Cladophialophora_mycetomatis_CBS122637,ERR2673962.39384,90.57,106,9,1,226,331,11,115,9e-33,139
Cladophialophora_mycetomatis_CBS122637,ERR2673962.1243,87.64,89,10,1,226,314,11,98,1e-21,102
Cladophialophora_mycetomatis_CBS122637,ERR2673962.3212,86.52,89,11,1,226,314,11,98,6e-20,97.1
Cladophialophora_mycetomatis_CBS122637,ERR2673962.8985,77.99,159,29,6,226,383,11,164,2e-19,95.3
Cladophialophora_mycetomatis_CBS122637,ERR2673962.38966,85.39,89,12,1,226,314,11,98,3e-18,91.6
Cladophialophora_mycetomatis_CBS122637,ERR2673962.30568,85.39,89,12,1,226,314,11,98,3e-18,91.6
Cladophialophora_mycetomatis_CBS122637,ERR2673962.23126,85.39,89,12,1,226,314,11,98,3e-18,91.6
Cladophialophora_mycetomatis_CBS122637,ERR2673962.3901,85.39,89,12,1,226,314,11,98,3e-18,91.6
Cladophialophora_mycetomatis_CBS122637,ERR2673962.3900,85.39,89,12,1,226,314,11,98,3e-18,91.6
Cladophialophora_chaetospira_CBS127573,ERR2673962.28348,88.65,141,14,2,632,772,11,149,6e-42,171
Cladophialophora_chaetospira_CBS127573,ERR2673962.20563,85.52,145,15,5,632,774,11,151,1e-34,147
Cladophialophora_chaetospira_CBS127573,ERR2673962.39384,91.51,106,8,1,632,737,11,115,4e-34,145
Cladophialophora_chaetospira_CBS127573,ERR2673962.1243,87.64,89,10,1,632,720,11,98,2e-21,102
Cladophialophora_chaetospira_CBS127573,ERR2673962.3212,86.52,89,11,1,632,720,11,98,1e-19,97.1
Cladophialophora_chaetospira_CBS127573,ERR2673962.8985,77.99,159,29,6,632,789,11,164,4e-19,95.3
Cladophialophora_chaetospira_CBS127573,ERR2673962.38966,85.39,89,12,1,632,720,11,98,5e-18,91.6
Cladophialophora_chaetospira_CBS127573,ERR2673962.30568,85.39,89,12,1,632,720,11,98,5e-18,91.6
Cladophialophora_chaetospira_CBS127573,ERR2673962.23126,85.39,89,12,1,632,720,11,98,5e-18,91.6
Cladophialophora_chaetospira_CBS127573,ERR2673962.3901,85.39,89,12,1,632,720,11,98,5e-18,91.6
Cladophialophora_chaetospira_CBS127573,ERR2673962.3900,85.39,89,12,1,632,720,11,98,5e-18,91.6
Cladophialophora_boppii_CBS126.86_T,ERR2673962.28348,88.65,141,14,2,234,374,11,149,3e-42,171
Cladophialophora_boppii_CBS126.86_T,ERR2673962.39384,91.51,106,8,1,234,339,11,115,2e-34,145
Cladophialophora_boppii_CBS126.86_T,ERR2673962.20563,85.42,144,15,5,234,375,11,150,2e-34,145
Cladophialophora_boppii_CBS126.86_T,ERR2673962.1243,87.64,89,10,1,234,322,11,98,1e-21,102
Cladophialophora_boppii_CBS126.86_T,ERR2673962.3212,86.52,89,11,1,234,322,11,98,6e-20,97.1
Cladophialophora_boppii_CBS126.86_T,ERR2673962.8985,78.77,146,27,4,234,378,11,153,2e-19,95.3
Cladophialophora_boppii_CBS126.86_T,ERR2673962.38966,85.39,89,12,1,234,322,11,98,3e-18,91.6
Cladophialophora_boppii_CBS126.86_T,ERR2673962.30568,85.39,89,12,1,234,322,11,98,3e-18,91.6
Cladophialophora_boppii_CBS126.86_T,ERR2673962.23126,85.39,89,12,1,234,322,11,98,3e-18,91.6
Cladophialophora_boppii_CBS126.86_T,ERR2673962.3901,85.39,89,12,1,234,322,11,98,3e-18,91.6
Cladophialophora_boppii_CBS126.86_T,ERR2673962.3900,85.39,89,12,1,234,322,11,98,3e-18,91.6
Cladophialophora_abundans_CBS126736,ERR2673962.12936,88.05,159,14,5,171,328,11,165,4e-46,183
Cladophialophora_abundans_CBS126736,ERR2673962.28348,89.36,141,13,2,171,311,11,149,6e-44,176
Cladophialophora_abundans_CBS126736,ERR2673962.20563,85.52,145,15,4,171,313,11,151,5e-35,147
Cladophialophora_abundans_CBS126736,ERR2673962.39384,89.62,106,10,1,171,276,11,115,4e-31,134
Cladophialophora_abundans_CBS126736,ERR2673962.3212,87.64,89,10,1,171,259,11,98,1e-21,102
Cladophialophora_abundans_CBS126736,ERR2673962.38966,86.52,89,11,1,171,259,11,98,5e-20,97.1
Cladophialophora_abundans_CBS126736,ERR2673962.30568,86.52,89,11,1,171,259,11,98,5e-20,97.1
Cladophialophora_abundans_CBS126736,ERR2673962.23126,86.52,89,11,1,171,259,11,98,5e-20,97.1
Cladophialophora_abundans_CBS126736,ERR2673962.3901,86.52,89,11,1,171,259,11,98,5e-20,97.1
Cladophialophora_abundans_CBS126736,ERR2673962.3900,86.52,89,11,1,171,259,11,98,5e-20,97.1
Cladophialophora_abundans_CBS126736,ERR2673962.1243,86.52,89,11,1,171,259,11,98,5e-20,97.1
Cladophialophora_abundans_CBS126736,ERR2673962.8985,77.99,159,29,6,171,328,11,164,2e-19,95.3
Capronia_semi-immersa_CBS102234,ERR2673962.28348,87.94,141,15,2,233,373,11,149,2e-40,165
Capronia_semi-immersa_CBS102234,ERR2673962.20563,84.25,146,17,5,233,376,11,152,3e-32,137
Capronia_semi-immersa_CBS102234,ERR2673962.39384,91.00,100,8,1,233,332,11,109,4e-31,134
Capronia_semi-immersa_CBS102234,ERR2673962.3212,87.64,89,10,1,233,321,11,98,1e-21,102
Capronia_semi-immersa_CBS102234,ERR2673962.38966,86.52,89,11,1,233,321,11,98,6e-20,97.1
Capronia_semi-immersa_CBS102234,ERR2673962.30568,86.52,89,11,1,233,321,11,98,6e-20,97.1
Capronia_semi-immersa_CBS102234,ERR2673962.23126,86.52,89,11,1,233,321,11,98,6e-20,97.1
Capronia_semi-immersa_CBS102234,ERR2673962.3901,86.52,89,11,1,233,321,11,98,6e-20,97.1
Capronia_semi-immersa_CBS102234,ERR2673962.3900,86.52,89,11,1,233,321,11,98,6e-20,97.1
Capronia_semi-immersa_CBS102234,ERR2673962.1243,86.52,89,11,1,233,321,11,98,6e-20,97.1
Capronia_semi-immersa_CBS102234,ERR2673962.8985,82.00,100,17,1,233,332,11,109,5e-16,84.2
Phialophora_americana_CBS400.67,ERR2673962.28348,87.94,141,15,2,235,375,11,149,4e-40,165
Phialophora_americana_CBS400.67,ERR2673962.20563,84.25,146,17,5,235,378,11,152,9e-32,137
Phialophora_americana_CBS400.67,ERR2673962.39384,91.00,100,8,1,235,334,11,109,1e-30,134
Phialophora_americana_CBS400.67,ERR2673962.15794,91.36,81,5,1,520,600,329,251,2e-23,110
Phialophora_americana_CBS400.67,ERR2673962.3212,87.64,89,10,1,235,323,11,98,3e-21,102
Phialophora_americana_CBS400.67,ERR2673962.38966,86.52,89,11,1,235,323,11,98,2e-19,97.1
Phialophora_americana_CBS400.67,ERR2673962.30568,86.52,89,11,1,235,323,11,98,2e-19,97.1
Phialophora_americana_CBS400.67,ERR2673962.23126,86.52,89,11,1,235,323,11,98,2e-19,97.1
Phialophora_americana_CBS400.67,ERR2673962.3901,86.52,89,11,1,235,323,11,98,2e-19,97.1
Phialophora_americana_CBS400.67,ERR2673962.3900,86.52,89,11,1,235,323,11,98,2e-19,97.1
Phialophora_americana_CBS400.67,ERR2673962.1243,86.52,89,11,1,235,323,11,98,2e-19,97.1
Phialophora_americana_CBS400.67,ERR2673962.26002,89.04,73,7,1,529,600,323,251,3e-17,89.8
Phialophora_americana_CBS400.67,ERR2673962.8985,82.00,100,17,1,235,334,11,109,1e-15,84.2
Phialophora_americana_CBS400.67,ERR2673962.21236,89.66,58,6,0,544,601,307,250,7e-13,75.0
Phialophora_americana_CBS400.67,ERR2673962.23803,83.33,72,10,2,554,624,297,227,4e-10,65.8
Phialophora_americana_CBS400.67,ERR2673962.398,88.24,51,6,0,554,604,297,247,6e-09,62.1
Phialophora_verrucosa_CBS140325_T,ERR2673962.28348,87.94,141,15,2,239,379,11,149,2e-40,165
Phialophora_verrucosa_CBS140325_T,ERR2673962.20563,84.25,146,17,5,239,382,11,152,4e-32,137
Phialophora_verrucosa_CBS140325_T,ERR2673962.39384,91.00,100,8,1,239,338,11,109,5e-31,134
Phialophora_verrucosa_CBS140325_T,ERR2673962.3212,87.64,89,10,1,239,327,11,98,1e-21,102
Phialophora_verrucosa_CBS140325_T,ERR2673962.38966,86.52,89,11,1,239,327,11,98,6e-20,97.1
Phialophora_verrucosa_CBS140325_T,ERR2673962.30568,86.52,89,11,1,239,327,11,98,6e-20,97.1
Phialophora_verrucosa_CBS140325_T,ERR2673962.23126,86.52,89,11,1,239,327,11,98,6e-20,97.1
Phialophora_verrucosa_CBS140325_T,ERR2673962.3901,86.52,89,11,1,239,327,11,98,6e-20,97.1
Phialophora_verrucosa_CBS140325_T,ERR2673962.3900,86.52,89,11,1,239,327,11,98,6e-20,97.1
Phialophora_verrucosa_CBS140325_T,ERR2673962.1243,86.52,89,11,1,239,327,11,98,6e-20,97.1
Phialophora_verrucosa_CBS140325_T,ERR2673962.8985,82.00,100,17,1,239,338,11,109,5e-16,84.2
Cladophialophora_samoensis_CBS259.83_T,ERR2673962.2463,89.94,159,11,5,239,396,10,164,4e-51,200
Cladophialophora_samoensis_CBS259.83_T,ERR2673962.15794,93.70,127,7,1,239,365,11,136,9e-48,189
Cladophialophora_samoensis_CBS259.83_T,ERR2673962.28348,89.36,141,13,2,239,379,11,149,7e-44,176
Cladophialophora_samoensis_CBS259.83_T,ERR2673962.20563,86.30,146,14,4,239,382,11,152,3e-37,154
Cladophialophora_samoensis_CBS259.83_T,ERR2673962.39384,91.51,106,8,1,239,344,11,115,2e-34,145
Cladophialophora_samoensis_CBS259.83_T,ERR2673962.1243,87.64,89,10,1,239,327,11,98,1e-21,102
Cladophialophora_samoensis_CBS259.83_T,ERR2673962.3212,86.52,89,11,1,239,327,11,98,6e-20,97.1
Cladophialophora_samoensis_CBS259.83_T,ERR2673962.8985,77.99,159,29,5,239,396,11,164,2e-19,95.3
Cladophialophora_samoensis_CBS259.83_T,ERR2673962.38966,85.39,89,12,1,239,327,11,98,3e-18,91.6
Cladophialophora_samoensis_CBS259.83_T,ERR2673962.30568,85.39,89,12,1,239,327,11,98,3e-18,91.6
Cladophialophora_samoensis_CBS259.83_T,ERR2673962.23126,85.39,89,12,1,239,327,11,98,3e-18,91.6
Cladophialophora_samoensis_CBS259.83_T,ERR2673962.3901,85.39,89,12,1,239,327,11,98,3e-18,91.6
Cladophialophora_samoensis_CBS259.83_T,ERR2673962.3900,85.39,89,12,1,239,327,11,98,3e-18,91.6
Cladophialophora_carrionii_CBS260.83,ERR2673962.28348,87.94,141,15,2,255,395,11,149,2e-40,165
Cladophialophora_carrionii_CBS260.83,ERR2673962.20563,84.83,145,16,5,255,397,11,151,3e-33,141
Cladophialophora_carrionii_CBS260.83,ERR2673962.39384,92.00,100,7,1,255,354,11,109,1e-32,139
Cladophialophora_carrionii_CBS260.83,ERR2673962.1243,87.64,89,10,1,255,343,11,98,1e-21,102
Cladophialophora_carrionii_CBS260.83,ERR2673962.3212,86.52,89,11,1,255,343,11,98,6e-20,97.1
Cladophialophora_carrionii_CBS260.83,ERR2673962.8985,77.99,159,29,6,255,412,11,164,2e-19,95.3
Cladophialophora_carrionii_CBS260.83,ERR2673962.38966,85.39,89,12,1,255,343,11,98,3e-18,91.6
Cladophialophora_carrionii_CBS260.83,ERR2673962.30568,85.39,89,12,1,255,343,11,98,3e-18,91.6
Cladophialophora_carrionii_CBS260.83,ERR2673962.23126,85.39,89,12,1,255,343,11,98,3e-18,91.6
Cladophialophora_carrionii_CBS260.83,ERR2673962.3901,85.39,89,12,1,255,343,11,98,3e-18,91.6
Cladophialophora_carrionii_CBS260.83,ERR2673962.3900,85.39,89,12,1,255,343,11,98,3e-18,91.6
Exophiala_palmae_UPCB86822_T,ERR2673962.28348,88.65,141,14,2,198,338,11,149,3e-42,171
Exophiala_palmae_UPCB86822_T,ERR2673962.20563,85.81,148,15,5,198,343,11,154,1e-36,152
Exophiala_palmae_UPCB86822_T,ERR2673962.39384,91.51,106,8,1,198,303,11,115,2e-34,145
Exophiala_palmae_UPCB86822_T,ERR2673962.1243,87.64,89,10,1,198,286,11,98,1e-21,102
Exophiala_palmae_UPCB86822_T,ERR2673962.3212,86.52,89,11,1,198,286,11,98,5e-20,97.1
Exophiala_palmae_UPCB86822_T,ERR2673962.38966,85.39,89,12,1,198,286,11,98,3e-18,91.6
Exophiala_palmae_UPCB86822_T,ERR2673962.30568,85.39,89,12,1,198,286,11,98,3e-18,91.6
Exophiala_palmae_UPCB86822_T,ERR2673962.23126,85.39,89,12,1,198,286,11,98,3e-18,91.6
Exophiala_palmae_UPCB86822_T,ERR2673962.3901,85.39,89,12,1,198,286,11,98,3e-18,91.6
Exophiala_palmae_UPCB86822_T,ERR2673962.3900,85.39,89,12,1,198,286,11,98,3e-18,91.6
Exophiala_palmae_UPCB86822_T,ERR2673962.8985,83.00,100,16,1,198,297,11,109,9e-18,89.8
Cladophialophora_yegresii_CBS114405_T,ERR2673962.28348,87.94,141,15,2,240,380,11,149,2e-40,165
Cladophialophora_yegresii_CBS114405_T,ERR2673962.20563,84.93,146,16,5,240,383,11,152,7e-34,143
Cladophialophora_yegresii_CBS114405_T,ERR2673962.39384,92.00,100,7,1,240,339,11,109,1e-32,139
Cladophialophora_yegresii_CBS114405_T,ERR2673962.1243,87.64,89,10,1,240,328,11,98,1e-21,102
Cladophialophora_yegresii_CBS114405_T,ERR2673962.3212,86.52,89,11,1,240,328,11,98,6e-20,97.1
Cladophialophora_yegresii_CBS114405_T,ERR2673962.8985,77.99,159,29,5,240,397,11,164,2e-19,95.3
Cladophialophora_yegresii_CBS114405_T,ERR2673962.38966,85.39,89,12,1,240,328,11,98,3e-18,91.6
Cladophialophora_yegresii_CBS114405_T,ERR2673962.30568,85.39,89,12,1,240,328,11,98,3e-18,91.6
Cladophialophora_yegresii_CBS114405_T,ERR2673962.23126,85.39,89,12,1,240,328,11,98,3e-18,91.6
Cladophialophora_yegresii_CBS114405_T,ERR2673962.3901,85.39,89,12,1,240,328,11,98,3e-18,91.6
Cladophialophora_yegresii_CBS114405_T,ERR2673962.3900,85.39,89,12,1,240,328,11,98,3e-18,91.6
Knufia_epidermidis_CBS120353_T,ERR2673962.28348,89.21,139,13,2,238,376,11,147,9e-43,172
Knufia_epidermidis_CBS120353_T,ERR2673962.20563,85.62,146,15,5,238,381,11,152,2e-35,148
Knufia_epidermidis_CBS120353_T,ERR2673962.39384,89.62,106,10,1,238,343,11,115,4e-31,134
Knufia_epidermidis_CBS120353_T,ERR2673962.3212,86.52,89,11,1,238,326,11,98,6e-20,97.1
Knufia_epidermidis_CBS120353_T,ERR2673962.38966,85.39,89,12,1,238,326,11,98,3e-18,91.6
Knufia_epidermidis_CBS120353_T,ERR2673962.30568,85.39,89,12,1,238,326,11,98,3e-18,91.6
Knufia_epidermidis_CBS120353_T,ERR2673962.23126,85.39,89,12,1,238,326,11,98,3e-18,91.6
Knufia_epidermidis_CBS120353_T,ERR2673962.3901,85.39,89,12,1,238,326,11,98,3e-18,91.6
Knufia_epidermidis_CBS120353_T,ERR2673962.3900,85.39,89,12,1,238,326,11,98,3e-18,91.6
Knufia_epidermidis_CBS120353_T,ERR2673962.1243,85.39,89,12,1,238,326,11,98,3e-18,91.6
Knufia_epidermidis_CBS120353_T,ERR2673962.8985,82.00,100,17,1,238,337,11,109,4e-16,84.2
Arthrocladium_fulminans_CBS136243_T,ERR2673962.28348,88.49,139,14,2,233,371,11,147,4e-41,167
Arthrocladium_fulminans_CBS136243_T,ERR2673962.20563,84.40,141,16,5,233,371,11,147,5e-31,134
Arthrocladium_fulminans_CBS136243_T,ERR2673962.39384,89.11,101,10,1,233,333,11,110,3e-28,124
Arthrocladium_fulminans_CBS136243_T,ERR2673962.3212,86.52,89,11,1,233,321,11,98,6e-20,97.1
Arthrocladium_fulminans_CBS136243_T,ERR2673962.38966,85.39,89,12,1,233,321,11,98,3e-18,91.6
Arthrocladium_fulminans_CBS136243_T,ERR2673962.30568,85.39,89,12,1,233,321,11,98,3e-18,91.6
Arthrocladium_fulminans_CBS136243_T,ERR2673962.23126,85.39,89,12,1,233,321,11,98,3e-18,91.6
Arthrocladium_fulminans_CBS136243_T,ERR2673962.3901,85.39,89,12,1,233,321,11,98,3e-18,91.6
Arthrocladium_fulminans_CBS136243_T,ERR2673962.3900,85.39,89,12,1,233,321,11,98,3e-18,91.6
Arthrocladium_fulminans_CBS136243_T,ERR2673962.1243,85.39,89,12,1,233,321,11,98,3e-18,91.6
Arthrocladium_fulminans_CBS136243_T,ERR2673962.8985,81.00,100,18,1,233,332,11,109,2e-14,78.7
Anthopsis_deltoidea_CBS263.77_T,ERR2673962.28348,86.90,145,17,2,242,385,11,154,2e-39,161
Anthopsis_deltoidea_CBS263.77_T,ERR2673962.20563,84.03,144,17,5,242,382,11,151,4e-31,134
Anthopsis_deltoidea_CBS263.77_T,ERR2673962.39384,89.52,105,10,1,242,345,11,115,2e-30,132
Anthopsis_deltoidea_CBS263.77_T,ERR2673962.38966,86.36,88,11,1,242,328,11,98,2e-19,95.3
Anthopsis_deltoidea_CBS263.77_T,ERR2673962.30568,86.36,88,11,1,242,328,11,98,2e-19,95.3
Anthopsis_deltoidea_CBS263.77_T,ERR2673962.23126,86.36,88,11,1,242,328,11,98,2e-19,95.3
Anthopsis_deltoidea_CBS263.77_T,ERR2673962.3901,86.36,88,11,1,242,328,11,98,2e-19,95.3
Anthopsis_deltoidea_CBS263.77_T,ERR2673962.3900,86.36,88,11,1,242,328,11,98,2e-19,95.3
Anthopsis_deltoidea_CBS263.77_T,ERR2673962.3212,86.36,88,11,1,242,328,11,98,2e-19,95.3
Anthopsis_deltoidea_CBS263.77_T,ERR2673962.1243,86.36,88,11,1,242,328,11,98,2e-19,95.3
Anthopsis_deltoidea_CBS263.77_T,ERR2673962.8985,77.56,156,31,4,242,395,11,164,3e-18,91.6
Cyphellophora_laciniata_CBS190.61_T,ERR2673962.2463,90.38,156,12,3,327,480,10,164,2e-51,202
Cyphellophora_laciniata_CBS190.61_T,ERR2673962.2463,96.05,76,2,1,620,695,325,251,1e-27,122
Cyphellophora_laciniata_CBS190.61_T,ERR2673962.15794,89.10,156,14,3,327,480,11,165,4e-48,191
Cyphellophora_laciniata_CBS190.61_T,ERR2673962.15794,94.74,76,3,1,620,695,325,251,6e-26,117
Cyphellophora_laciniata_CBS190.61_T,ERR2673962.28348,88.46,156,15,3,327,480,11,165,2e-46,185
Cyphellophora_laciniata_CBS190.61_T,ERR2673962.20563,85.42,144,15,5,327,467,11,151,3e-34,145
Cyphellophora_laciniata_CBS190.61_T,ERR2673962.39384,90.57,106,8,2,327,430,11,116,1e-32,139
Cyphellophora_laciniata_CBS190.61_T,ERR2673962.3212,87.50,88,10,1,327,413,11,98,6e-21,100
Cyphellophora_laciniata_CBS190.61_T,ERR2673962.1243,87.50,88,10,1,327,413,11,98,6e-21,100
Cyphellophora_laciniata_CBS190.61_T,ERR2673962.38966,86.36,88,11,1,327,413,11,98,3e-19,95.3
Cyphellophora_laciniata_CBS190.61_T,ERR2673962.30568,86.36,88,11,1,327,413,11,98,3e-19,95.3
Cyphellophora_laciniata_CBS190.61_T,ERR2673962.23126,86.36,88,11,1,327,413,11,98,3e-19,95.3
Cyphellophora_laciniata_CBS190.61_T,ERR2673962.3901,86.36,88,11,1,327,413,11,98,3e-19,95.3
Cyphellophora_laciniata_CBS190.61_T,ERR2673962.3900,86.36,88,11,1,327,413,11,98,3e-19,95.3
Cyphellophora_laciniata_CBS190.61_T,ERR2673962.8985,77.56,156,31,4,327,480,11,164,4e-18,91.6
Cyphellophora_laciniata_CBS190.61_T,ERR2673962.26002,88.00,75,8,1,621,695,324,251,5e-17,87.9
Cyphellophora_laciniata_CBS190.61_T,ERR2673962.32790,92.86,56,4,0,640,695,306,251,2e-15,82.4
Cyphellophora_laciniata_CBS190.61_T,ERR2673962.27164,92.59,54,3,1,642,695,303,251,1e-13,76.8
Cyphellophora_laciniata_CBS190.61_T,ERR2673962.21236,89.66,58,6,0,639,696,307,250,4e-13,75.0
Cyphellophora_laciniata_CBS190.61_T,ERR2673962.28241,90.20,51,5,0,649,699,297,247,6e-11,67.6
Cyphellophora_suttonii_CBS449.91,ERR2673962.2463,90.38,156,12,3,230,383,10,164,1e-51,202
Cyphellophora_suttonii_CBS449.91,ERR2673962.15794,89.10,156,14,3,230,383,11,165,3e-48,191
Cyphellophora_suttonii_CBS449.91,ERR2673962.28348,88.46,156,15,3,230,383,11,165,1e-46,185
Cyphellophora_suttonii_CBS449.91,ERR2673962.20563,85.42,144,15,5,230,370,11,151,2e-34,145
Cyphellophora_suttonii_CBS449.91,ERR2673962.39384,90.57,106,8,2,230,333,11,116,9e-33,139
Cyphellophora_suttonii_CBS449.91,ERR2673962.3212,87.50,88,10,1,230,316,11,98,4e-21,100
Cyphellophora_suttonii_CBS449.91,ERR2673962.1243,87.50,88,10,1,230,316,11,98,4e-21,100
Cyphellophora_suttonii_CBS449.91,ERR2673962.38966,86.36,88,11,1,230,316,11,98,2e-19,95.3
Cyphellophora_suttonii_CBS449.91,ERR2673962.30568,86.36,88,11,1,230,316,11,98,2e-19,95.3
Cyphellophora_suttonii_CBS449.91,ERR2673962.23126,86.36,88,11,1,230,316,11,98,2e-19,95.3
Cyphellophora_suttonii_CBS449.91,ERR2673962.3901,86.36,88,11,1,230,316,11,98,2e-19,95.3
Cyphellophora_suttonii_CBS449.91,ERR2673962.3900,86.36,88,11,1,230,316,11,98,2e-19,95.3
Cyphellophora_suttonii_CBS449.91,ERR2673962.8985,77.56,156,31,4,230,383,11,164,3e-18,91.6
Cyphellophora_pauciseptata_CBS284.85_T,ERR2673962.2463,90.38,156,12,3,241,394,10,164,1e-51,202
Cyphellophora_pauciseptata_CBS284.85_T,ERR2673962.15794,89.10,156,14,3,241,394,11,165,3e-48,191
Cyphellophora_pauciseptata_CBS284.85_T,ERR2673962.28348,88.46,156,15,3,241,394,11,165,1e-46,185
Cyphellophora_pauciseptata_CBS284.85_T,ERR2673962.20563,85.42,144,15,5,241,381,11,151,2e-34,145
Cyphellophora_pauciseptata_CBS284.85_T,ERR2673962.39384,90.57,106,8,2,241,344,11,116,9e-33,139
Cyphellophora_pauciseptata_CBS284.85_T,ERR2673962.3212,87.50,88,10,1,241,327,11,98,4e-21,100
Cyphellophora_pauciseptata_CBS284.85_T,ERR2673962.1243,87.50,88,10,1,241,327,11,98,4e-21,100
Cyphellophora_pauciseptata_CBS284.85_T,ERR2673962.38966,86.36,88,11,1,241,327,11,98,2e-19,95.3
Cyphellophora_pauciseptata_CBS284.85_T,ERR2673962.30568,86.36,88,11,1,241,327,11,98,2e-19,95.3
Cyphellophora_pauciseptata_CBS284.85_T,ERR2673962.23126,86.36,88,11,1,241,327,11,98,2e-19,95.3
Cyphellophora_pauciseptata_CBS284.85_T,ERR2673962.3901,86.36,88,11,1,241,327,11,98,2e-19,95.3
Cyphellophora_pauciseptata_CBS284.85_T,ERR2673962.3900,86.36,88,11,1,241,327,11,98,2e-19,95.3
Cyphellophora_pauciseptata_CBS284.85_T,ERR2673962.8985,77.56,156,31,4,241,394,11,164,3e-18,91.6
Cyphellophora_pluriseptata_CBS286.85_T,ERR2673962.2463,90.97,155,11,3,247,399,11,164,9e-53,206
Cyphellophora_pluriseptata_CBS286.85_T,ERR2673962.15794,89.68,155,13,3,247,399,12,165,2e-49,195
Cyphellophora_pluriseptata_CBS286.85_T,ERR2673962.28348,87.74,155,16,3,247,399,12,165,2e-44,178
Cyphellophora_pluriseptata_CBS286.85_T,ERR2673962.20563,86.01,143,14,4,247,386,12,151,2e-35,148
Cyphellophora_pluriseptata_CBS286.85_T,ERR2673962.39384,91.35,104,8,1,247,349,12,115,3e-33,141
Cyphellophora_pluriseptata_CBS286.85_T,ERR2673962.3212,87.36,87,10,1,247,332,12,98,2e-20,99.0
Cyphellophora_pluriseptata_CBS286.85_T,ERR2673962.1243,87.36,87,10,1,247,332,12,98,2e-20,99.0
Cyphellophora_pluriseptata_CBS286.85_T,ERR2673962.38966,86.21,87,11,1,247,332,12,98,8e-19,93.5
Cyphellophora_pluriseptata_CBS286.85_T,ERR2673962.30568,86.21,87,11,1,247,332,12,98,8e-19,93.5
Cyphellophora_pluriseptata_CBS286.85_T,ERR2673962.23126,86.21,87,11,1,247,332,12,98,8e-19,93.5
Cyphellophora_pluriseptata_CBS286.85_T,ERR2673962.3901,86.21,87,11,1,247,332,12,98,8e-19,93.5
Cyphellophora_pluriseptata_CBS286.85_T,ERR2673962.3900,86.21,87,11,1,247,332,12,98,8e-19,93.5
Phialophora_europaea_CBS101466,ERR2673962.2463,91.03,156,11,3,236,389,10,164,2e-53,207
Phialophora_europaea_CBS101466,ERR2673962.15794,89.74,156,13,3,236,389,11,165,5e-50,196
Phialophora_europaea_CBS101466,ERR2673962.28348,87.82,156,16,3,236,389,11,165,5e-45,180
Phialophora_europaea_CBS101466,ERR2673962.20563,86.11,144,14,4,236,376,11,151,4e-36,150
Phialophora_europaea_CBS101466,ERR2673962.39384,91.43,105,8,1,236,339,11,115,7e-34,143
Phialophora_europaea_CBS101466,ERR2673962.3212,87.50,88,10,1,236,322,11,98,4e-21,100
Phialophora_europaea_CBS101466,ERR2673962.1243,87.50,88,10,1,236,322,11,98,4e-21,100
Phialophora_europaea_CBS101466,ERR2673962.38966,86.36,88,11,1,236,322,11,98,2e-19,95.3
Phialophora_europaea_CBS101466,ERR2673962.30568,86.36,88,11,1,236,322,11,98,2e-19,95.3
Phialophora_europaea_CBS101466,ERR2673962.23126,86.36,88,11,1,236,322,11,98,2e-19,95.3
Phialophora_europaea_CBS101466,ERR2673962.3901,86.36,88,11,1,236,322,11,98,2e-19,95.3
Phialophora_europaea_CBS101466,ERR2673962.3900,86.36,88,11,1,236,322,11,98,2e-19,95.3
Phialophora_europaea_CBS101466,ERR2673962.8985,77.56,156,31,4,236,389,11,164,3e-18,91.6
Phialophora_ambigua_CBS235.93,ERR2673962.2463,91.03,156,11,3,233,386,10,164,3e-53,207
Phialophora_ambigua_CBS235.93,ERR2673962.15794,89.74,156,13,3,233,386,11,165,6e-50,196
Phialophora_ambigua_CBS235.93,ERR2673962.28348,87.82,156,16,3,233,386,11,165,6e-45,180
Phialophora_ambigua_CBS235.93,ERR2673962.20563,86.11,144,14,4,233,373,11,151,4e-36,150
Phialophora_ambigua_CBS235.93,ERR2673962.39384,91.43,105,8,1,233,336,11,115,7e-34,143
Phialophora_ambigua_CBS235.93,ERR2673962.3212,87.50,88,10,1,233,319,11,98,4e-21,100
Phialophora_ambigua_CBS235.93,ERR2673962.1243,87.50,88,10,1,233,319,11,98,4e-21,100
Phialophora_ambigua_CBS235.93,ERR2673962.38966,86.36,88,11,1,233,319,11,98,2e-19,95.3
Phialophora_ambigua_CBS235.93,ERR2673962.30568,86.36,88,11,1,233,319,11,98,2e-19,95.3
Phialophora_ambigua_CBS235.93,ERR2673962.23126,86.36,88,11,1,233,319,11,98,2e-19,95.3
Phialophora_ambigua_CBS235.93,ERR2673962.3901,86.36,88,11,1,233,319,11,98,2e-19,95.3
Phialophora_ambigua_CBS235.93,ERR2673962.3900,86.36,88,11,1,233,319,11,98,2e-19,95.3
Phialophora_ambigua_CBS235.93,ERR2673962.8985,77.06,170,34,5,233,399,11,178,7e-19,93.5
Cladophialophora_modesta_CBS985.96_T,ERR2673962.28348,86.08,158,18,4,230,386,11,165,5e-41,167
Cladophialophora_modesta_CBS985.96_T,ERR2673962.20563,84.83,145,16,5,230,372,11,151,3e-33,141
Cladophialophora_modesta_CBS985.96_T,ERR2673962.39384,90.57,106,9,1,230,335,11,115,1e-32,139
Cladophialophora_modesta_CBS985.96_T,ERR2673962.2463,94.12,68,3,1,512,579,317,251,1e-21,102
Cladophialophora_modesta_CBS985.96_T,ERR2673962.15794,92.65,68,4,1,512,579,317,251,7e-20,97.1
Cladophialophora_modesta_CBS985.96_T,ERR2673962.3212,86.52,89,11,1,230,318,11,98,7e-20,97.1
Cladophialophora_modesta_CBS985.96_T,ERR2673962.8985,77.85,158,30,5,230,386,11,164,9e-19,93.5
Cladophialophora_modesta_CBS985.96_T,ERR2673962.38966,85.39,89,12,1,230,318,11,98,3e-18,91.6
Cladophialophora_modesta_CBS985.96_T,ERR2673962.30568,85.39,89,12,1,230,318,11,98,3e-18,91.6
Cladophialophora_modesta_CBS985.96_T,ERR2673962.23126,85.39,89,12,1,230,318,11,98,3e-18,91.6
Cladophialophora_modesta_CBS985.96_T,ERR2673962.3901,85.39,89,12,1,230,318,11,98,3e-18,91.6
Cladophialophora_modesta_CBS985.96_T,ERR2673962.3900,85.39,89,12,1,230,318,11,98,3e-18,91.6
Cladophialophora_modesta_CBS985.96_T,ERR2673962.1243,85.39,89,12,1,230,318,11,98,3e-18,91.6
Cladophialophora_modesta_CBS985.96_T,ERR2673962.32790,94.64,56,3,0,524,579,306,251,4e-17,87.9
Cladophialophora_modesta_CBS985.96_T,ERR2673962.27164,94.44,54,2,1,526,579,303,251,2e-15,82.4
Cladophialophora_modesta_CBS985.96_T,ERR2673962.26002,92.86,56,4,0,524,579,306,251,2e-15,82.4
Cladophialophora_modesta_CBS985.96_T,ERR2673962.21236,89.66,58,6,0,523,580,307,250,3e-13,75.0
Cladophialophora_modesta_CBS985.96_T,ERR2673962.28241,90.20,51,5,0,533,583,297,247,5e-11,67.6
Cyphellophora_fusarioides_MUCL44033_T,ERR2673962.28348,87.82,156,16,3,229,382,11,165,6e-45,180
Cyphellophora_fusarioides_MUCL44033_T,ERR2673962.20563,84.72,144,16,5,229,369,11,151,9e-33,139
Cyphellophora_fusarioides_MUCL44033_T,ERR2673962.39384,89.62,106,9,2,229,332,11,116,4e-31,134
Cyphellophora_fusarioides_MUCL44033_T,ERR2673962.38966,86.36,88,11,1,229,315,11,98,2e-19,95.3
Cyphellophora_fusarioides_MUCL44033_T,ERR2673962.30568,86.36,88,11,1,229,315,11,98,2e-19,95.3
Cyphellophora_fusarioides_MUCL44033_T,ERR2673962.23126,86.36,88,11,1,229,315,11,98,2e-19,95.3
Cyphellophora_fusarioides_MUCL44033_T,ERR2673962.3901,86.36,88,11,1,229,315,11,98,2e-19,95.3
Cyphellophora_fusarioides_MUCL44033_T,ERR2673962.3900,86.36,88,11,1,229,315,11,98,2e-19,95.3
Cyphellophora_fusarioides_MUCL44033_T,ERR2673962.3212,86.36,88,11,1,229,315,11,98,2e-19,95.3
Cyphellophora_fusarioides_MUCL44033_T,ERR2673962.1243,86.36,88,11,1,229,315,11,98,2e-19,95.3
Cyphellophora_fusarioides_MUCL44033_T,ERR2673962.8985,77.56,156,31,4,229,382,11,164,3e-18,91.6
