Exophiala_nigra_CBS535.94_T,ERR2674089.13265,85.39,89,12,1,233,321,11,98,3e-18,91.6
Exophiala_spinifera_CBS899.68_T,ERR2674089.13265,85.39,89,12,1,230,318,11,98,2e-18,91.6
Exophiala_exophialae_CBS668.76_T,ERR2674089.13265,85.39,89,12,1,231,319,11,98,2e-18,91.6
Exophiala_polymorpha_CBS138920_T,ERR2674089.13265,85.39,89,12,1,333,421,11,98,3e-18,91.6
Exophiala_oligosperma_CBS725.88_T,ERR2674089.13265,85.39,89,12,1,243,331,11,98,2e-18,91.6
Exophiala_jeanselmei_CBS507.90_T,ERR2674089.13265,85.39,89,12,1,235,323,11,98,3e-18,91.6
Exophiala_bergeri_CBS353.52,ERR2674089.13265,85.39,89,12,1,196,284,11,98,2e-18,91.6
Exophiala_moniliae_CBS520.76_T,ERR2674089.13265,85.39,89,12,1,233,321,11,98,2e-18,91.6
Exophiala_pisciphila_CBS537.73_T,ERR2674089.13265,84.27,89,13,1,236,324,11,98,1e-16,86.1
Exophiala_xenobiotica_CBS117642,ERR2674089.13265,85.39,89,12,1,228,316,11,98,2e-18,91.6
Exophiala_brunnea_CBS,ERR2674089.13265,85.39,89,12,1,264,352,11,98,3e-18,91.6
Exophiala_nishimurae_CBS101538_T,ERR2674089.13265,85.39,89,12,1,242,330,11,98,3e-18,91.6
Exophiala_mesophila_CBS402.95_T,ERR2674089.13265,85.39,89,12,1,226,314,11,98,3e-18,91.6
Exophiala_castellanii_CBS158.58_T,ERR2674089.13265,85.39,89,12,1,224,312,11,98,3e-18,91.6
Exophiala_lecanii-corni_CBS123.33_T,ERR2674089.13265,85.39,89,12,1,247,335,11,98,2e-18,91.6
Exophiala_dermatitidis_CBS748.88,ERR2674089.13265,85.39,89,12,1,239,327,11,98,7e-18,91.6
Exophiala_angulospora_CBS482.92_T,ERR2674089.13265,85.39,89,12,1,230,318,11,98,2e-18,91.6
Exophiala_opportunistica_CBS109811_T,ERR2674089.13265,85.39,89,12,1,229,317,11,98,2e-18,91.6
Exophiala_salmonis_CBS157.67_T,ERR2674089.13265,85.39,89,12,1,358,446,11,98,3e-18,91.6
Exophiala_aquamarina_CBS119918_T,ERR2674089.13265,85.39,89,12,1,236,324,11,98,2e-18,91.6
Exophiala_cancerae_CBS120420_T,ERR2674089.13265,85.39,89,12,1,251,339,11,98,3e-18,91.6
Exophiala_tremulae_CBS129355,ERR2674089.13265,85.39,89,12,1,263,351,11,98,3e-18,91.6
Exophiala_equina_CBS116009,ERR2674089.13265,85.39,89,12,1,229,317,11,98,2e-18,91.6
Exophiala_alcalophila_CBS520.82_T,ERR2674089.13265,85.39,89,12,1,240,328,11,98,2e-18,91.6
Exophiala_crusticola_CBS119970_T,ERR2674089.13265,85.39,89,12,1,245,333,11,98,2e-18,91.6
Rhinocladiella_atrovirens_CBS264.49,ERR2674089.13265,85.39,89,12,1,271,359,11,98,3e-18,91.6
Rhinocladiella_basitona_CBS101460_T,ERR2674089.13265,85.39,89,12,1,230,318,11,98,2e-18,91.6
Rhinocladiella_phaeophora_CBS496.78_T,ERR2674089.13265,84.27,89,13,1,238,326,11,98,1e-16,86.1
Rhinocladiella_aquaspersa_CBS313.73_T,ERR2674089.13265,84.27,89,13,1,232,320,11,98,1e-16,86.1
Rhinocladiella_fasciculata_CBS132.86_T,ERR2674089.13265,84.27,89,13,1,248,336,11,98,1e-16,86.1
Rhinocladiella_anceps_CBS181.65_T,ERR2674089.13265,84.27,89,13,1,230,318,11,98,1e-16,86.1
Rhinocladiella_mackenziei_CBS367.92,ERR2674089.13265,85.39,89,12,1,219,307,11,98,3e-18,91.6
Veronaea_compacta_CBS268.75_T,ERR2674089.13265,85.39,89,12,1,252,340,11,98,3e-18,91.6
Capronia_pilosella_AFTOL-ID657,ERR2674089.13265,85.39,89,12,1,330,418,11,98,3e-18,91.6
Capronia_dactylotricha_DAOM208471_T,ERR2674089.13265,85.39,89,12,1,232,320,11,98,3e-18,91.6
Capronia_kleinmondensis_CBS122671_T,ERR2674089.13265,85.39,89,12,1,257,345,11,98,3e-18,91.6
Capronia_mansonii_CBS101.67_T,ERR2674089.13265,85.39,89,12,1,243,331,11,98,3e-18,91.6
Capronia_munkii_DAOM216390_T,ERR2674089.13265,85.39,89,12,1,243,331,11,98,3e-18,91.6
Capronia_coronata_ATCC56201_T,ERR2674089.13265,85.39,89,12,1,231,319,11,98,3e-18,91.6
Capronia_parasitica_CBS123.88,ERR2674089.13265,85.39,89,12,1,237,325,11,98,3e-18,91.6
Veronaea_japonica_CBS776.83_T,ERR2674089.13265,85.39,89,12,1,265,353,11,98,3e-18,91.6
Thysanorea_papuana_CBS212.96_T,ERR2674089.13265,85.39,89,12,1,239,327,11,98,2e-18,91.6
Fonsecaea_brasiliensis_CBS119710_T,ERR2674089.13265,85.39,89,12,1,239,327,11,98,2e-18,91.6
Fonsecaea_pedrosoi_CBS271.37_T,ERR2674089.13265,85.39,89,12,1,267,355,11,98,3e-18,91.6
Fonsecaea_multimorphosa_CBS980.96_T,ERR2674089.13265,85.39,89,12,1,237,325,11,98,2e-18,91.6
Fonsecaea_minima_CBS125760_T,ERR2674089.13265,85.39,89,12,1,233,321,11,98,2e-18,91.6
Fonsecaea_nubica_CBS269.64_T,ERR2674089.13265,85.39,89,12,1,244,332,11,98,2e-18,91.6
Fonsecaea_erecta_CBS125763_T,ERR2674089.13265,85.39,89,12,1,228,316,11,98,2e-18,91.6
Fonsecaea_pugnacius_CBS139214_T,ERR2674089.13265,85.39,89,12,1,237,325,11,98,2e-18,91.6
Cladophialophora_psammophila_CBS,ERR2674089.13265,85.39,89,12,1,243,331,11,98,2e-18,91.6
Cladophialophora_devriesii_CBS,ERR2674089.13265,85.39,89,12,1,239,327,11,98,2e-18,91.6
Cladophialophora_immunda_CBS834.96,ERR2674089.13265,85.39,89,12,1,241,329,11,98,2e-18,91.6
Cladophialophora_arxii_CBS306.94_T,ERR2674089.13265,85.39,89,12,1,243,331,11,98,2e-18,91.6
Cladophialophora_bantiana_CBS173.52,ERR2674089.13265,85.39,89,12,1,237,325,11,98,2e-18,91.6
Cladophialophora_emmonsii_CBS102594,ERR2674089.13265,85.39,89,12,1,228,316,11,98,2e-18,91.6
Cladophialophora_minourae_CBS556.83,ERR2674089.13265,86.52,89,11,1,236,324,11,98,5e-20,97.1
Cladophialophora_australiensis_CBS112793,ERR2674089.13265,85.39,89,12,1,238,326,11,98,7e-18,91.6
Cladophialophora_potulentorum_CBS112222,ERR2674089.13265,85.39,89,12,1,237,325,11,98,7e-18,91.6
Cladophialophora_matsushimae_CMRP1198,ERR2674089.13265,85.39,89,12,1,241,329,11,98,2e-18,91.6
Cladophialophora_mycetomatis_CBS122637,ERR2674089.13265,85.39,89,12,1,226,314,11,98,2e-18,91.6
Cladophialophora_chaetospira_CBS127573,ERR2674089.13265,85.39,89,12,1,632,720,11,98,4e-18,91.6
Cladophialophora_boppii_CBS126.86_T,ERR2674089.13265,85.39,89,12,1,234,322,11,98,2e-18,91.6
Cladophialophora_abundans_CBS126736,ERR2674089.13265,86.52,89,11,1,171,259,11,98,4e-20,97.1
Capronia_semi-immersa_CBS102234,ERR2674089.13265,86.52,89,11,1,233,321,11,98,5e-20,97.1
Phialophora_americana_CBS400.67,ERR2674089.13265,86.52,89,11,1,235,323,11,98,1e-19,97.1
Phialophora_americana_CBS400.67,ERR2674089.28204,96.97,33,1,0,581,613,270,238,2e-07,56.5
Phialophora_verrucosa_CBS140325_T,ERR2674089.13265,86.52,89,11,1,239,327,11,98,5e-20,97.1
Cladophialophora_samoensis_CBS259.83_T,ERR2674089.13265,85.39,89,12,1,239,327,11,98,2e-18,91.6
Cladophialophora_carrionii_CBS260.83,ERR2674089.13265,85.39,89,12,1,255,343,11,98,3e-18,91.6
Exophiala_palmae_UPCB86822_T,ERR2674089.13265,85.39,89,12,1,198,286,11,98,2e-18,91.6
Cladophialophora_yegresii_CBS114405_T,ERR2674089.13265,85.39,89,12,1,240,328,11,98,2e-18,91.6
Knufia_epidermidis_CBS120353_T,ERR2674089.13265,85.39,89,12,1,238,326,11,98,2e-18,91.6
Arthrocladium_fulminans_CBS136243_T,ERR2674089.13265,85.39,89,12,1,233,321,11,98,2e-18,91.6
Anthopsis_deltoidea_CBS263.77_T,ERR2674089.13265,86.36,88,11,1,242,328,11,98,2e-19,95.3
Cyphellophora_laciniata_CBS190.61_T,ERR2674089.13265,86.36,88,11,1,327,413,11,98,2e-19,95.3
Cyphellophora_suttonii_CBS449.91,ERR2674089.13265,86.36,88,11,1,230,316,11,98,2e-19,95.3
Cyphellophora_pauciseptata_CBS284.85_T,ERR2674089.13265,86.36,88,11,1,241,327,11,98,2e-19,95.3
Cyphellophora_pluriseptata_CBS286.85_T,ERR2674089.13265,86.21,87,11,1,247,332,12,98,7e-19,93.5
Phialophora_europaea_CBS101466,ERR2674089.13265,86.36,88,11,1,236,322,11,98,2e-19,95.3
Phialophora_ambigua_CBS235.93,ERR2674089.13265,86.36,88,11,1,233,319,11,98,2e-19,95.3
Cladophialophora_modesta_CBS985.96_T,ERR2674089.13265,85.39,89,12,1,230,318,11,98,3e-18,91.6
Cyphellophora_fusarioides_MUCL44033_T,ERR2674089.13265,86.36,88,11,1,229,315,11,98,2e-19,95.3
