Exophiala_nigra_CBS535.94_T,ERR2438973.7635,92.42,132,9,1,243,374,6,136,4e-47,187
Exophiala_nigra_CBS535.94_T,ERR2438973.4207,92.37,131,8,2,243,373,5,133,1e-46,185
Exophiala_nigra_CBS535.94_T,ERR2438973.16164,87.58,153,14,5,240,391,2,150,1e-42,172
Exophiala_nigra_CBS535.94_T,ERR2438973.5535,93.16,117,7,1,243,359,5,120,4e-42,171
Exophiala_nigra_CBS535.94_T,ERR2438973.32260,88.03,117,13,1,243,359,6,121,4e-32,137
Exophiala_spinifera_CBS899.68_T,ERR2438973.7635,89.80,147,12,3,240,386,6,149,1e-46,185
Exophiala_spinifera_CBS899.68_T,ERR2438973.4207,89.19,148,12,4,240,387,5,148,2e-45,182
Exophiala_spinifera_CBS899.68_T,ERR2438973.16164,87.50,152,15,4,237,387,2,150,9e-43,172
Exophiala_spinifera_CBS899.68_T,ERR2438973.5535,92.31,117,8,1,240,356,5,120,2e-40,165
Exophiala_spinifera_CBS899.68_T,ERR2438973.32260,87.18,117,14,1,240,356,6,121,2e-30,132
Exophiala_exophialae_CBS668.76_T,ERR2438973.7635,89.80,147,12,3,241,387,6,149,1e-46,185
Exophiala_exophialae_CBS668.76_T,ERR2438973.4207,89.19,148,12,4,241,388,5,148,2e-45,182
Exophiala_exophialae_CBS668.76_T,ERR2438973.16164,87.50,152,15,4,238,388,2,150,9e-43,172
Exophiala_exophialae_CBS668.76_T,ERR2438973.5535,92.31,117,8,1,241,357,5,120,2e-40,165
Exophiala_exophialae_CBS668.76_T,ERR2438973.32260,87.18,117,14,1,241,357,6,121,2e-30,132
Exophiala_polymorpha_CBS138920_T,ERR2438973.7635,89.80,147,12,3,343,489,6,149,2e-46,185
Exophiala_polymorpha_CBS138920_T,ERR2438973.4207,89.19,148,12,4,343,490,5,148,2e-45,182
Exophiala_polymorpha_CBS138920_T,ERR2438973.16164,87.50,152,15,4,340,490,2,150,1e-42,172
Exophiala_polymorpha_CBS138920_T,ERR2438973.5535,92.31,117,8,1,343,459,5,120,2e-40,165
Exophiala_polymorpha_CBS138920_T,ERR2438973.32260,87.18,117,14,1,343,459,6,121,2e-30,132
Exophiala_polymorpha_CBS138920_T,ERR2438973.6713,92.98,57,4,0,638,694,365,309,6e-16,84.2
Exophiala_oligosperma_CBS725.88_T,ERR2438973.7635,89.80,147,12,3,253,399,6,149,1e-46,185
Exophiala_oligosperma_CBS725.88_T,ERR2438973.4207,89.19,148,12,4,253,400,5,148,2e-45,182
Exophiala_oligosperma_CBS725.88_T,ERR2438973.16164,87.50,152,15,4,250,400,2,150,1e-42,172
Exophiala_oligosperma_CBS725.88_T,ERR2438973.5535,92.31,117,8,1,253,369,5,120,2e-40,165
Exophiala_oligosperma_CBS725.88_T,ERR2438973.32260,87.18,117,14,1,253,369,6,121,2e-30,132
Exophiala_jeanselmei_CBS507.90_T,ERR2438973.7635,89.80,147,12,3,245,391,6,149,1e-46,185
Exophiala_jeanselmei_CBS507.90_T,ERR2438973.4207,89.19,148,12,4,245,392,5,148,2e-45,182
Exophiala_jeanselmei_CBS507.90_T,ERR2438973.16164,87.50,152,15,4,242,392,2,150,1e-42,172
Exophiala_jeanselmei_CBS507.90_T,ERR2438973.5535,92.31,117,8,1,245,361,5,120,2e-40,165
Exophiala_jeanselmei_CBS507.90_T,ERR2438973.32260,87.18,117,14,1,245,361,6,121,2e-30,132
Exophiala_jeanselmei_CBS507.90_T,ERR2438973.6713,95.00,60,3,0,544,603,361,302,2e-19,95.3
Exophiala_bergeri_CBS353.52,ERR2438973.7635,92.42,132,9,1,206,337,6,136,3e-47,187
Exophiala_bergeri_CBS353.52,ERR2438973.4207,89.93,149,10,4,206,354,5,148,3e-47,187
Exophiala_bergeri_CBS353.52,ERR2438973.5535,93.16,117,7,1,206,322,5,120,3e-42,171
Exophiala_bergeri_CBS353.52,ERR2438973.16164,87.33,150,14,5,203,350,2,148,4e-41,167
Exophiala_bergeri_CBS353.52,ERR2438973.32260,88.03,117,13,1,206,322,6,121,3e-32,137
Exophiala_moniliae_CBS520.76_T,ERR2438973.7635,92.42,132,9,1,243,374,6,136,4e-47,187
Exophiala_moniliae_CBS520.76_T,ERR2438973.4207,91.60,131,9,2,243,373,5,133,6e-45,180
Exophiala_moniliae_CBS520.76_T,ERR2438973.5535,93.22,118,7,1,243,360,5,121,1e-42,172
Exophiala_moniliae_CBS520.76_T,ERR2438973.16164,87.68,138,14,3,240,376,2,137,3e-38,158
Exophiala_moniliae_CBS520.76_T,ERR2438973.32260,88.14,118,13,1,243,360,6,122,1e-32,139
Exophiala_pisciphila_CBS537.73_T,ERR2438973.7635,91.16,147,10,3,246,392,6,149,7e-50,196
Exophiala_pisciphila_CBS537.73_T,ERR2438973.4207,89.86,148,11,4,246,393,5,148,4e-47,187
Exophiala_pisciphila_CBS537.73_T,ERR2438973.16164,88.16,152,14,4,243,393,2,150,2e-44,178
Exophiala_pisciphila_CBS537.73_T,ERR2438973.5535,93.22,118,7,1,246,363,5,121,1e-42,172
Exophiala_pisciphila_CBS537.73_T,ERR2438973.32260,88.14,118,13,1,246,363,6,122,1e-32,139
Exophiala_xenobiotica_CBS117642,ERR2438973.7635,90.48,147,11,3,238,384,6,149,3e-48,191
Exophiala_xenobiotica_CBS117642,ERR2438973.4207,89.86,148,11,4,238,385,5,148,3e-47,187
Exophiala_xenobiotica_CBS117642,ERR2438973.16164,88.16,152,14,4,235,385,2,150,2e-44,178
Exophiala_xenobiotica_CBS117642,ERR2438973.5535,93.16,117,7,1,238,354,5,120,3e-42,171
Exophiala_xenobiotica_CBS117642,ERR2438973.32260,88.03,117,13,1,238,354,6,121,3e-32,137
Exophiala_brunnea_CBS,ERR2438973.7635,90.48,147,11,3,274,420,6,149,3e-48,191
Exophiala_brunnea_CBS,ERR2438973.4207,89.19,148,12,4,274,421,5,148,2e-45,182
Exophiala_brunnea_CBS,ERR2438973.16164,87.50,152,15,4,271,421,2,150,1e-42,172
Exophiala_brunnea_CBS,ERR2438973.32260,87.29,118,14,1,274,391,6,122,5e-31,134
Exophiala_nishimurae_CBS101538_T,ERR2438973.7635,89.80,147,12,3,252,398,6,149,1e-46,185
Exophiala_nishimurae_CBS101538_T,ERR2438973.4207,89.19,148,12,4,252,399,5,148,2e-45,182
Exophiala_nishimurae_CBS101538_T,ERR2438973.16164,87.50,152,15,4,249,399,2,150,1e-42,172
Exophiala_nishimurae_CBS101538_T,ERR2438973.5535,92.31,117,8,1,252,368,5,120,2e-40,165
Exophiala_nishimurae_CBS101538_T,ERR2438973.32260,87.18,117,14,1,252,368,6,121,2e-30,132
Exophiala_nishimurae_CBS101538_T,ERR2438973.6713,95.12,41,2,0,551,591,361,321,2e-10,65.8
Exophiala_mesophila_CBS402.95_T,ERR2438973.7635,92.42,132,9,1,236,367,6,136,4e-47,187
Exophiala_mesophila_CBS402.95_T,ERR2438973.4207,91.60,131,9,2,236,366,5,133,7e-45,180
Exophiala_mesophila_CBS402.95_T,ERR2438973.16164,87.68,138,14,3,233,369,2,137,3e-38,158
Exophiala_mesophila_CBS402.95_T,ERR2438973.32260,87.29,118,14,1,236,353,6,122,5e-31,134
Exophiala_mesophila_CBS402.95_T,ERR2438973.6713,95.00,60,3,0,550,609,361,302,3e-19,95.3
Exophiala_castellanii_CBS158.58_T,ERR2438973.7635,92.42,132,9,1,234,365,6,136,4e-47,187
Exophiala_castellanii_CBS158.58_T,ERR2438973.4207,91.60,131,9,2,234,364,5,133,7e-45,180
Exophiala_castellanii_CBS158.58_T,ERR2438973.16164,87.68,138,14,3,231,367,2,137,3e-38,158
Exophiala_castellanii_CBS158.58_T,ERR2438973.32260,87.29,118,14,1,234,351,6,122,5e-31,134
Exophiala_castellanii_CBS158.58_T,ERR2438973.6713,95.00,60,3,0,549,608,361,302,3e-19,95.3
Exophiala_lecanii-corni_CBS123.33_T,ERR2438973.7635,91.67,132,10,1,257,388,6,136,2e-45,182
Exophiala_lecanii-corni_CBS123.33_T,ERR2438973.4207,90.84,131,10,2,257,387,5,133,3e-43,174
Exophiala_lecanii-corni_CBS123.33_T,ERR2438973.16164,86.96,138,15,3,254,390,2,137,1e-36,152
Exophiala_lecanii-corni_CBS123.33_T,ERR2438973.32260,87.29,118,14,1,257,374,6,122,5e-31,134
Exophiala_dermatitidis_CBS748.88,ERR2438973.7635,93.18,132,8,1,249,380,6,136,2e-48,193
Exophiala_dermatitidis_CBS748.88,ERR2438973.4207,92.37,131,8,2,249,379,5,133,3e-46,185
Exophiala_dermatitidis_CBS748.88,ERR2438973.16164,87.58,153,14,5,246,397,2,150,3e-42,172
Exophiala_dermatitidis_CBS748.88,ERR2438973.5535,93.22,118,7,1,249,366,5,121,3e-42,172
Exophiala_dermatitidis_CBS748.88,ERR2438973.32260,88.14,118,13,1,249,366,6,122,3e-32,139
Exophiala_dermatitidis_CBS748.88,ERR2438973.6713,95.00,60,3,0,575,634,361,302,6e-19,95.3
Exophiala_angulospora_CBS482.92_T,ERR2438973.7635,89.17,157,11,5,240,396,6,156,3e-48,191
Exophiala_angulospora_CBS482.92_T,ERR2438973.4207,92.19,128,8,2,240,367,5,130,6e-45,180
Exophiala_angulospora_CBS482.92_T,ERR2438973.16164,87.58,153,14,5,237,388,2,150,1e-42,172
Exophiala_angulospora_CBS482.92_T,ERR2438973.5535,93.22,118,7,1,240,357,5,121,1e-42,172
Exophiala_angulospora_CBS482.92_T,ERR2438973.32260,88.14,118,13,1,240,357,6,122,1e-32,139
Exophiala_opportunistica_CBS109811_T,ERR2438973.7635,91.84,147,9,3,239,385,6,149,1e-51,202
Exophiala_opportunistica_CBS109811_T,ERR2438973.4207,90.54,148,10,4,239,386,5,148,8e-49,193
Exophiala_opportunistica_CBS109811_T,ERR2438973.16164,87.50,152,15,4,236,386,2,150,1e-42,172
Exophiala_opportunistica_CBS109811_T,ERR2438973.5535,93.22,118,7,1,239,356,5,121,1e-42,172
Exophiala_opportunistica_CBS109811_T,ERR2438973.32260,88.14,118,13,1,239,356,6,122,1e-32,139
Exophiala_salmonis_CBS157.67_T,ERR2438973.7635,91.16,147,10,3,368,514,6,149,8e-50,196
Exophiala_salmonis_CBS157.67_T,ERR2438973.4207,89.86,148,11,4,368,515,5,148,5e-47,187
Exophiala_salmonis_CBS157.67_T,ERR2438973.16164,88.16,152,14,4,365,515,2,150,3e-44,178
Exophiala_salmonis_CBS157.67_T,ERR2438973.5535,93.22,118,7,1,368,485,5,121,1e-42,172
Exophiala_salmonis_CBS157.67_T,ERR2438973.32260,88.14,118,13,1,368,485,6,122,1e-32,139
Exophiala_aquamarina_CBS119918_T,ERR2438973.7635,91.22,148,9,3,246,393,6,149,2e-50,198
Exophiala_aquamarina_CBS119918_T,ERR2438973.4207,89.93,149,10,5,246,394,5,148,3e-47,187
Exophiala_aquamarina_CBS119918_T,ERR2438973.16164,87.58,153,14,5,243,394,2,150,1e-42,172
Exophiala_aquamarina_CBS119918_T,ERR2438973.5535,93.22,118,7,1,246,363,5,121,1e-42,172
Exophiala_aquamarina_CBS119918_T,ERR2438973.32260,88.14,118,13,1,246,363,6,122,1e-32,139
Exophiala_cancerae_CBS120420_T,ERR2438973.7635,91.84,147,9,3,261,407,6,149,1e-51,202
Exophiala_cancerae_CBS120420_T,ERR2438973.4207,90.54,148,10,4,261,408,5,148,8e-49,193
Exophiala_cancerae_CBS120420_T,ERR2438973.16164,87.50,152,15,4,258,408,2,150,1e-42,172
Exophiala_cancerae_CBS120420_T,ERR2438973.5535,93.22,118,7,1,261,378,5,121,1e-42,172
Exophiala_cancerae_CBS120420_T,ERR2438973.32260,88.14,118,13,1,261,378,6,122,1e-32,139
Exophiala_tremulae_CBS129355,ERR2438973.7635,91.84,147,9,2,273,419,6,149,1e-51,202
Exophiala_tremulae_CBS129355,ERR2438973.4207,90.54,148,10,4,273,420,5,148,8e-49,193
Exophiala_tremulae_CBS129355,ERR2438973.16164,88.16,152,14,4,270,420,2,150,2e-44,178
Exophiala_tremulae_CBS129355,ERR2438973.5535,93.22,118,7,1,273,390,5,121,1e-42,172
Exophiala_tremulae_CBS129355,ERR2438973.32260,88.14,118,13,1,273,390,6,122,1e-32,139
Exophiala_equina_CBS116009,ERR2438973.7635,91.84,147,9,2,239,385,6,149,1e-51,202
Exophiala_equina_CBS116009,ERR2438973.4207,90.54,148,10,4,239,386,5,148,8e-49,193
Exophiala_equina_CBS116009,ERR2438973.16164,88.16,152,14,4,236,386,2,150,2e-44,178
Exophiala_equina_CBS116009,ERR2438973.5535,93.22,118,7,1,239,356,5,121,1e-42,172
Exophiala_equina_CBS116009,ERR2438973.32260,88.14,118,13,1,239,356,6,122,1e-32,139
Exophiala_alcalophila_CBS520.82_T,ERR2438973.7635,92.42,132,9,1,250,381,6,136,4e-47,187
Exophiala_alcalophila_CBS520.82_T,ERR2438973.4207,91.60,131,9,2,250,380,5,133,6e-45,180
Exophiala_alcalophila_CBS520.82_T,ERR2438973.16164,87.58,153,14,5,247,398,2,150,1e-42,172
Exophiala_alcalophila_CBS520.82_T,ERR2438973.5535,93.22,118,7,1,250,367,5,121,1e-42,172
Exophiala_alcalophila_CBS520.82_T,ERR2438973.32260,88.14,118,13,1,250,367,6,122,1e-32,139
Exophiala_crusticola_CBS119970_T,ERR2438973.7635,93.18,132,8,1,255,386,6,136,7e-49,193
Exophiala_crusticola_CBS119970_T,ERR2438973.4207,89.93,149,10,4,255,403,5,148,3e-47,187
Exophiala_crusticola_CBS119970_T,ERR2438973.16164,88.00,150,13,5,252,399,2,148,1e-42,172
Exophiala_crusticola_CBS119970_T,ERR2438973.5535,93.22,118,7,1,255,372,5,121,1e-42,172
Exophiala_crusticola_CBS119970_T,ERR2438973.32260,88.14,118,13,1,255,372,6,122,1e-32,139
Rhinocladiella_atrovirens_CBS264.49,ERR2438973.7635,91.67,132,10,1,281,412,6,136,2e-45,182
Rhinocladiella_atrovirens_CBS264.49,ERR2438973.4207,90.84,131,10,2,281,411,5,133,3e-43,174
Rhinocladiella_atrovirens_CBS264.49,ERR2438973.16164,86.96,138,15,3,278,414,2,137,1e-36,152
Rhinocladiella_atrovirens_CBS264.49,ERR2438973.32260,87.29,118,14,1,281,398,6,122,5e-31,134
Rhinocladiella_basitona_CBS101460_T,ERR2438973.7635,89.80,147,12,3,240,386,6,149,1e-46,185
Rhinocladiella_basitona_CBS101460_T,ERR2438973.4207,89.19,148,12,4,240,387,5,148,2e-45,182
Rhinocladiella_basitona_CBS101460_T,ERR2438973.16164,87.50,152,15,4,237,387,2,150,9e-43,172
Rhinocladiella_basitona_CBS101460_T,ERR2438973.5535,92.31,117,8,1,240,356,5,120,2e-40,165
Rhinocladiella_basitona_CBS101460_T,ERR2438973.32260,87.18,117,14,1,240,356,6,121,2e-30,132
Rhinocladiella_phaeophora_CBS496.78_T,ERR2438973.7635,93.18,132,8,1,248,379,6,136,8e-49,193
Rhinocladiella_phaeophora_CBS496.78_T,ERR2438973.4207,92.37,131,8,2,248,378,5,133,1e-46,185
Rhinocladiella_phaeophora_CBS496.78_T,ERR2438973.5535,93.22,118,7,1,248,365,5,121,1e-42,172
Rhinocladiella_phaeophora_CBS496.78_T,ERR2438973.16164,87.01,154,14,6,245,397,2,150,1e-41,169
Rhinocladiella_phaeophora_CBS496.78_T,ERR2438973.32260,88.14,118,13,1,248,365,6,122,1e-32,139
Rhinocladiella_aquaspersa_CBS313.73_T,ERR2438973.7635,93.18,132,8,1,242,373,6,136,9e-49,193
Rhinocladiella_aquaspersa_CBS313.73_T,ERR2438973.4207,92.37,131,8,2,242,372,5,133,1e-46,185
Rhinocladiella_aquaspersa_CBS313.73_T,ERR2438973.5535,93.22,118,7,1,242,359,5,121,1e-42,172
Rhinocladiella_aquaspersa_CBS313.73_T,ERR2438973.16164,87.01,154,14,6,239,391,2,150,1e-41,169
Rhinocladiella_aquaspersa_CBS313.73_T,ERR2438973.32260,88.14,118,13,1,242,359,6,122,1e-32,139
Rhinocladiella_fasciculata_CBS132.86_T,ERR2438973.7635,91.67,132,10,1,258,389,6,136,2e-45,182
Rhinocladiella_fasciculata_CBS132.86_T,ERR2438973.4207,90.84,131,10,2,258,388,5,133,3e-43,174
Rhinocladiella_fasciculata_CBS132.86_T,ERR2438973.5535,92.37,118,8,1,258,375,5,121,5e-41,167
Rhinocladiella_fasciculata_CBS132.86_T,ERR2438973.16164,85.81,155,15,6,255,408,2,150,3e-38,158
Rhinocladiella_fasciculata_CBS132.86_T,ERR2438973.32260,88.98,118,12,1,258,375,6,122,2e-34,145
Rhinocladiella_anceps_CBS181.65_T,ERR2438973.7635,88.27,162,13,5,240,401,6,161,1e-47,189
Rhinocladiella_anceps_CBS181.65_T,ERR2438973.4207,90.84,131,10,2,240,370,5,133,3e-43,174
Rhinocladiella_anceps_CBS181.65_T,ERR2438973.16164,86.27,153,16,5,237,388,2,150,2e-39,161
Rhinocladiella_anceps_CBS181.65_T,ERR2438973.32260,87.29,118,14,1,240,357,6,122,5e-31,134
Rhinocladiella_mackenziei_CBS367.92,ERR2438973.7635,92.31,130,9,1,229,358,6,134,5e-46,183
Rhinocladiella_mackenziei_CBS367.92,ERR2438973.4207,91.54,130,9,2,229,358,5,132,2e-44,178
Rhinocladiella_mackenziei_CBS367.92,ERR2438973.5535,93.22,118,7,1,229,346,5,121,1e-42,172
Rhinocladiella_mackenziei_CBS367.92,ERR2438973.16164,87.77,139,13,4,226,363,2,137,8e-39,159
Rhinocladiella_mackenziei_CBS367.92,ERR2438973.32260,88.14,118,13,1,229,346,6,122,1e-32,139
Veronaea_compacta_CBS268.75_T,ERR2438973.7635,89.86,148,11,4,262,409,6,149,4e-47,187
Veronaea_compacta_CBS268.75_T,ERR2438973.4207,88.59,149,12,5,262,410,5,148,8e-44,176
Veronaea_compacta_CBS268.75_T,ERR2438973.16164,86.93,153,15,5,259,410,2,150,5e-41,167
Veronaea_compacta_CBS268.75_T,ERR2438973.32260,87.29,118,14,1,262,379,6,122,5e-31,134
Capronia_pilosella_AFTOL-ID657,ERR2438973.7635,91.22,148,9,3,340,487,6,149,2e-50,198
Capronia_pilosella_AFTOL-ID657,ERR2438973.4207,89.93,149,10,4,340,488,5,148,4e-47,187
Capronia_pilosella_AFTOL-ID657,ERR2438973.16164,88.24,153,13,5,337,488,2,150,3e-44,178
Capronia_pilosella_AFTOL-ID657,ERR2438973.5535,93.22,118,7,1,340,457,5,121,1e-42,172
Capronia_pilosella_AFTOL-ID657,ERR2438973.32260,88.14,118,13,1,340,457,6,122,1e-32,139
Capronia_pilosella_AFTOL-ID657,ERR2438973.6713,95.12,41,2,0,643,683,361,321,2e-10,65.8
Capronia_dactylotricha_DAOM208471_T,ERR2438973.7635,92.48,133,8,2,242,374,6,136,1e-47,189
Capronia_dactylotricha_DAOM208471_T,ERR2438973.4207,91.67,132,8,2,242,373,5,133,7e-45,180
Capronia_dactylotricha_DAOM208471_T,ERR2438973.5535,93.22,118,7,1,242,359,5,121,1e-42,172
Capronia_dactylotricha_DAOM208471_T,ERR2438973.16164,87.77,139,13,3,239,376,2,137,9e-39,159
Capronia_dactylotricha_DAOM208471_T,ERR2438973.32260,88.14,118,13,1,242,359,6,122,1e-32,139
Capronia_kleinmondensis_CBS122671_T,ERR2438973.7635,91.67,132,10,1,267,398,6,136,2e-45,182
Capronia_kleinmondensis_CBS122671_T,ERR2438973.4207,90.84,131,10,2,267,397,5,133,3e-43,174
Capronia_kleinmondensis_CBS122671_T,ERR2438973.16164,86.96,138,15,3,264,400,2,137,2e-36,152
Capronia_kleinmondensis_CBS122671_T,ERR2438973.32260,87.29,118,14,1,267,384,6,122,6e-31,134
Capronia_mansonii_CBS101.67_T,ERR2438973.7635,91.22,148,9,4,253,400,6,149,2e-50,198
Capronia_mansonii_CBS101.67_T,ERR2438973.4207,89.93,149,10,4,253,401,5,148,4e-47,187
Capronia_mansonii_CBS101.67_T,ERR2438973.16164,87.58,153,14,5,250,401,2,150,1e-42,172
Capronia_mansonii_CBS101.67_T,ERR2438973.5535,93.22,118,7,1,253,370,5,121,1e-42,172
Capronia_mansonii_CBS101.67_T,ERR2438973.32260,88.14,118,13,1,253,370,6,122,1e-32,139
Capronia_mansonii_CBS101.67_T,ERR2438973.6713,95.00,60,3,0,568,627,361,302,3e-19,95.3
Capronia_munkii_DAOM216390_T,ERR2438973.7635,91.22,148,9,4,253,400,6,149,2e-50,198
Capronia_munkii_DAOM216390_T,ERR2438973.4207,89.93,149,10,4,253,401,5,148,4e-47,187
Capronia_munkii_DAOM216390_T,ERR2438973.16164,87.58,153,14,5,250,401,2,150,1e-42,172
Capronia_munkii_DAOM216390_T,ERR2438973.5535,93.22,118,7,1,253,370,5,121,1e-42,172
Capronia_munkii_DAOM216390_T,ERR2438973.32260,88.14,118,13,1,253,370,6,122,1e-32,139
Capronia_munkii_DAOM216390_T,ERR2438973.6713,95.00,60,3,0,568,627,361,302,3e-19,95.3
Capronia_coronata_ATCC56201_T,ERR2438973.7635,92.42,132,9,1,241,372,6,136,4e-47,187
Capronia_coronata_ATCC56201_T,ERR2438973.4207,92.19,128,8,2,241,368,5,130,7e-45,180
Capronia_coronata_ATCC56201_T,ERR2438973.16164,87.58,153,14,5,238,389,2,150,1e-42,172
Capronia_coronata_ATCC56201_T,ERR2438973.5535,93.22,118,7,1,241,358,5,121,1e-42,172
Capronia_coronata_ATCC56201_T,ERR2438973.32260,88.14,118,13,1,241,358,6,122,1e-32,139
Capronia_coronata_ATCC56201_T,ERR2438973.6713,95.00,60,3,0,539,598,361,302,2e-19,95.3
Capronia_parasitica_CBS123.88,ERR2438973.7635,92.25,129,9,1,247,375,6,133,2e-45,182
Capronia_parasitica_CBS123.88,ERR2438973.4207,91.47,129,9,2,247,375,5,131,8e-44,176
Capronia_parasitica_CBS123.88,ERR2438973.5535,93.22,118,7,1,247,364,5,121,1e-42,172
Capronia_parasitica_CBS123.88,ERR2438973.16164,85.16,155,16,7,244,397,2,150,1e-36,152
Capronia_parasitica_CBS123.88,ERR2438973.32260,88.14,118,13,1,247,364,6,122,1e-32,139
Veronaea_japonica_CBS776.83_T,ERR2438973.7635,91.16,147,10,3,275,421,6,149,6e-50,196
Veronaea_japonica_CBS776.83_T,ERR2438973.4207,89.86,148,11,4,275,422,5,148,4e-47,187
Veronaea_japonica_CBS776.83_T,ERR2438973.16164,88.16,152,14,4,272,422,2,150,2e-44,178
Veronaea_japonica_CBS776.83_T,ERR2438973.5535,93.22,118,7,1,275,392,5,121,1e-42,172
Veronaea_japonica_CBS776.83_T,ERR2438973.32260,88.14,118,13,1,275,392,6,122,1e-32,139
Thysanorea_papuana_CBS212.96_T,ERR2438973.7635,91.84,147,9,3,249,395,6,149,1e-51,202
Thysanorea_papuana_CBS212.96_T,ERR2438973.4207,90.54,148,10,3,249,396,5,148,8e-49,193
Thysanorea_papuana_CBS212.96_T,ERR2438973.16164,88.16,152,14,4,246,396,2,150,2e-44,178
Thysanorea_papuana_CBS212.96_T,ERR2438973.5535,93.22,118,7,1,249,366,5,121,1e-42,172
Thysanorea_papuana_CBS212.96_T,ERR2438973.32260,88.14,118,13,1,249,366,6,122,1e-32,139
Capronia_acutiseta_ATCC56428_T,ERR2438973.7635,92.48,133,8,2,243,374,6,137,1e-47,189
Capronia_acutiseta_ATCC56428_T,ERR2438973.4207,92.25,129,7,3,243,370,5,131,7e-45,180
Capronia_acutiseta_ATCC56428_T,ERR2438973.5535,93.22,118,6,2,243,359,5,121,1e-42,172
Capronia_acutiseta_ATCC56428_T,ERR2438973.16164,86.36,154,14,7,240,391,2,150,2e-39,161
Capronia_acutiseta_ATCC56428_T,ERR2438973.32260,88.14,118,12,2,243,359,6,122,1e-32,139
Fonsecaea_brasiliensis_CBS119710_T,ERR2438973.7635,90.54,148,10,3,249,396,6,149,7e-49,193
Fonsecaea_brasiliensis_CBS119710_T,ERR2438973.4207,89.93,149,10,4,249,397,5,148,3e-47,187
Fonsecaea_brasiliensis_CBS119710_T,ERR2438973.16164,87.58,153,14,5,246,397,2,150,1e-42,172
Fonsecaea_brasiliensis_CBS119710_T,ERR2438973.5535,93.22,118,7,1,249,366,5,121,1e-42,172
Fonsecaea_brasiliensis_CBS119710_T,ERR2438973.32260,88.14,118,13,1,249,366,6,122,1e-32,139
Fonsecaea_pedrosoi_CBS271.37_T,ERR2438973.7635,90.60,149,9,4,277,425,6,149,9e-49,193
Fonsecaea_pedrosoi_CBS271.37_T,ERR2438973.4207,89.33,150,10,5,277,426,5,148,5e-46,183
Fonsecaea_pedrosoi_CBS271.37_T,ERR2438973.5535,93.22,118,7,1,277,394,5,121,1e-42,172
Fonsecaea_pedrosoi_CBS271.37_T,ERR2438973.16164,87.01,154,14,6,274,426,2,150,1e-41,169
Fonsecaea_pedrosoi_CBS271.37_T,ERR2438973.32260,88.14,118,13,1,277,394,6,122,1e-32,139
Fonsecaea_pedrosoi_CBS271.37_T,ERR2438973.6713,95.00,60,3,0,585,644,361,302,3e-19,95.3
Fonsecaea_multimorphosa_CBS980.96_T,ERR2438973.7635,91.22,148,9,3,247,394,6,149,2e-50,198
Fonsecaea_multimorphosa_CBS980.96_T,ERR2438973.4207,89.93,149,10,5,247,395,5,148,3e-47,187
Fonsecaea_multimorphosa_CBS980.96_T,ERR2438973.5535,93.22,118,7,1,247,364,5,121,1e-42,172
Fonsecaea_multimorphosa_CBS980.96_T,ERR2438973.16164,86.93,153,15,5,244,395,2,150,4e-41,167
Fonsecaea_multimorphosa_CBS980.96_T,ERR2438973.32260,88.14,118,13,1,247,364,6,122,1e-32,139
Fonsecaea_minima_CBS125760_T,ERR2438973.7635,90.54,148,10,3,243,390,6,149,7e-49,193
Fonsecaea_minima_CBS125760_T,ERR2438973.4207,89.93,149,10,4,243,391,5,148,3e-47,187
Fonsecaea_minima_CBS125760_T,ERR2438973.16164,87.58,153,14,5,240,391,2,150,9e-43,172
Fonsecaea_minima_CBS125760_T,ERR2438973.5535,93.22,118,7,1,243,360,5,121,9e-43,172
Fonsecaea_minima_CBS125760_T,ERR2438973.32260,88.14,118,13,1,243,360,6,122,1e-32,139
Fonsecaea_nubica_CBS269.64_T,ERR2438973.7635,90.60,149,9,4,254,402,6,149,8e-49,193
Fonsecaea_nubica_CBS269.64_T,ERR2438973.4207,89.33,150,10,5,254,403,5,148,5e-46,183
Fonsecaea_nubica_CBS269.64_T,ERR2438973.5535,93.22,118,7,1,254,371,5,121,1e-42,172
Fonsecaea_nubica_CBS269.64_T,ERR2438973.16164,87.01,154,14,6,251,403,2,150,1e-41,169
Fonsecaea_nubica_CBS269.64_T,ERR2438973.32260,88.14,118,13,1,254,371,6,122,1e-32,139
Fonsecaea_monophora_CBS269.37_T,ERR2438973.7635,90.00,150,9,5,254,403,6,149,1e-47,189
Fonsecaea_monophora_CBS269.37_T,ERR2438973.4207,88.74,151,10,6,254,404,5,148,2e-44,178
Fonsecaea_monophora_CBS269.37_T,ERR2438973.5535,92.44,119,7,2,254,372,5,121,1e-41,169
Fonsecaea_monophora_CBS269.37_T,ERR2438973.16164,86.45,155,14,7,251,404,2,150,6e-40,163
Fonsecaea_monophora_CBS269.37_T,ERR2438973.32260,87.39,119,13,2,254,372,6,122,1e-31,135
Fonsecaea_erecta_CBS125763_T,ERR2438973.7635,91.22,148,9,3,238,385,6,149,2e-50,198
Fonsecaea_erecta_CBS125763_T,ERR2438973.4207,89.93,149,10,4,238,386,5,148,3e-47,187
Fonsecaea_erecta_CBS125763_T,ERR2438973.16164,87.58,153,14,5,235,386,2,150,9e-43,172
Fonsecaea_erecta_CBS125763_T,ERR2438973.5535,93.22,118,7,1,238,355,5,121,9e-43,172
Fonsecaea_erecta_CBS125763_T,ERR2438973.32260,88.14,118,13,1,238,355,6,122,9e-33,139
Fonsecaea_pugnacius_CBS139214_T,ERR2438973.7635,92.48,133,8,2,247,379,6,136,9e-48,189
Fonsecaea_pugnacius_CBS139214_T,ERR2438973.4207,91.67,132,8,3,247,378,5,133,6e-45,180
Fonsecaea_pugnacius_CBS139214_T,ERR2438973.5535,93.22,118,7,1,247,364,5,121,9e-43,172
Fonsecaea_pugnacius_CBS139214_T,ERR2438973.16164,86.45,155,14,7,244,397,2,150,6e-40,163
Fonsecaea_pugnacius_CBS139214_T,ERR2438973.32260,88.14,118,13,1,247,364,6,122,1e-32,139
Cladophialophora_psammophila_CBS,ERR2438973.7635,91.22,148,9,3,253,400,6,149,2e-50,198
Cladophialophora_psammophila_CBS,ERR2438973.4207,89.93,149,10,4,253,401,5,148,4e-47,187
Cladophialophora_psammophila_CBS,ERR2438973.16164,87.58,153,14,5,250,401,2,150,1e-42,172
Cladophialophora_psammophila_CBS,ERR2438973.5535,93.22,118,7,1,253,370,5,121,1e-42,172
Cladophialophora_psammophila_CBS,ERR2438973.32260,88.14,118,13,1,253,370,6,122,1e-32,139
Cladophialophora_devriesii_CBS,ERR2438973.7635,91.22,148,9,3,249,396,6,149,2e-50,198
Cladophialophora_devriesii_CBS,ERR2438973.4207,89.93,149,10,5,249,397,5,148,3e-47,187
Cladophialophora_devriesii_CBS,ERR2438973.5535,93.22,118,7,1,249,366,5,121,9e-43,172
Cladophialophora_devriesii_CBS,ERR2438973.16164,86.93,153,15,5,246,397,2,150,4e-41,167
Cladophialophora_devriesii_CBS,ERR2438973.32260,88.14,118,13,1,249,366,6,122,9e-33,139
Cladophialophora_immunda_CBS834.96,ERR2438973.7635,90.54,148,10,3,251,398,6,149,7e-49,193
Cladophialophora_immunda_CBS834.96,ERR2438973.4207,89.93,149,10,4,251,399,5,148,3e-47,187
Cladophialophora_immunda_CBS834.96,ERR2438973.16164,87.58,153,14,5,248,399,2,150,1e-42,172
Cladophialophora_immunda_CBS834.96,ERR2438973.5535,93.22,118,7,1,251,368,5,121,1e-42,172
Cladophialophora_immunda_CBS834.96,ERR2438973.32260,88.14,118,13,1,251,368,6,122,1e-32,139
Cladophialophora_arxii_CBS306.94_T,ERR2438973.7635,90.00,150,9,4,253,402,6,149,1e-47,189
Cladophialophora_arxii_CBS306.94_T,ERR2438973.4207,88.74,151,10,5,253,403,5,148,2e-44,178
Cladophialophora_arxii_CBS306.94_T,ERR2438973.5535,93.22,118,7,1,253,370,5,121,1e-42,172
Cladophialophora_arxii_CBS306.94_T,ERR2438973.16164,86.45,155,14,6,250,403,2,150,6e-40,163
Cladophialophora_arxii_CBS306.94_T,ERR2438973.32260,88.14,118,13,1,253,370,6,122,1e-32,139
Cladophialophora_bantiana_CBS173.52,ERR2438973.7635,91.22,148,9,3,247,394,6,149,2e-50,198
Cladophialophora_bantiana_CBS173.52,ERR2438973.4207,89.93,149,10,4,247,395,5,148,3e-47,187
Cladophialophora_bantiana_CBS173.52,ERR2438973.16164,87.58,153,14,5,244,395,2,150,1e-42,172
Cladophialophora_bantiana_CBS173.52,ERR2438973.5535,93.22,118,7,1,247,364,5,121,1e-42,172
Cladophialophora_bantiana_CBS173.52,ERR2438973.32260,88.14,118,13,1,247,364,6,122,1e-32,139
Cladophialophora_emmonsii_CBS102594,ERR2438973.7635,89.87,158,9,5,238,395,6,156,6e-50,196
Cladophialophora_emmonsii_CBS102594,ERR2438973.4207,92.37,131,8,2,238,368,5,133,1e-46,185
Cladophialophora_emmonsii_CBS102594,ERR2438973.5535,93.22,118,7,1,238,355,5,121,1e-42,172
Cladophialophora_emmonsii_CBS102594,ERR2438973.16164,87.01,154,14,6,235,387,2,150,1e-41,169
Cladophialophora_emmonsii_CBS102594,ERR2438973.32260,88.14,118,13,1,238,355,6,122,1e-32,139
Cladophialophora_minourae_CBS556.83,ERR2438973.7635,90.30,134,10,3,246,379,6,136,1e-42,172
Cladophialophora_minourae_CBS556.83,ERR2438973.4207,86.67,150,14,5,246,395,5,148,6e-40,163
Cladophialophora_minourae_CBS556.83,ERR2438973.16164,85.06,154,17,6,243,395,2,150,1e-36,152
Cladophialophora_minourae_CBS556.83,ERR2438973.32260,86.67,120,13,3,246,365,6,122,6e-30,130
Cladophialophora_australiensis_CBS112793,ERR2438973.7635,89.74,156,11,4,248,403,6,156,6e-49,195
Cladophialophora_australiensis_CBS112793,ERR2438973.4207,89.86,148,11,3,248,395,5,148,9e-47,187
Cladophialophora_australiensis_CBS112793,ERR2438973.16164,87.50,152,15,4,245,395,2,150,3e-42,172
Cladophialophora_australiensis_CBS112793,ERR2438973.5535,92.37,118,8,1,248,365,5,121,1e-40,167
Cladophialophora_australiensis_CBS112793,ERR2438973.32260,88.98,118,12,1,248,365,6,122,6e-34,145
Cladophialophora_australiensis_CBS112793,ERR2438973.6713,95.00,60,3,0,546,605,361,302,6e-19,95.3
Cladophialophora_potulentorum_CBS112222,ERR2438973.7635,89.10,156,12,4,247,402,6,156,3e-47,189
Cladophialophora_potulentorum_CBS112222,ERR2438973.4207,89.19,148,12,3,247,394,5,148,4e-45,182
Cladophialophora_potulentorum_CBS112222,ERR2438973.16164,86.84,152,16,4,244,394,2,150,1e-40,167
Cladophialophora_potulentorum_CBS112222,ERR2438973.32260,88.14,118,13,1,247,364,6,122,3e-32,139
Cladophialophora_potulentorum_CBS112222,ERR2438973.6713,95.00,60,3,0,548,607,361,302,6e-19,95.3
Cladophialophora_matsushimae_CMRP1198,ERR2438973.7635,89.80,147,12,2,251,397,6,149,1e-46,185
Cladophialophora_matsushimae_CMRP1198,ERR2438973.4207,89.19,148,12,3,251,398,5,148,1e-45,182
Cladophialophora_matsushimae_CMRP1198,ERR2438973.16164,87.50,152,15,4,248,398,2,150,8e-43,172
Cladophialophora_matsushimae_CMRP1198,ERR2438973.32260,87.18,117,14,1,251,367,6,121,1e-30,132
Cladophialophora_mycetomatis_CBS122637,ERR2438973.7635,91.16,147,10,3,236,382,6,149,6e-50,196
Cladophialophora_mycetomatis_CBS122637,ERR2438973.4207,89.86,148,11,3,236,383,5,148,3e-47,187
Cladophialophora_mycetomatis_CBS122637,ERR2438973.16164,86.84,152,16,4,233,383,2,150,4e-41,167
Cladophialophora_mycetomatis_CBS122637,ERR2438973.32260,87.29,118,14,1,236,353,6,122,4e-31,134
Cladophialophora_chaetospira_CBS127573,ERR2438973.7635,91.84,147,9,3,642,788,6,149,2e-51,202
Cladophialophora_chaetospira_CBS127573,ERR2438973.4207,90.54,148,10,3,642,789,5,148,1e-48,193
Cladophialophora_chaetospira_CBS127573,ERR2438973.16164,87.50,152,15,4,639,789,2,150,2e-42,172
Cladophialophora_chaetospira_CBS127573,ERR2438973.5535,93.22,118,7,1,642,759,5,121,2e-42,172
Cladophialophora_chaetospira_CBS127573,ERR2438973.32260,88.14,118,13,1,642,759,6,122,2e-32,139
Cladophialophora_boppii_CBS126.86_T,ERR2438973.7635,91.16,147,10,2,244,390,6,149,6e-50,196
Cladophialophora_boppii_CBS126.86_T,ERR2438973.4207,89.86,148,11,4,244,391,5,148,3e-47,187
Cladophialophora_boppii_CBS126.86_T,ERR2438973.16164,87.50,152,15,4,241,391,2,150,9e-43,172
Cladophialophora_boppii_CBS126.86_T,ERR2438973.5535,93.22,118,7,1,244,361,5,121,9e-43,172
Cladophialophora_boppii_CBS126.86_T,ERR2438973.32260,88.14,118,13,1,244,361,6,122,1e-32,139
Cladophialophora_abundans_CBS126736,ERR2438973.7635,90.54,148,9,5,181,327,6,149,2e-48,191
Cladophialophora_abundans_CBS126736,ERR2438973.4207,89.86,148,11,3,181,328,5,148,3e-47,187
Cladophialophora_abundans_CBS126736,ERR2438973.16164,87.50,152,15,4,178,328,2,150,8e-43,172
Cladophialophora_abundans_CBS126736,ERR2438973.32260,88.98,118,12,1,181,298,6,122,2e-34,145
Capronia_semi-immersa_CBS102234,ERR2438973.7635,89.12,147,13,2,243,389,6,149,6e-45,180
Capronia_semi-immersa_CBS102234,ERR2438973.4207,88.51,148,13,3,243,390,5,148,7e-44,176
Capronia_semi-immersa_CBS102234,ERR2438973.16164,86.18,152,17,4,240,390,2,150,2e-39,161
Capronia_semi-immersa_CBS102234,ERR2438973.32260,87.29,118,14,1,243,360,6,122,4e-31,134
Phialophora_americana_CBS400.67,ERR2438973.7635,89.12,147,13,2,245,391,6,149,2e-44,180
Phialophora_americana_CBS400.67,ERR2438973.4207,88.51,148,13,3,245,392,5,148,2e-43,176
Phialophora_americana_CBS400.67,ERR2438973.16164,86.18,152,17,4,242,392,2,150,6e-39,161
Phialophora_americana_CBS400.67,ERR2438973.32260,87.29,118,14,1,245,362,6,122,1e-30,134
Phialophora_americana_CBS400.67,ERR2438973.6713,93.33,60,4,0,540,599,361,302,3e-17,89.8
Phialophora_verrucosa_CBS140325_T,ERR2438973.7635,89.12,147,13,2,249,395,6,149,6e-45,180
Phialophora_verrucosa_CBS140325_T,ERR2438973.4207,88.51,148,13,3,249,396,5,148,8e-44,176
Phialophora_verrucosa_CBS140325_T,ERR2438973.16164,86.18,152,17,4,246,396,2,150,2e-39,161
Phialophora_verrucosa_CBS140325_T,ERR2438973.32260,87.29,118,14,1,249,366,6,122,5e-31,134
Phialophora_verrucosa_CBS140325_T,ERR2438973.6713,95.12,41,2,0,546,586,361,321,2e-10,65.8
Cladophialophora_samoensis_CBS259.83_T,ERR2438973.4207,91.22,148,9,3,249,396,5,148,2e-50,198
Cladophialophora_samoensis_CBS259.83_T,ERR2438973.7635,89.47,152,10,5,249,399,6,152,3e-47,187
Cladophialophora_samoensis_CBS259.83_T,ERR2438973.16164,88.82,152,13,4,246,396,2,150,4e-46,183
Cladophialophora_samoensis_CBS259.83_T,ERR2438973.32260,88.98,118,12,1,249,366,6,122,2e-34,145
Cladophialophora_carrionii_CBS260.83,ERR2438973.7635,91.16,147,10,3,265,411,6,149,6e-50,196
Cladophialophora_carrionii_CBS260.83,ERR2438973.4207,89.86,148,11,3,265,412,5,148,4e-47,187
Cladophialophora_carrionii_CBS260.83,ERR2438973.16164,86.84,152,16,4,262,412,2,150,5e-41,167
Cladophialophora_carrionii_CBS260.83,ERR2438973.32260,87.29,118,14,1,265,382,6,122,5e-31,134
Cladophialophora_carrionii_CBS260.83,ERR2438973.6713,94.00,50,3,0,559,608,361,312,9e-14,76.8
Exophiala_palmae_UPCB86822_T,ERR2438973.7635,93.18,132,8,1,208,339,6,136,7e-49,193
Exophiala_palmae_UPCB86822_T,ERR2438973.4207,92.37,131,8,2,208,338,5,133,1e-46,185
Exophiala_palmae_UPCB86822_T,ERR2438973.5535,93.22,118,7,1,208,325,5,121,9e-43,172
Exophiala_palmae_UPCB86822_T,ERR2438973.16164,86.93,153,15,5,205,356,2,150,4e-41,167
Exophiala_palmae_UPCB86822_T,ERR2438973.32260,88.14,118,13,1,208,325,6,122,9e-33,139
Cladophialophora_yegresii_CBS114405_T,ERR2438973.7635,90.48,147,11,2,250,396,6,149,3e-48,191
Cladophialophora_yegresii_CBS114405_T,ERR2438973.4207,89.86,148,11,3,250,397,5,148,3e-47,187
Cladophialophora_yegresii_CBS114405_T,ERR2438973.16164,87.50,152,15,4,247,397,2,150,1e-42,172
Cladophialophora_yegresii_CBS114405_T,ERR2438973.32260,87.29,118,14,1,250,367,6,122,5e-31,134
Knufia_epidermidis_CBS120353_T,ERR2438973.16164,87.50,152,15,4,245,395,2,150,9e-43,172
Knufia_epidermidis_CBS120353_T,ERR2438973.4207,90.70,129,10,2,248,376,5,131,3e-42,171
Knufia_epidermidis_CBS120353_T,ERR2438973.7635,89.15,129,13,1,248,376,6,133,7e-39,159
Knufia_epidermidis_CBS120353_T,ERR2438973.32260,88.98,118,12,1,248,365,6,122,2e-34,145
Arthrocladium_fulminans_CBS136243_T,ERR2438973.7635,89.92,129,12,1,243,371,6,133,2e-40,165
Arthrocladium_fulminans_CBS136243_T,ERR2438973.4207,88.37,129,13,2,243,371,5,131,4e-37,154
Arthrocladium_fulminans_CBS136243_T,ERR2438973.16164,84.42,154,18,6,240,392,2,150,6e-35,147
Arthrocladium_fulminans_CBS136243_T,ERR2438973.32260,86.44,118,15,1,243,360,6,122,2e-29,128
Arthrocladium_fulminans_CBS136243_T,ERR2438973.6713,100.00,28,0,0,533,560,361,334,1e-06,52.8
Anthopsis_deltoidea_CBS263.77_T,ERR2438973.7635,90.28,144,13,1,252,394,6,149,3e-47,187
Anthopsis_deltoidea_CBS263.77_T,ERR2438973.5535,91.45,117,9,1,252,367,5,121,7e-39,159
Cyphellophora_laciniata_CBS190.61_T,ERR2438973.4207,90.34,145,12,2,337,480,5,148,1e-47,189
Cyphellophora_laciniata_CBS190.61_T,ERR2438973.7635,90.28,144,13,1,337,479,6,149,5e-47,187
Cyphellophora_laciniata_CBS190.61_T,ERR2438973.16164,88.08,151,12,6,334,480,2,150,4e-43,174
Cyphellophora_laciniata_CBS190.61_T,ERR2438973.16164,94.59,37,1,1,632,667,270,306,1e-07,56.5
Cyphellophora_laciniata_CBS190.61_T,ERR2438973.32260,89.74,117,11,1,337,452,6,122,2e-35,148
Cyphellophora_laciniata_CBS190.61_T,ERR2438973.6713,95.00,60,3,0,635,694,361,302,3e-19,95.3
Cyphellophora_suttonii_CBS449.91,ERR2438973.4207,90.34,145,12,2,240,383,5,148,9e-48,189
Cyphellophora_suttonii_CBS449.91,ERR2438973.7635,90.28,144,13,1,240,382,6,149,3e-47,187
Cyphellophora_suttonii_CBS449.91,ERR2438973.16164,88.08,151,12,6,237,383,2,150,3e-43,174
Cyphellophora_suttonii_CBS449.91,ERR2438973.32260,89.74,117,11,1,240,355,6,122,2e-35,148
Cyphellophora_pauciseptata_CBS284.85_T,ERR2438973.4207,90.34,145,12,2,251,394,5,148,9e-48,189
Cyphellophora_pauciseptata_CBS284.85_T,ERR2438973.7635,90.28,144,13,1,251,393,6,149,3e-47,187
Cyphellophora_pauciseptata_CBS284.85_T,ERR2438973.16164,88.08,151,12,6,248,394,2,150,3e-43,174
Cyphellophora_pauciseptata_CBS284.85_T,ERR2438973.32260,89.74,117,11,1,251,366,6,122,2e-35,148
Cyphellophora_pluriseptata_CBS286.85_T,ERR2438973.4207,91.03,145,11,2,256,399,5,148,2e-49,195
Cyphellophora_pluriseptata_CBS286.85_T,ERR2438973.7635,89.58,144,14,1,256,398,6,149,2e-45,182
Cyphellophora_pluriseptata_CBS286.85_T,ERR2438973.16164,88.08,151,12,6,253,399,2,150,3e-43,174
Cyphellophora_pluriseptata_CBS286.85_T,ERR2438973.32260,88.89,117,12,1,256,371,6,122,8e-34,143
Phialophora_europaea_CBS101466,ERR2438973.4207,91.03,145,11,2,246,389,5,148,2e-49,195
Phialophora_europaea_CBS101466,ERR2438973.7635,89.58,144,14,1,246,388,6,149,2e-45,182
Phialophora_europaea_CBS101466,ERR2438973.16164,88.08,151,12,6,243,389,2,150,3e-43,174
Phialophora_europaea_CBS101466,ERR2438973.32260,88.89,117,12,1,246,361,6,122,7e-34,143
Phialophora_ambigua_CBS235.93,ERR2438973.4207,91.03,145,11,2,243,386,5,148,2e-49,195
Phialophora_ambigua_CBS235.93,ERR2438973.7635,89.58,144,14,1,243,385,6,149,2e-45,182
Phialophora_ambigua_CBS235.93,ERR2438973.16164,88.08,151,12,6,240,386,2,150,3e-43,174
Phialophora_ambigua_CBS235.93,ERR2438973.32260,88.89,117,12,1,243,358,6,122,7e-34,143
Cladophialophora_modesta_CBS985.96_T,ERR2438973.7635,91.78,146,10,2,240,385,6,149,1e-51,202
Cladophialophora_modesta_CBS985.96_T,ERR2438973.4207,90.48,147,11,3,240,386,5,148,3e-48,191
Cladophialophora_modesta_CBS985.96_T,ERR2438973.5535,92.37,118,8,1,240,357,5,121,5e-41,167
Cladophialophora_modesta_CBS985.96_T,ERR2438973.16164,86.84,152,15,5,237,386,2,150,2e-40,165
Cladophialophora_modesta_CBS985.96_T,ERR2438973.32260,87.29,118,14,1,240,357,6,122,5e-31,134
Cyphellophora_fusarioides_MUCL44033_T,ERR2438973.7635,89.58,144,14,1,239,381,6,149,2e-45,182
