Exophiala_nigra_CBS535.94_T,ERR2674086.1565,100.00,29,0,0,233,261,11,39,1e-07,54.7
Exophiala_nigra_CBS535.94_T,ERR2674086.1565,100.00,29,0,0,233,261,299,271,1e-07,54.7
Exophiala_nigra_CBS535.94_T,ERR2674086.1564,100.00,29,0,0,233,261,11,39,1e-07,54.7
Exophiala_nigra_CBS535.94_T,ERR2674086.1564,100.00,28,0,0,233,260,299,272,5e-07,52.8
Exophiala_spinifera_CBS899.68_T,ERR2674086.1565,100.00,29,0,0,230,258,11,39,1e-07,54.7
Exophiala_spinifera_CBS899.68_T,ERR2674086.1565,100.00,29,0,0,230,258,299,271,1e-07,54.7
Exophiala_spinifera_CBS899.68_T,ERR2674086.1564,100.00,29,0,0,230,258,11,39,1e-07,54.7
Exophiala_spinifera_CBS899.68_T,ERR2674086.1564,100.00,28,0,0,230,257,299,272,5e-07,52.8
Exophiala_exophialae_CBS668.76_T,ERR2674086.1565,100.00,29,0,0,231,259,11,39,1e-07,54.7
Exophiala_exophialae_CBS668.76_T,ERR2674086.1565,100.00,29,0,0,231,259,299,271,1e-07,54.7
Exophiala_exophialae_CBS668.76_T,ERR2674086.1564,100.00,29,0,0,231,259,11,39,1e-07,54.7
Exophiala_exophialae_CBS668.76_T,ERR2674086.1564,100.00,28,0,0,231,258,299,272,5e-07,52.8
Exophiala_polymorpha_CBS138920_T,ERR2674086.3915,94.87,39,2,0,656,694,297,259,1e-09,62.1
Exophiala_polymorpha_CBS138920_T,ERR2674086.1565,100.00,29,0,0,333,361,11,39,2e-07,54.7
Exophiala_polymorpha_CBS138920_T,ERR2674086.1565,100.00,29,0,0,333,361,299,271,2e-07,54.7
Exophiala_polymorpha_CBS138920_T,ERR2674086.1564,100.00,29,0,0,333,361,11,39,2e-07,54.7
Exophiala_polymorpha_CBS138920_T,ERR2674086.1564,100.00,28,0,0,333,360,299,272,6e-07,52.8
Exophiala_oligosperma_CBS725.88_T,ERR2674086.1565,100.00,29,0,0,243,271,11,39,1e-07,54.7
Exophiala_oligosperma_CBS725.88_T,ERR2674086.1565,100.00,29,0,0,243,271,299,271,1e-07,54.7
Exophiala_oligosperma_CBS725.88_T,ERR2674086.1564,100.00,29,0,0,243,271,11,39,1e-07,54.7
Exophiala_oligosperma_CBS725.88_T,ERR2674086.1564,100.00,28,0,0,243,270,299,272,5e-07,52.8
Exophiala_jeanselmei_CBS507.90_T,ERR2674086.3915,93.62,47,3,0,558,604,297,251,2e-12,71.3
Exophiala_jeanselmei_CBS507.90_T,ERR2674086.1565,100.00,29,0,0,235,263,11,39,2e-07,54.7
Exophiala_jeanselmei_CBS507.90_T,ERR2674086.1565,100.00,29,0,0,235,263,299,271,2e-07,54.7
Exophiala_jeanselmei_CBS507.90_T,ERR2674086.1564,100.00,29,0,0,235,263,11,39,2e-07,54.7
Exophiala_jeanselmei_CBS507.90_T,ERR2674086.1564,100.00,28,0,0,235,262,299,272,6e-07,52.8
Exophiala_bergeri_CBS353.52,ERR2674086.1565,100.00,29,0,0,196,224,11,39,1e-07,54.7
Exophiala_bergeri_CBS353.52,ERR2674086.1565,100.00,29,0,0,196,224,299,271,1e-07,54.7
Exophiala_bergeri_CBS353.52,ERR2674086.1564,100.00,29,0,0,196,224,11,39,1e-07,54.7
Exophiala_bergeri_CBS353.52,ERR2674086.1564,100.00,28,0,0,196,223,299,272,4e-07,52.8
Exophiala_moniliae_CBS520.76_T,ERR2674086.1565,100.00,29,0,0,233,261,11,39,1e-07,54.7
Exophiala_moniliae_CBS520.76_T,ERR2674086.1565,100.00,29,0,0,233,261,299,271,1e-07,54.7
Exophiala_moniliae_CBS520.76_T,ERR2674086.1564,100.00,29,0,0,233,261,11,39,1e-07,54.7
Exophiala_moniliae_CBS520.76_T,ERR2674086.1564,100.00,28,0,0,233,260,299,272,5e-07,52.8
Exophiala_pisciphila_CBS537.73_T,ERR2674086.3915,93.75,48,1,2,567,613,297,251,2e-12,71.3
Exophiala_pisciphila_CBS537.73_T,ERR2674086.1565,100.00,29,0,0,236,264,11,39,2e-07,54.7
Exophiala_pisciphila_CBS537.73_T,ERR2674086.1565,100.00,29,0,0,236,264,299,271,2e-07,54.7
Exophiala_pisciphila_CBS537.73_T,ERR2674086.1564,100.00,29,0,0,236,264,11,39,2e-07,54.7
Exophiala_pisciphila_CBS537.73_T,ERR2674086.1564,100.00,28,0,0,236,263,299,272,6e-07,52.8
Exophiala_xenobiotica_CBS117642,ERR2674086.1565,100.00,29,0,0,228,256,11,39,1e-07,54.7
Exophiala_xenobiotica_CBS117642,ERR2674086.1565,100.00,29,0,0,228,256,299,271,1e-07,54.7
Exophiala_xenobiotica_CBS117642,ERR2674086.1564,100.00,29,0,0,228,256,11,39,1e-07,54.7
Exophiala_xenobiotica_CBS117642,ERR2674086.1564,100.00,28,0,0,228,255,299,272,5e-07,52.8
Exophiala_brunnea_CBS,ERR2674086.1565,100.00,29,0,0,264,292,11,39,2e-07,54.7
Exophiala_brunnea_CBS,ERR2674086.1565,100.00,29,0,0,264,292,299,271,2e-07,54.7
Exophiala_brunnea_CBS,ERR2674086.1564,100.00,29,0,0,264,292,11,39,2e-07,54.7
Exophiala_brunnea_CBS,ERR2674086.1564,100.00,28,0,0,264,291,299,272,6e-07,52.8
Exophiala_nishimurae_CBS101538_T,ERR2674086.1565,100.00,29,0,0,242,270,11,39,2e-07,54.7
Exophiala_nishimurae_CBS101538_T,ERR2674086.1565,100.00,29,0,0,242,270,299,271,2e-07,54.7
Exophiala_nishimurae_CBS101538_T,ERR2674086.1564,100.00,29,0,0,242,270,11,39,2e-07,54.7
Exophiala_nishimurae_CBS101538_T,ERR2674086.1564,100.00,28,0,0,242,269,299,272,5e-07,52.8
Exophiala_mesophila_CBS402.95_T,ERR2674086.3915,93.62,47,3,0,564,610,297,251,2e-12,71.3
Exophiala_mesophila_CBS402.95_T,ERR2674086.1565,100.00,29,0,0,226,254,11,39,2e-07,54.7
Exophiala_mesophila_CBS402.95_T,ERR2674086.1565,100.00,29,0,0,226,254,299,271,2e-07,54.7
Exophiala_mesophila_CBS402.95_T,ERR2674086.1564,100.00,29,0,0,226,254,11,39,2e-07,54.7
Exophiala_mesophila_CBS402.95_T,ERR2674086.1564,100.00,28,0,0,226,253,299,272,6e-07,52.8
Exophiala_castellanii_CBS158.58_T,ERR2674086.3915,93.62,47,3,0,563,609,297,251,2e-12,71.3
Exophiala_castellanii_CBS158.58_T,ERR2674086.1565,100.00,29,0,0,224,252,11,39,2e-07,54.7
Exophiala_castellanii_CBS158.58_T,ERR2674086.1565,100.00,29,0,0,224,252,299,271,2e-07,54.7
Exophiala_castellanii_CBS158.58_T,ERR2674086.1564,100.00,29,0,0,224,252,11,39,2e-07,54.7
Exophiala_castellanii_CBS158.58_T,ERR2674086.1564,100.00,28,0,0,224,251,299,272,6e-07,52.8
Exophiala_lecanii-corni_CBS123.33_T,ERR2674086.1565,100.00,29,0,0,247,275,11,39,1e-07,54.7
Exophiala_lecanii-corni_CBS123.33_T,ERR2674086.1565,100.00,29,0,0,247,275,299,271,1e-07,54.7
Exophiala_lecanii-corni_CBS123.33_T,ERR2674086.1564,100.00,29,0,0,247,275,11,39,1e-07,54.7
Exophiala_lecanii-corni_CBS123.33_T,ERR2674086.1564,100.00,28,0,0,247,274,299,272,5e-07,52.8
Exophiala_dermatitidis_CBS748.88,ERR2674086.3915,93.62,47,3,0,589,635,297,251,4e-12,71.3
Exophiala_dermatitidis_CBS748.88,ERR2674086.1565,100.00,29,0,0,239,267,11,39,4e-07,54.7
Exophiala_dermatitidis_CBS748.88,ERR2674086.1565,100.00,29,0,0,239,267,299,271,4e-07,54.7
Exophiala_dermatitidis_CBS748.88,ERR2674086.1564,100.00,29,0,0,239,267,11,39,4e-07,54.7
Exophiala_dermatitidis_CBS748.88,ERR2674086.1564,100.00,28,0,0,239,266,299,272,1e-06,52.8
Exophiala_angulospora_CBS482.92_T,ERR2674086.1565,100.00,29,0,0,230,258,11,39,1e-07,54.7
Exophiala_angulospora_CBS482.92_T,ERR2674086.1565,100.00,29,0,0,230,258,299,271,1e-07,54.7
Exophiala_angulospora_CBS482.92_T,ERR2674086.1564,100.00,29,0,0,230,258,11,39,1e-07,54.7
Exophiala_angulospora_CBS482.92_T,ERR2674086.1564,100.00,28,0,0,230,257,299,272,5e-07,52.8
Exophiala_opportunistica_CBS109811_T,ERR2674086.1565,100.00,29,0,0,229,257,11,39,1e-07,54.7
Exophiala_opportunistica_CBS109811_T,ERR2674086.1565,100.00,29,0,0,229,257,299,271,1e-07,54.7
Exophiala_opportunistica_CBS109811_T,ERR2674086.1564,100.00,29,0,0,229,257,11,39,1e-07,54.7
Exophiala_opportunistica_CBS109811_T,ERR2674086.1564,100.00,28,0,0,229,256,299,272,5e-07,52.8
Exophiala_salmonis_CBS157.67_T,ERR2674086.3915,93.75,48,1,2,687,733,297,251,2e-12,71.3
Exophiala_salmonis_CBS157.67_T,ERR2674086.1565,100.00,29,0,0,358,386,11,39,2e-07,54.7
Exophiala_salmonis_CBS157.67_T,ERR2674086.1565,100.00,29,0,0,358,386,299,271,2e-07,54.7
Exophiala_salmonis_CBS157.67_T,ERR2674086.1564,100.00,29,0,0,358,386,11,39,2e-07,54.7
Exophiala_salmonis_CBS157.67_T,ERR2674086.1564,100.00,28,0,0,358,385,299,272,7e-07,52.8
Exophiala_aquamarina_CBS119918_T,ERR2674086.1565,100.00,29,0,0,236,264,11,39,1e-07,54.7
Exophiala_aquamarina_CBS119918_T,ERR2674086.1565,100.00,29,0,0,236,264,299,271,1e-07,54.7
Exophiala_aquamarina_CBS119918_T,ERR2674086.1564,100.00,29,0,0,236,264,11,39,1e-07,54.7
Exophiala_aquamarina_CBS119918_T,ERR2674086.1564,100.00,28,0,0,236,263,299,272,5e-07,52.8
Exophiala_cancerae_CBS120420_T,ERR2674086.3915,93.75,48,1,2,578,624,297,251,2e-12,71.3
Exophiala_cancerae_CBS120420_T,ERR2674086.1565,100.00,29,0,0,251,279,11,39,2e-07,54.7
Exophiala_cancerae_CBS120420_T,ERR2674086.1565,100.00,29,0,0,251,279,299,271,2e-07,54.7
Exophiala_cancerae_CBS120420_T,ERR2674086.1564,100.00,29,0,0,251,279,11,39,2e-07,54.7
Exophiala_cancerae_CBS120420_T,ERR2674086.1564,100.00,28,0,0,251,278,299,272,6e-07,52.8
Exophiala_tremulae_CBS129355,ERR2674086.1565,100.00,29,0,0,263,291,11,39,2e-07,54.7
Exophiala_tremulae_CBS129355,ERR2674086.1565,100.00,29,0,0,263,291,299,271,2e-07,54.7
Exophiala_tremulae_CBS129355,ERR2674086.1564,100.00,29,0,0,263,291,11,39,2e-07,54.7
Exophiala_tremulae_CBS129355,ERR2674086.1564,100.00,28,0,0,263,290,299,272,6e-07,52.8
Exophiala_equina_CBS116009,ERR2674086.1565,100.00,29,0,0,229,257,11,39,1e-07,54.7
Exophiala_equina_CBS116009,ERR2674086.1565,100.00,29,0,0,229,257,299,271,1e-07,54.7
Exophiala_equina_CBS116009,ERR2674086.1564,100.00,29,0,0,229,257,11,39,1e-07,54.7
Exophiala_equina_CBS116009,ERR2674086.1564,100.00,28,0,0,229,256,299,272,5e-07,52.8
Exophiala_alcalophila_CBS520.82_T,ERR2674086.1565,100.00,29,0,0,240,268,11,39,1e-07,54.7
Exophiala_alcalophila_CBS520.82_T,ERR2674086.1565,100.00,29,0,0,240,268,299,271,1e-07,54.7
Exophiala_alcalophila_CBS520.82_T,ERR2674086.1564,100.00,29,0,0,240,268,11,39,1e-07,54.7
Exophiala_alcalophila_CBS520.82_T,ERR2674086.1564,100.00,28,0,0,240,267,299,272,5e-07,52.8
Exophiala_crusticola_CBS119970_T,ERR2674086.1565,100.00,29,0,0,245,273,11,39,1e-07,54.7
Exophiala_crusticola_CBS119970_T,ERR2674086.1565,100.00,29,0,0,245,273,299,271,1e-07,54.7
Exophiala_crusticola_CBS119970_T,ERR2674086.1564,100.00,29,0,0,245,273,11,39,1e-07,54.7
Exophiala_crusticola_CBS119970_T,ERR2674086.1564,100.00,28,0,0,245,272,299,272,5e-07,52.8
Rhinocladiella_atrovirens_CBS264.49,ERR2674086.1565,100.00,29,0,0,271,299,11,39,2e-07,54.7
Rhinocladiella_atrovirens_CBS264.49,ERR2674086.1565,100.00,29,0,0,271,299,299,271,2e-07,54.7
Rhinocladiella_atrovirens_CBS264.49,ERR2674086.1564,100.00,29,0,0,271,299,11,39,2e-07,54.7
Rhinocladiella_atrovirens_CBS264.49,ERR2674086.1564,100.00,28,0,0,271,298,299,272,6e-07,52.8
Rhinocladiella_basitona_CBS101460_T,ERR2674086.1565,100.00,29,0,0,230,258,11,39,1e-07,54.7
Rhinocladiella_basitona_CBS101460_T,ERR2674086.1565,100.00,29,0,0,230,258,299,271,1e-07,54.7
Rhinocladiella_basitona_CBS101460_T,ERR2674086.1564,100.00,29,0,0,230,258,11,39,1e-07,54.7
Rhinocladiella_basitona_CBS101460_T,ERR2674086.1564,100.00,28,0,0,230,257,299,272,5e-07,52.8
Rhinocladiella_phaeophora_CBS496.78_T,ERR2674086.1565,100.00,29,0,0,238,266,11,39,1e-07,54.7
Rhinocladiella_phaeophora_CBS496.78_T,ERR2674086.1565,100.00,29,0,0,238,266,299,271,1e-07,54.7
Rhinocladiella_phaeophora_CBS496.78_T,ERR2674086.1564,100.00,29,0,0,238,266,11,39,1e-07,54.7
Rhinocladiella_phaeophora_CBS496.78_T,ERR2674086.1564,100.00,28,0,0,238,265,299,272,5e-07,52.8
Rhinocladiella_aquaspersa_CBS313.73_T,ERR2674086.3915,95.12,41,1,1,566,605,291,251,3e-10,63.9
Rhinocladiella_aquaspersa_CBS313.73_T,ERR2674086.1565,100.00,29,0,0,232,260,11,39,2e-07,54.7
Rhinocladiella_aquaspersa_CBS313.73_T,ERR2674086.1565,100.00,29,0,0,232,260,299,271,2e-07,54.7
Rhinocladiella_aquaspersa_CBS313.73_T,ERR2674086.1564,100.00,29,0,0,232,260,11,39,2e-07,54.7
Rhinocladiella_aquaspersa_CBS313.73_T,ERR2674086.1564,100.00,28,0,0,232,259,299,272,6e-07,52.8
Rhinocladiella_fasciculata_CBS132.86_T,ERR2674086.1565,100.00,29,0,0,248,276,11,39,1e-07,54.7
Rhinocladiella_fasciculata_CBS132.86_T,ERR2674086.1565,100.00,29,0,0,248,276,299,271,1e-07,54.7
Rhinocladiella_fasciculata_CBS132.86_T,ERR2674086.1564,100.00,29,0,0,248,276,11,39,1e-07,54.7
Rhinocladiella_fasciculata_CBS132.86_T,ERR2674086.1564,100.00,28,0,0,248,275,299,272,5e-07,52.8
Rhinocladiella_anceps_CBS181.65_T,ERR2674086.1565,100.00,29,0,0,230,258,11,39,1e-07,54.7
Rhinocladiella_anceps_CBS181.65_T,ERR2674086.1565,100.00,29,0,0,230,258,299,271,1e-07,54.7
Rhinocladiella_anceps_CBS181.65_T,ERR2674086.1564,100.00,29,0,0,230,258,11,39,1e-07,54.7
Rhinocladiella_anceps_CBS181.65_T,ERR2674086.1564,100.00,28,0,0,230,257,299,272,5e-07,52.8
Rhinocladiella_mackenziei_CBS367.92,ERR2674086.1565,100.00,29,0,0,219,247,11,39,2e-07,54.7
Rhinocladiella_mackenziei_CBS367.92,ERR2674086.1565,100.00,29,0,0,219,247,299,271,2e-07,54.7
Rhinocladiella_mackenziei_CBS367.92,ERR2674086.1564,100.00,29,0,0,219,247,11,39,2e-07,54.7
Rhinocladiella_mackenziei_CBS367.92,ERR2674086.1564,100.00,28,0,0,219,246,299,272,6e-07,52.8
Veronaea_compacta_CBS268.75_T,ERR2674086.1565,100.00,29,0,0,252,280,11,39,2e-07,54.7
Veronaea_compacta_CBS268.75_T,ERR2674086.1565,100.00,29,0,0,252,280,299,271,2e-07,54.7
Veronaea_compacta_CBS268.75_T,ERR2674086.1564,100.00,29,0,0,252,280,11,39,2e-07,54.7
Veronaea_compacta_CBS268.75_T,ERR2674086.1564,100.00,28,0,0,252,279,299,272,6e-07,52.8
Capronia_pilosella_AFTOL-ID657,ERR2674086.1565,100.00,29,0,0,330,358,11,39,2e-07,54.7
Capronia_pilosella_AFTOL-ID657,ERR2674086.1565,100.00,29,0,0,330,358,299,271,2e-07,54.7
Capronia_pilosella_AFTOL-ID657,ERR2674086.1564,100.00,29,0,0,330,358,11,39,2e-07,54.7
Capronia_pilosella_AFTOL-ID657,ERR2674086.1564,100.00,28,0,0,330,357,299,272,6e-07,52.8
Capronia_dactylotricha_DAOM208471_T,ERR2674086.3915,93.75,48,1,2,572,618,297,251,2e-12,71.3
Capronia_dactylotricha_DAOM208471_T,ERR2674086.1565,100.00,29,0,0,232,260,11,39,2e-07,54.7
Capronia_dactylotricha_DAOM208471_T,ERR2674086.1565,100.00,29,0,0,232,260,299,271,2e-07,54.7
Capronia_dactylotricha_DAOM208471_T,ERR2674086.1564,100.00,29,0,0,232,260,11,39,2e-07,54.7
Capronia_dactylotricha_DAOM208471_T,ERR2674086.1564,100.00,28,0,0,232,259,299,272,6e-07,52.8
Capronia_kleinmondensis_CBS122671_T,ERR2674086.3915,93.75,48,1,2,578,624,297,251,2e-12,71.3
Capronia_kleinmondensis_CBS122671_T,ERR2674086.1565,100.00,29,0,0,257,285,11,39,2e-07,54.7
Capronia_kleinmondensis_CBS122671_T,ERR2674086.1565,100.00,29,0,0,257,285,299,271,2e-07,54.7
Capronia_kleinmondensis_CBS122671_T,ERR2674086.1564,100.00,29,0,0,257,285,11,39,2e-07,54.7
Capronia_kleinmondensis_CBS122671_T,ERR2674086.1564,100.00,28,0,0,257,284,299,272,6e-07,52.8
Capronia_mansonii_CBS101.67_T,ERR2674086.3915,93.62,47,3,0,582,628,297,251,2e-12,71.3
Capronia_mansonii_CBS101.67_T,ERR2674086.1565,100.00,29,0,0,243,271,11,39,2e-07,54.7
Capronia_mansonii_CBS101.67_T,ERR2674086.1565,100.00,29,0,0,243,271,299,271,2e-07,54.7
Capronia_mansonii_CBS101.67_T,ERR2674086.1564,100.00,29,0,0,243,271,11,39,2e-07,54.7
Capronia_mansonii_CBS101.67_T,ERR2674086.1564,100.00,28,0,0,243,270,299,272,6e-07,52.8
Capronia_munkii_DAOM216390_T,ERR2674086.3915,93.62,47,3,0,582,628,297,251,2e-12,71.3
Capronia_munkii_DAOM216390_T,ERR2674086.1565,100.00,29,0,0,243,271,11,39,2e-07,54.7
Capronia_munkii_DAOM216390_T,ERR2674086.1565,100.00,29,0,0,243,271,299,271,2e-07,54.7
Capronia_munkii_DAOM216390_T,ERR2674086.1564,100.00,29,0,0,243,271,11,39,2e-07,54.7
Capronia_munkii_DAOM216390_T,ERR2674086.1564,100.00,28,0,0,243,270,299,272,6e-07,52.8
Capronia_coronata_ATCC56201_T,ERR2674086.3915,93.62,47,3,0,553,599,297,251,2e-12,71.3
Capronia_coronata_ATCC56201_T,ERR2674086.1565,100.00,29,0,0,231,259,11,39,2e-07,54.7
Capronia_coronata_ATCC56201_T,ERR2674086.1565,100.00,29,0,0,231,259,299,271,2e-07,54.7
Capronia_coronata_ATCC56201_T,ERR2674086.1564,100.00,29,0,0,231,259,11,39,2e-07,54.7
Capronia_coronata_ATCC56201_T,ERR2674086.1564,100.00,28,0,0,231,258,299,272,6e-07,52.8
Capronia_parasitica_CBS123.88,ERR2674086.1565,100.00,29,0,0,237,265,11,39,2e-07,54.7
Capronia_parasitica_CBS123.88,ERR2674086.1565,100.00,29,0,0,237,265,299,271,2e-07,54.7
Capronia_parasitica_CBS123.88,ERR2674086.1564,100.00,29,0,0,237,265,11,39,2e-07,54.7
Capronia_parasitica_CBS123.88,ERR2674086.1564,100.00,28,0,0,237,264,299,272,6e-07,52.8
Veronaea_japonica_CBS776.83_T,ERR2674086.1565,100.00,29,0,0,265,293,11,39,2e-07,54.7
Veronaea_japonica_CBS776.83_T,ERR2674086.1565,100.00,29,0,0,265,293,299,271,2e-07,54.7
Veronaea_japonica_CBS776.83_T,ERR2674086.1564,100.00,29,0,0,265,293,11,39,2e-07,54.7
Veronaea_japonica_CBS776.83_T,ERR2674086.1564,100.00,28,0,0,265,292,299,272,6e-07,52.8
Thysanorea_papuana_CBS212.96_T,ERR2674086.1565,100.00,29,0,0,239,267,11,39,1e-07,54.7
Thysanorea_papuana_CBS212.96_T,ERR2674086.1565,100.00,29,0,0,239,267,299,271,1e-07,54.7
Thysanorea_papuana_CBS212.96_T,ERR2674086.1564,100.00,29,0,0,239,267,11,39,1e-07,54.7
Thysanorea_papuana_CBS212.96_T,ERR2674086.1564,100.00,28,0,0,239,266,299,272,5e-07,52.8
Capronia_acutiseta_ATCC56428_T,ERR2674086.3915,93.75,48,1,2,552,598,297,251,2e-12,71.3
Fonsecaea_brasiliensis_CBS119710_T,ERR2674086.1565,100.00,29,0,0,239,267,11,39,1e-07,54.7
Fonsecaea_brasiliensis_CBS119710_T,ERR2674086.1565,100.00,29,0,0,239,267,299,271,1e-07,54.7
Fonsecaea_brasiliensis_CBS119710_T,ERR2674086.1564,100.00,29,0,0,239,267,11,39,1e-07,54.7
Fonsecaea_brasiliensis_CBS119710_T,ERR2674086.1564,100.00,28,0,0,239,266,299,272,5e-07,52.8
Fonsecaea_pedrosoi_CBS271.37_T,ERR2674086.1565,100.00,29,0,0,267,295,11,39,2e-07,54.7
Fonsecaea_pedrosoi_CBS271.37_T,ERR2674086.1565,100.00,29,0,0,267,295,299,271,2e-07,54.7
Fonsecaea_pedrosoi_CBS271.37_T,ERR2674086.1564,100.00,29,0,0,267,295,11,39,2e-07,54.7
Fonsecaea_pedrosoi_CBS271.37_T,ERR2674086.1564,100.00,28,0,0,267,294,299,272,6e-07,52.8
Fonsecaea_multimorphosa_CBS980.96_T,ERR2674086.1565,100.00,29,0,0,237,265,11,39,1e-07,54.7
Fonsecaea_multimorphosa_CBS980.96_T,ERR2674086.1565,100.00,29,0,0,237,265,299,271,1e-07,54.7
Fonsecaea_multimorphosa_CBS980.96_T,ERR2674086.1564,100.00,29,0,0,237,265,11,39,1e-07,54.7
Fonsecaea_multimorphosa_CBS980.96_T,ERR2674086.1564,100.00,28,0,0,237,264,299,272,5e-07,52.8
Fonsecaea_minima_CBS125760_T,ERR2674086.1565,100.00,29,0,0,233,261,11,39,1e-07,54.7
Fonsecaea_minima_CBS125760_T,ERR2674086.1565,100.00,29,0,0,233,261,299,271,1e-07,54.7
Fonsecaea_minima_CBS125760_T,ERR2674086.1564,100.00,29,0,0,233,261,11,39,1e-07,54.7
Fonsecaea_minima_CBS125760_T,ERR2674086.1564,100.00,28,0,0,233,260,299,272,5e-07,52.8
Fonsecaea_nubica_CBS269.64_T,ERR2674086.1565,100.00,29,0,0,244,272,11,39,1e-07,54.7
Fonsecaea_nubica_CBS269.64_T,ERR2674086.1565,100.00,29,0,0,244,272,299,271,1e-07,54.7
Fonsecaea_nubica_CBS269.64_T,ERR2674086.1564,100.00,29,0,0,244,272,11,39,1e-07,54.7
Fonsecaea_nubica_CBS269.64_T,ERR2674086.1564,100.00,28,0,0,244,271,299,272,5e-07,52.8
Fonsecaea_erecta_CBS125763_T,ERR2674086.1565,100.00,29,0,0,228,256,11,39,1e-07,54.7
Fonsecaea_erecta_CBS125763_T,ERR2674086.1565,100.00,29,0,0,228,256,299,271,1e-07,54.7
Fonsecaea_erecta_CBS125763_T,ERR2674086.1564,100.00,29,0,0,228,256,11,39,1e-07,54.7
Fonsecaea_erecta_CBS125763_T,ERR2674086.1564,100.00,28,0,0,228,255,299,272,5e-07,52.8
Fonsecaea_pugnacius_CBS139214_T,ERR2674086.1565,100.00,29,0,0,237,265,11,39,1e-07,54.7
Fonsecaea_pugnacius_CBS139214_T,ERR2674086.1565,100.00,29,0,0,237,265,299,271,1e-07,54.7
Fonsecaea_pugnacius_CBS139214_T,ERR2674086.1564,100.00,29,0,0,237,265,11,39,1e-07,54.7
Fonsecaea_pugnacius_CBS139214_T,ERR2674086.1564,100.00,28,0,0,237,264,299,272,5e-07,52.8
Cladophialophora_psammophila_CBS,ERR2674086.1565,100.00,29,0,0,243,271,11,39,1e-07,54.7
Cladophialophora_psammophila_CBS,ERR2674086.1565,100.00,29,0,0,243,271,299,271,1e-07,54.7
Cladophialophora_psammophila_CBS,ERR2674086.1564,100.00,29,0,0,243,271,11,39,1e-07,54.7
Cladophialophora_psammophila_CBS,ERR2674086.1564,100.00,28,0,0,243,270,299,272,5e-07,52.8
Cladophialophora_devriesii_CBS,ERR2674086.1565,100.00,29,0,0,239,267,11,39,1e-07,54.7
Cladophialophora_devriesii_CBS,ERR2674086.1565,100.00,29,0,0,239,267,299,271,1e-07,54.7
Cladophialophora_devriesii_CBS,ERR2674086.1564,100.00,29,0,0,239,267,11,39,1e-07,54.7
Cladophialophora_devriesii_CBS,ERR2674086.1564,100.00,28,0,0,239,266,299,272,5e-07,52.8
Cladophialophora_immunda_CBS834.96,ERR2674086.1565,100.00,29,0,0,241,269,11,39,1e-07,54.7
Cladophialophora_immunda_CBS834.96,ERR2674086.1565,100.00,29,0,0,241,269,299,271,1e-07,54.7
Cladophialophora_immunda_CBS834.96,ERR2674086.1564,100.00,29,0,0,241,269,11,39,1e-07,54.7
Cladophialophora_immunda_CBS834.96,ERR2674086.1564,100.00,28,0,0,241,268,299,272,5e-07,52.8
Cladophialophora_arxii_CBS306.94_T,ERR2674086.1565,100.00,29,0,0,243,271,11,39,1e-07,54.7
Cladophialophora_arxii_CBS306.94_T,ERR2674086.1565,100.00,29,0,0,243,271,299,271,1e-07,54.7
Cladophialophora_arxii_CBS306.94_T,ERR2674086.1564,100.00,29,0,0,243,271,11,39,1e-07,54.7
Cladophialophora_arxii_CBS306.94_T,ERR2674086.1564,100.00,28,0,0,243,270,299,272,5e-07,52.8
Cladophialophora_bantiana_CBS173.52,ERR2674086.1565,100.00,29,0,0,237,265,11,39,1e-07,54.7
Cladophialophora_bantiana_CBS173.52,ERR2674086.1565,100.00,29,0,0,237,265,299,271,1e-07,54.7
Cladophialophora_bantiana_CBS173.52,ERR2674086.1564,100.00,29,0,0,237,265,11,39,1e-07,54.7
Cladophialophora_bantiana_CBS173.52,ERR2674086.1564,100.00,28,0,0,237,264,299,272,5e-07,52.8
Cladophialophora_emmonsii_CBS102594,ERR2674086.1565,100.00,29,0,0,228,256,11,39,1e-07,54.7
Cladophialophora_emmonsii_CBS102594,ERR2674086.1565,100.00,29,0,0,228,256,299,271,1e-07,54.7
Cladophialophora_emmonsii_CBS102594,ERR2674086.1564,100.00,29,0,0,228,256,11,39,1e-07,54.7
Cladophialophora_emmonsii_CBS102594,ERR2674086.1564,100.00,28,0,0,228,255,299,272,5e-07,52.8
Cladophialophora_minourae_CBS556.83,ERR2674086.1565,100.00,29,0,0,236,264,11,39,1e-07,54.7
Cladophialophora_minourae_CBS556.83,ERR2674086.1565,100.00,29,0,0,236,264,299,271,1e-07,54.7
Cladophialophora_minourae_CBS556.83,ERR2674086.1564,100.00,29,0,0,236,264,11,39,1e-07,54.7
Cladophialophora_minourae_CBS556.83,ERR2674086.1564,100.00,28,0,0,236,263,299,272,5e-07,52.8
Cladophialophora_australiensis_CBS112793,ERR2674086.1565,100.00,29,0,0,238,266,11,39,4e-07,54.7
Cladophialophora_australiensis_CBS112793,ERR2674086.1565,100.00,29,0,0,238,266,299,271,4e-07,54.7
Cladophialophora_australiensis_CBS112793,ERR2674086.1564,100.00,29,0,0,238,266,11,39,4e-07,54.7
Cladophialophora_australiensis_CBS112793,ERR2674086.1564,100.00,28,0,0,238,265,299,272,1e-06,52.8
Cladophialophora_potulentorum_CBS112222,ERR2674086.1565,100.00,29,0,0,237,265,11,39,4e-07,54.7
Cladophialophora_potulentorum_CBS112222,ERR2674086.1565,100.00,29,0,0,237,265,299,271,4e-07,54.7
Cladophialophora_potulentorum_CBS112222,ERR2674086.1564,100.00,29,0,0,237,265,11,39,4e-07,54.7
Cladophialophora_potulentorum_CBS112222,ERR2674086.1564,100.00,28,0,0,237,264,299,272,1e-06,52.8
Cladophialophora_matsushimae_CMRP1198,ERR2674086.1565,100.00,29,0,0,241,269,11,39,1e-07,54.7
Cladophialophora_matsushimae_CMRP1198,ERR2674086.1565,100.00,29,0,0,241,269,299,271,1e-07,54.7
Cladophialophora_matsushimae_CMRP1198,ERR2674086.1564,100.00,29,0,0,241,269,11,39,1e-07,54.7
Cladophialophora_matsushimae_CMRP1198,ERR2674086.1564,100.00,28,0,0,241,268,299,272,4e-07,52.8
Cladophialophora_mycetomatis_CBS122637,ERR2674086.1565,100.00,29,0,0,226,254,11,39,1e-07,54.7
Cladophialophora_mycetomatis_CBS122637,ERR2674086.1565,100.00,29,0,0,226,254,299,271,1e-07,54.7
Cladophialophora_mycetomatis_CBS122637,ERR2674086.1564,100.00,29,0,0,226,254,11,39,1e-07,54.7
Cladophialophora_mycetomatis_CBS122637,ERR2674086.1564,100.00,28,0,0,226,253,299,272,5e-07,52.8
Cladophialophora_chaetospira_CBS127573,ERR2674086.1565,100.00,29,0,0,632,660,11,39,2e-07,54.7
Cladophialophora_chaetospira_CBS127573,ERR2674086.1565,100.00,29,0,0,632,660,299,271,2e-07,54.7
Cladophialophora_chaetospira_CBS127573,ERR2674086.1564,100.00,29,0,0,632,660,11,39,2e-07,54.7
Cladophialophora_chaetospira_CBS127573,ERR2674086.1564,100.00,28,0,0,632,659,299,272,9e-07,52.8
Cladophialophora_boppii_CBS126.86_T,ERR2674086.1565,100.00,29,0,0,234,262,11,39,1e-07,54.7
Cladophialophora_boppii_CBS126.86_T,ERR2674086.1565,100.00,29,0,0,234,262,299,271,1e-07,54.7
Cladophialophora_boppii_CBS126.86_T,ERR2674086.1564,100.00,29,0,0,234,262,11,39,1e-07,54.7
Cladophialophora_boppii_CBS126.86_T,ERR2674086.1564,100.00,28,0,0,234,261,299,272,5e-07,52.8
Cladophialophora_abundans_CBS126736,ERR2674086.1565,100.00,29,0,0,171,199,11,39,1e-07,54.7
Cladophialophora_abundans_CBS126736,ERR2674086.1565,100.00,29,0,0,171,199,299,271,1e-07,54.7
Cladophialophora_abundans_CBS126736,ERR2674086.1564,100.00,29,0,0,171,199,11,39,1e-07,54.7
Cladophialophora_abundans_CBS126736,ERR2674086.1564,100.00,28,0,0,171,198,299,272,4e-07,52.8
Capronia_semi-immersa_CBS102234,ERR2674086.1565,100.00,29,0,0,233,261,11,39,1e-07,54.7
Capronia_semi-immersa_CBS102234,ERR2674086.1565,100.00,29,0,0,233,261,299,271,1e-07,54.7
Capronia_semi-immersa_CBS102234,ERR2674086.1564,100.00,29,0,0,233,261,11,39,1e-07,54.7
Capronia_semi-immersa_CBS102234,ERR2674086.1564,100.00,28,0,0,233,260,299,272,5e-07,52.8
Phialophora_americana_CBS400.67,ERR2674086.3915,93.62,47,3,0,554,600,297,251,4e-12,71.3
Phialophora_americana_CBS400.67,ERR2674086.1565,100.00,29,0,0,235,263,11,39,4e-07,54.7
Phialophora_americana_CBS400.67,ERR2674086.1565,100.00,29,0,0,235,263,299,271,4e-07,54.7
Phialophora_americana_CBS400.67,ERR2674086.1564,100.00,29,0,0,235,263,11,39,4e-07,54.7
Phialophora_americana_CBS400.67,ERR2674086.1564,100.00,28,0,0,235,262,299,272,1e-06,52.8
Phialophora_verrucosa_CBS140325_T,ERR2674086.1565,100.00,29,0,0,239,267,11,39,2e-07,54.7
Phialophora_verrucosa_CBS140325_T,ERR2674086.1565,100.00,29,0,0,239,267,299,271,2e-07,54.7
Phialophora_verrucosa_CBS140325_T,ERR2674086.1564,100.00,29,0,0,239,267,11,39,2e-07,54.7
Phialophora_verrucosa_CBS140325_T,ERR2674086.1564,100.00,28,0,0,239,266,299,272,5e-07,52.8
Cladophialophora_samoensis_CBS259.83_T,ERR2674086.1565,100.00,29,0,0,239,267,11,39,1e-07,54.7
Cladophialophora_samoensis_CBS259.83_T,ERR2674086.1565,100.00,29,0,0,239,267,299,271,1e-07,54.7
Cladophialophora_samoensis_CBS259.83_T,ERR2674086.1564,100.00,29,0,0,239,267,11,39,1e-07,54.7
Cladophialophora_samoensis_CBS259.83_T,ERR2674086.1564,100.00,28,0,0,239,266,299,272,5e-07,52.8
Cladophialophora_carrionii_CBS260.83,ERR2674086.1565,100.00,29,0,0,255,283,11,39,2e-07,54.7
Cladophialophora_carrionii_CBS260.83,ERR2674086.1565,100.00,29,0,0,255,283,299,271,2e-07,54.7
Cladophialophora_carrionii_CBS260.83,ERR2674086.1564,100.00,29,0,0,255,283,11,39,2e-07,54.7
Cladophialophora_carrionii_CBS260.83,ERR2674086.1564,100.00,28,0,0,255,282,299,272,6e-07,52.8
Exophiala_palmae_UPCB86822_T,ERR2674086.1565,100.00,29,0,0,198,226,11,39,1e-07,54.7
Exophiala_palmae_UPCB86822_T,ERR2674086.1565,100.00,29,0,0,198,226,299,271,1e-07,54.7
Exophiala_palmae_UPCB86822_T,ERR2674086.1564,100.00,29,0,0,198,226,11,39,1e-07,54.7
Exophiala_palmae_UPCB86822_T,ERR2674086.1564,100.00,28,0,0,198,225,299,272,5e-07,52.8
Cladophialophora_yegresii_CBS114405_T,ERR2674086.1565,100.00,29,0,0,240,268,11,39,1e-07,54.7
Cladophialophora_yegresii_CBS114405_T,ERR2674086.1565,100.00,29,0,0,240,268,299,271,1e-07,54.7
Cladophialophora_yegresii_CBS114405_T,ERR2674086.1564,100.00,29,0,0,240,268,11,39,1e-07,54.7
Cladophialophora_yegresii_CBS114405_T,ERR2674086.1564,100.00,28,0,0,240,267,299,272,5e-07,52.8
Knufia_epidermidis_CBS120353_T,ERR2674086.1565,100.00,29,0,0,238,266,11,39,1e-07,54.7
Knufia_epidermidis_CBS120353_T,ERR2674086.1565,100.00,29,0,0,238,266,299,271,1e-07,54.7
Knufia_epidermidis_CBS120353_T,ERR2674086.1564,100.00,29,0,0,238,266,11,39,1e-07,54.7
Knufia_epidermidis_CBS120353_T,ERR2674086.1564,100.00,28,0,0,238,265,299,272,5e-07,52.8
Arthrocladium_fulminans_CBS136243_T,ERR2674086.1565,100.00,29,0,0,233,261,11,39,1e-07,54.7
Arthrocladium_fulminans_CBS136243_T,ERR2674086.1565,100.00,29,0,0,233,261,299,271,1e-07,54.7
Arthrocladium_fulminans_CBS136243_T,ERR2674086.1564,100.00,29,0,0,233,261,11,39,1e-07,54.7
Arthrocladium_fulminans_CBS136243_T,ERR2674086.1564,100.00,28,0,0,233,260,299,272,5e-07,52.8
Anthopsis_deltoidea_CBS263.77_T,ERR2674086.1565,100.00,29,0,0,242,270,11,39,1e-07,54.7
Anthopsis_deltoidea_CBS263.77_T,ERR2674086.1565,100.00,29,0,0,242,270,299,271,1e-07,54.7
Anthopsis_deltoidea_CBS263.77_T,ERR2674086.1564,100.00,29,0,0,242,270,11,39,1e-07,54.7
Anthopsis_deltoidea_CBS263.77_T,ERR2674086.1564,100.00,28,0,0,242,269,299,272,5e-07,52.8
Cyphellophora_laciniata_CBS190.61_T,ERR2674086.3915,93.62,47,3,0,649,695,297,251,2e-12,71.3
Cyphellophora_laciniata_CBS190.61_T,ERR2674086.1565,100.00,29,0,0,327,355,11,39,2e-07,54.7
Cyphellophora_laciniata_CBS190.61_T,ERR2674086.1565,100.00,29,0,0,327,355,299,271,2e-07,54.7
Cyphellophora_laciniata_CBS190.61_T,ERR2674086.1564,100.00,29,0,0,327,355,11,39,2e-07,54.7
Cyphellophora_laciniata_CBS190.61_T,ERR2674086.1564,100.00,28,0,0,327,354,299,272,7e-07,52.8
Cyphellophora_suttonii_CBS449.91,ERR2674086.1565,100.00,29,0,0,230,258,11,39,1e-07,54.7
Cyphellophora_suttonii_CBS449.91,ERR2674086.1565,100.00,29,0,0,230,258,299,271,1e-07,54.7
Cyphellophora_suttonii_CBS449.91,ERR2674086.1564,100.00,29,0,0,230,258,11,39,1e-07,54.7
Cyphellophora_suttonii_CBS449.91,ERR2674086.1564,100.00,28,0,0,230,257,299,272,5e-07,52.8
Cyphellophora_pauciseptata_CBS284.85_T,ERR2674086.1565,100.00,29,0,0,241,269,11,39,1e-07,54.7
Cyphellophora_pauciseptata_CBS284.85_T,ERR2674086.1565,100.00,29,0,0,241,269,299,271,1e-07,54.7
Cyphellophora_pauciseptata_CBS284.85_T,ERR2674086.1564,100.00,29,0,0,241,269,11,39,1e-07,54.7
Cyphellophora_pauciseptata_CBS284.85_T,ERR2674086.1564,100.00,28,0,0,241,268,299,272,5e-07,52.8
Cyphellophora_pluriseptata_CBS286.85_T,ERR2674086.1565,100.00,28,0,0,247,274,12,39,5e-07,52.8
Cyphellophora_pluriseptata_CBS286.85_T,ERR2674086.1565,100.00,28,0,0,247,274,298,271,5e-07,52.8
Cyphellophora_pluriseptata_CBS286.85_T,ERR2674086.1564,100.00,28,0,0,247,274,12,39,5e-07,52.8
Phialophora_europaea_CBS101466,ERR2674086.1565,100.00,29,0,0,236,264,11,39,1e-07,54.7
Phialophora_europaea_CBS101466,ERR2674086.1565,100.00,29,0,0,236,264,299,271,1e-07,54.7
Phialophora_europaea_CBS101466,ERR2674086.1564,100.00,29,0,0,236,264,11,39,1e-07,54.7
Phialophora_europaea_CBS101466,ERR2674086.1564,100.00,28,0,0,236,263,299,272,5e-07,52.8
Phialophora_ambigua_CBS235.93,ERR2674086.1565,100.00,29,0,0,233,261,11,39,1e-07,54.7
Phialophora_ambigua_CBS235.93,ERR2674086.1565,100.00,29,0,0,233,261,299,271,1e-07,54.7
Phialophora_ambigua_CBS235.93,ERR2674086.1564,100.00,29,0,0,233,261,11,39,1e-07,54.7
Phialophora_ambigua_CBS235.93,ERR2674086.1564,100.00,28,0,0,233,260,299,272,5e-07,52.8
Cladophialophora_modesta_CBS985.96_T,ERR2674086.3915,93.62,47,3,0,533,579,297,251,2e-12,71.3
Cladophialophora_modesta_CBS985.96_T,ERR2674086.1565,100.00,29,0,0,230,258,11,39,2e-07,54.7
Cladophialophora_modesta_CBS985.96_T,ERR2674086.1565,100.00,29,0,0,230,258,299,271,2e-07,54.7
Cladophialophora_modesta_CBS985.96_T,ERR2674086.1564,100.00,29,0,0,230,258,11,39,2e-07,54.7
Cladophialophora_modesta_CBS985.96_T,ERR2674086.1564,100.00,28,0,0,230,257,299,272,6e-07,52.8
Cyphellophora_fusarioides_MUCL44033_T,ERR2674086.1565,100.00,29,0,0,229,257,11,39,1e-07,54.7
Cyphellophora_fusarioides_MUCL44033_T,ERR2674086.1565,100.00,29,0,0,229,257,299,271,1e-07,54.7
Cyphellophora_fusarioides_MUCL44033_T,ERR2674086.1564,100.00,29,0,0,229,257,11,39,1e-07,54.7
Cyphellophora_fusarioides_MUCL44033_T,ERR2674086.1564,100.00,28,0,0,229,256,299,272,5e-07,52.8
