Exophiala_nigra_CBS535.94_T,ERR2438889.11712,93.18,132,8,1,243,374,6,136,1e-48,193
Exophiala_nigra_CBS535.94_T,ERR2438889.5750,92.37,131,9,1,243,373,6,135,2e-46,185
Exophiala_nigra_CBS535.94_T,ERR2438889.10149,91.73,133,9,2,242,374,5,135,7e-46,183
Exophiala_nigra_CBS535.94_T,ERR2438889.30981,87.42,151,15,4,242,392,5,151,5e-42,171
Exophiala_nigra_CBS535.94_T,ERR2438889.30356,91.45,117,9,1,243,359,6,121,1e-38,159
Exophiala_spinifera_CBS899.68_T,ERR2438889.11712,90.07,151,11,4,240,389,6,153,1e-48,193
Exophiala_spinifera_CBS899.68_T,ERR2438889.10149,89.33,150,12,3,239,388,5,150,2e-46,185
Exophiala_spinifera_CBS899.68_T,ERR2438889.5750,89.19,148,13,3,240,387,6,150,2e-45,182
Exophiala_spinifera_CBS899.68_T,ERR2438889.30981,88.00,150,15,3,239,388,5,151,4e-43,174
Exophiala_spinifera_CBS899.68_T,ERR2438889.30356,90.60,117,10,1,240,356,6,121,5e-37,154
Exophiala_exophialae_CBS668.76_T,ERR2438889.11712,90.07,151,11,4,241,390,6,153,1e-48,193
Exophiala_exophialae_CBS668.76_T,ERR2438889.10149,89.33,150,12,3,240,389,5,150,2e-46,185
Exophiala_exophialae_CBS668.76_T,ERR2438889.5750,89.19,148,13,3,241,388,6,150,2e-45,182
Exophiala_exophialae_CBS668.76_T,ERR2438889.30981,88.00,150,15,3,240,389,5,151,4e-43,174
Exophiala_exophialae_CBS668.76_T,ERR2438889.30356,90.60,117,10,1,241,357,6,121,5e-37,154
Exophiala_polymorpha_CBS138920_T,ERR2438889.11712,90.07,151,11,4,343,492,6,153,1e-48,193
Exophiala_polymorpha_CBS138920_T,ERR2438889.10149,89.33,150,12,3,342,491,5,150,2e-46,185
Exophiala_polymorpha_CBS138920_T,ERR2438889.5750,89.19,148,13,3,343,490,6,150,3e-45,182
Exophiala_polymorpha_CBS138920_T,ERR2438889.30981,88.00,150,15,3,342,491,5,151,5e-43,174
Exophiala_polymorpha_CBS138920_T,ERR2438889.30981,100.00,30,0,0,642,671,273,302,2e-07,56.5
Exophiala_polymorpha_CBS138920_T,ERR2438889.30356,90.60,117,10,1,343,459,6,121,7e-37,154
Exophiala_oligosperma_CBS725.88_T,ERR2438889.11712,90.07,151,11,4,253,402,6,153,1e-48,193
Exophiala_oligosperma_CBS725.88_T,ERR2438889.10149,89.33,150,12,3,252,401,5,150,2e-46,185
Exophiala_oligosperma_CBS725.88_T,ERR2438889.5750,89.19,148,13,3,253,400,6,150,2e-45,182
Exophiala_oligosperma_CBS725.88_T,ERR2438889.30981,88.00,150,15,3,252,401,5,151,4e-43,174
Exophiala_oligosperma_CBS725.88_T,ERR2438889.30356,90.60,117,10,1,253,369,6,121,5e-37,154
Exophiala_jeanselmei_CBS507.90_T,ERR2438889.11712,90.07,151,11,4,245,394,6,153,1e-48,193
Exophiala_jeanselmei_CBS507.90_T,ERR2438889.10149,89.33,150,12,3,244,393,5,150,2e-46,185
Exophiala_jeanselmei_CBS507.90_T,ERR2438889.5750,89.19,148,13,3,245,392,6,150,3e-45,182
Exophiala_jeanselmei_CBS507.90_T,ERR2438889.30981,88.00,150,15,3,244,393,5,151,4e-43,174
Exophiala_jeanselmei_CBS507.90_T,ERR2438889.30981,100.00,32,0,0,542,573,271,302,1e-08,60.2
Exophiala_jeanselmei_CBS507.90_T,ERR2438889.30356,90.60,117,10,1,245,361,6,121,6e-37,154
Exophiala_bergeri_CBS353.52,ERR2438889.11712,93.18,132,8,1,206,337,6,136,1e-48,193
Exophiala_bergeri_CBS353.52,ERR2438889.5750,92.37,131,9,1,206,336,6,135,2e-46,185
Exophiala_bergeri_CBS353.52,ERR2438889.10149,91.73,133,9,2,205,337,5,135,6e-46,183
Exophiala_bergeri_CBS353.52,ERR2438889.30981,87.42,151,15,4,205,355,5,151,4e-42,171
Exophiala_bergeri_CBS353.52,ERR2438889.30356,91.45,117,9,1,206,322,6,121,1e-38,159
Exophiala_moniliae_CBS520.76_T,ERR2438889.11712,93.18,132,8,1,243,374,6,136,1e-48,193
Exophiala_moniliae_CBS520.76_T,ERR2438889.5750,93.60,125,7,1,243,367,6,129,2e-46,185
Exophiala_moniliae_CBS520.76_T,ERR2438889.10149,91.73,133,9,2,242,374,5,135,7e-46,183
Exophiala_moniliae_CBS520.76_T,ERR2438889.30356,91.53,118,9,1,243,360,6,122,3e-39,161
Exophiala_moniliae_CBS520.76_T,ERR2438889.30981,88.15,135,14,2,242,376,5,137,1e-38,159
Exophiala_pisciphila_CBS537.73_T,ERR2438889.11712,91.39,151,9,4,246,395,6,153,6e-52,204
Exophiala_pisciphila_CBS537.73_T,ERR2438889.10149,90.67,150,10,3,245,394,5,150,1e-49,196
Exophiala_pisciphila_CBS537.73_T,ERR2438889.10149,97.73,44,1,0,546,589,257,300,1e-13,76.8
Exophiala_pisciphila_CBS537.73_T,ERR2438889.5750,90.54,148,11,3,246,393,6,150,1e-48,193
Exophiala_pisciphila_CBS537.73_T,ERR2438889.30981,88.67,150,14,3,245,394,5,151,1e-44,180
Exophiala_pisciphila_CBS537.73_T,ERR2438889.30356,91.53,118,9,1,246,363,6,122,4e-39,161
Exophiala_xenobiotica_CBS117642,ERR2438889.11712,90.73,151,10,4,238,387,6,153,2e-50,198
Exophiala_xenobiotica_CBS117642,ERR2438889.10149,90.00,150,11,3,237,386,5,150,4e-48,191
Exophiala_xenobiotica_CBS117642,ERR2438889.5750,89.86,148,12,3,238,385,6,150,5e-47,187
Exophiala_xenobiotica_CBS117642,ERR2438889.30981,88.67,150,14,3,237,386,5,151,8e-45,180
Exophiala_xenobiotica_CBS117642,ERR2438889.30356,91.45,117,9,1,238,354,6,121,1e-38,159
Exophiala_brunnea_CBS,ERR2438889.11712,90.73,151,10,4,274,423,6,153,3e-50,198
Exophiala_brunnea_CBS,ERR2438889.10149,90.00,150,11,3,273,422,5,150,5e-48,191
Exophiala_brunnea_CBS,ERR2438889.5750,89.86,148,12,3,274,421,6,150,6e-47,187
Exophiala_brunnea_CBS,ERR2438889.30981,88.00,150,15,3,273,422,5,151,5e-43,174
Exophiala_brunnea_CBS,ERR2438889.30356,90.68,118,10,1,274,391,6,122,2e-37,156
Exophiala_nishimurae_CBS101538_T,ERR2438889.11712,90.07,151,11,4,252,401,6,153,1e-48,193
Exophiala_nishimurae_CBS101538_T,ERR2438889.10149,89.33,150,12,3,251,400,5,150,2e-46,185
Exophiala_nishimurae_CBS101538_T,ERR2438889.5750,89.19,148,13,3,252,399,6,150,3e-45,182
Exophiala_nishimurae_CBS101538_T,ERR2438889.30981,88.00,150,15,3,251,400,5,151,4e-43,174
Exophiala_nishimurae_CBS101538_T,ERR2438889.30981,97.22,36,1,0,545,580,267,302,3e-09,62.1
Exophiala_nishimurae_CBS101538_T,ERR2438889.30356,90.60,117,10,1,252,368,6,121,6e-37,154
Exophiala_mesophila_CBS402.95_T,ERR2438889.11712,93.18,132,8,1,236,367,6,136,1e-48,193
Exophiala_mesophila_CBS402.95_T,ERR2438889.5750,92.37,131,9,1,236,366,6,135,2e-46,185
Exophiala_mesophila_CBS402.95_T,ERR2438889.10149,91.73,133,9,2,235,367,5,135,8e-46,183
Exophiala_mesophila_CBS402.95_T,ERR2438889.30981,88.15,135,14,2,235,369,5,137,1e-38,159
Exophiala_mesophila_CBS402.95_T,ERR2438889.30981,97.30,37,0,1,544,579,266,302,4e-09,62.1
Exophiala_mesophila_CBS402.95_T,ERR2438889.30356,90.68,118,10,1,236,353,6,122,2e-37,156
Exophiala_castellanii_CBS158.58_T,ERR2438889.11712,93.18,132,8,1,234,365,6,136,1e-48,193
Exophiala_castellanii_CBS158.58_T,ERR2438889.5750,92.37,131,9,1,234,364,6,135,2e-46,185
Exophiala_castellanii_CBS158.58_T,ERR2438889.10149,91.73,133,9,2,233,365,5,135,8e-46,183
Exophiala_castellanii_CBS158.58_T,ERR2438889.30981,88.15,135,14,2,233,367,5,137,1e-38,159
Exophiala_castellanii_CBS158.58_T,ERR2438889.30981,100.00,30,0,0,549,578,273,302,2e-07,56.5
Exophiala_castellanii_CBS158.58_T,ERR2438889.30356,90.68,118,10,1,234,351,6,122,2e-37,156
Exophiala_lecanii-corni_CBS123.33_T,ERR2438889.11712,92.42,132,9,1,257,388,6,136,5e-47,187
Exophiala_lecanii-corni_CBS123.33_T,ERR2438889.10149,91.73,133,9,2,256,388,5,135,7e-46,183
Exophiala_lecanii-corni_CBS123.33_T,ERR2438889.5750,91.60,131,10,1,257,387,6,135,9e-45,180
Exophiala_lecanii-corni_CBS123.33_T,ERR2438889.30356,90.68,118,10,1,257,374,6,122,1e-37,156
Exophiala_lecanii-corni_CBS123.33_T,ERR2438889.30981,87.41,135,15,2,256,390,5,137,5e-37,154
Exophiala_dermatitidis_CBS748.88,ERR2438889.11712,93.94,132,7,1,249,380,6,136,7e-50,198
Exophiala_dermatitidis_CBS748.88,ERR2438889.10149,90.07,151,10,3,248,398,5,150,1e-47,191
Exophiala_dermatitidis_CBS748.88,ERR2438889.5750,93.13,131,8,1,249,379,6,135,1e-47,191
Exophiala_dermatitidis_CBS748.88,ERR2438889.30981,88.08,151,14,4,248,398,5,151,3e-43,176
Exophiala_dermatitidis_CBS748.88,ERR2438889.30981,100.00,33,0,0,572,604,270,302,9e-09,62.1
Exophiala_dermatitidis_CBS748.88,ERR2438889.30356,91.53,118,9,1,249,366,6,122,9e-39,161
Exophiala_angulospora_CBS482.92_T,ERR2438889.11712,93.18,132,8,1,240,371,6,136,1e-48,193
Exophiala_angulospora_CBS482.92_T,ERR2438889.10149,89.40,151,11,3,239,389,5,150,2e-46,185
Exophiala_angulospora_CBS482.92_T,ERR2438889.5750,93.60,125,7,1,240,364,6,129,2e-46,185
Exophiala_angulospora_CBS482.92_T,ERR2438889.30981,86.71,158,16,5,239,396,5,157,5e-42,171
Exophiala_angulospora_CBS482.92_T,ERR2438889.30356,91.53,118,9,1,240,357,6,122,3e-39,161
Exophiala_opportunistica_CBS109811_T,ERR2438889.11712,92.05,151,8,4,239,388,6,153,1e-53,209
Exophiala_opportunistica_CBS109811_T,ERR2438889.10149,91.33,150,9,4,238,387,5,150,2e-51,202
Exophiala_opportunistica_CBS109811_T,ERR2438889.5750,91.22,148,10,2,239,386,6,150,2e-50,198
Exophiala_opportunistica_CBS109811_T,ERR2438889.30981,88.00,150,15,3,238,387,5,151,4e-43,174
Exophiala_opportunistica_CBS109811_T,ERR2438889.30356,91.53,118,9,1,239,356,6,122,3e-39,161
Exophiala_salmonis_CBS157.67_T,ERR2438889.11712,91.39,151,9,4,368,517,6,153,7e-52,204
Exophiala_salmonis_CBS157.67_T,ERR2438889.10149,90.67,150,10,3,367,516,5,150,1e-49,196
Exophiala_salmonis_CBS157.67_T,ERR2438889.10149,97.73,44,1,0,666,709,257,300,2e-13,76.8
Exophiala_salmonis_CBS157.67_T,ERR2438889.5750,90.54,148,11,3,368,515,6,150,2e-48,193
Exophiala_salmonis_CBS157.67_T,ERR2438889.30981,88.67,150,14,3,367,516,5,151,1e-44,180
Exophiala_salmonis_CBS157.67_T,ERR2438889.30356,91.53,118,9,1,368,485,6,122,4e-39,161
Exophiala_aquamarina_CBS119918_T,ERR2438889.11712,91.45,152,8,4,246,396,6,153,5e-52,204
Exophiala_aquamarina_CBS119918_T,ERR2438889.10149,90.73,151,9,3,245,395,5,150,9e-50,196
Exophiala_aquamarina_CBS119918_T,ERR2438889.5750,89.93,149,11,4,246,394,6,150,1e-47,189
Exophiala_aquamarina_CBS119918_T,ERR2438889.30981,88.08,151,14,4,245,395,5,151,1e-43,176
Exophiala_aquamarina_CBS119918_T,ERR2438889.30356,91.53,118,9,1,246,363,6,122,3e-39,161
Exophiala_cancerae_CBS120420_T,ERR2438889.11712,92.05,151,8,4,261,410,6,153,1e-53,209
Exophiala_cancerae_CBS120420_T,ERR2438889.10149,91.33,150,9,4,260,409,5,150,2e-51,202
Exophiala_cancerae_CBS120420_T,ERR2438889.10149,95.56,45,1,1,556,600,257,300,6e-12,71.3
Exophiala_cancerae_CBS120420_T,ERR2438889.5750,91.22,148,10,2,261,408,6,150,3e-50,198
Exophiala_cancerae_CBS120420_T,ERR2438889.30981,88.00,150,15,3,260,409,5,151,4e-43,174
Exophiala_cancerae_CBS120420_T,ERR2438889.30981,97.22,36,1,0,558,593,267,302,4e-09,62.1
Exophiala_cancerae_CBS120420_T,ERR2438889.30356,91.53,118,9,1,261,378,6,122,4e-39,161
Exophiala_tremulae_CBS129355,ERR2438889.11712,92.05,151,8,3,273,422,6,153,1e-53,209
Exophiala_tremulae_CBS129355,ERR2438889.10149,91.33,150,9,3,272,421,5,150,2e-51,202
Exophiala_tremulae_CBS129355,ERR2438889.10149,97.73,44,1,0,572,615,257,300,1e-13,76.8
Exophiala_tremulae_CBS129355,ERR2438889.5750,90.54,148,11,3,273,420,6,150,1e-48,193
Exophiala_tremulae_CBS129355,ERR2438889.30981,88.67,150,14,3,272,421,5,151,1e-44,180
Exophiala_tremulae_CBS129355,ERR2438889.30356,91.53,118,9,1,273,390,6,122,4e-39,161
Exophiala_equina_CBS116009,ERR2438889.11712,92.05,151,8,3,239,388,6,153,1e-53,209
Exophiala_equina_CBS116009,ERR2438889.10149,91.33,150,9,3,238,387,5,150,2e-51,202
Exophiala_equina_CBS116009,ERR2438889.5750,90.54,148,11,3,239,386,6,150,1e-48,193
Exophiala_equina_CBS116009,ERR2438889.30981,88.67,150,14,3,238,387,5,151,9e-45,180
Exophiala_equina_CBS116009,ERR2438889.30356,91.53,118,9,1,239,356,6,122,3e-39,161
Exophiala_alcalophila_CBS520.82_T,ERR2438889.11712,93.18,132,8,1,250,381,6,136,1e-48,193
Exophiala_alcalophila_CBS520.82_T,ERR2438889.10149,89.40,151,11,3,249,399,5,150,2e-46,185
Exophiala_alcalophila_CBS520.82_T,ERR2438889.5750,93.60,125,7,1,250,374,6,129,2e-46,185
Exophiala_alcalophila_CBS520.82_T,ERR2438889.30981,87.42,151,15,4,249,399,5,151,5e-42,171
Exophiala_alcalophila_CBS520.82_T,ERR2438889.30356,91.53,118,9,1,250,367,6,122,3e-39,161
Exophiala_crusticola_CBS119970_T,ERR2438889.11712,93.94,132,7,1,255,386,6,136,2e-50,198
Exophiala_crusticola_CBS119970_T,ERR2438889.5750,93.13,131,8,1,255,385,6,135,4e-48,191
Exophiala_crusticola_CBS119970_T,ERR2438889.10149,89.54,153,11,3,254,406,5,152,1e-47,189
Exophiala_crusticola_CBS119970_T,ERR2438889.30981,87.58,153,15,4,254,406,5,153,4e-43,174
Exophiala_crusticola_CBS119970_T,ERR2438889.30356,91.53,118,9,1,255,372,6,122,3e-39,161
Rhinocladiella_atrovirens_CBS264.49,ERR2438889.11712,92.42,132,9,1,281,412,6,136,6e-47,187
Rhinocladiella_atrovirens_CBS264.49,ERR2438889.10149,91.73,133,9,2,280,412,5,135,8e-46,183
Rhinocladiella_atrovirens_CBS264.49,ERR2438889.10149,93.62,47,3,0,568,614,254,300,6e-12,71.3
Rhinocladiella_atrovirens_CBS264.49,ERR2438889.5750,91.60,131,10,1,281,411,6,135,1e-44,180
Rhinocladiella_atrovirens_CBS264.49,ERR2438889.30356,90.68,118,10,1,281,398,6,122,2e-37,156
Rhinocladiella_atrovirens_CBS264.49,ERR2438889.30981,87.41,135,15,2,280,414,5,137,6e-37,154
Rhinocladiella_basitona_CBS101460_T,ERR2438889.11712,90.07,151,11,4,240,389,6,153,1e-48,193
Rhinocladiella_basitona_CBS101460_T,ERR2438889.10149,89.33,150,12,3,239,388,5,150,2e-46,185
Rhinocladiella_basitona_CBS101460_T,ERR2438889.5750,89.19,148,13,3,240,387,6,150,2e-45,182
Rhinocladiella_basitona_CBS101460_T,ERR2438889.30981,88.00,150,15,3,239,388,5,151,4e-43,174
Rhinocladiella_basitona_CBS101460_T,ERR2438889.30356,90.60,117,10,1,240,356,6,121,5e-37,154
Rhinocladiella_phaeophora_CBS496.78_T,ERR2438889.11712,93.94,132,7,1,248,379,6,136,2e-50,198
Rhinocladiella_phaeophora_CBS496.78_T,ERR2438889.5750,93.13,131,8,1,248,378,6,135,4e-48,191
Rhinocladiella_phaeophora_CBS496.78_T,ERR2438889.10149,92.48,133,8,2,247,379,5,135,1e-47,189
Rhinocladiella_phaeophora_CBS496.78_T,ERR2438889.30981,86.84,152,15,5,247,398,5,151,2e-40,165
Rhinocladiella_phaeophora_CBS496.78_T,ERR2438889.30356,91.53,118,9,1,248,365,6,122,3e-39,161
Rhinocladiella_aquaspersa_CBS313.73_T,ERR2438889.11712,93.94,132,7,1,242,373,6,136,3e-50,198
Rhinocladiella_aquaspersa_CBS313.73_T,ERR2438889.5750,93.13,131,8,1,242,372,6,135,5e-48,191
Rhinocladiella_aquaspersa_CBS313.73_T,ERR2438889.10149,92.48,133,8,2,241,373,5,135,2e-47,189
Rhinocladiella_aquaspersa_CBS313.73_T,ERR2438889.30981,86.84,152,15,5,241,392,5,151,3e-40,165
Rhinocladiella_aquaspersa_CBS313.73_T,ERR2438889.30356,91.53,118,9,1,242,359,6,122,4e-39,161
Rhinocladiella_fasciculata_CBS132.86_T,ERR2438889.11712,92.42,132,9,1,258,389,6,136,5e-47,187
Rhinocladiella_fasciculata_CBS132.86_T,ERR2438889.5750,92.80,125,8,1,258,382,6,129,9e-45,180
Rhinocladiella_fasciculata_CBS132.86_T,ERR2438889.10149,90.98,133,10,2,257,389,5,135,3e-44,178
Rhinocladiella_fasciculata_CBS132.86_T,ERR2438889.30981,85.62,153,16,6,257,409,5,151,1e-37,156
Rhinocladiella_fasciculata_CBS132.86_T,ERR2438889.30356,90.68,118,10,1,258,375,6,122,1e-37,156
Rhinocladiella_anceps_CBS181.65_T,ERR2438889.11712,88.27,162,13,5,240,401,6,161,1e-47,189
Rhinocladiella_anceps_CBS181.65_T,ERR2438889.10149,88.74,151,12,3,239,389,5,150,8e-45,180
Rhinocladiella_anceps_CBS181.65_T,ERR2438889.5750,91.60,131,10,1,240,370,6,135,8e-45,180
Rhinocladiella_anceps_CBS181.65_T,ERR2438889.30981,86.08,158,17,5,239,396,5,157,2e-40,165
Rhinocladiella_anceps_CBS181.65_T,ERR2438889.30356,90.68,118,10,1,240,357,6,122,1e-37,156
Rhinocladiella_mackenziei_CBS367.92,ERR2438889.11712,93.08,130,8,1,229,358,6,134,2e-47,189
Rhinocladiella_mackenziei_CBS367.92,ERR2438889.10149,92.37,131,8,2,228,358,5,133,2e-46,185
Rhinocladiella_mackenziei_CBS367.92,ERR2438889.10149,100.00,38,0,0,564,601,263,300,6e-12,71.3
Rhinocladiella_mackenziei_CBS367.92,ERR2438889.5750,93.55,124,7,1,229,352,6,128,7e-46,183
Rhinocladiella_mackenziei_CBS367.92,ERR2438889.30356,91.53,118,9,1,229,346,6,122,3e-39,161
Rhinocladiella_mackenziei_CBS367.92,ERR2438889.30981,88.24,136,13,3,228,363,5,137,1e-38,159
Veronaea_compacta_CBS268.75_T,ERR2438889.11712,90.13,152,10,5,262,412,6,153,1e-48,193
Veronaea_compacta_CBS268.75_T,ERR2438889.10149,89.40,151,11,4,261,411,5,150,2e-46,185
Veronaea_compacta_CBS268.75_T,ERR2438889.5750,89.26,149,12,4,262,410,6,150,7e-46,183
Veronaea_compacta_CBS268.75_T,ERR2438889.30981,87.42,151,15,4,261,411,5,151,6e-42,171
Veronaea_compacta_CBS268.75_T,ERR2438889.30356,90.68,118,10,1,262,379,6,122,2e-37,156
Capronia_pilosella_AFTOL-ID657,ERR2438889.11712,91.45,152,8,4,340,490,6,153,6e-52,204
Capronia_pilosella_AFTOL-ID657,ERR2438889.10149,90.73,151,9,4,339,489,5,150,1e-49,196
Capronia_pilosella_AFTOL-ID657,ERR2438889.5750,93.13,131,8,1,340,470,6,135,5e-48,191
Capronia_pilosella_AFTOL-ID657,ERR2438889.30981,88.08,151,14,4,339,489,5,151,1e-43,176
Capronia_pilosella_AFTOL-ID657,ERR2438889.30981,100.00,31,0,0,642,672,272,302,5e-08,58.4
Capronia_pilosella_AFTOL-ID657,ERR2438889.30356,91.53,118,9,1,340,457,6,122,4e-39,161
Capronia_dactylotricha_DAOM208471_T,ERR2438889.11712,93.23,133,7,2,242,374,6,136,4e-49,195
Capronia_dactylotricha_DAOM208471_T,ERR2438889.5750,92.42,132,8,2,242,373,6,135,6e-47,187
Capronia_dactylotricha_DAOM208471_T,ERR2438889.10149,91.79,134,8,3,241,374,5,135,8e-46,183
Capronia_dactylotricha_DAOM208471_T,ERR2438889.10149,100.00,36,0,0,559,594,265,300,8e-11,67.6
Capronia_dactylotricha_DAOM208471_T,ERR2438889.30356,91.53,118,9,1,242,359,6,122,4e-39,161
Capronia_dactylotricha_DAOM208471_T,ERR2438889.30981,88.24,136,13,2,241,376,5,137,1e-38,159
Capronia_kleinmondensis_CBS122671_T,ERR2438889.11712,92.42,132,9,1,267,398,6,136,6e-47,187
Capronia_kleinmondensis_CBS122671_T,ERR2438889.10149,91.73,133,9,2,266,398,5,135,8e-46,183
Capronia_kleinmondensis_CBS122671_T,ERR2438889.10149,95.35,43,1,1,559,600,258,300,8e-11,67.6
Capronia_kleinmondensis_CBS122671_T,ERR2438889.5750,91.60,131,10,1,267,397,6,135,1e-44,180
Capronia_kleinmondensis_CBS122671_T,ERR2438889.30356,90.68,118,10,1,267,384,6,122,2e-37,156
Capronia_kleinmondensis_CBS122671_T,ERR2438889.30981,87.41,135,15,2,266,400,5,137,6e-37,154
Capronia_mansonii_CBS101.67_T,ERR2438889.11712,91.45,152,8,5,253,403,6,153,6e-52,204
Capronia_mansonii_CBS101.67_T,ERR2438889.10149,90.73,151,9,4,252,402,5,150,1e-49,196
Capronia_mansonii_CBS101.67_T,ERR2438889.5750,90.60,149,10,3,253,401,6,150,4e-49,195
Capronia_mansonii_CBS101.67_T,ERR2438889.30981,88.08,151,14,4,252,402,5,151,1e-43,176
Capronia_mansonii_CBS101.67_T,ERR2438889.30981,100.00,31,0,0,567,597,272,302,5e-08,58.4
Capronia_mansonii_CBS101.67_T,ERR2438889.30356,91.53,118,9,1,253,370,6,122,4e-39,161
Capronia_munkii_DAOM216390_T,ERR2438889.11712,91.45,152,8,5,253,403,6,153,6e-52,204
Capronia_munkii_DAOM216390_T,ERR2438889.10149,90.73,151,9,4,252,402,5,150,1e-49,196
Capronia_munkii_DAOM216390_T,ERR2438889.5750,90.60,149,10,3,253,401,6,150,4e-49,195
Capronia_munkii_DAOM216390_T,ERR2438889.30981,88.08,151,14,4,252,402,5,151,1e-43,176
Capronia_munkii_DAOM216390_T,ERR2438889.30981,90.00,50,3,2,548,597,255,302,1e-09,63.9
Capronia_munkii_DAOM216390_T,ERR2438889.30356,91.53,118,9,1,253,370,6,122,4e-39,161
Capronia_coronata_ATCC56201_T,ERR2438889.11712,93.18,132,8,1,241,372,6,136,1e-48,193
Capronia_coronata_ATCC56201_T,ERR2438889.10149,89.40,151,11,3,240,390,5,150,2e-46,185
Capronia_coronata_ATCC56201_T,ERR2438889.5750,93.60,125,7,1,241,365,6,129,2e-46,185
Capronia_coronata_ATCC56201_T,ERR2438889.30981,87.42,151,15,4,240,390,5,151,6e-42,171
Capronia_coronata_ATCC56201_T,ERR2438889.30981,95.00,40,1,1,529,568,264,302,4e-09,62.1
Capronia_coronata_ATCC56201_T,ERR2438889.30356,91.53,118,9,1,241,358,6,122,4e-39,161
Capronia_parasitica_CBS123.88,ERR2438889.11712,93.02,129,8,1,247,375,6,133,6e-47,187
Capronia_parasitica_CBS123.88,ERR2438889.10149,92.31,130,8,2,246,375,5,132,7e-46,183
Capronia_parasitica_CBS123.88,ERR2438889.10149,100.00,35,0,0,561,595,265,299,3e-10,65.8
Capronia_parasitica_CBS123.88,ERR2438889.5750,93.50,123,7,1,247,369,6,127,3e-45,182
Capronia_parasitica_CBS123.88,ERR2438889.30356,91.53,118,9,1,247,364,6,122,3e-39,161
Capronia_parasitica_CBS123.88,ERR2438889.30981,85.62,153,16,6,246,398,5,151,2e-37,156
Veronaea_japonica_CBS776.83_T,ERR2438889.11712,91.39,151,9,4,275,424,6,153,6e-52,204
Veronaea_japonica_CBS776.83_T,ERR2438889.10149,90.67,150,10,3,274,423,5,150,9e-50,196
Veronaea_japonica_CBS776.83_T,ERR2438889.5750,90.54,148,11,3,275,422,6,150,1e-48,193
Veronaea_japonica_CBS776.83_T,ERR2438889.30981,88.67,150,14,3,274,423,5,151,9e-45,180
Veronaea_japonica_CBS776.83_T,ERR2438889.30356,91.53,118,9,1,275,392,6,122,3e-39,161
Thysanorea_papuana_CBS212.96_T,ERR2438889.11712,92.05,151,8,4,249,398,6,153,1e-53,209
Thysanorea_papuana_CBS212.96_T,ERR2438889.10149,91.33,150,9,4,248,397,5,150,2e-51,202
Thysanorea_papuana_CBS212.96_T,ERR2438889.5750,90.54,148,11,2,249,396,6,150,1e-48,193
Thysanorea_papuana_CBS212.96_T,ERR2438889.30981,88.00,150,15,3,248,397,5,151,4e-43,174
Thysanorea_papuana_CBS212.96_T,ERR2438889.30356,91.53,118,9,1,249,366,6,122,3e-39,161
Capronia_acutiseta_ATCC56428_T,ERR2438889.11712,93.23,133,7,2,243,374,6,137,4e-49,195
Capronia_acutiseta_ATCC56428_T,ERR2438889.5750,93.02,129,7,2,243,370,6,133,6e-47,187
Capronia_acutiseta_ATCC56428_T,ERR2438889.10149,91.79,134,8,3,242,374,5,136,8e-46,183
Capronia_acutiseta_ATCC56428_T,ERR2438889.10149,95.45,44,1,1,531,574,258,300,2e-11,69.4
Capronia_acutiseta_ATCC56428_T,ERR2438889.30356,91.53,118,8,2,243,359,6,122,4e-39,161
Capronia_acutiseta_ATCC56428_T,ERR2438889.30981,85.53,159,16,7,242,399,5,157,1e-38,159
Capronia_acutiseta_ATCC56428_T,ERR2438889.30981,97.22,36,1,0,532,567,267,302,4e-09,62.1
Fonsecaea_brasiliensis_CBS119710_T,ERR2438889.11712,90.79,152,9,4,249,399,6,153,2e-50,198
Fonsecaea_brasiliensis_CBS119710_T,ERR2438889.10149,90.07,151,10,3,248,398,5,150,4e-48,191
Fonsecaea_brasiliensis_CBS119710_T,ERR2438889.5750,89.93,149,11,3,249,397,6,150,1e-47,189
Fonsecaea_brasiliensis_CBS119710_T,ERR2438889.30981,87.42,151,15,4,248,398,5,151,5e-42,171
Fonsecaea_brasiliensis_CBS119710_T,ERR2438889.30356,91.53,118,9,1,249,366,6,122,3e-39,161
Fonsecaea_pedrosoi_CBS271.37_T,ERR2438889.11712,90.85,153,8,5,277,428,6,153,8e-51,200
Fonsecaea_pedrosoi_CBS271.37_T,ERR2438889.10149,90.13,152,9,4,276,427,5,150,1e-48,193
Fonsecaea_pedrosoi_CBS271.37_T,ERR2438889.5750,92.42,132,8,2,277,408,6,135,6e-47,187
Fonsecaea_pedrosoi_CBS271.37_T,ERR2438889.30981,87.50,152,14,5,276,427,5,151,6e-42,171
Fonsecaea_pedrosoi_CBS271.37_T,ERR2438889.30981,100.00,29,0,0,584,612,272,300,6e-07,54.7
Fonsecaea_pedrosoi_CBS271.37_T,ERR2438889.30356,91.53,118,9,1,277,394,6,122,4e-39,161
Fonsecaea_multimorphosa_CBS980.96_T,ERR2438889.11712,91.45,152,8,4,247,397,6,153,5e-52,204
Fonsecaea_multimorphosa_CBS980.96_T,ERR2438889.10149,90.73,151,9,3,246,396,5,150,8e-50,196
Fonsecaea_multimorphosa_CBS980.96_T,ERR2438889.5750,90.60,149,10,4,247,395,6,150,3e-49,195
Fonsecaea_multimorphosa_CBS980.96_T,ERR2438889.30981,86.75,151,16,4,246,396,5,151,2e-40,165
Fonsecaea_multimorphosa_CBS980.96_T,ERR2438889.30356,91.53,118,9,1,247,364,6,122,3e-39,161
Fonsecaea_minima_CBS125760_T,ERR2438889.11712,90.79,152,9,4,243,393,6,153,2e-50,198
Fonsecaea_minima_CBS125760_T,ERR2438889.10149,90.07,151,10,3,242,392,5,150,4e-48,191
Fonsecaea_minima_CBS125760_T,ERR2438889.5750,89.93,149,11,3,243,391,6,150,1e-47,189
Fonsecaea_minima_CBS125760_T,ERR2438889.30981,87.42,151,15,4,242,392,5,151,5e-42,171
Fonsecaea_minima_CBS125760_T,ERR2438889.30356,91.53,118,9,1,243,360,6,122,3e-39,161
Fonsecaea_nubica_CBS269.64_T,ERR2438889.11712,90.85,153,8,5,254,405,6,153,7e-51,200
Fonsecaea_nubica_CBS269.64_T,ERR2438889.10149,90.13,152,9,4,253,404,5,150,1e-48,193
Fonsecaea_nubica_CBS269.64_T,ERR2438889.5750,92.42,132,8,2,254,385,6,135,5e-47,187
Fonsecaea_nubica_CBS269.64_T,ERR2438889.30981,87.50,152,14,5,253,404,5,151,5e-42,171
Fonsecaea_nubica_CBS269.64_T,ERR2438889.30356,91.53,118,9,1,254,371,6,122,3e-39,161
Fonsecaea_monophora_CBS269.37_T,ERR2438889.11712,90.26,154,8,6,254,406,6,153,3e-49,195
Fonsecaea_monophora_CBS269.37_T,ERR2438889.10149,89.54,153,9,5,253,405,5,150,5e-47,187
Fonsecaea_monophora_CBS269.37_T,ERR2438889.5750,91.73,133,8,3,254,386,6,135,2e-45,182
Fonsecaea_monophora_CBS269.37_T,ERR2438889.30981,86.93,153,14,6,253,405,5,151,7e-41,167
Fonsecaea_monophora_CBS269.37_T,ERR2438889.30356,90.76,119,9,2,254,372,6,122,4e-38,158
Fonsecaea_erecta_CBS125763_T,ERR2438889.11712,91.45,152,8,4,238,388,6,153,5e-52,204
Fonsecaea_erecta_CBS125763_T,ERR2438889.10149,90.73,151,9,4,237,387,5,150,8e-50,196
Fonsecaea_erecta_CBS125763_T,ERR2438889.5750,90.60,149,10,3,238,386,6,150,3e-49,195
Fonsecaea_erecta_CBS125763_T,ERR2438889.30981,87.42,151,15,4,237,387,5,151,5e-42,171
Fonsecaea_erecta_CBS125763_T,ERR2438889.30356,91.53,118,9,1,238,355,6,122,3e-39,161
Fonsecaea_pugnacius_CBS139214_T,ERR2438889.11712,90.26,154,8,5,247,399,6,153,3e-49,195
Fonsecaea_pugnacius_CBS139214_T,ERR2438889.10149,89.54,153,9,4,246,398,5,150,5e-47,187
Fonsecaea_pugnacius_CBS139214_T,ERR2438889.5750,92.42,132,8,2,247,378,6,135,5e-47,187
Fonsecaea_pugnacius_CBS139214_T,ERR2438889.30981,86.93,153,14,6,246,398,5,151,7e-41,167
Fonsecaea_pugnacius_CBS139214_T,ERR2438889.30356,91.53,118,9,1,247,364,6,122,3e-39,161
Cladophialophora_psammophila_CBS,ERR2438889.11712,91.45,152,8,4,253,403,6,153,5e-52,204
Cladophialophora_psammophila_CBS,ERR2438889.10149,90.73,151,9,4,252,402,5,150,9e-50,196
Cladophialophora_psammophila_CBS,ERR2438889.5750,90.60,149,10,3,253,401,6,150,3e-49,195
Cladophialophora_psammophila_CBS,ERR2438889.30981,87.42,151,15,4,252,402,5,151,5e-42,171
Cladophialophora_psammophila_CBS,ERR2438889.30356,91.53,118,9,1,253,370,6,122,3e-39,161
Cladophialophora_devriesii_CBS,ERR2438889.11712,91.45,152,8,4,249,399,6,153,5e-52,204
Cladophialophora_devriesii_CBS,ERR2438889.10149,90.73,151,9,3,248,398,5,150,8e-50,196
Cladophialophora_devriesii_CBS,ERR2438889.5750,90.60,149,10,4,249,397,6,150,3e-49,195
Cladophialophora_devriesii_CBS,ERR2438889.30981,86.75,151,16,4,248,398,5,151,2e-40,165
Cladophialophora_devriesii_CBS,ERR2438889.30356,91.53,118,9,1,249,366,6,122,3e-39,161
Cladophialophora_immunda_CBS834.96,ERR2438889.11712,90.79,152,9,4,251,401,6,153,2e-50,198
Cladophialophora_immunda_CBS834.96,ERR2438889.10149,90.07,151,10,3,250,400,5,150,4e-48,191
Cladophialophora_immunda_CBS834.96,ERR2438889.5750,89.93,149,11,3,251,399,6,150,1e-47,189
Cladophialophora_immunda_CBS834.96,ERR2438889.30981,87.42,151,15,4,250,400,5,151,5e-42,171
Cladophialophora_immunda_CBS834.96,ERR2438889.30356,91.53,118,9,1,251,368,6,122,3e-39,161
Cladophialophora_arxii_CBS306.94_T,ERR2438889.11712,90.26,154,8,5,253,405,6,153,3e-49,195
Cladophialophora_arxii_CBS306.94_T,ERR2438889.10149,89.54,153,9,4,252,404,5,150,5e-47,187
Cladophialophora_arxii_CBS306.94_T,ERR2438889.5750,93.60,125,7,1,253,377,6,129,2e-46,185
Cladophialophora_arxii_CBS306.94_T,ERR2438889.30981,86.93,153,14,5,252,404,5,151,7e-41,167
Cladophialophora_arxii_CBS306.94_T,ERR2438889.30356,91.53,118,9,1,253,370,6,122,3e-39,161
Cladophialophora_bantiana_CBS173.52,ERR2438889.11712,91.45,152,8,4,247,397,6,153,5e-52,204
Cladophialophora_bantiana_CBS173.52,ERR2438889.10149,90.73,151,9,4,246,396,5,150,9e-50,196
Cladophialophora_bantiana_CBS173.52,ERR2438889.5750,90.60,149,10,3,247,395,6,150,3e-49,195
Cladophialophora_bantiana_CBS173.52,ERR2438889.30981,87.42,151,15,4,246,396,5,151,5e-42,171
Cladophialophora_bantiana_CBS173.52,ERR2438889.30356,91.53,118,9,1,247,364,6,122,3e-39,161
Cladophialophora_emmonsii_CBS102594,ERR2438889.11712,90.85,153,8,4,238,389,6,153,7e-51,200
Cladophialophora_emmonsii_CBS102594,ERR2438889.10149,90.13,152,9,4,237,388,5,150,1e-48,193
Cladophialophora_emmonsii_CBS102594,ERR2438889.5750,93.13,131,8,1,238,368,6,135,4e-48,191
Cladophialophora_emmonsii_CBS102594,ERR2438889.30981,86.50,163,15,7,237,399,5,160,1e-42,172
Cladophialophora_emmonsii_CBS102594,ERR2438889.30356,91.53,118,9,1,238,355,6,122,3e-39,161
Cladophialophora_minourae_CBS556.83,ERR2438889.11712,91.04,134,9,3,246,379,6,136,3e-44,178
Cladophialophora_minourae_CBS556.83,ERR2438889.10149,87.50,152,13,5,245,396,5,150,1e-42,172
Cladophialophora_minourae_CBS556.83,ERR2438889.5750,88.00,150,13,4,246,395,6,150,1e-42,172
Cladophialophora_minourae_CBS556.83,ERR2438889.30981,84.87,152,18,5,245,396,5,151,2e-35,148
Cladophialophora_minourae_CBS556.83,ERR2438889.30356,88.33,120,11,3,246,365,6,122,4e-33,141
Cladophialophora_australiensis_CBS112793,ERR2438889.11712,90.73,151,10,3,248,397,6,153,6e-50,198
Cladophialophora_australiensis_CBS112793,ERR2438889.10149,90.00,150,11,3,247,396,5,150,1e-47,191
Cladophialophora_australiensis_CBS112793,ERR2438889.5750,89.10,156,12,3,248,403,6,156,4e-47,189
Cladophialophora_australiensis_CBS112793,ERR2438889.30981,86.62,157,17,4,247,403,5,157,1e-41,171
Cladophialophora_australiensis_CBS112793,ERR2438889.30981,94.74,38,1,1,536,573,264,300,1e-07,58.4
Cladophialophora_australiensis_CBS112793,ERR2438889.30356,90.68,118,10,1,248,365,6,122,4e-37,156
Cladophialophora_potulentorum_CBS112222,ERR2438889.11712,90.07,151,11,3,247,396,6,153,3e-48,193
Cladophialophora_potulentorum_CBS112222,ERR2438889.10149,89.33,150,12,3,246,395,5,150,5e-46,185
Cladophialophora_potulentorum_CBS112222,ERR2438889.5750,88.46,156,13,3,247,402,6,156,2e-45,183
Cladophialophora_potulentorum_CBS112222,ERR2438889.30981,85.99,157,18,4,246,402,5,157,7e-40,165
Cladophialophora_potulentorum_CBS112222,ERR2438889.30981,100.00,30,0,0,546,575,271,300,4e-07,56.5
Cladophialophora_potulentorum_CBS112222,ERR2438889.30356,89.83,118,11,1,247,364,6,122,2e-35,150
Cladophialophora_matsushimae_CMRP1198,ERR2438889.11712,90.07,151,11,3,251,400,6,153,1e-48,193
Cladophialophora_matsushimae_CMRP1198,ERR2438889.10149,89.33,150,12,3,250,399,5,150,2e-46,185
Cladophialophora_matsushimae_CMRP1198,ERR2438889.5750,89.19,148,13,3,251,398,6,150,2e-45,182
Cladophialophora_matsushimae_CMRP1198,ERR2438889.30981,87.33,150,16,3,250,399,5,151,2e-41,169
Cladophialophora_matsushimae_CMRP1198,ERR2438889.30356,90.60,117,10,1,251,367,6,121,4e-37,154
Cladophialophora_mycetomatis_CBS122637,ERR2438889.11712,91.39,151,9,4,236,385,6,153,5e-52,204
Cladophialophora_mycetomatis_CBS122637,ERR2438889.10149,90.67,150,10,4,235,384,5,150,8e-50,196
Cladophialophora_mycetomatis_CBS122637,ERR2438889.5750,89.86,148,12,3,236,383,6,150,5e-47,187
Cladophialophora_mycetomatis_CBS122637,ERR2438889.30981,86.67,150,17,3,235,384,5,151,8e-40,163
Cladophialophora_mycetomatis_CBS122637,ERR2438889.30356,90.68,118,10,1,236,353,6,122,1e-37,156
Cladophialophora_chaetospira_CBS127573,ERR2438889.11712,92.05,151,8,4,642,791,6,153,2e-53,209
Cladophialophora_chaetospira_CBS127573,ERR2438889.10149,91.33,150,9,4,641,790,5,150,3e-51,202
Cladophialophora_chaetospira_CBS127573,ERR2438889.5750,90.54,148,11,2,642,789,6,150,2e-48,193
Cladophialophora_chaetospira_CBS127573,ERR2438889.30981,87.33,150,16,3,641,790,5,151,3e-41,169
Cladophialophora_chaetospira_CBS127573,ERR2438889.30356,91.53,118,9,1,642,759,6,122,5e-39,161
Cladophialophora_boppii_CBS126.86_T,ERR2438889.11712,91.39,151,9,3,244,393,6,153,5e-52,204
Cladophialophora_boppii_CBS126.86_T,ERR2438889.10149,90.67,150,10,3,243,392,5,150,8e-50,196
Cladophialophora_boppii_CBS126.86_T,ERR2438889.5750,90.54,148,11,3,244,391,6,150,1e-48,193
Cladophialophora_boppii_CBS126.86_T,ERR2438889.30981,87.33,150,16,3,243,392,5,151,2e-41,169
Cladophialophora_boppii_CBS126.86_T,ERR2438889.30356,91.53,118,9,1,244,361,6,122,3e-39,161
Cladophialophora_abundans_CBS126736,ERR2438889.11712,90.79,152,8,6,181,330,6,153,2e-50,198
Cladophialophora_abundans_CBS126736,ERR2438889.10149,90.26,154,10,5,180,333,5,153,7e-50,196
Cladophialophora_abundans_CBS126736,ERR2438889.5750,89.86,148,12,2,181,328,6,150,4e-47,187
Cladophialophora_abundans_CBS126736,ERR2438889.30981,87.33,150,16,3,180,329,5,151,2e-41,169
Cladophialophora_abundans_CBS126736,ERR2438889.30356,90.76,119,8,3,181,298,6,122,1e-37,156
Capronia_semi-immersa_CBS102234,ERR2438889.11712,89.40,151,12,3,243,392,6,153,5e-47,187
Capronia_semi-immersa_CBS102234,ERR2438889.10149,88.67,150,13,3,242,391,5,150,8e-45,180
Capronia_semi-immersa_CBS102234,ERR2438889.5750,88.51,148,14,2,243,390,6,150,1e-43,176
Capronia_semi-immersa_CBS102234,ERR2438889.30981,86.00,150,18,3,242,391,5,151,4e-38,158
Capronia_semi-immersa_CBS102234,ERR2438889.30356,88.98,118,12,1,243,360,6,122,3e-34,145
Phialophora_americana_CBS400.67,ERR2438889.11712,89.40,151,12,3,245,394,6,153,1e-46,187
Phialophora_americana_CBS400.67,ERR2438889.10149,88.67,150,13,3,244,393,5,150,2e-44,180
Phialophora_americana_CBS400.67,ERR2438889.5750,88.51,148,14,2,245,392,6,150,3e-43,176
Phialophora_americana_CBS400.67,ERR2438889.30981,86.00,150,18,3,244,393,5,151,1e-37,158
Phialophora_americana_CBS400.67,ERR2438889.30981,97.14,35,0,1,533,567,267,300,1e-07,58.4
Phialophora_americana_CBS400.67,ERR2438889.30356,88.98,118,12,1,245,362,6,122,8e-34,145
Phialophora_verrucosa_CBS140325_T,ERR2438889.11712,89.40,151,12,3,249,398,6,153,5e-47,187
Phialophora_verrucosa_CBS140325_T,ERR2438889.10149,88.67,150,13,3,248,397,5,150,9e-45,180
Phialophora_verrucosa_CBS140325_T,ERR2438889.5750,88.51,148,14,2,249,396,6,150,1e-43,176
Phialophora_verrucosa_CBS140325_T,ERR2438889.30981,86.00,150,18,3,248,397,5,151,4e-38,158
Phialophora_verrucosa_CBS140325_T,ERR2438889.30981,97.14,35,0,1,540,573,266,300,4e-08,58.4
Phialophora_verrucosa_CBS140325_T,ERR2438889.30356,88.98,118,12,1,249,366,6,122,3e-34,145
Cladophialophora_samoensis_CBS259.83_T,ERR2438889.10149,90.07,151,11,3,248,398,5,151,1e-48,193
Cladophialophora_samoensis_CBS259.83_T,ERR2438889.11712,90.54,148,9,4,249,395,6,149,4e-48,191
Cladophialophora_samoensis_CBS259.83_T,ERR2438889.5750,89.86,148,12,2,249,396,6,150,5e-47,187
Cladophialophora_samoensis_CBS259.83_T,ERR2438889.30981,88.74,151,14,3,248,398,5,152,2e-45,182
Cladophialophora_samoensis_CBS259.83_T,ERR2438889.30356,90.76,119,8,3,249,366,6,122,1e-37,156
Cladophialophora_carrionii_CBS260.83,ERR2438889.11712,91.39,151,9,4,265,414,6,153,6e-52,204
Cladophialophora_carrionii_CBS260.83,ERR2438889.10149,90.67,150,10,4,264,413,5,150,9e-50,196
Cladophialophora_carrionii_CBS260.83,ERR2438889.5750,89.86,148,12,2,265,412,6,150,6e-47,187
Cladophialophora_carrionii_CBS260.83,ERR2438889.30981,86.67,150,17,3,264,413,5,151,9e-40,163
Cladophialophora_carrionii_CBS260.83,ERR2438889.30981,94.74,38,1,1,549,586,264,300,5e-08,58.4
Cladophialophora_carrionii_CBS260.83,ERR2438889.30356,90.68,118,10,1,265,382,6,122,2e-37,156
Exophiala_palmae_UPCB86822_T,ERR2438889.11712,93.94,132,7,1,208,339,6,136,2e-50,198
Exophiala_palmae_UPCB86822_T,ERR2438889.5750,93.13,131,8,1,208,338,6,135,4e-48,191
Exophiala_palmae_UPCB86822_T,ERR2438889.10149,92.48,133,8,2,207,339,5,135,1e-47,189
Exophiala_palmae_UPCB86822_T,ERR2438889.30981,87.42,151,15,4,207,357,5,151,5e-42,171
Exophiala_palmae_UPCB86822_T,ERR2438889.30356,91.53,118,9,1,208,325,6,122,3e-39,161
Cladophialophora_yegresii_CBS114405_T,ERR2438889.11712,90.73,151,10,3,250,399,6,153,2e-50,198
Cladophialophora_yegresii_CBS114405_T,ERR2438889.10149,90.00,150,11,3,249,398,5,150,4e-48,191
Cladophialophora_yegresii_CBS114405_T,ERR2438889.5750,89.86,148,12,2,250,397,6,150,5e-47,187
Cladophialophora_yegresii_CBS114405_T,ERR2438889.30981,87.33,150,16,3,249,398,5,151,2e-41,169
Cladophialophora_yegresii_CBS114405_T,ERR2438889.30356,90.68,118,10,1,250,367,6,122,1e-37,156
Knufia_epidermidis_CBS120353_T,ERR2438889.10149,88.00,150,14,4,247,396,5,150,4e-43,174
Knufia_epidermidis_CBS120353_T,ERR2438889.30981,87.01,154,16,4,247,399,5,155,5e-42,171
Knufia_epidermidis_CBS120353_T,ERR2438889.5750,92.50,120,8,1,248,367,6,124,5e-42,171
Knufia_epidermidis_CBS120353_T,ERR2438889.11712,86.84,152,16,4,248,398,6,154,6e-41,167
Knufia_epidermidis_CBS120353_T,ERR2438889.30356,88.98,118,12,1,248,365,6,122,3e-34,145
Arthrocladium_fulminans_CBS136243_T,ERR2438889.11712,90.70,129,11,1,243,371,6,133,5e-42,171
Arthrocladium_fulminans_CBS136243_T,ERR2438889.10149,90.00,130,11,2,242,371,5,132,7e-41,167
Arthrocladium_fulminans_CBS136243_T,ERR2438889.5750,91.67,120,9,1,243,362,6,124,2e-40,165
Arthrocladium_fulminans_CBS136243_T,ERR2438889.30356,89.83,118,11,1,243,360,6,122,7e-36,150
Arthrocladium_fulminans_CBS136243_T,ERR2438889.30981,84.21,152,19,5,242,393,5,151,1e-33,143
Arthrocladium_fulminans_CBS136243_T,ERR2438889.30981,97.06,34,0,1,528,560,267,300,2e-07,56.5
Anthopsis_deltoidea_CBS263.77_T,ERR2438889.11712,89.02,164,13,5,252,413,6,166,2e-50,198
Anthopsis_deltoidea_CBS263.77_T,ERR2438889.5750,88.89,153,16,1,252,403,6,158,5e-47,187
Anthopsis_deltoidea_CBS263.77_T,ERR2438889.22496,84.38,128,18,2,252,378,6,132,4e-28,124
Cyphellophora_laciniata_CBS190.61_T,ERR2438889.10149,91.16,147,11,2,336,481,5,150,3e-50,198
Cyphellophora_laciniata_CBS190.61_T,ERR2438889.11712,90.54,148,12,2,337,482,6,153,4e-49,195
Cyphellophora_laciniata_CBS190.61_T,ERR2438889.5750,91.03,145,12,1,337,480,6,150,4e-49,195
Cyphellophora_laciniata_CBS190.61_T,ERR2438889.30981,88.59,149,12,4,336,481,5,151,1e-43,176
Cyphellophora_laciniata_CBS190.61_T,ERR2438889.30981,100.00,32,0,0,633,664,271,302,2e-08,60.2
Cyphellophora_laciniata_CBS190.61_T,ERR2438889.30356,89.74,117,11,1,337,452,6,122,3e-35,148
Cyphellophora_suttonii_CBS449.91,ERR2438889.10149,91.16,147,11,2,239,384,5,150,2e-50,198
Cyphellophora_suttonii_CBS449.91,ERR2438889.5750,91.03,145,12,1,240,383,6,150,3e-49,195
Cyphellophora_suttonii_CBS449.91,ERR2438889.11712,90.97,144,12,1,240,382,6,149,1e-48,193
Cyphellophora_suttonii_CBS449.91,ERR2438889.30981,88.59,149,12,4,239,384,5,151,1e-43,176
Cyphellophora_suttonii_CBS449.91,ERR2438889.30356,89.74,117,11,1,240,355,6,122,2e-35,148
Cyphellophora_pauciseptata_CBS284.85_T,ERR2438889.10149,91.16,147,11,2,250,395,5,150,2e-50,198
Cyphellophora_pauciseptata_CBS284.85_T,ERR2438889.5750,91.03,145,12,1,251,394,6,150,3e-49,195
Cyphellophora_pauciseptata_CBS284.85_T,ERR2438889.11712,90.97,144,12,1,251,393,6,149,1e-48,193
Cyphellophora_pauciseptata_CBS284.85_T,ERR2438889.30981,88.59,149,12,4,250,395,5,151,1e-43,176
Cyphellophora_pauciseptata_CBS284.85_T,ERR2438889.30356,89.74,117,11,1,251,366,6,122,2e-35,148
Cyphellophora_pluriseptata_CBS286.85_T,ERR2438889.10149,90.48,147,12,2,255,400,5,150,1e-48,193
Cyphellophora_pluriseptata_CBS286.85_T,ERR2438889.11712,89.86,148,13,2,256,401,6,153,1e-47,189
Cyphellophora_pluriseptata_CBS286.85_T,ERR2438889.5750,90.34,145,13,1,256,399,6,150,1e-47,189
Cyphellophora_pluriseptata_CBS286.85_T,ERR2438889.30981,86.13,173,17,6,255,422,5,175,9e-45,180
Cyphellophora_pluriseptata_CBS286.85_T,ERR2438889.30356,89.83,118,9,3,256,371,6,122,2e-35,148
Phialophora_europaea_CBS101466,ERR2438889.10149,90.41,146,12,2,245,389,5,149,4e-48,191
Phialophora_europaea_CBS101466,ERR2438889.5750,90.34,145,13,1,246,389,6,150,1e-47,189
Phialophora_europaea_CBS101466,ERR2438889.11712,90.28,144,13,1,246,388,6,149,5e-47,187
Phialophora_europaea_CBS101466,ERR2438889.30981,88.51,148,12,4,245,389,5,150,4e-43,174
Phialophora_europaea_CBS101466,ERR2438889.30356,89.83,118,9,3,246,361,6,122,2e-35,148
Phialophora_ambigua_CBS235.93,ERR2438889.10149,90.48,147,12,2,242,387,5,150,1e-48,193
Phialophora_ambigua_CBS235.93,ERR2438889.11712,89.86,148,13,2,243,388,6,153,1e-47,189
Phialophora_ambigua_CBS235.93,ERR2438889.5750,90.34,145,13,1,243,386,6,150,1e-47,189
Phialophora_ambigua_CBS235.93,ERR2438889.30981,88.59,149,12,4,242,387,5,151,1e-43,176
Phialophora_ambigua_CBS235.93,ERR2438889.30356,89.83,118,9,3,243,358,6,122,2e-35,148
Cladophialophora_modesta_CBS985.96_T,ERR2438889.11712,92.47,146,9,2,240,385,6,149,4e-53,207
Cladophialophora_modesta_CBS985.96_T,ERR2438889.10149,91.28,149,10,3,239,387,5,150,7e-51,200
Cladophialophora_modesta_CBS985.96_T,ERR2438889.5750,90.48,147,12,2,240,386,6,150,1e-48,193
Cladophialophora_modesta_CBS985.96_T,ERR2438889.30981,87.33,150,15,4,239,387,5,151,2e-41,169
Cladophialophora_modesta_CBS985.96_T,ERR2438889.30356,90.68,118,10,1,240,357,6,122,2e-37,156
Cyphellophora_fusarioides_MUCL44033_T,ERR2438889.10149,90.48,147,12,2,238,383,5,150,1e-48,193
Cyphellophora_fusarioides_MUCL44033_T,ERR2438889.11712,89.86,148,13,2,239,384,6,153,1e-47,189
Cyphellophora_fusarioides_MUCL44033_T,ERR2438889.5750,90.34,145,13,1,239,382,6,150,1e-47,189
Cyphellophora_fusarioides_MUCL44033_T,ERR2438889.22496,85.16,128,17,2,239,365,6,132,9e-30,130
