Exophiala_dermatitidis_CBS748.88,ERR476552.5323,98.51,134,2,0,1371,1504,141,8,6e-62,237
Cladophialophora_australiensis_CBS112793,ERR476552.5323,98.51,134,2,0,1338,1471,141,8,6e-62,237
Cladophialophora_potulentorum_CBS112222,ERR476552.5323,97.87,141,3,0,1340,1480,141,1,4e-64,244
Phialophora_americana_CBS400.67,ERR476552.5323,98.25,114,2,0,1332,1445,141,28,7e-51,200
