Exophiala_nigra_CBS535.94_T,ERR2438970.41464,90.00,150,12,2,242,391,4,150,4e-48,191
Exophiala_nigra_CBS535.94_T,ERR2438970.39651,92.37,131,8,2,243,373,5,133,2e-46,185
Exophiala_nigra_CBS535.94_T,ERR2438970.31062,89.39,132,12,2,242,373,5,134,2e-40,165
Exophiala_nigra_CBS535.94_T,ERR2438970.25067,92.31,117,8,1,243,359,5,120,2e-40,165
Exophiala_nigra_CBS535.94_T,ERR2438970.9050,88.72,133,13,2,243,375,5,135,3e-39,161
Exophiala_nigra_CBS535.94_T,ERR2438970.39627,88.55,131,13,2,243,373,6,134,4e-38,158
Exophiala_spinifera_CBS899.68_T,ERR2438970.39651,89.86,148,11,4,240,387,5,148,4e-47,187
Exophiala_spinifera_CBS899.68_T,ERR2438970.41464,89.26,149,14,2,239,387,4,150,2e-46,185
Exophiala_spinifera_CBS899.68_T,ERR2438970.31062,85.89,163,17,5,239,401,5,161,2e-41,169
Exophiala_spinifera_CBS899.68_T,ERR2438970.9050,87.16,148,15,4,240,387,5,148,2e-40,165
Exophiala_spinifera_CBS899.68_T,ERR2438970.39627,86.49,148,16,4,240,387,6,149,1e-38,159
Exophiala_spinifera_CBS899.68_T,ERR2438970.25067,91.45,117,9,1,240,356,5,120,1e-38,159
Exophiala_exophialae_CBS668.76_T,ERR2438970.39651,89.86,148,11,4,241,388,5,148,4e-47,187
Exophiala_exophialae_CBS668.76_T,ERR2438970.41464,89.26,149,14,2,240,388,4,150,2e-46,185
Exophiala_exophialae_CBS668.76_T,ERR2438970.31062,85.89,163,17,5,240,402,5,161,2e-41,169
Exophiala_exophialae_CBS668.76_T,ERR2438970.9050,87.16,148,15,4,241,388,5,148,2e-40,165
Exophiala_exophialae_CBS668.76_T,ERR2438970.39627,86.49,148,16,4,241,388,6,149,1e-38,159
Exophiala_exophialae_CBS668.76_T,ERR2438970.25067,91.45,117,9,1,241,357,5,120,1e-38,159
Exophiala_polymorpha_CBS138920_T,ERR2438970.39651,89.86,148,11,4,343,490,5,148,6e-47,187
Exophiala_polymorpha_CBS138920_T,ERR2438970.41464,89.26,149,14,2,342,490,4,150,2e-46,185
Exophiala_polymorpha_CBS138920_T,ERR2438970.41464,98.00,50,1,0,645,694,358,309,6e-17,87.9
Exophiala_polymorpha_CBS138920_T,ERR2438970.31062,87.25,149,15,4,342,490,5,149,7e-41,167
Exophiala_polymorpha_CBS138920_T,ERR2438970.9050,87.16,148,15,4,343,490,5,148,3e-40,165
Exophiala_polymorpha_CBS138920_T,ERR2438970.39627,86.49,148,16,4,343,490,6,149,1e-38,159
Exophiala_polymorpha_CBS138920_T,ERR2438970.25067,91.45,117,9,1,343,459,5,120,1e-38,159
Exophiala_polymorpha_CBS138920_T,ERR2438970.3246,92.98,57,3,1,638,693,366,310,3e-15,82.4
Exophiala_oligosperma_CBS725.88_T,ERR2438970.39651,89.86,148,11,4,253,400,5,148,5e-47,187
Exophiala_oligosperma_CBS725.88_T,ERR2438970.41464,89.26,149,14,2,252,400,4,150,2e-46,185
Exophiala_oligosperma_CBS725.88_T,ERR2438970.31062,87.25,149,15,4,252,400,5,149,6e-41,167
Exophiala_oligosperma_CBS725.88_T,ERR2438970.9050,87.16,148,15,4,253,400,5,148,2e-40,165
Exophiala_oligosperma_CBS725.88_T,ERR2438970.39627,86.49,148,16,4,253,400,6,149,1e-38,159
Exophiala_oligosperma_CBS725.88_T,ERR2438970.25067,91.45,117,9,1,253,369,5,120,1e-38,159
Exophiala_jeanselmei_CBS507.90_T,ERR2438970.39651,89.86,148,11,4,245,392,5,148,5e-47,187
Exophiala_jeanselmei_CBS507.90_T,ERR2438970.41464,89.26,149,14,2,244,392,4,150,2e-46,185
Exophiala_jeanselmei_CBS507.90_T,ERR2438970.41464,96.77,62,2,0,543,604,362,301,5e-22,104
Exophiala_jeanselmei_CBS507.90_T,ERR2438970.31062,87.25,149,15,4,244,392,5,149,6e-41,167
Exophiala_jeanselmei_CBS507.90_T,ERR2438970.9050,87.16,148,15,4,245,392,5,148,2e-40,165
Exophiala_jeanselmei_CBS507.90_T,ERR2438970.39627,85.19,162,18,5,245,406,6,161,3e-39,161
Exophiala_jeanselmei_CBS507.90_T,ERR2438970.25067,91.45,117,9,1,245,361,5,120,1e-38,159
Exophiala_jeanselmei_CBS507.90_T,ERR2438970.3246,94.74,57,3,0,548,604,357,301,1e-17,89.8
Exophiala_bergeri_CBS353.52,ERR2438970.41464,89.33,150,13,3,205,354,4,150,1e-46,185
Exophiala_bergeri_CBS353.52,ERR2438970.39651,92.37,131,8,2,206,336,5,133,1e-46,185
Exophiala_bergeri_CBS353.52,ERR2438970.31062,89.39,132,12,2,205,336,5,134,2e-40,165
Exophiala_bergeri_CBS353.52,ERR2438970.25067,92.31,117,8,1,206,322,5,120,2e-40,165
Exophiala_bergeri_CBS353.52,ERR2438970.9050,88.72,133,13,2,206,338,5,135,2e-39,161
Exophiala_bergeri_CBS353.52,ERR2438970.39627,88.55,131,13,2,206,336,6,134,3e-38,158
Exophiala_moniliae_CBS520.76_T,ERR2438970.41464,91.67,132,10,1,242,373,4,134,2e-45,182
Exophiala_moniliae_CBS520.76_T,ERR2438970.39651,91.60,131,9,2,243,373,5,133,8e-45,180
Exophiala_moniliae_CBS520.76_T,ERR2438970.25067,92.37,118,8,1,243,360,5,121,6e-41,167
Exophiala_moniliae_CBS520.76_T,ERR2438970.31062,90.68,118,10,1,242,359,5,121,1e-37,156
Exophiala_moniliae_CBS520.76_T,ERR2438970.9050,87.97,133,14,2,243,375,5,135,1e-37,156
Exophiala_moniliae_CBS520.76_T,ERR2438970.39627,90.60,117,10,1,243,359,6,121,5e-37,154
Exophiala_pisciphila_CBS537.73_T,ERR2438970.41464,90.60,149,12,2,245,393,4,150,9e-50,196
Exophiala_pisciphila_CBS537.73_T,ERR2438970.41464,95.77,71,2,1,543,613,370,301,9e-25,113
Exophiala_pisciphila_CBS537.73_T,ERR2438970.39651,90.54,148,10,4,246,393,5,148,1e-48,193
Exophiala_pisciphila_CBS537.73_T,ERR2438970.9050,87.84,148,14,4,246,393,5,148,5e-42,171
Exophiala_pisciphila_CBS537.73_T,ERR2438970.31062,87.25,149,15,4,245,393,5,149,7e-41,167
Exophiala_pisciphila_CBS537.73_T,ERR2438970.25067,92.37,118,8,1,246,363,5,121,7e-41,167
Exophiala_pisciphila_CBS537.73_T,ERR2438970.39627,86.49,148,16,4,246,393,6,149,1e-38,159
Exophiala_xenobiotica_CBS117642,ERR2438970.39651,90.54,148,10,4,238,385,5,148,9e-49,193
Exophiala_xenobiotica_CBS117642,ERR2438970.41464,89.93,149,13,2,237,385,4,150,3e-48,191
Exophiala_xenobiotica_CBS117642,ERR2438970.31062,87.92,149,14,4,237,385,5,149,1e-42,172
Exophiala_xenobiotica_CBS117642,ERR2438970.9050,87.84,148,14,4,238,385,5,148,4e-42,171
Exophiala_xenobiotica_CBS117642,ERR2438970.39627,87.16,148,15,4,238,385,6,149,2e-40,165
Exophiala_xenobiotica_CBS117642,ERR2438970.25067,92.31,117,8,1,238,354,5,120,2e-40,165
Exophiala_brunnea_CBS,ERR2438970.41464,89.93,149,13,2,273,421,4,150,4e-48,191
Exophiala_brunnea_CBS,ERR2438970.41464,91.80,61,4,1,574,633,372,312,2e-16,86.1
Exophiala_brunnea_CBS,ERR2438970.39651,89.86,148,11,4,274,421,5,148,5e-47,187
Exophiala_brunnea_CBS,ERR2438970.9050,87.16,148,15,4,274,421,5,148,2e-40,165
Exophiala_brunnea_CBS,ERR2438970.31062,86.58,149,16,4,273,421,5,149,3e-39,161
Exophiala_brunnea_CBS,ERR2438970.39627,85.81,148,17,4,274,421,6,149,5e-37,154
Exophiala_nishimurae_CBS101538_T,ERR2438970.39651,89.86,148,11,4,252,399,5,148,5e-47,187
Exophiala_nishimurae_CBS101538_T,ERR2438970.41464,89.26,149,14,2,251,399,4,150,2e-46,185
Exophiala_nishimurae_CBS101538_T,ERR2438970.31062,87.25,149,15,4,251,399,5,149,6e-41,167
Exophiala_nishimurae_CBS101538_T,ERR2438970.9050,87.16,148,15,4,252,399,5,148,2e-40,165
Exophiala_nishimurae_CBS101538_T,ERR2438970.39627,86.49,148,16,4,252,399,6,149,1e-38,159
Exophiala_nishimurae_CBS101538_T,ERR2438970.25067,91.45,117,9,1,252,368,5,120,1e-38,159
Exophiala_nishimurae_CBS101538_T,ERR2438970.3246,97.30,37,1,0,555,591,357,321,9e-10,63.9
Exophiala_mesophila_CBS402.95_T,ERR2438970.41464,91.67,132,10,1,235,366,4,134,2e-45,182
Exophiala_mesophila_CBS402.95_T,ERR2438970.41464,98.28,58,1,0,553,610,358,301,2e-21,102
Exophiala_mesophila_CBS402.95_T,ERR2438970.39651,91.60,131,9,2,236,366,5,133,9e-45,180
Exophiala_mesophila_CBS402.95_T,ERR2438970.9050,87.97,133,14,2,236,368,5,135,2e-37,156
Exophiala_mesophila_CBS402.95_T,ERR2438970.31062,87.88,132,14,2,235,366,5,134,5e-37,154
Exophiala_mesophila_CBS402.95_T,ERR2438970.39627,89.74,117,11,1,236,352,6,121,3e-35,148
Exophiala_mesophila_CBS402.95_T,ERR2438970.3246,94.83,58,3,0,554,611,357,300,4e-18,91.6
Exophiala_castellanii_CBS158.58_T,ERR2438970.41464,91.67,132,10,1,233,364,4,134,2e-45,182
Exophiala_castellanii_CBS158.58_T,ERR2438970.41464,95.52,67,3,0,543,609,367,301,4e-23,108
Exophiala_castellanii_CBS158.58_T,ERR2438970.39651,91.60,131,9,2,234,364,5,133,9e-45,180
Exophiala_castellanii_CBS158.58_T,ERR2438970.9050,87.97,133,14,2,234,366,5,135,2e-37,156
Exophiala_castellanii_CBS158.58_T,ERR2438970.31062,87.88,132,14,2,233,364,5,134,5e-37,154
Exophiala_castellanii_CBS158.58_T,ERR2438970.39627,89.74,117,11,1,234,350,6,121,3e-35,148
Exophiala_castellanii_CBS158.58_T,ERR2438970.3246,94.83,58,3,0,553,610,357,300,4e-18,91.6
Exophiala_lecanii-corni_CBS123.33_T,ERR2438970.41464,91.67,132,10,1,256,387,4,134,2e-45,182
Exophiala_lecanii-corni_CBS123.33_T,ERR2438970.39651,90.84,131,10,2,257,387,5,133,4e-43,174
Exophiala_lecanii-corni_CBS123.33_T,ERR2438970.31062,87.88,132,14,2,256,387,5,134,5e-37,154
Exophiala_lecanii-corni_CBS123.33_T,ERR2438970.39627,87.79,131,14,2,257,387,6,134,2e-36,152
Exophiala_lecanii-corni_CBS123.33_T,ERR2438970.9050,87.22,133,15,2,257,389,5,135,6e-36,150
Exophiala_dermatitidis_CBS748.88,ERR2438970.41464,90.00,150,12,3,248,397,4,150,1e-47,191
Exophiala_dermatitidis_CBS748.88,ERR2438970.41464,94.29,70,2,2,566,635,368,301,4e-22,106
Exophiala_dermatitidis_CBS748.88,ERR2438970.39651,89.93,149,10,4,249,397,5,148,1e-46,187
Exophiala_dermatitidis_CBS748.88,ERR2438970.25067,92.37,118,8,1,249,366,5,121,2e-40,167
Exophiala_dermatitidis_CBS748.88,ERR2438970.9050,87.25,149,14,4,249,397,5,148,6e-40,165
Exophiala_dermatitidis_CBS748.88,ERR2438970.31062,86.67,150,15,4,248,397,5,149,8e-39,161
Exophiala_dermatitidis_CBS748.88,ERR2438970.39627,90.60,117,10,1,249,365,6,121,1e-36,154
Exophiala_dermatitidis_CBS748.88,ERR2438970.3246,94.83,58,3,0,579,636,357,300,1e-17,91.6
Exophiala_angulospora_CBS482.92_T,ERR2438970.41464,89.33,150,13,2,239,388,4,150,2e-46,185
Exophiala_angulospora_CBS482.92_T,ERR2438970.39651,89.26,149,11,4,240,388,5,148,2e-45,182
Exophiala_angulospora_CBS482.92_T,ERR2438970.25067,92.37,118,8,1,240,357,5,121,6e-41,167
Exophiala_angulospora_CBS482.92_T,ERR2438970.9050,86.58,149,15,4,240,388,5,148,1e-38,159
Exophiala_angulospora_CBS482.92_T,ERR2438970.31062,90.68,118,10,1,239,356,5,121,1e-37,156
Exophiala_angulospora_CBS482.92_T,ERR2438970.39627,90.60,117,10,1,240,356,6,121,5e-37,154
Exophiala_opportunistica_CBS109811_T,ERR2438970.41464,91.28,149,11,2,238,386,4,150,2e-51,202
Exophiala_opportunistica_CBS109811_T,ERR2438970.39651,91.22,148,9,4,239,386,5,148,2e-50,198
Exophiala_opportunistica_CBS109811_T,ERR2438970.31062,87.92,149,14,4,238,386,5,149,1e-42,172
Exophiala_opportunistica_CBS109811_T,ERR2438970.9050,87.84,148,14,4,239,386,5,148,5e-42,171
Exophiala_opportunistica_CBS109811_T,ERR2438970.25067,92.37,118,8,1,239,356,5,121,6e-41,167
Exophiala_opportunistica_CBS109811_T,ERR2438970.39627,87.16,148,15,4,239,386,6,149,2e-40,165
Exophiala_salmonis_CBS157.67_T,ERR2438970.41464,90.60,149,12,2,367,515,4,150,1e-49,196
Exophiala_salmonis_CBS157.67_T,ERR2438970.41464,95.77,71,2,1,663,733,370,301,1e-24,113
Exophiala_salmonis_CBS157.67_T,ERR2438970.39651,90.54,148,10,4,368,515,5,148,1e-48,193
Exophiala_salmonis_CBS157.67_T,ERR2438970.9050,87.84,148,14,4,368,515,5,148,6e-42,171
Exophiala_salmonis_CBS157.67_T,ERR2438970.31062,87.25,149,15,4,367,515,5,149,8e-41,167
Exophiala_salmonis_CBS157.67_T,ERR2438970.25067,92.37,118,8,1,368,485,5,121,8e-41,167
Exophiala_salmonis_CBS157.67_T,ERR2438970.39627,86.49,148,16,4,368,515,6,149,1e-38,159
Exophiala_aquamarina_CBS119918_T,ERR2438970.39651,90.60,149,9,5,246,394,5,148,1e-48,193
Exophiala_aquamarina_CBS119918_T,ERR2438970.41464,90.00,150,12,3,245,394,4,150,4e-48,191
Exophiala_aquamarina_CBS119918_T,ERR2438970.31062,87.33,150,14,4,245,394,5,149,6e-41,167
Exophiala_aquamarina_CBS119918_T,ERR2438970.25067,92.37,118,8,1,246,363,5,121,6e-41,167
Exophiala_aquamarina_CBS119918_T,ERR2438970.9050,87.25,149,14,5,246,394,5,148,2e-40,165
Exophiala_aquamarina_CBS119918_T,ERR2438970.39627,86.58,149,15,4,246,394,6,149,1e-38,159
Exophiala_cancerae_CBS120420_T,ERR2438970.41464,91.28,149,11,2,260,408,4,150,2e-51,202
Exophiala_cancerae_CBS120420_T,ERR2438970.41464,98.39,62,1,0,563,624,362,301,1e-23,110
Exophiala_cancerae_CBS120420_T,ERR2438970.39651,91.22,148,9,4,261,408,5,148,2e-50,198
Exophiala_cancerae_CBS120420_T,ERR2438970.31062,87.92,149,14,4,260,408,5,149,1e-42,172
Exophiala_cancerae_CBS120420_T,ERR2438970.9050,87.84,148,14,4,261,408,5,148,5e-42,171
Exophiala_cancerae_CBS120420_T,ERR2438970.25067,92.37,118,8,1,261,378,5,121,7e-41,167
Exophiala_cancerae_CBS120420_T,ERR2438970.39627,87.16,148,15,4,261,408,6,149,2e-40,165
Exophiala_tremulae_CBS129355,ERR2438970.39651,91.22,148,9,4,273,420,5,148,2e-50,198
Exophiala_tremulae_CBS129355,ERR2438970.41464,90.60,149,12,2,272,420,4,150,9e-50,196
Exophiala_tremulae_CBS129355,ERR2438970.41464,95.00,60,2,1,569,628,370,312,1e-18,93.5
Exophiala_tremulae_CBS129355,ERR2438970.31062,87.92,149,14,4,272,420,5,149,1e-42,172
Exophiala_tremulae_CBS129355,ERR2438970.9050,87.84,148,14,4,273,420,5,148,5e-42,171
Exophiala_tremulae_CBS129355,ERR2438970.25067,92.37,118,8,1,273,390,5,121,7e-41,167
Exophiala_tremulae_CBS129355,ERR2438970.39627,87.16,148,15,4,273,420,6,149,2e-40,165
Exophiala_equina_CBS116009,ERR2438970.39651,91.22,148,9,4,239,386,5,148,2e-50,198
Exophiala_equina_CBS116009,ERR2438970.41464,90.60,149,12,2,238,386,4,150,8e-50,196
Exophiala_equina_CBS116009,ERR2438970.31062,87.92,149,14,4,238,386,5,149,1e-42,172
Exophiala_equina_CBS116009,ERR2438970.9050,87.84,148,14,4,239,386,5,148,5e-42,171
Exophiala_equina_CBS116009,ERR2438970.25067,92.37,118,8,1,239,356,5,121,6e-41,167
Exophiala_equina_CBS116009,ERR2438970.39627,87.16,148,15,4,239,386,6,149,2e-40,165
Exophiala_alcalophila_CBS520.82_T,ERR2438970.41464,89.33,150,13,2,249,398,4,150,2e-46,185
Exophiala_alcalophila_CBS520.82_T,ERR2438970.39651,89.26,149,11,4,250,398,5,148,2e-45,182
Exophiala_alcalophila_CBS520.82_T,ERR2438970.25067,92.37,118,8,1,250,367,5,121,6e-41,167
Exophiala_alcalophila_CBS520.82_T,ERR2438970.9050,86.58,149,15,4,250,398,5,148,1e-38,159
Exophiala_alcalophila_CBS520.82_T,ERR2438970.31062,90.68,118,10,1,249,366,5,121,1e-37,156
Exophiala_alcalophila_CBS520.82_T,ERR2438970.39627,90.60,117,10,1,250,366,6,121,5e-37,154
Exophiala_crusticola_CBS119970_T,ERR2438970.41464,90.00,150,12,2,254,403,4,150,3e-48,191
Exophiala_crusticola_CBS119970_T,ERR2438970.39651,92.37,131,8,2,255,385,5,133,2e-46,185
Exophiala_crusticola_CBS119970_T,ERR2438970.25067,92.37,118,8,1,255,372,5,121,6e-41,167
Exophiala_crusticola_CBS119970_T,ERR2438970.9050,86.36,154,15,5,255,407,5,153,8e-40,163
Exophiala_crusticola_CBS119970_T,ERR2438970.31062,88.64,132,13,2,254,385,5,134,1e-38,159
Exophiala_crusticola_CBS119970_T,ERR2438970.39627,90.60,117,10,1,255,371,6,121,5e-37,154
Rhinocladiella_atrovirens_CBS264.49,ERR2438970.41464,91.67,132,10,1,280,411,4,134,2e-45,182
Rhinocladiella_atrovirens_CBS264.49,ERR2438970.41464,94.83,58,3,0,569,626,370,313,4e-18,91.6
Rhinocladiella_atrovirens_CBS264.49,ERR2438970.39651,90.84,131,10,2,281,411,5,133,4e-43,174
Rhinocladiella_atrovirens_CBS264.49,ERR2438970.31062,87.88,132,14,2,280,411,5,134,5e-37,154
Rhinocladiella_atrovirens_CBS264.49,ERR2438970.39627,87.79,131,14,2,281,411,6,134,2e-36,152
Rhinocladiella_atrovirens_CBS264.49,ERR2438970.9050,87.22,133,15,2,281,413,5,135,7e-36,150
Rhinocladiella_basitona_CBS101460_T,ERR2438970.39651,89.86,148,11,4,240,387,5,148,4e-47,187
Rhinocladiella_basitona_CBS101460_T,ERR2438970.41464,89.26,149,14,2,239,387,4,150,2e-46,185
Rhinocladiella_basitona_CBS101460_T,ERR2438970.31062,87.25,149,15,4,239,387,5,149,6e-41,167
Rhinocladiella_basitona_CBS101460_T,ERR2438970.9050,87.16,148,15,4,240,387,5,148,2e-40,165
Rhinocladiella_basitona_CBS101460_T,ERR2438970.39627,86.49,148,16,4,240,387,6,149,1e-38,159
Rhinocladiella_basitona_CBS101460_T,ERR2438970.25067,91.45,117,9,1,240,356,5,120,1e-38,159
Rhinocladiella_phaeophora_CBS496.78_T,ERR2438970.41464,89.47,152,12,4,247,395,4,154,1e-47,189
Rhinocladiella_phaeophora_CBS496.78_T,ERR2438970.39651,92.37,131,8,2,248,378,5,133,2e-46,185
Rhinocladiella_phaeophora_CBS496.78_T,ERR2438970.25067,92.37,118,8,1,248,365,5,121,6e-41,167
Rhinocladiella_phaeophora_CBS496.78_T,ERR2438970.9050,88.72,133,13,2,248,380,5,135,3e-39,161
Rhinocladiella_phaeophora_CBS496.78_T,ERR2438970.31062,86.18,152,16,5,247,395,5,154,1e-38,159
Rhinocladiella_phaeophora_CBS496.78_T,ERR2438970.39627,90.60,117,10,1,248,364,6,121,5e-37,154
Rhinocladiella_aquaspersa_CBS313.73_T,ERR2438970.41464,88.68,159,13,5,241,396,4,160,1e-47,189
Rhinocladiella_aquaspersa_CBS313.73_T,ERR2438970.41464,92.75,69,1,4,540,605,368,301,9e-20,97.1
Rhinocladiella_aquaspersa_CBS313.73_T,ERR2438970.39651,92.37,131,8,2,242,372,5,133,2e-46,185
Rhinocladiella_aquaspersa_CBS313.73_T,ERR2438970.25067,92.37,118,8,1,242,359,5,121,7e-41,167
Rhinocladiella_aquaspersa_CBS313.73_T,ERR2438970.9050,88.72,133,13,2,242,374,5,135,3e-39,161
Rhinocladiella_aquaspersa_CBS313.73_T,ERR2438970.31062,86.18,152,16,5,241,389,5,154,1e-38,159
Rhinocladiella_aquaspersa_CBS313.73_T,ERR2438970.39627,90.60,117,10,1,242,358,6,121,5e-37,154
Rhinocladiella_fasciculata_CBS132.86_T,ERR2438970.41464,90.91,132,11,1,257,388,4,134,1e-43,176
Rhinocladiella_fasciculata_CBS132.86_T,ERR2438970.39651,90.84,131,10,2,258,388,5,133,4e-43,174
Rhinocladiella_fasciculata_CBS132.86_T,ERR2438970.25067,91.53,118,9,1,258,375,5,121,3e-39,161
Rhinocladiella_fasciculata_CBS132.86_T,ERR2438970.31062,89.83,118,11,1,257,374,5,121,6e-36,150
Rhinocladiella_fasciculata_CBS132.86_T,ERR2438970.9050,87.22,133,15,2,258,390,5,135,6e-36,150
Rhinocladiella_fasciculata_CBS132.86_T,ERR2438970.39627,89.74,117,11,1,258,374,6,121,2e-35,148
Rhinocladiella_anceps_CBS181.65_T,ERR2438970.41464,88.67,150,14,3,239,388,4,150,8e-45,180
Rhinocladiella_anceps_CBS181.65_T,ERR2438970.39651,88.59,149,12,4,240,388,5,148,1e-43,176
Rhinocladiella_anceps_CBS181.65_T,ERR2438970.31062,86.67,150,15,4,239,388,5,149,3e-39,161
Rhinocladiella_anceps_CBS181.65_T,ERR2438970.39627,85.91,149,16,4,240,388,6,149,5e-37,154
Rhinocladiella_anceps_CBS181.65_T,ERR2438970.9050,85.91,149,16,4,240,388,5,148,5e-37,154
Rhinocladiella_mackenziei_CBS367.92,ERR2438970.41464,91.60,131,10,1,228,358,4,133,8e-45,180
Rhinocladiella_mackenziei_CBS367.92,ERR2438970.41464,96.15,52,1,1,557,608,368,318,7e-16,84.2
Rhinocladiella_mackenziei_CBS367.92,ERR2438970.39651,91.54,130,9,2,229,358,5,132,3e-44,178
Rhinocladiella_mackenziei_CBS367.92,ERR2438970.25067,92.37,118,8,1,229,346,5,121,7e-41,167
Rhinocladiella_mackenziei_CBS367.92,ERR2438970.31062,88.55,131,13,2,228,358,5,133,4e-38,158
Rhinocladiella_mackenziei_CBS367.92,ERR2438970.39627,88.46,130,13,2,229,358,6,133,1e-37,156
Rhinocladiella_mackenziei_CBS367.92,ERR2438970.9050,87.31,134,14,3,229,362,5,135,7e-36,150
Veronaea_compacta_CBS268.75_T,ERR2438970.41464,89.33,150,13,3,261,410,4,150,2e-46,185
Veronaea_compacta_CBS268.75_T,ERR2438970.39651,89.26,149,11,5,262,410,5,148,2e-45,182
Veronaea_compacta_CBS268.75_T,ERR2438970.9050,86.58,149,15,5,262,410,5,148,1e-38,159
Veronaea_compacta_CBS268.75_T,ERR2438970.31062,86.00,150,16,5,261,410,5,149,1e-37,156
Veronaea_compacta_CBS268.75_T,ERR2438970.39627,89.74,117,11,1,262,378,6,121,2e-35,148
Capronia_pilosella_AFTOL-ID657,ERR2438970.39651,90.60,149,9,4,340,488,5,148,1e-48,193
Capronia_pilosella_AFTOL-ID657,ERR2438970.41464,90.00,150,12,3,339,488,4,150,4e-48,191
Capronia_pilosella_AFTOL-ID657,ERR2438970.31062,87.33,150,14,4,339,488,5,149,7e-41,167
Capronia_pilosella_AFTOL-ID657,ERR2438970.25067,92.37,118,8,1,340,457,5,121,7e-41,167
Capronia_pilosella_AFTOL-ID657,ERR2438970.9050,87.25,149,14,4,340,488,5,148,3e-40,165
Capronia_pilosella_AFTOL-ID657,ERR2438970.39627,86.58,149,15,4,340,488,6,149,1e-38,159
Capronia_pilosella_AFTOL-ID657,ERR2438970.3246,97.30,37,1,0,647,683,357,321,1e-09,63.9
Capronia_dactylotricha_DAOM208471_T,ERR2438970.41464,91.73,133,9,2,241,373,4,134,7e-46,183
Capronia_dactylotricha_DAOM208471_T,ERR2438970.41464,100.00,58,0,0,561,618,358,301,4e-23,108
Capronia_dactylotricha_DAOM208471_T,ERR2438970.39651,91.67,132,8,2,242,373,5,133,9e-45,180
Capronia_dactylotricha_DAOM208471_T,ERR2438970.25067,92.37,118,8,1,242,359,5,121,7e-41,167
Capronia_dactylotricha_DAOM208471_T,ERR2438970.31062,89.47,133,11,3,241,373,5,134,3e-40,165
Capronia_dactylotricha_DAOM208471_T,ERR2438970.39627,88.64,132,12,3,242,373,6,134,4e-38,158
Capronia_dactylotricha_DAOM208471_T,ERR2438970.9050,88.06,134,13,2,242,375,5,135,2e-37,156
Capronia_kleinmondensis_CBS122671_T,ERR2438970.41464,91.67,132,10,1,266,397,4,134,3e-45,182
Capronia_kleinmondensis_CBS122671_T,ERR2438970.41464,95.71,70,3,0,555,624,370,301,9e-25,113
Capronia_kleinmondensis_CBS122671_T,ERR2438970.39651,90.84,131,10,2,267,397,5,133,4e-43,174
Capronia_kleinmondensis_CBS122671_T,ERR2438970.31062,87.88,132,14,2,266,397,5,134,6e-37,154
Capronia_kleinmondensis_CBS122671_T,ERR2438970.39627,87.79,131,14,2,267,397,6,134,2e-36,152
Capronia_kleinmondensis_CBS122671_T,ERR2438970.9050,87.22,133,15,2,267,399,5,135,7e-36,150
Capronia_mansonii_CBS101.67_T,ERR2438970.41464,90.67,150,11,3,252,401,4,150,9e-50,196
Capronia_mansonii_CBS101.67_T,ERR2438970.41464,96.97,66,2,0,563,628,366,301,3e-24,111
Capronia_mansonii_CBS101.67_T,ERR2438970.39651,90.60,149,9,4,253,401,5,148,1e-48,193
Capronia_mansonii_CBS101.67_T,ERR2438970.31062,87.33,150,14,4,252,401,5,149,7e-41,167
Capronia_mansonii_CBS101.67_T,ERR2438970.25067,92.37,118,8,1,253,370,5,121,7e-41,167
Capronia_mansonii_CBS101.67_T,ERR2438970.9050,87.25,149,14,4,253,401,5,148,3e-40,165
Capronia_mansonii_CBS101.67_T,ERR2438970.39627,86.58,149,15,4,253,401,6,149,1e-38,159
Capronia_mansonii_CBS101.67_T,ERR2438970.3246,94.83,58,3,0,572,629,357,300,4e-18,91.6
Capronia_munkii_DAOM216390_T,ERR2438970.41464,90.67,150,11,3,252,401,4,150,9e-50,196
Capronia_munkii_DAOM216390_T,ERR2438970.41464,96.83,63,2,0,566,628,363,301,2e-22,106
Capronia_munkii_DAOM216390_T,ERR2438970.39651,90.60,149,9,4,253,401,5,148,1e-48,193
Capronia_munkii_DAOM216390_T,ERR2438970.31062,87.33,150,14,4,252,401,5,149,7e-41,167
Capronia_munkii_DAOM216390_T,ERR2438970.25067,92.37,118,8,1,253,370,5,121,7e-41,167
Capronia_munkii_DAOM216390_T,ERR2438970.9050,87.25,149,14,4,253,401,5,148,3e-40,165
Capronia_munkii_DAOM216390_T,ERR2438970.39627,86.58,149,15,4,253,401,6,149,1e-38,159
Capronia_munkii_DAOM216390_T,ERR2438970.3246,94.83,58,3,0,572,629,357,300,4e-18,91.6
Capronia_coronata_ATCC56201_T,ERR2438970.41464,89.33,150,13,2,240,389,4,150,2e-46,185
Capronia_coronata_ATCC56201_T,ERR2438970.41464,95.59,68,3,0,532,599,368,301,1e-23,110
Capronia_coronata_ATCC56201_T,ERR2438970.39651,89.26,149,11,4,241,389,5,148,2e-45,182
Capronia_coronata_ATCC56201_T,ERR2438970.25067,92.37,118,8,1,241,358,5,121,7e-41,167
Capronia_coronata_ATCC56201_T,ERR2438970.9050,86.58,149,15,4,241,389,5,148,1e-38,159
Capronia_coronata_ATCC56201_T,ERR2438970.31062,90.68,118,10,1,240,357,5,121,1e-37,156
Capronia_coronata_ATCC56201_T,ERR2438970.39627,90.60,117,10,1,241,357,6,121,5e-37,154
Capronia_coronata_ATCC56201_T,ERR2438970.3246,94.83,58,3,0,543,600,357,300,4e-18,91.6
Capronia_parasitica_CBS123.88,ERR2438970.41464,92.31,130,9,1,246,375,4,132,6e-46,183
Capronia_parasitica_CBS123.88,ERR2438970.41464,97.30,37,1,0,559,595,362,326,9e-10,63.9
Capronia_parasitica_CBS123.88,ERR2438970.39651,91.47,129,9,2,247,375,5,131,1e-43,176
Capronia_parasitica_CBS123.88,ERR2438970.25067,92.37,118,8,1,247,364,5,121,6e-41,167
Capronia_parasitica_CBS123.88,ERR2438970.31062,90.68,118,10,1,246,363,5,121,1e-37,156
Capronia_parasitica_CBS123.88,ERR2438970.39627,90.60,117,10,1,247,363,6,121,5e-37,154
Capronia_parasitica_CBS123.88,ERR2438970.9050,87.60,129,14,2,247,375,5,131,2e-35,148
Veronaea_japonica_CBS776.83_T,ERR2438970.41464,90.60,149,12,2,274,422,4,150,8e-50,196
Veronaea_japonica_CBS776.83_T,ERR2438970.39651,90.54,148,10,4,275,422,5,148,1e-48,193
Veronaea_japonica_CBS776.83_T,ERR2438970.9050,87.84,148,14,4,275,422,5,148,5e-42,171
Veronaea_japonica_CBS776.83_T,ERR2438970.31062,87.25,149,15,4,274,422,5,149,7e-41,167
Veronaea_japonica_CBS776.83_T,ERR2438970.25067,92.37,118,8,1,275,392,5,121,7e-41,167
Veronaea_japonica_CBS776.83_T,ERR2438970.39627,86.49,148,16,4,275,422,6,149,1e-38,159
Thysanorea_papuana_CBS212.96_T,ERR2438970.39651,91.22,148,9,3,249,396,5,148,2e-50,198
Thysanorea_papuana_CBS212.96_T,ERR2438970.41464,90.60,149,12,2,248,396,4,150,8e-50,196
Thysanorea_papuana_CBS212.96_T,ERR2438970.31062,87.92,149,14,3,248,396,5,149,1e-42,172
Thysanorea_papuana_CBS212.96_T,ERR2438970.9050,87.84,148,14,3,249,396,5,148,5e-42,171
Thysanorea_papuana_CBS212.96_T,ERR2438970.25067,92.37,118,8,1,249,366,5,121,6e-41,167
Thysanorea_papuana_CBS212.96_T,ERR2438970.39627,87.16,148,15,3,249,396,6,149,2e-40,165
Capronia_acutiseta_ATCC56428_T,ERR2438970.41464,92.31,130,8,2,242,370,4,132,7e-46,183
Capronia_acutiseta_ATCC56428_T,ERR2438970.41464,95.71,70,2,1,529,598,369,301,3e-24,111
Capronia_acutiseta_ATCC56428_T,ERR2438970.39651,92.25,129,7,3,243,370,5,131,9e-45,180
Capronia_acutiseta_ATCC56428_T,ERR2438970.25067,92.37,118,7,2,243,359,5,121,7e-41,167
Capronia_acutiseta_ATCC56428_T,ERR2438970.31062,90.68,118,9,2,242,358,5,121,1e-37,156
Capronia_acutiseta_ATCC56428_T,ERR2438970.39627,90.60,117,9,2,243,358,6,121,5e-37,154
Capronia_acutiseta_ATCC56428_T,ERR2438970.9050,88.37,129,12,3,243,370,5,131,2e-36,152
Fonsecaea_brasiliensis_CBS119710_T,ERR2438970.39651,90.60,149,9,4,249,397,5,148,1e-48,193
Fonsecaea_brasiliensis_CBS119710_T,ERR2438970.41464,89.40,151,11,4,248,397,4,150,2e-46,185
Fonsecaea_brasiliensis_CBS119710_T,ERR2438970.31062,87.33,150,14,3,248,397,5,149,6e-41,167
Fonsecaea_brasiliensis_CBS119710_T,ERR2438970.25067,92.37,118,8,1,249,366,5,121,6e-41,167
Fonsecaea_brasiliensis_CBS119710_T,ERR2438970.9050,87.25,149,14,4,249,397,5,148,2e-40,165
Fonsecaea_brasiliensis_CBS119710_T,ERR2438970.39627,86.58,149,15,3,249,397,6,149,1e-38,159
Fonsecaea_pedrosoi_CBS271.37_T,ERR2438970.39651,90.00,150,9,5,277,426,5,148,1e-47,189
Fonsecaea_pedrosoi_CBS271.37_T,ERR2438970.41464,89.40,151,12,4,276,426,4,150,5e-47,187
Fonsecaea_pedrosoi_CBS271.37_T,ERR2438970.41464,95.59,68,3,0,578,645,368,301,1e-23,110
Fonsecaea_pedrosoi_CBS271.37_T,ERR2438970.25067,92.37,118,8,1,277,394,5,121,7e-41,167
Fonsecaea_pedrosoi_CBS271.37_T,ERR2438970.31062,86.75,151,14,4,276,426,5,149,9e-40,163
Fonsecaea_pedrosoi_CBS271.37_T,ERR2438970.9050,86.67,150,14,5,277,426,5,148,3e-39,161
Fonsecaea_pedrosoi_CBS271.37_T,ERR2438970.39627,86.00,150,15,4,277,426,6,149,2e-37,156
Fonsecaea_multimorphosa_CBS980.96_T,ERR2438970.39651,90.60,149,9,5,247,395,5,148,1e-48,193
Fonsecaea_multimorphosa_CBS980.96_T,ERR2438970.41464,90.07,151,10,4,246,395,4,150,3e-48,191
Fonsecaea_multimorphosa_CBS980.96_T,ERR2438970.31062,88.00,150,13,4,246,395,5,149,1e-42,172
Fonsecaea_multimorphosa_CBS980.96_T,ERR2438970.25067,92.37,118,8,1,247,364,5,121,6e-41,167
Fonsecaea_multimorphosa_CBS980.96_T,ERR2438970.39627,87.25,149,14,4,247,395,6,149,2e-40,165
Fonsecaea_multimorphosa_CBS980.96_T,ERR2438970.9050,87.25,149,14,5,247,395,5,148,2e-40,165
Fonsecaea_minima_CBS125760_T,ERR2438970.39651,90.60,149,9,4,243,391,5,148,1e-48,193
Fonsecaea_minima_CBS125760_T,ERR2438970.41464,88.68,159,11,5,242,399,4,156,4e-47,187
Fonsecaea_minima_CBS125760_T,ERR2438970.31062,87.33,150,14,3,242,391,5,149,6e-41,167
Fonsecaea_minima_CBS125760_T,ERR2438970.25067,92.37,118,8,1,243,360,5,121,6e-41,167
Fonsecaea_minima_CBS125760_T,ERR2438970.9050,87.25,149,14,4,243,391,5,148,2e-40,165
Fonsecaea_minima_CBS125760_T,ERR2438970.39627,86.58,149,15,3,243,391,6,149,1e-38,159
Fonsecaea_nubica_CBS269.64_T,ERR2438970.41464,90.07,151,11,4,253,403,4,150,1e-48,193
Fonsecaea_nubica_CBS269.64_T,ERR2438970.39651,90.00,150,9,5,254,403,5,148,1e-47,189
Fonsecaea_nubica_CBS269.64_T,ERR2438970.25067,92.37,118,8,1,254,371,5,121,6e-41,167
Fonsecaea_nubica_CBS269.64_T,ERR2438970.31062,86.75,151,14,4,253,403,5,149,8e-40,163
Fonsecaea_nubica_CBS269.64_T,ERR2438970.9050,86.67,150,14,5,254,403,5,148,3e-39,161
Fonsecaea_nubica_CBS269.64_T,ERR2438970.39627,86.00,150,15,4,254,403,6,149,1e-37,156
Fonsecaea_monophora_CBS269.37_T,ERR2438970.39651,89.40,151,9,6,254,404,5,148,6e-46,183
Fonsecaea_monophora_CBS269.37_T,ERR2438970.41464,88.82,152,12,5,253,404,4,150,2e-45,182
Fonsecaea_monophora_CBS269.37_T,ERR2438970.25067,91.60,119,8,2,254,372,5,121,8e-40,163
Fonsecaea_monophora_CBS269.37_T,ERR2438970.31062,86.18,152,14,5,253,404,5,149,4e-38,158
Fonsecaea_monophora_CBS269.37_T,ERR2438970.9050,86.09,151,14,6,254,404,5,148,1e-37,156
Fonsecaea_monophora_CBS269.37_T,ERR2438970.39627,85.43,151,15,5,254,404,6,149,6e-36,150
Fonsecaea_erecta_CBS125763_T,ERR2438970.41464,90.67,150,11,2,237,386,4,150,7e-50,196
Fonsecaea_erecta_CBS125763_T,ERR2438970.39651,90.60,149,9,4,238,386,5,148,9e-49,193
Fonsecaea_erecta_CBS125763_T,ERR2438970.31062,88.00,150,13,4,237,386,5,149,1e-42,172
Fonsecaea_erecta_CBS125763_T,ERR2438970.25067,92.37,118,8,1,238,355,5,121,6e-41,167
Fonsecaea_erecta_CBS125763_T,ERR2438970.39627,87.25,149,14,4,238,386,6,149,2e-40,165
Fonsecaea_erecta_CBS125763_T,ERR2438970.9050,87.25,149,14,4,238,386,5,148,2e-40,165
Fonsecaea_pugnacius_CBS139214_T,ERR2438970.41464,91.73,133,9,2,246,378,4,134,6e-46,183
Fonsecaea_pugnacius_CBS139214_T,ERR2438970.39651,89.40,151,9,5,247,397,5,148,6e-46,183
Fonsecaea_pugnacius_CBS139214_T,ERR2438970.25067,92.37,118,8,1,247,364,5,121,6e-41,167
Fonsecaea_pugnacius_CBS139214_T,ERR2438970.31062,86.18,152,14,4,246,397,5,149,3e-38,158
Fonsecaea_pugnacius_CBS139214_T,ERR2438970.9050,88.06,134,13,3,247,380,5,135,1e-37,156
Fonsecaea_pugnacius_CBS139214_T,ERR2438970.39627,90.60,117,10,1,247,363,6,121,5e-37,154
Cladophialophora_psammophila_CBS,ERR2438970.41464,90.67,150,11,2,252,401,4,150,8e-50,196
Cladophialophora_psammophila_CBS,ERR2438970.39651,90.60,149,9,4,253,401,5,148,1e-48,193
Cladophialophora_psammophila_CBS,ERR2438970.31062,88.00,150,13,4,252,401,5,149,1e-42,172
Cladophialophora_psammophila_CBS,ERR2438970.25067,92.37,118,8,1,253,370,5,121,6e-41,167
Cladophialophora_psammophila_CBS,ERR2438970.39627,87.25,149,14,4,253,401,6,149,2e-40,165
Cladophialophora_psammophila_CBS,ERR2438970.9050,87.25,149,14,4,253,401,5,148,2e-40,165
Cladophialophora_devriesii_CBS,ERR2438970.39651,90.60,149,9,5,249,397,5,148,9e-49,193
Cladophialophora_devriesii_CBS,ERR2438970.41464,90.07,151,10,4,248,397,4,150,3e-48,191
Cladophialophora_devriesii_CBS,ERR2438970.31062,88.00,150,13,4,248,397,5,149,1e-42,172
Cladophialophora_devriesii_CBS,ERR2438970.25067,92.37,118,8,1,249,366,5,121,6e-41,167
Cladophialophora_devriesii_CBS,ERR2438970.39627,87.25,149,14,4,249,397,6,149,2e-40,165
Cladophialophora_devriesii_CBS,ERR2438970.9050,87.25,149,14,5,249,397,5,148,2e-40,165
Cladophialophora_immunda_CBS834.96,ERR2438970.39651,90.60,149,9,4,251,399,5,148,1e-48,193
Cladophialophora_immunda_CBS834.96,ERR2438970.41464,89.40,151,11,4,250,399,4,150,2e-46,185
Cladophialophora_immunda_CBS834.96,ERR2438970.31062,87.33,150,14,3,250,399,5,149,6e-41,167
Cladophialophora_immunda_CBS834.96,ERR2438970.25067,92.37,118,8,1,251,368,5,121,6e-41,167
Cladophialophora_immunda_CBS834.96,ERR2438970.9050,87.25,149,14,4,251,399,5,148,2e-40,165
Cladophialophora_immunda_CBS834.96,ERR2438970.39627,86.58,149,15,3,251,399,6,149,1e-38,159
Cladophialophora_arxii_CBS306.94_T,ERR2438970.39651,89.40,151,9,5,253,403,5,148,6e-46,183
Cladophialophora_arxii_CBS306.94_T,ERR2438970.41464,88.82,152,12,4,252,403,4,150,2e-45,182
Cladophialophora_arxii_CBS306.94_T,ERR2438970.25067,92.37,118,8,1,253,370,5,121,6e-41,167
Cladophialophora_arxii_CBS306.94_T,ERR2438970.31062,86.18,152,14,4,252,403,5,149,4e-38,158
Cladophialophora_arxii_CBS306.94_T,ERR2438970.9050,86.09,151,14,5,253,403,5,148,1e-37,156
Cladophialophora_arxii_CBS306.94_T,ERR2438970.39627,90.60,117,10,1,253,369,6,121,5e-37,154
Cladophialophora_bantiana_CBS173.52,ERR2438970.41464,90.67,150,11,2,246,395,4,150,8e-50,196
Cladophialophora_bantiana_CBS173.52,ERR2438970.39651,90.60,149,9,4,247,395,5,148,1e-48,193
Cladophialophora_bantiana_CBS173.52,ERR2438970.31062,88.00,150,13,4,246,395,5,149,1e-42,172
Cladophialophora_bantiana_CBS173.52,ERR2438970.25067,92.37,118,8,1,247,364,5,121,6e-41,167
Cladophialophora_bantiana_CBS173.52,ERR2438970.39627,87.25,149,14,4,247,395,6,149,2e-40,165
Cladophialophora_bantiana_CBS173.52,ERR2438970.9050,87.25,149,14,4,247,395,5,148,2e-40,165
Cladophialophora_emmonsii_CBS102594,ERR2438970.39651,90.00,150,9,4,238,387,5,148,1e-47,189
Cladophialophora_emmonsii_CBS102594,ERR2438970.41464,92.42,132,9,1,237,368,4,134,5e-47,187
Cladophialophora_emmonsii_CBS102594,ERR2438970.25067,92.37,118,8,1,238,355,5,121,6e-41,167
Cladophialophora_emmonsii_CBS102594,ERR2438970.31062,86.75,151,14,4,237,387,5,149,8e-40,163
Cladophialophora_emmonsii_CBS102594,ERR2438970.9050,88.72,133,13,2,238,370,5,135,3e-39,161
Cladophialophora_emmonsii_CBS102594,ERR2438970.39627,86.00,150,15,4,238,387,6,149,1e-37,156
Cladophialophora_minourae_CBS556.83,ERR2438970.39651,87.33,150,13,5,246,395,5,148,2e-41,169
Cladophialophora_minourae_CBS556.83,ERR2438970.41464,88.81,134,12,3,245,378,4,134,3e-39,161
Cladophialophora_minourae_CBS556.83,ERR2438970.31062,86.09,151,15,5,245,395,5,149,1e-38,159
Cladophialophora_minourae_CBS556.83,ERR2438970.39627,85.33,150,16,5,246,395,6,149,2e-36,152
Cladophialophora_minourae_CBS556.83,ERR2438970.9050,84.00,150,18,5,246,395,5,148,4e-33,141
Cladophialophora_australiensis_CBS112793,ERR2438970.39651,90.54,148,10,3,248,395,5,148,3e-48,193
Cladophialophora_australiensis_CBS112793,ERR2438970.41464,89.33,150,12,3,247,395,4,150,4e-46,185
Cladophialophora_australiensis_CBS112793,ERR2438970.41464,94.12,68,4,0,539,606,368,301,1e-21,104
Cladophialophora_australiensis_CBS112793,ERR2438970.31062,87.25,149,15,3,247,395,5,149,2e-40,167
Cladophialophora_australiensis_CBS112793,ERR2438970.9050,87.16,148,15,3,248,395,5,148,6e-40,165
Cladophialophora_australiensis_CBS112793,ERR2438970.25067,91.53,118,9,1,248,365,5,121,7e-39,161
Cladophialophora_australiensis_CBS112793,ERR2438970.39627,86.49,148,16,3,248,395,6,149,3e-38,159
Cladophialophora_potulentorum_CBS112222,ERR2438970.39651,89.86,148,11,3,247,394,5,148,1e-46,187
Cladophialophora_potulentorum_CBS112222,ERR2438970.41464,88.67,150,13,3,246,394,4,150,2e-44,180
Cladophialophora_potulentorum_CBS112222,ERR2438970.41464,92.75,69,4,1,540,608,368,301,6e-20,99.0
Cladophialophora_potulentorum_CBS112222,ERR2438970.31062,86.58,149,16,3,246,394,5,149,8e-39,161
Cladophialophora_potulentorum_CBS112222,ERR2438970.9050,86.49,148,16,3,247,394,5,148,3e-38,159
Cladophialophora_potulentorum_CBS112222,ERR2438970.39627,85.81,148,17,3,247,394,6,149,1e-36,154
Cladophialophora_matsushimae_CMRP1198,ERR2438970.39651,89.86,148,11,3,251,398,5,148,4e-47,187
Cladophialophora_matsushimae_CMRP1198,ERR2438970.41464,89.26,149,14,2,250,398,4,150,1e-46,185
Cladophialophora_matsushimae_CMRP1198,ERR2438970.9050,87.16,148,15,3,251,398,5,148,2e-40,165
Cladophialophora_matsushimae_CMRP1198,ERR2438970.31062,86.58,149,16,3,250,398,5,149,2e-39,161
Cladophialophora_matsushimae_CMRP1198,ERR2438970.39627,85.81,148,17,3,251,398,6,149,4e-37,154
Cladophialophora_mycetomatis_CBS122637,ERR2438970.41464,90.60,149,12,2,235,383,4,150,7e-50,196
Cladophialophora_mycetomatis_CBS122637,ERR2438970.39651,90.54,148,10,3,236,383,5,148,1e-48,193
Cladophialophora_mycetomatis_CBS122637,ERR2438970.31062,87.25,149,15,3,235,383,5,149,6e-41,167
Cladophialophora_mycetomatis_CBS122637,ERR2438970.9050,87.16,148,15,3,236,383,5,148,2e-40,165
Cladophialophora_mycetomatis_CBS122637,ERR2438970.39627,86.49,148,16,3,236,383,6,149,1e-38,159
Cladophialophora_chaetospira_CBS127573,ERR2438970.39651,91.22,148,9,3,642,789,5,148,4e-50,198
Cladophialophora_chaetospira_CBS127573,ERR2438970.41464,90.60,149,12,2,641,789,4,150,1e-49,196
Cladophialophora_chaetospira_CBS127573,ERR2438970.31062,87.92,149,14,3,641,789,5,149,2e-42,172
Cladophialophora_chaetospira_CBS127573,ERR2438970.9050,87.84,148,14,3,642,789,5,148,8e-42,171
Cladophialophora_chaetospira_CBS127573,ERR2438970.25067,92.37,118,8,1,642,759,5,121,1e-40,167
Cladophialophora_chaetospira_CBS127573,ERR2438970.39627,87.16,148,15,3,642,789,6,149,4e-40,165
Cladophialophora_boppii_CBS126.86_T,ERR2438970.39651,90.54,148,10,4,244,391,5,148,1e-48,193
Cladophialophora_boppii_CBS126.86_T,ERR2438970.41464,91.97,137,9,2,243,378,4,139,3e-48,191
Cladophialophora_boppii_CBS126.86_T,ERR2438970.31062,87.92,149,14,4,243,391,5,149,1e-42,172
Cladophialophora_boppii_CBS126.86_T,ERR2438970.25067,92.37,118,8,1,244,361,5,121,6e-41,167
Cladophialophora_boppii_CBS126.86_T,ERR2438970.39627,87.16,148,15,4,244,391,6,149,2e-40,165
Cladophialophora_boppii_CBS126.86_T,ERR2438970.9050,87.16,148,15,4,244,391,5,148,2e-40,165
Cladophialophora_abundans_CBS126736,ERR2438970.39651,90.54,148,10,3,181,328,5,148,8e-49,193
Cladophialophora_abundans_CBS126736,ERR2438970.41464,89.93,149,13,2,180,328,4,150,3e-48,191
Cladophialophora_abundans_CBS126736,ERR2438970.31062,87.92,149,14,3,180,328,5,149,1e-42,172
Cladophialophora_abundans_CBS126736,ERR2438970.9050,87.84,148,14,3,181,328,5,148,4e-42,171
Cladophialophora_abundans_CBS126736,ERR2438970.39627,87.16,148,15,3,181,328,6,149,2e-40,165
Capronia_semi-immersa_CBS102234,ERR2438970.39651,89.19,148,12,3,243,390,5,148,2e-45,182
Capronia_semi-immersa_CBS102234,ERR2438970.41464,88.00,150,14,3,242,390,4,150,3e-43,174
Capronia_semi-immersa_CBS102234,ERR2438970.31062,87.25,149,15,3,242,390,5,149,6e-41,167
Capronia_semi-immersa_CBS102234,ERR2438970.39627,86.49,148,16,3,243,390,6,149,1e-38,159
Capronia_semi-immersa_CBS102234,ERR2438970.9050,85.81,148,17,3,243,390,5,148,5e-37,154
Phialophora_americana_CBS400.67,ERR2438970.39651,89.19,148,12,3,245,392,5,148,6e-45,182
Phialophora_americana_CBS400.67,ERR2438970.41464,88.00,150,14,3,244,392,4,150,9e-43,174
Phialophora_americana_CBS400.67,ERR2438970.31062,87.25,149,15,3,244,392,5,149,2e-40,167
Phialophora_americana_CBS400.67,ERR2438970.39627,86.49,148,16,3,245,392,6,149,3e-38,159
Phialophora_americana_CBS400.67,ERR2438970.9050,85.81,148,17,3,245,392,5,148,1e-36,154
Phialophora_verrucosa_CBS140325_T,ERR2438970.39651,89.19,148,12,3,249,396,5,148,2e-45,182
Phialophora_verrucosa_CBS140325_T,ERR2438970.41464,88.00,150,14,3,248,396,4,150,4e-43,174
Phialophora_verrucosa_CBS140325_T,ERR2438970.31062,87.25,149,15,3,248,396,5,149,6e-41,167
Phialophora_verrucosa_CBS140325_T,ERR2438970.39627,86.49,148,16,3,249,396,6,149,1e-38,159
Phialophora_verrucosa_CBS140325_T,ERR2438970.9050,85.81,148,17,3,249,396,5,148,5e-37,154
Cladophialophora_samoensis_CBS259.83_T,ERR2438970.39651,91.89,148,8,3,249,396,5,148,5e-52,204
Cladophialophora_samoensis_CBS259.83_T,ERR2438970.41464,90.67,150,10,3,248,396,4,150,8e-50,196
Cladophialophora_samoensis_CBS259.83_T,ERR2438970.9050,88.51,148,13,3,249,396,5,148,1e-43,176
Cladophialophora_samoensis_CBS259.83_T,ERR2438970.31062,87.92,149,14,3,248,396,5,149,1e-42,172
Cladophialophora_samoensis_CBS259.83_T,ERR2438970.39627,87.16,148,15,3,249,396,6,149,2e-40,165
Cladophialophora_carrionii_CBS260.83,ERR2438970.39651,90.54,148,10,3,265,412,5,148,1e-48,193
Cladophialophora_carrionii_CBS260.83,ERR2438970.41464,89.93,149,13,2,264,412,4,150,4e-48,191
Cladophialophora_carrionii_CBS260.83,ERR2438970.31062,88.59,149,13,3,264,412,5,149,3e-44,178
Cladophialophora_carrionii_CBS260.83,ERR2438970.39627,87.84,148,14,3,265,412,6,149,5e-42,171
Cladophialophora_carrionii_CBS260.83,ERR2438970.9050,87.16,148,15,3,265,412,5,148,2e-40,165
Exophiala_palmae_UPCB86822_T,ERR2438970.41464,92.42,132,9,1,207,338,4,134,4e-47,187
Exophiala_palmae_UPCB86822_T,ERR2438970.39651,92.37,131,8,2,208,338,5,133,2e-46,185
Exophiala_palmae_UPCB86822_T,ERR2438970.25067,92.37,118,8,1,208,325,5,121,5e-41,167
Exophiala_palmae_UPCB86822_T,ERR2438970.9050,88.72,133,13,2,208,340,5,135,3e-39,161
Exophiala_palmae_UPCB86822_T,ERR2438970.31062,88.64,132,13,2,207,338,5,134,9e-39,159
Exophiala_palmae_UPCB86822_T,ERR2438970.39627,90.60,117,10,1,208,324,6,121,4e-37,154
Cladophialophora_yegresii_CBS114405_T,ERR2438970.39651,90.54,148,10,3,250,397,5,148,1e-48,193
Cladophialophora_yegresii_CBS114405_T,ERR2438970.41464,89.33,150,12,3,249,397,4,150,2e-46,185
Cladophialophora_yegresii_CBS114405_T,ERR2438970.31062,88.59,149,13,3,249,397,5,149,3e-44,178
Cladophialophora_yegresii_CBS114405_T,ERR2438970.39627,87.84,148,14,3,250,397,6,149,5e-42,171
Cladophialophora_yegresii_CBS114405_T,ERR2438970.9050,87.16,148,15,3,250,397,5,148,2e-40,165
Knufia_epidermidis_CBS120353_T,ERR2438970.41464,93.33,120,7,1,247,366,4,122,1e-43,176
Knufia_epidermidis_CBS120353_T,ERR2438970.39651,90.70,129,10,2,248,376,5,131,4e-42,171
Knufia_epidermidis_CBS120353_T,ERR2438970.9050,86.49,148,16,4,248,395,5,148,1e-38,159
Knufia_epidermidis_CBS120353_T,ERR2438970.31062,88.98,118,12,1,247,364,5,121,3e-34,145
Knufia_epidermidis_CBS120353_T,ERR2438970.39627,88.89,117,12,1,248,364,6,121,1e-33,143
Arthrocladium_fulminans_CBS136243_T,ERR2438970.41464,90.83,120,10,1,242,361,4,122,1e-38,159
Arthrocladium_fulminans_CBS136243_T,ERR2438970.39651,88.37,129,13,2,243,371,5,131,5e-37,154
Arthrocladium_fulminans_CBS136243_T,ERR2438970.31062,89.92,119,9,3,242,359,5,121,6e-36,150
Arthrocladium_fulminans_CBS136243_T,ERR2438970.39627,89.83,118,9,3,243,359,6,121,2e-35,148
Arthrocladium_fulminans_CBS136243_T,ERR2438970.9050,86.05,129,16,2,243,371,5,131,5e-32,137
Anthopsis_deltoidea_CBS263.77_T,ERR2438970.25067,90.60,117,10,1,252,367,5,121,4e-37,154
Cyphellophora_laciniata_CBS190.61_T,ERR2438970.41464,91.16,147,11,2,336,480,4,150,3e-50,198
Cyphellophora_laciniata_CBS190.61_T,ERR2438970.41464,96.77,62,2,0,634,695,362,301,6e-22,104
Cyphellophora_laciniata_CBS190.61_T,ERR2438970.39651,91.03,145,11,2,337,480,5,148,4e-49,195
Cyphellophora_laciniata_CBS190.61_T,ERR2438970.9050,88.97,145,14,2,337,480,5,148,4e-44,178
Cyphellophora_laciniata_CBS190.61_T,ERR2438970.31062,86.99,146,17,2,336,480,5,149,1e-39,163
Cyphellophora_laciniata_CBS190.61_T,ERR2438970.39627,86.21,145,18,2,337,480,6,149,2e-37,156
Cyphellophora_laciniata_CBS190.61_T,ERR2438970.3246,92.42,66,5,0,631,696,365,300,4e-19,95.3
Cyphellophora_suttonii_CBS449.91,ERR2438970.41464,89.81,157,13,3,239,393,4,159,2e-50,198
Cyphellophora_suttonii_CBS449.91,ERR2438970.39651,91.03,145,11,2,240,383,5,148,3e-49,195
Cyphellophora_suttonii_CBS449.91,ERR2438970.9050,88.97,145,14,2,240,383,5,148,3e-44,178
Cyphellophora_suttonii_CBS449.91,ERR2438970.31062,86.75,151,18,2,239,388,5,154,6e-41,167
Cyphellophora_suttonii_CBS449.91,ERR2438970.39627,86.00,150,19,2,240,388,6,154,1e-38,159
Cyphellophora_pauciseptata_CBS284.85_T,ERR2438970.41464,91.16,147,11,2,250,394,4,150,2e-50,198
Cyphellophora_pauciseptata_CBS284.85_T,ERR2438970.39651,91.03,145,11,2,251,394,5,148,3e-49,195
Cyphellophora_pauciseptata_CBS284.85_T,ERR2438970.9050,88.97,145,14,2,251,394,5,148,3e-44,178
Cyphellophora_pauciseptata_CBS284.85_T,ERR2438970.31062,86.67,150,18,2,250,398,5,153,2e-40,165
Cyphellophora_pauciseptata_CBS284.85_T,ERR2438970.39627,85.91,149,19,2,251,398,6,153,4e-38,158
Cyphellophora_pluriseptata_CBS286.85_T,ERR2438970.39651,91.72,145,10,2,256,399,5,148,6e-51,200
Cyphellophora_pluriseptata_CBS286.85_T,ERR2438970.41464,90.48,147,12,2,255,399,4,150,1e-48,193
Cyphellophora_pluriseptata_CBS286.85_T,ERR2438970.9050,88.97,145,14,2,256,399,5,148,3e-44,178
Cyphellophora_pluriseptata_CBS286.85_T,ERR2438970.31062,86.30,146,18,2,255,399,5,149,4e-38,158
Cyphellophora_pluriseptata_CBS286.85_T,ERR2438970.39627,85.52,145,19,2,256,399,6,149,6e-36,150
Phialophora_europaea_CBS101466,ERR2438970.39651,91.72,145,10,2,246,389,5,148,6e-51,200
Phialophora_europaea_CBS101466,ERR2438970.41464,90.48,147,12,2,245,389,4,150,9e-49,193
Phialophora_europaea_CBS101466,ERR2438970.9050,88.97,145,14,2,246,389,5,148,3e-44,178
Phialophora_europaea_CBS101466,ERR2438970.31062,86.00,150,19,2,245,393,5,153,1e-38,159
Phialophora_europaea_CBS101466,ERR2438970.39627,85.23,149,20,2,246,393,6,153,2e-36,152
Phialophora_ambigua_CBS235.93,ERR2438970.39651,91.72,145,10,2,243,386,5,148,6e-51,200
Phialophora_ambigua_CBS235.93,ERR2438970.41464,90.48,147,12,2,242,386,4,150,1e-48,193
Phialophora_ambigua_CBS235.93,ERR2438970.9050,88.97,145,14,2,243,386,5,148,3e-44,178
Phialophora_ambigua_CBS235.93,ERR2438970.31062,86.30,146,18,2,242,386,5,149,3e-38,158
Phialophora_ambigua_CBS235.93,ERR2438970.39627,85.52,145,19,2,243,386,6,149,6e-36,150
Cladophialophora_modesta_CBS985.96_T,ERR2438970.39651,91.16,147,10,3,240,386,5,148,8e-50,196
Cladophialophora_modesta_CBS985.96_T,ERR2438970.41464,90.54,148,13,1,239,386,4,150,3e-49,195
Cladophialophora_modesta_CBS985.96_T,ERR2438970.41464,94.20,69,4,0,511,579,369,301,1e-22,106
Cladophialophora_modesta_CBS985.96_T,ERR2438970.31062,87.84,148,15,3,239,386,5,149,5e-42,171
Cladophialophora_modesta_CBS985.96_T,ERR2438970.9050,86.62,157,17,4,240,395,5,158,5e-42,171
Cladophialophora_modesta_CBS985.96_T,ERR2438970.39627,87.07,147,16,3,240,386,6,149,9e-40,163
Cladophialophora_modesta_CBS985.96_T,ERR2438970.25067,91.53,118,9,1,240,357,5,121,3e-39,161
Cyphellophora_fusarioides_MUCL44033_T,ERR2438970.41464,90.48,147,12,2,238,382,4,150,1e-48,193
