Exophiala_pisciphila_CBS537.73_T,ERR476580.124505,100.00,37,0,0,599,635,38,2,1e-11,69.4
Exophiala_brunnea_CBS,ERR476580.18773,100.00,40,0,0,1,40,24,63,2e-13,75.0
Exophiala_mesophila_CBS402.95_T,ERR476580.124505,100.00,37,0,0,596,632,38,2,1e-11,69.4
Exophiala_castellanii_CBS158.58_T,ERR476580.124505,100.00,37,0,0,595,631,38,2,1e-11,69.4
Exophiala_dermatitidis_CBS748.88,ERR476580.162145,89.86,148,15,0,852,999,157,10,5e-48,191
Exophiala_dermatitidis_CBS748.88,ERR476580.124505,100.00,37,0,0,621,657,38,2,3e-11,69.4
Exophiala_salmonis_CBS157.67_T,ERR476580.124505,100.00,37,0,0,719,755,38,2,1e-11,69.4
Exophiala_salmonis_CBS157.67_T,ERR476580.18773,100.00,30,0,0,93,122,1,30,1e-07,56.5
Exophiala_tremulae_CBS129355,ERR476580.18773,100.00,40,0,0,1,40,24,63,2e-13,75.0
Rhinocladiella_atrovirens_CBS264.49,ERR476580.18773,100.00,44,0,0,1,44,19,62,1e-15,82.4
Rhinocladiella_aquaspersa_CBS313.73_T,ERR476580.124505,100.00,37,0,0,591,627,38,2,1e-11,69.4
Veronaea_compacta_CBS268.75_T,ERR476580.18773,100.00,28,0,0,1,28,36,63,1e-06,52.8
Capronia_dactylotricha_DAOM208471_T,ERR476580.124505,100.00,37,0,0,604,640,38,2,1e-11,69.4
Capronia_kleinmondensis_CBS122671_T,ERR476580.124505,100.00,37,0,0,610,646,38,2,1e-11,69.4
Capronia_kleinmondensis_CBS122671_T,ERR476580.18773,100.00,30,0,0,1,30,33,62,9e-08,56.5
Capronia_mansonii_CBS101.67_T,ERR476580.124505,100.00,37,0,0,614,650,38,2,1e-11,69.4
Capronia_munkii_DAOM216390_T,ERR476580.124505,100.00,37,0,0,614,650,38,2,1e-11,69.4
Capronia_coronata_ATCC56201_T,ERR476580.124505,100.00,37,0,0,585,621,38,2,1e-11,69.4
Veronaea_japonica_CBS776.83_T,ERR476580.18773,100.00,39,0,0,1,39,25,63,8e-13,73.1
Capronia_acutiseta_ATCC56428_T,ERR476580.124505,100.00,34,0,0,584,617,38,5,5e-10,63.9
Fonsecaea_pedrosoi_CBS271.37_T,ERR476580.18773,100.00,31,0,0,1,31,33,63,2e-08,58.4
Cladophialophora_australiensis_CBS112793,ERR476580.162145,89.19,148,16,0,822,969,157,10,2e-46,185
Cladophialophora_australiensis_CBS112793,ERR476580.124505,100.00,37,0,0,592,628,38,2,2e-11,69.4
Cladophialophora_potulentorum_CBS112222,ERR476580.162145,89.19,148,16,0,824,971,157,10,2e-46,185
Cladophialophora_potulentorum_CBS112222,ERR476580.124505,100.00,37,0,0,594,630,38,2,3e-11,69.4
Cladophialophora_chaetospira_CBS127573,ERR476580.18773,100.00,32,0,0,379,410,32,63,9e-09,60.2
Cyphellophora_laciniata_CBS190.61_T,ERR476580.18773,100.00,62,0,0,39,100,1,62,2e-25,115
Cyphellophora_laciniata_CBS190.61_T,ERR476580.124505,100.00,37,0,0,681,717,38,2,1e-11,69.4
Cladophialophora_modesta_CBS985.96_T,ERR476580.124505,100.00,38,0,0,565,602,38,1,3e-12,71.3
