Exophiala_nigra_CBS535.94_T,ERR2674085.2216,91.61,143,10,2,233,375,11,151,2e-50,196
Exophiala_nigra_CBS535.94_T,ERR2674085.8735,90.91,143,11,2,233,375,11,151,8e-49,191
Exophiala_nigra_CBS535.94_T,ERR2674085.6292,94.38,89,4,1,233,321,11,98,4e-32,135
Exophiala_nigra_CBS535.94_T,ERR2674085.8286,86.52,89,11,1,233,321,11,98,2e-20,97.1
Exophiala_nigra_CBS535.94_T,ERR2674085.247,85.39,89,12,1,233,321,11,98,8e-19,91.6
Exophiala_spinifera_CBS899.68_T,ERR2674085.2216,89.94,159,11,4,230,387,11,165,1e-51,200
Exophiala_spinifera_CBS899.68_T,ERR2674085.8735,89.31,159,12,4,230,387,11,165,5e-50,195
Exophiala_spinifera_CBS899.68_T,ERR2674085.6292,92.13,89,6,1,230,318,11,98,7e-29,124
Exophiala_spinifera_CBS899.68_T,ERR2674085.8286,86.52,89,11,1,230,318,11,98,2e-20,97.1
Exophiala_spinifera_CBS899.68_T,ERR2674085.247,85.39,89,12,1,230,318,11,98,7e-19,91.6
Exophiala_exophialae_CBS668.76_T,ERR2674085.2216,89.94,159,11,4,231,388,11,165,1e-51,200
Exophiala_exophialae_CBS668.76_T,ERR2674085.8735,89.31,159,12,4,231,388,11,165,5e-50,195
Exophiala_exophialae_CBS668.76_T,ERR2674085.6292,92.13,89,6,1,231,319,11,98,7e-29,124
Exophiala_exophialae_CBS668.76_T,ERR2674085.8286,86.52,89,11,1,231,319,11,98,2e-20,97.1
Exophiala_exophialae_CBS668.76_T,ERR2674085.247,85.39,89,12,1,231,319,11,98,7e-19,91.6
Exophiala_polymorpha_CBS138920_T,ERR2674085.2216,89.94,159,11,4,333,490,11,165,2e-51,200
Exophiala_polymorpha_CBS138920_T,ERR2674085.8735,89.31,159,12,4,333,490,11,165,7e-50,195
Exophiala_polymorpha_CBS138920_T,ERR2674085.8735,98.18,55,1,0,640,694,313,259,2e-20,97.1
Exophiala_polymorpha_CBS138920_T,ERR2674085.6292,92.13,89,6,1,333,421,11,98,9e-29,124
Exophiala_polymorpha_CBS138920_T,ERR2674085.8286,86.52,89,11,1,333,421,11,98,2e-20,97.1
Exophiala_polymorpha_CBS138920_T,ERR2674085.8286,92.31,39,3,0,656,694,297,259,3e-08,56.5
Exophiala_polymorpha_CBS138920_T,ERR2674085.1226,98.18,55,1,0,640,694,313,259,2e-20,97.1
Exophiala_polymorpha_CBS138920_T,ERR2674085.2031,96.36,55,2,0,640,694,313,259,1e-18,91.6
Exophiala_polymorpha_CBS138920_T,ERR2674085.247,85.39,89,12,1,333,421,11,98,1e-18,91.6
Exophiala_polymorpha_CBS138920_T,ERR2674085.337,94.87,39,2,0,656,694,297,259,7e-10,62.1
Exophiala_oligosperma_CBS725.88_T,ERR2674085.2216,89.94,159,11,4,243,400,11,165,1e-51,200
Exophiala_oligosperma_CBS725.88_T,ERR2674085.8735,89.31,159,12,4,243,400,11,165,6e-50,195
Exophiala_oligosperma_CBS725.88_T,ERR2674085.6292,92.13,89,6,1,243,331,11,98,7e-29,124
Exophiala_oligosperma_CBS725.88_T,ERR2674085.8286,86.52,89,11,1,243,331,11,98,2e-20,97.1
Exophiala_oligosperma_CBS725.88_T,ERR2674085.247,85.39,89,12,1,243,331,11,98,8e-19,91.6
Exophiala_jeanselmei_CBS507.90_T,ERR2674085.2216,89.94,159,11,4,235,392,11,165,1e-51,200
Exophiala_jeanselmei_CBS507.90_T,ERR2674085.8735,89.31,159,12,4,235,392,11,165,6e-50,195
Exophiala_jeanselmei_CBS507.90_T,ERR2674085.8735,96.72,61,2,0,544,604,311,251,4e-22,102
Exophiala_jeanselmei_CBS507.90_T,ERR2674085.6292,92.13,89,6,1,235,323,11,98,8e-29,124
Exophiala_jeanselmei_CBS507.90_T,ERR2674085.1226,95.59,68,3,0,537,604,318,251,2e-24,110
Exophiala_jeanselmei_CBS507.90_T,ERR2674085.8286,86.52,89,11,1,235,323,11,98,2e-20,97.1
Exophiala_jeanselmei_CBS507.90_T,ERR2674085.8286,91.49,47,4,0,558,604,297,251,5e-11,65.8
Exophiala_jeanselmei_CBS507.90_T,ERR2674085.2031,95.08,61,3,0,544,604,311,251,2e-20,97.1
Exophiala_jeanselmei_CBS507.90_T,ERR2674085.247,85.39,89,12,1,235,323,11,98,8e-19,91.6
Exophiala_jeanselmei_CBS507.90_T,ERR2674085.337,93.62,47,3,0,558,604,297,251,1e-12,71.3
Exophiala_bergeri_CBS353.52,ERR2674085.2216,91.61,143,10,2,196,338,11,151,1e-50,196
Exophiala_bergeri_CBS353.52,ERR2674085.8735,90.91,143,11,2,196,338,11,151,6e-49,191
Exophiala_bergeri_CBS353.52,ERR2674085.6292,94.38,89,4,1,196,284,11,98,3e-32,135
Exophiala_bergeri_CBS353.52,ERR2674085.8286,86.52,89,11,1,196,284,11,98,1e-20,97.1
Exophiala_bergeri_CBS353.52,ERR2674085.247,85.39,89,12,1,196,284,11,98,7e-19,91.6
Exophiala_moniliae_CBS520.76_T,ERR2674085.2216,90.91,143,11,2,233,375,11,151,7e-49,191
Exophiala_moniliae_CBS520.76_T,ERR2674085.8735,90.21,143,12,2,233,375,11,151,3e-47,185
Exophiala_moniliae_CBS520.76_T,ERR2674085.6292,94.38,89,4,1,233,321,11,98,4e-32,135
Exophiala_moniliae_CBS520.76_T,ERR2674085.8286,86.52,89,11,1,233,321,11,98,2e-20,97.1
Exophiala_moniliae_CBS520.76_T,ERR2674085.247,85.39,89,12,1,233,321,11,98,8e-19,91.6
Exophiala_pisciphila_CBS537.73_T,ERR2674085.2216,90.57,159,10,4,236,393,11,165,3e-53,206
Exophiala_pisciphila_CBS537.73_T,ERR2674085.2216,98.36,61,0,1,553,613,310,251,3e-23,106
Exophiala_pisciphila_CBS537.73_T,ERR2674085.8735,89.94,159,11,4,236,393,11,165,1e-51,200
Exophiala_pisciphila_CBS537.73_T,ERR2674085.8735,98.36,61,1,0,553,613,311,251,9e-24,108
Exophiala_pisciphila_CBS537.73_T,ERR2674085.6292,93.26,89,5,1,236,324,11,98,2e-30,130
Exophiala_pisciphila_CBS537.73_T,ERR2674085.1226,100.00,61,0,0,553,613,311,251,2e-25,113
Exophiala_pisciphila_CBS537.73_T,ERR2674085.2031,96.72,61,2,0,553,613,311,251,4e-22,102
Exophiala_pisciphila_CBS537.73_T,ERR2674085.8286,85.39,89,12,1,236,324,11,98,9e-19,91.6
Exophiala_pisciphila_CBS537.73_T,ERR2674085.8286,93.62,47,3,0,567,613,297,251,1e-12,71.3
Exophiala_pisciphila_CBS537.73_T,ERR2674085.247,84.27,89,13,1,236,324,11,98,4e-17,86.1
Exophiala_pisciphila_CBS537.73_T,ERR2674085.6147,92.86,56,4,0,558,613,306,251,5e-16,82.4
Exophiala_pisciphila_CBS537.73_T,ERR2674085.337,95.74,47,2,0,567,613,297,251,3e-14,76.8
Exophiala_xenobiotica_CBS117642,ERR2674085.2216,90.57,159,10,4,228,385,11,165,2e-53,206
Exophiala_xenobiotica_CBS117642,ERR2674085.8735,89.94,159,11,4,228,385,11,165,1e-51,200
Exophiala_xenobiotica_CBS117642,ERR2674085.6292,94.38,89,4,1,228,316,11,98,3e-32,135
Exophiala_xenobiotica_CBS117642,ERR2674085.8286,86.52,89,11,1,228,316,11,98,2e-20,97.1
Exophiala_xenobiotica_CBS117642,ERR2674085.247,85.39,89,12,1,228,316,11,98,7e-19,91.6
Exophiala_brunnea_CBS,ERR2674085.8735,90.57,159,10,4,264,421,11,165,3e-53,206
Exophiala_brunnea_CBS,ERR2674085.8735,98.00,50,1,0,584,633,311,262,3e-18,89.8
Exophiala_brunnea_CBS,ERR2674085.2216,89.94,159,11,4,264,421,11,165,1e-51,200
Exophiala_brunnea_CBS,ERR2674085.2216,98.00,50,1,0,584,633,310,261,3e-18,89.8
Exophiala_brunnea_CBS,ERR2674085.6292,94.38,89,4,1,264,352,11,98,4e-32,135
Exophiala_brunnea_CBS,ERR2674085.8286,84.85,99,14,1,264,362,11,108,5e-21,99.0
Exophiala_brunnea_CBS,ERR2674085.8286,94.44,36,2,0,598,633,297,262,3e-08,56.5
Exophiala_brunnea_CBS,ERR2674085.247,85.39,89,12,1,264,352,11,98,9e-19,91.6
Exophiala_brunnea_CBS,ERR2674085.1226,98.00,50,1,0,584,633,311,262,3e-18,89.8
Exophiala_brunnea_CBS,ERR2674085.2031,98.00,50,1,0,584,633,311,262,1e-17,87.9
Exophiala_brunnea_CBS,ERR2674085.337,97.22,36,1,0,598,633,297,262,7e-10,62.1
Exophiala_nishimurae_CBS101538_T,ERR2674085.2216,89.94,159,11,4,242,399,11,165,1e-51,200
Exophiala_nishimurae_CBS101538_T,ERR2674085.8735,89.31,159,12,4,242,399,11,165,6e-50,195
Exophiala_nishimurae_CBS101538_T,ERR2674085.6292,92.13,89,6,1,242,330,11,98,8e-29,124
Exophiala_nishimurae_CBS101538_T,ERR2674085.8286,86.52,89,11,1,242,330,11,98,2e-20,97.1
Exophiala_nishimurae_CBS101538_T,ERR2674085.247,85.39,89,12,1,242,330,11,98,8e-19,91.6
Exophiala_mesophila_CBS402.95_T,ERR2674085.8735,91.61,143,10,2,226,368,11,151,2e-50,196
Exophiala_mesophila_CBS402.95_T,ERR2674085.8735,95.45,66,2,1,545,610,315,251,1e-22,104
Exophiala_mesophila_CBS402.95_T,ERR2674085.2216,90.91,143,11,2,226,368,11,151,9e-49,191
Exophiala_mesophila_CBS402.95_T,ERR2674085.6292,83.44,151,23,2,226,376,11,159,3e-33,139
Exophiala_mesophila_CBS402.95_T,ERR2674085.1226,95.71,70,2,1,541,610,319,251,7e-25,111
Exophiala_mesophila_CBS402.95_T,ERR2674085.8286,84.85,99,14,1,226,324,11,108,5e-21,99.0
Exophiala_mesophila_CBS402.95_T,ERR2674085.8286,91.49,47,4,0,564,610,297,251,5e-11,65.8
Exophiala_mesophila_CBS402.95_T,ERR2674085.2031,93.94,66,3,1,545,610,315,251,5e-21,99.0
Exophiala_mesophila_CBS402.95_T,ERR2674085.247,85.39,89,12,1,226,314,11,98,9e-19,91.6
Exophiala_mesophila_CBS402.95_T,ERR2674085.337,93.62,47,3,0,564,610,297,251,1e-12,71.3
Exophiala_castellanii_CBS158.58_T,ERR2674085.8735,91.61,143,10,2,224,366,11,151,2e-50,196
Exophiala_castellanii_CBS158.58_T,ERR2674085.8735,95.45,66,3,0,544,609,316,251,3e-23,106
Exophiala_castellanii_CBS158.58_T,ERR2674085.2216,90.91,143,11,2,224,366,11,151,9e-49,191
Exophiala_castellanii_CBS158.58_T,ERR2674085.6292,83.44,151,23,2,224,374,11,159,3e-33,139
Exophiala_castellanii_CBS158.58_T,ERR2674085.1226,97.06,68,1,1,543,609,318,251,2e-25,113
Exophiala_castellanii_CBS158.58_T,ERR2674085.2031,93.94,66,4,0,544,609,316,251,1e-21,100
Exophiala_castellanii_CBS158.58_T,ERR2674085.8286,84.85,99,14,1,224,322,11,108,5e-21,99.0
Exophiala_castellanii_CBS158.58_T,ERR2674085.8286,91.49,47,4,0,563,609,297,251,5e-11,65.8
Exophiala_castellanii_CBS158.58_T,ERR2674085.247,85.39,89,12,1,224,312,11,98,9e-19,91.6
Exophiala_castellanii_CBS158.58_T,ERR2674085.337,93.62,47,3,0,563,609,297,251,1e-12,71.3
Exophiala_lecanii-corni_CBS123.33_T,ERR2674085.8735,91.61,143,10,2,247,389,11,151,2e-50,196
Exophiala_lecanii-corni_CBS123.33_T,ERR2674085.2216,90.21,143,12,2,247,389,11,151,4e-47,185
Exophiala_lecanii-corni_CBS123.33_T,ERR2674085.6292,94.38,89,4,1,247,335,11,98,4e-32,135
Exophiala_lecanii-corni_CBS123.33_T,ERR2674085.8286,84.85,99,14,1,247,345,11,108,5e-21,99.0
Exophiala_lecanii-corni_CBS123.33_T,ERR2674085.247,85.39,89,12,1,247,335,11,98,8e-19,91.6
Exophiala_dermatitidis_CBS748.88,ERR2674085.2216,90.00,160,10,4,239,397,11,165,9e-52,202
Exophiala_dermatitidis_CBS748.88,ERR2674085.8735,89.38,160,11,4,239,397,11,165,4e-50,196
Exophiala_dermatitidis_CBS748.88,ERR2674085.8735,92.96,71,4,1,565,635,320,251,1e-21,102
Exophiala_dermatitidis_CBS748.88,ERR2674085.6292,94.38,89,4,1,239,327,11,98,1e-31,135
Exophiala_dermatitidis_CBS748.88,ERR2674085.1226,95.77,71,2,1,565,635,320,251,4e-25,113
Exophiala_dermatitidis_CBS748.88,ERR2674085.2031,91.67,72,5,1,564,635,321,251,1e-20,99.0
Exophiala_dermatitidis_CBS748.88,ERR2674085.8286,86.52,89,11,1,239,327,11,98,5e-20,97.1
Exophiala_dermatitidis_CBS748.88,ERR2674085.8286,91.49,47,4,0,589,635,297,251,1e-10,65.8
Exophiala_dermatitidis_CBS748.88,ERR2674085.247,85.39,89,12,1,239,327,11,98,2e-18,91.6
Exophiala_dermatitidis_CBS748.88,ERR2674085.337,93.62,47,3,0,589,635,297,251,3e-12,71.3
Exophiala_angulospora_CBS482.92_T,ERR2674085.2216,89.38,160,11,5,230,388,11,165,2e-50,196
Exophiala_angulospora_CBS482.92_T,ERR2674085.8735,88.75,160,12,5,230,388,11,165,7e-49,191
Exophiala_angulospora_CBS482.92_T,ERR2674085.6292,94.38,89,4,1,230,318,11,98,3e-32,135
Exophiala_angulospora_CBS482.92_T,ERR2674085.8286,86.52,89,11,1,230,318,11,98,2e-20,97.1
Exophiala_angulospora_CBS482.92_T,ERR2674085.247,85.39,89,12,1,230,318,11,98,7e-19,91.6
Exophiala_opportunistica_CBS109811_T,ERR2674085.2216,90.57,159,10,4,229,386,11,165,3e-53,206
Exophiala_opportunistica_CBS109811_T,ERR2674085.8735,89.94,159,11,4,229,386,11,165,1e-51,200
Exophiala_opportunistica_CBS109811_T,ERR2674085.6292,94.38,89,4,1,229,317,11,98,4e-32,135
Exophiala_opportunistica_CBS109811_T,ERR2674085.8286,86.52,89,11,1,229,317,11,98,2e-20,97.1
Exophiala_opportunistica_CBS109811_T,ERR2674085.247,85.39,89,12,1,229,317,11,98,8e-19,91.6
Exophiala_salmonis_CBS157.67_T,ERR2674085.2216,90.57,159,10,4,358,515,11,165,4e-53,206
Exophiala_salmonis_CBS157.67_T,ERR2674085.2216,98.36,61,0,1,673,733,310,251,4e-23,106
Exophiala_salmonis_CBS157.67_T,ERR2674085.8735,89.94,159,11,4,358,515,11,165,2e-51,200
Exophiala_salmonis_CBS157.67_T,ERR2674085.8735,98.36,61,1,0,673,733,311,251,1e-23,108
Exophiala_salmonis_CBS157.67_T,ERR2674085.6292,94.38,89,4,1,358,446,11,98,5e-32,135
Exophiala_salmonis_CBS157.67_T,ERR2674085.1226,100.00,61,0,0,673,733,311,251,2e-25,113
Exophiala_salmonis_CBS157.67_T,ERR2674085.2031,96.72,61,2,0,673,733,311,251,5e-22,102
Exophiala_salmonis_CBS157.67_T,ERR2674085.8286,86.52,89,11,1,358,446,11,98,2e-20,97.1
Exophiala_salmonis_CBS157.67_T,ERR2674085.8286,93.62,47,3,0,687,733,297,251,1e-12,71.3
Exophiala_salmonis_CBS157.67_T,ERR2674085.247,85.39,89,12,1,358,446,11,98,1e-18,91.6
Exophiala_salmonis_CBS157.67_T,ERR2674085.6147,92.86,56,4,0,678,733,306,251,6e-16,82.4
Exophiala_salmonis_CBS157.67_T,ERR2674085.337,95.74,47,2,0,687,733,297,251,3e-14,76.8
Exophiala_aquamarina_CBS119918_T,ERR2674085.2216,90.00,160,10,5,236,394,11,165,3e-52,202
Exophiala_aquamarina_CBS119918_T,ERR2674085.8735,89.38,160,11,4,236,394,11,165,2e-50,196
Exophiala_aquamarina_CBS119918_T,ERR2674085.6292,94.38,89,4,1,236,324,11,98,3e-32,135
Exophiala_aquamarina_CBS119918_T,ERR2674085.8286,86.52,89,11,1,236,324,11,98,2e-20,97.1
Exophiala_aquamarina_CBS119918_T,ERR2674085.247,85.39,89,12,1,236,324,11,98,8e-19,91.6
Exophiala_cancerae_CBS120420_T,ERR2674085.2216,90.57,159,10,4,251,408,11,165,3e-53,206
Exophiala_cancerae_CBS120420_T,ERR2674085.2216,95.59,68,2,1,557,624,317,251,8e-24,108
Exophiala_cancerae_CBS120420_T,ERR2674085.8735,89.94,159,11,4,251,408,11,165,1e-51,200
Exophiala_cancerae_CBS120420_T,ERR2674085.8735,98.36,61,1,0,564,624,311,251,8e-24,108
Exophiala_cancerae_CBS120420_T,ERR2674085.6292,94.38,89,4,1,251,339,11,98,4e-32,135
Exophiala_cancerae_CBS120420_T,ERR2674085.1226,97.06,68,2,0,557,624,318,251,5e-26,115
Exophiala_cancerae_CBS120420_T,ERR2674085.2031,96.72,61,2,0,564,624,311,251,4e-22,102
Exophiala_cancerae_CBS120420_T,ERR2674085.8286,86.52,89,11,1,251,339,11,98,2e-20,97.1
Exophiala_cancerae_CBS120420_T,ERR2674085.8286,93.62,47,3,0,578,624,297,251,1e-12,71.3
Exophiala_cancerae_CBS120420_T,ERR2674085.247,85.39,89,12,1,251,339,11,98,9e-19,91.6
Exophiala_cancerae_CBS120420_T,ERR2674085.6147,92.86,56,4,0,569,624,306,251,5e-16,82.4
Exophiala_cancerae_CBS120420_T,ERR2674085.337,95.74,47,2,0,578,624,297,251,2e-14,76.8
Exophiala_tremulae_CBS129355,ERR2674085.2216,90.57,159,10,4,263,420,11,165,3e-53,206
Exophiala_tremulae_CBS129355,ERR2674085.2216,100.00,50,0,0,579,628,310,261,2e-19,93.5
Exophiala_tremulae_CBS129355,ERR2674085.8735,89.94,159,11,4,263,420,11,165,1e-51,200
Exophiala_tremulae_CBS129355,ERR2674085.8735,100.00,50,0,0,579,628,311,262,2e-19,93.5
Exophiala_tremulae_CBS129355,ERR2674085.6292,94.38,89,4,1,263,351,11,98,4e-32,135
Exophiala_tremulae_CBS129355,ERR2674085.8286,86.52,89,11,1,263,351,11,98,2e-20,97.1
Exophiala_tremulae_CBS129355,ERR2674085.8286,94.44,36,2,0,593,628,297,262,3e-08,56.5
Exophiala_tremulae_CBS129355,ERR2674085.1226,100.00,50,0,0,579,628,311,262,2e-19,93.5
Exophiala_tremulae_CBS129355,ERR2674085.247,85.39,89,12,1,263,351,11,98,9e-19,91.6
Exophiala_tremulae_CBS129355,ERR2674085.2031,98.00,50,1,0,579,628,311,262,1e-17,87.9
Exophiala_tremulae_CBS129355,ERR2674085.6147,91.11,45,4,0,584,628,306,262,7e-10,62.1
Exophiala_tremulae_CBS129355,ERR2674085.337,97.22,36,1,0,593,628,297,262,7e-10,62.1
Exophiala_equina_CBS116009,ERR2674085.2216,90.57,159,10,4,229,386,11,165,3e-53,206
Exophiala_equina_CBS116009,ERR2674085.8735,89.94,159,11,4,229,386,11,165,1e-51,200
Exophiala_equina_CBS116009,ERR2674085.6292,94.38,89,4,1,229,317,11,98,3e-32,135
Exophiala_equina_CBS116009,ERR2674085.8286,86.52,89,11,1,229,317,11,98,2e-20,97.1
Exophiala_equina_CBS116009,ERR2674085.247,85.39,89,12,1,229,317,11,98,8e-19,91.6
Exophiala_alcalophila_CBS520.82_T,ERR2674085.2216,89.38,160,11,5,240,398,11,165,2e-50,196
Exophiala_alcalophila_CBS520.82_T,ERR2674085.8735,88.75,160,12,5,240,398,11,165,7e-49,191
Exophiala_alcalophila_CBS520.82_T,ERR2674085.6292,94.38,89,4,1,240,328,11,98,4e-32,135
Exophiala_alcalophila_CBS520.82_T,ERR2674085.8286,86.52,89,11,1,240,328,11,98,2e-20,97.1
Exophiala_alcalophila_CBS520.82_T,ERR2674085.247,85.39,89,12,1,240,328,11,98,8e-19,91.6
Exophiala_crusticola_CBS119970_T,ERR2674085.2216,89.02,164,11,6,245,407,11,168,2e-50,196
Exophiala_crusticola_CBS119970_T,ERR2674085.8735,90.91,143,11,2,245,387,11,151,7e-49,191
Exophiala_crusticola_CBS119970_T,ERR2674085.6292,94.38,89,4,1,245,333,11,98,3e-32,135
Exophiala_crusticola_CBS119970_T,ERR2674085.8286,86.52,89,11,1,245,333,11,98,2e-20,97.1
Exophiala_crusticola_CBS119970_T,ERR2674085.247,85.39,89,12,1,245,333,11,98,7e-19,91.6
Rhinocladiella_atrovirens_CBS264.49,ERR2674085.8735,91.61,143,10,2,271,413,11,151,2e-50,196
Rhinocladiella_atrovirens_CBS264.49,ERR2674085.8735,98.18,55,0,1,572,626,316,263,7e-20,95.3
Rhinocladiella_atrovirens_CBS264.49,ERR2674085.2216,90.21,143,12,2,271,413,11,151,4e-47,185
Rhinocladiella_atrovirens_CBS264.49,ERR2674085.2216,98.21,56,0,1,571,626,316,262,2e-20,97.1
Rhinocladiella_atrovirens_CBS264.49,ERR2674085.6292,94.38,89,4,1,271,359,11,98,4e-32,135
Rhinocladiella_atrovirens_CBS264.49,ERR2674085.8286,84.85,99,14,1,271,369,11,108,5e-21,99.0
Rhinocladiella_atrovirens_CBS264.49,ERR2674085.8286,94.29,35,2,0,592,626,297,263,1e-07,54.7
Rhinocladiella_atrovirens_CBS264.49,ERR2674085.1226,98.21,56,0,1,571,626,317,263,2e-20,97.1
Rhinocladiella_atrovirens_CBS264.49,ERR2674085.247,85.39,89,12,1,271,359,11,98,9e-19,91.6
Rhinocladiella_atrovirens_CBS264.49,ERR2674085.2031,96.36,55,1,1,572,626,316,263,3e-18,89.8
Rhinocladiella_atrovirens_CBS264.49,ERR2674085.6147,90.91,44,4,0,583,626,306,263,2e-09,60.2
Rhinocladiella_atrovirens_CBS264.49,ERR2674085.337,97.14,35,1,0,592,626,297,263,2e-09,60.2
Rhinocladiella_basitona_CBS101460_T,ERR2674085.2216,89.94,159,11,4,230,387,11,165,1e-51,200
Rhinocladiella_basitona_CBS101460_T,ERR2674085.8735,89.31,159,12,4,230,387,11,165,5e-50,195
Rhinocladiella_basitona_CBS101460_T,ERR2674085.6292,92.13,89,6,1,230,318,11,98,7e-29,124
Rhinocladiella_basitona_CBS101460_T,ERR2674085.8286,86.52,89,11,1,230,318,11,98,2e-20,97.1
Rhinocladiella_basitona_CBS101460_T,ERR2674085.247,85.39,89,12,1,230,318,11,98,7e-19,91.6
Rhinocladiella_phaeophora_CBS496.78_T,ERR2674085.2216,91.61,143,10,2,238,380,11,151,2e-50,196
Rhinocladiella_phaeophora_CBS496.78_T,ERR2674085.8735,90.91,143,11,2,238,380,11,151,7e-49,191
Rhinocladiella_phaeophora_CBS496.78_T,ERR2674085.6292,93.26,89,5,1,238,326,11,98,2e-30,130
Rhinocladiella_phaeophora_CBS496.78_T,ERR2674085.8286,85.39,89,12,1,238,326,11,98,8e-19,91.6
Rhinocladiella_phaeophora_CBS496.78_T,ERR2674085.247,84.27,89,13,1,238,326,11,98,4e-17,86.1
Rhinocladiella_aquaspersa_CBS313.73_T,ERR2674085.2216,91.61,143,10,2,232,374,11,151,2e-50,196
Rhinocladiella_aquaspersa_CBS313.73_T,ERR2674085.2216,92.86,70,1,4,539,605,319,251,5e-21,99.0
Rhinocladiella_aquaspersa_CBS313.73_T,ERR2674085.8735,90.91,143,11,2,232,374,11,151,9e-49,191
Rhinocladiella_aquaspersa_CBS313.73_T,ERR2674085.8735,91.43,70,3,3,539,605,320,251,2e-19,93.5
Rhinocladiella_aquaspersa_CBS313.73_T,ERR2674085.6292,93.26,89,5,1,232,320,11,98,2e-30,130
Rhinocladiella_aquaspersa_CBS313.73_T,ERR2674085.1226,94.29,70,1,3,539,605,320,251,1e-22,104
Rhinocladiella_aquaspersa_CBS313.73_T,ERR2674085.8286,85.39,89,12,1,232,320,11,98,9e-19,91.6
Rhinocladiella_aquaspersa_CBS313.73_T,ERR2674085.8286,97.50,40,1,0,566,605,290,251,4e-12,69.4
Rhinocladiella_aquaspersa_CBS313.73_T,ERR2674085.2031,90.14,71,4,3,538,605,321,251,3e-18,89.8
Rhinocladiella_aquaspersa_CBS313.73_T,ERR2674085.247,84.27,89,13,1,232,320,11,98,4e-17,86.1
Rhinocladiella_aquaspersa_CBS313.73_T,ERR2674085.337,97.56,41,1,0,565,605,291,251,1e-12,71.3
Rhinocladiella_fasciculata_CBS132.86_T,ERR2674085.2216,91.61,143,10,2,248,390,11,151,2e-50,196
Rhinocladiella_fasciculata_CBS132.86_T,ERR2674085.8735,90.91,143,11,2,248,390,11,151,8e-49,191
Rhinocladiella_fasciculata_CBS132.86_T,ERR2674085.6292,93.26,89,5,1,248,336,11,98,2e-30,130
Rhinocladiella_fasciculata_CBS132.86_T,ERR2674085.8286,85.39,89,12,1,248,336,11,98,8e-19,91.6
Rhinocladiella_fasciculata_CBS132.86_T,ERR2674085.247,84.27,89,13,1,248,336,11,98,4e-17,86.1
Rhinocladiella_anceps_CBS181.65_T,ERR2674085.8735,90.62,160,9,4,230,388,11,165,7e-54,207
Rhinocladiella_anceps_CBS181.65_T,ERR2674085.2216,90.00,160,10,4,230,388,11,165,3e-52,202
Rhinocladiella_anceps_CBS181.65_T,ERR2674085.6292,93.26,89,5,1,230,318,11,98,2e-30,130
Rhinocladiella_anceps_CBS181.65_T,ERR2674085.8286,83.84,99,15,1,230,328,11,108,2e-19,93.5
Rhinocladiella_anceps_CBS181.65_T,ERR2674085.247,84.27,89,13,1,230,318,11,98,3e-17,86.1
Rhinocladiella_mackenziei_CBS367.92,ERR2674085.2216,93.70,127,7,1,219,345,11,136,3e-48,189
Rhinocladiella_mackenziei_CBS367.92,ERR2674085.2216,94.34,53,2,1,556,608,318,267,2e-15,80.5
Rhinocladiella_mackenziei_CBS367.92,ERR2674085.8735,90.28,144,11,3,219,362,11,151,4e-47,185
Rhinocladiella_mackenziei_CBS367.92,ERR2674085.8735,100.00,43,0,0,566,608,310,268,2e-15,80.5
Rhinocladiella_mackenziei_CBS367.92,ERR2674085.6292,94.38,89,4,1,219,307,11,98,4e-32,135
Rhinocladiella_mackenziei_CBS367.92,ERR2674085.8286,86.52,89,11,1,219,307,11,98,2e-20,97.1
Rhinocladiella_mackenziei_CBS367.92,ERR2674085.247,85.39,89,12,1,219,307,11,98,8e-19,91.6
Rhinocladiella_mackenziei_CBS367.92,ERR2674085.1226,94.34,53,2,1,556,608,319,268,2e-15,80.5
Rhinocladiella_mackenziei_CBS367.92,ERR2674085.6147,100.00,30,0,0,570,599,306,277,3e-08,56.5
Veronaea_compacta_CBS268.75_T,ERR2674085.8735,90.00,160,10,5,252,410,11,165,4e-52,202
Veronaea_compacta_CBS268.75_T,ERR2674085.2216,89.38,160,11,5,252,410,11,165,2e-50,196
Veronaea_compacta_CBS268.75_T,ERR2674085.6292,94.38,89,4,1,252,340,11,98,4e-32,135
Veronaea_compacta_CBS268.75_T,ERR2674085.8286,84.85,99,14,1,252,350,11,108,5e-21,99.0
Veronaea_compacta_CBS268.75_T,ERR2674085.247,85.39,89,12,1,252,340,11,98,8e-19,91.6
Capronia_pilosella_AFTOL-ID657,ERR2674085.2216,90.00,160,10,5,330,488,11,165,4e-52,202
Capronia_pilosella_AFTOL-ID657,ERR2674085.8735,89.38,160,11,5,330,488,11,165,2e-50,196
Capronia_pilosella_AFTOL-ID657,ERR2674085.6292,94.38,89,4,1,330,418,11,98,4e-32,135
Capronia_pilosella_AFTOL-ID657,ERR2674085.8286,86.52,89,11,1,330,418,11,98,2e-20,97.1
Capronia_pilosella_AFTOL-ID657,ERR2674085.247,85.39,89,12,1,330,418,11,98,9e-19,91.6
Capronia_dactylotricha_DAOM208471_T,ERR2674085.2216,91.67,144,9,3,232,375,11,151,2e-50,196
Capronia_dactylotricha_DAOM208471_T,ERR2674085.2216,98.41,63,0,1,556,618,312,251,2e-24,110
Capronia_dactylotricha_DAOM208471_T,ERR2674085.8735,90.97,144,10,3,232,375,11,151,9e-49,191
Capronia_dactylotricha_DAOM208471_T,ERR2674085.8735,98.41,63,1,0,556,618,313,251,7e-25,111
Capronia_dactylotricha_DAOM208471_T,ERR2674085.6292,94.38,89,4,1,232,320,11,98,4e-32,135
Capronia_dactylotricha_DAOM208471_T,ERR2674085.1226,100.00,63,0,0,556,618,313,251,1e-26,117
Capronia_dactylotricha_DAOM208471_T,ERR2674085.2031,96.83,63,2,0,556,618,313,251,3e-23,106
Capronia_dactylotricha_DAOM208471_T,ERR2674085.8286,86.52,89,11,1,232,320,11,98,2e-20,97.1
Capronia_dactylotricha_DAOM208471_T,ERR2674085.8286,93.62,47,3,0,572,618,297,251,1e-12,71.3
Capronia_dactylotricha_DAOM208471_T,ERR2674085.247,85.39,89,12,1,232,320,11,98,9e-19,91.6
Capronia_dactylotricha_DAOM208471_T,ERR2674085.6147,90.48,63,5,1,556,618,312,251,5e-16,82.4
Capronia_dactylotricha_DAOM208471_T,ERR2674085.337,95.74,47,2,0,572,618,297,251,3e-14,76.8
Capronia_kleinmondensis_CBS122671_T,ERR2674085.8735,91.61,143,10,2,257,399,11,151,2e-50,196
Capronia_kleinmondensis_CBS122671_T,ERR2674085.8735,98.48,66,1,0,559,624,316,251,2e-26,117
Capronia_kleinmondensis_CBS122671_T,ERR2674085.2216,90.21,143,12,2,257,399,11,151,4e-47,185
Capronia_kleinmondensis_CBS122671_T,ERR2674085.2216,98.53,68,0,1,557,624,317,251,4e-27,119
Capronia_kleinmondensis_CBS122671_T,ERR2674085.6292,94.38,89,4,1,257,345,11,98,4e-32,135
Capronia_kleinmondensis_CBS122671_T,ERR2674085.1226,100.00,68,0,0,557,624,318,251,2e-29,126
Capronia_kleinmondensis_CBS122671_T,ERR2674085.2031,96.97,66,2,0,559,624,316,251,7e-25,111
Capronia_kleinmondensis_CBS122671_T,ERR2674085.8286,84.85,99,14,1,257,355,11,108,5e-21,99.0
Capronia_kleinmondensis_CBS122671_T,ERR2674085.8286,93.62,47,3,0,578,624,297,251,1e-12,71.3
Capronia_kleinmondensis_CBS122671_T,ERR2674085.247,85.39,89,12,1,257,345,11,98,9e-19,91.6
Capronia_kleinmondensis_CBS122671_T,ERR2674085.6147,90.48,63,5,1,562,624,312,251,5e-16,82.4
Capronia_kleinmondensis_CBS122671_T,ERR2674085.337,95.74,47,2,0,578,624,297,251,3e-14,76.8
Capronia_mansonii_CBS101.67_T,ERR2674085.2216,90.00,160,10,4,243,401,11,165,4e-52,202
Capronia_mansonii_CBS101.67_T,ERR2674085.8735,89.38,160,11,4,243,401,11,165,2e-50,196
Capronia_mansonii_CBS101.67_T,ERR2674085.8735,96.72,61,2,0,568,628,311,251,4e-22,102
Capronia_mansonii_CBS101.67_T,ERR2674085.6292,94.38,89,4,1,243,331,11,98,4e-32,135
Capronia_mansonii_CBS101.67_T,ERR2674085.1226,94.37,71,3,1,558,628,320,251,9e-24,108
Capronia_mansonii_CBS101.67_T,ERR2674085.8286,86.52,89,11,1,243,331,11,98,2e-20,97.1
Capronia_mansonii_CBS101.67_T,ERR2674085.8286,91.49,47,4,0,582,628,297,251,6e-11,65.8
Capronia_mansonii_CBS101.67_T,ERR2674085.2031,95.08,61,3,0,568,628,311,251,2e-20,97.1
Capronia_mansonii_CBS101.67_T,ERR2674085.247,85.39,89,12,1,243,331,11,98,9e-19,91.6
Capronia_mansonii_CBS101.67_T,ERR2674085.337,93.62,47,3,0,582,628,297,251,1e-12,71.3
Capronia_munkii_DAOM216390_T,ERR2674085.2216,90.00,160,10,4,243,401,11,165,4e-52,202
Capronia_munkii_DAOM216390_T,ERR2674085.8735,89.38,160,11,4,243,401,11,165,2e-50,196
Capronia_munkii_DAOM216390_T,ERR2674085.8735,96.72,61,2,0,568,628,311,251,4e-22,102
Capronia_munkii_DAOM216390_T,ERR2674085.6292,94.38,89,4,1,243,331,11,98,4e-32,135
Capronia_munkii_DAOM216390_T,ERR2674085.1226,94.37,71,3,1,558,628,320,251,9e-24,108
Capronia_munkii_DAOM216390_T,ERR2674085.8286,86.52,89,11,1,243,331,11,98,2e-20,97.1
Capronia_munkii_DAOM216390_T,ERR2674085.8286,91.49,47,4,0,582,628,297,251,6e-11,65.8
Capronia_munkii_DAOM216390_T,ERR2674085.2031,95.08,61,3,0,568,628,311,251,2e-20,97.1
Capronia_munkii_DAOM216390_T,ERR2674085.247,85.39,89,12,1,243,331,11,98,9e-19,91.6
Capronia_munkii_DAOM216390_T,ERR2674085.337,93.62,47,3,0,582,628,297,251,1e-12,71.3
Capronia_coronata_ATCC56201_T,ERR2674085.2216,89.38,160,11,5,231,389,11,165,2e-50,196
Capronia_coronata_ATCC56201_T,ERR2674085.8735,88.75,160,12,5,231,389,11,165,8e-49,191
Capronia_coronata_ATCC56201_T,ERR2674085.8735,94.52,73,3,1,528,599,323,251,7e-25,111
Capronia_coronata_ATCC56201_T,ERR2674085.6292,94.38,89,4,1,231,319,11,98,4e-32,135
Capronia_coronata_ATCC56201_T,ERR2674085.1226,95.89,73,2,1,528,599,323,251,1e-26,117
Capronia_coronata_ATCC56201_T,ERR2674085.2031,92.86,70,4,1,531,599,320,251,1e-21,100
Capronia_coronata_ATCC56201_T,ERR2674085.8286,86.52,89,11,1,231,319,11,98,2e-20,97.1
Capronia_coronata_ATCC56201_T,ERR2674085.8286,91.49,47,4,0,553,599,297,251,5e-11,65.8
Capronia_coronata_ATCC56201_T,ERR2674085.247,85.39,89,12,1,231,319,11,98,9e-19,91.6
Capronia_coronata_ATCC56201_T,ERR2674085.337,93.62,47,3,0,553,599,297,251,1e-12,71.3
Capronia_parasitica_CBS123.88,ERR2674085.2216,93.70,127,7,1,237,363,11,136,3e-48,189
Capronia_parasitica_CBS123.88,ERR2674085.2216,95.35,43,2,0,553,595,317,275,4e-12,69.4
Capronia_parasitica_CBS123.88,ERR2674085.8735,92.91,127,8,1,237,363,11,136,1e-46,183
Capronia_parasitica_CBS123.88,ERR2674085.8735,100.00,36,0,0,560,595,311,276,1e-11,67.6
Capronia_parasitica_CBS123.88,ERR2674085.6292,94.38,89,4,1,237,325,11,98,4e-32,135
Capronia_parasitica_CBS123.88,ERR2674085.8286,86.52,89,11,1,237,325,11,98,2e-20,97.1
Capronia_parasitica_CBS123.88,ERR2674085.247,85.39,89,12,1,237,325,11,98,8e-19,91.6
Capronia_parasitica_CBS123.88,ERR2674085.1226,95.35,43,2,0,553,595,318,276,4e-12,69.4
Capronia_parasitica_CBS123.88,ERR2674085.6147,100.00,30,0,0,565,594,306,277,3e-08,56.5
Veronaea_japonica_CBS776.83_T,ERR2674085.2216,90.57,159,10,4,265,422,11,165,3e-53,206
Veronaea_japonica_CBS776.83_T,ERR2674085.8735,89.94,159,11,4,265,422,11,165,1e-51,200
Veronaea_japonica_CBS776.83_T,ERR2674085.6292,94.38,89,4,1,265,353,11,98,4e-32,135
Veronaea_japonica_CBS776.83_T,ERR2674085.8286,86.52,89,11,1,265,353,11,98,2e-20,97.1
Veronaea_japonica_CBS776.83_T,ERR2674085.247,85.39,89,12,1,265,353,11,98,8e-19,91.6
Thysanorea_papuana_CBS212.96_T,ERR2674085.2216,90.57,159,10,5,239,396,11,165,3e-53,206
Thysanorea_papuana_CBS212.96_T,ERR2674085.8735,89.94,159,11,5,239,396,11,165,1e-51,200
Thysanorea_papuana_CBS212.96_T,ERR2674085.6292,94.38,89,4,1,239,327,11,98,4e-32,135
Thysanorea_papuana_CBS212.96_T,ERR2674085.8286,86.52,89,11,1,239,327,11,98,2e-20,97.1
Thysanorea_papuana_CBS212.96_T,ERR2674085.247,85.39,89,12,1,239,327,11,98,8e-19,91.6
Capronia_acutiseta_ATCC56428_T,ERR2674085.1226,97.10,69,2,0,530,598,319,251,1e-26,117
Capronia_acutiseta_ATCC56428_T,ERR2674085.2216,95.65,69,2,1,530,598,318,251,2e-24,110
Capronia_acutiseta_ATCC56428_T,ERR2674085.8735,98.36,61,1,0,538,598,311,251,9e-24,108
Capronia_acutiseta_ATCC56428_T,ERR2674085.2031,96.72,61,2,0,538,598,311,251,4e-22,102
Capronia_acutiseta_ATCC56428_T,ERR2674085.6147,92.86,56,4,0,543,598,306,251,5e-16,82.4
Capronia_acutiseta_ATCC56428_T,ERR2674085.337,95.74,47,2,0,552,598,297,251,2e-14,76.8
Capronia_acutiseta_ATCC56428_T,ERR2674085.8286,93.62,47,3,0,552,598,297,251,1e-12,71.3
Fonsecaea_brasiliensis_CBS119710_T,ERR2674085.2216,90.00,160,10,6,239,397,11,165,3e-52,202
Fonsecaea_brasiliensis_CBS119710_T,ERR2674085.8735,89.38,160,11,5,239,397,11,165,2e-50,196
Fonsecaea_brasiliensis_CBS119710_T,ERR2674085.6292,94.38,89,4,1,239,327,11,98,3e-32,135
Fonsecaea_brasiliensis_CBS119710_T,ERR2674085.8286,86.52,89,11,1,239,327,11,98,2e-20,97.1
Fonsecaea_brasiliensis_CBS119710_T,ERR2674085.247,85.39,89,12,1,239,327,11,98,8e-19,91.6
Fonsecaea_pedrosoi_CBS271.37_T,ERR2674085.2216,89.44,161,10,6,267,426,11,165,2e-50,196
Fonsecaea_pedrosoi_CBS271.37_T,ERR2674085.8735,88.82,161,11,5,267,426,11,165,8e-49,191
Fonsecaea_pedrosoi_CBS271.37_T,ERR2674085.6292,94.38,89,4,1,267,355,11,98,4e-32,135
Fonsecaea_pedrosoi_CBS271.37_T,ERR2674085.1226,94.20,69,4,0,577,645,319,251,3e-23,106
Fonsecaea_pedrosoi_CBS271.37_T,ERR2674085.8286,86.52,89,11,1,267,355,11,98,2e-20,97.1
Fonsecaea_pedrosoi_CBS271.37_T,ERR2674085.247,85.39,89,12,1,267,355,11,98,9e-19,91.6
Fonsecaea_multimorphosa_CBS980.96_T,ERR2674085.2216,90.00,160,10,6,237,395,11,165,3e-52,202
Fonsecaea_multimorphosa_CBS980.96_T,ERR2674085.8735,89.38,160,11,5,237,395,11,165,2e-50,196
Fonsecaea_multimorphosa_CBS980.96_T,ERR2674085.6292,94.38,89,4,1,237,325,11,98,3e-32,135
Fonsecaea_multimorphosa_CBS980.96_T,ERR2674085.8286,86.52,89,11,1,237,325,11,98,2e-20,97.1
Fonsecaea_multimorphosa_CBS980.96_T,ERR2674085.247,85.39,89,12,1,237,325,11,98,8e-19,91.6
Fonsecaea_minima_CBS125760_T,ERR2674085.2216,90.00,160,10,6,233,391,11,165,3e-52,202
Fonsecaea_minima_CBS125760_T,ERR2674085.8735,89.38,160,11,5,233,391,11,165,2e-50,196
Fonsecaea_minima_CBS125760_T,ERR2674085.6292,94.38,89,4,1,233,321,11,98,3e-32,135
Fonsecaea_minima_CBS125760_T,ERR2674085.8286,86.52,89,11,1,233,321,11,98,2e-20,97.1
Fonsecaea_minima_CBS125760_T,ERR2674085.247,85.39,89,12,1,233,321,11,98,7e-19,91.6
Fonsecaea_nubica_CBS269.64_T,ERR2674085.2216,89.44,161,10,6,244,403,11,165,2e-50,196
Fonsecaea_nubica_CBS269.64_T,ERR2674085.8735,88.82,161,11,5,244,403,11,165,7e-49,191
Fonsecaea_nubica_CBS269.64_T,ERR2674085.6292,94.38,89,4,1,244,332,11,98,4e-32,135
Fonsecaea_nubica_CBS269.64_T,ERR2674085.8286,86.52,89,11,1,244,332,11,98,2e-20,97.1
Fonsecaea_nubica_CBS269.64_T,ERR2674085.247,85.39,89,12,1,244,332,11,98,8e-19,91.6
Fonsecaea_erecta_CBS125763_T,ERR2674085.2216,90.00,160,10,5,228,386,11,165,3e-52,202
Fonsecaea_erecta_CBS125763_T,ERR2674085.8735,89.38,160,11,5,228,386,11,165,1e-50,196
Fonsecaea_erecta_CBS125763_T,ERR2674085.6292,94.38,89,4,1,228,316,11,98,3e-32,135
Fonsecaea_erecta_CBS125763_T,ERR2674085.8286,86.52,89,11,1,228,316,11,98,2e-20,97.1
Fonsecaea_erecta_CBS125763_T,ERR2674085.247,85.39,89,12,1,228,316,11,98,7e-19,91.6
Fonsecaea_pugnacius_CBS139214_T,ERR2674085.2216,88.89,162,10,6,237,397,11,165,2e-49,193
Fonsecaea_pugnacius_CBS139214_T,ERR2674085.8735,88.27,162,11,5,237,397,11,165,9e-48,187
Fonsecaea_pugnacius_CBS139214_T,ERR2674085.6292,94.38,89,4,1,237,325,11,98,3e-32,135
Fonsecaea_pugnacius_CBS139214_T,ERR2674085.8286,86.52,89,11,1,237,325,11,98,2e-20,97.1
Fonsecaea_pugnacius_CBS139214_T,ERR2674085.247,85.39,89,12,1,237,325,11,98,7e-19,91.6
Cladophialophora_psammophila_CBS,ERR2674085.2216,90.00,160,10,5,243,401,11,165,3e-52,202
Cladophialophora_psammophila_CBS,ERR2674085.8735,89.38,160,11,5,243,401,11,165,2e-50,196
Cladophialophora_psammophila_CBS,ERR2674085.6292,94.38,89,4,1,243,331,11,98,4e-32,135
Cladophialophora_psammophila_CBS,ERR2674085.8286,86.52,89,11,1,243,331,11,98,2e-20,97.1
Cladophialophora_psammophila_CBS,ERR2674085.247,85.39,89,12,1,243,331,11,98,8e-19,91.6
Cladophialophora_devriesii_CBS,ERR2674085.2216,90.00,160,10,6,239,397,11,165,3e-52,202
Cladophialophora_devriesii_CBS,ERR2674085.8735,89.38,160,11,5,239,397,11,165,1e-50,196
Cladophialophora_devriesii_CBS,ERR2674085.6292,94.38,89,4,1,239,327,11,98,3e-32,135
Cladophialophora_devriesii_CBS,ERR2674085.8286,86.52,89,11,1,239,327,11,98,2e-20,97.1
Cladophialophora_devriesii_CBS,ERR2674085.247,85.39,89,12,1,239,327,11,98,7e-19,91.6
Cladophialophora_immunda_CBS834.96,ERR2674085.2216,90.00,160,10,6,241,399,11,165,3e-52,202
Cladophialophora_immunda_CBS834.96,ERR2674085.8735,89.38,160,11,5,241,399,11,165,2e-50,196
Cladophialophora_immunda_CBS834.96,ERR2674085.6292,94.38,89,4,1,241,329,11,98,3e-32,135
Cladophialophora_immunda_CBS834.96,ERR2674085.8286,86.52,89,11,1,241,329,11,98,2e-20,97.1
Cladophialophora_immunda_CBS834.96,ERR2674085.247,85.39,89,12,1,241,329,11,98,8e-19,91.6
Cladophialophora_arxii_CBS306.94_T,ERR2674085.2216,88.89,162,10,6,243,403,11,165,2e-49,193
Cladophialophora_arxii_CBS306.94_T,ERR2674085.8735,88.27,162,11,5,243,403,11,165,9e-48,187
Cladophialophora_arxii_CBS306.94_T,ERR2674085.6292,94.38,89,4,1,243,331,11,98,3e-32,135
Cladophialophora_arxii_CBS306.94_T,ERR2674085.8286,86.52,89,11,1,243,331,11,98,2e-20,97.1
Cladophialophora_arxii_CBS306.94_T,ERR2674085.247,85.39,89,12,1,243,331,11,98,8e-19,91.6
Cladophialophora_bantiana_CBS173.52,ERR2674085.2216,90.00,160,10,5,237,395,11,165,3e-52,202
Cladophialophora_bantiana_CBS173.52,ERR2674085.8735,89.38,160,11,5,237,395,11,165,2e-50,196
Cladophialophora_bantiana_CBS173.52,ERR2674085.6292,94.38,89,4,1,237,325,11,98,3e-32,135
Cladophialophora_bantiana_CBS173.52,ERR2674085.8286,86.52,89,11,1,237,325,11,98,2e-20,97.1
Cladophialophora_bantiana_CBS173.52,ERR2674085.247,85.39,89,12,1,237,325,11,98,8e-19,91.6
Cladophialophora_emmonsii_CBS102594,ERR2674085.2216,89.44,161,10,5,228,387,11,165,2e-50,196
Cladophialophora_emmonsii_CBS102594,ERR2674085.8735,88.82,161,11,5,228,387,11,165,7e-49,191
Cladophialophora_emmonsii_CBS102594,ERR2674085.6292,94.38,89,4,1,228,316,11,98,3e-32,135
Cladophialophora_emmonsii_CBS102594,ERR2674085.8286,86.52,89,11,1,228,316,11,98,2e-20,97.1
Cladophialophora_emmonsii_CBS102594,ERR2674085.247,85.39,89,12,1,228,316,11,98,8e-19,91.6
Cladophialophora_minourae_CBS556.83,ERR2674085.2216,88.20,161,12,7,236,395,11,165,9e-48,187
Cladophialophora_minourae_CBS556.83,ERR2674085.8735,87.58,161,13,7,236,395,11,165,4e-46,182
Cladophialophora_minourae_CBS556.83,ERR2674085.6292,93.26,89,5,1,236,324,11,98,2e-30,130
Cladophialophora_minourae_CBS556.83,ERR2674085.8286,87.64,89,10,1,236,324,11,98,4e-22,102
Cladophialophora_minourae_CBS556.83,ERR2674085.247,86.52,89,11,1,236,324,11,98,2e-20,97.1
Cladophialophora_australiensis_CBS112793,ERR2674085.2216,91.19,159,9,5,238,395,11,165,2e-54,211
Cladophialophora_australiensis_CBS112793,ERR2674085.8735,90.57,159,10,5,238,395,11,165,7e-53,206
Cladophialophora_australiensis_CBS112793,ERR2674085.6292,94.38,89,4,1,238,326,11,98,9e-32,135
Cladophialophora_australiensis_CBS112793,ERR2674085.1226,93.15,73,4,1,535,606,323,251,7e-23,106
Cladophialophora_australiensis_CBS112793,ERR2674085.8286,86.52,89,11,1,238,326,11,98,4e-20,97.1
Cladophialophora_australiensis_CBS112793,ERR2674085.247,85.39,89,12,1,238,326,11,98,2e-18,91.6
Cladophialophora_potulentorum_CBS112222,ERR2674085.8735,91.19,159,9,5,237,394,11,165,2e-54,211
Cladophialophora_potulentorum_CBS112222,ERR2674085.2216,90.57,159,10,5,237,394,11,165,7e-53,206
Cladophialophora_potulentorum_CBS112222,ERR2674085.6292,94.38,89,4,1,237,325,11,98,9e-32,135
Cladophialophora_potulentorum_CBS112222,ERR2674085.1226,94.37,71,4,0,538,608,321,251,6e-24,110
Cladophialophora_potulentorum_CBS112222,ERR2674085.8286,84.85,99,14,1,237,335,11,108,1e-20,99.0
Cladophialophora_potulentorum_CBS112222,ERR2674085.247,85.39,89,12,1,237,325,11,98,2e-18,91.6
Cladophialophora_matsushimae_CMRP1198,ERR2674085.8735,91.25,160,7,7,241,398,11,165,5e-55,211
Cladophialophora_matsushimae_CMRP1198,ERR2674085.2216,90.00,160,9,7,241,398,11,165,1e-51,200
Cladophialophora_matsushimae_CMRP1198,ERR2674085.6292,94.38,89,4,1,241,329,11,98,3e-32,135
Cladophialophora_matsushimae_CMRP1198,ERR2674085.8286,84.85,99,14,1,241,339,11,108,4e-21,99.0
Cladophialophora_matsushimae_CMRP1198,ERR2674085.247,85.39,89,12,1,241,329,11,98,7e-19,91.6
Cladophialophora_mycetomatis_CBS122637,ERR2674085.8735,90.57,159,10,5,226,383,11,165,3e-53,206
Cladophialophora_mycetomatis_CBS122637,ERR2674085.2216,89.94,159,11,5,226,383,11,165,1e-51,200
Cladophialophora_mycetomatis_CBS122637,ERR2674085.6292,94.38,89,4,1,226,314,11,98,3e-32,135
Cladophialophora_mycetomatis_CBS122637,ERR2674085.8286,84.85,99,14,1,226,324,11,108,4e-21,99.0
Cladophialophora_mycetomatis_CBS122637,ERR2674085.247,85.39,89,12,1,226,314,11,98,7e-19,91.6
Cladophialophora_chaetospira_CBS127573,ERR2674085.2216,90.57,159,10,5,632,789,11,165,4e-53,206
Cladophialophora_chaetospira_CBS127573,ERR2674085.8735,89.94,159,11,5,632,789,11,165,2e-51,200
Cladophialophora_chaetospira_CBS127573,ERR2674085.6292,94.38,89,4,1,632,720,11,98,6e-32,135
Cladophialophora_chaetospira_CBS127573,ERR2674085.8286,86.52,89,11,1,632,720,11,98,3e-20,97.1
Cladophialophora_chaetospira_CBS127573,ERR2674085.247,85.39,89,12,1,632,720,11,98,1e-18,91.6
Cladophialophora_boppii_CBS126.86_T,ERR2674085.2216,89.94,159,11,5,234,391,11,165,1e-51,200
Cladophialophora_boppii_CBS126.86_T,ERR2674085.8735,89.31,159,12,5,234,391,11,165,5e-50,195
Cladophialophora_boppii_CBS126.86_T,ERR2674085.6292,94.38,89,4,1,234,322,11,98,3e-32,135
Cladophialophora_boppii_CBS126.86_T,ERR2674085.8286,86.52,89,11,1,234,322,11,98,2e-20,97.1
Cladophialophora_boppii_CBS126.86_T,ERR2674085.247,85.39,89,12,1,234,322,11,98,7e-19,91.6
Cladophialophora_abundans_CBS126736,ERR2674085.2216,89.94,159,11,5,171,328,11,165,1e-51,200
Cladophialophora_abundans_CBS126736,ERR2674085.8735,89.31,159,12,5,171,328,11,165,5e-50,195
Cladophialophora_abundans_CBS126736,ERR2674085.6292,93.26,89,5,1,171,259,11,98,1e-30,130
Cladophialophora_abundans_CBS126736,ERR2674085.8286,87.64,89,10,1,171,259,11,98,3e-22,102
Cladophialophora_abundans_CBS126736,ERR2674085.247,86.52,89,11,1,171,259,11,98,1e-20,97.1
Capronia_semi-immersa_CBS102234,ERR2674085.2216,89.94,159,11,5,233,390,11,165,1e-51,200
Capronia_semi-immersa_CBS102234,ERR2674085.8735,89.31,159,12,5,233,390,11,165,6e-50,195
Capronia_semi-immersa_CBS102234,ERR2674085.6292,93.26,89,5,1,233,321,11,98,2e-30,130
Capronia_semi-immersa_CBS102234,ERR2674085.8286,87.64,89,10,1,233,321,11,98,3e-22,102
Capronia_semi-immersa_CBS102234,ERR2674085.247,86.52,89,11,1,233,321,11,98,2e-20,97.1
Phialophora_americana_CBS400.67,ERR2674085.2216,89.94,159,11,5,235,392,11,165,3e-51,200
Phialophora_americana_CBS400.67,ERR2674085.8735,89.31,159,12,5,235,392,11,165,1e-49,195
Phialophora_americana_CBS400.67,ERR2674085.8735,95.38,65,3,0,536,600,315,251,3e-22,104
Phialophora_americana_CBS400.67,ERR2674085.6292,93.26,89,5,1,235,323,11,98,4e-30,130
Phialophora_americana_CBS400.67,ERR2674085.8286,87.64,89,10,1,235,323,11,98,9e-22,102
Phialophora_americana_CBS400.67,ERR2674085.8286,84.85,66,10,0,535,600,316,251,3e-11,67.6
Phialophora_americana_CBS400.67,ERR2674085.2031,93.85,65,4,0,536,600,315,251,1e-20,99.0
Phialophora_americana_CBS400.67,ERR2674085.247,86.52,89,11,1,235,323,11,98,4e-20,97.1
Phialophora_americana_CBS400.67,ERR2674085.337,93.62,47,3,0,554,600,297,251,3e-12,71.3
Phialophora_verrucosa_CBS140325_T,ERR2674085.2216,89.94,159,11,5,239,396,11,165,1e-51,200
Phialophora_verrucosa_CBS140325_T,ERR2674085.8735,89.31,159,12,5,239,396,11,165,6e-50,195
Phialophora_verrucosa_CBS140325_T,ERR2674085.6292,93.26,89,5,1,239,327,11,98,2e-30,130
Phialophora_verrucosa_CBS140325_T,ERR2674085.8286,87.64,89,10,1,239,327,11,98,4e-22,102
Phialophora_verrucosa_CBS140325_T,ERR2674085.247,86.52,89,11,1,239,327,11,98,2e-20,97.1
Cladophialophora_samoensis_CBS259.83_T,ERR2674085.2216,91.19,159,9,5,239,396,11,165,6e-55,211
Cladophialophora_samoensis_CBS259.83_T,ERR2674085.8735,90.57,159,10,5,239,396,11,165,3e-53,206
Cladophialophora_samoensis_CBS259.83_T,ERR2674085.2031,89.74,156,11,5,242,396,14,165,6e-50,195
Cladophialophora_samoensis_CBS259.83_T,ERR2674085.1226,90.13,152,10,5,246,396,18,165,2e-49,193
Cladophialophora_samoensis_CBS259.83_T,ERR2674085.6292,94.38,89,4,1,239,327,11,98,3e-32,135
Cladophialophora_samoensis_CBS259.83_T,ERR2674085.8286,86.52,89,11,1,239,327,11,98,2e-20,97.1
Cladophialophora_samoensis_CBS259.83_T,ERR2674085.247,85.39,89,12,1,239,327,11,98,8e-19,91.6
Cladophialophora_carrionii_CBS260.83,ERR2674085.2216,89.94,159,11,5,255,412,11,165,1e-51,200
Cladophialophora_carrionii_CBS260.83,ERR2674085.8735,89.31,159,12,5,255,412,11,165,6e-50,195
Cladophialophora_carrionii_CBS260.83,ERR2674085.6292,94.38,89,4,1,255,343,11,98,4e-32,135
Cladophialophora_carrionii_CBS260.83,ERR2674085.8286,86.52,89,11,1,255,343,11,98,2e-20,97.1
Cladophialophora_carrionii_CBS260.83,ERR2674085.247,85.39,89,12,1,255,343,11,98,8e-19,91.6
Exophiala_palmae_UPCB86822_T,ERR2674085.2216,91.61,143,10,2,198,340,11,151,1e-50,196
Exophiala_palmae_UPCB86822_T,ERR2674085.8735,90.91,143,11,2,198,340,11,151,7e-49,191
Exophiala_palmae_UPCB86822_T,ERR2674085.6292,94.38,89,4,1,198,286,11,98,3e-32,135
Exophiala_palmae_UPCB86822_T,ERR2674085.8286,86.52,89,11,1,198,286,11,98,1e-20,97.1
Exophiala_palmae_UPCB86822_T,ERR2674085.247,85.39,89,12,1,198,286,11,98,7e-19,91.6
Cladophialophora_yegresii_CBS114405_T,ERR2674085.2216,89.94,159,11,5,240,397,11,165,1e-51,200
Cladophialophora_yegresii_CBS114405_T,ERR2674085.8735,89.31,159,12,5,240,397,11,165,6e-50,195
Cladophialophora_yegresii_CBS114405_T,ERR2674085.6292,94.38,89,4,1,240,328,11,98,3e-32,135
Cladophialophora_yegresii_CBS114405_T,ERR2674085.8286,86.52,89,11,1,240,328,11,98,2e-20,97.1
Cladophialophora_yegresii_CBS114405_T,ERR2674085.247,85.39,89,12,1,240,328,11,98,8e-19,91.6
Knufia_epidermidis_CBS120353_T,ERR2674085.2216,88.61,158,15,3,238,395,11,165,3e-48,189
Knufia_epidermidis_CBS120353_T,ERR2674085.8735,87.97,158,16,3,238,395,11,165,1e-46,183
Knufia_epidermidis_CBS120353_T,ERR2674085.6292,86.96,115,14,1,238,352,11,124,6e-30,128
Knufia_epidermidis_CBS120353_T,ERR2674085.8286,86.52,89,11,1,238,326,11,98,2e-20,97.1
Knufia_epidermidis_CBS120353_T,ERR2674085.247,85.39,89,12,1,238,326,11,98,7e-19,91.6
Arthrocladium_fulminans_CBS136243_T,ERR2674085.8735,91.34,127,10,1,233,359,11,136,3e-43,172
Arthrocladium_fulminans_CBS136243_T,ERR2674085.2216,90.55,127,11,1,233,359,11,136,1e-41,167
Arthrocladium_fulminans_CBS136243_T,ERR2674085.6292,86.96,115,14,1,233,347,11,124,6e-30,128
Arthrocladium_fulminans_CBS136243_T,ERR2674085.8286,84.85,99,14,1,233,331,11,108,5e-21,99.0
Arthrocladium_fulminans_CBS136243_T,ERR2674085.247,85.39,89,12,1,233,321,11,98,8e-19,91.6
Anthopsis_deltoidea_CBS263.77_T,ERR2674085.2216,89.74,156,13,3,242,395,11,165,1e-50,196
Anthopsis_deltoidea_CBS263.77_T,ERR2674085.8735,87.95,166,16,4,242,404,11,175,2e-49,193
Anthopsis_deltoidea_CBS263.77_T,ERR2674085.6292,93.18,88,5,1,242,328,11,98,5e-30,128
Anthopsis_deltoidea_CBS263.77_T,ERR2674085.8286,87.50,88,10,1,242,328,11,98,1e-21,100
Anthopsis_deltoidea_CBS263.77_T,ERR2674085.247,86.36,88,11,1,242,328,11,98,6e-20,95.3
Cyphellophora_laciniata_CBS190.61_T,ERR2674085.2216,91.67,156,10,3,327,480,11,165,2e-55,213
Cyphellophora_laciniata_CBS190.61_T,ERR2674085.8735,91.03,156,11,3,327,480,11,165,1e-53,207
Cyphellophora_laciniata_CBS190.61_T,ERR2674085.8735,93.42,76,4,1,620,695,325,251,8e-25,111
Cyphellophora_laciniata_CBS190.61_T,ERR2674085.2031,90.20,153,12,3,330,480,14,165,2e-50,196
Cyphellophora_laciniata_CBS190.61_T,ERR2674085.2031,90.79,76,6,1,620,695,325,251,2e-21,100
Cyphellophora_laciniata_CBS190.61_T,ERR2674085.1226,90.60,149,11,3,334,480,18,165,8e-50,195
Cyphellophora_laciniata_CBS190.61_T,ERR2674085.1226,96.05,76,2,1,620,695,325,251,4e-28,122
Cyphellophora_laciniata_CBS190.61_T,ERR2674085.6292,94.32,88,4,1,327,413,11,98,2e-31,134
Cyphellophora_laciniata_CBS190.61_T,ERR2674085.8286,87.50,88,10,1,327,413,11,98,2e-21,100
Cyphellophora_laciniata_CBS190.61_T,ERR2674085.8286,91.49,47,4,0,649,695,297,251,6e-11,65.8
Cyphellophora_laciniata_CBS190.61_T,ERR2674085.247,86.36,88,11,1,327,413,11,98,8e-20,95.3
Cyphellophora_laciniata_CBS190.61_T,ERR2674085.337,93.62,47,3,0,649,695,297,251,1e-12,71.3
Cyphellophora_suttonii_CBS449.91,ERR2674085.2216,91.67,156,10,3,230,383,11,165,2e-55,213
Cyphellophora_suttonii_CBS449.91,ERR2674085.8735,91.03,156,11,3,230,383,11,165,7e-54,207
Cyphellophora_suttonii_CBS449.91,ERR2674085.2031,90.20,153,12,3,233,383,14,165,2e-50,196
Cyphellophora_suttonii_CBS449.91,ERR2674085.1226,90.60,149,11,3,237,383,18,165,5e-50,195
Cyphellophora_suttonii_CBS449.91,ERR2674085.6292,94.32,88,4,1,230,316,11,98,1e-31,134
Cyphellophora_suttonii_CBS449.91,ERR2674085.8286,87.50,88,10,1,230,316,11,98,1e-21,100
Cyphellophora_suttonii_CBS449.91,ERR2674085.247,86.36,88,11,1,230,316,11,98,6e-20,95.3
Cyphellophora_pauciseptata_CBS284.85_T,ERR2674085.2216,91.67,156,10,3,241,394,11,165,2e-55,213
Cyphellophora_pauciseptata_CBS284.85_T,ERR2674085.8735,91.03,156,11,3,241,394,11,165,7e-54,207
Cyphellophora_pauciseptata_CBS284.85_T,ERR2674085.2031,90.20,153,12,3,244,394,14,165,2e-50,196
Cyphellophora_pauciseptata_CBS284.85_T,ERR2674085.1226,90.60,149,11,3,248,394,18,165,6e-50,195
Cyphellophora_pauciseptata_CBS284.85_T,ERR2674085.6292,94.32,88,4,1,241,327,11,98,1e-31,134
Cyphellophora_pauciseptata_CBS284.85_T,ERR2674085.8286,87.50,88,10,1,241,327,11,98,1e-21,100
Cyphellophora_pauciseptata_CBS284.85_T,ERR2674085.247,86.36,88,11,1,241,327,11,98,6e-20,95.3
Cyphellophora_pluriseptata_CBS286.85_T,ERR2674085.2216,92.26,155,9,3,247,399,12,165,1e-56,217
Cyphellophora_pluriseptata_CBS286.85_T,ERR2674085.8735,91.61,155,10,3,247,399,12,165,6e-55,211
Cyphellophora_pluriseptata_CBS286.85_T,ERR2674085.2031,90.85,153,11,3,249,399,14,165,3e-52,202
Cyphellophora_pluriseptata_CBS286.85_T,ERR2674085.1226,91.28,149,10,3,253,399,18,165,1e-51,200
Cyphellophora_pluriseptata_CBS286.85_T,ERR2674085.6292,94.25,87,4,1,247,332,12,98,4e-31,132
Cyphellophora_pluriseptata_CBS286.85_T,ERR2674085.8286,87.36,87,10,1,247,332,12,98,4e-21,99.0
Cyphellophora_pluriseptata_CBS286.85_T,ERR2674085.247,86.21,87,11,1,247,332,12,98,2e-19,93.5
Phialophora_europaea_CBS101466,ERR2674085.2216,92.31,156,9,3,236,389,11,165,3e-57,219
Phialophora_europaea_CBS101466,ERR2674085.8735,91.72,157,10,3,236,390,11,166,4e-56,215
Phialophora_europaea_CBS101466,ERR2674085.2031,90.85,153,11,3,239,389,14,165,3e-52,202
Phialophora_europaea_CBS101466,ERR2674085.1226,91.28,149,10,3,243,389,18,165,1e-51,200
Phialophora_europaea_CBS101466,ERR2674085.6292,94.32,88,4,1,236,322,11,98,1e-31,134
Phialophora_europaea_CBS101466,ERR2674085.8286,87.50,88,10,1,236,322,11,98,1e-21,100
Phialophora_europaea_CBS101466,ERR2674085.247,86.36,88,11,1,236,322,11,98,6e-20,95.3
Phialophora_ambigua_CBS235.93,ERR2674085.2216,92.31,156,9,3,233,386,11,165,3e-57,219
Phialophora_ambigua_CBS235.93,ERR2674085.8735,91.67,156,10,3,233,386,11,165,2e-55,213
Phialophora_ambigua_CBS235.93,ERR2674085.2031,90.85,153,11,3,236,386,14,165,3e-52,202
Phialophora_ambigua_CBS235.93,ERR2674085.1226,91.28,149,10,3,240,386,18,165,1e-51,200
Phialophora_ambigua_CBS235.93,ERR2674085.6292,94.32,88,4,1,233,319,11,98,1e-31,134
Phialophora_ambigua_CBS235.93,ERR2674085.8286,87.50,88,10,1,233,319,11,98,1e-21,100
Phialophora_ambigua_CBS235.93,ERR2674085.247,86.36,88,11,1,233,319,11,98,6e-20,95.3
Cladophialophora_modesta_CBS985.96_T,ERR2674085.2216,90.51,158,11,4,230,386,11,165,3e-53,206
Cladophialophora_modesta_CBS985.96_T,ERR2674085.8735,89.87,158,12,4,230,386,11,165,1e-51,200
Cladophialophora_modesta_CBS985.96_T,ERR2674085.8735,95.08,61,3,0,519,579,311,251,2e-20,97.1
Cladophialophora_modesta_CBS985.96_T,ERR2674085.6292,92.13,89,6,1,230,318,11,98,8e-29,124
Cladophialophora_modesta_CBS985.96_T,ERR2674085.1226,94.12,68,3,1,512,579,317,251,4e-22,102
Cladophialophora_modesta_CBS985.96_T,ERR2674085.8286,86.52,89,11,1,230,318,11,98,2e-20,97.1
Cladophialophora_modesta_CBS985.96_T,ERR2674085.8286,95.00,40,1,1,540,579,289,251,7e-10,62.1
Cladophialophora_modesta_CBS985.96_T,ERR2674085.2031,93.44,61,4,0,519,579,311,251,8e-19,91.6
Cladophialophora_modesta_CBS985.96_T,ERR2674085.247,85.39,89,12,1,230,318,11,98,8e-19,91.6
Cladophialophora_modesta_CBS985.96_T,ERR2674085.337,91.49,47,4,0,533,579,297,251,5e-11,65.8
Cyphellophora_fusarioides_MUCL44033_T,ERR2674085.2216,91.03,156,11,3,229,382,11,165,7e-54,207
Cyphellophora_fusarioides_MUCL44033_T,ERR2674085.8735,90.38,156,12,3,229,382,11,165,3e-52,202
Cyphellophora_fusarioides_MUCL44033_T,ERR2674085.6292,93.18,88,5,1,229,315,11,98,6e-30,128
Cyphellophora_fusarioides_MUCL44033_T,ERR2674085.8286,87.50,88,10,1,229,315,11,98,1e-21,100
Cyphellophora_fusarioides_MUCL44033_T,ERR2674085.247,86.36,88,11,1,229,315,11,98,6e-20,95.3
