Exophiala_dermatitidis_CBS748.88,ERR476625.26792,91.24,137,12,0,1348,1484,137,1,5e-47,187
Exophiala_dermatitidis_CBS748.88,ERR476625.92576,88.89,99,11,0,1384,1482,99,1,1e-27,122
Exophiala_dermatitidis_CBS748.88,ERR476625.75564,100.00,33,0,0,1472,1504,68,36,3e-09,62.1
Exophiala_salmonis_CBS157.67_T,ERR476625.45353,100.00,28,0,0,1,28,22,49,1e-06,52.8
Cladophialophora_australiensis_CBS112793,ERR476625.26792,91.24,137,12,0,1315,1451,137,1,5e-47,187
Cladophialophora_australiensis_CBS112793,ERR476625.92576,88.89,99,11,0,1351,1449,99,1,1e-27,122
Cladophialophora_australiensis_CBS112793,ERR476625.75564,100.00,33,0,0,1439,1471,68,36,3e-09,62.1
Cladophialophora_potulentorum_CBS112222,ERR476625.26792,91.24,137,12,0,1317,1453,137,1,5e-47,187
Cladophialophora_potulentorum_CBS112222,ERR476625.92576,88.89,99,11,0,1353,1451,99,1,1e-27,122
Cladophialophora_potulentorum_CBS112222,ERR476625.75564,97.92,48,1,0,1441,1488,68,21,7e-16,84.2
Phialophora_americana_CBS400.67,ERR476625.26792,91.24,137,12,0,1309,1445,137,1,5e-47,187
Phialophora_americana_CBS400.67,ERR476625.92576,88.89,99,11,0,1345,1443,99,1,1e-27,122
