Exophiala_nigra_CBS535.94_T,SRR7081285.18294,83.59,256,27,14,1,251,547,302,1e-58,226
Exophiala_nigra_CBS535.94_T,SRR7081285.18294,80.16,247,34,14,1,242,64,300,5e-42,171
Exophiala_nigra_CBS535.94_T,SRR7081285.23316,95.38,65,2,1,201,264,352,288,2e-21,102
Exophiala_nigra_CBS535.94_T,SRR7081285.23316,100.00,51,0,0,201,251,231,281,3e-19,95.3
Exophiala_nigra_CBS535.94_T,SRR7081285.47345,93.85,65,3,1,201,264,352,288,9e-20,97.1
Exophiala_nigra_CBS535.94_T,SRR7081285.9183,93.85,65,3,1,201,264,352,288,9e-20,97.1
Exophiala_nigra_CBS535.94_T,SRR7081285.9183,96.08,51,2,0,201,251,231,281,7e-16,84.2
Exophiala_nigra_CBS535.94_T,SRR7081285.31245,96.43,56,1,1,197,251,357,302,4e-18,91.6
Exophiala_nigra_CBS535.94_T,SRR7081285.31245,92.86,56,3,1,197,251,196,251,9e-15,80.5
Exophiala_spinifera_CBS899.68_T,SRR7081285.18294,78.04,255,42,11,1,248,549,302,2e-35,148
Exophiala_spinifera_CBS899.68_T,SRR7081285.23316,95.38,65,2,1,198,261,352,288,2e-21,102
Exophiala_spinifera_CBS899.68_T,SRR7081285.23316,100.00,51,0,0,198,248,231,281,3e-19,95.3
Exophiala_spinifera_CBS899.68_T,SRR7081285.47345,93.85,65,3,1,198,261,352,288,8e-20,97.1
Exophiala_spinifera_CBS899.68_T,SRR7081285.9183,93.85,65,3,1,198,261,352,288,8e-20,97.1
Exophiala_spinifera_CBS899.68_T,SRR7081285.9183,96.08,51,2,0,198,248,231,281,7e-16,84.2
Exophiala_spinifera_CBS899.68_T,SRR7081285.31245,93.75,64,2,2,186,248,364,302,3e-19,95.3
Exophiala_spinifera_CBS899.68_T,SRR7081285.31245,90.62,64,4,2,186,248,189,251,7e-16,84.2
Exophiala_exophialae_CBS668.76_T,SRR7081285.18294,78.52,256,40,12,1,249,549,302,5e-37,154
Exophiala_exophialae_CBS668.76_T,SRR7081285.23316,95.38,65,2,1,199,262,352,288,2e-21,102
Exophiala_exophialae_CBS668.76_T,SRR7081285.23316,100.00,51,0,0,199,249,231,281,3e-19,95.3
Exophiala_exophialae_CBS668.76_T,SRR7081285.47345,93.85,65,3,1,199,262,352,288,8e-20,97.1
Exophiala_exophialae_CBS668.76_T,SRR7081285.9183,93.85,65,3,1,199,262,352,288,8e-20,97.1
Exophiala_exophialae_CBS668.76_T,SRR7081285.9183,96.08,51,2,0,199,249,231,281,7e-16,84.2
Exophiala_exophialae_CBS668.76_T,SRR7081285.31245,93.75,64,2,2,187,249,364,302,3e-19,95.3
Exophiala_exophialae_CBS668.76_T,SRR7081285.31245,90.62,64,4,2,187,249,189,251,7e-16,84.2
Exophiala_polymorpha_CBS138920_T,SRR7081285.18294,80.07,276,40,14,82,351,568,302,5e-48,191
Exophiala_polymorpha_CBS138920_T,SRR7081285.18294,77.41,270,40,17,82,342,43,300,5e-33,141
Exophiala_polymorpha_CBS138920_T,SRR7081285.23316,95.38,65,2,1,301,364,352,288,2e-21,102
Exophiala_polymorpha_CBS138920_T,SRR7081285.23316,100.00,51,0,0,301,351,231,281,4e-19,95.3
Exophiala_polymorpha_CBS138920_T,SRR7081285.47345,93.85,65,3,1,301,364,352,288,1e-19,97.1
Exophiala_polymorpha_CBS138920_T,SRR7081285.31245,95.16,62,1,2,292,351,363,302,1e-19,97.1
Exophiala_polymorpha_CBS138920_T,SRR7081285.31245,91.94,62,3,2,292,351,190,251,2e-16,86.1
Exophiala_polymorpha_CBS138920_T,SRR7081285.9183,93.85,65,3,1,301,364,352,288,1e-19,97.1
Exophiala_polymorpha_CBS138920_T,SRR7081285.9183,96.08,51,2,0,301,351,231,281,9e-16,84.2
Exophiala_oligosperma_CBS725.88_T,SRR7081285.18294,98.41,63,1,0,199,261,364,302,3e-24,111
Exophiala_oligosperma_CBS725.88_T,SRR7081285.23316,95.38,65,2,1,211,274,352,288,2e-21,102
Exophiala_oligosperma_CBS725.88_T,SRR7081285.23316,100.00,51,0,0,211,261,231,281,3e-19,95.3
Exophiala_oligosperma_CBS725.88_T,SRR7081285.31245,93.94,66,3,1,196,261,366,302,2e-20,99.0
Exophiala_oligosperma_CBS725.88_T,SRR7081285.31245,90.91,66,5,1,196,261,187,251,5e-17,87.9
Exophiala_oligosperma_CBS725.88_T,SRR7081285.47345,93.85,65,3,1,211,274,352,288,9e-20,97.1
Exophiala_oligosperma_CBS725.88_T,SRR7081285.9183,93.85,65,3,1,211,274,352,288,9e-20,97.1
Exophiala_oligosperma_CBS725.88_T,SRR7081285.9183,96.08,51,2,0,211,261,231,281,7e-16,84.2
Exophiala_jeanselmei_CBS507.90_T,SRR7081285.18294,78.46,260,37,17,1,253,549,302,2e-36,152
Exophiala_jeanselmei_CBS507.90_T,SRR7081285.23316,95.38,65,2,1,203,266,352,288,2e-21,102
Exophiala_jeanselmei_CBS507.90_T,SRR7081285.23316,100.00,51,0,0,203,253,231,281,3e-19,95.3
Exophiala_jeanselmei_CBS507.90_T,SRR7081285.31245,93.94,66,3,1,188,253,366,302,3e-20,99.0
Exophiala_jeanselmei_CBS507.90_T,SRR7081285.31245,90.91,66,5,1,188,253,187,251,6e-17,87.9
Exophiala_jeanselmei_CBS507.90_T,SRR7081285.47345,93.85,65,3,1,203,266,352,288,9e-20,97.1
Exophiala_jeanselmei_CBS507.90_T,SRR7081285.9183,93.85,65,3,1,203,266,352,288,9e-20,97.1
Exophiala_jeanselmei_CBS507.90_T,SRR7081285.9183,96.08,51,2,0,203,253,231,281,7e-16,84.2
Exophiala_bergeri_CBS353.52,SRR7081285.18294,82.19,219,23,12,1,214,509,302,3e-43,174
Exophiala_bergeri_CBS353.52,SRR7081285.23316,95.38,65,2,1,164,227,352,288,2e-21,102
Exophiala_bergeri_CBS353.52,SRR7081285.23316,100.00,51,0,0,164,214,231,281,3e-19,95.3
Exophiala_bergeri_CBS353.52,SRR7081285.47345,93.85,65,3,1,164,227,352,288,8e-20,97.1
Exophiala_bergeri_CBS353.52,SRR7081285.9183,93.85,65,3,1,164,227,352,288,8e-20,97.1
Exophiala_bergeri_CBS353.52,SRR7081285.9183,96.08,51,2,0,164,214,231,281,6e-16,84.2
Exophiala_bergeri_CBS353.52,SRR7081285.31245,96.43,56,1,1,160,214,357,302,3e-18,91.6
Exophiala_bergeri_CBS353.52,SRR7081285.31245,92.86,56,3,1,160,214,196,251,8e-15,80.5
Exophiala_moniliae_CBS520.76_T,SRR7081285.18294,83.59,256,29,11,1,251,549,302,3e-59,228
Exophiala_moniliae_CBS520.76_T,SRR7081285.18294,80.97,247,34,10,1,242,62,300,7e-46,183
Exophiala_moniliae_CBS520.76_T,SRR7081285.23316,95.38,65,2,1,201,264,352,288,2e-21,102
Exophiala_moniliae_CBS520.76_T,SRR7081285.23316,100.00,51,0,0,201,251,231,281,3e-19,95.3
Exophiala_moniliae_CBS520.76_T,SRR7081285.47345,93.85,65,3,1,201,264,352,288,9e-20,97.1
Exophiala_moniliae_CBS520.76_T,SRR7081285.9183,93.85,65,3,1,201,264,352,288,9e-20,97.1
Exophiala_moniliae_CBS520.76_T,SRR7081285.9183,96.08,51,2,0,201,251,231,281,7e-16,84.2
Exophiala_moniliae_CBS520.76_T,SRR7081285.31245,96.43,56,1,1,197,251,357,302,4e-18,91.6
Exophiala_moniliae_CBS520.76_T,SRR7081285.31245,92.86,56,3,1,197,251,196,251,9e-15,80.5
Exophiala_pisciphila_CBS537.73_T,SRR7081285.18294,79.54,259,39,13,1,254,551,302,2e-42,172
Exophiala_pisciphila_CBS537.73_T,SRR7081285.23316,95.38,65,2,1,204,267,352,288,2e-21,102
Exophiala_pisciphila_CBS537.73_T,SRR7081285.23316,100.00,51,0,0,204,254,231,281,4e-19,95.3
Exophiala_pisciphila_CBS537.73_T,SRR7081285.47345,93.85,65,3,1,204,267,352,288,1e-19,97.1
Exophiala_pisciphila_CBS537.73_T,SRR7081285.9183,93.85,65,3,1,204,267,352,288,1e-19,97.1
Exophiala_pisciphila_CBS537.73_T,SRR7081285.9183,96.08,51,2,0,204,254,231,281,8e-16,84.2
Exophiala_pisciphila_CBS537.73_T,SRR7081285.31245,91.43,70,4,2,185,254,369,302,4e-19,95.3
Exophiala_pisciphila_CBS537.73_T,SRR7081285.31245,88.57,70,6,2,185,254,184,251,8e-16,84.2
Exophiala_xenobiotica_CBS117642,SRR7081285.18294,79.69,256,34,15,1,246,549,302,2e-41,169
Exophiala_xenobiotica_CBS117642,SRR7081285.23316,95.38,65,2,1,196,259,352,288,2e-21,102
Exophiala_xenobiotica_CBS117642,SRR7081285.23316,100.00,51,0,0,196,246,231,281,3e-19,95.3
Exophiala_xenobiotica_CBS117642,SRR7081285.47345,93.85,65,3,1,196,259,352,288,8e-20,97.1
Exophiala_xenobiotica_CBS117642,SRR7081285.9183,93.85,65,3,1,196,259,352,288,8e-20,97.1
Exophiala_xenobiotica_CBS117642,SRR7081285.9183,96.08,51,2,0,196,246,231,281,6e-16,84.2
Exophiala_xenobiotica_CBS117642,SRR7081285.31245,96.43,56,1,1,192,246,357,302,4e-18,91.6
Exophiala_xenobiotica_CBS117642,SRR7081285.31245,92.86,56,3,1,192,246,196,251,8e-15,80.5
Exophiala_brunnea_CBS,SRR7081285.18294,83.62,287,35,9,1,282,581,302,1e-68,259
Exophiala_brunnea_CBS,SRR7081285.18294,81.00,279,39,12,1,273,30,300,1e-53,209
Exophiala_brunnea_CBS,SRR7081285.23316,95.38,65,2,1,232,295,352,288,2e-21,102
Exophiala_brunnea_CBS,SRR7081285.23316,100.00,51,0,0,232,282,231,281,4e-19,95.3
Exophiala_brunnea_CBS,SRR7081285.23316,100.00,40,0,0,1,40,30,69,5e-13,75.0
Exophiala_brunnea_CBS,SRR7081285.23316,97.50,40,1,0,1,40,553,514,2e-11,69.4
Exophiala_brunnea_CBS,SRR7081285.47345,93.85,65,3,1,232,295,352,288,1e-19,97.1
Exophiala_brunnea_CBS,SRR7081285.47345,100.00,40,0,0,1,40,30,69,5e-13,75.0
Exophiala_brunnea_CBS,SRR7081285.47345,100.00,40,0,0,1,40,553,514,5e-13,75.0
Exophiala_brunnea_CBS,SRR7081285.9183,93.85,65,3,1,232,295,352,288,1e-19,97.1
Exophiala_brunnea_CBS,SRR7081285.9183,96.08,51,2,0,232,282,231,281,8e-16,84.2
Exophiala_brunnea_CBS,SRR7081285.9183,100.00,40,0,0,1,40,553,514,5e-13,75.0
Exophiala_brunnea_CBS,SRR7081285.9183,97.50,40,1,0,1,40,30,69,2e-11,69.4
Exophiala_brunnea_CBS,SRR7081285.34813,88.31,77,8,1,1,77,30,105,5e-18,91.6
Exophiala_brunnea_CBS,SRR7081285.31245,96.43,56,1,1,228,282,357,302,5e-18,91.6
Exophiala_brunnea_CBS,SRR7081285.31245,92.86,56,3,1,228,282,196,251,1e-14,80.5
Exophiala_brunnea_CBS,SRR7081285.16548,95.83,48,2,0,1,48,493,446,4e-14,78.7
Exophiala_brunnea_CBS,SRR7081285.16548,93.75,48,3,0,1,48,30,77,2e-12,73.1
Exophiala_brunnea_CBS,SRR7081285.20630,100.00,39,0,0,1,39,30,68,2e-12,73.1
Exophiala_brunnea_CBS,SRR7081285.20630,97.44,39,1,0,1,39,590,552,8e-11,67.6
Exophiala_nishimurae_CBS101538_T,SRR7081285.18294,79.32,266,35,15,1,260,553,302,2e-41,169
Exophiala_nishimurae_CBS101538_T,SRR7081285.23316,95.38,65,2,1,210,273,352,288,2e-21,102
Exophiala_nishimurae_CBS101538_T,SRR7081285.23316,100.00,51,0,0,210,260,231,281,3e-19,95.3
Exophiala_nishimurae_CBS101538_T,SRR7081285.47345,93.85,65,3,1,210,273,352,288,9e-20,97.1
Exophiala_nishimurae_CBS101538_T,SRR7081285.9183,93.85,65,3,1,210,273,352,288,9e-20,97.1
Exophiala_mesophila_CBS402.95_T,SRR7081285.18294,82.28,254,29,12,1,244,549,302,2e-52,206
Exophiala_mesophila_CBS402.95_T,SRR7081285.18294,79.18,245,35,12,1,235,62,300,2e-37,156
Exophiala_mesophila_CBS402.95_T,SRR7081285.23316,95.38,65,2,1,194,257,352,288,2e-21,102
Exophiala_mesophila_CBS402.95_T,SRR7081285.23316,100.00,51,0,0,194,244,231,281,4e-19,95.3
Exophiala_mesophila_CBS402.95_T,SRR7081285.47345,93.85,65,3,1,194,257,352,288,1e-19,97.1
Exophiala_mesophila_CBS402.95_T,SRR7081285.31245,93.75,64,4,0,181,244,365,302,1e-19,97.1
Exophiala_mesophila_CBS402.95_T,SRR7081285.31245,90.62,64,6,0,181,244,188,251,2e-16,86.1
Exophiala_mesophila_CBS402.95_T,SRR7081285.9183,93.85,65,3,1,194,257,352,288,1e-19,97.1
Exophiala_mesophila_CBS402.95_T,SRR7081285.9183,96.08,51,2,0,194,244,231,281,8e-16,84.2
Exophiala_castellanii_CBS158.58_T,SRR7081285.18294,83.33,252,28,8,1,242,549,302,6e-57,220
Exophiala_castellanii_CBS158.58_T,SRR7081285.18294,79.84,243,35,7,1,233,62,300,3e-40,165
Exophiala_castellanii_CBS158.58_T,SRR7081285.23316,95.38,65,2,1,192,255,352,288,2e-21,102
Exophiala_castellanii_CBS158.58_T,SRR7081285.23316,100.00,51,0,0,192,242,231,281,4e-19,95.3
Exophiala_castellanii_CBS158.58_T,SRR7081285.47345,93.85,65,3,1,192,255,352,288,1e-19,97.1
Exophiala_castellanii_CBS158.58_T,SRR7081285.9183,93.85,65,3,1,192,255,352,288,1e-19,97.1
Exophiala_castellanii_CBS158.58_T,SRR7081285.9183,96.08,51,2,0,192,242,231,281,8e-16,84.2
Exophiala_castellanii_CBS158.58_T,SRR7081285.31245,93.65,63,4,0,180,242,364,302,4e-19,95.3
Exophiala_castellanii_CBS158.58_T,SRR7081285.31245,90.48,63,6,0,180,242,189,251,8e-16,84.2
Exophiala_lecanii-corni_CBS123.33_T,SRR7081285.18294,77.99,268,36,15,1,265,549,302,9e-35,147
Exophiala_lecanii-corni_CBS123.33_T,SRR7081285.23316,95.38,65,2,1,215,278,352,288,2e-21,102
Exophiala_lecanii-corni_CBS123.33_T,SRR7081285.23316,100.00,51,0,0,215,265,231,281,3e-19,95.3
Exophiala_lecanii-corni_CBS123.33_T,SRR7081285.47345,93.85,65,3,1,215,278,352,288,9e-20,97.1
Exophiala_lecanii-corni_CBS123.33_T,SRR7081285.9183,93.85,65,3,1,215,278,352,288,9e-20,97.1
Exophiala_lecanii-corni_CBS123.33_T,SRR7081285.9183,96.08,51,2,0,215,265,231,281,7e-16,84.2
Exophiala_lecanii-corni_CBS123.33_T,SRR7081285.31245,88.75,80,3,4,187,265,376,302,1e-18,93.5
Exophiala_lecanii-corni_CBS123.33_T,SRR7081285.31245,86.25,80,5,4,187,265,177,251,3e-15,82.4
Exophiala_dermatitidis_CBS748.88,SRR7081285.18294,83.97,262,25,12,1,257,551,302,5e-61,235
Exophiala_dermatitidis_CBS748.88,SRR7081285.23316,93.85,65,2,2,208,270,352,288,2e-19,97.1
Exophiala_dermatitidis_CBS748.88,SRR7081285.23316,98.04,51,0,1,208,257,231,281,1e-16,87.9
Exophiala_dermatitidis_CBS748.88,SRR7081285.47345,92.31,65,3,2,208,270,352,288,1e-17,91.6
Exophiala_dermatitidis_CBS748.88,SRR7081285.31245,94.64,56,1,2,204,257,357,302,5e-16,86.1
Exophiala_dermatitidis_CBS748.88,SRR7081285.31245,92.86,56,2,2,204,257,196,251,2e-14,80.5
Exophiala_dermatitidis_CBS748.88,SRR7081285.9183,96.08,51,1,1,208,257,231,281,7e-15,82.4
Exophiala_angulospora_CBS482.92_T,SRR7081285.18294,86.80,250,29,4,1,248,549,302,1e-73,276
Exophiala_angulospora_CBS482.92_T,SRR7081285.23316,95.38,65,2,1,198,261,352,288,2e-21,102
Exophiala_angulospora_CBS482.92_T,SRR7081285.23316,100.00,51,0,0,198,248,231,281,3e-19,95.3
Exophiala_angulospora_CBS482.92_T,SRR7081285.47345,93.85,65,3,1,198,261,352,288,9e-20,97.1
Exophiala_angulospora_CBS482.92_T,SRR7081285.9183,93.85,65,3,1,198,261,352,288,9e-20,97.1
Exophiala_angulospora_CBS482.92_T,SRR7081285.9183,96.08,51,2,0,198,248,231,281,7e-16,84.2
Exophiala_angulospora_CBS482.92_T,SRR7081285.31245,95.00,60,3,0,189,248,361,302,3e-19,95.3
Exophiala_angulospora_CBS482.92_T,SRR7081285.31245,91.67,60,5,0,189,248,192,251,7e-16,84.2
Exophiala_opportunistica_CBS109811_T,SRR7081285.18294,78.52,256,37,16,1,247,548,302,2e-36,152
Exophiala_opportunistica_CBS109811_T,SRR7081285.23316,95.38,65,2,1,197,260,352,288,2e-21,102
Exophiala_opportunistica_CBS109811_T,SRR7081285.23316,100.00,51,0,0,197,247,231,281,3e-19,95.3
Exophiala_opportunistica_CBS109811_T,SRR7081285.47345,93.85,65,3,1,197,260,352,288,9e-20,97.1
Exophiala_opportunistica_CBS109811_T,SRR7081285.9183,93.85,65,3,1,197,260,352,288,9e-20,97.1
Exophiala_opportunistica_CBS109811_T,SRR7081285.9183,96.08,51,2,0,197,247,231,281,7e-16,84.2
Exophiala_opportunistica_CBS109811_T,SRR7081285.31245,93.65,63,3,1,185,247,363,302,1e-18,93.5
Exophiala_opportunistica_CBS109811_T,SRR7081285.31245,90.48,63,5,1,185,247,190,251,2e-15,82.4
Exophiala_salmonis_CBS157.67_T,SRR7081285.18294,81.51,265,29,16,119,376,553,302,9e-51,200
Exophiala_salmonis_CBS157.67_T,SRR7081285.18294,76.96,230,33,16,146,367,83,300,1e-24,113
Exophiala_salmonis_CBS157.67_T,SRR7081285.23316,95.38,65,2,1,326,389,352,288,3e-21,102
Exophiala_salmonis_CBS157.67_T,SRR7081285.23316,100.00,51,0,0,326,376,231,281,4e-19,95.3
Exophiala_salmonis_CBS157.67_T,SRR7081285.23316,100.00,36,0,0,87,122,1,36,1e-10,67.6
Exophiala_salmonis_CBS157.67_T,SRR7081285.47345,93.85,65,3,1,326,389,352,288,1e-19,97.1
Exophiala_salmonis_CBS157.67_T,SRR7081285.47345,100.00,36,0,0,87,122,1,36,1e-10,67.6
Exophiala_salmonis_CBS157.67_T,SRR7081285.47345,100.00,36,0,0,87,122,582,547,1e-10,67.6
Exophiala_salmonis_CBS157.67_T,SRR7081285.9183,93.85,65,3,1,326,389,352,288,1e-19,97.1
Exophiala_salmonis_CBS157.67_T,SRR7081285.9183,96.08,51,2,0,326,376,231,281,1e-15,84.2
Exophiala_salmonis_CBS157.67_T,SRR7081285.31245,93.65,63,3,1,314,376,363,302,2e-18,93.5
Exophiala_salmonis_CBS157.67_T,SRR7081285.31245,90.48,63,5,1,314,376,190,251,3e-15,82.4
Exophiala_salmonis_CBS157.67_T,SRR7081285.31245,100.00,36,0,0,87,122,1,36,1e-10,67.6
Exophiala_salmonis_CBS157.67_T,SRR7081285.31245,100.00,30,0,0,93,122,546,517,2e-07,56.5
Exophiala_salmonis_CBS157.67_T,SRR7081285.34813,100.00,36,0,0,87,122,1,36,1e-10,67.6
Exophiala_salmonis_CBS157.67_T,SRR7081285.20630,100.00,36,0,0,87,122,1,36,1e-10,67.6
Exophiala_salmonis_CBS157.67_T,SRR7081285.16548,100.00,36,0,0,87,122,1,36,1e-10,67.6
Exophiala_salmonis_CBS157.67_T,SRR7081285.16548,100.00,36,0,0,87,122,522,487,1e-10,67.6
Exophiala_aquamarina_CBS119918_T,SRR7081285.18294,80.69,259,34,14,1,254,549,302,5e-47,187
Exophiala_aquamarina_CBS119918_T,SRR7081285.23316,95.38,65,2,1,204,267,352,288,2e-21,102
Exophiala_aquamarina_CBS119918_T,SRR7081285.23316,100.00,51,0,0,204,254,231,281,3e-19,95.3
Exophiala_aquamarina_CBS119918_T,SRR7081285.47345,93.85,65,3,1,204,267,352,288,9e-20,97.1
Exophiala_aquamarina_CBS119918_T,SRR7081285.9183,93.85,65,3,1,204,267,352,288,9e-20,97.1
Exophiala_aquamarina_CBS119918_T,SRR7081285.9183,96.08,51,2,0,204,254,231,281,7e-16,84.2
Exophiala_aquamarina_CBS119918_T,SRR7081285.31245,93.65,63,3,1,192,254,363,302,1e-18,93.5
Exophiala_aquamarina_CBS119918_T,SRR7081285.31245,90.48,63,5,1,192,254,190,251,2e-15,82.4
Exophiala_cancerae_CBS120420_T,SRR7081285.18294,80.22,278,38,14,1,269,571,302,1e-48,193
Exophiala_cancerae_CBS120420_T,SRR7081285.23316,95.38,65,2,1,219,282,352,288,2e-21,102
Exophiala_cancerae_CBS120420_T,SRR7081285.23316,100.00,51,0,0,219,269,231,281,4e-19,95.3
Exophiala_cancerae_CBS120420_T,SRR7081285.47345,93.85,65,3,1,219,282,352,288,1e-19,97.1
Exophiala_cancerae_CBS120420_T,SRR7081285.9183,93.85,65,3,1,219,282,352,288,1e-19,97.1
Exophiala_cancerae_CBS120420_T,SRR7081285.9183,96.08,51,2,0,219,269,231,281,8e-16,84.2
Exophiala_cancerae_CBS120420_T,SRR7081285.31245,93.65,63,3,1,207,269,363,302,1e-18,93.5
Exophiala_cancerae_CBS120420_T,SRR7081285.31245,90.48,63,5,1,207,269,190,251,3e-15,82.4
Exophiala_tremulae_CBS129355,SRR7081285.18294,84.03,288,31,14,1,281,581,302,9e-70,263
Exophiala_tremulae_CBS129355,SRR7081285.18294,81.36,279,37,14,1,272,30,300,9e-55,213
Exophiala_tremulae_CBS129355,SRR7081285.23316,95.38,65,2,1,231,294,352,288,2e-21,102
Exophiala_tremulae_CBS129355,SRR7081285.23316,100.00,51,0,0,231,281,231,281,4e-19,95.3
Exophiala_tremulae_CBS129355,SRR7081285.23316,100.00,40,0,0,1,40,30,69,5e-13,75.0
Exophiala_tremulae_CBS129355,SRR7081285.23316,97.50,40,1,0,1,40,553,514,2e-11,69.4
Exophiala_tremulae_CBS129355,SRR7081285.34813,84.07,113,9,9,1,110,30,136,8e-21,100
Exophiala_tremulae_CBS129355,SRR7081285.47345,93.85,65,3,1,231,294,352,288,1e-19,97.1
Exophiala_tremulae_CBS129355,SRR7081285.47345,100.00,40,0,0,1,40,30,69,5e-13,75.0
Exophiala_tremulae_CBS129355,SRR7081285.47345,100.00,40,0,0,1,40,553,514,5e-13,75.0
Exophiala_tremulae_CBS129355,SRR7081285.9183,93.85,65,3,1,231,294,352,288,1e-19,97.1
Exophiala_tremulae_CBS129355,SRR7081285.9183,96.08,51,2,0,231,281,231,281,8e-16,84.2
Exophiala_tremulae_CBS129355,SRR7081285.9183,100.00,40,0,0,1,40,553,514,5e-13,75.0
Exophiala_tremulae_CBS129355,SRR7081285.9183,97.50,40,1,0,1,40,30,69,2e-11,69.4
Exophiala_tremulae_CBS129355,SRR7081285.31245,93.65,63,3,1,219,281,363,302,1e-18,93.5
Exophiala_tremulae_CBS129355,SRR7081285.31245,90.48,63,5,1,219,281,190,251,3e-15,82.4
Exophiala_tremulae_CBS129355,SRR7081285.16548,95.83,48,2,0,1,48,493,446,4e-14,78.7
Exophiala_tremulae_CBS129355,SRR7081285.16548,93.75,48,3,0,1,48,30,77,2e-12,73.1
Exophiala_tremulae_CBS129355,SRR7081285.20630,100.00,39,0,0,1,39,30,68,2e-12,73.1
Exophiala_tremulae_CBS129355,SRR7081285.20630,97.44,39,1,0,1,39,590,552,8e-11,67.6
Exophiala_equina_CBS116009,SRR7081285.18294,83.07,254,28,14,1,247,547,302,6e-56,217
Exophiala_equina_CBS116009,SRR7081285.23316,95.38,65,2,1,197,260,352,288,2e-21,102
Exophiala_equina_CBS116009,SRR7081285.23316,100.00,51,0,0,197,247,231,281,3e-19,95.3
Exophiala_equina_CBS116009,SRR7081285.47345,93.85,65,3,1,197,260,352,288,9e-20,97.1
Exophiala_equina_CBS116009,SRR7081285.9183,93.85,65,3,1,197,260,352,288,9e-20,97.1
Exophiala_equina_CBS116009,SRR7081285.9183,96.08,51,2,0,197,247,231,281,7e-16,84.2
Exophiala_equina_CBS116009,SRR7081285.31245,93.65,63,3,1,185,247,363,302,1e-18,93.5
Exophiala_equina_CBS116009,SRR7081285.31245,90.48,63,5,1,185,247,190,251,2e-15,82.4
Exophiala_alcalophila_CBS520.82_T,SRR7081285.18294,83.46,260,29,10,1,258,549,302,8e-60,230
Exophiala_alcalophila_CBS520.82_T,SRR7081285.23316,95.38,65,2,1,208,271,352,288,2e-21,102
Exophiala_alcalophila_CBS520.82_T,SRR7081285.23316,100.00,51,0,0,208,258,231,281,3e-19,95.3
Exophiala_alcalophila_CBS520.82_T,SRR7081285.47345,93.85,65,3,1,208,271,352,288,9e-20,97.1
Exophiala_alcalophila_CBS520.82_T,SRR7081285.9183,93.85,65,3,1,208,271,352,288,9e-20,97.1
Exophiala_alcalophila_CBS520.82_T,SRR7081285.9183,96.08,51,2,0,208,258,231,281,7e-16,84.2
Exophiala_alcalophila_CBS520.82_T,SRR7081285.31245,98.08,52,1,0,207,258,353,302,4e-18,91.6
Exophiala_alcalophila_CBS520.82_T,SRR7081285.31245,94.23,52,3,0,207,258,200,251,9e-15,80.5
Exophiala_crusticola_CBS119970_T,SRR7081285.18294,82.58,264,29,12,1,263,549,302,6e-56,217
Exophiala_crusticola_CBS119970_T,SRR7081285.18294,79.61,255,35,11,1,254,62,300,6e-41,167
Exophiala_crusticola_CBS119970_T,SRR7081285.23316,95.38,65,2,1,213,276,352,288,2e-21,102
Exophiala_crusticola_CBS119970_T,SRR7081285.23316,100.00,51,0,0,213,263,231,281,3e-19,95.3
Exophiala_crusticola_CBS119970_T,SRR7081285.47345,93.85,65,3,1,213,276,352,288,9e-20,97.1
Exophiala_crusticola_CBS119970_T,SRR7081285.9183,93.85,65,3,1,213,276,352,288,9e-20,97.1
Exophiala_crusticola_CBS119970_T,SRR7081285.9183,96.08,51,2,0,213,263,231,281,7e-16,84.2
Exophiala_crusticola_CBS119970_T,SRR7081285.31245,96.55,58,1,1,207,263,359,302,3e-19,95.3
Exophiala_crusticola_CBS119970_T,SRR7081285.31245,93.10,58,3,1,207,263,194,251,7e-16,84.2
Rhinocladiella_atrovirens_CBS264.49,SRR7081285.18294,82.43,296,34,15,1,289,586,302,1e-63,243
Rhinocladiella_atrovirens_CBS264.49,SRR7081285.18294,79.79,287,40,15,1,280,25,300,1e-48,193
Rhinocladiella_atrovirens_CBS264.49,SRR7081285.34813,83.62,116,15,2,1,116,25,136,2e-22,106
Rhinocladiella_atrovirens_CBS264.49,SRR7081285.23316,95.38,65,2,1,239,302,352,288,2e-21,102
Rhinocladiella_atrovirens_CBS264.49,SRR7081285.23316,100.00,51,0,0,239,289,231,281,4e-19,95.3
Rhinocladiella_atrovirens_CBS264.49,SRR7081285.23316,100.00,44,0,0,1,44,25,68,3e-15,82.4
Rhinocladiella_atrovirens_CBS264.49,SRR7081285.23316,97.73,44,1,0,1,44,558,515,1e-13,76.8
Rhinocladiella_atrovirens_CBS264.49,SRR7081285.47345,93.85,65,3,1,239,302,352,288,1e-19,97.1
Rhinocladiella_atrovirens_CBS264.49,SRR7081285.47345,100.00,44,0,0,1,44,25,68,3e-15,82.4
Rhinocladiella_atrovirens_CBS264.49,SRR7081285.47345,100.00,44,0,0,1,44,558,515,3e-15,82.4
Rhinocladiella_atrovirens_CBS264.49,SRR7081285.9183,93.85,65,3,1,239,302,352,288,1e-19,97.1
Rhinocladiella_atrovirens_CBS264.49,SRR7081285.9183,96.08,51,2,0,239,289,231,281,8e-16,84.2
Rhinocladiella_atrovirens_CBS264.49,SRR7081285.9183,97.73,44,1,0,1,44,25,68,1e-13,76.8
Rhinocladiella_atrovirens_CBS264.49,SRR7081285.9183,97.73,44,1,0,1,44,558,515,1e-13,76.8
Rhinocladiella_atrovirens_CBS264.49,SRR7081285.31245,93.55,62,4,0,228,289,363,302,1e-18,93.5
Rhinocladiella_atrovirens_CBS264.49,SRR7081285.31245,90.32,62,6,0,228,289,190,251,3e-15,82.4
Rhinocladiella_atrovirens_CBS264.49,SRR7081285.16548,96.23,53,2,0,1,53,498,446,6e-17,87.9
Rhinocladiella_atrovirens_CBS264.49,SRR7081285.16548,94.34,53,3,0,1,53,25,77,3e-15,82.4
Rhinocladiella_atrovirens_CBS264.49,SRR7081285.20630,100.00,45,0,0,1,45,25,69,8e-16,84.2
Rhinocladiella_atrovirens_CBS264.49,SRR7081285.20630,97.78,45,1,0,1,45,595,551,4e-14,78.7
Rhinocladiella_basitona_CBS101460_T,SRR7081285.18294,76.86,255,45,13,1,248,549,302,2e-30,132
Rhinocladiella_basitona_CBS101460_T,SRR7081285.31245,89.29,84,5,4,166,248,382,302,2e-21,102
Rhinocladiella_basitona_CBS101460_T,SRR7081285.31245,86.90,84,7,4,166,248,171,251,4e-18,91.6
Rhinocladiella_basitona_CBS101460_T,SRR7081285.23316,95.38,65,2,1,198,261,352,288,2e-21,102
Rhinocladiella_basitona_CBS101460_T,SRR7081285.23316,100.00,51,0,0,198,248,231,281,3e-19,95.3
Rhinocladiella_basitona_CBS101460_T,SRR7081285.47345,93.85,65,3,1,198,261,352,288,8e-20,97.1
Rhinocladiella_basitona_CBS101460_T,SRR7081285.9183,93.85,65,3,1,198,261,352,288,8e-20,97.1
Rhinocladiella_basitona_CBS101460_T,SRR7081285.9183,96.08,51,2,0,198,248,231,281,7e-16,84.2
Rhinocladiella_phaeophora_CBS496.78_T,SRR7081285.18294,82.06,262,33,12,1,256,555,302,3e-54,211
Rhinocladiella_phaeophora_CBS496.78_T,SRR7081285.23316,94.20,69,3,1,202,269,356,288,5e-22,104
Rhinocladiella_phaeophora_CBS496.78_T,SRR7081285.23316,100.00,51,0,0,206,256,231,281,3e-19,95.3
Rhinocladiella_phaeophora_CBS496.78_T,SRR7081285.47345,92.75,69,4,1,202,269,356,288,2e-20,99.0
Rhinocladiella_phaeophora_CBS496.78_T,SRR7081285.9183,92.75,69,4,1,202,269,356,288,2e-20,99.0
Rhinocladiella_phaeophora_CBS496.78_T,SRR7081285.9183,94.55,55,3,0,202,256,227,281,2e-16,86.1
Rhinocladiella_aquaspersa_CBS313.73_T,SRR7081285.18294,80.71,254,39,10,1,250,549,302,2e-47,189
Rhinocladiella_aquaspersa_CBS313.73_T,SRR7081285.23316,94.20,69,3,1,196,263,356,288,6e-22,104
Rhinocladiella_aquaspersa_CBS313.73_T,SRR7081285.23316,100.00,51,0,0,200,250,231,281,4e-19,95.3
Rhinocladiella_aquaspersa_CBS313.73_T,SRR7081285.47345,92.75,69,4,1,196,263,356,288,3e-20,99.0
Rhinocladiella_aquaspersa_CBS313.73_T,SRR7081285.9183,92.75,69,4,1,196,263,356,288,3e-20,99.0
Rhinocladiella_aquaspersa_CBS313.73_T,SRR7081285.9183,94.55,55,3,0,196,250,227,281,2e-16,86.1
Rhinocladiella_fasciculata_CBS132.86_T,SRR7081285.18294,81.95,277,30,17,1,266,569,302,7e-56,217
Rhinocladiella_fasciculata_CBS132.86_T,SRR7081285.18294,79.48,268,35,17,1,257,42,300,1e-42,172
Rhinocladiella_fasciculata_CBS132.86_T,SRR7081285.23316,95.38,65,2,1,216,279,352,288,2e-21,102
Rhinocladiella_fasciculata_CBS132.86_T,SRR7081285.23316,100.00,51,0,0,216,266,231,281,3e-19,95.3
Rhinocladiella_fasciculata_CBS132.86_T,SRR7081285.47345,93.85,65,3,1,216,279,352,288,9e-20,97.1
Rhinocladiella_fasciculata_CBS132.86_T,SRR7081285.9183,93.85,65,3,1,216,279,352,288,9e-20,97.1
Rhinocladiella_fasciculata_CBS132.86_T,SRR7081285.34813,74.28,276,39,22,1,266,42,295,5e-17,87.9
Rhinocladiella_fasciculata_CBS132.86_T,SRR7081285.20630,100.00,28,0,0,1,28,42,69,2e-06,52.8
Rhinocladiella_fasciculata_CBS132.86_T,SRR7081285.20630,100.00,28,0,0,1,28,578,551,2e-06,52.8
Rhinocladiella_anceps_CBS181.65_T,SRR7081285.18294,82.42,256,29,11,1,248,549,302,1e-53,209
Rhinocladiella_anceps_CBS181.65_T,SRR7081285.23316,95.38,65,2,1,198,261,352,288,2e-21,102
Rhinocladiella_anceps_CBS181.65_T,SRR7081285.23316,100.00,51,0,0,198,248,231,281,3e-19,95.3
Rhinocladiella_anceps_CBS181.65_T,SRR7081285.47345,93.85,65,3,1,198,261,352,288,9e-20,97.1
Rhinocladiella_anceps_CBS181.65_T,SRR7081285.9183,93.85,65,3,1,198,261,352,288,9e-20,97.1
Rhinocladiella_anceps_CBS181.65_T,SRR7081285.9183,96.08,51,2,0,198,248,231,281,7e-16,84.2
Rhinocladiella_anceps_CBS181.65_T,SRR7081285.31245,98.08,52,1,0,197,248,353,302,4e-18,91.6
Rhinocladiella_anceps_CBS181.65_T,SRR7081285.31245,94.23,52,3,0,197,248,200,251,9e-15,80.5
Rhinocladiella_mackenziei_CBS367.92,SRR7081285.18294,88.60,114,12,1,1,114,43,155,6e-32,137
Rhinocladiella_mackenziei_CBS367.92,SRR7081285.18294,88.60,114,12,1,1,114,568,456,6e-32,137
Rhinocladiella_mackenziei_CBS367.92,SRR7081285.18294,86.11,108,9,5,130,237,403,302,3e-24,111
Rhinocladiella_mackenziei_CBS367.92,SRR7081285.23316,95.38,65,2,1,187,250,352,288,2e-21,102
Rhinocladiella_mackenziei_CBS367.92,SRR7081285.23316,100.00,51,0,0,187,237,231,281,3e-19,95.3
Rhinocladiella_mackenziei_CBS367.92,SRR7081285.47345,93.85,65,3,1,187,250,352,288,1e-19,97.1
Rhinocladiella_mackenziei_CBS367.92,SRR7081285.9183,93.85,65,3,1,187,250,352,288,1e-19,97.1
Rhinocladiella_mackenziei_CBS367.92,SRR7081285.9183,96.08,51,2,0,187,237,231,281,7e-16,84.2
Rhinocladiella_mackenziei_CBS367.92,SRR7081285.31245,98.08,52,1,0,186,237,353,302,4e-18,91.6
Rhinocladiella_mackenziei_CBS367.92,SRR7081285.31245,94.23,52,3,0,186,237,200,251,1e-14,80.5
Veronaea_compacta_CBS268.75_T,SRR7081285.18294,82.18,275,37,10,1,270,569,302,1e-58,226
Veronaea_compacta_CBS268.75_T,SRR7081285.18294,79.32,266,43,10,1,261,42,300,1e-43,176
Veronaea_compacta_CBS268.75_T,SRR7081285.23316,95.38,65,2,1,220,283,352,288,2e-21,102
Veronaea_compacta_CBS268.75_T,SRR7081285.23316,100.00,51,0,0,220,270,231,281,3e-19,95.3
Veronaea_compacta_CBS268.75_T,SRR7081285.23316,100.00,28,0,0,1,28,42,69,2e-06,52.8
Veronaea_compacta_CBS268.75_T,SRR7081285.47345,93.85,65,3,1,220,283,352,288,9e-20,97.1
Veronaea_compacta_CBS268.75_T,SRR7081285.47345,100.00,28,0,0,1,28,42,69,2e-06,52.8
Veronaea_compacta_CBS268.75_T,SRR7081285.47345,100.00,28,0,0,1,28,541,514,2e-06,52.8
Veronaea_compacta_CBS268.75_T,SRR7081285.9183,93.85,65,3,1,220,283,352,288,9e-20,97.1
Veronaea_compacta_CBS268.75_T,SRR7081285.9183,96.08,51,2,0,220,270,231,281,7e-16,84.2
Veronaea_compacta_CBS268.75_T,SRR7081285.9183,100.00,28,0,0,1,28,541,514,2e-06,52.8
Veronaea_compacta_CBS268.75_T,SRR7081285.31245,96.43,56,1,1,216,270,357,302,4e-18,91.6
Veronaea_compacta_CBS268.75_T,SRR7081285.31245,92.86,56,3,1,216,270,196,251,9e-15,80.5
Capronia_pilosella_AFTOL-ID657,SRR7081285.18294,86.81,273,26,9,80,348,568,302,1e-79,296
Capronia_pilosella_AFTOL-ID657,SRR7081285.18294,84.21,266,28,12,80,339,43,300,1e-64,246
Capronia_pilosella_AFTOL-ID657,SRR7081285.31245,92.00,75,5,1,274,348,375,302,6e-22,104
Capronia_pilosella_AFTOL-ID657,SRR7081285.31245,89.33,75,7,1,274,348,178,251,1e-18,93.5
Capronia_pilosella_AFTOL-ID657,SRR7081285.23316,95.38,65,2,1,298,361,352,288,2e-21,102
Capronia_pilosella_AFTOL-ID657,SRR7081285.23316,100.00,51,0,0,298,348,231,281,4e-19,95.3
Capronia_pilosella_AFTOL-ID657,SRR7081285.23316,100.00,30,0,0,80,109,43,72,2e-07,56.5
Capronia_pilosella_AFTOL-ID657,SRR7081285.47345,93.85,65,3,1,298,361,352,288,1e-19,97.1
Capronia_pilosella_AFTOL-ID657,SRR7081285.47345,100.00,30,0,0,80,109,43,72,2e-07,56.5
Capronia_pilosella_AFTOL-ID657,SRR7081285.47345,100.00,30,0,0,80,109,540,511,2e-07,56.5
Capronia_pilosella_AFTOL-ID657,SRR7081285.9183,93.85,65,3,1,298,361,352,288,1e-19,97.1
Capronia_pilosella_AFTOL-ID657,SRR7081285.9183,96.08,51,2,0,298,348,231,281,8e-16,84.2
Capronia_pilosella_AFTOL-ID657,SRR7081285.9183,100.00,30,0,0,80,109,540,511,2e-07,56.5
Capronia_dactylotricha_DAOM208471_T,SRR7081285.18294,77.13,258,43,14,1,250,551,302,2e-31,135
Capronia_dactylotricha_DAOM208471_T,SRR7081285.23316,95.38,65,2,1,200,263,352,288,2e-21,102
Capronia_dactylotricha_DAOM208471_T,SRR7081285.23316,100.00,51,0,0,200,250,231,281,4e-19,95.3
Capronia_dactylotricha_DAOM208471_T,SRR7081285.47345,93.85,65,3,1,200,263,352,288,1e-19,97.1
Capronia_dactylotricha_DAOM208471_T,SRR7081285.9183,93.85,65,3,1,200,263,352,288,1e-19,97.1
Capronia_dactylotricha_DAOM208471_T,SRR7081285.9183,96.08,51,2,0,200,250,231,281,8e-16,84.2
Capronia_dactylotricha_DAOM208471_T,SRR7081285.31245,98.08,52,1,0,199,250,353,302,5e-18,91.6
Capronia_dactylotricha_DAOM208471_T,SRR7081285.31245,94.23,52,3,0,199,250,200,251,1e-14,80.5
Capronia_kleinmondensis_CBS122671_T,SRR7081285.18294,81.98,283,31,15,1,275,572,302,2e-57,222
Capronia_kleinmondensis_CBS122671_T,SRR7081285.18294,78.68,272,42,13,1,266,39,300,8e-41,167
Capronia_kleinmondensis_CBS122671_T,SRR7081285.23316,95.38,65,2,1,225,288,352,288,2e-21,102
Capronia_kleinmondensis_CBS122671_T,SRR7081285.23316,100.00,51,0,0,225,275,231,281,4e-19,95.3
Capronia_kleinmondensis_CBS122671_T,SRR7081285.23316,100.00,30,0,0,1,30,39,68,2e-07,56.5
Capronia_kleinmondensis_CBS122671_T,SRR7081285.47345,93.85,65,3,1,225,288,352,288,1e-19,97.1
Capronia_kleinmondensis_CBS122671_T,SRR7081285.47345,100.00,30,0,0,1,30,39,68,2e-07,56.5
Capronia_kleinmondensis_CBS122671_T,SRR7081285.47345,100.00,30,0,0,1,30,544,515,2e-07,56.5
Capronia_kleinmondensis_CBS122671_T,SRR7081285.9183,93.85,65,3,1,225,288,352,288,1e-19,97.1
Capronia_kleinmondensis_CBS122671_T,SRR7081285.9183,96.08,51,2,0,225,275,231,281,8e-16,84.2
Capronia_kleinmondensis_CBS122671_T,SRR7081285.9183,100.00,30,0,0,1,30,544,515,2e-07,56.5
Capronia_kleinmondensis_CBS122671_T,SRR7081285.31245,98.08,52,1,0,224,275,353,302,5e-18,91.6
Capronia_kleinmondensis_CBS122671_T,SRR7081285.31245,94.23,52,3,0,224,275,200,251,1e-14,80.5
Capronia_kleinmondensis_CBS122671_T,SRR7081285.34813,81.37,102,15,2,1,102,39,136,1e-14,80.5
Capronia_kleinmondensis_CBS122671_T,SRR7081285.16548,94.87,39,2,0,1,39,484,446,4e-09,62.1
Capronia_kleinmondensis_CBS122671_T,SRR7081285.20630,100.00,31,0,0,1,31,39,69,5e-08,58.4
Capronia_kleinmondensis_CBS122671_T,SRR7081285.20630,100.00,31,0,0,1,31,581,551,5e-08,58.4
Capronia_mansonii_CBS101.67_T,SRR7081285.18294,83.52,267,21,19,1,261,551,302,4e-59,228
Capronia_mansonii_CBS101.67_T,SRR7081285.23316,95.38,65,2,1,211,274,352,288,2e-21,102
Capronia_mansonii_CBS101.67_T,SRR7081285.23316,100.00,51,0,0,211,261,231,281,4e-19,95.3
Capronia_mansonii_CBS101.67_T,SRR7081285.47345,93.85,65,3,1,211,274,352,288,1e-19,97.1
Capronia_mansonii_CBS101.67_T,SRR7081285.9183,93.85,65,3,1,211,274,352,288,1e-19,97.1
Capronia_mansonii_CBS101.67_T,SRR7081285.9183,96.08,51,2,0,211,261,231,281,8e-16,84.2
Capronia_mansonii_CBS101.67_T,SRR7081285.31245,96.43,56,1,1,207,261,357,302,5e-18,91.6
Capronia_mansonii_CBS101.67_T,SRR7081285.31245,92.86,56,3,1,207,261,196,251,1e-14,80.5
Capronia_munkii_DAOM216390_T,SRR7081285.18294,83.15,267,22,19,1,261,551,302,2e-57,222
Capronia_munkii_DAOM216390_T,SRR7081285.23316,95.38,65,2,1,211,274,352,288,2e-21,102
Capronia_munkii_DAOM216390_T,SRR7081285.23316,100.00,51,0,0,211,261,231,281,4e-19,95.3
Capronia_munkii_DAOM216390_T,SRR7081285.47345,93.85,65,3,1,211,274,352,288,1e-19,97.1
Capronia_munkii_DAOM216390_T,SRR7081285.9183,93.85,65,3,1,211,274,352,288,1e-19,97.1
Capronia_munkii_DAOM216390_T,SRR7081285.9183,96.08,51,2,0,211,261,231,281,8e-16,84.2
Capronia_munkii_DAOM216390_T,SRR7081285.31245,96.43,56,1,1,207,261,357,302,5e-18,91.6
Capronia_munkii_DAOM216390_T,SRR7081285.31245,92.86,56,3,1,207,261,196,251,1e-14,80.5
Capronia_coronata_ATCC56201_T,SRR7081285.18294,86.51,252,29,5,1,249,551,302,2e-72,272
Capronia_coronata_ATCC56201_T,SRR7081285.23316,95.38,65,2,1,199,262,352,288,2e-21,102
Capronia_coronata_ATCC56201_T,SRR7081285.23316,100.00,51,0,0,199,249,231,281,4e-19,95.3
Capronia_coronata_ATCC56201_T,SRR7081285.47345,93.85,65,3,1,199,262,352,288,1e-19,97.1
Capronia_coronata_ATCC56201_T,SRR7081285.31245,95.08,61,3,0,189,249,362,302,1e-19,97.1
Capronia_coronata_ATCC56201_T,SRR7081285.31245,91.80,61,5,0,189,249,191,251,2e-16,86.1
Capronia_coronata_ATCC56201_T,SRR7081285.9183,93.85,65,3,1,199,262,352,288,1e-19,97.1
Capronia_coronata_ATCC56201_T,SRR7081285.9183,96.08,51,2,0,199,249,231,281,8e-16,84.2
Capronia_parasitica_CBS123.88,SRR7081285.18294,84.41,263,20,16,1,255,551,302,1e-62,239
Capronia_parasitica_CBS123.88,SRR7081285.18294,81.18,255,25,16,1,246,60,300,7e-46,183
Capronia_parasitica_CBS123.88,SRR7081285.23316,95.45,66,2,1,204,268,353,288,6e-22,104
Capronia_parasitica_CBS123.88,SRR7081285.23316,100.00,52,0,0,204,255,230,281,9e-20,97.1
Capronia_parasitica_CBS123.88,SRR7081285.47345,93.94,66,3,1,204,268,353,288,3e-20,99.0
Capronia_parasitica_CBS123.88,SRR7081285.9183,93.94,66,3,1,204,268,353,288,3e-20,99.0
Capronia_parasitica_CBS123.88,SRR7081285.9183,96.15,52,2,0,204,255,230,281,2e-16,86.1
Veronaea_japonica_CBS776.83_T,SRR7081285.18294,83.28,287,36,9,1,283,580,302,5e-67,254
Veronaea_japonica_CBS776.83_T,SRR7081285.18294,80.58,278,42,11,1,274,31,300,5e-52,204
Veronaea_japonica_CBS776.83_T,SRR7081285.23316,95.38,65,2,1,233,296,352,288,2e-21,102
Veronaea_japonica_CBS776.83_T,SRR7081285.23316,100.00,51,0,0,233,283,231,281,3e-19,95.3
Veronaea_japonica_CBS776.83_T,SRR7081285.23316,100.00,39,0,0,1,39,31,69,2e-12,73.1
Veronaea_japonica_CBS776.83_T,SRR7081285.23316,97.44,39,1,0,1,39,552,514,7e-11,67.6
Veronaea_japonica_CBS776.83_T,SRR7081285.47345,93.85,65,3,1,233,296,352,288,1e-19,97.1
Veronaea_japonica_CBS776.83_T,SRR7081285.47345,100.00,39,0,0,1,39,31,69,2e-12,73.1
Veronaea_japonica_CBS776.83_T,SRR7081285.47345,100.00,39,0,0,1,39,552,514,2e-12,73.1
Veronaea_japonica_CBS776.83_T,SRR7081285.9183,93.85,65,3,1,233,296,352,288,1e-19,97.1
Veronaea_japonica_CBS776.83_T,SRR7081285.9183,96.08,51,2,0,233,283,231,281,7e-16,84.2
Veronaea_japonica_CBS776.83_T,SRR7081285.9183,100.00,39,0,0,1,39,552,514,2e-12,73.1
Veronaea_japonica_CBS776.83_T,SRR7081285.9183,97.44,39,1,0,1,39,31,69,7e-11,67.6
Veronaea_japonica_CBS776.83_T,SRR7081285.31245,96.43,56,1,1,229,283,357,302,4e-18,91.6
Veronaea_japonica_CBS776.83_T,SRR7081285.31245,92.86,56,3,1,229,283,196,251,1e-14,80.5
Veronaea_japonica_CBS776.83_T,SRR7081285.34813,81.42,113,12,8,1,111,31,136,7e-16,84.2
Veronaea_japonica_CBS776.83_T,SRR7081285.16548,95.74,47,2,0,1,47,492,446,1e-13,76.8
Veronaea_japonica_CBS776.83_T,SRR7081285.16548,93.62,47,3,0,1,47,31,77,6e-12,71.3
Veronaea_japonica_CBS776.83_T,SRR7081285.20630,100.00,38,0,0,1,38,31,68,6e-12,71.3
Veronaea_japonica_CBS776.83_T,SRR7081285.20630,97.37,38,1,0,1,38,589,552,3e-10,65.8
Thysanorea_papuana_CBS212.96_T,SRR7081285.18294,80.75,265,32,17,1,257,555,302,1e-47,189
Thysanorea_papuana_CBS212.96_T,SRR7081285.23316,95.38,65,2,1,207,270,352,288,2e-21,102
Thysanorea_papuana_CBS212.96_T,SRR7081285.23316,100.00,51,0,0,207,257,231,281,3e-19,95.3
Thysanorea_papuana_CBS212.96_T,SRR7081285.47345,93.85,65,3,1,207,270,352,288,9e-20,97.1
Thysanorea_papuana_CBS212.96_T,SRR7081285.9183,93.85,65,3,1,207,270,352,288,9e-20,97.1
Thysanorea_papuana_CBS212.96_T,SRR7081285.9183,96.08,51,2,0,207,257,231,281,7e-16,84.2
Thysanorea_papuana_CBS212.96_T,SRR7081285.31245,89.74,78,3,5,181,257,375,302,3e-19,95.3
Thysanorea_papuana_CBS212.96_T,SRR7081285.31245,87.18,78,5,5,181,257,178,251,7e-16,84.2
Capronia_acutiseta_ATCC56428_T,SRR7081285.18294,85.99,257,23,12,1,251,551,302,9e-70,263
Capronia_acutiseta_ATCC56428_T,SRR7081285.23316,95.38,65,1,2,201,263,352,288,2e-21,102
Capronia_acutiseta_ATCC56428_T,SRR7081285.23316,100.00,51,0,0,201,251,231,281,4e-19,95.3
Capronia_acutiseta_ATCC56428_T,SRR7081285.47345,93.85,65,2,2,201,263,352,288,1e-19,97.1
Capronia_acutiseta_ATCC56428_T,SRR7081285.31245,93.85,65,3,1,187,251,365,302,1e-19,97.1
Capronia_acutiseta_ATCC56428_T,SRR7081285.31245,90.77,65,5,1,187,251,188,251,2e-16,86.1
Capronia_acutiseta_ATCC56428_T,SRR7081285.9183,93.85,65,2,2,201,263,352,288,1e-19,97.1
Capronia_acutiseta_ATCC56428_T,SRR7081285.9183,96.08,51,2,0,201,251,231,281,8e-16,84.2
Fonsecaea_brasiliensis_CBS119710_T,SRR7081285.18294,83.65,263,22,16,1,257,549,302,3e-59,228
Fonsecaea_brasiliensis_CBS119710_T,SRR7081285.23316,95.38,65,2,1,207,270,352,288,2e-21,102
Fonsecaea_brasiliensis_CBS119710_T,SRR7081285.23316,100.00,51,0,0,207,257,231,281,3e-19,95.3
Fonsecaea_brasiliensis_CBS119710_T,SRR7081285.47345,93.85,65,3,1,207,270,352,288,9e-20,97.1
Fonsecaea_brasiliensis_CBS119710_T,SRR7081285.9183,93.85,65,3,1,207,270,352,288,9e-20,97.1
Fonsecaea_brasiliensis_CBS119710_T,SRR7081285.9183,96.08,51,2,0,207,257,231,281,7e-16,84.2
Fonsecaea_pedrosoi_CBS271.37_T,SRR7081285.18294,82.99,288,29,16,1,285,572,302,1e-63,243
Fonsecaea_pedrosoi_CBS271.37_T,SRR7081285.18294,80.58,278,36,14,1,276,39,300,3e-50,198
Fonsecaea_pedrosoi_CBS271.37_T,SRR7081285.23316,95.38,65,2,1,235,298,352,288,2e-21,102
Fonsecaea_pedrosoi_CBS271.37_T,SRR7081285.23316,100.00,51,0,0,235,285,231,281,4e-19,95.3
Fonsecaea_pedrosoi_CBS271.37_T,SRR7081285.23316,100.00,31,0,0,1,31,39,69,5e-08,58.4
Fonsecaea_pedrosoi_CBS271.37_T,SRR7081285.47345,93.85,65,3,1,235,298,352,288,1e-19,97.1
Fonsecaea_pedrosoi_CBS271.37_T,SRR7081285.47345,100.00,31,0,0,1,31,39,69,5e-08,58.4
Fonsecaea_pedrosoi_CBS271.37_T,SRR7081285.47345,100.00,31,0,0,1,31,544,514,5e-08,58.4
Fonsecaea_pedrosoi_CBS271.37_T,SRR7081285.9183,93.85,65,3,1,235,298,352,288,1e-19,97.1
Fonsecaea_pedrosoi_CBS271.37_T,SRR7081285.9183,96.08,51,2,0,235,285,231,281,8e-16,84.2
Fonsecaea_pedrosoi_CBS271.37_T,SRR7081285.9183,100.00,31,0,0,1,31,544,514,5e-08,58.4
Fonsecaea_pedrosoi_CBS271.37_T,SRR7081285.34813,80.77,104,11,7,1,101,39,136,2e-12,73.1
Fonsecaea_pedrosoi_CBS271.37_T,SRR7081285.20630,97.06,34,1,0,1,34,39,72,5e-08,58.4
Fonsecaea_pedrosoi_CBS271.37_T,SRR7081285.20630,97.06,34,1,0,1,34,581,548,5e-08,58.4
Fonsecaea_pedrosoi_CBS271.37_T,SRR7081285.16548,100.00,30,0,0,1,30,484,455,2e-07,56.5
Fonsecaea_multimorphosa_CBS980.96_T,SRR7081285.18294,86.72,256,25,7,1,255,549,302,1e-73,276
Fonsecaea_multimorphosa_CBS980.96_T,SRR7081285.23316,95.38,65,2,1,205,268,352,288,2e-21,102
Fonsecaea_multimorphosa_CBS980.96_T,SRR7081285.23316,100.00,51,0,0,205,255,231,281,3e-19,95.3
Fonsecaea_multimorphosa_CBS980.96_T,SRR7081285.47345,93.85,65,3,1,205,268,352,288,9e-20,97.1
Fonsecaea_multimorphosa_CBS980.96_T,SRR7081285.9183,93.85,65,3,1,205,268,352,288,9e-20,97.1
Fonsecaea_multimorphosa_CBS980.96_T,SRR7081285.9183,96.08,51,2,0,205,255,231,281,7e-16,84.2
Fonsecaea_minima_CBS125760_T,SRR7081285.18294,83.33,252,28,11,1,251,540,302,5e-57,220
Fonsecaea_minima_CBS125760_T,SRR7081285.23316,95.38,65,2,1,201,264,352,288,2e-21,102
Fonsecaea_minima_CBS125760_T,SRR7081285.23316,100.00,51,0,0,201,251,231,281,3e-19,95.3
Fonsecaea_minima_CBS125760_T,SRR7081285.47345,93.85,65,3,1,201,264,352,288,8e-20,97.1
Fonsecaea_minima_CBS125760_T,SRR7081285.9183,93.85,65,3,1,201,264,352,288,8e-20,97.1
Fonsecaea_minima_CBS125760_T,SRR7081285.9183,96.08,51,2,0,201,251,231,281,7e-16,84.2
Fonsecaea_nubica_CBS269.64_T,SRR7081285.18294,82.20,264,29,17,1,262,549,302,3e-54,211
Fonsecaea_nubica_CBS269.64_T,SRR7081285.18294,79.13,254,37,14,1,253,62,300,3e-39,161
Fonsecaea_nubica_CBS269.64_T,SRR7081285.23316,95.38,65,2,1,212,275,352,288,2e-21,102
Fonsecaea_nubica_CBS269.64_T,SRR7081285.23316,100.00,51,0,0,212,262,231,281,3e-19,95.3
Fonsecaea_nubica_CBS269.64_T,SRR7081285.47345,93.85,65,3,1,212,275,352,288,9e-20,97.1
Fonsecaea_nubica_CBS269.64_T,SRR7081285.9183,93.85,65,3,1,212,275,352,288,9e-20,97.1
Fonsecaea_nubica_CBS269.64_T,SRR7081285.9183,96.08,51,2,0,212,262,231,281,7e-16,84.2
Fonsecaea_monophora_CBS269.37_T,SRR7081285.18294,83.83,266,21,18,1,262,549,302,7e-61,233
Fonsecaea_monophora_CBS269.37_T,SRR7081285.18294,80.47,256,30,17,1,253,62,300,3e-44,178
Fonsecaea_monophora_CBS269.37_T,SRR7081285.23316,93.94,66,2,2,212,276,352,288,2e-20,99.0
Fonsecaea_monophora_CBS269.37_T,SRR7081285.23316,100.00,51,0,0,212,262,231,281,3e-19,95.3
Fonsecaea_monophora_CBS269.37_T,SRR7081285.47345,100.00,51,0,0,212,262,352,302,3e-19,95.3
Fonsecaea_monophora_CBS269.37_T,SRR7081285.9183,92.42,66,3,2,212,276,352,288,1e-18,93.5
Fonsecaea_monophora_CBS269.37_T,SRR7081285.9183,96.08,51,2,0,212,262,231,281,7e-16,84.2
Fonsecaea_erecta_CBS125763_T,SRR7081285.18294,82.94,252,24,18,1,246,540,302,1e-53,209
Fonsecaea_erecta_CBS125763_T,SRR7081285.23316,95.38,65,2,1,196,259,352,288,2e-21,102
Fonsecaea_erecta_CBS125763_T,SRR7081285.23316,100.00,51,0,0,196,246,231,281,3e-19,95.3
Fonsecaea_erecta_CBS125763_T,SRR7081285.47345,93.85,65,3,1,196,259,352,288,8e-20,97.1
Fonsecaea_erecta_CBS125763_T,SRR7081285.9183,93.85,65,3,1,196,259,352,288,8e-20,97.1
Fonsecaea_erecta_CBS125763_T,SRR7081285.9183,96.08,51,2,0,196,246,231,281,6e-16,84.2
Fonsecaea_pugnacius_CBS139214_T,SRR7081285.18294,82.88,257,24,17,1,255,540,302,8e-55,213
Fonsecaea_pugnacius_CBS139214_T,SRR7081285.23316,95.38,65,2,1,205,268,352,288,2e-21,102
Fonsecaea_pugnacius_CBS139214_T,SRR7081285.23316,100.00,51,0,0,205,255,231,281,3e-19,95.3
Fonsecaea_pugnacius_CBS139214_T,SRR7081285.47345,93.85,65,3,1,205,268,352,288,8e-20,97.1
Fonsecaea_pugnacius_CBS139214_T,SRR7081285.9183,93.85,65,3,1,205,268,352,288,8e-20,97.1
Fonsecaea_pugnacius_CBS139214_T,SRR7081285.9183,96.08,51,2,0,205,255,231,281,7e-16,84.2
Cladophialophora_psammophila_CBS,SRR7081285.18294,80.99,263,33,15,1,261,549,302,1e-48,193
Cladophialophora_psammophila_CBS,SRR7081285.23316,95.38,65,2,1,211,274,352,288,2e-21,102
Cladophialophora_psammophila_CBS,SRR7081285.23316,100.00,51,0,0,211,261,231,281,3e-19,95.3
Cladophialophora_psammophila_CBS,SRR7081285.47345,93.85,65,3,1,211,274,352,288,9e-20,97.1
Cladophialophora_psammophila_CBS,SRR7081285.9183,93.85,65,3,1,211,274,352,288,9e-20,97.1
Cladophialophora_psammophila_CBS,SRR7081285.9183,96.08,51,2,0,211,261,231,281,7e-16,84.2
Cladophialophora_devriesii_CBS,SRR7081285.18294,83.65,263,22,16,1,257,549,302,3e-59,228
Cladophialophora_devriesii_CBS,SRR7081285.23316,95.38,65,2,1,207,270,352,288,2e-21,102
Cladophialophora_devriesii_CBS,SRR7081285.23316,100.00,51,0,0,207,257,231,281,3e-19,95.3
Cladophialophora_devriesii_CBS,SRR7081285.47345,93.85,65,3,1,207,270,352,288,8e-20,97.1
Cladophialophora_devriesii_CBS,SRR7081285.9183,93.85,65,3,1,207,270,352,288,8e-20,97.1
Cladophialophora_devriesii_CBS,SRR7081285.9183,96.08,51,2,0,207,257,231,281,6e-16,84.2
Cladophialophora_immunda_CBS834.96,SRR7081285.18294,84.09,264,21,12,1,259,549,302,2e-61,235
Cladophialophora_immunda_CBS834.96,SRR7081285.23316,95.38,65,2,1,209,272,352,288,2e-21,102
Cladophialophora_immunda_CBS834.96,SRR7081285.23316,100.00,51,0,0,209,259,231,281,3e-19,95.3
Cladophialophora_immunda_CBS834.96,SRR7081285.47345,93.85,65,3,1,209,272,352,288,9e-20,97.1
Cladophialophora_immunda_CBS834.96,SRR7081285.9183,93.85,65,3,1,209,272,352,288,9e-20,97.1
Cladophialophora_immunda_CBS834.96,SRR7081285.9183,96.08,51,2,0,209,259,231,281,7e-16,84.2
Cladophialophora_arxii_CBS306.94_T,SRR7081285.18294,84.41,263,24,13,1,261,549,302,1e-63,243
Cladophialophora_arxii_CBS306.94_T,SRR7081285.18294,81.10,254,31,14,1,252,62,300,5e-47,187
Cladophialophora_arxii_CBS306.94_T,SRR7081285.23316,95.38,65,2,1,211,274,352,288,2e-21,102
Cladophialophora_arxii_CBS306.94_T,SRR7081285.23316,100.00,51,0,0,211,261,231,281,3e-19,95.3
Cladophialophora_arxii_CBS306.94_T,SRR7081285.47345,93.85,65,3,1,211,274,352,288,9e-20,97.1
Cladophialophora_arxii_CBS306.94_T,SRR7081285.9183,93.85,65,3,1,211,274,352,288,9e-20,97.1
Cladophialophora_arxii_CBS306.94_T,SRR7081285.9183,96.08,51,2,0,211,261,231,281,7e-16,84.2
Cladophialophora_bantiana_CBS173.52,SRR7081285.18294,84.44,257,29,11,1,255,549,302,1e-63,243
Cladophialophora_bantiana_CBS173.52,SRR7081285.23316,95.38,65,2,1,205,268,352,288,2e-21,102
Cladophialophora_bantiana_CBS173.52,SRR7081285.23316,100.00,51,0,0,205,255,231,281,3e-19,95.3
Cladophialophora_bantiana_CBS173.52,SRR7081285.47345,93.85,65,3,1,205,268,352,288,9e-20,97.1
Cladophialophora_bantiana_CBS173.52,SRR7081285.9183,93.85,65,3,1,205,268,352,288,9e-20,97.1
Cladophialophora_bantiana_CBS173.52,SRR7081285.9183,96.08,51,2,0,205,255,231,281,7e-16,84.2
Cladophialophora_emmonsii_CBS102594,SRR7081285.18294,81.78,247,34,11,4,246,541,302,8e-50,196
Cladophialophora_emmonsii_CBS102594,SRR7081285.23316,95.38,65,2,1,196,259,352,288,2e-21,102
Cladophialophora_emmonsii_CBS102594,SRR7081285.23316,100.00,51,0,0,196,246,231,281,3e-19,95.3
Cladophialophora_emmonsii_CBS102594,SRR7081285.47345,93.85,65,3,1,196,259,352,288,9e-20,97.1
Cladophialophora_emmonsii_CBS102594,SRR7081285.9183,93.85,65,3,1,196,259,352,288,9e-20,97.1
Cladophialophora_emmonsii_CBS102594,SRR7081285.9183,96.08,51,2,0,196,246,231,281,7e-16,84.2
Cladophialophora_minourae_CBS556.83,SRR7081285.18294,84.23,260,23,13,1,254,549,302,5e-62,237
Cladophialophora_minourae_CBS556.83,SRR7081285.23316,95.38,65,2,1,204,267,352,288,2e-21,102
Cladophialophora_minourae_CBS556.83,SRR7081285.23316,100.00,51,0,0,204,254,231,281,3e-19,95.3
Cladophialophora_minourae_CBS556.83,SRR7081285.47345,93.85,65,3,1,204,267,352,288,9e-20,97.1
Cladophialophora_minourae_CBS556.83,SRR7081285.9183,93.85,65,3,1,204,267,352,288,9e-20,97.1
Cladophialophora_minourae_CBS556.83,SRR7081285.9183,96.08,51,2,0,204,254,231,281,7e-16,84.2
Cladophialophora_australiensis_CBS112793,SRR7081285.18294,87.16,257,27,6,1,256,553,302,1e-76,287
Cladophialophora_australiensis_CBS112793,SRR7081285.23316,95.45,66,2,1,205,269,353,288,1e-21,104
Cladophialophora_australiensis_CBS112793,SRR7081285.23316,100.00,52,0,0,205,256,230,281,2e-19,97.1
Cladophialophora_australiensis_CBS112793,SRR7081285.47345,93.94,66,3,1,205,269,353,288,7e-20,99.0
Cladophialophora_australiensis_CBS112793,SRR7081285.9183,93.94,66,3,1,205,269,353,288,7e-20,99.0
Cladophialophora_australiensis_CBS112793,SRR7081285.9183,96.15,52,2,0,205,256,230,281,5e-16,86.1
Cladophialophora_potulentorum_CBS112222,SRR7081285.18294,89.11,257,23,5,1,255,555,302,6e-85,315
Cladophialophora_potulentorum_CBS112222,SRR7081285.18294,85.89,248,30,5,1,246,56,300,3e-68,259
Cladophialophora_potulentorum_CBS112222,SRR7081285.23316,95.38,65,2,1,205,268,352,288,5e-21,102
Cladophialophora_potulentorum_CBS112222,SRR7081285.23316,100.00,51,0,0,205,255,231,281,9e-19,95.3
Cladophialophora_potulentorum_CBS112222,SRR7081285.47345,93.85,65,3,1,205,268,352,288,2e-19,97.1
Cladophialophora_potulentorum_CBS112222,SRR7081285.9183,93.85,65,3,1,205,268,352,288,2e-19,97.1
Cladophialophora_potulentorum_CBS112222,SRR7081285.9183,96.08,51,2,0,205,255,231,281,2e-15,84.2
Cladophialophora_potulentorum_CBS112222,SRR7081285.31245,93.65,63,3,1,193,255,363,302,3e-18,93.5
Cladophialophora_potulentorum_CBS112222,SRR7081285.31245,90.48,63,5,1,193,255,190,251,7e-15,82.4
Cladophialophora_matsushimae_CMRP1198,SRR7081285.18294,77.74,265,36,14,1,259,549,302,3e-33,141
Cladophialophora_matsushimae_CMRP1198,SRR7081285.23316,95.38,65,2,1,209,272,352,288,2e-21,102
Cladophialophora_matsushimae_CMRP1198,SRR7081285.23316,100.00,51,0,0,209,259,231,281,3e-19,95.3
Cladophialophora_matsushimae_CMRP1198,SRR7081285.47345,93.85,65,3,1,209,272,352,288,7e-20,97.1
Cladophialophora_matsushimae_CMRP1198,SRR7081285.9183,93.85,65,3,1,209,272,352,288,7e-20,97.1
Cladophialophora_matsushimae_CMRP1198,SRR7081285.9183,96.08,51,2,0,209,259,231,281,6e-16,84.2
Cladophialophora_matsushimae_CMRP1198,SRR7081285.31245,95.08,61,2,1,199,259,361,302,3e-19,95.3
Cladophialophora_matsushimae_CMRP1198,SRR7081285.31245,91.80,61,4,1,199,259,192,251,6e-16,84.2
Cladophialophora_mycetomatis_CBS122637,SRR7081285.18294,80.32,249,26,17,2,244,533,302,6e-41,167
Cladophialophora_mycetomatis_CBS122637,SRR7081285.23316,95.38,65,2,1,194,257,352,288,2e-21,102
Cladophialophora_mycetomatis_CBS122637,SRR7081285.23316,100.00,51,0,0,194,244,231,281,3e-19,95.3
Cladophialophora_mycetomatis_CBS122637,SRR7081285.47345,93.85,65,3,1,194,257,352,288,8e-20,97.1
Cladophialophora_mycetomatis_CBS122637,SRR7081285.9183,93.85,65,3,1,194,257,352,288,8e-20,97.1
Cladophialophora_mycetomatis_CBS122637,SRR7081285.9183,96.08,51,2,0,194,244,231,281,7e-16,84.2
Cladophialophora_mycetomatis_CBS122637,SRR7081285.31245,95.08,61,2,1,184,244,361,302,3e-19,95.3
Cladophialophora_mycetomatis_CBS122637,SRR7081285.31245,91.80,61,4,1,184,244,192,251,7e-16,84.2
Cladophialophora_chaetospira_CBS127573,SRR7081285.18294,97.06,272,8,0,379,650,573,302,2e-128,459
Cladophialophora_chaetospira_CBS127573,SRR7081285.18294,94.30,263,15,0,379,641,38,300,8e-112,403
Cladophialophora_chaetospira_CBS127573,SRR7081285.34813,75.27,283,34,24,379,650,38,295,3e-21,102
Cladophialophora_chaetospira_CBS127573,SRR7081285.23316,92.31,65,4,1,600,663,352,288,7e-18,91.6
Cladophialophora_chaetospira_CBS127573,SRR7081285.23316,96.08,51,2,0,600,650,231,281,1e-15,84.2
Cladophialophora_chaetospira_CBS127573,SRR7081285.23316,100.00,32,0,0,379,410,38,69,2e-08,60.2
Cladophialophora_chaetospira_CBS127573,SRR7081285.47345,90.77,65,5,1,600,663,352,288,3e-16,86.1
Cladophialophora_chaetospira_CBS127573,SRR7081285.47345,100.00,32,0,0,379,410,38,69,2e-08,60.2
Cladophialophora_chaetospira_CBS127573,SRR7081285.47345,100.00,32,0,0,379,410,545,514,2e-08,60.2
Cladophialophora_chaetospira_CBS127573,SRR7081285.9183,90.77,65,5,1,600,663,352,288,3e-16,86.1
Cladophialophora_chaetospira_CBS127573,SRR7081285.9183,100.00,32,0,0,379,410,545,514,2e-08,60.2
Cladophialophora_chaetospira_CBS127573,SRR7081285.16548,95.00,40,2,0,379,418,485,446,2e-09,63.9
Cladophialophora_chaetospira_CBS127573,SRR7081285.20630,100.00,31,0,0,379,409,38,68,7e-08,58.4
Cladophialophora_chaetospira_CBS127573,SRR7081285.20630,100.00,30,0,0,380,409,581,552,3e-07,56.5
Cladophialophora_boppii_CBS126.86_T,SRR7081285.18294,91.67,252,17,4,1,252,549,302,8e-95,346
Cladophialophora_boppii_CBS126.86_T,SRR7081285.23316,95.38,65,2,1,202,265,352,288,2e-21,102
Cladophialophora_boppii_CBS126.86_T,SRR7081285.23316,100.00,51,0,0,202,252,231,281,3e-19,95.3
Cladophialophora_boppii_CBS126.86_T,SRR7081285.47345,93.85,65,3,1,202,265,352,288,8e-20,97.1
Cladophialophora_boppii_CBS126.86_T,SRR7081285.9183,93.85,65,3,1,202,265,352,288,8e-20,97.1
Cladophialophora_boppii_CBS126.86_T,SRR7081285.9183,96.08,51,2,0,202,252,231,281,7e-16,84.2
Cladophialophora_boppii_CBS126.86_T,SRR7081285.31245,96.49,57,1,1,197,252,358,302,1e-18,93.5
Cladophialophora_boppii_CBS126.86_T,SRR7081285.31245,92.98,57,3,1,197,252,195,251,2e-15,82.4
Cladophialophora_abundans_CBS126736,SRR7081285.18294,82.90,193,23,8,1,189,488,302,2e-40,165
Cladophialophora_abundans_CBS126736,SRR7081285.23316,95.38,65,2,1,139,202,352,288,2e-21,102
Cladophialophora_abundans_CBS126736,SRR7081285.23316,100.00,51,0,0,139,189,231,281,3e-19,95.3
Cladophialophora_abundans_CBS126736,SRR7081285.47345,93.85,65,3,1,139,202,352,288,7e-20,97.1
Cladophialophora_abundans_CBS126736,SRR7081285.9183,93.85,65,3,1,139,202,352,288,7e-20,97.1
Cladophialophora_abundans_CBS126736,SRR7081285.9183,96.08,51,2,0,139,189,231,281,6e-16,84.2
Cladophialophora_abundans_CBS126736,SRR7081285.31245,98.08,52,1,0,138,189,353,302,3e-18,91.6
Cladophialophora_abundans_CBS126736,SRR7081285.31245,94.23,52,3,0,138,189,200,251,7e-15,80.5
Capronia_semi-immersa_CBS102234,SRR7081285.18294,85.10,255,27,9,1,251,549,302,6e-66,250
Capronia_semi-immersa_CBS102234,SRR7081285.23316,95.38,65,2,1,201,264,352,288,2e-21,102
Capronia_semi-immersa_CBS102234,SRR7081285.23316,100.00,51,0,0,201,251,231,281,3e-19,95.3
Capronia_semi-immersa_CBS102234,SRR7081285.47345,93.85,65,3,1,201,264,352,288,9e-20,97.1
Capronia_semi-immersa_CBS102234,SRR7081285.9183,93.85,65,3,1,201,264,352,288,9e-20,97.1
Capronia_semi-immersa_CBS102234,SRR7081285.9183,96.08,51,2,0,201,251,231,281,7e-16,84.2
Phialophora_americana_CBS400.67,SRR7081285.18294,86.05,258,23,9,1,253,551,302,6e-70,265
Phialophora_americana_CBS400.67,SRR7081285.23316,95.38,65,2,1,203,266,352,288,5e-21,102
Phialophora_americana_CBS400.67,SRR7081285.23316,100.00,51,0,0,203,253,231,281,8e-19,95.3
Phialophora_americana_CBS400.67,SRR7081285.47345,93.85,65,3,1,203,266,352,288,2e-19,97.1
Phialophora_americana_CBS400.67,SRR7081285.9183,93.85,65,3,1,203,266,352,288,2e-19,97.1
Phialophora_americana_CBS400.67,SRR7081285.9183,96.08,51,2,0,203,253,231,281,2e-15,84.2
Phialophora_verrucosa_CBS140325_T,SRR7081285.18294,85.17,263,22,12,1,257,553,302,5e-67,254
Phialophora_verrucosa_CBS140325_T,SRR7081285.23316,95.38,65,2,1,207,270,352,288,2e-21,102
Phialophora_verrucosa_CBS140325_T,SRR7081285.23316,100.00,51,0,0,207,257,231,281,3e-19,95.3
Phialophora_verrucosa_CBS140325_T,SRR7081285.47345,93.85,65,3,1,207,270,352,288,9e-20,97.1
Phialophora_verrucosa_CBS140325_T,SRR7081285.9183,93.85,65,3,1,207,270,352,288,9e-20,97.1
Phialophora_verrucosa_CBS140325_T,SRR7081285.9183,96.08,51,2,0,207,257,231,281,7e-16,84.2
Cladophialophora_samoensis_CBS259.83_T,SRR7081285.18294,83.72,258,31,9,1,257,549,302,6e-61,233
Cladophialophora_samoensis_CBS259.83_T,SRR7081285.23316,95.38,65,2,1,207,270,352,288,2e-21,102
Cladophialophora_samoensis_CBS259.83_T,SRR7081285.23316,100.00,51,0,0,207,257,231,281,3e-19,95.3
Cladophialophora_samoensis_CBS259.83_T,SRR7081285.47345,93.85,65,3,1,207,270,352,288,9e-20,97.1
Cladophialophora_samoensis_CBS259.83_T,SRR7081285.9183,93.85,65,3,1,207,270,352,288,9e-20,97.1
Cladophialophora_samoensis_CBS259.83_T,SRR7081285.9183,96.08,51,2,0,207,257,231,281,7e-16,84.2
Cladophialophora_carrionii_CBS260.83,SRR7081285.18294,87.68,276,23,10,1,273,569,302,3e-84,311
Cladophialophora_carrionii_CBS260.83,SRR7081285.23316,95.38,65,2,1,223,286,352,288,2e-21,102
Cladophialophora_carrionii_CBS260.83,SRR7081285.23316,100.00,51,0,0,223,273,231,281,3e-19,95.3
Cladophialophora_carrionii_CBS260.83,SRR7081285.47345,93.85,65,3,1,223,286,352,288,1e-19,97.1
Cladophialophora_carrionii_CBS260.83,SRR7081285.9183,93.85,65,3,1,223,286,352,288,1e-19,97.1
Cladophialophora_carrionii_CBS260.83,SRR7081285.9183,96.08,51,2,0,223,273,231,281,7e-16,84.2
Exophiala_palmae_UPCB86822_T,SRR7081285.18294,83.49,218,25,10,1,216,510,302,1e-48,193
Exophiala_palmae_UPCB86822_T,SRR7081285.23316,95.38,65,2,1,166,229,352,288,2e-21,102
Exophiala_palmae_UPCB86822_T,SRR7081285.23316,100.00,51,0,0,166,216,231,281,3e-19,95.3
Exophiala_palmae_UPCB86822_T,SRR7081285.47345,93.85,65,3,1,166,229,352,288,8e-20,97.1
Exophiala_palmae_UPCB86822_T,SRR7081285.9183,93.85,65,3,1,166,229,352,288,8e-20,97.1
Exophiala_palmae_UPCB86822_T,SRR7081285.9183,96.08,51,2,0,166,216,231,281,6e-16,84.2
Exophiala_palmae_UPCB86822_T,SRR7081285.31245,88.75,80,5,3,137,216,377,302,3e-19,95.3
Exophiala_palmae_UPCB86822_T,SRR7081285.31245,86.25,80,7,3,137,216,176,251,6e-16,84.2
Cladophialophora_yegresii_CBS114405_T,SRR7081285.18294,84.94,259,27,9,1,258,549,302,2e-66,252
Cladophialophora_yegresii_CBS114405_T,SRR7081285.23316,95.38,65,2,1,208,271,352,288,2e-21,102
Cladophialophora_yegresii_CBS114405_T,SRR7081285.23316,100.00,51,0,0,208,258,231,281,3e-19,95.3
Cladophialophora_yegresii_CBS114405_T,SRR7081285.47345,93.85,65,3,1,208,271,352,288,9e-20,97.1
Cladophialophora_yegresii_CBS114405_T,SRR7081285.9183,93.85,65,3,1,208,271,352,288,9e-20,97.1
Cladophialophora_yegresii_CBS114405_T,SRR7081285.9183,96.08,51,2,0,208,258,231,281,7e-16,84.2
Knufia_epidermidis_CBS120353_T,SRR7081285.18294,75.66,267,35,17,1,256,549,302,1e-22,106
Knufia_epidermidis_CBS120353_T,SRR7081285.23316,95.38,65,2,1,206,269,352,288,2e-21,102
Knufia_epidermidis_CBS120353_T,SRR7081285.23316,100.00,51,0,0,206,256,231,281,3e-19,95.3
Knufia_epidermidis_CBS120353_T,SRR7081285.47345,93.85,65,3,1,206,269,352,288,8e-20,97.1
Knufia_epidermidis_CBS120353_T,SRR7081285.9183,93.85,65,3,1,206,269,352,288,8e-20,97.1
Knufia_epidermidis_CBS120353_T,SRR7081285.9183,96.08,51,2,0,206,256,231,281,7e-16,84.2
Knufia_epidermidis_CBS120353_T,SRR7081285.31245,98.08,52,1,0,205,256,353,302,4e-18,91.6
Knufia_epidermidis_CBS120353_T,SRR7081285.31245,94.23,52,3,0,205,256,200,251,8e-15,80.5
Arthrocladium_fulminans_CBS136243_T,SRR7081285.18294,78.20,266,25,23,1,251,549,302,1e-32,139
Arthrocladium_fulminans_CBS136243_T,SRR7081285.23316,95.38,65,2,1,201,264,352,288,2e-21,102
Arthrocladium_fulminans_CBS136243_T,SRR7081285.23316,100.00,51,0,0,201,251,231,281,3e-19,95.3
Arthrocladium_fulminans_CBS136243_T,SRR7081285.47345,93.85,65,3,1,201,264,352,288,9e-20,97.1
Arthrocladium_fulminans_CBS136243_T,SRR7081285.9183,93.85,65,3,1,201,264,352,288,9e-20,97.1
Arthrocladium_fulminans_CBS136243_T,SRR7081285.9183,96.08,51,2,0,201,251,231,281,7e-16,84.2
Arthrocladium_fulminans_CBS136243_T,SRR7081285.31245,88.61,79,4,4,173,251,375,302,4e-18,91.6
Arthrocladium_fulminans_CBS136243_T,SRR7081285.31245,86.08,79,6,4,173,251,178,251,9e-15,80.5
Anthopsis_deltoidea_CBS263.77_T,SRR7081285.23316,95.38,65,2,1,210,273,352,288,2e-21,102
Anthopsis_deltoidea_CBS263.77_T,SRR7081285.23316,100.00,51,0,0,210,260,231,281,3e-19,95.3
Anthopsis_deltoidea_CBS263.77_T,SRR7081285.47345,93.85,65,3,1,210,273,352,288,8e-20,97.1
Anthopsis_deltoidea_CBS263.77_T,SRR7081285.9183,93.85,65,3,1,210,273,352,288,8e-20,97.1
Anthopsis_deltoidea_CBS263.77_T,SRR7081285.9183,96.08,51,2,0,210,260,231,281,6e-16,84.2
Anthopsis_deltoidea_CBS263.77_T,SRR7081285.18294,100.00,51,0,0,210,260,352,302,3e-19,95.3
Cyphellophora_laciniata_CBS190.61_T,SRR7081285.18294,78.46,311,45,15,44,345,599,302,9e-46,183
Cyphellophora_laciniata_CBS190.61_T,SRR7081285.18294,87.59,145,14,4,33,176,1,142,3e-40,165
Cyphellophora_laciniata_CBS190.61_T,SRR7081285.34813,78.10,315,47,16,33,345,1,295,1e-44,180
Cyphellophora_laciniata_CBS190.61_T,SRR7081285.16548,97.40,77,2,0,33,109,522,446,3e-30,132
Cyphellophora_laciniata_CBS190.61_T,SRR7081285.16548,96.10,77,3,0,33,109,1,77,1e-28,126
Cyphellophora_laciniata_CBS190.61_T,SRR7081285.20630,100.00,69,0,0,33,101,1,69,4e-29,128
Cyphellophora_laciniata_CBS190.61_T,SRR7081285.20630,98.08,52,1,0,50,101,602,551,5e-18,91.6
Cyphellophora_laciniata_CBS190.61_T,SRR7081285.47345,100.00,68,0,0,33,100,1,68,1e-28,126
Cyphellophora_laciniata_CBS190.61_T,SRR7081285.47345,100.00,68,0,0,33,100,582,515,1e-28,126
Cyphellophora_laciniata_CBS190.61_T,SRR7081285.47345,93.85,65,3,1,295,358,352,288,1e-19,97.1
Cyphellophora_laciniata_CBS190.61_T,SRR7081285.23316,100.00,68,0,0,33,100,1,68,1e-28,126
Cyphellophora_laciniata_CBS190.61_T,SRR7081285.23316,95.59,68,3,0,33,100,582,515,1e-23,110
Cyphellophora_laciniata_CBS190.61_T,SRR7081285.23316,95.38,65,2,1,295,358,352,288,2e-21,102
Cyphellophora_laciniata_CBS190.61_T,SRR7081285.23316,100.00,51,0,0,295,345,231,281,4e-19,95.3
Cyphellophora_laciniata_CBS190.61_T,SRR7081285.9183,97.06,68,2,0,33,100,1,68,3e-25,115
Cyphellophora_laciniata_CBS190.61_T,SRR7081285.9183,95.59,68,3,0,33,100,582,515,1e-23,110
Cyphellophora_laciniata_CBS190.61_T,SRR7081285.9183,93.85,65,3,1,295,358,352,288,1e-19,97.1
Cyphellophora_laciniata_CBS190.61_T,SRR7081285.31245,94.20,69,4,0,33,101,1,69,2e-22,106
Cyphellophora_laciniata_CBS190.61_T,SRR7081285.31245,93.65,63,4,0,39,101,546,484,4e-19,95.3
Cyphellophora_suttonii_CBS449.91,SRR7081285.23316,95.38,65,2,1,198,261,352,288,2e-21,102
Cyphellophora_suttonii_CBS449.91,SRR7081285.23316,100.00,51,0,0,198,248,231,281,3e-19,95.3
Cyphellophora_suttonii_CBS449.91,SRR7081285.18294,96.72,61,1,1,189,248,362,302,7e-21,100
Cyphellophora_suttonii_CBS449.91,SRR7081285.47345,93.85,65,3,1,198,261,352,288,8e-20,97.1
Cyphellophora_suttonii_CBS449.91,SRR7081285.9183,93.85,65,3,1,198,261,352,288,8e-20,97.1
Cyphellophora_suttonii_CBS449.91,SRR7081285.9183,96.08,51,2,0,198,248,231,281,7e-16,84.2
Cyphellophora_suttonii_CBS449.91,SRR7081285.31245,95.00,60,3,0,189,248,361,302,3e-19,95.3
Cyphellophora_suttonii_CBS449.91,SRR7081285.31245,91.67,60,5,0,189,248,192,251,7e-16,84.2
Cyphellophora_pauciseptata_CBS284.85_T,SRR7081285.23316,95.45,66,2,1,208,272,353,288,5e-22,104
Cyphellophora_pauciseptata_CBS284.85_T,SRR7081285.23316,100.00,52,0,0,208,259,230,281,8e-20,97.1
Cyphellophora_pauciseptata_CBS284.85_T,SRR7081285.47345,93.94,66,3,1,208,272,353,288,2e-20,99.0
Cyphellophora_pauciseptata_CBS284.85_T,SRR7081285.9183,93.94,66,3,1,208,272,353,288,2e-20,99.0
Cyphellophora_pauciseptata_CBS284.85_T,SRR7081285.9183,96.15,52,2,0,208,259,230,281,2e-16,86.1
Cyphellophora_pauciseptata_CBS284.85_T,SRR7081285.18294,95.08,61,2,1,200,259,362,302,3e-19,95.3
Cyphellophora_pluriseptata_CBS286.85_T,SRR7081285.23316,93.85,65,3,1,214,277,352,288,9e-20,97.1
Cyphellophora_pluriseptata_CBS286.85_T,SRR7081285.23316,98.04,51,1,0,214,264,231,281,1e-17,89.8
Cyphellophora_pluriseptata_CBS286.85_T,SRR7081285.18294,95.08,61,3,0,204,264,362,302,9e-20,97.1
Cyphellophora_pluriseptata_CBS286.85_T,SRR7081285.47345,92.31,65,4,1,214,277,352,288,4e-18,91.6
Phialophora_europaea_CBS101466,SRR7081285.23316,95.52,67,2,1,202,267,354,288,1e-22,106
Phialophora_europaea_CBS101466,SRR7081285.23316,100.00,53,0,0,202,254,229,281,2e-20,99.0
Phialophora_europaea_CBS101466,SRR7081285.47345,94.03,67,3,1,202,267,354,288,6e-21,100
Phialophora_europaea_CBS101466,SRR7081285.9183,94.03,67,3,1,202,267,354,288,6e-21,100
Phialophora_europaea_CBS101466,SRR7081285.9183,96.23,53,2,0,202,254,229,281,5e-17,87.9
Phialophora_europaea_CBS101466,SRR7081285.18294,100.00,51,0,0,204,254,352,302,3e-19,95.3
Phialophora_ambigua_CBS235.93,SRR7081285.23316,95.38,65,2,1,201,264,352,288,2e-21,102
Phialophora_ambigua_CBS235.93,SRR7081285.23316,100.00,51,0,0,201,251,231,281,3e-19,95.3
Phialophora_ambigua_CBS235.93,SRR7081285.18294,96.72,61,2,0,191,251,362,302,2e-21,102
Phialophora_ambigua_CBS235.93,SRR7081285.47345,93.85,65,3,1,201,264,352,288,8e-20,97.1
Phialophora_ambigua_CBS235.93,SRR7081285.9183,93.85,65,3,1,201,264,352,288,8e-20,97.1
Phialophora_ambigua_CBS235.93,SRR7081285.9183,96.08,51,2,0,201,251,231,281,7e-16,84.2
Phialophora_ambigua_CBS235.93,SRR7081285.31245,95.00,60,3,0,192,251,361,302,3e-19,95.3
Phialophora_ambigua_CBS235.93,SRR7081285.31245,91.67,60,5,0,192,251,192,251,7e-16,84.2
Cladophialophora_modesta_CBS985.96_T,SRR7081285.18294,77.13,258,39,16,1,248,549,302,3e-30,132
Cladophialophora_modesta_CBS985.96_T,SRR7081285.23316,95.38,65,2,1,198,261,352,288,2e-21,102
Cladophialophora_modesta_CBS985.96_T,SRR7081285.23316,100.00,51,0,0,198,248,231,281,3e-19,95.3
Cladophialophora_modesta_CBS985.96_T,SRR7081285.47345,93.85,65,3,1,198,261,352,288,1e-19,97.1
Cladophialophora_modesta_CBS985.96_T,SRR7081285.9183,93.85,65,3,1,198,261,352,288,1e-19,97.1
Cladophialophora_modesta_CBS985.96_T,SRR7081285.9183,96.08,51,2,0,198,248,231,281,8e-16,84.2
Cladophialophora_modesta_CBS985.96_T,SRR7081285.31245,98.08,52,1,0,197,248,353,302,5e-18,91.6
Cladophialophora_modesta_CBS985.96_T,SRR7081285.31245,94.23,52,3,0,197,248,200,251,1e-14,80.5
Cyphellophora_fusarioides_MUCL44033_T,SRR7081285.23316,95.38,65,2,1,197,260,352,288,2e-21,102
Cyphellophora_fusarioides_MUCL44033_T,SRR7081285.23316,100.00,51,0,0,197,247,231,281,3e-19,95.3
Cyphellophora_fusarioides_MUCL44033_T,SRR7081285.18294,96.72,61,2,0,187,247,362,302,2e-21,102
Cyphellophora_fusarioides_MUCL44033_T,SRR7081285.47345,93.85,65,3,1,197,260,352,288,8e-20,97.1
Cyphellophora_fusarioides_MUCL44033_T,SRR7081285.9183,93.85,65,3,1,197,260,352,288,8e-20,97.1
