Exophiala_polymorpha_CBS138920_T,SRR9016983.37475540,97.50,40,1,0,655,694,62,101,1e-08,69.4
Exophiala_polymorpha_CBS138920_T,SRR9016983.37475540,97.50,40,1,0,655,694,289,250,1e-08,69.4
Exophiala_polymorpha_CBS138920_T,SRR9016983.26341741,97.50,40,1,0,655,694,62,101,1e-08,69.4
Exophiala_polymorpha_CBS138920_T,SRR9016983.26341741,100.00,28,0,0,667,694,300,273,0.001,52.8
Exophiala_polymorpha_CBS138920_T,SRR9016983.19301472,97.50,40,1,0,655,694,106,145,1e-08,69.4
Exophiala_polymorpha_CBS138920_T,SRR9016983.10317309,97.50,40,1,0,655,694,220,259,1e-08,69.4
Exophiala_polymorpha_CBS138920_T,SRR9016983.5268795,97.50,40,1,0,655,694,62,101,1e-08,69.4
Exophiala_polymorpha_CBS138920_T,SRR9016983.5268795,97.50,40,1,0,655,694,289,250,1e-08,69.4
Exophiala_jeanselmei_CBS507.90_T,SRR9016983.37475540,97.92,48,1,0,557,604,62,109,3e-13,84.2
Exophiala_jeanselmei_CBS507.90_T,SRR9016983.37475540,97.92,48,1,0,557,604,289,242,3e-13,84.2
Exophiala_jeanselmei_CBS507.90_T,SRR9016983.26341741,97.92,48,1,0,557,604,62,109,3e-13,84.2
Exophiala_jeanselmei_CBS507.90_T,SRR9016983.26341741,100.00,36,0,0,569,604,300,265,3e-08,67.6
Exophiala_jeanselmei_CBS507.90_T,SRR9016983.10317309,97.92,48,1,0,557,604,220,267,3e-13,84.2
Exophiala_jeanselmei_CBS507.90_T,SRR9016983.5268795,97.92,48,1,0,557,604,62,109,3e-13,84.2
Exophiala_jeanselmei_CBS507.90_T,SRR9016983.5268795,97.92,48,1,0,557,604,289,242,3e-13,84.2
Exophiala_jeanselmei_CBS507.90_T,SRR9016983.19301472,97.87,47,1,0,557,603,106,152,1e-12,82.4
Exophiala_pisciphila_CBS537.73_T,SRR9016983.37475540,97.73,88,2,0,566,653,62,149,9e-34,152
Exophiala_pisciphila_CBS537.73_T,SRR9016983.37475540,97.73,88,2,0,566,653,289,202,9e-34,152
Exophiala_pisciphila_CBS537.73_T,SRR9016983.26341741,97.73,88,2,0,566,653,62,149,9e-34,152
Exophiala_pisciphila_CBS537.73_T,SRR9016983.26341741,100.00,76,0,0,578,653,300,225,2e-30,141
Exophiala_pisciphila_CBS537.73_T,SRR9016983.5268795,97.73,88,2,0,566,653,62,149,9e-34,152
Exophiala_pisciphila_CBS537.73_T,SRR9016983.5268795,97.73,88,2,0,566,653,289,202,9e-34,152
Exophiala_pisciphila_CBS537.73_T,SRR9016983.10317309,97.59,83,2,0,566,648,220,302,6e-31,143
Exophiala_pisciphila_CBS537.73_T,SRR9016983.19301472,95.74,47,2,0,566,612,106,152,6e-11,76.8
Exophiala_pisciphila_CBS537.73_T,SRR9016983.29778920,95.65,46,2,0,608,653,238,193,2e-10,75.0
Exophiala_pisciphila_CBS537.73_T,SRR9016983.29778920,95.56,45,2,0,609,653,1,45,7e-10,73.1
Exophiala_mesophila_CBS402.95_T,SRR9016983.37475540,98.86,88,1,0,563,650,62,149,2e-35,158
Exophiala_mesophila_CBS402.95_T,SRR9016983.37475540,98.86,88,1,0,563,650,289,202,2e-35,158
Exophiala_mesophila_CBS402.95_T,SRR9016983.26341741,98.86,88,1,0,563,650,62,149,2e-35,158
Exophiala_mesophila_CBS402.95_T,SRR9016983.26341741,100.00,76,0,0,575,650,300,225,2e-30,141
Exophiala_mesophila_CBS402.95_T,SRR9016983.5268795,98.86,88,1,0,563,650,62,149,2e-35,158
Exophiala_mesophila_CBS402.95_T,SRR9016983.5268795,98.86,88,1,0,563,650,289,202,2e-35,158
Exophiala_mesophila_CBS402.95_T,SRR9016983.10317309,98.80,83,1,0,563,645,220,302,1e-32,148
Exophiala_mesophila_CBS402.95_T,SRR9016983.19301472,97.87,47,1,0,563,609,106,152,1e-12,82.4
Exophiala_mesophila_CBS402.95_T,SRR9016983.29778920,95.65,46,2,0,605,650,238,193,2e-10,75.0
Exophiala_mesophila_CBS402.95_T,SRR9016983.29778920,95.56,45,2,0,606,650,1,45,7e-10,73.1
Exophiala_castellanii_CBS158.58_T,SRR9016983.37475540,98.86,88,1,0,562,649,62,149,2e-35,158
Exophiala_castellanii_CBS158.58_T,SRR9016983.37475540,98.86,88,1,0,562,649,289,202,2e-35,158
Exophiala_castellanii_CBS158.58_T,SRR9016983.26341741,98.86,88,1,0,562,649,62,149,2e-35,158
Exophiala_castellanii_CBS158.58_T,SRR9016983.26341741,100.00,76,0,0,574,649,300,225,2e-30,141
Exophiala_castellanii_CBS158.58_T,SRR9016983.5268795,98.86,88,1,0,562,649,62,149,2e-35,158
Exophiala_castellanii_CBS158.58_T,SRR9016983.5268795,98.86,88,1,0,562,649,289,202,2e-35,158
Exophiala_castellanii_CBS158.58_T,SRR9016983.10317309,98.80,83,1,0,562,644,220,302,1e-32,148
Exophiala_castellanii_CBS158.58_T,SRR9016983.19301472,97.87,47,1,0,562,608,106,152,1e-12,82.4
Exophiala_castellanii_CBS158.58_T,SRR9016983.29778920,95.65,46,2,0,604,649,238,193,2e-10,75.0
Exophiala_castellanii_CBS158.58_T,SRR9016983.29778920,95.56,45,2,0,605,649,1,45,7e-10,73.1
Exophiala_dermatitidis_CBS748.88,SRR9016983.40889004,93.92,148,9,0,852,999,1,148,5e-55,224
Exophiala_dermatitidis_CBS748.88,SRR9016983.40889004,94.25,87,5,0,928,1014,302,216,8e-28,134
Exophiala_dermatitidis_CBS748.88,SRR9016983.19301472,93.62,141,9,0,838,978,292,152,4e-51,211
Exophiala_dermatitidis_CBS748.88,SRR9016983.19301472,97.87,47,1,0,588,634,106,152,3e-12,82.4
Exophiala_dermatitidis_CBS748.88,SRR9016983.10317309,93.75,128,8,0,838,965,128,1,1e-45,193
Exophiala_dermatitidis_CBS748.88,SRR9016983.10317309,98.80,83,1,0,588,670,220,302,3e-32,148
Exophiala_dermatitidis_CBS748.88,SRR9016983.22654643,93.70,127,8,0,888,1014,152,278,5e-45,191
Exophiala_dermatitidis_CBS748.88,SRR9016983.22654643,82.58,155,19,6,1245,1395,153,3,1e-26,130
Exophiala_dermatitidis_CBS748.88,SRR9016983.37475540,96.46,113,4,0,588,700,289,177,6e-44,187
Exophiala_dermatitidis_CBS748.88,SRR9016983.37475540,98.89,90,1,0,588,677,62,151,4e-36,161
Exophiala_dermatitidis_CBS748.88,SRR9016983.5268795,96.46,113,4,0,588,700,289,177,6e-44,187
Exophiala_dermatitidis_CBS748.88,SRR9016983.5268795,98.89,90,1,0,588,677,62,151,4e-36,161
Exophiala_dermatitidis_CBS748.88,SRR9016983.26341741,97.03,101,3,0,600,700,300,200,6e-39,171
Exophiala_dermatitidis_CBS748.88,SRR9016983.26341741,98.90,91,1,0,588,678,62,152,1e-36,163
Exophiala_dermatitidis_CBS748.88,SRR9016983.29778920,96.00,75,3,0,630,704,238,164,2e-24,122
Exophiala_dermatitidis_CBS748.88,SRR9016983.29778920,95.95,74,3,0,631,704,1,74,6e-24,121
Exophiala_dermatitidis_CBS748.88,SRR9016983.26606482,83.97,131,14,5,1278,1404,175,302,2e-23,119
Exophiala_dermatitidis_CBS748.88,SRR9016983.22820106,81.17,154,24,4,1218,1369,1,151,2e-23,119
Exophiala_dermatitidis_CBS748.88,SRR9016983.27368760,88.76,89,10,0,1315,1403,89,1,1e-20,110
Exophiala_dermatitidis_CBS748.88,SRR9016983.27368760,88.76,89,10,0,1315,1403,172,260,1e-20,110
Exophiala_dermatitidis_CBS748.88,SRR9016983.42430633,87.50,88,10,1,1218,1305,1,87,8e-18,100
Exophiala_dermatitidis_CBS748.88,SRR9016983.42430633,87.50,88,10,1,1218,1305,270,184,8e-18,100
Exophiala_dermatitidis_CBS748.88,SRR9016983.42426975,87.50,88,10,1,1218,1305,1,87,8e-18,100
Exophiala_dermatitidis_CBS748.88,SRR9016983.42426975,87.50,88,10,1,1218,1305,270,184,8e-18,100
Exophiala_dermatitidis_CBS748.88,SRR9016983.55249,87.50,88,10,1,1218,1305,1,87,8e-18,100
Exophiala_dermatitidis_CBS748.88,SRR9016983.55249,87.50,88,10,1,1218,1305,270,184,8e-18,100
Exophiala_dermatitidis_CBS748.88,SRR9016983.20358550,94.92,59,3,0,956,1014,61,3,1e-15,93.5
Exophiala_dermatitidis_CBS748.88,SRR9016983.20358550,94.92,59,3,0,956,1014,152,210,1e-15,93.5
Exophiala_salmonis_CBS157.67_T,SRR9016983.37475540,97.73,88,2,0,686,773,62,149,1e-33,152
Exophiala_salmonis_CBS157.67_T,SRR9016983.37475540,97.73,88,2,0,686,773,289,202,1e-33,152
Exophiala_salmonis_CBS157.67_T,SRR9016983.26341741,97.73,88,2,0,686,773,62,149,1e-33,152
Exophiala_salmonis_CBS157.67_T,SRR9016983.26341741,100.00,76,0,0,698,773,300,225,2e-30,141
Exophiala_salmonis_CBS157.67_T,SRR9016983.5268795,97.73,88,2,0,686,773,62,149,1e-33,152
Exophiala_salmonis_CBS157.67_T,SRR9016983.5268795,97.73,88,2,0,686,773,289,202,1e-33,152
Exophiala_salmonis_CBS157.67_T,SRR9016983.10317309,97.59,83,2,0,686,768,220,302,7e-31,143
Exophiala_salmonis_CBS157.67_T,SRR9016983.19301472,95.74,47,2,0,686,732,106,152,7e-11,76.8
Exophiala_salmonis_CBS157.67_T,SRR9016983.29778920,95.65,46,2,0,728,773,238,193,2e-10,75.0
Exophiala_salmonis_CBS157.67_T,SRR9016983.29778920,95.56,45,2,0,729,773,1,45,9e-10,73.1
Exophiala_cancerae_CBS120420_T,SRR9016983.37475540,95.83,48,2,0,577,624,62,109,2e-11,78.7
Exophiala_cancerae_CBS120420_T,SRR9016983.37475540,95.83,48,2,0,577,624,289,242,2e-11,78.7
Exophiala_cancerae_CBS120420_T,SRR9016983.26341741,95.83,48,2,0,577,624,62,109,2e-11,78.7
Exophiala_cancerae_CBS120420_T,SRR9016983.26341741,100.00,36,0,0,589,624,300,265,3e-08,67.6
Exophiala_cancerae_CBS120420_T,SRR9016983.10317309,95.83,48,2,0,577,624,220,267,2e-11,78.7
Exophiala_cancerae_CBS120420_T,SRR9016983.5268795,95.83,48,2,0,577,624,62,109,2e-11,78.7
Exophiala_cancerae_CBS120420_T,SRR9016983.5268795,95.83,48,2,0,577,624,289,242,2e-11,78.7
Exophiala_cancerae_CBS120420_T,SRR9016983.19301472,95.74,47,2,0,577,623,106,152,5e-11,76.8
Rhinocladiella_aquaspersa_CBS313.73_T,SRR9016983.37475540,95.00,100,3,2,553,650,296,197,7e-35,156
Rhinocladiella_aquaspersa_CBS313.73_T,SRR9016983.37475540,94.85,97,3,2,553,647,55,151,3e-33,150
Rhinocladiella_aquaspersa_CBS313.73_T,SRR9016983.5268795,95.00,100,3,2,553,650,296,197,7e-35,156
Rhinocladiella_aquaspersa_CBS313.73_T,SRR9016983.5268795,94.85,97,3,2,553,647,55,151,3e-33,150
Rhinocladiella_aquaspersa_CBS313.73_T,SRR9016983.26341741,94.90,98,3,2,553,648,55,152,9e-34,152
Rhinocladiella_aquaspersa_CBS313.73_T,SRR9016983.26341741,100.00,81,0,0,570,650,300,220,3e-33,150
Rhinocladiella_aquaspersa_CBS313.73_T,SRR9016983.10317309,94.44,90,3,2,553,640,213,302,3e-29,137
Rhinocladiella_aquaspersa_CBS313.73_T,SRR9016983.29778920,96.08,51,2,0,600,650,238,188,3e-13,84.2
Rhinocladiella_aquaspersa_CBS313.73_T,SRR9016983.29778920,96.00,50,2,0,601,650,1,50,1e-12,82.4
Rhinocladiella_aquaspersa_CBS313.73_T,SRR9016983.19301472,90.74,54,3,2,553,604,99,152,3e-09,71.3
Capronia_dactylotricha_DAOM208471_T,SRR9016983.37475540,97.73,88,2,0,571,658,62,149,9e-34,152
Capronia_dactylotricha_DAOM208471_T,SRR9016983.37475540,97.73,88,2,0,571,658,289,202,9e-34,152
Capronia_dactylotricha_DAOM208471_T,SRR9016983.26341741,97.73,88,2,0,571,658,62,149,9e-34,152
Capronia_dactylotricha_DAOM208471_T,SRR9016983.26341741,100.00,76,0,0,583,658,300,225,2e-30,141
Capronia_dactylotricha_DAOM208471_T,SRR9016983.5268795,97.73,88,2,0,571,658,62,149,9e-34,152
Capronia_dactylotricha_DAOM208471_T,SRR9016983.5268795,97.73,88,2,0,571,658,289,202,9e-34,152
Capronia_dactylotricha_DAOM208471_T,SRR9016983.10317309,97.59,83,2,0,571,653,220,302,6e-31,143
Capronia_dactylotricha_DAOM208471_T,SRR9016983.19301472,95.74,47,2,0,571,617,106,152,6e-11,76.8
Capronia_dactylotricha_DAOM208471_T,SRR9016983.29778920,95.65,46,2,0,613,658,238,193,2e-10,75.0
Capronia_dactylotricha_DAOM208471_T,SRR9016983.29778920,95.56,45,2,0,614,658,1,45,7e-10,73.1
Capronia_kleinmondensis_CBS122671_T,SRR9016983.37475540,97.73,88,2,0,577,664,62,149,9e-34,152
Capronia_kleinmondensis_CBS122671_T,SRR9016983.37475540,97.73,88,2,0,577,664,289,202,9e-34,152
Capronia_kleinmondensis_CBS122671_T,SRR9016983.26341741,97.73,88,2,0,577,664,62,149,9e-34,152
Capronia_kleinmondensis_CBS122671_T,SRR9016983.26341741,100.00,76,0,0,589,664,300,225,2e-30,141
Capronia_kleinmondensis_CBS122671_T,SRR9016983.5268795,97.73,88,2,0,577,664,62,149,9e-34,152
Capronia_kleinmondensis_CBS122671_T,SRR9016983.5268795,97.73,88,2,0,577,664,289,202,9e-34,152
Capronia_kleinmondensis_CBS122671_T,SRR9016983.10317309,97.59,83,2,0,577,659,220,302,6e-31,143
Capronia_kleinmondensis_CBS122671_T,SRR9016983.19301472,95.74,47,2,0,577,623,106,152,6e-11,76.8
Capronia_kleinmondensis_CBS122671_T,SRR9016983.29778920,95.65,46,2,0,619,664,238,193,2e-10,75.0
Capronia_kleinmondensis_CBS122671_T,SRR9016983.29778920,95.56,45,2,0,620,664,1,45,8e-10,73.1
Capronia_mansonii_CBS101.67_T,SRR9016983.37475540,98.86,88,1,0,581,668,62,149,2e-35,158
Capronia_mansonii_CBS101.67_T,SRR9016983.37475540,98.86,88,1,0,581,668,289,202,2e-35,158
Capronia_mansonii_CBS101.67_T,SRR9016983.26341741,98.86,88,1,0,581,668,62,149,2e-35,158
Capronia_mansonii_CBS101.67_T,SRR9016983.26341741,100.00,76,0,0,593,668,300,225,2e-30,141
Capronia_mansonii_CBS101.67_T,SRR9016983.5268795,98.86,88,1,0,581,668,62,149,2e-35,158
Capronia_mansonii_CBS101.67_T,SRR9016983.5268795,98.86,88,1,0,581,668,289,202,2e-35,158
Capronia_mansonii_CBS101.67_T,SRR9016983.10317309,98.80,83,1,0,581,663,220,302,1e-32,148
Capronia_mansonii_CBS101.67_T,SRR9016983.19301472,97.87,47,1,0,581,627,106,152,1e-12,82.4
Capronia_mansonii_CBS101.67_T,SRR9016983.29778920,95.65,46,2,0,623,668,238,193,2e-10,75.0
Capronia_mansonii_CBS101.67_T,SRR9016983.29778920,95.56,45,2,0,624,668,1,45,8e-10,73.1
Capronia_munkii_DAOM216390_T,SRR9016983.37475540,98.86,88,1,0,581,668,62,149,2e-35,158
Capronia_munkii_DAOM216390_T,SRR9016983.37475540,98.86,88,1,0,581,668,289,202,2e-35,158
Capronia_munkii_DAOM216390_T,SRR9016983.26341741,98.86,88,1,0,581,668,62,149,2e-35,158
Capronia_munkii_DAOM216390_T,SRR9016983.26341741,100.00,76,0,0,593,668,300,225,2e-30,141
Capronia_munkii_DAOM216390_T,SRR9016983.5268795,98.86,88,1,0,581,668,62,149,2e-35,158
Capronia_munkii_DAOM216390_T,SRR9016983.5268795,98.86,88,1,0,581,668,289,202,2e-35,158
Capronia_munkii_DAOM216390_T,SRR9016983.10317309,98.80,83,1,0,581,663,220,302,1e-32,148
Capronia_munkii_DAOM216390_T,SRR9016983.19301472,97.87,47,1,0,581,627,106,152,1e-12,82.4
Capronia_munkii_DAOM216390_T,SRR9016983.29778920,95.65,46,2,0,623,668,238,193,2e-10,75.0
Capronia_munkii_DAOM216390_T,SRR9016983.29778920,95.56,45,2,0,624,668,1,45,8e-10,73.1
Capronia_coronata_ATCC56201_T,SRR9016983.37475540,98.86,88,1,0,552,639,62,149,2e-35,158
Capronia_coronata_ATCC56201_T,SRR9016983.37475540,98.86,88,1,0,552,639,289,202,2e-35,158
Capronia_coronata_ATCC56201_T,SRR9016983.26341741,98.86,88,1,0,552,639,62,149,2e-35,158
Capronia_coronata_ATCC56201_T,SRR9016983.26341741,100.00,76,0,0,564,639,300,225,2e-30,141
Capronia_coronata_ATCC56201_T,SRR9016983.5268795,98.86,88,1,0,552,639,62,149,2e-35,158
Capronia_coronata_ATCC56201_T,SRR9016983.5268795,98.86,88,1,0,552,639,289,202,2e-35,158
Capronia_coronata_ATCC56201_T,SRR9016983.10317309,98.80,83,1,0,552,634,220,302,1e-32,148
Capronia_coronata_ATCC56201_T,SRR9016983.19301472,97.87,47,1,0,552,598,106,152,1e-12,82.4
Capronia_coronata_ATCC56201_T,SRR9016983.29778920,95.65,46,2,0,594,639,238,193,2e-10,75.0
Capronia_coronata_ATCC56201_T,SRR9016983.29778920,95.56,45,2,0,595,639,1,45,7e-10,73.1
Capronia_acutiseta_ATCC56428_T,SRR9016983.37475540,96.59,88,3,0,551,638,62,149,4e-32,147
Capronia_acutiseta_ATCC56428_T,SRR9016983.37475540,96.59,88,3,0,551,638,289,202,4e-32,147
Capronia_acutiseta_ATCC56428_T,SRR9016983.26341741,96.59,88,3,0,551,638,62,149,4e-32,147
Capronia_acutiseta_ATCC56428_T,SRR9016983.26341741,98.68,76,1,0,563,638,300,225,9e-29,135
Capronia_acutiseta_ATCC56428_T,SRR9016983.5268795,96.59,88,3,0,551,638,62,149,4e-32,147
Capronia_acutiseta_ATCC56428_T,SRR9016983.5268795,96.59,88,3,0,551,638,289,202,4e-32,147
Capronia_acutiseta_ATCC56428_T,SRR9016983.10317309,96.39,83,3,0,551,633,220,302,3e-29,137
Capronia_acutiseta_ATCC56428_T,SRR9016983.19301472,95.74,47,2,0,551,597,106,152,6e-11,76.8
Fonsecaea_pedrosoi_CBS271.37_T,SRR9016983.37475540,95.83,48,2,0,598,645,62,109,2e-11,78.7
Fonsecaea_pedrosoi_CBS271.37_T,SRR9016983.37475540,95.83,48,2,0,598,645,289,242,2e-11,78.7
Fonsecaea_pedrosoi_CBS271.37_T,SRR9016983.26341741,95.83,48,2,0,598,645,62,109,2e-11,78.7
Fonsecaea_pedrosoi_CBS271.37_T,SRR9016983.26341741,97.22,36,1,0,610,645,300,265,2e-06,62.1
Fonsecaea_pedrosoi_CBS271.37_T,SRR9016983.10317309,95.83,48,2,0,598,645,220,267,2e-11,78.7
Fonsecaea_pedrosoi_CBS271.37_T,SRR9016983.5268795,95.83,48,2,0,598,645,62,109,2e-11,78.7
Fonsecaea_pedrosoi_CBS271.37_T,SRR9016983.5268795,95.83,48,2,0,598,645,289,242,2e-11,78.7
Fonsecaea_pedrosoi_CBS271.37_T,SRR9016983.19301472,95.74,47,2,0,598,644,106,152,6e-11,76.8
Cladophialophora_australiensis_CBS112793,SRR9016983.40889004,93.24,148,10,0,822,969,1,148,2e-53,219
Cladophialophora_australiensis_CBS112793,SRR9016983.40889004,91.95,87,7,0,898,984,302,216,2e-24,122
Cladophialophora_australiensis_CBS112793,SRR9016983.19301472,93.57,140,9,0,808,947,292,153,1e-50,209
Cladophialophora_australiensis_CBS112793,SRR9016983.19301472,95.74,47,2,0,559,605,106,152,1e-10,76.8
Cladophialophora_australiensis_CBS112793,SRR9016983.10317309,93.75,128,8,0,808,935,128,1,1e-45,193
Cladophialophora_australiensis_CBS112793,SRR9016983.10317309,97.59,83,2,0,559,641,220,302,1e-30,143
Cladophialophora_australiensis_CBS112793,SRR9016983.37475540,95.58,113,5,0,559,671,289,177,3e-42,182
Cladophialophora_australiensis_CBS112793,SRR9016983.37475540,97.78,90,2,0,559,648,62,151,2e-34,156
Cladophialophora_australiensis_CBS112793,SRR9016983.5268795,95.58,113,5,0,559,671,289,177,3e-42,182
Cladophialophora_australiensis_CBS112793,SRR9016983.5268795,97.78,90,2,0,559,648,62,151,2e-34,156
Cladophialophora_australiensis_CBS112793,SRR9016983.22654643,92.13,127,10,0,858,984,152,278,1e-41,180
Cladophialophora_australiensis_CBS112793,SRR9016983.22654643,80.67,150,21,6,1217,1362,148,3,1e-20,110
Cladophialophora_australiensis_CBS112793,SRR9016983.26341741,96.04,101,4,0,571,671,300,200,3e-37,165
Cladophialophora_australiensis_CBS112793,SRR9016983.26341741,97.80,91,2,0,559,649,62,152,5e-35,158
Cladophialophora_australiensis_CBS112793,SRR9016983.29778920,96.00,75,3,0,601,675,238,164,2e-24,122
Cladophialophora_australiensis_CBS112793,SRR9016983.29778920,95.95,74,3,0,602,675,1,74,6e-24,121
Cladophialophora_australiensis_CBS112793,SRR9016983.22820106,81.17,154,24,4,1185,1336,1,151,2e-23,119
Cladophialophora_australiensis_CBS112793,SRR9016983.26606482,82.44,131,16,5,1245,1371,175,302,5e-20,108
Cladophialophora_australiensis_CBS112793,SRR9016983.42430633,88.64,88,9,1,1185,1272,1,87,2e-19,106
Cladophialophora_australiensis_CBS112793,SRR9016983.42430633,88.64,88,9,1,1185,1272,270,184,2e-19,106
Cladophialophora_australiensis_CBS112793,SRR9016983.42426975,88.64,88,9,1,1185,1272,1,87,2e-19,106
Cladophialophora_australiensis_CBS112793,SRR9016983.42426975,88.64,88,9,1,1185,1272,270,184,2e-19,106
Cladophialophora_australiensis_CBS112793,SRR9016983.55249,88.64,88,9,1,1185,1272,1,87,2e-19,106
Cladophialophora_australiensis_CBS112793,SRR9016983.55249,88.64,88,9,1,1185,1272,270,184,2e-19,106
Cladophialophora_australiensis_CBS112793,SRR9016983.27368760,87.64,89,11,0,1282,1370,89,1,6e-19,104
Cladophialophora_australiensis_CBS112793,SRR9016983.27368760,87.64,89,11,0,1282,1370,172,260,6e-19,104
Cladophialophora_potulentorum_CBS112222,SRR9016983.40889004,93.24,148,10,0,824,971,1,148,2e-53,219
Cladophialophora_potulentorum_CBS112222,SRR9016983.40889004,93.10,87,6,0,900,986,302,216,4e-26,128
Cladophialophora_potulentorum_CBS112222,SRR9016983.19301472,93.57,140,9,0,810,949,292,153,1e-50,209
Cladophialophora_potulentorum_CBS112222,SRR9016983.19301472,95.74,47,2,0,561,607,106,152,1e-10,76.8
Cladophialophora_potulentorum_CBS112222,SRR9016983.10317309,93.75,128,8,0,810,937,128,1,1e-45,193
Cladophialophora_potulentorum_CBS112222,SRR9016983.10317309,97.59,83,2,0,561,643,220,302,1e-30,143
Cladophialophora_potulentorum_CBS112222,SRR9016983.22654643,92.91,127,9,0,860,986,152,278,2e-43,185
Cladophialophora_potulentorum_CBS112222,SRR9016983.22654643,81.58,152,20,6,1217,1364,150,3,2e-23,119
Cladophialophora_potulentorum_CBS112222,SRR9016983.37475540,95.58,113,5,0,561,673,289,177,3e-42,182
Cladophialophora_potulentorum_CBS112222,SRR9016983.37475540,97.78,90,2,0,561,650,62,151,2e-34,156
Cladophialophora_potulentorum_CBS112222,SRR9016983.5268795,95.58,113,5,0,561,673,289,177,3e-42,182
Cladophialophora_potulentorum_CBS112222,SRR9016983.5268795,97.78,90,2,0,561,650,62,151,2e-34,156
Cladophialophora_potulentorum_CBS112222,SRR9016983.26341741,96.04,101,4,0,573,673,300,200,3e-37,165
Cladophialophora_potulentorum_CBS112222,SRR9016983.26341741,97.80,91,2,0,561,651,62,152,5e-35,158
Cladophialophora_potulentorum_CBS112222,SRR9016983.29778920,96.00,75,3,0,603,677,238,164,2e-24,122
Cladophialophora_potulentorum_CBS112222,SRR9016983.29778920,95.95,74,3,0,604,677,1,74,6e-24,121
Cladophialophora_potulentorum_CBS112222,SRR9016983.26606482,83.21,131,15,5,1247,1373,175,302,1e-21,113
Cladophialophora_potulentorum_CBS112222,SRR9016983.22820106,79.87,154,26,4,1187,1338,1,151,5e-20,108
Cladophialophora_potulentorum_CBS112222,SRR9016983.27368760,87.64,89,11,0,1284,1372,89,1,6e-19,104
Cladophialophora_potulentorum_CBS112222,SRR9016983.27368760,87.64,89,11,0,1284,1372,172,260,6e-19,104
Cladophialophora_potulentorum_CBS112222,SRR9016983.42430633,86.36,88,11,1,1187,1274,1,87,4e-16,95.3
Cladophialophora_potulentorum_CBS112222,SRR9016983.42430633,86.36,88,11,1,1187,1274,270,184,4e-16,95.3
Cladophialophora_potulentorum_CBS112222,SRR9016983.42426975,86.36,88,11,1,1187,1274,1,87,4e-16,95.3
Cladophialophora_potulentorum_CBS112222,SRR9016983.42426975,86.36,88,11,1,1187,1274,270,184,4e-16,95.3
Cladophialophora_potulentorum_CBS112222,SRR9016983.55249,86.36,88,11,1,1187,1274,1,87,4e-16,95.3
Cladophialophora_potulentorum_CBS112222,SRR9016983.55249,86.36,88,11,1,1187,1274,270,184,4e-16,95.3
Phialophora_americana_CBS400.67,SRR9016983.19301472,92.86,140,10,0,802,941,292,153,6e-49,204
Phialophora_americana_CBS400.67,SRR9016983.10317309,92.97,128,9,0,802,929,128,1,6e-44,187
Phialophora_americana_CBS400.67,SRR9016983.10317309,96.39,83,3,0,553,635,220,302,6e-29,137
Phialophora_americana_CBS400.67,SRR9016983.37475540,94.69,113,6,0,553,665,289,177,1e-40,176
Phialophora_americana_CBS400.67,SRR9016983.37475540,96.67,90,3,0,553,642,62,151,8e-33,150
Phialophora_americana_CBS400.67,SRR9016983.5268795,94.69,113,6,0,553,665,289,177,1e-40,176
Phialophora_americana_CBS400.67,SRR9016983.5268795,96.67,90,3,0,553,642,62,151,8e-33,150
Phialophora_americana_CBS400.67,SRR9016983.26341741,95.05,101,5,0,565,665,300,200,1e-35,159
Phialophora_americana_CBS400.67,SRR9016983.26341741,96.70,91,3,0,553,643,62,152,2e-33,152
Phialophora_americana_CBS400.67,SRR9016983.22654643,82.58,155,19,6,1206,1356,153,3,1e-26,130
Phialophora_americana_CBS400.67,SRR9016983.26606482,83.97,131,14,5,1239,1365,175,302,2e-23,119
Phialophora_americana_CBS400.67,SRR9016983.22820106,80.52,154,25,4,1179,1330,1,151,1e-21,113
Phialophora_americana_CBS400.67,SRR9016983.27368760,88.76,89,10,0,1276,1364,89,1,1e-20,110
Phialophora_americana_CBS400.67,SRR9016983.27368760,88.76,89,10,0,1276,1364,172,260,1e-20,110
Phialophora_americana_CBS400.67,SRR9016983.42430633,87.50,88,10,1,1179,1266,1,87,8e-18,100
Phialophora_americana_CBS400.67,SRR9016983.42430633,87.50,88,10,1,1179,1266,270,184,8e-18,100
Phialophora_americana_CBS400.67,SRR9016983.42426975,87.50,88,10,1,1179,1266,1,87,8e-18,100
Phialophora_americana_CBS400.67,SRR9016983.42426975,87.50,88,10,1,1179,1266,270,184,8e-18,100
Phialophora_americana_CBS400.67,SRR9016983.55249,87.50,88,10,1,1179,1266,1,87,8e-18,100
Phialophora_americana_CBS400.67,SRR9016983.55249,87.50,88,10,1,1179,1266,270,184,8e-18,100
Cyphellophora_laciniata_CBS190.61_T,SRR9016983.37475540,97.73,88,2,0,648,735,62,149,1e-33,152
Cyphellophora_laciniata_CBS190.61_T,SRR9016983.37475540,97.73,88,2,0,648,735,289,202,1e-33,152
Cyphellophora_laciniata_CBS190.61_T,SRR9016983.26341741,97.73,88,2,0,648,735,62,149,1e-33,152
Cyphellophora_laciniata_CBS190.61_T,SRR9016983.26341741,98.68,76,1,0,660,735,300,225,1e-28,135
Cyphellophora_laciniata_CBS190.61_T,SRR9016983.5268795,97.73,88,2,0,648,735,62,149,1e-33,152
Cyphellophora_laciniata_CBS190.61_T,SRR9016983.5268795,97.73,88,2,0,648,735,289,202,1e-33,152
Cyphellophora_laciniata_CBS190.61_T,SRR9016983.10317309,97.59,83,2,0,648,730,220,302,6e-31,143
Cyphellophora_laciniata_CBS190.61_T,SRR9016983.19301472,97.87,47,1,0,648,694,106,152,1e-12,82.4
Cyphellophora_laciniata_CBS190.61_T,SRR9016983.29778920,97.83,46,1,0,690,735,238,193,5e-12,80.5
Cyphellophora_laciniata_CBS190.61_T,SRR9016983.29778920,97.78,45,1,0,691,735,1,45,2e-11,78.7
Cladophialophora_modesta_CBS985.96_T,SRR9016983.37475540,97.73,88,2,0,532,619,62,149,9e-34,152
Cladophialophora_modesta_CBS985.96_T,SRR9016983.37475540,97.73,88,2,0,532,619,289,202,9e-34,152
Cladophialophora_modesta_CBS985.96_T,SRR9016983.26341741,97.73,88,2,0,532,619,62,149,9e-34,152
Cladophialophora_modesta_CBS985.96_T,SRR9016983.26341741,97.44,78,2,0,542,619,302,225,3e-28,134
Cladophialophora_modesta_CBS985.96_T,SRR9016983.5268795,97.73,88,2,0,532,619,62,149,9e-34,152
Cladophialophora_modesta_CBS985.96_T,SRR9016983.5268795,97.73,88,2,0,532,619,289,202,9e-34,152
Cladophialophora_modesta_CBS985.96_T,SRR9016983.10317309,97.59,83,2,0,532,614,220,302,5e-31,143
Cladophialophora_modesta_CBS985.96_T,SRR9016983.19301472,100.00,47,0,0,532,578,106,152,2e-14,87.9
Cladophialophora_modesta_CBS985.96_T,SRR9016983.29778920,95.65,46,2,0,574,619,238,193,2e-10,75.0
