Exophiala_pisciphila_CBS537.73_T,ERR3892735.30226,90.70,43,1,3,579,621,1976,2015,3e-06,54.7
Exophiala_brunnea_CBS,ERR3892735.1635,97.30,37,0,1,1,37,6292,6257,2e-08,62.1
Exophiala_mesophila_CBS402.95_T,ERR3892735.30226,90.70,43,1,3,576,618,1976,2015,3e-06,54.7
Exophiala_castellanii_CBS158.58_T,ERR3892735.30226,90.70,43,1,3,575,617,1976,2015,3e-06,54.7
Exophiala_dermatitidis_CBS748.88,ERR3892735.11077,75.16,310,38,31,1212,1501,1159,1449,1e-22,110
Exophiala_dermatitidis_CBS748.88,ERR3892735.11980,79.88,164,19,12,1351,1504,1798,1639,5e-22,108
Exophiala_dermatitidis_CBS748.88,ERR3892735.4951,87.23,94,8,3,597,689,3452,3542,6e-21,104
Exophiala_dermatitidis_CBS748.88,ERR3892735.30226,90.70,43,1,3,601,643,1976,2015,6e-06,54.7
Exophiala_salmonis_CBS157.67_T,ERR3892735.30226,90.70,43,1,3,699,741,1976,2015,3e-06,54.7
Exophiala_tremulae_CBS129355,ERR3892735.1635,97.30,37,0,1,1,37,6292,6257,2e-08,62.1
Rhinocladiella_atrovirens_CBS264.49,ERR3892735.1635,95.74,47,0,2,1,46,6297,6252,2e-12,75.0
Rhinocladiella_aquaspersa_CBS313.73_T,ERR3892735.4951,87.80,82,6,4,569,649,3454,3532,6e-18,93.5
Rhinocladiella_aquaspersa_CBS313.73_T,ERR3892735.30226,90.70,43,1,3,571,613,1976,2015,3e-06,54.7
Capronia_dactylotricha_DAOM208471_T,ERR3892735.30226,90.70,43,1,3,584,626,1976,2015,3e-06,54.7
Capronia_kleinmondensis_CBS122671_T,ERR3892735.30226,90.70,43,1,3,590,632,1976,2015,3e-06,54.7
Capronia_mansonii_CBS101.67_T,ERR3892735.30226,90.70,43,1,3,594,636,1976,2015,3e-06,54.7
Capronia_munkii_DAOM216390_T,ERR3892735.30226,90.70,43,1,3,594,636,1976,2015,3e-06,54.7
Capronia_coronata_ATCC56201_T,ERR3892735.30226,90.70,43,1,3,565,607,1976,2015,3e-06,54.7
Veronaea_japonica_CBS776.83_T,ERR3892735.1635,97.22,36,0,1,1,36,6291,6257,5e-08,60.2
Capronia_acutiseta_ATCC56428_T,ERR3892735.30226,90.70,43,1,3,564,606,1976,2015,3e-06,54.7
Cladophialophora_australiensis_CBS112793,ERR3892735.11077,75.32,308,41,29,1179,1468,1159,1449,3e-24,115
Cladophialophora_australiensis_CBS112793,ERR3892735.11980,79.88,164,19,12,1318,1471,1798,1639,5e-22,108
Cladophialophora_australiensis_CBS112793,ERR3892735.4951,86.17,94,9,4,568,660,3452,3542,3e-19,99.0
Cladophialophora_australiensis_CBS112793,ERR3892735.30226,100.00,29,0,0,586,614,1987,2015,6e-06,54.7
Cladophialophora_potulentorum_CBS112222,ERR3892735.11980,80.98,184,21,12,1320,1493,1798,1619,8e-30,134
Cladophialophora_potulentorum_CBS112222,ERR3892735.11077,75.08,325,44,31,1181,1487,1159,1464,8e-25,117
Cladophialophora_potulentorum_CBS112222,ERR3892735.4951,86.17,94,9,4,570,662,3452,3542,3e-19,99.0
Cladophialophora_potulentorum_CBS112222,ERR3892735.30226,100.00,29,0,0,588,616,1987,2015,6e-06,54.7
Phialophora_americana_CBS400.67,ERR3892735.11077,74.31,288,43,25,1173,1444,1159,1431,1e-17,93.5
Phialophora_americana_CBS400.67,ERR3892735.4951,85.11,94,10,4,562,654,3452,3542,1e-17,93.5
Phialophora_americana_CBS400.67,ERR3892735.11980,97.22,36,0,1,1173,1207,1956,1921,1e-07,60.2
Cyphellophora_laciniata_CBS190.61_T,ERR3892735.1635,91.67,60,3,2,44,102,6310,6252,1e-14,82.4
Cyphellophora_laciniata_CBS190.61_T,ERR3892735.1634,91.07,56,4,1,43,98,2104,2158,2e-12,75.0
Cyphellophora_laciniata_CBS190.61_T,ERR3892735.30226,82.19,73,5,8,661,730,1976,2043,9e-07,56.5
Cladophialophora_modesta_CBS985.96_T,ERR3892735.30226,90.70,43,1,3,545,587,1976,2015,3e-06,54.7
