Exophiala_nigra_CBS535.94_T,ERR1877915.619451,93.13,131,8,1,203,333,360,489,7e-47,191
Exophiala_spinifera_CBS899.68_T,ERR1877915.619451,92.37,131,9,1,200,330,360,489,3e-45,185
Exophiala_exophialae_CBS668.76_T,ERR1877915.619451,92.37,131,9,1,201,331,360,489,3e-45,185
Exophiala_polymorpha_CBS138920_T,ERR1877915.619451,92.37,131,9,1,303,433,360,489,4e-45,185
Exophiala_polymorpha_CBS138920_T,ERR1877915.535701,98.08,52,1,0,643,694,406,457,9e-17,91.6
Exophiala_polymorpha_CBS138920_T,ERR1877915.535701,94.00,50,1,2,646,694,261,213,9e-12,75.0
Exophiala_oligosperma_CBS725.88_T,ERR1877915.619451,92.37,131,9,1,213,343,360,489,3e-45,185
Exophiala_jeanselmei_CBS507.90_T,ERR1877915.619451,92.37,131,9,1,205,335,360,489,3e-45,185
Exophiala_jeanselmei_CBS507.90_T,ERR1877915.653512,96.83,63,2,0,542,604,226,164,7e-22,108
Exophiala_jeanselmei_CBS507.90_T,ERR1877915.535701,98.33,60,1,0,545,604,406,465,3e-21,106
Exophiala_jeanselmei_CBS507.90_T,ERR1877915.535701,94.83,58,1,2,548,604,261,205,3e-16,89.8
Exophiala_bergeri_CBS353.52,ERR1877915.619451,93.13,131,8,1,166,296,360,489,6e-47,191
Exophiala_moniliae_CBS520.76_T,ERR1877915.619451,93.13,131,8,1,203,333,360,489,7e-47,191
Exophiala_pisciphila_CBS537.73_T,ERR1877915.619451,93.13,131,8,1,206,336,360,489,8e-47,191
Exophiala_pisciphila_CBS537.73_T,ERR1877915.535701,97.98,99,2,0,550,648,402,500,3e-41,172
Exophiala_pisciphila_CBS537.73_T,ERR1877915.535701,97.96,98,0,2,557,653,261,165,4e-40,169
Exophiala_pisciphila_CBS537.73_T,ERR1877915.653512,95.10,102,5,0,552,653,225,124,2e-38,163
Exophiala_xenobiotica_CBS117642,ERR1877915.619451,93.13,131,8,1,198,328,360,489,6e-47,191
Exophiala_brunnea_CBS,ERR1877915.619451,92.37,131,9,1,234,364,360,489,4e-45,185
Exophiala_brunnea_CBS,ERR1877915.535701,97.96,49,1,0,585,633,406,454,1e-15,87.9
Exophiala_brunnea_CBS,ERR1877915.535701,93.62,47,1,2,588,633,261,216,1e-10,71.3
Exophiala_nishimurae_CBS101538_T,ERR1877915.619451,92.37,131,9,1,212,342,360,489,3e-45,185
Exophiala_mesophila_CBS402.95_T,ERR1877915.619451,92.37,131,9,1,196,326,360,489,4e-45,185
Exophiala_mesophila_CBS402.95_T,ERR1877915.653512,96.04,101,4,0,550,650,224,124,1e-39,167
Exophiala_mesophila_CBS402.95_T,ERR1877915.535701,97.89,95,2,0,551,645,406,500,5e-39,165
Exophiala_mesophila_CBS402.95_T,ERR1877915.535701,96.94,98,1,2,554,650,261,165,2e-38,163
Exophiala_castellanii_CBS158.58_T,ERR1877915.619451,92.37,131,9,1,194,324,360,489,4e-45,185
Exophiala_castellanii_CBS158.58_T,ERR1877915.653512,96.04,101,4,0,549,649,224,124,1e-39,167
Exophiala_castellanii_CBS158.58_T,ERR1877915.535701,97.89,95,2,0,550,644,406,500,5e-39,165
Exophiala_castellanii_CBS158.58_T,ERR1877915.535701,96.94,98,1,2,553,649,261,165,2e-38,163
Exophiala_lecanii-corni_CBS123.33_T,ERR1877915.619451,92.37,131,9,1,217,347,360,489,3e-45,185
Exophiala_dermatitidis_CBS748.88,ERR1877915.825918,90.76,238,20,2,1250,1487,236,1,3e-84,316
Exophiala_dermatitidis_CBS748.88,ERR1877915.825918,73.26,258,59,9,969,1224,252,501,9e-15,86.1
Exophiala_dermatitidis_CBS748.88,ERR1877915.237543,89.56,249,21,5,1255,1502,1,245,1e-82,311
Exophiala_dermatitidis_CBS748.88,ERR1877915.237543,97.03,101,3,0,1402,1502,500,400,2e-40,171
Exophiala_dermatitidis_CBS748.88,ERR1877915.535701,89.45,237,19,6,579,812,261,28,1e-77,294
Exophiala_dermatitidis_CBS748.88,ERR1877915.535701,97.89,95,2,0,576,670,406,500,1e-38,165
Exophiala_dermatitidis_CBS748.88,ERR1877915.653512,91.48,176,8,4,564,737,237,67,2e-60,237
Exophiala_dermatitidis_CBS748.88,ERR1877915.619451,93.13,131,7,2,210,339,360,489,2e-46,191
Exophiala_dermatitidis_CBS748.88,ERR1877915.775334,100.00,33,0,0,1472,1504,251,283,1e-07,62.1
Exophiala_dermatitidis_CBS748.88,ERR1877915.501294,100.00,29,0,0,1210,1238,29,1,3e-05,54.7
Exophiala_angulospora_CBS482.92_T,ERR1877915.619451,93.13,131,8,1,200,330,360,489,6e-47,191
Exophiala_opportunistica_CBS109811_T,ERR1877915.619451,93.13,131,8,1,199,329,360,489,7e-47,191
Exophiala_salmonis_CBS157.67_T,ERR1877915.619451,93.13,131,8,1,328,458,360,489,9e-47,191
Exophiala_salmonis_CBS157.67_T,ERR1877915.535701,97.98,99,2,0,670,768,402,500,3e-41,172
Exophiala_salmonis_CBS157.67_T,ERR1877915.535701,97.96,98,0,2,677,773,261,165,4e-40,169
Exophiala_salmonis_CBS157.67_T,ERR1877915.653512,95.10,102,5,0,672,773,225,124,2e-38,163
Exophiala_salmonis_CBS157.67_T,ERR1877915.546162,81.60,125,17,6,1,122,125,4,6e-19,99.0
Exophiala_salmonis_CBS157.67_T,ERR1877915.545690,92.11,38,3,0,1,38,289,252,1e-05,54.7
Exophiala_aquamarina_CBS119918_T,ERR1877915.619451,93.13,131,8,1,206,336,360,489,7e-47,191
Exophiala_cancerae_CBS120420_T,ERR1877915.619451,93.13,131,8,1,221,351,360,489,7e-47,191
Exophiala_cancerae_CBS120420_T,ERR1877915.535701,100.00,60,0,0,565,624,406,465,6e-23,111
Exophiala_cancerae_CBS120420_T,ERR1877915.535701,96.55,58,0,2,568,624,261,205,6e-18,95.3
Exophiala_cancerae_CBS120420_T,ERR1877915.653512,95.24,63,3,0,562,624,226,164,4e-20,102
Exophiala_tremulae_CBS129355,ERR1877915.619451,93.13,131,8,1,233,363,360,489,7e-47,191
Exophiala_tremulae_CBS129355,ERR1877915.535701,98.11,53,1,0,576,628,402,454,2e-17,93.5
Exophiala_tremulae_CBS129355,ERR1877915.535701,95.74,47,0,2,583,628,261,216,8e-12,75.0
Exophiala_equina_CBS116009,ERR1877915.619451,93.13,131,8,1,199,329,360,489,7e-47,191
Exophiala_alcalophila_CBS520.82_T,ERR1877915.619451,93.13,131,8,1,210,340,360,489,7e-47,191
Exophiala_crusticola_CBS119970_T,ERR1877915.619451,93.13,131,8,1,215,345,360,489,7e-47,191
Rhinocladiella_atrovirens_CBS264.49,ERR1877915.619451,90.28,144,12,2,229,371,347,489,1e-45,187
Rhinocladiella_atrovirens_CBS264.49,ERR1877915.535701,100.00,48,0,0,579,626,406,453,3e-16,89.8
Rhinocladiella_atrovirens_CBS264.49,ERR1877915.535701,95.65,46,0,2,582,626,261,217,3e-11,73.1
Rhinocladiella_basitona_CBS101460_T,ERR1877915.619451,92.37,131,9,1,200,330,360,489,3e-45,185
Rhinocladiella_phaeophora_CBS496.78_T,ERR1877915.619451,93.13,131,8,1,208,338,360,489,7e-47,191
Rhinocladiella_aquaspersa_CBS313.73_T,ERR1877915.619451,93.13,131,8,1,202,332,360,489,8e-47,191
Rhinocladiella_aquaspersa_CBS313.73_T,ERR1877915.535701,98.97,97,0,1,555,650,256,160,3e-41,172
Rhinocladiella_aquaspersa_CBS313.73_T,ERR1877915.535701,95.79,95,1,3,549,640,406,500,1e-34,150
Rhinocladiella_aquaspersa_CBS313.73_T,ERR1877915.653512,92.59,108,5,3,546,650,226,119,1e-35,154
Rhinocladiella_fasciculata_CBS132.86_T,ERR1877915.619451,92.03,138,10,1,211,348,353,489,2e-47,193
Rhinocladiella_anceps_CBS181.65_T,ERR1877915.619451,92.37,131,9,1,200,330,360,489,3e-45,185
Rhinocladiella_mackenziei_CBS367.92,ERR1877915.619451,93.13,131,8,1,189,319,360,489,7e-47,191
Rhinocladiella_mackenziei_CBS367.92,ERR1877915.535701,100.00,45,0,0,564,608,404,448,1e-14,84.2
Rhinocladiella_mackenziei_CBS367.92,ERR1877915.535701,95.12,41,0,2,569,608,261,222,2e-08,63.9
Veronaea_compacta_CBS268.75_T,ERR1877915.619451,92.37,131,9,1,222,352,360,489,3e-45,185
Capronia_pilosella_AFTOL-ID657,ERR1877915.619451,93.13,131,8,1,300,430,360,489,8e-47,191
Capronia_dactylotricha_DAOM208471_T,ERR1877915.619451,93.13,131,8,1,202,332,360,489,8e-47,191
Capronia_dactylotricha_DAOM208471_T,ERR1877915.535701,98.95,95,1,0,559,653,406,500,1e-40,171
Capronia_dactylotricha_DAOM208471_T,ERR1877915.535701,97.96,98,0,2,562,658,261,165,4e-40,169
Capronia_dactylotricha_DAOM208471_T,ERR1877915.653512,95.05,101,5,0,558,658,224,124,6e-38,161
Capronia_kleinmondensis_CBS122671_T,ERR1877915.619451,90.28,144,12,2,215,357,347,489,1e-45,187
Capronia_kleinmondensis_CBS122671_T,ERR1877915.535701,98.95,95,1,0,565,659,406,500,1e-40,171
Capronia_kleinmondensis_CBS122671_T,ERR1877915.535701,97.96,98,0,2,568,664,261,165,4e-40,169
Capronia_kleinmondensis_CBS122671_T,ERR1877915.653512,95.05,101,5,0,564,664,224,124,6e-38,161
Capronia_mansonii_CBS101.67_T,ERR1877915.619451,93.13,131,8,1,213,343,360,489,8e-47,191
Capronia_mansonii_CBS101.67_T,ERR1877915.653512,96.08,102,4,0,567,668,225,124,4e-40,169
Capronia_mansonii_CBS101.67_T,ERR1877915.535701,97.89,95,2,0,569,663,406,500,5e-39,165
Capronia_mansonii_CBS101.67_T,ERR1877915.535701,96.94,98,1,2,572,668,261,165,2e-38,163
Capronia_munkii_DAOM216390_T,ERR1877915.619451,93.13,131,8,1,213,343,360,489,8e-47,191
Capronia_munkii_DAOM216390_T,ERR1877915.653512,96.08,102,4,0,567,668,225,124,4e-40,169
Capronia_munkii_DAOM216390_T,ERR1877915.535701,96.97,99,3,0,565,663,402,500,1e-39,167
Capronia_munkii_DAOM216390_T,ERR1877915.535701,96.94,98,1,2,572,668,261,165,2e-38,163
Capronia_coronata_ATCC56201_T,ERR1877915.619451,93.13,131,8,1,201,331,360,489,8e-47,191
Capronia_coronata_ATCC56201_T,ERR1877915.653512,96.12,103,4,0,537,639,226,124,1e-40,171
Capronia_coronata_ATCC56201_T,ERR1877915.535701,97.89,95,2,0,540,634,406,500,5e-39,165
Capronia_coronata_ATCC56201_T,ERR1877915.535701,96.94,98,1,2,543,639,261,165,2e-38,163
Capronia_parasitica_CBS123.88,ERR1877915.619451,92.65,136,9,1,202,337,355,489,5e-48,195
Capronia_parasitica_CBS123.88,ERR1877915.535701,100.00,35,0,0,561,595,406,440,4e-09,65.8
Veronaea_japonica_CBS776.83_T,ERR1877915.619451,93.13,131,8,1,235,365,360,489,7e-47,191
Thysanorea_papuana_CBS212.96_T,ERR1877915.619451,93.13,131,8,1,209,339,360,489,7e-47,191
Capronia_acutiseta_ATCC56428_T,ERR1877915.535701,97.89,95,2,0,539,633,406,500,5e-39,165
Capronia_acutiseta_ATCC56428_T,ERR1877915.535701,96.94,98,1,2,542,638,261,165,2e-38,163
Capronia_acutiseta_ATCC56428_T,ERR1877915.653512,92.79,111,8,0,528,638,234,124,2e-38,163
Fonsecaea_brasiliensis_CBS119710_T,ERR1877915.619451,93.13,131,8,1,209,339,360,489,7e-47,191
Fonsecaea_pedrosoi_CBS271.37_T,ERR1877915.619451,93.13,131,8,1,237,367,360,489,8e-47,191
Fonsecaea_pedrosoi_CBS271.37_T,ERR1877915.535701,96.67,60,2,0,586,645,406,465,1e-19,100
Fonsecaea_pedrosoi_CBS271.37_T,ERR1877915.535701,93.10,58,2,2,589,645,261,205,1e-14,84.2
Fonsecaea_multimorphosa_CBS980.96_T,ERR1877915.619451,93.13,131,8,1,207,337,360,489,7e-47,191
Fonsecaea_minima_CBS125760_T,ERR1877915.619451,93.13,131,8,1,203,333,360,489,6e-47,191
Fonsecaea_nubica_CBS269.64_T,ERR1877915.619451,93.13,131,8,1,214,344,360,489,7e-47,191
Fonsecaea_erecta_CBS125763_T,ERR1877915.619451,93.13,131,8,1,198,328,360,489,6e-47,191
Fonsecaea_pugnacius_CBS139214_T,ERR1877915.619451,93.13,131,8,1,207,337,360,489,6e-47,191
Cladophialophora_psammophila_CBS,ERR1877915.619451,93.13,131,8,1,213,343,360,489,7e-47,191
Cladophialophora_devriesii_CBS,ERR1877915.619451,93.13,131,8,1,209,339,360,489,6e-47,191
Cladophialophora_immunda_CBS834.96,ERR1877915.619451,93.13,131,8,1,211,341,360,489,7e-47,191
Cladophialophora_arxii_CBS306.94_T,ERR1877915.619451,93.13,131,8,1,213,343,360,489,7e-47,191
Cladophialophora_bantiana_CBS173.52,ERR1877915.619451,93.13,131,8,1,207,337,360,489,7e-47,191
Cladophialophora_emmonsii_CBS102594,ERR1877915.619451,93.13,131,8,1,198,328,360,489,7e-47,191
Cladophialophora_minourae_CBS556.83,ERR1877915.619451,91.60,131,9,2,206,336,360,488,1e-43,180
Cladophialophora_australiensis_CBS112793,ERR1877915.825918,90.79,239,18,4,1217,1454,236,1,3e-84,316
Cladophialophora_australiensis_CBS112793,ERR1877915.237543,89.56,249,21,5,1222,1469,1,245,1e-82,311
Cladophialophora_australiensis_CBS112793,ERR1877915.237543,97.03,101,3,0,1369,1469,500,400,2e-40,171
Cladophialophora_australiensis_CBS112793,ERR1877915.535701,90.25,236,18,5,550,782,261,28,2e-80,303
Cladophialophora_australiensis_CBS112793,ERR1877915.535701,95.96,99,4,0,543,641,402,500,1e-37,161
Cladophialophora_australiensis_CBS112793,ERR1877915.653512,92.02,163,9,2,545,707,225,67,1e-57,228
Cladophialophora_australiensis_CBS112793,ERR1877915.619451,93.13,131,8,1,208,338,360,489,2e-46,191
Cladophialophora_australiensis_CBS112793,ERR1877915.775334,100.00,33,0,0,1439,1471,251,283,1e-07,62.1
Cladophialophora_australiensis_CBS112793,ERR1877915.501294,100.00,29,0,0,1177,1205,29,1,2e-05,54.7
Cladophialophora_potulentorum_CBS112222,ERR1877915.825918,90.79,239,18,4,1219,1456,236,1,3e-84,316
Cladophialophora_potulentorum_CBS112222,ERR1877915.237543,88.76,258,23,6,1224,1479,1,254,1e-82,311
Cladophialophora_potulentorum_CBS112222,ERR1877915.237543,94.31,123,7,0,1371,1493,500,378,7e-46,189
Cladophialophora_potulentorum_CBS112222,ERR1877915.535701,90.38,239,18,5,552,787,261,25,5e-82,309
Cladophialophora_potulentorum_CBS112222,ERR1877915.535701,96.84,95,3,0,549,643,406,500,5e-37,159
Cladophialophora_potulentorum_CBS112222,ERR1877915.653512,92.07,164,9,2,546,709,226,67,4e-58,230
Cladophialophora_potulentorum_CBS112222,ERR1877915.619451,92.37,131,9,1,207,337,360,489,8e-45,185
Cladophialophora_potulentorum_CBS112222,ERR1877915.775334,95.74,47,2,0,1441,1487,251,297,5e-12,76.8
Cladophialophora_potulentorum_CBS112222,ERR1877915.501294,100.00,29,0,0,1179,1207,29,1,2e-05,54.7
Cladophialophora_matsushimae_CMRP1198,ERR1877915.619451,92.37,131,9,1,211,341,360,489,3e-45,185
Cladophialophora_mycetomatis_CBS122637,ERR1877915.619451,92.37,131,9,1,196,326,360,489,3e-45,185
Cladophialophora_chaetospira_CBS127573,ERR1877915.619451,92.19,128,9,1,605,732,363,489,2e-43,180
Cladophialophora_boppii_CBS126.86_T,ERR1877915.619451,93.13,131,8,1,204,334,360,489,6e-47,191
Cladophialophora_abundans_CBS126736,ERR1877915.619451,91.04,134,11,1,141,274,360,492,1e-43,180
Capronia_semi-immersa_CBS102234,ERR1877915.619451,92.31,130,9,1,203,332,360,488,1e-44,183
Phialophora_americana_CBS400.67,ERR1877915.825918,90.25,236,19,4,1211,1445,236,4,6e-81,305
Phialophora_americana_CBS400.67,ERR1877915.535701,89.83,236,19,5,544,776,261,28,1e-78,298
Phialophora_americana_CBS400.67,ERR1877915.237543,88.31,231,22,5,1216,1445,1,227,6e-71,272
Phialophora_americana_CBS400.67,ERR1877915.237543,96.39,83,3,0,1363,1445,500,418,2e-30,137
Phialophora_americana_CBS400.67,ERR1877915.653512,92.07,164,9,2,538,701,226,67,4e-58,230
Phialophora_americana_CBS400.67,ERR1877915.619451,92.31,130,9,1,205,334,360,488,3e-44,183
Phialophora_americana_CBS400.67,ERR1877915.501294,100.00,29,0,0,1171,1199,29,1,2e-05,54.7
Phialophora_verrucosa_CBS140325_T,ERR1877915.619451,92.31,130,9,1,209,338,360,488,1e-44,183
Cladophialophora_samoensis_CBS259.83_T,ERR1877915.619451,92.54,134,9,1,209,342,360,492,7e-47,191
Cladophialophora_carrionii_CBS260.83,ERR1877915.619451,87.36,174,13,9,187,354,318,488,7e-47,191
Exophiala_palmae_UPCB86822_T,ERR1877915.619451,93.13,131,8,1,168,298,360,489,6e-47,191
Cladophialophora_yegresii_CBS114405_T,ERR1877915.619451,93.08,130,8,1,210,339,360,488,2e-46,189
Knufia_epidermidis_CBS120353_T,ERR1877915.619451,91.67,132,10,1,208,339,360,490,4e-44,182
Arthrocladium_fulminans_CBS136243_T,ERR1877915.619451,86.23,167,17,6,172,333,324,489,2e-42,176
Anthopsis_deltoidea_CBS263.77_T,ERR1877915.619451,91.54,130,10,1,212,340,360,489,5e-43,178
Cyphellophora_laciniata_CBS190.61_T,ERR1877915.619451,92.37,131,9,1,297,426,360,490,4e-45,185
Cyphellophora_laciniata_CBS190.61_T,ERR1877915.653512,95.58,113,3,2,625,735,236,124,5e-44,182
Cyphellophora_laciniata_CBS190.61_T,ERR1877915.535701,96.84,95,3,0,636,730,406,500,2e-37,159
Cyphellophora_laciniata_CBS190.61_T,ERR1877915.535701,95.92,98,2,2,639,735,261,165,9e-37,158
Cyphellophora_laciniata_CBS190.61_T,ERR1877915.546162,100.00,44,0,0,28,71,44,1,6e-14,82.4
Cyphellophora_suttonii_CBS449.91,ERR1877915.619451,92.37,131,9,1,200,329,360,490,3e-45,185
Cyphellophora_pauciseptata_CBS284.85_T,ERR1877915.619451,91.97,137,10,1,205,340,354,490,6e-47,191
Cyphellophora_pluriseptata_CBS286.85_T,ERR1877915.619451,91.73,133,10,1,216,347,360,492,1e-44,183
Phialophora_europaea_CBS101466,ERR1877915.619451,91.43,140,10,2,199,337,354,492,6e-47,191
Phialophora_ambigua_CBS235.93,ERR1877915.619451,92.48,133,9,1,203,334,360,492,2e-46,189
Cladophialophora_modesta_CBS985.96_T,ERR1877915.619451,89.93,149,13,2,182,330,343,489,7e-47,191
Cladophialophora_modesta_CBS985.96_T,ERR1877915.653512,94.64,112,5,1,509,619,235,124,7e-42,174
Cladophialophora_modesta_CBS985.96_T,ERR1877915.535701,93.94,99,6,0,516,614,402,500,1e-34,150
Cladophialophora_modesta_CBS985.96_T,ERR1877915.535701,93.88,98,4,2,523,619,261,165,2e-33,147
Cyphellophora_fusarioides_MUCL44033_T,ERR1877915.619451,91.60,131,10,1,199,328,360,490,1e-43,180
