Exophiala_salmonis_CBS157.67_T,SRR7194806.24222,88.10,126,14,1,1,125,1654,1779,3e-35,148
Exophiala_salmonis_CBS157.67_T,SRR7194806.23651,85.94,128,13,5,1,125,1664,1789,3e-30,132
Exophiala_salmonis_CBS157.67_T,SRR7194806.27006,85.16,128,14,5,1,125,140,15,1e-28,126
Exophiala_salmonis_CBS157.67_T,SRR7194806.26602,85.37,123,16,2,1,122,140,19,1e-28,126
Exophiala_salmonis_CBS157.67_T,SRR7194806.26386,85.37,123,16,2,1,122,140,19,1e-28,126
Exophiala_salmonis_CBS157.67_T,SRR7194806.25541,85.25,122,18,0,1,122,1663,1784,1e-28,126
Exophiala_salmonis_CBS157.67_T,SRR7194806.25439,85.48,124,14,4,1,122,140,19,1e-28,126
Exophiala_salmonis_CBS157.67_T,SRR7194806.25241,85.48,124,14,4,1,122,139,18,1e-28,126
Exophiala_salmonis_CBS157.67_T,SRR7194806.25183,85.37,123,16,2,1,122,1682,1803,1e-28,126
Exophiala_salmonis_CBS157.67_T,SRR7194806.24225,85.16,128,14,5,1,125,1663,1788,1e-28,126
Exophiala_salmonis_CBS157.67_T,SRR7194806.26660,84.68,124,15,4,1,122,140,19,6e-27,121
Exophiala_salmonis_CBS157.67_T,SRR7194806.26560,84.55,123,17,2,1,122,139,18,6e-27,121
Exophiala_salmonis_CBS157.67_T,SRR7194806.25328,84.68,124,15,4,1,122,140,19,6e-27,121
Exophiala_salmonis_CBS157.67_T,SRR7194806.24924,84.43,122,19,0,1,122,1661,1782,6e-27,121
Exophiala_salmonis_CBS157.67_T,SRR7194806.24425,84.68,124,15,4,1,122,1663,1784,6e-27,121
Exophiala_salmonis_CBS157.67_T,SRR7194806.24295,84.43,122,19,0,1,122,140,19,6e-27,121
Exophiala_salmonis_CBS157.67_T,SRR7194806.23625,84.68,124,15,4,1,122,140,19,6e-27,121
Exophiala_salmonis_CBS157.67_T,SRR7194806.23578,84.68,124,15,4,1,122,1690,1811,6e-27,121
Exophiala_salmonis_CBS157.67_T,SRR7194806.26081,84.25,127,13,6,1,122,1672,1796,7e-26,117
Exophiala_salmonis_CBS157.67_T,SRR7194806.24977,84.00,125,16,4,1,122,1695,1818,7e-26,117
Exophiala_salmonis_CBS157.67_T,SRR7194806.26164,83.74,123,18,2,1,122,1663,1784,3e-25,115
Exophiala_salmonis_CBS157.67_T,SRR7194806.25860,83.46,127,18,3,1,125,1675,1800,3e-25,115
Exophiala_salmonis_CBS157.67_T,SRR7194806.25252,83.87,124,16,4,1,122,1665,1786,3e-25,115
Exophiala_salmonis_CBS157.67_T,SRR7194806.24984,83.74,123,18,2,1,122,140,19,3e-25,115
Exophiala_salmonis_CBS157.67_T,SRR7194806.24621,83.87,124,16,4,1,122,140,19,3e-25,115
Exophiala_salmonis_CBS157.67_T,SRR7194806.24512,83.74,123,18,2,1,122,140,19,3e-25,115
Exophiala_salmonis_CBS157.67_T,SRR7194806.24115,83.74,123,18,2,1,122,1662,1783,3e-25,115
Exophiala_salmonis_CBS157.67_T,SRR7194806.23961,83.74,123,18,2,1,122,1662,1783,3e-25,115
Exophiala_salmonis_CBS157.67_T,SRR7194806.23559,83.59,128,16,5,1,125,1659,1784,3e-25,115
Exophiala_salmonis_CBS157.67_T,SRR7194806.23491,83.59,128,16,5,1,125,1662,1787,3e-25,115
Exophiala_salmonis_CBS157.67_T,SRR7194806.26499,83.74,123,16,4,1,122,137,18,1e-24,113
Exophiala_salmonis_CBS157.67_T,SRR7194806.26242,83.74,123,17,3,1,122,139,19,1e-24,113
Exophiala_salmonis_CBS157.67_T,SRR7194806.23766,82.95,129,16,6,1,125,1703,1829,3e-24,111
Exophiala_salmonis_CBS157.67_T,SRR7194806.26940,82.93,123,19,2,1,122,1666,1787,1e-23,110
Exophiala_salmonis_CBS157.67_T,SRR7194806.26912,83.06,124,17,4,1,122,1666,1787,1e-23,110
Exophiala_salmonis_CBS157.67_T,SRR7194806.26823,83.20,125,15,6,1,122,1670,1791,1e-23,110
Exophiala_salmonis_CBS157.67_T,SRR7194806.26732,82.79,122,21,0,1,122,1675,1796,1e-23,110
Exophiala_salmonis_CBS157.67_T,SRR7194806.26396,83.47,121,16,4,4,122,137,19,1e-23,110
Exophiala_salmonis_CBS157.67_T,SRR7194806.26064,83.20,125,15,6,1,122,140,19,1e-23,110
Exophiala_salmonis_CBS157.67_T,SRR7194806.25756,82.93,123,19,2,1,122,1681,1802,1e-23,110
Exophiala_salmonis_CBS157.67_T,SRR7194806.25683,82.54,126,21,1,1,125,1675,1800,1e-23,110
Exophiala_salmonis_CBS157.67_T,SRR7194806.25616,82.79,122,21,0,1,122,140,19,1e-23,110
Exophiala_salmonis_CBS157.67_T,SRR7194806.25421,83.20,125,15,6,1,122,1660,1781,1e-23,110
Exophiala_salmonis_CBS157.67_T,SRR7194806.25369,82.79,122,21,0,1,122,140,19,1e-23,110
Exophiala_salmonis_CBS157.67_T,SRR7194806.25134,82.79,122,21,0,1,122,1676,1797,1e-23,110
Exophiala_salmonis_CBS157.67_T,SRR7194806.25130,82.81,128,17,5,1,125,1662,1787,1e-23,110
Exophiala_salmonis_CBS157.67_T,SRR7194806.24985,82.54,126,21,1,1,125,140,15,1e-23,110
Exophiala_salmonis_CBS157.67_T,SRR7194806.24981,83.06,124,17,4,1,122,1662,1783,1e-23,110
Exophiala_salmonis_CBS157.67_T,SRR7194806.24958,82.95,129,14,7,1,125,1661,1785,1e-23,110
Exophiala_salmonis_CBS157.67_T,SRR7194806.24650,83.20,125,15,6,1,122,140,19,1e-23,110
Exophiala_salmonis_CBS157.67_T,SRR7194806.24518,82.79,122,21,0,1,122,140,19,1e-23,110
Exophiala_salmonis_CBS157.67_T,SRR7194806.24416,82.95,129,15,7,1,125,141,16,1e-23,110
Exophiala_salmonis_CBS157.67_T,SRR7194806.24393,83.20,125,15,6,1,122,140,19,1e-23,110
Exophiala_salmonis_CBS157.67_T,SRR7194806.24077,82.93,123,19,2,1,122,1681,1802,1e-23,110
Exophiala_salmonis_CBS157.67_T,SRR7194806.23781,83.20,125,15,6,1,122,140,19,1e-23,110
Exophiala_salmonis_CBS157.67_T,SRR7194806.23459,82.95,129,15,7,1,125,1661,1786,1e-23,110
Exophiala_salmonis_CBS157.67_T,SRR7194806.26264,83.20,125,14,6,1,122,140,20,4e-23,108
Exophiala_salmonis_CBS157.67_T,SRR7194806.24355,83.06,124,16,4,1,122,1664,1784,4e-23,108
Exophiala_salmonis_CBS157.67_T,SRR7194806.25097,82.40,125,18,4,1,122,142,19,2e-22,106
Exophiala_salmonis_CBS157.67_T,SRR7194806.27036,82.03,128,18,5,1,125,140,15,6e-22,104
Exophiala_salmonis_CBS157.67_T,SRR7194806.26865,82.40,125,16,6,1,122,140,19,6e-22,104
Exophiala_salmonis_CBS157.67_T,SRR7194806.26773,82.11,123,20,2,1,122,1667,1788,6e-22,104
Exophiala_salmonis_CBS157.67_T,SRR7194806.26731,81.97,122,22,0,1,122,1662,1783,6e-22,104
Exophiala_salmonis_CBS157.67_T,SRR7194806.26245,82.26,124,18,4,1,122,1661,1782,6e-22,104
Exophiala_salmonis_CBS157.67_T,SRR7194806.26098,82.26,124,18,4,1,122,140,19,6e-22,104
Exophiala_salmonis_CBS157.67_T,SRR7194806.25758,82.26,124,18,4,1,122,1662,1783,6e-22,104
Exophiala_salmonis_CBS157.67_T,SRR7194806.25498,82.40,125,16,6,1,122,140,19,6e-22,104
Exophiala_salmonis_CBS157.67_T,SRR7194806.25476,82.17,129,16,7,1,125,1664,1789,6e-22,104
Exophiala_salmonis_CBS157.67_T,SRR7194806.25374,82.26,124,18,4,1,122,1663,1784,6e-22,104
Exophiala_salmonis_CBS157.67_T,SRR7194806.25153,82.11,123,20,2,1,122,1683,1804,6e-22,104
Exophiala_salmonis_CBS157.67_T,SRR7194806.25100,82.17,129,16,7,1,125,1660,1785,6e-22,104
Exophiala_salmonis_CBS157.67_T,SRR7194806.25065,82.40,125,17,5,1,122,141,19,6e-22,104
Exophiala_salmonis_CBS157.67_T,SRR7194806.24905,82.26,124,18,4,1,122,140,19,6e-22,104
Exophiala_salmonis_CBS157.67_T,SRR7194806.24792,82.17,129,16,7,1,125,1659,1784,6e-22,104
Exophiala_salmonis_CBS157.67_T,SRR7194806.24443,81.97,122,22,0,1,122,140,19,6e-22,104
Exophiala_salmonis_CBS157.67_T,SRR7194806.24207,82.11,123,21,1,1,122,1675,1797,6e-22,104
Exophiala_salmonis_CBS157.67_T,SRR7194806.24184,81.97,122,22,0,1,122,1682,1803,6e-22,104
Exophiala_salmonis_CBS157.67_T,SRR7194806.24008,82.40,125,16,6,1,122,140,19,6e-22,104
Exophiala_salmonis_CBS157.67_T,SRR7194806.23917,82.40,125,16,6,1,122,140,19,6e-22,104
Exophiala_salmonis_CBS157.67_T,SRR7194806.23825,82.40,125,16,6,1,122,141,20,6e-22,104
Exophiala_salmonis_CBS157.67_T,SRR7194806.23770,82.11,123,20,2,1,122,140,19,6e-22,104
Exophiala_salmonis_CBS157.67_T,SRR7194806.25338,82.40,125,15,6,1,122,1662,1782,2e-21,102
Exophiala_salmonis_CBS157.67_T,SRR7194806.24895,82.26,124,17,5,1,122,1671,1791,2e-21,102
Exophiala_salmonis_CBS157.67_T,SRR7194806.24229,82.26,124,17,5,1,122,139,19,2e-21,102
Exophiala_salmonis_CBS157.67_T,SRR7194806.24160,82.40,125,15,6,1,122,139,19,2e-21,102
Exophiala_salmonis_CBS157.67_T,SRR7194806.23771,81.40,129,18,6,1,125,1671,1797,8e-21,100
Exophiala_salmonis_CBS157.67_T,SRR7194806.23458,81.54,130,16,8,1,125,1658,1784,8e-21,100
Exophiala_salmonis_CBS157.67_T,SRR7194806.26960,81.40,129,17,7,1,125,140,15,3e-20,99.0
Exophiala_salmonis_CBS157.67_T,SRR7194806.26932,81.60,125,18,5,1,122,141,19,3e-20,99.0
Exophiala_salmonis_CBS157.67_T,SRR7194806.26884,81.25,128,19,5,1,125,1664,1789,3e-20,99.0
Exophiala_salmonis_CBS157.67_T,SRR7194806.26881,81.45,124,19,4,1,122,140,19,3e-20,99.0
Exophiala_salmonis_CBS157.67_T,SRR7194806.26822,81.45,124,19,4,1,122,1661,1782,3e-20,99.0
Exophiala_salmonis_CBS157.67_T,SRR7194806.26618,81.45,124,19,4,1,122,139,18,3e-20,99.0
Exophiala_salmonis_CBS157.67_T,SRR7194806.26138,81.40,129,17,7,1,125,140,15,3e-20,99.0
Exophiala_salmonis_CBS157.67_T,SRR7194806.25994,81.60,125,17,6,1,122,1660,1781,3e-20,99.0
Exophiala_salmonis_CBS157.67_T,SRR7194806.25886,81.30,123,21,2,1,122,140,19,3e-20,99.0
Exophiala_salmonis_CBS157.67_T,SRR7194806.25850,81.30,123,21,2,1,122,140,19,3e-20,99.0
Exophiala_salmonis_CBS157.67_T,SRR7194806.25834,81.60,125,17,6,1,122,140,19,3e-20,99.0
Exophiala_salmonis_CBS157.67_T,SRR7194806.25741,81.45,124,19,4,1,122,140,19,3e-20,99.0
Exophiala_salmonis_CBS157.67_T,SRR7194806.25712,81.45,124,19,4,1,122,140,19,3e-20,99.0
Exophiala_salmonis_CBS157.67_T,SRR7194806.25370,81.60,125,17,6,1,122,1660,1781,3e-20,99.0
Exophiala_salmonis_CBS157.67_T,SRR7194806.25220,81.60,125,17,6,1,122,140,19,3e-20,99.0
Exophiala_salmonis_CBS157.67_T,SRR7194806.25189,81.60,125,17,6,1,122,140,19,3e-20,99.0
Exophiala_salmonis_CBS157.67_T,SRR7194806.25119,81.10,127,21,3,1,125,1678,1803,3e-20,99.0
Exophiala_salmonis_CBS157.67_T,SRR7194806.24899,81.40,129,17,7,1,125,1669,1794,3e-20,99.0
Exophiala_salmonis_CBS157.67_T,SRR7194806.24776,81.60,125,17,6,1,122,1660,1781,3e-20,99.0
Exophiala_salmonis_CBS157.67_T,SRR7194806.24747,81.45,124,19,4,1,122,1663,1784,3e-20,99.0
Exophiala_salmonis_CBS157.67_T,SRR7194806.24639,81.40,129,17,7,1,125,1662,1787,3e-20,99.0
Exophiala_salmonis_CBS157.67_T,SRR7194806.24478,81.40,129,17,7,1,125,1660,1785,3e-20,99.0
Exophiala_salmonis_CBS157.67_T,SRR7194806.24440,81.60,125,17,6,1,122,1658,1779,3e-20,99.0
Exophiala_salmonis_CBS157.67_T,SRR7194806.24320,81.60,125,17,6,1,122,1659,1780,3e-20,99.0
Exophiala_salmonis_CBS157.67_T,SRR7194806.24290,81.60,125,17,6,1,122,140,19,3e-20,99.0
Exophiala_salmonis_CBS157.67_T,SRR7194806.24209,81.60,125,17,6,1,122,1660,1781,3e-20,99.0
Exophiala_salmonis_CBS157.67_T,SRR7194806.24180,81.60,125,17,6,1,122,1658,1779,3e-20,99.0
Exophiala_salmonis_CBS157.67_T,SRR7194806.24127,81.45,124,19,4,1,122,140,19,3e-20,99.0
Exophiala_salmonis_CBS157.67_T,SRR7194806.23983,81.60,125,17,6,1,122,140,19,3e-20,99.0
Exophiala_salmonis_CBS157.67_T,SRR7194806.23935,81.45,124,19,4,1,122,140,19,3e-20,99.0
Exophiala_salmonis_CBS157.67_T,SRR7194806.23732,81.60,125,17,6,1,122,139,18,3e-20,99.0
Exophiala_salmonis_CBS157.67_T,SRR7194806.23656,81.45,124,19,4,1,122,141,20,3e-20,99.0
Exophiala_salmonis_CBS157.67_T,SRR7194806.23513,81.10,127,21,3,1,125,140,15,3e-20,99.0
Exophiala_salmonis_CBS157.67_T,SRR7194806.23420,81.60,125,17,6,1,122,1673,1794,3e-20,99.0
Exophiala_salmonis_CBS157.67_T,SRR7194806.27009,81.97,122,15,7,1,119,1652,1769,1e-19,97.1
Exophiala_salmonis_CBS157.67_T,SRR7194806.25224,81.45,124,18,5,1,122,139,19,1e-19,97.1
Exophiala_salmonis_CBS157.67_T,SRR7194806.25063,81.45,124,18,5,1,122,139,19,1e-19,97.1
Exophiala_salmonis_CBS157.67_T,SRR7194806.24270,81.45,124,18,5,1,122,1660,1780,1e-19,97.1
Exophiala_salmonis_CBS157.67_T,SRR7194806.25853,81.06,132,13,12,1,125,141,15,3e-19,95.3
Exophiala_salmonis_CBS157.67_T,SRR7194806.24613,81.30,123,17,6,3,122,1672,1791,3e-19,95.3
Exophiala_salmonis_CBS157.67_T,SRR7194806.24292,81.06,132,13,10,1,125,1678,1804,3e-19,95.3
Exophiala_salmonis_CBS157.67_T,SRR7194806.27011,80.65,124,20,4,1,122,140,19,1e-18,93.5
Exophiala_salmonis_CBS157.67_T,SRR7194806.26871,80.62,129,18,7,1,125,1691,1816,1e-18,93.5
Exophiala_salmonis_CBS157.67_T,SRR7194806.26759,80.62,129,18,7,1,125,140,15,1e-18,93.5
Exophiala_salmonis_CBS157.67_T,SRR7194806.26531,80.80,125,18,6,1,122,1661,1782,1e-18,93.5
Exophiala_salmonis_CBS157.67_T,SRR7194806.26508,80.49,123,22,2,1,122,141,20,1e-18,93.5
Exophiala_salmonis_CBS157.67_T,SRR7194806.26457,80.80,125,18,6,1,122,140,19,1e-18,93.5
Exophiala_salmonis_CBS157.67_T,SRR7194806.26447,81.25,128,13,9,1,122,141,19,1e-18,93.5
Exophiala_salmonis_CBS157.67_T,SRR7194806.26443,80.80,125,18,6,1,122,1657,1778,1e-18,93.5
Exophiala_salmonis_CBS157.67_T,SRR7194806.26400,80.49,123,22,2,1,122,140,19,1e-18,93.5
Exophiala_salmonis_CBS157.67_T,SRR7194806.26169,80.80,125,18,6,1,122,1664,1785,1e-18,93.5
Exophiala_salmonis_CBS157.67_T,SRR7194806.26076,80.80,125,18,6,1,122,140,19,1e-18,93.5
Exophiala_salmonis_CBS157.67_T,SRR7194806.26011,80.80,125,18,6,1,122,1662,1783,1e-18,93.5
Exophiala_salmonis_CBS157.67_T,SRR7194806.25947,80.62,129,18,7,1,125,1661,1786,1e-18,93.5
Exophiala_salmonis_CBS157.67_T,SRR7194806.25353,80.80,125,18,6,1,122,140,19,1e-18,93.5
Exophiala_salmonis_CBS157.67_T,SRR7194806.25315,80.65,124,21,2,1,122,2039,2161,1e-18,93.5
Exophiala_salmonis_CBS157.67_T,SRR7194806.25288,80.80,125,18,6,1,122,1660,1781,1e-18,93.5
Exophiala_salmonis_CBS157.67_T,SRR7194806.25236,80.62,129,18,7,1,125,140,15,1e-18,93.5
Exophiala_salmonis_CBS157.67_T,SRR7194806.24990,80.80,125,18,6,1,122,140,19,1e-18,93.5
Exophiala_salmonis_CBS157.67_T,SRR7194806.24151,80.80,125,18,6,1,122,139,18,1e-18,93.5
Exophiala_salmonis_CBS157.67_T,SRR7194806.23791,80.80,125,19,5,1,122,1663,1785,1e-18,93.5
Exophiala_salmonis_CBS157.67_T,SRR7194806.23588,80.62,129,18,7,1,125,141,16,1e-18,93.5
Exophiala_salmonis_CBS157.67_T,SRR7194806.23562,80.65,124,21,3,1,122,1690,1812,1e-18,93.5
Exophiala_salmonis_CBS157.67_T,SRR7194806.23422,80.80,125,18,6,1,122,141,20,1e-18,93.5
Exophiala_salmonis_CBS157.67_T,SRR7194806.24848,80.80,125,17,7,1,122,1658,1778,5e-18,91.6
Exophiala_salmonis_CBS157.67_T,SRR7194806.26742,80.00,125,21,4,1,122,142,19,2e-17,89.8
Exophiala_salmonis_CBS157.67_T,SRR7194806.25268,80.16,126,19,6,1,122,1636,1759,2e-17,89.8
Exophiala_salmonis_CBS157.67_T,SRR7194806.25102,80.47,128,15,9,1,122,1665,1788,2e-17,89.8
Exophiala_salmonis_CBS157.67_T,SRR7194806.27032,80.16,126,17,7,1,122,1661,1782,6e-17,87.9
Exophiala_salmonis_CBS157.67_T,SRR7194806.26936,80.47,128,14,9,1,122,1675,1797,6e-17,87.9
Exophiala_salmonis_CBS157.67_T,SRR7194806.26032,80.47,128,13,9,1,122,140,19,6e-17,87.9
Exophiala_salmonis_CBS157.67_T,SRR7194806.25952,80.16,126,17,8,1,122,1660,1781,6e-17,87.9
Exophiala_salmonis_CBS157.67_T,SRR7194806.25838,80.16,126,18,7,1,122,1671,1793,6e-17,87.9
Exophiala_salmonis_CBS157.67_T,SRR7194806.25219,80.47,128,14,9,1,122,1677,1799,6e-17,87.9
Exophiala_salmonis_CBS157.67_T,SRR7194806.25156,80.47,128,14,9,1,122,1677,1799,6e-17,87.9
Exophiala_salmonis_CBS157.67_T,SRR7194806.24331,80.00,125,19,5,1,122,140,19,6e-17,87.9
Exophiala_salmonis_CBS157.67_T,SRR7194806.23988,80.00,125,20,5,1,122,141,19,6e-17,87.9
Exophiala_salmonis_CBS157.67_T,SRR7194806.23888,80.47,128,14,9,1,122,141,19,6e-17,87.9
Exophiala_salmonis_CBS157.67_T,SRR7194806.26826,80.00,125,18,7,1,122,1657,1777,2e-16,86.1
Exophiala_salmonis_CBS157.67_T,SRR7194806.25682,97.96,49,1,0,74,122,1763,1811,2e-16,86.1
Exophiala_salmonis_CBS157.67_T,SRR7194806.25581,79.67,123,22,3,1,122,139,19,2e-16,86.1
Exophiala_salmonis_CBS157.67_T,SRR7194806.25204,79.84,124,19,6,1,122,1647,1766,2e-16,86.1
Exophiala_salmonis_CBS157.67_T,SRR7194806.23916,98.00,50,0,1,73,122,67,19,2e-16,86.1
Exophiala_salmonis_CBS157.67_T,SRR7194806.23721,97.96,49,1,0,74,122,67,19,2e-16,86.1
Exophiala_salmonis_CBS157.67_T,SRR7194806.26478,97.96,49,0,1,78,125,63,15,8e-16,84.2
Exophiala_salmonis_CBS157.67_T,SRR7194806.25980,100.00,45,0,0,78,122,63,19,8e-16,84.2
Exophiala_salmonis_CBS157.67_T,SRR7194806.25948,97.96,49,0,1,78,125,1736,1784,8e-16,84.2
Exophiala_salmonis_CBS157.67_T,SRR7194806.25419,100.00,45,0,0,78,122,63,19,8e-16,84.2
Exophiala_salmonis_CBS157.67_T,SRR7194806.25225,100.00,45,0,0,78,122,62,18,8e-16,84.2
Exophiala_salmonis_CBS157.67_T,SRR7194806.24846,100.00,45,0,0,78,122,63,19,8e-16,84.2
Exophiala_salmonis_CBS157.67_T,SRR7194806.24765,100.00,45,0,0,78,122,1727,1771,8e-16,84.2
Exophiala_salmonis_CBS157.67_T,SRR7194806.24557,100.00,45,0,0,78,122,1727,1771,8e-16,84.2
Exophiala_salmonis_CBS157.67_T,SRR7194806.24206,97.96,49,0,1,78,125,63,15,8e-16,84.2
Exophiala_salmonis_CBS157.67_T,SRR7194806.24191,97.96,49,0,1,78,125,1730,1778,8e-16,84.2
Exophiala_salmonis_CBS157.67_T,SRR7194806.23836,100.00,45,0,0,78,122,1728,1772,8e-16,84.2
Exophiala_salmonis_CBS157.67_T,SRR7194806.23590,100.00,45,0,0,78,122,1729,1773,8e-16,84.2
Exophiala_salmonis_CBS157.67_T,SRR7194806.23538,100.00,45,0,0,78,122,63,19,8e-16,84.2
Exophiala_salmonis_CBS157.67_T,SRR7194806.26895,79.37,126,18,7,1,122,140,19,3e-15,82.4
Exophiala_salmonis_CBS157.67_T,SRR7194806.26861,79.69,128,14,9,1,122,1665,1786,3e-15,82.4
Exophiala_salmonis_CBS157.67_T,SRR7194806.26774,78.86,123,24,2,1,122,1664,1785,3e-15,82.4
Exophiala_salmonis_CBS157.67_T,SRR7194806.26676,94.44,54,1,2,73,125,1697,1749,3e-15,82.4
Exophiala_salmonis_CBS157.67_T,SRR7194806.25718,79.03,124,22,4,1,122,140,19,3e-15,82.4
Exophiala_salmonis_CBS157.67_T,SRR7194806.25454,100.00,44,0,0,79,122,1755,1798,3e-15,82.4
Exophiala_salmonis_CBS157.67_T,SRR7194806.25443,94.44,54,1,2,73,125,66,14,3e-15,82.4
Exophiala_salmonis_CBS157.67_T,SRR7194806.25193,79.69,128,15,11,1,122,141,19,3e-15,82.4
Exophiala_salmonis_CBS157.67_T,SRR7194806.23937,100.00,44,0,0,79,122,1748,1791,3e-15,82.4
Exophiala_salmonis_CBS157.67_T,SRR7194806.23930,79.03,124,22,4,1,122,140,19,3e-15,82.4
Exophiala_salmonis_CBS157.67_T,SRR7194806.25928,95.92,49,2,0,74,122,1765,1813,1e-14,80.5
Exophiala_salmonis_CBS157.67_T,SRR7194806.24950,95.92,49,2,0,74,122,67,19,1e-14,80.5
Exophiala_salmonis_CBS157.67_T,SRR7194806.24858,94.34,53,2,1,74,125,1764,1816,1e-14,80.5
Exophiala_salmonis_CBS157.67_T,SRR7194806.24759,100.00,43,0,0,80,122,1792,1834,1e-14,80.5
Exophiala_salmonis_CBS157.67_T,SRR7194806.24278,95.92,49,2,0,74,122,1760,1808,1e-14,80.5
Exophiala_salmonis_CBS157.67_T,SRR7194806.23707,96.00,50,1,1,73,122,1707,1755,1e-14,80.5
Exophiala_salmonis_CBS157.67_T,SRR7194806.26950,97.78,45,1,0,78,122,63,19,4e-14,78.7
Exophiala_salmonis_CBS157.67_T,SRR7194806.26794,97.78,45,1,0,78,122,1736,1780,4e-14,78.7
Exophiala_salmonis_CBS157.67_T,SRR7194806.26710,97.78,45,1,0,78,122,63,19,4e-14,78.7
Exophiala_salmonis_CBS157.67_T,SRR7194806.26459,97.78,45,1,0,78,122,63,19,4e-14,78.7
Exophiala_salmonis_CBS157.67_T,SRR7194806.24951,94.12,51,3,0,72,122,1906,1956,4e-14,78.7
Exophiala_salmonis_CBS157.67_T,SRR7194806.24505,97.78,45,1,0,78,122,63,19,4e-14,78.7
Exophiala_salmonis_CBS157.67_T,SRR7194806.24029,95.92,49,1,1,78,125,63,15,4e-14,78.7
Exophiala_salmonis_CBS157.67_T,SRR7194806.23800,97.78,45,1,0,78,122,1738,1782,4e-14,78.7
Exophiala_salmonis_CBS157.67_T,SRR7194806.23758,97.78,45,1,0,78,122,1728,1772,4e-14,78.7
Exophiala_salmonis_CBS157.67_T,SRR7194806.23592,95.92,49,1,1,78,125,63,15,4e-14,78.7
Exophiala_salmonis_CBS157.67_T,SRR7194806.26034,78.57,126,19,6,1,122,140,19,1e-13,76.8
Exophiala_salmonis_CBS157.67_T,SRR7194806.24496,78.57,126,20,7,1,122,141,19,1e-13,76.8
Exophiala_salmonis_CBS157.67_T,SRR7194806.24410,97.73,44,1,0,79,122,62,19,1e-13,76.8
Exophiala_salmonis_CBS157.67_T,SRR7194806.26475,94.00,50,2,1,73,122,1723,1771,5e-13,75.0
Exophiala_salmonis_CBS157.67_T,SRR7194806.24934,94.00,50,2,1,73,122,67,19,5e-13,75.0
Exophiala_salmonis_CBS157.67_T,SRR7194806.24860,97.67,43,1,0,78,120,1727,1769,5e-13,75.0
Exophiala_salmonis_CBS157.67_T,SRR7194806.26966,95.56,45,2,0,78,122,62,18,2e-12,73.1
Exophiala_salmonis_CBS157.67_T,SRR7194806.26806,95.56,45,2,0,78,122,63,19,2e-12,73.1
Exophiala_salmonis_CBS157.67_T,SRR7194806.25640,95.56,45,2,0,78,122,63,19,2e-12,73.1
Exophiala_salmonis_CBS157.67_T,SRR7194806.25496,90.74,54,5,0,69,122,73,20,2e-12,73.1
Exophiala_salmonis_CBS157.67_T,SRR7194806.25308,95.56,45,2,0,78,122,1751,1795,2e-12,73.1
Exophiala_salmonis_CBS157.67_T,SRR7194806.25199,95.56,45,2,0,78,122,1704,1748,2e-12,73.1
Exophiala_salmonis_CBS157.67_T,SRR7194806.24983,93.75,48,3,0,75,122,66,19,2e-12,73.1
Exophiala_salmonis_CBS157.67_T,SRR7194806.24218,95.56,45,2,0,78,122,1748,1792,2e-12,73.1
Exophiala_salmonis_CBS157.67_T,SRR7194806.24213,93.75,48,3,0,75,122,1740,1787,2e-12,73.1
Exophiala_salmonis_CBS157.67_T,SRR7194806.24044,93.88,49,2,1,78,125,63,15,2e-12,73.1
Exophiala_salmonis_CBS157.67_T,SRR7194806.26961,95.56,45,1,1,82,125,59,15,6e-12,71.3
Exophiala_salmonis_CBS157.67_T,SRR7194806.26617,97.56,41,1,0,82,122,1772,1812,6e-12,71.3
Exophiala_salmonis_CBS157.67_T,SRR7194806.26606,97.56,41,1,0,82,122,1757,1797,6e-12,71.3
Exophiala_salmonis_CBS157.67_T,SRR7194806.26506,95.56,45,1,1,78,122,1733,1776,6e-12,71.3
Exophiala_salmonis_CBS157.67_T,SRR7194806.25955,92.16,51,3,1,72,122,68,19,6e-12,71.3
Exophiala_salmonis_CBS157.67_T,SRR7194806.25387,95.56,45,1,1,82,125,60,16,6e-12,71.3
Exophiala_salmonis_CBS157.67_T,SRR7194806.25104,97.56,41,1,0,82,122,60,20,6e-12,71.3
Exophiala_salmonis_CBS157.67_T,SRR7194806.25076,97.56,41,1,0,82,122,59,19,6e-12,71.3
Exophiala_salmonis_CBS157.67_T,SRR7194806.25074,92.16,51,3,1,72,122,68,19,6e-12,71.3
Exophiala_salmonis_CBS157.67_T,SRR7194806.25008,92.16,51,3,1,72,122,68,19,6e-12,71.3
Exophiala_salmonis_CBS157.67_T,SRR7194806.24834,97.56,41,1,0,82,122,59,19,6e-12,71.3
Exophiala_salmonis_CBS157.67_T,SRR7194806.24325,97.56,41,1,0,82,122,1757,1797,6e-12,71.3
Exophiala_salmonis_CBS157.67_T,SRR7194806.23661,95.56,45,1,1,82,125,59,15,6e-12,71.3
Exophiala_salmonis_CBS157.67_T,SRR7194806.23585,92.16,51,3,1,72,122,68,19,6e-12,71.3
Exophiala_salmonis_CBS157.67_T,SRR7194806.25650,97.50,40,1,0,83,122,58,19,2e-11,69.4
Exophiala_salmonis_CBS157.67_T,SRR7194806.25166,97.50,40,1,0,83,122,58,19,2e-11,69.4
Exophiala_salmonis_CBS157.67_T,SRR7194806.25069,97.50,40,1,0,83,122,1760,1799,2e-11,69.4
Exophiala_salmonis_CBS157.67_T,SRR7194806.26800,97.44,39,1,0,84,122,1740,1778,8e-11,67.6
Exophiala_salmonis_CBS157.67_T,SRR7194806.24095,93.48,46,2,1,78,122,1759,1804,8e-11,67.6
Exophiala_salmonis_CBS157.67_T,SRR7194806.25989,97.37,38,1,0,85,122,56,19,3e-10,65.8
Exophiala_salmonis_CBS157.67_T,SRR7194806.26244,95.00,40,2,0,83,122,1922,1961,1e-09,63.9
Exophiala_salmonis_CBS157.67_T,SRR7194806.24956,95.00,40,2,0,83,122,58,19,1e-09,63.9
Cyphellophora_laciniata_CBS190.61_T,SRR7194806.24222,95.08,61,3,0,15,75,1722,1782,9e-20,97.1
Cyphellophora_laciniata_CBS190.61_T,SRR7194806.23651,92.54,67,4,1,10,75,1726,1792,3e-19,95.3
Cyphellophora_laciniata_CBS190.61_T,SRR7194806.26478,98.08,52,1,0,24,75,63,12,4e-18,91.6
Cyphellophora_laciniata_CBS190.61_T,SRR7194806.25948,98.08,52,1,0,24,75,1736,1787,4e-18,91.6
Cyphellophora_laciniata_CBS190.61_T,SRR7194806.24225,96.36,55,2,0,21,75,1737,1791,4e-18,91.6
Cyphellophora_laciniata_CBS190.61_T,SRR7194806.24206,98.08,52,1,0,24,75,63,12,4e-18,91.6
Cyphellophora_laciniata_CBS190.61_T,SRR7194806.24191,98.08,52,1,0,24,75,1730,1781,4e-18,91.6
Cyphellophora_laciniata_CBS190.61_T,SRR7194806.27006,94.64,56,3,0,20,75,67,12,6e-17,87.9
Cyphellophora_laciniata_CBS190.61_T,SRR7194806.26676,94.74,57,2,1,19,75,1697,1752,6e-17,87.9
Cyphellophora_laciniata_CBS190.61_T,SRR7194806.25682,98.00,50,1,0,20,69,1763,1812,6e-17,87.9
Cyphellophora_laciniata_CBS190.61_T,SRR7194806.25443,94.74,57,2,1,19,75,66,11,6e-17,87.9
Cyphellophora_laciniata_CBS190.61_T,SRR7194806.24858,94.64,56,3,0,20,75,1764,1819,6e-17,87.9
Cyphellophora_laciniata_CBS190.61_T,SRR7194806.23916,98.04,51,0,1,19,69,67,18,6e-17,87.9
Cyphellophora_laciniata_CBS190.61_T,SRR7194806.23721,98.00,50,1,0,20,69,67,18,6e-17,87.9
Cyphellophora_laciniata_CBS190.61_T,SRR7194806.26960,96.15,52,2,0,24,75,63,12,2e-16,86.1
Cyphellophora_laciniata_CBS190.61_T,SRR7194806.26660,97.96,49,1,0,21,69,66,18,2e-16,86.1
Cyphellophora_laciniata_CBS190.61_T,SRR7194806.26602,100.00,46,0,0,24,69,63,18,2e-16,86.1
Cyphellophora_laciniata_CBS190.61_T,SRR7194806.26386,100.00,46,0,0,24,69,63,18,2e-16,86.1
Cyphellophora_laciniata_CBS190.61_T,SRR7194806.26138,96.15,52,2,0,24,75,63,12,2e-16,86.1
Cyphellophora_laciniata_CBS190.61_T,SRR7194806.25980,100.00,46,0,0,24,69,63,18,2e-16,86.1
Cyphellophora_laciniata_CBS190.61_T,SRR7194806.25853,96.15,52,2,0,24,75,63,12,2e-16,86.1
Cyphellophora_laciniata_CBS190.61_T,SRR7194806.25683,97.96,49,1,0,27,75,1755,1803,2e-16,86.1
Cyphellophora_laciniata_CBS190.61_T,SRR7194806.25439,97.96,49,1,0,21,69,66,18,2e-16,86.1
Cyphellophora_laciniata_CBS190.61_T,SRR7194806.25419,100.00,46,0,0,24,69,63,18,2e-16,86.1
Cyphellophora_laciniata_CBS190.61_T,SRR7194806.25315,100.00,46,0,0,24,69,2117,2162,2e-16,86.1
Cyphellophora_laciniata_CBS190.61_T,SRR7194806.25241,97.96,49,1,0,21,69,65,17,2e-16,86.1
Cyphellophora_laciniata_CBS190.61_T,SRR7194806.25225,100.00,46,0,0,24,69,62,17,2e-16,86.1
Cyphellophora_laciniata_CBS190.61_T,SRR7194806.25183,100.00,46,0,0,24,69,1759,1804,2e-16,86.1
Cyphellophora_laciniata_CBS190.61_T,SRR7194806.25100,96.15,52,2,0,24,75,1737,1788,2e-16,86.1
Cyphellophora_laciniata_CBS190.61_T,SRR7194806.24985,97.96,49,1,0,27,75,60,12,2e-16,86.1
Cyphellophora_laciniata_CBS190.61_T,SRR7194806.24924,97.96,49,1,0,21,69,1735,1783,2e-16,86.1
Cyphellophora_laciniata_CBS190.61_T,SRR7194806.24899,96.15,52,2,0,24,75,1746,1797,2e-16,86.1
Cyphellophora_laciniata_CBS190.61_T,SRR7194806.24846,100.00,46,0,0,24,69,63,18,2e-16,86.1
Cyphellophora_laciniata_CBS190.61_T,SRR7194806.24765,100.00,46,0,0,24,69,1727,1772,2e-16,86.1
Cyphellophora_laciniata_CBS190.61_T,SRR7194806.24639,96.15,52,2,0,24,75,1739,1790,2e-16,86.1
Cyphellophora_laciniata_CBS190.61_T,SRR7194806.24557,100.00,46,0,0,24,69,1727,1772,2e-16,86.1
Cyphellophora_laciniata_CBS190.61_T,SRR7194806.24478,96.15,52,2,0,24,75,1737,1788,2e-16,86.1
Cyphellophora_laciniata_CBS190.61_T,SRR7194806.24295,97.96,49,1,0,21,69,66,18,2e-16,86.1
Cyphellophora_laciniata_CBS190.61_T,SRR7194806.24292,96.15,52,2,0,24,75,1756,1807,2e-16,86.1
Cyphellophora_laciniata_CBS190.61_T,SRR7194806.24029,96.15,52,2,0,24,75,63,12,2e-16,86.1
Cyphellophora_laciniata_CBS190.61_T,SRR7194806.23836,100.00,46,0,0,24,69,1728,1773,2e-16,86.1
Cyphellophora_laciniata_CBS190.61_T,SRR7194806.23592,96.15,52,2,0,24,75,63,12,2e-16,86.1
Cyphellophora_laciniata_CBS190.61_T,SRR7194806.23590,100.00,46,0,0,24,69,1729,1774,2e-16,86.1
Cyphellophora_laciniata_CBS190.61_T,SRR7194806.23559,96.15,52,2,0,24,75,1736,1787,2e-16,86.1
Cyphellophora_laciniata_CBS190.61_T,SRR7194806.23538,100.00,46,0,0,24,69,63,18,2e-16,86.1
Cyphellophora_laciniata_CBS190.61_T,SRR7194806.23513,96.15,52,2,0,24,75,63,12,2e-16,86.1
Cyphellophora_laciniata_CBS190.61_T,SRR7194806.23491,94.55,55,3,0,21,75,1736,1790,2e-16,86.1
Cyphellophora_laciniata_CBS190.61_T,SRR7194806.23459,91.94,62,3,2,15,75,1729,1789,2e-16,86.1
Cyphellophora_laciniata_CBS190.61_T,SRR7194806.27036,97.92,48,1,0,28,75,59,12,7e-16,84.2
Cyphellophora_laciniata_CBS190.61_T,SRR7194806.26164,100.00,45,0,0,25,69,1741,1785,7e-16,84.2
Cyphellophora_laciniata_CBS190.61_T,SRR7194806.26032,100.00,45,0,0,25,69,62,18,7e-16,84.2
Cyphellophora_laciniata_CBS190.61_T,SRR7194806.25860,96.08,51,2,0,25,75,1753,1803,7e-16,84.2
Cyphellophora_laciniata_CBS190.61_T,SRR7194806.25756,100.00,45,0,0,25,69,1759,1803,7e-16,84.2
Cyphellophora_laciniata_CBS190.61_T,SRR7194806.25476,97.92,48,1,0,28,75,1745,1792,7e-16,84.2
Cyphellophora_laciniata_CBS190.61_T,SRR7194806.25454,96.15,52,1,1,25,75,1755,1806,7e-16,84.2
Cyphellophora_laciniata_CBS190.61_T,SRR7194806.25119,96.08,51,2,0,25,75,1756,1806,7e-16,84.2
Cyphellophora_laciniata_CBS190.61_T,SRR7194806.24984,100.00,45,0,0,25,69,62,18,7e-16,84.2
Cyphellophora_laciniata_CBS190.61_T,SRR7194806.24115,96.15,52,1,1,25,75,1740,1791,7e-16,84.2
Cyphellophora_laciniata_CBS190.61_T,SRR7194806.24077,100.00,45,0,0,25,69,1759,1803,7e-16,84.2
Cyphellophora_laciniata_CBS190.61_T,SRR7194806.23937,100.00,45,0,0,25,69,1748,1792,7e-16,84.2
Cyphellophora_laciniata_CBS190.61_T,SRR7194806.23766,97.92,48,1,0,28,75,1785,1832,7e-16,84.2
Cyphellophora_laciniata_CBS190.61_T,SRR7194806.23625,92.98,57,4,0,13,69,74,18,7e-16,84.2
Cyphellophora_laciniata_CBS190.61_T,SRR7194806.26081,96.08,51,1,1,20,69,1747,1797,3e-15,82.4
Cyphellophora_laciniata_CBS190.61_T,SRR7194806.25928,96.00,50,2,0,20,69,1765,1814,3e-15,82.4
Cyphellophora_laciniata_CBS190.61_T,SRR7194806.25268,96.00,50,2,0,20,69,1711,1760,3e-15,82.4
Cyphellophora_laciniata_CBS190.61_T,SRR7194806.25130,96.00,50,2,0,24,73,1739,1788,3e-15,82.4
Cyphellophora_laciniata_CBS190.61_T,SRR7194806.24950,96.00,50,2,0,20,69,67,18,3e-15,82.4
Cyphellophora_laciniata_CBS190.61_T,SRR7194806.24759,100.00,44,0,0,26,69,1792,1835,3e-15,82.4
Cyphellophora_laciniata_CBS190.61_T,SRR7194806.24278,96.00,50,2,0,20,69,1760,1809,3e-15,82.4
Cyphellophora_laciniata_CBS190.61_T,SRR7194806.23707,96.08,51,1,1,19,69,1707,1756,3e-15,82.4
Cyphellophora_laciniata_CBS190.61_T,SRR7194806.26950,97.83,46,1,0,24,69,63,18,9e-15,80.5
Cyphellophora_laciniata_CBS190.61_T,SRR7194806.26940,97.83,46,1,0,24,69,1743,1788,9e-15,80.5
Cyphellophora_laciniata_CBS190.61_T,SRR7194806.26912,97.83,46,1,0,24,69,1743,1788,9e-15,80.5
Cyphellophora_laciniata_CBS190.61_T,SRR7194806.26884,94.23,52,3,0,24,75,1741,1792,9e-15,80.5
Cyphellophora_laciniata_CBS190.61_T,SRR7194806.26871,94.23,52,3,0,24,75,1768,1819,9e-15,80.5
Cyphellophora_laciniata_CBS190.61_T,SRR7194806.26794,97.83,46,1,0,24,69,1736,1781,9e-15,80.5
Cyphellophora_laciniata_CBS190.61_T,SRR7194806.26773,97.83,46,1,0,24,69,1744,1789,9e-15,80.5
Cyphellophora_laciniata_CBS190.61_T,SRR7194806.26759,94.23,52,3,0,24,75,63,12,9e-15,80.5
Cyphellophora_laciniata_CBS190.61_T,SRR7194806.26732,100.00,43,0,0,27,69,1755,1797,9e-15,80.5
Cyphellophora_laciniata_CBS190.61_T,SRR7194806.26710,97.83,46,1,0,24,69,63,18,9e-15,80.5
Cyphellophora_laciniata_CBS190.61_T,SRR7194806.26560,97.83,46,1,0,24,69,62,17,9e-15,80.5
Cyphellophora_laciniata_CBS190.61_T,SRR7194806.26459,97.83,46,1,0,24,69,63,18,9e-15,80.5
Cyphellophora_laciniata_CBS190.61_T,SRR7194806.26457,97.83,46,1,0,24,69,63,18,9e-15,80.5
Cyphellophora_laciniata_CBS190.61_T,SRR7194806.26447,97.83,46,1,0,24,69,63,18,9e-15,80.5
Cyphellophora_laciniata_CBS190.61_T,SRR7194806.26098,97.83,46,1,0,24,69,63,18,9e-15,80.5
Cyphellophora_laciniata_CBS190.61_T,SRR7194806.26064,92.86,56,2,2,15,69,72,18,9e-15,80.5
Cyphellophora_laciniata_CBS190.61_T,SRR7194806.25994,97.83,46,1,0,24,69,1737,1782,9e-15,80.5
Cyphellophora_laciniata_CBS190.61_T,SRR7194806.25947,94.23,52,3,0,24,75,1738,1789,9e-15,80.5
Cyphellophora_laciniata_CBS190.61_T,SRR7194806.25834,97.83,46,1,0,24,69,63,18,9e-15,80.5
Cyphellophora_laciniata_CBS190.61_T,SRR7194806.25616,95.92,49,2,0,21,69,66,18,9e-15,80.5
Cyphellophora_laciniata_CBS190.61_T,SRR7194806.25541,97.83,46,1,0,24,69,1740,1785,9e-15,80.5
Cyphellophora_laciniata_CBS190.61_T,SRR7194806.25370,97.83,46,1,0,24,69,1737,1782,9e-15,80.5
Cyphellophora_laciniata_CBS190.61_T,SRR7194806.25369,100.00,43,0,0,27,69,60,18,9e-15,80.5
Cyphellophora_laciniata_CBS190.61_T,SRR7194806.25328,97.83,46,1,0,24,69,63,18,9e-15,80.5
Cyphellophora_laciniata_CBS190.61_T,SRR7194806.25236,94.23,52,3,0,24,75,63,12,9e-15,80.5
Cyphellophora_laciniata_CBS190.61_T,SRR7194806.25224,97.83,46,1,0,24,69,63,18,9e-15,80.5
Cyphellophora_laciniata_CBS190.61_T,SRR7194806.25189,97.83,46,1,0,24,69,63,18,9e-15,80.5
Cyphellophora_laciniata_CBS190.61_T,SRR7194806.25134,100.00,43,0,0,27,69,1756,1798,9e-15,80.5
Cyphellophora_laciniata_CBS190.61_T,SRR7194806.25065,95.92,49,2,0,21,69,66,18,9e-15,80.5
Cyphellophora_laciniata_CBS190.61_T,SRR7194806.25063,97.83,46,1,0,24,69,63,18,9e-15,80.5
Cyphellophora_laciniata_CBS190.61_T,SRR7194806.24981,97.83,46,1,0,24,69,1739,1784,9e-15,80.5
Cyphellophora_laciniata_CBS190.61_T,SRR7194806.24977,92.86,56,3,1,15,69,1764,1819,9e-15,80.5
Cyphellophora_laciniata_CBS190.61_T,SRR7194806.24951,94.23,52,3,0,18,69,1906,1957,9e-15,80.5
Cyphellophora_laciniata_CBS190.61_T,SRR7194806.24776,97.83,46,1,0,24,69,1737,1782,9e-15,80.5
Cyphellophora_laciniata_CBS190.61_T,SRR7194806.24621,95.92,49,2,0,21,69,66,18,9e-15,80.5
Cyphellophora_laciniata_CBS190.61_T,SRR7194806.24613,97.83,46,1,0,24,69,1747,1792,9e-15,80.5
Cyphellophora_laciniata_CBS190.61_T,SRR7194806.24518,100.00,43,0,0,27,69,60,18,9e-15,80.5
Cyphellophora_laciniata_CBS190.61_T,SRR7194806.24512,95.92,49,2,0,21,69,66,18,9e-15,80.5
Cyphellophora_laciniata_CBS190.61_T,SRR7194806.24505,97.83,46,1,0,24,69,63,18,9e-15,80.5
Cyphellophora_laciniata_CBS190.61_T,SRR7194806.24440,97.83,46,1,0,24,69,1735,1780,9e-15,80.5
Cyphellophora_laciniata_CBS190.61_T,SRR7194806.24425,97.83,46,1,0,24,69,1740,1785,9e-15,80.5
Cyphellophora_laciniata_CBS190.61_T,SRR7194806.24416,97.83,46,1,0,28,73,60,15,9e-15,80.5
Cyphellophora_laciniata_CBS190.61_T,SRR7194806.24355,97.83,46,1,0,24,69,1740,1785,9e-15,80.5
Cyphellophora_laciniata_CBS190.61_T,SRR7194806.24320,97.83,46,1,0,24,69,1736,1781,9e-15,80.5
Cyphellophora_laciniata_CBS190.61_T,SRR7194806.24290,97.83,46,1,0,24,69,63,18,9e-15,80.5
Cyphellophora_laciniata_CBS190.61_T,SRR7194806.24270,97.83,46,1,0,24,69,1736,1781,9e-15,80.5
Cyphellophora_laciniata_CBS190.61_T,SRR7194806.24209,97.83,46,1,0,24,69,1737,1782,9e-15,80.5
Cyphellophora_laciniata_CBS190.61_T,SRR7194806.24207,100.00,43,0,0,27,69,1756,1798,9e-15,80.5
Cyphellophora_laciniata_CBS190.61_T,SRR7194806.24180,97.83,46,1,0,24,69,1735,1780,9e-15,80.5
Cyphellophora_laciniata_CBS190.61_T,SRR7194806.24044,94.23,52,3,0,24,75,63,12,9e-15,80.5
Cyphellophora_laciniata_CBS190.61_T,SRR7194806.23988,97.83,46,1,0,24,69,63,18,9e-15,80.5
Cyphellophora_laciniata_CBS190.61_T,SRR7194806.23983,97.83,46,1,0,24,69,63,18,9e-15,80.5
Cyphellophora_laciniata_CBS190.61_T,SRR7194806.23961,95.92,49,2,0,21,69,1736,1784,9e-15,80.5
Cyphellophora_laciniata_CBS190.61_T,SRR7194806.23800,97.83,46,1,0,24,69,1738,1783,9e-15,80.5
Cyphellophora_laciniata_CBS190.61_T,SRR7194806.23770,97.83,46,1,0,24,69,63,18,9e-15,80.5
Cyphellophora_laciniata_CBS190.61_T,SRR7194806.23758,97.83,46,1,0,24,69,1728,1773,9e-15,80.5
Cyphellophora_laciniata_CBS190.61_T,SRR7194806.23732,97.83,46,1,0,24,69,62,17,9e-15,80.5
Cyphellophora_laciniata_CBS190.61_T,SRR7194806.23578,95.92,49,2,0,21,69,1764,1812,9e-15,80.5
Cyphellophora_laciniata_CBS190.61_T,SRR7194806.26961,95.83,48,2,0,28,75,59,12,3e-14,78.7
Cyphellophora_laciniata_CBS190.61_T,SRR7194806.26861,97.78,45,1,0,25,69,1743,1787,3e-14,78.7
Cyphellophora_laciniata_CBS190.61_T,SRR7194806.26823,100.00,42,0,0,28,69,1751,1792,3e-14,78.7
Cyphellophora_laciniata_CBS190.61_T,SRR7194806.26245,100.00,42,0,0,28,69,1742,1783,3e-14,78.7
Cyphellophora_laciniata_CBS190.61_T,SRR7194806.25886,97.78,45,1,0,25,69,62,18,3e-14,78.7
Cyphellophora_laciniata_CBS190.61_T,SRR7194806.25850,97.78,45,1,0,25,69,62,18,3e-14,78.7
Cyphellophora_laciniata_CBS190.61_T,SRR7194806.25421,100.00,42,0,0,28,69,1741,1782,3e-14,78.7
Cyphellophora_laciniata_CBS190.61_T,SRR7194806.25374,100.00,42,0,0,28,69,1744,1785,3e-14,78.7
Cyphellophora_laciniata_CBS190.61_T,SRR7194806.25153,97.78,45,1,0,25,69,1761,1805,3e-14,78.7
Cyphellophora_laciniata_CBS190.61_T,SRR7194806.25097,97.83,46,0,1,25,69,63,18,3e-14,78.7
Cyphellophora_laciniata_CBS190.61_T,SRR7194806.24905,100.00,42,0,0,28,69,59,18,3e-14,78.7
Cyphellophora_laciniata_CBS190.61_T,SRR7194806.24895,100.00,42,0,0,28,69,1751,1792,3e-14,78.7
Cyphellophora_laciniata_CBS190.61_T,SRR7194806.24792,95.83,48,2,0,28,75,1740,1787,3e-14,78.7
Cyphellophora_laciniata_CBS190.61_T,SRR7194806.24650,100.00,42,0,0,28,69,59,18,3e-14,78.7
Cyphellophora_laciniata_CBS190.61_T,SRR7194806.24410,97.78,45,1,0,25,69,62,18,3e-14,78.7
Cyphellophora_laciniata_CBS190.61_T,SRR7194806.24393,100.00,42,0,0,28,69,59,18,3e-14,78.7
Cyphellophora_laciniata_CBS190.61_T,SRR7194806.24229,100.00,42,0,0,28,69,59,18,3e-14,78.7
Cyphellophora_laciniata_CBS190.61_T,SRR7194806.24008,100.00,42,0,0,28,69,59,18,3e-14,78.7
Cyphellophora_laciniata_CBS190.61_T,SRR7194806.23781,100.00,42,0,0,28,69,59,18,3e-14,78.7
Cyphellophora_laciniata_CBS190.61_T,SRR7194806.23771,95.92,49,1,1,28,75,1752,1800,3e-14,78.7
Cyphellophora_laciniata_CBS190.61_T,SRR7194806.23661,95.83,48,2,0,28,75,59,12,3e-14,78.7
Cyphellophora_laciniata_CBS190.61_T,SRR7194806.23562,97.83,46,0,1,25,69,1768,1813,3e-14,78.7
Cyphellophora_laciniata_CBS190.61_T,SRR7194806.27011,100.00,41,0,0,29,69,58,18,1e-13,76.8
Cyphellophora_laciniata_CBS190.61_T,SRR7194806.26475,94.12,51,2,1,19,69,1723,1772,1e-13,76.8
Cyphellophora_laciniata_CBS190.61_T,SRR7194806.25758,97.78,45,0,1,25,69,1741,1784,1e-13,76.8
Cyphellophora_laciniata_CBS190.61_T,SRR7194806.24958,91.07,56,5,0,18,73,1731,1786,1e-13,76.8
Cyphellophora_laciniata_CBS190.61_T,SRR7194806.24934,94.12,51,2,1,19,69,67,18,1e-13,76.8
Cyphellophora_laciniata_CBS190.61_T,SRR7194806.24331,100.00,41,0,0,29,69,58,18,1e-13,76.8
Cyphellophora_laciniata_CBS190.61_T,SRR7194806.23930,100.00,41,0,0,29,69,58,18,1e-13,76.8
Cyphellophora_laciniata_CBS190.61_T,SRR7194806.23588,94.00,50,3,0,24,73,64,15,1e-13,76.8
Cyphellophora_laciniata_CBS190.61_T,SRR7194806.26966,95.65,46,2,0,24,69,62,17,4e-13,75.0
Cyphellophora_laciniata_CBS190.61_T,SRR7194806.26936,95.65,46,2,0,24,69,1753,1798,4e-13,75.0
Cyphellophora_laciniata_CBS190.61_T,SRR7194806.26932,95.74,47,1,1,24,69,64,18,4e-13,75.0
Cyphellophora_laciniata_CBS190.61_T,SRR7194806.26895,95.65,46,2,0,24,69,63,18,4e-13,75.0
Cyphellophora_laciniata_CBS190.61_T,SRR7194806.26806,95.65,46,2,0,24,69,63,18,4e-13,75.0
Cyphellophora_laciniata_CBS190.61_T,SRR7194806.26774,95.65,46,2,0,24,69,1741,1786,4e-13,75.0
Cyphellophora_laciniata_CBS190.61_T,SRR7194806.26742,95.65,46,2,0,24,69,63,18,4e-13,75.0
Cyphellophora_laciniata_CBS190.61_T,SRR7194806.26731,95.65,46,2,0,24,69,1739,1784,4e-13,75.0
Cyphellophora_laciniata_CBS190.61_T,SRR7194806.26531,95.65,46,2,0,24,69,1738,1783,4e-13,75.0
Cyphellophora_laciniata_CBS190.61_T,SRR7194806.26508,95.65,46,2,0,24,69,64,19,4e-13,75.0
Cyphellophora_laciniata_CBS190.61_T,SRR7194806.26443,95.65,46,2,0,24,69,1734,1779,4e-13,75.0
Cyphellophora_laciniata_CBS190.61_T,SRR7194806.26400,95.65,46,2,0,24,69,63,18,4e-13,75.0
Cyphellophora_laciniata_CBS190.61_T,SRR7194806.26396,94.00,50,2,1,20,69,66,18,4e-13,75.0
Cyphellophora_laciniata_CBS190.61_T,SRR7194806.26264,92.31,52,4,0,18,69,70,19,4e-13,75.0
Cyphellophora_laciniata_CBS190.61_T,SRR7194806.26169,95.65,46,2,0,24,69,1741,1786,4e-13,75.0
Cyphellophora_laciniata_CBS190.61_T,SRR7194806.26076,95.65,46,2,0,24,69,63,18,4e-13,75.0
Cyphellophora_laciniata_CBS190.61_T,SRR7194806.26034,95.65,46,2,0,24,69,63,18,4e-13,75.0
Cyphellophora_laciniata_CBS190.61_T,SRR7194806.26011,95.65,46,2,0,24,69,1739,1784,4e-13,75.0
Cyphellophora_laciniata_CBS190.61_T,SRR7194806.25741,95.65,46,2,0,24,69,63,18,4e-13,75.0
Cyphellophora_laciniata_CBS190.61_T,SRR7194806.25640,95.65,46,2,0,24,69,63,18,4e-13,75.0
Cyphellophora_laciniata_CBS190.61_T,SRR7194806.25496,90.91,55,5,0,15,69,73,19,4e-13,75.0
Cyphellophora_laciniata_CBS190.61_T,SRR7194806.25387,95.65,46,2,0,28,73,60,15,4e-13,75.0
Cyphellophora_laciniata_CBS190.61_T,SRR7194806.25353,95.65,46,2,0,24,69,63,18,4e-13,75.0
Cyphellophora_laciniata_CBS190.61_T,SRR7194806.25308,95.65,46,2,0,24,69,1751,1796,4e-13,75.0
Cyphellophora_laciniata_CBS190.61_T,SRR7194806.25288,95.65,46,2,0,24,69,1737,1782,4e-13,75.0
Cyphellophora_laciniata_CBS190.61_T,SRR7194806.25252,95.65,46,2,0,24,69,1742,1787,4e-13,75.0
Cyphellophora_laciniata_CBS190.61_T,SRR7194806.25219,95.65,46,2,0,24,69,1755,1800,4e-13,75.0
Cyphellophora_laciniata_CBS190.61_T,SRR7194806.25199,95.65,46,2,0,24,69,1704,1749,4e-13,75.0
Cyphellophora_laciniata_CBS190.61_T,SRR7194806.25193,95.65,46,2,0,24,69,63,18,4e-13,75.0
Cyphellophora_laciniata_CBS190.61_T,SRR7194806.25156,95.65,46,2,0,24,69,1755,1800,4e-13,75.0
Cyphellophora_laciniata_CBS190.61_T,SRR7194806.24990,95.65,46,2,0,24,69,63,18,4e-13,75.0
Cyphellophora_laciniata_CBS190.61_T,SRR7194806.24983,93.88,49,3,0,21,69,66,18,4e-13,75.0
Cyphellophora_laciniata_CBS190.61_T,SRR7194806.24860,95.74,47,1,1,24,69,1727,1773,4e-13,75.0
Cyphellophora_laciniata_CBS190.61_T,SRR7194806.24747,95.65,46,2,0,24,69,1740,1785,4e-13,75.0
Cyphellophora_laciniata_CBS190.61_T,SRR7194806.24443,97.67,43,1,0,27,69,60,18,4e-13,75.0
Cyphellophora_laciniata_CBS190.61_T,SRR7194806.24218,95.65,46,2,0,24,69,1748,1793,4e-13,75.0
Cyphellophora_laciniata_CBS190.61_T,SRR7194806.24213,93.88,49,3,0,21,69,1740,1788,4e-13,75.0
Cyphellophora_laciniata_CBS190.61_T,SRR7194806.24184,97.67,43,1,0,27,69,1762,1804,4e-13,75.0
Cyphellophora_laciniata_CBS190.61_T,SRR7194806.24151,95.65,46,2,0,24,69,62,17,4e-13,75.0
Cyphellophora_laciniata_CBS190.61_T,SRR7194806.23888,95.65,46,2,0,24,69,63,18,4e-13,75.0
Cyphellophora_laciniata_CBS190.61_T,SRR7194806.23422,92.45,53,3,1,24,75,64,12,4e-13,75.0
Cyphellophora_laciniata_CBS190.61_T,SRR7194806.26881,97.62,42,1,0,28,69,59,18,2e-12,73.1
Cyphellophora_laciniata_CBS190.61_T,SRR7194806.26865,97.62,42,1,0,28,69,59,18,2e-12,73.1
Cyphellophora_laciniata_CBS190.61_T,SRR7194806.26822,93.88,49,2,1,28,75,1742,1790,2e-12,73.1
Cyphellophora_laciniata_CBS190.61_T,SRR7194806.26618,97.62,42,1,0,28,69,58,17,2e-12,73.1
Cyphellophora_laciniata_CBS190.61_T,SRR7194806.26617,97.62,42,1,0,28,69,1772,1813,2e-12,73.1
Cyphellophora_laciniata_CBS190.61_T,SRR7194806.26606,97.62,42,1,0,28,69,1757,1798,2e-12,73.1
Cyphellophora_laciniata_CBS190.61_T,SRR7194806.26506,95.65,46,1,1,24,69,1733,1777,2e-12,73.1
Cyphellophora_laciniata_CBS190.61_T,SRR7194806.26499,95.65,46,1,1,24,69,61,17,2e-12,73.1
Cyphellophora_laciniata_CBS190.61_T,SRR7194806.26242,95.65,46,1,1,24,69,62,18,2e-12,73.1
Cyphellophora_laciniata_CBS190.61_T,SRR7194806.25955,92.31,52,3,1,18,69,68,18,2e-12,73.1
Cyphellophora_laciniata_CBS190.61_T,SRR7194806.25952,97.62,42,1,0,28,69,1741,1782,2e-12,73.1
Cyphellophora_laciniata_CBS190.61_T,SRR7194806.25718,97.62,42,1,0,28,69,59,18,2e-12,73.1
Cyphellophora_laciniata_CBS190.61_T,SRR7194806.25712,97.62,42,1,0,28,69,59,18,2e-12,73.1
Cyphellophora_laciniata_CBS190.61_T,SRR7194806.25498,97.62,42,1,0,28,69,59,18,2e-12,73.1
Cyphellophora_laciniata_CBS190.61_T,SRR7194806.25220,97.62,42,1,0,28,69,59,18,2e-12,73.1
Cyphellophora_laciniata_CBS190.61_T,SRR7194806.25163,92.31,52,2,2,24,75,61,12,2e-12,73.1
Cyphellophora_laciniata_CBS190.61_T,SRR7194806.25104,97.62,42,1,0,28,69,60,19,2e-12,73.1
Cyphellophora_laciniata_CBS190.61_T,SRR7194806.25102,97.62,42,1,0,28,69,1748,1789,2e-12,73.1
Cyphellophora_laciniata_CBS190.61_T,SRR7194806.25076,97.62,42,1,0,28,69,59,18,2e-12,73.1
Cyphellophora_laciniata_CBS190.61_T,SRR7194806.25074,92.31,52,3,1,18,69,68,18,2e-12,73.1
Cyphellophora_laciniata_CBS190.61_T,SRR7194806.25008,92.31,52,3,1,18,69,68,18,2e-12,73.1
Cyphellophora_laciniata_CBS190.61_T,SRR7194806.24848,95.65,46,1,1,24,69,1735,1779,2e-12,73.1
Cyphellophora_laciniata_CBS190.61_T,SRR7194806.24834,97.62,42,1,0,28,69,59,18,2e-12,73.1
Cyphellophora_laciniata_CBS190.61_T,SRR7194806.24325,97.62,42,1,0,28,69,1757,1798,2e-12,73.1
Cyphellophora_laciniata_CBS190.61_T,SRR7194806.24127,97.62,42,1,0,28,69,59,18,2e-12,73.1
Cyphellophora_laciniata_CBS190.61_T,SRR7194806.23935,97.62,42,1,0,28,69,59,18,2e-12,73.1
Cyphellophora_laciniata_CBS190.61_T,SRR7194806.23917,97.62,42,1,0,28,69,59,18,2e-12,73.1
Cyphellophora_laciniata_CBS190.61_T,SRR7194806.23825,97.62,42,1,0,28,69,60,19,2e-12,73.1
Cyphellophora_laciniata_CBS190.61_T,SRR7194806.23811,95.65,46,0,2,24,69,60,17,2e-12,73.1
Cyphellophora_laciniata_CBS190.61_T,SRR7194806.23791,97.62,42,1,0,28,69,1745,1786,2e-12,73.1
Cyphellophora_laciniata_CBS190.61_T,SRR7194806.23656,97.62,42,1,0,28,69,60,19,2e-12,73.1
Cyphellophora_laciniata_CBS190.61_T,SRR7194806.23585,92.31,52,3,1,18,69,68,18,2e-12,73.1
Cyphellophora_laciniata_CBS190.61_T,SRR7194806.23458,93.88,49,2,1,28,75,1739,1787,2e-12,73.1
Cyphellophora_laciniata_CBS190.61_T,SRR7194806.23420,97.62,42,1,0,28,69,1754,1795,2e-12,73.1
Cyphellophora_laciniata_CBS190.61_T,SRR7194806.25650,97.56,41,1,0,29,69,58,18,6e-12,71.3
Cyphellophora_laciniata_CBS190.61_T,SRR7194806.25166,97.56,41,1,0,29,69,58,18,6e-12,71.3
Cyphellophora_laciniata_CBS190.61_T,SRR7194806.25069,97.56,41,1,0,29,69,1760,1800,6e-12,71.3
Cyphellophora_laciniata_CBS190.61_T,SRR7194806.26800,97.50,40,1,0,30,69,1740,1779,2e-11,69.4
Cyphellophora_laciniata_CBS190.61_T,SRR7194806.25338,90.38,52,5,0,18,69,1732,1783,2e-11,69.4
Cyphellophora_laciniata_CBS190.61_T,SRR7194806.24160,90.38,52,5,0,18,69,69,18,2e-11,69.4
Cyphellophora_laciniata_CBS190.61_T,SRR7194806.24095,93.62,47,2,1,24,69,1759,1805,2e-11,69.4
Cyphellophora_laciniata_CBS190.61_T,SRR7194806.26826,93.48,46,2,1,24,69,1734,1778,7e-11,67.6
Cyphellophora_laciniata_CBS190.61_T,SRR7194806.25989,97.44,39,1,0,31,69,56,18,7e-11,67.6
Cyphellophora_laciniata_CBS190.61_T,SRR7194806.25838,95.35,43,1,1,28,69,1752,1794,7e-11,67.6
Cyphellophora_laciniata_CBS190.61_T,SRR7194806.25581,93.48,46,2,1,24,69,62,18,7e-11,67.6
Cyphellophora_laciniata_CBS190.61_T,SRR7194806.25204,97.44,39,1,0,31,69,1729,1767,7e-11,67.6
Cyphellophora_laciniata_CBS190.61_T,SRR7194806.27009,97.44,39,0,1,31,69,1735,1772,3e-10,65.8
Cyphellophora_laciniata_CBS190.61_T,SRR7194806.26244,95.12,41,2,0,29,69,1922,1962,3e-10,65.8
Cyphellophora_laciniata_CBS190.61_T,SRR7194806.24956,95.12,41,2,0,29,69,58,18,3e-10,65.8
Cyphellophora_laciniata_CBS190.61_T,SRR7194806.24496,93.18,44,3,0,26,69,61,18,3e-10,65.8
Cyphellophora_laciniata_CBS190.61_T,SRR7194806.24144,87.27,55,3,3,19,69,1758,1812,1e-08,60.2
Cyphellophora_laciniata_CBS190.61_T,SRR7194806.27032,90.91,44,3,1,26,69,1741,1783,4e-08,58.4
