Exophiala_nigra_CBS535.94_T,SRR7004205.36018131,91.84,147,11,1,212,358,150,5,5e-49,204
Exophiala_nigra_CBS535.94_T,SRR7004205.36018131,95.12,82,4,0,203,284,219,300,8e-27,130
Exophiala_nigra_CBS535.94_T,SRR7004205.70182796,89.58,144,12,2,218,360,302,161,8e-42,180
Exophiala_nigra_CBS535.94_T,SRR7004205.81534490,87.67,146,17,1,203,348,1,145,2e-38,169
Exophiala_nigra_CBS535.94_T,SRR7004205.83919461,91.49,94,7,1,203,296,210,302,3e-26,128
Exophiala_nigra_CBS535.94_T,SRR7004205.24289614,88.66,97,10,1,237,333,1,96,6e-23,117
Exophiala_spinifera_CBS899.68_T,SRR7004205.36018131,91.16,147,12,1,209,355,150,5,2e-47,198
Exophiala_spinifera_CBS899.68_T,SRR7004205.36018131,95.12,82,4,0,200,281,219,300,7e-27,130
Exophiala_spinifera_CBS899.68_T,SRR7004205.70182796,90.28,144,11,2,215,357,302,161,2e-43,185
Exophiala_spinifera_CBS899.68_T,SRR7004205.81534490,86.99,146,18,1,200,345,1,145,7e-37,163
Exophiala_spinifera_CBS899.68_T,SRR7004205.83919461,96.15,78,3,0,200,277,210,287,3e-26,128
Exophiala_spinifera_CBS899.68_T,SRR7004205.24289614,87.63,97,11,1,234,330,1,96,3e-21,111
Exophiala_exophialae_CBS668.76_T,SRR7004205.36018131,91.16,147,12,1,210,356,150,5,2e-47,198
Exophiala_exophialae_CBS668.76_T,SRR7004205.36018131,95.12,82,4,0,201,282,219,300,7e-27,130
Exophiala_exophialae_CBS668.76_T,SRR7004205.70182796,90.28,144,11,2,216,358,302,161,2e-43,185
Exophiala_exophialae_CBS668.76_T,SRR7004205.81534490,86.99,146,18,1,201,346,1,145,7e-37,163
Exophiala_exophialae_CBS668.76_T,SRR7004205.83919461,96.15,78,3,0,201,278,210,287,3e-26,128
Exophiala_exophialae_CBS668.76_T,SRR7004205.24289614,87.63,97,11,1,235,331,1,96,3e-21,111
Exophiala_polymorpha_CBS138920_T,SRR7004205.36018131,91.16,147,12,1,312,458,150,5,3e-47,198
Exophiala_polymorpha_CBS138920_T,SRR7004205.36018131,95.12,82,4,0,303,384,219,300,9e-27,130
Exophiala_polymorpha_CBS138920_T,SRR7004205.70182796,90.28,144,11,2,318,460,302,161,2e-43,185
Exophiala_polymorpha_CBS138920_T,SRR7004205.81534490,86.99,146,18,1,303,448,1,145,9e-37,163
Exophiala_polymorpha_CBS138920_T,SRR7004205.83919461,96.15,78,3,0,303,380,210,287,3e-26,128
Exophiala_polymorpha_CBS138920_T,SRR7004205.24289614,87.63,97,11,1,337,433,1,96,3e-21,111
Exophiala_polymorpha_CBS138920_T,SRR7004205.49606208,97.50,40,1,0,655,694,20,59,2e-08,69.4
Exophiala_polymorpha_CBS138920_T,SRR7004205.18586664,97.50,40,1,0,655,694,104,143,2e-08,69.4
Exophiala_polymorpha_CBS138920_T,SRR7004205.12650582,97.50,40,1,0,655,694,279,240,2e-08,69.4
Exophiala_polymorpha_CBS138920_T,SRR7004205.33326416,100.00,28,0,0,667,694,150,123,0.002,52.8
Exophiala_oligosperma_CBS725.88_T,SRR7004205.36018131,91.16,147,12,1,222,368,150,5,2e-47,198
Exophiala_oligosperma_CBS725.88_T,SRR7004205.36018131,95.12,82,4,0,213,294,219,300,8e-27,130
Exophiala_oligosperma_CBS725.88_T,SRR7004205.70182796,90.28,144,11,2,228,370,302,161,2e-43,185
Exophiala_oligosperma_CBS725.88_T,SRR7004205.81534490,86.99,146,18,1,213,358,1,145,7e-37,163
Exophiala_oligosperma_CBS725.88_T,SRR7004205.83919461,96.15,78,3,0,213,290,210,287,3e-26,128
Exophiala_oligosperma_CBS725.88_T,SRR7004205.24289614,87.63,97,11,1,247,343,1,96,3e-21,111
Exophiala_jeanselmei_CBS507.90_T,SRR7004205.36018131,91.16,147,12,1,214,360,150,5,2e-47,198
Exophiala_jeanselmei_CBS507.90_T,SRR7004205.36018131,95.12,82,4,0,205,286,219,300,8e-27,130
Exophiala_jeanselmei_CBS507.90_T,SRR7004205.70182796,90.28,144,11,2,220,362,302,161,2e-43,185
Exophiala_jeanselmei_CBS507.90_T,SRR7004205.81534490,86.99,146,18,1,205,350,1,145,8e-37,163
Exophiala_jeanselmei_CBS507.90_T,SRR7004205.83919461,96.15,78,3,0,205,282,210,287,3e-26,128
Exophiala_jeanselmei_CBS507.90_T,SRR7004205.24289614,87.63,97,11,1,239,335,1,96,3e-21,111
Exophiala_jeanselmei_CBS507.90_T,SRR7004205.49606208,97.92,48,1,0,557,604,20,67,6e-13,84.2
Exophiala_jeanselmei_CBS507.90_T,SRR7004205.18586664,97.92,48,1,0,557,604,104,151,6e-13,84.2
Exophiala_jeanselmei_CBS507.90_T,SRR7004205.12650582,97.92,48,1,0,557,604,279,232,6e-13,84.2
Exophiala_jeanselmei_CBS507.90_T,SRR7004205.33326416,100.00,36,0,0,569,604,150,115,7e-08,67.6
Exophiala_bergeri_CBS353.52,SRR7004205.36018131,91.84,147,11,1,175,321,150,5,4e-49,204
Exophiala_bergeri_CBS353.52,SRR7004205.36018131,95.12,82,4,0,166,247,219,300,6e-27,130
Exophiala_bergeri_CBS353.52,SRR7004205.70182796,89.58,144,12,2,181,323,302,161,6e-42,180
Exophiala_bergeri_CBS353.52,SRR7004205.81534490,87.67,146,17,1,166,311,1,145,1e-38,169
Exophiala_bergeri_CBS353.52,SRR7004205.83919461,91.49,94,7,1,166,259,210,302,2e-26,128
Exophiala_bergeri_CBS353.52,SRR7004205.24289614,88.66,97,10,1,200,296,1,96,5e-23,117
Exophiala_moniliae_CBS520.76_T,SRR7004205.36018131,91.84,147,11,1,212,358,150,5,4e-49,204
Exophiala_moniliae_CBS520.76_T,SRR7004205.36018131,92.39,92,6,1,193,284,210,300,8e-27,130
Exophiala_moniliae_CBS520.76_T,SRR7004205.70182796,87.90,157,13,5,218,372,302,150,8e-42,180
Exophiala_moniliae_CBS520.76_T,SRR7004205.81534490,87.67,146,17,1,203,348,1,145,2e-38,169
Exophiala_moniliae_CBS520.76_T,SRR7004205.83919461,91.49,94,7,1,203,296,210,302,3e-26,128
Exophiala_moniliae_CBS520.76_T,SRR7004205.24289614,88.66,97,10,1,237,333,1,96,6e-23,117
Exophiala_pisciphila_CBS537.73_T,SRR7004205.36018131,91.84,147,11,1,215,361,150,5,5e-49,204
Exophiala_pisciphila_CBS537.73_T,SRR7004205.36018131,94.12,85,4,1,206,290,219,302,3e-26,128
Exophiala_pisciphila_CBS537.73_T,SRR7004205.70182796,88.24,153,15,3,221,373,302,153,9e-42,180
Exophiala_pisciphila_CBS537.73_T,SRR7004205.81534490,86.99,146,18,1,206,351,1,145,9e-37,163
Exophiala_pisciphila_CBS537.73_T,SRR7004205.83919461,96.15,78,3,0,206,283,210,287,3e-26,128
Exophiala_pisciphila_CBS537.73_T,SRR7004205.49606208,92.05,88,7,0,566,653,20,107,4e-25,124
Exophiala_pisciphila_CBS537.73_T,SRR7004205.12650582,92.05,88,7,0,566,653,279,192,4e-25,124
Exophiala_pisciphila_CBS537.73_T,SRR7004205.24289614,81.88,138,24,1,240,377,1,137,2e-22,115
Exophiala_pisciphila_CBS537.73_T,SRR7004205.33326416,93.42,76,5,0,578,653,150,75,9e-22,113
Exophiala_pisciphila_CBS537.73_T,SRR7004205.18586664,95.83,48,2,0,566,613,104,151,3e-11,78.7
Exophiala_xenobiotica_CBS117642,SRR7004205.36018131,91.84,147,11,1,207,353,150,5,4e-49,204
Exophiala_xenobiotica_CBS117642,SRR7004205.36018131,92.39,92,6,1,188,279,210,300,7e-27,130
Exophiala_xenobiotica_CBS117642,SRR7004205.70182796,89.58,144,12,2,213,355,302,161,7e-42,180
Exophiala_xenobiotica_CBS117642,SRR7004205.81534490,87.67,146,17,1,198,343,1,145,2e-38,169
Exophiala_xenobiotica_CBS117642,SRR7004205.83919461,91.49,94,7,1,198,291,210,302,3e-26,128
Exophiala_xenobiotica_CBS117642,SRR7004205.24289614,88.66,97,10,1,232,328,1,96,6e-23,117
Exophiala_brunnea_CBS,SRR7004205.36018131,91.16,147,12,1,243,389,150,5,2e-47,198
Exophiala_brunnea_CBS,SRR7004205.36018131,95.12,82,4,0,234,315,219,300,9e-27,130
Exophiala_brunnea_CBS,SRR7004205.81534490,88.36,146,16,1,234,379,1,145,4e-40,174
Exophiala_brunnea_CBS,SRR7004205.70182796,87.66,154,14,4,249,401,302,153,4e-40,174
Exophiala_brunnea_CBS,SRR7004205.83919461,91.49,94,7,1,234,327,210,302,3e-26,128
Exophiala_brunnea_CBS,SRR7004205.24289614,92.59,81,5,1,268,348,1,80,2e-22,115
Exophiala_brunnea_CBS,SRR7004205.47487452,100.00,40,0,0,1,40,207,168,4e-10,75.0
Exophiala_brunnea_CBS,SRR7004205.89969504,100.00,39,0,0,1,39,95,133,1e-09,73.1
Exophiala_brunnea_CBS,SRR7004205.89969504,100.00,39,0,0,1,39,266,228,1e-09,73.1
Exophiala_nishimurae_CBS101538_T,SRR7004205.36018131,91.16,147,12,1,221,367,150,5,2e-47,198
Exophiala_nishimurae_CBS101538_T,SRR7004205.36018131,95.12,82,4,0,212,293,219,300,8e-27,130
Exophiala_nishimurae_CBS101538_T,SRR7004205.70182796,90.28,144,11,2,227,369,302,161,2e-43,185
Exophiala_nishimurae_CBS101538_T,SRR7004205.81534490,86.99,146,18,1,212,357,1,145,8e-37,163
Exophiala_nishimurae_CBS101538_T,SRR7004205.83919461,96.15,78,3,0,212,289,210,287,3e-26,128
Exophiala_nishimurae_CBS101538_T,SRR7004205.24289614,87.63,97,11,1,246,342,1,96,3e-21,111
Exophiala_mesophila_CBS402.95_T,SRR7004205.36018131,91.16,147,12,1,205,351,150,5,2e-47,198
Exophiala_mesophila_CBS402.95_T,SRR7004205.36018131,92.39,92,6,1,186,277,210,300,9e-27,130
Exophiala_mesophila_CBS402.95_T,SRR7004205.81534490,88.36,146,16,1,196,341,1,145,4e-40,174
Exophiala_mesophila_CBS402.95_T,SRR7004205.70182796,87.66,154,14,4,211,363,302,153,4e-40,174
Exophiala_mesophila_CBS402.95_T,SRR7004205.49606208,93.18,88,6,0,563,650,20,107,9e-27,130
Exophiala_mesophila_CBS402.95_T,SRR7004205.12650582,93.18,88,6,0,563,650,279,192,9e-27,130
Exophiala_mesophila_CBS402.95_T,SRR7004205.83919461,91.49,94,7,1,196,289,210,302,3e-26,128
Exophiala_mesophila_CBS402.95_T,SRR7004205.24289614,92.59,81,5,1,230,310,1,80,2e-22,115
Exophiala_mesophila_CBS402.95_T,SRR7004205.33326416,93.42,76,5,0,575,650,150,75,9e-22,113
Exophiala_mesophila_CBS402.95_T,SRR7004205.18586664,97.92,48,1,0,563,610,104,151,7e-13,84.2
Exophiala_castellanii_CBS158.58_T,SRR7004205.36018131,91.16,147,12,1,203,349,150,5,2e-47,198
Exophiala_castellanii_CBS158.58_T,SRR7004205.36018131,92.39,92,6,1,184,275,210,300,9e-27,130
Exophiala_castellanii_CBS158.58_T,SRR7004205.81534490,88.36,146,16,1,194,339,1,145,4e-40,174
Exophiala_castellanii_CBS158.58_T,SRR7004205.70182796,87.66,154,14,4,209,361,302,153,4e-40,174
Exophiala_castellanii_CBS158.58_T,SRR7004205.49606208,93.18,88,6,0,562,649,20,107,9e-27,130
Exophiala_castellanii_CBS158.58_T,SRR7004205.12650582,93.18,88,6,0,562,649,279,192,9e-27,130
Exophiala_castellanii_CBS158.58_T,SRR7004205.83919461,91.49,94,7,1,194,287,210,302,3e-26,128
Exophiala_castellanii_CBS158.58_T,SRR7004205.24289614,92.59,81,5,1,228,308,1,80,2e-22,115
Exophiala_castellanii_CBS158.58_T,SRR7004205.33326416,93.42,76,5,0,574,649,150,75,9e-22,113
Exophiala_castellanii_CBS158.58_T,SRR7004205.18586664,97.92,48,1,0,562,609,104,151,7e-13,84.2
Exophiala_lecanii-corni_CBS123.33_T,SRR7004205.36018131,91.16,147,12,1,226,372,150,5,2e-47,198
Exophiala_lecanii-corni_CBS123.33_T,SRR7004205.36018131,95.12,82,4,0,217,298,219,300,8e-27,130
Exophiala_lecanii-corni_CBS123.33_T,SRR7004205.81534490,88.36,146,16,1,217,362,1,145,4e-40,174
Exophiala_lecanii-corni_CBS123.33_T,SRR7004205.70182796,88.81,143,13,2,232,373,302,162,1e-39,172
Exophiala_lecanii-corni_CBS123.33_T,SRR7004205.83919461,91.49,94,7,1,217,310,210,302,3e-26,128
Exophiala_lecanii-corni_CBS123.33_T,SRR7004205.24289614,92.59,81,5,1,251,331,1,80,2e-22,115
Exophiala_dermatitidis_CBS748.88,SRR7004205.36018131,91.84,147,10,2,219,364,150,5,1e-48,204
Exophiala_dermatitidis_CBS748.88,SRR7004205.36018131,95.12,82,3,1,210,290,219,300,8e-26,128
Exophiala_dermatitidis_CBS748.88,SRR7004205.69083722,89.40,151,14,2,856,1005,152,301,3e-44,189
Exophiala_dermatitidis_CBS748.88,SRR7004205.26533009,88.59,149,17,0,836,984,300,152,6e-42,182
Exophiala_dermatitidis_CBS748.88,SRR7004205.70182796,87.58,153,15,4,225,376,302,153,1e-39,174
Exophiala_dermatitidis_CBS748.88,SRR7004205.81534490,87.67,146,16,2,210,354,1,145,4e-38,169
Exophiala_dermatitidis_CBS748.88,SRR7004205.49606208,92.31,117,9,0,588,704,20,136,2e-37,167
Exophiala_dermatitidis_CBS748.88,SRR7004205.12650582,92.31,117,9,0,588,704,279,163,2e-37,167
Exophiala_dermatitidis_CBS748.88,SRR7004205.15603677,96.91,97,3,0,1408,1504,152,248,2e-36,163
Exophiala_dermatitidis_CBS748.88,SRR7004205.33326416,91.26,103,9,0,600,702,150,48,1e-29,141
Exophiala_dermatitidis_CBS748.88,SRR7004205.83903311,91.58,95,7,1,1211,1305,192,285,2e-26,130
Exophiala_dermatitidis_CBS748.88,SRR7004205.83919461,91.49,94,6,2,210,302,210,302,8e-26,128
Exophiala_dermatitidis_CBS748.88,SRR7004205.58089284,87.04,108,14,0,1351,1458,108,1,4e-24,122
Exophiala_dermatitidis_CBS748.88,SRR7004205.58089284,90.00,50,5,0,1197,1246,251,300,6e-07,65.8
Exophiala_dermatitidis_CBS748.88,SRR7004205.44348973,87.04,108,14,0,898,1005,152,45,4e-24,122
Exophiala_dermatitidis_CBS748.88,SRR7004205.44348973,90.00,90,7,2,842,930,209,297,6e-22,115
Exophiala_dermatitidis_CBS748.88,SRR7004205.24289614,82.61,138,23,1,243,380,1,137,1e-23,121
Exophiala_dermatitidis_CBS748.88,SRR7004205.57264255,90.11,91,8,1,1211,1301,61,150,2e-22,117
Exophiala_dermatitidis_CBS748.88,SRR7004205.57264255,88.76,89,6,2,1316,1401,239,152,4e-19,106
Exophiala_dermatitidis_CBS748.88,SRR7004205.27989170,86.24,109,13,2,1184,1291,275,168,2e-22,117
Exophiala_dermatitidis_CBS748.88,SRR7004205.31111100,88.54,96,10,1,1199,1294,151,57,6e-22,115
Exophiala_dermatitidis_CBS748.88,SRR7004205.87128346,88.51,87,10,0,919,1005,152,238,4e-19,106
Exophiala_dermatitidis_CBS748.88,SRR7004205.4534382,84.44,90,10,3,1297,1383,239,151,5e-13,86.1
Exophiala_dermatitidis_CBS748.88,SRR7004205.18586664,97.92,48,1,0,588,635,104,151,2e-12,84.2
Exophiala_angulospora_CBS482.92_T,SRR7004205.36018131,91.84,147,11,1,209,355,150,5,4e-49,204
Exophiala_angulospora_CBS482.92_T,SRR7004205.36018131,95.12,82,4,0,200,281,219,300,7e-27,130
Exophiala_angulospora_CBS482.92_T,SRR7004205.70182796,88.39,155,13,4,215,368,302,152,2e-42,182
Exophiala_angulospora_CBS482.92_T,SRR7004205.81534490,87.67,146,17,1,200,345,1,145,2e-38,169
Exophiala_angulospora_CBS482.92_T,SRR7004205.83919461,91.49,94,7,1,200,293,210,302,3e-26,128
Exophiala_angulospora_CBS482.92_T,SRR7004205.24289614,83.33,138,22,1,234,371,1,137,1e-25,126
Exophiala_opportunistica_CBS109811_T,SRR7004205.36018131,91.84,147,11,1,208,354,150,5,4e-49,204
Exophiala_opportunistica_CBS109811_T,SRR7004205.36018131,95.12,82,4,0,199,280,219,300,8e-27,130
Exophiala_opportunistica_CBS109811_T,SRR7004205.70182796,88.31,154,13,4,214,366,302,153,7e-42,180
Exophiala_opportunistica_CBS109811_T,SRR7004205.81534490,87.67,146,17,1,199,344,1,145,2e-38,169
Exophiala_opportunistica_CBS109811_T,SRR7004205.83919461,91.49,94,7,1,199,292,210,302,3e-26,128
Exophiala_opportunistica_CBS109811_T,SRR7004205.24289614,82.61,138,23,1,233,370,1,137,5e-24,121
Exophiala_salmonis_CBS157.67_T,SRR7004205.36018131,91.84,147,11,1,337,483,150,5,6e-49,204
Exophiala_salmonis_CBS157.67_T,SRR7004205.36018131,95.12,82,4,0,328,409,219,300,1e-26,130
Exophiala_salmonis_CBS157.67_T,SRR7004205.70182796,88.31,154,13,4,343,495,302,153,1e-41,180
Exophiala_salmonis_CBS157.67_T,SRR7004205.70182796,90.70,86,8,0,37,122,1,86,3e-22,115
Exophiala_salmonis_CBS157.67_T,SRR7004205.81534490,87.67,146,17,1,328,473,1,145,2e-38,169
Exophiala_salmonis_CBS157.67_T,SRR7004205.83919461,91.49,94,7,1,328,421,210,302,4e-26,128
Exophiala_salmonis_CBS157.67_T,SRR7004205.49606208,92.05,88,7,0,686,773,20,107,5e-25,124
Exophiala_salmonis_CBS157.67_T,SRR7004205.12650582,92.05,88,7,0,686,773,279,192,5e-25,124
Exophiala_salmonis_CBS157.67_T,SRR7004205.24289614,82.61,138,23,1,362,499,1,137,6e-24,121
Exophiala_salmonis_CBS157.67_T,SRR7004205.33326416,93.42,76,5,0,698,773,150,75,1e-21,113
Exophiala_salmonis_CBS157.67_T,SRR7004205.89969504,97.78,45,1,0,78,122,57,101,4e-11,78.7
Exophiala_salmonis_CBS157.67_T,SRR7004205.89969504,100.00,40,0,0,83,122,299,260,5e-10,75.0
Exophiala_salmonis_CBS157.67_T,SRR7004205.47487452,97.78,45,1,0,78,122,245,201,4e-11,78.7
Exophiala_salmonis_CBS157.67_T,SRR7004205.43975008,97.78,45,1,0,78,122,215,171,4e-11,78.7
Exophiala_salmonis_CBS157.67_T,SRR7004205.18586664,95.83,48,2,0,686,733,104,151,4e-11,78.7
Exophiala_salmonis_CBS157.67_T,SRR7004205.49992385,100.00,31,0,0,92,122,4,34,5e-05,58.4
Exophiala_aquamarina_CBS119918_T,SRR7004205.36018131,91.84,147,11,1,215,361,150,5,4e-49,204
Exophiala_aquamarina_CBS119918_T,SRR7004205.36018131,95.12,82,4,0,206,287,219,300,8e-27,130
Exophiala_aquamarina_CBS119918_T,SRR7004205.70182796,89.51,143,12,2,221,362,302,162,3e-41,178
Exophiala_aquamarina_CBS119918_T,SRR7004205.81534490,87.67,146,17,1,206,351,1,145,2e-38,169
Exophiala_aquamarina_CBS119918_T,SRR7004205.83919461,91.49,94,7,1,206,299,210,302,3e-26,128
Exophiala_aquamarina_CBS119918_T,SRR7004205.24289614,88.66,97,10,1,240,336,1,96,6e-23,117
Exophiala_cancerae_CBS120420_T,SRR7004205.36018131,91.84,147,11,1,230,376,150,5,5e-49,204
Exophiala_cancerae_CBS120420_T,SRR7004205.36018131,95.12,82,4,0,221,302,219,300,8e-27,130
Exophiala_cancerae_CBS120420_T,SRR7004205.70182796,88.31,154,13,4,236,388,302,153,8e-42,180
Exophiala_cancerae_CBS120420_T,SRR7004205.81534490,87.67,146,17,1,221,366,1,145,2e-38,169
Exophiala_cancerae_CBS120420_T,SRR7004205.83919461,91.49,94,7,1,221,314,210,302,3e-26,128
Exophiala_cancerae_CBS120420_T,SRR7004205.24289614,82.61,138,23,1,255,392,1,137,5e-24,121
Exophiala_cancerae_CBS120420_T,SRR7004205.49606208,95.83,48,2,0,577,624,20,67,3e-11,78.7
Exophiala_cancerae_CBS120420_T,SRR7004205.18586664,95.83,48,2,0,577,624,104,151,3e-11,78.7
Exophiala_cancerae_CBS120420_T,SRR7004205.12650582,95.83,48,2,0,577,624,279,232,3e-11,78.7
Exophiala_cancerae_CBS120420_T,SRR7004205.33326416,100.00,36,0,0,589,624,150,115,7e-08,67.6
Exophiala_tremulae_CBS129355,SRR7004205.36018131,91.84,147,11,1,242,388,150,5,5e-49,204
Exophiala_tremulae_CBS129355,SRR7004205.36018131,95.12,82,4,0,233,314,219,300,9e-27,130
Exophiala_tremulae_CBS129355,SRR7004205.70182796,88.31,154,13,4,248,400,302,153,8e-42,180
Exophiala_tremulae_CBS129355,SRR7004205.81534490,87.67,146,17,1,233,378,1,145,2e-38,169
Exophiala_tremulae_CBS129355,SRR7004205.83919461,91.49,94,7,1,233,326,210,302,3e-26,128
Exophiala_tremulae_CBS129355,SRR7004205.24289614,82.61,138,23,1,267,404,1,137,5e-24,121
Exophiala_tremulae_CBS129355,SRR7004205.47487452,100.00,40,0,0,1,40,207,168,4e-10,75.0
Exophiala_tremulae_CBS129355,SRR7004205.89969504,100.00,39,0,0,1,39,95,133,1e-09,73.1
Exophiala_tremulae_CBS129355,SRR7004205.89969504,100.00,39,0,0,1,39,266,228,1e-09,73.1
Exophiala_equina_CBS116009,SRR7004205.36018131,91.84,147,11,1,208,354,150,5,4e-49,204
Exophiala_equina_CBS116009,SRR7004205.36018131,95.12,82,4,0,199,280,219,300,8e-27,130
Exophiala_equina_CBS116009,SRR7004205.70182796,88.31,154,13,4,214,366,302,153,7e-42,180
Exophiala_equina_CBS116009,SRR7004205.81534490,87.67,146,17,1,199,344,1,145,2e-38,169
Exophiala_equina_CBS116009,SRR7004205.83919461,91.49,94,7,1,199,292,210,302,3e-26,128
Exophiala_equina_CBS116009,SRR7004205.24289614,82.61,138,23,1,233,370,1,137,5e-24,121
Exophiala_alcalophila_CBS520.82_T,SRR7004205.36018131,91.84,147,11,1,219,365,150,5,4e-49,204
Exophiala_alcalophila_CBS520.82_T,SRR7004205.36018131,95.12,82,4,0,210,291,219,300,8e-27,130
Exophiala_alcalophila_CBS520.82_T,SRR7004205.70182796,87.90,157,13,5,225,379,302,150,7e-42,180
Exophiala_alcalophila_CBS520.82_T,SRR7004205.81534490,87.67,146,17,1,210,355,1,145,2e-38,169
Exophiala_alcalophila_CBS520.82_T,SRR7004205.83919461,89.62,106,8,2,198,303,200,302,2e-27,132
Exophiala_alcalophila_CBS520.82_T,SRR7004205.24289614,88.66,97,10,1,244,340,1,96,6e-23,117
Exophiala_crusticola_CBS119970_T,SRR7004205.36018131,91.84,147,11,1,224,370,150,5,4e-49,204
Exophiala_crusticola_CBS119970_T,SRR7004205.36018131,95.12,82,4,0,215,296,219,300,7e-27,130
Exophiala_crusticola_CBS119970_T,SRR7004205.70182796,88.31,154,13,4,230,382,302,153,7e-42,180
Exophiala_crusticola_CBS119970_T,SRR7004205.81534490,87.67,146,17,1,215,360,1,145,2e-38,169
Exophiala_crusticola_CBS119970_T,SRR7004205.83919461,91.49,94,7,1,215,308,210,302,3e-26,128
Exophiala_crusticola_CBS119970_T,SRR7004205.24289614,82.61,138,23,1,249,386,1,137,4e-24,121
Rhinocladiella_atrovirens_CBS264.49,SRR7004205.36018131,91.16,147,12,1,250,396,150,5,2e-47,198
Rhinocladiella_atrovirens_CBS264.49,SRR7004205.36018131,92.39,92,6,1,231,322,210,300,8e-27,130
Rhinocladiella_atrovirens_CBS264.49,SRR7004205.81534490,88.36,146,16,1,241,386,1,145,4e-40,174
Rhinocladiella_atrovirens_CBS264.49,SRR7004205.70182796,88.81,143,13,2,256,397,302,162,1e-39,172
Rhinocladiella_atrovirens_CBS264.49,SRR7004205.83919461,91.49,94,7,1,241,334,210,302,3e-26,128
Rhinocladiella_atrovirens_CBS264.49,SRR7004205.24289614,92.59,81,5,1,275,355,1,80,2e-22,115
Rhinocladiella_atrovirens_CBS264.49,SRR7004205.89969504,100.00,44,0,0,1,44,90,133,2e-12,82.4
Rhinocladiella_atrovirens_CBS264.49,SRR7004205.89969504,100.00,44,0,0,1,44,271,228,2e-12,82.4
Rhinocladiella_atrovirens_CBS264.49,SRR7004205.47487452,100.00,44,0,0,1,44,212,169,2e-12,82.4
Rhinocladiella_atrovirens_CBS264.49,SRR7004205.43975008,100.00,31,0,0,1,31,182,152,4e-05,58.4
Rhinocladiella_basitona_CBS101460_T,SRR7004205.36018131,91.16,147,12,1,209,355,150,5,2e-47,198
Rhinocladiella_basitona_CBS101460_T,SRR7004205.36018131,95.12,82,4,0,200,281,219,300,7e-27,130
Rhinocladiella_basitona_CBS101460_T,SRR7004205.70182796,90.28,144,11,2,215,357,302,161,2e-43,185
Rhinocladiella_basitona_CBS101460_T,SRR7004205.81534490,86.99,146,18,1,200,345,1,145,7e-37,163
Rhinocladiella_basitona_CBS101460_T,SRR7004205.83919461,96.15,78,3,0,200,277,210,287,3e-26,128
Rhinocladiella_basitona_CBS101460_T,SRR7004205.24289614,87.63,97,11,1,234,330,1,96,3e-21,111
Rhinocladiella_phaeophora_CBS496.78_T,SRR7004205.36018131,91.84,147,11,1,217,363,150,5,4e-49,204
Rhinocladiella_phaeophora_CBS496.78_T,SRR7004205.36018131,95.12,82,4,0,208,289,219,300,8e-27,130
Rhinocladiella_phaeophora_CBS496.78_T,SRR7004205.70182796,88.96,154,12,4,223,375,302,153,2e-43,185
Rhinocladiella_phaeophora_CBS496.78_T,SRR7004205.81534490,87.67,146,17,1,208,353,1,145,2e-38,169
Rhinocladiella_phaeophora_CBS496.78_T,SRR7004205.83919461,91.49,94,7,1,208,301,210,302,3e-26,128
Rhinocladiella_phaeophora_CBS496.78_T,SRR7004205.24289614,82.61,138,23,1,242,379,1,137,5e-24,121
Rhinocladiella_aquaspersa_CBS313.73_T,SRR7004205.36018131,91.84,147,11,1,211,357,150,5,5e-49,204
Rhinocladiella_aquaspersa_CBS313.73_T,SRR7004205.36018131,95.12,82,4,0,202,283,219,300,9e-27,130
Rhinocladiella_aquaspersa_CBS313.73_T,SRR7004205.70182796,88.96,154,12,4,217,369,302,153,2e-43,185
Rhinocladiella_aquaspersa_CBS313.73_T,SRR7004205.81534490,87.67,146,17,1,202,347,1,145,2e-38,169
Rhinocladiella_aquaspersa_CBS313.73_T,SRR7004205.83919461,91.49,94,7,1,202,295,210,302,3e-26,128
Rhinocladiella_aquaspersa_CBS313.73_T,SRR7004205.49606208,91.30,92,7,1,559,649,20,111,4e-25,124
Rhinocladiella_aquaspersa_CBS313.73_T,SRR7004205.12650582,91.30,92,7,1,559,649,279,188,4e-25,124
Rhinocladiella_aquaspersa_CBS313.73_T,SRR7004205.33326416,93.75,80,5,0,570,649,150,71,5e-24,121
Rhinocladiella_aquaspersa_CBS313.73_T,SRR7004205.24289614,82.61,138,23,1,236,373,1,137,5e-24,121
Rhinocladiella_aquaspersa_CBS313.73_T,SRR7004205.18586664,93.75,48,2,1,559,605,104,151,5e-09,71.3
Rhinocladiella_fasciculata_CBS132.86_T,SRR7004205.36018131,91.16,147,12,1,227,373,150,5,2e-47,198
Rhinocladiella_fasciculata_CBS132.86_T,SRR7004205.36018131,93.41,91,6,0,209,299,210,300,2e-28,135
Rhinocladiella_fasciculata_CBS132.86_T,SRR7004205.70182796,89.17,157,11,5,233,387,302,150,4e-45,191
Rhinocladiella_fasciculata_CBS132.86_T,SRR7004205.81534490,87.59,145,17,1,218,362,1,144,6e-38,167
Rhinocladiella_fasciculata_CBS132.86_T,SRR7004205.83919461,89.42,104,10,1,208,311,200,302,8e-27,130
Rhinocladiella_fasciculata_CBS132.86_T,SRR7004205.24289614,88.66,97,10,1,252,348,1,96,6e-23,117
Rhinocladiella_anceps_CBS181.65_T,SRR7004205.36018131,91.16,147,12,1,209,355,150,5,2e-47,198
Rhinocladiella_anceps_CBS181.65_T,SRR7004205.36018131,95.12,82,4,0,200,281,219,300,7e-27,130
Rhinocladiella_anceps_CBS181.65_T,SRR7004205.70182796,88.31,154,13,4,215,367,302,153,7e-42,180
Rhinocladiella_anceps_CBS181.65_T,SRR7004205.81534490,88.36,146,16,1,200,345,1,145,3e-40,174
Rhinocladiella_anceps_CBS181.65_T,SRR7004205.83919461,91.49,94,7,1,200,293,210,302,3e-26,128
Rhinocladiella_anceps_CBS181.65_T,SRR7004205.24289614,92.59,81,5,1,234,314,1,80,2e-22,115
Rhinocladiella_mackenziei_CBS367.92,SRR7004205.36018131,91.84,147,11,1,198,344,150,5,5e-49,204
Rhinocladiella_mackenziei_CBS367.92,SRR7004205.36018131,95.12,82,4,0,189,270,219,300,8e-27,130
Rhinocladiella_mackenziei_CBS367.92,SRR7004205.70182796,89.51,143,12,2,204,345,302,162,3e-41,178
Rhinocladiella_mackenziei_CBS367.92,SRR7004205.81534490,87.67,146,17,1,189,334,1,145,2e-38,169
Rhinocladiella_mackenziei_CBS367.92,SRR7004205.83919461,91.49,94,7,1,189,282,210,302,3e-26,128
Rhinocladiella_mackenziei_CBS367.92,SRR7004205.24289614,88.66,97,10,1,223,319,1,96,6e-23,117
Veronaea_compacta_CBS268.75_T,SRR7004205.36018131,91.16,147,12,1,231,377,150,5,2e-47,198
Veronaea_compacta_CBS268.75_T,SRR7004205.36018131,95.12,82,4,0,222,303,219,300,8e-27,130
Veronaea_compacta_CBS268.75_T,SRR7004205.81534490,88.36,146,16,1,222,367,1,145,4e-40,174
Veronaea_compacta_CBS268.75_T,SRR7004205.70182796,87.66,154,14,4,237,389,302,153,4e-40,174
Veronaea_compacta_CBS268.75_T,SRR7004205.83919461,91.49,94,7,1,222,315,210,302,3e-26,128
Veronaea_compacta_CBS268.75_T,SRR7004205.24289614,92.59,81,5,1,256,336,1,80,2e-22,115
Veronaea_compacta_CBS268.75_T,SRR7004205.47487452,100.00,28,0,0,1,28,195,168,0.002,52.8
Capronia_pilosella_AFTOL-ID657,SRR7004205.36018131,91.84,147,11,1,309,455,150,5,5e-49,204
Capronia_pilosella_AFTOL-ID657,SRR7004205.36018131,95.12,82,4,0,300,381,219,300,9e-27,130
Capronia_pilosella_AFTOL-ID657,SRR7004205.70182796,88.31,154,13,4,315,467,302,153,9e-42,180
Capronia_pilosella_AFTOL-ID657,SRR7004205.81534490,87.67,146,17,1,300,445,1,145,2e-38,169
Capronia_pilosella_AFTOL-ID657,SRR7004205.83919461,91.49,94,7,1,300,393,210,302,3e-26,128
Capronia_pilosella_AFTOL-ID657,SRR7004205.24289614,82.61,138,23,1,334,471,1,137,6e-24,121
Capronia_dactylotricha_DAOM208471_T,SRR7004205.36018131,91.84,147,11,1,211,357,150,5,5e-49,204
Capronia_dactylotricha_DAOM208471_T,SRR7004205.36018131,95.12,82,4,0,202,283,219,300,9e-27,130
Capronia_dactylotricha_DAOM208471_T,SRR7004205.70182796,89.51,143,12,2,217,358,302,162,3e-41,178
Capronia_dactylotricha_DAOM208471_T,SRR7004205.81534490,87.67,146,17,1,202,347,1,145,2e-38,169
Capronia_dactylotricha_DAOM208471_T,SRR7004205.83919461,91.49,94,7,1,202,295,210,302,3e-26,128
Capronia_dactylotricha_DAOM208471_T,SRR7004205.49606208,92.05,88,7,0,571,658,20,107,4e-25,124
Capronia_dactylotricha_DAOM208471_T,SRR7004205.12650582,92.05,88,7,0,571,658,279,192,4e-25,124
Capronia_dactylotricha_DAOM208471_T,SRR7004205.24289614,88.66,97,10,1,236,332,1,96,7e-23,117
Capronia_dactylotricha_DAOM208471_T,SRR7004205.33326416,93.42,76,5,0,583,658,150,75,9e-22,113
Capronia_dactylotricha_DAOM208471_T,SRR7004205.18586664,95.83,48,2,0,571,618,104,151,3e-11,78.7
Capronia_kleinmondensis_CBS122671_T,SRR7004205.36018131,91.16,147,12,1,236,382,150,5,2e-47,198
Capronia_kleinmondensis_CBS122671_T,SRR7004205.36018131,95.12,82,4,0,227,308,219,300,9e-27,130
Capronia_kleinmondensis_CBS122671_T,SRR7004205.81534490,88.36,146,16,1,227,372,1,145,4e-40,174
Capronia_kleinmondensis_CBS122671_T,SRR7004205.70182796,88.81,143,13,2,242,383,302,162,1e-39,172
Capronia_kleinmondensis_CBS122671_T,SRR7004205.83919461,89.52,105,9,2,216,320,200,302,3e-27,132
Capronia_kleinmondensis_CBS122671_T,SRR7004205.49606208,92.05,88,7,0,577,664,20,107,4e-25,124
Capronia_kleinmondensis_CBS122671_T,SRR7004205.12650582,92.05,88,7,0,577,664,279,192,4e-25,124
Capronia_kleinmondensis_CBS122671_T,SRR7004205.24289614,92.59,81,5,1,261,341,1,80,3e-22,115
Capronia_kleinmondensis_CBS122671_T,SRR7004205.33326416,93.42,76,5,0,589,664,150,75,9e-22,113
Capronia_kleinmondensis_CBS122671_T,SRR7004205.18586664,95.83,48,2,0,577,624,104,151,3e-11,78.7
Capronia_kleinmondensis_CBS122671_T,SRR7004205.89969504,100.00,30,0,0,1,30,104,133,2e-04,56.5
Capronia_kleinmondensis_CBS122671_T,SRR7004205.89969504,100.00,30,0,0,1,30,257,228,2e-04,56.5
Capronia_kleinmondensis_CBS122671_T,SRR7004205.47487452,100.00,30,0,0,1,30,198,169,2e-04,56.5
Capronia_mansonii_CBS101.67_T,SRR7004205.36018131,91.84,147,11,1,222,368,150,5,5e-49,204
Capronia_mansonii_CBS101.67_T,SRR7004205.36018131,95.12,82,4,0,213,294,219,300,9e-27,130
Capronia_mansonii_CBS101.67_T,SRR7004205.70182796,88.31,154,13,4,228,380,302,153,9e-42,180
Capronia_mansonii_CBS101.67_T,SRR7004205.81534490,87.67,146,17,1,213,358,1,145,2e-38,169
Capronia_mansonii_CBS101.67_T,SRR7004205.49606208,93.18,88,6,0,581,668,20,107,9e-27,130
Capronia_mansonii_CBS101.67_T,SRR7004205.12650582,93.18,88,6,0,581,668,279,192,9e-27,130
Capronia_mansonii_CBS101.67_T,SRR7004205.83919461,91.49,94,7,1,213,306,210,302,3e-26,128
Capronia_mansonii_CBS101.67_T,SRR7004205.24289614,82.61,138,23,1,247,384,1,137,5e-24,121
Capronia_mansonii_CBS101.67_T,SRR7004205.33326416,93.42,76,5,0,593,668,150,75,9e-22,113
Capronia_mansonii_CBS101.67_T,SRR7004205.18586664,97.92,48,1,0,581,628,104,151,7e-13,84.2
Capronia_munkii_DAOM216390_T,SRR7004205.36018131,91.84,147,11,1,222,368,150,5,5e-49,204
Capronia_munkii_DAOM216390_T,SRR7004205.36018131,95.12,82,4,0,213,294,219,300,9e-27,130
Capronia_munkii_DAOM216390_T,SRR7004205.70182796,88.31,154,13,4,228,380,302,153,9e-42,180
Capronia_munkii_DAOM216390_T,SRR7004205.81534490,87.67,146,17,1,213,358,1,145,2e-38,169
Capronia_munkii_DAOM216390_T,SRR7004205.49606208,93.18,88,6,0,581,668,20,107,9e-27,130
Capronia_munkii_DAOM216390_T,SRR7004205.12650582,93.18,88,6,0,581,668,279,192,9e-27,130
Capronia_munkii_DAOM216390_T,SRR7004205.83919461,91.49,94,7,1,213,306,210,302,3e-26,128
Capronia_munkii_DAOM216390_T,SRR7004205.24289614,82.61,138,23,1,247,384,1,137,5e-24,121
Capronia_munkii_DAOM216390_T,SRR7004205.33326416,93.42,76,5,0,593,668,150,75,9e-22,113
Capronia_munkii_DAOM216390_T,SRR7004205.18586664,97.92,48,1,0,581,628,104,151,7e-13,84.2
Capronia_coronata_ATCC56201_T,SRR7004205.36018131,91.84,147,11,1,210,356,150,5,5e-49,204
Capronia_coronata_ATCC56201_T,SRR7004205.36018131,95.12,82,4,0,201,282,219,300,9e-27,130
Capronia_coronata_ATCC56201_T,SRR7004205.70182796,88.39,155,13,4,216,369,302,152,2e-42,182
Capronia_coronata_ATCC56201_T,SRR7004205.81534490,87.67,146,17,1,201,346,1,145,2e-38,169
Capronia_coronata_ATCC56201_T,SRR7004205.49606208,93.18,88,6,0,552,639,20,107,9e-27,130
Capronia_coronata_ATCC56201_T,SRR7004205.12650582,93.18,88,6,0,552,639,279,192,9e-27,130
Capronia_coronata_ATCC56201_T,SRR7004205.83919461,91.49,94,7,1,201,294,210,302,3e-26,128
Capronia_coronata_ATCC56201_T,SRR7004205.24289614,83.33,138,22,1,235,372,1,137,1e-25,126
Capronia_coronata_ATCC56201_T,SRR7004205.33326416,93.42,76,5,0,564,639,150,75,9e-22,113
Capronia_coronata_ATCC56201_T,SRR7004205.18586664,89.55,67,6,1,533,599,86,151,7e-13,84.2
Capronia_parasitica_CBS123.88,SRR7004205.36018131,91.84,147,11,1,216,362,150,5,5e-49,204
Capronia_parasitica_CBS123.88,SRR7004205.36018131,94.25,87,5,0,202,288,214,300,6e-28,134
Capronia_parasitica_CBS123.88,SRR7004205.70182796,89.51,143,12,2,222,363,302,162,3e-41,178
Capronia_parasitica_CBS123.88,SRR7004205.81534490,87.67,146,17,1,207,352,1,145,2e-38,169
Capronia_parasitica_CBS123.88,SRR7004205.83919461,90.91,99,8,1,202,300,205,302,2e-27,132
Capronia_parasitica_CBS123.88,SRR7004205.24289614,88.66,97,10,1,241,337,1,96,6e-23,117
Veronaea_japonica_CBS776.83_T,SRR7004205.36018131,91.84,147,11,1,244,390,150,5,5e-49,204
Veronaea_japonica_CBS776.83_T,SRR7004205.36018131,95.12,82,4,0,235,316,219,300,8e-27,130
Veronaea_japonica_CBS776.83_T,SRR7004205.70182796,88.31,154,13,4,250,402,302,153,8e-42,180
Veronaea_japonica_CBS776.83_T,SRR7004205.81534490,87.67,146,17,1,235,380,1,145,2e-38,169
Veronaea_japonica_CBS776.83_T,SRR7004205.83919461,91.49,94,7,1,235,328,210,302,3e-26,128
Veronaea_japonica_CBS776.83_T,SRR7004205.24289614,82.61,138,23,1,269,406,1,137,5e-24,121
Veronaea_japonica_CBS776.83_T,SRR7004205.47487452,100.00,39,0,0,1,39,206,168,1e-09,73.1
Veronaea_japonica_CBS776.83_T,SRR7004205.89969504,100.00,38,0,0,1,38,96,133,5e-09,71.3
Veronaea_japonica_CBS776.83_T,SRR7004205.89969504,100.00,38,0,0,1,38,265,228,5e-09,71.3
Thysanorea_papuana_CBS212.96_T,SRR7004205.36018131,91.84,147,11,1,218,364,150,5,5e-49,204
Thysanorea_papuana_CBS212.96_T,SRR7004205.36018131,95.12,82,4,0,209,290,219,300,8e-27,130
Thysanorea_papuana_CBS212.96_T,SRR7004205.70182796,88.31,154,13,4,224,376,302,153,8e-42,180
Thysanorea_papuana_CBS212.96_T,SRR7004205.81534490,87.67,146,17,1,209,354,1,145,2e-38,169
Thysanorea_papuana_CBS212.96_T,SRR7004205.83919461,91.49,94,7,1,209,302,210,302,3e-26,128
Thysanorea_papuana_CBS212.96_T,SRR7004205.24289614,82.61,138,23,1,243,380,1,137,5e-24,121
Capronia_acutiseta_ATCC56428_T,SRR7004205.49606208,92.05,88,7,0,551,638,20,107,4e-25,124
Capronia_acutiseta_ATCC56428_T,SRR7004205.12650582,92.05,88,7,0,551,638,279,192,4e-25,124
Capronia_acutiseta_ATCC56428_T,SRR7004205.33326416,93.42,76,5,0,563,638,150,75,9e-22,113
Capronia_acutiseta_ATCC56428_T,SRR7004205.18586664,95.83,48,2,0,551,598,104,151,3e-11,78.7
Fonsecaea_brasiliensis_CBS119710_T,SRR7004205.36018131,91.84,147,11,1,218,364,150,5,4e-49,204
Fonsecaea_brasiliensis_CBS119710_T,SRR7004205.36018131,95.12,82,4,0,209,290,219,300,7e-27,130
Fonsecaea_brasiliensis_CBS119710_T,SRR7004205.70182796,89.51,143,12,2,224,365,302,162,3e-41,178
Fonsecaea_brasiliensis_CBS119710_T,SRR7004205.81534490,87.67,146,17,1,209,354,1,145,2e-38,169
Fonsecaea_brasiliensis_CBS119710_T,SRR7004205.83919461,91.49,94,7,1,209,302,210,302,3e-26,128
Fonsecaea_brasiliensis_CBS119710_T,SRR7004205.24289614,88.66,97,10,1,243,339,1,96,6e-23,117
Fonsecaea_pedrosoi_CBS271.37_T,SRR7004205.36018131,91.84,147,11,1,246,392,150,5,5e-49,204
Fonsecaea_pedrosoi_CBS271.37_T,SRR7004205.36018131,95.12,82,4,0,237,318,219,300,9e-27,130
Fonsecaea_pedrosoi_CBS271.37_T,SRR7004205.70182796,89.51,143,12,2,252,393,302,162,3e-41,178
Fonsecaea_pedrosoi_CBS271.37_T,SRR7004205.81534490,87.67,146,17,1,237,382,1,145,2e-38,169
Fonsecaea_pedrosoi_CBS271.37_T,SRR7004205.83919461,91.49,94,7,1,237,330,210,302,3e-26,128
Fonsecaea_pedrosoi_CBS271.37_T,SRR7004205.24289614,88.66,97,10,1,271,367,1,96,7e-23,117
Fonsecaea_pedrosoi_CBS271.37_T,SRR7004205.49606208,95.83,48,2,0,598,645,20,67,3e-11,78.7
Fonsecaea_pedrosoi_CBS271.37_T,SRR7004205.18586664,95.83,48,2,0,598,645,104,151,3e-11,78.7
Fonsecaea_pedrosoi_CBS271.37_T,SRR7004205.12650582,95.83,48,2,0,598,645,279,232,3e-11,78.7
Fonsecaea_pedrosoi_CBS271.37_T,SRR7004205.33326416,97.22,36,1,0,610,645,150,115,3e-06,62.1
Fonsecaea_pedrosoi_CBS271.37_T,SRR7004205.47487452,100.00,31,0,0,1,31,198,168,4e-05,58.4
Fonsecaea_pedrosoi_CBS271.37_T,SRR7004205.89969504,100.00,30,0,0,1,30,104,133,2e-04,56.5
Fonsecaea_pedrosoi_CBS271.37_T,SRR7004205.89969504,100.00,30,0,0,1,30,257,228,2e-04,56.5
Fonsecaea_multimorphosa_CBS980.96_T,SRR7004205.36018131,91.84,147,11,1,216,362,150,5,4e-49,204
Fonsecaea_multimorphosa_CBS980.96_T,SRR7004205.36018131,95.12,82,4,0,207,288,219,300,7e-27,130
Fonsecaea_multimorphosa_CBS980.96_T,SRR7004205.70182796,89.51,143,12,2,222,363,302,162,3e-41,178
Fonsecaea_multimorphosa_CBS980.96_T,SRR7004205.81534490,87.67,146,17,1,207,352,1,145,2e-38,169
Fonsecaea_multimorphosa_CBS980.96_T,SRR7004205.83919461,91.49,94,7,1,207,300,210,302,3e-26,128
Fonsecaea_multimorphosa_CBS980.96_T,SRR7004205.24289614,88.66,97,10,1,241,337,1,96,6e-23,117
Fonsecaea_minima_CBS125760_T,SRR7004205.36018131,91.84,147,11,1,212,358,150,5,4e-49,204
Fonsecaea_minima_CBS125760_T,SRR7004205.36018131,95.12,82,4,0,203,284,219,300,7e-27,130
Fonsecaea_minima_CBS125760_T,SRR7004205.70182796,89.51,143,12,2,218,359,302,162,3e-41,178
Fonsecaea_minima_CBS125760_T,SRR7004205.81534490,87.67,146,17,1,203,348,1,145,2e-38,169
Fonsecaea_minima_CBS125760_T,SRR7004205.83919461,91.49,94,7,1,203,296,210,302,3e-26,128
Fonsecaea_minima_CBS125760_T,SRR7004205.24289614,88.66,97,10,1,237,333,1,96,6e-23,117
Fonsecaea_nubica_CBS269.64_T,SRR7004205.36018131,91.84,147,11,1,223,369,150,5,4e-49,204
Fonsecaea_nubica_CBS269.64_T,SRR7004205.36018131,95.12,82,4,0,214,295,219,300,8e-27,130
Fonsecaea_nubica_CBS269.64_T,SRR7004205.70182796,89.51,143,12,2,229,370,302,162,3e-41,178
Fonsecaea_nubica_CBS269.64_T,SRR7004205.81534490,87.67,146,17,1,214,359,1,145,2e-38,169
Fonsecaea_nubica_CBS269.64_T,SRR7004205.83919461,91.49,94,7,1,214,307,210,302,3e-26,128
Fonsecaea_nubica_CBS269.64_T,SRR7004205.24289614,88.66,97,10,1,248,344,1,96,6e-23,117
Fonsecaea_erecta_CBS125763_T,SRR7004205.36018131,91.84,147,11,1,207,353,150,5,4e-49,204
Fonsecaea_erecta_CBS125763_T,SRR7004205.36018131,95.12,82,4,0,198,279,219,300,7e-27,130
Fonsecaea_erecta_CBS125763_T,SRR7004205.70182796,88.31,154,13,4,213,365,302,153,7e-42,180
Fonsecaea_erecta_CBS125763_T,SRR7004205.81534490,87.67,146,17,1,198,343,1,145,2e-38,169
Fonsecaea_erecta_CBS125763_T,SRR7004205.83919461,91.49,94,7,1,198,291,210,302,3e-26,128
Fonsecaea_erecta_CBS125763_T,SRR7004205.24289614,82.61,138,23,1,232,369,1,137,4e-24,121
Fonsecaea_pugnacius_CBS139214_T,SRR7004205.36018131,91.84,147,11,1,216,362,150,5,4e-49,204
Fonsecaea_pugnacius_CBS139214_T,SRR7004205.36018131,95.12,82,4,0,207,288,219,300,7e-27,130
Fonsecaea_pugnacius_CBS139214_T,SRR7004205.70182796,89.51,143,12,2,222,363,302,162,3e-41,178
Fonsecaea_pugnacius_CBS139214_T,SRR7004205.81534490,87.67,146,17,1,207,352,1,145,2e-38,169
Fonsecaea_pugnacius_CBS139214_T,SRR7004205.83919461,91.49,94,7,1,207,300,210,302,3e-26,128
Fonsecaea_pugnacius_CBS139214_T,SRR7004205.24289614,88.66,97,10,1,241,337,1,96,6e-23,117
Cladophialophora_psammophila_CBS,SRR7004205.36018131,91.84,147,11,1,222,368,150,5,4e-49,204
Cladophialophora_psammophila_CBS,SRR7004205.36018131,95.12,82,4,0,213,294,219,300,8e-27,130
Cladophialophora_psammophila_CBS,SRR7004205.70182796,88.31,154,13,4,228,380,302,153,7e-42,180
Cladophialophora_psammophila_CBS,SRR7004205.81534490,87.67,146,17,1,213,358,1,145,2e-38,169
Cladophialophora_psammophila_CBS,SRR7004205.83919461,91.49,94,7,1,213,306,210,302,3e-26,128
Cladophialophora_psammophila_CBS,SRR7004205.24289614,82.61,138,23,1,247,384,1,137,5e-24,121
Cladophialophora_devriesii_CBS,SRR7004205.36018131,91.84,147,11,1,218,364,150,5,4e-49,204
Cladophialophora_devriesii_CBS,SRR7004205.36018131,95.12,82,4,0,209,290,219,300,7e-27,130
Cladophialophora_devriesii_CBS,SRR7004205.70182796,89.51,143,12,2,224,365,302,162,3e-41,178
Cladophialophora_devriesii_CBS,SRR7004205.81534490,87.67,146,17,1,209,354,1,145,2e-38,169
Cladophialophora_devriesii_CBS,SRR7004205.83919461,91.49,94,7,1,209,302,210,302,3e-26,128
Cladophialophora_devriesii_CBS,SRR7004205.24289614,88.66,97,10,1,243,339,1,96,6e-23,117
Cladophialophora_immunda_CBS834.96,SRR7004205.36018131,91.84,147,11,1,220,366,150,5,4e-49,204
Cladophialophora_immunda_CBS834.96,SRR7004205.36018131,95.12,82,4,0,211,292,219,300,7e-27,130
Cladophialophora_immunda_CBS834.96,SRR7004205.70182796,89.51,143,12,2,226,367,302,162,3e-41,178
Cladophialophora_immunda_CBS834.96,SRR7004205.81534490,87.67,146,17,1,211,356,1,145,2e-38,169
Cladophialophora_immunda_CBS834.96,SRR7004205.83919461,91.49,94,7,1,211,304,210,302,3e-26,128
Cladophialophora_immunda_CBS834.96,SRR7004205.24289614,88.66,97,10,1,245,341,1,96,6e-23,117
Cladophialophora_arxii_CBS306.94_T,SRR7004205.36018131,91.84,147,11,1,222,368,150,5,4e-49,204
Cladophialophora_arxii_CBS306.94_T,SRR7004205.36018131,95.12,82,4,0,213,294,219,300,7e-27,130
Cladophialophora_arxii_CBS306.94_T,SRR7004205.70182796,89.51,143,12,2,228,369,302,162,3e-41,178
Cladophialophora_arxii_CBS306.94_T,SRR7004205.81534490,87.67,146,17,1,213,358,1,145,2e-38,169
Cladophialophora_arxii_CBS306.94_T,SRR7004205.83919461,91.49,94,7,1,213,306,210,302,3e-26,128
Cladophialophora_arxii_CBS306.94_T,SRR7004205.24289614,88.66,97,10,1,247,343,1,96,6e-23,117
Cladophialophora_bantiana_CBS173.52,SRR7004205.36018131,91.84,147,11,1,216,362,150,5,4e-49,204
Cladophialophora_bantiana_CBS173.52,SRR7004205.36018131,95.12,82,4,0,207,288,219,300,8e-27,130
Cladophialophora_bantiana_CBS173.52,SRR7004205.70182796,88.31,154,13,4,222,374,302,153,7e-42,180
Cladophialophora_bantiana_CBS173.52,SRR7004205.81534490,87.67,146,17,1,207,352,1,145,2e-38,169
Cladophialophora_bantiana_CBS173.52,SRR7004205.83919461,91.49,94,7,1,207,300,210,302,3e-26,128
Cladophialophora_bantiana_CBS173.52,SRR7004205.24289614,82.61,138,23,1,241,378,1,137,5e-24,121
Cladophialophora_emmonsii_CBS102594,SRR7004205.36018131,91.84,147,11,1,207,353,150,5,4e-49,204
Cladophialophora_emmonsii_CBS102594,SRR7004205.36018131,95.12,82,4,0,198,279,219,300,7e-27,130
Cladophialophora_emmonsii_CBS102594,SRR7004205.70182796,88.31,154,13,4,213,365,302,153,7e-42,180
Cladophialophora_emmonsii_CBS102594,SRR7004205.81534490,87.67,146,17,1,198,343,1,145,2e-38,169
Cladophialophora_emmonsii_CBS102594,SRR7004205.83919461,91.49,94,7,1,198,291,210,302,3e-26,128
Cladophialophora_emmonsii_CBS102594,SRR7004205.24289614,82.61,138,23,1,232,369,1,137,4e-24,121
Cladophialophora_minourae_CBS556.83,SRR7004205.36018131,89.26,149,13,3,215,363,150,5,6e-43,183
Cladophialophora_minourae_CBS556.83,SRR7004205.36018131,95.12,82,4,0,206,287,219,300,8e-27,130
Cladophialophora_minourae_CBS556.83,SRR7004205.70182796,87.10,155,15,5,221,375,302,153,4e-39,171
Cladophialophora_minourae_CBS556.83,SRR7004205.81534490,87.79,131,14,2,206,336,1,129,2e-33,152
Cladophialophora_minourae_CBS556.83,SRR7004205.83919461,96.15,78,3,0,206,283,210,287,3e-26,128
Cladophialophora_minourae_CBS556.83,SRR7004205.24289614,87.63,97,10,2,240,336,1,95,3e-21,111
Cladophialophora_australiensis_CBS112793,SRR7004205.36018131,91.16,147,12,1,217,363,150,5,6e-47,198
Cladophialophora_australiensis_CBS112793,SRR7004205.36018131,95.12,82,4,0,208,289,219,300,2e-26,130
Cladophialophora_australiensis_CBS112793,SRR7004205.70182796,88.96,154,12,4,223,375,302,153,4e-43,185
Cladophialophora_australiensis_CBS112793,SRR7004205.69083722,89.58,144,13,2,826,968,152,294,6e-42,182
Cladophialophora_australiensis_CBS112793,SRR7004205.26533009,87.92,149,18,0,806,954,300,152,3e-40,176
Cladophialophora_australiensis_CBS112793,SRR7004205.81534490,87.59,145,17,1,208,352,1,144,2e-37,167
Cladophialophora_australiensis_CBS112793,SRR7004205.15603677,96.91,97,3,0,1375,1471,152,248,2e-36,163
Cladophialophora_australiensis_CBS112793,SRR7004205.49606208,91.45,117,10,0,559,675,20,136,7e-36,161
Cladophialophora_australiensis_CBS112793,SRR7004205.12650582,91.45,117,10,0,559,675,279,163,7e-36,161
Cladophialophora_australiensis_CBS112793,SRR7004205.33326416,90.29,103,10,0,571,673,150,48,4e-28,135
Cladophialophora_australiensis_CBS112793,SRR7004205.83919461,90.10,101,9,1,201,301,203,302,2e-26,130
Cladophialophora_australiensis_CBS112793,SRR7004205.58089284,87.04,108,14,0,1318,1425,108,1,3e-24,122
Cladophialophora_australiensis_CBS112793,SRR7004205.58089284,91.30,46,4,0,1164,1209,251,296,2e-06,63.9
Cladophialophora_australiensis_CBS112793,SRR7004205.44348973,82.31,147,18,6,761,900,152,297,1e-23,121
Cladophialophora_australiensis_CBS112793,SRR7004205.24289614,88.66,97,10,1,242,338,1,96,2e-22,117
Cladophialophora_australiensis_CBS112793,SRR7004205.83903311,88.42,95,10,1,1178,1272,192,285,2e-21,113
Cladophialophora_australiensis_CBS112793,SRR7004205.27989170,85.32,109,14,2,1151,1258,275,168,7e-21,111
Cladophialophora_australiensis_CBS112793,SRR7004205.31111100,87.50,96,11,1,1166,1261,151,57,3e-20,110
Cladophialophora_australiensis_CBS112793,SRR7004205.57264255,87.91,91,10,1,1178,1268,61,150,3e-19,106
Cladophialophora_australiensis_CBS112793,SRR7004205.57264255,88.64,88,8,1,1283,1368,239,152,3e-19,106
Cladophialophora_australiensis_CBS112793,SRR7004205.18586664,95.83,48,2,0,559,606,104,151,8e-11,78.7
Cladophialophora_australiensis_CBS112793,SRR7004205.4534382,82.22,90,12,3,1264,1350,239,151,1e-09,75.0
Cladophialophora_potulentorum_CBS112222,SRR7004205.15603677,96.58,117,4,0,1377,1493,152,268,7e-46,195
Cladophialophora_potulentorum_CBS112222,SRR7004205.36018131,90.48,147,13,1,216,362,150,5,3e-45,193
Cladophialophora_potulentorum_CBS112222,SRR7004205.36018131,95.12,82,4,0,207,288,219,300,2e-26,130
Cladophialophora_potulentorum_CBS112222,SRR7004205.69083722,88.74,151,15,2,828,977,152,301,2e-42,183
Cladophialophora_potulentorum_CBS112222,SRR7004205.70182796,88.31,154,13,4,222,374,302,153,2e-41,180
Cladophialophora_potulentorum_CBS112222,SRR7004205.26533009,87.92,149,18,0,808,956,300,152,3e-40,176
Cladophialophora_potulentorum_CBS112222,SRR7004205.81534490,88.28,145,16,1,207,351,1,144,3e-39,172
Cladophialophora_potulentorum_CBS112222,SRR7004205.49606208,91.45,117,10,0,561,677,20,136,7e-36,161
Cladophialophora_potulentorum_CBS112222,SRR7004205.12650582,91.45,117,10,0,561,677,279,163,7e-36,161
Cladophialophora_potulentorum_CBS112222,SRR7004205.33326416,90.29,103,10,0,573,675,150,48,4e-28,135
Cladophialophora_potulentorum_CBS112222,SRR7004205.83919461,91.49,94,7,1,207,300,210,302,7e-26,128
Cladophialophora_potulentorum_CBS112222,SRR7004205.83903311,90.53,95,8,1,1180,1274,192,285,1e-24,124
Cladophialophora_potulentorum_CBS112222,SRR7004205.58089284,87.04,108,14,0,1320,1427,108,1,3e-24,122
Cladophialophora_potulentorum_CBS112222,SRR7004205.58089284,89.13,46,5,0,1166,1211,251,296,1e-04,58.4
Cladophialophora_potulentorum_CBS112222,SRR7004205.44348973,82.31,147,18,7,763,902,152,297,1e-23,121
Cladophialophora_potulentorum_CBS112222,SRR7004205.24289614,92.59,81,5,1,241,321,1,80,6e-22,115
Cladophialophora_potulentorum_CBS112222,SRR7004205.57264255,89.01,91,9,1,1180,1270,61,150,8e-21,111
Cladophialophora_potulentorum_CBS112222,SRR7004205.57264255,88.64,88,8,1,1285,1370,239,152,4e-19,106
Cladophialophora_potulentorum_CBS112222,SRR7004205.27989170,84.40,109,15,2,1153,1260,275,168,4e-19,106
Cladophialophora_potulentorum_CBS112222,SRR7004205.31111100,89.29,84,8,1,1180,1263,139,57,1e-18,104
Cladophialophora_potulentorum_CBS112222,SRR7004205.18586664,95.83,48,2,0,561,608,104,151,8e-11,78.7
Cladophialophora_potulentorum_CBS112222,SRR7004205.4534382,82.22,90,12,3,1266,1352,239,151,1e-09,75.0
Cladophialophora_matsushimae_CMRP1198,SRR7004205.36018131,91.16,147,12,1,220,366,150,5,2e-47,198
Cladophialophora_matsushimae_CMRP1198,SRR7004205.36018131,95.12,82,4,0,211,292,219,300,6e-27,130
Cladophialophora_matsushimae_CMRP1198,SRR7004205.81534490,88.36,146,16,1,211,356,1,145,3e-40,174
Cladophialophora_matsushimae_CMRP1198,SRR7004205.70182796,87.66,154,14,4,226,378,302,153,3e-40,174
Cladophialophora_matsushimae_CMRP1198,SRR7004205.83919461,91.49,94,7,1,211,304,210,302,2e-26,128
Cladophialophora_matsushimae_CMRP1198,SRR7004205.24289614,92.59,81,5,1,245,325,1,80,2e-22,115
Cladophialophora_mycetomatis_CBS122637,SRR7004205.36018131,91.16,147,12,1,205,351,150,5,2e-47,198
Cladophialophora_mycetomatis_CBS122637,SRR7004205.36018131,95.12,82,4,0,196,277,219,300,7e-27,130
Cladophialophora_mycetomatis_CBS122637,SRR7004205.81534490,88.36,146,16,1,196,341,1,145,3e-40,174
Cladophialophora_mycetomatis_CBS122637,SRR7004205.70182796,87.66,154,14,4,211,363,302,153,3e-40,174
Cladophialophora_mycetomatis_CBS122637,SRR7004205.83919461,91.49,94,7,1,196,289,210,302,3e-26,128
Cladophialophora_mycetomatis_CBS122637,SRR7004205.24289614,92.59,81,5,1,230,310,1,80,2e-22,115
Cladophialophora_chaetospira_CBS127573,SRR7004205.36018131,91.16,147,12,1,611,757,150,5,3e-47,198
Cladophialophora_chaetospira_CBS127573,SRR7004205.36018131,93.67,79,5,0,605,683,222,300,3e-23,119
Cladophialophora_chaetospira_CBS127573,SRR7004205.70182796,88.31,154,13,4,617,769,302,153,1e-41,180
Cladophialophora_chaetospira_CBS127573,SRR7004205.81534490,86.71,143,18,1,605,747,4,145,6e-35,158
Cladophialophora_chaetospira_CBS127573,SRR7004205.24289614,82.61,138,23,1,636,773,1,137,8e-24,121
Cladophialophora_chaetospira_CBS127573,SRR7004205.83919461,90.11,91,8,1,605,695,213,302,1e-22,117
Cladophialophora_chaetospira_CBS127573,SRR7004205.62433680,80.60,134,12,7,185,308,168,297,6e-15,91.6
Cladophialophora_chaetospira_CBS127573,SRR7004205.47487452,100.00,32,0,0,379,410,199,168,2e-05,60.2
Cladophialophora_chaetospira_CBS127573,SRR7004205.89969504,100.00,31,0,0,379,409,103,133,6e-05,58.4
Cladophialophora_chaetospira_CBS127573,SRR7004205.89969504,100.00,31,0,0,379,409,258,228,6e-05,58.4
Cladophialophora_boppii_CBS126.86_T,SRR7004205.36018131,91.84,147,11,1,213,359,150,5,4e-49,204
Cladophialophora_boppii_CBS126.86_T,SRR7004205.36018131,95.12,82,4,0,204,285,219,300,7e-27,130
Cladophialophora_boppii_CBS126.86_T,SRR7004205.70182796,88.31,154,13,4,219,371,302,153,7e-42,180
Cladophialophora_boppii_CBS126.86_T,SRR7004205.81534490,87.67,146,17,1,204,349,1,145,2e-38,169
Cladophialophora_boppii_CBS126.86_T,SRR7004205.83919461,91.49,94,7,1,204,297,210,302,3e-26,128
Cladophialophora_boppii_CBS126.86_T,SRR7004205.24289614,82.61,138,23,1,238,375,1,137,4e-24,121
Cladophialophora_abundans_CBS126736,SRR7004205.36018131,91.22,148,10,3,150,296,150,5,2e-47,198
Cladophialophora_abundans_CBS126736,SRR7004205.36018131,95.12,82,4,0,141,222,219,300,6e-27,130
Cladophialophora_abundans_CBS126736,SRR7004205.70182796,88.24,153,15,3,156,308,302,153,6e-42,180
Cladophialophora_abundans_CBS126736,SRR7004205.81534490,86.99,146,18,1,141,286,1,145,6e-37,163
Cladophialophora_abundans_CBS126736,SRR7004205.83919461,96.15,78,3,0,141,218,210,287,2e-26,128
Cladophialophora_abundans_CBS126736,SRR7004205.24289614,83.33,138,22,1,175,312,1,137,8e-26,126
Capronia_semi-immersa_CBS102234,SRR7004205.36018131,89.80,147,14,1,212,358,150,5,4e-44,187
Capronia_semi-immersa_CBS102234,SRR7004205.36018131,95.12,82,4,0,203,284,219,300,7e-27,130
Capronia_semi-immersa_CBS102234,SRR7004205.70182796,88.24,153,15,3,218,370,302,153,7e-42,180
Capronia_semi-immersa_CBS102234,SRR7004205.81534490,88.46,130,14,1,203,332,1,129,1e-34,156
Capronia_semi-immersa_CBS102234,SRR7004205.83919461,96.15,78,3,0,203,280,210,287,3e-26,128
Capronia_semi-immersa_CBS102234,SRR7004205.24289614,91.36,81,6,1,237,317,1,80,1e-20,110
Phialophora_americana_CBS400.67,SRR7004205.69083722,89.40,151,14,2,820,969,152,301,3e-44,189
Phialophora_americana_CBS400.67,SRR7004205.36018131,89.80,147,14,1,214,360,150,5,1e-43,187
Phialophora_americana_CBS400.67,SRR7004205.36018131,95.12,82,4,0,205,286,219,300,2e-26,130
Phialophora_americana_CBS400.67,SRR7004205.26533009,88.59,149,17,0,800,948,300,152,5e-42,182
Phialophora_americana_CBS400.67,SRR7004205.70182796,88.24,153,15,3,220,372,302,153,2e-41,180
Phialophora_americana_CBS400.67,SRR7004205.81534490,88.46,130,14,1,205,334,1,129,3e-34,156
Phialophora_americana_CBS400.67,SRR7004205.83903311,91.58,95,7,1,1172,1266,192,285,2e-26,130
Phialophora_americana_CBS400.67,SRR7004205.83919461,96.15,78,3,0,205,282,210,287,7e-26,128
Phialophora_americana_CBS400.67,SRR7004205.15603677,96.10,77,3,0,1369,1445,152,228,3e-25,126
Phialophora_americana_CBS400.67,SRR7004205.58089284,87.04,108,14,0,1312,1419,108,1,3e-24,122
Phialophora_americana_CBS400.67,SRR7004205.58089284,90.00,50,5,0,1158,1207,251,300,6e-07,65.8
Phialophora_americana_CBS400.67,SRR7004205.44348973,82.31,147,18,6,755,894,152,297,1e-23,121
Phialophora_americana_CBS400.67,SRR7004205.57264255,90.11,91,8,1,1172,1262,61,150,2e-22,117
Phialophora_americana_CBS400.67,SRR7004205.57264255,88.64,88,8,1,1277,1362,239,152,3e-19,106
Phialophora_americana_CBS400.67,SRR7004205.27989170,86.24,109,13,2,1145,1252,275,168,2e-22,117
Phialophora_americana_CBS400.67,SRR7004205.31111100,88.54,96,10,1,1160,1255,151,57,6e-22,115
Phialophora_americana_CBS400.67,SRR7004205.24289614,91.36,81,6,1,239,319,1,80,3e-20,110
Phialophora_americana_CBS400.67,SRR7004205.4534382,82.22,90,12,3,1258,1344,239,151,1e-09,75.0
Phialophora_verrucosa_CBS140325_T,SRR7004205.36018131,89.80,147,14,1,218,364,150,5,5e-44,187
Phialophora_verrucosa_CBS140325_T,SRR7004205.36018131,95.12,82,4,0,209,290,219,300,8e-27,130
Phialophora_verrucosa_CBS140325_T,SRR7004205.70182796,88.24,153,15,3,224,376,302,153,8e-42,180
Phialophora_verrucosa_CBS140325_T,SRR7004205.81534490,88.46,130,14,1,209,338,1,129,1e-34,156
Phialophora_verrucosa_CBS140325_T,SRR7004205.83919461,96.15,78,3,0,209,286,210,287,3e-26,128
Phialophora_verrucosa_CBS140325_T,SRR7004205.24289614,91.36,81,6,1,243,323,1,80,1e-20,110
Cladophialophora_samoensis_CBS259.83_T,SRR7004205.36018131,91.95,149,7,5,218,364,150,5,4e-49,204
Cladophialophora_samoensis_CBS259.83_T,SRR7004205.36018131,95.12,82,4,0,209,290,219,300,8e-27,130
Cladophialophora_samoensis_CBS259.83_T,SRR7004205.70182796,88.96,154,12,4,224,376,302,153,2e-43,185
Cladophialophora_samoensis_CBS259.83_T,SRR7004205.81534490,88.36,146,16,1,209,354,1,145,3e-40,174
Cladophialophora_samoensis_CBS259.83_T,SRR7004205.83919461,91.49,94,7,1,209,302,210,302,3e-26,128
Cladophialophora_samoensis_CBS259.83_T,SRR7004205.24289614,83.33,138,22,1,243,380,1,137,1e-25,126
Cladophialophora_carrionii_CBS260.83,SRR7004205.36018131,91.16,147,12,1,234,380,150,5,2e-47,198
Cladophialophora_carrionii_CBS260.83,SRR7004205.36018131,95.12,82,4,0,225,306,219,300,8e-27,130
Cladophialophora_carrionii_CBS260.83,SRR7004205.70182796,87.66,154,14,4,240,392,302,153,4e-40,174
Cladophialophora_carrionii_CBS260.83,SRR7004205.81534490,86.99,146,18,1,225,370,1,145,8e-37,163
Cladophialophora_carrionii_CBS260.83,SRR7004205.83919461,91.49,94,7,1,225,318,210,302,3e-26,128
Cladophialophora_carrionii_CBS260.83,SRR7004205.24289614,92.59,81,5,1,259,339,1,80,2e-22,115
Exophiala_palmae_UPCB86822_T,SRR7004205.36018131,91.84,147,11,1,177,323,150,5,4e-49,204
Exophiala_palmae_UPCB86822_T,SRR7004205.36018131,95.12,82,4,0,168,249,219,300,7e-27,130
Exophiala_palmae_UPCB86822_T,SRR7004205.70182796,88.31,154,13,4,183,335,302,153,7e-42,180
Exophiala_palmae_UPCB86822_T,SRR7004205.81534490,87.67,146,17,1,168,313,1,145,1e-38,169
Exophiala_palmae_UPCB86822_T,SRR7004205.83919461,91.49,94,7,1,168,261,210,302,2e-26,128
Exophiala_palmae_UPCB86822_T,SRR7004205.24289614,82.61,138,23,1,202,339,1,137,4e-24,121
Cladophialophora_yegresii_CBS114405_T,SRR7004205.36018131,91.16,147,12,1,219,365,150,5,2e-47,198
Cladophialophora_yegresii_CBS114405_T,SRR7004205.36018131,95.12,82,4,0,210,291,219,300,7e-27,130
Cladophialophora_yegresii_CBS114405_T,SRR7004205.70182796,87.66,154,14,4,225,377,302,153,3e-40,174
Cladophialophora_yegresii_CBS114405_T,SRR7004205.81534490,86.99,146,18,1,210,355,1,145,7e-37,163
Cladophialophora_yegresii_CBS114405_T,SRR7004205.83919461,91.49,94,7,1,210,303,210,302,3e-26,128
Cladophialophora_yegresii_CBS114405_T,SRR7004205.24289614,92.59,81,5,1,244,324,1,80,2e-22,115
Knufia_epidermidis_CBS120353_T,SRR7004205.70182796,90.20,153,12,3,223,375,302,153,7e-47,196
Knufia_epidermidis_CBS120353_T,SRR7004205.36018131,89.80,147,14,1,217,363,150,5,4e-44,187
Knufia_epidermidis_CBS120353_T,SRR7004205.36018131,95.06,81,4,0,208,288,219,299,3e-26,128
Knufia_epidermidis_CBS120353_T,SRR7004205.81534490,86.99,146,18,1,208,353,1,145,7e-37,163
Knufia_epidermidis_CBS120353_T,SRR7004205.83919461,96.15,78,3,0,208,285,210,287,3e-26,128
Knufia_epidermidis_CBS120353_T,SRR7004205.24289614,85.71,112,15,1,242,353,1,111,6e-23,117
Arthrocladium_fulminans_CBS136243_T,SRR7004205.36018131,90.48,147,13,1,212,358,150,5,9e-46,193
Arthrocladium_fulminans_CBS136243_T,SRR7004205.36018131,95.06,81,4,0,203,283,219,299,3e-26,128
Arthrocladium_fulminans_CBS136243_T,SRR7004205.70182796,88.24,153,15,3,218,370,302,153,7e-42,180
Arthrocladium_fulminans_CBS136243_T,SRR7004205.81534490,86.30,146,19,1,203,348,1,145,3e-35,158
Arthrocladium_fulminans_CBS136243_T,SRR7004205.83919461,93.26,89,5,1,192,280,200,287,8e-27,130
Arthrocladium_fulminans_CBS136243_T,SRR7004205.24289614,90.12,81,7,1,237,317,1,80,5e-19,104
Anthopsis_deltoidea_CBS263.77_T,SRR7004205.36018131,90.41,146,13,1,221,365,150,5,3e-45,191
Anthopsis_deltoidea_CBS263.77_T,SRR7004205.36018131,95.00,80,4,0,212,291,219,298,9e-26,126
Anthopsis_deltoidea_CBS263.77_T,SRR7004205.70182796,89.54,153,11,4,227,377,302,153,1e-44,189
Anthopsis_deltoidea_CBS263.77_T,SRR7004205.81534490,88.28,145,16,1,212,355,1,145,1e-39,172
Anthopsis_deltoidea_CBS263.77_T,SRR7004205.83919461,96.15,78,3,0,212,289,210,287,3e-26,128
Anthopsis_deltoidea_CBS263.77_T,SRR7004205.24289614,81.75,137,24,1,246,381,1,137,7e-22,113
Cyphellophora_laciniata_CBS190.61_T,SRR7004205.70182796,90.85,153,9,4,312,462,302,153,8e-48,200
Cyphellophora_laciniata_CBS190.61_T,SRR7004205.70182796,90.48,105,10,0,2,106,20,124,2e-29,139
Cyphellophora_laciniata_CBS190.61_T,SRR7004205.36018131,91.16,147,10,3,306,450,150,5,1e-46,196
Cyphellophora_laciniata_CBS190.61_T,SRR7004205.36018131,95.00,80,4,0,297,376,219,298,1e-25,126
Cyphellophora_laciniata_CBS190.61_T,SRR7004205.81534490,89.66,145,14,1,297,440,1,145,8e-43,183
Cyphellophora_laciniata_CBS190.61_T,SRR7004205.89969504,98.70,77,1,0,24,100,57,133,6e-29,137
Cyphellophora_laciniata_CBS190.61_T,SRR7004205.89969504,100.00,72,0,0,29,100,299,228,8e-28,134
Cyphellophora_laciniata_CBS190.61_T,SRR7004205.47487452,98.70,77,1,0,24,100,245,169,6e-29,137
Cyphellophora_laciniata_CBS190.61_T,SRR7004205.49606208,94.32,88,5,0,648,735,20,107,2e-28,135
Cyphellophora_laciniata_CBS190.61_T,SRR7004205.24289614,84.67,137,20,1,331,466,1,137,2e-28,135
Cyphellophora_laciniata_CBS190.61_T,SRR7004205.12650582,94.32,88,5,0,648,735,279,192,2e-28,135
Cyphellophora_laciniata_CBS190.61_T,SRR7004205.83919461,96.15,78,3,0,297,374,210,287,4e-26,128
Cyphellophora_laciniata_CBS190.61_T,SRR7004205.33326416,94.74,76,4,0,660,735,150,75,2e-23,119
Cyphellophora_laciniata_CBS190.61_T,SRR7004205.43975008,98.44,64,1,0,24,87,215,152,1e-21,113
Cyphellophora_laciniata_CBS190.61_T,SRR7004205.18586664,97.92,48,1,0,648,695,104,151,8e-13,84.2
Cyphellophora_laciniata_CBS190.61_T,SRR7004205.49992385,100.00,39,0,0,38,76,4,42,2e-09,73.1
Cyphellophora_suttonii_CBS449.91,SRR7004205.70182796,90.85,153,9,4,215,365,302,153,6e-48,200
Cyphellophora_suttonii_CBS449.91,SRR7004205.36018131,91.16,147,10,3,209,353,150,5,7e-47,196
Cyphellophora_suttonii_CBS449.91,SRR7004205.36018131,95.00,80,4,0,200,279,219,298,9e-26,126
Cyphellophora_suttonii_CBS449.91,SRR7004205.81534490,89.66,145,14,1,200,343,1,145,6e-43,183
Cyphellophora_suttonii_CBS449.91,SRR7004205.24289614,84.67,137,20,1,234,369,1,137,2e-28,135
Cyphellophora_suttonii_CBS449.91,SRR7004205.83919461,93.18,88,6,0,190,277,200,287,7e-27,130
Cyphellophora_pauciseptata_CBS284.85_T,SRR7004205.70182796,90.85,153,9,4,226,376,302,153,6e-48,200
Cyphellophora_pauciseptata_CBS284.85_T,SRR7004205.36018131,91.16,147,10,3,220,364,150,5,7e-47,196
Cyphellophora_pauciseptata_CBS284.85_T,SRR7004205.36018131,94.19,86,5,0,205,290,213,298,2e-27,132
Cyphellophora_pauciseptata_CBS284.85_T,SRR7004205.81534490,89.66,145,14,1,211,354,1,145,6e-43,183
Cyphellophora_pauciseptata_CBS284.85_T,SRR7004205.83919461,94.32,88,5,0,201,288,200,287,2e-28,135
Cyphellophora_pauciseptata_CBS284.85_T,SRR7004205.24289614,84.67,137,20,1,245,380,1,137,2e-28,135
Cyphellophora_pluriseptata_CBS286.85_T,SRR7004205.36018131,90.54,148,9,5,225,369,150,5,3e-45,191
Cyphellophora_pluriseptata_CBS286.85_T,SRR7004205.36018131,93.75,80,5,0,216,295,219,298,4e-24,121
Cyphellophora_pluriseptata_CBS286.85_T,SRR7004205.81534490,88.28,145,16,1,216,359,1,145,1e-39,172
Cyphellophora_pluriseptata_CBS286.85_T,SRR7004205.24289614,83.94,137,21,1,250,385,1,137,7e-27,130
Cyphellophora_pluriseptata_CBS286.85_T,SRR7004205.83919461,94.87,78,4,0,216,293,210,287,1e-24,122
Phialophora_europaea_CBS101466,SRR7004205.36018131,91.22,148,8,5,215,359,150,5,7e-47,196
Phialophora_europaea_CBS101466,SRR7004205.36018131,93.10,87,5,1,199,285,213,298,9e-26,126
Phialophora_europaea_CBS101466,SRR7004205.70182796,90.20,153,10,4,221,371,302,153,3e-46,195
Phialophora_europaea_CBS101466,SRR7004205.81534490,88.97,145,15,1,206,349,1,145,3e-41,178
Phialophora_europaea_CBS101466,SRR7004205.24289614,83.94,137,21,1,240,375,1,137,7e-27,130
Phialophora_europaea_CBS101466,SRR7004205.83919461,94.12,85,4,1,199,283,204,287,3e-26,128
Phialophora_ambigua_CBS235.93,SRR7004205.36018131,91.22,148,8,5,212,356,150,5,7e-47,196
Phialophora_ambigua_CBS235.93,SRR7004205.36018131,95.00,80,4,0,203,282,219,298,9e-26,126
Phialophora_ambigua_CBS235.93,SRR7004205.70182796,90.20,153,10,4,218,368,302,153,3e-46,195
Phialophora_ambigua_CBS235.93,SRR7004205.81534490,88.97,145,15,1,203,346,1,145,3e-41,178
Phialophora_ambigua_CBS235.93,SRR7004205.83919461,93.18,88,6,0,193,280,200,287,7e-27,130
Phialophora_ambigua_CBS235.93,SRR7004205.24289614,83.94,137,21,1,237,372,1,137,7e-27,130
Cladophialophora_modesta_CBS985.96_T,SRR7004205.36018131,91.16,147,12,1,209,355,150,5,2e-47,198
Cladophialophora_modesta_CBS985.96_T,SRR7004205.36018131,92.39,92,5,1,189,280,210,299,8e-27,130
Cladophialophora_modesta_CBS985.96_T,SRR7004205.70182796,88.89,153,14,3,215,367,302,153,2e-43,185
Cladophialophora_modesta_CBS985.96_T,SRR7004205.81534490,86.30,146,19,1,200,345,1,145,4e-35,158
Cladophialophora_modesta_CBS985.96_T,SRR7004205.49606208,95.45,88,4,0,532,619,20,107,4e-30,141
Cladophialophora_modesta_CBS985.96_T,SRR7004205.12650582,95.45,88,4,0,532,619,279,192,4e-30,141
Cladophialophora_modesta_CBS985.96_T,SRR7004205.83919461,96.15,78,3,0,200,277,210,287,3e-26,128
Cladophialophora_modesta_CBS985.96_T,SRR7004205.33326416,96.05,76,3,0,544,619,150,75,4e-25,124
Cladophialophora_modesta_CBS985.96_T,SRR7004205.24289614,81.16,138,25,1,234,371,1,137,1e-20,110
Cladophialophora_modesta_CBS985.96_T,SRR7004205.18586664,97.92,48,1,0,532,579,104,151,7e-13,84.2
Cyphellophora_fusarioides_MUCL44033_T,SRR7004205.70182796,91.50,153,8,4,214,364,302,153,1e-49,206
Cyphellophora_fusarioides_MUCL44033_T,SRR7004205.36018131,90.48,147,11,3,208,352,150,5,3e-45,191
Cyphellophora_fusarioides_MUCL44033_T,SRR7004205.36018131,95.00,80,4,0,199,278,219,298,9e-26,126
Cyphellophora_fusarioides_MUCL44033_T,SRR7004205.81534490,90.34,145,13,1,199,342,1,145,1e-44,189
Cyphellophora_fusarioides_MUCL44033_T,SRR7004205.24289614,83.94,137,21,1,233,368,1,137,7e-27,130
Cyphellophora_fusarioides_MUCL44033_T,SRR7004205.83919461,96.15,78,3,0,199,276,210,287,3e-26,128
