Exophiala_nigra_CBS535.94_T,ERR2185442.29395,95.00,80,4,0,200,279,80,1,7e-28,126
Exophiala_spinifera_CBS899.68_T,ERR2185442.29395,95.00,80,4,0,197,276,80,1,6e-28,126
Exophiala_exophialae_CBS668.76_T,ERR2185442.29395,95.00,80,4,0,198,277,80,1,6e-28,126
Exophiala_polymorpha_CBS138920_T,ERR2185442.29395,95.00,80,4,0,300,379,80,1,8e-28,126
Exophiala_oligosperma_CBS725.88_T,ERR2185442.29395,95.00,80,4,0,210,289,80,1,6e-28,126
Exophiala_jeanselmei_CBS507.90_T,ERR2185442.29395,95.00,80,4,0,202,281,80,1,7e-28,126
Exophiala_bergeri_CBS353.52,ERR2185442.29395,95.00,80,4,0,163,242,80,1,5e-28,126
Exophiala_moniliae_CBS520.76_T,ERR2185442.29395,95.00,80,4,0,200,279,80,1,6e-28,126
Exophiala_pisciphila_CBS537.73_T,ERR2185442.29395,95.00,80,4,0,203,282,80,1,7e-28,126
Exophiala_xenobiotica_CBS117642,ERR2185442.29395,95.00,80,4,0,195,274,80,1,6e-28,126
Exophiala_brunnea_CBS,ERR2185442.29395,95.00,80,4,0,231,310,80,1,7e-28,126
Exophiala_nishimurae_CBS101538_T,ERR2185442.29395,95.00,80,4,0,209,288,80,1,7e-28,126
Exophiala_mesophila_CBS402.95_T,ERR2185442.29395,95.00,80,4,0,193,272,80,1,7e-28,126
Exophiala_castellanii_CBS158.58_T,ERR2185442.29395,95.00,80,4,0,191,270,80,1,7e-28,126
Exophiala_lecanii-corni_CBS123.33_T,ERR2185442.29395,95.00,80,4,0,214,293,80,1,6e-28,126
Exophiala_dermatitidis_CBS748.88,ERR2185442.32840,86.39,147,18,2,1348,1493,146,1,2e-37,159
Exophiala_dermatitidis_CBS748.88,ERR2185442.32840,85.29,136,18,2,1348,1482,166,300,2e-31,139
Exophiala_dermatitidis_CBS748.88,ERR2185442.29395,95.00,80,3,1,207,285,80,1,6e-27,124
Exophiala_angulospora_CBS482.92_T,ERR2185442.29395,95.00,80,4,0,197,276,80,1,6e-28,126
Exophiala_opportunistica_CBS109811_T,ERR2185442.29395,95.00,80,4,0,196,275,80,1,6e-28,126
Exophiala_salmonis_CBS157.67_T,ERR2185442.29395,95.00,80,4,0,325,404,80,1,9e-28,126
Exophiala_aquamarina_CBS119918_T,ERR2185442.29395,95.00,80,4,0,203,282,80,1,6e-28,126
Exophiala_cancerae_CBS120420_T,ERR2185442.29395,95.00,80,4,0,218,297,80,1,7e-28,126
Exophiala_tremulae_CBS129355,ERR2185442.29395,95.00,80,4,0,230,309,80,1,7e-28,126
Exophiala_equina_CBS116009,ERR2185442.29395,95.00,80,4,0,196,275,80,1,6e-28,126
Exophiala_alcalophila_CBS520.82_T,ERR2185442.29395,95.00,80,4,0,207,286,80,1,6e-28,126
Exophiala_crusticola_CBS119970_T,ERR2185442.29395,95.00,80,4,0,212,291,80,1,6e-28,126
Rhinocladiella_atrovirens_CBS264.49,ERR2185442.29395,95.00,80,4,0,238,317,80,1,7e-28,126
Rhinocladiella_basitona_CBS101460_T,ERR2185442.29395,95.00,80,4,0,197,276,80,1,6e-28,126
Rhinocladiella_phaeophora_CBS496.78_T,ERR2185442.29395,94.94,79,4,0,206,284,79,1,2e-27,124
Rhinocladiella_aquaspersa_CBS313.73_T,ERR2185442.29395,94.94,79,4,0,200,278,79,1,3e-27,124
Rhinocladiella_fasciculata_CBS132.86_T,ERR2185442.29395,94.94,79,4,0,216,294,79,1,2e-27,124
Rhinocladiella_anceps_CBS181.65_T,ERR2185442.29395,95.00,80,4,0,197,276,80,1,6e-28,126
Rhinocladiella_mackenziei_CBS367.92,ERR2185442.29395,95.00,80,4,0,186,265,80,1,7e-28,126
Veronaea_compacta_CBS268.75_T,ERR2185442.29395,95.00,80,4,0,219,298,80,1,7e-28,126
Capronia_pilosella_AFTOL-ID657,ERR2185442.29395,95.00,80,4,0,297,376,80,1,8e-28,126
Capronia_dactylotricha_DAOM208471_T,ERR2185442.29395,95.00,80,4,0,199,278,80,1,7e-28,126
Capronia_kleinmondensis_CBS122671_T,ERR2185442.29395,95.00,80,4,0,224,303,80,1,8e-28,126
Capronia_mansonii_CBS101.67_T,ERR2185442.29395,95.00,80,4,0,210,289,80,1,8e-28,126
Capronia_munkii_DAOM216390_T,ERR2185442.29395,95.00,80,4,0,210,289,80,1,8e-28,126
Capronia_coronata_ATCC56201_T,ERR2185442.29395,95.00,80,4,0,198,277,80,1,7e-28,126
Capronia_parasitica_CBS123.88,ERR2185442.29395,94.94,79,4,0,205,283,79,1,2e-27,124
Veronaea_japonica_CBS776.83_T,ERR2185442.29395,95.00,80,4,0,232,311,80,1,7e-28,126
Thysanorea_papuana_CBS212.96_T,ERR2185442.29395,95.00,80,4,0,206,285,80,1,6e-28,126
Fonsecaea_brasiliensis_CBS119710_T,ERR2185442.29395,94.94,79,4,0,207,285,79,1,2e-27,124
Fonsecaea_pedrosoi_CBS271.37_T,ERR2185442.29395,94.94,79,4,0,235,313,79,1,3e-27,124
Fonsecaea_multimorphosa_CBS980.96_T,ERR2185442.29395,94.94,79,4,0,205,283,79,1,2e-27,124
Fonsecaea_minima_CBS125760_T,ERR2185442.29395,94.94,79,4,0,201,279,79,1,2e-27,124
Fonsecaea_nubica_CBS269.64_T,ERR2185442.29395,94.94,79,4,0,212,290,79,1,2e-27,124
Fonsecaea_erecta_CBS125763_T,ERR2185442.29395,94.94,79,4,0,196,274,79,1,2e-27,124
Fonsecaea_pugnacius_CBS139214_T,ERR2185442.29395,94.94,79,4,0,205,283,79,1,2e-27,124
Cladophialophora_psammophila_CBS,ERR2185442.29395,94.94,79,4,0,211,289,79,1,2e-27,124
Cladophialophora_devriesii_CBS,ERR2185442.29395,94.94,79,4,0,207,285,79,1,2e-27,124
Cladophialophora_immunda_CBS834.96,ERR2185442.29395,94.94,79,4,0,209,287,79,1,2e-27,124
Cladophialophora_arxii_CBS306.94_T,ERR2185442.29395,94.94,79,4,0,211,289,79,1,2e-27,124
Cladophialophora_bantiana_CBS173.52,ERR2185442.29395,94.94,79,4,0,205,283,79,1,2e-27,124
Cladophialophora_emmonsii_CBS102594,ERR2185442.29395,94.94,79,4,0,196,274,79,1,2e-27,124
Cladophialophora_minourae_CBS556.83,ERR2185442.29395,94.94,79,4,0,204,282,79,1,2e-27,124
Cladophialophora_australiensis_CBS112793,ERR2185442.32840,86.39,147,18,2,1315,1460,146,1,2e-37,159
Cladophialophora_australiensis_CBS112793,ERR2185442.32840,85.29,136,18,2,1315,1449,166,300,2e-31,139
Cladophialophora_australiensis_CBS112793,ERR2185442.29395,94.94,79,4,0,206,284,79,1,6e-27,124
Cladophialophora_potulentorum_CBS112222,ERR2185442.32840,86.39,147,18,2,1317,1462,146,1,2e-37,159
Cladophialophora_potulentorum_CBS112222,ERR2185442.32840,85.29,136,18,2,1317,1451,166,300,2e-31,139
Cladophialophora_potulentorum_CBS112222,ERR2185442.29395,95.00,80,4,0,204,283,80,1,2e-27,126
Cladophialophora_matsushimae_CMRP1198,ERR2185442.29395,95.00,80,4,0,208,287,80,1,5e-28,126
Cladophialophora_mycetomatis_CBS122637,ERR2185442.29395,95.00,80,4,0,193,272,80,1,6e-28,126
Cladophialophora_chaetospira_CBS127573,ERR2185442.29395,93.75,80,5,0,599,678,80,1,5e-26,121
Cladophialophora_boppii_CBS126.86_T,ERR2185442.29395,95.00,80,4,0,201,280,80,1,6e-28,126
Cladophialophora_abundans_CBS126736,ERR2185442.29395,95.00,80,4,0,138,217,80,1,5e-28,126
Capronia_semi-immersa_CBS102234,ERR2185442.29395,94.94,79,4,0,201,279,79,1,2e-27,124
Phialophora_americana_CBS400.67,ERR2185442.32840,85.51,138,18,2,1309,1445,146,10,2e-32,143
Phialophora_americana_CBS400.67,ERR2185442.32840,85.29,136,18,2,1309,1443,166,300,2e-31,139
Phialophora_americana_CBS400.67,ERR2185442.29395,94.94,79,4,0,203,281,79,1,6e-27,124
Phialophora_verrucosa_CBS140325_T,ERR2185442.29395,94.94,79,4,0,207,285,79,1,2e-27,124
Cladophialophora_samoensis_CBS259.83_T,ERR2185442.29395,94.94,79,4,0,207,285,79,1,2e-27,124
Cladophialophora_carrionii_CBS260.83,ERR2185442.29395,94.94,79,4,0,223,301,79,1,2e-27,124
Exophiala_palmae_UPCB86822_T,ERR2185442.29395,95.00,80,4,0,165,244,80,1,6e-28,126
Cladophialophora_yegresii_CBS114405_T,ERR2185442.29395,94.94,79,4,0,208,286,79,1,2e-27,124
Knufia_epidermidis_CBS120353_T,ERR2185442.29395,95.00,80,4,0,205,284,80,1,6e-28,126
Arthrocladium_fulminans_CBS136243_T,ERR2185442.29395,95.00,80,4,0,200,279,80,1,6e-28,126
Anthopsis_deltoidea_CBS263.77_T,ERR2185442.29395,94.94,79,4,0,210,288,79,1,2e-27,124
Cyphellophora_laciniata_CBS190.61_T,ERR2185442.29395,95.00,80,4,0,294,373,80,1,8e-28,126
Cyphellophora_suttonii_CBS449.91,ERR2185442.29395,95.00,80,4,0,197,276,80,1,6e-28,126
Cyphellophora_pauciseptata_CBS284.85_T,ERR2185442.29395,94.94,79,4,0,209,287,79,1,2e-27,124
Cyphellophora_pluriseptata_CBS286.85_T,ERR2185442.29395,93.75,80,5,0,213,292,80,1,3e-26,121
Phialophora_europaea_CBS101466,ERR2185442.29395,94.94,79,4,0,204,282,79,1,2e-27,124
Phialophora_ambigua_CBS235.93,ERR2185442.29395,95.00,80,4,0,200,279,80,1,6e-28,126
Cladophialophora_modesta_CBS985.96_T,ERR2185442.29395,95.00,80,4,0,197,276,80,1,7e-28,126
Cyphellophora_fusarioides_MUCL44033_T,ERR2185442.29395,95.00,80,4,0,196,275,80,1,6e-28,126
