Exophiala_nigra_CBS535.94_T,SRR8298137.30499,92.11,76,6,0,285,360,4,79,4e-23,108
Exophiala_nigra_CBS535.94_T,SRR8298137.39293,92.68,41,3,0,285,325,1,41,1e-08,60.2
Exophiala_nigra_CBS535.94_T,SRR8298137.34864,97.14,35,1,0,285,319,4,38,1e-08,60.2
Exophiala_nigra_CBS535.94_T,SRR8298137.48900,94.59,37,2,0,285,321,3,39,4e-08,58.4
Exophiala_spinifera_CBS899.68_T,SRR8298137.30499,91.89,74,6,0,284,357,6,79,4e-22,104
Exophiala_spinifera_CBS899.68_T,SRR8298137.34864,96.97,33,1,0,284,316,6,38,1e-07,56.5
Exophiala_exophialae_CBS668.76_T,SRR8298137.30499,91.89,74,6,0,285,358,6,79,4e-22,104
Exophiala_exophialae_CBS668.76_T,SRR8298137.34864,96.97,33,1,0,285,317,6,38,1e-07,56.5
Exophiala_polymorpha_CBS138920_T,SRR8298137.30499,91.89,74,6,0,387,460,6,79,6e-22,104
Exophiala_polymorpha_CBS138920_T,SRR8298137.8498,98.11,53,1,0,642,694,319,267,1e-18,93.5
Exophiala_polymorpha_CBS138920_T,SRR8298137.34761,97.30,37,1,0,658,694,183,219,1e-09,63.9
Exophiala_polymorpha_CBS138920_T,SRR8298137.34761,97.30,37,1,0,658,694,297,261,1e-09,63.9
Exophiala_polymorpha_CBS138920_T,SRR8298137.44546,89.36,47,5,0,648,694,312,266,1e-08,60.2
Exophiala_polymorpha_CBS138920_T,SRR8298137.5153,88.00,50,6,0,645,694,316,267,1e-08,60.2
Exophiala_polymorpha_CBS138920_T,SRR8298137.39293,92.50,40,3,0,655,694,304,265,4e-08,58.4
Exophiala_polymorpha_CBS138920_T,SRR8298137.35133,100.00,31,0,0,664,694,295,265,4e-08,58.4
Exophiala_polymorpha_CBS138920_T,SRR8298137.26905,100.00,31,0,0,664,694,294,264,4e-08,58.4
Exophiala_polymorpha_CBS138920_T,SRR8298137.23415,92.50,40,3,0,655,694,176,215,4e-08,58.4
Exophiala_polymorpha_CBS138920_T,SRR8298137.23415,92.50,40,3,0,655,694,301,262,4e-08,58.4
Exophiala_polymorpha_CBS138920_T,SRR8298137.17194,92.50,40,3,0,655,694,304,265,4e-08,58.4
Exophiala_polymorpha_CBS138920_T,SRR8298137.12363,100.00,31,0,0,664,694,294,264,4e-08,58.4
Exophiala_polymorpha_CBS138920_T,SRR8298137.6889,100.00,31,0,0,664,694,294,264,4e-08,58.4
Exophiala_polymorpha_CBS138920_T,SRR8298137.34864,96.97,33,1,0,387,419,6,38,2e-07,56.5
Exophiala_polymorpha_CBS138920_T,SRR8298137.50384,86.00,50,7,0,645,694,312,263,6e-07,54.7
Exophiala_polymorpha_CBS138920_T,SRR8298137.48900,86.00,50,7,0,645,694,312,263,6e-07,54.7
Exophiala_polymorpha_CBS138920_T,SRR8298137.48102,86.00,50,7,0,645,694,312,263,6e-07,54.7
Exophiala_polymorpha_CBS138920_T,SRR8298137.43631,86.00,50,7,0,645,694,312,263,6e-07,54.7
Exophiala_polymorpha_CBS138920_T,SRR8298137.16580,86.00,50,7,0,645,694,310,261,6e-07,54.7
Exophiala_polymorpha_CBS138920_T,SRR8298137.36605,100.00,28,0,0,667,694,290,263,2e-06,52.8
Exophiala_polymorpha_CBS138920_T,SRR8298137.34787,100.00,28,0,0,667,694,290,263,2e-06,52.8
Exophiala_polymorpha_CBS138920_T,SRR8298137.19875,100.00,28,0,0,664,691,295,268,2e-06,52.8
Exophiala_polymorpha_CBS138920_T,SRR8298137.14196,100.00,28,0,0,667,694,290,263,2e-06,52.8
Exophiala_polymorpha_CBS138920_T,SRR8298137.10920,100.00,28,0,0,667,694,294,267,2e-06,52.8
Exophiala_polymorpha_CBS138920_T,SRR8298137.10787,100.00,28,0,0,667,694,290,263,2e-06,52.8
Exophiala_polymorpha_CBS138920_T,SRR8298137.10565,100.00,28,0,0,667,694,198,225,2e-06,52.8
Exophiala_polymorpha_CBS138920_T,SRR8298137.10565,100.00,28,0,0,667,694,289,262,2e-06,52.8
Exophiala_oligosperma_CBS725.88_T,SRR8298137.30499,91.89,74,6,0,297,370,6,79,5e-22,104
Exophiala_oligosperma_CBS725.88_T,SRR8298137.34864,96.97,33,1,0,297,329,6,38,1e-07,56.5
Exophiala_jeanselmei_CBS507.90_T,SRR8298137.8498,98.41,63,1,0,542,604,321,259,3e-24,111
Exophiala_jeanselmei_CBS507.90_T,SRR8298137.30499,91.89,74,6,0,289,362,6,79,5e-22,104
Exophiala_jeanselmei_CBS507.90_T,SRR8298137.30499,85.71,70,8,1,535,604,321,254,1e-12,73.1
Exophiala_jeanselmei_CBS507.90_T,SRR8298137.37439,95.83,48,2,0,557,604,306,259,3e-14,78.7
Exophiala_jeanselmei_CBS507.90_T,SRR8298137.34761,97.78,45,1,0,560,604,183,227,3e-14,78.7
Exophiala_jeanselmei_CBS507.90_T,SRR8298137.34761,97.78,45,1,0,560,604,297,253,3e-14,78.7
Exophiala_jeanselmei_CBS507.90_T,SRR8298137.44546,90.91,55,5,0,550,604,312,258,4e-13,75.0
Exophiala_jeanselmei_CBS507.90_T,SRR8298137.5153,89.66,58,6,0,547,604,316,259,4e-13,75.0
Exophiala_jeanselmei_CBS507.90_T,SRR8298137.39293,93.75,48,3,0,557,604,304,257,1e-12,73.1
Exophiala_jeanselmei_CBS507.90_T,SRR8298137.35133,100.00,39,0,0,566,604,295,257,1e-12,73.1
Exophiala_jeanselmei_CBS507.90_T,SRR8298137.26905,100.00,39,0,0,566,604,294,256,1e-12,73.1
Exophiala_jeanselmei_CBS507.90_T,SRR8298137.23415,93.75,48,3,0,557,604,176,223,1e-12,73.1
Exophiala_jeanselmei_CBS507.90_T,SRR8298137.23415,93.75,48,3,0,557,604,301,254,1e-12,73.1
Exophiala_jeanselmei_CBS507.90_T,SRR8298137.17194,93.75,48,3,0,557,604,304,257,1e-12,73.1
Exophiala_jeanselmei_CBS507.90_T,SRR8298137.12363,100.00,39,0,0,566,604,294,256,1e-12,73.1
Exophiala_jeanselmei_CBS507.90_T,SRR8298137.6889,100.00,39,0,0,566,604,294,256,1e-12,73.1
Exophiala_jeanselmei_CBS507.90_T,SRR8298137.50384,87.93,58,7,0,547,604,312,255,2e-11,69.4
Exophiala_jeanselmei_CBS507.90_T,SRR8298137.48900,87.93,58,7,0,547,604,312,255,2e-11,69.4
Exophiala_jeanselmei_CBS507.90_T,SRR8298137.48102,87.93,58,7,0,547,604,312,255,2e-11,69.4
Exophiala_jeanselmei_CBS507.90_T,SRR8298137.43631,87.93,58,7,0,547,604,312,255,2e-11,69.4
Exophiala_jeanselmei_CBS507.90_T,SRR8298137.17629,84.51,71,10,1,534,604,155,224,2e-11,69.4
Exophiala_jeanselmei_CBS507.90_T,SRR8298137.16580,87.93,58,7,0,547,604,310,253,2e-11,69.4
Exophiala_jeanselmei_CBS507.90_T,SRR8298137.36605,100.00,36,0,0,569,604,290,255,6e-11,67.6
Exophiala_jeanselmei_CBS507.90_T,SRR8298137.34787,100.00,36,0,0,569,604,290,255,6e-11,67.6
Exophiala_jeanselmei_CBS507.90_T,SRR8298137.24135,91.67,48,4,0,557,604,176,223,6e-11,67.6
Exophiala_jeanselmei_CBS507.90_T,SRR8298137.24135,91.67,48,4,0,557,604,301,254,6e-11,67.6
Exophiala_jeanselmei_CBS507.90_T,SRR8298137.14196,100.00,36,0,0,569,604,290,255,6e-11,67.6
Exophiala_jeanselmei_CBS507.90_T,SRR8298137.10920,100.00,36,0,0,569,604,294,259,6e-11,67.6
Exophiala_jeanselmei_CBS507.90_T,SRR8298137.10565,100.00,36,0,0,569,604,198,233,6e-11,67.6
Exophiala_jeanselmei_CBS507.90_T,SRR8298137.10565,100.00,36,0,0,569,604,289,254,6e-11,67.6
Exophiala_jeanselmei_CBS507.90_T,SRR8298137.5306,91.67,48,4,0,557,604,302,255,6e-11,67.6
Exophiala_jeanselmei_CBS507.90_T,SRR8298137.13165,100.00,35,0,0,570,604,217,251,2e-10,65.8
Exophiala_jeanselmei_CBS507.90_T,SRR8298137.19875,97.22,36,1,0,566,601,295,260,3e-09,62.1
Exophiala_jeanselmei_CBS507.90_T,SRR8298137.10787,97.22,36,1,0,569,604,290,255,3e-09,62.1
Exophiala_jeanselmei_CBS507.90_T,SRR8298137.1215,97.22,36,1,0,569,604,287,252,3e-09,62.1
Exophiala_jeanselmei_CBS507.90_T,SRR8298137.45083,100.00,30,0,0,575,604,284,255,1e-07,56.5
Exophiala_jeanselmei_CBS507.90_T,SRR8298137.34864,96.97,33,1,0,289,321,6,38,1e-07,56.5
Exophiala_bergeri_CBS353.52,SRR8298137.30499,92.11,76,6,0,248,323,4,79,3e-23,108
Exophiala_bergeri_CBS353.52,SRR8298137.39293,92.68,41,3,0,248,288,1,41,9e-09,60.2
Exophiala_bergeri_CBS353.52,SRR8298137.34864,97.14,35,1,0,248,282,4,38,9e-09,60.2
Exophiala_bergeri_CBS353.52,SRR8298137.48900,94.59,37,2,0,248,284,3,39,3e-08,58.4
Exophiala_moniliae_CBS520.76_T,SRR8298137.30499,92.00,75,6,0,285,359,4,78,1e-22,106
Exophiala_moniliae_CBS520.76_T,SRR8298137.39293,92.68,41,3,0,285,325,1,41,1e-08,60.2
Exophiala_moniliae_CBS520.76_T,SRR8298137.34864,97.14,35,1,0,285,319,4,38,1e-08,60.2
Exophiala_moniliae_CBS520.76_T,SRR8298137.48900,94.59,37,2,0,285,321,3,39,4e-08,58.4
Exophiala_pisciphila_CBS537.73_T,SRR8298137.30499,92.11,76,6,0,287,362,3,78,4e-23,108
Exophiala_pisciphila_CBS537.73_T,SRR8298137.30499,85.51,69,9,1,545,613,321,254,5e-12,71.3
Exophiala_pisciphila_CBS537.73_T,SRR8298137.39293,95.83,48,2,0,566,613,304,257,3e-14,78.7
Exophiala_pisciphila_CBS537.73_T,SRR8298137.39293,92.68,41,3,0,288,328,1,41,1e-08,60.2
Exophiala_pisciphila_CBS537.73_T,SRR8298137.17194,95.83,48,2,0,566,613,304,257,3e-14,78.7
Exophiala_pisciphila_CBS537.73_T,SRR8298137.50384,89.66,58,6,0,556,613,312,255,4e-13,75.0
Exophiala_pisciphila_CBS537.73_T,SRR8298137.48900,89.66,58,6,0,556,613,312,255,4e-13,75.0
Exophiala_pisciphila_CBS537.73_T,SRR8298137.48900,94.74,38,2,0,287,324,2,39,1e-08,60.2
Exophiala_pisciphila_CBS537.73_T,SRR8298137.48102,89.66,58,6,0,556,613,312,255,4e-13,75.0
Exophiala_pisciphila_CBS537.73_T,SRR8298137.43631,89.66,58,6,0,556,613,312,255,4e-13,75.0
Exophiala_pisciphila_CBS537.73_T,SRR8298137.16580,89.66,58,6,0,556,613,310,253,4e-13,75.0
Exophiala_pisciphila_CBS537.73_T,SRR8298137.37439,93.75,48,3,0,566,613,306,259,2e-12,73.1
Exophiala_pisciphila_CBS537.73_T,SRR8298137.34761,95.56,45,2,0,569,613,183,227,2e-12,73.1
Exophiala_pisciphila_CBS537.73_T,SRR8298137.34761,95.56,45,2,0,569,613,297,253,2e-12,73.1
Exophiala_pisciphila_CBS537.73_T,SRR8298137.34761,100.00,28,0,0,287,314,4,31,2e-06,52.8
Exophiala_pisciphila_CBS537.73_T,SRR8298137.34761,100.00,28,0,0,287,314,476,449,2e-06,52.8
Exophiala_pisciphila_CBS537.73_T,SRR8298137.5153,85.71,70,8,1,544,613,326,259,2e-12,73.1
Exophiala_pisciphila_CBS537.73_T,SRR8298137.14196,93.62,47,3,0,567,613,301,255,5e-12,71.3
Exophiala_pisciphila_CBS537.73_T,SRR8298137.14196,97.22,36,1,0,287,322,2,37,3e-09,62.1
Exophiala_pisciphila_CBS537.73_T,SRR8298137.44546,89.09,55,6,0,559,613,312,258,2e-11,69.4
Exophiala_pisciphila_CBS537.73_T,SRR8298137.35133,100.00,37,0,0,577,613,293,257,2e-11,69.4
Exophiala_pisciphila_CBS537.73_T,SRR8298137.26905,100.00,37,0,0,577,613,292,256,2e-11,69.4
Exophiala_pisciphila_CBS537.73_T,SRR8298137.12363,100.00,37,0,0,577,613,292,256,2e-11,69.4
Exophiala_pisciphila_CBS537.73_T,SRR8298137.6889,100.00,37,0,0,577,613,292,256,2e-11,69.4
Exophiala_pisciphila_CBS537.73_T,SRR8298137.36605,100.00,36,0,0,578,613,290,255,7e-11,67.6
Exophiala_pisciphila_CBS537.73_T,SRR8298137.34787,100.00,36,0,0,578,613,290,255,7e-11,67.6
Exophiala_pisciphila_CBS537.73_T,SRR8298137.24135,91.84,49,2,2,566,613,176,223,7e-11,67.6
Exophiala_pisciphila_CBS537.73_T,SRR8298137.24135,91.84,49,2,2,566,613,301,254,7e-11,67.6
Exophiala_pisciphila_CBS537.73_T,SRR8298137.23415,100.00,36,0,0,578,613,188,223,7e-11,67.6
Exophiala_pisciphila_CBS537.73_T,SRR8298137.23415,100.00,36,0,0,578,613,289,254,7e-11,67.6
Exophiala_pisciphila_CBS537.73_T,SRR8298137.17629,91.84,49,2,2,566,613,177,224,7e-11,67.6
Exophiala_pisciphila_CBS537.73_T,SRR8298137.10920,100.00,36,0,0,578,613,294,259,7e-11,67.6
Exophiala_pisciphila_CBS537.73_T,SRR8298137.10565,100.00,36,0,0,578,613,198,233,7e-11,67.6
Exophiala_pisciphila_CBS537.73_T,SRR8298137.10565,100.00,36,0,0,578,613,289,254,7e-11,67.6
Exophiala_pisciphila_CBS537.73_T,SRR8298137.26298,84.62,65,10,0,287,351,2,66,3e-10,65.8
Exophiala_pisciphila_CBS537.73_T,SRR8298137.13165,97.44,39,0,1,576,613,213,251,3e-10,65.8
Exophiala_pisciphila_CBS537.73_T,SRR8298137.34864,97.22,36,1,0,287,322,3,38,3e-09,62.1
Exophiala_pisciphila_CBS537.73_T,SRR8298137.10787,97.22,36,1,0,578,613,290,255,3e-09,62.1
Exophiala_pisciphila_CBS537.73_T,SRR8298137.5306,82.86,70,11,1,545,613,324,255,3e-09,62.1
Exophiala_pisciphila_CBS537.73_T,SRR8298137.1215,97.22,36,1,0,578,613,287,252,3e-09,62.1
Exophiala_pisciphila_CBS537.73_T,SRR8298137.23712,94.74,38,2,0,287,324,2,39,1e-08,60.2
Exophiala_pisciphila_CBS537.73_T,SRR8298137.19734,94.74,38,2,0,287,324,2,39,1e-08,60.2
Exophiala_pisciphila_CBS537.73_T,SRR8298137.45083,92.68,41,2,1,573,613,294,255,4e-08,58.4
Exophiala_pisciphila_CBS537.73_T,SRR8298137.39365,94.59,37,2,0,287,323,2,38,4e-08,58.4
Exophiala_pisciphila_CBS537.73_T,SRR8298137.7663,97.06,34,1,0,287,320,2,35,4e-08,58.4
Exophiala_pisciphila_CBS537.73_T,SRR8298137.30498,100.00,28,0,0,287,314,2,29,2e-06,52.8
Exophiala_xenobiotica_CBS117642,SRR8298137.30499,92.11,76,6,0,280,355,4,79,3e-23,108
Exophiala_xenobiotica_CBS117642,SRR8298137.39293,92.68,41,3,0,280,320,1,41,1e-08,60.2
Exophiala_xenobiotica_CBS117642,SRR8298137.34864,97.14,35,1,0,280,314,4,38,1e-08,60.2
Exophiala_xenobiotica_CBS117642,SRR8298137.48900,94.59,37,2,0,280,316,3,39,3e-08,58.4
Exophiala_brunnea_CBS,SRR8298137.30499,90.67,75,7,0,316,390,4,78,7e-21,100
Exophiala_brunnea_CBS,SRR8298137.39293,91.11,45,3,1,316,359,1,45,1e-08,60.2
Exophiala_brunnea_CBS,SRR8298137.34864,97.14,35,1,0,316,350,4,38,1e-08,60.2
Exophiala_brunnea_CBS,SRR8298137.48900,94.59,37,2,0,316,352,3,39,4e-08,58.4
Exophiala_nishimurae_CBS101538_T,SRR8298137.30499,91.89,74,6,0,296,369,6,79,5e-22,104
Exophiala_nishimurae_CBS101538_T,SRR8298137.8498,97.67,43,1,0,549,591,321,279,4e-13,75.0
Exophiala_nishimurae_CBS101538_T,SRR8298137.34864,96.97,33,1,0,296,328,6,38,1e-07,56.5
Exophiala_mesophila_CBS402.95_T,SRR8298137.8498,98.36,61,1,0,550,610,319,259,4e-23,108
Exophiala_mesophila_CBS402.95_T,SRR8298137.30499,90.67,75,7,0,278,352,4,78,7e-21,100
Exophiala_mesophila_CBS402.95_T,SRR8298137.30499,85.51,69,10,0,542,610,322,254,2e-12,73.1
Exophiala_mesophila_CBS402.95_T,SRR8298137.37439,95.83,48,2,0,563,610,306,259,3e-14,78.7
Exophiala_mesophila_CBS402.95_T,SRR8298137.34761,97.78,45,1,0,566,610,183,227,3e-14,78.7
Exophiala_mesophila_CBS402.95_T,SRR8298137.34761,97.78,45,1,0,566,610,297,253,3e-14,78.7
Exophiala_mesophila_CBS402.95_T,SRR8298137.44546,90.91,55,5,0,556,610,312,258,4e-13,75.0
Exophiala_mesophila_CBS402.95_T,SRR8298137.5153,89.66,58,6,0,553,610,316,259,4e-13,75.0
Exophiala_mesophila_CBS402.95_T,SRR8298137.39293,93.75,48,3,0,563,610,304,257,2e-12,73.1
Exophiala_mesophila_CBS402.95_T,SRR8298137.39293,91.11,45,3,1,278,321,1,45,1e-08,60.2
Exophiala_mesophila_CBS402.95_T,SRR8298137.35133,100.00,39,0,0,572,610,295,257,2e-12,73.1
Exophiala_mesophila_CBS402.95_T,SRR8298137.26905,100.00,39,0,0,572,610,294,256,2e-12,73.1
Exophiala_mesophila_CBS402.95_T,SRR8298137.23415,93.75,48,3,0,563,610,176,223,2e-12,73.1
Exophiala_mesophila_CBS402.95_T,SRR8298137.23415,93.75,48,3,0,563,610,301,254,2e-12,73.1
Exophiala_mesophila_CBS402.95_T,SRR8298137.17194,93.75,48,3,0,563,610,304,257,2e-12,73.1
Exophiala_mesophila_CBS402.95_T,SRR8298137.12363,100.00,39,0,0,572,610,294,256,2e-12,73.1
Exophiala_mesophila_CBS402.95_T,SRR8298137.6889,100.00,39,0,0,572,610,294,256,2e-12,73.1
Exophiala_mesophila_CBS402.95_T,SRR8298137.50384,87.93,58,7,0,553,610,312,255,2e-11,69.4
Exophiala_mesophila_CBS402.95_T,SRR8298137.48900,87.93,58,7,0,553,610,312,255,2e-11,69.4
Exophiala_mesophila_CBS402.95_T,SRR8298137.48900,94.59,37,2,0,278,314,3,39,4e-08,58.4
Exophiala_mesophila_CBS402.95_T,SRR8298137.48102,87.93,58,7,0,553,610,312,255,2e-11,69.4
Exophiala_mesophila_CBS402.95_T,SRR8298137.43631,87.93,58,7,0,553,610,312,255,2e-11,69.4
Exophiala_mesophila_CBS402.95_T,SRR8298137.16580,87.93,58,7,0,553,610,310,253,2e-11,69.4
Exophiala_mesophila_CBS402.95_T,SRR8298137.36605,100.00,36,0,0,575,610,290,255,7e-11,67.6
Exophiala_mesophila_CBS402.95_T,SRR8298137.34787,100.00,36,0,0,575,610,290,255,7e-11,67.6
Exophiala_mesophila_CBS402.95_T,SRR8298137.24135,91.67,48,4,0,563,610,176,223,7e-11,67.6
Exophiala_mesophila_CBS402.95_T,SRR8298137.24135,91.67,48,4,0,563,610,301,254,7e-11,67.6
Exophiala_mesophila_CBS402.95_T,SRR8298137.17629,91.67,48,4,0,563,610,177,224,7e-11,67.6
Exophiala_mesophila_CBS402.95_T,SRR8298137.14196,100.00,36,0,0,575,610,290,255,7e-11,67.6
Exophiala_mesophila_CBS402.95_T,SRR8298137.10920,100.00,36,0,0,575,610,294,259,7e-11,67.6
Exophiala_mesophila_CBS402.95_T,SRR8298137.10565,100.00,36,0,0,575,610,198,233,7e-11,67.6
Exophiala_mesophila_CBS402.95_T,SRR8298137.10565,100.00,36,0,0,575,610,289,254,7e-11,67.6
Exophiala_mesophila_CBS402.95_T,SRR8298137.5306,91.67,48,4,0,563,610,302,255,7e-11,67.6
Exophiala_mesophila_CBS402.95_T,SRR8298137.13165,100.00,35,0,0,576,610,217,251,3e-10,65.8
Exophiala_mesophila_CBS402.95_T,SRR8298137.19875,97.22,36,1,0,572,607,295,260,3e-09,62.1
Exophiala_mesophila_CBS402.95_T,SRR8298137.10787,97.22,36,1,0,575,610,290,255,3e-09,62.1
Exophiala_mesophila_CBS402.95_T,SRR8298137.1215,97.22,36,1,0,575,610,287,252,3e-09,62.1
Exophiala_mesophila_CBS402.95_T,SRR8298137.34864,97.14,35,1,0,278,312,4,38,1e-08,60.2
Exophiala_mesophila_CBS402.95_T,SRR8298137.45083,100.00,30,0,0,581,610,284,255,2e-07,56.5
Exophiala_castellanii_CBS158.58_T,SRR8298137.8498,96.92,65,1,1,546,609,323,259,4e-23,108
Exophiala_castellanii_CBS158.58_T,SRR8298137.30499,90.67,75,7,0,276,350,4,78,7e-21,100
Exophiala_castellanii_CBS158.58_T,SRR8298137.30499,86.36,66,9,0,544,609,319,254,1e-12,73.1
Exophiala_castellanii_CBS158.58_T,SRR8298137.37439,95.83,48,2,0,562,609,306,259,3e-14,78.7
Exophiala_castellanii_CBS158.58_T,SRR8298137.34761,97.78,45,1,0,565,609,183,227,3e-14,78.7
Exophiala_castellanii_CBS158.58_T,SRR8298137.34761,97.78,45,1,0,565,609,297,253,3e-14,78.7
Exophiala_castellanii_CBS158.58_T,SRR8298137.44546,90.91,55,5,0,555,609,312,258,4e-13,75.0
Exophiala_castellanii_CBS158.58_T,SRR8298137.5153,89.66,58,6,0,552,609,316,259,4e-13,75.0
Exophiala_castellanii_CBS158.58_T,SRR8298137.39293,93.75,48,3,0,562,609,304,257,1e-12,73.1
Exophiala_castellanii_CBS158.58_T,SRR8298137.39293,91.11,45,3,1,276,319,1,45,1e-08,60.2
Exophiala_castellanii_CBS158.58_T,SRR8298137.35133,100.00,39,0,0,571,609,295,257,1e-12,73.1
Exophiala_castellanii_CBS158.58_T,SRR8298137.26905,100.00,39,0,0,571,609,294,256,1e-12,73.1
Exophiala_castellanii_CBS158.58_T,SRR8298137.23415,93.75,48,3,0,562,609,176,223,1e-12,73.1
Exophiala_castellanii_CBS158.58_T,SRR8298137.23415,93.75,48,3,0,562,609,301,254,1e-12,73.1
Exophiala_castellanii_CBS158.58_T,SRR8298137.17194,93.75,48,3,0,562,609,304,257,1e-12,73.1
Exophiala_castellanii_CBS158.58_T,SRR8298137.12363,100.00,39,0,0,571,609,294,256,1e-12,73.1
Exophiala_castellanii_CBS158.58_T,SRR8298137.6889,100.00,39,0,0,571,609,294,256,1e-12,73.1
Exophiala_castellanii_CBS158.58_T,SRR8298137.50384,87.93,58,7,0,552,609,312,255,2e-11,69.4
Exophiala_castellanii_CBS158.58_T,SRR8298137.48900,87.93,58,7,0,552,609,312,255,2e-11,69.4
Exophiala_castellanii_CBS158.58_T,SRR8298137.48900,94.59,37,2,0,276,312,3,39,4e-08,58.4
Exophiala_castellanii_CBS158.58_T,SRR8298137.48102,87.93,58,7,0,552,609,312,255,2e-11,69.4
Exophiala_castellanii_CBS158.58_T,SRR8298137.43631,87.93,58,7,0,552,609,312,255,2e-11,69.4
Exophiala_castellanii_CBS158.58_T,SRR8298137.17629,85.07,67,10,0,543,609,158,224,2e-11,69.4
Exophiala_castellanii_CBS158.58_T,SRR8298137.16580,87.93,58,7,0,552,609,310,253,2e-11,69.4
Exophiala_castellanii_CBS158.58_T,SRR8298137.36605,100.00,36,0,0,574,609,290,255,7e-11,67.6
Exophiala_castellanii_CBS158.58_T,SRR8298137.34787,100.00,36,0,0,574,609,290,255,7e-11,67.6
Exophiala_castellanii_CBS158.58_T,SRR8298137.24135,91.67,48,4,0,562,609,176,223,7e-11,67.6
Exophiala_castellanii_CBS158.58_T,SRR8298137.24135,91.67,48,4,0,562,609,301,254,7e-11,67.6
Exophiala_castellanii_CBS158.58_T,SRR8298137.14196,100.00,36,0,0,574,609,290,255,7e-11,67.6
Exophiala_castellanii_CBS158.58_T,SRR8298137.10920,100.00,36,0,0,574,609,294,259,7e-11,67.6
Exophiala_castellanii_CBS158.58_T,SRR8298137.10565,100.00,36,0,0,574,609,198,233,7e-11,67.6
Exophiala_castellanii_CBS158.58_T,SRR8298137.10565,100.00,36,0,0,574,609,289,254,7e-11,67.6
Exophiala_castellanii_CBS158.58_T,SRR8298137.5306,91.67,48,4,0,562,609,302,255,7e-11,67.6
Exophiala_castellanii_CBS158.58_T,SRR8298137.13165,100.00,35,0,0,575,609,217,251,3e-10,65.8
Exophiala_castellanii_CBS158.58_T,SRR8298137.19875,97.22,36,1,0,571,606,295,260,3e-09,62.1
Exophiala_castellanii_CBS158.58_T,SRR8298137.10787,97.22,36,1,0,574,609,290,255,3e-09,62.1
Exophiala_castellanii_CBS158.58_T,SRR8298137.1215,97.22,36,1,0,574,609,287,252,3e-09,62.1
Exophiala_castellanii_CBS158.58_T,SRR8298137.34864,97.14,35,1,0,276,310,4,38,1e-08,60.2
Exophiala_castellanii_CBS158.58_T,SRR8298137.45083,100.00,30,0,0,580,609,284,255,2e-07,56.5
Exophiala_lecanii-corni_CBS123.33_T,SRR8298137.30499,88.51,87,8,2,299,385,4,88,5e-22,104
Exophiala_lecanii-corni_CBS123.33_T,SRR8298137.39293,91.11,45,3,1,299,342,1,45,1e-08,60.2
Exophiala_lecanii-corni_CBS123.33_T,SRR8298137.34864,97.14,35,1,0,299,333,4,38,1e-08,60.2
Exophiala_lecanii-corni_CBS123.33_T,SRR8298137.48900,94.59,37,2,0,299,335,3,39,4e-08,58.4
Exophiala_dermatitidis_CBS748.88,SRR8298137.8498,98.44,64,1,0,572,635,322,259,2e-24,113
Exophiala_dermatitidis_CBS748.88,SRR8298137.30499,92.00,75,6,0,291,365,4,78,3e-22,106
Exophiala_dermatitidis_CBS748.88,SRR8298137.30499,87.10,62,8,0,574,635,315,254,1e-11,71.3
Exophiala_dermatitidis_CBS748.88,SRR8298137.37439,95.83,48,2,0,588,635,306,259,8e-14,78.7
Exophiala_dermatitidis_CBS748.88,SRR8298137.34761,97.78,45,1,0,591,635,183,227,8e-14,78.7
Exophiala_dermatitidis_CBS748.88,SRR8298137.34761,97.78,45,1,0,591,635,297,253,8e-14,78.7
Exophiala_dermatitidis_CBS748.88,SRR8298137.44546,90.91,55,5,0,581,635,312,258,1e-12,75.0
Exophiala_dermatitidis_CBS748.88,SRR8298137.5153,89.66,58,6,0,578,635,316,259,1e-12,75.0
Exophiala_dermatitidis_CBS748.88,SRR8298137.39293,93.75,48,3,0,588,635,304,257,4e-12,73.1
Exophiala_dermatitidis_CBS748.88,SRR8298137.39293,92.68,41,3,0,291,331,1,41,3e-08,60.2
Exophiala_dermatitidis_CBS748.88,SRR8298137.35133,100.00,39,0,0,597,635,295,257,4e-12,73.1
Exophiala_dermatitidis_CBS748.88,SRR8298137.26905,100.00,39,0,0,597,635,294,256,4e-12,73.1
Exophiala_dermatitidis_CBS748.88,SRR8298137.23415,93.75,48,3,0,588,635,176,223,4e-12,73.1
Exophiala_dermatitidis_CBS748.88,SRR8298137.23415,93.75,48,3,0,588,635,301,254,4e-12,73.1
Exophiala_dermatitidis_CBS748.88,SRR8298137.17194,93.75,48,3,0,588,635,304,257,4e-12,73.1
Exophiala_dermatitidis_CBS748.88,SRR8298137.12363,100.00,39,0,0,597,635,294,256,4e-12,73.1
Exophiala_dermatitidis_CBS748.88,SRR8298137.6889,100.00,39,0,0,597,635,294,256,4e-12,73.1
Exophiala_dermatitidis_CBS748.88,SRR8298137.50384,87.93,58,7,0,578,635,312,255,5e-11,69.4
Exophiala_dermatitidis_CBS748.88,SRR8298137.48900,87.93,58,7,0,578,635,312,255,5e-11,69.4
Exophiala_dermatitidis_CBS748.88,SRR8298137.48900,94.59,37,2,0,291,327,3,39,1e-07,58.4
Exophiala_dermatitidis_CBS748.88,SRR8298137.48102,87.93,58,7,0,578,635,312,255,5e-11,69.4
Exophiala_dermatitidis_CBS748.88,SRR8298137.43631,87.93,58,7,0,578,635,312,255,5e-11,69.4
Exophiala_dermatitidis_CBS748.88,SRR8298137.16580,87.93,58,7,0,578,635,310,253,5e-11,69.4
Exophiala_dermatitidis_CBS748.88,SRR8298137.36605,100.00,36,0,0,600,635,290,255,2e-10,67.6
Exophiala_dermatitidis_CBS748.88,SRR8298137.34787,100.00,36,0,0,600,635,290,255,2e-10,67.6
Exophiala_dermatitidis_CBS748.88,SRR8298137.24135,91.67,48,4,0,588,635,176,223,2e-10,67.6
Exophiala_dermatitidis_CBS748.88,SRR8298137.24135,91.67,48,4,0,588,635,301,254,2e-10,67.6
Exophiala_dermatitidis_CBS748.88,SRR8298137.17629,91.67,48,4,0,588,635,177,224,2e-10,67.6
Exophiala_dermatitidis_CBS748.88,SRR8298137.14196,100.00,36,0,0,600,635,290,255,2e-10,67.6
Exophiala_dermatitidis_CBS748.88,SRR8298137.10920,100.00,36,0,0,600,635,294,259,2e-10,67.6
Exophiala_dermatitidis_CBS748.88,SRR8298137.10565,100.00,36,0,0,600,635,198,233,2e-10,67.6
Exophiala_dermatitidis_CBS748.88,SRR8298137.10565,100.00,36,0,0,600,635,289,254,2e-10,67.6
Exophiala_dermatitidis_CBS748.88,SRR8298137.5306,91.67,48,4,0,588,635,302,255,2e-10,67.6
Exophiala_dermatitidis_CBS748.88,SRR8298137.13165,100.00,35,0,0,601,635,217,251,6e-10,65.8
Exophiala_dermatitidis_CBS748.88,SRR8298137.19875,97.22,36,1,0,597,632,295,260,8e-09,62.1
Exophiala_dermatitidis_CBS748.88,SRR8298137.10787,97.22,36,1,0,600,635,290,255,8e-09,62.1
Exophiala_dermatitidis_CBS748.88,SRR8298137.1215,97.22,36,1,0,600,635,287,252,8e-09,62.1
Exophiala_dermatitidis_CBS748.88,SRR8298137.34864,97.14,35,1,0,291,325,4,38,3e-08,60.2
Exophiala_dermatitidis_CBS748.88,SRR8298137.45083,100.00,30,0,0,606,635,284,255,4e-07,56.5
Exophiala_angulospora_CBS482.92_T,SRR8298137.30499,92.00,75,6,0,282,356,4,78,1e-22,106
Exophiala_angulospora_CBS482.92_T,SRR8298137.39293,92.68,41,3,0,282,322,1,41,1e-08,60.2
Exophiala_angulospora_CBS482.92_T,SRR8298137.34864,97.14,35,1,0,282,316,4,38,1e-08,60.2
Exophiala_angulospora_CBS482.92_T,SRR8298137.48900,94.59,37,2,0,282,318,3,39,4e-08,58.4
Exophiala_opportunistica_CBS109811_T,SRR8298137.30499,92.00,75,6,0,281,355,4,78,1e-22,106
Exophiala_opportunistica_CBS109811_T,SRR8298137.39293,92.68,41,3,0,281,321,1,41,1e-08,60.2
Exophiala_opportunistica_CBS109811_T,SRR8298137.34864,97.14,35,1,0,281,315,4,38,1e-08,60.2
Exophiala_opportunistica_CBS109811_T,SRR8298137.48900,94.59,37,2,0,281,317,3,39,4e-08,58.4
Exophiala_salmonis_CBS157.67_T,SRR8298137.30499,92.00,75,6,0,410,484,4,78,2e-22,106
Exophiala_salmonis_CBS157.67_T,SRR8298137.30499,85.51,69,9,1,665,733,321,254,6e-12,71.3
Exophiala_salmonis_CBS157.67_T,SRR8298137.39293,95.83,48,2,0,686,733,304,257,4e-14,78.7
Exophiala_salmonis_CBS157.67_T,SRR8298137.39293,92.68,41,3,0,410,450,1,41,1e-08,60.2
Exophiala_salmonis_CBS157.67_T,SRR8298137.17194,95.83,48,2,0,686,733,304,257,4e-14,78.7
Exophiala_salmonis_CBS157.67_T,SRR8298137.50384,89.66,58,6,0,676,733,312,255,5e-13,75.0
Exophiala_salmonis_CBS157.67_T,SRR8298137.48900,89.66,58,6,0,676,733,312,255,5e-13,75.0
Exophiala_salmonis_CBS157.67_T,SRR8298137.48900,94.59,37,2,0,410,446,3,39,5e-08,58.4
Exophiala_salmonis_CBS157.67_T,SRR8298137.48102,89.66,58,6,0,676,733,312,255,5e-13,75.0
Exophiala_salmonis_CBS157.67_T,SRR8298137.43631,89.66,58,6,0,676,733,312,255,5e-13,75.0
Exophiala_salmonis_CBS157.67_T,SRR8298137.16580,89.66,58,6,0,676,733,310,253,5e-13,75.0
Exophiala_salmonis_CBS157.67_T,SRR8298137.37439,93.75,48,3,0,686,733,306,259,2e-12,73.1
Exophiala_salmonis_CBS157.67_T,SRR8298137.34761,95.56,45,2,0,689,733,183,227,2e-12,73.1
Exophiala_salmonis_CBS157.67_T,SRR8298137.34761,95.56,45,2,0,689,733,297,253,2e-12,73.1
Exophiala_salmonis_CBS157.67_T,SRR8298137.5153,85.71,70,8,1,664,733,326,259,2e-12,73.1
Exophiala_salmonis_CBS157.67_T,SRR8298137.14196,93.62,47,3,0,687,733,301,255,6e-12,71.3
Exophiala_salmonis_CBS157.67_T,SRR8298137.44546,89.09,55,6,0,679,733,312,258,2e-11,69.4
Exophiala_salmonis_CBS157.67_T,SRR8298137.35133,100.00,37,0,0,697,733,293,257,2e-11,69.4
Exophiala_salmonis_CBS157.67_T,SRR8298137.26905,100.00,37,0,0,697,733,292,256,2e-11,69.4
Exophiala_salmonis_CBS157.67_T,SRR8298137.12363,100.00,37,0,0,697,733,292,256,2e-11,69.4
Exophiala_salmonis_CBS157.67_T,SRR8298137.6889,100.00,37,0,0,697,733,292,256,2e-11,69.4
Exophiala_salmonis_CBS157.67_T,SRR8298137.36605,100.00,36,0,0,698,733,290,255,8e-11,67.6
Exophiala_salmonis_CBS157.67_T,SRR8298137.34787,100.00,36,0,0,698,733,290,255,8e-11,67.6
Exophiala_salmonis_CBS157.67_T,SRR8298137.24135,91.84,49,2,2,686,733,176,223,8e-11,67.6
Exophiala_salmonis_CBS157.67_T,SRR8298137.24135,91.84,49,2,2,686,733,301,254,8e-11,67.6
Exophiala_salmonis_CBS157.67_T,SRR8298137.23415,100.00,36,0,0,698,733,188,223,8e-11,67.6
Exophiala_salmonis_CBS157.67_T,SRR8298137.23415,100.00,36,0,0,698,733,289,254,8e-11,67.6
Exophiala_salmonis_CBS157.67_T,SRR8298137.17629,91.84,49,2,2,686,733,177,224,8e-11,67.6
Exophiala_salmonis_CBS157.67_T,SRR8298137.10920,100.00,36,0,0,698,733,294,259,8e-11,67.6
Exophiala_salmonis_CBS157.67_T,SRR8298137.10565,100.00,36,0,0,698,733,198,233,8e-11,67.6
Exophiala_salmonis_CBS157.67_T,SRR8298137.10565,100.00,36,0,0,698,733,289,254,8e-11,67.6
Exophiala_salmonis_CBS157.67_T,SRR8298137.13165,97.44,39,0,1,696,733,213,251,3e-10,65.8
Exophiala_salmonis_CBS157.67_T,SRR8298137.10787,97.22,36,1,0,698,733,290,255,4e-09,62.1
Exophiala_salmonis_CBS157.67_T,SRR8298137.5306,82.86,70,11,1,665,733,324,255,4e-09,62.1
Exophiala_salmonis_CBS157.67_T,SRR8298137.1215,97.22,36,1,0,698,733,287,252,4e-09,62.1
Exophiala_salmonis_CBS157.67_T,SRR8298137.34864,97.14,35,1,0,410,444,4,38,1e-08,60.2
Exophiala_salmonis_CBS157.67_T,SRR8298137.45083,92.68,41,2,1,693,733,294,255,5e-08,58.4
Exophiala_aquamarina_CBS119918_T,SRR8298137.30499,92.00,75,6,0,288,362,4,78,1e-22,106
Exophiala_aquamarina_CBS119918_T,SRR8298137.39293,92.68,41,3,0,288,328,1,41,1e-08,60.2
Exophiala_aquamarina_CBS119918_T,SRR8298137.34864,97.14,35,1,0,288,322,4,38,1e-08,60.2
Exophiala_aquamarina_CBS119918_T,SRR8298137.48900,94.59,37,2,0,288,324,3,39,4e-08,58.4
Exophiala_cancerae_CBS120420_T,SRR8298137.30499,92.00,75,6,0,303,377,4,78,1e-22,106
Exophiala_cancerae_CBS120420_T,SRR8298137.30499,84.29,70,9,2,555,624,321,254,7e-11,67.6
Exophiala_cancerae_CBS120420_T,SRR8298137.39293,95.83,48,2,0,577,624,304,257,3e-14,78.7
Exophiala_cancerae_CBS120420_T,SRR8298137.39293,92.68,41,3,0,303,343,1,41,1e-08,60.2
Exophiala_cancerae_CBS120420_T,SRR8298137.17194,95.83,48,2,0,577,624,304,257,3e-14,78.7
Exophiala_cancerae_CBS120420_T,SRR8298137.50384,89.66,58,6,0,567,624,312,255,4e-13,75.0
Exophiala_cancerae_CBS120420_T,SRR8298137.48900,89.66,58,6,0,567,624,312,255,4e-13,75.0
Exophiala_cancerae_CBS120420_T,SRR8298137.48900,94.59,37,2,0,303,339,3,39,4e-08,58.4
Exophiala_cancerae_CBS120420_T,SRR8298137.48102,89.66,58,6,0,567,624,312,255,4e-13,75.0
Exophiala_cancerae_CBS120420_T,SRR8298137.43631,89.66,58,6,0,567,624,312,255,4e-13,75.0
Exophiala_cancerae_CBS120420_T,SRR8298137.16580,89.66,58,6,0,567,624,310,253,4e-13,75.0
Exophiala_cancerae_CBS120420_T,SRR8298137.37439,93.75,48,3,0,577,624,306,259,1e-12,73.1
Exophiala_cancerae_CBS120420_T,SRR8298137.34761,95.56,45,2,0,580,624,183,227,1e-12,73.1
Exophiala_cancerae_CBS120420_T,SRR8298137.34761,95.56,45,2,0,580,624,297,253,1e-12,73.1
Exophiala_cancerae_CBS120420_T,SRR8298137.14196,93.62,47,3,0,578,624,301,255,5e-12,71.3
Exophiala_cancerae_CBS120420_T,SRR8298137.44546,89.09,55,6,0,570,624,312,258,2e-11,69.4
Exophiala_cancerae_CBS120420_T,SRR8298137.35133,100.00,37,0,0,588,624,293,257,2e-11,69.4
Exophiala_cancerae_CBS120420_T,SRR8298137.26905,100.00,37,0,0,588,624,292,256,2e-11,69.4
Exophiala_cancerae_CBS120420_T,SRR8298137.17629,84.72,72,8,3,554,624,155,224,2e-11,69.4
Exophiala_cancerae_CBS120420_T,SRR8298137.12363,100.00,37,0,0,588,624,292,256,2e-11,69.4
Exophiala_cancerae_CBS120420_T,SRR8298137.6889,100.00,37,0,0,588,624,292,256,2e-11,69.4
Exophiala_cancerae_CBS120420_T,SRR8298137.5153,87.93,58,7,0,567,624,316,259,2e-11,69.4
Exophiala_cancerae_CBS120420_T,SRR8298137.36605,100.00,36,0,0,589,624,290,255,7e-11,67.6
Exophiala_cancerae_CBS120420_T,SRR8298137.34787,100.00,36,0,0,589,624,290,255,7e-11,67.6
Exophiala_cancerae_CBS120420_T,SRR8298137.24135,91.84,49,2,2,577,624,176,223,7e-11,67.6
Exophiala_cancerae_CBS120420_T,SRR8298137.24135,91.84,49,2,2,577,624,301,254,7e-11,67.6
Exophiala_cancerae_CBS120420_T,SRR8298137.23415,100.00,36,0,0,589,624,188,223,7e-11,67.6
Exophiala_cancerae_CBS120420_T,SRR8298137.23415,100.00,36,0,0,589,624,289,254,7e-11,67.6
Exophiala_cancerae_CBS120420_T,SRR8298137.10920,100.00,36,0,0,589,624,294,259,7e-11,67.6
Exophiala_cancerae_CBS120420_T,SRR8298137.10565,100.00,36,0,0,589,624,198,233,7e-11,67.6
Exophiala_cancerae_CBS120420_T,SRR8298137.10565,100.00,36,0,0,589,624,289,254,7e-11,67.6
Exophiala_cancerae_CBS120420_T,SRR8298137.13165,97.44,39,0,1,587,624,213,251,2e-10,65.8
Exophiala_cancerae_CBS120420_T,SRR8298137.10787,97.22,36,1,0,589,624,290,255,3e-09,62.1
Exophiala_cancerae_CBS120420_T,SRR8298137.5306,97.22,36,1,0,589,624,290,255,3e-09,62.1
Exophiala_cancerae_CBS120420_T,SRR8298137.1215,97.22,36,1,0,589,624,287,252,3e-09,62.1
Exophiala_cancerae_CBS120420_T,SRR8298137.34864,97.14,35,1,0,303,337,4,38,1e-08,60.2
Exophiala_cancerae_CBS120420_T,SRR8298137.45083,92.68,41,2,1,584,624,294,255,4e-08,58.4
Exophiala_tremulae_CBS129355,SRR8298137.30499,92.00,75,6,0,315,389,4,78,1e-22,106
Exophiala_tremulae_CBS129355,SRR8298137.39293,92.68,41,3,0,315,355,1,41,1e-08,60.2
Exophiala_tremulae_CBS129355,SRR8298137.34864,97.14,35,1,0,315,349,4,38,1e-08,60.2
Exophiala_tremulae_CBS129355,SRR8298137.48900,94.59,37,2,0,315,351,3,39,4e-08,58.4
Exophiala_equina_CBS116009,SRR8298137.30499,92.00,75,6,0,281,355,4,78,1e-22,106
Exophiala_equina_CBS116009,SRR8298137.39293,92.68,41,3,0,281,321,1,41,1e-08,60.2
Exophiala_equina_CBS116009,SRR8298137.34864,97.14,35,1,0,281,315,4,38,1e-08,60.2
Exophiala_equina_CBS116009,SRR8298137.48900,94.59,37,2,0,281,317,3,39,4e-08,58.4
Exophiala_alcalophila_CBS520.82_T,SRR8298137.30499,92.00,75,6,0,292,366,4,78,1e-22,106
Exophiala_alcalophila_CBS520.82_T,SRR8298137.39293,92.68,41,3,0,292,332,1,41,1e-08,60.2
Exophiala_alcalophila_CBS520.82_T,SRR8298137.34864,97.14,35,1,0,292,326,4,38,1e-08,60.2
Exophiala_alcalophila_CBS520.82_T,SRR8298137.48900,94.59,37,2,0,292,328,3,39,4e-08,58.4
Exophiala_crusticola_CBS119970_T,SRR8298137.30499,92.00,75,6,0,297,371,4,78,1e-22,106
Exophiala_crusticola_CBS119970_T,SRR8298137.39293,92.68,41,3,0,297,337,1,41,1e-08,60.2
Exophiala_crusticola_CBS119970_T,SRR8298137.34864,97.14,35,1,0,297,331,4,38,1e-08,60.2
Exophiala_crusticola_CBS119970_T,SRR8298137.48900,94.59,37,2,0,297,333,3,39,4e-08,58.4
Rhinocladiella_atrovirens_CBS264.49,SRR8298137.30499,88.51,87,8,2,323,409,4,88,5e-22,104
Rhinocladiella_atrovirens_CBS264.49,SRR8298137.39293,91.11,45,3,1,323,366,1,45,1e-08,60.2
Rhinocladiella_atrovirens_CBS264.49,SRR8298137.34864,97.14,35,1,0,323,357,4,38,1e-08,60.2
Rhinocladiella_atrovirens_CBS264.49,SRR8298137.48900,94.59,37,2,0,323,359,3,39,4e-08,58.4
Rhinocladiella_basitona_CBS101460_T,SRR8298137.30499,91.89,74,6,0,284,357,6,79,4e-22,104
Rhinocladiella_basitona_CBS101460_T,SRR8298137.34864,96.97,33,1,0,284,316,6,38,1e-07,56.5
Rhinocladiella_phaeophora_CBS496.78_T,SRR8298137.30499,91.89,74,6,0,291,364,5,78,5e-22,104
Rhinocladiella_phaeophora_CBS496.78_T,SRR8298137.34864,97.06,34,1,0,291,324,5,38,4e-08,58.4
Rhinocladiella_aquaspersa_CBS313.73_T,SRR8298137.30499,91.89,74,6,0,285,358,5,78,5e-22,104
Rhinocladiella_aquaspersa_CBS313.73_T,SRR8298137.30499,97.14,35,1,0,571,605,288,254,1e-08,60.2
Rhinocladiella_aquaspersa_CBS313.73_T,SRR8298137.39293,93.75,48,2,1,559,605,304,257,5e-12,71.3
Rhinocladiella_aquaspersa_CBS313.73_T,SRR8298137.17194,93.75,48,2,1,559,605,304,257,5e-12,71.3
Rhinocladiella_aquaspersa_CBS313.73_T,SRR8298137.35133,100.00,37,0,0,569,605,293,257,2e-11,69.4
Rhinocladiella_aquaspersa_CBS313.73_T,SRR8298137.34761,95.35,43,2,0,563,605,185,227,2e-11,69.4
Rhinocladiella_aquaspersa_CBS313.73_T,SRR8298137.34761,95.35,43,2,0,563,605,295,253,2e-11,69.4
Rhinocladiella_aquaspersa_CBS313.73_T,SRR8298137.26905,100.00,37,0,0,569,605,292,256,2e-11,69.4
Rhinocladiella_aquaspersa_CBS313.73_T,SRR8298137.12363,100.00,37,0,0,569,605,292,256,2e-11,69.4
Rhinocladiella_aquaspersa_CBS313.73_T,SRR8298137.6889,100.00,37,0,0,569,605,292,256,2e-11,69.4
Rhinocladiella_aquaspersa_CBS313.73_T,SRR8298137.50384,100.00,36,0,0,570,605,290,255,7e-11,67.6
Rhinocladiella_aquaspersa_CBS313.73_T,SRR8298137.48900,100.00,36,0,0,570,605,290,255,7e-11,67.6
Rhinocladiella_aquaspersa_CBS313.73_T,SRR8298137.48102,100.00,36,0,0,570,605,290,255,7e-11,67.6
Rhinocladiella_aquaspersa_CBS313.73_T,SRR8298137.44546,100.00,36,0,0,570,605,293,258,7e-11,67.6
Rhinocladiella_aquaspersa_CBS313.73_T,SRR8298137.43631,100.00,36,0,0,570,605,290,255,7e-11,67.6
Rhinocladiella_aquaspersa_CBS313.73_T,SRR8298137.37439,89.09,55,4,2,553,605,313,259,7e-11,67.6
Rhinocladiella_aquaspersa_CBS313.73_T,SRR8298137.36605,100.00,36,0,0,570,605,290,255,7e-11,67.6
Rhinocladiella_aquaspersa_CBS313.73_T,SRR8298137.34787,100.00,36,0,0,570,605,290,255,7e-11,67.6
Rhinocladiella_aquaspersa_CBS313.73_T,SRR8298137.23415,100.00,36,0,0,570,605,188,223,7e-11,67.6
Rhinocladiella_aquaspersa_CBS313.73_T,SRR8298137.23415,100.00,36,0,0,570,605,289,254,7e-11,67.6
Rhinocladiella_aquaspersa_CBS313.73_T,SRR8298137.16580,100.00,36,0,0,570,605,288,253,7e-11,67.6
Rhinocladiella_aquaspersa_CBS313.73_T,SRR8298137.14196,100.00,36,0,0,570,605,290,255,7e-11,67.6
Rhinocladiella_aquaspersa_CBS313.73_T,SRR8298137.10920,100.00,36,0,0,570,605,294,259,7e-11,67.6
Rhinocladiella_aquaspersa_CBS313.73_T,SRR8298137.10565,100.00,36,0,0,570,605,198,233,7e-11,67.6
Rhinocladiella_aquaspersa_CBS313.73_T,SRR8298137.10565,100.00,36,0,0,570,605,289,254,7e-11,67.6
Rhinocladiella_aquaspersa_CBS313.73_T,SRR8298137.5153,100.00,36,0,0,570,605,294,259,7e-11,67.6
Rhinocladiella_aquaspersa_CBS313.73_T,SRR8298137.24135,97.44,39,0,1,568,605,185,223,3e-10,65.8
Rhinocladiella_aquaspersa_CBS313.73_T,SRR8298137.24135,97.44,39,0,1,568,605,292,254,3e-10,65.8
Rhinocladiella_aquaspersa_CBS313.73_T,SRR8298137.17629,97.44,39,0,1,568,605,186,224,3e-10,65.8
Rhinocladiella_aquaspersa_CBS313.73_T,SRR8298137.13165,97.44,39,0,1,568,605,213,251,3e-10,65.8
Rhinocladiella_aquaspersa_CBS313.73_T,SRR8298137.10787,97.22,36,1,0,570,605,290,255,3e-09,62.1
Rhinocladiella_aquaspersa_CBS313.73_T,SRR8298137.5306,97.22,36,1,0,570,605,290,255,3e-09,62.1
Rhinocladiella_aquaspersa_CBS313.73_T,SRR8298137.1215,97.22,36,1,0,570,605,287,252,3e-09,62.1
Rhinocladiella_aquaspersa_CBS313.73_T,SRR8298137.45083,92.68,41,2,1,565,605,294,255,4e-08,58.4
Rhinocladiella_aquaspersa_CBS313.73_T,SRR8298137.34864,97.06,34,1,0,285,318,5,38,4e-08,58.4
Rhinocladiella_fasciculata_CBS132.86_T,SRR8298137.30499,90.54,74,7,0,301,374,5,78,2e-20,99.0
Rhinocladiella_fasciculata_CBS132.86_T,SRR8298137.34864,97.06,34,1,0,301,334,5,38,4e-08,58.4
Rhinocladiella_anceps_CBS181.65_T,SRR8298137.30499,90.54,74,7,0,283,356,5,78,2e-20,99.0
Rhinocladiella_anceps_CBS181.65_T,SRR8298137.34864,97.06,34,1,0,283,316,5,38,4e-08,58.4
Rhinocladiella_mackenziei_CBS367.92,SRR8298137.30499,92.00,75,6,0,271,345,4,78,1e-22,106
Rhinocladiella_mackenziei_CBS367.92,SRR8298137.39293,92.68,41,3,0,271,311,1,41,1e-08,60.2
Rhinocladiella_mackenziei_CBS367.92,SRR8298137.34864,97.14,35,1,0,271,305,4,38,1e-08,60.2
Rhinocladiella_mackenziei_CBS367.92,SRR8298137.48900,94.59,37,2,0,271,307,3,39,4e-08,58.4
Veronaea_compacta_CBS268.75_T,SRR8298137.30499,90.67,75,7,0,304,378,4,78,6e-21,100
Veronaea_compacta_CBS268.75_T,SRR8298137.39293,91.11,45,3,1,304,347,1,45,1e-08,60.2
Veronaea_compacta_CBS268.75_T,SRR8298137.34864,97.14,35,1,0,304,338,4,38,1e-08,60.2
Veronaea_compacta_CBS268.75_T,SRR8298137.48900,94.59,37,2,0,304,340,3,39,4e-08,58.4
Capronia_pilosella_AFTOL-ID657,SRR8298137.30499,92.00,75,6,0,382,456,4,78,2e-22,106
Capronia_pilosella_AFTOL-ID657,SRR8298137.8498,97.62,42,1,0,642,683,320,279,2e-12,73.1
Capronia_pilosella_AFTOL-ID657,SRR8298137.39293,92.68,41,3,0,382,422,1,41,1e-08,60.2
Capronia_pilosella_AFTOL-ID657,SRR8298137.34864,97.14,35,1,0,382,416,4,38,1e-08,60.2
Capronia_pilosella_AFTOL-ID657,SRR8298137.48900,94.59,37,2,0,382,418,3,39,4e-08,58.4
Capronia_dactylotricha_DAOM208471_T,SRR8298137.30499,92.00,75,6,0,284,358,4,78,1e-22,106
Capronia_dactylotricha_DAOM208471_T,SRR8298137.30499,86.21,58,8,0,561,618,311,254,9e-10,63.9
Capronia_dactylotricha_DAOM208471_T,SRR8298137.39293,95.83,48,2,0,571,618,304,257,3e-14,78.7
Capronia_dactylotricha_DAOM208471_T,SRR8298137.39293,92.68,41,3,0,284,324,1,41,1e-08,60.2
Capronia_dactylotricha_DAOM208471_T,SRR8298137.17194,95.83,48,2,0,571,618,304,257,3e-14,78.7
Capronia_dactylotricha_DAOM208471_T,SRR8298137.50384,89.66,58,6,0,561,618,312,255,4e-13,75.0
Capronia_dactylotricha_DAOM208471_T,SRR8298137.48900,89.66,58,6,0,561,618,312,255,4e-13,75.0
Capronia_dactylotricha_DAOM208471_T,SRR8298137.48900,94.59,37,2,0,284,320,3,39,4e-08,58.4
Capronia_dactylotricha_DAOM208471_T,SRR8298137.48102,89.66,58,6,0,561,618,312,255,4e-13,75.0
Capronia_dactylotricha_DAOM208471_T,SRR8298137.43631,89.66,58,6,0,561,618,312,255,4e-13,75.0
Capronia_dactylotricha_DAOM208471_T,SRR8298137.16580,89.66,58,6,0,561,618,310,253,4e-13,75.0
Capronia_dactylotricha_DAOM208471_T,SRR8298137.37439,93.75,48,3,0,571,618,306,259,2e-12,73.1
Capronia_dactylotricha_DAOM208471_T,SRR8298137.34761,95.56,45,2,0,574,618,183,227,2e-12,73.1
Capronia_dactylotricha_DAOM208471_T,SRR8298137.34761,95.56,45,2,0,574,618,297,253,2e-12,73.1
Capronia_dactylotricha_DAOM208471_T,SRR8298137.14196,93.62,47,3,0,572,618,301,255,5e-12,71.3
Capronia_dactylotricha_DAOM208471_T,SRR8298137.44546,89.09,55,6,0,564,618,312,258,2e-11,69.4
Capronia_dactylotricha_DAOM208471_T,SRR8298137.35133,100.00,37,0,0,582,618,293,257,2e-11,69.4
Capronia_dactylotricha_DAOM208471_T,SRR8298137.26905,100.00,37,0,0,582,618,292,256,2e-11,69.4
Capronia_dactylotricha_DAOM208471_T,SRR8298137.12363,100.00,37,0,0,582,618,292,256,2e-11,69.4
Capronia_dactylotricha_DAOM208471_T,SRR8298137.6889,100.00,37,0,0,582,618,292,256,2e-11,69.4
Capronia_dactylotricha_DAOM208471_T,SRR8298137.5153,87.93,58,7,0,561,618,316,259,2e-11,69.4
Capronia_dactylotricha_DAOM208471_T,SRR8298137.36605,100.00,36,0,0,583,618,290,255,7e-11,67.6
Capronia_dactylotricha_DAOM208471_T,SRR8298137.34787,100.00,36,0,0,583,618,290,255,7e-11,67.6
Capronia_dactylotricha_DAOM208471_T,SRR8298137.24135,91.84,49,2,2,571,618,176,223,7e-11,67.6
Capronia_dactylotricha_DAOM208471_T,SRR8298137.24135,91.84,49,2,2,571,618,301,254,7e-11,67.6
Capronia_dactylotricha_DAOM208471_T,SRR8298137.23415,100.00,36,0,0,583,618,188,223,7e-11,67.6
Capronia_dactylotricha_DAOM208471_T,SRR8298137.23415,100.00,36,0,0,583,618,289,254,7e-11,67.6
Capronia_dactylotricha_DAOM208471_T,SRR8298137.17629,91.84,49,2,2,571,618,177,224,7e-11,67.6
Capronia_dactylotricha_DAOM208471_T,SRR8298137.10920,100.00,36,0,0,583,618,294,259,7e-11,67.6
Capronia_dactylotricha_DAOM208471_T,SRR8298137.10565,100.00,36,0,0,583,618,198,233,7e-11,67.6
Capronia_dactylotricha_DAOM208471_T,SRR8298137.10565,100.00,36,0,0,583,618,289,254,7e-11,67.6
Capronia_dactylotricha_DAOM208471_T,SRR8298137.13165,97.44,39,0,1,581,618,213,251,3e-10,65.8
Capronia_dactylotricha_DAOM208471_T,SRR8298137.10787,97.22,36,1,0,583,618,290,255,3e-09,62.1
Capronia_dactylotricha_DAOM208471_T,SRR8298137.5306,97.22,36,1,0,583,618,290,255,3e-09,62.1
Capronia_dactylotricha_DAOM208471_T,SRR8298137.1215,97.22,36,1,0,583,618,287,252,3e-09,62.1
Capronia_dactylotricha_DAOM208471_T,SRR8298137.34864,97.14,35,1,0,284,318,4,38,1e-08,60.2
Capronia_dactylotricha_DAOM208471_T,SRR8298137.45083,92.68,41,2,1,578,618,294,255,4e-08,58.4
Capronia_kleinmondensis_CBS122671_T,SRR8298137.30499,88.51,87,8,2,309,395,4,88,5e-22,104
Capronia_kleinmondensis_CBS122671_T,SRR8298137.30499,86.21,58,8,0,567,624,311,254,9e-10,63.9
Capronia_kleinmondensis_CBS122671_T,SRR8298137.39293,95.83,48,2,0,577,624,304,257,3e-14,78.7
Capronia_kleinmondensis_CBS122671_T,SRR8298137.39293,91.11,45,3,1,309,352,1,45,1e-08,60.2
Capronia_kleinmondensis_CBS122671_T,SRR8298137.17194,95.83,48,2,0,577,624,304,257,3e-14,78.7
Capronia_kleinmondensis_CBS122671_T,SRR8298137.50384,89.66,58,6,0,567,624,312,255,4e-13,75.0
Capronia_kleinmondensis_CBS122671_T,SRR8298137.48900,89.66,58,6,0,567,624,312,255,4e-13,75.0
Capronia_kleinmondensis_CBS122671_T,SRR8298137.48900,94.59,37,2,0,309,345,3,39,4e-08,58.4
Capronia_kleinmondensis_CBS122671_T,SRR8298137.48102,89.66,58,6,0,567,624,312,255,4e-13,75.0
Capronia_kleinmondensis_CBS122671_T,SRR8298137.43631,89.66,58,6,0,567,624,312,255,4e-13,75.0
Capronia_kleinmondensis_CBS122671_T,SRR8298137.16580,89.66,58,6,0,567,624,310,253,4e-13,75.0
Capronia_kleinmondensis_CBS122671_T,SRR8298137.37439,93.75,48,3,0,577,624,306,259,2e-12,73.1
Capronia_kleinmondensis_CBS122671_T,SRR8298137.34761,95.56,45,2,0,580,624,183,227,2e-12,73.1
Capronia_kleinmondensis_CBS122671_T,SRR8298137.34761,95.56,45,2,0,580,624,297,253,2e-12,73.1
Capronia_kleinmondensis_CBS122671_T,SRR8298137.14196,93.62,47,3,0,578,624,301,255,6e-12,71.3
Capronia_kleinmondensis_CBS122671_T,SRR8298137.44546,89.09,55,6,0,570,624,312,258,2e-11,69.4
Capronia_kleinmondensis_CBS122671_T,SRR8298137.35133,100.00,37,0,0,588,624,293,257,2e-11,69.4
Capronia_kleinmondensis_CBS122671_T,SRR8298137.26905,100.00,37,0,0,588,624,292,256,2e-11,69.4
Capronia_kleinmondensis_CBS122671_T,SRR8298137.12363,100.00,37,0,0,588,624,292,256,2e-11,69.4
Capronia_kleinmondensis_CBS122671_T,SRR8298137.6889,100.00,37,0,0,588,624,292,256,2e-11,69.4
Capronia_kleinmondensis_CBS122671_T,SRR8298137.5153,87.93,58,7,0,567,624,316,259,2e-11,69.4
Capronia_kleinmondensis_CBS122671_T,SRR8298137.36605,100.00,36,0,0,589,624,290,255,7e-11,67.6
Capronia_kleinmondensis_CBS122671_T,SRR8298137.34787,100.00,36,0,0,589,624,290,255,7e-11,67.6
Capronia_kleinmondensis_CBS122671_T,SRR8298137.24135,91.84,49,2,2,577,624,176,223,7e-11,67.6
Capronia_kleinmondensis_CBS122671_T,SRR8298137.24135,91.84,49,2,2,577,624,301,254,7e-11,67.6
Capronia_kleinmondensis_CBS122671_T,SRR8298137.23415,100.00,36,0,0,589,624,188,223,7e-11,67.6
Capronia_kleinmondensis_CBS122671_T,SRR8298137.23415,100.00,36,0,0,589,624,289,254,7e-11,67.6
Capronia_kleinmondensis_CBS122671_T,SRR8298137.17629,91.84,49,2,2,577,624,177,224,7e-11,67.6
Capronia_kleinmondensis_CBS122671_T,SRR8298137.10920,100.00,36,0,0,589,624,294,259,7e-11,67.6
Capronia_kleinmondensis_CBS122671_T,SRR8298137.10565,100.00,36,0,0,589,624,198,233,7e-11,67.6
Capronia_kleinmondensis_CBS122671_T,SRR8298137.10565,100.00,36,0,0,589,624,289,254,7e-11,67.6
Capronia_kleinmondensis_CBS122671_T,SRR8298137.13165,97.44,39,0,1,587,624,213,251,3e-10,65.8
Capronia_kleinmondensis_CBS122671_T,SRR8298137.10787,97.22,36,1,0,589,624,290,255,3e-09,62.1
Capronia_kleinmondensis_CBS122671_T,SRR8298137.5306,97.22,36,1,0,589,624,290,255,3e-09,62.1
Capronia_kleinmondensis_CBS122671_T,SRR8298137.1215,97.22,36,1,0,589,624,287,252,3e-09,62.1
Capronia_kleinmondensis_CBS122671_T,SRR8298137.34864,97.14,35,1,0,309,343,4,38,1e-08,60.2
Capronia_kleinmondensis_CBS122671_T,SRR8298137.45083,92.68,41,2,1,584,624,294,255,4e-08,58.4
Capronia_mansonii_CBS101.67_T,SRR8298137.8498,91.36,81,7,0,548,628,339,259,3e-24,111
Capronia_mansonii_CBS101.67_T,SRR8298137.30499,92.00,75,6,0,295,369,4,78,2e-22,106
Capronia_mansonii_CBS101.67_T,SRR8298137.30499,88.41,69,8,0,560,628,322,254,7e-16,84.2
Capronia_mansonii_CBS101.67_T,SRR8298137.37439,95.83,48,2,0,581,628,306,259,3e-14,78.7
Capronia_mansonii_CBS101.67_T,SRR8298137.34761,97.78,45,1,0,584,628,183,227,3e-14,78.7
Capronia_mansonii_CBS101.67_T,SRR8298137.34761,97.78,45,1,0,584,628,297,253,3e-14,78.7
Capronia_mansonii_CBS101.67_T,SRR8298137.44546,90.91,55,5,0,574,628,312,258,4e-13,75.0
Capronia_mansonii_CBS101.67_T,SRR8298137.5153,89.66,58,6,0,571,628,316,259,4e-13,75.0
Capronia_mansonii_CBS101.67_T,SRR8298137.39293,93.75,48,3,0,581,628,304,257,2e-12,73.1
Capronia_mansonii_CBS101.67_T,SRR8298137.39293,92.68,41,3,0,295,335,1,41,1e-08,60.2
Capronia_mansonii_CBS101.67_T,SRR8298137.35133,100.00,39,0,0,590,628,295,257,2e-12,73.1
Capronia_mansonii_CBS101.67_T,SRR8298137.26905,100.00,39,0,0,590,628,294,256,2e-12,73.1
Capronia_mansonii_CBS101.67_T,SRR8298137.23415,93.75,48,3,0,581,628,176,223,2e-12,73.1
Capronia_mansonii_CBS101.67_T,SRR8298137.23415,93.75,48,3,0,581,628,301,254,2e-12,73.1
Capronia_mansonii_CBS101.67_T,SRR8298137.17194,93.75,48,3,0,581,628,304,257,2e-12,73.1
Capronia_mansonii_CBS101.67_T,SRR8298137.12363,100.00,39,0,0,590,628,294,256,2e-12,73.1
Capronia_mansonii_CBS101.67_T,SRR8298137.6889,100.00,39,0,0,590,628,294,256,2e-12,73.1
Capronia_mansonii_CBS101.67_T,SRR8298137.50384,87.93,58,7,0,571,628,312,255,2e-11,69.4
Capronia_mansonii_CBS101.67_T,SRR8298137.48900,87.93,58,7,0,571,628,312,255,2e-11,69.4
Capronia_mansonii_CBS101.67_T,SRR8298137.48900,94.59,37,2,0,295,331,3,39,4e-08,58.4
Capronia_mansonii_CBS101.67_T,SRR8298137.48102,87.93,58,7,0,571,628,312,255,2e-11,69.4
Capronia_mansonii_CBS101.67_T,SRR8298137.43631,87.93,58,7,0,571,628,312,255,2e-11,69.4
Capronia_mansonii_CBS101.67_T,SRR8298137.16580,87.93,58,7,0,571,628,310,253,2e-11,69.4
Capronia_mansonii_CBS101.67_T,SRR8298137.36605,100.00,36,0,0,593,628,290,255,7e-11,67.6
Capronia_mansonii_CBS101.67_T,SRR8298137.34787,100.00,36,0,0,593,628,290,255,7e-11,67.6
Capronia_mansonii_CBS101.67_T,SRR8298137.24135,91.67,48,4,0,581,628,176,223,7e-11,67.6
Capronia_mansonii_CBS101.67_T,SRR8298137.24135,91.67,48,4,0,581,628,301,254,7e-11,67.6
Capronia_mansonii_CBS101.67_T,SRR8298137.17629,91.67,48,4,0,581,628,177,224,7e-11,67.6
Capronia_mansonii_CBS101.67_T,SRR8298137.14196,100.00,36,0,0,593,628,290,255,7e-11,67.6
Capronia_mansonii_CBS101.67_T,SRR8298137.10920,100.00,36,0,0,593,628,294,259,7e-11,67.6
Capronia_mansonii_CBS101.67_T,SRR8298137.10565,100.00,36,0,0,593,628,198,233,7e-11,67.6
Capronia_mansonii_CBS101.67_T,SRR8298137.10565,100.00,36,0,0,593,628,289,254,7e-11,67.6
Capronia_mansonii_CBS101.67_T,SRR8298137.5306,91.67,48,4,0,581,628,302,255,7e-11,67.6
Capronia_mansonii_CBS101.67_T,SRR8298137.13165,100.00,35,0,0,594,628,217,251,3e-10,65.8
Capronia_mansonii_CBS101.67_T,SRR8298137.19875,97.22,36,1,0,590,625,295,260,3e-09,62.1
Capronia_mansonii_CBS101.67_T,SRR8298137.10787,97.22,36,1,0,593,628,290,255,3e-09,62.1
Capronia_mansonii_CBS101.67_T,SRR8298137.1215,97.22,36,1,0,593,628,287,252,3e-09,62.1
Capronia_mansonii_CBS101.67_T,SRR8298137.34864,97.14,35,1,0,295,329,4,38,1e-08,60.2
Capronia_mansonii_CBS101.67_T,SRR8298137.45083,100.00,30,0,0,599,628,284,255,2e-07,56.5
Capronia_munkii_DAOM216390_T,SRR8298137.8498,91.46,82,5,2,548,628,339,259,3e-24,111
Capronia_munkii_DAOM216390_T,SRR8298137.30499,92.00,75,6,0,295,369,4,78,2e-22,106
Capronia_munkii_DAOM216390_T,SRR8298137.30499,86.96,69,9,0,560,628,322,254,3e-14,78.7
Capronia_munkii_DAOM216390_T,SRR8298137.37439,95.83,48,2,0,581,628,306,259,3e-14,78.7
Capronia_munkii_DAOM216390_T,SRR8298137.34761,97.78,45,1,0,584,628,183,227,3e-14,78.7
Capronia_munkii_DAOM216390_T,SRR8298137.34761,97.78,45,1,0,584,628,297,253,3e-14,78.7
Capronia_munkii_DAOM216390_T,SRR8298137.44546,90.91,55,5,0,574,628,312,258,4e-13,75.0
Capronia_munkii_DAOM216390_T,SRR8298137.5153,86.96,69,6,2,561,628,325,259,4e-13,75.0
Capronia_munkii_DAOM216390_T,SRR8298137.39293,93.75,48,3,0,581,628,304,257,2e-12,73.1
Capronia_munkii_DAOM216390_T,SRR8298137.39293,92.68,41,3,0,295,335,1,41,1e-08,60.2
Capronia_munkii_DAOM216390_T,SRR8298137.35133,100.00,39,0,0,590,628,295,257,2e-12,73.1
Capronia_munkii_DAOM216390_T,SRR8298137.26905,100.00,39,0,0,590,628,294,256,2e-12,73.1
Capronia_munkii_DAOM216390_T,SRR8298137.23415,93.75,48,3,0,581,628,176,223,2e-12,73.1
Capronia_munkii_DAOM216390_T,SRR8298137.23415,93.75,48,3,0,581,628,301,254,2e-12,73.1
Capronia_munkii_DAOM216390_T,SRR8298137.17194,93.75,48,3,0,581,628,304,257,2e-12,73.1
Capronia_munkii_DAOM216390_T,SRR8298137.12363,100.00,39,0,0,590,628,294,256,2e-12,73.1
Capronia_munkii_DAOM216390_T,SRR8298137.6889,100.00,39,0,0,590,628,294,256,2e-12,73.1
Capronia_munkii_DAOM216390_T,SRR8298137.50384,87.93,58,7,0,571,628,312,255,2e-11,69.4
Capronia_munkii_DAOM216390_T,SRR8298137.48900,87.93,58,7,0,571,628,312,255,2e-11,69.4
Capronia_munkii_DAOM216390_T,SRR8298137.48900,94.59,37,2,0,295,331,3,39,4e-08,58.4
Capronia_munkii_DAOM216390_T,SRR8298137.48102,87.93,58,7,0,571,628,312,255,2e-11,69.4
Capronia_munkii_DAOM216390_T,SRR8298137.43631,87.93,58,7,0,571,628,312,255,2e-11,69.4
Capronia_munkii_DAOM216390_T,SRR8298137.16580,87.93,58,7,0,571,628,310,253,2e-11,69.4
Capronia_munkii_DAOM216390_T,SRR8298137.36605,100.00,36,0,0,593,628,290,255,7e-11,67.6
Capronia_munkii_DAOM216390_T,SRR8298137.34787,100.00,36,0,0,593,628,290,255,7e-11,67.6
Capronia_munkii_DAOM216390_T,SRR8298137.24135,91.67,48,4,0,581,628,176,223,7e-11,67.6
Capronia_munkii_DAOM216390_T,SRR8298137.24135,91.67,48,4,0,581,628,301,254,7e-11,67.6
Capronia_munkii_DAOM216390_T,SRR8298137.17629,91.67,48,4,0,581,628,177,224,7e-11,67.6
Capronia_munkii_DAOM216390_T,SRR8298137.14196,100.00,36,0,0,593,628,290,255,7e-11,67.6
Capronia_munkii_DAOM216390_T,SRR8298137.10920,100.00,36,0,0,593,628,294,259,7e-11,67.6
Capronia_munkii_DAOM216390_T,SRR8298137.10565,100.00,36,0,0,593,628,198,233,7e-11,67.6
Capronia_munkii_DAOM216390_T,SRR8298137.10565,100.00,36,0,0,593,628,289,254,7e-11,67.6
Capronia_munkii_DAOM216390_T,SRR8298137.5306,91.67,48,4,0,581,628,302,255,7e-11,67.6
Capronia_munkii_DAOM216390_T,SRR8298137.13165,100.00,35,0,0,594,628,217,251,3e-10,65.8
Capronia_munkii_DAOM216390_T,SRR8298137.19875,97.22,36,1,0,590,625,295,260,3e-09,62.1
Capronia_munkii_DAOM216390_T,SRR8298137.10787,97.22,36,1,0,593,628,290,255,3e-09,62.1
Capronia_munkii_DAOM216390_T,SRR8298137.1215,97.22,36,1,0,593,628,287,252,3e-09,62.1
Capronia_munkii_DAOM216390_T,SRR8298137.34864,97.14,35,1,0,295,329,4,38,1e-08,60.2
Capronia_munkii_DAOM216390_T,SRR8298137.45083,100.00,30,0,0,599,628,284,255,2e-07,56.5
Capronia_coronata_ATCC56201_T,SRR8298137.8498,98.46,65,1,0,535,599,323,259,2e-25,115
Capronia_coronata_ATCC56201_T,SRR8298137.30499,92.00,75,6,0,283,357,4,78,1e-22,106
Capronia_coronata_ATCC56201_T,SRR8298137.30499,86.57,67,8,1,533,599,319,254,1e-12,73.1
Capronia_coronata_ATCC56201_T,SRR8298137.37439,95.83,48,2,0,552,599,306,259,3e-14,78.7
Capronia_coronata_ATCC56201_T,SRR8298137.34761,97.78,45,1,0,555,599,183,227,3e-14,78.7
Capronia_coronata_ATCC56201_T,SRR8298137.34761,97.78,45,1,0,555,599,297,253,3e-14,78.7
Capronia_coronata_ATCC56201_T,SRR8298137.44546,90.91,55,5,0,545,599,312,258,4e-13,75.0
Capronia_coronata_ATCC56201_T,SRR8298137.5153,89.66,58,6,0,542,599,316,259,4e-13,75.0
Capronia_coronata_ATCC56201_T,SRR8298137.39293,93.75,48,3,0,552,599,304,257,1e-12,73.1
Capronia_coronata_ATCC56201_T,SRR8298137.39293,92.68,41,3,0,283,323,1,41,1e-08,60.2
Capronia_coronata_ATCC56201_T,SRR8298137.35133,100.00,39,0,0,561,599,295,257,1e-12,73.1
Capronia_coronata_ATCC56201_T,SRR8298137.26905,100.00,39,0,0,561,599,294,256,1e-12,73.1
Capronia_coronata_ATCC56201_T,SRR8298137.23415,93.75,48,3,0,552,599,176,223,1e-12,73.1
Capronia_coronata_ATCC56201_T,SRR8298137.23415,93.75,48,3,0,552,599,301,254,1e-12,73.1
Capronia_coronata_ATCC56201_T,SRR8298137.17194,93.75,48,3,0,552,599,304,257,1e-12,73.1
Capronia_coronata_ATCC56201_T,SRR8298137.12363,100.00,39,0,0,561,599,294,256,1e-12,73.1
Capronia_coronata_ATCC56201_T,SRR8298137.6889,100.00,39,0,0,561,599,294,256,1e-12,73.1
Capronia_coronata_ATCC56201_T,SRR8298137.17629,85.51,69,9,1,531,599,157,224,5e-12,71.3
Capronia_coronata_ATCC56201_T,SRR8298137.50384,87.93,58,7,0,542,599,312,255,2e-11,69.4
Capronia_coronata_ATCC56201_T,SRR8298137.48900,87.93,58,7,0,542,599,312,255,2e-11,69.4
Capronia_coronata_ATCC56201_T,SRR8298137.48900,94.59,37,2,0,283,319,3,39,4e-08,58.4
Capronia_coronata_ATCC56201_T,SRR8298137.48102,87.93,58,7,0,542,599,312,255,2e-11,69.4
Capronia_coronata_ATCC56201_T,SRR8298137.43631,87.93,58,7,0,542,599,312,255,2e-11,69.4
Capronia_coronata_ATCC56201_T,SRR8298137.16580,87.93,58,7,0,542,599,310,253,2e-11,69.4
Capronia_coronata_ATCC56201_T,SRR8298137.36605,100.00,36,0,0,564,599,290,255,7e-11,67.6
Capronia_coronata_ATCC56201_T,SRR8298137.34787,100.00,36,0,0,564,599,290,255,7e-11,67.6
Capronia_coronata_ATCC56201_T,SRR8298137.24135,91.67,48,4,0,552,599,176,223,7e-11,67.6
Capronia_coronata_ATCC56201_T,SRR8298137.24135,91.67,48,4,0,552,599,301,254,7e-11,67.6
Capronia_coronata_ATCC56201_T,SRR8298137.14196,100.00,36,0,0,564,599,290,255,7e-11,67.6
Capronia_coronata_ATCC56201_T,SRR8298137.10920,100.00,36,0,0,564,599,294,259,7e-11,67.6
Capronia_coronata_ATCC56201_T,SRR8298137.10565,100.00,36,0,0,564,599,198,233,7e-11,67.6
Capronia_coronata_ATCC56201_T,SRR8298137.10565,100.00,36,0,0,564,599,289,254,7e-11,67.6
Capronia_coronata_ATCC56201_T,SRR8298137.5306,91.67,48,4,0,552,599,302,255,7e-11,67.6
Capronia_coronata_ATCC56201_T,SRR8298137.13165,100.00,35,0,0,565,599,217,251,2e-10,65.8
Capronia_coronata_ATCC56201_T,SRR8298137.19875,97.22,36,1,0,561,596,295,260,3e-09,62.1
Capronia_coronata_ATCC56201_T,SRR8298137.10787,97.22,36,1,0,564,599,290,255,3e-09,62.1
Capronia_coronata_ATCC56201_T,SRR8298137.1215,97.22,36,1,0,564,599,287,252,3e-09,62.1
Capronia_coronata_ATCC56201_T,SRR8298137.34864,97.14,35,1,0,283,317,4,38,1e-08,60.2
Capronia_coronata_ATCC56201_T,SRR8298137.45083,100.00,30,0,0,570,599,284,255,1e-07,56.5
Capronia_parasitica_CBS123.88,SRR8298137.30499,89.77,88,7,2,289,376,4,89,3e-24,111
Capronia_parasitica_CBS123.88,SRR8298137.39293,92.68,41,3,0,289,329,1,41,1e-08,60.2
Capronia_parasitica_CBS123.88,SRR8298137.34864,97.14,35,1,0,289,323,4,38,1e-08,60.2
Capronia_parasitica_CBS123.88,SRR8298137.48900,94.59,37,2,0,289,325,3,39,4e-08,58.4
Veronaea_japonica_CBS776.83_T,SRR8298137.30499,92.00,75,6,0,317,391,4,78,1e-22,106
Veronaea_japonica_CBS776.83_T,SRR8298137.39293,92.68,41,3,0,317,357,1,41,1e-08,60.2
Veronaea_japonica_CBS776.83_T,SRR8298137.34864,97.14,35,1,0,317,351,4,38,1e-08,60.2
Veronaea_japonica_CBS776.83_T,SRR8298137.48900,94.59,37,2,0,317,353,3,39,4e-08,58.4
Thysanorea_papuana_CBS212.96_T,SRR8298137.30499,92.00,75,6,0,291,365,4,78,1e-22,106
Thysanorea_papuana_CBS212.96_T,SRR8298137.39293,92.68,41,3,0,291,331,1,41,1e-08,60.2
Thysanorea_papuana_CBS212.96_T,SRR8298137.34864,97.14,35,1,0,291,325,4,38,1e-08,60.2
Thysanorea_papuana_CBS212.96_T,SRR8298137.48900,94.59,37,2,0,291,327,3,39,4e-08,58.4
Capronia_acutiseta_ATCC56428_T,SRR8298137.30499,88.76,89,8,2,284,372,4,90,4e-23,108
Capronia_acutiseta_ATCC56428_T,SRR8298137.30499,85.48,62,9,0,537,598,315,254,2e-10,65.8
Capronia_acutiseta_ATCC56428_T,SRR8298137.39293,95.83,48,2,0,551,598,304,257,3e-14,78.7
Capronia_acutiseta_ATCC56428_T,SRR8298137.39293,92.68,41,3,0,284,324,1,41,1e-08,60.2
Capronia_acutiseta_ATCC56428_T,SRR8298137.17194,95.83,48,2,0,551,598,304,257,3e-14,78.7
Capronia_acutiseta_ATCC56428_T,SRR8298137.50384,89.66,58,6,0,541,598,312,255,4e-13,75.0
Capronia_acutiseta_ATCC56428_T,SRR8298137.48900,89.66,58,6,0,541,598,312,255,4e-13,75.0
Capronia_acutiseta_ATCC56428_T,SRR8298137.48900,94.59,37,2,0,284,320,3,39,4e-08,58.4
Capronia_acutiseta_ATCC56428_T,SRR8298137.48102,89.66,58,6,0,541,598,312,255,4e-13,75.0
Capronia_acutiseta_ATCC56428_T,SRR8298137.43631,89.66,58,6,0,541,598,312,255,4e-13,75.0
Capronia_acutiseta_ATCC56428_T,SRR8298137.16580,89.66,58,6,0,541,598,310,253,4e-13,75.0
Capronia_acutiseta_ATCC56428_T,SRR8298137.37439,93.75,48,3,0,551,598,306,259,1e-12,73.1
Capronia_acutiseta_ATCC56428_T,SRR8298137.34761,95.56,45,2,0,554,598,183,227,1e-12,73.1
Capronia_acutiseta_ATCC56428_T,SRR8298137.34761,95.56,45,2,0,554,598,297,253,1e-12,73.1
Capronia_acutiseta_ATCC56428_T,SRR8298137.14196,93.62,47,3,0,552,598,301,255,5e-12,71.3
Capronia_acutiseta_ATCC56428_T,SRR8298137.44546,89.09,55,6,0,544,598,312,258,2e-11,69.4
Capronia_acutiseta_ATCC56428_T,SRR8298137.35133,100.00,37,0,0,562,598,293,257,2e-11,69.4
Capronia_acutiseta_ATCC56428_T,SRR8298137.26905,100.00,37,0,0,562,598,292,256,2e-11,69.4
Capronia_acutiseta_ATCC56428_T,SRR8298137.12363,100.00,37,0,0,562,598,292,256,2e-11,69.4
Capronia_acutiseta_ATCC56428_T,SRR8298137.6889,100.00,37,0,0,562,598,292,256,2e-11,69.4
Capronia_acutiseta_ATCC56428_T,SRR8298137.5153,87.93,58,7,0,541,598,316,259,2e-11,69.4
Capronia_acutiseta_ATCC56428_T,SRR8298137.36605,100.00,36,0,0,563,598,290,255,7e-11,67.6
Capronia_acutiseta_ATCC56428_T,SRR8298137.34787,100.00,36,0,0,563,598,290,255,7e-11,67.6
Capronia_acutiseta_ATCC56428_T,SRR8298137.24135,91.84,49,2,2,551,598,176,223,7e-11,67.6
Capronia_acutiseta_ATCC56428_T,SRR8298137.24135,91.84,49,2,2,551,598,301,254,7e-11,67.6
Capronia_acutiseta_ATCC56428_T,SRR8298137.23415,100.00,36,0,0,563,598,188,223,7e-11,67.6
Capronia_acutiseta_ATCC56428_T,SRR8298137.23415,100.00,36,0,0,563,598,289,254,7e-11,67.6
Capronia_acutiseta_ATCC56428_T,SRR8298137.17629,91.84,49,2,2,551,598,177,224,7e-11,67.6
Capronia_acutiseta_ATCC56428_T,SRR8298137.10920,100.00,36,0,0,563,598,294,259,7e-11,67.6
Capronia_acutiseta_ATCC56428_T,SRR8298137.10565,100.00,36,0,0,563,598,198,233,7e-11,67.6
Capronia_acutiseta_ATCC56428_T,SRR8298137.10565,100.00,36,0,0,563,598,289,254,7e-11,67.6
Capronia_acutiseta_ATCC56428_T,SRR8298137.13165,97.44,39,0,1,561,598,213,251,2e-10,65.8
Capronia_acutiseta_ATCC56428_T,SRR8298137.10787,97.22,36,1,0,563,598,290,255,3e-09,62.1
Capronia_acutiseta_ATCC56428_T,SRR8298137.5306,97.22,36,1,0,563,598,290,255,3e-09,62.1
Capronia_acutiseta_ATCC56428_T,SRR8298137.1215,97.22,36,1,0,563,598,287,252,3e-09,62.1
Capronia_acutiseta_ATCC56428_T,SRR8298137.34864,97.14,35,1,0,284,318,4,38,1e-08,60.2
Capronia_acutiseta_ATCC56428_T,SRR8298137.45083,92.68,41,2,1,558,598,294,255,4e-08,58.4
Fonsecaea_brasiliensis_CBS119710_T,SRR8298137.30499,92.00,75,6,0,291,365,4,78,1e-22,106
Fonsecaea_brasiliensis_CBS119710_T,SRR8298137.39293,92.68,41,3,0,291,331,1,41,1e-08,60.2
Fonsecaea_brasiliensis_CBS119710_T,SRR8298137.34864,97.14,35,1,0,291,325,4,38,1e-08,60.2
Fonsecaea_brasiliensis_CBS119710_T,SRR8298137.48900,94.59,37,2,0,291,327,3,39,4e-08,58.4
Fonsecaea_pedrosoi_CBS271.37_T,SRR8298137.30499,92.00,75,6,0,319,393,4,78,1e-22,106
Fonsecaea_pedrosoi_CBS271.37_T,SRR8298137.30499,86.36,66,9,0,580,645,319,254,1e-12,73.1
Fonsecaea_pedrosoi_CBS271.37_T,SRR8298137.8498,96.77,62,2,0,584,645,320,259,5e-22,104
Fonsecaea_pedrosoi_CBS271.37_T,SRR8298137.37439,93.75,48,3,0,598,645,306,259,1e-12,73.1
Fonsecaea_pedrosoi_CBS271.37_T,SRR8298137.34761,95.56,45,2,0,601,645,183,227,1e-12,73.1
Fonsecaea_pedrosoi_CBS271.37_T,SRR8298137.34761,95.56,45,2,0,601,645,297,253,1e-12,73.1
Fonsecaea_pedrosoi_CBS271.37_T,SRR8298137.44546,89.09,55,6,0,591,645,312,258,2e-11,69.4
Fonsecaea_pedrosoi_CBS271.37_T,SRR8298137.5153,87.93,58,7,0,588,645,316,259,2e-11,69.4
Fonsecaea_pedrosoi_CBS271.37_T,SRR8298137.39293,91.67,48,4,0,598,645,304,257,7e-11,67.6
Fonsecaea_pedrosoi_CBS271.37_T,SRR8298137.39293,92.68,41,3,0,319,359,1,41,1e-08,60.2
Fonsecaea_pedrosoi_CBS271.37_T,SRR8298137.35133,97.44,39,1,0,607,645,295,257,7e-11,67.6
Fonsecaea_pedrosoi_CBS271.37_T,SRR8298137.26905,97.44,39,1,0,607,645,294,256,7e-11,67.6
Fonsecaea_pedrosoi_CBS271.37_T,SRR8298137.23415,91.67,48,4,0,598,645,176,223,7e-11,67.6
Fonsecaea_pedrosoi_CBS271.37_T,SRR8298137.23415,91.67,48,4,0,598,645,301,254,7e-11,67.6
Fonsecaea_pedrosoi_CBS271.37_T,SRR8298137.17194,91.67,48,4,0,598,645,304,257,7e-11,67.6
Fonsecaea_pedrosoi_CBS271.37_T,SRR8298137.12363,97.44,39,1,0,607,645,294,256,7e-11,67.6
Fonsecaea_pedrosoi_CBS271.37_T,SRR8298137.6889,97.44,39,1,0,607,645,294,256,7e-11,67.6
Fonsecaea_pedrosoi_CBS271.37_T,SRR8298137.50384,86.21,58,8,0,588,645,312,255,9e-10,63.9
Fonsecaea_pedrosoi_CBS271.37_T,SRR8298137.48900,86.21,58,8,0,588,645,312,255,9e-10,63.9
Fonsecaea_pedrosoi_CBS271.37_T,SRR8298137.48900,94.59,37,2,0,319,355,3,39,4e-08,58.4
Fonsecaea_pedrosoi_CBS271.37_T,SRR8298137.48102,86.21,58,8,0,588,645,312,255,9e-10,63.9
Fonsecaea_pedrosoi_CBS271.37_T,SRR8298137.43631,86.21,58,8,0,588,645,312,255,9e-10,63.9
Fonsecaea_pedrosoi_CBS271.37_T,SRR8298137.16580,86.21,58,8,0,588,645,310,253,9e-10,63.9
Fonsecaea_pedrosoi_CBS271.37_T,SRR8298137.36605,97.22,36,1,0,610,645,290,255,3e-09,62.1
Fonsecaea_pedrosoi_CBS271.37_T,SRR8298137.34787,97.22,36,1,0,610,645,290,255,3e-09,62.1
Fonsecaea_pedrosoi_CBS271.37_T,SRR8298137.24135,89.58,48,5,0,598,645,176,223,3e-09,62.1
Fonsecaea_pedrosoi_CBS271.37_T,SRR8298137.24135,89.58,48,5,0,598,645,301,254,3e-09,62.1
Fonsecaea_pedrosoi_CBS271.37_T,SRR8298137.17629,89.58,48,5,0,598,645,177,224,3e-09,62.1
Fonsecaea_pedrosoi_CBS271.37_T,SRR8298137.14196,97.22,36,1,0,610,645,290,255,3e-09,62.1
Fonsecaea_pedrosoi_CBS271.37_T,SRR8298137.10920,97.22,36,1,0,610,645,294,259,3e-09,62.1
Fonsecaea_pedrosoi_CBS271.37_T,SRR8298137.10565,97.22,36,1,0,610,645,198,233,3e-09,62.1
Fonsecaea_pedrosoi_CBS271.37_T,SRR8298137.10565,97.22,36,1,0,610,645,289,254,3e-09,62.1
Fonsecaea_pedrosoi_CBS271.37_T,SRR8298137.5306,89.58,48,5,0,598,645,302,255,3e-09,62.1
Fonsecaea_pedrosoi_CBS271.37_T,SRR8298137.34864,97.14,35,1,0,319,353,4,38,1e-08,60.2
Fonsecaea_pedrosoi_CBS271.37_T,SRR8298137.13165,100.00,32,0,0,614,645,220,251,1e-08,60.2
Fonsecaea_pedrosoi_CBS271.37_T,SRR8298137.45083,100.00,30,0,0,616,645,284,255,2e-07,56.5
Fonsecaea_pedrosoi_CBS271.37_T,SRR8298137.1215,100.00,30,0,0,616,645,281,252,2e-07,56.5
Fonsecaea_multimorphosa_CBS980.96_T,SRR8298137.30499,92.00,75,6,0,289,363,4,78,1e-22,106
Fonsecaea_multimorphosa_CBS980.96_T,SRR8298137.39293,92.68,41,3,0,289,329,1,41,1e-08,60.2
Fonsecaea_multimorphosa_CBS980.96_T,SRR8298137.34864,97.14,35,1,0,289,323,4,38,1e-08,60.2
Fonsecaea_multimorphosa_CBS980.96_T,SRR8298137.48900,94.59,37,2,0,289,325,3,39,4e-08,58.4
Fonsecaea_minima_CBS125760_T,SRR8298137.30499,92.00,75,6,0,285,359,4,78,1e-22,106
Fonsecaea_minima_CBS125760_T,SRR8298137.39293,92.68,41,3,0,285,325,1,41,1e-08,60.2
Fonsecaea_minima_CBS125760_T,SRR8298137.34864,97.14,35,1,0,285,319,4,38,1e-08,60.2
Fonsecaea_minima_CBS125760_T,SRR8298137.48900,94.59,37,2,0,285,321,3,39,3e-08,58.4
Fonsecaea_nubica_CBS269.64_T,SRR8298137.30499,92.00,75,6,0,296,370,4,78,1e-22,106
Fonsecaea_nubica_CBS269.64_T,SRR8298137.39293,92.68,41,3,0,296,336,1,41,1e-08,60.2
Fonsecaea_nubica_CBS269.64_T,SRR8298137.34864,97.14,35,1,0,296,330,4,38,1e-08,60.2
Fonsecaea_nubica_CBS269.64_T,SRR8298137.48900,94.59,37,2,0,296,332,3,39,4e-08,58.4
Fonsecaea_monophora_CBS269.37_T,SRR8298137.30499,92.00,75,6,0,297,371,4,78,1e-22,106
Fonsecaea_monophora_CBS269.37_T,SRR8298137.39293,92.68,41,3,0,297,337,1,41,1e-08,60.2
Fonsecaea_monophora_CBS269.37_T,SRR8298137.34864,97.14,35,1,0,297,331,4,38,1e-08,60.2
Fonsecaea_monophora_CBS269.37_T,SRR8298137.48900,94.59,37,2,0,297,333,3,39,4e-08,58.4
Fonsecaea_erecta_CBS125763_T,SRR8298137.30499,92.00,75,6,0,280,354,4,78,1e-22,106
Fonsecaea_erecta_CBS125763_T,SRR8298137.39293,92.68,41,3,0,280,320,1,41,1e-08,60.2
Fonsecaea_erecta_CBS125763_T,SRR8298137.34864,97.14,35,1,0,280,314,4,38,1e-08,60.2
Fonsecaea_erecta_CBS125763_T,SRR8298137.48900,94.59,37,2,0,280,316,3,39,3e-08,58.4
Fonsecaea_pugnacius_CBS139214_T,SRR8298137.30499,92.00,75,6,0,289,363,4,78,1e-22,106
Fonsecaea_pugnacius_CBS139214_T,SRR8298137.39293,92.68,41,3,0,289,329,1,41,1e-08,60.2
Fonsecaea_pugnacius_CBS139214_T,SRR8298137.34864,97.14,35,1,0,289,323,4,38,1e-08,60.2
Fonsecaea_pugnacius_CBS139214_T,SRR8298137.48900,94.59,37,2,0,289,325,3,39,3e-08,58.4
Cladophialophora_psammophila_CBS,SRR8298137.30499,92.00,75,6,0,295,369,4,78,1e-22,106
Cladophialophora_psammophila_CBS,SRR8298137.39293,92.68,41,3,0,295,335,1,41,1e-08,60.2
Cladophialophora_psammophila_CBS,SRR8298137.34864,97.14,35,1,0,295,329,4,38,1e-08,60.2
Cladophialophora_psammophila_CBS,SRR8298137.48900,94.59,37,2,0,295,331,3,39,4e-08,58.4
Cladophialophora_devriesii_CBS,SRR8298137.30499,92.00,75,6,0,291,365,4,78,1e-22,106
Cladophialophora_devriesii_CBS,SRR8298137.39293,92.68,41,3,0,291,331,1,41,9e-09,60.2
Cladophialophora_devriesii_CBS,SRR8298137.34864,97.14,35,1,0,291,325,4,38,9e-09,60.2
Cladophialophora_devriesii_CBS,SRR8298137.48900,94.59,37,2,0,291,327,3,39,3e-08,58.4
Cladophialophora_immunda_CBS834.96,SRR8298137.30499,92.00,75,6,0,293,367,4,78,1e-22,106
Cladophialophora_immunda_CBS834.96,SRR8298137.39293,92.68,41,3,0,293,333,1,41,1e-08,60.2
Cladophialophora_immunda_CBS834.96,SRR8298137.34864,97.14,35,1,0,293,327,4,38,1e-08,60.2
Cladophialophora_immunda_CBS834.96,SRR8298137.48900,94.59,37,2,0,293,329,3,39,4e-08,58.4
Cladophialophora_arxii_CBS306.94_T,SRR8298137.30499,92.00,75,6,0,295,369,4,78,1e-22,106
Cladophialophora_arxii_CBS306.94_T,SRR8298137.39293,92.68,41,3,0,295,335,1,41,1e-08,60.2
Cladophialophora_arxii_CBS306.94_T,SRR8298137.34864,97.14,35,1,0,295,329,4,38,1e-08,60.2
Cladophialophora_arxii_CBS306.94_T,SRR8298137.48900,94.59,37,2,0,295,331,3,39,4e-08,58.4
Cladophialophora_bantiana_CBS173.52,SRR8298137.30499,92.00,75,6,0,289,363,4,78,1e-22,106
Cladophialophora_bantiana_CBS173.52,SRR8298137.39293,92.68,41,3,0,289,329,1,41,1e-08,60.2
Cladophialophora_bantiana_CBS173.52,SRR8298137.34864,97.14,35,1,0,289,323,4,38,1e-08,60.2
Cladophialophora_bantiana_CBS173.52,SRR8298137.48900,94.59,37,2,0,289,325,3,39,4e-08,58.4
Cladophialophora_emmonsii_CBS102594,SRR8298137.30499,92.00,75,6,0,280,354,4,78,1e-22,106
Cladophialophora_emmonsii_CBS102594,SRR8298137.39293,92.68,41,3,0,280,320,1,41,1e-08,60.2
Cladophialophora_emmonsii_CBS102594,SRR8298137.34864,97.14,35,1,0,280,314,4,38,1e-08,60.2
Cladophialophora_emmonsii_CBS102594,SRR8298137.48900,94.59,37,2,0,280,316,3,39,4e-08,58.4
Cladophialophora_minourae_CBS556.83,SRR8298137.30499,89.33,75,6,2,290,364,6,78,1e-18,93.5
Cladophialophora_minourae_CBS556.83,SRR8298137.34864,96.97,33,1,0,290,322,6,38,1e-07,56.5
Cladophialophora_australiensis_CBS112793,SRR8298137.8498,95.45,66,2,1,541,606,323,259,1e-21,104
Cladophialophora_australiensis_CBS112793,SRR8298137.30499,90.67,75,7,0,290,364,4,78,2e-20,100
Cladophialophora_australiensis_CBS112793,SRR8298137.30499,85.07,67,9,1,540,606,319,254,2e-10,67.6
Cladophialophora_australiensis_CBS112793,SRR8298137.37439,93.75,48,3,0,559,606,306,259,3e-12,73.1
Cladophialophora_australiensis_CBS112793,SRR8298137.34761,95.56,45,2,0,562,606,183,227,3e-12,73.1
Cladophialophora_australiensis_CBS112793,SRR8298137.34761,95.56,45,2,0,562,606,297,253,3e-12,73.1
Cladophialophora_australiensis_CBS112793,SRR8298137.44546,89.09,55,6,0,552,606,312,258,4e-11,69.4
Cladophialophora_australiensis_CBS112793,SRR8298137.5153,87.93,58,7,0,549,606,316,259,4e-11,69.4
Cladophialophora_australiensis_CBS112793,SRR8298137.39293,91.67,48,4,0,559,606,304,257,2e-10,67.6
Cladophialophora_australiensis_CBS112793,SRR8298137.39293,92.68,41,3,0,290,330,1,41,3e-08,60.2
Cladophialophora_australiensis_CBS112793,SRR8298137.35133,97.44,39,1,0,568,606,295,257,2e-10,67.6
Cladophialophora_australiensis_CBS112793,SRR8298137.26905,97.44,39,1,0,568,606,294,256,2e-10,67.6
Cladophialophora_australiensis_CBS112793,SRR8298137.23415,91.67,48,4,0,559,606,176,223,2e-10,67.6
Cladophialophora_australiensis_CBS112793,SRR8298137.23415,91.67,48,4,0,559,606,301,254,2e-10,67.6
Cladophialophora_australiensis_CBS112793,SRR8298137.17194,91.67,48,4,0,559,606,304,257,2e-10,67.6
Cladophialophora_australiensis_CBS112793,SRR8298137.12363,97.44,39,1,0,568,606,294,256,2e-10,67.6
Cladophialophora_australiensis_CBS112793,SRR8298137.6889,97.44,39,1,0,568,606,294,256,2e-10,67.6
Cladophialophora_australiensis_CBS112793,SRR8298137.50384,86.21,58,8,0,549,606,312,255,2e-09,63.9
Cladophialophora_australiensis_CBS112793,SRR8298137.48900,86.21,58,8,0,549,606,312,255,2e-09,63.9
Cladophialophora_australiensis_CBS112793,SRR8298137.48900,94.59,37,2,0,290,326,3,39,1e-07,58.4
Cladophialophora_australiensis_CBS112793,SRR8298137.48102,86.21,58,8,0,549,606,312,255,2e-09,63.9
Cladophialophora_australiensis_CBS112793,SRR8298137.43631,86.21,58,8,0,549,606,312,255,2e-09,63.9
Cladophialophora_australiensis_CBS112793,SRR8298137.16580,86.21,58,8,0,549,606,310,253,2e-09,63.9
Cladophialophora_australiensis_CBS112793,SRR8298137.36605,97.22,36,1,0,571,606,290,255,7e-09,62.1
Cladophialophora_australiensis_CBS112793,SRR8298137.34787,97.22,36,1,0,571,606,290,255,7e-09,62.1
Cladophialophora_australiensis_CBS112793,SRR8298137.24135,89.58,48,5,0,559,606,176,223,7e-09,62.1
Cladophialophora_australiensis_CBS112793,SRR8298137.24135,89.58,48,5,0,559,606,301,254,7e-09,62.1
Cladophialophora_australiensis_CBS112793,SRR8298137.17629,89.58,48,5,0,559,606,177,224,7e-09,62.1
Cladophialophora_australiensis_CBS112793,SRR8298137.14196,97.22,36,1,0,571,606,290,255,7e-09,62.1
Cladophialophora_australiensis_CBS112793,SRR8298137.10920,97.22,36,1,0,571,606,294,259,7e-09,62.1
Cladophialophora_australiensis_CBS112793,SRR8298137.10565,97.22,36,1,0,571,606,198,233,7e-09,62.1
Cladophialophora_australiensis_CBS112793,SRR8298137.10565,97.22,36,1,0,571,606,289,254,7e-09,62.1
Cladophialophora_australiensis_CBS112793,SRR8298137.5306,89.58,48,5,0,559,606,302,255,7e-09,62.1
Cladophialophora_australiensis_CBS112793,SRR8298137.34864,97.14,35,1,0,290,324,4,38,3e-08,60.2
Cladophialophora_australiensis_CBS112793,SRR8298137.13165,100.00,32,0,0,575,606,220,251,3e-08,60.2
Cladophialophora_australiensis_CBS112793,SRR8298137.45083,100.00,30,0,0,577,606,284,255,3e-07,56.5
Cladophialophora_australiensis_CBS112793,SRR8298137.1215,100.00,30,0,0,577,606,281,252,3e-07,56.5
Cladophialophora_potulentorum_CBS112222,SRR8298137.8498,96.83,63,2,0,546,608,321,259,3e-22,106
Cladophialophora_potulentorum_CBS112222,SRR8298137.30499,89.33,75,8,0,289,363,4,78,7e-19,95.3
Cladophialophora_potulentorum_CBS112222,SRR8298137.30499,85.48,62,9,0,547,608,315,254,6e-10,65.8
Cladophialophora_potulentorum_CBS112222,SRR8298137.37439,93.75,48,3,0,561,608,306,259,4e-12,73.1
Cladophialophora_potulentorum_CBS112222,SRR8298137.34761,95.56,45,2,0,564,608,183,227,4e-12,73.1
Cladophialophora_potulentorum_CBS112222,SRR8298137.34761,95.56,45,2,0,564,608,297,253,4e-12,73.1
Cladophialophora_potulentorum_CBS112222,SRR8298137.44546,89.09,55,6,0,554,608,312,258,5e-11,69.4
Cladophialophora_potulentorum_CBS112222,SRR8298137.5153,87.93,58,7,0,551,608,316,259,5e-11,69.4
Cladophialophora_potulentorum_CBS112222,SRR8298137.39293,91.67,48,4,0,561,608,304,257,2e-10,67.6
Cladophialophora_potulentorum_CBS112222,SRR8298137.39293,91.11,45,3,1,289,332,1,45,3e-08,60.2
Cladophialophora_potulentorum_CBS112222,SRR8298137.35133,97.44,39,1,0,570,608,295,257,2e-10,67.6
Cladophialophora_potulentorum_CBS112222,SRR8298137.26905,97.44,39,1,0,570,608,294,256,2e-10,67.6
Cladophialophora_potulentorum_CBS112222,SRR8298137.23415,91.67,48,4,0,561,608,176,223,2e-10,67.6
Cladophialophora_potulentorum_CBS112222,SRR8298137.23415,91.67,48,4,0,561,608,301,254,2e-10,67.6
Cladophialophora_potulentorum_CBS112222,SRR8298137.17194,91.67,48,4,0,561,608,304,257,2e-10,67.6
Cladophialophora_potulentorum_CBS112222,SRR8298137.12363,97.44,39,1,0,570,608,294,256,2e-10,67.6
Cladophialophora_potulentorum_CBS112222,SRR8298137.6889,97.44,39,1,0,570,608,294,256,2e-10,67.6
Cladophialophora_potulentorum_CBS112222,SRR8298137.17629,82.89,76,10,3,534,608,151,224,6e-10,65.8
Cladophialophora_potulentorum_CBS112222,SRR8298137.50384,86.21,58,8,0,551,608,312,255,2e-09,63.9
Cladophialophora_potulentorum_CBS112222,SRR8298137.48900,86.21,58,8,0,551,608,312,255,2e-09,63.9
Cladophialophora_potulentorum_CBS112222,SRR8298137.48900,94.59,37,2,0,289,325,3,39,1e-07,58.4
Cladophialophora_potulentorum_CBS112222,SRR8298137.48102,86.21,58,8,0,551,608,312,255,2e-09,63.9
Cladophialophora_potulentorum_CBS112222,SRR8298137.43631,86.21,58,8,0,551,608,312,255,2e-09,63.9
Cladophialophora_potulentorum_CBS112222,SRR8298137.16580,86.21,58,8,0,551,608,310,253,2e-09,63.9
Cladophialophora_potulentorum_CBS112222,SRR8298137.36605,97.22,36,1,0,573,608,290,255,8e-09,62.1
Cladophialophora_potulentorum_CBS112222,SRR8298137.34787,97.22,36,1,0,573,608,290,255,8e-09,62.1
Cladophialophora_potulentorum_CBS112222,SRR8298137.24135,89.58,48,5,0,561,608,176,223,8e-09,62.1
Cladophialophora_potulentorum_CBS112222,SRR8298137.24135,89.58,48,5,0,561,608,301,254,8e-09,62.1
Cladophialophora_potulentorum_CBS112222,SRR8298137.14196,97.22,36,1,0,573,608,290,255,8e-09,62.1
Cladophialophora_potulentorum_CBS112222,SRR8298137.10920,97.22,36,1,0,573,608,294,259,8e-09,62.1
Cladophialophora_potulentorum_CBS112222,SRR8298137.10565,97.22,36,1,0,573,608,198,233,8e-09,62.1
Cladophialophora_potulentorum_CBS112222,SRR8298137.10565,97.22,36,1,0,573,608,289,254,8e-09,62.1
Cladophialophora_potulentorum_CBS112222,SRR8298137.5306,89.58,48,5,0,561,608,302,255,8e-09,62.1
Cladophialophora_potulentorum_CBS112222,SRR8298137.34864,97.14,35,1,0,289,323,4,38,3e-08,60.2
Cladophialophora_potulentorum_CBS112222,SRR8298137.13165,100.00,32,0,0,577,608,220,251,3e-08,60.2
Cladophialophora_potulentorum_CBS112222,SRR8298137.45083,100.00,30,0,0,579,608,284,255,4e-07,56.5
Cladophialophora_potulentorum_CBS112222,SRR8298137.1215,100.00,30,0,0,579,608,281,252,4e-07,56.5
Cladophialophora_matsushimae_CMRP1198,SRR8298137.30499,90.67,75,7,0,293,367,4,78,5e-21,100
Cladophialophora_matsushimae_CMRP1198,SRR8298137.39293,91.11,45,3,1,293,336,1,45,9e-09,60.2
Cladophialophora_matsushimae_CMRP1198,SRR8298137.34864,97.14,35,1,0,293,327,4,38,9e-09,60.2
Cladophialophora_matsushimae_CMRP1198,SRR8298137.48900,94.59,37,2,0,293,329,3,39,3e-08,58.4
Cladophialophora_mycetomatis_CBS122637,SRR8298137.30499,90.67,75,7,0,278,352,4,78,6e-21,100
Cladophialophora_mycetomatis_CBS122637,SRR8298137.39293,91.11,45,3,1,278,321,1,45,1e-08,60.2
Cladophialophora_mycetomatis_CBS122637,SRR8298137.34864,97.14,35,1,0,278,312,4,38,1e-08,60.2
Cladophialophora_mycetomatis_CBS122637,SRR8298137.48900,94.59,37,2,0,278,314,3,39,3e-08,58.4
Cladophialophora_chaetospira_CBS127573,SRR8298137.30499,92.00,75,6,0,684,758,4,78,2e-22,106
Cladophialophora_chaetospira_CBS127573,SRR8298137.39293,92.68,41,3,0,684,724,1,41,2e-08,60.2
Cladophialophora_chaetospira_CBS127573,SRR8298137.34864,97.14,35,1,0,684,718,4,38,2e-08,60.2
Cladophialophora_chaetospira_CBS127573,SRR8298137.48900,94.59,37,2,0,684,720,3,39,6e-08,58.4
Cladophialophora_boppii_CBS126.86_T,SRR8298137.30499,92.00,75,6,0,286,360,4,78,1e-22,106
Cladophialophora_boppii_CBS126.86_T,SRR8298137.39293,92.68,41,3,0,286,326,1,41,1e-08,60.2
Cladophialophora_boppii_CBS126.86_T,SRR8298137.34864,97.14,35,1,0,286,320,4,38,1e-08,60.2
Cladophialophora_boppii_CBS126.86_T,SRR8298137.48900,94.59,37,2,0,286,322,3,39,3e-08,58.4
Cladophialophora_abundans_CBS126736,SRR8298137.30499,94.52,73,4,0,225,297,6,78,6e-25,113
Cladophialophora_abundans_CBS126736,SRR8298137.34864,96.97,33,1,0,225,257,6,38,1e-07,56.5
Capronia_semi-immersa_CBS102234,SRR8298137.30499,91.78,73,6,0,287,359,6,78,2e-21,102
Capronia_semi-immersa_CBS102234,SRR8298137.34864,96.97,33,1,0,287,319,6,38,1e-07,56.5
Phialophora_americana_CBS400.67,SRR8298137.8498,95.38,65,3,0,536,600,323,259,1e-21,104
Phialophora_americana_CBS400.67,SRR8298137.30499,91.78,73,6,0,289,361,6,78,4e-21,102
Phialophora_americana_CBS400.67,SRR8298137.34864,96.97,33,1,0,289,321,6,38,3e-07,56.5
Phialophora_verrucosa_CBS140325_T,SRR8298137.30499,91.78,73,6,0,293,365,6,78,2e-21,102
Phialophora_verrucosa_CBS140325_T,SRR8298137.8498,95.56,45,2,0,542,586,323,279,1e-12,73.1
Phialophora_verrucosa_CBS140325_T,SRR8298137.34864,96.97,33,1,0,293,325,6,38,1e-07,56.5
Cladophialophora_samoensis_CBS259.83_T,SRR8298137.30499,96.00,75,3,0,291,365,4,78,1e-27,122
Cladophialophora_samoensis_CBS259.83_T,SRR8298137.34864,84.85,66,7,3,291,354,4,68,8e-10,63.9
Cladophialophora_samoensis_CBS259.83_T,SRR8298137.48900,94.59,37,2,0,291,327,3,39,4e-08,58.4
Cladophialophora_samoensis_CBS259.83_T,SRR8298137.39293,96.97,33,1,0,291,323,1,33,1e-07,56.5
Cladophialophora_carrionii_CBS260.83,SRR8298137.30499,93.33,75,5,0,307,381,4,78,3e-24,111
Cladophialophora_carrionii_CBS260.83,SRR8298137.8498,96.30,54,2,0,555,608,323,270,1e-17,89.8
Cladophialophora_carrionii_CBS260.83,SRR8298137.39293,92.68,41,3,0,307,347,1,41,1e-08,60.2
Cladophialophora_carrionii_CBS260.83,SRR8298137.34864,97.14,35,1,0,307,341,4,38,1e-08,60.2
Cladophialophora_carrionii_CBS260.83,SRR8298137.48900,94.59,37,2,0,307,343,3,39,4e-08,58.4
Exophiala_palmae_UPCB86822_T,SRR8298137.30499,92.00,75,6,0,250,324,4,78,1e-22,106
Exophiala_palmae_UPCB86822_T,SRR8298137.39293,92.68,41,3,0,250,290,1,41,9e-09,60.2
Exophiala_palmae_UPCB86822_T,SRR8298137.34864,97.14,35,1,0,250,284,4,38,9e-09,60.2
Exophiala_palmae_UPCB86822_T,SRR8298137.48900,94.59,37,2,0,250,286,3,39,3e-08,58.4
Cladophialophora_yegresii_CBS114405_T,SRR8298137.30499,93.33,75,5,0,292,366,4,78,3e-24,111
Cladophialophora_yegresii_CBS114405_T,SRR8298137.39293,92.68,41,3,0,292,332,1,41,1e-08,60.2
Cladophialophora_yegresii_CBS114405_T,SRR8298137.34864,97.14,35,1,0,292,326,4,38,1e-08,60.2
Cladophialophora_yegresii_CBS114405_T,SRR8298137.48900,94.59,37,2,0,292,328,3,39,4e-08,58.4
Knufia_epidermidis_CBS120353_T,SRR8298137.30499,90.80,87,6,2,292,378,6,90,2e-25,115
Knufia_epidermidis_CBS120353_T,SRR8298137.34864,96.97,33,1,0,292,324,6,38,1e-07,56.5
Arthrocladium_fulminans_CBS136243_T,SRR8298137.30499,87.21,86,9,2,287,372,6,89,8e-20,97.1
Arthrocladium_fulminans_CBS136243_T,SRR8298137.34864,96.97,33,1,0,287,319,6,38,1e-07,56.5
Arthrocladium_fulminans_CBS136243_T,SRR8298137.8498,100.00,28,0,0,533,560,319,292,2e-06,52.8
Anthopsis_deltoidea_CBS263.77_T,SRR8298137.47631,100.00,33,0,0,294,326,1,33,3e-09,62.1
Anthopsis_deltoidea_CBS263.77_T,SRR8298137.14196,100.00,33,0,0,294,326,5,37,3e-09,62.1
Cyphellophora_laciniata_CBS190.61_T,SRR8298137.30499,95.89,73,3,0,379,451,6,78,2e-26,119
Cyphellophora_laciniata_CBS190.61_T,SRR8298137.30499,87.10,62,8,0,634,695,315,254,6e-12,71.3
Cyphellophora_laciniata_CBS190.61_T,SRR8298137.8498,98.41,63,1,0,633,695,321,259,4e-24,111
Cyphellophora_laciniata_CBS190.61_T,SRR8298137.37439,95.83,48,2,0,648,695,306,259,4e-14,78.7
Cyphellophora_laciniata_CBS190.61_T,SRR8298137.34761,97.78,45,1,0,651,695,183,227,4e-14,78.7
Cyphellophora_laciniata_CBS190.61_T,SRR8298137.34761,97.78,45,1,0,651,695,297,253,4e-14,78.7
Cyphellophora_laciniata_CBS190.61_T,SRR8298137.44546,90.91,55,5,0,641,695,312,258,5e-13,75.0
Cyphellophora_laciniata_CBS190.61_T,SRR8298137.5153,89.66,58,6,0,638,695,316,259,5e-13,75.0
Cyphellophora_laciniata_CBS190.61_T,SRR8298137.39293,93.75,48,3,0,648,695,304,257,2e-12,73.1
Cyphellophora_laciniata_CBS190.61_T,SRR8298137.35133,100.00,39,0,0,657,695,295,257,2e-12,73.1
Cyphellophora_laciniata_CBS190.61_T,SRR8298137.26905,100.00,39,0,0,657,695,294,256,2e-12,73.1
Cyphellophora_laciniata_CBS190.61_T,SRR8298137.23415,93.75,48,3,0,648,695,176,223,2e-12,73.1
Cyphellophora_laciniata_CBS190.61_T,SRR8298137.23415,93.75,48,3,0,648,695,301,254,2e-12,73.1
Cyphellophora_laciniata_CBS190.61_T,SRR8298137.17194,93.75,48,3,0,648,695,304,257,2e-12,73.1
Cyphellophora_laciniata_CBS190.61_T,SRR8298137.12363,100.00,39,0,0,657,695,294,256,2e-12,73.1
Cyphellophora_laciniata_CBS190.61_T,SRR8298137.6889,100.00,39,0,0,657,695,294,256,2e-12,73.1
Cyphellophora_laciniata_CBS190.61_T,SRR8298137.50384,87.93,58,7,0,638,695,312,255,2e-11,69.4
Cyphellophora_laciniata_CBS190.61_T,SRR8298137.48900,87.93,58,7,0,638,695,312,255,2e-11,69.4
Cyphellophora_laciniata_CBS190.61_T,SRR8298137.48102,87.93,58,7,0,638,695,312,255,2e-11,69.4
Cyphellophora_laciniata_CBS190.61_T,SRR8298137.43631,87.93,58,7,0,638,695,312,255,2e-11,69.4
Cyphellophora_laciniata_CBS190.61_T,SRR8298137.16580,87.93,58,7,0,638,695,310,253,2e-11,69.4
Cyphellophora_laciniata_CBS190.61_T,SRR8298137.36605,100.00,36,0,0,660,695,290,255,8e-11,67.6
Cyphellophora_laciniata_CBS190.61_T,SRR8298137.34787,100.00,36,0,0,660,695,290,255,8e-11,67.6
Cyphellophora_laciniata_CBS190.61_T,SRR8298137.24135,91.67,48,4,0,648,695,176,223,8e-11,67.6
Cyphellophora_laciniata_CBS190.61_T,SRR8298137.24135,91.67,48,4,0,648,695,301,254,8e-11,67.6
Cyphellophora_laciniata_CBS190.61_T,SRR8298137.17629,91.67,48,4,0,648,695,177,224,8e-11,67.6
Cyphellophora_laciniata_CBS190.61_T,SRR8298137.14196,100.00,36,0,0,660,695,290,255,8e-11,67.6
Cyphellophora_laciniata_CBS190.61_T,SRR8298137.10920,100.00,36,0,0,660,695,294,259,8e-11,67.6
Cyphellophora_laciniata_CBS190.61_T,SRR8298137.10565,100.00,36,0,0,660,695,198,233,8e-11,67.6
Cyphellophora_laciniata_CBS190.61_T,SRR8298137.10565,100.00,36,0,0,660,695,289,254,8e-11,67.6
Cyphellophora_laciniata_CBS190.61_T,SRR8298137.5306,91.67,48,4,0,648,695,302,255,8e-11,67.6
Cyphellophora_laciniata_CBS190.61_T,SRR8298137.34864,85.94,64,6,2,379,440,6,68,3e-10,65.8
Cyphellophora_laciniata_CBS190.61_T,SRR8298137.13165,100.00,35,0,0,661,695,217,251,3e-10,65.8
Cyphellophora_laciniata_CBS190.61_T,SRR8298137.19875,97.22,36,1,0,657,692,295,260,4e-09,62.1
Cyphellophora_laciniata_CBS190.61_T,SRR8298137.10787,97.22,36,1,0,660,695,290,255,4e-09,62.1
Cyphellophora_laciniata_CBS190.61_T,SRR8298137.1215,97.22,36,1,0,660,695,287,252,4e-09,62.1
Cyphellophora_laciniata_CBS190.61_T,SRR8298137.45083,100.00,30,0,0,666,695,284,255,2e-07,56.5
Cyphellophora_suttonii_CBS449.91,SRR8298137.30499,95.89,73,3,0,282,354,6,78,2e-26,119
Cyphellophora_suttonii_CBS449.91,SRR8298137.34864,85.94,64,6,2,282,343,6,68,2e-10,65.8
Cyphellophora_pauciseptata_CBS284.85_T,SRR8298137.30499,95.89,73,3,0,293,365,6,78,2e-26,119
Cyphellophora_pauciseptata_CBS284.85_T,SRR8298137.34864,85.94,64,6,2,293,354,6,68,2e-10,65.8
Cyphellophora_pluriseptata_CBS286.85_T,SRR8298137.30499,94.52,73,4,0,298,370,6,78,7e-25,113
Cyphellophora_pluriseptata_CBS286.85_T,SRR8298137.34864,84.38,64,7,3,298,359,6,68,1e-08,60.2
Phialophora_europaea_CBS101466,SRR8298137.30499,94.52,73,4,0,288,360,6,78,7e-25,113
Phialophora_europaea_CBS101466,SRR8298137.34864,84.38,64,7,3,288,349,6,68,1e-08,60.2
Phialophora_ambigua_CBS235.93,SRR8298137.30499,94.52,73,4,0,285,357,6,78,7e-25,113
Phialophora_ambigua_CBS235.93,SRR8298137.34864,84.38,64,7,3,285,346,6,68,1e-08,60.2
Cladophialophora_modesta_CBS985.96_T,SRR8298137.30499,91.78,73,6,0,284,356,6,78,2e-21,102
Cladophialophora_modesta_CBS985.96_T,SRR8298137.30499,86.57,67,8,1,513,579,319,254,1e-12,73.1
Cladophialophora_modesta_CBS985.96_T,SRR8298137.37439,97.92,48,1,0,532,579,306,259,7e-16,84.2
Cladophialophora_modesta_CBS985.96_T,SRR8298137.44546,92.73,55,4,0,525,579,312,258,9e-15,80.5
Cladophialophora_modesta_CBS985.96_T,SRR8298137.5153,91.38,58,5,0,522,579,316,259,9e-15,80.5
Cladophialophora_modesta_CBS985.96_T,SRR8298137.39293,95.83,48,2,0,532,579,304,257,3e-14,78.7
Cladophialophora_modesta_CBS985.96_T,SRR8298137.34761,97.78,45,1,0,535,579,183,227,3e-14,78.7
Cladophialophora_modesta_CBS985.96_T,SRR8298137.34761,97.78,45,1,0,535,579,297,253,3e-14,78.7
Cladophialophora_modesta_CBS985.96_T,SRR8298137.17194,95.83,48,2,0,532,579,304,257,3e-14,78.7
Cladophialophora_modesta_CBS985.96_T,SRR8298137.50384,89.66,58,6,0,522,579,312,255,4e-13,75.0
Cladophialophora_modesta_CBS985.96_T,SRR8298137.48900,89.66,58,6,0,522,579,312,255,4e-13,75.0
Cladophialophora_modesta_CBS985.96_T,SRR8298137.48102,89.66,58,6,0,522,579,312,255,4e-13,75.0
Cladophialophora_modesta_CBS985.96_T,SRR8298137.43631,89.66,58,6,0,522,579,312,255,4e-13,75.0
Cladophialophora_modesta_CBS985.96_T,SRR8298137.16580,89.66,58,6,0,522,579,310,253,4e-13,75.0
Cladophialophora_modesta_CBS985.96_T,SRR8298137.23415,93.75,48,3,0,532,579,176,223,1e-12,73.1
Cladophialophora_modesta_CBS985.96_T,SRR8298137.23415,93.75,48,3,0,532,579,301,254,1e-12,73.1
Cladophialophora_modesta_CBS985.96_T,SRR8298137.10565,100.00,39,0,0,541,579,195,233,1e-12,73.1
Cladophialophora_modesta_CBS985.96_T,SRR8298137.10565,100.00,39,0,0,541,579,292,254,1e-12,73.1
Cladophialophora_modesta_CBS985.96_T,SRR8298137.5306,93.75,48,3,0,532,579,302,255,1e-12,73.1
Cladophialophora_modesta_CBS985.96_T,SRR8298137.14196,93.62,47,3,0,533,579,301,255,5e-12,71.3
Cladophialophora_modesta_CBS985.96_T,SRR8298137.36605,100.00,36,0,0,544,579,290,255,7e-11,67.6
Cladophialophora_modesta_CBS985.96_T,SRR8298137.35133,100.00,36,0,0,544,579,292,257,7e-11,67.6
Cladophialophora_modesta_CBS985.96_T,SRR8298137.34787,100.00,36,0,0,544,579,290,255,7e-11,67.6
Cladophialophora_modesta_CBS985.96_T,SRR8298137.26905,100.00,36,0,0,544,579,291,256,7e-11,67.6
Cladophialophora_modesta_CBS985.96_T,SRR8298137.24135,91.67,48,4,0,532,579,176,223,7e-11,67.6
Cladophialophora_modesta_CBS985.96_T,SRR8298137.24135,91.67,48,4,0,532,579,301,254,7e-11,67.6
Cladophialophora_modesta_CBS985.96_T,SRR8298137.17629,91.67,48,4,0,532,579,177,224,7e-11,67.6
Cladophialophora_modesta_CBS985.96_T,SRR8298137.12363,100.00,36,0,0,544,579,291,256,7e-11,67.6
Cladophialophora_modesta_CBS985.96_T,SRR8298137.10920,100.00,36,0,0,544,579,294,259,7e-11,67.6
Cladophialophora_modesta_CBS985.96_T,SRR8298137.6889,100.00,36,0,0,544,579,291,256,7e-11,67.6
Cladophialophora_modesta_CBS985.96_T,SRR8298137.13165,100.00,35,0,0,545,579,217,251,2e-10,65.8
Cladophialophora_modesta_CBS985.96_T,SRR8298137.46930,87.50,56,6,1,522,577,311,257,9e-10,63.9
Cladophialophora_modesta_CBS985.96_T,SRR8298137.10787,97.22,36,1,0,544,579,290,255,3e-09,62.1
Cladophialophora_modesta_CBS985.96_T,SRR8298137.1215,97.22,36,1,0,544,579,287,252,3e-09,62.1
Cladophialophora_modesta_CBS985.96_T,SRR8298137.45083,100.00,30,0,0,550,579,284,255,1e-07,56.5
Cladophialophora_modesta_CBS985.96_T,SRR8298137.34864,96.97,33,1,0,284,316,6,38,1e-07,56.5
Cyphellophora_fusarioides_MUCL44033_T,SRR8298137.47631,100.00,33,0,0,281,313,1,33,3e-09,62.1
Cyphellophora_fusarioides_MUCL44033_T,SRR8298137.14196,100.00,33,0,0,281,313,5,37,3e-09,62.1
