Exophiala_nigra_CBS535.94_T,SRR7899645.14,88.98,127,11,3,255,380,1,125,2e-40,154
Exophiala_nigra_CBS535.94_T,SRR7899645.22,87.12,132,14,3,255,386,1,129,4e-38,147
Exophiala_nigra_CBS535.94_T,SRR7899645.7,87.50,128,12,4,255,380,1,126,1e-37,145
Exophiala_nigra_CBS535.94_T,SRR7899645.6,87.50,128,12,4,255,380,1,126,1e-37,145
Exophiala_nigra_CBS535.94_T,SRR7899645.27,87.85,107,10,3,255,360,1,105,7e-31,122
Exophiala_spinifera_CBS899.68_T,SRR7899645.14,88.10,126,12,3,252,376,1,124,4e-38,147
Exophiala_spinifera_CBS899.68_T,SRR7899645.22,86.23,138,14,5,252,387,1,135,1e-37,145
Exophiala_spinifera_CBS899.68_T,SRR7899645.7,86.61,127,13,4,252,376,1,125,2e-35,137
Exophiala_spinifera_CBS899.68_T,SRR7899645.6,86.61,127,13,4,252,376,1,125,2e-35,137
Exophiala_spinifera_CBS899.68_T,SRR7899645.27,88.79,107,9,3,252,357,1,105,1e-32,128
Exophiala_exophialae_CBS668.76_T,SRR7899645.14,88.10,126,12,3,253,377,1,124,4e-38,147
Exophiala_exophialae_CBS668.76_T,SRR7899645.22,86.23,138,14,5,253,388,1,135,1e-37,145
Exophiala_exophialae_CBS668.76_T,SRR7899645.7,86.61,127,13,4,253,377,1,125,2e-35,137
Exophiala_exophialae_CBS668.76_T,SRR7899645.6,86.61,127,13,4,253,377,1,125,2e-35,137
Exophiala_exophialae_CBS668.76_T,SRR7899645.27,88.79,107,9,3,253,358,1,105,1e-32,128
Exophiala_polymorpha_CBS138920_T,SRR7899645.14,88.10,126,12,3,355,479,1,124,5e-38,147
Exophiala_polymorpha_CBS138920_T,SRR7899645.14,96.36,55,1,1,641,694,327,273,8e-21,89.8
Exophiala_polymorpha_CBS138920_T,SRR7899645.22,86.23,138,14,5,355,490,1,135,2e-37,145
Exophiala_polymorpha_CBS138920_T,SRR7899645.22,98.11,53,1,0,642,694,322,270,6e-22,93.5
Exophiala_polymorpha_CBS138920_T,SRR7899645.7,86.61,127,13,4,355,479,1,125,3e-35,137
Exophiala_polymorpha_CBS138920_T,SRR7899645.7,100.00,51,0,0,644,694,322,272,2e-22,95.3
Exophiala_polymorpha_CBS138920_T,SRR7899645.6,86.61,127,13,4,355,479,1,125,3e-35,137
Exophiala_polymorpha_CBS138920_T,SRR7899645.6,100.00,51,0,0,644,694,322,272,2e-22,95.3
Exophiala_polymorpha_CBS138920_T,SRR7899645.27,88.79,107,9,3,355,460,1,105,2e-32,128
Exophiala_polymorpha_CBS138920_T,SRR7899645.27,94.00,50,3,0,645,694,321,272,6e-17,76.8
Exophiala_polymorpha_CBS138920_T,SRR7899645.11,96.00,50,2,0,645,694,322,273,1e-18,82.4
Exophiala_polymorpha_CBS138920_T,SRR7899645.3,95.83,48,2,0,647,694,319,272,2e-17,78.7
Exophiala_polymorpha_CBS138920_T,SRR7899645.26,94.00,50,3,0,645,694,322,273,6e-17,76.8
Exophiala_polymorpha_CBS138920_T,SRR7899645.23,94.00,50,3,0,645,694,322,273,6e-17,76.8
Exophiala_polymorpha_CBS138920_T,SRR7899645.21,94.00,50,3,0,645,694,322,273,6e-17,76.8
Exophiala_polymorpha_CBS138920_T,SRR7899645.17,94.00,50,3,0,645,694,322,273,6e-17,76.8
Exophiala_polymorpha_CBS138920_T,SRR7899645.16,94.00,50,3,0,645,694,322,273,6e-17,76.8
Exophiala_polymorpha_CBS138920_T,SRR7899645.15,94.00,50,3,0,645,694,322,273,6e-17,76.8
Exophiala_polymorpha_CBS138920_T,SRR7899645.9,94.00,50,3,0,645,694,322,273,6e-17,76.8
Exophiala_polymorpha_CBS138920_T,SRR7899645.4,94.00,50,3,0,645,694,322,273,6e-17,76.8
Exophiala_polymorpha_CBS138920_T,SRR7899645.18,97.50,40,1,0,655,694,192,231,1e-14,69.4
Exophiala_polymorpha_CBS138920_T,SRR7899645.18,97.50,40,1,0,655,694,312,273,1e-14,69.4
Exophiala_oligosperma_CBS725.88_T,SRR7899645.14,88.10,126,12,3,265,389,1,124,4e-38,147
Exophiala_oligosperma_CBS725.88_T,SRR7899645.22,86.23,138,14,5,265,400,1,135,1e-37,145
Exophiala_oligosperma_CBS725.88_T,SRR7899645.7,86.61,127,13,4,265,389,1,125,2e-35,137
Exophiala_oligosperma_CBS725.88_T,SRR7899645.6,86.61,127,13,4,265,389,1,125,2e-35,137
Exophiala_oligosperma_CBS725.88_T,SRR7899645.27,88.79,107,9,3,265,370,1,105,1e-32,128
Exophiala_jeanselmei_CBS507.90_T,SRR7899645.14,88.10,126,12,3,257,381,1,124,4e-38,147
Exophiala_jeanselmei_CBS507.90_T,SRR7899645.14,94.20,69,4,0,536,604,333,265,7e-26,106
Exophiala_jeanselmei_CBS507.90_T,SRR7899645.22,86.23,138,14,5,257,392,1,135,1e-37,145
Exophiala_jeanselmei_CBS507.90_T,SRR7899645.22,95.65,69,2,1,536,604,329,262,5e-27,110
Exophiala_jeanselmei_CBS507.90_T,SRR7899645.7,86.61,127,13,4,257,381,1,125,2e-35,137
Exophiala_jeanselmei_CBS507.90_T,SRR7899645.7,100.00,59,0,0,546,604,322,264,5e-27,110
Exophiala_jeanselmei_CBS507.90_T,SRR7899645.6,86.61,127,13,4,257,381,1,125,2e-35,137
Exophiala_jeanselmei_CBS507.90_T,SRR7899645.6,100.00,59,0,0,546,604,322,264,5e-27,110
Exophiala_jeanselmei_CBS507.90_T,SRR7899645.27,88.79,107,9,3,257,362,1,105,1e-32,128
Exophiala_jeanselmei_CBS507.90_T,SRR7899645.27,93.55,62,4,0,543,604,325,264,5e-22,93.5
Exophiala_jeanselmei_CBS507.90_T,SRR7899645.11,96.55,58,2,0,547,604,322,265,4e-23,97.1
Exophiala_jeanselmei_CBS507.90_T,SRR7899645.26,93.65,63,4,0,542,604,327,265,2e-22,95.3
Exophiala_jeanselmei_CBS507.90_T,SRR7899645.23,93.65,63,4,0,542,604,327,265,2e-22,95.3
Exophiala_jeanselmei_CBS507.90_T,SRR7899645.21,93.65,63,4,0,542,604,327,265,2e-22,95.3
Exophiala_jeanselmei_CBS507.90_T,SRR7899645.17,93.65,63,4,0,542,604,327,265,2e-22,95.3
Exophiala_jeanselmei_CBS507.90_T,SRR7899645.16,93.65,63,4,0,542,604,327,265,2e-22,95.3
Exophiala_jeanselmei_CBS507.90_T,SRR7899645.15,93.65,63,4,0,542,604,327,265,2e-22,95.3
Exophiala_jeanselmei_CBS507.90_T,SRR7899645.9,93.65,63,4,0,542,604,327,265,2e-22,95.3
Exophiala_jeanselmei_CBS507.90_T,SRR7899645.4,93.65,63,4,0,542,604,327,265,2e-22,95.3
Exophiala_jeanselmei_CBS507.90_T,SRR7899645.3,94.64,56,3,0,549,604,319,264,3e-20,87.9
Exophiala_jeanselmei_CBS507.90_T,SRR7899645.18,97.92,48,1,0,557,604,312,265,3e-19,84.2
Exophiala_jeanselmei_CBS507.90_T,SRR7899645.18,97.62,42,1,0,557,598,192,233,7e-16,73.1
Exophiala_bergeri_CBS353.52,SRR7899645.14,88.89,126,12,2,218,343,1,124,2e-40,154
Exophiala_bergeri_CBS353.52,SRR7899645.22,86.23,138,15,4,218,354,1,135,3e-38,147
Exophiala_bergeri_CBS353.52,SRR7899645.7,87.40,127,13,3,218,343,1,125,4e-37,143
Exophiala_bergeri_CBS353.52,SRR7899645.6,87.40,127,13,3,218,343,1,125,4e-37,143
Exophiala_bergeri_CBS353.52,SRR7899645.27,87.85,107,10,3,218,323,1,105,6e-31,122
Exophiala_moniliae_CBS520.76_T,SRR7899645.7,88.52,122,12,2,255,376,1,120,4e-38,147
Exophiala_moniliae_CBS520.76_T,SRR7899645.6,88.52,122,12,2,255,376,1,120,4e-38,147
Exophiala_moniliae_CBS520.76_T,SRR7899645.14,87.90,124,12,3,255,377,1,122,5e-37,143
Exophiala_moniliae_CBS520.76_T,SRR7899645.22,90.48,105,9,1,255,359,1,104,2e-35,137
Exophiala_moniliae_CBS520.76_T,SRR7899645.27,87.74,106,10,3,255,359,1,104,2e-30,121
Exophiala_pisciphila_CBS537.73_T,SRR7899645.22,96.04,101,4,0,546,646,329,229,1e-43,165
Exophiala_pisciphila_CBS537.73_T,SRR7899645.22,85.51,138,15,5,258,393,1,135,7e-36,139
Exophiala_pisciphila_CBS537.73_T,SRR7899645.14,88.89,126,11,3,258,382,1,124,1e-39,152
Exophiala_pisciphila_CBS537.73_T,SRR7899645.14,94.06,101,5,1,546,645,333,233,1e-39,152
Exophiala_pisciphila_CBS537.73_T,SRR7899645.7,96.70,91,3,0,555,645,322,232,1e-39,152
Exophiala_pisciphila_CBS537.73_T,SRR7899645.7,87.40,127,12,4,258,382,1,125,6e-37,143
Exophiala_pisciphila_CBS537.73_T,SRR7899645.6,96.70,91,3,0,555,645,322,232,1e-39,152
Exophiala_pisciphila_CBS537.73_T,SRR7899645.6,87.40,127,12,4,258,382,1,125,6e-37,143
Exophiala_pisciphila_CBS537.73_T,SRR7899645.17,93.68,95,6,0,552,646,326,232,6e-37,143
Exophiala_pisciphila_CBS537.73_T,SRR7899645.11,94.44,90,5,0,556,645,322,233,7e-36,139
Exophiala_pisciphila_CBS537.73_T,SRR7899645.26,91.58,95,8,0,552,646,326,232,1e-33,132
Exophiala_pisciphila_CBS537.73_T,SRR7899645.23,91.58,95,8,0,552,646,326,232,1e-33,132
Exophiala_pisciphila_CBS537.73_T,SRR7899645.21,91.58,95,8,0,552,646,326,232,1e-33,132
Exophiala_pisciphila_CBS537.73_T,SRR7899645.16,91.58,95,8,0,552,646,326,232,1e-33,132
Exophiala_pisciphila_CBS537.73_T,SRR7899645.15,91.58,95,8,0,552,646,326,232,1e-33,132
Exophiala_pisciphila_CBS537.73_T,SRR7899645.9,91.58,95,8,0,552,646,326,232,1e-33,132
Exophiala_pisciphila_CBS537.73_T,SRR7899645.4,91.58,95,8,0,552,646,326,232,1e-33,132
Exophiala_pisciphila_CBS537.73_T,SRR7899645.3,93.26,89,6,0,558,646,319,231,1e-33,132
Exophiala_pisciphila_CBS537.73_T,SRR7899645.27,91.49,94,8,0,552,645,325,232,5e-33,130
Exophiala_pisciphila_CBS537.73_T,SRR7899645.27,88.68,106,9,3,258,362,1,104,6e-32,126
Exophiala_pisciphila_CBS537.73_T,SRR7899645.10,90.53,95,9,0,552,646,326,232,6e-32,126
Exophiala_pisciphila_CBS537.73_T,SRR7899645.18,93.83,81,5,0,566,646,312,232,8e-31,122
Exophiala_pisciphila_CBS537.73_T,SRR7899645.18,95.24,42,2,0,566,607,192,233,4e-14,67.6
Exophiala_pisciphila_CBS537.73_T,SRR7899645.24,90.67,75,7,0,557,631,321,247,4e-24,100
Exophiala_xenobiotica_CBS117642,SRR7899645.14,88.89,126,11,3,250,374,1,124,8e-40,152
Exophiala_xenobiotica_CBS117642,SRR7899645.22,86.23,138,14,5,250,385,1,135,1e-37,145
Exophiala_xenobiotica_CBS117642,SRR7899645.7,87.40,127,12,4,250,374,1,125,5e-37,143
Exophiala_xenobiotica_CBS117642,SRR7899645.6,87.40,127,12,4,250,374,1,125,5e-37,143
Exophiala_xenobiotica_CBS117642,SRR7899645.27,87.85,107,10,3,250,355,1,105,6e-31,122
Exophiala_brunnea_CBS,SRR7899645.14,88.10,126,12,3,286,410,1,124,4e-38,147
Exophiala_brunnea_CBS,SRR7899645.22,85.51,138,15,5,286,421,1,135,7e-36,139
Exophiala_brunnea_CBS,SRR7899645.7,86.61,127,13,4,286,410,1,125,3e-35,137
Exophiala_brunnea_CBS,SRR7899645.6,86.61,127,13,4,286,410,1,125,3e-35,137
Exophiala_brunnea_CBS,SRR7899645.27,86.79,106,11,3,286,390,1,104,1e-28,115
Exophiala_nishimurae_CBS101538_T,SRR7899645.14,88.10,126,12,3,264,388,1,124,4e-38,147
Exophiala_nishimurae_CBS101538_T,SRR7899645.14,92.00,50,2,2,542,591,332,285,9e-15,69.4
Exophiala_nishimurae_CBS101538_T,SRR7899645.22,86.23,138,14,5,264,399,1,135,1e-37,145
Exophiala_nishimurae_CBS101538_T,SRR7899645.22,97.62,42,1,0,550,591,323,282,7e-16,73.1
Exophiala_nishimurae_CBS101538_T,SRR7899645.7,86.61,127,13,4,264,388,1,125,2e-35,137
Exophiala_nishimurae_CBS101538_T,SRR7899645.7,100.00,39,0,0,553,591,322,284,7e-16,73.1
Exophiala_nishimurae_CBS101538_T,SRR7899645.6,86.61,127,13,4,264,388,1,125,2e-35,137
Exophiala_nishimurae_CBS101538_T,SRR7899645.6,100.00,39,0,0,553,591,322,284,7e-16,73.1
Exophiala_nishimurae_CBS101538_T,SRR7899645.27,88.79,107,9,3,264,369,1,105,1e-32,128
Exophiala_nishimurae_CBS101538_T,SRR7899645.3,94.44,36,2,0,556,591,319,284,7e-11,56.5
Exophiala_mesophila_CBS402.95_T,SRR7899645.22,97.87,94,2,0,550,643,322,229,4e-43,163
Exophiala_mesophila_CBS402.95_T,SRR7899645.22,89.52,105,10,1,248,352,1,104,1e-33,132
Exophiala_mesophila_CBS402.95_T,SRR7899645.14,96.88,96,2,1,548,642,328,233,6e-42,159
Exophiala_mesophila_CBS402.95_T,SRR7899645.14,87.90,124,13,2,248,371,1,122,2e-37,145
Exophiala_mesophila_CBS402.95_T,SRR7899645.7,97.80,91,2,0,552,642,322,232,2e-41,158
Exophiala_mesophila_CBS402.95_T,SRR7899645.7,86.89,122,14,2,248,369,1,120,1e-34,135
Exophiala_mesophila_CBS402.95_T,SRR7899645.6,97.80,91,2,0,552,642,322,232,2e-41,158
Exophiala_mesophila_CBS402.95_T,SRR7899645.6,86.89,122,14,2,248,369,1,120,1e-34,135
Exophiala_mesophila_CBS402.95_T,SRR7899645.17,95.60,91,4,0,553,643,322,232,4e-38,147
Exophiala_mesophila_CBS402.95_T,SRR7899645.11,95.56,90,4,0,553,642,322,233,2e-37,145
Exophiala_mesophila_CBS402.95_T,SRR7899645.3,94.38,89,5,0,555,643,319,231,3e-35,137
Exophiala_mesophila_CBS402.95_T,SRR7899645.26,93.41,91,6,0,553,643,322,232,1e-34,135
Exophiala_mesophila_CBS402.95_T,SRR7899645.23,93.41,91,6,0,553,643,322,232,1e-34,135
Exophiala_mesophila_CBS402.95_T,SRR7899645.21,93.41,91,6,0,553,643,322,232,1e-34,135
Exophiala_mesophila_CBS402.95_T,SRR7899645.16,93.41,91,6,0,553,643,322,232,1e-34,135
Exophiala_mesophila_CBS402.95_T,SRR7899645.15,93.41,91,6,0,553,643,322,232,1e-34,135
Exophiala_mesophila_CBS402.95_T,SRR7899645.9,93.41,91,6,0,553,643,322,232,1e-34,135
Exophiala_mesophila_CBS402.95_T,SRR7899645.4,93.41,91,6,0,553,643,322,232,1e-34,135
Exophiala_mesophila_CBS402.95_T,SRR7899645.27,93.33,90,6,0,553,642,321,232,3e-34,134
Exophiala_mesophila_CBS402.95_T,SRR7899645.27,86.79,106,11,3,248,352,1,104,1e-28,115
Exophiala_mesophila_CBS402.95_T,SRR7899645.10,92.31,91,7,0,553,643,322,232,4e-33,130
Exophiala_mesophila_CBS402.95_T,SRR7899645.18,95.06,81,4,0,563,643,312,232,2e-32,128
Exophiala_mesophila_CBS402.95_T,SRR7899645.18,97.62,42,1,0,563,604,192,233,8e-16,73.1
Exophiala_mesophila_CBS402.95_T,SRR7899645.24,89.53,86,7,2,545,628,332,247,2e-26,108
Exophiala_castellanii_CBS158.58_T,SRR7899645.22,97.00,100,3,0,543,642,328,229,9e-45,169
Exophiala_castellanii_CBS158.58_T,SRR7899645.22,89.52,105,10,1,246,350,1,104,1e-33,132
Exophiala_castellanii_CBS158.58_T,SRR7899645.14,97.00,100,2,1,543,641,332,233,3e-44,167
Exophiala_castellanii_CBS158.58_T,SRR7899645.14,87.90,124,13,2,246,369,1,122,2e-37,145
Exophiala_castellanii_CBS158.58_T,SRR7899645.7,97.80,91,2,0,551,641,322,232,2e-41,158
Exophiala_castellanii_CBS158.58_T,SRR7899645.7,86.89,122,14,2,246,367,1,120,1e-34,135
Exophiala_castellanii_CBS158.58_T,SRR7899645.6,97.80,91,2,0,551,641,322,232,2e-41,158
Exophiala_castellanii_CBS158.58_T,SRR7899645.6,86.89,122,14,2,246,367,1,120,1e-34,135
Exophiala_castellanii_CBS158.58_T,SRR7899645.17,95.60,91,4,0,552,642,322,232,4e-38,147
Exophiala_castellanii_CBS158.58_T,SRR7899645.11,95.56,90,4,0,552,641,322,233,2e-37,145
Exophiala_castellanii_CBS158.58_T,SRR7899645.3,94.38,89,5,0,554,642,319,231,3e-35,137
Exophiala_castellanii_CBS158.58_T,SRR7899645.26,93.41,91,6,0,552,642,322,232,1e-34,135
Exophiala_castellanii_CBS158.58_T,SRR7899645.23,93.41,91,6,0,552,642,322,232,1e-34,135
Exophiala_castellanii_CBS158.58_T,SRR7899645.21,93.41,91,6,0,552,642,322,232,1e-34,135
Exophiala_castellanii_CBS158.58_T,SRR7899645.16,93.41,91,6,0,552,642,322,232,1e-34,135
Exophiala_castellanii_CBS158.58_T,SRR7899645.15,93.41,91,6,0,552,642,322,232,1e-34,135
Exophiala_castellanii_CBS158.58_T,SRR7899645.9,93.41,91,6,0,552,642,322,232,1e-34,135
Exophiala_castellanii_CBS158.58_T,SRR7899645.4,93.41,91,6,0,552,642,322,232,1e-34,135
Exophiala_castellanii_CBS158.58_T,SRR7899645.27,93.33,90,6,0,552,641,321,232,3e-34,134
Exophiala_castellanii_CBS158.58_T,SRR7899645.27,86.79,106,11,3,246,350,1,104,1e-28,115
Exophiala_castellanii_CBS158.58_T,SRR7899645.10,92.31,91,7,0,552,642,322,232,4e-33,130
Exophiala_castellanii_CBS158.58_T,SRR7899645.18,95.06,81,4,0,562,642,312,232,2e-32,128
Exophiala_castellanii_CBS158.58_T,SRR7899645.18,97.62,42,1,0,562,603,192,233,8e-16,73.1
Exophiala_castellanii_CBS158.58_T,SRR7899645.24,90.24,82,7,1,547,627,328,247,8e-26,106
Exophiala_lecanii-corni_CBS123.33_T,SRR7899645.14,87.10,124,14,2,269,392,1,122,7e-36,139
Exophiala_lecanii-corni_CBS123.33_T,SRR7899645.22,88.03,117,11,3,269,385,1,114,8e-35,135
Exophiala_lecanii-corni_CBS123.33_T,SRR7899645.7,86.07,122,15,2,269,390,1,120,4e-33,130
Exophiala_lecanii-corni_CBS123.33_T,SRR7899645.6,86.07,122,15,2,269,390,1,120,4e-33,130
Exophiala_lecanii-corni_CBS123.33_T,SRR7899645.27,86.79,106,11,3,269,373,1,104,1e-28,115
Exophiala_dermatitidis_CBS748.88,SRR7899645.22,97.89,95,2,0,574,668,323,229,3e-43,165
Exophiala_dermatitidis_CBS748.88,SRR7899645.22,86.23,138,15,4,261,397,1,135,1e-37,147
Exophiala_dermatitidis_CBS748.88,SRR7899645.14,92.79,111,7,1,558,667,343,233,1e-41,159
Exophiala_dermatitidis_CBS748.88,SRR7899645.14,88.89,126,12,2,261,386,1,124,6e-40,154
Exophiala_dermatitidis_CBS748.88,SRR7899645.7,97.80,91,2,0,577,667,322,232,5e-41,158
Exophiala_dermatitidis_CBS748.88,SRR7899645.7,87.40,127,13,3,261,386,1,125,1e-36,143
Exophiala_dermatitidis_CBS748.88,SRR7899645.6,97.80,91,2,0,577,667,322,232,5e-41,158
Exophiala_dermatitidis_CBS748.88,SRR7899645.6,87.40,127,13,3,261,386,1,125,1e-36,143
Exophiala_dermatitidis_CBS748.88,SRR7899645.17,94.90,98,5,0,571,668,329,232,6e-40,154
Exophiala_dermatitidis_CBS748.88,SRR7899645.11,95.56,90,4,0,578,667,322,233,4e-37,145
Exophiala_dermatitidis_CBS748.88,SRR7899645.26,92.86,98,7,0,571,668,329,232,1e-36,143
Exophiala_dermatitidis_CBS748.88,SRR7899645.23,92.86,98,7,0,571,668,329,232,1e-36,143
Exophiala_dermatitidis_CBS748.88,SRR7899645.21,92.86,98,7,0,571,668,329,232,1e-36,143
Exophiala_dermatitidis_CBS748.88,SRR7899645.16,92.86,98,7,0,571,668,329,232,1e-36,143
Exophiala_dermatitidis_CBS748.88,SRR7899645.15,92.86,98,7,0,571,668,329,232,1e-36,143
Exophiala_dermatitidis_CBS748.88,SRR7899645.9,92.86,98,7,0,571,668,329,232,1e-36,143
Exophiala_dermatitidis_CBS748.88,SRR7899645.4,92.86,98,7,0,571,668,329,232,1e-36,143
Exophiala_dermatitidis_CBS748.88,SRR7899645.10,91.84,98,8,0,571,668,329,232,6e-35,137
Exophiala_dermatitidis_CBS748.88,SRR7899645.3,94.38,89,5,0,580,668,319,231,6e-35,137
Exophiala_dermatitidis_CBS748.88,SRR7899645.27,92.55,94,7,0,574,667,325,232,2e-34,135
Exophiala_dermatitidis_CBS748.88,SRR7899645.27,87.74,106,10,3,261,365,1,104,6e-30,121
Exophiala_dermatitidis_CBS748.88,SRR7899645.18,95.06,81,4,0,588,668,312,232,4e-32,128
Exophiala_dermatitidis_CBS748.88,SRR7899645.18,97.62,42,1,0,588,629,192,233,2e-15,73.1
Exophiala_dermatitidis_CBS748.88,SRR7899645.24,90.36,83,8,0,571,653,329,247,1e-26,110
Exophiala_angulospora_CBS482.92_T,SRR7899645.14,88.19,127,12,3,252,377,1,125,1e-38,148
Exophiala_angulospora_CBS482.92_T,SRR7899645.22,86.23,138,15,4,252,388,1,135,4e-38,147
Exophiala_angulospora_CBS482.92_T,SRR7899645.7,88.70,115,11,2,252,366,1,113,6e-36,139
Exophiala_angulospora_CBS482.92_T,SRR7899645.6,88.70,115,11,2,252,366,1,113,6e-36,139
Exophiala_angulospora_CBS482.92_T,SRR7899645.27,87.74,106,10,3,252,356,1,104,2e-30,121
Exophiala_opportunistica_CBS109811_T,SRR7899645.22,86.96,138,13,5,251,386,1,135,3e-39,150
Exophiala_opportunistica_CBS109811_T,SRR7899645.14,88.10,126,12,3,251,375,1,124,4e-38,147
Exophiala_opportunistica_CBS109811_T,SRR7899645.7,87.90,124,12,3,251,373,1,122,5e-37,143
Exophiala_opportunistica_CBS109811_T,SRR7899645.6,87.90,124,12,3,251,373,1,122,5e-37,143
Exophiala_opportunistica_CBS109811_T,SRR7899645.27,87.74,106,10,3,251,355,1,104,2e-30,121
Exophiala_salmonis_CBS157.67_T,SRR7899645.22,96.04,101,4,0,666,766,329,229,1e-43,165
Exophiala_salmonis_CBS157.67_T,SRR7899645.22,86.23,138,14,5,380,515,1,135,2e-37,145
Exophiala_salmonis_CBS157.67_T,SRR7899645.14,88.89,126,11,3,380,504,1,124,1e-39,152
Exophiala_salmonis_CBS157.67_T,SRR7899645.14,94.06,101,5,1,666,765,333,233,1e-39,152
Exophiala_salmonis_CBS157.67_T,SRR7899645.7,96.70,91,3,0,675,765,322,232,1e-39,152
Exophiala_salmonis_CBS157.67_T,SRR7899645.7,87.40,127,12,4,380,504,1,125,7e-37,143
Exophiala_salmonis_CBS157.67_T,SRR7899645.6,96.70,91,3,0,675,765,322,232,1e-39,152
Exophiala_salmonis_CBS157.67_T,SRR7899645.6,87.40,127,12,4,380,504,1,125,7e-37,143
Exophiala_salmonis_CBS157.67_T,SRR7899645.17,93.68,95,6,0,672,766,326,232,7e-37,143
Exophiala_salmonis_CBS157.67_T,SRR7899645.11,94.44,90,5,0,676,765,322,233,9e-36,139
Exophiala_salmonis_CBS157.67_T,SRR7899645.26,91.58,95,8,0,672,766,326,232,1e-33,132
Exophiala_salmonis_CBS157.67_T,SRR7899645.23,91.58,95,8,0,672,766,326,232,1e-33,132
Exophiala_salmonis_CBS157.67_T,SRR7899645.21,91.58,95,8,0,672,766,326,232,1e-33,132
Exophiala_salmonis_CBS157.67_T,SRR7899645.16,91.58,95,8,0,672,766,326,232,1e-33,132
Exophiala_salmonis_CBS157.67_T,SRR7899645.15,91.58,95,8,0,672,766,326,232,1e-33,132
Exophiala_salmonis_CBS157.67_T,SRR7899645.9,91.58,95,8,0,672,766,326,232,1e-33,132
Exophiala_salmonis_CBS157.67_T,SRR7899645.4,91.58,95,8,0,672,766,326,232,1e-33,132
Exophiala_salmonis_CBS157.67_T,SRR7899645.3,93.26,89,6,0,678,766,319,231,1e-33,132
Exophiala_salmonis_CBS157.67_T,SRR7899645.27,91.49,94,8,0,672,765,325,232,5e-33,130
Exophiala_salmonis_CBS157.67_T,SRR7899645.27,87.74,106,10,3,380,484,1,104,3e-30,121
Exophiala_salmonis_CBS157.67_T,SRR7899645.10,90.53,95,9,0,672,766,326,232,7e-32,126
Exophiala_salmonis_CBS157.67_T,SRR7899645.18,93.83,81,5,0,686,766,312,232,9e-31,122
Exophiala_salmonis_CBS157.67_T,SRR7899645.18,95.24,42,2,0,686,727,192,233,4e-14,67.6
Exophiala_salmonis_CBS157.67_T,SRR7899645.24,90.67,75,7,0,677,751,321,247,4e-24,100
Exophiala_aquamarina_CBS119918_T,SRR7899645.22,86.33,139,13,6,258,394,1,135,4e-38,147
Exophiala_aquamarina_CBS119918_T,SRR7899645.14,87.90,124,11,4,258,380,1,121,5e-37,143
Exophiala_aquamarina_CBS119918_T,SRR7899645.7,87.10,124,13,3,258,381,1,121,2e-35,137
Exophiala_aquamarina_CBS119918_T,SRR7899645.6,87.10,124,13,3,258,381,1,121,2e-35,137
Exophiala_aquamarina_CBS119918_T,SRR7899645.27,87.74,106,10,3,258,362,1,104,2e-30,121
Exophiala_cancerae_CBS120420_T,SRR7899645.22,86.96,138,13,5,273,408,1,135,3e-39,150
Exophiala_cancerae_CBS120420_T,SRR7899645.22,94.20,69,3,1,556,624,329,262,3e-25,104
Exophiala_cancerae_CBS120420_T,SRR7899645.14,88.10,126,12,3,273,397,1,124,4e-38,147
Exophiala_cancerae_CBS120420_T,SRR7899645.14,92.75,69,5,0,556,624,333,265,3e-24,100
Exophiala_cancerae_CBS120420_T,SRR7899645.7,87.90,124,12,3,273,395,1,122,6e-37,143
Exophiala_cancerae_CBS120420_T,SRR7899645.7,98.31,59,1,0,566,624,322,264,3e-25,104
Exophiala_cancerae_CBS120420_T,SRR7899645.6,87.90,124,12,3,273,395,1,122,6e-37,143
Exophiala_cancerae_CBS120420_T,SRR7899645.6,98.31,59,1,0,566,624,322,264,3e-25,104
Exophiala_cancerae_CBS120420_T,SRR7899645.27,87.74,106,10,3,273,377,1,104,3e-30,121
Exophiala_cancerae_CBS120420_T,SRR7899645.27,91.04,67,5,1,559,624,330,264,7e-21,89.8
Exophiala_cancerae_CBS120420_T,SRR7899645.26,91.18,68,5,1,558,624,332,265,2e-21,91.6
Exophiala_cancerae_CBS120420_T,SRR7899645.23,91.18,68,5,1,558,624,332,265,2e-21,91.6
Exophiala_cancerae_CBS120420_T,SRR7899645.21,91.18,68,5,1,558,624,332,265,2e-21,91.6
Exophiala_cancerae_CBS120420_T,SRR7899645.17,91.18,68,5,1,558,624,332,265,2e-21,91.6
Exophiala_cancerae_CBS120420_T,SRR7899645.16,91.18,68,5,1,558,624,332,265,2e-21,91.6
Exophiala_cancerae_CBS120420_T,SRR7899645.15,91.18,68,5,1,558,624,332,265,2e-21,91.6
Exophiala_cancerae_CBS120420_T,SRR7899645.11,94.83,58,3,0,567,624,322,265,2e-21,91.6
Exophiala_cancerae_CBS120420_T,SRR7899645.9,91.18,68,5,1,558,624,332,265,2e-21,91.6
Exophiala_cancerae_CBS120420_T,SRR7899645.4,91.18,68,5,1,558,624,332,265,2e-21,91.6
Exophiala_cancerae_CBS120420_T,SRR7899645.3,92.86,56,4,0,569,624,319,264,1e-18,82.4
Exophiala_cancerae_CBS120420_T,SRR7899645.18,95.83,48,2,0,577,624,312,265,2e-17,78.7
Exophiala_cancerae_CBS120420_T,SRR7899645.18,95.24,42,2,0,577,618,192,233,3e-14,67.6
Exophiala_tremulae_CBS129355,SRR7899645.22,86.96,138,13,5,285,420,1,135,3e-39,150
Exophiala_tremulae_CBS129355,SRR7899645.14,88.62,123,11,3,285,406,1,121,4e-38,147
Exophiala_tremulae_CBS129355,SRR7899645.7,87.80,123,13,2,285,407,1,121,6e-37,143
Exophiala_tremulae_CBS129355,SRR7899645.6,87.80,123,13,2,285,407,1,121,6e-37,143
Exophiala_tremulae_CBS129355,SRR7899645.27,87.74,106,10,3,285,389,1,104,3e-30,121
Exophiala_equina_CBS116009,SRR7899645.22,86.96,138,13,5,251,386,1,135,3e-39,150
Exophiala_equina_CBS116009,SRR7899645.14,88.62,123,11,3,251,372,1,121,4e-38,147
Exophiala_equina_CBS116009,SRR7899645.7,87.80,123,13,2,251,373,1,121,5e-37,143
Exophiala_equina_CBS116009,SRR7899645.6,87.80,123,13,2,251,373,1,121,5e-37,143
Exophiala_equina_CBS116009,SRR7899645.27,87.74,106,10,3,251,355,1,104,2e-30,121
Exophiala_alcalophila_CBS520.82_T,SRR7899645.14,88.19,127,12,3,262,387,1,125,1e-38,148
Exophiala_alcalophila_CBS520.82_T,SRR7899645.22,86.23,138,15,4,262,398,1,135,4e-38,147
Exophiala_alcalophila_CBS520.82_T,SRR7899645.7,88.52,122,12,2,262,383,1,120,4e-38,147
Exophiala_alcalophila_CBS520.82_T,SRR7899645.6,88.52,122,12,2,262,383,1,120,4e-38,147
Exophiala_alcalophila_CBS520.82_T,SRR7899645.27,87.74,106,10,3,262,366,1,104,2e-30,121
Exophiala_crusticola_CBS119970_T,SRR7899645.14,88.98,127,11,3,267,392,1,125,2e-40,154
Exophiala_crusticola_CBS119970_T,SRR7899645.22,86.96,138,14,4,267,403,1,135,8e-40,152
Exophiala_crusticola_CBS119970_T,SRR7899645.7,87.50,128,12,4,267,392,1,126,1e-37,145
Exophiala_crusticola_CBS119970_T,SRR7899645.6,87.50,128,12,4,267,392,1,126,1e-37,145
Exophiala_crusticola_CBS119970_T,SRR7899645.27,87.74,106,10,3,267,371,1,104,2e-30,121
Rhinocladiella_atrovirens_CBS264.49,SRR7899645.22,86.36,132,14,4,293,424,1,128,2e-36,141
Rhinocladiella_atrovirens_CBS264.49,SRR7899645.14,86.72,128,14,3,293,419,1,126,7e-36,139
Rhinocladiella_atrovirens_CBS264.49,SRR7899645.7,86.07,122,15,2,293,414,1,120,4e-33,130
Rhinocladiella_atrovirens_CBS264.49,SRR7899645.6,86.07,122,15,2,293,414,1,120,4e-33,130
Rhinocladiella_atrovirens_CBS264.49,SRR7899645.27,86.79,106,11,3,293,397,1,104,1e-28,115
Rhinocladiella_basitona_CBS101460_T,SRR7899645.14,88.10,126,12,3,252,376,1,124,4e-38,147
Rhinocladiella_basitona_CBS101460_T,SRR7899645.22,86.23,138,14,5,252,387,1,135,1e-37,145
Rhinocladiella_basitona_CBS101460_T,SRR7899645.7,86.61,127,13,4,252,376,1,125,2e-35,137
Rhinocladiella_basitona_CBS101460_T,SRR7899645.6,86.61,127,13,4,252,376,1,125,2e-35,137
Rhinocladiella_basitona_CBS101460_T,SRR7899645.27,88.79,107,9,3,252,357,1,105,1e-32,128
Rhinocladiella_phaeophora_CBS496.78_T,SRR7899645.14,88.80,125,11,3,260,383,1,123,3e-39,150
Rhinocladiella_phaeophora_CBS496.78_T,SRR7899645.7,87.70,122,13,2,260,381,1,120,2e-36,141
Rhinocladiella_phaeophora_CBS496.78_T,SRR7899645.6,87.70,122,13,2,260,381,1,120,2e-36,141
Rhinocladiella_phaeophora_CBS496.78_T,SRR7899645.22,84.89,139,16,5,260,397,1,135,8e-35,135
Rhinocladiella_phaeophora_CBS496.78_T,SRR7899645.27,87.74,106,10,3,260,364,1,104,2e-30,121
Rhinocladiella_aquaspersa_CBS313.73_T,SRR7899645.22,94.06,101,2,4,541,638,328,229,3e-39,150
Rhinocladiella_aquaspersa_CBS313.73_T,SRR7899645.22,84.89,139,16,5,254,391,1,135,1e-34,135
Rhinocladiella_aquaspersa_CBS313.73_T,SRR7899645.14,88.80,125,11,3,254,377,1,123,3e-39,150
Rhinocladiella_aquaspersa_CBS313.73_T,SRR7899645.14,93.00,100,4,3,541,637,332,233,6e-37,143
Rhinocladiella_aquaspersa_CBS313.73_T,SRR7899645.7,87.70,122,13,2,254,375,1,120,2e-36,141
Rhinocladiella_aquaspersa_CBS313.73_T,SRR7899645.7,93.41,91,3,3,550,637,322,232,1e-33,132
Rhinocladiella_aquaspersa_CBS313.73_T,SRR7899645.6,87.70,122,13,2,254,375,1,120,2e-36,141
Rhinocladiella_aquaspersa_CBS313.73_T,SRR7899645.6,93.41,91,3,3,550,637,322,232,1e-33,132
Rhinocladiella_aquaspersa_CBS313.73_T,SRR7899645.17,91.75,97,5,3,545,638,328,232,1e-33,132
Rhinocladiella_aquaspersa_CBS313.73_T,SRR7899645.11,92.22,90,4,3,551,637,322,233,2e-31,124
Rhinocladiella_aquaspersa_CBS313.73_T,SRR7899645.27,87.74,106,10,3,254,358,1,104,3e-30,121
Rhinocladiella_aquaspersa_CBS313.73_T,SRR7899645.27,89.36,94,7,3,547,637,325,232,1e-28,115
Rhinocladiella_aquaspersa_CBS313.73_T,SRR7899645.26,89.69,97,7,3,545,638,328,232,3e-30,121
Rhinocladiella_aquaspersa_CBS313.73_T,SRR7899645.23,89.69,97,7,3,545,638,328,232,3e-30,121
Rhinocladiella_aquaspersa_CBS313.73_T,SRR7899645.21,89.69,97,7,3,545,638,328,232,3e-30,121
Rhinocladiella_aquaspersa_CBS313.73_T,SRR7899645.16,89.69,97,7,3,545,638,328,232,3e-30,121
Rhinocladiella_aquaspersa_CBS313.73_T,SRR7899645.15,89.69,97,7,3,545,638,328,232,3e-30,121
Rhinocladiella_aquaspersa_CBS313.73_T,SRR7899645.9,89.69,97,7,3,545,638,328,232,3e-30,121
Rhinocladiella_aquaspersa_CBS313.73_T,SRR7899645.4,89.69,97,7,3,545,638,328,232,3e-30,121
Rhinocladiella_aquaspersa_CBS313.73_T,SRR7899645.3,93.83,81,4,1,559,638,311,231,3e-30,121
Rhinocladiella_aquaspersa_CBS313.73_T,SRR7899645.18,92.59,81,5,1,559,638,312,232,1e-28,115
Rhinocladiella_aquaspersa_CBS313.73_T,SRR7899645.18,92.86,42,2,1,559,599,192,233,6e-12,60.2
Rhinocladiella_aquaspersa_CBS313.73_T,SRR7899645.10,88.66,97,8,3,545,638,328,232,1e-28,115
Rhinocladiella_aquaspersa_CBS313.73_T,SRR7899645.24,90.91,66,5,1,559,623,312,247,3e-20,87.9
Rhinocladiella_fasciculata_CBS132.86_T,SRR7899645.7,88.89,126,11,3,270,394,1,124,8e-40,152
Rhinocladiella_fasciculata_CBS132.86_T,SRR7899645.6,88.89,126,11,3,270,394,1,124,8e-40,152
Rhinocladiella_fasciculata_CBS132.86_T,SRR7899645.14,85.71,140,17,3,270,408,1,138,1e-37,145
Rhinocladiella_fasciculata_CBS132.86_T,SRR7899645.22,88.57,105,11,1,270,374,1,104,5e-32,126
Rhinocladiella_fasciculata_CBS132.86_T,SRR7899645.27,86.79,106,11,3,270,374,1,104,1e-28,115
Rhinocladiella_anceps_CBS181.65_T,SRR7899645.14,87.30,126,14,2,252,377,1,124,5e-37,143
Rhinocladiella_anceps_CBS181.65_T,SRR7899645.22,84.78,138,17,4,252,388,1,135,8e-35,135
Rhinocladiella_anceps_CBS181.65_T,SRR7899645.7,85.83,127,15,3,252,377,1,125,1e-33,132
Rhinocladiella_anceps_CBS181.65_T,SRR7899645.6,85.83,127,15,3,252,377,1,125,1e-33,132
Rhinocladiella_anceps_CBS181.65_T,SRR7899645.27,86.36,110,11,4,252,360,1,107,3e-29,117
Rhinocladiella_mackenziei_CBS367.92,SRR7899645.14,88.71,124,12,2,241,364,1,122,3e-39,150
Rhinocladiella_mackenziei_CBS367.92,SRR7899645.22,90.48,105,9,1,241,345,1,104,3e-35,137
Rhinocladiella_mackenziei_CBS367.92,SRR7899645.7,88.60,114,10,3,241,353,1,112,9e-35,135
Rhinocladiella_mackenziei_CBS367.92,SRR7899645.6,88.60,114,10,3,241,353,1,112,9e-35,135
Rhinocladiella_mackenziei_CBS367.92,SRR7899645.27,87.74,106,10,3,241,345,1,104,3e-30,121
Veronaea_compacta_CBS268.75_T,SRR7899645.14,87.30,126,14,2,274,399,1,124,5e-37,143
Veronaea_compacta_CBS268.75_T,SRR7899645.22,85.51,138,16,4,274,410,1,135,2e-36,141
Veronaea_compacta_CBS268.75_T,SRR7899645.7,86.61,127,14,3,274,399,1,125,2e-35,137
Veronaea_compacta_CBS268.75_T,SRR7899645.6,86.61,127,14,3,274,399,1,125,2e-35,137
Veronaea_compacta_CBS268.75_T,SRR7899645.27,86.79,106,11,3,274,378,1,104,1e-28,115
Capronia_pilosella_AFTOL-ID657,SRR7899645.22,87.68,138,13,4,352,488,1,135,2e-41,158
Capronia_pilosella_AFTOL-ID657,SRR7899645.22,97.92,48,1,0,636,683,329,282,4e-19,84.2
Capronia_pilosella_AFTOL-ID657,SRR7899645.14,88.19,127,12,3,352,477,1,125,1e-38,148
Capronia_pilosella_AFTOL-ID657,SRR7899645.14,93.88,49,2,1,636,683,333,285,8e-16,73.1
Capronia_pilosella_AFTOL-ID657,SRR7899645.7,87.80,123,13,2,352,474,1,121,6e-37,143
Capronia_pilosella_AFTOL-ID657,SRR7899645.7,100.00,39,0,0,645,683,322,284,8e-16,73.1
Capronia_pilosella_AFTOL-ID657,SRR7899645.6,87.80,123,13,2,352,474,1,121,6e-37,143
Capronia_pilosella_AFTOL-ID657,SRR7899645.6,100.00,39,0,0,645,683,322,284,8e-16,73.1
Capronia_pilosella_AFTOL-ID657,SRR7899645.27,87.74,106,10,3,352,456,1,104,3e-30,121
Capronia_pilosella_AFTOL-ID657,SRR7899645.3,94.44,36,2,0,648,683,319,284,8e-11,56.5
Capronia_dactylotricha_DAOM208471_T,SRR7899645.22,96.81,94,3,0,558,651,322,229,2e-41,158
Capronia_dactylotricha_DAOM208471_T,SRR7899645.22,90.48,105,9,1,254,358,1,104,3e-35,137
Capronia_dactylotricha_DAOM208471_T,SRR7899645.14,95.79,95,3,1,557,650,327,233,1e-39,152
Capronia_dactylotricha_DAOM208471_T,SRR7899645.14,87.60,129,12,3,254,381,1,126,5e-38,147
Capronia_dactylotricha_DAOM208471_T,SRR7899645.7,96.70,91,3,0,560,650,322,232,1e-39,152
Capronia_dactylotricha_DAOM208471_T,SRR7899645.7,86.99,123,13,2,254,376,1,120,1e-34,135
Capronia_dactylotricha_DAOM208471_T,SRR7899645.6,96.70,91,3,0,560,650,322,232,1e-39,152
Capronia_dactylotricha_DAOM208471_T,SRR7899645.6,86.99,123,13,2,254,376,1,120,1e-34,135
Capronia_dactylotricha_DAOM208471_T,SRR7899645.17,94.51,91,5,0,561,651,322,232,2e-36,141
Capronia_dactylotricha_DAOM208471_T,SRR7899645.11,94.44,90,5,0,561,650,322,233,8e-36,139
Capronia_dactylotricha_DAOM208471_T,SRR7899645.3,93.26,89,6,0,563,651,319,231,1e-33,132
Capronia_dactylotricha_DAOM208471_T,SRR7899645.26,92.31,91,7,0,561,651,322,232,5e-33,130
Capronia_dactylotricha_DAOM208471_T,SRR7899645.23,92.31,91,7,0,561,651,322,232,5e-33,130
Capronia_dactylotricha_DAOM208471_T,SRR7899645.21,92.31,91,7,0,561,651,322,232,5e-33,130
Capronia_dactylotricha_DAOM208471_T,SRR7899645.16,92.31,91,7,0,561,651,322,232,5e-33,130
Capronia_dactylotricha_DAOM208471_T,SRR7899645.15,92.31,91,7,0,561,651,322,232,5e-33,130
Capronia_dactylotricha_DAOM208471_T,SRR7899645.9,92.31,91,7,0,561,651,322,232,5e-33,130
Capronia_dactylotricha_DAOM208471_T,SRR7899645.4,92.31,91,7,0,561,651,322,232,5e-33,130
Capronia_dactylotricha_DAOM208471_T,SRR7899645.27,92.22,90,7,0,561,650,321,232,2e-32,128
Capronia_dactylotricha_DAOM208471_T,SRR7899645.27,87.74,106,10,3,254,358,1,104,3e-30,121
Capronia_dactylotricha_DAOM208471_T,SRR7899645.10,91.21,91,8,0,561,651,322,232,2e-31,124
Capronia_dactylotricha_DAOM208471_T,SRR7899645.18,93.83,81,5,0,571,651,312,232,8e-31,122
Capronia_dactylotricha_DAOM208471_T,SRR7899645.18,95.24,42,2,0,571,612,192,233,4e-14,67.6
Capronia_dactylotricha_DAOM208471_T,SRR7899645.24,88.24,85,9,1,553,636,331,247,4e-24,100
Capronia_kleinmondensis_CBS122671_T,SRR7899645.22,95.05,101,4,1,557,657,328,229,2e-41,158
Capronia_kleinmondensis_CBS122671_T,SRR7899645.22,86.36,132,14,4,279,410,1,128,2e-36,141
Capronia_kleinmondensis_CBS122671_T,SRR7899645.14,95.05,101,3,2,557,656,332,233,2e-41,158
Capronia_kleinmondensis_CBS122671_T,SRR7899645.14,86.72,128,14,3,279,405,1,126,8e-36,139
Capronia_kleinmondensis_CBS122671_T,SRR7899645.7,96.70,91,3,0,566,656,322,232,1e-39,152
Capronia_kleinmondensis_CBS122671_T,SRR7899645.7,86.07,122,15,2,279,400,1,120,5e-33,130
Capronia_kleinmondensis_CBS122671_T,SRR7899645.6,96.70,91,3,0,566,656,322,232,1e-39,152
Capronia_kleinmondensis_CBS122671_T,SRR7899645.6,86.07,122,15,2,279,400,1,120,5e-33,130
Capronia_kleinmondensis_CBS122671_T,SRR7899645.17,94.51,91,5,0,567,657,322,232,2e-36,141
Capronia_kleinmondensis_CBS122671_T,SRR7899645.11,94.44,90,5,0,567,656,322,233,8e-36,139
Capronia_kleinmondensis_CBS122671_T,SRR7899645.3,93.26,89,6,0,569,657,319,231,1e-33,132
Capronia_kleinmondensis_CBS122671_T,SRR7899645.26,92.31,91,7,0,567,657,322,232,5e-33,130
Capronia_kleinmondensis_CBS122671_T,SRR7899645.23,92.31,91,7,0,567,657,322,232,5e-33,130
Capronia_kleinmondensis_CBS122671_T,SRR7899645.21,92.31,91,7,0,567,657,322,232,5e-33,130
Capronia_kleinmondensis_CBS122671_T,SRR7899645.16,92.31,91,7,0,567,657,322,232,5e-33,130
Capronia_kleinmondensis_CBS122671_T,SRR7899645.15,92.31,91,7,0,567,657,322,232,5e-33,130
Capronia_kleinmondensis_CBS122671_T,SRR7899645.9,92.31,91,7,0,567,657,322,232,5e-33,130
Capronia_kleinmondensis_CBS122671_T,SRR7899645.4,92.31,91,7,0,567,657,322,232,5e-33,130
Capronia_kleinmondensis_CBS122671_T,SRR7899645.27,92.22,90,7,0,567,656,321,232,2e-32,128
Capronia_kleinmondensis_CBS122671_T,SRR7899645.27,86.79,106,11,3,279,383,1,104,1e-28,115
Capronia_kleinmondensis_CBS122671_T,SRR7899645.10,91.21,91,8,0,567,657,322,232,2e-31,124
Capronia_kleinmondensis_CBS122671_T,SRR7899645.18,93.83,81,5,0,577,657,312,232,8e-31,122
Capronia_kleinmondensis_CBS122671_T,SRR7899645.18,95.24,42,2,0,577,618,192,233,4e-14,67.6
Capronia_kleinmondensis_CBS122671_T,SRR7899645.24,90.67,75,7,0,568,642,321,247,4e-24,100
Capronia_mansonii_CBS101.67_T,SRR7899645.22,97.98,99,2,0,563,661,327,229,8e-46,172
Capronia_mansonii_CBS101.67_T,SRR7899645.22,86.33,139,13,6,265,401,1,135,5e-38,147
Capronia_mansonii_CBS101.67_T,SRR7899645.14,92.92,113,6,2,549,660,344,233,5e-43,163
Capronia_mansonii_CBS101.67_T,SRR7899645.14,88.10,126,13,2,265,390,1,124,1e-38,148
Capronia_mansonii_CBS101.67_T,SRR7899645.7,97.80,91,2,0,570,660,322,232,2e-41,158
Capronia_mansonii_CBS101.67_T,SRR7899645.7,88.19,127,12,3,265,390,1,125,1e-38,148
Capronia_mansonii_CBS101.67_T,SRR7899645.6,97.80,91,2,0,570,660,322,232,2e-41,158
Capronia_mansonii_CBS101.67_T,SRR7899645.6,88.19,127,12,3,265,390,1,125,1e-38,148
Capronia_mansonii_CBS101.67_T,SRR7899645.17,94.74,95,5,0,567,661,326,232,1e-38,148
Capronia_mansonii_CBS101.67_T,SRR7899645.11,95.56,90,4,0,571,660,322,233,2e-37,145
Capronia_mansonii_CBS101.67_T,SRR7899645.26,92.63,95,7,0,567,661,326,232,3e-35,137
Capronia_mansonii_CBS101.67_T,SRR7899645.23,92.63,95,7,0,567,661,326,232,3e-35,137
Capronia_mansonii_CBS101.67_T,SRR7899645.21,92.63,95,7,0,567,661,326,232,3e-35,137
Capronia_mansonii_CBS101.67_T,SRR7899645.16,92.63,95,7,0,567,661,326,232,3e-35,137
Capronia_mansonii_CBS101.67_T,SRR7899645.15,92.63,95,7,0,567,661,326,232,3e-35,137
Capronia_mansonii_CBS101.67_T,SRR7899645.9,92.63,95,7,0,567,661,326,232,3e-35,137
Capronia_mansonii_CBS101.67_T,SRR7899645.4,92.63,95,7,0,567,661,326,232,3e-35,137
Capronia_mansonii_CBS101.67_T,SRR7899645.3,94.38,89,5,0,573,661,319,231,3e-35,137
Capronia_mansonii_CBS101.67_T,SRR7899645.27,92.55,94,7,0,567,660,325,232,1e-34,135
Capronia_mansonii_CBS101.67_T,SRR7899645.27,87.74,106,10,3,265,369,1,104,3e-30,121
Capronia_mansonii_CBS101.67_T,SRR7899645.10,91.58,95,8,0,567,661,326,232,1e-33,132
Capronia_mansonii_CBS101.67_T,SRR7899645.18,95.06,81,4,0,581,661,312,232,2e-32,128
Capronia_mansonii_CBS101.67_T,SRR7899645.18,97.62,42,1,0,581,622,192,233,8e-16,73.1
Capronia_mansonii_CBS101.67_T,SRR7899645.24,92.00,75,6,0,572,646,321,247,8e-26,106
Capronia_munkii_DAOM216390_T,SRR7899645.22,97.92,96,2,0,566,661,324,229,4e-44,167
Capronia_munkii_DAOM216390_T,SRR7899645.22,86.33,139,13,6,265,401,1,135,5e-38,147
Capronia_munkii_DAOM216390_T,SRR7899645.14,92.98,114,4,3,549,660,344,233,5e-43,163
Capronia_munkii_DAOM216390_T,SRR7899645.14,88.10,126,13,2,265,390,1,124,1e-38,148
Capronia_munkii_DAOM216390_T,SRR7899645.7,97.80,91,2,0,570,660,322,232,2e-41,158
Capronia_munkii_DAOM216390_T,SRR7899645.7,88.19,127,12,3,265,390,1,125,1e-38,148
Capronia_munkii_DAOM216390_T,SRR7899645.6,97.80,91,2,0,570,660,322,232,2e-41,158
Capronia_munkii_DAOM216390_T,SRR7899645.6,88.19,127,12,3,265,390,1,125,1e-38,148
Capronia_munkii_DAOM216390_T,SRR7899645.17,93.14,102,6,1,560,661,332,232,1e-38,148
Capronia_munkii_DAOM216390_T,SRR7899645.11,95.56,90,4,0,571,660,322,233,2e-37,145
Capronia_munkii_DAOM216390_T,SRR7899645.26,91.18,102,8,1,560,661,332,232,3e-35,137
Capronia_munkii_DAOM216390_T,SRR7899645.23,91.18,102,8,1,560,661,332,232,3e-35,137
Capronia_munkii_DAOM216390_T,SRR7899645.21,91.18,102,8,1,560,661,332,232,3e-35,137
Capronia_munkii_DAOM216390_T,SRR7899645.16,91.18,102,8,1,560,661,332,232,3e-35,137
Capronia_munkii_DAOM216390_T,SRR7899645.15,91.18,102,8,1,560,661,332,232,3e-35,137
Capronia_munkii_DAOM216390_T,SRR7899645.9,91.18,102,8,1,560,661,332,232,3e-35,137
Capronia_munkii_DAOM216390_T,SRR7899645.4,91.18,102,8,1,560,661,332,232,3e-35,137
Capronia_munkii_DAOM216390_T,SRR7899645.3,94.38,89,5,0,573,661,319,231,3e-35,137
Capronia_munkii_DAOM216390_T,SRR7899645.27,90.38,104,9,1,557,660,334,232,1e-34,135
Capronia_munkii_DAOM216390_T,SRR7899645.27,87.74,106,10,3,265,369,1,104,3e-30,121
Capronia_munkii_DAOM216390_T,SRR7899645.10,90.20,102,9,1,560,661,332,232,1e-33,132
Capronia_munkii_DAOM216390_T,SRR7899645.18,95.06,81,4,0,581,661,312,232,2e-32,128
Capronia_munkii_DAOM216390_T,SRR7899645.18,97.62,42,1,0,581,622,192,233,8e-16,73.1
Capronia_munkii_DAOM216390_T,SRR7899645.24,92.00,75,6,0,572,646,321,247,8e-26,106
Capronia_coronata_ATCC56201_T,SRR7899645.22,97.09,103,2,1,530,632,330,229,7e-46,172
Capronia_coronata_ATCC56201_T,SRR7899645.22,86.23,138,15,4,253,389,1,135,4e-38,147
Capronia_coronata_ATCC56201_T,SRR7899645.14,96.12,103,4,0,529,631,335,233,9e-45,169
Capronia_coronata_ATCC56201_T,SRR7899645.14,88.19,127,12,3,253,378,1,125,1e-38,148
Capronia_coronata_ATCC56201_T,SRR7899645.7,97.80,91,2,0,541,631,322,232,2e-41,158
Capronia_coronata_ATCC56201_T,SRR7899645.7,88.70,115,11,2,253,367,1,113,7e-36,139
Capronia_coronata_ATCC56201_T,SRR7899645.6,97.80,91,2,0,541,631,322,232,2e-41,158
Capronia_coronata_ATCC56201_T,SRR7899645.6,88.70,115,11,2,253,367,1,113,7e-36,139
Capronia_coronata_ATCC56201_T,SRR7899645.17,94.85,97,5,0,536,632,328,232,9e-40,152
Capronia_coronata_ATCC56201_T,SRR7899645.11,95.56,90,4,0,542,631,322,233,2e-37,145
Capronia_coronata_ATCC56201_T,SRR7899645.26,92.78,97,7,0,536,632,328,232,2e-36,141
Capronia_coronata_ATCC56201_T,SRR7899645.23,92.78,97,7,0,536,632,328,232,2e-36,141
Capronia_coronata_ATCC56201_T,SRR7899645.21,92.78,97,7,0,536,632,328,232,2e-36,141
Capronia_coronata_ATCC56201_T,SRR7899645.16,92.78,97,7,0,536,632,328,232,2e-36,141
Capronia_coronata_ATCC56201_T,SRR7899645.15,92.78,97,7,0,536,632,328,232,2e-36,141
Capronia_coronata_ATCC56201_T,SRR7899645.9,92.78,97,7,0,536,632,328,232,2e-36,141
Capronia_coronata_ATCC56201_T,SRR7899645.4,92.78,97,7,0,536,632,328,232,2e-36,141
Capronia_coronata_ATCC56201_T,SRR7899645.3,94.38,89,5,0,544,632,319,231,3e-35,137
Capronia_coronata_ATCC56201_T,SRR7899645.27,92.55,94,7,0,538,631,325,232,9e-35,135
Capronia_coronata_ATCC56201_T,SRR7899645.27,87.74,106,10,3,253,357,1,104,3e-30,121
Capronia_coronata_ATCC56201_T,SRR7899645.10,91.75,97,8,0,536,632,328,232,9e-35,135
Capronia_coronata_ATCC56201_T,SRR7899645.18,95.06,81,4,0,552,632,312,232,2e-32,128
Capronia_coronata_ATCC56201_T,SRR7899645.18,97.62,42,1,0,552,593,192,233,8e-16,73.1
Capronia_coronata_ATCC56201_T,SRR7899645.24,90.24,82,8,0,536,617,328,247,2e-26,108
Capronia_parasitica_CBS123.88,SRR7899645.14,88.00,125,12,3,259,383,1,122,1e-37,145
Capronia_parasitica_CBS123.88,SRR7899645.22,88.98,118,10,3,259,376,1,115,5e-37,143
Capronia_parasitica_CBS123.88,SRR7899645.7,85.94,128,15,3,259,386,1,125,3e-34,134
Capronia_parasitica_CBS123.88,SRR7899645.6,85.94,128,15,3,259,386,1,125,3e-34,134
Capronia_parasitica_CBS123.88,SRR7899645.27,87.74,106,10,3,259,363,1,104,2e-30,121
Veronaea_japonica_CBS776.83_T,SRR7899645.14,88.89,126,11,3,287,411,1,124,9e-40,152
Veronaea_japonica_CBS776.83_T,SRR7899645.22,86.23,138,14,5,287,422,1,135,1e-37,145
Veronaea_japonica_CBS776.83_T,SRR7899645.7,87.40,127,12,4,287,411,1,125,5e-37,143
Veronaea_japonica_CBS776.83_T,SRR7899645.6,87.40,127,12,4,287,411,1,125,5e-37,143
Veronaea_japonica_CBS776.83_T,SRR7899645.27,87.74,106,10,3,287,391,1,104,3e-30,121
Thysanorea_papuana_CBS212.96_T,SRR7899645.22,87.68,138,12,5,261,396,1,135,7e-41,156
Thysanorea_papuana_CBS212.96_T,SRR7899645.14,88.52,122,11,3,261,381,1,120,1e-37,145
Thysanorea_papuana_CBS212.96_T,SRR7899645.7,87.80,123,12,3,261,382,1,121,2e-36,141
Thysanorea_papuana_CBS212.96_T,SRR7899645.6,87.80,123,12,3,261,382,1,121,2e-36,141
Thysanorea_papuana_CBS212.96_T,SRR7899645.27,87.74,106,10,3,261,365,1,104,2e-30,121
Capronia_acutiseta_ATCC56428_T,SRR7899645.22,95.79,95,4,0,537,631,323,229,3e-40,154
Capronia_acutiseta_ATCC56428_T,SRR7899645.22,86.33,139,14,5,254,391,1,135,4e-38,147
Capronia_acutiseta_ATCC56428_T,SRR7899645.14,93.07,101,6,1,530,630,332,233,4e-38,147
Capronia_acutiseta_ATCC56428_T,SRR7899645.14,87.40,127,14,2,254,380,1,125,2e-37,145
Capronia_acutiseta_ATCC56428_T,SRR7899645.7,95.60,91,4,0,540,630,322,232,4e-38,147
Capronia_acutiseta_ATCC56428_T,SRR7899645.7,87.50,128,13,3,254,380,1,126,2e-37,145
Capronia_acutiseta_ATCC56428_T,SRR7899645.6,95.60,91,4,0,540,630,322,232,4e-38,147
Capronia_acutiseta_ATCC56428_T,SRR7899645.6,87.50,128,13,3,254,380,1,126,2e-37,145
Capronia_acutiseta_ATCC56428_T,SRR7899645.26,90.74,108,8,2,525,631,338,232,6e-37,143
Capronia_acutiseta_ATCC56428_T,SRR7899645.23,90.74,108,8,2,525,631,338,232,6e-37,143
Capronia_acutiseta_ATCC56428_T,SRR7899645.21,90.74,108,8,2,525,631,338,232,6e-37,143
Capronia_acutiseta_ATCC56428_T,SRR7899645.17,90.74,108,8,2,525,631,338,232,6e-37,143
Capronia_acutiseta_ATCC56428_T,SRR7899645.16,90.74,108,8,2,525,631,338,232,6e-37,143
Capronia_acutiseta_ATCC56428_T,SRR7899645.15,90.74,108,8,2,525,631,338,232,6e-37,143
Capronia_acutiseta_ATCC56428_T,SRR7899645.9,90.74,108,8,2,525,631,338,232,6e-37,143
Capronia_acutiseta_ATCC56428_T,SRR7899645.4,90.74,108,8,2,525,631,338,232,6e-37,143
Capronia_acutiseta_ATCC56428_T,SRR7899645.27,91.92,99,7,1,533,630,330,232,3e-35,137
Capronia_acutiseta_ATCC56428_T,SRR7899645.27,87.74,106,10,3,254,358,1,104,3e-30,121
Capronia_acutiseta_ATCC56428_T,SRR7899645.10,89.81,108,9,2,525,631,338,232,3e-35,137
Capronia_acutiseta_ATCC56428_T,SRR7899645.11,93.33,90,6,0,541,630,322,233,3e-34,134
Capronia_acutiseta_ATCC56428_T,SRR7899645.18,95.06,81,4,0,551,631,312,232,2e-32,128
Capronia_acutiseta_ATCC56428_T,SRR7899645.18,95.24,42,2,0,551,592,192,233,3e-14,67.6
Capronia_acutiseta_ATCC56428_T,SRR7899645.3,92.13,89,7,0,543,631,319,231,6e-32,126
Capronia_acutiseta_ATCC56428_T,SRR7899645.24,86.27,102,12,2,525,625,338,238,6e-27,110
Fonsecaea_brasiliensis_CBS119710_T,SRR7899645.14,87.90,124,11,4,261,383,1,121,5e-37,143
Fonsecaea_brasiliensis_CBS119710_T,SRR7899645.22,85.61,139,14,6,261,397,1,135,2e-36,141
Fonsecaea_brasiliensis_CBS119710_T,SRR7899645.7,86.99,123,13,3,261,383,1,120,8e-35,135
Fonsecaea_brasiliensis_CBS119710_T,SRR7899645.6,86.99,123,13,3,261,383,1,120,8e-35,135
Fonsecaea_brasiliensis_CBS119710_T,SRR7899645.27,87.74,106,10,3,261,365,1,104,2e-30,121
Fonsecaea_pedrosoi_CBS271.37_T,SRR7899645.22,86.33,139,14,5,289,426,1,135,4e-38,147
Fonsecaea_pedrosoi_CBS271.37_T,SRR7899645.22,97.01,67,2,0,579,645,328,262,4e-28,113
Fonsecaea_pedrosoi_CBS271.37_T,SRR7899645.14,87.90,124,11,4,289,411,1,121,6e-37,143
Fonsecaea_pedrosoi_CBS271.37_T,SRR7899645.14,94.12,68,3,1,579,645,332,265,1e-24,102
Fonsecaea_pedrosoi_CBS271.37_T,SRR7899645.7,87.10,124,13,3,289,412,1,121,3e-35,137
Fonsecaea_pedrosoi_CBS271.37_T,SRR7899645.7,98.31,59,1,0,587,645,322,264,3e-25,104
Fonsecaea_pedrosoi_CBS271.37_T,SRR7899645.6,87.10,124,13,3,289,412,1,121,3e-35,137
Fonsecaea_pedrosoi_CBS271.37_T,SRR7899645.6,98.31,59,1,0,587,645,322,264,3e-25,104
Fonsecaea_pedrosoi_CBS271.37_T,SRR7899645.27,87.74,106,10,3,289,393,1,104,3e-30,121
Fonsecaea_pedrosoi_CBS271.37_T,SRR7899645.27,91.94,62,5,0,584,645,325,264,3e-20,87.9
Fonsecaea_pedrosoi_CBS271.37_T,SRR7899645.11,94.83,58,3,0,588,645,322,265,2e-21,91.6
Fonsecaea_pedrosoi_CBS271.37_T,SRR7899645.26,91.94,62,5,0,584,645,326,265,3e-20,87.9
Fonsecaea_pedrosoi_CBS271.37_T,SRR7899645.23,91.94,62,5,0,584,645,326,265,3e-20,87.9
Fonsecaea_pedrosoi_CBS271.37_T,SRR7899645.21,91.94,62,5,0,584,645,326,265,3e-20,87.9
Fonsecaea_pedrosoi_CBS271.37_T,SRR7899645.17,91.94,62,5,0,584,645,326,265,3e-20,87.9
Fonsecaea_pedrosoi_CBS271.37_T,SRR7899645.16,91.94,62,5,0,584,645,326,265,3e-20,87.9
Fonsecaea_pedrosoi_CBS271.37_T,SRR7899645.15,91.94,62,5,0,584,645,326,265,3e-20,87.9
Fonsecaea_pedrosoi_CBS271.37_T,SRR7899645.9,91.94,62,5,0,584,645,326,265,3e-20,87.9
Fonsecaea_pedrosoi_CBS271.37_T,SRR7899645.4,91.94,62,5,0,584,645,326,265,3e-20,87.9
Fonsecaea_pedrosoi_CBS271.37_T,SRR7899645.18,95.83,48,2,0,598,645,312,265,2e-17,78.7
Fonsecaea_multimorphosa_CBS980.96_T,SRR7899645.14,88.24,119,11,3,259,377,1,116,6e-36,139
Fonsecaea_multimorphosa_CBS980.96_T,SRR7899645.22,90.48,105,9,1,259,363,1,104,2e-35,137
Fonsecaea_multimorphosa_CBS980.96_T,SRR7899645.7,88.50,113,11,2,259,371,1,111,8e-35,135
Fonsecaea_multimorphosa_CBS980.96_T,SRR7899645.6,88.50,113,11,2,259,371,1,111,8e-35,135
Fonsecaea_multimorphosa_CBS980.96_T,SRR7899645.27,87.74,106,10,3,259,363,1,104,2e-30,121
Fonsecaea_minima_CBS125760_T,SRR7899645.14,87.90,124,11,4,255,377,1,121,5e-37,143
Fonsecaea_minima_CBS125760_T,SRR7899645.22,85.61,139,14,6,255,391,1,135,2e-36,141
Fonsecaea_minima_CBS125760_T,SRR7899645.7,86.99,123,13,3,255,377,1,120,8e-35,135
Fonsecaea_minima_CBS125760_T,SRR7899645.6,86.99,123,13,3,255,377,1,120,8e-35,135
Fonsecaea_minima_CBS125760_T,SRR7899645.27,87.74,106,10,3,255,359,1,104,2e-30,121
Fonsecaea_nubica_CBS269.64_T,SRR7899645.22,86.33,139,14,5,266,403,1,135,4e-38,147
Fonsecaea_nubica_CBS269.64_T,SRR7899645.14,87.90,124,11,4,266,388,1,121,5e-37,143
Fonsecaea_nubica_CBS269.64_T,SRR7899645.7,87.10,124,13,3,266,389,1,121,2e-35,137
Fonsecaea_nubica_CBS269.64_T,SRR7899645.6,87.10,124,13,3,266,389,1,121,2e-35,137
Fonsecaea_nubica_CBS269.64_T,SRR7899645.27,87.74,106,10,3,266,370,1,104,2e-30,121
Fonsecaea_monophora_CBS269.37_T,SRR7899645.22,86.33,139,14,5,267,404,1,135,4e-38,147
Fonsecaea_monophora_CBS269.37_T,SRR7899645.14,87.90,124,11,4,267,389,1,121,5e-37,143
Fonsecaea_monophora_CBS269.37_T,SRR7899645.7,87.10,124,13,3,267,390,1,121,2e-35,137
Fonsecaea_monophora_CBS269.37_T,SRR7899645.6,87.10,124,13,3,267,390,1,121,2e-35,137
Fonsecaea_monophora_CBS269.37_T,SRR7899645.27,87.74,106,10,3,267,371,1,104,2e-30,121
Fonsecaea_erecta_CBS125763_T,SRR7899645.22,86.33,139,13,6,250,386,1,135,4e-38,147
Fonsecaea_erecta_CBS125763_T,SRR7899645.14,88.52,122,11,3,250,370,1,120,1e-37,145
Fonsecaea_erecta_CBS125763_T,SRR7899645.7,87.90,124,12,3,250,372,1,122,5e-37,143
Fonsecaea_erecta_CBS125763_T,SRR7899645.6,87.90,124,12,3,250,372,1,122,5e-37,143
Fonsecaea_erecta_CBS125763_T,SRR7899645.27,87.74,106,10,3,250,354,1,104,2e-30,121
Fonsecaea_pugnacius_CBS139214_T,SRR7899645.14,85.82,141,15,5,259,397,1,138,1e-37,145
Fonsecaea_pugnacius_CBS139214_T,SRR7899645.22,85.71,140,14,6,259,397,1,135,5e-37,143
Fonsecaea_pugnacius_CBS139214_T,SRR7899645.7,86.99,123,13,3,259,381,1,120,8e-35,135
Fonsecaea_pugnacius_CBS139214_T,SRR7899645.6,86.99,123,13,3,259,381,1,120,8e-35,135
Fonsecaea_pugnacius_CBS139214_T,SRR7899645.27,87.74,106,10,3,259,363,1,104,2e-30,121
Cladophialophora_psammophila_CBS,SRR7899645.22,86.33,139,13,6,265,401,1,135,4e-38,147
Cladophialophora_psammophila_CBS,SRR7899645.14,88.52,122,11,3,265,385,1,120,1e-37,145
Cladophialophora_psammophila_CBS,SRR7899645.7,87.90,124,12,3,265,387,1,122,5e-37,143
Cladophialophora_psammophila_CBS,SRR7899645.6,87.90,124,12,3,265,387,1,122,5e-37,143
Cladophialophora_psammophila_CBS,SRR7899645.27,87.74,106,10,3,265,369,1,104,2e-30,121
Cladophialophora_devriesii_CBS,SRR7899645.14,88.24,119,11,3,261,379,1,116,6e-36,139
Cladophialophora_devriesii_CBS,SRR7899645.22,90.48,105,9,1,261,365,1,104,2e-35,137
Cladophialophora_devriesii_CBS,SRR7899645.7,88.50,113,11,2,261,373,1,111,8e-35,135
Cladophialophora_devriesii_CBS,SRR7899645.6,88.50,113,11,2,261,373,1,111,8e-35,135
Cladophialophora_devriesii_CBS,SRR7899645.27,87.74,106,10,3,261,365,1,104,2e-30,121
Cladophialophora_immunda_CBS834.96,SRR7899645.14,87.90,124,11,4,263,385,1,121,5e-37,143
Cladophialophora_immunda_CBS834.96,SRR7899645.22,85.61,139,14,6,263,399,1,135,2e-36,141
Cladophialophora_immunda_CBS834.96,SRR7899645.7,86.99,123,13,3,263,385,1,120,8e-35,135
Cladophialophora_immunda_CBS834.96,SRR7899645.6,86.99,123,13,3,263,385,1,120,8e-35,135
Cladophialophora_immunda_CBS834.96,SRR7899645.27,87.74,106,10,3,263,367,1,104,2e-30,121
Cladophialophora_arxii_CBS306.94_T,SRR7899645.22,85.71,140,14,5,265,403,1,135,5e-37,143
Cladophialophora_arxii_CBS306.94_T,SRR7899645.14,87.20,125,11,4,265,388,1,121,2e-35,137
Cladophialophora_arxii_CBS306.94_T,SRR7899645.7,88.50,113,11,2,265,377,1,111,8e-35,135
Cladophialophora_arxii_CBS306.94_T,SRR7899645.6,88.50,113,11,2,265,377,1,111,8e-35,135
Cladophialophora_arxii_CBS306.94_T,SRR7899645.27,87.74,106,10,3,265,369,1,104,2e-30,121
Cladophialophora_bantiana_CBS173.52,SRR7899645.22,86.33,139,13,6,259,395,1,135,4e-38,147
Cladophialophora_bantiana_CBS173.52,SRR7899645.14,88.52,122,11,3,259,379,1,120,1e-37,145
Cladophialophora_bantiana_CBS173.52,SRR7899645.7,87.90,124,12,3,259,381,1,122,5e-37,143
Cladophialophora_bantiana_CBS173.52,SRR7899645.6,87.90,124,12,3,259,381,1,122,5e-37,143
Cladophialophora_bantiana_CBS173.52,SRR7899645.27,87.74,106,10,3,259,363,1,104,2e-30,121
Cladophialophora_emmonsii_CBS102594,SRR7899645.14,86.43,140,15,4,250,387,1,138,3e-39,150
Cladophialophora_emmonsii_CBS102594,SRR7899645.22,86.33,139,14,5,250,387,1,135,4e-38,147
Cladophialophora_emmonsii_CBS102594,SRR7899645.7,87.70,122,13,2,250,371,1,120,2e-36,141
Cladophialophora_emmonsii_CBS102594,SRR7899645.6,87.70,122,13,2,250,371,1,120,2e-36,141
Cladophialophora_emmonsii_CBS102594,SRR7899645.27,87.74,106,10,3,250,354,1,104,2e-30,121
Cladophialophora_minourae_CBS556.83,SRR7899645.22,85.00,140,14,7,258,395,1,135,2e-35,137
Cladophialophora_minourae_CBS556.83,SRR7899645.7,85.48,124,14,4,258,381,1,120,5e-32,126
Cladophialophora_minourae_CBS556.83,SRR7899645.6,85.48,124,14,4,258,381,1,120,5e-32,126
Cladophialophora_minourae_CBS556.83,SRR7899645.14,84.80,125,14,5,258,381,1,121,2e-30,121
Cladophialophora_minourae_CBS556.83,SRR7899645.27,85.05,107,13,3,258,364,1,104,6e-26,106
Cladophialophora_australiensis_CBS112793,SRR7899645.22,96.12,103,3,1,537,639,330,229,8e-44,167
Cladophialophora_australiensis_CBS112793,SRR7899645.22,85.51,138,15,5,260,395,1,135,2e-35,139
Cladophialophora_australiensis_CBS112793,SRR7899645.14,94.23,104,4,2,536,638,335,233,5e-41,158
Cladophialophora_australiensis_CBS112793,SRR7899645.14,87.80,123,12,3,260,381,1,121,5e-36,141
Cladophialophora_australiensis_CBS112793,SRR7899645.7,96.70,91,3,0,548,638,322,232,2e-39,152
Cladophialophora_australiensis_CBS112793,SRR7899645.7,88.52,122,12,2,260,381,1,120,1e-37,147
Cladophialophora_australiensis_CBS112793,SRR7899645.6,96.70,91,3,0,548,638,322,232,2e-39,152
Cladophialophora_australiensis_CBS112793,SRR7899645.6,88.52,122,12,2,260,381,1,120,1e-37,147
Cladophialophora_australiensis_CBS112793,SRR7899645.17,93.68,95,6,0,545,639,326,232,1e-36,143
Cladophialophora_australiensis_CBS112793,SRR7899645.11,94.44,90,5,0,549,638,322,233,2e-35,139
Cladophialophora_australiensis_CBS112793,SRR7899645.26,91.58,95,8,0,545,639,326,232,3e-33,132
Cladophialophora_australiensis_CBS112793,SRR7899645.23,91.58,95,8,0,545,639,326,232,3e-33,132
Cladophialophora_australiensis_CBS112793,SRR7899645.21,91.58,95,8,0,545,639,326,232,3e-33,132
Cladophialophora_australiensis_CBS112793,SRR7899645.16,91.58,95,8,0,545,639,326,232,3e-33,132
Cladophialophora_australiensis_CBS112793,SRR7899645.15,91.58,95,8,0,545,639,326,232,3e-33,132
Cladophialophora_australiensis_CBS112793,SRR7899645.9,91.58,95,8,0,545,639,326,232,3e-33,132
Cladophialophora_australiensis_CBS112793,SRR7899645.4,91.58,95,8,0,545,639,326,232,3e-33,132
Cladophialophora_australiensis_CBS112793,SRR7899645.27,91.49,94,8,0,545,638,325,232,1e-32,130
Cladophialophora_australiensis_CBS112793,SRR7899645.27,86.79,106,11,3,260,364,1,104,3e-28,115
Cladophialophora_australiensis_CBS112793,SRR7899645.10,90.53,95,9,0,545,639,326,232,1e-31,126
Cladophialophora_australiensis_CBS112793,SRR7899645.18,93.83,81,5,0,559,639,312,232,2e-30,122
Cladophialophora_australiensis_CBS112793,SRR7899645.24,90.67,75,7,0,550,624,321,247,8e-24,100
Cladophialophora_potulentorum_CBS112222,SRR7899645.22,95.19,104,3,1,538,641,330,229,1e-42,163
Cladophialophora_potulentorum_CBS112222,SRR7899645.22,84.78,138,16,5,259,394,1,135,8e-34,134
Cladophialophora_potulentorum_CBS112222,SRR7899645.14,94.17,103,5,1,538,640,334,233,2e-40,156
Cladophialophora_potulentorum_CBS112222,SRR7899645.14,86.99,123,13,3,259,380,1,121,2e-34,135
Cladophialophora_potulentorum_CBS112222,SRR7899645.7,96.70,91,3,0,550,640,322,232,2e-39,152
Cladophialophora_potulentorum_CBS112222,SRR7899645.7,87.70,122,13,2,259,380,1,120,5e-36,141
Cladophialophora_potulentorum_CBS112222,SRR7899645.6,96.70,91,3,0,550,640,322,232,2e-39,152
Cladophialophora_potulentorum_CBS112222,SRR7899645.6,87.70,122,13,2,259,380,1,120,5e-36,141
Cladophialophora_potulentorum_CBS112222,SRR7899645.17,93.75,96,6,0,546,641,327,232,4e-37,145
Cladophialophora_potulentorum_CBS112222,SRR7899645.11,94.44,90,5,0,551,640,322,233,2e-35,139
Cladophialophora_potulentorum_CBS112222,SRR7899645.26,91.67,96,8,0,546,641,327,232,8e-34,134
Cladophialophora_potulentorum_CBS112222,SRR7899645.23,91.67,96,8,0,546,641,327,232,8e-34,134
Cladophialophora_potulentorum_CBS112222,SRR7899645.21,91.67,96,8,0,546,641,327,232,8e-34,134
Cladophialophora_potulentorum_CBS112222,SRR7899645.16,91.67,96,8,0,546,641,327,232,8e-34,134
Cladophialophora_potulentorum_CBS112222,SRR7899645.15,91.67,96,8,0,546,641,327,232,8e-34,134
Cladophialophora_potulentorum_CBS112222,SRR7899645.9,91.67,96,8,0,546,641,327,232,8e-34,134
Cladophialophora_potulentorum_CBS112222,SRR7899645.4,91.67,96,8,0,546,641,327,232,8e-34,134
Cladophialophora_potulentorum_CBS112222,SRR7899645.27,91.49,94,8,0,547,640,325,232,1e-32,130
Cladophialophora_potulentorum_CBS112222,SRR7899645.27,85.85,106,12,3,259,363,1,104,1e-26,110
Cladophialophora_potulentorum_CBS112222,SRR7899645.10,90.62,96,9,0,546,641,327,232,4e-32,128
Cladophialophora_potulentorum_CBS112222,SRR7899645.18,93.83,81,5,0,561,641,312,232,2e-30,122
Cladophialophora_potulentorum_CBS112222,SRR7899645.24,90.67,75,7,0,552,626,321,247,8e-24,100
Cladophialophora_matsushimae_CMRP1198,SRR7899645.14,87.80,123,12,3,263,384,1,121,2e-36,141
Cladophialophora_matsushimae_CMRP1198,SRR7899645.22,85.51,138,15,5,263,398,1,135,6e-36,139
Cladophialophora_matsushimae_CMRP1198,SRR7899645.7,86.89,122,14,2,263,384,1,120,7e-35,135
Cladophialophora_matsushimae_CMRP1198,SRR7899645.6,86.89,122,14,2,263,384,1,120,7e-35,135
Cladophialophora_matsushimae_CMRP1198,SRR7899645.27,86.79,106,11,3,263,367,1,104,9e-29,115
Cladophialophora_mycetomatis_CBS122637,SRR7899645.22,86.23,138,14,5,248,383,1,135,1e-37,145
Cladophialophora_mycetomatis_CBS122637,SRR7899645.14,87.70,122,12,3,248,368,1,120,6e-36,139
Cladophialophora_mycetomatis_CBS122637,SRR7899645.7,86.99,123,13,3,248,369,1,121,8e-35,135
Cladophialophora_mycetomatis_CBS122637,SRR7899645.6,86.99,123,13,3,248,369,1,121,8e-35,135
Cladophialophora_mycetomatis_CBS122637,SRR7899645.27,86.79,106,11,3,248,352,1,104,1e-28,115
Cladophialophora_chaetospira_CBS127573,SRR7899645.22,86.96,138,13,5,654,789,1,135,5e-39,150
Cladophialophora_chaetospira_CBS127573,SRR7899645.14,88.52,122,11,3,654,774,1,120,2e-37,145
Cladophialophora_chaetospira_CBS127573,SRR7899645.7,87.80,123,12,3,654,775,1,121,3e-36,141
Cladophialophora_chaetospira_CBS127573,SRR7899645.6,87.80,123,12,3,654,775,1,121,3e-36,141
Cladophialophora_chaetospira_CBS127573,SRR7899645.27,87.74,106,10,3,654,758,1,104,4e-30,121
Cladophialophora_boppii_CBS126.86_T,SRR7899645.14,88.98,118,11,2,256,373,1,116,1e-37,145
Cladophialophora_boppii_CBS126.86_T,SRR7899645.7,88.70,115,11,2,256,370,1,113,6e-36,139
Cladophialophora_boppii_CBS126.86_T,SRR7899645.6,88.70,115,11,2,256,370,1,113,6e-36,139
Cladophialophora_boppii_CBS126.86_T,SRR7899645.22,90.48,105,9,1,256,360,1,104,2e-35,137
Cladophialophora_boppii_CBS126.86_T,SRR7899645.27,87.74,106,10,3,256,360,1,104,2e-30,121
Cladophialophora_abundans_CBS126736,SRR7899645.22,88.41,138,11,5,193,328,1,135,1e-42,161
Cladophialophora_abundans_CBS126736,SRR7899645.14,88.52,122,11,3,193,313,1,120,1e-37,145
Cladophialophora_abundans_CBS126736,SRR7899645.7,87.80,123,12,3,193,314,1,121,2e-36,141
Cladophialophora_abundans_CBS126736,SRR7899645.6,87.80,123,12,3,193,314,1,121,2e-36,141
Cladophialophora_abundans_CBS126736,SRR7899645.27,86.67,105,13,1,193,297,1,104,9e-29,115
Capronia_semi-immersa_CBS102234,SRR7899645.22,86.23,138,14,5,255,390,1,135,1e-37,145
Capronia_semi-immersa_CBS102234,SRR7899645.7,86.89,122,14,2,255,376,1,120,8e-35,135
Capronia_semi-immersa_CBS102234,SRR7899645.6,86.89,122,14,2,255,376,1,120,8e-35,135
Capronia_semi-immersa_CBS102234,SRR7899645.14,86.18,123,14,3,255,376,1,121,4e-33,130
Capronia_semi-immersa_CBS102234,SRR7899645.27,86.67,105,13,1,255,359,1,104,1e-28,115
Phialophora_americana_CBS400.67,SRR7899645.22,86.23,138,14,5,257,392,1,135,4e-37,145
Phialophora_americana_CBS400.67,SRR7899645.7,86.89,122,14,2,257,378,1,120,2e-34,135
Phialophora_americana_CBS400.67,SRR7899645.6,86.89,122,14,2,257,378,1,120,2e-34,135
Phialophora_americana_CBS400.67,SRR7899645.14,86.18,123,14,3,257,378,1,121,1e-32,130
Phialophora_americana_CBS400.67,SRR7899645.27,86.67,105,13,1,257,361,1,104,3e-28,115
Phialophora_verrucosa_CBS140325_T,SRR7899645.22,86.23,138,14,5,261,396,1,135,1e-37,145
Phialophora_verrucosa_CBS140325_T,SRR7899645.7,86.89,122,14,2,261,382,1,120,9e-35,135
Phialophora_verrucosa_CBS140325_T,SRR7899645.6,86.89,122,14,2,261,382,1,120,9e-35,135
Phialophora_verrucosa_CBS140325_T,SRR7899645.14,86.18,123,14,3,261,382,1,121,4e-33,130
Phialophora_verrucosa_CBS140325_T,SRR7899645.27,86.67,105,13,1,261,365,1,104,1e-28,115
Cladophialophora_samoensis_CBS259.83_T,SRR7899645.14,89.43,123,10,3,261,382,1,121,8e-40,152
Cladophialophora_samoensis_CBS259.83_T,SRR7899645.22,86.96,138,13,5,261,396,1,135,3e-39,150
Cladophialophora_samoensis_CBS259.83_T,SRR7899645.7,88.52,122,12,2,261,382,1,120,4e-38,147
Cladophialophora_samoensis_CBS259.83_T,SRR7899645.6,88.52,122,12,2,261,382,1,120,4e-38,147
Cladophialophora_samoensis_CBS259.83_T,SRR7899645.27,87.62,105,12,1,261,365,1,104,2e-30,121
Cladophialophora_carrionii_CBS260.83,SRR7899645.22,87.68,138,12,5,277,412,1,135,7e-41,156
Cladophialophora_carrionii_CBS260.83,SRR7899645.14,87.70,122,12,3,277,397,1,120,7e-36,139
Cladophialophora_carrionii_CBS260.83,SRR7899645.7,86.99,123,13,3,277,398,1,121,9e-35,135
Cladophialophora_carrionii_CBS260.83,SRR7899645.6,86.99,123,13,3,277,398,1,121,9e-35,135
Cladophialophora_carrionii_CBS260.83,SRR7899645.27,87.62,105,12,1,277,381,1,104,3e-30,121
Exophiala_palmae_UPCB86822_T,SRR7899645.14,88.89,126,12,2,220,345,1,124,2e-40,154
Exophiala_palmae_UPCB86822_T,SRR7899645.7,87.40,127,13,3,220,345,1,125,5e-37,143
Exophiala_palmae_UPCB86822_T,SRR7899645.6,87.40,127,13,3,220,345,1,125,5e-37,143
Exophiala_palmae_UPCB86822_T,SRR7899645.22,85.51,138,16,4,220,356,1,135,2e-36,141
Exophiala_palmae_UPCB86822_T,SRR7899645.27,87.74,106,10,3,220,324,1,104,2e-30,121
Cladophialophora_yegresii_CBS114405_T,SRR7899645.22,86.96,138,13,5,262,397,1,135,3e-39,150
Cladophialophora_yegresii_CBS114405_T,SRR7899645.14,87.80,123,12,3,262,383,1,121,2e-36,141
Cladophialophora_yegresii_CBS114405_T,SRR7899645.7,86.89,122,14,2,262,383,1,120,8e-35,135
Cladophialophora_yegresii_CBS114405_T,SRR7899645.6,86.89,122,14,2,262,383,1,120,8e-35,135
Cladophialophora_yegresii_CBS114405_T,SRR7899645.27,87.62,105,12,1,262,366,1,104,2e-30,121
Knufia_epidermidis_CBS120353_T,SRR7899645.22,87.68,138,12,5,260,395,1,135,6e-41,156
Knufia_epidermidis_CBS120353_T,SRR7899645.7,88.52,122,12,2,260,381,1,120,4e-38,147
Knufia_epidermidis_CBS120353_T,SRR7899645.6,88.52,122,12,2,260,381,1,120,4e-38,147
Knufia_epidermidis_CBS120353_T,SRR7899645.14,88.89,117,11,2,260,376,1,115,5e-37,143
Knufia_epidermidis_CBS120353_T,SRR7899645.27,85.71,105,14,1,260,364,1,104,5e-27,110
Arthrocladium_fulminans_CBS136243_T,SRR7899645.22,87.05,139,13,5,255,392,1,135,8e-40,152
Arthrocladium_fulminans_CBS136243_T,SRR7899645.14,85.83,127,16,2,255,381,1,125,3e-34,134
Arthrocladium_fulminans_CBS136243_T,SRR7899645.7,85.48,124,15,3,255,378,1,121,5e-32,126
Arthrocladium_fulminans_CBS136243_T,SRR7899645.6,85.48,124,15,3,255,378,1,121,5e-32,126
Arthrocladium_fulminans_CBS136243_T,SRR7899645.27,85.85,106,12,3,255,359,1,104,5e-27,110
Cyphellophora_laciniata_CBS190.61_T,SRR7899645.22,98.95,95,1,0,634,728,323,229,3e-45,171
Cyphellophora_laciniata_CBS190.61_T,SRR7899645.22,86.13,137,12,7,349,480,1,135,2e-36,141
Cyphellophora_laciniata_CBS190.61_T,SRR7899645.14,92.73,110,6,1,618,727,340,233,2e-41,158
Cyphellophora_laciniata_CBS190.61_T,SRR7899645.14,89.26,121,10,3,349,467,1,120,1e-38,148
Cyphellophora_laciniata_CBS190.61_T,SRR7899645.17,95.83,96,4,0,633,728,327,232,8e-41,156
Cyphellophora_laciniata_CBS190.61_T,SRR7899645.7,96.70,91,3,0,637,727,322,232,1e-39,152
Cyphellophora_laciniata_CBS190.61_T,SRR7899645.7,88.43,121,11,3,349,467,1,120,7e-37,143
Cyphellophora_laciniata_CBS190.61_T,SRR7899645.6,96.70,91,3,0,637,727,322,232,1e-39,152
Cyphellophora_laciniata_CBS190.61_T,SRR7899645.6,88.43,121,11,3,349,467,1,120,7e-37,143
Cyphellophora_laciniata_CBS190.61_T,SRR7899645.26,93.75,96,6,0,633,728,327,232,2e-37,145
Cyphellophora_laciniata_CBS190.61_T,SRR7899645.23,93.75,96,6,0,633,728,327,232,2e-37,145
Cyphellophora_laciniata_CBS190.61_T,SRR7899645.21,93.75,96,6,0,633,728,327,232,2e-37,145
Cyphellophora_laciniata_CBS190.61_T,SRR7899645.16,93.75,96,6,0,633,728,327,232,2e-37,145
Cyphellophora_laciniata_CBS190.61_T,SRR7899645.15,93.75,96,6,0,633,728,327,232,2e-37,145
Cyphellophora_laciniata_CBS190.61_T,SRR7899645.9,93.75,96,6,0,633,728,327,232,2e-37,145
Cyphellophora_laciniata_CBS190.61_T,SRR7899645.4,93.75,96,6,0,633,728,327,232,2e-37,145
Cyphellophora_laciniata_CBS190.61_T,SRR7899645.27,93.62,94,6,0,634,727,325,232,2e-36,141
Cyphellophora_laciniata_CBS190.61_T,SRR7899645.27,85.58,104,14,1,349,451,1,104,2e-26,108
Cyphellophora_laciniata_CBS190.61_T,SRR7899645.11,94.44,90,5,0,638,727,322,233,8e-36,139
Cyphellophora_laciniata_CBS190.61_T,SRR7899645.10,92.71,96,7,0,633,728,327,232,8e-36,139
Cyphellophora_laciniata_CBS190.61_T,SRR7899645.18,96.30,81,3,0,648,728,312,232,4e-34,134
Cyphellophora_laciniata_CBS190.61_T,SRR7899645.18,97.62,42,1,0,648,689,192,233,9e-16,73.1
Cyphellophora_laciniata_CBS190.61_T,SRR7899645.3,93.26,89,6,0,640,728,319,231,1e-33,132
Cyphellophora_laciniata_CBS190.61_T,SRR7899645.24,90.48,84,8,0,639,722,321,238,2e-27,111
Cyphellophora_suttonii_CBS449.91,SRR7899645.14,89.26,121,10,3,252,370,1,120,1e-38,148
Cyphellophora_suttonii_CBS449.91,SRR7899645.7,88.43,121,11,3,252,370,1,120,5e-37,143
Cyphellophora_suttonii_CBS449.91,SRR7899645.6,88.43,121,11,3,252,370,1,120,5e-37,143
Cyphellophora_suttonii_CBS449.91,SRR7899645.22,86.13,137,12,7,252,383,1,135,2e-36,141
Cyphellophora_suttonii_CBS449.91,SRR7899645.27,85.58,104,14,1,252,354,1,104,2e-26,108
Cyphellophora_pauciseptata_CBS284.85_T,SRR7899645.14,89.26,121,10,3,263,381,1,120,1e-38,148
Cyphellophora_pauciseptata_CBS284.85_T,SRR7899645.7,88.43,121,11,3,263,381,1,120,5e-37,143
Cyphellophora_pauciseptata_CBS284.85_T,SRR7899645.6,88.43,121,11,3,263,381,1,120,5e-37,143
Cyphellophora_pauciseptata_CBS284.85_T,SRR7899645.22,86.13,137,12,7,263,394,1,135,2e-36,141
Cyphellophora_pauciseptata_CBS284.85_T,SRR7899645.27,85.58,104,14,1,263,365,1,104,2e-26,108
Cyphellophora_pluriseptata_CBS286.85_T,SRR7899645.14,89.26,121,10,3,268,386,1,120,1e-38,148
Cyphellophora_pluriseptata_CBS286.85_T,SRR7899645.7,88.43,121,11,3,268,386,1,120,5e-37,143
Cyphellophora_pluriseptata_CBS286.85_T,SRR7899645.6,88.43,121,11,3,268,386,1,120,5e-37,143
Cyphellophora_pluriseptata_CBS286.85_T,SRR7899645.22,86.13,137,12,7,268,399,1,135,2e-36,141
Cyphellophora_pluriseptata_CBS286.85_T,SRR7899645.27,86.54,104,13,1,268,370,1,104,4e-28,113
Phialophora_europaea_CBS101466,SRR7899645.14,89.26,121,10,3,258,376,1,120,1e-38,148
Phialophora_europaea_CBS101466,SRR7899645.22,86.23,138,12,7,258,390,1,136,5e-37,143
Phialophora_europaea_CBS101466,SRR7899645.7,88.43,121,11,3,258,376,1,120,5e-37,143
Phialophora_europaea_CBS101466,SRR7899645.6,88.43,121,11,3,258,376,1,120,5e-37,143
Phialophora_europaea_CBS101466,SRR7899645.27,86.54,104,13,1,258,360,1,104,4e-28,113
Phialophora_ambigua_CBS235.93,SRR7899645.14,89.26,121,10,3,255,373,1,120,1e-38,148
Phialophora_ambigua_CBS235.93,SRR7899645.7,88.43,121,11,3,255,373,1,120,5e-37,143
Phialophora_ambigua_CBS235.93,SRR7899645.6,88.43,121,11,3,255,373,1,120,5e-37,143
Phialophora_ambigua_CBS235.93,SRR7899645.22,86.13,137,12,7,255,386,1,135,2e-36,141
Phialophora_ambigua_CBS235.93,SRR7899645.27,86.54,104,13,1,255,357,1,104,4e-28,113
Cladophialophora_modesta_CBS985.96_T,SRR7899645.22,96.04,101,3,1,512,612,328,229,4e-43,163
Cladophialophora_modesta_CBS985.96_T,SRR7899645.22,86.96,138,12,6,252,386,1,135,3e-39,150
Cladophialophora_modesta_CBS985.96_T,SRR7899645.14,96.70,91,3,0,521,611,323,233,9e-40,152
Cladophialophora_modesta_CBS985.96_T,SRR7899645.14,87.70,122,12,3,252,372,1,120,7e-36,139
Cladophialophora_modesta_CBS985.96_T,SRR7899645.7,96.70,91,3,0,521,611,322,232,9e-40,152
Cladophialophora_modesta_CBS985.96_T,SRR7899645.7,86.99,123,13,3,252,373,1,121,9e-35,135
Cladophialophora_modesta_CBS985.96_T,SRR7899645.6,96.70,91,3,0,521,611,322,232,9e-40,152
Cladophialophora_modesta_CBS985.96_T,SRR7899645.6,86.99,123,13,3,252,373,1,121,9e-35,135
Cladophialophora_modesta_CBS985.96_T,SRR7899645.17,94.74,95,5,0,518,612,326,232,1e-38,148
Cladophialophora_modesta_CBS985.96_T,SRR7899645.11,95.56,90,4,0,522,611,322,233,2e-37,145
Cladophialophora_modesta_CBS985.96_T,SRR7899645.27,93.62,94,6,0,518,611,325,232,2e-36,141
Cladophialophora_modesta_CBS985.96_T,SRR7899645.27,88.68,106,9,3,252,356,1,104,6e-32,126
Cladophialophora_modesta_CBS985.96_T,SRR7899645.26,92.63,95,7,0,518,612,326,232,3e-35,137
Cladophialophora_modesta_CBS985.96_T,SRR7899645.23,92.63,95,7,0,518,612,326,232,3e-35,137
Cladophialophora_modesta_CBS985.96_T,SRR7899645.21,92.63,95,7,0,518,612,326,232,3e-35,137
Cladophialophora_modesta_CBS985.96_T,SRR7899645.16,92.63,95,7,0,518,612,326,232,3e-35,137
Cladophialophora_modesta_CBS985.96_T,SRR7899645.15,92.63,95,7,0,518,612,326,232,3e-35,137
Cladophialophora_modesta_CBS985.96_T,SRR7899645.9,92.63,95,7,0,518,612,326,232,3e-35,137
Cladophialophora_modesta_CBS985.96_T,SRR7899645.4,92.63,95,7,0,518,612,326,232,3e-35,137
Cladophialophora_modesta_CBS985.96_T,SRR7899645.10,91.58,95,8,0,518,612,326,232,1e-33,132
Cladophialophora_modesta_CBS985.96_T,SRR7899645.18,95.06,81,4,0,532,612,312,232,2e-32,128
Cladophialophora_modesta_CBS985.96_T,SRR7899645.18,97.62,42,1,0,532,573,192,233,7e-16,73.1
Cladophialophora_modesta_CBS985.96_T,SRR7899645.3,91.01,89,8,0,524,612,319,231,3e-30,121
Cladophialophora_modesta_CBS985.96_T,SRR7899645.24,92.00,75,6,0,523,597,321,247,7e-26,106
