Exophiala_nigra_CBS535.94_T,SRR7757789.112840,97.96,49,1,0,203,251,194,242,4e-16,86.1
Exophiala_spinifera_CBS899.68_T,SRR7757789.112840,97.96,49,1,0,200,248,194,242,4e-16,86.1
Exophiala_exophialae_CBS668.76_T,SRR7757789.112840,97.96,49,1,0,201,249,194,242,4e-16,86.1
Exophiala_polymorpha_CBS138920_T,SRR7757789.112840,97.96,49,1,0,303,351,194,242,5e-16,86.1
Exophiala_polymorpha_CBS138920_T,SRR7757789.118397,96.88,32,1,0,82,113,5,36,1e-06,54.7
Exophiala_polymorpha_CBS138920_T,SRR7757789.81413,100.00,28,0,0,82,109,5,32,5e-06,52.8
Exophiala_oligosperma_CBS725.88_T,SRR7757789.112840,97.96,49,1,0,213,261,194,242,4e-16,86.1
Exophiala_jeanselmei_CBS507.90_T,SRR7757789.112840,97.96,49,1,0,205,253,194,242,4e-16,86.1
Exophiala_bergeri_CBS353.52,SRR7757789.112840,97.96,49,1,0,166,214,194,242,3e-16,86.1
Exophiala_moniliae_CBS520.76_T,SRR7757789.112840,97.96,49,1,0,203,251,194,242,4e-16,86.1
Exophiala_pisciphila_CBS537.73_T,SRR7757789.112840,97.96,49,1,0,206,254,194,242,5e-16,86.1
Exophiala_xenobiotica_CBS117642,SRR7757789.112840,97.96,49,1,0,198,246,194,242,4e-16,86.1
Exophiala_brunnea_CBS,SRR7757789.112840,97.96,49,1,0,234,282,194,242,4e-16,86.1
Exophiala_brunnea_CBS,SRR7757789.118397,97.22,36,1,0,10,45,1,36,8e-09,62.1
Exophiala_brunnea_CBS,SRR7757789.81413,100.00,32,0,0,10,41,1,32,3e-08,60.2
Exophiala_brunnea_CBS,SRR7757789.113501,86.54,52,5,2,10,60,1,51,4e-07,56.5
Exophiala_brunnea_CBS,SRR7757789.67655,100.00,30,0,0,10,39,1,30,4e-07,56.5
Exophiala_brunnea_CBS,SRR7757789.12896,100.00,30,0,0,10,39,1,30,4e-07,56.5
Exophiala_brunnea_CBS,SRR7757789.100336,100.00,29,0,0,10,38,1,29,1e-06,54.7
Exophiala_brunnea_CBS,SRR7757789.21435,100.00,29,0,0,10,38,1,29,1e-06,54.7
Exophiala_brunnea_CBS,SRR7757789.7710,100.00,29,0,0,10,38,1,29,1e-06,54.7
Exophiala_brunnea_CBS,SRR7757789.7705,100.00,29,0,0,10,38,1,29,1e-06,54.7
Exophiala_brunnea_CBS,SRR7757789.73965,100.00,28,0,0,11,38,2,29,5e-06,52.8
Exophiala_nishimurae_CBS101538_T,SRR7757789.112840,97.96,49,1,0,212,260,194,242,4e-16,86.1
Exophiala_mesophila_CBS402.95_T,SRR7757789.112840,97.96,49,1,0,196,244,194,242,5e-16,86.1
Exophiala_castellanii_CBS158.58_T,SRR7757789.112840,97.96,49,1,0,194,242,194,242,5e-16,86.1
Exophiala_lecanii-corni_CBS123.33_T,SRR7757789.112840,97.96,49,1,0,217,265,194,242,4e-16,86.1
Exophiala_angulospora_CBS482.92_T,SRR7757789.112840,97.96,49,1,0,200,248,194,242,4e-16,86.1
Exophiala_opportunistica_CBS109811_T,SRR7757789.112840,97.96,49,1,0,199,247,194,242,4e-16,86.1
Exophiala_salmonis_CBS157.67_T,SRR7757789.112840,97.96,49,1,0,328,376,194,242,6e-16,86.1
Exophiala_aquamarina_CBS119918_T,SRR7757789.112840,97.96,49,1,0,206,254,194,242,4e-16,86.1
Exophiala_cancerae_CBS120420_T,SRR7757789.112840,97.96,49,1,0,221,269,194,242,4e-16,86.1
Exophiala_tremulae_CBS129355,SRR7757789.112840,97.96,49,1,0,233,281,194,242,4e-16,86.1
Exophiala_tremulae_CBS129355,SRR7757789.118397,97.22,36,1,0,10,45,1,36,7e-09,62.1
Exophiala_tremulae_CBS129355,SRR7757789.81413,100.00,32,0,0,10,41,1,32,3e-08,60.2
Exophiala_tremulae_CBS129355,SRR7757789.67655,100.00,30,0,0,10,39,1,30,3e-07,56.5
Exophiala_tremulae_CBS129355,SRR7757789.12896,100.00,30,0,0,10,39,1,30,3e-07,56.5
Exophiala_tremulae_CBS129355,SRR7757789.113501,100.00,29,0,0,10,38,1,29,1e-06,54.7
Exophiala_tremulae_CBS129355,SRR7757789.100336,100.00,29,0,0,10,38,1,29,1e-06,54.7
Exophiala_tremulae_CBS129355,SRR7757789.21435,100.00,29,0,0,10,38,1,29,1e-06,54.7
Exophiala_tremulae_CBS129355,SRR7757789.7710,100.00,29,0,0,10,38,1,29,1e-06,54.7
Exophiala_tremulae_CBS129355,SRR7757789.7705,100.00,29,0,0,10,38,1,29,1e-06,54.7
Exophiala_tremulae_CBS129355,SRR7757789.73965,100.00,28,0,0,11,38,2,29,5e-06,52.8
Exophiala_equina_CBS116009,SRR7757789.112840,97.96,49,1,0,199,247,194,242,4e-16,86.1
Exophiala_alcalophila_CBS520.82_T,SRR7757789.112840,97.96,49,1,0,210,258,194,242,4e-16,86.1
Exophiala_crusticola_CBS119970_T,SRR7757789.112840,97.96,49,1,0,215,263,194,242,4e-16,86.1
Rhinocladiella_atrovirens_CBS264.49,SRR7757789.112840,97.96,49,1,0,241,289,194,242,4e-16,86.1
Rhinocladiella_atrovirens_CBS264.49,SRR7757789.67655,100.00,32,0,0,15,46,1,32,3e-08,60.2
Rhinocladiella_atrovirens_CBS264.49,SRR7757789.12896,100.00,32,0,0,15,46,1,32,3e-08,60.2
Rhinocladiella_atrovirens_CBS264.49,SRR7757789.118397,100.00,30,0,0,15,44,1,30,3e-07,56.5
Rhinocladiella_atrovirens_CBS264.49,SRR7757789.81413,100.00,30,0,0,15,44,1,30,3e-07,56.5
Rhinocladiella_atrovirens_CBS264.49,SRR7757789.113501,100.00,29,0,0,15,43,1,29,1e-06,54.7
Rhinocladiella_atrovirens_CBS264.49,SRR7757789.100336,100.00,29,0,0,15,43,1,29,1e-06,54.7
Rhinocladiella_atrovirens_CBS264.49,SRR7757789.21435,100.00,29,0,0,15,43,1,29,1e-06,54.7
Rhinocladiella_atrovirens_CBS264.49,SRR7757789.7710,100.00,29,0,0,15,43,1,29,1e-06,54.7
Rhinocladiella_atrovirens_CBS264.49,SRR7757789.7705,100.00,29,0,0,15,43,1,29,1e-06,54.7
Rhinocladiella_atrovirens_CBS264.49,SRR7757789.73965,100.00,28,0,0,16,43,2,29,4e-06,52.8
Rhinocladiella_basitona_CBS101460_T,SRR7757789.112840,97.96,49,1,0,200,248,194,242,4e-16,86.1
Rhinocladiella_phaeophora_CBS496.78_T,SRR7757789.112840,97.96,49,1,0,208,256,194,242,4e-16,86.1
Rhinocladiella_aquaspersa_CBS313.73_T,SRR7757789.112840,97.96,49,1,0,202,250,194,242,5e-16,86.1
Rhinocladiella_fasciculata_CBS132.86_T,SRR7757789.112840,97.96,49,1,0,218,266,194,242,4e-16,86.1
Rhinocladiella_fasciculata_CBS132.86_T,SRR7757789.67655,100.00,29,0,0,1,29,4,32,1e-06,54.7
Rhinocladiella_fasciculata_CBS132.86_T,SRR7757789.12896,100.00,29,0,0,1,29,4,32,1e-06,54.7
Rhinocladiella_anceps_CBS181.65_T,SRR7757789.112840,93.22,59,3,1,191,248,184,242,4e-16,86.1
Rhinocladiella_mackenziei_CBS367.92,SRR7757789.112840,97.96,49,1,0,189,237,194,242,4e-16,86.1
Rhinocladiella_mackenziei_CBS367.92,SRR7757789.118397,96.88,32,1,0,1,32,5,36,1e-06,54.7
Rhinocladiella_mackenziei_CBS367.92,SRR7757789.81413,100.00,28,0,0,1,28,5,32,4e-06,52.8
Veronaea_compacta_CBS268.75_T,SRR7757789.112840,97.96,49,1,0,222,270,194,242,4e-16,86.1
Veronaea_compacta_CBS268.75_T,SRR7757789.118397,96.97,33,1,0,1,33,4,36,3e-07,56.5
Veronaea_compacta_CBS268.75_T,SRR7757789.81413,100.00,29,0,0,1,29,4,32,1e-06,54.7
Capronia_pilosella_AFTOL-ID657,SRR7757789.112840,97.96,49,1,0,300,348,194,242,5e-16,86.1
Capronia_dactylotricha_DAOM208471_T,SRR7757789.112840,97.96,49,1,0,202,250,194,242,5e-16,86.1
Capronia_kleinmondensis_CBS122671_T,SRR7757789.112840,97.96,49,1,0,227,275,194,242,5e-16,86.1
Capronia_kleinmondensis_CBS122671_T,SRR7757789.67655,100.00,32,0,0,1,32,1,32,3e-08,60.2
Capronia_kleinmondensis_CBS122671_T,SRR7757789.12896,100.00,32,0,0,1,32,1,32,3e-08,60.2
Capronia_kleinmondensis_CBS122671_T,SRR7757789.118397,100.00,30,0,0,1,30,1,30,4e-07,56.5
Capronia_kleinmondensis_CBS122671_T,SRR7757789.81413,100.00,30,0,0,1,30,1,30,4e-07,56.5
Capronia_kleinmondensis_CBS122671_T,SRR7757789.113501,100.00,29,0,0,1,29,1,29,1e-06,54.7
Capronia_kleinmondensis_CBS122671_T,SRR7757789.100336,100.00,29,0,0,1,29,1,29,1e-06,54.7
Capronia_kleinmondensis_CBS122671_T,SRR7757789.21435,100.00,29,0,0,1,29,1,29,1e-06,54.7
Capronia_kleinmondensis_CBS122671_T,SRR7757789.7710,100.00,29,0,0,1,29,1,29,1e-06,54.7
Capronia_kleinmondensis_CBS122671_T,SRR7757789.7705,100.00,29,0,0,1,29,1,29,1e-06,54.7
Capronia_kleinmondensis_CBS122671_T,SRR7757789.73965,100.00,28,0,0,2,29,2,29,5e-06,52.8
Capronia_mansonii_CBS101.67_T,SRR7757789.112840,97.96,49,1,0,213,261,194,242,5e-16,86.1
Capronia_munkii_DAOM216390_T,SRR7757789.112840,97.96,49,1,0,213,261,194,242,5e-16,86.1
Capronia_coronata_ATCC56201_T,SRR7757789.112840,97.96,49,1,0,201,249,194,242,5e-16,86.1
Capronia_parasitica_CBS123.88,SRR7757789.112840,97.96,49,1,0,207,255,194,242,4e-16,86.1
Veronaea_japonica_CBS776.83_T,SRR7757789.112840,97.96,49,1,0,235,283,194,242,4e-16,86.1
Veronaea_japonica_CBS776.83_T,SRR7757789.118397,97.22,36,1,0,9,44,1,36,7e-09,62.1
Veronaea_japonica_CBS776.83_T,SRR7757789.81413,100.00,32,0,0,9,40,1,32,3e-08,60.2
Veronaea_japonica_CBS776.83_T,SRR7757789.67655,100.00,30,0,0,9,38,1,30,3e-07,56.5
Veronaea_japonica_CBS776.83_T,SRR7757789.12896,100.00,30,0,0,9,38,1,30,3e-07,56.5
Veronaea_japonica_CBS776.83_T,SRR7757789.113501,100.00,29,0,0,9,37,1,29,1e-06,54.7
Veronaea_japonica_CBS776.83_T,SRR7757789.100336,100.00,29,0,0,9,37,1,29,1e-06,54.7
Veronaea_japonica_CBS776.83_T,SRR7757789.21435,100.00,29,0,0,9,37,1,29,1e-06,54.7
Veronaea_japonica_CBS776.83_T,SRR7757789.7710,100.00,29,0,0,9,37,1,29,1e-06,54.7
Veronaea_japonica_CBS776.83_T,SRR7757789.7705,100.00,29,0,0,9,37,1,29,1e-06,54.7
Veronaea_japonica_CBS776.83_T,SRR7757789.73965,100.00,28,0,0,10,37,2,29,4e-06,52.8
Thysanorea_papuana_CBS212.96_T,SRR7757789.112840,97.96,49,1,0,209,257,194,242,4e-16,86.1
Capronia_acutiseta_ATCC56428_T,SRR7757789.112840,97.96,49,1,0,203,251,194,242,5e-16,86.1
Fonsecaea_brasiliensis_CBS119710_T,SRR7757789.112840,97.96,49,1,0,209,257,194,242,4e-16,86.1
Fonsecaea_pedrosoi_CBS271.37_T,SRR7757789.112840,97.96,49,1,0,237,285,194,242,5e-16,86.1
Fonsecaea_pedrosoi_CBS271.37_T,SRR7757789.118397,100.00,31,0,0,1,31,1,31,1e-07,58.4
Fonsecaea_pedrosoi_CBS271.37_T,SRR7757789.81413,100.00,31,0,0,1,31,1,31,1e-07,58.4
Fonsecaea_pedrosoi_CBS271.37_T,SRR7757789.67655,100.00,30,0,0,1,30,1,30,4e-07,56.5
Fonsecaea_pedrosoi_CBS271.37_T,SRR7757789.12896,100.00,30,0,0,1,30,1,30,4e-07,56.5
Fonsecaea_pedrosoi_CBS271.37_T,SRR7757789.113501,100.00,29,0,0,1,29,1,29,1e-06,54.7
Fonsecaea_pedrosoi_CBS271.37_T,SRR7757789.100336,96.97,33,0,1,1,32,1,33,1e-06,54.7
Fonsecaea_pedrosoi_CBS271.37_T,SRR7757789.21435,100.00,29,0,0,1,29,1,29,1e-06,54.7
Fonsecaea_pedrosoi_CBS271.37_T,SRR7757789.7710,96.97,33,0,1,1,32,1,33,1e-06,54.7
Fonsecaea_pedrosoi_CBS271.37_T,SRR7757789.7705,96.97,33,0,1,1,32,1,33,1e-06,54.7
Fonsecaea_pedrosoi_CBS271.37_T,SRR7757789.73965,100.00,28,0,0,2,29,2,29,5e-06,52.8
Fonsecaea_multimorphosa_CBS980.96_T,SRR7757789.112840,97.96,49,1,0,207,255,194,242,4e-16,86.1
Fonsecaea_minima_CBS125760_T,SRR7757789.112840,97.96,49,1,0,203,251,194,242,4e-16,86.1
Fonsecaea_nubica_CBS269.64_T,SRR7757789.112840,97.96,49,1,0,214,262,194,242,4e-16,86.1
Fonsecaea_monophora_CBS269.37_T,SRR7757789.112840,97.96,49,1,0,214,262,194,242,4e-16,86.1
Fonsecaea_erecta_CBS125763_T,SRR7757789.112840,97.96,49,1,0,198,246,194,242,4e-16,86.1
Fonsecaea_pugnacius_CBS139214_T,SRR7757789.112840,97.96,49,1,0,207,255,194,242,4e-16,86.1
Cladophialophora_psammophila_CBS,SRR7757789.112840,97.96,49,1,0,213,261,194,242,4e-16,86.1
Cladophialophora_devriesii_CBS,SRR7757789.112840,97.96,49,1,0,209,257,194,242,4e-16,86.1
Cladophialophora_immunda_CBS834.96,SRR7757789.112840,97.96,49,1,0,211,259,194,242,4e-16,86.1
Cladophialophora_arxii_CBS306.94_T,SRR7757789.112840,97.96,49,1,0,213,261,194,242,4e-16,86.1
Cladophialophora_bantiana_CBS173.52,SRR7757789.112840,97.96,49,1,0,207,255,194,242,4e-16,86.1
Cladophialophora_emmonsii_CBS102594,SRR7757789.112840,97.96,49,1,0,198,246,194,242,4e-16,86.1
Cladophialophora_minourae_CBS556.83,SRR7757789.112840,97.96,49,1,0,206,254,194,242,4e-16,86.1
Cladophialophora_australiensis_CBS112793,SRR7757789.112840,96.23,53,2,0,204,256,190,242,3e-16,87.9
Cladophialophora_potulentorum_CBS112222,SRR7757789.112840,97.96,49,1,0,207,255,194,242,1e-15,86.1
Cladophialophora_matsushimae_CMRP1198,SRR7757789.112840,93.22,59,3,1,202,259,184,242,3e-16,86.1
Cladophialophora_mycetomatis_CBS122637,SRR7757789.112840,93.22,59,3,1,187,244,184,242,4e-16,86.1
Cladophialophora_chaetospira_CBS127573,SRR7757789.112840,97.83,46,1,0,605,650,197,242,3e-14,80.5
Cladophialophora_chaetospira_CBS127573,SRR7757789.118397,97.22,36,1,0,380,415,1,36,1e-08,62.1
Cladophialophora_chaetospira_CBS127573,SRR7757789.81413,100.00,32,0,0,380,411,1,32,4e-08,60.2
Cladophialophora_chaetospira_CBS127573,SRR7757789.113501,86.54,52,5,2,380,430,1,51,5e-07,56.5
Cladophialophora_chaetospira_CBS127573,SRR7757789.67655,100.00,30,0,0,380,409,1,30,5e-07,56.5
Cladophialophora_chaetospira_CBS127573,SRR7757789.12896,100.00,30,0,0,380,409,1,30,5e-07,56.5
Cladophialophora_chaetospira_CBS127573,SRR7757789.100336,100.00,29,0,0,380,408,1,29,2e-06,54.7
Cladophialophora_chaetospira_CBS127573,SRR7757789.21435,100.00,29,0,0,380,408,1,29,2e-06,54.7
Cladophialophora_chaetospira_CBS127573,SRR7757789.7710,100.00,29,0,0,380,408,1,29,2e-06,54.7
Cladophialophora_chaetospira_CBS127573,SRR7757789.7705,100.00,29,0,0,380,408,1,29,2e-06,54.7
Cladophialophora_chaetospira_CBS127573,SRR7757789.73965,100.00,28,0,0,381,408,2,29,7e-06,52.8
Cladophialophora_boppii_CBS126.86_T,SRR7757789.112840,97.96,49,1,0,204,252,194,242,4e-16,86.1
Cladophialophora_abundans_CBS126736,SRR7757789.112840,93.22,59,3,1,132,189,184,242,3e-16,86.1
Capronia_semi-immersa_CBS102234,SRR7757789.112840,97.96,49,1,0,203,251,194,242,4e-16,86.1
Phialophora_americana_CBS400.67,SRR7757789.112840,97.96,49,1,0,205,253,194,242,1e-15,86.1
Phialophora_verrucosa_CBS140325_T,SRR7757789.112840,97.96,49,1,0,209,257,194,242,4e-16,86.1
Cladophialophora_samoensis_CBS259.83_T,SRR7757789.112840,97.96,49,1,0,209,257,194,242,4e-16,86.1
Cladophialophora_carrionii_CBS260.83,SRR7757789.112840,97.96,49,1,0,225,273,194,242,4e-16,86.1
Exophiala_palmae_UPCB86822_T,SRR7757789.112840,97.96,49,1,0,168,216,194,242,4e-16,86.1
Cladophialophora_yegresii_CBS114405_T,SRR7757789.112840,97.96,49,1,0,210,258,194,242,4e-16,86.1
Knufia_epidermidis_CBS120353_T,SRR7757789.112840,97.96,49,1,0,208,256,194,242,4e-16,86.1
Arthrocladium_fulminans_CBS136243_T,SRR7757789.112840,97.96,49,1,0,203,251,194,242,4e-16,86.1
Anthopsis_deltoidea_CBS263.77_T,SRR7757789.112840,97.96,49,1,0,212,260,194,242,4e-16,86.1
Cyphellophora_laciniata_CBS190.61_T,SRR7757789.112840,97.96,49,1,0,297,345,194,242,5e-16,86.1
Cyphellophora_laciniata_CBS190.61_T,SRR7757789.67655,100.00,32,0,0,71,102,1,32,3e-08,60.2
Cyphellophora_laciniata_CBS190.61_T,SRR7757789.12896,100.00,32,0,0,71,102,1,32,3e-08,60.2
Cyphellophora_laciniata_CBS190.61_T,SRR7757789.118397,100.00,30,0,0,71,100,1,30,4e-07,56.5
Cyphellophora_laciniata_CBS190.61_T,SRR7757789.81413,100.00,30,0,0,71,100,1,30,4e-07,56.5
Cyphellophora_laciniata_CBS190.61_T,SRR7757789.113501,100.00,29,0,0,71,99,1,29,1e-06,54.7
Cyphellophora_laciniata_CBS190.61_T,SRR7757789.100336,100.00,29,0,0,71,99,1,29,1e-06,54.7
Cyphellophora_laciniata_CBS190.61_T,SRR7757789.21435,100.00,29,0,0,71,99,1,29,1e-06,54.7
Cyphellophora_laciniata_CBS190.61_T,SRR7757789.7710,100.00,29,0,0,71,99,1,29,1e-06,54.7
Cyphellophora_laciniata_CBS190.61_T,SRR7757789.7705,100.00,29,0,0,71,99,1,29,1e-06,54.7
Cyphellophora_laciniata_CBS190.61_T,SRR7757789.73965,100.00,28,0,0,72,99,2,29,5e-06,52.8
Cyphellophora_suttonii_CBS449.91,SRR7757789.112840,97.96,49,1,0,200,248,194,242,4e-16,86.1
Cyphellophora_pauciseptata_CBS284.85_T,SRR7757789.112840,97.96,49,1,0,211,259,194,242,4e-16,86.1
Phialophora_europaea_CBS101466,SRR7757789.112840,97.96,49,1,0,206,254,194,242,4e-16,86.1
Phialophora_ambigua_CBS235.93,SRR7757789.112840,97.96,49,1,0,203,251,194,242,4e-16,86.1
Cladophialophora_modesta_CBS985.96_T,SRR7757789.112840,97.96,49,1,0,200,248,194,242,4e-16,86.1
Cyphellophora_fusarioides_MUCL44033_T,SRR7757789.112840,97.96,49,1,0,199,247,194,242,4e-16,86.1
