Exophiala_brunnea_CBS,SRR8291561.268290,100.00,29,0,0,10,38,1,29,3e-06,54.7
Exophiala_brunnea_CBS,SRR8291561.236703,100.00,29,0,0,10,38,1,29,3e-06,54.7
Exophiala_brunnea_CBS,SRR8291561.236288,100.00,29,0,0,10,38,1,29,3e-06,54.7
Exophiala_brunnea_CBS,SRR8291561.138276,100.00,29,0,0,10,38,1,29,3e-06,54.7
Exophiala_brunnea_CBS,SRR8291561.119726,100.00,29,0,0,10,38,1,29,3e-06,54.7
Exophiala_brunnea_CBS,SRR8291561.111644,100.00,29,0,0,10,38,1,29,3e-06,54.7
Exophiala_brunnea_CBS,SRR8291561.102082,100.00,29,0,0,10,38,1,29,3e-06,54.7
Exophiala_brunnea_CBS,SRR8291561.98008,100.00,29,0,0,10,38,1,29,3e-06,54.7
Exophiala_brunnea_CBS,SRR8291561.93329,100.00,29,0,0,10,38,1,29,3e-06,54.7
Exophiala_brunnea_CBS,SRR8291561.78101,100.00,29,0,0,10,38,1,29,3e-06,54.7
Exophiala_brunnea_CBS,SRR8291561.37904,100.00,29,0,0,10,38,1,29,3e-06,54.7
Exophiala_brunnea_CBS,SRR8291561.5653,100.00,29,0,0,10,38,1,29,3e-06,54.7
Exophiala_brunnea_CBS,SRR8291561.294538,100.00,28,0,0,11,38,1,28,1e-05,52.8
Exophiala_tremulae_CBS129355,SRR8291561.268290,100.00,29,0,0,10,38,1,29,3e-06,54.7
Exophiala_tremulae_CBS129355,SRR8291561.236703,100.00,29,0,0,10,38,1,29,3e-06,54.7
Exophiala_tremulae_CBS129355,SRR8291561.236288,100.00,29,0,0,10,38,1,29,3e-06,54.7
Exophiala_tremulae_CBS129355,SRR8291561.138276,100.00,29,0,0,10,38,1,29,3e-06,54.7
Exophiala_tremulae_CBS129355,SRR8291561.119726,100.00,29,0,0,10,38,1,29,3e-06,54.7
Exophiala_tremulae_CBS129355,SRR8291561.111644,100.00,29,0,0,10,38,1,29,3e-06,54.7
Exophiala_tremulae_CBS129355,SRR8291561.102082,100.00,29,0,0,10,38,1,29,3e-06,54.7
Exophiala_tremulae_CBS129355,SRR8291561.98008,100.00,29,0,0,10,38,1,29,3e-06,54.7
Exophiala_tremulae_CBS129355,SRR8291561.93329,100.00,29,0,0,10,38,1,29,3e-06,54.7
Exophiala_tremulae_CBS129355,SRR8291561.78101,100.00,29,0,0,10,38,1,29,3e-06,54.7
Exophiala_tremulae_CBS129355,SRR8291561.37904,100.00,29,0,0,10,38,1,29,3e-06,54.7
Exophiala_tremulae_CBS129355,SRR8291561.5653,100.00,29,0,0,10,38,1,29,3e-06,54.7
Exophiala_tremulae_CBS129355,SRR8291561.294538,100.00,28,0,0,11,38,1,28,1e-05,52.8
Rhinocladiella_atrovirens_CBS264.49,SRR8291561.268290,100.00,29,0,0,15,43,1,29,3e-06,54.7
Rhinocladiella_atrovirens_CBS264.49,SRR8291561.236703,100.00,29,0,0,15,43,1,29,3e-06,54.7
Rhinocladiella_atrovirens_CBS264.49,SRR8291561.236288,100.00,29,0,0,15,43,1,29,3e-06,54.7
Rhinocladiella_atrovirens_CBS264.49,SRR8291561.138276,100.00,29,0,0,15,43,1,29,3e-06,54.7
Rhinocladiella_atrovirens_CBS264.49,SRR8291561.119726,100.00,29,0,0,15,43,1,29,3e-06,54.7
Rhinocladiella_atrovirens_CBS264.49,SRR8291561.111644,100.00,29,0,0,15,43,1,29,3e-06,54.7
Rhinocladiella_atrovirens_CBS264.49,SRR8291561.102082,100.00,29,0,0,15,43,1,29,3e-06,54.7
Rhinocladiella_atrovirens_CBS264.49,SRR8291561.98008,100.00,29,0,0,15,43,1,29,3e-06,54.7
Rhinocladiella_atrovirens_CBS264.49,SRR8291561.93329,100.00,29,0,0,15,43,1,29,3e-06,54.7
Rhinocladiella_atrovirens_CBS264.49,SRR8291561.78101,100.00,29,0,0,15,43,1,29,3e-06,54.7
Rhinocladiella_atrovirens_CBS264.49,SRR8291561.37904,100.00,29,0,0,15,43,1,29,3e-06,54.7
Rhinocladiella_atrovirens_CBS264.49,SRR8291561.5653,100.00,29,0,0,15,43,1,29,3e-06,54.7
Rhinocladiella_atrovirens_CBS264.49,SRR8291561.294538,100.00,28,0,0,16,43,1,28,1e-05,52.8
Capronia_kleinmondensis_CBS122671_T,SRR8291561.268290,100.00,29,0,0,1,29,1,29,3e-06,54.7
Capronia_kleinmondensis_CBS122671_T,SRR8291561.236703,100.00,29,0,0,1,29,1,29,3e-06,54.7
Capronia_kleinmondensis_CBS122671_T,SRR8291561.236288,100.00,29,0,0,1,29,1,29,3e-06,54.7
Capronia_kleinmondensis_CBS122671_T,SRR8291561.138276,100.00,29,0,0,1,29,1,29,3e-06,54.7
Capronia_kleinmondensis_CBS122671_T,SRR8291561.119726,100.00,29,0,0,1,29,1,29,3e-06,54.7
Capronia_kleinmondensis_CBS122671_T,SRR8291561.111644,100.00,29,0,0,1,29,1,29,3e-06,54.7
Capronia_kleinmondensis_CBS122671_T,SRR8291561.102082,100.00,29,0,0,1,29,1,29,3e-06,54.7
Capronia_kleinmondensis_CBS122671_T,SRR8291561.98008,100.00,29,0,0,1,29,1,29,3e-06,54.7
Capronia_kleinmondensis_CBS122671_T,SRR8291561.93329,100.00,29,0,0,1,29,1,29,3e-06,54.7
Capronia_kleinmondensis_CBS122671_T,SRR8291561.78101,100.00,29,0,0,1,29,1,29,3e-06,54.7
Capronia_kleinmondensis_CBS122671_T,SRR8291561.37904,100.00,29,0,0,1,29,1,29,3e-06,54.7
Capronia_kleinmondensis_CBS122671_T,SRR8291561.5653,100.00,29,0,0,1,29,1,29,3e-06,54.7
Capronia_kleinmondensis_CBS122671_T,SRR8291561.294538,100.00,28,0,0,2,29,1,28,1e-05,52.8
Veronaea_japonica_CBS776.83_T,SRR8291561.268290,100.00,29,0,0,9,37,1,29,3e-06,54.7
Veronaea_japonica_CBS776.83_T,SRR8291561.236703,100.00,29,0,0,9,37,1,29,3e-06,54.7
Veronaea_japonica_CBS776.83_T,SRR8291561.236288,100.00,29,0,0,9,37,1,29,3e-06,54.7
Veronaea_japonica_CBS776.83_T,SRR8291561.138276,100.00,29,0,0,9,37,1,29,3e-06,54.7
Veronaea_japonica_CBS776.83_T,SRR8291561.119726,100.00,29,0,0,9,37,1,29,3e-06,54.7
Veronaea_japonica_CBS776.83_T,SRR8291561.111644,100.00,29,0,0,9,37,1,29,3e-06,54.7
Veronaea_japonica_CBS776.83_T,SRR8291561.102082,100.00,29,0,0,9,37,1,29,3e-06,54.7
Veronaea_japonica_CBS776.83_T,SRR8291561.98008,100.00,29,0,0,9,37,1,29,3e-06,54.7
Veronaea_japonica_CBS776.83_T,SRR8291561.93329,100.00,29,0,0,9,37,1,29,3e-06,54.7
Veronaea_japonica_CBS776.83_T,SRR8291561.78101,100.00,29,0,0,9,37,1,29,3e-06,54.7
Veronaea_japonica_CBS776.83_T,SRR8291561.37904,100.00,29,0,0,9,37,1,29,3e-06,54.7
Veronaea_japonica_CBS776.83_T,SRR8291561.5653,100.00,29,0,0,9,37,1,29,3e-06,54.7
Veronaea_japonica_CBS776.83_T,SRR8291561.294538,100.00,28,0,0,10,37,1,28,1e-05,52.8
Fonsecaea_pedrosoi_CBS271.37_T,SRR8291561.268290,100.00,29,0,0,1,29,1,29,3e-06,54.7
Fonsecaea_pedrosoi_CBS271.37_T,SRR8291561.236703,100.00,29,0,0,1,29,1,29,3e-06,54.7
Fonsecaea_pedrosoi_CBS271.37_T,SRR8291561.236288,100.00,29,0,0,1,29,1,29,3e-06,54.7
Fonsecaea_pedrosoi_CBS271.37_T,SRR8291561.138276,100.00,29,0,0,1,29,1,29,3e-06,54.7
Fonsecaea_pedrosoi_CBS271.37_T,SRR8291561.119726,100.00,29,0,0,1,29,1,29,3e-06,54.7
Fonsecaea_pedrosoi_CBS271.37_T,SRR8291561.111644,100.00,29,0,0,1,29,1,29,3e-06,54.7
Fonsecaea_pedrosoi_CBS271.37_T,SRR8291561.102082,100.00,29,0,0,1,29,1,29,3e-06,54.7
Fonsecaea_pedrosoi_CBS271.37_T,SRR8291561.98008,100.00,29,0,0,1,29,1,29,3e-06,54.7
Fonsecaea_pedrosoi_CBS271.37_T,SRR8291561.93329,100.00,29,0,0,1,29,1,29,3e-06,54.7
Fonsecaea_pedrosoi_CBS271.37_T,SRR8291561.78101,100.00,29,0,0,1,29,1,29,3e-06,54.7
Fonsecaea_pedrosoi_CBS271.37_T,SRR8291561.37904,100.00,29,0,0,1,29,1,29,3e-06,54.7
Fonsecaea_pedrosoi_CBS271.37_T,SRR8291561.5653,100.00,29,0,0,1,29,1,29,3e-06,54.7
Fonsecaea_pedrosoi_CBS271.37_T,SRR8291561.294538,100.00,28,0,0,2,29,1,28,1e-05,52.8
Cladophialophora_chaetospira_CBS127573,SRR8291561.268290,100.00,29,0,0,380,408,1,29,5e-06,54.7
Cladophialophora_chaetospira_CBS127573,SRR8291561.236703,100.00,29,0,0,380,408,1,29,5e-06,54.7
Cladophialophora_chaetospira_CBS127573,SRR8291561.236288,100.00,29,0,0,380,408,1,29,5e-06,54.7
Cladophialophora_chaetospira_CBS127573,SRR8291561.138276,100.00,29,0,0,380,408,1,29,5e-06,54.7
Cladophialophora_chaetospira_CBS127573,SRR8291561.119726,100.00,29,0,0,380,408,1,29,5e-06,54.7
Cladophialophora_chaetospira_CBS127573,SRR8291561.111644,100.00,29,0,0,380,408,1,29,5e-06,54.7
Cladophialophora_chaetospira_CBS127573,SRR8291561.102082,100.00,29,0,0,380,408,1,29,5e-06,54.7
Cladophialophora_chaetospira_CBS127573,SRR8291561.98008,100.00,29,0,0,380,408,1,29,5e-06,54.7
Cladophialophora_chaetospira_CBS127573,SRR8291561.93329,100.00,29,0,0,380,408,1,29,5e-06,54.7
Cladophialophora_chaetospira_CBS127573,SRR8291561.78101,100.00,29,0,0,380,408,1,29,5e-06,54.7
Cladophialophora_chaetospira_CBS127573,SRR8291561.37904,100.00,29,0,0,380,408,1,29,5e-06,54.7
Cladophialophora_chaetospira_CBS127573,SRR8291561.5653,100.00,29,0,0,380,408,1,29,5e-06,54.7
Cladophialophora_chaetospira_CBS127573,SRR8291561.294538,100.00,28,0,0,381,408,1,28,2e-05,52.8
Cyphellophora_laciniata_CBS190.61_T,SRR8291561.268290,100.00,29,0,0,71,99,1,29,4e-06,54.7
Cyphellophora_laciniata_CBS190.61_T,SRR8291561.236703,100.00,29,0,0,71,99,1,29,4e-06,54.7
Cyphellophora_laciniata_CBS190.61_T,SRR8291561.236288,100.00,29,0,0,71,99,1,29,4e-06,54.7
Cyphellophora_laciniata_CBS190.61_T,SRR8291561.138276,100.00,29,0,0,71,99,1,29,4e-06,54.7
Cyphellophora_laciniata_CBS190.61_T,SRR8291561.119726,100.00,29,0,0,71,99,1,29,4e-06,54.7
Cyphellophora_laciniata_CBS190.61_T,SRR8291561.111644,100.00,29,0,0,71,99,1,29,4e-06,54.7
Cyphellophora_laciniata_CBS190.61_T,SRR8291561.102082,100.00,29,0,0,71,99,1,29,4e-06,54.7
Cyphellophora_laciniata_CBS190.61_T,SRR8291561.98008,100.00,29,0,0,71,99,1,29,4e-06,54.7
Cyphellophora_laciniata_CBS190.61_T,SRR8291561.93329,100.00,29,0,0,71,99,1,29,4e-06,54.7
Cyphellophora_laciniata_CBS190.61_T,SRR8291561.78101,100.00,29,0,0,71,99,1,29,4e-06,54.7
Cyphellophora_laciniata_CBS190.61_T,SRR8291561.37904,100.00,29,0,0,71,99,1,29,4e-06,54.7
Cyphellophora_laciniata_CBS190.61_T,SRR8291561.5653,100.00,29,0,0,71,99,1,29,4e-06,54.7
Cyphellophora_laciniata_CBS190.61_T,SRR8291561.294538,100.00,28,0,0,72,99,1,28,1e-05,52.8
