Exophiala_nigra_CBS535.94_T,SRR7774038.295975,96.00,50,2,0,203,252,334,285,1e-14,82.4
Exophiala_spinifera_CBS899.68_T,SRR7774038.295975,96.00,50,2,0,200,249,334,285,1e-14,82.4
Exophiala_exophialae_CBS668.76_T,SRR7774038.295975,96.00,50,2,0,201,250,334,285,1e-14,82.4
Exophiala_polymorpha_CBS138920_T,SRR7774038.295975,96.00,50,2,0,303,352,334,285,2e-14,82.4
Exophiala_oligosperma_CBS725.88_T,SRR7774038.295975,96.00,50,2,0,213,262,334,285,1e-14,82.4
Exophiala_jeanselmei_CBS507.90_T,SRR7774038.295975,96.00,50,2,0,205,254,334,285,1e-14,82.4
Exophiala_bergeri_CBS353.52,SRR7774038.295975,96.00,50,2,0,166,215,334,285,1e-14,82.4
Exophiala_moniliae_CBS520.76_T,SRR7774038.295975,96.00,50,2,0,203,252,334,285,1e-14,82.4
Exophiala_pisciphila_CBS537.73_T,SRR7774038.295975,96.00,50,2,0,206,255,334,285,1e-14,82.4
Exophiala_xenobiotica_CBS117642,SRR7774038.295975,96.00,50,2,0,198,247,334,285,1e-14,82.4
Exophiala_brunnea_CBS,SRR7774038.295975,96.00,50,2,0,234,283,334,285,1e-14,82.4
Exophiala_nishimurae_CBS101538_T,SRR7774038.295975,96.00,50,2,0,212,261,334,285,1e-14,82.4
Exophiala_mesophila_CBS402.95_T,SRR7774038.295975,96.00,50,2,0,196,245,334,285,1e-14,82.4
Exophiala_castellanii_CBS158.58_T,SRR7774038.295975,96.00,50,2,0,194,243,334,285,1e-14,82.4
Exophiala_lecanii-corni_CBS123.33_T,SRR7774038.295975,96.00,50,2,0,217,266,334,285,1e-14,82.4
Exophiala_angulospora_CBS482.92_T,SRR7774038.295975,96.00,50,2,0,200,249,334,285,1e-14,82.4
Exophiala_opportunistica_CBS109811_T,SRR7774038.295975,96.00,50,2,0,199,248,334,285,1e-14,82.4
Exophiala_salmonis_CBS157.67_T,SRR7774038.295975,96.00,50,2,0,328,377,334,285,2e-14,82.4
Exophiala_aquamarina_CBS119918_T,SRR7774038.295975,96.00,50,2,0,206,255,334,285,1e-14,82.4
Exophiala_cancerae_CBS120420_T,SRR7774038.295975,96.00,50,2,0,221,270,334,285,1e-14,82.4
Exophiala_tremulae_CBS129355,SRR7774038.295975,96.00,50,2,0,233,282,334,285,1e-14,82.4
Exophiala_equina_CBS116009,SRR7774038.295975,96.00,50,2,0,199,248,334,285,1e-14,82.4
Exophiala_alcalophila_CBS520.82_T,SRR7774038.295975,96.00,50,2,0,210,259,334,285,1e-14,82.4
Exophiala_crusticola_CBS119970_T,SRR7774038.295975,96.00,50,2,0,215,264,334,285,1e-14,82.4
Rhinocladiella_atrovirens_CBS264.49,SRR7774038.295975,96.00,50,2,0,241,290,334,285,1e-14,82.4
Rhinocladiella_basitona_CBS101460_T,SRR7774038.295975,96.00,50,2,0,200,249,334,285,1e-14,82.4
Rhinocladiella_phaeophora_CBS496.78_T,SRR7774038.295975,96.00,50,2,0,208,257,334,285,1e-14,82.4
Rhinocladiella_aquaspersa_CBS313.73_T,SRR7774038.295975,96.00,50,2,0,202,251,334,285,1e-14,82.4
Rhinocladiella_fasciculata_CBS132.86_T,SRR7774038.295975,96.00,50,2,0,218,267,334,285,1e-14,82.4
Rhinocladiella_anceps_CBS181.65_T,SRR7774038.295975,96.00,50,2,0,200,249,334,285,1e-14,82.4
Rhinocladiella_mackenziei_CBS367.92,SRR7774038.295975,96.00,50,2,0,189,238,334,285,1e-14,82.4
Veronaea_compacta_CBS268.75_T,SRR7774038.295975,96.00,50,2,0,222,271,334,285,1e-14,82.4
Capronia_pilosella_AFTOL-ID657,SRR7774038.295975,96.00,50,2,0,300,349,334,285,2e-14,82.4
Capronia_dactylotricha_DAOM208471_T,SRR7774038.295975,96.00,50,2,0,202,251,334,285,1e-14,82.4
Capronia_kleinmondensis_CBS122671_T,SRR7774038.295975,96.00,50,2,0,227,276,334,285,1e-14,82.4
Capronia_mansonii_CBS101.67_T,SRR7774038.295975,96.00,50,2,0,213,262,334,285,1e-14,82.4
Capronia_munkii_DAOM216390_T,SRR7774038.295975,96.00,50,2,0,213,262,334,285,1e-14,82.4
Capronia_coronata_ATCC56201_T,SRR7774038.295975,96.00,50,2,0,201,250,334,285,1e-14,82.4
Capronia_parasitica_CBS123.88,SRR7774038.295975,96.00,50,2,0,207,256,334,285,1e-14,82.4
Veronaea_japonica_CBS776.83_T,SRR7774038.295975,96.00,50,2,0,235,284,334,285,1e-14,82.4
Thysanorea_papuana_CBS212.96_T,SRR7774038.295975,96.00,50,2,0,209,258,334,285,1e-14,82.4
Capronia_acutiseta_ATCC56428_T,SRR7774038.295975,96.00,50,2,0,203,252,334,285,1e-14,82.4
Fonsecaea_brasiliensis_CBS119710_T,SRR7774038.295975,96.00,50,2,0,209,258,334,285,1e-14,82.4
Fonsecaea_pedrosoi_CBS271.37_T,SRR7774038.295975,96.00,50,2,0,237,286,334,285,1e-14,82.4
Fonsecaea_multimorphosa_CBS980.96_T,SRR7774038.295975,96.00,50,2,0,207,256,334,285,1e-14,82.4
Fonsecaea_minima_CBS125760_T,SRR7774038.295975,96.00,50,2,0,203,252,334,285,1e-14,82.4
Fonsecaea_nubica_CBS269.64_T,SRR7774038.295975,96.00,50,2,0,214,263,334,285,1e-14,82.4
Fonsecaea_monophora_CBS269.37_T,SRR7774038.295975,96.00,50,2,0,214,263,334,285,1e-14,82.4
Fonsecaea_erecta_CBS125763_T,SRR7774038.295975,96.00,50,2,0,198,247,334,285,1e-14,82.4
Fonsecaea_pugnacius_CBS139214_T,SRR7774038.295975,96.00,50,2,0,207,256,334,285,1e-14,82.4
Cladophialophora_psammophila_CBS,SRR7774038.295975,96.00,50,2,0,213,262,334,285,1e-14,82.4
Cladophialophora_devriesii_CBS,SRR7774038.295975,96.00,50,2,0,209,258,334,285,1e-14,82.4
Cladophialophora_immunda_CBS834.96,SRR7774038.295975,96.00,50,2,0,211,260,334,285,1e-14,82.4
Cladophialophora_arxii_CBS306.94_T,SRR7774038.295975,96.00,50,2,0,213,262,334,285,1e-14,82.4
Cladophialophora_bantiana_CBS173.52,SRR7774038.295975,96.00,50,2,0,207,256,334,285,1e-14,82.4
Cladophialophora_emmonsii_CBS102594,SRR7774038.295975,96.00,50,2,0,198,247,334,285,1e-14,82.4
Cladophialophora_minourae_CBS556.83,SRR7774038.295975,96.00,50,2,0,206,255,334,285,1e-14,82.4
Cladophialophora_australiensis_CBS112793,SRR7774038.295975,96.00,50,2,0,208,257,334,285,3e-14,82.4
Cladophialophora_potulentorum_CBS112222,SRR7774038.295975,96.00,50,2,0,207,256,334,285,3e-14,82.4
Cladophialophora_matsushimae_CMRP1198,SRR7774038.295975,96.00,50,2,0,211,260,334,285,1e-14,82.4
Cladophialophora_mycetomatis_CBS122637,SRR7774038.295975,96.00,50,2,0,196,245,334,285,1e-14,82.4
Cladophialophora_chaetospira_CBS127573,SRR7774038.295975,93.62,47,3,0,605,651,331,285,5e-11,71.3
Cladophialophora_boppii_CBS126.86_T,SRR7774038.295975,96.00,50,2,0,204,253,334,285,1e-14,82.4
Cladophialophora_abundans_CBS126736,SRR7774038.295975,96.00,50,2,0,141,190,334,285,1e-14,82.4
Capronia_semi-immersa_CBS102234,SRR7774038.295975,96.00,50,2,0,203,252,334,285,1e-14,82.4
Phialophora_americana_CBS400.67,SRR7774038.295975,96.00,50,2,0,205,254,334,285,3e-14,82.4
Phialophora_verrucosa_CBS140325_T,SRR7774038.295975,96.00,50,2,0,209,258,334,285,1e-14,82.4
Cladophialophora_samoensis_CBS259.83_T,SRR7774038.295975,96.00,50,2,0,209,258,334,285,1e-14,82.4
Cladophialophora_carrionii_CBS260.83,SRR7774038.295975,96.00,50,2,0,225,274,334,285,1e-14,82.4
Exophiala_palmae_UPCB86822_T,SRR7774038.295975,96.00,50,2,0,168,217,334,285,1e-14,82.4
Cladophialophora_yegresii_CBS114405_T,SRR7774038.295975,96.00,50,2,0,210,259,334,285,1e-14,82.4
Knufia_epidermidis_CBS120353_T,SRR7774038.295975,96.00,50,2,0,208,257,334,285,1e-14,82.4
Arthrocladium_fulminans_CBS136243_T,SRR7774038.295975,96.00,50,2,0,203,252,334,285,1e-14,82.4
Anthopsis_deltoidea_CBS263.77_T,SRR7774038.295975,96.00,50,2,0,212,261,334,285,1e-14,82.4
Cyphellophora_laciniata_CBS190.61_T,SRR7774038.295975,96.00,50,2,0,297,346,334,285,2e-14,82.4
Cyphellophora_suttonii_CBS449.91,SRR7774038.295975,96.00,50,2,0,200,249,334,285,1e-14,82.4
Cyphellophora_pauciseptata_CBS284.85_T,SRR7774038.295975,96.00,50,2,0,211,260,334,285,1e-14,82.4
Phialophora_europaea_CBS101466,SRR7774038.295975,90.00,70,3,3,190,255,354,285,3e-16,87.9
Phialophora_ambigua_CBS235.93,SRR7774038.295975,96.00,50,2,0,203,252,334,285,1e-14,82.4
Cladophialophora_modesta_CBS985.96_T,SRR7774038.295975,96.00,50,2,0,200,249,334,285,1e-14,82.4
Cyphellophora_fusarioides_MUCL44033_T,SRR7774038.295975,96.00,50,2,0,199,248,334,285,1e-14,82.4
