Exophiala_nigra_CBS535.94_T,SRR7698584.357,90.00,200,16,4,174,373,3262,3457,3e-67,255
Exophiala_spinifera_CBS899.68_T,SRR7698584.357,89.45,199,16,5,189,387,3279,3472,2e-64,246
Exophiala_exophialae_CBS668.76_T,SRR7698584.357,89.45,199,16,5,190,388,3279,3472,2e-64,246
Exophiala_polymorpha_CBS138920_T,SRR7698584.357,89.74,195,16,4,296,490,3282,3472,2e-64,246
Exophiala_polymorpha_CBS138920_T,SRR7698584.357,100.00,53,0,0,642,694,3595,3647,7e-20,99.0
Exophiala_polymorpha_CBS138920_T,SRR7698584.1044,100.00,29,0,0,82,110,418,390,2e-06,54.7
Exophiala_oligosperma_CBS725.88_T,SRR7698584.357,89.95,199,16,4,202,400,3278,3472,1e-66,254
Exophiala_jeanselmei_CBS507.90_T,SRR7698584.357,89.50,200,16,5,193,392,3278,3472,6e-65,248
Exophiala_jeanselmei_CBS507.90_T,SRR7698584.357,100.00,62,0,0,543,604,3594,3655,6e-25,115
Exophiala_bergeri_CBS353.52,SRR7698584.357,89.60,202,15,6,135,336,3262,3457,4e-66,252
Exophiala_moniliae_CBS520.76_T,SRR7698584.357,90.71,183,14,3,191,373,3278,3457,9e-63,241
Exophiala_pisciphila_CBS537.73_T,SRR7698584.357,90.00,200,15,5,194,393,3278,3472,1e-66,254
Exophiala_pisciphila_CBS537.73_T,SRR7698584.357,96.26,107,3,1,548,653,3589,3695,1e-42,174
Exophiala_xenobiotica_CBS117642,SRR7698584.357,89.35,216,18,5,170,385,3262,3472,1e-70,267
Exophiala_brunnea_CBS,SRR7698584.357,89.74,195,16,4,227,421,3282,3472,2e-64,246
Exophiala_brunnea_CBS,SRR7698584.1044,100.00,42,0,0,1,42,431,390,8e-14,78.7
Exophiala_nishimurae_CBS101538_T,SRR7698584.357,89.74,195,16,4,205,399,3282,3472,2e-64,246
Exophiala_nishimurae_CBS101538_T,SRR7698584.357,100.00,42,0,0,550,591,3594,3635,8e-14,78.7
Exophiala_mesophila_CBS402.95_T,SRR7698584.357,91.06,179,14,2,188,366,3281,3457,1e-62,241
Exophiala_mesophila_CBS402.95_T,SRR7698584.357,96.30,108,3,1,544,650,3588,3695,3e-43,176
Exophiala_castellanii_CBS158.58_T,SRR7698584.357,91.06,179,14,2,186,364,3281,3457,1e-62,241
Exophiala_castellanii_CBS158.58_T,SRR7698584.357,98.02,101,2,0,549,649,3595,3695,3e-43,176
Exophiala_lecanii-corni_CBS123.33_T,SRR7698584.357,90.45,178,15,2,210,387,3282,3457,2e-60,233
Exophiala_dermatitidis_CBS748.88,SRR7698584.357,82.53,939,130,30,574,1502,3594,4508,0.0,795
Exophiala_dermatitidis_CBS748.88,SRR7698584.357,87.61,218,17,9,183,397,3262,3472,2e-63,244
Exophiala_dermatitidis_CBS748.88,SRR7698584.8487,79.40,398,60,20,912,1301,387,4,2e-68,261
Exophiala_dermatitidis_CBS748.88,SRR7698584.567,89.78,137,14,0,1368,1504,1842,1978,7e-43,176
Exophiala_dermatitidis_CBS748.88,SRR7698584.567,100.00,36,0,0,1210,1245,1641,1676,4e-10,67.6
Exophiala_dermatitidis_CBS748.88,SRR7698584.2,93.10,87,6,0,879,965,1261025,1260939,2e-28,128
Exophiala_angulospora_CBS482.92_T,SRR7698584.357,89.50,200,16,4,189,388,3278,3472,5e-65,248
Exophiala_opportunistica_CBS109811_T,SRR7698584.357,90.50,200,14,4,187,386,3278,3472,2e-68,259
Exophiala_salmonis_CBS157.67_T,SRR7698584.357,90.00,200,15,5,316,515,3278,3472,2e-66,254
Exophiala_salmonis_CBS157.67_T,SRR7698584.357,96.26,107,3,1,668,773,3589,3695,1e-42,174
Exophiala_salmonis_CBS157.67_T,SRR7698584.357,89.34,122,13,0,1,122,2986,3107,2e-36,154
Exophiala_salmonis_CBS157.67_T,SRR7698584.71,85.19,81,12,0,42,122,182784,182704,2e-15,84.2
Exophiala_aquamarina_CBS119918_T,SRR7698584.357,89.55,201,15,6,194,394,3278,3472,1e-65,250
Exophiala_cancerae_CBS120420_T,SRR7698584.357,90.50,200,14,4,209,408,3278,3472,3e-68,259
Exophiala_cancerae_CBS120420_T,SRR7698584.357,97.01,67,2,0,558,624,3589,3655,2e-24,113
Exophiala_tremulae_CBS129355,SRR7698584.357,90.00,200,15,5,221,420,3278,3472,1e-66,254
Exophiala_tremulae_CBS129355,SRR7698584.1044,100.00,42,0,0,1,42,431,390,8e-14,78.7
Exophiala_equina_CBS116009,SRR7698584.357,90.00,200,15,5,187,386,3278,3472,1e-66,254
Exophiala_alcalophila_CBS520.82_T,SRR7698584.357,89.29,196,16,4,203,398,3282,3472,9e-63,241
Exophiala_crusticola_CBS119970_T,SRR7698584.357,91.95,174,12,2,212,385,3286,3457,2e-63,243
Rhinocladiella_atrovirens_CBS264.49,SRR7698584.357,90.50,179,15,2,233,411,3281,3457,5e-61,235
Rhinocladiella_atrovirens_CBS264.49,SRR7698584.1044,100.00,44,0,0,1,44,436,393,6e-15,82.4
Rhinocladiella_basitona_CBS101460_T,SRR7698584.357,89.45,199,16,5,189,387,3279,3472,2e-64,246
Rhinocladiella_phaeophora_CBS496.78_T,SRR7698584.357,91.91,173,12,2,206,378,3287,3457,9e-63,241
Rhinocladiella_aquaspersa_CBS313.73_T,SRR7698584.357,91.91,173,12,2,200,372,3287,3457,1e-62,241
Rhinocladiella_aquaspersa_CBS313.73_T,SRR7698584.357,94.39,107,3,3,547,650,3594,3700,8e-39,161
Rhinocladiella_fasciculata_CBS132.86_T,SRR7698584.357,90.75,173,14,2,216,388,3287,3457,2e-59,230
Rhinocladiella_anceps_CBS181.65_T,SRR7698584.357,88.56,201,17,5,188,388,3278,3472,3e-62,239
Rhinocladiella_mackenziei_CBS367.92,SRR7698584.357,90.96,177,14,2,182,358,3282,3456,1e-61,237
Rhinocladiella_mackenziei_CBS367.92,SRR7698584.1044,100.00,29,0,0,1,29,418,390,1e-06,54.7
Veronaea_compacta_CBS268.75_T,SRR7698584.357,89.29,196,16,5,215,410,3282,3472,9e-63,241
Veronaea_compacta_CBS268.75_T,SRR7698584.1044,100.00,30,0,0,1,30,419,390,4e-07,56.5
Capronia_pilosella_AFTOL-ID657,SRR7698584.357,90.00,200,15,4,289,488,3278,3472,1e-66,254
Capronia_pilosella_AFTOL-ID657,SRR7698584.357,100.00,42,0,0,642,683,3594,3635,9e-14,78.7
Capronia_dactylotricha_DAOM208471_T,SRR7698584.357,91.06,179,12,3,196,373,3282,3457,4e-62,239
Capronia_dactylotricha_DAOM208471_T,SRR7698584.357,97.03,101,3,0,558,658,3595,3695,1e-41,171
Capronia_kleinmondensis_CBS122671_T,SRR7698584.357,90.11,182,15,3,216,397,3279,3457,2e-60,233
Capronia_kleinmondensis_CBS122671_T,SRR7698584.357,97.03,101,3,0,564,664,3595,3695,1e-41,171
Capronia_kleinmondensis_CBS122671_T,SRR7698584.1044,100.00,30,0,0,1,30,422,393,4e-07,56.5
Capronia_mansonii_CBS101.67_T,SRR7698584.357,89.76,205,14,6,198,401,3274,3472,4e-67,255
Capronia_mansonii_CBS101.67_T,SRR7698584.357,98.04,102,2,0,567,668,3594,3695,9e-44,178
Capronia_munkii_DAOM216390_T,SRR7698584.357,89.76,205,14,6,198,401,3274,3472,4e-67,255
Capronia_munkii_DAOM216390_T,SRR7698584.357,97.22,108,2,1,562,668,3588,3695,7e-45,182
Capronia_coronata_ATCC56201_T,SRR7698584.357,89.50,200,16,4,190,389,3278,3472,6e-65,248
Capronia_coronata_ATCC56201_T,SRR7698584.357,98.04,102,2,0,538,639,3594,3695,8e-44,178
Capronia_parasitica_CBS123.88,SRR7698584.357,90.86,175,13,3,202,375,3283,3455,6e-60,231
Veronaea_japonica_CBS776.83_T,SRR7698584.357,90.26,195,15,4,228,422,3282,3472,4e-66,252
Veronaea_japonica_CBS776.83_T,SRR7698584.1044,100.00,41,0,0,1,41,430,390,3e-13,76.8
Thysanorea_papuana_CBS212.96_T,SRR7698584.357,90.05,201,15,4,196,396,3277,3472,3e-67,255
Capronia_acutiseta_ATCC56428_T,SRR7698584.357,90.61,181,13,4,191,370,3278,3455,1e-61,237
Capronia_acutiseta_ATCC56428_T,SRR7698584.357,95.33,107,5,0,532,638,3589,3695,1e-41,171
Fonsecaea_brasiliensis_CBS119710_T,SRR7698584.357,90.05,191,14,4,207,397,3287,3472,2e-63,243
Fonsecaea_pedrosoi_CBS271.37_T,SRR7698584.357,89.58,192,14,5,235,426,3287,3472,4e-62,239
Fonsecaea_pedrosoi_CBS271.37_T,SRR7698584.357,98.39,62,1,0,584,645,3594,3655,3e-23,110
Fonsecaea_pedrosoi_CBS271.37_T,SRR7698584.1044,100.00,31,0,0,1,31,422,392,1e-07,58.4
Fonsecaea_multimorphosa_CBS980.96_T,SRR7698584.357,90.58,191,13,5,205,395,3287,3472,5e-65,248
Fonsecaea_minima_CBS125760_T,SRR7698584.357,90.05,191,14,4,201,391,3287,3472,2e-63,243
Fonsecaea_nubica_CBS269.64_T,SRR7698584.357,89.58,192,14,5,212,403,3287,3472,3e-62,239
Fonsecaea_monophora_CBS269.37_T,SRR7698584.357,89.12,193,14,6,212,404,3287,3472,2e-60,233
Fonsecaea_erecta_CBS125763_T,SRR7698584.357,90.58,191,13,4,196,386,3287,3472,5e-65,248
Fonsecaea_pugnacius_CBS139214_T,SRR7698584.357,91.38,174,12,3,205,378,3287,3457,4e-61,235
Cladophialophora_psammophila_CBS,SRR7698584.357,90.58,191,13,4,211,401,3287,3472,5e-65,248
Cladophialophora_devriesii_CBS,SRR7698584.357,90.58,191,13,5,207,397,3287,3472,5e-65,248
Cladophialophora_immunda_CBS834.96,SRR7698584.357,90.05,191,14,4,209,399,3287,3472,2e-63,243
Cladophialophora_arxii_CBS306.94_T,SRR7698584.357,89.12,193,14,5,211,403,3287,3472,1e-60,233
Cladophialophora_bantiana_CBS173.52,SRR7698584.357,90.58,191,13,4,205,395,3287,3472,5e-65,248
Cladophialophora_emmonsii_CBS102594,SRR7698584.357,91.91,173,12,2,196,368,3287,3457,9e-63,241
Cladophialophora_minourae_CBS556.83,SRR7698584.357,87.50,192,18,5,204,395,3287,3472,4e-56,219
Cladophialophora_australiensis_CBS112793,SRR7698584.357,81.64,937,147,24,541,1469,3589,4508,0.0,754
Cladophialophora_australiensis_CBS112793,SRR7698584.357,90.00,190,15,3,206,395,3287,3472,7e-63,243
Cladophialophora_australiensis_CBS112793,SRR7698584.8487,78.99,395,64,18,882,1268,387,4,1e-65,252
Cladophialophora_australiensis_CBS112793,SRR7698584.567,89.78,137,14,0,1335,1471,1842,1978,7e-43,176
Cladophialophora_australiensis_CBS112793,SRR7698584.567,93.62,47,3,0,1177,1223,1641,1687,3e-11,71.3
Cladophialophora_australiensis_CBS112793,SRR7698584.2,93.10,87,6,0,849,935,1261025,1260939,2e-28,128
Cladophialophora_potulentorum_CBS112222,SRR7698584.357,82.18,954,146,22,547,1493,3594,4530,0.0,798
Cladophialophora_potulentorum_CBS112222,SRR7698584.357,89.00,200,17,4,195,394,3278,3472,7e-63,243
Cladophialophora_potulentorum_CBS112222,SRR7698584.8487,78.73,395,65,17,884,1270,387,4,5e-64,246
Cladophialophora_potulentorum_CBS112222,SRR7698584.567,90.13,152,15,0,1337,1488,1842,1993,1e-49,198
Cladophialophora_potulentorum_CBS112222,SRR7698584.567,100.00,36,0,0,1179,1214,1641,1676,4e-10,67.6
Cladophialophora_potulentorum_CBS112222,SRR7698584.2,93.10,87,6,0,851,937,1261025,1260939,2e-28,128
Cladophialophora_matsushimae_CMRP1198,SRR7698584.357,89.86,207,15,5,192,398,3272,3472,6e-69,261
Cladophialophora_mycetomatis_CBS122637,SRR7698584.357,89.76,205,15,5,179,383,3274,3472,9e-68,257
Cladophialophora_chaetospira_CBS127573,SRR7698584.357,89.53,191,16,3,599,789,3286,3472,5e-62,239
Cladophialophora_chaetospira_CBS127573,SRR7698584.1044,100.00,34,0,0,379,412,423,390,4e-09,63.9
Cladophialophora_boppii_CBS126.86_T,SRR7698584.357,90.58,191,14,4,201,391,3286,3472,1e-65,250
Cladophialophora_abundans_CBS126736,SRR7698584.357,90.58,191,14,3,138,328,3286,3472,1e-65,250
Capronia_semi-immersa_CBS102234,SRR7698584.357,88.95,190,17,3,201,390,3287,3472,5e-60,231
Phialophora_americana_CBS400.67,SRR7698584.357,82.59,902,129,26,539,1431,3594,4476,0.0,771
Phialophora_americana_CBS400.67,SRR7698584.357,88.95,190,17,3,203,392,3287,3472,1e-59,231
Phialophora_americana_CBS400.67,SRR7698584.8487,78.17,394,69,15,876,1262,387,4,1e-60,235
Phialophora_americana_CBS400.67,SRR7698584.567,88.03,117,14,0,1329,1445,1842,1958,9e-32,139
Phialophora_americana_CBS400.67,SRR7698584.567,100.00,36,0,0,1171,1206,1641,1676,4e-10,67.6
Phialophora_americana_CBS400.67,SRR7698584.2,91.95,87,7,0,843,929,1261025,1260939,9e-27,122
Phialophora_verrucosa_CBS140325_T,SRR7698584.357,88.95,190,17,3,207,396,3287,3472,6e-60,231
Phialophora_verrucosa_CBS140325_T,SRR7698584.357,97.62,42,1,0,545,586,3594,3635,4e-12,73.1
Cladophialophora_samoensis_CBS259.83_T,SRR7698584.357,91.05,190,13,3,207,396,3287,3472,1e-66,254
Cladophialophora_carrionii_CBS260.83,SRR7698584.357,90.00,190,15,3,223,412,3287,3472,3e-63,243
Cladophialophora_carrionii_CBS260.83,SRR7698584.357,98.04,51,1,0,558,608,3594,3644,4e-17,89.8
Exophiala_palmae_UPCB86822_T,SRR7698584.357,91.57,178,13,2,161,338,3282,3457,6e-64,244
Cladophialophora_yegresii_CBS114405_T,SRR7698584.357,90.00,190,15,3,208,397,3287,3472,2e-63,243
Knufia_epidermidis_CBS120353_T,SRR7698584.357,91.16,181,14,2,196,376,3277,3455,7e-64,244
Arthrocladium_fulminans_CBS136243_T,SRR7698584.357,90.12,172,15,2,200,371,3286,3455,3e-57,222
Arthrocladium_fulminans_CBS136243_T,SRR7698584.357,100.00,28,0,0,533,560,3595,3622,4e-06,52.8
Anthopsis_deltoidea_CBS263.77_T,SRR7698584.357,89.84,187,17,2,210,395,3287,3472,3e-62,239
Cyphellophora_laciniata_CBS190.61_T,SRR7698584.357,90.22,225,15,7,268,490,3262,3481,1e-76,287
Cyphellophora_laciniata_CBS190.61_T,SRR7698584.357,99.02,102,1,0,634,735,3594,3695,2e-45,183
Cyphellophora_laciniata_CBS190.61_T,SRR7698584.357,88.79,107,12,0,1,107,3040,3146,7e-30,132
Cyphellophora_laciniata_CBS190.61_T,SRR7698584.1044,93.33,75,5,0,26,100,467,393,1e-23,111
Cyphellophora_laciniata_CBS190.61_T,SRR7698584.71,84.00,75,12,0,1,75,182771,182697,5e-12,73.1
Cyphellophora_suttonii_CBS449.91,SRR7698584.357,91.98,212,15,2,173,383,3262,3472,2e-79,296
Cyphellophora_pauciseptata_CBS284.85_T,SRR7698584.357,91.51,212,16,2,184,394,3262,3472,8e-78,291
Cyphellophora_pluriseptata_CBS286.85_T,SRR7698584.357,90.36,197,16,3,204,399,3278,3472,3e-67,255
Phialophora_europaea_CBS101466,SRR7698584.357,90.59,202,15,3,189,389,3274,3472,5e-70,265
Phialophora_ambigua_CBS235.93,SRR7698584.357,89.73,224,17,6,176,396,3262,3482,5e-75,281
Cladophialophora_modesta_CBS985.96_T,SRR7698584.357,90.21,194,16,3,193,386,3282,3472,2e-65,250
Cladophialophora_modesta_CBS985.96_T,SRR7698584.357,98.13,107,1,1,514,619,3589,3695,5e-46,185
Cyphellophora_fusarioides_MUCL44033_T,SRR7698584.357,91.08,213,16,3,171,382,3262,3472,4e-76,285
