Exophiala_brunnea_CBS,ERR2721176.4523326,100.00,30,0,0,9,38,54,25,6e-06,56.5
Exophiala_dermatitidis_CBS748.88,ERR2721176.9790046,93.65,63,4,0,1198,1260,39,101,3e-17,95.3
Exophiala_dermatitidis_CBS748.88,ERR2721176.3070333,93.65,63,4,0,1198,1260,39,101,3e-17,95.3
Exophiala_dermatitidis_CBS748.88,ERR2721176.3964606,96.36,55,2,0,1450,1504,99,45,4e-16,91.6
Exophiala_dermatitidis_CBS748.88,ERR2721176.8341223,93.88,49,3,0,907,955,58,10,4e-11,75.0
Exophiala_dermatitidis_CBS748.88,ERR2721176.12758834,100.00,30,0,0,1213,1242,58,29,1e-05,56.5
Exophiala_dermatitidis_CBS748.88,ERR2721176.8629049,100.00,30,0,0,1213,1242,75,46,1e-05,56.5
Exophiala_dermatitidis_CBS748.88,ERR2721176.7317429,100.00,30,0,0,1213,1242,95,66,1e-05,56.5
Exophiala_dermatitidis_CBS748.88,ERR2721176.2135307,100.00,30,0,0,1213,1242,42,13,1e-05,56.5
Exophiala_tremulae_CBS129355,ERR2721176.4523326,100.00,30,0,0,9,38,54,25,6e-06,56.5
Rhinocladiella_atrovirens_CBS264.49,ERR2721176.4523326,100.00,30,0,0,14,43,54,25,6e-06,56.5
Capronia_kleinmondensis_CBS122671_T,ERR2721176.4523326,100.00,29,0,0,1,29,53,25,2e-05,54.7
Veronaea_japonica_CBS776.83_T,ERR2721176.4523326,100.00,30,0,0,8,37,54,25,6e-06,56.5
Fonsecaea_pedrosoi_CBS271.37_T,ERR2721176.4523326,100.00,29,0,0,1,29,53,25,2e-05,54.7
Cladophialophora_australiensis_CBS112793,ERR2721176.3964606,96.36,55,2,0,1417,1471,99,45,4e-16,91.6
Cladophialophora_australiensis_CBS112793,ERR2721176.9790046,90.48,63,6,0,1165,1227,39,101,6e-14,84.2
Cladophialophora_australiensis_CBS112793,ERR2721176.3070333,90.48,63,6,0,1165,1227,39,101,6e-14,84.2
Cladophialophora_australiensis_CBS112793,ERR2721176.8341223,93.88,49,3,0,877,925,58,10,4e-11,75.0
Cladophialophora_australiensis_CBS112793,ERR2721176.12758834,100.00,30,0,0,1180,1209,58,29,1e-05,56.5
Cladophialophora_australiensis_CBS112793,ERR2721176.8629049,100.00,30,0,0,1180,1209,75,46,1e-05,56.5
Cladophialophora_australiensis_CBS112793,ERR2721176.7317429,100.00,30,0,0,1180,1209,95,66,1e-05,56.5
Cladophialophora_australiensis_CBS112793,ERR2721176.2135307,100.00,30,0,0,1180,1209,42,13,1e-05,56.5
Cladophialophora_potulentorum_CBS112222,ERR2721176.3964606,94.67,75,4,0,1419,1493,99,25,6e-24,117
Cladophialophora_potulentorum_CBS112222,ERR2721176.9790046,90.48,63,6,0,1167,1229,39,101,7e-14,84.2
Cladophialophora_potulentorum_CBS112222,ERR2721176.3070333,90.48,63,6,0,1167,1229,39,101,7e-14,84.2
Cladophialophora_potulentorum_CBS112222,ERR2721176.8341223,93.88,49,3,0,879,927,58,10,4e-11,75.0
Cladophialophora_potulentorum_CBS112222,ERR2721176.12758834,100.00,30,0,0,1182,1211,58,29,1e-05,56.5
Cladophialophora_potulentorum_CBS112222,ERR2721176.8629049,100.00,30,0,0,1182,1211,75,46,1e-05,56.5
Cladophialophora_potulentorum_CBS112222,ERR2721176.7317429,100.00,30,0,0,1182,1211,95,66,1e-05,56.5
Cladophialophora_potulentorum_CBS112222,ERR2721176.2135307,100.00,30,0,0,1182,1211,42,13,1e-05,56.5
Cladophialophora_chaetospira_CBS127573,ERR2721176.4523326,100.00,31,0,0,378,408,55,25,2e-06,58.4
Phialophora_americana_CBS400.67,ERR2721176.9790046,93.65,63,4,0,1159,1221,39,101,3e-17,95.3
Phialophora_americana_CBS400.67,ERR2721176.3070333,93.65,63,4,0,1159,1221,39,101,3e-17,95.3
Phialophora_americana_CBS400.67,ERR2721176.8341223,95.92,49,2,0,871,919,58,10,8e-13,80.5
Phialophora_americana_CBS400.67,ERR2721176.12758834,100.00,30,0,0,1174,1203,58,29,1e-05,56.5
Phialophora_americana_CBS400.67,ERR2721176.8629049,100.00,30,0,0,1174,1203,75,46,1e-05,56.5
Phialophora_americana_CBS400.67,ERR2721176.7317429,100.00,30,0,0,1174,1203,95,66,1e-05,56.5
Phialophora_americana_CBS400.67,ERR2721176.2135307,100.00,30,0,0,1174,1203,42,13,1e-05,56.5
Cyphellophora_laciniata_CBS190.61_T,ERR2721176.4523326,100.00,30,0,0,70,99,54,25,7e-06,56.5
