Exophiala_nigra_CBS535.94_T,SRR3732146.2936,90.57,106,8,2,287,391,33,137,5e-34,139
Exophiala_nigra_CBS535.94_T,SRR3732146.2474,89.62,106,7,4,287,391,33,135,8e-32,132
Exophiala_nigra_CBS535.94_T,SRR3732146.280,94.25,87,3,2,287,373,33,117,8e-32,132
Exophiala_nigra_CBS535.94_T,SRR3732146.1064,89.52,105,7,3,287,391,33,133,3e-31,130
Exophiala_nigra_CBS535.94_T,SRR3732146.2680,86.87,99,12,1,287,385,33,130,4e-25,110
Exophiala_nigra_CBS535.94_T,SRR3732146.1654,88.51,87,9,1,287,373,33,118,2e-23,104
Exophiala_spinifera_CBS899.68_T,SRR3732146.2936,90.57,106,7,3,284,387,33,137,2e-33,137
Exophiala_spinifera_CBS899.68_T,SRR3732146.280,90.38,104,6,4,284,387,33,132,2e-32,134
Exophiala_spinifera_CBS899.68_T,SRR3732146.2474,89.52,105,8,3,284,387,33,135,3e-31,130
Exophiala_spinifera_CBS899.68_T,SRR3732146.1064,89.42,104,8,3,284,387,33,133,9e-31,128
Exophiala_spinifera_CBS899.68_T,SRR3732146.2680,85.71,105,13,2,284,387,33,136,3e-25,110
Exophiala_spinifera_CBS899.68_T,SRR3732146.1654,88.51,87,9,1,284,370,33,118,2e-23,104
Exophiala_exophialae_CBS668.76_T,SRR3732146.2936,90.57,106,7,3,285,388,33,137,2e-33,137
Exophiala_exophialae_CBS668.76_T,SRR3732146.280,90.38,104,6,4,285,388,33,132,2e-32,134
Exophiala_exophialae_CBS668.76_T,SRR3732146.2474,89.52,105,8,3,285,388,33,135,3e-31,130
Exophiala_exophialae_CBS668.76_T,SRR3732146.1064,89.42,104,8,3,285,388,33,133,9e-31,128
Exophiala_exophialae_CBS668.76_T,SRR3732146.2680,85.71,105,13,2,285,388,33,136,3e-25,110
Exophiala_exophialae_CBS668.76_T,SRR3732146.1654,88.51,87,9,1,285,371,33,118,2e-23,104
Exophiala_polymorpha_CBS138920_T,SRR3732146.2936,90.57,106,7,3,387,490,33,137,2e-33,137
Exophiala_polymorpha_CBS138920_T,SRR3732146.2936,100.00,51,0,0,644,694,266,316,1e-20,95.3
Exophiala_polymorpha_CBS138920_T,SRR3732146.280,90.38,104,6,4,387,490,33,132,3e-32,134
Exophiala_polymorpha_CBS138920_T,SRR3732146.2474,89.52,105,8,3,387,490,33,135,3e-31,130
Exophiala_polymorpha_CBS138920_T,SRR3732146.1064,89.42,104,8,3,387,490,33,133,1e-30,128
Exophiala_polymorpha_CBS138920_T,SRR3732146.1064,98.08,52,1,0,643,694,258,309,2e-19,91.6
Exophiala_polymorpha_CBS138920_T,SRR3732146.2680,85.71,105,13,2,387,490,33,136,4e-25,110
Exophiala_polymorpha_CBS138920_T,SRR3732146.2680,98.04,51,1,0,644,694,280,330,6e-19,89.8
Exophiala_polymorpha_CBS138920_T,SRR3732146.1654,88.51,87,9,1,387,473,33,118,2e-23,104
Exophiala_polymorpha_CBS138920_T,SRR3732146.1131,96.23,53,2,0,642,694,256,308,2e-18,87.9
Exophiala_oligosperma_CBS725.88_T,SRR3732146.2936,90.57,106,7,3,297,400,33,137,2e-33,137
Exophiala_oligosperma_CBS725.88_T,SRR3732146.280,88.70,115,8,4,297,411,33,142,6e-33,135
Exophiala_oligosperma_CBS725.88_T,SRR3732146.2474,89.52,105,8,3,297,400,33,135,3e-31,130
Exophiala_oligosperma_CBS725.88_T,SRR3732146.1064,89.42,104,8,3,297,400,33,133,9e-31,128
Exophiala_oligosperma_CBS725.88_T,SRR3732146.2680,85.71,105,13,2,297,400,33,136,3e-25,110
Exophiala_oligosperma_CBS725.88_T,SRR3732146.1654,88.51,87,9,1,297,383,33,118,2e-23,104
Exophiala_jeanselmei_CBS507.90_T,SRR3732146.2936,90.57,106,7,3,289,392,33,137,2e-33,137
Exophiala_jeanselmei_CBS507.90_T,SRR3732146.2936,100.00,59,0,0,546,604,266,324,4e-25,110
Exophiala_jeanselmei_CBS507.90_T,SRR3732146.280,88.03,117,9,4,289,405,33,144,2e-32,134
Exophiala_jeanselmei_CBS507.90_T,SRR3732146.2474,89.52,105,8,3,289,392,33,135,3e-31,130
Exophiala_jeanselmei_CBS507.90_T,SRR3732146.1064,89.42,104,8,3,289,392,33,133,1e-30,128
Exophiala_jeanselmei_CBS507.90_T,SRR3732146.1064,98.33,60,1,0,545,604,258,317,5e-24,106
Exophiala_jeanselmei_CBS507.90_T,SRR3732146.2680,85.71,105,13,2,289,392,33,136,4e-25,110
Exophiala_jeanselmei_CBS507.90_T,SRR3732146.2680,98.31,59,1,0,546,604,280,338,2e-23,104
Exophiala_jeanselmei_CBS507.90_T,SRR3732146.1654,88.51,87,9,1,289,375,33,118,2e-23,104
Exophiala_jeanselmei_CBS507.90_T,SRR3732146.1131,96.77,62,2,0,543,604,255,316,2e-23,104
Exophiala_jeanselmei_CBS507.90_T,SRR3732146.1647,97.92,48,1,0,557,604,331,378,2e-17,84.2
Exophiala_jeanselmei_CBS507.90_T,SRR3732146.170,97.92,48,1,0,557,604,329,376,2e-17,84.2
Exophiala_bergeri_CBS353.52,SRR3732146.2936,90.57,106,8,2,250,354,33,137,4e-34,139
Exophiala_bergeri_CBS353.52,SRR3732146.280,94.25,87,3,2,250,336,33,117,6e-32,132
Exophiala_bergeri_CBS353.52,SRR3732146.2474,88.68,106,8,3,250,354,33,135,3e-30,126
Exophiala_bergeri_CBS353.52,SRR3732146.1064,93.10,87,5,1,250,336,33,118,3e-30,126
Exophiala_bergeri_CBS353.52,SRR3732146.2680,85.86,99,13,1,250,348,33,130,1e-23,104
Exophiala_bergeri_CBS353.52,SRR3732146.1654,88.51,87,9,1,250,336,33,118,1e-23,104
Exophiala_moniliae_CBS520.76_T,SRR3732146.2936,89.11,101,9,2,287,387,33,131,1e-29,124
Exophiala_moniliae_CBS520.76_T,SRR3732146.280,97.26,73,1,1,287,359,33,104,4e-29,122
Exophiala_moniliae_CBS520.76_T,SRR3732146.1064,91.95,87,6,1,287,373,33,118,2e-28,121
Exophiala_moniliae_CBS520.76_T,SRR3732146.2474,89.89,89,7,2,287,374,33,120,3e-26,113
Exophiala_moniliae_CBS520.76_T,SRR3732146.2680,85.05,107,13,3,287,393,33,136,4e-24,106
Exophiala_moniliae_CBS520.76_T,SRR3732146.1654,89.16,83,7,2,287,368,33,114,6e-23,102
Exophiala_pisciphila_CBS537.73_T,SRR3732146.2936,90.57,106,7,3,290,393,33,137,2e-33,137
Exophiala_pisciphila_CBS537.73_T,SRR3732146.2936,95.52,67,2,1,548,613,258,324,5e-24,106
Exophiala_pisciphila_CBS537.73_T,SRR3732146.2680,81.60,163,23,5,290,449,33,191,1e-30,128
Exophiala_pisciphila_CBS537.73_T,SRR3732146.2680,94.03,67,3,1,548,613,272,338,2e-22,100
Exophiala_pisciphila_CBS537.73_T,SRR3732146.1064,89.42,104,8,3,290,393,33,133,1e-30,128
Exophiala_pisciphila_CBS537.73_T,SRR3732146.1064,100.00,60,0,0,554,613,258,317,1e-25,111
Exophiala_pisciphila_CBS537.73_T,SRR3732146.280,89.42,104,7,4,290,393,33,132,1e-30,128
Exophiala_pisciphila_CBS537.73_T,SRR3732146.2474,88.57,105,9,3,290,393,33,135,1e-29,124
Exophiala_pisciphila_CBS537.73_T,SRR3732146.1131,98.41,63,1,0,551,613,254,316,1e-25,111
Exophiala_pisciphila_CBS537.73_T,SRR3732146.1654,88.64,88,7,3,290,376,33,118,2e-23,104
Exophiala_pisciphila_CBS537.73_T,SRR3732146.1647,95.83,48,2,0,566,613,331,378,1e-15,78.7
Exophiala_pisciphila_CBS537.73_T,SRR3732146.170,95.83,48,2,0,566,613,329,376,1e-15,78.7
Exophiala_xenobiotica_CBS117642,SRR3732146.2936,90.57,106,7,3,282,385,33,137,1e-33,137
Exophiala_xenobiotica_CBS117642,SRR3732146.280,90.38,104,6,4,282,385,33,132,2e-32,134
Exophiala_xenobiotica_CBS117642,SRR3732146.2474,89.52,105,8,3,282,385,33,135,3e-31,130
Exophiala_xenobiotica_CBS117642,SRR3732146.1064,89.42,104,8,3,282,385,33,133,9e-31,128
Exophiala_xenobiotica_CBS117642,SRR3732146.2680,85.71,105,13,2,282,385,33,136,3e-25,110
Exophiala_xenobiotica_CBS117642,SRR3732146.1654,88.51,87,9,1,282,368,33,118,2e-23,104
Exophiala_brunnea_CBS,SRR3732146.2936,89.62,106,8,3,318,421,33,137,8e-32,132
Exophiala_brunnea_CBS,SRR3732146.1064,88.46,104,9,3,318,421,33,133,5e-29,122
Exophiala_brunnea_CBS,SRR3732146.1064,97.96,49,1,0,585,633,258,306,2e-18,87.9
Exophiala_brunnea_CBS,SRR3732146.280,88.46,104,8,4,318,421,33,132,5e-29,122
Exophiala_brunnea_CBS,SRR3732146.2474,87.62,105,10,3,318,421,33,135,6e-28,119
Exophiala_brunnea_CBS,SRR3732146.2680,85.71,105,13,2,318,421,33,136,4e-25,110
Exophiala_brunnea_CBS,SRR3732146.1654,87.50,88,8,3,318,404,33,118,8e-22,99.0
Exophiala_brunnea_CBS,SRR3732146.1131,96.08,51,2,0,583,633,255,305,7e-18,86.1
Exophiala_nishimurae_CBS101538_T,SRR3732146.2936,90.57,106,7,3,296,399,33,137,2e-33,137
Exophiala_nishimurae_CBS101538_T,SRR3732146.2936,100.00,39,0,0,553,591,266,304,5e-14,73.1
Exophiala_nishimurae_CBS101538_T,SRR3732146.280,88.79,116,8,4,296,411,33,143,2e-33,137
Exophiala_nishimurae_CBS101538_T,SRR3732146.2474,89.52,105,8,3,296,399,33,135,3e-31,130
Exophiala_nishimurae_CBS101538_T,SRR3732146.1064,89.42,104,8,3,296,399,33,133,1e-30,128
Exophiala_nishimurae_CBS101538_T,SRR3732146.2680,85.71,105,13,2,296,399,33,136,4e-25,110
Exophiala_nishimurae_CBS101538_T,SRR3732146.2680,97.44,39,1,0,553,591,280,318,2e-12,67.6
Exophiala_nishimurae_CBS101538_T,SRR3732146.1654,88.51,87,9,1,296,382,33,118,2e-23,104
Exophiala_mesophila_CBS402.95_T,SRR3732146.2936,91.30,92,7,1,280,371,33,123,1e-29,124
Exophiala_mesophila_CBS402.95_T,SRR3732146.2936,100.00,59,0,0,552,610,266,324,4e-25,110
Exophiala_mesophila_CBS402.95_T,SRR3732146.1064,91.95,87,6,1,280,366,33,118,2e-28,121
Exophiala_mesophila_CBS402.95_T,SRR3732146.1064,98.33,60,1,0,551,610,258,317,5e-24,106
Exophiala_mesophila_CBS402.95_T,SRR3732146.280,91.95,87,5,2,280,366,33,117,2e-28,121
Exophiala_mesophila_CBS402.95_T,SRR3732146.2474,89.89,89,7,2,280,367,33,120,3e-26,113
Exophiala_mesophila_CBS402.95_T,SRR3732146.2680,98.31,59,1,0,552,610,280,338,2e-23,104
Exophiala_mesophila_CBS402.95_T,SRR3732146.2680,86.81,91,11,1,280,370,33,122,2e-22,100
Exophiala_mesophila_CBS402.95_T,SRR3732146.1131,96.72,61,2,0,550,610,256,316,7e-23,102
Exophiala_mesophila_CBS402.95_T,SRR3732146.1654,87.50,88,8,3,280,366,33,118,9e-22,99.0
Exophiala_mesophila_CBS402.95_T,SRR3732146.1647,97.92,48,1,0,563,610,331,378,2e-17,84.2
Exophiala_mesophila_CBS402.95_T,SRR3732146.170,97.92,48,1,0,563,610,329,376,2e-17,84.2
Exophiala_castellanii_CBS158.58_T,SRR3732146.2936,91.30,92,7,1,278,369,33,123,1e-29,124
Exophiala_castellanii_CBS158.58_T,SRR3732146.2936,100.00,59,0,0,551,609,266,324,4e-25,110
Exophiala_castellanii_CBS158.58_T,SRR3732146.1064,91.95,87,6,1,278,364,33,118,2e-28,121
Exophiala_castellanii_CBS158.58_T,SRR3732146.1064,98.33,60,1,0,550,609,258,317,5e-24,106
Exophiala_castellanii_CBS158.58_T,SRR3732146.280,91.95,87,5,2,278,364,33,117,2e-28,121
Exophiala_castellanii_CBS158.58_T,SRR3732146.2474,89.89,89,7,2,278,365,33,120,3e-26,113
Exophiala_castellanii_CBS158.58_T,SRR3732146.2680,98.31,59,1,0,551,609,280,338,2e-23,104
Exophiala_castellanii_CBS158.58_T,SRR3732146.2680,86.81,91,11,1,278,368,33,122,2e-22,100
Exophiala_castellanii_CBS158.58_T,SRR3732146.1131,94.12,68,4,0,542,609,249,316,2e-23,104
Exophiala_castellanii_CBS158.58_T,SRR3732146.1654,87.50,88,8,3,278,364,33,118,9e-22,99.0
Exophiala_castellanii_CBS158.58_T,SRR3732146.1647,97.92,48,1,0,562,609,331,378,2e-17,84.2
Exophiala_castellanii_CBS158.58_T,SRR3732146.170,97.92,48,1,0,562,609,329,376,2e-17,84.2
Exophiala_lecanii-corni_CBS123.33_T,SRR3732146.280,91.95,87,5,2,301,387,33,117,2e-28,121
Exophiala_lecanii-corni_CBS123.33_T,SRR3732146.2936,90.22,92,8,1,301,392,33,123,6e-28,119
Exophiala_lecanii-corni_CBS123.33_T,SRR3732146.1064,90.80,87,7,1,301,387,33,118,8e-27,115
Exophiala_lecanii-corni_CBS123.33_T,SRR3732146.2474,89.89,89,7,2,301,388,33,120,3e-26,113
Exophiala_lecanii-corni_CBS123.33_T,SRR3732146.2680,85.71,91,12,1,301,391,33,122,1e-20,95.3
Exophiala_lecanii-corni_CBS123.33_T,SRR3732146.1654,86.36,88,9,3,301,387,33,118,4e-20,93.5
Exophiala_dermatitidis_CBS748.88,SRR3732146.2936,91.51,106,7,2,293,397,33,137,3e-35,145
Exophiala_dermatitidis_CBS748.88,SRR3732146.2936,100.00,59,0,0,577,635,266,324,9e-25,110
Exophiala_dermatitidis_CBS748.88,SRR3732146.1064,93.10,87,5,1,293,379,33,118,9e-30,126
Exophiala_dermatitidis_CBS748.88,SRR3732146.1064,98.33,60,1,0,576,635,258,317,1e-23,106
Exophiala_dermatitidis_CBS748.88,SRR3732146.280,93.10,87,4,2,293,379,33,117,9e-30,126
Exophiala_dermatitidis_CBS748.88,SRR3732146.2474,87.74,106,9,3,293,397,33,135,4e-28,121
Exophiala_dermatitidis_CBS748.88,SRR3732146.2680,86.67,105,13,1,293,397,33,136,2e-26,115
Exophiala_dermatitidis_CBS748.88,SRR3732146.2680,98.31,59,1,0,577,635,280,338,4e-23,104
Exophiala_dermatitidis_CBS748.88,SRR3732146.1131,95.52,67,3,0,569,635,250,316,3e-24,108
Exophiala_dermatitidis_CBS748.88,SRR3732146.1654,88.64,88,7,3,293,379,33,118,4e-23,104
Exophiala_dermatitidis_CBS748.88,SRR3732146.1647,97.92,48,1,0,588,635,331,378,6e-17,84.2
Exophiala_dermatitidis_CBS748.88,SRR3732146.170,97.92,48,1,0,588,635,329,376,6e-17,84.2
Exophiala_angulospora_CBS482.92_T,SRR3732146.2936,90.57,106,8,2,284,388,33,137,4e-34,139
Exophiala_angulospora_CBS482.92_T,SRR3732146.2680,88.57,105,11,1,284,388,33,136,3e-30,126
Exophiala_angulospora_CBS482.92_T,SRR3732146.280,97.26,73,1,1,284,356,33,104,4e-29,122
Exophiala_angulospora_CBS482.92_T,SRR3732146.1064,92.86,84,5,1,284,367,33,115,2e-28,121
Exophiala_angulospora_CBS482.92_T,SRR3732146.2474,86.79,106,10,4,284,388,33,135,7e-27,115
Exophiala_angulospora_CBS482.92_T,SRR3732146.1654,89.16,83,7,2,284,365,33,114,6e-23,102
Exophiala_opportunistica_CBS109811_T,SRR3732146.1064,90.38,104,7,3,283,386,33,133,2e-32,134
Exophiala_opportunistica_CBS109811_T,SRR3732146.280,90.38,104,6,4,283,386,33,132,2e-32,134
Exophiala_opportunistica_CBS109811_T,SRR3732146.2936,89.62,106,8,3,283,386,33,137,7e-32,132
Exophiala_opportunistica_CBS109811_T,SRR3732146.2474,89.52,105,8,3,283,386,33,135,3e-31,130
Exophiala_opportunistica_CBS109811_T,SRR3732146.2680,85.71,105,13,2,283,386,33,136,3e-25,110
Exophiala_opportunistica_CBS109811_T,SRR3732146.1654,88.64,88,7,3,283,369,33,118,2e-23,104
Exophiala_salmonis_CBS157.67_T,SRR3732146.2936,90.57,106,7,3,412,515,33,137,2e-33,137
Exophiala_salmonis_CBS157.67_T,SRR3732146.2936,95.52,67,2,1,668,733,258,324,6e-24,106
Exophiala_salmonis_CBS157.67_T,SRR3732146.1064,89.42,104,8,3,412,515,33,133,1e-30,128
Exophiala_salmonis_CBS157.67_T,SRR3732146.1064,100.00,60,0,0,674,733,258,317,1e-25,111
Exophiala_salmonis_CBS157.67_T,SRR3732146.280,89.42,104,7,4,412,515,33,132,1e-30,128
Exophiala_salmonis_CBS157.67_T,SRR3732146.2680,84.21,133,17,3,412,543,33,162,5e-30,126
Exophiala_salmonis_CBS157.67_T,SRR3732146.2680,94.03,67,3,1,668,733,272,338,3e-22,100
Exophiala_salmonis_CBS157.67_T,SRR3732146.2474,88.57,105,9,3,412,515,33,135,2e-29,124
Exophiala_salmonis_CBS157.67_T,SRR3732146.1131,98.41,63,1,0,671,733,254,316,1e-25,111
Exophiala_salmonis_CBS157.67_T,SRR3732146.1654,88.64,88,7,3,412,498,33,118,2e-23,104
Exophiala_salmonis_CBS157.67_T,SRR3732146.1647,95.83,48,2,0,686,733,331,378,1e-15,78.7
Exophiala_salmonis_CBS157.67_T,SRR3732146.170,95.83,48,2,0,686,733,329,376,1e-15,78.7
Exophiala_aquamarina_CBS119918_T,SRR3732146.280,88.50,113,8,4,290,402,33,140,7e-32,132
Exophiala_aquamarina_CBS119918_T,SRR3732146.1064,89.52,105,7,4,290,394,33,133,3e-31,130
Exophiala_aquamarina_CBS119918_T,SRR3732146.2936,88.79,107,8,4,290,394,33,137,9e-31,128
Exophiala_aquamarina_CBS119918_T,SRR3732146.2474,87.74,106,9,4,290,394,33,135,2e-28,121
Exophiala_aquamarina_CBS119918_T,SRR3732146.1654,88.64,88,8,2,290,377,33,118,4e-24,106
Exophiala_aquamarina_CBS119918_T,SRR3732146.2680,84.91,106,13,3,290,394,33,136,2e-23,104
Exophiala_cancerae_CBS120420_T,SRR3732146.1064,90.38,104,7,3,305,408,33,133,2e-32,134
Exophiala_cancerae_CBS120420_T,SRR3732146.1064,100.00,60,0,0,565,624,258,317,1e-25,111
Exophiala_cancerae_CBS120420_T,SRR3732146.280,90.38,104,6,4,305,408,33,132,2e-32,134
Exophiala_cancerae_CBS120420_T,SRR3732146.2936,89.62,106,8,3,305,408,33,137,8e-32,132
Exophiala_cancerae_CBS120420_T,SRR3732146.2936,95.52,67,3,0,558,624,258,324,1e-24,108
Exophiala_cancerae_CBS120420_T,SRR3732146.2474,89.52,105,8,3,305,408,33,135,3e-31,130
Exophiala_cancerae_CBS120420_T,SRR3732146.2680,85.71,105,13,2,305,408,33,136,4e-25,110
Exophiala_cancerae_CBS120420_T,SRR3732146.2680,94.03,67,4,0,558,624,272,338,6e-23,102
Exophiala_cancerae_CBS120420_T,SRR3732146.1131,98.39,62,1,0,563,624,255,316,4e-25,110
Exophiala_cancerae_CBS120420_T,SRR3732146.1654,88.64,88,7,3,305,391,33,118,2e-23,104
Exophiala_cancerae_CBS120420_T,SRR3732146.1647,95.83,48,2,0,577,624,331,378,1e-15,78.7
Exophiala_cancerae_CBS120420_T,SRR3732146.170,95.83,48,2,0,577,624,329,376,1e-15,78.7
Exophiala_tremulae_CBS129355,SRR3732146.1064,90.38,104,7,3,317,420,33,133,2e-32,134
Exophiala_tremulae_CBS129355,SRR3732146.1064,100.00,49,0,0,580,628,258,306,1e-19,91.6
Exophiala_tremulae_CBS129355,SRR3732146.280,90.38,104,6,4,317,420,33,132,2e-32,134
Exophiala_tremulae_CBS129355,SRR3732146.2936,89.62,106,8,3,317,420,33,137,8e-32,132
Exophiala_tremulae_CBS129355,SRR3732146.2474,88.57,105,9,3,317,420,33,135,1e-29,124
Exophiala_tremulae_CBS129355,SRR3732146.2680,82.44,131,18,4,317,445,33,160,4e-25,110
Exophiala_tremulae_CBS129355,SRR3732146.1654,88.64,88,7,3,317,403,33,118,2e-23,104
Exophiala_tremulae_CBS129355,SRR3732146.1131,98.08,52,1,0,577,628,254,305,1e-19,91.6
Exophiala_equina_CBS116009,SRR3732146.1064,90.38,104,7,3,283,386,33,133,2e-32,134
Exophiala_equina_CBS116009,SRR3732146.280,90.38,104,6,4,283,386,33,132,2e-32,134
Exophiala_equina_CBS116009,SRR3732146.2936,89.62,106,8,3,283,386,33,137,7e-32,132
Exophiala_equina_CBS116009,SRR3732146.2474,88.57,105,9,3,283,386,33,135,1e-29,124
Exophiala_equina_CBS116009,SRR3732146.2680,83.21,131,17,4,283,411,33,160,7e-27,115
Exophiala_equina_CBS116009,SRR3732146.1654,88.64,88,7,3,283,369,33,118,2e-23,104
Exophiala_alcalophila_CBS520.82_T,SRR3732146.2936,90.57,106,8,2,294,398,33,137,4e-34,139
Exophiala_alcalophila_CBS520.82_T,SRR3732146.280,97.26,73,1,1,294,366,33,104,4e-29,122
Exophiala_alcalophila_CBS520.82_T,SRR3732146.1064,91.95,87,6,1,294,380,33,118,2e-28,121
Exophiala_alcalophila_CBS520.82_T,SRR3732146.2680,86.67,105,13,1,294,398,33,136,7e-27,115
Exophiala_alcalophila_CBS520.82_T,SRR3732146.2474,86.79,106,10,4,294,398,33,135,7e-27,115
Exophiala_alcalophila_CBS520.82_T,SRR3732146.1654,89.16,83,7,2,294,375,33,114,6e-23,102
Exophiala_crusticola_CBS119970_T,SRR3732146.2936,90.57,106,8,2,299,403,33,137,4e-34,139
Exophiala_crusticola_CBS119970_T,SRR3732146.1064,93.10,87,5,1,299,385,33,118,3e-30,126
Exophiala_crusticola_CBS119970_T,SRR3732146.280,93.10,87,4,2,299,385,33,117,3e-30,126
Exophiala_crusticola_CBS119970_T,SRR3732146.2474,87.74,106,9,4,299,403,33,135,2e-28,121
Exophiala_crusticola_CBS119970_T,SRR3732146.2680,87.88,99,11,1,299,397,33,130,7e-27,115
Exophiala_crusticola_CBS119970_T,SRR3732146.1654,88.64,88,7,3,299,385,33,118,2e-23,104
Rhinocladiella_atrovirens_CBS264.49,SRR3732146.2936,90.00,100,9,1,325,424,33,131,1e-30,128
Rhinocladiella_atrovirens_CBS264.49,SRR3732146.280,91.95,87,5,2,325,411,33,117,2e-28,121
Rhinocladiella_atrovirens_CBS264.49,SRR3732146.1064,86.92,107,10,4,325,428,33,138,2e-27,117
Rhinocladiella_atrovirens_CBS264.49,SRR3732146.1064,100.00,48,0,0,579,626,258,305,5e-19,89.8
Rhinocladiella_atrovirens_CBS264.49,SRR3732146.2474,89.89,89,7,2,325,412,33,120,3e-26,113
Rhinocladiella_atrovirens_CBS264.49,SRR3732146.2680,83.96,106,15,2,325,430,33,136,2e-22,100
Rhinocladiella_atrovirens_CBS264.49,SRR3732146.1654,86.36,88,9,3,325,411,33,118,4e-20,93.5
Rhinocladiella_atrovirens_CBS264.49,SRR3732146.1131,97.96,49,1,0,578,626,256,304,6e-18,86.1
Rhinocladiella_basitona_CBS101460_T,SRR3732146.2936,90.57,106,7,3,284,387,33,137,2e-33,137
Rhinocladiella_basitona_CBS101460_T,SRR3732146.280,90.38,104,6,4,284,387,33,132,2e-32,134
Rhinocladiella_basitona_CBS101460_T,SRR3732146.2474,89.52,105,8,3,284,387,33,135,3e-31,130
Rhinocladiella_basitona_CBS101460_T,SRR3732146.1064,89.42,104,8,3,284,387,33,133,9e-31,128
Rhinocladiella_basitona_CBS101460_T,SRR3732146.2680,85.71,105,13,2,284,387,33,136,3e-25,110
Rhinocladiella_basitona_CBS101460_T,SRR3732146.1654,88.51,87,9,1,284,370,33,118,2e-23,104
Rhinocladiella_phaeophora_CBS496.78_T,SRR3732146.2936,91.51,106,8,1,292,397,33,137,1e-35,145
Rhinocladiella_phaeophora_CBS496.78_T,SRR3732146.1064,93.10,87,5,1,292,378,33,118,3e-30,126
Rhinocladiella_phaeophora_CBS496.78_T,SRR3732146.280,93.10,87,4,2,292,378,33,117,3e-30,126
Rhinocladiella_phaeophora_CBS496.78_T,SRR3732146.2474,91.01,89,6,2,292,379,33,120,6e-28,119
Rhinocladiella_phaeophora_CBS496.78_T,SRR3732146.2680,85.85,106,13,2,292,397,33,136,1e-25,111
Rhinocladiella_phaeophora_CBS496.78_T,SRR3732146.1654,88.64,88,7,3,292,378,33,118,2e-23,104
Rhinocladiella_aquaspersa_CBS313.73_T,SRR3732146.2936,91.51,106,8,1,286,391,33,137,1e-35,145
Rhinocladiella_aquaspersa_CBS313.73_T,SRR3732146.2936,93.22,59,1,3,550,605,266,324,2e-17,84.2
Rhinocladiella_aquaspersa_CBS313.73_T,SRR3732146.1064,93.10,87,5,1,286,372,33,118,4e-30,126
Rhinocladiella_aquaspersa_CBS313.73_T,SRR3732146.1064,95.00,60,0,3,549,605,258,317,1e-19,91.6
Rhinocladiella_aquaspersa_CBS313.73_T,SRR3732146.280,93.10,87,4,2,286,372,33,117,4e-30,126
Rhinocladiella_aquaspersa_CBS313.73_T,SRR3732146.2474,91.01,89,6,2,286,373,33,120,7e-28,119
Rhinocladiella_aquaspersa_CBS313.73_T,SRR3732146.2680,85.85,106,13,2,286,391,33,136,1e-25,111
Rhinocladiella_aquaspersa_CBS313.73_T,SRR3732146.2680,93.22,59,1,3,550,605,280,338,2e-17,84.2
Rhinocladiella_aquaspersa_CBS313.73_T,SRR3732146.1654,88.64,88,7,3,286,372,33,118,2e-23,104
Rhinocladiella_aquaspersa_CBS313.73_T,SRR3732146.1131,91.67,72,2,4,537,605,246,316,3e-21,97.1
Rhinocladiella_aquaspersa_CBS313.73_T,SRR3732146.1647,93.75,48,2,1,559,605,331,378,2e-13,71.3
Rhinocladiella_aquaspersa_CBS313.73_T,SRR3732146.170,93.75,48,2,1,559,605,329,376,2e-13,71.3
Rhinocladiella_fasciculata_CBS132.86_T,SRR3732146.2936,89.72,107,9,2,302,408,33,137,6e-33,135
Rhinocladiella_fasciculata_CBS132.86_T,SRR3732146.280,95.89,73,2,1,302,374,33,104,2e-27,117
Rhinocladiella_fasciculata_CBS132.86_T,SRR3732146.1064,90.80,87,7,1,302,388,33,118,8e-27,115
Rhinocladiella_fasciculata_CBS132.86_T,SRR3732146.2474,88.76,89,8,2,302,389,33,120,1e-24,108
Rhinocladiella_fasciculata_CBS132.86_T,SRR3732146.2680,85.05,107,13,3,302,408,33,136,5e-24,106
Rhinocladiella_fasciculata_CBS132.86_T,SRR3732146.1654,87.95,83,8,2,302,383,33,114,3e-21,97.1
Rhinocladiella_anceps_CBS181.65_T,SRR3732146.2936,89.62,106,9,2,284,388,33,137,2e-32,134
Rhinocladiella_anceps_CBS181.65_T,SRR3732146.280,93.10,87,4,2,284,370,33,117,3e-30,126
Rhinocladiella_anceps_CBS181.65_T,SRR3732146.1064,90.80,87,7,1,284,370,33,118,7e-27,115
Rhinocladiella_anceps_CBS181.65_T,SRR3732146.2474,85.85,106,11,3,284,388,33,135,3e-25,110
Rhinocladiella_anceps_CBS181.65_T,SRR3732146.2680,84.76,105,15,1,284,388,33,136,2e-23,104
Rhinocladiella_anceps_CBS181.65_T,SRR3732146.1654,86.36,88,9,3,284,370,33,118,3e-20,93.5
Rhinocladiella_mackenziei_CBS367.92,SRR3732146.280,93.02,86,4,2,273,358,33,116,1e-29,124
Rhinocladiella_mackenziei_CBS367.92,SRR3732146.2936,90.32,93,7,2,273,365,33,123,2e-28,121
Rhinocladiella_mackenziei_CBS367.92,SRR3732146.1064,91.86,86,6,1,273,358,33,117,6e-28,119
Rhinocladiella_mackenziei_CBS367.92,SRR3732146.1064,97.96,49,0,1,560,608,253,300,2e-17,84.2
Rhinocladiella_mackenziei_CBS367.92,SRR3732146.2474,89.66,87,7,2,273,358,33,118,4e-25,110
Rhinocladiella_mackenziei_CBS367.92,SRR3732146.1654,88.89,81,7,2,273,352,33,112,8e-22,99.0
Rhinocladiella_mackenziei_CBS367.92,SRR3732146.2680,85.87,92,11,2,273,364,33,122,3e-21,97.1
Veronaea_compacta_CBS268.75_T,SRR3732146.2936,88.68,106,10,2,306,410,33,137,1e-30,128
Veronaea_compacta_CBS268.75_T,SRR3732146.1064,87.62,105,9,4,306,410,33,133,6e-28,119
Veronaea_compacta_CBS268.75_T,SRR3732146.280,95.89,73,2,1,306,378,33,104,2e-27,117
Veronaea_compacta_CBS268.75_T,SRR3732146.2474,86.79,106,10,4,306,410,33,135,8e-27,115
Veronaea_compacta_CBS268.75_T,SRR3732146.2680,82.58,132,18,4,306,436,33,160,1e-25,111
Veronaea_compacta_CBS268.75_T,SRR3732146.1654,87.95,83,8,2,306,387,33,114,3e-21,97.1
Capronia_pilosella_AFTOL-ID657,SRR3732146.2936,90.57,106,8,2,384,488,33,137,5e-34,139
Capronia_pilosella_AFTOL-ID657,SRR3732146.2936,100.00,39,0,0,645,683,266,304,6e-14,73.1
Capronia_pilosella_AFTOL-ID657,SRR3732146.1064,89.52,105,7,3,384,488,33,133,3e-31,130
Capronia_pilosella_AFTOL-ID657,SRR3732146.280,89.52,105,6,4,384,488,33,132,1e-30,128
Capronia_pilosella_AFTOL-ID657,SRR3732146.2474,87.74,106,9,4,384,488,33,135,2e-28,121
Capronia_pilosella_AFTOL-ID657,SRR3732146.2680,86.67,105,13,1,384,488,33,136,9e-27,115
Capronia_pilosella_AFTOL-ID657,SRR3732146.2680,97.44,39,1,0,645,683,280,318,3e-12,67.6
Capronia_pilosella_AFTOL-ID657,SRR3732146.1654,88.64,88,7,3,384,470,33,118,2e-23,104
Capronia_dactylotricha_DAOM208471_T,SRR3732146.2936,91.09,101,7,1,286,386,33,131,7e-33,135
Capronia_dactylotricha_DAOM208471_T,SRR3732146.2936,98.31,59,1,0,560,618,266,324,2e-23,104
Capronia_dactylotricha_DAOM208471_T,SRR3732146.280,94.32,88,2,3,286,373,33,117,9e-32,132
Capronia_dactylotricha_DAOM208471_T,SRR3732146.1064,87.96,108,8,4,286,390,33,138,5e-29,122
Capronia_dactylotricha_DAOM208471_T,SRR3732146.1064,100.00,60,0,0,559,618,258,317,1e-25,111
Capronia_dactylotricha_DAOM208471_T,SRR3732146.2474,90.00,90,6,3,286,374,33,120,3e-26,113
Capronia_dactylotricha_DAOM208471_T,SRR3732146.1131,98.36,61,1,0,558,618,256,316,1e-24,108
Capronia_dactylotricha_DAOM208471_T,SRR3732146.2680,85.05,107,13,2,286,392,33,136,5e-24,106
Capronia_dactylotricha_DAOM208471_T,SRR3732146.2680,96.61,59,2,0,560,618,280,338,9e-22,99.0
Capronia_dactylotricha_DAOM208471_T,SRR3732146.1654,87.64,89,7,3,286,373,33,118,2e-22,100
Capronia_dactylotricha_DAOM208471_T,SRR3732146.1647,95.83,48,2,0,571,618,331,378,1e-15,78.7
Capronia_dactylotricha_DAOM208471_T,SRR3732146.170,95.83,48,2,0,571,618,329,376,1e-15,78.7
Capronia_kleinmondensis_CBS122671_T,SRR3732146.2936,90.00,100,9,1,311,410,33,131,1e-30,128
Capronia_kleinmondensis_CBS122671_T,SRR3732146.2936,98.31,59,1,0,566,624,266,324,2e-23,104
Capronia_kleinmondensis_CBS122671_T,SRR3732146.280,91.95,87,5,2,311,397,33,117,2e-28,121
Capronia_kleinmondensis_CBS122671_T,SRR3732146.1064,86.92,107,10,4,311,414,33,138,2e-27,117
Capronia_kleinmondensis_CBS122671_T,SRR3732146.1064,100.00,60,0,0,565,624,258,317,1e-25,111
Capronia_kleinmondensis_CBS122671_T,SRR3732146.2474,89.89,89,7,2,311,398,33,120,3e-26,113
Capronia_kleinmondensis_CBS122671_T,SRR3732146.1131,98.36,61,1,0,564,624,256,316,1e-24,108
Capronia_kleinmondensis_CBS122671_T,SRR3732146.2680,83.96,106,15,2,311,416,33,136,2e-22,100
Capronia_kleinmondensis_CBS122671_T,SRR3732146.2680,96.61,59,2,0,566,624,280,338,9e-22,99.0
Capronia_kleinmondensis_CBS122671_T,SRR3732146.1654,86.36,88,9,3,311,397,33,118,4e-20,93.5
Capronia_kleinmondensis_CBS122671_T,SRR3732146.1647,95.83,48,2,0,577,624,331,378,1e-15,78.7
Capronia_kleinmondensis_CBS122671_T,SRR3732146.170,95.83,48,2,0,577,624,329,376,1e-15,78.7
Capronia_mansonii_CBS101.67_T,SRR3732146.2936,90.57,106,8,2,297,401,33,137,5e-34,139
Capronia_mansonii_CBS101.67_T,SRR3732146.2936,100.00,59,0,0,570,628,266,324,4e-25,110
Capronia_mansonii_CBS101.67_T,SRR3732146.280,87.93,116,8,4,297,412,33,142,9e-32,132
Capronia_mansonii_CBS101.67_T,SRR3732146.1064,89.52,105,7,3,297,401,33,133,3e-31,130
Capronia_mansonii_CBS101.67_T,SRR3732146.1064,96.92,65,2,0,564,628,253,317,4e-25,110
Capronia_mansonii_CBS101.67_T,SRR3732146.2474,88.68,106,8,4,297,401,33,135,4e-30,126
Capronia_mansonii_CBS101.67_T,SRR3732146.2680,85.71,105,14,1,297,401,33,136,4e-25,110
Capronia_mansonii_CBS101.67_T,SRR3732146.2680,98.31,59,1,0,570,628,280,338,2e-23,104
Capronia_mansonii_CBS101.67_T,SRR3732146.1131,96.88,64,2,0,565,628,253,316,1e-24,108
Capronia_mansonii_CBS101.67_T,SRR3732146.1654,88.64,88,7,3,297,383,33,118,2e-23,104
Capronia_mansonii_CBS101.67_T,SRR3732146.1647,97.92,48,1,0,581,628,331,378,2e-17,84.2
Capronia_mansonii_CBS101.67_T,SRR3732146.170,97.92,48,1,0,581,628,329,376,2e-17,84.2
Capronia_munkii_DAOM216390_T,SRR3732146.2936,90.57,106,8,2,297,401,33,137,5e-34,139
Capronia_munkii_DAOM216390_T,SRR3732146.2936,97.06,68,1,1,562,628,257,324,3e-26,113
Capronia_munkii_DAOM216390_T,SRR3732146.280,87.93,116,8,4,297,412,33,142,9e-32,132
Capronia_munkii_DAOM216390_T,SRR3732146.1064,89.52,105,7,3,297,401,33,133,3e-31,130
Capronia_munkii_DAOM216390_T,SRR3732146.1064,95.59,68,2,1,561,628,251,317,1e-24,108
Capronia_munkii_DAOM216390_T,SRR3732146.2474,88.68,106,8,4,297,401,33,135,4e-30,126
Capronia_munkii_DAOM216390_T,SRR3732146.2680,85.71,105,14,1,297,401,33,136,4e-25,110
Capronia_munkii_DAOM216390_T,SRR3732146.2680,95.59,68,2,1,562,628,271,338,1e-24,108
Capronia_munkii_DAOM216390_T,SRR3732146.1131,96.83,63,2,0,566,628,254,316,5e-24,106
Capronia_munkii_DAOM216390_T,SRR3732146.1654,88.64,88,7,3,297,383,33,118,2e-23,104
Capronia_munkii_DAOM216390_T,SRR3732146.1647,97.92,48,1,0,581,628,331,378,2e-17,84.2
Capronia_munkii_DAOM216390_T,SRR3732146.170,97.92,48,1,0,581,628,329,376,2e-17,84.2
Capronia_coronata_ATCC56201_T,SRR3732146.2936,90.57,106,8,2,285,389,33,137,5e-34,139
Capronia_coronata_ATCC56201_T,SRR3732146.2936,100.00,59,0,0,541,599,266,324,4e-25,110
Capronia_coronata_ATCC56201_T,SRR3732146.2680,88.57,105,11,1,285,389,33,136,4e-30,126
Capronia_coronata_ATCC56201_T,SRR3732146.2680,98.31,59,1,0,541,599,280,338,2e-23,104
Capronia_coronata_ATCC56201_T,SRR3732146.280,97.26,73,1,1,285,357,33,104,5e-29,122
Capronia_coronata_ATCC56201_T,SRR3732146.1064,92.86,84,5,1,285,368,33,115,2e-28,121
Capronia_coronata_ATCC56201_T,SRR3732146.1064,94.44,72,3,1,528,599,247,317,4e-25,110
Capronia_coronata_ATCC56201_T,SRR3732146.2474,86.79,106,10,4,285,389,33,135,8e-27,115
Capronia_coronata_ATCC56201_T,SRR3732146.1131,96.77,62,2,0,538,599,255,316,2e-23,104
Capronia_coronata_ATCC56201_T,SRR3732146.1654,89.16,83,7,2,285,366,33,114,7e-23,102
Capronia_coronata_ATCC56201_T,SRR3732146.1647,97.92,48,1,0,552,599,331,378,2e-17,84.2
Capronia_coronata_ATCC56201_T,SRR3732146.170,97.92,48,1,0,552,599,329,376,2e-17,84.2
Capronia_parasitica_CBS123.88,SRR3732146.280,97.26,73,1,1,291,363,33,104,5e-29,122
Capronia_parasitica_CBS123.88,SRR3732146.2936,89.58,96,7,3,291,386,33,125,6e-28,119
Capronia_parasitica_CBS123.88,SRR3732146.1064,91.76,85,6,1,291,375,33,116,2e-27,117
Capronia_parasitica_CBS123.88,SRR3732146.1064,100.00,35,0,0,561,595,258,292,8e-12,65.8
Capronia_parasitica_CBS123.88,SRR3732146.2474,90.70,86,6,2,291,375,33,117,3e-26,113
Capronia_parasitica_CBS123.88,SRR3732146.1654,89.61,77,7,1,291,367,33,108,3e-21,97.1
Capronia_parasitica_CBS123.88,SRR3732146.2680,86.90,84,10,1,291,374,33,115,4e-20,93.5
Veronaea_japonica_CBS776.83_T,SRR3732146.2936,90.57,106,7,3,319,422,33,137,2e-33,137
Veronaea_japonica_CBS776.83_T,SRR3732146.2680,81.60,163,22,6,319,477,33,191,1e-30,128
Veronaea_japonica_CBS776.83_T,SRR3732146.1064,89.42,104,8,3,319,422,33,133,1e-30,128
Veronaea_japonica_CBS776.83_T,SRR3732146.280,89.42,104,7,4,319,422,33,132,1e-30,128
Veronaea_japonica_CBS776.83_T,SRR3732146.2474,88.57,105,9,3,319,422,33,135,1e-29,124
Veronaea_japonica_CBS776.83_T,SRR3732146.1654,88.64,88,7,3,319,405,33,118,2e-23,104
Thysanorea_papuana_CBS212.96_T,SRR3732146.1064,90.38,104,7,2,293,396,33,133,2e-32,134
Thysanorea_papuana_CBS212.96_T,SRR3732146.280,90.38,104,6,3,293,396,33,132,2e-32,134
Thysanorea_papuana_CBS212.96_T,SRR3732146.2936,89.62,106,8,2,293,396,33,137,8e-32,132
Thysanorea_papuana_CBS212.96_T,SRR3732146.2474,88.57,105,9,3,293,396,33,135,1e-29,124
Thysanorea_papuana_CBS212.96_T,SRR3732146.2680,85.71,105,13,2,293,396,33,136,4e-25,110
Thysanorea_papuana_CBS212.96_T,SRR3732146.1654,88.64,88,7,3,293,379,33,118,2e-23,104
Capronia_acutiseta_ATCC56428_T,SRR3732146.2936,91.51,106,8,1,286,391,33,137,1e-35,145
Capronia_acutiseta_ATCC56428_T,SRR3732146.2936,95.52,67,3,0,532,598,258,324,1e-24,108
Capronia_acutiseta_ATCC56428_T,SRR3732146.1064,92.94,85,5,1,286,370,33,116,5e-29,122
Capronia_acutiseta_ATCC56428_T,SRR3732146.1064,100.00,60,0,0,539,598,258,317,1e-25,111
Capronia_acutiseta_ATCC56428_T,SRR3732146.280,97.26,73,1,1,286,358,33,104,5e-29,122
Capronia_acutiseta_ATCC56428_T,SRR3732146.2474,90.11,91,7,2,286,375,33,122,2e-27,117
Capronia_acutiseta_ATCC56428_T,SRR3732146.1131,98.39,62,1,0,537,598,255,316,4e-25,110
Capronia_acutiseta_ATCC56428_T,SRR3732146.2680,84.91,106,14,2,286,391,33,136,5e-24,106
Capronia_acutiseta_ATCC56428_T,SRR3732146.2680,94.03,67,4,0,532,598,272,338,7e-23,102
Capronia_acutiseta_ATCC56428_T,SRR3732146.1654,89.16,83,7,2,286,367,33,114,7e-23,102
Capronia_acutiseta_ATCC56428_T,SRR3732146.1647,95.83,48,2,0,551,598,331,378,1e-15,78.7
Capronia_acutiseta_ATCC56428_T,SRR3732146.170,95.83,48,2,0,551,598,329,376,1e-15,78.7
Fonsecaea_brasiliensis_CBS119710_T,SRR3732146.280,88.50,113,8,3,293,405,33,140,7e-32,132
Fonsecaea_brasiliensis_CBS119710_T,SRR3732146.1064,89.52,105,7,3,293,397,33,133,3e-31,130
Fonsecaea_brasiliensis_CBS119710_T,SRR3732146.2936,88.79,107,8,3,293,397,33,137,9e-31,128
Fonsecaea_brasiliensis_CBS119710_T,SRR3732146.2474,87.74,106,9,4,293,397,33,135,2e-28,121
Fonsecaea_brasiliensis_CBS119710_T,SRR3732146.1654,88.64,88,8,2,293,380,33,118,4e-24,106
Fonsecaea_brasiliensis_CBS119710_T,SRR3732146.2680,84.91,106,13,3,293,397,33,136,2e-23,104
Fonsecaea_pedrosoi_CBS271.37_T,SRR3732146.280,88.60,114,7,4,321,434,33,140,2e-32,134
Fonsecaea_pedrosoi_CBS271.37_T,SRR3732146.2936,88.79,107,9,3,321,426,33,137,1e-30,128
Fonsecaea_pedrosoi_CBS271.37_T,SRR3732146.2936,98.31,59,1,0,587,645,266,324,2e-23,104
Fonsecaea_pedrosoi_CBS271.37_T,SRR3732146.1064,88.68,106,7,4,321,426,33,133,1e-29,124
Fonsecaea_pedrosoi_CBS271.37_T,SRR3732146.1064,95.38,65,3,0,581,645,253,317,2e-23,104
Fonsecaea_pedrosoi_CBS271.37_T,SRR3732146.2474,86.92,107,9,5,321,426,33,135,9e-27,115
Fonsecaea_pedrosoi_CBS271.37_T,SRR3732146.2680,84.91,106,14,2,321,426,33,136,5e-24,106
Fonsecaea_pedrosoi_CBS271.37_T,SRR3732146.2680,96.61,59,2,0,587,645,280,338,9e-22,99.0
Fonsecaea_pedrosoi_CBS271.37_T,SRR3732146.1654,88.64,88,8,2,321,408,33,118,5e-24,106
Fonsecaea_pedrosoi_CBS271.37_T,SRR3732146.1131,95.31,64,3,0,582,645,253,316,7e-23,102
Fonsecaea_pedrosoi_CBS271.37_T,SRR3732146.1647,95.83,48,2,0,598,645,331,378,1e-15,78.7
Fonsecaea_pedrosoi_CBS271.37_T,SRR3732146.170,95.83,48,2,0,598,645,329,376,1e-15,78.7
Fonsecaea_multimorphosa_CBS980.96_T,SRR3732146.1064,90.48,105,6,4,291,395,33,133,6e-33,135
Fonsecaea_multimorphosa_CBS980.96_T,SRR3732146.280,90.48,105,5,3,291,395,33,132,2e-32,134
Fonsecaea_multimorphosa_CBS980.96_T,SRR3732146.2474,88.68,106,8,4,291,395,33,135,3e-30,126
Fonsecaea_multimorphosa_CBS980.96_T,SRR3732146.2936,87.85,107,9,3,291,395,33,137,4e-29,122
Fonsecaea_multimorphosa_CBS980.96_T,SRR3732146.1654,88.64,88,8,2,291,378,33,118,4e-24,106
Fonsecaea_multimorphosa_CBS980.96_T,SRR3732146.2680,83.96,106,14,3,291,395,33,136,7e-22,99.0
Fonsecaea_minima_CBS125760_T,SRR3732146.1064,89.52,105,7,3,287,391,33,133,3e-31,130
Fonsecaea_minima_CBS125760_T,SRR3732146.2936,88.79,107,8,3,287,391,33,137,9e-31,128
Fonsecaea_minima_CBS125760_T,SRR3732146.280,89.52,105,6,3,287,391,33,132,9e-31,128
Fonsecaea_minima_CBS125760_T,SRR3732146.2474,87.74,106,9,4,287,391,33,135,2e-28,121
Fonsecaea_minima_CBS125760_T,SRR3732146.1654,88.64,88,8,2,287,374,33,118,4e-24,106
Fonsecaea_minima_CBS125760_T,SRR3732146.2680,84.91,106,13,3,287,391,33,136,2e-23,104
Fonsecaea_nubica_CBS269.64_T,SRR3732146.2936,88.79,107,9,3,298,403,33,137,1e-30,128
Fonsecaea_nubica_CBS269.64_T,SRR3732146.1064,88.68,106,7,4,298,403,33,133,1e-29,124
Fonsecaea_nubica_CBS269.64_T,SRR3732146.280,88.68,106,6,4,298,403,33,132,1e-29,124
Fonsecaea_nubica_CBS269.64_T,SRR3732146.2474,86.92,107,9,5,298,403,33,135,7e-27,115
Fonsecaea_nubica_CBS269.64_T,SRR3732146.2680,84.91,106,14,2,298,403,33,136,4e-24,106
Fonsecaea_nubica_CBS269.64_T,SRR3732146.1654,88.64,88,8,2,298,385,33,118,4e-24,106
Fonsecaea_monophora_CBS269.37_T,SRR3732146.280,88.60,114,7,4,299,412,33,140,2e-32,134
Fonsecaea_monophora_CBS269.37_T,SRR3732146.2936,88.79,107,9,3,299,404,33,137,1e-30,128
Fonsecaea_monophora_CBS269.37_T,SRR3732146.1064,88.68,106,7,4,299,404,33,133,1e-29,124
Fonsecaea_monophora_CBS269.37_T,SRR3732146.2474,86.92,107,9,5,299,404,33,135,7e-27,115
Fonsecaea_monophora_CBS269.37_T,SRR3732146.2680,84.91,106,14,2,299,404,33,136,5e-24,106
Fonsecaea_monophora_CBS269.37_T,SRR3732146.1654,88.64,88,8,2,299,386,33,118,5e-24,106
Fonsecaea_erecta_CBS125763_T,SRR3732146.1064,90.48,105,6,3,282,386,33,133,5e-33,135
Fonsecaea_erecta_CBS125763_T,SRR3732146.2936,88.03,117,9,4,282,394,33,148,2e-32,134
Fonsecaea_erecta_CBS125763_T,SRR3732146.280,90.48,105,5,4,282,386,33,132,2e-32,134
Fonsecaea_erecta_CBS125763_T,SRR3732146.2474,88.68,106,8,4,282,386,33,135,3e-30,126
Fonsecaea_erecta_CBS125763_T,SRR3732146.2680,85.71,105,14,1,282,386,33,136,3e-25,110
Fonsecaea_erecta_CBS125763_T,SRR3732146.1654,88.64,88,7,3,282,368,33,118,2e-23,104
Fonsecaea_pugnacius_CBS139214_T,SRR3732146.2936,89.72,107,9,2,291,397,33,137,5e-33,135
Fonsecaea_pugnacius_CBS139214_T,SRR3732146.280,88.79,107,5,4,291,397,33,132,1e-29,124
Fonsecaea_pugnacius_CBS139214_T,SRR3732146.1064,92.05,88,5,2,291,378,33,118,4e-29,122
Fonsecaea_pugnacius_CBS139214_T,SRR3732146.2474,90.00,90,6,3,291,379,33,120,3e-26,113
Fonsecaea_pugnacius_CBS139214_T,SRR3732146.2680,85.05,107,13,3,291,397,33,136,4e-24,106
Fonsecaea_pugnacius_CBS139214_T,SRR3732146.1654,88.64,88,8,2,291,378,33,118,4e-24,106
Cladophialophora_psammophila_CBS,SRR3732146.1064,90.48,105,6,3,297,401,33,133,6e-33,135
Cladophialophora_psammophila_CBS,SRR3732146.280,89.29,112,6,5,297,408,33,138,6e-33,135
Cladophialophora_psammophila_CBS,SRR3732146.2936,89.62,106,9,2,297,401,33,137,2e-32,134
Cladophialophora_psammophila_CBS,SRR3732146.2474,88.68,106,8,4,297,401,33,135,3e-30,126
Cladophialophora_psammophila_CBS,SRR3732146.2680,84.17,120,16,3,297,416,33,149,3e-26,113
Cladophialophora_psammophila_CBS,SRR3732146.1654,88.64,88,7,3,297,383,33,118,2e-23,104
Cladophialophora_devriesii_CBS,SRR3732146.280,89.38,113,7,3,293,405,33,140,1e-33,137
Cladophialophora_devriesii_CBS,SRR3732146.1064,90.48,105,6,4,293,397,33,133,5e-33,135
Cladophialophora_devriesii_CBS,SRR3732146.2474,88.68,106,8,4,293,397,33,135,3e-30,126
Cladophialophora_devriesii_CBS,SRR3732146.2936,87.85,107,9,3,293,397,33,137,4e-29,122
Cladophialophora_devriesii_CBS,SRR3732146.1654,88.64,88,8,2,293,380,33,118,4e-24,106
Cladophialophora_devriesii_CBS,SRR3732146.2680,83.96,106,14,3,293,397,33,136,7e-22,99.0
Cladophialophora_immunda_CBS834.96,SRR3732146.1064,89.52,105,7,3,295,399,33,133,3e-31,130
Cladophialophora_immunda_CBS834.96,SRR3732146.2936,88.79,107,8,3,295,399,33,137,9e-31,128
Cladophialophora_immunda_CBS834.96,SRR3732146.280,89.52,105,6,3,295,399,33,132,9e-31,128
Cladophialophora_immunda_CBS834.96,SRR3732146.2474,87.74,106,9,4,295,399,33,135,2e-28,121
Cladophialophora_immunda_CBS834.96,SRR3732146.1654,88.64,88,8,2,295,382,33,118,4e-24,106
Cladophialophora_immunda_CBS834.96,SRR3732146.2680,84.91,106,13,3,295,399,33,136,2e-23,104
Cladophialophora_arxii_CBS306.94_T,SRR3732146.2936,87.96,108,9,3,297,403,33,137,1e-29,124
Cladophialophora_arxii_CBS306.94_T,SRR3732146.280,88.79,107,5,4,297,403,33,132,1e-29,124
Cladophialophora_arxii_CBS306.94_T,SRR3732146.1064,87.85,107,7,4,297,403,33,133,2e-28,121
Cladophialophora_arxii_CBS306.94_T,SRR3732146.2474,86.11,108,9,5,297,403,33,135,9e-26,111
Cladophialophora_arxii_CBS306.94_T,SRR3732146.2680,84.11,107,14,2,297,403,33,136,2e-22,100
Cladophialophora_arxii_CBS306.94_T,SRR3732146.1654,89.02,82,8,1,297,378,33,113,2e-22,100
Cladophialophora_bantiana_CBS173.52,SRR3732146.1064,90.48,105,6,3,291,395,33,133,6e-33,135
Cladophialophora_bantiana_CBS173.52,SRR3732146.280,89.29,112,6,5,291,402,33,138,6e-33,135
Cladophialophora_bantiana_CBS173.52,SRR3732146.2936,89.62,106,9,2,291,395,33,137,2e-32,134
Cladophialophora_bantiana_CBS173.52,SRR3732146.2474,88.68,106,8,4,291,395,33,135,3e-30,126
Cladophialophora_bantiana_CBS173.52,SRR3732146.2680,84.17,120,16,3,291,410,33,149,3e-26,113
Cladophialophora_bantiana_CBS173.52,SRR3732146.1654,88.64,88,7,3,291,377,33,118,2e-23,104
Cladophialophora_emmonsii_CBS102594,SRR3732146.2936,90.57,106,9,1,282,387,33,137,4e-34,139
Cladophialophora_emmonsii_CBS102594,SRR3732146.280,89.62,106,5,4,282,387,33,132,3e-31,130
Cladophialophora_emmonsii_CBS102594,SRR3732146.1064,93.10,87,5,1,282,368,33,118,3e-30,126
Cladophialophora_emmonsii_CBS102594,SRR3732146.2474,91.01,89,6,2,282,369,33,120,6e-28,119
Cladophialophora_emmonsii_CBS102594,SRR3732146.2680,85.85,106,13,2,282,387,33,136,9e-26,111
Cladophialophora_emmonsii_CBS102594,SRR3732146.1654,88.64,88,7,3,282,368,33,118,2e-23,104
Cladophialophora_minourae_CBS556.83,SRR3732146.280,87.74,106,7,4,290,395,33,132,2e-28,121
Cladophialophora_minourae_CBS556.83,SRR3732146.1064,86.79,106,9,4,290,395,33,133,7e-27,115
Cladophialophora_minourae_CBS556.83,SRR3732146.2936,88.04,92,8,3,290,381,33,121,4e-24,106
Cladophialophora_minourae_CBS556.83,SRR3732146.2474,85.05,107,11,5,290,395,33,135,4e-24,106
Cladophialophora_minourae_CBS556.83,SRR3732146.1654,86.67,90,7,5,290,378,33,118,1e-20,95.3
Cladophialophora_minourae_CBS556.83,SRR3732146.2680,83.70,92,12,3,290,381,33,121,2e-17,84.2
Cladophialophora_australiensis_CBS112793,SRR3732146.1064,89.42,104,8,2,292,395,33,133,3e-30,128
Cladophialophora_australiensis_CBS112793,SRR3732146.1064,93.06,72,4,1,535,606,247,317,4e-23,104
Cladophialophora_australiensis_CBS112793,SRR3732146.280,89.42,104,7,3,292,395,33,132,3e-30,128
Cladophialophora_australiensis_CBS112793,SRR3732146.2936,88.68,106,9,2,292,395,33,137,9e-30,126
Cladophialophora_australiensis_CBS112793,SRR3732146.2936,95.52,67,2,1,541,606,258,324,1e-23,106
Cladophialophora_australiensis_CBS112793,SRR3732146.2474,87.62,105,10,3,292,395,33,135,2e-27,119
Cladophialophora_australiensis_CBS112793,SRR3732146.2680,84.76,105,14,2,292,395,33,136,4e-23,104
Cladophialophora_australiensis_CBS112793,SRR3732146.2680,94.03,67,3,1,541,606,272,338,6e-22,100
Cladophialophora_australiensis_CBS112793,SRR3732146.1131,95.24,63,3,0,544,606,254,316,6e-22,100
Cladophialophora_australiensis_CBS112793,SRR3732146.1654,87.50,88,8,3,292,378,33,118,2e-21,99.0
Cladophialophora_australiensis_CBS112793,SRR3732146.1647,95.83,48,2,0,559,606,331,378,3e-15,78.7
Cladophialophora_australiensis_CBS112793,SRR3732146.170,95.83,48,2,0,559,606,329,376,3e-15,78.7
Cladophialophora_potulentorum_CBS112222,SRR3732146.1064,88.46,104,9,2,291,394,33,133,1e-28,122
Cladophialophora_potulentorum_CBS112222,SRR3732146.1064,96.67,60,2,0,549,608,258,317,6e-22,100
Cladophialophora_potulentorum_CBS112222,SRR3732146.280,88.46,104,8,3,291,394,33,132,1e-28,122
Cladophialophora_potulentorum_CBS112222,SRR3732146.2936,87.74,106,10,2,291,394,33,137,4e-28,121
Cladophialophora_potulentorum_CBS112222,SRR3732146.2936,98.31,59,1,0,550,608,266,324,4e-23,104
Cladophialophora_potulentorum_CBS112222,SRR3732146.2474,86.67,105,11,3,291,394,33,135,7e-26,113
Cladophialophora_potulentorum_CBS112222,SRR3732146.2680,83.81,105,15,2,291,394,33,136,2e-21,99.0
Cladophialophora_potulentorum_CBS112222,SRR3732146.2680,96.61,59,2,0,550,608,280,338,2e-21,99.0
Cladophialophora_potulentorum_CBS112222,SRR3732146.1131,95.16,62,3,0,547,608,255,316,2e-21,99.0
Cladophialophora_potulentorum_CBS112222,SRR3732146.1654,86.36,88,9,3,291,377,33,118,9e-20,93.5
Cladophialophora_potulentorum_CBS112222,SRR3732146.1647,95.83,48,2,0,561,608,331,378,3e-15,78.7
Cladophialophora_potulentorum_CBS112222,SRR3732146.170,95.83,48,2,0,561,608,329,376,3e-15,78.7
Cladophialophora_matsushimae_CMRP1198,SRR3732146.2936,88.68,106,9,3,295,398,33,137,3e-30,126
Cladophialophora_matsushimae_CMRP1198,SRR3732146.280,86.96,115,10,4,295,409,33,142,1e-29,124
Cladophialophora_matsushimae_CMRP1198,SRR3732146.1064,88.46,104,9,2,295,398,33,133,4e-29,122
Cladophialophora_matsushimae_CMRP1198,SRR3732146.2474,87.62,105,10,3,295,398,33,135,5e-28,119
Cladophialophora_matsushimae_CMRP1198,SRR3732146.2680,83.81,105,15,2,295,398,33,136,6e-22,99.0
Cladophialophora_matsushimae_CMRP1198,SRR3732146.1654,87.50,88,8,3,295,381,33,118,6e-22,99.0
Cladophialophora_mycetomatis_CBS122637,SRR3732146.1064,89.42,104,8,2,280,383,33,133,9e-31,128
Cladophialophora_mycetomatis_CBS122637,SRR3732146.280,89.42,104,7,3,280,383,33,132,9e-31,128
Cladophialophora_mycetomatis_CBS122637,SRR3732146.2936,87.74,106,10,3,280,383,33,137,2e-28,121
Cladophialophora_mycetomatis_CBS122637,SRR3732146.2474,87.74,106,8,5,280,383,33,135,6e-28,119
Cladophialophora_mycetomatis_CBS122637,SRR3732146.2680,83.81,105,15,2,280,383,33,136,7e-22,99.0
Cladophialophora_mycetomatis_CBS122637,SRR3732146.1654,87.50,88,8,3,280,366,33,118,7e-22,99.0
Cladophialophora_chaetospira_CBS127573,SRR3732146.280,89.47,114,8,4,686,799,33,142,2e-34,141
Cladophialophora_chaetospira_CBS127573,SRR3732146.1064,90.38,104,7,2,686,789,33,133,3e-32,134
Cladophialophora_chaetospira_CBS127573,SRR3732146.2936,88.68,106,9,2,686,789,33,137,6e-30,126
Cladophialophora_chaetospira_CBS127573,SRR3732146.2474,87.62,105,10,3,686,789,33,135,1e-27,119
Cladophialophora_chaetospira_CBS127573,SRR3732146.2680,84.76,105,14,2,686,789,33,136,3e-23,104
Cladophialophora_chaetospira_CBS127573,SRR3732146.1654,88.64,88,7,3,686,772,33,118,3e-23,104
Cladophialophora_boppii_CBS126.86_T,SRR3732146.280,89.29,112,8,3,288,399,33,140,2e-33,137
Cladophialophora_boppii_CBS126.86_T,SRR3732146.1064,90.38,104,7,3,288,391,33,133,2e-32,134
Cladophialophora_boppii_CBS126.86_T,SRR3732146.2474,88.57,105,9,3,288,391,33,135,1e-29,124
Cladophialophora_boppii_CBS126.86_T,SRR3732146.2936,92.05,88,6,1,288,375,33,119,4e-29,122
Cladophialophora_boppii_CBS126.86_T,SRR3732146.1654,88.64,88,7,3,288,374,33,118,2e-23,104
Cladophialophora_boppii_CBS126.86_T,SRR3732146.2680,87.50,88,10,1,288,375,33,119,2e-22,100
Cladophialophora_abundans_CBS126736,SRR3732146.1064,90.38,104,7,2,225,328,33,133,2e-32,134
Cladophialophora_abundans_CBS126736,SRR3732146.2474,89.52,105,8,3,225,328,33,135,2e-31,130
Cladophialophora_abundans_CBS126736,SRR3732146.280,89.42,104,7,4,225,328,33,132,8e-31,128
Cladophialophora_abundans_CBS126736,SRR3732146.2936,88.68,106,9,2,225,328,33,137,3e-30,126
Cladophialophora_abundans_CBS126736,SRR3732146.2680,85.71,105,13,2,225,328,33,136,3e-25,110
Cladophialophora_abundans_CBS126736,SRR3732146.1654,89.77,88,6,3,225,311,33,118,3e-25,110
Capronia_semi-immersa_CBS102234,SRR3732146.280,90.38,104,6,3,287,390,33,132,2e-32,134
Capronia_semi-immersa_CBS102234,SRR3732146.1064,88.46,104,9,2,287,390,33,133,4e-29,122
Capronia_semi-immersa_CBS102234,SRR3732146.2936,87.74,106,10,2,287,390,33,137,2e-28,121
Capronia_semi-immersa_CBS102234,SRR3732146.2474,86.67,105,11,3,287,390,33,135,3e-26,113
Capronia_semi-immersa_CBS102234,SRR3732146.1654,88.64,88,7,3,287,373,33,118,2e-23,104
Capronia_semi-immersa_CBS102234,SRR3732146.2680,83.81,105,15,2,287,390,33,136,7e-22,99.0
Phialophora_americana_CBS400.67,SRR3732146.280,90.38,104,6,3,289,392,33,132,5e-32,134
Phialophora_americana_CBS400.67,SRR3732146.1064,88.46,104,9,2,289,392,33,133,1e-28,122
Phialophora_americana_CBS400.67,SRR3732146.2936,87.74,106,10,2,289,392,33,137,4e-28,121
Phialophora_americana_CBS400.67,SRR3732146.2474,86.67,105,11,3,289,392,33,135,7e-26,113
Phialophora_americana_CBS400.67,SRR3732146.1654,88.64,88,7,3,289,375,33,118,4e-23,104
Phialophora_americana_CBS400.67,SRR3732146.2680,83.81,105,15,2,289,392,33,136,2e-21,99.0
Phialophora_verrucosa_CBS140325_T,SRR3732146.280,90.38,104,6,3,293,396,33,132,2e-32,134
Phialophora_verrucosa_CBS140325_T,SRR3732146.1064,88.46,104,9,2,293,396,33,133,5e-29,122
Phialophora_verrucosa_CBS140325_T,SRR3732146.2936,87.74,106,10,2,293,396,33,137,2e-28,121
Phialophora_verrucosa_CBS140325_T,SRR3732146.2474,86.67,105,11,3,293,396,33,135,3e-26,113
Phialophora_verrucosa_CBS140325_T,SRR3732146.1654,88.64,88,7,3,293,379,33,118,2e-23,104
Phialophora_verrucosa_CBS140325_T,SRR3732146.2680,83.81,105,15,2,293,396,33,136,8e-22,99.0
Cladophialophora_samoensis_CBS259.83_T,SRR3732146.2936,90.57,106,7,2,293,396,33,137,2e-33,137
Cladophialophora_samoensis_CBS259.83_T,SRR3732146.2474,89.52,105,8,3,293,396,33,135,3e-31,130
Cladophialophora_samoensis_CBS259.83_T,SRR3732146.1064,89.42,104,8,2,293,396,33,133,9e-31,128
Cladophialophora_samoensis_CBS259.83_T,SRR3732146.280,89.42,104,7,3,293,396,33,132,9e-31,128
Cladophialophora_samoensis_CBS259.83_T,SRR3732146.2680,86.67,105,12,2,293,396,33,136,7e-27,115
Cladophialophora_samoensis_CBS259.83_T,SRR3732146.1654,89.77,88,6,3,293,379,33,118,3e-25,110
Cladophialophora_carrionii_CBS260.83,SRR3732146.280,92.31,104,4,4,309,412,33,132,1e-35,145
Cladophialophora_carrionii_CBS260.83,SRR3732146.1064,89.42,104,8,2,309,412,33,133,1e-30,128
Cladophialophora_carrionii_CBS260.83,SRR3732146.2936,87.74,106,10,2,309,412,33,137,2e-28,121
Cladophialophora_carrionii_CBS260.83,SRR3732146.2474,86.67,105,11,3,309,412,33,135,3e-26,113
Cladophialophora_carrionii_CBS260.83,SRR3732146.1654,89.77,88,6,3,309,395,33,118,4e-25,110
Cladophialophora_carrionii_CBS260.83,SRR3732146.2680,83.81,105,15,2,309,412,33,136,8e-22,99.0
Exophiala_palmae_UPCB86822_T,SRR3732146.2936,90.57,106,8,2,252,356,33,137,4e-34,139
Exophiala_palmae_UPCB86822_T,SRR3732146.1064,93.10,87,5,1,252,338,33,118,3e-30,126
Exophiala_palmae_UPCB86822_T,SRR3732146.280,93.10,87,4,2,252,338,33,117,3e-30,126
Exophiala_palmae_UPCB86822_T,SRR3732146.2474,91.01,89,6,2,252,339,33,120,5e-28,119
Exophiala_palmae_UPCB86822_T,SRR3732146.2680,86.67,105,13,1,252,356,33,136,7e-27,115
Exophiala_palmae_UPCB86822_T,SRR3732146.1654,88.64,88,7,3,252,338,33,118,1e-23,104
Cladophialophora_yegresii_CBS114405_T,SRR3732146.280,91.35,104,5,3,294,397,33,132,4e-34,139
Cladophialophora_yegresii_CBS114405_T,SRR3732146.1064,89.42,104,8,2,294,397,33,133,9e-31,128
Cladophialophora_yegresii_CBS114405_T,SRR3732146.2936,88.68,106,9,2,294,397,33,137,3e-30,126
Cladophialophora_yegresii_CBS114405_T,SRR3732146.2474,87.62,105,10,3,294,397,33,135,6e-28,119
Cladophialophora_yegresii_CBS114405_T,SRR3732146.1654,89.77,88,6,3,294,380,33,118,3e-25,110
Cladophialophora_yegresii_CBS114405_T,SRR3732146.2680,84.76,105,14,2,294,397,33,136,2e-23,104
Knufia_epidermidis_CBS120353_T,SRR3732146.2936,89.62,106,8,2,292,395,33,137,7e-32,132
Knufia_epidermidis_CBS120353_T,SRR3732146.1064,91.76,85,6,1,292,376,33,116,2e-27,117
Knufia_epidermidis_CBS120353_T,SRR3732146.2474,86.67,105,11,3,292,395,33,135,3e-26,113
Knufia_epidermidis_CBS120353_T,SRR3732146.2680,85.71,105,13,2,292,395,33,136,3e-25,110
Knufia_epidermidis_CBS120353_T,SRR3732146.1654,93.15,73,5,0,292,364,33,105,1e-24,108
Knufia_epidermidis_CBS120353_T,SRR3732146.280,91.78,73,5,1,292,364,33,104,2e-22,100
Arthrocladium_fulminans_CBS136243_T,SRR3732146.2936,86.79,106,13,1,287,392,33,137,2e-27,117
Arthrocladium_fulminans_CBS136243_T,SRR3732146.1064,90.59,85,7,1,287,371,33,116,1e-25,111
Arthrocladium_fulminans_CBS136243_T,SRR3732146.280,93.15,73,4,1,287,359,33,104,4e-24,106
Arthrocladium_fulminans_CBS136243_T,SRR3732146.1654,91.78,73,6,0,287,359,33,105,6e-23,102
Arthrocladium_fulminans_CBS136243_T,SRR3732146.2474,90.54,74,5,2,287,359,33,105,3e-21,97.1
Arthrocladium_fulminans_CBS136243_T,SRR3732146.2680,82.08,106,17,2,287,392,33,136,4e-19,89.8
Cyphellophora_laciniata_CBS190.61_T,SRR3732146.1064,91.18,102,8,1,379,480,33,133,2e-33,137
Cyphellophora_laciniata_CBS190.61_T,SRR3732146.1064,92.31,78,3,1,618,695,243,317,2e-24,108
Cyphellophora_laciniata_CBS190.61_T,SRR3732146.2474,90.38,104,7,3,379,480,33,135,3e-32,134
Cyphellophora_laciniata_CBS190.61_T,SRR3732146.2936,93.26,89,5,1,379,467,33,120,3e-31,130
Cyphellophora_laciniata_CBS190.61_T,SRR3732146.2936,100.00,59,0,0,637,695,266,324,5e-25,110
Cyphellophora_laciniata_CBS190.61_T,SRR3732146.280,86.92,107,12,2,379,485,33,137,8e-28,119
Cyphellophora_laciniata_CBS190.61_T,SRR3732146.1654,87.38,103,10,3,379,480,33,133,1e-26,115
Cyphellophora_laciniata_CBS190.61_T,SRR3732146.2680,89.89,89,8,1,379,467,33,120,3e-26,113
Cyphellophora_laciniata_CBS190.61_T,SRR3732146.2680,98.31,59,1,0,637,695,280,338,2e-23,104
Cyphellophora_laciniata_CBS190.61_T,SRR3732146.1131,96.77,62,2,0,634,695,255,316,2e-23,104
Cyphellophora_laciniata_CBS190.61_T,SRR3732146.1647,97.92,48,1,0,648,695,331,378,3e-17,84.2
Cyphellophora_laciniata_CBS190.61_T,SRR3732146.170,97.92,48,1,0,648,695,329,376,3e-17,84.2
Cyphellophora_suttonii_CBS449.91,SRR3732146.1064,91.18,102,8,1,282,383,33,133,2e-33,137
Cyphellophora_suttonii_CBS449.91,SRR3732146.2474,90.38,104,7,3,282,383,33,135,2e-32,134
Cyphellophora_suttonii_CBS449.91,SRR3732146.2936,93.26,89,5,1,282,370,33,120,3e-31,130
Cyphellophora_suttonii_CBS449.91,SRR3732146.1654,87.38,103,10,3,282,383,33,133,7e-27,115
Cyphellophora_suttonii_CBS449.91,SRR3732146.280,87.25,102,11,2,282,383,33,132,7e-27,115
Cyphellophora_suttonii_CBS449.91,SRR3732146.2680,89.89,89,8,1,282,370,33,120,3e-26,113
Cyphellophora_pauciseptata_CBS284.85_T,SRR3732146.1064,91.18,102,8,1,293,394,33,133,2e-33,137
Cyphellophora_pauciseptata_CBS284.85_T,SRR3732146.2474,90.38,104,7,3,293,394,33,135,2e-32,134
Cyphellophora_pauciseptata_CBS284.85_T,SRR3732146.2936,93.26,89,5,1,293,381,33,120,3e-31,130
Cyphellophora_pauciseptata_CBS284.85_T,SRR3732146.1654,87.38,103,10,3,293,394,33,133,7e-27,115
Cyphellophora_pauciseptata_CBS284.85_T,SRR3732146.280,87.25,102,11,2,293,394,33,132,7e-27,115
Cyphellophora_pauciseptata_CBS284.85_T,SRR3732146.2680,89.89,89,8,1,293,381,33,120,3e-26,113
Cyphellophora_pluriseptata_CBS286.85_T,SRR3732146.2936,94.38,89,4,1,298,386,33,120,6e-33,135
Cyphellophora_pluriseptata_CBS286.85_T,SRR3732146.2474,90.38,104,7,3,298,399,33,135,2e-32,134
Cyphellophora_pluriseptata_CBS286.85_T,SRR3732146.1064,90.20,102,9,1,298,399,33,133,7e-32,132
Cyphellophora_pluriseptata_CBS286.85_T,SRR3732146.280,88.24,102,10,2,298,399,33,132,2e-28,121
Cyphellophora_pluriseptata_CBS286.85_T,SRR3732146.1654,87.38,103,10,3,298,399,33,133,7e-27,115
Cyphellophora_pluriseptata_CBS286.85_T,SRR3732146.2680,89.89,89,8,1,298,386,33,120,3e-26,113
Phialophora_europaea_CBS101466,SRR3732146.2936,94.38,89,4,1,288,376,33,120,5e-33,135
Phialophora_europaea_CBS101466,SRR3732146.2474,90.38,104,7,3,288,389,33,135,2e-32,134
Phialophora_europaea_CBS101466,SRR3732146.1064,90.20,102,9,1,288,389,33,133,7e-32,132
Phialophora_europaea_CBS101466,SRR3732146.280,88.24,102,10,2,288,389,33,132,2e-28,121
Phialophora_europaea_CBS101466,SRR3732146.1654,87.38,103,10,3,288,389,33,133,7e-27,115
Phialophora_europaea_CBS101466,SRR3732146.2680,89.89,89,8,1,288,376,33,120,3e-26,113
Phialophora_ambigua_CBS235.93,SRR3732146.2936,94.38,89,4,1,285,373,33,120,5e-33,135
Phialophora_ambigua_CBS235.93,SRR3732146.2474,90.38,104,7,3,285,386,33,135,2e-32,134
Phialophora_ambigua_CBS235.93,SRR3732146.1064,90.20,102,9,1,285,386,33,133,7e-32,132
Phialophora_ambigua_CBS235.93,SRR3732146.280,88.24,102,10,2,285,386,33,132,2e-28,121
Phialophora_ambigua_CBS235.93,SRR3732146.1654,87.38,103,10,3,285,386,33,133,7e-27,115
Phialophora_ambigua_CBS235.93,SRR3732146.2680,89.89,89,8,1,285,373,33,120,3e-26,113
Cladophialophora_modesta_CBS985.96_T,SRR3732146.1064,91.26,103,7,2,284,386,33,133,5e-34,139
Cladophialophora_modesta_CBS985.96_T,SRR3732146.1064,96.67,60,2,0,520,579,258,317,2e-22,100
Cladophialophora_modesta_CBS985.96_T,SRR3732146.280,91.26,103,6,3,284,386,33,132,2e-33,137
Cladophialophora_modesta_CBS985.96_T,SRR3732146.2936,88.68,106,8,3,284,386,33,137,4e-30,126
Cladophialophora_modesta_CBS985.96_T,SRR3732146.2936,95.52,67,2,1,514,579,258,324,5e-24,106
Cladophialophora_modesta_CBS985.96_T,SRR3732146.2474,88.46,104,10,2,284,386,33,135,1e-29,124
Cladophialophora_modesta_CBS985.96_T,SRR3732146.1654,85.58,104,11,4,284,386,33,133,5e-24,106
Cladophialophora_modesta_CBS985.96_T,SRR3732146.2680,87.64,89,10,1,284,372,33,120,6e-23,102
Cladophialophora_modesta_CBS985.96_T,SRR3732146.2680,94.03,67,3,1,514,579,272,338,2e-22,100
Cladophialophora_modesta_CBS985.96_T,SRR3732146.1131,95.24,63,3,0,517,579,254,316,2e-22,100
Cladophialophora_modesta_CBS985.96_T,SRR3732146.1647,95.83,48,2,0,532,579,331,378,1e-15,78.7
Cladophialophora_modesta_CBS985.96_T,SRR3732146.170,95.83,48,2,0,532,579,329,376,1e-15,78.7
Cyphellophora_fusarioides_MUCL44033_T,SRR3732146.1064,90.20,102,9,1,281,382,33,133,7e-32,132
