Exophiala_brunnea_CBS,ERR2088971.200302,100.00,29,0,0,10,38,1,29,2e-06,54.7
Exophiala_brunnea_CBS,ERR2088971.84297,100.00,29,0,0,10,38,1,29,2e-06,54.7
Exophiala_tremulae_CBS129355,ERR2088971.200302,100.00,29,0,0,10,38,1,29,2e-06,54.7
Exophiala_tremulae_CBS129355,ERR2088971.84297,100.00,29,0,0,10,38,1,29,2e-06,54.7
Rhinocladiella_atrovirens_CBS264.49,ERR2088971.200302,100.00,29,0,0,15,43,1,29,2e-06,54.7
Rhinocladiella_atrovirens_CBS264.49,ERR2088971.84297,100.00,29,0,0,15,43,1,29,2e-06,54.7
Capronia_kleinmondensis_CBS122671_T,ERR2088971.200302,100.00,29,0,0,1,29,1,29,2e-06,54.7
Capronia_kleinmondensis_CBS122671_T,ERR2088971.84297,100.00,29,0,0,1,29,1,29,2e-06,54.7
Veronaea_japonica_CBS776.83_T,ERR2088971.200302,100.00,29,0,0,9,37,1,29,2e-06,54.7
Veronaea_japonica_CBS776.83_T,ERR2088971.84297,100.00,29,0,0,9,37,1,29,2e-06,54.7
Fonsecaea_pedrosoi_CBS271.37_T,ERR2088971.200302,100.00,29,0,0,1,29,1,29,2e-06,54.7
Fonsecaea_pedrosoi_CBS271.37_T,ERR2088971.84297,100.00,29,0,0,1,29,1,29,2e-06,54.7
Cladophialophora_chaetospira_CBS127573,ERR2088971.200302,100.00,29,0,0,380,408,1,29,3e-06,54.7
Cladophialophora_chaetospira_CBS127573,ERR2088971.84297,100.00,29,0,0,380,408,1,29,3e-06,54.7
Cyphellophora_laciniata_CBS190.61_T,ERR2088971.200302,100.00,29,0,0,71,99,1,29,3e-06,54.7
Cyphellophora_laciniata_CBS190.61_T,ERR2088971.84297,100.00,29,0,0,71,99,1,29,3e-06,54.7
