Exophiala_dermatitidis_CBS748.88,ERR2721172.2826038,90.16,61,6,0,1213,1273,37,97,2e-12,80.5
Cladophialophora_australiensis_CBS112793,ERR2721172.2826038,86.89,61,8,0,1180,1240,37,97,4e-09,69.4
Cladophialophora_potulentorum_CBS112222,ERR2721172.2826038,88.52,61,7,0,1182,1242,37,97,8e-11,75.0
Phialophora_americana_CBS400.67,ERR2721172.2826038,90.16,61,6,0,1174,1234,37,97,2e-12,80.5
