Exophiala_salmonis_CBS157.67_T,SRR8003385.29634,91.75,97,2,5,21,116,780,871,3e-29,130
Exophiala_salmonis_CBS157.67_T,SRR8003385.46631,80.67,119,14,7,14,131,89,199,3e-15,84.2
Cyphellophora_laciniata_CBS190.61_T,SRR8003385.46631,97.62,42,1,0,28,69,151,192,5e-12,73.1
