Exophiala_pisciphila_CBS537.73_T,SRR3373200.89458,90.12,81,7,1,574,653,173,93,7e-21,104
Exophiala_pisciphila_CBS537.73_T,SRR3373200.89458,90.12,81,7,1,574,653,252,332,7e-21,104
Exophiala_mesophila_CBS402.95_T,SRR3373200.89458,90.00,80,8,0,571,650,172,93,7e-21,104
Exophiala_mesophila_CBS402.95_T,SRR3373200.89458,90.00,80,8,0,571,650,253,332,7e-21,104
Exophiala_castellanii_CBS158.58_T,SRR3373200.89458,90.00,80,8,0,570,649,172,93,7e-21,104
Exophiala_castellanii_CBS158.58_T,SRR3373200.89458,90.00,80,8,0,570,649,253,332,7e-21,104
Exophiala_dermatitidis_CBS748.88,SRR3373200.39417,92.05,88,7,0,1417,1504,144,57,1e-26,124
Exophiala_dermatitidis_CBS748.88,SRR3373200.39417,92.05,88,7,0,1417,1504,251,338,1e-26,124
Exophiala_dermatitidis_CBS748.88,SRR3373200.138595,83.21,131,18,3,1323,1451,129,1,2e-24,117
Exophiala_dermatitidis_CBS748.88,SRR3373200.138595,83.21,131,18,3,1323,1451,268,396,2e-24,117
Exophiala_dermatitidis_CBS748.88,SRR3373200.202493,83.74,123,16,3,1323,1443,123,3,3e-23,113
Exophiala_dermatitidis_CBS748.88,SRR3373200.202493,83.74,123,16,3,1323,1443,254,374,3e-23,113
Exophiala_dermatitidis_CBS748.88,SRR3373200.89458,82.31,130,23,0,596,725,172,43,3e-23,113
Exophiala_dermatitidis_CBS748.88,SRR3373200.89458,82.31,130,23,0,596,725,253,382,3e-23,113
Exophiala_dermatitidis_CBS748.88,SRR3373200.477582,89.29,84,9,0,1367,1450,257,340,5e-21,106
Exophiala_dermatitidis_CBS748.88,SRR3373200.477582,90.91,77,7,0,1367,1443,83,7,2e-20,104
Exophiala_dermatitidis_CBS748.88,SRR3373200.675660,93.62,47,3,0,1210,1256,83,37,2e-10,71.3
Exophiala_dermatitidis_CBS748.88,SRR3373200.675660,93.62,47,3,0,1210,1256,273,319,2e-10,71.3
Exophiala_dermatitidis_CBS748.88,SRR3373200.44994,82.72,81,10,3,1323,1401,85,7,6e-10,69.4
Exophiala_dermatitidis_CBS748.88,SRR3373200.657733,100.00,33,0,0,1472,1504,109,77,1e-07,62.1
Exophiala_dermatitidis_CBS748.88,SRR3373200.657733,100.00,33,0,0,1472,1504,252,284,1e-07,62.1
Exophiala_dermatitidis_CBS748.88,SRR3373200.249729,91.30,46,3,1,1460,1504,110,65,1e-07,62.1
Exophiala_dermatitidis_CBS748.88,SRR3373200.249729,100.00,33,0,0,1472,1504,258,290,1e-07,62.1
Exophiala_salmonis_CBS157.67_T,SRR3373200.89458,90.12,81,7,1,694,773,173,93,8e-21,104
Exophiala_salmonis_CBS157.67_T,SRR3373200.89458,90.12,81,7,1,694,773,252,332,8e-21,104
Rhinocladiella_aquaspersa_CBS313.73_T,SRR3373200.89458,89.41,85,8,1,566,649,173,89,2e-21,106
Rhinocladiella_aquaspersa_CBS313.73_T,SRR3373200.89458,89.41,85,8,1,566,649,252,336,2e-21,106
Capronia_dactylotricha_DAOM208471_T,SRR3373200.89458,90.12,81,7,1,579,658,173,93,7e-21,104
Capronia_dactylotricha_DAOM208471_T,SRR3373200.89458,90.12,81,7,1,579,658,252,332,7e-21,104
Capronia_kleinmondensis_CBS122671_T,SRR3373200.89458,90.12,81,7,1,585,664,173,93,7e-21,104
Capronia_kleinmondensis_CBS122671_T,SRR3373200.89458,90.12,81,7,1,585,664,252,332,7e-21,104
Capronia_mansonii_CBS101.67_T,SRR3373200.89458,90.00,80,8,0,589,668,172,93,7e-21,104
Capronia_mansonii_CBS101.67_T,SRR3373200.89458,90.00,80,8,0,589,668,253,332,7e-21,104
Capronia_munkii_DAOM216390_T,SRR3373200.89458,90.00,80,8,0,589,668,172,93,7e-21,104
Capronia_munkii_DAOM216390_T,SRR3373200.89458,90.00,80,8,0,589,668,253,332,7e-21,104
Capronia_coronata_ATCC56201_T,SRR3373200.89458,90.00,80,8,0,560,639,172,93,7e-21,104
Capronia_coronata_ATCC56201_T,SRR3373200.89458,90.00,80,8,0,560,639,253,332,7e-21,104
Capronia_acutiseta_ATCC56428_T,SRR3373200.89458,90.12,81,7,1,559,638,173,93,7e-21,104
Capronia_acutiseta_ATCC56428_T,SRR3373200.89458,90.12,81,7,1,559,638,252,332,7e-21,104
Cladophialophora_australiensis_CBS112793,SRR3373200.39417,92.05,88,7,0,1384,1471,144,57,1e-26,124
Cladophialophora_australiensis_CBS112793,SRR3373200.39417,92.05,88,7,0,1384,1471,251,338,1e-26,124
Cladophialophora_australiensis_CBS112793,SRR3373200.138595,88.17,93,11,0,1326,1418,93,1,9e-23,111
Cladophialophora_australiensis_CBS112793,SRR3373200.138595,88.17,93,11,0,1326,1418,304,396,9e-23,111
Cladophialophora_australiensis_CBS112793,SRR3373200.202493,89.41,85,9,0,1326,1410,87,3,1e-21,108
Cladophialophora_australiensis_CBS112793,SRR3373200.202493,89.41,85,9,0,1326,1410,290,374,1e-21,108
Cladophialophora_australiensis_CBS112793,SRR3373200.477582,89.29,84,9,0,1334,1417,257,340,4e-21,106
Cladophialophora_australiensis_CBS112793,SRR3373200.477582,90.91,77,7,0,1334,1410,83,7,2e-20,104
Cladophialophora_australiensis_CBS112793,SRR3373200.89458,81.54,130,23,1,567,695,172,43,4e-21,106
Cladophialophora_australiensis_CBS112793,SRR3373200.89458,81.54,130,23,1,567,695,253,382,4e-21,106
Cladophialophora_australiensis_CBS112793,SRR3373200.675660,93.62,47,3,0,1177,1223,83,37,2e-10,71.3
Cladophialophora_australiensis_CBS112793,SRR3373200.675660,93.62,47,3,0,1177,1223,273,319,2e-10,71.3
Cladophialophora_australiensis_CBS112793,SRR3373200.44994,93.02,43,3,0,1326,1368,49,7,3e-08,63.9
Cladophialophora_australiensis_CBS112793,SRR3373200.657733,100.00,33,0,0,1439,1471,109,77,1e-07,62.1
Cladophialophora_australiensis_CBS112793,SRR3373200.657733,100.00,33,0,0,1439,1471,252,284,1e-07,62.1
Cladophialophora_australiensis_CBS112793,SRR3373200.249729,91.30,46,3,1,1427,1471,110,65,1e-07,62.1
Cladophialophora_australiensis_CBS112793,SRR3373200.249729,100.00,33,0,0,1439,1471,258,290,1e-07,62.1
Cladophialophora_potulentorum_CBS112222,SRR3373200.39417,92.23,103,8,0,1386,1488,144,42,3e-33,147
Cladophialophora_potulentorum_CBS112222,SRR3373200.39417,92.23,103,8,0,1386,1488,251,353,3e-33,147
Cladophialophora_potulentorum_CBS112222,SRR3373200.138595,88.17,93,11,0,1328,1420,93,1,1e-22,111
Cladophialophora_potulentorum_CBS112222,SRR3373200.138595,88.17,93,11,0,1328,1420,304,396,1e-22,111
Cladophialophora_potulentorum_CBS112222,SRR3373200.202493,89.41,85,9,0,1328,1412,87,3,1e-21,108
Cladophialophora_potulentorum_CBS112222,SRR3373200.202493,89.41,85,9,0,1328,1412,290,374,1e-21,108
Cladophialophora_potulentorum_CBS112222,SRR3373200.477582,89.29,84,9,0,1336,1419,257,340,4e-21,106
Cladophialophora_potulentorum_CBS112222,SRR3373200.477582,90.91,77,7,0,1336,1412,83,7,2e-20,104
Cladophialophora_potulentorum_CBS112222,SRR3373200.89458,81.54,130,23,1,569,697,172,43,4e-21,106
Cladophialophora_potulentorum_CBS112222,SRR3373200.89458,81.54,130,23,1,569,697,253,382,4e-21,106
Cladophialophora_potulentorum_CBS112222,SRR3373200.657733,97.92,48,1,0,1441,1488,109,62,2e-14,84.2
Cladophialophora_potulentorum_CBS112222,SRR3373200.657733,97.92,48,1,0,1441,1488,252,299,2e-14,84.2
Cladophialophora_potulentorum_CBS112222,SRR3373200.249729,91.80,61,4,1,1429,1488,110,50,2e-14,84.2
Cladophialophora_potulentorum_CBS112222,SRR3373200.249729,97.92,48,1,0,1441,1488,258,305,2e-14,84.2
Cladophialophora_potulentorum_CBS112222,SRR3373200.675660,91.49,47,4,0,1179,1225,83,37,8e-09,65.8
Cladophialophora_potulentorum_CBS112222,SRR3373200.675660,91.49,47,4,0,1179,1225,273,319,8e-09,65.8
Cladophialophora_potulentorum_CBS112222,SRR3373200.44994,93.02,43,3,0,1328,1370,49,7,3e-08,63.9
Phialophora_americana_CBS400.67,SRR3373200.138595,88.17,93,11,0,1320,1412,93,1,9e-23,111
Phialophora_americana_CBS400.67,SRR3373200.138595,88.17,93,11,0,1320,1412,304,396,9e-23,111
Phialophora_americana_CBS400.67,SRR3373200.202493,89.41,85,9,0,1320,1404,87,3,1e-21,108
Phialophora_americana_CBS400.67,SRR3373200.202493,89.41,85,9,0,1320,1404,290,374,1e-21,108
Phialophora_americana_CBS400.67,SRR3373200.477582,89.29,84,9,0,1328,1411,257,340,4e-21,106
Phialophora_americana_CBS400.67,SRR3373200.477582,90.91,77,7,0,1328,1404,83,7,2e-20,104
Phialophora_americana_CBS400.67,SRR3373200.675660,93.62,47,3,0,1171,1217,83,37,2e-10,71.3
Phialophora_americana_CBS400.67,SRR3373200.675660,93.62,47,3,0,1171,1217,273,319,2e-10,71.3
Phialophora_americana_CBS400.67,SRR3373200.44994,93.02,43,3,0,1320,1362,49,7,3e-08,63.9
Cyphellophora_laciniata_CBS190.61_T,SRR3373200.89458,91.25,80,7,0,656,735,172,93,2e-22,110
Cyphellophora_laciniata_CBS190.61_T,SRR3373200.89458,91.25,80,7,0,656,735,253,332,2e-22,110
Cladophialophora_modesta_CBS985.96_T,SRR3373200.89458,90.00,80,8,0,540,619,172,93,7e-21,104
Cladophialophora_modesta_CBS985.96_T,SRR3373200.89458,90.00,80,8,0,540,619,253,332,7e-21,104
