Exophiala_nigra_CBS535.94_T,SRR7698540.341897,89.08,174,17,2,212,385,36,207,3e-54,215
Exophiala_spinifera_CBS899.68_T,SRR7698540.341897,87.78,180,19,3,209,387,36,213,5e-52,207
Exophiala_exophialae_CBS668.76_T,SRR7698540.341897,87.78,180,19,3,210,388,36,213,5e-52,207
Exophiala_polymorpha_CBS138920_T,SRR7698540.341897,86.00,200,25,3,292,490,16,213,5e-53,211
Exophiala_polymorpha_CBS138920_T,SRR7698540.133937,100.00,28,0,0,82,109,96,123,3e-05,52.8
Exophiala_oligosperma_CBS725.88_T,SRR7698540.341897,87.78,180,19,3,222,400,36,213,6e-52,207
Exophiala_jeanselmei_CBS507.90_T,SRR7698540.341897,87.78,180,19,3,214,392,36,213,6e-52,207
Exophiala_bergeri_CBS353.52,SRR7698540.341897,88.51,174,18,2,175,348,36,207,1e-52,209
Exophiala_moniliae_CBS520.76_T,SRR7698540.341897,87.91,182,18,4,212,393,36,213,4e-53,211
Exophiala_pisciphila_CBS537.73_T,SRR7698540.341897,88.89,180,17,3,215,393,36,213,3e-55,219
Exophiala_xenobiotica_CBS117642,SRR7698540.341897,88.33,180,18,3,207,385,36,213,1e-53,213
Exophiala_brunnea_CBS,SRR7698540.341897,88.33,180,18,3,243,421,36,213,1e-53,213
Exophiala_brunnea_CBS,SRR7698540.133937,100.00,41,0,0,1,41,83,123,2e-12,76.8
Exophiala_brunnea_CBS,SRR7698540.26372,100.00,38,0,0,1,38,482,519,9e-11,71.3
Exophiala_nishimurae_CBS101538_T,SRR7698540.341897,86.00,200,25,3,201,399,16,213,5e-53,211
Exophiala_mesophila_CBS402.95_T,SRR7698540.341897,89.16,166,16,2,205,370,36,199,2e-51,206
Exophiala_castellanii_CBS158.58_T,SRR7698540.341897,89.16,166,16,2,203,368,36,199,2e-51,206
Exophiala_lecanii-corni_CBS123.33_T,SRR7698540.341897,88.55,166,17,2,226,391,36,199,1e-49,200
Exophiala_dermatitidis_CBS748.88,SRR7698540.341897,88.89,180,17,3,219,397,36,213,7e-55,219
Exophiala_dermatitidis_CBS748.88,SRR7698540.64338,89.78,137,14,0,1368,1504,672,536,4e-42,176
Exophiala_dermatitidis_CBS748.88,SRR7698540.64338,100.00,36,0,0,1210,1245,873,838,3e-09,67.6
Exophiala_dermatitidis_CBS748.88,SRR7698540.26372,76.83,246,41,11,1210,1452,1754,1986,2e-26,124
Exophiala_angulospora_CBS482.92_T,SRR7698540.341897,90.00,180,16,2,209,388,36,213,3e-59,231
Exophiala_opportunistica_CBS109811_T,SRR7698540.341897,86.80,197,23,3,191,386,19,213,9e-55,217
Exophiala_salmonis_CBS157.67_T,SRR7698540.341897,88.89,180,17,3,337,515,36,213,4e-55,219
Exophiala_salmonis_CBS157.67_T,SRR7698540.133937,97.96,49,1,0,74,122,41,89,4e-15,86.1
Exophiala_aquamarina_CBS119918_T,SRR7698540.341897,87.85,181,18,4,215,394,36,213,2e-52,209
Exophiala_cancerae_CBS120420_T,SRR7698540.341897,86.80,197,23,3,213,408,19,213,1e-54,217
Exophiala_tremulae_CBS129355,SRR7698540.341897,88.33,180,18,3,242,420,36,213,1e-53,213
Exophiala_tremulae_CBS129355,SRR7698540.133937,100.00,41,0,0,1,41,83,123,2e-12,76.8
Exophiala_tremulae_CBS129355,SRR7698540.26372,100.00,38,0,0,1,38,482,519,9e-11,71.3
Exophiala_equina_CBS116009,SRR7698540.341897,88.33,180,18,3,208,386,36,213,1e-53,213
Exophiala_alcalophila_CBS520.82_T,SRR7698540.341897,87.31,197,23,2,202,398,19,213,6e-57,224
Exophiala_crusticola_CBS119970_T,SRR7698540.341897,89.66,174,16,2,224,397,36,207,7e-56,220
Rhinocladiella_atrovirens_CBS264.49,SRR7698540.341897,85.79,197,25,3,234,430,20,213,2e-51,206
Rhinocladiella_atrovirens_CBS264.49,SRR7698540.133937,100.00,44,0,0,1,44,78,121,4e-14,82.4
Rhinocladiella_atrovirens_CBS264.49,SRR7698540.26372,100.00,43,0,0,1,43,477,519,1e-13,80.5
Rhinocladiella_basitona_CBS101460_T,SRR7698540.341897,87.78,180,19,3,209,387,36,213,5e-52,207
Rhinocladiella_phaeophora_CBS496.78_T,SRR7698540.341897,88.40,181,18,3,217,397,36,213,3e-54,215
Rhinocladiella_aquaspersa_CBS313.73_T,SRR7698540.341897,88.40,181,18,3,211,391,36,213,4e-54,215
Rhinocladiella_fasciculata_CBS132.86_T,SRR7698540.341897,86.43,199,21,6,212,408,19,213,1e-53,213
Rhinocladiella_anceps_CBS181.65_T,SRR7698540.341897,87.78,180,20,2,209,388,36,213,2e-52,209
Rhinocladiella_mackenziei_CBS367.92,SRR7698540.341897,86.96,184,21,3,181,364,19,199,8e-51,204
Rhinocladiella_mackenziei_CBS367.92,SRR7698540.133937,100.00,28,0,0,1,28,96,123,3e-05,52.8
Veronaea_compacta_CBS268.75_T,SRR7698540.341897,87.85,181,18,4,231,410,36,213,2e-52,209
Veronaea_compacta_CBS268.75_T,SRR7698540.133937,100.00,29,0,0,1,29,95,123,8e-06,54.7
Capronia_pilosella_AFTOL-ID657,SRR7698540.341897,88.89,180,18,2,309,488,36,213,9e-56,220
Capronia_dactylotricha_DAOM208471_T,SRR7698540.341897,87.91,182,18,3,211,392,36,213,5e-53,211
Capronia_kleinmondensis_CBS122671_T,SRR7698540.341897,85.79,197,25,3,220,416,20,213,2e-51,206
Capronia_kleinmondensis_CBS122671_T,SRR7698540.133937,100.00,30,0,0,1,30,92,121,3e-06,56.5
Capronia_kleinmondensis_CBS122671_T,SRR7698540.26372,100.00,29,0,0,1,29,491,519,9e-06,54.7
Capronia_mansonii_CBS101.67_T,SRR7698540.341897,88.33,180,19,2,222,401,36,213,4e-54,215
Capronia_munkii_DAOM216390_T,SRR7698540.341897,88.33,180,19,2,222,401,36,213,4e-54,215
Capronia_coronata_ATCC56201_T,SRR7698540.341897,90.00,180,16,2,210,389,36,213,4e-59,231
Capronia_parasitica_CBS123.88,SRR7698540.341897,87.86,173,19,2,202,374,22,192,3e-50,202
Veronaea_japonica_CBS776.83_T,SRR7698540.341897,88.89,180,17,3,244,422,36,213,3e-55,219
Veronaea_japonica_CBS776.83_T,SRR7698540.133937,100.00,40,0,0,1,40,84,123,6e-12,75.0
Veronaea_japonica_CBS776.83_T,SRR7698540.26372,100.00,37,0,0,1,37,483,519,3e-10,69.4
Thysanorea_papuana_CBS212.96_T,SRR7698540.341897,88.33,180,18,3,218,396,36,213,1e-53,213
Capronia_acutiseta_ATCC56428_T,SRR7698540.341897,85.86,198,24,4,195,391,19,213,6e-52,207
Fonsecaea_brasiliensis_CBS119710_T,SRR7698540.341897,87.85,181,18,4,218,397,36,213,2e-52,209
Fonsecaea_pedrosoi_CBS271.37_T,SRR7698540.341897,87.85,181,19,3,246,426,36,213,2e-52,209
Fonsecaea_pedrosoi_CBS271.37_T,SRR7698540.133937,100.00,31,0,0,1,31,92,122,7e-07,58.4
Fonsecaea_pedrosoi_CBS271.37_T,SRR7698540.26372,100.00,29,0,0,1,29,491,519,9e-06,54.7
Fonsecaea_multimorphosa_CBS980.96_T,SRR7698540.341897,87.29,181,19,4,216,395,36,213,7e-51,204
Fonsecaea_minima_CBS125760_T,SRR7698540.341897,87.85,181,18,4,212,391,36,213,2e-52,209
Fonsecaea_nubica_CBS269.64_T,SRR7698540.341897,87.85,181,19,3,223,403,36,213,2e-52,209
Fonsecaea_monophora_CBS269.37_T,SRR7698540.341897,87.36,182,19,4,223,404,36,213,2e-51,206
Fonsecaea_erecta_CBS125763_T,SRR7698540.341897,88.33,180,19,2,207,386,36,213,3e-54,215
Fonsecaea_pugnacius_CBS139214_T,SRR7698540.341897,87.91,182,18,4,216,397,36,213,4e-53,211
Cladophialophora_psammophila_CBS,SRR7698540.341897,87.18,195,21,4,222,416,36,226,3e-55,219
Cladophialophora_devriesii_CBS,SRR7698540.341897,87.29,181,19,4,218,397,36,213,7e-51,204
Cladophialophora_immunda_CBS834.96,SRR7698540.341897,87.85,181,18,4,220,399,36,213,2e-52,209
Cladophialophora_arxii_CBS306.94_T,SRR7698540.341897,87.36,182,19,3,222,403,36,213,2e-51,206
Cladophialophora_bantiana_CBS173.52,SRR7698540.341897,87.18,195,21,4,216,410,36,226,3e-55,219
Cladophialophora_emmonsii_CBS102594,SRR7698540.341897,88.40,181,18,3,207,387,36,213,3e-54,215
Cladophialophora_minourae_CBS556.83,SRR7698540.341897,86.83,167,18,4,215,381,36,198,9e-45,183
Cladophialophora_australiensis_CBS112793,SRR7698540.341897,85.93,199,25,3,198,395,17,213,4e-52,209
Cladophialophora_australiensis_CBS112793,SRR7698540.64338,89.78,137,14,0,1335,1471,672,536,4e-42,176
Cladophialophora_australiensis_CBS112793,SRR7698540.64338,93.62,47,3,0,1177,1223,873,827,2e-10,71.3
Cladophialophora_australiensis_CBS112793,SRR7698540.26372,75.92,245,45,10,1177,1419,1754,1986,3e-23,113
Cladophialophora_potulentorum_CBS112222,SRR7698540.341897,87.22,180,20,3,216,394,36,213,7e-50,202
Cladophialophora_potulentorum_CBS112222,SRR7698540.64338,90.13,152,15,0,1337,1488,672,521,9e-49,198
Cladophialophora_potulentorum_CBS112222,SRR7698540.64338,100.00,36,0,0,1179,1214,873,838,3e-09,67.6
Cladophialophora_potulentorum_CBS112222,SRR7698540.26372,87.23,94,12,0,1328,1421,1893,1986,2e-21,108
Cladophialophora_potulentorum_CBS112222,SRR7698540.26372,97.22,36,1,0,1179,1214,1754,1789,1e-07,62.1
Cladophialophora_matsushimae_CMRP1198,SRR7698540.341897,87.22,180,20,3,220,398,36,213,2e-50,202
Cladophialophora_mycetomatis_CBS122637,SRR7698540.341897,87.22,180,20,3,205,383,36,213,3e-50,202
Cladophialophora_chaetospira_CBS127573,SRR7698540.341897,87.78,180,19,3,611,789,36,213,1e-51,207
Cladophialophora_chaetospira_CBS127573,SRR7698540.133937,100.00,33,0,0,379,411,91,123,8e-08,62.1
Cladophialophora_chaetospira_CBS127573,SRR7698540.26372,100.00,30,0,0,379,408,490,519,4e-06,56.5
Cladophialophora_boppii_CBS126.86_T,SRR7698540.341897,89.57,163,15,2,213,375,36,196,2e-51,206
Cladophialophora_abundans_CBS126736,SRR7698540.341897,87.78,180,19,3,150,328,36,213,5e-52,207
Capronia_semi-immersa_CBS102234,SRR7698540.341897,86.67,180,21,3,212,390,36,213,1e-48,196
Phialophora_americana_CBS400.67,SRR7698540.341897,86.67,180,21,3,214,392,36,213,3e-48,196
Phialophora_americana_CBS400.67,SRR7698540.64338,88.03,117,14,0,1329,1445,672,556,6e-31,139
Phialophora_americana_CBS400.67,SRR7698540.64338,100.00,36,0,0,1171,1206,873,838,3e-09,67.6
Phialophora_americana_CBS400.67,SRR7698540.26372,75.92,245,45,10,1171,1413,1754,1986,3e-23,113
Phialophora_verrucosa_CBS140325_T,SRR7698540.341897,86.67,180,21,3,218,396,36,213,1e-48,196
Cladophialophora_samoensis_CBS259.83_T,SRR7698540.341897,88.89,180,17,3,218,396,36,213,3e-55,219
Cladophialophora_carrionii_CBS260.83,SRR7698540.341897,87.22,180,20,3,234,412,36,213,3e-50,202
Exophiala_palmae_UPCB86822_T,SRR7698540.341897,88.89,180,18,2,177,356,36,213,7e-56,220
Cladophialophora_yegresii_CBS114405_T,SRR7698540.341897,87.78,180,19,3,219,397,36,213,6e-52,207
Knufia_epidermidis_CBS120353_T,SRR7698540.341897,86.36,198,24,3,199,395,18,213,1e-53,213
Arthrocladium_fulminans_CBS136243_T,SRR7698540.341897,85.64,181,23,3,212,392,36,213,7e-46,187
Cyphellophora_laciniata_CBS190.61_T,SRR7698540.341897,88.33,180,19,2,289,467,19,197,4e-54,215
Cyphellophora_laciniata_CBS190.61_T,SRR7698540.133937,98.77,81,1,0,20,100,41,121,6e-33,145
Cyphellophora_laciniata_CBS190.61_T,SRR7698540.26372,96.77,62,2,0,38,99,458,519,1e-20,104
Cyphellophora_suttonii_CBS449.91,SRR7698540.341897,88.27,179,19,2,193,370,20,197,1e-53,213
Cyphellophora_pauciseptata_CBS284.85_T,SRR7698540.341897,88.83,179,18,2,204,381,20,197,3e-55,219
Cyphellophora_pluriseptata_CBS286.85_T,SRR7698540.341897,87.78,180,20,2,208,386,19,197,2e-52,209
Phialophora_europaea_CBS101466,SRR7698540.341897,88.33,180,19,2,198,376,19,197,3e-54,215
Phialophora_ambigua_CBS235.93,SRR7698540.341897,88.27,179,19,2,196,373,20,197,1e-53,213
Cladophialophora_modesta_CBS985.96_T,SRR7698540.341897,87.29,181,21,2,192,372,19,197,2e-51,206
