Exophiala_pisciphila_CBS,SRR3613683.29306,97.44,39,1,0,1,39,87,125,7e-13,67.6
Exophiala_pisciphila_CBS,SRR3613683.28397,97.44,39,1,0,1,39,87,125,7e-13,67.6
Exophiala_pisciphila_CBS,SRR3613683.26178,97.44,39,1,0,1,39,87,125,7e-13,67.6
Exophiala_pisciphila_CBS,SRR3613683.25993,97.44,39,1,0,1,39,87,125,7e-13,67.6
Exophiala_pisciphila_CBS,SRR3613683.25801,97.44,39,1,0,1,39,87,125,7e-13,67.6
Exophiala_pisciphila_CBS,SRR3613683.23310,97.44,39,1,0,1,39,87,125,7e-13,67.6
Exophiala_pisciphila_CBS,SRR3613683.22564,97.44,39,1,0,1,39,87,125,7e-13,67.6
Exophiala_pisciphila_CBS,SRR3613683.22012,97.44,39,1,0,1,39,87,125,7e-13,67.6
Exophiala_pisciphila_CBS,SRR3613683.21675,97.44,39,1,0,1,39,87,125,7e-13,67.6
Exophiala_pisciphila_CBS,SRR3613683.21383,97.44,39,1,0,1,39,87,125,7e-13,67.6
Exophiala_pisciphila_CBS,SRR3613683.20126,97.44,39,1,0,1,39,87,125,7e-13,67.6
Exophiala_pisciphila_CBS,SRR3613683.18293,97.44,39,1,0,1,39,87,125,7e-13,67.6
Exophiala_pisciphila_CBS,SRR3613683.17391,97.44,39,1,0,1,39,87,125,7e-13,67.6
Exophiala_pisciphila_CBS,SRR3613683.14412,97.44,39,1,0,1,39,87,125,7e-13,67.6
Exophiala_pisciphila_CBS,SRR3613683.13944,97.44,39,1,0,1,39,87,125,7e-13,67.6
Exophiala_pisciphila_CBS,SRR3613683.13929,97.44,39,1,0,1,39,87,125,7e-13,67.6
Exophiala_pisciphila_CBS,SRR3613683.12414,97.44,39,1,0,1,39,87,125,7e-13,67.6
Exophiala_pisciphila_CBS,SRR3613683.12336,97.44,39,1,0,1,39,87,125,7e-13,67.6
Exophiala_pisciphila_CBS,SRR3613683.12159,97.44,39,1,0,1,39,87,125,7e-13,67.6
Exophiala_pisciphila_CBS,SRR3613683.11741,97.44,39,1,0,1,39,87,125,7e-13,67.6
Exophiala_pisciphila_CBS,SRR3613683.10878,97.44,39,1,0,1,39,87,125,7e-13,67.6
Exophiala_pisciphila_CBS,SRR3613683.10378,97.44,39,1,0,1,39,87,125,7e-13,67.6
Exophiala_pisciphila_CBS,SRR3613683.9932,97.44,39,1,0,1,39,87,125,7e-13,67.6
Exophiala_pisciphila_CBS,SRR3613683.9872,97.44,39,1,0,1,39,87,125,7e-13,67.6
Exophiala_pisciphila_CBS,SRR3613683.7305,97.44,39,1,0,1,39,87,125,7e-13,67.6
Exophiala_pisciphila_CBS,SRR3613683.6510,97.44,39,1,0,1,39,87,125,7e-13,67.6
Exophiala_pisciphila_CBS,SRR3613683.5708,97.44,39,1,0,1,39,87,125,7e-13,67.6
Exophiala_pisciphila_CBS,SRR3613683.4708,97.44,39,1,0,1,39,87,125,7e-13,67.6
Exophiala_pisciphila_CBS,SRR3613683.3307,97.44,39,1,0,1,39,87,125,7e-13,67.6
Exophiala_pisciphila_CBS,SRR3613683.3275,97.44,39,1,0,1,39,87,125,7e-13,67.6
Exophiala_pisciphila_CBS,SRR3613683.3194,97.44,39,1,0,1,39,87,125,7e-13,67.6
Exophiala_pisciphila_CBS,SRR3613683.2492,97.44,39,1,0,1,39,87,125,7e-13,67.6
Exophiala_pisciphila_CBS,SRR3613683.2219,97.44,39,1,0,1,39,87,125,7e-13,67.6
Exophiala_pisciphila_CBS,SRR3613683.1433,97.44,39,1,0,1,39,87,125,7e-13,67.6
Exophiala_pisciphila_CBS,SRR3613683.1268,97.44,39,1,0,1,39,87,125,7e-13,67.6
Exophiala_pisciphila_CBS,SRR3613683.1175,97.44,39,1,0,1,39,87,125,7e-13,67.6
Exophiala_pisciphila_CBS,SRR3613683.364,97.44,39,1,0,1,39,87,125,7e-13,67.6
Exophiala_pisciphila_CBS,SRR3613683.23669,94.87,39,2,0,1,39,87,125,3e-11,62.1
