Exophiala_nigra_CBS535.94_T,SRR7471043.12713492,90.24,123,10,2,186,307,26,147,2e-36,159
Exophiala_nigra_CBS535.94_T,SRR7471043.2483976,94.87,78,2,2,194,269,78,1,1e-24,121
Exophiala_spinifera_CBS899.68_T,SRR7471043.12713492,92.38,105,7,1,200,304,44,147,4e-33,148
Exophiala_spinifera_CBS899.68_T,SRR7471043.2483976,94.94,79,2,2,190,266,79,1,2e-25,122
Exophiala_exophialae_CBS668.76_T,SRR7471043.12713492,92.38,105,7,1,201,305,44,147,4e-33,148
Exophiala_exophialae_CBS668.76_T,SRR7471043.2483976,94.94,79,2,2,191,267,79,1,2e-25,122
Exophiala_polymorpha_CBS138920_T,SRR7471043.12713492,89.92,119,10,2,289,407,31,147,4e-34,152
Exophiala_polymorpha_CBS138920_T,SRR7471043.2483976,94.87,78,3,1,293,369,78,1,1e-24,121
Exophiala_polymorpha_CBS138920_T,SRR7471043.1931706,100.00,32,0,0,642,673,181,150,3e-06,60.2
Exophiala_polymorpha_CBS138920_T,SRR7471043.4995339,89.13,46,5,0,649,694,100,145,9e-06,58.4
Exophiala_polymorpha_CBS138920_T,SRR7471043.4995339,89.13,46,5,0,649,694,241,196,9e-06,58.4
Exophiala_polymorpha_CBS138920_T,SRR7471043.14756120,100.00,28,0,0,667,694,80,53,4e-04,52.8
Exophiala_polymorpha_CBS138920_T,SRR7471043.11464673,100.00,28,0,0,82,109,52,79,4e-04,52.8
Exophiala_polymorpha_CBS138920_T,SRR7471043.11373954,100.00,28,0,0,82,109,185,158,4e-04,52.8
Exophiala_polymorpha_CBS138920_T,SRR7471043.10286118,100.00,28,0,0,82,109,3,30,4e-04,52.8
Exophiala_polymorpha_CBS138920_T,SRR7471043.7807893,100.00,28,0,0,82,109,94,121,4e-04,52.8
Exophiala_polymorpha_CBS138920_T,SRR7471043.7807893,100.00,28,0,0,82,109,279,252,4e-04,52.8
Exophiala_polymorpha_CBS138920_T,SRR7471043.4282029,100.00,28,0,0,82,109,85,58,4e-04,52.8
Exophiala_oligosperma_CBS725.88_T,SRR7471043.12713492,92.38,105,7,1,213,317,44,147,4e-33,148
Exophiala_oligosperma_CBS725.88_T,SRR7471043.2483976,95.95,74,2,1,207,279,74,1,3e-24,119
Exophiala_jeanselmei_CBS507.90_T,SRR7471043.12713492,92.38,105,7,1,205,309,44,147,5e-33,148
Exophiala_jeanselmei_CBS507.90_T,SRR7471043.2483976,94.94,79,2,2,195,271,79,1,3e-25,122
Exophiala_jeanselmei_CBS507.90_T,SRR7471043.4995339,90.74,54,5,0,551,604,241,188,3e-10,73.1
Exophiala_jeanselmei_CBS507.90_T,SRR7471043.4995339,90.20,51,5,0,551,601,100,150,1e-08,67.6
Exophiala_jeanselmei_CBS507.90_T,SRR7471043.14756120,100.00,36,0,0,569,604,80,45,1e-08,67.6
Exophiala_jeanselmei_CBS507.90_T,SRR7471043.1931706,100.00,34,0,0,542,575,183,150,2e-07,63.9
Exophiala_bergeri_CBS353.52,SRR7471043.12713492,90.08,121,10,2,151,270,28,147,2e-35,156
Exophiala_bergeri_CBS353.52,SRR7471043.2483976,94.87,78,2,2,157,232,78,1,8e-25,121
Exophiala_moniliae_CBS520.76_T,SRR7471043.12713492,93.33,105,6,1,203,307,44,147,9e-35,154
Exophiala_moniliae_CBS520.76_T,SRR7471043.2483976,95.95,74,2,1,197,269,74,1,3e-24,119
Exophiala_pisciphila_CBS537.73_T,SRR7471043.12713492,93.33,105,6,1,206,310,44,147,1e-34,154
Exophiala_pisciphila_CBS537.73_T,SRR7471043.4995339,93.41,91,6,0,560,650,241,151,4e-29,135
Exophiala_pisciphila_CBS537.73_T,SRR7471043.4995339,92.16,51,4,0,560,610,100,150,3e-10,73.1
Exophiala_pisciphila_CBS537.73_T,SRR7471043.2483976,94.94,79,2,2,196,272,79,1,3e-25,122
Exophiala_pisciphila_CBS537.73_T,SRR7471043.17893356,98.48,66,1,0,588,653,1,66,1e-23,117
Exophiala_pisciphila_CBS537.73_T,SRR7471043.14756120,85.87,92,13,0,557,648,101,10,5e-18,99.0
Exophiala_xenobiotica_CBS117642,SRR7471043.12713492,90.08,121,10,2,183,302,28,147,2e-35,156
Exophiala_xenobiotica_CBS117642,SRR7471043.2483976,95.95,74,2,1,192,264,74,1,3e-24,119
Exophiala_brunnea_CBS,SRR7471043.12713492,93.33,105,6,1,234,338,44,147,1e-34,154
Exophiala_brunnea_CBS,SRR7471043.2483976,94.87,78,2,2,225,300,78,1,1e-24,121
Exophiala_brunnea_CBS,SRR7471043.11464673,100.00,41,0,0,1,41,39,79,2e-11,76.8
Exophiala_brunnea_CBS,SRR7471043.11373954,100.00,41,0,0,1,41,198,158,2e-11,76.8
Exophiala_brunnea_CBS,SRR7471043.11373954,100.00,29,0,0,1,29,122,150,1e-04,54.7
Exophiala_brunnea_CBS,SRR7471043.7807893,100.00,41,0,0,1,41,81,121,2e-11,76.8
Exophiala_brunnea_CBS,SRR7471043.7807893,100.00,41,0,0,1,41,292,252,2e-11,76.8
Exophiala_brunnea_CBS,SRR7471043.12732518,100.00,40,0,0,1,40,150,111,8e-11,75.0
Exophiala_brunnea_CBS,SRR7471043.12446599,95.65,46,1,1,1,46,57,13,3e-10,73.1
Exophiala_brunnea_CBS,SRR7471043.10306671,100.00,37,0,0,1,37,22,58,4e-09,69.4
Exophiala_brunnea_CBS,SRR7471043.8565999,100.00,37,0,0,1,37,248,212,4e-09,69.4
Exophiala_brunnea_CBS,SRR7471043.576881,100.00,37,0,0,1,37,63,99,4e-09,69.4
Exophiala_brunnea_CBS,SRR7471043.4282029,100.00,33,0,0,9,41,90,58,6e-07,62.1
Exophiala_brunnea_CBS,SRR7471043.10286118,100.00,30,0,0,12,41,1,30,3e-05,56.5
Exophiala_brunnea_CBS,SRR7471043.17630201,100.00,29,0,0,9,37,50,78,1e-04,54.7
Exophiala_nishimurae_CBS101538_T,SRR7471043.12713492,92.38,105,7,1,212,316,44,147,5e-33,148
Exophiala_nishimurae_CBS101538_T,SRR7471043.2483976,94.87,78,3,1,202,278,78,1,1e-24,121
Exophiala_nishimurae_CBS101538_T,SRR7471043.1931706,100.00,34,0,0,549,582,183,150,2e-07,63.9
Exophiala_mesophila_CBS402.95_T,SRR7471043.12713492,93.33,105,6,1,196,300,44,147,1e-34,154
Exophiala_mesophila_CBS402.95_T,SRR7471043.4995339,92.31,91,7,0,557,647,241,151,2e-27,130
Exophiala_mesophila_CBS402.95_T,SRR7471043.4995339,90.20,51,5,0,557,607,100,150,1e-08,67.6
Exophiala_mesophila_CBS402.95_T,SRR7471043.2483976,95.95,74,2,1,190,262,74,1,4e-24,119
Exophiala_mesophila_CBS402.95_T,SRR7471043.17893356,98.48,66,1,0,585,650,1,66,1e-23,117
Exophiala_mesophila_CBS402.95_T,SRR7471043.14756120,90.14,71,7,0,575,645,80,10,2e-16,93.5
Exophiala_mesophila_CBS402.95_T,SRR7471043.1931706,100.00,32,0,0,550,581,181,150,2e-06,60.2
Exophiala_castellanii_CBS158.58_T,SRR7471043.12713492,93.33,105,6,1,194,298,44,147,1e-34,154
Exophiala_castellanii_CBS158.58_T,SRR7471043.4995339,92.31,91,7,0,556,646,241,151,2e-27,130
Exophiala_castellanii_CBS158.58_T,SRR7471043.4995339,90.20,51,5,0,556,606,100,150,1e-08,67.6
Exophiala_castellanii_CBS158.58_T,SRR7471043.2483976,95.95,74,2,1,188,260,74,1,4e-24,119
Exophiala_castellanii_CBS158.58_T,SRR7471043.17893356,98.48,66,1,0,584,649,1,66,1e-23,117
Exophiala_castellanii_CBS158.58_T,SRR7471043.14756120,90.14,71,7,0,574,644,80,10,2e-16,93.5
Exophiala_castellanii_CBS158.58_T,SRR7471043.1931706,100.00,32,0,0,549,580,181,150,2e-06,60.2
Exophiala_lecanii-corni_CBS123.33_T,SRR7471043.12713492,93.33,105,6,1,217,321,44,147,9e-35,154
Exophiala_lecanii-corni_CBS123.33_T,SRR7471043.2483976,94.87,78,2,2,208,283,78,1,1e-24,121
Exophiala_dermatitidis_CBS748.88,SRR7471043.14756924,93.57,140,9,0,1322,1461,140,1,5e-51,209
Exophiala_dermatitidis_CBS748.88,SRR7471043.1735448,94.31,123,7,0,1382,1504,141,263,7e-45,189
Exophiala_dermatitidis_CBS748.88,SRR7471043.12061267,92.37,131,10,0,1371,1501,3,133,2e-44,187
Exophiala_dermatitidis_CBS748.88,SRR7471043.6457766,91.54,130,11,0,1367,1496,2,131,4e-42,180
Exophiala_dermatitidis_CBS748.88,SRR7471043.6457766,94.83,58,3,0,1447,1504,300,243,2e-15,91.6
Exophiala_dermatitidis_CBS748.88,SRR7471043.17893356,90.77,130,8,4,610,737,1,128,3e-39,171
Exophiala_dermatitidis_CBS748.88,SRR7471043.2590459,91.87,123,8,1,1316,1438,121,1,3e-39,171
Exophiala_dermatitidis_CBS748.88,SRR7471043.2590459,90.48,84,8,0,1211,1294,156,239,2e-21,111
Exophiala_dermatitidis_CBS748.88,SRR7471043.15593475,94.50,109,6,0,909,1017,1,109,9e-39,169
Exophiala_dermatitidis_CBS748.88,SRR7471043.14587793,89.92,119,12,0,825,943,182,300,3e-34,154
Exophiala_dermatitidis_CBS748.88,SRR7471043.12713492,93.33,105,5,2,210,313,44,147,3e-34,154
Exophiala_dermatitidis_CBS748.88,SRR7471043.18063832,93.00,100,7,0,1359,1458,147,48,4e-32,147
Exophiala_dermatitidis_CBS748.88,SRR7471043.4995339,92.31,91,7,0,582,672,241,151,4e-27,130
Exophiala_dermatitidis_CBS748.88,SRR7471043.4995339,90.20,51,5,0,582,632,100,150,3e-08,67.6
Exophiala_dermatitidis_CBS748.88,SRR7471043.3185115,94.12,85,5,0,1358,1442,57,141,4e-27,130
Exophiala_dermatitidis_CBS748.88,SRR7471043.3692241,87.16,109,13,1,1316,1423,31,139,7e-25,122
Exophiala_dermatitidis_CBS748.88,SRR7471043.3692241,97.62,42,1,0,1463,1504,297,256,7e-10,73.1
Exophiala_dermatitidis_CBS748.88,SRR7471043.15082890,91.76,85,7,0,1420,1504,1,85,9e-24,119
Exophiala_dermatitidis_CBS748.88,SRR7471043.2483976,93.67,79,2,3,200,275,79,1,1e-22,115
Exophiala_dermatitidis_CBS748.88,SRR7471043.930498,84.43,122,14,5,1209,1329,118,1,1e-22,115
Exophiala_dermatitidis_CBS748.88,SRR7471043.16554262,86.75,83,11,0,1422,1504,151,69,6e-16,93.5
Exophiala_dermatitidis_CBS748.88,SRR7471043.14756120,90.14,71,7,0,600,670,80,10,6e-16,93.5
Exophiala_dermatitidis_CBS748.88,SRR7471043.17579784,86.59,82,11,0,1423,1504,300,219,2e-15,91.6
Exophiala_dermatitidis_CBS748.88,SRR7471043.10835092,87.65,81,5,4,1189,1265,218,297,7e-15,89.8
Exophiala_dermatitidis_CBS748.88,SRR7471043.9381974,90.00,60,6,0,1373,1432,213,154,2e-11,78.7
Exophiala_dermatitidis_CBS748.88,SRR7471043.1931706,100.00,34,0,0,573,606,183,150,4e-07,63.9
Exophiala_dermatitidis_CBS748.88,SRR7471043.1400622,97.30,37,0,1,1207,1242,212,176,2e-06,62.1
Exophiala_angulospora_CBS482.92_T,SRR7471043.12713492,93.33,105,6,1,200,304,44,147,9e-35,154
Exophiala_angulospora_CBS482.92_T,SRR7471043.2483976,95.95,74,2,1,194,266,74,1,3e-24,119
Exophiala_opportunistica_CBS109811_T,SRR7471043.12713492,91.96,112,8,1,192,303,37,147,3e-35,156
Exophiala_opportunistica_CBS109811_T,SRR7471043.2483976,97.14,70,2,0,196,265,70,1,3e-24,119
Exophiala_salmonis_CBS157.67_T,SRR7471043.12713492,93.33,105,6,1,328,432,44,147,1e-34,154
Exophiala_salmonis_CBS157.67_T,SRR7471043.4995339,93.41,91,6,0,680,770,241,151,5e-29,135
Exophiala_salmonis_CBS157.67_T,SRR7471043.4995339,92.16,51,4,0,680,730,100,150,4e-10,73.1
Exophiala_salmonis_CBS157.67_T,SRR7471043.2483976,94.94,79,2,2,318,394,79,1,4e-25,122
Exophiala_salmonis_CBS157.67_T,SRR7471043.2483976,90.14,71,7,0,52,122,149,219,3e-16,93.5
Exophiala_salmonis_CBS157.67_T,SRR7471043.17893356,98.48,66,1,0,708,773,1,66,2e-23,117
Exophiala_salmonis_CBS157.67_T,SRR7471043.11722617,92.21,77,6,0,46,122,3,79,3e-21,110
Exophiala_salmonis_CBS157.67_T,SRR7471043.14756120,85.87,92,13,0,677,768,101,10,6e-18,99.0
Exophiala_salmonis_CBS157.67_T,SRR7471043.18788206,100.00,44,0,0,79,122,69,112,6e-13,82.4
Exophiala_salmonis_CBS157.67_T,SRR7471043.18679233,78.74,127,20,6,1,122,276,152,8e-12,78.7
Exophiala_salmonis_CBS157.67_T,SRR7471043.11373954,78.23,124,22,5,1,122,8,128,1e-10,75.0
Exophiala_salmonis_CBS157.67_T,SRR7471043.11373954,97.56,41,1,0,82,122,232,192,1e-09,71.3
Exophiala_salmonis_CBS157.67_T,SRR7471043.15177426,97.56,41,1,0,82,122,49,9,1e-09,71.3
Exophiala_salmonis_CBS157.67_T,SRR7471043.11464673,97.56,41,1,0,82,122,5,45,1e-09,71.3
Exophiala_salmonis_CBS157.67_T,SRR7471043.8565999,90.38,52,5,0,71,122,293,242,5e-09,69.4
Exophiala_salmonis_CBS157.67_T,SRR7471043.576881,89.09,55,5,1,68,122,16,69,2e-08,67.6
Exophiala_salmonis_CBS157.67_T,SRR7471043.10306671,100.00,28,0,0,95,122,1,28,5e-04,52.8
Exophiala_aquamarina_CBS119918_T,SRR7471043.12713492,93.33,105,6,1,206,310,44,147,9e-35,154
Exophiala_aquamarina_CBS119918_T,SRR7471043.2483976,94.94,79,2,2,196,272,79,1,3e-25,122
Exophiala_cancerae_CBS120420_T,SRR7471043.12713492,91.96,112,8,1,214,325,37,147,3e-35,156
Exophiala_cancerae_CBS120420_T,SRR7471043.2483976,97.14,70,2,0,218,287,70,1,4e-24,119
Exophiala_cancerae_CBS120420_T,SRR7471043.4995339,92.59,54,4,0,571,624,241,188,6e-12,78.7
Exophiala_cancerae_CBS120420_T,SRR7471043.4995339,92.16,51,4,0,571,621,100,150,3e-10,73.1
Exophiala_cancerae_CBS120420_T,SRR7471043.14756120,89.47,57,6,0,568,624,101,45,3e-10,73.1
Exophiala_cancerae_CBS120420_T,SRR7471043.9430787,100.00,29,0,0,1,29,185,213,1e-04,54.7
Exophiala_tremulae_CBS129355,SRR7471043.12713492,93.33,105,6,1,233,337,44,147,1e-34,154
Exophiala_tremulae_CBS129355,SRR7471043.2483976,94.94,79,2,2,223,299,79,1,3e-25,122
Exophiala_tremulae_CBS129355,SRR7471043.11464673,100.00,41,0,0,1,41,39,79,2e-11,76.8
Exophiala_tremulae_CBS129355,SRR7471043.11373954,100.00,41,0,0,1,41,198,158,2e-11,76.8
Exophiala_tremulae_CBS129355,SRR7471043.11373954,100.00,29,0,0,1,29,122,150,1e-04,54.7
Exophiala_tremulae_CBS129355,SRR7471043.7807893,100.00,41,0,0,1,41,81,121,2e-11,76.8
Exophiala_tremulae_CBS129355,SRR7471043.7807893,100.00,41,0,0,1,41,292,252,2e-11,76.8
Exophiala_tremulae_CBS129355,SRR7471043.12732518,100.00,40,0,0,1,40,150,111,8e-11,75.0
Exophiala_tremulae_CBS129355,SRR7471043.12446599,95.65,46,1,1,1,46,57,13,3e-10,73.1
Exophiala_tremulae_CBS129355,SRR7471043.10306671,100.00,37,0,0,1,37,22,58,4e-09,69.4
Exophiala_tremulae_CBS129355,SRR7471043.8565999,100.00,37,0,0,1,37,248,212,4e-09,69.4
Exophiala_tremulae_CBS129355,SRR7471043.576881,100.00,37,0,0,1,37,63,99,4e-09,69.4
Exophiala_tremulae_CBS129355,SRR7471043.4282029,100.00,33,0,0,9,41,90,58,6e-07,62.1
Exophiala_tremulae_CBS129355,SRR7471043.10286118,100.00,30,0,0,12,41,1,30,3e-05,56.5
Exophiala_tremulae_CBS129355,SRR7471043.17630201,100.00,29,0,0,9,37,50,78,1e-04,54.7
Exophiala_equina_CBS116009,SRR7471043.12713492,93.33,105,6,1,199,303,44,147,9e-35,154
Exophiala_equina_CBS116009,SRR7471043.2483976,94.94,79,2,2,189,265,79,1,3e-25,122
Exophiala_alcalophila_CBS520.82_T,SRR7471043.12713492,91.96,112,8,1,203,314,37,147,3e-35,156
Exophiala_alcalophila_CBS520.82_T,SRR7471043.2483976,97.14,70,2,0,207,276,70,1,3e-24,119
Exophiala_crusticola_CBS119970_T,SRR7471043.12713492,93.33,105,6,1,215,319,44,147,9e-35,154
Exophiala_crusticola_CBS119970_T,SRR7471043.2483976,95.95,74,2,1,209,281,74,1,3e-24,119
Rhinocladiella_atrovirens_CBS264.49,SRR7471043.12713492,91.45,117,8,2,230,345,32,147,2e-36,159
Rhinocladiella_atrovirens_CBS264.49,SRR7471043.2483976,97.14,70,2,0,238,307,70,1,4e-24,119
Rhinocladiella_atrovirens_CBS264.49,SRR7471043.11464673,100.00,44,0,0,1,44,34,77,5e-13,82.4
Rhinocladiella_atrovirens_CBS264.49,SRR7471043.11373954,100.00,44,0,0,1,44,203,160,5e-13,82.4
Rhinocladiella_atrovirens_CBS264.49,SRR7471043.11373954,100.00,34,0,0,1,34,117,150,2e-07,63.9
Rhinocladiella_atrovirens_CBS264.49,SRR7471043.7807893,100.00,44,0,0,1,44,76,119,5e-13,82.4
Rhinocladiella_atrovirens_CBS264.49,SRR7471043.7807893,100.00,44,0,0,1,44,297,254,5e-13,82.4
Rhinocladiella_atrovirens_CBS264.49,SRR7471043.12446599,100.00,43,0,0,1,43,62,20,2e-12,80.5
Rhinocladiella_atrovirens_CBS264.49,SRR7471043.576881,97.83,46,1,0,1,46,58,103,2e-12,80.5
Rhinocladiella_atrovirens_CBS264.49,SRR7471043.10306671,100.00,42,0,0,1,42,17,58,6e-12,78.7
Rhinocladiella_atrovirens_CBS264.49,SRR7471043.8565999,100.00,42,0,0,1,42,253,212,6e-12,78.7
Rhinocladiella_atrovirens_CBS264.49,SRR7471043.12732518,100.00,39,0,0,6,44,150,112,3e-10,73.1
Rhinocladiella_atrovirens_CBS264.49,SRR7471043.4282029,100.00,31,0,0,14,44,90,60,8e-06,58.4
Rhinocladiella_atrovirens_CBS264.49,SRR7471043.17630201,96.97,33,1,0,14,46,50,82,3e-05,56.5
Rhinocladiella_atrovirens_CBS264.49,SRR7471043.10286118,100.00,28,0,0,17,44,1,28,4e-04,52.8
Rhinocladiella_basitona_CBS101460_T,SRR7471043.12713492,92.38,105,7,1,200,304,44,147,4e-33,148
Rhinocladiella_basitona_CBS101460_T,SRR7471043.2483976,94.94,79,2,2,190,266,79,1,2e-25,122
Rhinocladiella_phaeophora_CBS496.78_T,SRR7471043.12713492,93.33,105,6,1,208,312,44,147,9e-35,154
Rhinocladiella_phaeophora_CBS496.78_T,SRR7471043.2483976,96.05,76,3,0,199,274,76,1,7e-26,124
Rhinocladiella_aquaspersa_CBS313.73_T,SRR7471043.12713492,93.33,105,6,1,202,306,44,147,1e-34,154
Rhinocladiella_aquaspersa_CBS313.73_T,SRR7471043.4995339,96.10,77,3,0,566,642,227,151,2e-26,126
Rhinocladiella_aquaspersa_CBS313.73_T,SRR7471043.4995339,97.30,37,1,0,566,602,114,150,2e-07,63.9
Rhinocladiella_aquaspersa_CBS313.73_T,SRR7471043.2483976,96.05,76,3,0,193,268,76,1,8e-26,124
Rhinocladiella_aquaspersa_CBS313.73_T,SRR7471043.17893356,97.18,71,2,0,580,650,1,71,1e-24,121
Rhinocladiella_aquaspersa_CBS313.73_T,SRR7471043.14756120,90.14,71,7,0,570,640,80,10,2e-16,93.5
Rhinocladiella_fasciculata_CBS132.86_T,SRR7471043.12713492,91.45,117,7,3,208,322,32,147,7e-36,158
Rhinocladiella_fasciculata_CBS132.86_T,SRR7471043.2483976,97.10,69,2,0,216,284,69,1,1e-23,117
Rhinocladiella_anceps_CBS181.65_T,SRR7471043.12713492,93.33,105,6,1,200,304,44,147,9e-35,154
Rhinocladiella_anceps_CBS181.65_T,SRR7471043.2483976,97.14,70,2,0,197,266,70,1,3e-24,119
Rhinocladiella_mackenziei_CBS367.92,SRR7471043.12713492,91.96,112,8,1,182,293,37,147,3e-35,156
Rhinocladiella_mackenziei_CBS367.92,SRR7471043.2483976,97.14,70,2,0,186,255,70,1,4e-24,119
Rhinocladiella_mackenziei_CBS367.92,SRR7471043.11464673,100.00,28,0,0,1,28,52,79,4e-04,52.8
Rhinocladiella_mackenziei_CBS367.92,SRR7471043.11373954,100.00,28,0,0,1,28,185,158,4e-04,52.8
Rhinocladiella_mackenziei_CBS367.92,SRR7471043.10286118,100.00,28,0,0,1,28,3,30,4e-04,52.8
Rhinocladiella_mackenziei_CBS367.92,SRR7471043.7807893,100.00,28,0,0,1,28,94,121,4e-04,52.8
Rhinocladiella_mackenziei_CBS367.92,SRR7471043.7807893,100.00,28,0,0,1,28,279,252,4e-04,52.8
Rhinocladiella_mackenziei_CBS367.92,SRR7471043.4282029,100.00,28,0,0,1,28,85,58,4e-04,52.8
Veronaea_compacta_CBS268.75_T,SRR7471043.12713492,93.33,105,6,1,222,326,44,147,1e-34,154
Veronaea_compacta_CBS268.75_T,SRR7471043.2483976,94.87,78,2,2,213,288,78,1,1e-24,121
Veronaea_compacta_CBS268.75_T,SRR7471043.11464673,100.00,29,0,0,1,29,51,79,1e-04,54.7
Veronaea_compacta_CBS268.75_T,SRR7471043.11373954,100.00,29,0,0,1,29,186,158,1e-04,54.7
Veronaea_compacta_CBS268.75_T,SRR7471043.10286118,100.00,29,0,0,1,29,2,30,1e-04,54.7
Veronaea_compacta_CBS268.75_T,SRR7471043.7807893,100.00,29,0,0,1,29,93,121,1e-04,54.7
Veronaea_compacta_CBS268.75_T,SRR7471043.7807893,100.00,29,0,0,1,29,280,252,1e-04,54.7
Veronaea_compacta_CBS268.75_T,SRR7471043.4282029,100.00,29,0,0,1,29,86,58,1e-04,54.7
Veronaea_compacta_CBS268.75_T,SRR7471043.12732518,100.00,28,0,0,1,28,138,111,4e-04,52.8
Capronia_pilosella_AFTOL-ID657,SRR7471043.12713492,93.33,105,6,1,300,404,44,147,1e-34,154
Capronia_pilosella_AFTOL-ID657,SRR7471043.2483976,95.95,74,2,1,294,366,74,1,4e-24,119
Capronia_pilosella_AFTOL-ID657,SRR7471043.1931706,100.00,33,0,0,642,674,182,150,7e-07,62.1
Capronia_dactylotricha_DAOM208471_T,SRR7471043.12713492,93.33,105,6,1,202,306,44,147,1e-34,154
Capronia_dactylotricha_DAOM208471_T,SRR7471043.4995339,93.41,91,6,0,565,655,241,151,4e-29,135
Capronia_dactylotricha_DAOM208471_T,SRR7471043.4995339,92.16,51,4,0,565,615,100,150,3e-10,73.1
Capronia_dactylotricha_DAOM208471_T,SRR7471043.2483976,97.14,70,2,0,199,268,70,1,4e-24,119
Capronia_dactylotricha_DAOM208471_T,SRR7471043.17893356,98.48,66,1,0,593,658,1,66,1e-23,117
Capronia_dactylotricha_DAOM208471_T,SRR7471043.14756120,85.87,92,13,0,562,653,101,10,5e-18,99.0
Capronia_kleinmondensis_CBS122671_T,SRR7471043.12713492,92.11,114,8,1,218,331,35,147,2e-36,159
Capronia_kleinmondensis_CBS122671_T,SRR7471043.4995339,90.48,105,7,3,560,661,255,151,4e-29,135
Capronia_kleinmondensis_CBS122671_T,SRR7471043.4995339,87.69,65,5,3,560,621,86,150,3e-10,73.1
Capronia_kleinmondensis_CBS122671_T,SRR7471043.2483976,92.05,88,5,2,206,293,86,1,3e-25,122
Capronia_kleinmondensis_CBS122671_T,SRR7471043.17893356,98.48,66,1,0,599,664,1,66,1e-23,117
Capronia_kleinmondensis_CBS122671_T,SRR7471043.14756120,85.87,92,13,0,568,659,101,10,5e-18,99.0
Capronia_kleinmondensis_CBS122671_T,SRR7471043.12732518,100.00,30,0,0,1,30,141,112,3e-05,56.5
Capronia_kleinmondensis_CBS122671_T,SRR7471043.11464673,100.00,30,0,0,1,30,48,77,3e-05,56.5
Capronia_kleinmondensis_CBS122671_T,SRR7471043.11373954,100.00,30,0,0,1,30,189,160,3e-05,56.5
Capronia_kleinmondensis_CBS122671_T,SRR7471043.7807893,100.00,30,0,0,1,30,90,119,3e-05,56.5
Capronia_kleinmondensis_CBS122671_T,SRR7471043.7807893,100.00,30,0,0,1,30,283,254,3e-05,56.5
Capronia_kleinmondensis_CBS122671_T,SRR7471043.4282029,100.00,30,0,0,1,30,89,60,3e-05,56.5
Capronia_kleinmondensis_CBS122671_T,SRR7471043.17630201,96.88,32,1,0,1,32,51,82,1e-04,54.7
Capronia_kleinmondensis_CBS122671_T,SRR7471043.12446599,100.00,29,0,0,1,29,48,20,1e-04,54.7
Capronia_kleinmondensis_CBS122671_T,SRR7471043.576881,96.88,32,1,0,1,32,72,103,1e-04,54.7
Capronia_kleinmondensis_CBS122671_T,SRR7471043.10306671,100.00,28,0,0,1,28,31,58,4e-04,52.8
Capronia_kleinmondensis_CBS122671_T,SRR7471043.10286118,100.00,28,0,0,3,30,1,28,4e-04,52.8
Capronia_kleinmondensis_CBS122671_T,SRR7471043.8565999,100.00,28,0,0,1,28,239,212,4e-04,52.8
Capronia_mansonii_CBS101.67_T,SRR7471043.12713492,93.33,105,6,1,213,317,44,147,1e-34,154
Capronia_mansonii_CBS101.67_T,SRR7471043.4995339,92.31,91,7,0,575,665,241,151,2e-27,130
Capronia_mansonii_CBS101.67_T,SRR7471043.4995339,90.20,51,5,0,575,625,100,150,1e-08,67.6
Capronia_mansonii_CBS101.67_T,SRR7471043.2483976,94.94,79,2,2,203,279,79,1,3e-25,122
Capronia_mansonii_CBS101.67_T,SRR7471043.17893356,98.48,66,1,0,603,668,1,66,1e-23,117
Capronia_mansonii_CBS101.67_T,SRR7471043.14756120,83.33,102,16,1,562,663,110,10,2e-16,93.5
Capronia_mansonii_CBS101.67_T,SRR7471043.1931706,100.00,33,0,0,567,599,182,150,7e-07,62.1
Capronia_munkii_DAOM216390_T,SRR7471043.12713492,93.33,105,6,1,213,317,44,147,1e-34,154
Capronia_munkii_DAOM216390_T,SRR7471043.4995339,92.31,91,7,0,575,665,241,151,2e-27,130
Capronia_munkii_DAOM216390_T,SRR7471043.4995339,90.20,51,5,0,575,625,100,150,1e-08,67.6
Capronia_munkii_DAOM216390_T,SRR7471043.2483976,94.94,79,2,2,203,279,79,1,3e-25,122
Capronia_munkii_DAOM216390_T,SRR7471043.17893356,98.48,66,1,0,603,668,1,66,1e-23,117
Capronia_munkii_DAOM216390_T,SRR7471043.14756120,90.14,71,7,0,593,663,80,10,2e-16,93.5
Capronia_munkii_DAOM216390_T,SRR7471043.1931706,100.00,33,0,0,567,599,182,150,7e-07,62.1
Capronia_coronata_ATCC56201_T,SRR7471043.12713492,93.33,105,6,1,201,305,44,147,1e-34,154
Capronia_coronata_ATCC56201_T,SRR7471043.4995339,92.31,91,7,0,546,636,241,151,2e-27,130
Capronia_coronata_ATCC56201_T,SRR7471043.4995339,90.20,51,5,0,546,596,100,150,1e-08,67.6
Capronia_coronata_ATCC56201_T,SRR7471043.2483976,95.95,74,2,1,195,267,74,1,4e-24,119
Capronia_coronata_ATCC56201_T,SRR7471043.17893356,98.48,66,1,0,574,639,1,66,1e-23,117
Capronia_coronata_ATCC56201_T,SRR7471043.14756120,90.14,71,7,0,564,634,80,10,2e-16,93.5
Capronia_coronata_ATCC56201_T,SRR7471043.1931706,100.00,34,0,0,537,570,183,150,2e-07,63.9
Capronia_parasitica_CBS123.88,SRR7471043.12713492,92.73,110,7,1,202,311,39,147,8e-36,158
Capronia_parasitica_CBS123.88,SRR7471043.2483976,94.94,79,2,2,197,273,79,1,3e-25,122
Veronaea_japonica_CBS776.83_T,SRR7471043.12713492,93.33,105,6,1,235,339,44,147,1e-34,154
Veronaea_japonica_CBS776.83_T,SRR7471043.2483976,94.87,78,2,2,226,301,78,1,1e-24,121
Veronaea_japonica_CBS776.83_T,SRR7471043.11464673,100.00,40,0,0,1,40,40,79,8e-11,75.0
Veronaea_japonica_CBS776.83_T,SRR7471043.11373954,100.00,40,0,0,1,40,197,158,8e-11,75.0
Veronaea_japonica_CBS776.83_T,SRR7471043.11373954,100.00,28,0,0,1,28,123,150,4e-04,52.8
Veronaea_japonica_CBS776.83_T,SRR7471043.7807893,100.00,40,0,0,1,40,82,121,8e-11,75.0
Veronaea_japonica_CBS776.83_T,SRR7471043.7807893,100.00,40,0,0,1,40,291,252,8e-11,75.0
Veronaea_japonica_CBS776.83_T,SRR7471043.12732518,100.00,39,0,0,1,39,149,111,3e-10,73.1
Veronaea_japonica_CBS776.83_T,SRR7471043.12446599,95.56,45,1,1,1,45,56,13,1e-09,71.3
Veronaea_japonica_CBS776.83_T,SRR7471043.10306671,100.00,36,0,0,1,36,23,58,1e-08,67.6
Veronaea_japonica_CBS776.83_T,SRR7471043.8565999,100.00,36,0,0,1,36,247,212,1e-08,67.6
Veronaea_japonica_CBS776.83_T,SRR7471043.576881,100.00,36,0,0,1,36,64,99,1e-08,67.6
Veronaea_japonica_CBS776.83_T,SRR7471043.4282029,100.00,33,0,0,8,40,90,58,6e-07,62.1
Veronaea_japonica_CBS776.83_T,SRR7471043.10286118,100.00,30,0,0,11,40,1,30,3e-05,56.5
Veronaea_japonica_CBS776.83_T,SRR7471043.17630201,100.00,29,0,0,8,36,50,78,1e-04,54.7
Thysanorea_papuana_CBS212.96_T,SRR7471043.12713492,93.33,105,6,1,209,313,44,147,9e-35,154
Thysanorea_papuana_CBS212.96_T,SRR7471043.2483976,94.94,79,2,2,199,275,79,1,3e-25,122
Capronia_acutiseta_ATCC56428_T,SRR7471043.4995339,92.31,91,7,0,545,635,241,151,2e-27,130
Capronia_acutiseta_ATCC56428_T,SRR7471043.4995339,92.16,51,4,0,545,595,100,150,3e-10,73.1
Capronia_acutiseta_ATCC56428_T,SRR7471043.17893356,96.97,66,2,0,573,638,1,66,6e-22,111
Capronia_acutiseta_ATCC56428_T,SRR7471043.14756120,85.87,92,13,0,542,633,101,10,5e-18,99.0
Fonsecaea_brasiliensis_CBS119710_T,SRR7471043.12713492,93.33,105,6,1,209,313,44,147,9e-35,154
Fonsecaea_brasiliensis_CBS119710_T,SRR7471043.2483976,90.32,93,6,3,185,275,92,1,3e-24,119
Fonsecaea_pedrosoi_CBS271.37_T,SRR7471043.12713492,93.33,105,6,1,237,341,44,147,1e-34,154
Fonsecaea_pedrosoi_CBS271.37_T,SRR7471043.2483976,90.32,93,6,3,213,303,92,1,4e-24,119
Fonsecaea_pedrosoi_CBS271.37_T,SRR7471043.4995339,88.89,54,6,0,592,645,241,188,1e-08,67.6
Fonsecaea_pedrosoi_CBS271.37_T,SRR7471043.4995339,88.24,51,6,0,592,642,100,150,7e-07,62.1
Fonsecaea_pedrosoi_CBS271.37_T,SRR7471043.14756120,97.22,36,1,0,610,645,80,45,7e-07,62.1
Fonsecaea_pedrosoi_CBS271.37_T,SRR7471043.12732518,100.00,32,0,0,1,32,141,110,2e-06,60.2
Fonsecaea_pedrosoi_CBS271.37_T,SRR7471043.11464673,100.00,31,0,0,1,31,48,78,9e-06,58.4
Fonsecaea_pedrosoi_CBS271.37_T,SRR7471043.11373954,100.00,31,0,0,1,31,189,159,9e-06,58.4
Fonsecaea_pedrosoi_CBS271.37_T,SRR7471043.10306671,97.06,34,1,0,1,34,31,64,9e-06,58.4
Fonsecaea_pedrosoi_CBS271.37_T,SRR7471043.8565999,97.06,34,1,0,1,34,239,206,9e-06,58.4
Fonsecaea_pedrosoi_CBS271.37_T,SRR7471043.7807893,100.00,31,0,0,1,31,90,120,9e-06,58.4
Fonsecaea_pedrosoi_CBS271.37_T,SRR7471043.7807893,100.00,31,0,0,1,31,283,253,9e-06,58.4
Fonsecaea_pedrosoi_CBS271.37_T,SRR7471043.4282029,100.00,31,0,0,1,31,89,59,9e-06,58.4
Fonsecaea_pedrosoi_CBS271.37_T,SRR7471043.12446599,94.59,37,1,1,1,37,48,13,3e-05,56.5
Fonsecaea_pedrosoi_CBS271.37_T,SRR7471043.1931706,96.97,33,1,0,584,616,182,150,3e-05,56.5
Fonsecaea_pedrosoi_CBS271.37_T,SRR7471043.10286118,100.00,29,0,0,3,31,1,29,1e-04,54.7
Fonsecaea_pedrosoi_CBS271.37_T,SRR7471043.17630201,100.00,28,0,0,1,28,51,78,4e-04,52.8
Fonsecaea_pedrosoi_CBS271.37_T,SRR7471043.576881,100.00,28,0,0,1,28,72,99,4e-04,52.8
Fonsecaea_multimorphosa_CBS980.96_T,SRR7471043.12713492,93.33,105,6,1,207,311,44,147,9e-35,154
Fonsecaea_multimorphosa_CBS980.96_T,SRR7471043.2483976,97.10,69,2,0,205,273,69,1,1e-23,117
Fonsecaea_minima_CBS125760_T,SRR7471043.12713492,93.33,105,6,1,203,307,44,147,9e-35,154
Fonsecaea_minima_CBS125760_T,SRR7471043.2483976,97.10,69,2,0,201,269,69,1,1e-23,117
Fonsecaea_nubica_CBS269.64_T,SRR7471043.12713492,93.33,105,6,1,214,318,44,147,9e-35,154
Fonsecaea_nubica_CBS269.64_T,SRR7471043.2483976,90.32,93,6,3,190,280,92,1,3e-24,119
Fonsecaea_erecta_CBS125763_T,SRR7471043.12713492,93.33,105,6,1,198,302,44,147,9e-35,154
Fonsecaea_erecta_CBS125763_T,SRR7471043.2483976,93.67,79,4,1,187,264,79,1,1e-23,117
Fonsecaea_pugnacius_CBS139214_T,SRR7471043.12713492,93.33,105,6,1,207,311,44,147,9e-35,154
Fonsecaea_pugnacius_CBS139214_T,SRR7471043.2483976,97.10,69,2,0,205,273,69,1,1e-23,117
Cladophialophora_psammophila_CBS,SRR7471043.12713492,93.33,105,6,1,213,317,44,147,9e-35,154
Cladophialophora_psammophila_CBS,SRR7471043.2483976,87.62,105,10,3,176,279,103,1,3e-24,119
Cladophialophora_devriesii_CBS,SRR7471043.12713492,93.33,105,6,1,209,313,44,147,9e-35,154
Cladophialophora_devriesii_CBS,SRR7471043.2483976,97.10,69,2,0,207,275,69,1,1e-23,117
Cladophialophora_immunda_CBS834.96,SRR7471043.12713492,93.33,105,6,1,211,315,44,147,9e-35,154
Cladophialophora_immunda_CBS834.96,SRR7471043.2483976,90.32,93,6,3,187,277,92,1,3e-24,119
Cladophialophora_arxii_CBS306.94_T,SRR7471043.12713492,93.33,105,6,1,213,317,44,147,9e-35,154
Cladophialophora_arxii_CBS306.94_T,SRR7471043.2483976,97.10,69,2,0,211,279,69,1,1e-23,117
Cladophialophora_bantiana_CBS173.52,SRR7471043.12713492,93.33,105,6,1,207,311,44,147,9e-35,154
Cladophialophora_bantiana_CBS173.52,SRR7471043.2483976,97.10,69,2,0,205,273,69,1,1e-23,117
Cladophialophora_emmonsii_CBS102594,SRR7471043.12713492,93.33,105,6,1,198,302,44,147,9e-35,154
Cladophialophora_emmonsii_CBS102594,SRR7471043.2483976,97.10,69,2,0,196,264,69,1,1e-23,117
Cladophialophora_minourae_CBS556.83,SRR7471043.12713492,92.38,105,7,1,206,310,44,147,4e-33,148
Cladophialophora_minourae_CBS556.83,SRR7471043.2483976,97.10,69,2,0,204,272,69,1,1e-23,117
Cladophialophora_australiensis_CBS112793,SRR7471043.14756924,92.86,140,10,0,1289,1428,140,1,2e-49,204
Cladophialophora_australiensis_CBS112793,SRR7471043.1735448,94.31,123,7,0,1349,1471,141,263,7e-45,189
Cladophialophora_australiensis_CBS112793,SRR7471043.12061267,92.37,131,10,0,1338,1468,3,133,2e-44,187
Cladophialophora_australiensis_CBS112793,SRR7471043.6457766,91.54,130,11,0,1334,1463,2,131,4e-42,180
Cladophialophora_australiensis_CBS112793,SRR7471043.6457766,94.83,58,3,0,1414,1471,300,243,2e-15,91.6
Cladophialophora_australiensis_CBS112793,SRR7471043.17893356,91.47,129,8,3,581,707,1,128,2e-40,174
Cladophialophora_australiensis_CBS112793,SRR7471043.15593475,92.66,109,8,0,879,987,1,109,2e-35,158
Cladophialophora_australiensis_CBS112793,SRR7471043.14587793,89.52,124,13,0,790,913,177,300,2e-35,158
Cladophialophora_australiensis_CBS112793,SRR7471043.12713492,93.33,105,6,1,208,312,44,147,2e-34,154
Cladophialophora_australiensis_CBS112793,SRR7471043.18063832,93.00,100,7,0,1326,1425,147,48,4e-32,147
Cladophialophora_australiensis_CBS112793,SRR7471043.3185115,94.12,85,5,0,1325,1409,57,141,4e-27,130
Cladophialophora_australiensis_CBS112793,SRR7471043.2483976,96.20,79,2,1,197,274,79,1,2e-26,128
Cladophialophora_australiensis_CBS112793,SRR7471043.4995339,91.21,91,8,0,553,643,241,151,2e-25,124
Cladophialophora_australiensis_CBS112793,SRR7471043.4995339,88.24,51,6,0,553,603,100,150,2e-06,62.1
Cladophialophora_australiensis_CBS112793,SRR7471043.3692241,87.16,109,13,1,1283,1390,31,139,7e-25,122
Cladophialophora_australiensis_CBS112793,SRR7471043.3692241,97.62,42,1,0,1430,1471,297,256,7e-10,73.1
Cladophialophora_australiensis_CBS112793,SRR7471043.930498,85.12,121,15,3,1176,1296,118,1,3e-24,121
Cladophialophora_australiensis_CBS112793,SRR7471043.15082890,91.76,85,7,0,1387,1471,1,85,9e-24,119
Cladophialophora_australiensis_CBS112793,SRR7471043.16554262,86.75,83,11,0,1389,1471,151,69,5e-16,93.5
Cladophialophora_australiensis_CBS112793,SRR7471043.17579784,86.59,82,11,0,1390,1471,300,219,2e-15,91.6
Cladophialophora_australiensis_CBS112793,SRR7471043.10835092,87.65,81,5,4,1156,1232,218,297,7e-15,89.8
Cladophialophora_australiensis_CBS112793,SRR7471043.14756120,88.73,71,8,0,571,641,80,10,3e-14,87.9
Cladophialophora_australiensis_CBS112793,SRR7471043.9381974,86.67,75,8,2,1326,1399,227,154,1e-12,82.4
Cladophialophora_australiensis_CBS112793,SRR7471043.1400622,92.16,51,3,1,1174,1223,212,162,3e-09,71.3
Cladophialophora_australiensis_CBS112793,SRR7471043.1931706,96.97,33,1,0,545,577,182,150,7e-05,56.5
Cladophialophora_potulentorum_CBS112222,SRR7471043.1735448,93.01,143,10,0,1351,1493,141,283,5e-51,209
Cladophialophora_potulentorum_CBS112222,SRR7471043.14756924,92.86,140,10,0,1291,1430,140,1,2e-49,204
Cladophialophora_potulentorum_CBS112222,SRR7471043.12061267,91.22,148,13,0,1340,1487,3,150,9e-49,202
Cladophialophora_potulentorum_CBS112222,SRR7471043.6457766,90.00,140,14,0,1336,1475,2,141,1e-42,182
Cladophialophora_potulentorum_CBS112222,SRR7471043.6457766,94.52,73,4,0,1416,1488,300,228,4e-22,113
Cladophialophora_potulentorum_CBS112222,SRR7471043.17893356,91.47,129,8,3,583,709,1,128,2e-40,174
Cladophialophora_potulentorum_CBS112222,SRR7471043.15593475,93.58,109,7,0,881,989,1,109,4e-37,163
Cladophialophora_potulentorum_CBS112222,SRR7471043.14587793,89.52,124,13,0,792,915,177,300,2e-35,158
Cladophialophora_potulentorum_CBS112222,SRR7471043.12713492,93.33,105,6,1,207,311,44,147,3e-34,154
Cladophialophora_potulentorum_CBS112222,SRR7471043.18063832,93.00,100,7,0,1328,1427,147,48,4e-32,147
Cladophialophora_potulentorum_CBS112222,SRR7471043.15082890,92.00,100,8,0,1389,1488,1,100,2e-30,141
Cladophialophora_potulentorum_CBS112222,SRR7471043.3185115,94.12,85,5,0,1327,1411,57,141,4e-27,130
Cladophialophora_potulentorum_CBS112222,SRR7471043.4995339,91.21,91,8,0,555,645,241,151,2e-25,124
Cladophialophora_potulentorum_CBS112222,SRR7471043.4995339,88.24,51,6,0,555,605,100,150,2e-06,62.1
Cladophialophora_potulentorum_CBS112222,SRR7471043.3692241,87.16,109,13,1,1285,1392,31,139,7e-25,122
Cladophialophora_potulentorum_CBS112222,SRR7471043.3692241,96.49,57,2,0,1432,1488,297,241,2e-16,95.3
Cladophialophora_potulentorum_CBS112222,SRR7471043.2483976,94.94,79,2,2,197,273,79,1,7e-25,122
Cladophialophora_potulentorum_CBS112222,SRR7471043.16554262,87.76,98,12,0,1391,1488,151,54,1e-22,115
Cladophialophora_potulentorum_CBS112222,SRR7471043.17579784,87.63,97,12,0,1392,1488,300,204,4e-22,113
Cladophialophora_potulentorum_CBS112222,SRR7471043.930498,81.88,138,22,3,1161,1298,135,1,4e-22,113
Cladophialophora_potulentorum_CBS112222,SRR7471043.14756120,88.73,71,8,0,573,643,80,10,3e-14,87.9
Cladophialophora_potulentorum_CBS112222,SRR7471043.10835092,86.25,80,8,2,1158,1234,218,297,3e-13,84.2
Cladophialophora_potulentorum_CBS112222,SRR7471043.9381974,86.67,75,8,2,1328,1401,227,154,1e-12,82.4
Cladophialophora_potulentorum_CBS112222,SRR7471043.1400622,90.57,53,4,1,1174,1225,214,162,9e-09,69.4
Cladophialophora_potulentorum_CBS112222,SRR7471043.1931706,97.06,34,1,0,546,579,183,150,2e-05,58.4
Cladophialophora_matsushimae_CMRP1198,SRR7471043.12713492,93.33,105,6,1,211,315,44,147,8e-35,154
Cladophialophora_matsushimae_CMRP1198,SRR7471043.2483976,97.14,70,2,0,208,277,70,1,3e-24,119
Cladophialophora_mycetomatis_CBS122637,SRR7471043.12713492,93.33,105,6,1,196,300,44,147,9e-35,154
Cladophialophora_mycetomatis_CBS122637,SRR7471043.2483976,97.14,70,2,0,193,262,70,1,3e-24,119
Cladophialophora_chaetospira_CBS127573,SRR7471043.12713492,92.16,102,7,1,605,706,47,147,3e-31,143
Cladophialophora_chaetospira_CBS127573,SRR7471043.2483976,93.24,74,4,1,596,668,74,1,1e-20,108
Cladophialophora_chaetospira_CBS127573,SRR7471043.4282029,100.00,35,0,0,377,411,92,58,7e-08,65.8
Cladophialophora_chaetospira_CBS127573,SRR7471043.11464673,100.00,33,0,0,379,411,47,79,1e-06,62.1
Cladophialophora_chaetospira_CBS127573,SRR7471043.11373954,100.00,33,0,0,379,411,190,158,1e-06,62.1
Cladophialophora_chaetospira_CBS127573,SRR7471043.7807893,100.00,33,0,0,379,411,89,121,1e-06,62.1
Cladophialophora_chaetospira_CBS127573,SRR7471043.7807893,100.00,33,0,0,379,411,284,252,1e-06,62.1
Cladophialophora_chaetospira_CBS127573,SRR7471043.12732518,100.00,32,0,0,379,410,142,111,3e-06,60.2
Cladophialophora_chaetospira_CBS127573,SRR7471043.12446599,94.74,38,1,1,379,416,49,13,1e-05,58.4
Cladophialophora_chaetospira_CBS127573,SRR7471043.17630201,100.00,30,0,0,378,407,49,78,5e-05,56.5
Cladophialophora_chaetospira_CBS127573,SRR7471043.10286118,100.00,30,0,0,382,411,1,30,5e-05,56.5
Cladophialophora_chaetospira_CBS127573,SRR7471043.13192138,100.00,29,0,0,281,309,243,215,2e-04,54.7
Cladophialophora_chaetospira_CBS127573,SRR7471043.10306671,100.00,29,0,0,379,407,30,58,2e-04,54.7
Cladophialophora_chaetospira_CBS127573,SRR7471043.8565999,100.00,29,0,0,379,407,240,212,2e-04,54.7
Cladophialophora_chaetospira_CBS127573,SRR7471043.576881,100.00,29,0,0,379,407,71,99,2e-04,54.7
Cladophialophora_boppii_CBS126.86_T,SRR7471043.12713492,93.33,105,6,1,204,308,44,147,9e-35,154
Cladophialophora_boppii_CBS126.86_T,SRR7471043.2483976,95.95,74,2,1,198,270,74,1,3e-24,119
Cladophialophora_abundans_CBS126736,SRR7471043.12713492,92.38,105,7,1,141,245,44,147,4e-33,148
Cladophialophora_abundans_CBS126736,SRR7471043.2483976,97.14,70,2,0,138,207,70,1,3e-24,119
Capronia_semi-immersa_CBS102234,SRR7471043.12713492,92.38,105,7,1,203,307,44,147,4e-33,148
Capronia_semi-immersa_CBS102234,SRR7471043.2483976,97.10,69,2,0,201,269,69,1,1e-23,117
Phialophora_americana_CBS400.67,SRR7471043.14756924,92.86,140,10,0,1283,1422,140,1,2e-49,204
Phialophora_americana_CBS400.67,SRR7471043.5174597,88.97,145,13,3,828,969,300,156,5e-41,176
Phialophora_americana_CBS400.67,SRR7471043.6457766,91.53,118,10,0,1328,1445,2,119,4e-37,163
Phialophora_americana_CBS400.67,SRR7471043.15593475,92.66,109,8,0,873,981,1,109,2e-35,158
Phialophora_americana_CBS400.67,SRR7471043.14587793,89.52,124,13,0,784,907,177,300,2e-35,158
Phialophora_americana_CBS400.67,SRR7471043.325435,89.06,128,13,1,850,976,146,19,2e-35,158
Phialophora_americana_CBS400.67,SRR7471043.2590459,95.79,95,4,0,1305,1399,95,1,2e-34,154
Phialophora_americana_CBS400.67,SRR7471043.2590459,90.48,84,8,0,1172,1255,156,239,1e-21,111
Phialophora_americana_CBS400.67,SRR7471043.1735448,93.20,103,7,0,1343,1445,141,243,9e-34,152
Phialophora_americana_CBS400.67,SRR7471043.12713492,92.38,105,7,1,205,309,44,147,1e-32,148
Phialophora_americana_CBS400.67,SRR7471043.18063832,93.00,100,7,0,1320,1419,147,48,4e-32,147
Phialophora_americana_CBS400.67,SRR7471043.11146950,88.60,114,13,0,852,965,151,264,7e-30,139
Phialophora_americana_CBS400.67,SRR7471043.3185115,94.12,85,5,0,1319,1403,57,141,4e-27,130
Phialophora_americana_CBS400.67,SRR7471043.3692241,87.16,109,13,1,1277,1384,31,139,7e-25,122
Phialophora_americana_CBS400.67,SRR7471043.2483976,97.10,69,2,0,203,271,69,1,3e-23,117
Phialophora_americana_CBS400.67,SRR7471043.930498,84.43,122,14,5,1170,1290,118,1,1e-22,115
Phialophora_americana_CBS400.67,SRR7471043.10835092,87.65,81,5,4,1150,1226,218,297,7e-15,89.8
Phialophora_americana_CBS400.67,SRR7471043.9381974,90.00,60,6,0,1334,1393,213,154,2e-11,78.7
Phialophora_americana_CBS400.67,SRR7471043.1400622,97.30,37,0,1,1168,1203,212,176,2e-06,62.1
Phialophora_americana_CBS400.67,SRR7471043.1931706,97.06,34,1,0,538,571,183,150,2e-05,58.4
Phialophora_verrucosa_CBS140325_T,SRR7471043.12713492,92.38,105,7,1,209,313,44,147,4e-33,148
Phialophora_verrucosa_CBS140325_T,SRR7471043.2483976,97.10,69,2,0,207,275,69,1,1e-23,117
Phialophora_verrucosa_CBS140325_T,SRR7471043.1931706,97.06,34,1,0,544,577,183,150,8e-06,58.4
Cladophialophora_samoensis_CBS259.83_T,SRR7471043.12713492,90.68,118,9,2,196,313,32,147,3e-35,156
Cladophialophora_samoensis_CBS259.83_T,SRR7471043.2483976,97.10,69,2,0,207,275,69,1,1e-23,117
Cladophialophora_carrionii_CBS260.83,SRR7471043.12713492,93.33,105,6,1,225,329,44,147,1e-34,154
Cladophialophora_carrionii_CBS260.83,SRR7471043.2483976,97.10,69,2,0,223,291,69,1,1e-23,117
Cladophialophora_carrionii_CBS260.83,SRR7471043.1931706,97.06,34,1,0,557,590,183,150,8e-06,58.4
Exophiala_palmae_UPCB86822_T,SRR7471043.12713492,93.33,105,6,1,168,272,44,147,8e-35,154
Exophiala_palmae_UPCB86822_T,SRR7471043.2483976,94.87,78,2,2,159,234,78,1,8e-25,121
Cladophialophora_yegresii_CBS114405_T,SRR7471043.12713492,88.55,131,11,4,186,314,19,147,3e-35,156
Cladophialophora_yegresii_CBS114405_T,SRR7471043.2483976,97.10,69,2,0,208,276,69,1,1e-23,117
Knufia_epidermidis_CBS120353_T,SRR7471043.12713492,91.07,112,9,1,201,312,37,147,1e-33,150
Knufia_epidermidis_CBS120353_T,SRR7471043.2483976,97.14,70,2,0,205,274,70,1,3e-24,119
Arthrocladium_fulminans_CBS136243_T,SRR7471043.12713492,92.38,105,7,1,203,307,44,147,4e-33,148
Arthrocladium_fulminans_CBS136243_T,SRR7471043.2483976,93.75,80,4,1,190,269,79,1,3e-24,119
Arthrocladium_fulminans_CBS136243_T,SRR7471043.1931706,100.00,28,0,0,533,560,181,154,3e-04,52.8
Anthopsis_deltoidea_CBS263.77_T,SRR7471043.12713492,92.31,104,7,1,212,314,44,147,1e-32,147
Anthopsis_deltoidea_CBS263.77_T,SRR7471043.12713492,86.73,98,11,2,282,378,300,204,7e-21,108
Anthopsis_deltoidea_CBS263.77_T,SRR7471043.2483976,97.10,69,2,0,210,278,69,1,1e-23,117
Cyphellophora_laciniata_CBS190.61_T,SRR7471043.12713492,89.26,121,11,2,280,399,28,147,2e-33,150
Cyphellophora_laciniata_CBS190.61_T,SRR7471043.2483976,89.72,107,11,0,1,107,152,258,1e-29,137
Cyphellophora_laciniata_CBS190.61_T,SRR7471043.2483976,97.14,70,2,0,294,363,70,1,4e-24,119
Cyphellophora_laciniata_CBS190.61_T,SRR7471043.4995339,93.41,91,6,0,642,732,241,151,4e-29,135
Cyphellophora_laciniata_CBS190.61_T,SRR7471043.4995339,90.20,51,5,0,642,692,100,150,2e-08,67.6
Cyphellophora_laciniata_CBS190.61_T,SRR7471043.11722617,89.42,104,11,0,2,105,13,116,6e-28,132
Cyphellophora_laciniata_CBS190.61_T,SRR7471043.11464673,98.63,73,1,0,28,100,5,77,2e-27,130
Cyphellophora_laciniata_CBS190.61_T,SRR7471043.11373954,98.63,73,1,0,28,100,232,160,2e-27,130
Cyphellophora_laciniata_CBS190.61_T,SRR7471043.11373954,98.41,63,1,0,28,90,88,150,7e-22,111
Cyphellophora_laciniata_CBS190.61_T,SRR7471043.8565999,93.90,82,5,0,17,98,293,212,1e-25,124
Cyphellophora_laciniata_CBS190.61_T,SRR7471043.576881,92.13,89,6,1,14,102,16,103,1e-25,124
Cyphellophora_laciniata_CBS190.61_T,SRR7471043.18788206,94.87,78,4,0,25,102,69,146,3e-25,122
Cyphellophora_laciniata_CBS190.61_T,SRR7471043.7807893,97.22,72,2,0,29,100,48,119,3e-25,122
Cyphellophora_laciniata_CBS190.61_T,SRR7471043.7807893,100.00,47,0,0,54,100,300,254,1e-14,87.9
Cyphellophora_laciniata_CBS190.61_T,SRR7471043.17893356,96.97,66,2,0,670,735,1,66,7e-22,111
Cyphellophora_laciniata_CBS190.61_T,SRR7471043.10306671,100.00,58,0,0,41,98,1,58,1e-20,108
Cyphellophora_laciniata_CBS190.61_T,SRR7471043.12446599,90.12,81,7,1,19,99,99,20,1e-19,104
Cyphellophora_laciniata_CBS190.61_T,SRR7471043.14756120,91.55,71,6,0,660,730,80,10,6e-18,99.0
Cyphellophora_laciniata_CBS190.61_T,SRR7471043.15177426,97.96,49,1,0,28,76,49,1,5e-14,86.1
Cyphellophora_laciniata_CBS190.61_T,SRR7471043.18679233,92.45,53,4,0,17,69,203,151,3e-11,76.8
Cyphellophora_laciniata_CBS190.61_T,SRR7471043.12732518,100.00,39,0,0,62,100,150,112,4e-10,73.1
Cyphellophora_laciniata_CBS190.61_T,SRR7471043.1931706,100.00,34,0,0,633,666,183,150,2e-07,63.9
Cyphellophora_laciniata_CBS190.61_T,SRR7471043.4282029,100.00,31,0,0,70,100,90,60,1e-05,58.4
Cyphellophora_laciniata_CBS190.61_T,SRR7471043.17630201,96.97,33,1,0,70,102,50,82,4e-05,56.5
Cyphellophora_laciniata_CBS190.61_T,SRR7471043.10286118,100.00,28,0,0,73,100,1,28,5e-04,52.8
Cyphellophora_suttonii_CBS449.91,SRR7471043.12713492,90.00,120,10,2,185,302,28,147,9e-35,154
Cyphellophora_suttonii_CBS449.91,SRR7471043.2483976,97.14,70,2,0,197,266,70,1,3e-24,119
Cyphellophora_pauciseptata_CBS284.85_T,SRR7471043.12713492,90.83,120,9,2,196,313,28,147,2e-36,159
Cyphellophora_pauciseptata_CBS284.85_T,SRR7471043.2483976,97.10,69,2,0,209,277,69,1,1e-23,117
Cyphellophora_pluriseptata_CBS286.85_T,SRR7471043.12713492,90.09,111,10,1,209,318,37,147,2e-31,143
Cyphellophora_pluriseptata_CBS286.85_T,SRR7471043.2483976,95.71,70,3,0,213,282,70,1,2e-22,113
Phialophora_europaea_CBS101466,SRR7471043.12713492,90.16,122,10,2,188,308,27,147,7e-36,158
Phialophora_europaea_CBS101466,SRR7471043.2483976,97.10,69,2,0,204,272,69,1,1e-23,117
Phialophora_ambigua_CBS235.93,SRR7471043.12713492,90.99,111,9,1,196,305,37,147,4e-33,148
Phialophora_ambigua_CBS235.93,SRR7471043.2483976,97.14,70,2,0,200,269,70,1,3e-24,119
Cladophialophora_modesta_CBS985.96_T,SRR7471043.12713492,90.60,117,10,1,188,304,32,147,1e-34,154
Cladophialophora_modesta_CBS985.96_T,SRR7471043.4995339,94.51,91,5,0,526,616,241,151,8e-31,141
Cladophialophora_modesta_CBS985.96_T,SRR7471043.4995339,90.20,51,5,0,526,576,100,150,1e-08,67.6
Cladophialophora_modesta_CBS985.96_T,SRR7471043.2483976,97.14,70,2,0,197,266,70,1,4e-24,119
Cladophialophora_modesta_CBS985.96_T,SRR7471043.17893356,98.48,66,1,0,554,619,1,66,1e-23,117
Cladophialophora_modesta_CBS985.96_T,SRR7471043.14756120,88.04,92,11,0,523,614,101,10,2e-21,110
Cyphellophora_fusarioides_MUCL44033_T,SRR7471043.12713492,90.00,120,11,1,183,301,28,147,9e-35,154
Cyphellophora_fusarioides_MUCL44033_T,SRR7471043.12713492,83.67,98,14,2,269,365,300,204,7e-16,91.6
Cyphellophora_fusarioides_MUCL44033_T,SRR7471043.2483976,97.14,70,2,0,196,265,70,1,3e-24,119
