Exophiala_nigra_CBS535.94_T,SRR7469208.22490387,95.00,60,2,1,190,248,208,149,3e-16,93.5
Exophiala_nigra_CBS535.94_T,SRR7469208.3796224,100.00,42,0,0,201,242,192,151,7e-12,78.7
Exophiala_spinifera_CBS899.68_T,SRR7469208.22490387,100.00,49,0,0,197,245,197,149,8e-16,91.6
Exophiala_spinifera_CBS899.68_T,SRR7469208.3796224,100.00,42,0,0,198,239,192,151,7e-12,78.7
Exophiala_exophialae_CBS668.76_T,SRR7469208.22490387,100.00,49,0,0,198,246,197,149,8e-16,91.6
Exophiala_exophialae_CBS668.76_T,SRR7469208.3796224,100.00,42,0,0,199,240,192,151,7e-12,78.7
Exophiala_polymorpha_CBS138920_T,SRR7469208.17985426,98.15,54,1,0,641,694,213,266,8e-17,95.3
Exophiala_polymorpha_CBS138920_T,SRR7469208.22490387,94.92,59,3,0,290,348,207,149,3e-16,93.5
Exophiala_polymorpha_CBS138920_T,SRR7469208.3796224,100.00,42,0,0,301,342,192,151,9e-12,78.7
Exophiala_polymorpha_CBS138920_T,SRR7469208.13965624,100.00,37,0,0,642,678,187,151,5e-09,69.4
Exophiala_polymorpha_CBS138920_T,SRR7469208.15043630,100.00,28,0,0,82,109,91,64,5e-04,52.8
Exophiala_polymorpha_CBS138920_T,SRR7469208.5885515,100.00,28,0,0,82,109,242,215,5e-04,52.8
Exophiala_oligosperma_CBS725.88_T,SRR7469208.22490387,96.43,56,1,1,203,258,203,149,9e-16,91.6
Exophiala_oligosperma_CBS725.88_T,SRR7469208.3796224,100.00,42,0,0,211,252,192,151,7e-12,78.7
Exophiala_jeanselmei_CBS507.90_T,SRR7469208.17985426,98.36,61,1,0,544,604,214,274,9e-21,108
Exophiala_jeanselmei_CBS507.90_T,SRR7469208.22490387,95.16,62,1,2,191,250,210,149,2e-17,97.1
Exophiala_jeanselmei_CBS507.90_T,SRR7469208.3796224,100.00,42,0,0,203,244,192,151,7e-12,78.7
Exophiala_jeanselmei_CBS507.90_T,SRR7469208.13965624,100.00,38,0,0,543,580,188,151,1e-09,71.3
Exophiala_bergeri_CBS353.52,SRR7469208.22490387,95.00,60,2,1,153,211,208,149,2e-16,93.5
Exophiala_bergeri_CBS353.52,SRR7469208.3796224,100.00,42,0,0,164,205,192,151,6e-12,78.7
Exophiala_moniliae_CBS520.76_T,SRR7469208.22490387,89.61,77,2,5,173,248,220,149,2e-16,93.5
Exophiala_moniliae_CBS520.76_T,SRR7469208.3796224,100.00,42,0,0,201,242,192,151,7e-12,78.7
Exophiala_pisciphila_CBS537.73_T,SRR7469208.17985426,97.94,97,1,1,543,639,205,300,2e-38,167
Exophiala_pisciphila_CBS537.73_T,SRR7469208.17985426,100.00,42,0,0,612,653,151,110,8e-12,78.7
Exophiala_pisciphila_CBS537.73_T,SRR7469208.22490387,95.16,62,1,2,192,251,210,149,2e-17,97.1
Exophiala_pisciphila_CBS537.73_T,SRR7469208.3796224,100.00,42,0,0,204,245,192,151,8e-12,78.7
Exophiala_xenobiotica_CBS117642,SRR7469208.22490387,100.00,49,0,0,195,243,197,149,8e-16,91.6
Exophiala_xenobiotica_CBS117642,SRR7469208.3796224,100.00,42,0,0,196,237,192,151,7e-12,78.7
Exophiala_brunnea_CBS,SRR7469208.22490387,94.92,59,2,1,222,279,207,149,1e-15,91.6
Exophiala_brunnea_CBS,SRR7469208.17985426,98.00,50,1,0,584,633,214,263,4e-15,89.8
Exophiala_brunnea_CBS,SRR7469208.3796224,80.83,120,17,5,1,119,40,154,4e-15,89.8
Exophiala_brunnea_CBS,SRR7469208.3796224,100.00,42,0,0,232,273,192,151,8e-12,78.7
Exophiala_brunnea_CBS,SRR7469208.15043630,100.00,41,0,0,1,41,104,64,3e-11,76.8
Exophiala_brunnea_CBS,SRR7469208.5885515,100.00,41,0,0,1,41,255,215,3e-11,76.8
Exophiala_brunnea_CBS,SRR7469208.10591727,100.00,38,0,0,1,38,145,108,1e-09,71.3
Exophiala_brunnea_CBS,SRR7469208.2472354,100.00,38,0,0,1,38,62,99,1e-09,71.3
Exophiala_nishimurae_CBS101538_T,SRR7469208.22490387,100.00,49,0,0,209,257,197,149,9e-16,91.6
Exophiala_nishimurae_CBS101538_T,SRR7469208.3796224,100.00,42,0,0,210,251,192,151,7e-12,78.7
Exophiala_nishimurae_CBS101538_T,SRR7469208.13965624,100.00,38,0,0,550,587,188,151,1e-09,71.3
Exophiala_mesophila_CBS402.95_T,SRR7469208.17985426,98.91,92,1,0,545,636,209,300,6e-38,165
Exophiala_mesophila_CBS402.95_T,SRR7469208.17985426,100.00,42,0,0,609,650,151,110,8e-12,78.7
Exophiala_mesophila_CBS402.95_T,SRR7469208.22490387,100.00,49,0,0,193,241,197,149,1e-15,91.6
Exophiala_mesophila_CBS402.95_T,SRR7469208.3796224,100.00,42,0,0,194,235,192,151,8e-12,78.7
Exophiala_mesophila_CBS402.95_T,SRR7469208.13965624,100.00,37,0,0,550,586,187,151,5e-09,69.4
Exophiala_castellanii_CBS158.58_T,SRR7469208.17985426,97.89,95,1,1,542,635,206,300,2e-37,163
Exophiala_castellanii_CBS158.58_T,SRR7469208.17985426,100.00,42,0,0,608,649,151,110,8e-12,78.7
Exophiala_castellanii_CBS158.58_T,SRR7469208.22490387,100.00,49,0,0,191,239,197,149,1e-15,91.6
Exophiala_castellanii_CBS158.58_T,SRR7469208.3796224,100.00,42,0,0,192,233,192,151,8e-12,78.7
Exophiala_castellanii_CBS158.58_T,SRR7469208.13965624,100.00,37,0,0,549,585,187,151,5e-09,69.4
Exophiala_lecanii-corni_CBS123.33_T,SRR7469208.22490387,94.92,59,2,1,205,262,207,149,9e-16,91.6
Exophiala_lecanii-corni_CBS123.33_T,SRR7469208.3796224,100.00,42,0,0,215,256,192,151,7e-12,78.7
Exophiala_dermatitidis_CBS748.88,SRR7469208.19385474,96.62,148,5,0,1349,1496,148,1,5e-62,246
Exophiala_dermatitidis_CBS748.88,SRR7469208.19385474,89.06,64,6,1,1197,1260,220,282,2e-11,78.7
Exophiala_dermatitidis_CBS748.88,SRR7469208.13906981,95.14,144,7,0,1348,1491,144,1,2e-56,228
Exophiala_dermatitidis_CBS748.88,SRR7469208.13906981,86.02,93,9,4,1181,1270,159,250,5e-17,97.1
Exophiala_dermatitidis_CBS748.88,SRR7469208.17985426,88.39,155,14,2,634,788,151,1,4e-43,183
Exophiala_dermatitidis_CBS748.88,SRR7469208.17985426,95.19,104,4,1,558,661,198,300,5e-37,163
Exophiala_dermatitidis_CBS748.88,SRR7469208.12780012,88.49,139,16,0,851,989,151,289,1e-38,169
Exophiala_dermatitidis_CBS748.88,SRR7469208.10382772,92.37,118,9,0,825,942,118,1,1e-38,169
Exophiala_dermatitidis_CBS748.88,SRR7469208.10382772,76.09,138,22,8,716,849,169,299,2e-06,62.1
Exophiala_dermatitidis_CBS748.88,SRR7469208.6082932,85.90,156,15,7,1264,1417,151,1,7e-36,159
Exophiala_dermatitidis_CBS748.88,SRR7469208.12196851,93.07,101,7,0,1404,1504,1,101,1e-32,148
Exophiala_dermatitidis_CBS748.88,SRR7469208.20957188,87.20,125,16,0,842,966,125,1,7e-31,143
Exophiala_dermatitidis_CBS748.88,SRR7469208.20957188,87.20,125,16,0,842,966,161,285,7e-31,143
Exophiala_dermatitidis_CBS748.88,SRR7469208.11359182,88.89,108,8,3,636,742,151,255,5e-27,130
Exophiala_dermatitidis_CBS748.88,SRR7469208.12569457,91.01,89,8,0,842,930,53,141,3e-24,121
Exophiala_dermatitidis_CBS748.88,SRR7469208.6153601,98.28,58,1,0,1447,1504,1,58,1e-18,102
Exophiala_dermatitidis_CBS748.88,SRR7469208.8773344,87.50,80,10,0,1186,1265,230,151,7e-16,93.5
Exophiala_dermatitidis_CBS748.88,SRR7469208.22490387,93.33,60,1,3,198,254,208,149,1e-13,86.1
Exophiala_dermatitidis_CBS748.88,SRR7469208.14997656,90.16,61,6,0,1186,1246,66,6,5e-12,80.5
Exophiala_dermatitidis_CBS748.88,SRR7469208.13965624,100.00,38,0,0,574,611,188,151,3e-09,71.3
Exophiala_dermatitidis_CBS748.88,SRR7469208.3796224,97.62,42,0,1,208,248,192,151,3e-09,71.3
Exophiala_dermatitidis_CBS748.88,SRR7469208.22057912,100.00,36,0,0,1210,1245,43,8,4e-08,67.6
Exophiala_angulospora_CBS482.92_T,SRR7469208.22490387,96.43,56,1,1,190,245,203,149,9e-16,91.6
Exophiala_angulospora_CBS482.92_T,SRR7469208.3796224,100.00,42,0,0,198,239,192,151,7e-12,78.7
Exophiala_opportunistica_CBS109811_T,SRR7469208.22490387,95.16,62,1,2,185,244,210,149,2e-17,97.1
Exophiala_opportunistica_CBS109811_T,SRR7469208.3796224,100.00,42,0,0,197,238,192,151,7e-12,78.7
Exophiala_salmonis_CBS157.67_T,SRR7469208.17985426,97.94,97,1,1,663,759,205,300,2e-38,167
Exophiala_salmonis_CBS157.67_T,SRR7469208.17985426,100.00,42,0,0,732,773,151,110,1e-11,78.7
Exophiala_salmonis_CBS157.67_T,SRR7469208.1811471,89.19,111,12,0,1,111,39,149,4e-30,139
Exophiala_salmonis_CBS157.67_T,SRR7469208.22490387,95.16,62,1,2,314,373,210,149,3e-17,97.1
Exophiala_salmonis_CBS157.67_T,SRR7469208.3796224,100.00,42,0,0,326,367,192,151,1e-11,78.7
Exophiala_salmonis_CBS157.67_T,SRR7469208.3796224,100.00,40,0,0,83,122,7,46,1e-10,75.0
Exophiala_salmonis_CBS157.67_T,SRR7469208.5885515,97.56,41,1,0,82,122,289,249,2e-09,71.3
Exophiala_salmonis_CBS157.67_T,SRR7469208.14916024,97.50,40,1,0,83,122,6,45,6e-09,69.4
Exophiala_aquamarina_CBS119918_T,SRR7469208.22490387,95.16,62,1,2,192,251,210,149,2e-17,97.1
Exophiala_aquamarina_CBS119918_T,SRR7469208.3796224,100.00,42,0,0,204,245,192,151,7e-12,78.7
Exophiala_cancerae_CBS120420_T,SRR7469208.17985426,97.22,72,0,2,553,624,205,274,1e-24,121
Exophiala_cancerae_CBS120420_T,SRR7469208.22490387,95.16,62,1,2,207,266,210,149,2e-17,97.1
Exophiala_cancerae_CBS120420_T,SRR7469208.3796224,100.00,42,0,0,219,260,192,151,8e-12,78.7
Exophiala_cancerae_CBS120420_T,SRR7469208.110062,100.00,31,0,0,1,31,118,88,1e-05,58.4
Exophiala_tremulae_CBS129355,SRR7469208.22490387,95.24,63,1,2,218,278,211,149,6e-18,99.0
Exophiala_tremulae_CBS129355,SRR7469208.17985426,96.67,60,1,1,569,628,205,263,6e-18,99.0
Exophiala_tremulae_CBS129355,SRR7469208.3796224,100.00,42,0,0,231,272,192,151,8e-12,78.7
Exophiala_tremulae_CBS129355,SRR7469208.3796224,97.73,44,1,0,1,44,40,83,3e-11,76.8
Exophiala_tremulae_CBS129355,SRR7469208.15043630,100.00,41,0,0,1,41,104,64,3e-11,76.8
Exophiala_tremulae_CBS129355,SRR7469208.5885515,100.00,41,0,0,1,41,255,215,3e-11,76.8
Exophiala_tremulae_CBS129355,SRR7469208.10591727,100.00,38,0,0,1,38,145,108,1e-09,71.3
Exophiala_tremulae_CBS129355,SRR7469208.2472354,100.00,38,0,0,1,38,62,99,1e-09,71.3
Exophiala_equina_CBS116009,SRR7469208.22490387,95.24,63,1,2,184,244,211,149,5e-18,99.0
Exophiala_equina_CBS116009,SRR7469208.3796224,100.00,42,0,0,197,238,192,151,7e-12,78.7
Exophiala_alcalophila_CBS520.82_T,SRR7469208.22490387,95.31,64,2,1,193,255,212,149,1e-18,100
Exophiala_alcalophila_CBS520.82_T,SRR7469208.3796224,100.00,42,0,0,208,249,192,151,7e-12,78.7
Exophiala_crusticola_CBS119970_T,SRR7469208.22490387,96.83,63,1,1,199,260,211,149,1e-19,104
Exophiala_crusticola_CBS119970_T,SRR7469208.3796224,100.00,42,0,0,213,254,192,151,7e-12,78.7
Rhinocladiella_atrovirens_CBS264.49,SRR7469208.17985426,100.00,58,0,0,569,626,205,262,1e-20,108
Rhinocladiella_atrovirens_CBS264.49,SRR7469208.22490387,100.00,49,0,0,238,286,197,149,1e-15,91.6
Rhinocladiella_atrovirens_CBS264.49,SRR7469208.3796224,81.31,107,16,4,1,106,35,138,2e-13,84.2
Rhinocladiella_atrovirens_CBS264.49,SRR7469208.3796224,100.00,42,0,0,239,280,192,151,8e-12,78.7
Rhinocladiella_atrovirens_CBS264.49,SRR7469208.15043630,100.00,44,0,0,1,44,109,66,6e-13,82.4
Rhinocladiella_atrovirens_CBS264.49,SRR7469208.5885515,100.00,44,0,0,1,44,260,217,6e-13,82.4
Rhinocladiella_atrovirens_CBS264.49,SRR7469208.2472354,100.00,43,0,0,1,43,57,99,2e-12,80.5
Rhinocladiella_atrovirens_CBS264.49,SRR7469208.10591727,100.00,41,0,0,3,43,148,108,3e-11,76.8
Rhinocladiella_basitona_CBS101460_T,SRR7469208.22490387,100.00,49,0,0,197,245,197,149,8e-16,91.6
Rhinocladiella_basitona_CBS101460_T,SRR7469208.3796224,100.00,42,0,0,198,239,192,151,7e-12,78.7
Rhinocladiella_phaeophora_CBS496.78_T,SRR7469208.22490387,100.00,48,0,0,206,253,196,149,3e-15,89.8
Rhinocladiella_phaeophora_CBS496.78_T,SRR7469208.3796224,97.83,46,1,0,202,247,196,151,2e-12,80.5
Rhinocladiella_aquaspersa_CBS313.73_T,SRR7469208.17985426,94.74,95,1,4,540,631,207,300,8e-32,145
Rhinocladiella_aquaspersa_CBS313.73_T,SRR7469208.17985426,100.00,47,0,0,604,650,151,105,1e-14,87.9
Rhinocladiella_aquaspersa_CBS313.73_T,SRR7469208.22490387,100.00,48,0,0,200,247,196,149,4e-15,89.8
Rhinocladiella_aquaspersa_CBS313.73_T,SRR7469208.3796224,97.83,46,1,0,196,241,196,151,2e-12,80.5
Rhinocladiella_fasciculata_CBS132.86_T,SRR7469208.22490387,100.00,48,0,0,216,263,196,149,3e-15,89.8
Rhinocladiella_fasciculata_CBS132.86_T,SRR7469208.3796224,100.00,42,0,0,216,257,192,151,7e-12,78.7
Rhinocladiella_anceps_CBS181.65_T,SRR7469208.22490387,100.00,49,0,0,197,245,197,149,9e-16,91.6
Rhinocladiella_anceps_CBS181.65_T,SRR7469208.3796224,100.00,42,0,0,198,239,192,151,7e-12,78.7
Rhinocladiella_mackenziei_CBS367.92,SRR7469208.22490387,96.43,56,1,1,180,234,204,149,1e-15,91.6
Rhinocladiella_mackenziei_CBS367.92,SRR7469208.17985426,100.00,43,0,0,566,608,215,257,2e-12,80.5
Rhinocladiella_mackenziei_CBS367.92,SRR7469208.3796224,100.00,42,0,0,187,228,192,151,7e-12,78.7
Rhinocladiella_mackenziei_CBS367.92,SRR7469208.15043630,100.00,28,0,0,1,28,91,64,5e-04,52.8
Rhinocladiella_mackenziei_CBS367.92,SRR7469208.5885515,100.00,28,0,0,1,28,242,215,5e-04,52.8
Veronaea_compacta_CBS268.75_T,SRR7469208.22490387,94.92,59,2,1,210,267,207,149,9e-16,91.6
Veronaea_compacta_CBS268.75_T,SRR7469208.3796224,100.00,42,0,0,220,261,192,151,7e-12,78.7
Veronaea_compacta_CBS268.75_T,SRR7469208.3796224,78.18,110,14,7,1,107,52,154,7e-07,62.1
Veronaea_compacta_CBS268.75_T,SRR7469208.15043630,100.00,29,0,0,1,29,92,64,1e-04,54.7
Veronaea_compacta_CBS268.75_T,SRR7469208.5885515,100.00,29,0,0,1,29,243,215,1e-04,54.7
Capronia_pilosella_AFTOL-ID657,SRR7469208.22490387,96.43,56,1,1,290,345,203,149,1e-15,91.6
Capronia_pilosella_AFTOL-ID657,SRR7469208.3796224,100.00,42,0,0,298,339,192,151,8e-12,78.7
Capronia_pilosella_AFTOL-ID657,SRR7469208.3796224,79.59,98,16,4,80,176,53,147,2e-08,67.6
Capronia_pilosella_AFTOL-ID657,SRR7469208.13965624,100.00,38,0,0,642,679,188,151,1e-09,71.3
Capronia_dactylotricha_DAOM208471_T,SRR7469208.17985426,100.00,88,0,0,557,644,213,300,2e-37,163
Capronia_dactylotricha_DAOM208471_T,SRR7469208.17985426,100.00,42,0,0,617,658,151,110,8e-12,78.7
Capronia_dactylotricha_DAOM208471_T,SRR7469208.22490387,95.00,60,3,0,188,247,208,149,8e-17,95.3
Capronia_dactylotricha_DAOM208471_T,SRR7469208.3796224,100.00,42,0,0,200,241,192,151,8e-12,78.7
Capronia_kleinmondensis_CBS122671_T,SRR7469208.17985426,98.94,94,0,1,558,650,207,300,2e-38,167
Capronia_kleinmondensis_CBS122671_T,SRR7469208.17985426,100.00,42,0,0,623,664,151,110,8e-12,78.7
Capronia_kleinmondensis_CBS122671_T,SRR7469208.22490387,95.24,63,1,2,212,272,211,149,6e-18,99.0
Capronia_kleinmondensis_CBS122671_T,SRR7469208.3796224,100.00,42,0,0,225,266,192,151,8e-12,78.7
Capronia_kleinmondensis_CBS122671_T,SRR7469208.3796224,78.49,93,16,4,1,92,49,138,1e-05,58.4
Capronia_kleinmondensis_CBS122671_T,SRR7469208.15043630,100.00,30,0,0,1,30,95,66,4e-05,56.5
Capronia_kleinmondensis_CBS122671_T,SRR7469208.5885515,100.00,30,0,0,1,30,246,217,4e-05,56.5
Capronia_kleinmondensis_CBS122671_T,SRR7469208.10591727,100.00,29,0,0,1,29,136,108,1e-04,54.7
Capronia_kleinmondensis_CBS122671_T,SRR7469208.2472354,100.00,29,0,0,1,29,71,99,1e-04,54.7
Capronia_mansonii_CBS101.67_T,SRR7469208.17985426,98.85,87,1,0,568,654,214,300,4e-35,156
Capronia_mansonii_CBS101.67_T,SRR7469208.17985426,100.00,42,0,0,627,668,151,110,8e-12,78.7
Capronia_mansonii_CBS101.67_T,SRR7469208.22490387,95.00,60,1,2,201,258,208,149,3e-16,93.5
Capronia_mansonii_CBS101.67_T,SRR7469208.3796224,100.00,42,0,0,211,252,192,151,8e-12,78.7
Capronia_mansonii_CBS101.67_T,SRR7469208.13965624,100.00,38,0,0,567,604,188,151,1e-09,71.3
Capronia_munkii_DAOM216390_T,SRR7469208.17985426,95.10,102,4,1,553,654,200,300,3e-36,159
Capronia_munkii_DAOM216390_T,SRR7469208.17985426,100.00,42,0,0,627,668,151,110,8e-12,78.7
Capronia_munkii_DAOM216390_T,SRR7469208.22490387,95.00,60,1,2,201,258,208,149,3e-16,93.5
Capronia_munkii_DAOM216390_T,SRR7469208.3796224,100.00,42,0,0,211,252,192,151,8e-12,78.7
Capronia_munkii_DAOM216390_T,SRR7469208.13965624,100.00,38,0,0,567,604,188,151,1e-09,71.3
Capronia_coronata_ATCC56201_T,SRR7469208.17985426,96.84,95,1,2,532,625,207,300,1e-35,158
Capronia_coronata_ATCC56201_T,SRR7469208.17985426,100.00,42,0,0,598,639,151,110,8e-12,78.7
Capronia_coronata_ATCC56201_T,SRR7469208.22490387,96.43,56,1,1,191,246,203,149,1e-15,91.6
Capronia_coronata_ATCC56201_T,SRR7469208.3796224,100.00,42,0,0,199,240,192,151,8e-12,78.7
Capronia_coronata_ATCC56201_T,SRR7469208.13965624,100.00,38,0,0,538,575,188,151,1e-09,71.3
Capronia_parasitica_CBS123.88,SRR7469208.22490387,95.16,62,1,2,193,252,210,149,2e-17,97.1
Capronia_parasitica_CBS123.88,SRR7469208.3796224,100.00,43,0,0,204,246,193,151,2e-12,80.5
Capronia_parasitica_CBS123.88,SRR7469208.17985426,100.00,36,0,0,560,595,214,249,2e-08,67.6
Veronaea_japonica_CBS776.83_T,SRR7469208.22490387,94.92,59,2,1,223,280,207,149,1e-15,91.6
Veronaea_japonica_CBS776.83_T,SRR7469208.3796224,100.00,42,0,0,233,274,192,151,7e-12,78.7
Veronaea_japonica_CBS776.83_T,SRR7469208.3796224,79.34,121,15,8,1,118,41,154,3e-11,76.8
Veronaea_japonica_CBS776.83_T,SRR7469208.15043630,100.00,40,0,0,1,40,103,64,1e-10,75.0
Veronaea_japonica_CBS776.83_T,SRR7469208.5885515,100.00,40,0,0,1,40,254,215,1e-10,75.0
Veronaea_japonica_CBS776.83_T,SRR7469208.10591727,100.00,37,0,0,1,37,144,108,4e-09,69.4
Veronaea_japonica_CBS776.83_T,SRR7469208.2472354,100.00,37,0,0,1,37,63,99,4e-09,69.4
Thysanorea_papuana_CBS212.96_T,SRR7469208.22490387,93.75,64,1,3,193,254,211,149,3e-16,93.5
Thysanorea_papuana_CBS212.96_T,SRR7469208.3796224,100.00,42,0,0,207,248,192,151,7e-12,78.7
Capronia_acutiseta_ATCC56428_T,SRR7469208.17985426,97.92,96,1,1,529,624,206,300,6e-38,165
Capronia_acutiseta_ATCC56428_T,SRR7469208.22490387,95.16,62,1,2,189,248,210,149,2e-17,97.1
Capronia_acutiseta_ATCC56428_T,SRR7469208.3796224,100.00,42,0,0,201,242,192,151,8e-12,78.7
Fonsecaea_brasiliensis_CBS119710_T,SRR7469208.22490387,100.00,48,0,0,207,254,196,149,3e-15,89.8
Fonsecaea_brasiliensis_CBS119710_T,SRR7469208.3796224,100.00,42,0,0,207,248,192,151,7e-12,78.7
Fonsecaea_pedrosoi_CBS271.37_T,SRR7469208.17985426,94.12,68,4,0,578,645,207,274,1e-19,104
Fonsecaea_pedrosoi_CBS271.37_T,SRR7469208.22490387,100.00,48,0,0,235,282,196,149,4e-15,89.8
Fonsecaea_pedrosoi_CBS271.37_T,SRR7469208.3796224,100.00,42,0,0,235,276,192,151,8e-12,78.7
Fonsecaea_pedrosoi_CBS271.37_T,SRR7469208.3796224,78.07,114,15,8,1,110,49,156,2e-07,63.9
Fonsecaea_pedrosoi_CBS271.37_T,SRR7469208.13965624,97.37,38,1,0,584,621,188,151,6e-08,65.8
Fonsecaea_pedrosoi_CBS271.37_T,SRR7469208.15043630,100.00,31,0,0,1,31,95,65,1e-05,58.4
Fonsecaea_pedrosoi_CBS271.37_T,SRR7469208.5885515,100.00,31,0,0,1,31,246,216,1e-05,58.4
Fonsecaea_pedrosoi_CBS271.37_T,SRR7469208.10591727,100.00,29,0,0,1,29,136,108,1e-04,54.7
Fonsecaea_pedrosoi_CBS271.37_T,SRR7469208.2472354,100.00,29,0,0,1,29,71,99,1e-04,54.7
Fonsecaea_multimorphosa_CBS980.96_T,SRR7469208.22490387,100.00,48,0,0,205,252,196,149,3e-15,89.8
Fonsecaea_multimorphosa_CBS980.96_T,SRR7469208.3796224,100.00,42,0,0,205,246,192,151,7e-12,78.7
Fonsecaea_minima_CBS125760_T,SRR7469208.22490387,100.00,48,0,0,201,248,196,149,3e-15,89.8
Fonsecaea_minima_CBS125760_T,SRR7469208.3796224,100.00,42,0,0,201,242,192,151,7e-12,78.7
Fonsecaea_nubica_CBS269.64_T,SRR7469208.22490387,100.00,48,0,0,212,259,196,149,3e-15,89.8
Fonsecaea_nubica_CBS269.64_T,SRR7469208.3796224,100.00,42,0,0,212,253,192,151,7e-12,78.7
Fonsecaea_monophora_CBS269.37_T,SRR7469208.22490387,100.00,48,0,0,212,259,196,149,3e-15,89.8
Fonsecaea_monophora_CBS269.37_T,SRR7469208.3796224,100.00,42,0,0,212,253,192,151,7e-12,78.7
Fonsecaea_erecta_CBS125763_T,SRR7469208.22490387,89.33,75,5,2,169,243,220,149,8e-16,91.6
Fonsecaea_erecta_CBS125763_T,SRR7469208.3796224,100.00,42,0,0,196,237,192,151,6e-12,78.7
Fonsecaea_pugnacius_CBS139214_T,SRR7469208.22490387,100.00,48,0,0,205,252,196,149,3e-15,89.8
Fonsecaea_pugnacius_CBS139214_T,SRR7469208.3796224,100.00,42,0,0,205,246,192,151,7e-12,78.7
Cladophialophora_psammophila_CBS,SRR7469208.22490387,95.08,61,2,1,198,258,208,149,7e-17,95.3
Cladophialophora_psammophila_CBS,SRR7469208.3796224,100.00,42,0,0,211,252,192,151,7e-12,78.7
Cladophialophora_devriesii_CBS,SRR7469208.22490387,100.00,48,0,0,207,254,196,149,3e-15,89.8
Cladophialophora_devriesii_CBS,SRR7469208.3796224,100.00,42,0,0,207,248,192,151,6e-12,78.7
Cladophialophora_immunda_CBS834.96,SRR7469208.22490387,100.00,48,0,0,209,256,196,149,3e-15,89.8
Cladophialophora_immunda_CBS834.96,SRR7469208.3796224,100.00,42,0,0,209,250,192,151,7e-12,78.7
Cladophialophora_arxii_CBS306.94_T,SRR7469208.22490387,92.19,64,4,1,195,258,211,149,3e-15,89.8
Cladophialophora_arxii_CBS306.94_T,SRR7469208.3796224,100.00,42,0,0,211,252,192,151,7e-12,78.7
Cladophialophora_bantiana_CBS173.52,SRR7469208.22490387,95.08,61,1,2,193,252,208,149,7e-17,95.3
Cladophialophora_bantiana_CBS173.52,SRR7469208.3796224,100.00,42,0,0,205,246,192,151,7e-12,78.7
Cladophialophora_emmonsii_CBS102594,SRR7469208.22490387,95.08,61,1,2,184,243,208,149,7e-17,95.3
Cladophialophora_emmonsii_CBS102594,SRR7469208.3796224,100.00,42,0,0,196,237,192,151,7e-12,78.7
Cladophialophora_minourae_CBS556.83,SRR7469208.22490387,95.38,65,1,2,188,251,212,149,4e-19,102
Cladophialophora_minourae_CBS556.83,SRR7469208.3796224,100.00,42,0,0,204,245,192,151,7e-12,78.7
Cladophialophora_australiensis_CBS112793,SRR7469208.19385474,96.62,148,5,0,1316,1463,148,1,5e-62,246
Cladophialophora_australiensis_CBS112793,SRR7469208.19385474,91.84,49,4,0,1164,1212,220,268,1e-08,69.4
Cladophialophora_australiensis_CBS112793,SRR7469208.13906981,95.14,144,7,0,1315,1458,144,1,2e-56,228
Cladophialophora_australiensis_CBS112793,SRR7469208.13906981,86.02,93,9,4,1148,1237,159,250,5e-17,97.1
Cladophialophora_australiensis_CBS112793,SRR7469208.10382772,91.87,123,10,0,790,912,123,1,8e-40,172
Cladophialophora_australiensis_CBS112793,SRR7469208.10382772,74.84,159,26,10,665,819,151,299,7e-06,60.2
Cladophialophora_australiensis_CBS112793,SRR7469208.17985426,87.01,154,17,2,605,758,151,1,3e-39,171
Cladophialophora_australiensis_CBS112793,SRR7469208.17985426,96.81,94,3,0,539,632,207,300,2e-35,158
Cladophialophora_australiensis_CBS112793,SRR7469208.12780012,87.77,139,17,0,821,959,151,289,5e-37,163
Cladophialophora_australiensis_CBS112793,SRR7469208.12196851,93.07,101,7,0,1371,1471,1,101,1e-32,148
Cladophialophora_australiensis_CBS112793,SRR7469208.6082932,84.52,155,19,5,1231,1384,151,1,1e-32,148
Cladophialophora_australiensis_CBS112793,SRR7469208.20957188,87.20,125,16,0,812,936,125,1,6e-31,143
Cladophialophora_australiensis_CBS112793,SRR7469208.20957188,87.20,125,16,0,812,936,161,285,6e-31,143
Cladophialophora_australiensis_CBS112793,SRR7469208.12569457,91.01,89,8,0,812,900,53,141,3e-24,121
Cladophialophora_australiensis_CBS112793,SRR7469208.6153601,98.28,58,1,0,1414,1471,1,58,1e-18,102
Cladophialophora_australiensis_CBS112793,SRR7469208.22490387,93.75,64,3,1,191,253,212,149,2e-16,95.3
Cladophialophora_australiensis_CBS112793,SRR7469208.8773344,86.42,81,9,2,1153,1232,230,151,3e-14,87.9
Cladophialophora_australiensis_CBS112793,SRR7469208.3796224,100.00,43,0,0,205,247,193,151,5e-12,80.5
Cladophialophora_australiensis_CBS112793,SRR7469208.14997656,90.00,60,6,0,1153,1212,66,7,2e-11,78.7
Cladophialophora_australiensis_CBS112793,SRR7469208.22057912,100.00,36,0,0,1177,1212,43,8,4e-08,67.6
Cladophialophora_australiensis_CBS112793,SRR7469208.13965624,97.37,38,1,0,545,582,188,151,1e-07,65.8
Cladophialophora_potulentorum_CBS112222,SRR7469208.19385474,96.62,148,5,0,1318,1465,148,1,5e-62,246
Cladophialophora_potulentorum_CBS112222,SRR7469208.19385474,92.00,50,3,1,1180,1229,234,282,1e-08,69.4
Cladophialophora_potulentorum_CBS112222,SRR7469208.13906981,95.14,144,7,0,1317,1460,144,1,2e-56,228
Cladophialophora_potulentorum_CBS112222,SRR7469208.13906981,84.78,92,12,2,1150,1239,159,250,2e-15,91.6
Cladophialophora_potulentorum_CBS112222,SRR7469208.17985426,87.66,154,16,2,607,760,151,1,6e-41,176
Cladophialophora_potulentorum_CBS112222,SRR7469208.17985426,97.70,87,2,0,548,634,214,300,4e-33,150
Cladophialophora_potulentorum_CBS112222,SRR7469208.10382772,91.87,123,10,0,792,914,123,1,8e-40,172
Cladophialophora_potulentorum_CBS112222,SRR7469208.10382772,74.36,156,32,6,667,821,151,299,7e-06,60.2
Cladophialophora_potulentorum_CBS112222,SRR7469208.12196851,93.10,116,8,0,1373,1488,1,116,3e-39,171
Cladophialophora_potulentorum_CBS112222,SRR7469208.12780012,87.77,139,17,0,823,961,151,289,5e-37,163
Cladophialophora_potulentorum_CBS112222,SRR7469208.20957188,87.20,125,16,0,814,938,125,1,7e-31,143
Cladophialophora_potulentorum_CBS112222,SRR7469208.20957188,87.20,125,16,0,814,938,161,285,7e-31,143
Cladophialophora_potulentorum_CBS112222,SRR7469208.6082932,83.87,155,20,5,1233,1386,151,1,7e-31,143
Cladophialophora_potulentorum_CBS112222,SRR7469208.6153601,97.44,78,2,0,1416,1493,1,78,4e-28,134
Cladophialophora_potulentorum_CBS112222,SRR7469208.12569457,91.01,89,8,0,814,902,53,141,3e-24,121
Cladophialophora_potulentorum_CBS112222,SRR7469208.22490387,95.31,64,1,2,191,252,212,149,4e-18,100
Cladophialophora_potulentorum_CBS112222,SRR7469208.8773344,85.00,80,12,0,1155,1234,230,151,1e-12,82.4
Cladophialophora_potulentorum_CBS112222,SRR7469208.3796224,100.00,42,0,0,205,246,192,151,2e-11,78.7
Cladophialophora_potulentorum_CBS112222,SRR7469208.14997656,88.33,60,7,0,1155,1214,66,7,9e-10,73.1
Cladophialophora_potulentorum_CBS112222,SRR7469208.22057912,100.00,36,0,0,1179,1214,43,8,4e-08,67.6
Cladophialophora_potulentorum_CBS112222,SRR7469208.13965624,97.37,38,1,0,547,584,188,151,1e-07,65.8
Cladophialophora_matsushimae_CMRP1198,SRR7469208.22490387,96.49,57,0,2,200,256,203,149,2e-16,93.5
Cladophialophora_matsushimae_CMRP1198,SRR7469208.3796224,100.00,42,0,0,209,250,192,151,6e-12,78.7
Cladophialophora_mycetomatis_CBS122637,SRR7469208.22490387,96.49,57,0,2,185,241,203,149,2e-16,93.5
Cladophialophora_mycetomatis_CBS122637,SRR7469208.3796224,100.00,42,0,0,194,235,192,151,7e-12,78.7
Cladophialophora_chaetospira_CBS127573,SRR7469208.22490387,95.92,49,2,0,599,647,197,149,3e-12,80.5
Cladophialophora_chaetospira_CBS127573,SRR7469208.15043630,100.00,33,0,0,379,411,96,64,1e-06,62.1
Cladophialophora_chaetospira_CBS127573,SRR7469208.5885515,100.00,33,0,0,379,411,247,215,1e-06,62.1
Cladophialophora_chaetospira_CBS127573,SRR7469208.3796224,97.22,36,1,0,379,414,48,83,1e-06,62.1
Cladophialophora_chaetospira_CBS127573,SRR7469208.10591727,100.00,30,0,0,379,408,137,108,5e-05,56.5
Cladophialophora_chaetospira_CBS127573,SRR7469208.2472354,100.00,30,0,0,379,408,70,99,5e-05,56.5
Cladophialophora_boppii_CBS126.86_T,SRR7469208.22490387,98.11,53,1,0,197,249,201,149,2e-16,93.5
Cladophialophora_boppii_CBS126.86_T,SRR7469208.3796224,100.00,42,0,0,202,243,192,151,7e-12,78.7
Cladophialophora_abundans_CBS126736,SRR7469208.22490387,100.00,49,0,0,138,186,197,149,7e-16,91.6
Cladophialophora_abundans_CBS126736,SRR7469208.3796224,100.00,42,0,0,139,180,192,151,6e-12,78.7
Capronia_semi-immersa_CBS102234,SRR7469208.22490387,95.38,65,1,2,185,248,212,149,4e-19,102
Capronia_semi-immersa_CBS102234,SRR7469208.3796224,100.00,42,0,0,201,242,192,151,7e-12,78.7
Phialophora_americana_CBS400.67,SRR7469208.19385474,96.32,136,5,0,1310,1445,148,13,2e-55,224
Phialophora_americana_CBS400.67,SRR7469208.19385474,89.06,64,6,1,1158,1221,220,282,2e-11,78.7
Phialophora_americana_CBS400.67,SRR7469208.13906981,94.89,137,7,0,1309,1445,144,8,1e-52,215
Phialophora_americana_CBS400.67,SRR7469208.13906981,86.02,93,9,4,1142,1231,159,250,5e-17,97.1
Phialophora_americana_CBS400.67,SRR7469208.17985426,87.01,154,17,2,599,752,151,1,3e-39,171
Phialophora_americana_CBS400.67,SRR7469208.17985426,94.74,95,3,2,532,626,208,300,5e-32,147
Phialophora_americana_CBS400.67,SRR7469208.12780012,88.49,139,16,0,815,953,151,289,1e-38,169
Phialophora_americana_CBS400.67,SRR7469208.10382772,91.06,123,11,0,784,906,123,1,4e-38,167
Phialophora_americana_CBS400.67,SRR7469208.20957188,87.20,125,16,0,806,930,125,1,6e-31,143
Phialophora_americana_CBS400.67,SRR7469208.20957188,87.20,125,16,0,806,930,161,285,6e-31,143
Phialophora_americana_CBS400.67,SRR7469208.6082932,83.97,156,18,7,1225,1378,151,1,6e-31,143
Phialophora_americana_CBS400.67,SRR7469208.11359182,90.00,110,8,2,601,709,151,258,8e-30,139
Phialophora_americana_CBS400.67,SRR7469208.12569457,91.01,89,8,0,806,894,53,141,3e-24,121
Phialophora_americana_CBS400.67,SRR7469208.22490387,95.38,65,1,2,187,250,212,149,1e-18,102
Phialophora_americana_CBS400.67,SRR7469208.8773344,87.50,80,10,0,1147,1226,230,151,6e-16,93.5
Phialophora_americana_CBS400.67,SRR7469208.14997656,90.16,61,6,0,1147,1207,66,6,5e-12,80.5
Phialophora_americana_CBS400.67,SRR7469208.3796224,100.00,42,0,0,203,244,192,151,2e-11,78.7
Phialophora_americana_CBS400.67,SRR7469208.22057912,100.00,36,0,0,1171,1206,43,8,4e-08,67.6
Phialophora_americana_CBS400.67,SRR7469208.13965624,97.37,38,1,0,539,576,188,151,1e-07,65.8
Phialophora_verrucosa_CBS140325_T,SRR7469208.22490387,95.38,65,1,2,191,254,212,149,4e-19,102
Phialophora_verrucosa_CBS140325_T,SRR7469208.3796224,100.00,42,0,0,207,248,192,151,7e-12,78.7
Phialophora_verrucosa_CBS140325_T,SRR7469208.13965624,97.37,38,1,0,545,582,188,151,6e-08,65.8
Cladophialophora_samoensis_CBS259.83_T,SRR7469208.22490387,100.00,48,0,0,207,254,196,149,3e-15,89.8
Cladophialophora_samoensis_CBS259.83_T,SRR7469208.3796224,100.00,42,0,0,207,248,192,151,7e-12,78.7
Cladophialophora_carrionii_CBS260.83,SRR7469208.22490387,93.94,66,1,2,206,270,212,149,2e-17,97.1
Cladophialophora_carrionii_CBS260.83,SRR7469208.3796224,100.00,42,0,0,223,264,192,151,7e-12,78.7
Cladophialophora_carrionii_CBS260.83,SRR7469208.13965624,97.37,38,1,0,558,595,188,151,6e-08,65.8
Cladophialophora_carrionii_CBS260.83,SRR7469208.110062,100.00,29,0,0,1,29,116,88,1e-04,54.7
Exophiala_palmae_UPCB86822_T,SRR7469208.22490387,95.00,60,2,1,155,213,208,149,2e-16,93.5
Exophiala_palmae_UPCB86822_T,SRR7469208.3796224,100.00,42,0,0,166,207,192,151,6e-12,78.7
Cladophialophora_yegresii_CBS114405_T,SRR7469208.22490387,93.94,66,1,2,191,255,212,149,2e-17,97.1
Cladophialophora_yegresii_CBS114405_T,SRR7469208.3796224,100.00,42,0,0,208,249,192,151,7e-12,78.7
Knufia_epidermidis_CBS120353_T,SRR7469208.22490387,92.54,67,2,2,187,253,212,149,2e-16,93.5
Knufia_epidermidis_CBS120353_T,SRR7469208.3796224,100.00,42,0,0,206,247,192,151,7e-12,78.7
Arthrocladium_fulminans_CBS136243_T,SRR7469208.22490387,100.00,49,0,0,200,248,197,149,9e-16,91.6
Arthrocladium_fulminans_CBS136243_T,SRR7469208.3796224,100.00,42,0,0,201,242,192,151,7e-12,78.7
Arthrocladium_fulminans_CBS136243_T,SRR7469208.17985426,97.14,35,1,0,526,560,207,241,2e-06,60.2
Arthrocladium_fulminans_CBS136243_T,SRR7469208.13965624,100.00,28,0,0,533,560,187,160,4e-04,52.8
Anthopsis_deltoidea_CBS263.77_T,SRR7469208.22490387,100.00,48,0,0,210,257,196,149,3e-15,89.8
Anthopsis_deltoidea_CBS263.77_T,SRR7469208.3796224,100.00,42,0,0,210,251,192,151,6e-12,78.7
Cyphellophora_laciniata_CBS190.61_T,SRR7469208.17985426,98.81,84,1,0,635,718,214,297,2e-33,150
Cyphellophora_laciniata_CBS190.61_T,SRR7469208.3796224,100.00,72,0,0,29,100,7,78,2e-28,134
Cyphellophora_laciniata_CBS190.61_T,SRR7469208.3796224,100.00,42,0,0,295,336,192,151,9e-12,78.7
Cyphellophora_laciniata_CBS190.61_T,SRR7469208.5885515,98.63,73,1,0,28,100,289,217,2e-27,130
Cyphellophora_laciniata_CBS190.61_T,SRR7469208.14916024,93.67,79,5,0,29,107,6,84,5e-24,119
Cyphellophora_laciniata_CBS190.61_T,SRR7469208.15043630,93.15,73,5,0,28,100,138,66,1e-20,108
Cyphellophora_laciniata_CBS190.61_T,SRR7469208.2472354,98.36,61,1,0,39,99,39,99,1e-20,108
Cyphellophora_laciniata_CBS190.61_T,SRR7469208.22490387,95.00,60,1,2,285,342,208,149,3e-16,93.5
Cyphellophora_laciniata_CBS190.61_T,SRR7469208.10591727,100.00,41,0,0,59,99,148,108,3e-11,76.8
Cyphellophora_laciniata_CBS190.61_T,SRR7469208.13965624,100.00,38,0,0,634,671,188,151,2e-09,71.3
Cyphellophora_suttonii_CBS449.91,SRR7469208.22490387,96.43,56,1,1,190,245,203,149,9e-16,91.6
Cyphellophora_suttonii_CBS449.91,SRR7469208.3796224,100.00,42,0,0,198,239,192,151,7e-12,78.7
Cyphellophora_pauciseptata_CBS284.85_T,SRR7469208.22490387,95.00,60,0,3,200,256,208,149,9e-16,91.6
Cyphellophora_pauciseptata_CBS284.85_T,SRR7469208.3796224,100.00,43,0,0,208,250,193,151,2e-12,80.5
Cyphellophora_pluriseptata_CBS286.85_T,SRR7469208.22490387,93.33,60,2,2,204,261,208,149,1e-14,87.9
Cyphellophora_pluriseptata_CBS286.85_T,SRR7469208.3796224,97.62,42,1,0,214,255,192,151,3e-10,73.1
Phialophora_europaea_CBS101466,SRR7469208.22490387,95.00,60,2,1,193,251,208,149,2e-16,93.5
Phialophora_europaea_CBS101466,SRR7469208.3796224,100.00,44,0,0,202,245,194,151,5e-13,82.4
Phialophora_ambigua_CBS235.93,SRR7469208.22490387,96.43,56,1,1,193,248,203,149,8e-16,91.6
Phialophora_ambigua_CBS235.93,SRR7469208.3796224,100.00,42,0,0,201,242,192,151,7e-12,78.7
Cladophialophora_modesta_CBS985.96_T,SRR7469208.17985426,96.70,91,3,0,511,601,206,296,4e-34,152
Cladophialophora_modesta_CBS985.96_T,SRR7469208.20181807,92.22,90,5,2,531,619,298,210,3e-26,126
Cladophialophora_modesta_CBS985.96_T,SRR7469208.22490387,94.92,59,2,1,188,245,207,149,1e-15,91.6
Cladophialophora_modesta_CBS985.96_T,SRR7469208.3796224,100.00,42,0,0,198,239,192,151,8e-12,78.7
Cyphellophora_fusarioides_MUCL44033_T,SRR7469208.22490387,95.00,60,1,2,187,244,208,149,2e-16,93.5
Cyphellophora_fusarioides_MUCL44033_T,SRR7469208.3796224,100.00,42,0,0,197,238,192,151,7e-12,78.7
