Exophiala_nigra_CBS535.94_T,SRR7471412.12345500,89.86,148,10,4,244,391,1,143,5e-44,185
Exophiala_nigra_CBS535.94_T,SRR7471412.3860964,100.00,65,0,0,201,265,215,151,1e-24,121
Exophiala_nigra_CBS535.94_T,SRR7471412.24379608,94.23,52,2,1,190,240,202,151,9e-12,78.7
Exophiala_spinifera_CBS899.68_T,SRR7471412.12345500,89.12,147,12,4,241,387,1,143,2e-42,180
Exophiala_spinifera_CBS899.68_T,SRR7471412.3860964,100.00,65,0,0,198,262,215,151,1e-24,121
Exophiala_spinifera_CBS899.68_T,SRR7471412.24379608,100.00,41,0,0,197,237,191,151,3e-11,76.8
Exophiala_exophialae_CBS668.76_T,SRR7471412.12345500,89.12,147,12,4,242,388,1,143,2e-42,180
Exophiala_exophialae_CBS668.76_T,SRR7471412.3860964,100.00,65,0,0,199,263,215,151,1e-24,121
Exophiala_exophialae_CBS668.76_T,SRR7471412.24379608,100.00,41,0,0,198,238,191,151,3e-11,76.8
Exophiala_polymorpha_CBS138920_T,SRR7471412.12345500,89.12,147,12,4,344,490,1,143,3e-42,180
Exophiala_polymorpha_CBS138920_T,SRR7471412.3860964,100.00,65,0,0,301,365,215,151,2e-24,121
Exophiala_polymorpha_CBS138920_T,SRR7471412.17941840,100.00,53,0,0,642,694,254,202,8e-18,99.0
Exophiala_polymorpha_CBS138920_T,SRR7471412.24379608,94.12,51,3,0,290,340,201,151,1e-11,78.7
Exophiala_oligosperma_CBS725.88_T,SRR7471412.12345500,89.12,147,12,4,254,400,1,143,2e-42,180
Exophiala_oligosperma_CBS725.88_T,SRR7471412.3860964,100.00,65,0,0,211,275,215,151,1e-24,121
Exophiala_oligosperma_CBS725.88_T,SRR7471412.24379608,95.83,48,1,1,203,250,197,151,3e-11,76.8
Exophiala_jeanselmei_CBS507.90_T,SRR7471412.12345500,89.12,147,12,4,246,392,1,143,2e-42,180
Exophiala_jeanselmei_CBS507.90_T,SRR7471412.3860964,100.00,65,0,0,203,267,215,151,2e-24,121
Exophiala_jeanselmei_CBS507.90_T,SRR7471412.17941840,100.00,62,0,0,543,604,255,194,7e-23,115
Exophiala_jeanselmei_CBS507.90_T,SRR7471412.24379608,94.44,54,1,2,191,242,204,151,7e-13,82.4
Exophiala_jeanselmei_CBS507.90_T,SRR7471412.17911765,100.00,32,0,0,573,604,151,182,3e-06,60.2
Exophiala_bergeri_CBS353.52,SRR7471412.12345500,92.31,130,8,2,207,336,1,128,2e-43,183
Exophiala_bergeri_CBS353.52,SRR7471412.3860964,100.00,65,0,0,164,228,215,151,1e-24,121
Exophiala_bergeri_CBS353.52,SRR7471412.24379608,94.23,52,2,1,153,203,202,151,7e-12,78.7
Exophiala_moniliae_CBS520.76_T,SRR7471412.12345500,92.31,130,8,2,244,373,1,128,2e-43,183
Exophiala_moniliae_CBS520.76_T,SRR7471412.3860964,100.00,65,0,0,201,265,215,151,1e-24,121
Exophiala_moniliae_CBS520.76_T,SRR7471412.24379608,88.41,69,2,5,173,240,214,151,9e-12,78.7
Exophiala_pisciphila_CBS537.73_T,SRR7471412.12345500,90.48,147,10,4,247,393,1,143,1e-45,191
Exophiala_pisciphila_CBS537.73_T,SRR7471412.17941840,97.06,102,3,0,552,653,255,154,5e-40,172
Exophiala_pisciphila_CBS537.73_T,SRR7471412.3860964,100.00,65,0,0,204,268,215,151,2e-24,121
Exophiala_pisciphila_CBS537.73_T,SRR7471412.20740738,100.00,46,0,0,608,653,1,46,6e-14,86.1
Exophiala_pisciphila_CBS537.73_T,SRR7471412.17911765,89.55,67,7,0,582,648,151,217,6e-14,86.1
Exophiala_pisciphila_CBS537.73_T,SRR7471412.24379608,94.44,54,1,2,192,243,204,151,8e-13,82.4
Exophiala_pisciphila_CBS537.73_T,SRR7471412.1206149,94.00,50,3,0,604,653,300,251,4e-11,76.8
Exophiala_xenobiotica_CBS117642,SRR7471412.12345500,89.80,147,11,4,239,385,1,143,5e-44,185
Exophiala_xenobiotica_CBS117642,SRR7471412.3860964,100.00,65,0,0,196,260,215,151,1e-24,121
Exophiala_xenobiotica_CBS117642,SRR7471412.24379608,100.00,41,0,0,195,235,191,151,3e-11,76.8
Exophiala_brunnea_CBS,SRR7471412.12345500,89.80,147,11,4,275,421,1,143,6e-44,185
Exophiala_brunnea_CBS,SRR7471412.3860964,100.00,65,0,0,232,296,215,151,2e-24,121
Exophiala_brunnea_CBS,SRR7471412.24379608,94.12,51,2,1,222,271,201,151,4e-11,76.8
Exophiala_nishimurae_CBS101538_T,SRR7471412.12345500,89.12,147,12,4,253,399,1,143,2e-42,180
Exophiala_nishimurae_CBS101538_T,SRR7471412.3860964,100.00,65,0,0,210,274,215,151,1e-24,121
Exophiala_nishimurae_CBS101538_T,SRR7471412.17941840,100.00,42,0,0,550,591,255,214,9e-12,78.7
Exophiala_nishimurae_CBS101538_T,SRR7471412.24379608,100.00,41,0,0,209,249,191,151,3e-11,76.8
Exophiala_mesophila_CBS402.95_T,SRR7471412.12345500,92.31,130,8,2,237,366,1,128,2e-43,183
Exophiala_mesophila_CBS402.95_T,SRR7471412.17941840,98.02,101,2,0,550,650,254,154,3e-41,176
Exophiala_mesophila_CBS402.95_T,SRR7471412.3860964,100.00,65,0,0,194,258,215,151,2e-24,121
Exophiala_mesophila_CBS402.95_T,SRR7471412.20740738,100.00,46,0,0,605,650,1,46,6e-14,86.1
Exophiala_mesophila_CBS402.95_T,SRR7471412.17911765,89.55,67,7,0,579,645,151,217,6e-14,86.1
Exophiala_mesophila_CBS402.95_T,SRR7471412.24379608,100.00,41,0,0,193,233,191,151,4e-11,76.8
Exophiala_mesophila_CBS402.95_T,SRR7471412.1206149,94.00,50,3,0,601,650,300,251,4e-11,76.8
Exophiala_castellanii_CBS158.58_T,SRR7471412.12345500,92.31,130,8,2,235,364,1,128,2e-43,183
Exophiala_castellanii_CBS158.58_T,SRR7471412.17941840,98.02,101,2,0,549,649,254,154,3e-41,176
Exophiala_castellanii_CBS158.58_T,SRR7471412.3860964,100.00,65,0,0,192,256,215,151,2e-24,121
Exophiala_castellanii_CBS158.58_T,SRR7471412.20740738,100.00,46,0,0,604,649,1,46,6e-14,86.1
Exophiala_castellanii_CBS158.58_T,SRR7471412.17911765,89.55,67,7,0,578,644,151,217,6e-14,86.1
Exophiala_castellanii_CBS158.58_T,SRR7471412.24379608,100.00,41,0,0,191,231,191,151,4e-11,76.8
Exophiala_castellanii_CBS158.58_T,SRR7471412.1206149,94.00,50,3,0,600,649,300,251,4e-11,76.8
Exophiala_lecanii-corni_CBS123.33_T,SRR7471412.12345500,91.54,130,9,2,258,387,1,128,8e-42,178
Exophiala_lecanii-corni_CBS123.33_T,SRR7471412.3860964,100.00,65,0,0,215,279,215,151,1e-24,121
Exophiala_lecanii-corni_CBS123.33_T,SRR7471412.24379608,94.12,51,2,1,205,254,201,151,3e-11,76.8
Exophiala_dermatitidis_CBS748.88,SRR7471412.12345500,93.08,130,7,2,250,379,1,128,1e-44,189
Exophiala_dermatitidis_CBS748.88,SRR7471412.20740738,88.96,154,13,2,630,783,1,150,4e-44,187
Exophiala_dermatitidis_CBS748.88,SRR7471412.17941840,98.10,105,2,0,574,678,255,151,5e-43,183
Exophiala_dermatitidis_CBS748.88,SRR7471412.18025631,89.86,138,14,0,828,965,9,146,2e-41,178
Exophiala_dermatitidis_CBS748.88,SRR7471412.11339763,91.43,105,9,0,1398,1502,151,255,2e-31,145
Exophiala_dermatitidis_CBS748.88,SRR7471412.11339763,93.18,88,6,0,1415,1502,150,63,6e-27,130
Exophiala_dermatitidis_CBS748.88,SRR7471412.24114779,87.25,102,11,2,1174,1274,253,153,2e-22,115
Exophiala_dermatitidis_CBS748.88,SRR7471412.24114779,86.96,92,10,2,1174,1264,61,151,1e-18,102
Exophiala_dermatitidis_CBS748.88,SRR7471412.3860964,98.46,65,0,1,208,271,215,151,7e-22,113
Exophiala_dermatitidis_CBS748.88,SRR7471412.17911765,84.54,97,15,0,604,700,151,247,7e-17,97.1
Exophiala_dermatitidis_CBS748.88,SRR7471412.1206149,94.44,54,3,0,626,679,300,247,5e-13,84.2
Exophiala_dermatitidis_CBS748.88,SRR7471412.27554170,94.12,51,3,0,1454,1504,53,3,2e-11,78.7
Exophiala_dermatitidis_CBS748.88,SRR7471412.25230686,93.62,47,3,0,1210,1256,202,156,4e-09,71.3
Exophiala_dermatitidis_CBS748.88,SRR7471412.24379608,92.31,52,1,3,198,246,202,151,4e-09,71.3
Exophiala_dermatitidis_CBS748.88,SRR7471412.25108576,92.86,42,3,0,1198,1239,191,150,2e-06,62.1
Exophiala_dermatitidis_CBS748.88,SRR7471412.814012,90.91,44,4,0,1369,1412,213,256,9e-06,60.2
Exophiala_dermatitidis_CBS748.88,SRR7471412.17411505,97.06,34,1,0,1213,1246,281,248,3e-05,58.4
Exophiala_angulospora_CBS482.92_T,SRR7471412.12345500,92.91,127,7,2,241,367,1,125,2e-43,183
Exophiala_angulospora_CBS482.92_T,SRR7471412.3860964,100.00,65,0,0,198,262,215,151,1e-24,121
Exophiala_angulospora_CBS482.92_T,SRR7471412.24379608,95.83,48,1,1,190,237,197,151,3e-11,76.8
Exophiala_opportunistica_CBS109811_T,SRR7471412.12345500,91.16,147,9,4,240,386,1,143,2e-47,196
Exophiala_opportunistica_CBS109811_T,SRR7471412.3860964,100.00,65,0,0,197,261,215,151,1e-24,121
Exophiala_opportunistica_CBS109811_T,SRR7471412.24379608,94.44,54,1,2,185,236,204,151,7e-13,82.4
Exophiala_salmonis_CBS157.67_T,SRR7471412.12345500,90.48,147,10,4,369,515,1,143,1e-45,191
Exophiala_salmonis_CBS157.67_T,SRR7471412.17941840,97.06,102,3,0,672,773,255,154,5e-40,172
Exophiala_salmonis_CBS157.67_T,SRR7471412.7706352,87.60,121,12,3,3,122,122,4,2e-29,137
Exophiala_salmonis_CBS157.67_T,SRR7471412.3860964,100.00,65,0,0,326,390,215,151,2e-24,121
Exophiala_salmonis_CBS157.67_T,SRR7471412.21528916,96.30,54,2,0,69,122,148,95,6e-15,89.8
Exophiala_salmonis_CBS157.67_T,SRR7471412.20740738,100.00,46,0,0,728,773,1,46,7e-14,86.1
Exophiala_salmonis_CBS157.67_T,SRR7471412.17911765,89.55,67,7,0,702,768,151,217,7e-14,86.1
Exophiala_salmonis_CBS157.67_T,SRR7471412.24379608,94.44,54,1,2,314,365,204,151,9e-13,82.4
Exophiala_salmonis_CBS157.67_T,SRR7471412.1206149,94.00,50,3,0,724,773,300,251,4e-11,76.8
Exophiala_salmonis_CBS157.67_T,SRR7471412.21661687,91.49,47,4,0,1,47,197,151,9e-08,65.8
Exophiala_aquamarina_CBS119918_T,SRR7471412.12345500,90.54,148,9,5,247,394,1,143,1e-45,191
Exophiala_aquamarina_CBS119918_T,SRR7471412.3860964,100.00,65,0,0,204,268,215,151,1e-24,121
Exophiala_aquamarina_CBS119918_T,SRR7471412.24379608,94.44,54,1,2,192,243,204,151,7e-13,82.4
Exophiala_cancerae_CBS120420_T,SRR7471412.12345500,91.16,147,9,4,262,408,1,143,3e-47,196
Exophiala_cancerae_CBS120420_T,SRR7471412.3860964,100.00,65,0,0,219,283,215,151,2e-24,121
Exophiala_cancerae_CBS120420_T,SRR7471412.17941840,98.39,62,1,0,563,624,255,194,3e-21,110
Exophiala_cancerae_CBS120420_T,SRR7471412.24379608,94.44,54,1,2,207,258,204,151,7e-13,82.4
Exophiala_cancerae_CBS120420_T,SRR7471412.17911765,100.00,32,0,0,593,624,151,182,3e-06,60.2
Exophiala_cancerae_CBS120420_T,SRR7471412.20694088,100.00,29,0,0,1,29,240,268,2e-04,54.7
Exophiala_tremulae_CBS129355,SRR7471412.12345500,91.16,147,9,4,274,420,1,143,3e-47,196
Exophiala_tremulae_CBS129355,SRR7471412.3860964,100.00,65,0,0,231,295,215,151,2e-24,121
Exophiala_tremulae_CBS129355,SRR7471412.24379608,94.55,55,1,2,218,270,205,151,2e-13,84.2
Exophiala_equina_CBS116009,SRR7471412.12345500,91.16,147,9,4,240,386,1,143,2e-47,196
Exophiala_equina_CBS116009,SRR7471412.3860964,100.00,65,0,0,197,261,215,151,1e-24,121
Exophiala_equina_CBS116009,SRR7471412.24379608,94.55,55,1,2,184,236,205,151,2e-13,84.2
Exophiala_alcalophila_CBS520.82_T,SRR7471412.12345500,92.31,130,8,2,251,380,1,128,2e-43,183
Exophiala_alcalophila_CBS520.82_T,SRR7471412.3860964,100.00,65,0,0,208,272,215,151,1e-24,121
Exophiala_alcalophila_CBS520.82_T,SRR7471412.24379608,94.64,56,2,1,193,247,206,151,5e-14,86.1
Exophiala_crusticola_CBS119970_T,SRR7471412.12345500,93.08,130,7,2,256,385,1,128,4e-45,189
Exophiala_crusticola_CBS119970_T,SRR7471412.3860964,100.00,65,0,0,213,277,215,151,1e-24,121
Exophiala_crusticola_CBS119970_T,SRR7471412.24379608,96.36,55,1,1,199,252,205,151,4e-15,89.8
Rhinocladiella_atrovirens_CBS264.49,SRR7471412.12345500,91.54,130,9,2,282,411,1,128,9e-42,178
Rhinocladiella_atrovirens_CBS264.49,SRR7471412.3860964,100.00,65,0,0,239,303,215,151,2e-24,121
Rhinocladiella_atrovirens_CBS264.49,SRR7471412.24379608,100.00,41,0,0,238,278,191,151,3e-11,76.8
Rhinocladiella_basitona_CBS101460_T,SRR7471412.12345500,89.12,147,12,4,241,387,1,143,2e-42,180
Rhinocladiella_basitona_CBS101460_T,SRR7471412.3860964,100.00,65,0,0,198,262,215,151,1e-24,121
Rhinocladiella_basitona_CBS101460_T,SRR7471412.24379608,100.00,41,0,0,197,237,191,151,3e-11,76.8
Rhinocladiella_phaeophora_CBS496.78_T,SRR7471412.12345500,93.08,130,7,2,249,378,1,128,4e-45,189
Rhinocladiella_phaeophora_CBS496.78_T,SRR7471412.3860964,98.55,69,1,0,202,270,219,151,4e-25,122
Rhinocladiella_phaeophora_CBS496.78_T,SRR7471412.24379608,100.00,40,0,0,206,245,190,151,1e-10,75.0
Rhinocladiella_aquaspersa_CBS313.73_T,SRR7471412.12345500,93.08,130,7,2,243,372,1,128,4e-45,189
Rhinocladiella_aquaspersa_CBS313.73_T,SRR7471412.17941840,94.29,105,3,3,547,648,255,151,1e-35,158
Rhinocladiella_aquaspersa_CBS313.73_T,SRR7471412.3860964,98.55,69,1,0,196,264,219,151,5e-25,122
Rhinocladiella_aquaspersa_CBS313.73_T,SRR7471412.20740738,100.00,51,0,0,600,650,1,51,1e-16,95.3
Rhinocladiella_aquaspersa_CBS313.73_T,SRR7471412.17911765,89.55,67,7,0,574,640,151,217,6e-14,86.1
Rhinocladiella_aquaspersa_CBS313.73_T,SRR7471412.1206149,94.44,54,3,0,596,649,300,247,2e-13,84.2
Rhinocladiella_aquaspersa_CBS313.73_T,SRR7471412.24379608,100.00,40,0,0,200,239,190,151,1e-10,75.0
Rhinocladiella_fasciculata_CBS132.86_T,SRR7471412.12345500,91.54,130,9,2,259,388,1,128,8e-42,178
Rhinocladiella_fasciculata_CBS132.86_T,SRR7471412.3860964,100.00,65,0,0,216,280,215,151,1e-24,121
Rhinocladiella_fasciculata_CBS132.86_T,SRR7471412.24379608,100.00,40,0,0,216,255,190,151,1e-10,75.0
Rhinocladiella_anceps_CBS181.65_T,SRR7471412.12345500,91.54,130,9,2,241,370,1,128,8e-42,178
Rhinocladiella_anceps_CBS181.65_T,SRR7471412.3860964,100.00,65,0,0,198,262,215,151,1e-24,121
Rhinocladiella_anceps_CBS181.65_T,SRR7471412.24379608,100.00,41,0,0,197,237,191,151,3e-11,76.8
Rhinocladiella_mackenziei_CBS367.92,SRR7471412.12345500,92.25,129,8,2,230,358,1,127,7e-43,182
Rhinocladiella_mackenziei_CBS367.92,SRR7471412.3860964,100.00,65,0,0,187,251,215,151,2e-24,121
Rhinocladiella_mackenziei_CBS367.92,SRR7471412.24379608,95.83,48,1,1,180,226,198,151,3e-11,76.8
Veronaea_compacta_CBS268.75_T,SRR7471412.12345500,89.19,148,11,5,263,410,1,143,2e-42,180
Veronaea_compacta_CBS268.75_T,SRR7471412.3860964,100.00,65,0,0,220,284,215,151,1e-24,121
Veronaea_compacta_CBS268.75_T,SRR7471412.24379608,94.12,51,2,1,210,259,201,151,3e-11,76.8
Capronia_pilosella_AFTOL-ID657,SRR7471412.12345500,90.54,148,9,4,341,488,1,143,1e-45,191
Capronia_pilosella_AFTOL-ID657,SRR7471412.3860964,100.00,65,0,0,298,362,215,151,2e-24,121
Capronia_pilosella_AFTOL-ID657,SRR7471412.17941840,100.00,42,0,0,642,683,255,214,1e-11,78.7
Capronia_pilosella_AFTOL-ID657,SRR7471412.24379608,95.83,48,1,1,290,337,197,151,4e-11,76.8
Capronia_dactylotricha_DAOM208471_T,SRR7471412.12345500,92.37,131,7,2,243,373,1,128,2e-43,183
Capronia_dactylotricha_DAOM208471_T,SRR7471412.17941840,97.03,101,3,0,558,658,254,154,2e-39,171
Capronia_dactylotricha_DAOM208471_T,SRR7471412.3860964,100.00,65,0,0,200,264,215,151,2e-24,121
Capronia_dactylotricha_DAOM208471_T,SRR7471412.20740738,100.00,46,0,0,613,658,1,46,6e-14,86.1
Capronia_dactylotricha_DAOM208471_T,SRR7471412.17911765,89.55,67,7,0,587,653,151,217,6e-14,86.1
Capronia_dactylotricha_DAOM208471_T,SRR7471412.24379608,94.23,52,3,0,188,239,202,151,3e-12,80.5
Capronia_dactylotricha_DAOM208471_T,SRR7471412.1206149,94.00,50,3,0,609,658,300,251,4e-11,76.8
Capronia_dactylotricha_DAOM208471_T,SRR7471412.26067050,100.00,29,0,0,504,532,89,117,2e-04,54.7
Capronia_kleinmondensis_CBS122671_T,SRR7471412.12345500,91.54,130,9,2,268,397,1,128,1e-41,178
Capronia_kleinmondensis_CBS122671_T,SRR7471412.17941840,97.03,101,3,0,564,664,254,154,2e-39,171
Capronia_kleinmondensis_CBS122671_T,SRR7471412.3860964,100.00,65,0,0,225,289,215,151,2e-24,121
Capronia_kleinmondensis_CBS122671_T,SRR7471412.20740738,100.00,46,0,0,619,664,1,46,6e-14,86.1
Capronia_kleinmondensis_CBS122671_T,SRR7471412.17911765,89.55,67,7,0,593,659,151,217,6e-14,86.1
Capronia_kleinmondensis_CBS122671_T,SRR7471412.24379608,94.55,55,1,2,212,264,205,151,2e-13,84.2
Capronia_kleinmondensis_CBS122671_T,SRR7471412.1206149,94.00,50,3,0,615,664,300,251,4e-11,76.8
Capronia_mansonii_CBS101.67_T,SRR7471412.12345500,90.54,148,9,4,254,401,1,143,1e-45,191
Capronia_mansonii_CBS101.67_T,SRR7471412.17941840,98.04,102,2,0,567,668,255,154,1e-41,178
Capronia_mansonii_CBS101.67_T,SRR7471412.3860964,100.00,65,0,0,211,275,215,151,2e-24,121
Capronia_mansonii_CBS101.67_T,SRR7471412.20740738,100.00,46,0,0,623,668,1,46,6e-14,86.1
Capronia_mansonii_CBS101.67_T,SRR7471412.17911765,89.55,67,7,0,597,663,151,217,6e-14,86.1
Capronia_mansonii_CBS101.67_T,SRR7471412.24379608,94.23,52,1,2,201,250,202,151,1e-11,78.7
Capronia_mansonii_CBS101.67_T,SRR7471412.1206149,94.00,50,3,0,619,668,300,251,4e-11,76.8
Capronia_munkii_DAOM216390_T,SRR7471412.12345500,90.54,148,9,4,254,401,1,143,1e-45,191
Capronia_munkii_DAOM216390_T,SRR7471412.17941840,98.04,102,2,0,567,668,255,154,1e-41,178
Capronia_munkii_DAOM216390_T,SRR7471412.3860964,100.00,65,0,0,211,275,215,151,2e-24,121
Capronia_munkii_DAOM216390_T,SRR7471412.20740738,100.00,46,0,0,623,668,1,46,6e-14,86.1
Capronia_munkii_DAOM216390_T,SRR7471412.17911765,89.55,67,7,0,597,663,151,217,6e-14,86.1
Capronia_munkii_DAOM216390_T,SRR7471412.24379608,94.23,52,1,2,201,250,202,151,1e-11,78.7
Capronia_munkii_DAOM216390_T,SRR7471412.1206149,94.00,50,3,0,619,668,300,251,4e-11,76.8
Capronia_coronata_ATCC56201_T,SRR7471412.12345500,92.91,127,7,2,242,368,1,125,2e-43,183
Capronia_coronata_ATCC56201_T,SRR7471412.17941840,98.04,102,2,0,538,639,255,154,9e-42,178
Capronia_coronata_ATCC56201_T,SRR7471412.3860964,100.00,65,0,0,199,263,215,151,2e-24,121
Capronia_coronata_ATCC56201_T,SRR7471412.20740738,100.00,46,0,0,594,639,1,46,6e-14,86.1
Capronia_coronata_ATCC56201_T,SRR7471412.17911765,89.55,67,7,0,568,634,151,217,6e-14,86.1
Capronia_coronata_ATCC56201_T,SRR7471412.24379608,95.83,48,1,1,191,238,197,151,4e-11,76.8
Capronia_coronata_ATCC56201_T,SRR7471412.1206149,94.00,50,3,0,590,639,300,251,4e-11,76.8
Capronia_parasitica_CBS123.88,SRR7471412.12345500,92.19,128,8,2,248,375,1,126,2e-42,180
Capronia_parasitica_CBS123.88,SRR7471412.3860964,100.00,66,0,0,204,269,216,151,4e-25,122
Capronia_parasitica_CBS123.88,SRR7471412.24379608,94.44,54,1,2,193,244,204,151,7e-13,82.4
Veronaea_japonica_CBS776.83_T,SRR7471412.12345500,90.48,147,10,4,276,422,1,143,1e-45,191
Veronaea_japonica_CBS776.83_T,SRR7471412.3860964,100.00,65,0,0,233,297,215,151,2e-24,121
Veronaea_japonica_CBS776.83_T,SRR7471412.24379608,94.12,51,2,1,223,272,201,151,3e-11,76.8
Thysanorea_papuana_CBS212.96_T,SRR7471412.12345500,91.16,147,9,3,250,396,1,143,2e-47,196
Thysanorea_papuana_CBS212.96_T,SRR7471412.3860964,100.00,65,0,0,207,271,215,151,1e-24,121
Thysanorea_papuana_CBS212.96_T,SRR7471412.24379608,92.86,56,1,3,193,246,205,151,9e-12,78.7
Capronia_acutiseta_ATCC56428_T,SRR7471412.12345500,92.19,128,7,3,244,370,1,126,9e-42,178
Capronia_acutiseta_ATCC56428_T,SRR7471412.17941840,96.08,102,4,0,537,638,255,154,2e-38,167
Capronia_acutiseta_ATCC56428_T,SRR7471412.3860964,98.46,65,0,1,201,264,215,151,3e-22,113
Capronia_acutiseta_ATCC56428_T,SRR7471412.17911765,89.55,67,7,0,567,633,151,217,6e-14,86.1
Capronia_acutiseta_ATCC56428_T,SRR7471412.24379608,94.44,54,1,2,189,240,204,151,8e-13,82.4
Capronia_acutiseta_ATCC56428_T,SRR7471412.1206149,94.00,50,3,0,589,638,300,251,4e-11,76.8
Fonsecaea_brasiliensis_CBS119710_T,SRR7471412.12345500,90.54,148,9,4,250,397,1,143,1e-45,191
Fonsecaea_brasiliensis_CBS119710_T,SRR7471412.3860964,100.00,65,0,0,207,271,215,151,1e-24,121
Fonsecaea_brasiliensis_CBS119710_T,SRR7471412.24379608,100.00,40,0,0,207,246,190,151,1e-10,75.0
Fonsecaea_pedrosoi_CBS271.37_T,SRR7471412.12345500,89.93,149,9,5,278,426,1,143,2e-44,187
Fonsecaea_pedrosoi_CBS271.37_T,SRR7471412.3860964,100.00,65,0,0,235,299,215,151,2e-24,121
Fonsecaea_pedrosoi_CBS271.37_T,SRR7471412.17941840,98.39,62,1,0,584,645,255,194,4e-21,110
Fonsecaea_pedrosoi_CBS271.37_T,SRR7471412.24379608,100.00,40,0,0,235,274,190,151,1e-10,75.0
Fonsecaea_pedrosoi_CBS271.37_T,SRR7471412.17911765,100.00,33,0,0,613,645,150,182,1e-06,62.1
Fonsecaea_multimorphosa_CBS980.96_T,SRR7471412.12345500,91.22,148,8,5,248,395,1,143,2e-47,196
Fonsecaea_multimorphosa_CBS980.96_T,SRR7471412.3860964,100.00,65,0,0,205,269,215,151,1e-24,121
Fonsecaea_multimorphosa_CBS980.96_T,SRR7471412.24379608,100.00,40,0,0,205,244,190,151,1e-10,75.0
Fonsecaea_minima_CBS125760_T,SRR7471412.12345500,90.54,148,9,4,244,391,1,143,1e-45,191
Fonsecaea_minima_CBS125760_T,SRR7471412.3860964,100.00,65,0,0,201,265,215,151,1e-24,121
Fonsecaea_minima_CBS125760_T,SRR7471412.24379608,100.00,40,0,0,201,240,190,151,1e-10,75.0
Fonsecaea_nubica_CBS269.64_T,SRR7471412.12345500,89.93,149,9,5,255,403,1,143,1e-44,187
Fonsecaea_nubica_CBS269.64_T,SRR7471412.3860964,100.00,65,0,0,212,276,215,151,1e-24,121
Fonsecaea_nubica_CBS269.64_T,SRR7471412.24379608,100.00,40,0,0,212,251,190,151,1e-10,75.0
Fonsecaea_monophora_CBS269.37_T,SRR7471412.12345500,89.33,150,9,6,255,404,1,143,6e-43,182
Fonsecaea_monophora_CBS269.37_T,SRR7471412.3860964,98.48,66,0,1,212,277,215,151,7e-23,115
Fonsecaea_monophora_CBS269.37_T,SRR7471412.24379608,100.00,40,0,0,212,251,190,151,1e-10,75.0
Fonsecaea_erecta_CBS125763_T,SRR7471412.12345500,91.22,148,8,4,239,386,1,143,2e-47,196
Fonsecaea_erecta_CBS125763_T,SRR7471412.3860964,100.00,65,0,0,196,260,215,151,1e-24,121
Fonsecaea_erecta_CBS125763_T,SRR7471412.24379608,88.06,67,5,2,169,235,214,151,3e-11,76.8
Fonsecaea_pugnacius_CBS139214_T,SRR7471412.12345500,92.37,131,7,3,248,378,1,128,2e-43,183
Fonsecaea_pugnacius_CBS139214_T,SRR7471412.3860964,100.00,65,0,0,205,269,215,151,1e-24,121
Fonsecaea_pugnacius_CBS139214_T,SRR7471412.24379608,100.00,40,0,0,205,244,190,151,1e-10,75.0
Cladophialophora_psammophila_CBS,SRR7471412.12345500,91.22,148,8,4,254,401,1,143,2e-47,196
Cladophialophora_psammophila_CBS,SRR7471412.3860964,100.00,65,0,0,211,275,215,151,1e-24,121
Cladophialophora_psammophila_CBS,SRR7471412.24379608,94.34,53,2,1,198,250,202,151,2e-12,80.5
Cladophialophora_devriesii_CBS,SRR7471412.12345500,91.22,148,8,5,250,397,1,143,2e-47,196
Cladophialophora_devriesii_CBS,SRR7471412.3860964,100.00,65,0,0,207,271,215,151,1e-24,121
Cladophialophora_devriesii_CBS,SRR7471412.24379608,100.00,40,0,0,207,246,190,151,1e-10,75.0
Cladophialophora_immunda_CBS834.96,SRR7471412.12345500,90.54,148,9,4,252,399,1,143,1e-45,191
Cladophialophora_immunda_CBS834.96,SRR7471412.3860964,100.00,65,0,0,209,273,215,151,1e-24,121
Cladophialophora_immunda_CBS834.96,SRR7471412.24379608,100.00,40,0,0,209,248,190,151,1e-10,75.0
Cladophialophora_arxii_CBS306.94_T,SRR7471412.12345500,89.33,150,9,5,254,403,1,143,6e-43,182
Cladophialophora_arxii_CBS306.94_T,SRR7471412.3860964,100.00,65,0,0,211,275,215,151,1e-24,121
Cladophialophora_arxii_CBS306.94_T,SRR7471412.24379608,91.07,56,4,1,195,250,205,151,1e-10,75.0
Cladophialophora_bantiana_CBS173.52,SRR7471412.12345500,91.22,148,8,4,248,395,1,143,2e-47,196
Cladophialophora_bantiana_CBS173.52,SRR7471412.3860964,100.00,65,0,0,205,269,215,151,1e-24,121
Cladophialophora_bantiana_CBS173.52,SRR7471412.24379608,94.34,53,1,2,193,244,202,151,2e-12,80.5
Cladophialophora_emmonsii_CBS102594,SRR7471412.12345500,93.08,130,7,2,239,368,1,128,4e-45,189
Cladophialophora_emmonsii_CBS102594,SRR7471412.3860964,100.00,65,0,0,196,260,215,151,1e-24,121
Cladophialophora_emmonsii_CBS102594,SRR7471412.24379608,94.34,53,1,2,184,235,202,151,2e-12,80.5
Cladophialophora_minourae_CBS556.83,SRR7471412.12345500,87.92,149,12,5,247,395,1,143,4e-40,172
Cladophialophora_minourae_CBS556.83,SRR7471412.3860964,100.00,65,0,0,204,268,215,151,1e-24,121
Cladophialophora_minourae_CBS556.83,SRR7471412.24379608,94.74,57,1,2,188,243,206,151,1e-14,87.9
Cladophialophora_australiensis_CBS112793,SRR7471412.12345500,90.48,147,10,3,249,395,1,143,3e-45,191
Cladophialophora_australiensis_CBS112793,SRR7471412.18025631,89.04,146,16,0,790,935,1,146,2e-42,182
Cladophialophora_australiensis_CBS112793,SRR7471412.17941840,97.14,105,3,0,545,649,255,151,2e-41,178
Cladophialophora_australiensis_CBS112793,SRR7471412.20740738,94.74,114,4,1,601,714,1,112,8e-41,176
Cladophialophora_australiensis_CBS112793,SRR7471412.11339763,91.43,105,9,0,1365,1469,151,255,2e-31,145
Cladophialophora_australiensis_CBS112793,SRR7471412.11339763,93.18,88,6,0,1382,1469,150,63,6e-27,130
Cladophialophora_australiensis_CBS112793,SRR7471412.3860964,100.00,66,0,0,205,270,216,151,1e-24,122
Cladophialophora_australiensis_CBS112793,SRR7471412.24114779,84.31,102,14,2,1141,1241,253,153,2e-17,99.0
Cladophialophora_australiensis_CBS112793,SRR7471412.24114779,83.70,92,13,2,1141,1231,61,151,1e-13,86.1
Cladophialophora_australiensis_CBS112793,SRR7471412.17911765,84.69,98,15,0,574,671,150,247,2e-17,99.0
Cladophialophora_australiensis_CBS112793,SRR7471412.1206149,94.44,54,3,0,597,650,300,247,5e-13,84.2
Cladophialophora_australiensis_CBS112793,SRR7471412.24379608,92.86,56,3,1,191,245,206,151,6e-12,80.5
Cladophialophora_australiensis_CBS112793,SRR7471412.27554170,94.12,51,3,0,1421,1471,53,3,2e-11,78.7
Cladophialophora_australiensis_CBS112793,SRR7471412.25230686,93.62,47,3,0,1177,1223,202,156,4e-09,71.3
Cladophialophora_australiensis_CBS112793,SRR7471412.25108576,92.86,42,3,0,1165,1206,191,150,2e-06,62.1
Cladophialophora_australiensis_CBS112793,SRR7471412.814012,90.91,44,4,0,1336,1379,213,256,8e-06,60.2
Cladophialophora_australiensis_CBS112793,SRR7471412.17411505,100.00,30,0,0,1180,1209,281,252,1e-04,56.5
Cladophialophora_potulentorum_CBS112222,SRR7471412.12345500,89.80,147,11,3,248,394,1,143,1e-43,185
Cladophialophora_potulentorum_CBS112222,SRR7471412.18025631,89.04,146,16,0,792,937,1,146,2e-42,182
Cladophialophora_potulentorum_CBS112222,SRR7471412.17941840,97.14,105,3,0,547,651,255,151,2e-41,178
Cladophialophora_potulentorum_CBS112222,SRR7471412.20740738,94.74,114,4,1,603,716,1,112,8e-41,176
Cladophialophora_potulentorum_CBS112222,SRR7471412.11339763,89.92,119,12,0,1367,1485,151,269,4e-34,154
Cladophialophora_potulentorum_CBS112222,SRR7471412.11339763,91.43,105,9,0,1384,1488,150,46,2e-31,145
Cladophialophora_potulentorum_CBS112222,SRR7471412.3860964,100.00,65,0,0,205,269,215,151,4e-24,121
Cladophialophora_potulentorum_CBS112222,SRR7471412.9544849,87.25,102,13,0,1387,1488,297,196,5e-23,117
Cladophialophora_potulentorum_CBS112222,SRR7471412.24114779,84.31,102,14,2,1143,1243,253,153,2e-17,99.0
Cladophialophora_potulentorum_CBS112222,SRR7471412.24114779,83.70,92,13,2,1143,1233,61,151,1e-13,86.1
Cladophialophora_potulentorum_CBS112222,SRR7471412.17911765,84.69,98,15,0,576,673,150,247,2e-17,99.0
Cladophialophora_potulentorum_CBS112222,SRR7471412.24379608,94.64,56,1,2,191,244,206,151,1e-13,86.1
Cladophialophora_potulentorum_CBS112222,SRR7471412.1206149,94.44,54,3,0,599,652,300,247,5e-13,84.2
Cladophialophora_potulentorum_CBS112222,SRR7471412.27554170,94.12,51,3,0,1423,1473,53,3,2e-11,78.7
Cladophialophora_potulentorum_CBS112222,SRR7471412.25230686,100.00,36,0,0,1179,1214,202,167,5e-08,67.6
Cladophialophora_potulentorum_CBS112222,SRR7471412.814012,90.91,44,4,0,1338,1381,213,256,9e-06,60.2
Cladophialophora_potulentorum_CBS112222,SRR7471412.25108576,100.00,30,0,0,1179,1208,179,150,1e-04,56.5
Cladophialophora_potulentorum_CBS112222,SRR7471412.17411505,100.00,30,0,0,1182,1211,281,252,1e-04,56.5
Cladophialophora_matsushimae_CMRP1198,SRR7471412.12345500,89.12,147,12,3,252,398,1,143,2e-42,180
Cladophialophora_matsushimae_CMRP1198,SRR7471412.3860964,100.00,65,0,0,209,273,215,151,1e-24,121
Cladophialophora_matsushimae_CMRP1198,SRR7471412.24379608,95.92,49,0,2,200,248,197,151,7e-12,78.7
Cladophialophora_mycetomatis_CBS122637,SRR7471412.12345500,90.48,147,10,3,237,383,1,143,1e-45,191
Cladophialophora_mycetomatis_CBS122637,SRR7471412.3860964,100.00,65,0,0,194,258,215,151,1e-24,121
Cladophialophora_mycetomatis_CBS122637,SRR7471412.24379608,95.92,49,0,2,185,233,197,151,8e-12,78.7
Cladophialophora_chaetospira_CBS127573,SRR7471412.12345500,91.16,147,9,3,643,789,1,143,4e-47,196
Cladophialophora_chaetospira_CBS127573,SRR7471412.3860964,96.92,65,2,0,600,664,215,151,5e-21,110
Cladophialophora_boppii_CBS126.86_T,SRR7471412.12345500,91.16,147,9,4,245,391,1,143,2e-47,196
Cladophialophora_boppii_CBS126.86_T,SRR7471412.3860964,100.00,65,0,0,202,266,215,151,1e-24,121
Cladophialophora_boppii_CBS126.86_T,SRR7471412.24379608,97.78,45,1,0,197,241,195,151,8e-12,78.7
Cladophialophora_abundans_CBS126736,SRR7471412.12345500,91.84,147,8,3,182,328,1,143,4e-49,202
Cladophialophora_abundans_CBS126736,SRR7471412.3860964,100.00,65,0,0,139,203,215,151,1e-24,121
Cladophialophora_abundans_CBS126736,SRR7471412.24379608,100.00,41,0,0,138,178,191,151,3e-11,76.8
Capronia_semi-immersa_CBS102234,SRR7471412.12345500,89.12,147,12,3,244,390,1,143,2e-42,180
Capronia_semi-immersa_CBS102234,SRR7471412.3860964,100.00,65,0,0,201,265,215,151,1e-24,121
Capronia_semi-immersa_CBS102234,SRR7471412.24379608,94.74,57,1,2,185,240,206,151,1e-14,87.9
Phialophora_americana_CBS400.67,SRR7471412.12345500,89.12,147,12,3,246,392,1,143,6e-42,180
Phialophora_americana_CBS400.67,SRR7471412.20740738,96.26,107,2,1,597,703,3,107,3e-40,174
Phialophora_americana_CBS400.67,SRR7471412.17941840,96.19,105,4,0,539,643,255,151,1e-39,172
Phialophora_americana_CBS400.67,SRR7471412.3860964,100.00,65,0,0,203,267,215,151,4e-24,121
Phialophora_americana_CBS400.67,SRR7471412.11339763,90.80,87,8,0,1359,1445,151,237,5e-23,117
Phialophora_americana_CBS400.67,SRR7471412.24114779,87.25,102,11,2,1135,1235,253,153,2e-22,115
Phialophora_americana_CBS400.67,SRR7471412.24114779,86.96,92,10,2,1135,1225,61,151,1e-18,102
Phialophora_americana_CBS400.67,SRR7471412.17911765,83.67,98,16,0,568,665,150,247,8e-16,93.5
Phialophora_americana_CBS400.67,SRR7471412.24379608,94.74,57,1,2,187,242,206,151,4e-14,87.9
Phialophora_americana_CBS400.67,SRR7471412.25230686,93.62,47,3,0,1171,1217,202,156,4e-09,71.3
Phialophora_americana_CBS400.67,SRR7471412.25108576,92.86,42,3,0,1159,1200,191,150,2e-06,62.1
Phialophora_americana_CBS400.67,SRR7471412.814012,90.91,44,4,0,1330,1373,213,256,8e-06,60.2
Phialophora_americana_CBS400.67,SRR7471412.17411505,97.06,34,1,0,1174,1207,281,248,3e-05,58.4
Phialophora_verrucosa_CBS140325_T,SRR7471412.12345500,89.12,147,12,3,250,396,1,143,2e-42,180
Phialophora_verrucosa_CBS140325_T,SRR7471412.3860964,100.00,65,0,0,207,271,215,151,1e-24,121
Phialophora_verrucosa_CBS140325_T,SRR7471412.24379608,94.74,57,1,2,191,246,206,151,1e-14,87.9
Phialophora_verrucosa_CBS140325_T,SRR7471412.17941840,97.62,42,1,0,545,586,255,214,4e-10,73.1
Cladophialophora_samoensis_CBS259.83_T,SRR7471412.12345500,91.84,147,8,3,250,396,1,143,5e-49,202
Cladophialophora_samoensis_CBS259.83_T,SRR7471412.3860964,100.00,65,0,0,207,271,215,151,1e-24,121
Cladophialophora_samoensis_CBS259.83_T,SRR7471412.24379608,100.00,40,0,0,207,246,190,151,1e-10,75.0
Cladophialophora_carrionii_CBS260.83,SRR7471412.12345500,90.48,147,10,3,266,412,1,143,1e-45,191
Cladophialophora_carrionii_CBS260.83,SRR7471412.3860964,100.00,65,0,0,223,287,215,151,2e-24,121
Cladophialophora_carrionii_CBS260.83,SRR7471412.17941840,98.04,51,1,0,558,608,255,205,4e-15,89.8
Cladophialophora_carrionii_CBS260.83,SRR7471412.24379608,93.10,58,1,2,206,262,206,151,7e-13,82.4
Exophiala_palmae_UPCB86822_T,SRR7471412.12345500,93.08,130,7,2,209,338,1,128,3e-45,189
Exophiala_palmae_UPCB86822_T,SRR7471412.3860964,100.00,65,0,0,166,230,215,151,1e-24,121
Exophiala_palmae_UPCB86822_T,SRR7471412.24379608,94.23,52,2,1,155,205,202,151,8e-12,78.7
Cladophialophora_yegresii_CBS114405_T,SRR7471412.12345500,90.48,147,10,3,251,397,1,143,1e-45,191
Cladophialophora_yegresii_CBS114405_T,SRR7471412.3860964,100.00,65,0,0,208,272,215,151,1e-24,121
Cladophialophora_yegresii_CBS114405_T,SRR7471412.24379608,93.10,58,1,2,191,247,206,151,7e-13,82.4
Knufia_epidermidis_CBS120353_T,SRR7471412.12345500,92.97,128,7,2,249,376,1,126,5e-44,185
Knufia_epidermidis_CBS120353_T,SRR7471412.3860964,100.00,65,0,0,206,270,215,151,1e-24,121
Knufia_epidermidis_CBS120353_T,SRR7471412.24379608,91.53,59,2,2,187,245,206,151,8e-12,78.7
Arthrocladium_fulminans_CBS136243_T,SRR7471412.12345500,90.62,128,10,2,244,371,1,126,5e-39,169
Arthrocladium_fulminans_CBS136243_T,SRR7471412.3860964,100.00,65,0,0,201,265,215,151,1e-24,121
Arthrocladium_fulminans_CBS136243_T,SRR7471412.24379608,100.00,41,0,0,200,240,191,151,3e-11,76.8
Arthrocladium_fulminans_CBS136243_T,SRR7471412.17941840,100.00,28,0,0,533,560,254,227,5e-04,52.8
Anthopsis_deltoidea_CBS263.77_T,SRR7471412.3860964,100.00,65,0,0,210,274,215,151,1e-24,121
Anthopsis_deltoidea_CBS263.77_T,SRR7471412.24379608,100.00,40,0,0,210,249,190,151,1e-10,75.0
Cyphellophora_laciniata_CBS190.61_T,SRR7471412.12345500,90.91,154,11,3,338,490,1,152,2e-49,204
Cyphellophora_laciniata_CBS190.61_T,SRR7471412.17941840,99.02,102,1,0,634,735,255,154,2e-43,183
Cyphellophora_laciniata_CBS190.61_T,SRR7471412.21528916,91.21,91,8,0,15,105,148,58,1e-25,124
Cyphellophora_laciniata_CBS190.61_T,SRR7471412.3860964,100.00,65,0,0,295,359,215,151,2e-24,121
Cyphellophora_laciniata_CBS190.61_T,SRR7471412.7706352,92.96,71,5,0,1,71,71,1,2e-19,104
Cyphellophora_laciniata_CBS190.61_T,SRR7471412.17911765,91.04,67,6,0,664,730,151,217,1e-15,91.6
Cyphellophora_laciniata_CBS190.61_T,SRR7471412.20740738,97.83,46,1,0,690,735,1,46,3e-12,80.5
Cyphellophora_laciniata_CBS190.61_T,SRR7471412.24379608,94.23,52,1,2,285,334,202,151,1e-11,78.7
Cyphellophora_laciniata_CBS190.61_T,SRR7471412.1206149,92.00,50,4,0,686,735,300,251,2e-09,71.3
Cyphellophora_suttonii_CBS449.91,SRR7471412.12345500,92.36,144,9,2,241,383,1,143,1e-49,204
Cyphellophora_suttonii_CBS449.91,SRR7471412.3860964,100.00,65,0,0,198,262,215,151,1e-24,121
Cyphellophora_suttonii_CBS449.91,SRR7471412.24379608,95.83,48,1,1,190,237,197,151,3e-11,76.8
Cyphellophora_pauciseptata_CBS284.85_T,SRR7471412.12345500,92.36,144,9,2,252,394,1,143,1e-49,204
Cyphellophora_pauciseptata_CBS284.85_T,SRR7471412.3860964,100.00,66,0,0,208,273,216,151,4e-25,122
Cyphellophora_pauciseptata_CBS284.85_T,SRR7471412.24379608,94.23,52,0,3,200,248,202,151,3e-11,76.8
Cyphellophora_pluriseptata_CBS286.85_T,SRR7471412.12345500,91.67,144,10,2,257,399,1,143,6e-48,198
Cyphellophora_pluriseptata_CBS286.85_T,SRR7471412.3860964,98.46,65,1,0,214,278,215,151,6e-23,115
Cyphellophora_pluriseptata_CBS286.85_T,SRR7471412.24379608,92.31,52,2,2,204,253,202,151,4e-10,73.1
Phialophora_europaea_CBS101466,SRR7471412.12345500,91.67,144,10,2,247,389,1,143,6e-48,198
Phialophora_europaea_CBS101466,SRR7471412.3860964,100.00,67,0,0,202,268,217,151,1e-25,124
Phialophora_europaea_CBS101466,SRR7471412.24379608,94.23,52,2,1,193,243,202,151,8e-12,78.7
Phialophora_ambigua_CBS235.93,SRR7471412.12345500,91.67,144,10,2,244,386,1,143,6e-48,198
Phialophora_ambigua_CBS235.93,SRR7471412.3860964,100.00,65,0,0,201,265,215,151,1e-24,121
Phialophora_ambigua_CBS235.93,SRR7471412.24379608,95.83,48,1,1,193,240,197,151,3e-11,76.8
Cladophialophora_modesta_CBS985.96_T,SRR7471412.12345500,91.10,146,10,3,241,386,1,143,9e-47,195
Cladophialophora_modesta_CBS985.96_T,SRR7471412.17941840,99.02,102,1,0,518,619,255,154,2e-43,183
Cladophialophora_modesta_CBS985.96_T,SRR7471412.3860964,100.00,65,0,0,198,262,215,151,2e-24,121
Cladophialophora_modesta_CBS985.96_T,SRR7471412.17911765,92.54,67,5,0,548,614,151,217,3e-17,97.1
Cladophialophora_modesta_CBS985.96_T,SRR7471412.24379608,94.12,51,2,1,188,237,201,151,3e-11,76.8
Cladophialophora_modesta_CBS985.96_T,SRR7471412.20740738,95.65,46,2,0,574,619,1,46,1e-10,75.0
Cladophialophora_modesta_CBS985.96_T,SRR7471412.1206149,92.16,51,2,2,570,619,300,251,2e-09,71.3
Cyphellophora_fusarioides_MUCL44033_T,SRR7471412.12345500,91.67,144,10,2,240,382,1,143,6e-48,198
Cyphellophora_fusarioides_MUCL44033_T,SRR7471412.3860964,100.00,65,0,0,197,261,215,151,1e-24,121
Cyphellophora_fusarioides_MUCL44033_T,SRR7471412.24379608,94.23,52,1,2,187,236,202,151,8e-12,78.7
