Exophiala_nigra_CBS535.94_T,SRR7471335.3975240,89.81,108,9,2,188,294,257,151,1e-29,137
Exophiala_spinifera_CBS899.68_T,SRR7471335.3975240,92.39,92,6,1,200,291,241,151,2e-27,130
Exophiala_exophialae_CBS668.76_T,SRR7471335.3975240,92.39,92,6,1,201,292,241,151,2e-27,130
Exophiala_polymorpha_CBS138920_T,SRR7471335.3975240,89.52,105,9,2,290,394,253,151,7e-28,132
Exophiala_polymorpha_CBS138920_T,SRR7471335.8864336,100.00,33,0,0,662,694,1,33,1e-06,62.1
Exophiala_oligosperma_CBS725.88_T,SRR7471335.3975240,92.39,92,6,1,213,304,241,151,2e-27,130
Exophiala_jeanselmei_CBS507.90_T,SRR7471335.3975240,92.39,92,6,1,205,296,241,151,2e-27,130
Exophiala_jeanselmei_CBS507.90_T,SRR7471335.8864336,100.00,41,0,0,564,604,1,41,3e-11,76.8
Exophiala_bergeri_CBS353.52,SRR7471335.3975240,89.81,108,9,2,151,257,257,151,1e-29,137
Exophiala_moniliae_CBS520.76_T,SRR7471335.3975240,93.48,92,5,1,203,294,241,151,5e-29,135
Exophiala_pisciphila_CBS537.73_T,SRR7471335.3975240,93.48,92,5,1,206,297,241,151,5e-29,135
Exophiala_pisciphila_CBS537.73_T,SRR7471335.8864336,96.30,81,3,0,573,653,1,81,2e-28,134
Exophiala_xenobiotica_CBS117642,SRR7471335.3975240,89.91,109,9,2,182,289,258,151,3e-30,139
Exophiala_brunnea_CBS,SRR7471335.3975240,90.48,105,9,1,221,325,254,151,1e-29,137
Exophiala_brunnea_CBS,SRR7471335.3975240,100.00,38,0,0,1,38,8,45,1e-09,71.3
Exophiala_brunnea_CBS,SRR7471335.12321764,100.00,39,0,0,1,39,172,210,4e-10,73.1
Exophiala_brunnea_CBS,SRR7471335.7136937,97.50,40,1,0,1,40,73,112,5e-09,69.4
Exophiala_brunnea_CBS,SRR7471335.15314853,100.00,32,0,0,1,32,269,300,3e-06,60.2
Exophiala_nishimurae_CBS101538_T,SRR7471335.3975240,92.39,92,6,1,212,303,241,151,2e-27,130
Exophiala_mesophila_CBS402.95_T,SRR7471335.8864336,97.53,81,2,0,570,650,1,81,4e-30,139
Exophiala_mesophila_CBS402.95_T,SRR7471335.3975240,90.48,105,8,2,184,287,254,151,1e-29,137
Exophiala_castellanii_CBS158.58_T,SRR7471335.8864336,97.53,81,2,0,569,649,1,81,4e-30,139
Exophiala_castellanii_CBS158.58_T,SRR7471335.3975240,90.48,105,8,2,182,285,254,151,1e-29,137
Exophiala_lecanii-corni_CBS123.33_T,SRR7471335.3975240,90.48,105,9,1,204,308,254,151,1e-29,137
Exophiala_dermatitidis_CBS748.88,SRR7471335.2070295,95.89,146,6,0,1359,1504,150,5,3e-59,237
Exophiala_dermatitidis_CBS748.88,SRR7471335.2070295,87.50,120,13,2,1182,1301,147,264,3e-29,137
Exophiala_dermatitidis_CBS748.88,SRR7471335.1007172,98.39,124,2,0,902,1025,151,274,1e-53,219
Exophiala_dermatitidis_CBS748.88,SRR7471335.1007172,88.99,109,12,0,1132,1240,109,1,1e-28,135
Exophiala_dermatitidis_CBS748.88,SRR7471335.8864336,91.50,153,9,2,595,747,1,149,3e-50,207
Exophiala_dermatitidis_CBS748.88,SRR7471335.19923620,90.34,145,9,5,1309,1451,292,151,1e-43,185
Exophiala_dermatitidis_CBS748.88,SRR7471335.20961901,88.55,131,15,0,1374,1504,151,281,7e-36,159
Exophiala_dermatitidis_CBS748.88,SRR7471335.20961901,85.51,69,9,1,1436,1504,152,85,4e-09,71.3
Exophiala_dermatitidis_CBS748.88,SRR7471335.12693775,92.86,98,7,0,923,1020,151,248,7e-31,143
Exophiala_dermatitidis_CBS748.88,SRR7471335.3975240,93.48,92,4,2,210,300,241,151,1e-28,135
Exophiala_dermatitidis_CBS748.88,SRR7471335.16863136,95.24,84,4,0,1421,1504,141,58,4e-28,134
Exophiala_dermatitidis_CBS748.88,SRR7471335.9695702,98.53,68,1,0,954,1021,1,68,3e-24,121
Exophiala_dermatitidis_CBS748.88,SRR7471335.9695702,100.00,34,0,0,988,1021,300,267,6e-07,63.9
Exophiala_dermatitidis_CBS748.88,SRR7471335.12850225,86.05,86,10,1,1316,1401,99,16,3e-15,91.6
Exophiala_dermatitidis_CBS748.88,SRR7471335.20024420,90.32,62,6,0,1353,1414,212,151,2e-12,82.4
Exophiala_dermatitidis_CBS748.88,SRR7471335.20024420,82.28,79,13,1,1210,1288,50,127,5e-08,67.6
Exophiala_dermatitidis_CBS748.88,SRR7471335.15503900,94.12,51,3,0,1454,1504,241,191,2e-11,78.7
Exophiala_dermatitidis_CBS748.88,SRR7471335.25183078,100.00,31,0,0,1213,1243,111,81,3e-05,58.4
Exophiala_dermatitidis_CBS748.88,SRR7471335.552584,94.74,38,0,2,1206,1243,48,83,3e-05,58.4
Exophiala_dermatitidis_CBS748.88,SRR7471335.612766,100.00,30,0,0,1213,1242,35,64,1e-04,56.5
Exophiala_angulospora_CBS482.92_T,SRR7471335.3975240,93.48,92,5,1,200,291,241,151,4e-29,135
Exophiala_opportunistica_CBS109811_T,SRR7471335.3975240,91.92,99,7,1,192,290,248,151,1e-29,137
Exophiala_salmonis_CBS157.67_T,SRR7471335.4906022,90.91,121,9,2,3,122,151,270,1e-36,161
Exophiala_salmonis_CBS157.67_T,SRR7471335.3975240,93.48,92,5,1,328,419,241,151,6e-29,135
Exophiala_salmonis_CBS157.67_T,SRR7471335.8864336,96.30,81,3,0,693,773,1,81,2e-28,134
Exophiala_salmonis_CBS157.67_T,SRR7471335.1397356,89.52,105,11,0,7,111,105,1,2e-28,134
Exophiala_salmonis_CBS157.67_T,SRR7471335.7416997,94.44,54,3,0,69,122,291,238,2e-13,84.2
Exophiala_salmonis_CBS157.67_T,SRR7471335.4490140,97.50,40,1,0,83,122,1,40,6e-09,69.4
Exophiala_salmonis_CBS157.67_T,SRR7471335.7136937,89.80,49,3,2,75,122,32,79,1e-06,62.1
Exophiala_salmonis_CBS157.67_T,SRR7471335.12717376,80.77,78,13,2,1,77,72,148,4e-06,60.2
Exophiala_aquamarina_CBS119918_T,SRR7471335.3975240,93.48,92,5,1,206,297,241,151,4e-29,135
Exophiala_cancerae_CBS120420_T,SRR7471335.3975240,91.92,99,7,1,214,312,248,151,1e-29,137
Exophiala_cancerae_CBS120420_T,SRR7471335.8864336,97.56,41,1,0,584,624,1,41,1e-09,71.3
Exophiala_tremulae_CBS129355,SRR7471335.3975240,93.48,92,5,1,233,324,241,151,5e-29,135
Exophiala_tremulae_CBS129355,SRR7471335.3975240,100.00,38,0,0,1,38,8,45,1e-09,71.3
Exophiala_tremulae_CBS129355,SRR7471335.12321764,100.00,39,0,0,1,39,172,210,4e-10,73.1
Exophiala_tremulae_CBS129355,SRR7471335.7136937,97.50,40,1,0,1,40,73,112,5e-09,69.4
Exophiala_tremulae_CBS129355,SRR7471335.15314853,100.00,32,0,0,1,32,269,300,3e-06,60.2
Exophiala_equina_CBS116009,SRR7471335.3975240,93.48,92,5,1,199,290,241,151,5e-29,135
Exophiala_alcalophila_CBS520.82_T,SRR7471335.3975240,91.92,99,7,1,203,301,248,151,1e-29,137
Exophiala_crusticola_CBS119970_T,SRR7471335.3975240,93.48,92,5,1,215,306,241,151,4e-29,135
Rhinocladiella_atrovirens_CBS264.49,SRR7471335.3975240,91.43,105,7,2,229,332,254,151,3e-31,143
Rhinocladiella_atrovirens_CBS264.49,SRR7471335.3975240,100.00,43,0,0,1,43,3,45,2e-12,80.5
Rhinocladiella_atrovirens_CBS264.49,SRR7471335.12321764,100.00,45,0,0,1,45,167,211,2e-13,84.2
Rhinocladiella_atrovirens_CBS264.49,SRR7471335.7136937,97.73,44,1,0,1,44,68,111,3e-11,76.8
Rhinocladiella_atrovirens_CBS264.49,SRR7471335.15314853,100.00,37,0,0,1,37,264,300,5e-09,69.4
Rhinocladiella_basitona_CBS101460_T,SRR7471335.3975240,92.39,92,6,1,200,291,241,151,2e-27,130
Rhinocladiella_phaeophora_CBS496.78_T,SRR7471335.3975240,93.48,92,5,1,208,299,241,151,5e-29,135
Rhinocladiella_aquaspersa_CBS313.73_T,SRR7471335.8864336,96.51,86,3,0,565,650,1,86,3e-31,143
Rhinocladiella_aquaspersa_CBS313.73_T,SRR7471335.3975240,93.48,92,5,1,202,293,241,151,5e-29,135
Rhinocladiella_fasciculata_CBS132.86_T,SRR7471335.3975240,91.43,105,6,3,207,309,254,151,1e-30,141
Rhinocladiella_fasciculata_CBS132.86_T,SRR7471335.12321764,100.00,28,0,0,1,28,184,211,5e-04,52.8
Rhinocladiella_anceps_CBS181.65_T,SRR7471335.3975240,93.48,92,5,1,200,291,241,151,4e-29,135
Rhinocladiella_mackenziei_CBS367.92,SRR7471335.3975240,91.92,99,7,1,182,280,248,151,1e-29,137
Veronaea_compacta_CBS268.75_T,SRR7471335.3975240,90.48,105,9,1,209,313,254,151,1e-29,137
Capronia_pilosella_AFTOL-ID657,SRR7471335.3975240,93.48,92,5,1,300,391,241,151,6e-29,135
Capronia_dactylotricha_DAOM208471_T,SRR7471335.3975240,93.48,92,5,1,202,293,241,151,5e-29,135
Capronia_dactylotricha_DAOM208471_T,SRR7471335.8864336,96.30,81,3,0,578,658,1,81,2e-28,134
Capronia_kleinmondensis_CBS122671_T,SRR7471335.3975240,91.43,105,7,2,215,318,254,151,3e-31,143
Capronia_kleinmondensis_CBS122671_T,SRR7471335.3975240,100.00,29,0,0,1,29,17,45,2e-04,54.7
Capronia_kleinmondensis_CBS122671_T,SRR7471335.8864336,96.30,81,3,0,584,664,1,81,2e-28,134
Capronia_kleinmondensis_CBS122671_T,SRR7471335.12321764,100.00,31,0,0,1,31,181,211,1e-05,58.4
Capronia_mansonii_CBS101.67_T,SRR7471335.8864336,97.53,81,2,0,588,668,1,81,4e-30,139
Capronia_mansonii_CBS101.67_T,SRR7471335.3975240,93.48,92,5,1,213,304,241,151,5e-29,135
Capronia_munkii_DAOM216390_T,SRR7471335.8864336,97.53,81,2,0,588,668,1,81,4e-30,139
Capronia_munkii_DAOM216390_T,SRR7471335.3975240,93.48,92,5,1,213,304,241,151,5e-29,135
Capronia_coronata_ATCC56201_T,SRR7471335.8864336,97.53,81,2,0,559,639,1,81,4e-30,139
Capronia_coronata_ATCC56201_T,SRR7471335.3975240,93.48,92,5,1,201,292,241,151,5e-29,135
Capronia_parasitica_CBS123.88,SRR7471335.3975240,92.78,97,6,1,202,298,246,151,4e-30,139
Veronaea_japonica_CBS776.83_T,SRR7471335.3975240,90.48,105,9,1,222,326,254,151,1e-29,137
Veronaea_japonica_CBS776.83_T,SRR7471335.3975240,100.00,37,0,0,1,37,9,45,5e-09,69.4
Veronaea_japonica_CBS776.83_T,SRR7471335.12321764,100.00,38,0,0,1,38,173,210,1e-09,71.3
Veronaea_japonica_CBS776.83_T,SRR7471335.7136937,97.44,39,1,0,1,39,74,112,2e-08,67.6
Veronaea_japonica_CBS776.83_T,SRR7471335.15314853,100.00,31,0,0,1,31,270,300,1e-05,58.4
Thysanorea_papuana_CBS212.96_T,SRR7471335.3975240,93.48,92,5,1,209,300,241,151,5e-29,135
Capronia_acutiseta_ATCC56428_T,SRR7471335.8864336,95.06,81,4,0,558,638,1,81,9e-27,128
Fonsecaea_brasiliensis_CBS119710_T,SRR7471335.3975240,93.48,92,5,1,209,300,241,151,4e-29,135
Fonsecaea_pedrosoi_CBS271.37_T,SRR7471335.3975240,93.48,92,5,1,237,328,241,151,5e-29,135
Fonsecaea_pedrosoi_CBS271.37_T,SRR7471335.3975240,100.00,29,0,0,1,29,17,45,1e-04,54.7
Fonsecaea_pedrosoi_CBS271.37_T,SRR7471335.8864336,97.56,41,1,0,605,645,1,41,1e-09,71.3
Fonsecaea_pedrosoi_CBS271.37_T,SRR7471335.12321764,100.00,30,0,0,1,30,181,210,4e-05,56.5
Fonsecaea_multimorphosa_CBS980.96_T,SRR7471335.3975240,93.48,92,5,1,207,298,241,151,4e-29,135
Fonsecaea_minima_CBS125760_T,SRR7471335.3975240,93.48,92,5,1,203,294,241,151,4e-29,135
Fonsecaea_nubica_CBS269.64_T,SRR7471335.3975240,93.48,92,5,1,214,305,241,151,5e-29,135
Fonsecaea_erecta_CBS125763_T,SRR7471335.3975240,93.48,92,5,1,198,289,241,151,4e-29,135
Fonsecaea_pugnacius_CBS139214_T,SRR7471335.3975240,93.48,92,5,1,207,298,241,151,4e-29,135
Cladophialophora_psammophila_CBS,SRR7471335.3975240,93.48,92,5,1,213,304,241,151,5e-29,135
Cladophialophora_devriesii_CBS,SRR7471335.3975240,93.48,92,5,1,209,300,241,151,4e-29,135
Cladophialophora_immunda_CBS834.96,SRR7471335.3975240,93.48,92,5,1,211,302,241,151,4e-29,135
Cladophialophora_arxii_CBS306.94_T,SRR7471335.3975240,93.48,92,5,1,213,304,241,151,4e-29,135
Cladophialophora_bantiana_CBS173.52,SRR7471335.3975240,93.48,92,5,1,207,298,241,151,4e-29,135
Cladophialophora_emmonsii_CBS102594,SRR7471335.3975240,93.48,92,5,1,198,289,241,151,4e-29,135
Cladophialophora_minourae_CBS556.83,SRR7471335.3975240,92.39,92,6,1,206,297,241,151,2e-27,130
Cladophialophora_australiensis_CBS112793,SRR7471335.2070295,95.89,146,6,0,1326,1471,150,5,3e-59,237
Cladophialophora_australiensis_CBS112793,SRR7471335.2070295,86.67,120,14,2,1149,1268,147,264,2e-27,132
Cladophialophora_australiensis_CBS112793,SRR7471335.1007172,95.97,124,5,0,872,995,151,274,1e-48,202
Cladophialophora_australiensis_CBS112793,SRR7471335.1007172,84.46,148,22,1,1060,1207,147,1,2e-31,145
Cladophialophora_australiensis_CBS112793,SRR7471335.8864336,91.22,148,10,2,566,713,1,145,2e-47,198
Cladophialophora_australiensis_CBS112793,SRR7471335.19923620,88.19,144,14,3,1276,1418,292,151,1e-38,169
Cladophialophora_australiensis_CBS112793,SRR7471335.20961901,88.55,131,15,0,1341,1471,151,281,7e-36,159
Cladophialophora_australiensis_CBS112793,SRR7471335.20961901,85.51,69,9,1,1403,1471,152,85,3e-09,71.3
Cladophialophora_australiensis_CBS112793,SRR7471335.3975240,93.48,92,5,1,208,299,241,151,1e-28,135
Cladophialophora_australiensis_CBS112793,SRR7471335.16863136,95.24,84,4,0,1388,1471,141,58,4e-28,134
Cladophialophora_australiensis_CBS112793,SRR7471335.12693775,91.49,94,6,2,893,985,151,243,2e-26,128
Cladophialophora_australiensis_CBS112793,SRR7471335.12850225,85.06,87,9,4,1283,1368,99,16,1e-13,86.1
Cladophialophora_australiensis_CBS112793,SRR7471335.20024420,90.32,62,6,0,1320,1381,212,151,2e-12,82.4
Cladophialophora_australiensis_CBS112793,SRR7471335.20024420,81.01,79,14,1,1177,1255,50,127,2e-06,62.1
Cladophialophora_australiensis_CBS112793,SRR7471335.15503900,94.12,51,3,0,1421,1471,241,191,2e-11,78.7
Cladophialophora_australiensis_CBS112793,SRR7471335.25183078,100.00,31,0,0,1180,1210,111,81,3e-05,58.4
Cladophialophora_australiensis_CBS112793,SRR7471335.552584,94.74,38,0,2,1173,1210,48,83,3e-05,58.4
Cladophialophora_australiensis_CBS112793,SRR7471335.612766,100.00,30,0,0,1180,1209,35,64,1e-04,56.5
Cladophialophora_potulentorum_CBS112222,SRR7471335.2070295,95.95,148,6,0,1328,1475,150,3,3e-60,241
Cladophialophora_potulentorum_CBS112222,SRR7471335.2070295,85.83,120,15,2,1151,1270,147,264,7e-26,126
Cladophialophora_potulentorum_CBS112222,SRR7471335.1007172,96.77,124,4,0,874,997,151,274,3e-50,207
Cladophialophora_potulentorum_CBS112222,SRR7471335.1007172,84.83,145,22,0,1065,1209,145,1,6e-32,147
Cladophialophora_potulentorum_CBS112222,SRR7471335.8864336,91.22,148,10,2,568,715,1,145,2e-47,198
Cladophialophora_potulentorum_CBS112222,SRR7471335.19923620,88.19,144,14,3,1278,1420,292,151,1e-38,169
Cladophialophora_potulentorum_CBS112222,SRR7471335.16863136,95.19,104,5,0,1390,1493,141,38,2e-37,165
Cladophialophora_potulentorum_CBS112222,SRR7471335.20961901,88.64,132,15,0,1343,1474,151,282,2e-36,161
Cladophialophora_potulentorum_CBS112222,SRR7471335.20961901,85.71,70,9,1,1405,1474,152,84,1e-09,73.1
Cladophialophora_potulentorum_CBS112222,SRR7471335.3975240,93.48,92,5,1,207,298,241,151,1e-28,135
Cladophialophora_potulentorum_CBS112222,SRR7471335.12693775,92.47,93,7,0,895,987,151,243,4e-28,134
Cladophialophora_potulentorum_CBS112222,SRR7471335.9695702,95.59,68,3,0,926,993,1,68,7e-21,110
Cladophialophora_potulentorum_CBS112222,SRR7471335.9695702,74.83,151,34,4,960,1109,300,153,2e-07,65.8
Cladophialophora_potulentorum_CBS112222,SRR7471335.12850225,85.06,87,9,4,1285,1370,99,16,1e-13,86.1
Cladophialophora_potulentorum_CBS112222,SRR7471335.20024420,90.32,62,6,0,1322,1383,212,151,2e-12,82.4
Cladophialophora_potulentorum_CBS112222,SRR7471335.20024420,80.22,91,17,1,1167,1257,38,127,5e-08,67.6
Cladophialophora_potulentorum_CBS112222,SRR7471335.15503900,94.12,51,3,0,1423,1473,241,191,2e-11,78.7
Cladophialophora_potulentorum_CBS112222,SRR7471335.25183078,100.00,31,0,0,1182,1212,111,81,3e-05,58.4
Cladophialophora_potulentorum_CBS112222,SRR7471335.612766,100.00,30,0,0,1182,1211,35,64,1e-04,56.5
Cladophialophora_potulentorum_CBS112222,SRR7471335.552584,97.06,34,0,1,1179,1212,51,83,1e-04,56.5
Cladophialophora_matsushimae_CMRP1198,SRR7471335.3975240,93.48,92,5,1,211,302,241,151,4e-29,135
Cladophialophora_mycetomatis_CBS122637,SRR7471335.3975240,93.48,92,5,1,196,287,241,151,4e-29,135
Cladophialophora_chaetospira_CBS127573,SRR7471335.3975240,92.13,89,6,1,605,693,238,151,2e-25,124
Cladophialophora_chaetospira_CBS127573,SRR7471335.3975240,100.00,30,0,0,379,408,16,45,6e-05,56.5
Cladophialophora_chaetospira_CBS127573,SRR7471335.12321764,100.00,31,0,0,379,409,180,210,2e-05,58.4
Cladophialophora_boppii_CBS126.86_T,SRR7471335.3975240,93.48,92,5,1,204,295,241,151,4e-29,135
Cladophialophora_abundans_CBS126736,SRR7471335.3975240,92.39,92,6,1,141,232,241,151,2e-27,130
Capronia_semi-immersa_CBS102234,SRR7471335.3975240,92.39,92,6,1,203,294,241,151,2e-27,130
Phialophora_americana_CBS400.67,SRR7471335.2070295,95.24,126,6,0,1320,1445,150,25,4e-48,200
Phialophora_americana_CBS400.67,SRR7471335.2070295,87.50,120,13,2,1143,1262,147,264,3e-29,137
Phialophora_americana_CBS400.67,SRR7471335.8864336,90.32,155,10,4,560,712,1,152,1e-47,198
Phialophora_americana_CBS400.67,SRR7471335.1007172,97.41,116,3,0,866,981,151,266,1e-47,198
Phialophora_americana_CBS400.67,SRR7471335.1007172,88.07,109,13,0,1093,1201,109,1,6e-27,130
Phialophora_americana_CBS400.67,SRR7471335.19923620,88.28,145,12,5,1270,1412,292,151,1e-38,169
Phialophora_americana_CBS400.67,SRR7471335.3975240,92.39,92,6,1,205,296,241,151,6e-27,130
Phialophora_americana_CBS400.67,SRR7471335.12693775,91.40,93,8,0,887,979,151,243,2e-26,128
Phialophora_americana_CBS400.67,SRR7471335.20961901,91.11,90,8,0,1335,1424,151,240,9e-25,122
Phialophora_americana_CBS400.67,SRR7471335.9695702,95.59,68,3,0,918,985,1,68,7e-21,110
Phialophora_americana_CBS400.67,SRR7471335.9695702,97.06,34,1,0,952,985,300,267,3e-05,58.4
Phialophora_americana_CBS400.67,SRR7471335.4122846,89.41,85,8,1,903,987,5,88,9e-20,106
Phialophora_americana_CBS400.67,SRR7471335.4122846,89.41,85,8,1,903,987,284,201,9e-20,106
Phialophora_americana_CBS400.67,SRR7471335.257470,91.89,74,5,1,903,976,11,83,1e-18,102
Phialophora_americana_CBS400.67,SRR7471335.16863136,93.75,64,4,0,1382,1445,141,78,6e-17,97.1
Phialophora_americana_CBS400.67,SRR7471335.13524120,89.19,74,8,0,903,976,7,80,7e-16,93.5
Phialophora_americana_CBS400.67,SRR7471335.12850225,85.06,87,9,4,1277,1362,99,16,1e-13,86.1
Phialophora_americana_CBS400.67,SRR7471335.20024420,90.32,62,6,0,1314,1375,212,151,2e-12,82.4
Phialophora_americana_CBS400.67,SRR7471335.20024420,82.28,79,13,1,1171,1249,50,127,4e-08,67.6
Phialophora_americana_CBS400.67,SRR7471335.19060512,95.92,49,1,1,903,951,3,50,2e-11,78.7
Phialophora_americana_CBS400.67,SRR7471335.25183078,100.00,31,0,0,1174,1204,111,81,3e-05,58.4
Phialophora_americana_CBS400.67,SRR7471335.552584,94.74,38,0,2,1167,1204,48,83,3e-05,58.4
Phialophora_americana_CBS400.67,SRR7471335.612766,100.00,30,0,0,1174,1203,35,64,1e-04,56.5
Phialophora_verrucosa_CBS140325_T,SRR7471335.3975240,92.39,92,6,1,209,300,241,151,2e-27,130
Cladophialophora_samoensis_CBS259.83_T,SRR7471335.3975240,90.48,105,8,2,196,300,253,151,1e-29,137
Cladophialophora_carrionii_CBS260.83,SRR7471335.3975240,93.48,92,5,1,225,316,241,151,5e-29,135
Exophiala_palmae_UPCB86822_T,SRR7471335.3975240,93.48,92,5,1,168,259,241,151,4e-29,135
Cladophialophora_yegresii_CBS114405_T,SRR7471335.3975240,93.48,92,5,1,210,301,241,151,4e-29,135
Knufia_epidermidis_CBS120353_T,SRR7471335.3975240,90.91,99,8,1,201,299,248,151,6e-28,132
Arthrocladium_fulminans_CBS136243_T,SRR7471335.3975240,89.72,107,9,2,189,294,256,151,4e-29,135
Anthopsis_deltoidea_CBS263.77_T,SRR7471335.3975240,92.31,91,6,1,212,301,241,151,7e-27,128
Cyphellophora_laciniata_CBS190.61_T,SRR7471335.8864336,98.77,81,1,0,655,735,1,81,1e-31,145
Cyphellophora_laciniata_CBS190.61_T,SRR7471335.3975240,90.82,98,8,1,290,386,248,151,3e-27,130
Cyphellophora_laciniata_CBS190.61_T,SRR7471335.3975240,100.00,45,0,0,55,99,1,45,2e-13,84.2
Cyphellophora_laciniata_CBS190.61_T,SRR7471335.4490140,93.67,79,5,0,29,107,1,79,6e-24,119
Cyphellophora_laciniata_CBS190.61_T,SRR7471335.4906022,92.59,81,6,0,1,81,203,283,2e-23,117
Cyphellophora_laciniata_CBS190.61_T,SRR7471335.7136937,92.59,81,4,2,21,100,32,111,8e-23,115
Cyphellophora_laciniata_CBS190.61_T,SRR7471335.15314853,96.92,65,2,0,29,93,236,300,4e-21,110
Cyphellophora_laciniata_CBS190.61_T,SRR7471335.12321764,96.67,60,2,0,42,101,152,211,2e-18,100
Cyphellophora_laciniata_CBS190.61_T,SRR7471335.7416997,93.65,63,4,0,15,77,291,229,1e-16,95.3
Cyphellophora_laciniata_CBS190.61_T,SRR7471335.1397356,91.23,57,5,0,1,57,57,1,1e-11,78.7
Cyphellophora_suttonii_CBS449.91,SRR7471335.3975240,90.82,98,8,1,193,289,248,151,2e-27,130
Cyphellophora_pauciseptata_CBS284.85_T,SRR7471335.3975240,91.84,98,7,1,204,300,248,151,4e-29,135
Cyphellophora_pluriseptata_CBS286.85_T,SRR7471335.3975240,89.80,98,9,1,209,305,248,151,1e-25,124
Phialophora_europaea_CBS101466,SRR7471335.3975240,90.91,99,7,2,198,295,248,151,6e-28,132
Phialophora_ambigua_CBS235.93,SRR7471335.3975240,90.82,98,8,1,196,292,248,151,2e-27,130
Cladophialophora_modesta_CBS985.96_T,SRR7471335.8864336,98.77,81,1,0,539,619,1,81,8e-32,145
Cladophialophora_modesta_CBS985.96_T,SRR7471335.3975240,90.57,106,9,1,186,291,255,151,4e-30,139
Cyphellophora_fusarioides_MUCL44033_T,SRR7471335.3975240,90.82,98,8,1,192,288,248,151,2e-27,130
