Exophiala_nigra_CBS535.94_T,SRR7471413.7985564,91.16,147,10,3,232,377,1,145,2e-47,196
Exophiala_nigra_CBS535.94_T,SRR7471413.2929112,89.44,142,12,2,220,360,1,140,2e-41,176
Exophiala_nigra_CBS535.94_T,SRR7471413.15481524,94.50,109,5,1,201,309,193,300,1e-38,167
Exophiala_nigra_CBS535.94_T,SRR7471413.20155829,90.09,111,9,2,263,373,150,42,2e-31,143
Exophiala_nigra_CBS535.94_T,SRR7471413.6718558,90.59,85,5,3,173,257,82,1,2e-21,110
Exophiala_spinifera_CBS899.68_T,SRR7471413.7985564,90.48,147,11,3,229,374,1,145,8e-46,191
Exophiala_spinifera_CBS899.68_T,SRR7471413.2929112,90.14,142,11,2,217,357,1,140,5e-43,182
Exophiala_spinifera_CBS899.68_T,SRR7471413.15481524,93.58,109,6,1,198,306,193,300,6e-37,161
Exophiala_spinifera_CBS899.68_T,SRR7471413.20155829,87.50,128,12,4,260,387,150,27,6e-32,145
Exophiala_spinifera_CBS899.68_T,SRR7471413.6718558,96.97,66,1,1,189,254,65,1,2e-21,110
Exophiala_exophialae_CBS668.76_T,SRR7471413.7985564,90.48,147,11,3,230,375,1,145,8e-46,191
Exophiala_exophialae_CBS668.76_T,SRR7471413.2929112,90.14,142,11,2,218,358,1,140,5e-43,182
Exophiala_exophialae_CBS668.76_T,SRR7471413.15481524,93.58,109,6,1,199,307,193,300,6e-37,161
Exophiala_exophialae_CBS668.76_T,SRR7471413.20155829,87.50,128,12,4,261,388,150,27,6e-32,145
Exophiala_exophialae_CBS668.76_T,SRR7471413.6718558,96.97,66,1,1,190,255,65,1,2e-21,110
Exophiala_polymorpha_CBS138920_T,SRR7471413.7985564,90.48,147,11,3,332,477,1,145,1e-45,191
Exophiala_polymorpha_CBS138920_T,SRR7471413.2929112,90.14,142,11,2,320,460,1,140,6e-43,182
Exophiala_polymorpha_CBS138920_T,SRR7471413.2929112,91.30,46,4,0,649,694,276,231,2e-07,63.9
Exophiala_polymorpha_CBS138920_T,SRR7471413.15481524,93.58,109,6,1,301,409,193,300,8e-37,161
Exophiala_polymorpha_CBS138920_T,SRR7471413.20155829,87.50,128,12,4,363,490,150,27,8e-32,145
Exophiala_polymorpha_CBS138920_T,SRR7471413.6718558,98.39,62,1,0,296,357,62,1,3e-21,110
Exophiala_polymorpha_CBS138920_T,SRR7471413.17300452,100.00,52,0,0,643,694,4,55,2e-17,97.1
Exophiala_polymorpha_CBS138920_T,SRR7471413.19638465,98.11,53,1,0,642,694,85,137,3e-16,93.5
Exophiala_polymorpha_CBS138920_T,SRR7471413.22651037,100.00,29,0,0,666,694,151,179,1e-04,54.7
Exophiala_polymorpha_CBS138920_T,SRR7471413.22643979,100.00,29,0,0,666,694,151,179,1e-04,54.7
Exophiala_polymorpha_CBS138920_T,SRR7471413.14617978,100.00,28,0,0,667,694,242,269,5e-04,52.8
Exophiala_oligosperma_CBS725.88_T,SRR7471413.7985564,90.48,147,11,3,242,387,1,145,8e-46,191
Exophiala_oligosperma_CBS725.88_T,SRR7471413.2929112,90.14,142,11,2,230,370,1,140,5e-43,182
Exophiala_oligosperma_CBS725.88_T,SRR7471413.15481524,93.58,109,6,1,211,319,193,300,6e-37,161
Exophiala_oligosperma_CBS725.88_T,SRR7471413.20155829,87.50,128,12,4,273,400,150,27,6e-32,145
Exophiala_oligosperma_CBS725.88_T,SRR7471413.6718558,98.48,66,1,0,202,267,66,1,1e-23,117
Exophiala_jeanselmei_CBS507.90_T,SRR7471413.7985564,90.48,147,11,3,234,379,1,145,9e-46,191
Exophiala_jeanselmei_CBS507.90_T,SRR7471413.2929112,90.14,142,11,2,222,362,1,140,5e-43,182
Exophiala_jeanselmei_CBS507.90_T,SRR7471413.2929112,92.59,54,4,0,551,604,276,223,7e-12,78.7
Exophiala_jeanselmei_CBS507.90_T,SRR7471413.15481524,93.58,109,6,1,203,311,193,300,7e-37,161
Exophiala_jeanselmei_CBS507.90_T,SRR7471413.20155829,87.50,128,12,4,265,392,150,27,7e-32,145
Exophiala_jeanselmei_CBS507.90_T,SRR7471413.17300452,100.00,60,0,0,545,604,4,63,7e-22,111
Exophiala_jeanselmei_CBS507.90_T,SRR7471413.6718558,97.01,67,1,1,193,259,66,1,7e-22,111
Exophiala_jeanselmei_CBS507.90_T,SRR7471413.19638465,96.77,62,2,0,543,604,84,145,1e-19,104
Exophiala_jeanselmei_CBS507.90_T,SRR7471413.22651037,100.00,37,0,0,568,604,151,187,4e-09,69.4
Exophiala_jeanselmei_CBS507.90_T,SRR7471413.22643979,100.00,37,0,0,568,604,151,187,4e-09,69.4
Exophiala_jeanselmei_CBS507.90_T,SRR7471413.14617978,100.00,36,0,0,569,604,242,277,2e-08,67.6
Exophiala_bergeri_CBS353.52,SRR7471413.7985564,91.16,147,10,3,195,340,1,145,2e-47,196
Exophiala_bergeri_CBS353.52,SRR7471413.2929112,89.44,142,12,2,183,323,1,140,2e-41,176
Exophiala_bergeri_CBS353.52,SRR7471413.15481524,94.50,109,5,1,164,272,193,300,1e-38,167
Exophiala_bergeri_CBS353.52,SRR7471413.20155829,90.09,111,9,2,226,336,150,42,2e-31,143
Exophiala_bergeri_CBS353.52,SRR7471413.6718558,98.39,62,1,0,159,220,62,1,2e-21,110
Exophiala_moniliae_CBS520.76_T,SRR7471413.7985564,91.89,148,9,3,232,378,1,146,1e-49,204
Exophiala_moniliae_CBS520.76_T,SRR7471413.2929112,89.36,141,12,2,220,359,1,139,8e-41,174
Exophiala_moniliae_CBS520.76_T,SRR7471413.15481524,94.50,109,5,1,201,309,193,300,1e-38,167
Exophiala_moniliae_CBS520.76_T,SRR7471413.20155829,89.19,111,10,2,263,373,150,42,1e-29,137
Exophiala_moniliae_CBS520.76_T,SRR7471413.6718558,97.01,67,1,1,191,257,66,1,7e-22,111
Exophiala_pisciphila_CBS537.73_T,SRR7471413.7985564,91.16,147,10,3,235,380,1,145,2e-47,196
Exophiala_pisciphila_CBS537.73_T,SRR7471413.17300452,99.00,100,1,0,554,653,4,103,2e-42,180
Exophiala_pisciphila_CBS537.73_T,SRR7471413.2929112,89.29,140,14,1,223,362,1,139,1e-40,174
Exophiala_pisciphila_CBS537.73_T,SRR7471413.2929112,95.74,94,4,0,560,653,276,183,5e-34,152
Exophiala_pisciphila_CBS537.73_T,SRR7471413.15481524,94.50,109,5,1,204,312,193,300,2e-38,167
Exophiala_pisciphila_CBS537.73_T,SRR7471413.20155829,88.28,128,11,4,266,393,150,27,2e-33,150
Exophiala_pisciphila_CBS537.73_T,SRR7471413.22651037,98.72,78,1,0,576,653,150,227,4e-30,139
Exophiala_pisciphila_CBS537.73_T,SRR7471413.22643979,98.70,77,1,0,577,653,151,227,1e-29,137
Exophiala_pisciphila_CBS537.73_T,SRR7471413.6718558,97.01,67,1,1,194,260,66,1,8e-22,111
Exophiala_pisciphila_CBS537.73_T,SRR7471413.14617978,88.75,80,9,0,557,636,221,300,6e-18,99.0
Exophiala_xenobiotica_CBS117642,SRR7471413.7985564,91.16,147,10,3,227,372,1,145,2e-47,196
Exophiala_xenobiotica_CBS117642,SRR7471413.2929112,89.44,142,12,2,215,355,1,140,2e-41,176
Exophiala_xenobiotica_CBS117642,SRR7471413.15481524,94.50,109,5,1,196,304,193,300,1e-38,167
Exophiala_xenobiotica_CBS117642,SRR7471413.20155829,88.28,128,11,4,258,385,150,27,1e-33,150
Exophiala_xenobiotica_CBS117642,SRR7471413.6718558,95.77,71,3,0,182,252,71,1,5e-23,115
Exophiala_brunnea_CBS,SRR7471413.7985564,90.48,147,11,3,263,408,1,145,9e-46,191
Exophiala_brunnea_CBS,SRR7471413.2929112,88.65,141,13,2,251,390,1,139,4e-39,169
Exophiala_brunnea_CBS,SRR7471413.2929112,93.02,43,3,0,591,633,276,234,2e-07,63.9
Exophiala_brunnea_CBS,SRR7471413.15481524,94.50,109,5,1,232,340,193,300,2e-38,167
Exophiala_brunnea_CBS,SRR7471413.20155829,87.50,128,12,4,294,421,150,27,7e-32,145
Exophiala_brunnea_CBS,SRR7471413.6718558,98.39,62,1,0,227,288,62,1,3e-21,110
Exophiala_brunnea_CBS,SRR7471413.21278132,95.38,65,3,0,9,73,236,300,1e-19,104
Exophiala_nishimurae_CBS101538_T,SRR7471413.7985564,90.48,147,11,3,241,386,1,145,9e-46,191
Exophiala_nishimurae_CBS101538_T,SRR7471413.2929112,90.14,142,11,2,229,369,1,140,5e-43,182
Exophiala_nishimurae_CBS101538_T,SRR7471413.15481524,93.58,109,6,1,210,318,193,300,7e-37,161
Exophiala_nishimurae_CBS101538_T,SRR7471413.20155829,87.50,128,12,4,272,399,150,27,7e-32,145
Exophiala_nishimurae_CBS101538_T,SRR7471413.6718558,98.39,62,1,0,205,266,62,1,3e-21,110
Exophiala_nishimurae_CBS101538_T,SRR7471413.17300452,100.00,40,0,0,552,591,4,43,9e-11,75.0
Exophiala_nishimurae_CBS101538_T,SRR7471413.19638465,97.62,42,1,0,550,591,84,125,3e-10,73.1
Exophiala_mesophila_CBS402.95_T,SRR7471413.7985564,90.07,151,11,4,225,374,1,148,3e-46,193
Exophiala_mesophila_CBS402.95_T,SRR7471413.17300452,100.00,100,0,0,551,650,4,103,4e-44,185
Exophiala_mesophila_CBS402.95_T,SRR7471413.2929112,88.65,141,13,2,213,352,1,139,5e-39,169
Exophiala_mesophila_CBS402.95_T,SRR7471413.2929112,94.68,94,5,0,557,650,276,183,2e-32,147
Exophiala_mesophila_CBS402.95_T,SRR7471413.15481524,94.50,109,5,1,194,302,193,300,2e-38,167
Exophiala_mesophila_CBS402.95_T,SRR7471413.22651037,98.70,77,1,0,574,650,151,227,1e-29,137
Exophiala_mesophila_CBS402.95_T,SRR7471413.22643979,98.70,77,1,0,574,650,151,227,1e-29,137
Exophiala_mesophila_CBS402.95_T,SRR7471413.20155829,89.19,111,10,2,256,366,150,42,1e-29,137
Exophiala_mesophila_CBS402.95_T,SRR7471413.19638465,97.01,67,2,0,550,616,85,151,2e-22,113
Exophiala_mesophila_CBS402.95_T,SRR7471413.6718558,98.41,63,1,0,188,250,63,1,8e-22,111
Exophiala_mesophila_CBS402.95_T,SRR7471413.14617978,94.92,59,3,0,575,633,242,300,3e-16,93.5
Exophiala_castellanii_CBS158.58_T,SRR7471413.7985564,90.07,151,11,4,223,372,1,148,3e-46,193
Exophiala_castellanii_CBS158.58_T,SRR7471413.17300452,100.00,100,0,0,550,649,4,103,4e-44,185
Exophiala_castellanii_CBS158.58_T,SRR7471413.2929112,88.65,141,13,2,211,350,1,139,5e-39,169
Exophiala_castellanii_CBS158.58_T,SRR7471413.2929112,94.68,94,5,0,556,649,276,183,2e-32,147
Exophiala_castellanii_CBS158.58_T,SRR7471413.15481524,94.50,109,5,1,192,300,193,300,2e-38,167
Exophiala_castellanii_CBS158.58_T,SRR7471413.22651037,98.70,77,1,0,573,649,151,227,1e-29,137
Exophiala_castellanii_CBS158.58_T,SRR7471413.22643979,98.70,77,1,0,573,649,151,227,1e-29,137
Exophiala_castellanii_CBS158.58_T,SRR7471413.20155829,89.19,111,10,2,254,364,150,42,1e-29,137
Exophiala_castellanii_CBS158.58_T,SRR7471413.19638465,97.01,67,2,0,549,615,85,151,2e-22,113
Exophiala_castellanii_CBS158.58_T,SRR7471413.6718558,98.41,63,1,0,186,248,63,1,8e-22,111
Exophiala_castellanii_CBS158.58_T,SRR7471413.14617978,94.92,59,3,0,574,632,242,300,3e-16,93.5
Exophiala_lecanii-corni_CBS123.33_T,SRR7471413.7985564,89.80,147,12,3,246,391,1,145,4e-44,185
Exophiala_lecanii-corni_CBS123.33_T,SRR7471413.2929112,88.65,141,13,2,234,373,1,139,4e-39,169
Exophiala_lecanii-corni_CBS123.33_T,SRR7471413.15481524,94.50,109,5,1,215,323,193,300,1e-38,167
Exophiala_lecanii-corni_CBS123.33_T,SRR7471413.20155829,88.29,111,11,2,277,387,150,42,5e-28,132
Exophiala_lecanii-corni_CBS123.33_T,SRR7471413.6718558,98.39,62,1,0,210,271,62,1,2e-21,110
Exophiala_dermatitidis_CBS748.88,SRR7471413.16468096,94.59,148,8,0,1343,1490,151,298,5e-57,230
Exophiala_dermatitidis_CBS748.88,SRR7471413.17300452,97.69,130,3,0,576,705,4,133,2e-55,224
Exophiala_dermatitidis_CBS748.88,SRR7471413.17300452,90.97,144,11,2,889,1031,294,152,6e-46,193
Exophiala_dermatitidis_CBS748.88,SRR7471413.16098568,96.21,132,5,0,1373,1504,134,3,4e-53,217
Exophiala_dermatitidis_CBS748.88,SRR7471413.16098568,86.58,149,17,3,1207,1355,155,300,2e-36,161
Exophiala_dermatitidis_CBS748.88,SRR7471413.2313290,91.39,151,13,0,842,992,150,300,2e-50,207
Exophiala_dermatitidis_CBS748.88,SRR7471413.2313290,81.95,133,20,4,1159,1290,130,1,7e-21,110
Exophiala_dermatitidis_CBS748.88,SRR7471413.7985564,91.16,147,10,3,238,383,1,145,5e-47,196
Exophiala_dermatitidis_CBS748.88,SRR7471413.437361,93.23,133,9,0,1372,1504,151,283,5e-47,196
Exophiala_dermatitidis_CBS748.88,SRR7471413.22651037,91.49,141,8,4,599,737,151,289,2e-45,191
Exophiala_dermatitidis_CBS748.88,SRR7471413.22643979,91.49,141,8,4,599,737,151,289,2e-45,191
Exophiala_dermatitidis_CBS748.88,SRR7471413.2929112,93.44,122,8,0,582,703,276,155,1e-42,182
Exophiala_dermatitidis_CBS748.88,SRR7471413.2929112,88.57,140,14,2,227,365,1,139,1e-38,169
Exophiala_dermatitidis_CBS748.88,SRR7471413.6874863,97.06,102,3,0,1382,1483,108,7,8e-40,172
Exophiala_dermatitidis_CBS748.88,SRR7471413.6874863,88.73,142,11,4,1162,1300,154,293,1e-38,169
Exophiala_dermatitidis_CBS748.88,SRR7471413.15481524,91.13,124,7,4,195,315,178,300,1e-37,165
Exophiala_dermatitidis_CBS748.88,SRR7471413.4566679,93.20,103,7,0,1402,1504,150,252,1e-33,152
Exophiala_dermatitidis_CBS748.88,SRR7471413.15626117,88.10,126,15,0,887,1012,300,175,4e-33,150
Exophiala_dermatitidis_CBS748.88,SRR7471413.19638465,84.97,153,15,6,785,934,298,151,1e-32,148
Exophiala_dermatitidis_CBS748.88,SRR7471413.19638465,97.06,68,2,0,574,641,84,151,1e-22,115
Exophiala_dermatitidis_CBS748.88,SRR7471413.7885744,93.07,101,7,0,924,1024,1,101,1e-32,148
Exophiala_dermatitidis_CBS748.88,SRR7471413.21841526,98.77,81,1,0,938,1018,1,81,2e-31,145
Exophiala_dermatitidis_CBS748.88,SRR7471413.20155829,87.60,129,11,4,269,397,150,27,2e-31,145
Exophiala_dermatitidis_CBS748.88,SRR7471413.16806830,92.71,96,7,0,1409,1504,298,203,8e-30,139
Exophiala_dermatitidis_CBS748.88,SRR7471413.16806830,87.76,98,11,1,1197,1294,3,99,5e-22,113
Exophiala_dermatitidis_CBS748.88,SRR7471413.6026257,88.99,109,12,0,890,998,1,109,1e-28,135
Exophiala_dermatitidis_CBS748.88,SRR7471413.3197079,88.66,97,11,0,1408,1504,298,202,1e-23,119
Exophiala_dermatitidis_CBS748.88,SRR7471413.10771851,86.87,99,10,3,1198,1294,163,260,2e-20,108
Exophiala_dermatitidis_CBS748.88,SRR7471413.6718558,90.48,84,4,4,182,263,82,1,2e-20,108
Exophiala_dermatitidis_CBS748.88,SRR7471413.11040477,100.00,57,0,0,947,1003,1,57,8e-20,106
Exophiala_dermatitidis_CBS748.88,SRR7471413.5466317,88.24,85,6,4,1189,1270,300,217,1e-17,99.0
Exophiala_dermatitidis_CBS748.88,SRR7471413.14617978,94.92,59,3,0,600,658,242,300,7e-16,93.5
Exophiala_dermatitidis_CBS748.88,SRR7471413.13179639,84.88,86,9,3,1210,1293,133,50,4e-13,84.2
Exophiala_dermatitidis_CBS748.88,SRR7471413.5608117,100.00,30,0,0,1475,1504,1,30,9e-05,56.5
Exophiala_angulospora_CBS482.92_T,SRR7471413.7985564,91.16,147,10,3,229,374,1,145,2e-47,196
Exophiala_angulospora_CBS482.92_T,SRR7471413.2929112,89.36,141,12,2,217,356,1,139,8e-41,174
Exophiala_angulospora_CBS482.92_T,SRR7471413.15481524,94.50,109,5,1,198,306,193,300,1e-38,167
Exophiala_angulospora_CBS482.92_T,SRR7471413.20155829,86.82,129,12,4,260,388,150,27,3e-30,139
Exophiala_angulospora_CBS482.92_T,SRR7471413.6718558,98.48,66,1,0,189,254,66,1,1e-23,117
Exophiala_opportunistica_CBS109811_T,SRR7471413.7985564,91.03,145,10,3,228,371,1,143,2e-46,193
Exophiala_opportunistica_CBS109811_T,SRR7471413.2929112,89.36,141,12,2,216,355,1,139,8e-41,174
Exophiala_opportunistica_CBS109811_T,SRR7471413.15481524,94.50,109,5,1,197,305,193,300,1e-38,167
Exophiala_opportunistica_CBS109811_T,SRR7471413.20155829,89.06,128,10,3,259,386,150,27,3e-35,156
Exophiala_opportunistica_CBS109811_T,SRR7471413.6718558,97.01,67,1,1,187,253,66,1,7e-22,111
Exophiala_salmonis_CBS157.67_T,SRR7471413.7985564,91.16,147,10,3,357,502,1,145,2e-47,196
Exophiala_salmonis_CBS157.67_T,SRR7471413.17300452,99.00,100,1,0,674,773,4,103,2e-42,180
Exophiala_salmonis_CBS157.67_T,SRR7471413.2929112,89.36,141,12,2,345,484,1,139,1e-40,174
Exophiala_salmonis_CBS157.67_T,SRR7471413.2929112,95.74,94,4,0,680,773,276,183,5e-34,152
Exophiala_salmonis_CBS157.67_T,SRR7471413.15481524,94.50,109,5,1,326,434,193,300,2e-38,167
Exophiala_salmonis_CBS157.67_T,SRR7471413.20155829,88.28,128,11,4,388,515,150,27,2e-33,150
Exophiala_salmonis_CBS157.67_T,SRR7471413.10220970,88.52,122,14,0,1,122,149,28,7e-33,148
Exophiala_salmonis_CBS157.67_T,SRR7471413.22651037,98.72,78,1,0,696,773,150,227,4e-30,139
Exophiala_salmonis_CBS157.67_T,SRR7471413.22643979,98.70,77,1,0,697,773,151,227,2e-29,137
Exophiala_salmonis_CBS157.67_T,SRR7471413.21356202,92.50,80,6,0,1,80,84,5,7e-23,115
Exophiala_salmonis_CBS157.67_T,SRR7471413.6718558,97.01,67,1,1,316,382,66,1,9e-22,111
Exophiala_salmonis_CBS157.67_T,SRR7471413.8785947,92.21,77,6,0,46,122,2,78,3e-21,110
Exophiala_salmonis_CBS157.67_T,SRR7471413.14617978,88.75,80,9,0,677,756,221,300,7e-18,99.0
Exophiala_aquamarina_CBS119918_T,SRR7471413.7985564,90.48,147,10,4,235,380,1,144,8e-46,191
Exophiala_aquamarina_CBS119918_T,SRR7471413.2929112,89.36,141,12,2,223,362,1,139,8e-41,174
Exophiala_aquamarina_CBS119918_T,SRR7471413.15481524,94.50,109,5,1,204,312,193,300,1e-38,167
Exophiala_aquamarina_CBS119918_T,SRR7471413.20155829,87.60,129,11,5,266,394,150,27,7e-32,145
Exophiala_aquamarina_CBS119918_T,SRR7471413.6718558,97.01,67,1,1,194,260,66,1,7e-22,111
Exophiala_cancerae_CBS120420_T,SRR7471413.7985564,91.03,145,10,3,250,393,1,143,3e-46,193
Exophiala_cancerae_CBS120420_T,SRR7471413.2929112,89.36,141,12,2,238,377,1,139,9e-41,174
Exophiala_cancerae_CBS120420_T,SRR7471413.2929112,94.44,54,3,0,571,624,276,223,2e-13,84.2
Exophiala_cancerae_CBS120420_T,SRR7471413.15481524,94.50,109,5,1,219,327,193,300,2e-38,167
Exophiala_cancerae_CBS120420_T,SRR7471413.20155829,89.06,128,10,3,281,408,150,27,3e-35,156
Exophiala_cancerae_CBS120420_T,SRR7471413.6718558,97.01,67,1,1,209,275,66,1,7e-22,111
Exophiala_cancerae_CBS120420_T,SRR7471413.17300452,98.33,60,1,0,565,624,4,63,3e-20,106
Exophiala_cancerae_CBS120420_T,SRR7471413.14617978,89.47,57,6,0,568,624,221,277,4e-10,73.1
Exophiala_cancerae_CBS120420_T,SRR7471413.22651037,100.00,38,0,0,587,624,150,187,1e-09,71.3
Exophiala_cancerae_CBS120420_T,SRR7471413.22643979,100.00,37,0,0,588,624,151,187,5e-09,69.4
Exophiala_tremulae_CBS129355,SRR7471413.7985564,91.10,146,10,3,262,406,1,144,7e-47,195
Exophiala_tremulae_CBS129355,SRR7471413.2929112,89.36,141,12,2,250,389,1,139,9e-41,174
Exophiala_tremulae_CBS129355,SRR7471413.2929112,93.02,43,3,0,586,628,276,234,2e-07,63.9
Exophiala_tremulae_CBS129355,SRR7471413.15481524,94.50,109,5,1,231,339,193,300,2e-38,167
Exophiala_tremulae_CBS129355,SRR7471413.20155829,88.28,128,11,4,293,420,150,27,2e-33,150
Exophiala_tremulae_CBS129355,SRR7471413.6718558,97.01,67,1,1,221,287,66,1,7e-22,111
Exophiala_tremulae_CBS129355,SRR7471413.21278132,93.94,66,2,2,9,73,236,300,6e-18,99.0
Exophiala_equina_CBS116009,SRR7471413.7985564,91.10,146,10,3,228,372,1,144,6e-47,195
Exophiala_equina_CBS116009,SRR7471413.2929112,89.36,141,12,2,216,355,1,139,8e-41,174
Exophiala_equina_CBS116009,SRR7471413.15481524,94.50,109,5,1,197,305,193,300,1e-38,167
Exophiala_equina_CBS116009,SRR7471413.20155829,88.28,128,11,4,259,386,150,27,1e-33,150
Exophiala_equina_CBS116009,SRR7471413.6718558,97.01,67,1,1,187,253,66,1,7e-22,111
Exophiala_alcalophila_CBS520.82_T,SRR7471413.7985564,91.84,147,9,3,239,384,1,145,4e-49,202
Exophiala_alcalophila_CBS520.82_T,SRR7471413.2929112,89.36,141,12,2,227,366,1,139,8e-41,174
Exophiala_alcalophila_CBS520.82_T,SRR7471413.15481524,94.50,109,5,1,208,316,193,300,1e-38,167
Exophiala_alcalophila_CBS520.82_T,SRR7471413.20155829,86.82,129,12,4,270,398,150,27,3e-30,139
Exophiala_alcalophila_CBS520.82_T,SRR7471413.6718558,98.39,62,1,0,203,264,62,1,2e-21,110
Exophiala_crusticola_CBS119970_T,SRR7471413.7985564,91.16,147,10,3,244,389,1,145,2e-47,196
Exophiala_crusticola_CBS119970_T,SRR7471413.2929112,89.36,141,12,2,232,371,1,139,8e-41,174
Exophiala_crusticola_CBS119970_T,SRR7471413.15481524,94.50,109,5,1,213,321,193,300,1e-38,167
Exophiala_crusticola_CBS119970_T,SRR7471413.20155829,90.09,111,9,2,275,385,150,42,2e-31,143
Exophiala_crusticola_CBS119970_T,SRR7471413.6718558,100.00,58,0,0,212,269,58,1,8e-21,108
Rhinocladiella_atrovirens_CBS264.49,SRR7471413.7985564,89.86,148,12,3,270,416,1,146,1e-44,187
Rhinocladiella_atrovirens_CBS264.49,SRR7471413.2929112,88.65,141,13,2,258,397,1,139,4e-39,169
Rhinocladiella_atrovirens_CBS264.49,SRR7471413.2929112,92.86,42,3,0,585,626,276,235,8e-07,62.1
Rhinocladiella_atrovirens_CBS264.49,SRR7471413.15481524,94.50,109,5,1,239,347,193,300,2e-38,167
Rhinocladiella_atrovirens_CBS264.49,SRR7471413.20155829,88.29,111,11,2,301,411,150,42,6e-28,132
Rhinocladiella_atrovirens_CBS264.49,SRR7471413.6718558,98.41,63,1,0,233,295,63,1,7e-22,111
Rhinocladiella_atrovirens_CBS264.49,SRR7471413.21278132,95.38,65,3,0,14,78,236,300,1e-19,104
Rhinocladiella_basitona_CBS101460_T,SRR7471413.7985564,90.48,147,11,3,229,374,1,145,8e-46,191
Rhinocladiella_basitona_CBS101460_T,SRR7471413.2929112,90.14,142,11,2,217,357,1,140,5e-43,182
Rhinocladiella_basitona_CBS101460_T,SRR7471413.15481524,93.58,109,6,1,198,306,193,300,6e-37,161
Rhinocladiella_basitona_CBS101460_T,SRR7471413.20155829,87.50,128,12,4,260,387,150,27,6e-32,145
Rhinocladiella_basitona_CBS101460_T,SRR7471413.6718558,96.97,66,1,1,189,254,65,1,2e-21,110
Rhinocladiella_phaeophora_CBS496.78_T,SRR7471413.7985564,91.16,147,10,3,237,382,1,145,2e-47,196
Rhinocladiella_phaeophora_CBS496.78_T,SRR7471413.2929112,90.07,141,11,2,225,364,1,139,2e-42,180
Rhinocladiella_phaeophora_CBS496.78_T,SRR7471413.15481524,93.97,116,6,1,199,314,186,300,9e-41,174
Rhinocladiella_phaeophora_CBS496.78_T,SRR7471413.20155829,90.09,111,9,2,268,378,150,42,2e-31,143
Rhinocladiella_phaeophora_CBS496.78_T,SRR7471413.6718558,100.00,57,0,0,206,262,57,1,3e-20,106
Rhinocladiella_aquaspersa_CBS313.73_T,SRR7471413.7985564,91.16,147,10,3,231,376,1,145,2e-47,196
Rhinocladiella_aquaspersa_CBS313.73_T,SRR7471413.2929112,90.07,141,11,2,219,358,1,139,2e-42,180
Rhinocladiella_aquaspersa_CBS313.73_T,SRR7471413.2929112,97.65,85,2,0,566,650,262,178,2e-32,147
Rhinocladiella_aquaspersa_CBS313.73_T,SRR7471413.15481524,93.97,116,6,1,193,308,186,300,1e-40,174
Rhinocladiella_aquaspersa_CBS313.73_T,SRR7471413.17300452,96.19,105,1,3,549,650,4,108,5e-39,169
Rhinocladiella_aquaspersa_CBS313.73_T,SRR7471413.22651037,97.59,83,2,0,568,650,150,232,3e-31,143
Rhinocladiella_aquaspersa_CBS313.73_T,SRR7471413.20155829,90.09,111,9,2,262,372,150,42,3e-31,143
Rhinocladiella_aquaspersa_CBS313.73_T,SRR7471413.22643979,97.56,82,2,0,569,650,151,232,1e-30,141
Rhinocladiella_aquaspersa_CBS313.73_T,SRR7471413.6718558,100.00,57,0,0,200,256,57,1,4e-20,106
Rhinocladiella_aquaspersa_CBS313.73_T,SRR7471413.14617978,94.92,59,3,0,570,628,242,300,3e-16,93.5
Rhinocladiella_fasciculata_CBS132.86_T,SRR7471413.7985564,91.16,147,10,3,247,392,1,145,2e-47,196
Rhinocladiella_fasciculata_CBS132.86_T,SRR7471413.2929112,90.78,141,10,2,235,374,1,139,4e-44,185
Rhinocladiella_fasciculata_CBS132.86_T,SRR7471413.15481524,94.50,109,5,1,216,324,193,300,1e-38,167
Rhinocladiella_fasciculata_CBS132.86_T,SRR7471413.20155829,88.29,111,11,2,278,388,150,42,5e-28,132
Rhinocladiella_fasciculata_CBS132.86_T,SRR7471413.6718558,100.00,57,0,0,216,272,57,1,3e-20,106
Rhinocladiella_fasciculata_CBS132.86_T,SRR7471413.21278132,95.08,61,3,0,1,61,240,300,2e-17,97.1
Rhinocladiella_anceps_CBS181.65_T,SRR7471413.7985564,89.80,147,12,3,229,374,1,145,4e-44,185
Rhinocladiella_anceps_CBS181.65_T,SRR7471413.2929112,89.36,141,12,2,217,356,1,139,8e-41,174
Rhinocladiella_anceps_CBS181.65_T,SRR7471413.15481524,94.50,109,5,1,198,306,193,300,1e-38,167
Rhinocladiella_anceps_CBS181.65_T,SRR7471413.20155829,86.05,129,13,4,260,388,150,27,1e-28,134
Rhinocladiella_anceps_CBS181.65_T,SRR7471413.6718558,97.01,67,1,1,188,254,66,1,6e-22,111
Rhinocladiella_mackenziei_CBS367.92,SRR7471413.7985564,91.97,137,8,3,218,353,1,135,3e-45,189
Rhinocladiella_mackenziei_CBS367.92,SRR7471413.2929112,89.36,141,12,2,206,345,1,139,9e-41,174
Rhinocladiella_mackenziei_CBS367.92,SRR7471413.15481524,94.50,109,5,1,187,295,193,300,2e-38,167
Rhinocladiella_mackenziei_CBS367.92,SRR7471413.20155829,89.09,110,10,2,249,358,150,43,4e-29,135
Rhinocladiella_mackenziei_CBS367.92,SRR7471413.6718558,98.39,62,1,0,182,243,62,1,3e-21,110
Veronaea_compacta_CBS268.75_T,SRR7471413.7985564,90.48,147,12,2,251,397,1,145,2e-46,193
Veronaea_compacta_CBS268.75_T,SRR7471413.2929112,88.65,141,13,2,239,378,1,139,4e-39,169
Veronaea_compacta_CBS268.75_T,SRR7471413.15481524,94.50,109,5,1,220,328,193,300,1e-38,167
Veronaea_compacta_CBS268.75_T,SRR7471413.20155829,86.82,129,12,5,282,410,150,27,3e-30,139
Veronaea_compacta_CBS268.75_T,SRR7471413.6718558,98.39,62,1,0,215,276,62,1,3e-21,110
Capronia_pilosella_AFTOL-ID657,SRR7471413.7985564,91.10,146,10,3,329,473,1,144,8e-47,195
Capronia_pilosella_AFTOL-ID657,SRR7471413.2929112,89.36,141,12,2,317,456,1,139,1e-40,174
Capronia_pilosella_AFTOL-ID657,SRR7471413.15481524,94.50,109,5,1,298,406,193,300,2e-38,167
Capronia_pilosella_AFTOL-ID657,SRR7471413.20155829,87.60,129,11,4,360,488,150,27,8e-32,145
Capronia_pilosella_AFTOL-ID657,SRR7471413.6718558,98.48,66,1,0,289,354,66,1,2e-23,117
Capronia_pilosella_AFTOL-ID657,SRR7471413.17300452,100.00,40,0,0,644,683,4,43,1e-10,75.0
Capronia_pilosella_AFTOL-ID657,SRR7471413.19638465,97.62,42,1,0,642,683,84,125,4e-10,73.1
Capronia_dactylotricha_DAOM208471_T,SRR7471413.7985564,90.60,149,10,3,231,378,1,146,8e-47,195
Capronia_dactylotricha_DAOM208471_T,SRR7471413.17300452,99.00,100,1,0,559,658,4,103,2e-42,180
Capronia_dactylotricha_DAOM208471_T,SRR7471413.2929112,89.36,141,12,2,219,358,1,139,1e-40,174
Capronia_dactylotricha_DAOM208471_T,SRR7471413.2929112,95.74,94,4,0,565,658,276,183,5e-34,152
Capronia_dactylotricha_DAOM208471_T,SRR7471413.15481524,94.50,109,5,1,200,308,193,300,2e-38,167
Capronia_dactylotricha_DAOM208471_T,SRR7471413.22651037,98.72,78,1,0,581,658,150,227,4e-30,139
Capronia_dactylotricha_DAOM208471_T,SRR7471413.22643979,98.70,77,1,0,582,658,151,227,1e-29,137
Capronia_dactylotricha_DAOM208471_T,SRR7471413.20155829,89.29,112,9,2,262,373,150,42,1e-29,137
Capronia_dactylotricha_DAOM208471_T,SRR7471413.6718558,98.39,62,0,1,196,256,62,1,1e-20,108
Capronia_dactylotricha_DAOM208471_T,SRR7471413.14617978,88.75,80,9,0,562,641,221,300,6e-18,99.0
Capronia_kleinmondensis_CBS122671_T,SRR7471413.7985564,89.86,148,12,3,256,402,1,146,1e-44,187
Capronia_kleinmondensis_CBS122671_T,SRR7471413.17300452,99.00,100,1,0,565,664,4,103,2e-42,180
Capronia_kleinmondensis_CBS122671_T,SRR7471413.2929112,88.65,141,13,2,244,383,1,139,5e-39,169
Capronia_kleinmondensis_CBS122671_T,SRR7471413.2929112,95.74,94,4,0,571,664,276,183,5e-34,152
Capronia_kleinmondensis_CBS122671_T,SRR7471413.15481524,94.50,109,5,1,225,333,193,300,2e-38,167
Capronia_kleinmondensis_CBS122671_T,SRR7471413.22651037,98.72,78,1,0,587,664,150,227,4e-30,139
Capronia_kleinmondensis_CBS122671_T,SRR7471413.22643979,98.70,77,1,0,588,664,151,227,1e-29,137
Capronia_kleinmondensis_CBS122671_T,SRR7471413.20155829,88.29,111,11,2,287,397,150,42,6e-28,132
Capronia_kleinmondensis_CBS122671_T,SRR7471413.6718558,96.97,66,1,1,216,281,65,1,3e-21,110
Capronia_kleinmondensis_CBS122671_T,SRR7471413.21278132,95.31,64,3,0,1,64,237,300,5e-19,102
Capronia_kleinmondensis_CBS122671_T,SRR7471413.14617978,88.75,80,9,0,568,647,221,300,6e-18,99.0
Capronia_mansonii_CBS101.67_T,SRR7471413.7985564,91.03,145,10,3,242,385,1,143,3e-46,193
Capronia_mansonii_CBS101.67_T,SRR7471413.17300452,100.00,100,0,0,569,668,4,103,5e-44,185
Capronia_mansonii_CBS101.67_T,SRR7471413.2929112,89.36,141,12,2,230,369,1,139,1e-40,174
Capronia_mansonii_CBS101.67_T,SRR7471413.2929112,94.68,94,5,0,575,668,276,183,2e-32,147
Capronia_mansonii_CBS101.67_T,SRR7471413.15481524,91.87,123,7,3,198,319,180,300,5e-39,169
Capronia_mansonii_CBS101.67_T,SRR7471413.20155829,88.37,129,10,4,273,401,150,27,2e-33,150
Capronia_mansonii_CBS101.67_T,SRR7471413.22651037,98.70,77,1,0,592,668,151,227,1e-29,137
Capronia_mansonii_CBS101.67_T,SRR7471413.22643979,98.70,77,1,0,592,668,151,227,1e-29,137
Capronia_mansonii_CBS101.67_T,SRR7471413.19638465,97.06,68,2,0,567,634,84,151,6e-23,115
Capronia_mansonii_CBS101.67_T,SRR7471413.6718558,95.77,71,1,2,198,267,70,1,2e-22,113
Capronia_mansonii_CBS101.67_T,SRR7471413.14617978,85.56,90,12,1,562,651,212,300,3e-16,93.5
Capronia_munkii_DAOM216390_T,SRR7471413.7985564,91.03,145,10,3,242,385,1,143,3e-46,193
Capronia_munkii_DAOM216390_T,SRR7471413.17300452,100.00,100,0,0,569,668,4,103,5e-44,185
Capronia_munkii_DAOM216390_T,SRR7471413.2929112,89.36,141,12,2,230,369,1,139,1e-40,174
Capronia_munkii_DAOM216390_T,SRR7471413.2929112,94.68,94,5,0,575,668,276,183,2e-32,147
Capronia_munkii_DAOM216390_T,SRR7471413.15481524,91.87,123,7,3,198,319,180,300,5e-39,169
Capronia_munkii_DAOM216390_T,SRR7471413.20155829,88.37,129,10,4,273,401,150,27,2e-33,150
Capronia_munkii_DAOM216390_T,SRR7471413.22651037,98.70,77,1,0,592,668,151,227,1e-29,137
Capronia_munkii_DAOM216390_T,SRR7471413.22643979,98.70,77,1,0,592,668,151,227,1e-29,137
Capronia_munkii_DAOM216390_T,SRR7471413.19638465,97.06,68,2,0,567,634,84,151,6e-23,115
Capronia_munkii_DAOM216390_T,SRR7471413.6718558,95.77,71,1,2,198,267,70,1,2e-22,113
Capronia_munkii_DAOM216390_T,SRR7471413.14617978,94.92,59,3,0,593,651,242,300,3e-16,93.5
Capronia_coronata_ATCC56201_T,SRR7471413.7985564,91.16,147,10,3,230,375,1,145,2e-47,196
Capronia_coronata_ATCC56201_T,SRR7471413.17300452,100.00,100,0,0,540,639,4,103,4e-44,185
Capronia_coronata_ATCC56201_T,SRR7471413.2929112,89.36,141,12,2,218,357,1,139,1e-40,174
Capronia_coronata_ATCC56201_T,SRR7471413.2929112,94.68,94,5,0,546,639,276,183,2e-32,147
Capronia_coronata_ATCC56201_T,SRR7471413.15481524,94.50,109,5,1,199,307,193,300,2e-38,167
Capronia_coronata_ATCC56201_T,SRR7471413.20155829,86.82,129,12,4,261,389,150,27,3e-30,139
Capronia_coronata_ATCC56201_T,SRR7471413.22651037,98.70,77,1,0,563,639,151,227,1e-29,137
Capronia_coronata_ATCC56201_T,SRR7471413.22643979,98.70,77,1,0,563,639,151,227,1e-29,137
Capronia_coronata_ATCC56201_T,SRR7471413.6718558,98.48,66,1,0,190,255,66,1,2e-23,117
Capronia_coronata_ATCC56201_T,SRR7471413.19638465,97.06,68,2,0,538,605,84,151,6e-23,115
Capronia_coronata_ATCC56201_T,SRR7471413.14617978,94.92,59,3,0,564,622,242,300,3e-16,93.5
Capronia_parasitica_CBS123.88,SRR7471413.7985564,89.86,148,12,3,236,383,1,145,1e-44,187
Capronia_parasitica_CBS123.88,SRR7471413.2929112,89.36,141,12,2,224,363,1,139,9e-41,174
Capronia_parasitica_CBS123.88,SRR7471413.15481524,92.56,121,6,2,195,313,181,300,1e-39,171
Capronia_parasitica_CBS123.88,SRR7471413.20155829,88.99,109,10,2,267,375,150,44,2e-28,134
Capronia_parasitica_CBS123.88,SRR7471413.6718558,98.36,61,0,1,202,261,61,1,3e-20,106
Veronaea_japonica_CBS776.83_T,SRR7471413.7985564,91.16,147,10,3,264,409,1,145,2e-47,196
Veronaea_japonica_CBS776.83_T,SRR7471413.2929112,89.36,141,12,2,252,391,1,139,9e-41,174
Veronaea_japonica_CBS776.83_T,SRR7471413.15481524,94.50,109,5,1,233,341,193,300,2e-38,167
Veronaea_japonica_CBS776.83_T,SRR7471413.20155829,88.28,128,11,4,295,422,150,27,2e-33,150
Veronaea_japonica_CBS776.83_T,SRR7471413.6718558,98.39,62,1,0,228,289,62,1,3e-21,110
Veronaea_japonica_CBS776.83_T,SRR7471413.21278132,95.38,65,3,0,8,72,236,300,1e-19,104
Thysanorea_papuana_CBS212.96_T,SRR7471413.7985564,91.03,145,10,3,238,381,1,143,2e-46,193
Thysanorea_papuana_CBS212.96_T,SRR7471413.2929112,89.36,141,12,2,226,365,1,139,9e-41,174
Thysanorea_papuana_CBS212.96_T,SRR7471413.15481524,94.50,109,5,1,207,315,193,300,1e-38,167
Thysanorea_papuana_CBS212.96_T,SRR7471413.20155829,88.28,128,11,3,269,396,150,27,1e-33,150
Thysanorea_papuana_CBS212.96_T,SRR7471413.6718558,97.06,68,1,1,196,263,67,1,2e-22,113
Capronia_acutiseta_ATCC56428_T,SRR7471413.7985564,91.30,138,9,3,232,368,1,136,4e-44,185
Capronia_acutiseta_ATCC56428_T,SRR7471413.17300452,98.00,100,2,0,539,638,4,103,1e-40,174
Capronia_acutiseta_ATCC56428_T,SRR7471413.15481524,93.58,109,5,2,201,308,193,300,7e-37,161
Capronia_acutiseta_ATCC56428_T,SRR7471413.2929112,94.68,94,5,0,545,638,276,183,2e-32,147
Capronia_acutiseta_ATCC56428_T,SRR7471413.20155829,89.91,109,9,2,262,370,150,44,3e-30,139
Capronia_acutiseta_ATCC56428_T,SRR7471413.22651037,97.44,78,2,0,561,638,150,227,2e-28,134
Capronia_acutiseta_ATCC56428_T,SRR7471413.22643979,97.40,77,2,0,562,638,151,227,6e-28,132
Capronia_acutiseta_ATCC56428_T,SRR7471413.6718558,96.88,64,1,1,191,254,66,4,4e-20,106
Capronia_acutiseta_ATCC56428_T,SRR7471413.14617978,88.75,80,9,0,542,621,221,300,6e-18,99.0
Fonsecaea_brasiliensis_CBS119710_T,SRR7471413.7985564,90.48,147,10,4,238,383,1,144,8e-46,191
Fonsecaea_brasiliensis_CBS119710_T,SRR7471413.2929112,89.36,141,12,2,226,365,1,139,8e-41,174
Fonsecaea_brasiliensis_CBS119710_T,SRR7471413.15481524,94.50,109,5,1,207,315,193,300,1e-38,167
Fonsecaea_brasiliensis_CBS119710_T,SRR7471413.20155829,87.60,129,11,4,269,397,150,27,6e-32,145
Fonsecaea_brasiliensis_CBS119710_T,SRR7471413.6718558,100.00,57,0,0,207,263,57,1,3e-20,106
Fonsecaea_pedrosoi_CBS271.37_T,SRR7471413.7985564,90.48,147,10,4,266,411,1,144,1e-45,191
Fonsecaea_pedrosoi_CBS271.37_T,SRR7471413.2929112,89.36,141,12,2,254,393,1,139,1e-40,174
Fonsecaea_pedrosoi_CBS271.37_T,SRR7471413.2929112,90.74,54,5,0,592,645,276,223,4e-10,73.1
Fonsecaea_pedrosoi_CBS271.37_T,SRR7471413.15481524,94.50,109,5,1,235,343,193,300,2e-38,167
Fonsecaea_pedrosoi_CBS271.37_T,SRR7471413.20155829,86.92,130,11,5,297,426,150,27,1e-30,141
Fonsecaea_pedrosoi_CBS271.37_T,SRR7471413.21278132,98.44,64,1,0,1,64,237,300,2e-22,113
Fonsecaea_pedrosoi_CBS271.37_T,SRR7471413.17300452,98.33,60,1,0,586,645,4,63,4e-20,106
Fonsecaea_pedrosoi_CBS271.37_T,SRR7471413.6718558,100.00,57,0,0,235,291,57,1,4e-20,106
Fonsecaea_pedrosoi_CBS271.37_T,SRR7471413.19638465,95.16,62,3,0,584,645,84,145,6e-18,99.0
Fonsecaea_pedrosoi_CBS271.37_T,SRR7471413.22651037,97.30,37,1,0,609,645,151,187,2e-07,63.9
Fonsecaea_pedrosoi_CBS271.37_T,SRR7471413.22643979,97.30,37,1,0,609,645,151,187,2e-07,63.9
Fonsecaea_pedrosoi_CBS271.37_T,SRR7471413.14617978,97.22,36,1,0,610,645,242,277,8e-07,62.1
Fonsecaea_multimorphosa_CBS980.96_T,SRR7471413.7985564,91.91,136,9,2,236,371,1,134,3e-45,189
Fonsecaea_multimorphosa_CBS980.96_T,SRR7471413.2929112,89.36,141,12,2,224,363,1,139,8e-41,174
Fonsecaea_multimorphosa_CBS980.96_T,SRR7471413.15481524,94.50,109,5,1,205,313,193,300,1e-38,167
Fonsecaea_multimorphosa_CBS980.96_T,SRR7471413.20155829,88.37,129,10,5,267,395,150,27,1e-33,150
Fonsecaea_multimorphosa_CBS980.96_T,SRR7471413.6718558,100.00,57,0,0,205,261,57,1,3e-20,106
Fonsecaea_multimorphosa_CBS980.96_T,SRR7471413.21278132,95.12,41,2,0,1,41,260,300,5e-08,65.8
Fonsecaea_minima_CBS125760_T,SRR7471413.7985564,90.48,147,10,4,232,377,1,144,8e-46,191
Fonsecaea_minima_CBS125760_T,SRR7471413.2929112,89.36,141,12,2,220,359,1,139,8e-41,174
Fonsecaea_minima_CBS125760_T,SRR7471413.15481524,94.50,109,5,1,201,309,193,300,1e-38,167
Fonsecaea_minima_CBS125760_T,SRR7471413.20155829,87.60,129,11,4,263,391,150,27,6e-32,145
Fonsecaea_minima_CBS125760_T,SRR7471413.6718558,100.00,57,0,0,201,257,57,1,3e-20,106
Fonsecaea_minima_CBS125760_T,SRR7471413.21278132,100.00,32,0,0,1,32,269,300,2e-06,60.2
Fonsecaea_nubica_CBS269.64_T,SRR7471413.7985564,90.48,147,10,4,243,388,1,144,8e-46,191
Fonsecaea_nubica_CBS269.64_T,SRR7471413.2929112,89.36,141,12,2,231,370,1,139,8e-41,174
Fonsecaea_nubica_CBS269.64_T,SRR7471413.15481524,94.50,109,5,1,212,320,193,300,1e-38,167
Fonsecaea_nubica_CBS269.64_T,SRR7471413.20155829,86.92,130,11,5,274,403,150,27,9e-31,141
Fonsecaea_nubica_CBS269.64_T,SRR7471413.6718558,100.00,57,0,0,212,268,57,1,3e-20,106
Fonsecaea_monophora_CBS269.37_T,SRR7471413.7985564,89.86,148,10,5,243,389,1,144,4e-44,185
Fonsecaea_monophora_CBS269.37_T,SRR7471413.15481524,93.64,110,5,2,212,321,193,300,2e-37,163
Fonsecaea_monophora_CBS269.37_T,SRR7471413.20155829,86.92,130,11,5,275,404,150,27,9e-31,141
Fonsecaea_monophora_CBS269.37_T,SRR7471413.6718558,98.28,58,0,1,212,269,57,1,1e-18,100
Fonsecaea_erecta_CBS125763_T,SRR7471413.7985564,91.03,145,10,3,227,370,1,143,2e-46,193
Fonsecaea_erecta_CBS125763_T,SRR7471413.2929112,89.36,141,12,2,215,354,1,139,8e-41,174
Fonsecaea_erecta_CBS125763_T,SRR7471413.15481524,94.50,109,5,1,196,304,193,300,1e-38,167
Fonsecaea_erecta_CBS125763_T,SRR7471413.20155829,88.37,129,10,4,258,386,150,27,1e-33,150
Fonsecaea_erecta_CBS125763_T,SRR7471413.6718558,100.00,57,0,0,196,252,57,1,3e-20,106
Fonsecaea_erecta_CBS125763_T,SRR7471413.21278132,100.00,32,0,0,1,32,269,300,2e-06,60.2
Fonsecaea_pugnacius_CBS139214_T,SRR7471413.7985564,90.60,149,10,4,236,383,1,146,6e-47,195
Fonsecaea_pugnacius_CBS139214_T,SRR7471413.2929112,89.36,141,12,2,224,363,1,139,8e-41,174
Fonsecaea_pugnacius_CBS139214_T,SRR7471413.15481524,94.50,109,5,1,205,313,193,300,1e-38,167
Fonsecaea_pugnacius_CBS139214_T,SRR7471413.20155829,89.29,112,9,3,267,378,150,42,1e-29,137
Fonsecaea_pugnacius_CBS139214_T,SRR7471413.6718558,100.00,57,0,0,205,261,57,1,3e-20,106
Cladophialophora_psammophila_CBS,SRR7471413.7985564,91.03,145,10,3,242,385,1,143,2e-46,193
Cladophialophora_psammophila_CBS,SRR7471413.2929112,89.36,141,12,2,230,369,1,139,8e-41,174
Cladophialophora_psammophila_CBS,SRR7471413.15481524,94.50,109,5,1,211,319,193,300,1e-38,167
Cladophialophora_psammophila_CBS,SRR7471413.20155829,88.37,129,10,4,273,401,150,27,1e-33,150
Cladophialophora_psammophila_CBS,SRR7471413.6718558,100.00,57,0,0,211,267,57,1,3e-20,106
Cladophialophora_devriesii_CBS,SRR7471413.7985564,91.91,136,9,2,238,373,1,134,3e-45,189
Cladophialophora_devriesii_CBS,SRR7471413.2929112,89.36,141,12,2,226,365,1,139,8e-41,174
Cladophialophora_devriesii_CBS,SRR7471413.15481524,94.50,109,5,1,207,315,193,300,1e-38,167
Cladophialophora_devriesii_CBS,SRR7471413.20155829,88.37,129,10,5,269,397,150,27,1e-33,150
Cladophialophora_devriesii_CBS,SRR7471413.6718558,100.00,57,0,0,207,263,57,1,3e-20,106
Cladophialophora_immunda_CBS834.96,SRR7471413.7985564,90.48,147,10,4,240,385,1,144,8e-46,191
Cladophialophora_immunda_CBS834.96,SRR7471413.2929112,89.36,141,12,2,228,367,1,139,8e-41,174
Cladophialophora_immunda_CBS834.96,SRR7471413.15481524,94.50,109,5,1,209,317,193,300,1e-38,167
Cladophialophora_immunda_CBS834.96,SRR7471413.20155829,87.60,129,11,4,271,399,150,27,6e-32,145
Cladophialophora_immunda_CBS834.96,SRR7471413.6718558,100.00,57,0,0,209,265,57,1,3e-20,106
Cladophialophora_arxii_CBS306.94_T,SRR7471413.7985564,91.91,136,9,2,242,377,1,134,3e-45,189
Cladophialophora_arxii_CBS306.94_T,SRR7471413.2929112,89.36,141,12,2,230,369,1,139,8e-41,174
Cladophialophora_arxii_CBS306.94_T,SRR7471413.15481524,94.50,109,5,1,211,319,193,300,1e-38,167
Cladophialophora_arxii_CBS306.94_T,SRR7471413.20155829,86.26,131,11,5,273,403,150,27,4e-29,135
Cladophialophora_arxii_CBS306.94_T,SRR7471413.6718558,100.00,57,0,0,211,267,57,1,3e-20,106
Cladophialophora_bantiana_CBS173.52,SRR7471413.7985564,91.03,145,10,3,236,379,1,143,2e-46,193
Cladophialophora_bantiana_CBS173.52,SRR7471413.2929112,89.36,141,12,2,224,363,1,139,8e-41,174
Cladophialophora_bantiana_CBS173.52,SRR7471413.15481524,94.50,109,5,1,205,313,193,300,1e-38,167
Cladophialophora_bantiana_CBS173.52,SRR7471413.20155829,88.37,129,10,4,267,395,150,27,1e-33,150
Cladophialophora_bantiana_CBS173.52,SRR7471413.6718558,100.00,57,0,0,205,261,57,1,3e-20,106
Cladophialophora_emmonsii_CBS102594,SRR7471413.7985564,91.22,148,10,3,227,373,1,146,5e-48,198
Cladophialophora_emmonsii_CBS102594,SRR7471413.2929112,89.36,141,12,2,215,354,1,139,8e-41,174
Cladophialophora_emmonsii_CBS102594,SRR7471413.15481524,94.50,109,5,1,196,304,193,300,1e-38,167
Cladophialophora_emmonsii_CBS102594,SRR7471413.20155829,90.09,111,9,2,258,368,150,42,2e-31,143
Cladophialophora_emmonsii_CBS102594,SRR7471413.6718558,100.00,57,0,0,196,252,57,1,3e-20,106
Cladophialophora_minourae_CBS556.83,SRR7471413.7985564,87.84,148,13,5,235,381,1,144,4e-39,169
Cladophialophora_minourae_CBS556.83,SRR7471413.2929112,88.03,142,14,3,223,364,1,139,5e-38,165
Cladophialophora_minourae_CBS556.83,SRR7471413.15481524,93.58,109,6,1,204,312,193,300,6e-37,161
Cladophialophora_minourae_CBS556.83,SRR7471413.20155829,84.62,130,14,5,266,395,150,27,2e-26,126
Cladophialophora_minourae_CBS556.83,SRR7471413.6718558,100.00,57,0,0,204,260,57,1,3e-20,106
Cladophialophora_australiensis_CBS112793,SRR7471413.16468096,94.59,148,8,0,1310,1457,151,298,5e-57,230
Cladophialophora_australiensis_CBS112793,SRR7471413.16098568,96.21,132,5,0,1340,1471,134,3,4e-53,217
Cladophialophora_australiensis_CBS112793,SRR7471413.16098568,87.25,149,16,3,1174,1322,155,300,4e-38,167
Cladophialophora_australiensis_CBS112793,SRR7471413.17300452,96.15,130,5,0,547,676,4,133,5e-52,213
Cladophialophora_australiensis_CBS112793,SRR7471413.17300452,89.58,144,13,2,859,1001,294,152,1e-42,182
Cladophialophora_australiensis_CBS112793,SRR7471413.2313290,90.73,151,14,0,812,962,150,300,1e-48,202
Cladophialophora_australiensis_CBS112793,SRR7471413.2313290,83.33,132,20,2,1126,1257,130,1,3e-24,121
Cladophialophora_australiensis_CBS112793,SRR7471413.437361,93.23,133,9,0,1339,1471,151,283,5e-47,196
Cladophialophora_australiensis_CBS112793,SRR7471413.22651037,91.43,140,9,3,570,707,151,289,8e-45,189
Cladophialophora_australiensis_CBS112793,SRR7471413.22643979,91.43,140,9,3,570,707,151,289,8e-45,189
Cladophialophora_australiensis_CBS112793,SRR7471413.7985564,90.41,146,11,3,237,381,1,144,8e-45,189
Cladophialophora_australiensis_CBS112793,SRR7471413.2929112,90.07,141,11,2,225,364,1,139,5e-42,180
Cladophialophora_australiensis_CBS112793,SRR7471413.2929112,92.62,122,9,0,553,674,276,155,6e-41,176
Cladophialophora_australiensis_CBS112793,SRR7471413.15481524,93.39,121,6,2,195,314,181,300,2e-41,178
Cladophialophora_australiensis_CBS112793,SRR7471413.6874863,97.06,102,3,0,1349,1450,108,7,8e-40,172
Cladophialophora_australiensis_CBS112793,SRR7471413.6874863,88.03,142,12,4,1129,1267,154,293,5e-37,163
Cladophialophora_australiensis_CBS112793,SRR7471413.4566679,93.20,103,7,0,1369,1471,150,252,1e-33,152
Cladophialophora_australiensis_CBS112793,SRR7471413.19638465,84.97,153,15,6,755,904,298,151,1e-32,148
Cladophialophora_australiensis_CBS112793,SRR7471413.19638465,95.59,68,3,0,545,612,84,151,6e-21,110
Cladophialophora_australiensis_CBS112793,SRR7471413.20155829,87.50,128,12,3,268,395,150,27,2e-31,145
Cladophialophora_australiensis_CBS112793,SRR7471413.7885744,92.08,101,8,0,894,994,1,101,6e-31,143
Cladophialophora_australiensis_CBS112793,SRR7471413.16806830,92.71,96,7,0,1376,1471,298,203,8e-30,139
Cladophialophora_australiensis_CBS112793,SRR7471413.16806830,87.76,98,11,1,1164,1261,3,99,5e-22,113
Cladophialophora_australiensis_CBS112793,SRR7471413.6026257,86.18,123,17,0,860,982,1,123,4e-28,134
Cladophialophora_australiensis_CBS112793,SRR7471413.3197079,88.66,97,11,0,1375,1471,298,202,1e-23,119
Cladophialophora_australiensis_CBS112793,SRR7471413.6718558,100.00,57,0,0,206,262,57,1,8e-20,106
Cladophialophora_australiensis_CBS112793,SRR7471413.11040477,98.25,57,1,0,917,973,1,57,4e-18,100
Cladophialophora_australiensis_CBS112793,SRR7471413.10771851,83.84,99,13,3,1165,1261,163,260,2e-15,91.6
Cladophialophora_australiensis_CBS112793,SRR7471413.14617978,93.22,59,4,0,571,629,242,300,3e-14,87.9
Cladophialophora_australiensis_CBS112793,SRR7471413.5466317,85.88,85,8,4,1156,1237,300,217,3e-14,87.9
Cladophialophora_australiensis_CBS112793,SRR7471413.5608117,100.00,30,0,0,1442,1471,1,30,8e-05,56.5
Cladophialophora_potulentorum_CBS112222,SRR7471413.16468096,94.59,148,8,0,1312,1459,151,298,5e-57,230
Cladophialophora_potulentorum_CBS112222,SRR7471413.16098568,96.27,134,5,0,1342,1475,134,1,3e-54,220
Cladophialophora_potulentorum_CBS112222,SRR7471413.16098568,86.00,150,18,3,1175,1324,154,300,2e-35,158
Cladophialophora_potulentorum_CBS112222,SRR7471413.17300452,96.15,130,5,0,549,678,4,133,5e-52,213
Cladophialophora_potulentorum_CBS112222,SRR7471413.17300452,90.28,144,12,2,861,1003,294,152,3e-44,187
Cladophialophora_potulentorum_CBS112222,SRR7471413.437361,91.89,148,12,0,1341,1488,151,298,2e-50,207
Cladophialophora_potulentorum_CBS112222,SRR7471413.2313290,90.73,151,14,0,814,964,150,300,1e-48,202
Cladophialophora_potulentorum_CBS112222,SRR7471413.2313290,82.71,133,19,4,1128,1259,130,1,1e-22,115
Cladophialophora_potulentorum_CBS112222,SRR7471413.22651037,91.43,140,9,3,572,709,151,289,8e-45,189
Cladophialophora_potulentorum_CBS112222,SRR7471413.22643979,91.43,140,9,3,572,709,151,289,8e-45,189
Cladophialophora_potulentorum_CBS112222,SRR7471413.7985564,89.73,146,12,3,236,380,1,144,4e-43,183
Cladophialophora_potulentorum_CBS112222,SRR7471413.2929112,92.62,122,9,0,555,676,276,155,6e-41,176
Cladophialophora_potulentorum_CBS112222,SRR7471413.2929112,89.36,141,12,2,224,363,1,139,2e-40,174
Cladophialophora_potulentorum_CBS112222,SRR7471413.6874863,97.06,102,3,0,1351,1452,108,7,8e-40,172
Cladophialophora_potulentorum_CBS112222,SRR7471413.6874863,88.03,142,12,4,1131,1269,154,293,5e-37,163
Cladophialophora_potulentorum_CBS112222,SRR7471413.16806830,93.10,116,8,0,1378,1493,298,183,3e-39,171
Cladophialophora_potulentorum_CBS112222,SRR7471413.16806830,89.41,85,8,1,1179,1263,16,99,8e-20,106
Cladophialophora_potulentorum_CBS112222,SRR7471413.15481524,94.50,109,5,1,205,313,193,300,4e-38,167
Cladophialophora_potulentorum_CBS112222,SRR7471413.4566679,90.68,118,11,0,1371,1488,150,267,2e-35,158
Cladophialophora_potulentorum_CBS112222,SRR7471413.19638465,89.57,115,12,0,792,906,265,151,5e-32,147
Cladophialophora_potulentorum_CBS112222,SRR7471413.19638465,95.59,68,3,0,547,614,84,151,7e-21,110
Cladophialophora_potulentorum_CBS112222,SRR7471413.3197079,90.18,112,11,0,1377,1488,298,187,5e-32,147
Cladophialophora_potulentorum_CBS112222,SRR7471413.7885744,92.08,101,8,0,896,996,1,101,6e-31,143
Cladophialophora_potulentorum_CBS112222,SRR7471413.21841526,95.45,88,2,2,910,996,1,87,8e-30,139
Cladophialophora_potulentorum_CBS112222,SRR7471413.20155829,86.72,128,13,3,267,394,150,27,8e-30,139
Cladophialophora_potulentorum_CBS112222,SRR7471413.6026257,88.07,109,13,0,862,970,1,109,5e-27,130
Cladophialophora_potulentorum_CBS112222,SRR7471413.6718558,97.01,67,1,1,195,261,66,1,2e-21,111
Cladophialophora_potulentorum_CBS112222,SRR7471413.11040477,98.25,57,1,0,919,975,1,57,4e-18,100
Cladophialophora_potulentorum_CBS112222,SRR7471413.10771851,89.02,82,6,3,1184,1263,180,260,1e-17,99.0
Cladophialophora_potulentorum_CBS112222,SRR7471413.5466317,86.90,84,9,2,1158,1239,300,217,7e-16,93.5
Cladophialophora_potulentorum_CBS112222,SRR7471413.14617978,93.22,59,4,0,573,631,242,300,3e-14,87.9
Cladophialophora_potulentorum_CBS112222,SRR7471413.5608117,97.78,45,1,0,1444,1488,1,45,2e-11,78.7
Cladophialophora_matsushimae_CMRP1198,SRR7471413.7985564,90.41,146,11,3,240,384,1,144,3e-45,189
Cladophialophora_matsushimae_CMRP1198,SRR7471413.2929112,88.65,141,13,2,228,367,1,139,3e-39,169
Cladophialophora_matsushimae_CMRP1198,SRR7471413.15481524,94.50,109,5,1,209,317,193,300,1e-38,167
Cladophialophora_matsushimae_CMRP1198,SRR7471413.20155829,87.50,128,12,3,271,398,150,27,6e-32,145
Cladophialophora_matsushimae_CMRP1198,SRR7471413.6718558,97.22,72,1,1,194,265,71,1,9e-25,121
Cladophialophora_mycetomatis_CBS122637,SRR7471413.7985564,90.34,145,11,3,225,368,1,143,1e-44,187
Cladophialophora_mycetomatis_CBS122637,SRR7471413.2929112,88.65,141,13,2,213,352,1,139,4e-39,169
Cladophialophora_mycetomatis_CBS122637,SRR7471413.15481524,94.50,109,5,1,194,302,193,300,1e-38,167
Cladophialophora_mycetomatis_CBS122637,SRR7471413.20155829,87.50,128,12,3,256,383,150,27,6e-32,145
Cladophialophora_mycetomatis_CBS122637,SRR7471413.6718558,97.26,73,0,2,178,250,71,1,3e-25,122
Cladophialophora_chaetospira_CBS127573,SRR7471413.7985564,91.03,145,10,3,631,774,1,143,4e-46,193
Cladophialophora_chaetospira_CBS127573,SRR7471413.2929112,89.36,141,12,2,619,758,1,139,1e-40,174
Cladophialophora_chaetospira_CBS127573,SRR7471413.15481524,92.66,109,7,1,600,708,193,300,5e-35,156
Cladophialophora_chaetospira_CBS127573,SRR7471413.20155829,86.96,138,13,4,662,799,150,18,2e-33,150
Cladophialophora_chaetospira_CBS127573,SRR7471413.21278132,95.65,69,3,0,375,443,232,300,1e-21,111
Cladophialophora_chaetospira_CBS127573,SRR7471413.6718558,96.55,58,2,0,599,656,58,1,3e-17,97.1
Cladophialophora_boppii_CBS126.86_T,SRR7471413.7985564,92.03,138,9,2,233,370,1,136,2e-46,193
Cladophialophora_boppii_CBS126.86_T,SRR7471413.2929112,89.36,141,12,2,221,360,1,139,8e-41,174
Cladophialophora_boppii_CBS126.86_T,SRR7471413.15481524,94.50,109,5,1,202,310,193,300,1e-38,167
Cladophialophora_boppii_CBS126.86_T,SRR7471413.20155829,88.28,128,11,4,264,391,150,27,1e-33,150
Cladophialophora_boppii_CBS126.86_T,SRR7471413.6718558,100.00,58,0,0,201,258,58,1,8e-21,108
Cladophialophora_abundans_CBS126736,SRR7471413.7985564,89.04,146,11,5,170,313,1,143,2e-41,176
Cladophialophora_abundans_CBS126736,SRR7471413.2929112,89.29,140,14,1,158,297,1,139,7e-41,174
Cladophialophora_abundans_CBS126736,SRR7471413.15481524,93.58,109,6,1,139,247,193,300,5e-37,161
Cladophialophora_abundans_CBS126736,SRR7471413.20155829,87.50,128,12,3,201,328,150,27,6e-32,145
Cladophialophora_abundans_CBS126736,SRR7471413.6718558,100.00,58,0,0,138,195,58,1,7e-21,108
Capronia_semi-immersa_CBS102234,SRR7471413.7985564,89.04,146,13,3,232,376,1,144,6e-42,178
Capronia_semi-immersa_CBS102234,SRR7471413.2929112,89.29,140,14,1,220,359,1,139,8e-41,174
Capronia_semi-immersa_CBS102234,SRR7471413.15481524,93.58,109,6,1,201,309,193,300,6e-37,161
Capronia_semi-immersa_CBS102234,SRR7471413.20155829,85.94,128,14,3,263,390,150,27,1e-28,134
Capronia_semi-immersa_CBS102234,SRR7471413.6718558,100.00,57,0,0,201,257,57,1,3e-20,106
Phialophora_americana_CBS400.67,SRR7471413.16468096,94.37,142,8,0,1304,1445,151,292,1e-53,219
Phialophora_americana_CBS400.67,SRR7471413.17300452,96.15,130,5,0,541,670,4,133,5e-52,213
Phialophora_americana_CBS400.67,SRR7471413.2313290,90.07,151,15,0,806,956,150,300,5e-47,196
Phialophora_americana_CBS400.67,SRR7471413.2313290,81.82,132,20,4,1121,1251,129,1,2e-20,108
Phialophora_americana_CBS400.67,SRR7471413.16098568,95.54,112,5,0,1334,1445,134,23,5e-42,180
Phialophora_americana_CBS400.67,SRR7471413.16098568,85.91,149,18,3,1168,1316,155,300,8e-35,156
Phialophora_americana_CBS400.67,SRR7471413.7985564,89.04,146,13,3,234,378,1,144,2e-41,178
Phialophora_americana_CBS400.67,SRR7471413.2929112,89.29,140,14,1,222,361,1,139,2e-40,174
Phialophora_americana_CBS400.67,SRR7471413.6874863,97.06,102,3,0,1343,1444,108,7,8e-40,172
Phialophora_americana_CBS400.67,SRR7471413.6874863,88.73,142,11,4,1123,1261,154,293,1e-38,169
Phialophora_americana_CBS400.67,SRR7471413.13683202,87.67,146,18,0,806,951,6,151,3e-39,171
Phialophora_americana_CBS400.67,SRR7471413.15481524,93.58,109,6,1,203,311,193,300,2e-36,161
Phialophora_americana_CBS400.67,SRR7471413.19638465,84.97,153,15,6,749,898,298,151,1e-32,148
Phialophora_americana_CBS400.67,SRR7471413.19638465,94.12,68,4,0,539,606,84,151,3e-19,104
Phialophora_americana_CBS400.67,SRR7471413.7885744,90.48,105,7,3,888,992,1,102,1e-28,135
Phialophora_americana_CBS400.67,SRR7471413.6026257,88.99,109,12,0,854,962,1,109,1e-28,135
Phialophora_americana_CBS400.67,SRR7471413.20155829,85.94,128,14,3,265,392,150,27,4e-28,134
Phialophora_americana_CBS400.67,SRR7471413.21841526,96.25,80,3,0,902,981,1,80,1e-27,132
Phialophora_americana_CBS400.67,SRR7471413.7621602,87.62,105,13,0,872,976,153,257,8e-25,122
Phialophora_americana_CBS400.67,SRR7471413.16806830,87.76,98,11,1,1158,1255,3,99,5e-22,113
Phialophora_americana_CBS400.67,SRR7471413.16806830,90.79,76,7,0,1370,1445,298,223,1e-18,102
Phialophora_americana_CBS400.67,SRR7471413.10771851,86.87,99,10,3,1159,1255,163,260,2e-20,108
Phialophora_americana_CBS400.67,SRR7471413.6718558,100.00,57,0,0,203,259,57,1,8e-20,106
Phialophora_americana_CBS400.67,SRR7471413.5466317,88.24,85,6,4,1150,1231,300,217,1e-17,99.0
Phialophora_americana_CBS400.67,SRR7471413.13179639,84.88,86,9,3,1171,1254,133,50,4e-13,84.2
Phialophora_verrucosa_CBS140325_T,SRR7471413.7985564,89.04,146,13,3,238,382,1,144,7e-42,178
Phialophora_verrucosa_CBS140325_T,SRR7471413.2929112,89.29,140,14,1,226,365,1,139,9e-41,174
Phialophora_verrucosa_CBS140325_T,SRR7471413.15481524,93.58,109,6,1,207,315,193,300,7e-37,161
Phialophora_verrucosa_CBS140325_T,SRR7471413.20155829,85.94,128,14,3,269,396,150,27,1e-28,134
Phialophora_verrucosa_CBS140325_T,SRR7471413.6718558,100.00,57,0,0,207,263,57,1,3e-20,106
Phialophora_verrucosa_CBS140325_T,SRR7471413.19638465,95.24,42,2,0,545,586,84,125,2e-08,67.6
Cladophialophora_samoensis_CBS259.83_T,SRR7471413.7985564,90.54,148,7,7,238,382,1,144,3e-45,189
Cladophialophora_samoensis_CBS259.83_T,SRR7471413.2929112,90.07,141,11,2,226,365,1,139,2e-42,180
Cladophialophora_samoensis_CBS259.83_T,SRR7471413.15481524,94.50,109,5,1,207,315,193,300,1e-38,167
Cladophialophora_samoensis_CBS259.83_T,SRR7471413.20155829,87.12,132,12,4,269,400,150,24,6e-32,145
Cladophialophora_samoensis_CBS259.83_T,SRR7471413.6718558,100.00,57,0,0,207,263,57,1,3e-20,106
Cladophialophora_carrionii_CBS260.83,SRR7471413.7985564,90.34,145,11,3,254,397,1,143,1e-44,187
Cladophialophora_carrionii_CBS260.83,SRR7471413.2929112,88.65,141,13,2,242,381,1,139,4e-39,169
Cladophialophora_carrionii_CBS260.83,SRR7471413.15481524,94.50,109,5,1,223,331,193,300,2e-38,167
Cladophialophora_carrionii_CBS260.83,SRR7471413.20155829,87.50,128,12,3,285,412,150,27,7e-32,145
Cladophialophora_carrionii_CBS260.83,SRR7471413.6718558,100.00,57,0,0,223,279,57,1,3e-20,106
Cladophialophora_carrionii_CBS260.83,SRR7471413.19638465,96.08,51,2,0,558,608,84,134,2e-13,84.2
Exophiala_palmae_UPCB86822_T,SRR7471413.7985564,91.16,147,10,3,197,342,1,145,2e-47,196
Exophiala_palmae_UPCB86822_T,SRR7471413.2929112,89.36,141,12,2,185,324,1,139,8e-41,174
Exophiala_palmae_UPCB86822_T,SRR7471413.15481524,94.50,109,5,1,166,274,193,300,1e-38,167
Exophiala_palmae_UPCB86822_T,SRR7471413.20155829,90.09,111,9,2,228,338,150,42,2e-31,143
Exophiala_palmae_UPCB86822_T,SRR7471413.6718558,98.39,62,1,0,161,222,62,1,2e-21,110
Cladophialophora_yegresii_CBS114405_T,SRR7471413.7985564,90.41,146,11,3,239,383,1,144,3e-45,189
Cladophialophora_yegresii_CBS114405_T,SRR7471413.2929112,88.65,141,13,2,227,366,1,139,4e-39,169
Cladophialophora_yegresii_CBS114405_T,SRR7471413.15481524,94.50,109,5,1,208,316,193,300,1e-38,167
Cladophialophora_yegresii_CBS114405_T,SRR7471413.20155829,87.50,128,12,3,270,397,150,27,6e-32,145
Cladophialophora_yegresii_CBS114405_T,SRR7471413.6718558,100.00,57,0,0,208,264,57,1,3e-20,106
Knufia_epidermidis_CBS120353_T,SRR7471413.2929112,90.00,140,13,1,225,364,1,139,2e-42,180
Knufia_epidermidis_CBS120353_T,SRR7471413.7985564,89.13,138,13,2,237,374,1,136,1e-39,171
Knufia_epidermidis_CBS120353_T,SRR7471413.15481524,93.58,109,6,1,206,314,193,300,6e-37,161
Knufia_epidermidis_CBS120353_T,SRR7471413.20155829,88.07,109,11,2,268,376,150,44,6e-27,128
Knufia_epidermidis_CBS120353_T,SRR7471413.6718558,97.01,67,2,0,196,262,67,1,2e-22,113
Arthrocladium_fulminans_CBS136243_T,SRR7471413.7985564,89.86,138,12,2,232,369,1,136,2e-41,176
Arthrocladium_fulminans_CBS136243_T,SRR7471413.2929112,87.86,140,16,1,220,359,1,139,2e-37,163
Arthrocladium_fulminans_CBS136243_T,SRR7471413.15481524,93.58,109,6,1,201,309,193,300,6e-37,161
Arthrocladium_fulminans_CBS136243_T,SRR7471413.20155829,87.16,109,12,2,263,371,150,44,3e-25,122
Arthrocladium_fulminans_CBS136243_T,SRR7471413.6718558,100.00,58,0,0,200,257,58,1,9e-21,108
Arthrocladium_fulminans_CBS136243_T,SRR7471413.19638465,100.00,28,0,0,533,560,85,112,4e-04,52.8
Anthopsis_deltoidea_CBS263.77_T,SRR7471413.2929112,90.71,140,10,2,229,366,1,139,1e-43,183
Anthopsis_deltoidea_CBS263.77_T,SRR7471413.7985564,89.58,144,12,3,241,382,1,143,2e-42,180
Anthopsis_deltoidea_CBS263.77_T,SRR7471413.15481524,93.52,108,6,1,210,316,193,300,2e-36,159
Anthopsis_deltoidea_CBS263.77_T,SRR7471413.6718558,100.00,57,0,0,210,266,57,1,3e-20,106
Cyphellophora_laciniata_CBS190.61_T,SRR7471413.2929112,90.71,140,10,2,314,451,1,139,2e-43,183
Cyphellophora_laciniata_CBS190.61_T,SRR7471413.2929112,90.74,108,7,3,631,735,290,183,1e-30,141
Cyphellophora_laciniata_CBS190.61_T,SRR7471413.17300452,99.00,100,1,0,636,735,4,103,2e-42,180
Cyphellophora_laciniata_CBS190.61_T,SRR7471413.7985564,89.66,145,10,5,326,467,1,143,2e-42,180
Cyphellophora_laciniata_CBS190.61_T,SRR7471413.15481524,90.40,125,9,2,280,401,176,300,9e-37,161
Cyphellophora_laciniata_CBS190.61_T,SRR7471413.20155829,88.80,125,12,2,357,480,150,27,5e-34,152
Cyphellophora_laciniata_CBS190.61_T,SRR7471413.22651037,97.40,77,2,0,659,735,151,227,7e-28,132
Cyphellophora_laciniata_CBS190.61_T,SRR7471413.22643979,97.40,77,2,0,659,735,151,227,7e-28,132
Cyphellophora_laciniata_CBS190.61_T,SRR7471413.8785947,89.42,104,11,0,2,105,12,115,7e-28,132
Cyphellophora_laciniata_CBS190.61_T,SRR7471413.6718558,93.10,87,3,3,265,351,84,1,1e-25,124
Cyphellophora_laciniata_CBS190.61_T,SRR7471413.19638465,97.06,68,2,0,634,701,84,151,7e-23,115
Cyphellophora_laciniata_CBS190.61_T,SRR7471413.10220970,88.42,95,11,0,1,95,95,1,7e-23,115
Cyphellophora_laciniata_CBS190.61_T,SRR7471413.14617978,94.92,59,3,0,660,718,242,300,3e-16,93.5
Cyphellophora_laciniata_CBS190.61_T,SRR7471413.21278132,91.04,67,3,3,70,135,236,300,1e-14,87.9
Cyphellophora_suttonii_CBS449.91,SRR7471413.2929112,90.71,140,10,2,217,354,1,139,1e-43,183
Cyphellophora_suttonii_CBS449.91,SRR7471413.7985564,89.66,145,10,5,229,370,1,143,2e-42,180
Cyphellophora_suttonii_CBS449.91,SRR7471413.15481524,90.48,126,11,1,180,304,175,300,5e-38,165
Cyphellophora_suttonii_CBS449.91,SRR7471413.20155829,88.80,125,12,2,260,383,150,27,4e-34,152
Cyphellophora_suttonii_CBS449.91,SRR7471413.6718558,95.29,85,3,1,170,254,84,1,1e-28,134
Cyphellophora_pauciseptata_CBS284.85_T,SRR7471413.2929112,90.71,140,10,2,228,365,1,139,1e-43,183
Cyphellophora_pauciseptata_CBS284.85_T,SRR7471413.7985564,89.66,145,10,5,240,381,1,143,2e-42,180
Cyphellophora_pauciseptata_CBS284.85_T,SRR7471413.15481524,91.27,126,10,1,191,315,175,300,1e-39,171
Cyphellophora_pauciseptata_CBS284.85_T,SRR7471413.20155829,88.80,125,12,2,271,394,150,27,4e-34,152
Cyphellophora_pauciseptata_CBS284.85_T,SRR7471413.6718558,94.12,85,4,1,181,265,84,1,6e-27,128
Cyphellophora_pluriseptata_CBS286.85_T,SRR7471413.2929112,90.71,140,10,2,233,370,1,139,1e-43,183
Cyphellophora_pluriseptata_CBS286.85_T,SRR7471413.7985564,89.51,143,10,5,247,386,3,143,2e-41,176
Cyphellophora_pluriseptata_CBS286.85_T,SRR7471413.15481524,89.52,124,11,2,199,320,177,300,3e-35,156
Cyphellophora_pluriseptata_CBS286.85_T,SRR7471413.20155829,88.00,125,13,2,276,399,150,27,2e-32,147
Cyphellophora_pluriseptata_CBS286.85_T,SRR7471413.6718558,95.52,67,2,1,204,270,66,1,3e-20,106
Phialophora_europaea_CBS101466,SRR7471413.2929112,91.43,140,9,2,223,360,1,139,3e-45,189
Phialophora_europaea_CBS101466,SRR7471413.7985564,89.66,145,10,5,235,376,1,143,2e-42,180
Phialophora_europaea_CBS101466,SRR7471413.15481524,91.20,125,8,3,189,310,176,300,1e-38,167
Phialophora_europaea_CBS101466,SRR7471413.20155829,88.00,125,13,2,266,389,150,27,2e-32,147
Phialophora_europaea_CBS101466,SRR7471413.6718558,91.95,87,4,2,174,260,84,1,4e-24,119
Phialophora_ambigua_CBS235.93,SRR7471413.2929112,91.43,140,9,2,220,357,1,139,3e-45,189
Phialophora_ambigua_CBS235.93,SRR7471413.7985564,89.66,145,10,5,232,373,1,143,2e-42,180
Phialophora_ambigua_CBS235.93,SRR7471413.15481524,88.97,136,10,4,176,307,166,300,2e-37,163
Phialophora_ambigua_CBS235.93,SRR7471413.20155829,88.00,125,13,2,263,386,150,27,2e-32,147
Phialophora_ambigua_CBS235.93,SRR7471413.6718558,94.12,85,4,1,173,257,84,1,6e-27,128
Cladophialophora_modesta_CBS985.96_T,SRR7471413.7985564,90.34,145,11,3,229,372,1,143,1e-44,187
Cladophialophora_modesta_CBS985.96_T,SRR7471413.2929112,90.00,140,13,1,217,356,1,139,2e-42,180
Cladophialophora_modesta_CBS985.96_T,SRR7471413.2929112,93.62,94,6,0,526,619,276,183,9e-31,141
Cladophialophora_modesta_CBS985.96_T,SRR7471413.17300452,97.00,100,3,0,520,619,4,103,4e-39,169
Cladophialophora_modesta_CBS985.96_T,SRR7471413.15481524,93.58,109,6,1,198,306,193,300,7e-37,161
Cladophialophora_modesta_CBS985.96_T,SRR7471413.20155829,88.19,127,12,3,260,386,150,27,6e-33,148
Cladophialophora_modesta_CBS985.96_T,SRR7471413.22651037,98.68,76,1,0,544,619,152,227,4e-29,135
Cladophialophora_modesta_CBS985.96_T,SRR7471413.22643979,98.68,76,1,0,544,619,152,227,4e-29,135
Cladophialophora_modesta_CBS985.96_T,SRR7471413.6718558,98.39,62,1,0,193,254,62,1,3e-21,110
Cladophialophora_modesta_CBS985.96_T,SRR7471413.14617978,88.89,81,8,1,523,603,221,300,6e-18,99.0
Cyphellophora_fusarioides_MUCL44033_T,SRR7471413.2929112,91.43,140,9,2,216,353,1,139,3e-45,189
Cyphellophora_fusarioides_MUCL44033_T,SRR7471413.7985564,88.97,145,11,5,228,369,1,143,8e-41,174
Cyphellophora_fusarioides_MUCL44033_T,SRR7471413.15481524,90.40,125,8,3,183,303,176,300,6e-37,161
Cyphellophora_fusarioides_MUCL44033_T,SRR7471413.6718558,94.19,86,3,2,168,253,84,1,2e-27,130
