Exophiala_nigra_CBS535.94_T,SRR3975576.7651592,84.67,137,19,2,241,377,151,285,3e-29,135
Exophiala_spinifera_CBS899.68_T,SRR3975576.7651592,83.94,137,20,2,238,374,151,285,1e-27,130
Exophiala_exophialae_CBS668.76_T,SRR3975576.7651592,83.94,137,20,2,239,375,151,285,1e-27,130
Exophiala_polymorpha_CBS138920_T,SRR3975576.7651592,83.94,137,20,2,341,477,151,285,2e-27,130
Exophiala_polymorpha_CBS138920_T,SRR3975576.7651592,100.00,53,0,0,642,694,114,62,5e-18,99.0
Exophiala_oligosperma_CBS725.88_T,SRR3975576.7651592,83.94,137,20,2,251,387,151,285,1e-27,130
Exophiala_jeanselmei_CBS507.90_T,SRR3975576.7651592,83.94,137,20,2,243,379,151,285,2e-27,130
Exophiala_jeanselmei_CBS507.90_T,SRR3975576.7651592,100.00,62,0,0,543,604,115,54,4e-23,115
Exophiala_bergeri_CBS353.52,SRR3975576.7651592,84.51,142,18,4,204,343,151,290,7e-30,137
Exophiala_moniliae_CBS520.76_T,SRR3975576.7651592,85.51,138,18,2,241,378,151,286,2e-31,143
Exophiala_pisciphila_CBS537.73_T,SRR3975576.7651592,97.06,102,3,0,552,653,115,14,3e-40,172
Exophiala_pisciphila_CBS537.73_T,SRR3975576.7651592,84.67,137,19,2,244,380,151,285,4e-29,135
Exophiala_xenobiotica_CBS117642,SRR3975576.7651592,84.67,137,19,2,236,372,151,285,3e-29,135
Exophiala_brunnea_CBS,SRR3975576.7651592,84.29,140,14,5,272,408,151,285,2e-27,130
Exophiala_brunnea_CBS,SRR3975576.16073039,100.00,39,0,0,1,39,110,148,3e-10,73.1
Exophiala_brunnea_CBS,SRR3975576.10010887,100.00,39,0,0,1,39,75,37,3e-10,73.1
Exophiala_brunnea_CBS,SRR3975576.7898313,100.00,39,0,0,1,39,68,106,3e-10,73.1
Exophiala_brunnea_CBS,SRR3975576.2195003,100.00,39,0,0,1,39,228,266,3e-10,73.1
Exophiala_nishimurae_CBS101538_T,SRR3975576.7651592,83.94,137,20,2,250,386,151,285,2e-27,130
Exophiala_nishimurae_CBS101538_T,SRR3975576.7651592,100.00,42,0,0,550,591,115,74,6e-12,78.7
Exophiala_mesophila_CBS402.95_T,SRR3975576.7651592,98.02,101,2,0,550,650,114,14,2e-41,176
Exophiala_mesophila_CBS402.95_T,SRR3975576.7651592,84.29,140,14,5,234,370,151,285,2e-27,130
Exophiala_castellanii_CBS158.58_T,SRR3975576.7651592,98.02,101,2,0,549,649,114,14,2e-41,176
Exophiala_castellanii_CBS158.58_T,SRR3975576.7651592,84.29,140,14,5,232,368,151,285,2e-27,130
Exophiala_lecanii-corni_CBS123.33_T,SRR3975576.7651592,86.67,120,9,4,255,371,151,266,2e-26,126
Exophiala_dermatitidis_CBS748.88,SRR3975576.12594605,99.33,150,1,0,870,1019,151,300,6e-70,272
Exophiala_dermatitidis_CBS748.88,SRR3975576.15682262,93.43,137,9,0,1368,1504,150,286,2e-49,204
Exophiala_dermatitidis_CBS748.88,SRR3975576.15682262,96.00,50,2,0,1455,1504,151,102,1e-12,82.4
Exophiala_dermatitidis_CBS748.88,SRR3975576.13208043,94.62,130,7,0,1375,1504,300,171,8e-49,202
Exophiala_dermatitidis_CBS748.88,SRR3975576.13208043,96.88,64,2,0,1369,1432,87,150,2e-20,108
Exophiala_dermatitidis_CBS748.88,SRR3975576.7651592,98.26,115,2,0,574,688,115,1,8e-49,202
Exophiala_dermatitidis_CBS748.88,SRR3975576.7651592,84.51,142,18,4,247,386,151,290,2e-29,137
Exophiala_dermatitidis_CBS748.88,SRR3975576.14275940,90.43,94,8,1,1198,1291,135,43,7e-25,122
Exophiala_dermatitidis_CBS748.88,SRR3975576.6991164,90.24,82,7,1,1210,1291,294,214,7e-20,106
Exophiala_dermatitidis_CBS748.88,SRR3975576.4438419,96.23,53,2,0,1369,1421,66,118,2e-14,87.9
Exophiala_dermatitidis_CBS748.88,SRR3975576.4438419,96.15,52,2,0,1369,1420,202,151,9e-14,86.1
Exophiala_dermatitidis_CBS748.88,SRR3975576.16104410,95.74,47,2,0,1210,1256,216,170,5e-11,76.8
Exophiala_angulospora_CBS482.92_T,SRR3975576.7651592,85.40,137,17,3,238,373,151,285,2e-30,139
Exophiala_opportunistica_CBS109811_T,SRR3975576.7651592,87.18,117,14,1,237,353,151,266,4e-28,132
Exophiala_salmonis_CBS157.67_T,SRR3975576.7651592,97.06,102,3,0,672,773,115,14,3e-40,172
Exophiala_salmonis_CBS157.67_T,SRR3975576.7651592,84.67,137,19,2,366,502,151,285,4e-29,135
Exophiala_salmonis_CBS157.67_T,SRR3975576.14700674,93.55,62,4,0,1,62,62,1,3e-16,93.5
Exophiala_salmonis_CBS157.67_T,SRR3975576.2195003,97.78,45,1,0,78,122,190,234,7e-12,78.7
Exophiala_salmonis_CBS157.67_T,SRR3975576.9752378,94.00,50,2,1,74,122,50,1,1e-10,75.0
Exophiala_salmonis_CBS157.67_T,SRR3975576.7898313,93.75,48,3,0,75,122,27,74,3e-10,73.1
Exophiala_salmonis_CBS157.67_T,SRR3975576.10010887,100.00,28,0,0,95,122,96,69,4e-04,52.8
Exophiala_aquamarina_CBS119918_T,SRR3975576.7651592,84.89,139,17,4,244,381,151,286,9e-30,137
Exophiala_cancerae_CBS120420_T,SRR3975576.7651592,87.18,117,14,1,259,375,151,266,4e-28,132
Exophiala_cancerae_CBS120420_T,SRR3975576.7651592,98.39,62,1,0,563,624,115,54,2e-21,110
Exophiala_tremulae_CBS129355,SRR3975576.7651592,84.78,138,18,3,271,407,151,286,3e-29,135
Exophiala_tremulae_CBS129355,SRR3975576.16073039,100.00,39,0,0,1,39,110,148,3e-10,73.1
Exophiala_tremulae_CBS129355,SRR3975576.10010887,100.00,39,0,0,1,39,75,37,3e-10,73.1
Exophiala_tremulae_CBS129355,SRR3975576.7898313,100.00,39,0,0,1,39,68,106,3e-10,73.1
Exophiala_tremulae_CBS129355,SRR3975576.2195003,100.00,39,0,0,1,39,228,266,3e-10,73.1
Exophiala_equina_CBS116009,SRR3975576.7651592,84.78,138,18,3,237,373,151,286,3e-29,135
Exophiala_alcalophila_CBS520.82_T,SRR3975576.7651592,85.40,137,18,2,248,384,151,285,7e-31,141
Exophiala_crusticola_CBS119970_T,SRR3975576.7651592,84.67,137,19,2,253,389,151,285,3e-29,135
Rhinocladiella_atrovirens_CBS264.49,SRR3975576.7651592,86.67,120,9,4,279,395,151,266,2e-26,126
Rhinocladiella_atrovirens_CBS264.49,SRR3975576.10010887,100.00,47,0,0,1,47,80,34,1e-14,87.9
Rhinocladiella_atrovirens_CBS264.49,SRR3975576.7898313,100.00,45,0,0,1,45,63,107,1e-13,84.2
Rhinocladiella_atrovirens_CBS264.49,SRR3975576.16073039,100.00,44,0,0,1,44,105,148,5e-13,82.4
Rhinocladiella_atrovirens_CBS264.49,SRR3975576.2195003,100.00,44,0,0,1,44,223,266,5e-13,82.4
Rhinocladiella_basitona_CBS101460_T,SRR3975576.7651592,83.94,137,20,2,238,374,151,285,1e-27,130
Rhinocladiella_phaeophora_CBS496.78_T,SRR3975576.7651592,84.67,137,19,2,246,382,151,285,3e-29,135
Rhinocladiella_aquaspersa_CBS313.73_T,SRR3975576.7651592,94.39,107,3,3,547,650,115,9,6e-37,161
Rhinocladiella_aquaspersa_CBS313.73_T,SRR3975576.7651592,84.67,137,19,2,240,376,151,285,4e-29,135
Rhinocladiella_fasciculata_CBS132.86_T,SRR3975576.7651592,86.13,137,17,2,256,392,151,285,1e-32,147
Rhinocladiella_fasciculata_CBS132.86_T,SRR3975576.10010887,100.00,30,0,0,1,30,63,34,3e-05,56.5
Rhinocladiella_fasciculata_CBS132.86_T,SRR3975576.7898313,100.00,28,0,0,1,28,80,107,3e-04,52.8
Rhinocladiella_anceps_CBS181.65_T,SRR3975576.7651592,84.14,145,13,7,238,377,151,290,4e-28,132
Rhinocladiella_mackenziei_CBS367.92,SRR3975576.7651592,84.67,137,19,2,227,363,151,285,3e-29,135
Veronaea_compacta_CBS268.75_T,SRR3975576.7651592,84.29,140,14,5,260,396,151,285,2e-27,130
Capronia_pilosella_AFTOL-ID657,SRR3975576.7651592,84.78,138,18,3,338,474,151,286,4e-29,135
Capronia_pilosella_AFTOL-ID657,SRR3975576.7651592,100.00,42,0,0,642,683,115,74,6e-12,78.7
Capronia_dactylotricha_DAOM208471_T,SRR3975576.7651592,97.03,101,3,0,558,658,114,14,1e-39,171
Capronia_dactylotricha_DAOM208471_T,SRR3975576.7651592,87.18,117,14,1,240,356,151,266,5e-28,132
Capronia_kleinmondensis_CBS122671_T,SRR3975576.7651592,97.03,101,3,0,564,664,114,14,1e-39,171
Capronia_kleinmondensis_CBS122671_T,SRR3975576.7651592,86.67,120,9,4,265,381,151,266,2e-26,126
Capronia_kleinmondensis_CBS122671_T,SRR3975576.10010887,100.00,33,0,0,1,33,66,34,6e-07,62.1
Capronia_kleinmondensis_CBS122671_T,SRR3975576.7898313,100.00,31,0,0,1,31,77,107,8e-06,58.4
Capronia_kleinmondensis_CBS122671_T,SRR3975576.16073039,100.00,30,0,0,1,30,119,148,3e-05,56.5
Capronia_kleinmondensis_CBS122671_T,SRR3975576.2195003,100.00,30,0,0,1,30,237,266,3e-05,56.5
Capronia_mansonii_CBS101.67_T,SRR3975576.7651592,98.04,102,2,0,567,668,115,14,6e-42,178
Capronia_mansonii_CBS101.67_T,SRR3975576.7651592,84.51,142,18,4,251,390,151,290,1e-29,137
Capronia_munkii_DAOM216390_T,SRR3975576.7651592,98.04,102,2,0,567,668,115,14,6e-42,178
Capronia_munkii_DAOM216390_T,SRR3975576.7651592,84.51,142,18,4,251,390,151,290,1e-29,137
Capronia_coronata_ATCC56201_T,SRR3975576.7651592,98.04,102,2,0,538,639,115,14,6e-42,178
Capronia_coronata_ATCC56201_T,SRR3975576.7651592,85.40,137,17,3,239,374,151,285,3e-30,139
Capronia_parasitica_CBS123.88,SRR3975576.7651592,87.18,117,14,1,245,361,151,266,4e-28,132
Veronaea_japonica_CBS776.83_T,SRR3975576.7651592,84.67,137,19,2,273,409,151,285,3e-29,135
Veronaea_japonica_CBS776.83_T,SRR3975576.16073039,100.00,38,0,0,1,38,111,148,1e-09,71.3
Veronaea_japonica_CBS776.83_T,SRR3975576.10010887,100.00,38,0,0,1,38,74,37,1e-09,71.3
Veronaea_japonica_CBS776.83_T,SRR3975576.7898313,100.00,38,0,0,1,38,69,106,1e-09,71.3
Veronaea_japonica_CBS776.83_T,SRR3975576.2195003,100.00,38,0,0,1,38,229,266,1e-09,71.3
Thysanorea_papuana_CBS212.96_T,SRR3975576.7651592,87.18,117,14,1,247,363,151,266,4e-28,132
Capronia_acutiseta_ATCC56428_T,SRR3975576.7651592,96.08,102,4,0,537,638,115,14,1e-38,167
Capronia_acutiseta_ATCC56428_T,SRR3975576.7651592,86.32,117,14,2,241,356,151,266,2e-26,126
Fonsecaea_brasiliensis_CBS119710_T,SRR3975576.7651592,84.78,138,17,4,247,383,151,285,3e-29,135
Fonsecaea_pedrosoi_CBS271.37_T,SRR3975576.7651592,84.89,139,17,4,275,412,151,286,1e-29,137
Fonsecaea_pedrosoi_CBS271.37_T,SRR3975576.7651592,98.39,62,1,0,584,645,115,54,2e-21,110
Fonsecaea_pedrosoi_CBS271.37_T,SRR3975576.16073039,100.00,30,0,0,1,30,119,148,3e-05,56.5
Fonsecaea_pedrosoi_CBS271.37_T,SRR3975576.10010887,100.00,30,0,0,1,30,66,37,3e-05,56.5
Fonsecaea_pedrosoi_CBS271.37_T,SRR3975576.7898313,100.00,30,0,0,1,30,77,106,3e-05,56.5
Fonsecaea_pedrosoi_CBS271.37_T,SRR3975576.2195003,100.00,30,0,0,1,30,237,266,3e-05,56.5
Fonsecaea_multimorphosa_CBS980.96_T,SRR3975576.7651592,87.18,117,14,1,245,361,151,266,4e-28,132
Fonsecaea_minima_CBS125760_T,SRR3975576.7651592,84.78,138,17,4,241,377,151,285,3e-29,135
Fonsecaea_nubica_CBS269.64_T,SRR3975576.7651592,84.89,139,17,4,252,389,151,286,9e-30,137
Fonsecaea_monophora_CBS269.37_T,SRR3975576.7651592,84.29,140,17,5,252,390,151,286,4e-28,132
Fonsecaea_erecta_CBS125763_T,SRR3975576.7651592,87.18,117,14,1,236,352,151,266,4e-28,132
Fonsecaea_pugnacius_CBS139214_T,SRR3975576.7651592,84.89,139,18,3,245,383,151,286,8e-30,137
Cladophialophora_psammophila_CBS,SRR3975576.7651592,87.18,117,14,1,251,367,151,266,4e-28,132
Cladophialophora_devriesii_CBS,SRR3975576.7651592,87.18,117,14,1,247,363,151,266,4e-28,132
Cladophialophora_immunda_CBS834.96,SRR3975576.7651592,84.78,138,17,4,249,385,151,285,3e-29,135
Cladophialophora_arxii_CBS306.94_T,SRR3975576.7651592,87.18,117,14,1,251,367,151,266,4e-28,132
Cladophialophora_bantiana_CBS173.52,SRR3975576.7651592,87.18,117,14,1,245,361,151,266,4e-28,132
Cladophialophora_emmonsii_CBS102594,SRR3975576.7651592,84.78,138,19,2,236,373,151,286,8e-30,137
Cladophialophora_minourae_CBS556.83,SRR3975576.7651592,82.73,139,19,5,244,381,151,285,3e-24,119
Cladophialophora_australiensis_CBS112793,SRR3975576.12594605,97.97,148,3,0,840,987,151,298,2e-65,257
Cladophialophora_australiensis_CBS112793,SRR3975576.15682262,93.43,137,9,0,1335,1471,150,286,2e-49,204
Cladophialophora_australiensis_CBS112793,SRR3975576.15682262,96.00,50,2,0,1422,1471,151,102,1e-12,82.4
Cladophialophora_australiensis_CBS112793,SRR3975576.13208043,94.62,130,7,0,1342,1471,300,171,8e-49,202
Cladophialophora_australiensis_CBS112793,SRR3975576.13208043,96.88,64,2,0,1336,1399,87,150,2e-20,108
Cladophialophora_australiensis_CBS112793,SRR3975576.7651592,96.52,115,4,0,545,659,115,1,2e-45,191
Cladophialophora_australiensis_CBS112793,SRR3975576.7651592,85.40,137,17,3,246,381,151,285,6e-30,139
Cladophialophora_australiensis_CBS112793,SRR3975576.14275940,89.36,94,9,1,1165,1258,135,43,3e-23,117
Cladophialophora_australiensis_CBS112793,SRR3975576.6991164,89.02,82,8,1,1177,1258,294,214,3e-18,100
Cladophialophora_australiensis_CBS112793,SRR3975576.4438419,96.23,53,2,0,1336,1388,66,118,2e-14,87.9
Cladophialophora_australiensis_CBS112793,SRR3975576.4438419,96.15,52,2,0,1336,1387,202,151,9e-14,86.1
Cladophialophora_australiensis_CBS112793,SRR3975576.16104410,97.87,47,1,0,1177,1223,216,170,1e-12,82.4
Cladophialophora_potulentorum_CBS112222,SRR3975576.12594605,98.65,148,2,0,842,989,151,298,4e-67,263
Cladophialophora_potulentorum_CBS112222,SRR3975576.13208043,94.00,150,9,0,1344,1493,300,151,1e-56,228
Cladophialophora_potulentorum_CBS112222,SRR3975576.13208043,96.88,64,2,0,1338,1401,87,150,2e-20,108
Cladophialophora_potulentorum_CBS112222,SRR3975576.15682262,93.38,151,10,0,1337,1487,150,300,2e-55,224
Cladophialophora_potulentorum_CBS112222,SRR3975576.15682262,95.38,65,3,0,1424,1488,151,87,2e-19,104
Cladophialophora_potulentorum_CBS112222,SRR3975576.7651592,96.52,115,4,0,547,661,115,1,2e-45,191
Cladophialophora_potulentorum_CBS112222,SRR3975576.7651592,85.00,140,12,6,245,380,151,285,3e-28,134
Cladophialophora_potulentorum_CBS112222,SRR3975576.14275940,88.30,94,10,1,1167,1260,135,43,1e-21,111
Cladophialophora_potulentorum_CBS112222,SRR3975576.6991164,89.02,82,8,1,1179,1260,294,214,3e-18,100
Cladophialophora_potulentorum_CBS112222,SRR3975576.4438419,96.23,53,2,0,1338,1390,66,118,2e-14,87.9
Cladophialophora_potulentorum_CBS112222,SRR3975576.4438419,96.15,52,2,0,1338,1389,202,151,9e-14,86.1
Cladophialophora_potulentorum_CBS112222,SRR3975576.16104410,95.74,47,2,0,1179,1225,216,170,5e-11,76.8
Cladophialophora_matsushimae_CMRP1198,SRR3975576.7651592,84.29,140,13,6,249,384,151,285,4e-27,128
Cladophialophora_mycetomatis_CBS122637,SRR3975576.7651592,86.67,120,9,4,234,350,151,266,2e-26,126
Cladophialophora_chaetospira_CBS127573,SRR3975576.7651592,87.18,117,14,1,640,756,151,266,7e-28,132
Cladophialophora_chaetospira_CBS127573,SRR3975576.16073039,100.00,31,0,0,379,409,118,148,1e-05,58.4
Cladophialophora_chaetospira_CBS127573,SRR3975576.10010887,100.00,31,0,0,379,409,67,37,1e-05,58.4
Cladophialophora_chaetospira_CBS127573,SRR3975576.7898313,100.00,31,0,0,379,409,76,106,1e-05,58.4
Cladophialophora_chaetospira_CBS127573,SRR3975576.2195003,100.00,31,0,0,379,409,236,266,1e-05,58.4
Cladophialophora_boppii_CBS126.86_T,SRR3975576.7651592,87.18,117,14,1,242,358,151,266,4e-28,132
Cladophialophora_abundans_CBS126736,SRR3975576.7651592,87.18,117,14,1,179,295,151,266,3e-28,132
Capronia_semi-immersa_CBS102234,SRR3975576.7651592,83.94,137,19,3,241,376,151,285,5e-27,128
Phialophora_americana_CBS400.67,SRR3975576.12594605,97.97,148,3,0,834,981,151,298,2e-65,257
Phialophora_americana_CBS400.67,SRR3975576.7651592,96.52,115,4,0,539,653,115,1,2e-45,191
Phialophora_americana_CBS400.67,SRR3975576.7651592,83.94,137,19,3,243,378,151,285,1e-26,128
Phialophora_americana_CBS400.67,SRR3975576.15682262,92.31,117,9,0,1329,1445,150,266,3e-38,167
Phialophora_americana_CBS400.67,SRR3975576.13208043,93.64,110,7,0,1336,1445,300,191,1e-37,165
Phialophora_americana_CBS400.67,SRR3975576.13208043,96.88,64,2,0,1330,1393,87,150,2e-20,108
Phialophora_americana_CBS400.67,SRR3975576.14275940,90.43,94,8,1,1159,1252,135,43,6e-25,122
Phialophora_americana_CBS400.67,SRR3975576.6991164,90.24,82,7,1,1171,1252,294,214,6e-20,106
Phialophora_americana_CBS400.67,SRR3975576.4438419,96.23,53,2,0,1330,1382,66,118,2e-14,87.9
Phialophora_americana_CBS400.67,SRR3975576.4438419,96.15,52,2,0,1330,1381,202,151,8e-14,86.1
Phialophora_americana_CBS400.67,SRR3975576.16104410,95.74,47,2,0,1171,1217,216,170,5e-11,76.8
Phialophora_americana_CBS400.67,SRR3975576.1962180,90.57,53,5,0,903,955,8,60,2e-09,71.3
Phialophora_verrucosa_CBS140325_T,SRR3975576.7651592,83.94,137,19,3,247,382,151,285,5e-27,128
Phialophora_verrucosa_CBS140325_T,SRR3975576.7651592,97.62,42,1,0,545,586,115,74,3e-10,73.1
Cladophialophora_samoensis_CBS259.83_T,SRR3975576.7651592,85.40,137,17,3,247,382,151,285,2e-30,139
Cladophialophora_carrionii_CBS260.83,SRR3975576.7651592,86.32,117,15,1,263,379,151,266,2e-26,126
Cladophialophora_carrionii_CBS260.83,SRR3975576.7651592,98.04,51,1,0,558,608,115,65,3e-15,89.8
Exophiala_palmae_UPCB86822_T,SRR3975576.7651592,84.51,142,18,4,206,345,151,290,8e-30,137
Cladophialophora_yegresii_CBS114405_T,SRR3975576.7651592,83.94,137,19,3,248,383,151,285,5e-27,128
Knufia_epidermidis_CBS120353_T,SRR3975576.7651592,88.03,117,13,1,246,362,151,266,8e-30,137
Arthrocladium_fulminans_CBS136243_T,SRR3975576.7651592,85.83,120,10,4,241,357,151,266,9e-25,121
Arthrocladium_fulminans_CBS136243_T,SRR3975576.7651592,100.00,28,0,0,533,560,114,87,3e-04,52.8
Anthopsis_deltoidea_CBS263.77_T,SRR3975576.11271694,88.64,132,13,2,248,378,151,281,2e-36,159
Anthopsis_deltoidea_CBS263.77_T,SRR3975576.11271694,86.67,105,12,2,275,378,150,47,4e-23,115
Cyphellophora_laciniata_CBS190.61_T,SRR3975576.7651592,99.02,102,1,0,634,735,115,14,1e-43,183
Cyphellophora_laciniata_CBS190.61_T,SRR3975576.7651592,87.93,116,13,1,335,449,151,266,4e-29,135
Cyphellophora_laciniata_CBS190.61_T,SRR3975576.2195003,98.70,77,1,0,24,100,190,266,1e-29,137
Cyphellophora_laciniata_CBS190.61_T,SRR3975576.7898313,96.30,81,3,0,21,101,27,107,1e-28,134
Cyphellophora_laciniata_CBS190.61_T,SRR3975576.10010887,100.00,63,0,0,41,103,96,34,1e-23,117
Cyphellophora_laciniata_CBS190.61_T,SRR3975576.16073039,100.00,58,0,0,43,100,91,148,9e-21,108
Cyphellophora_laciniata_CBS190.61_T,SRR3975576.9752378,94.00,50,2,1,20,68,50,1,9e-11,75.0
Cyphellophora_suttonii_CBS449.91,SRR3975576.7651592,87.93,116,13,1,238,352,151,266,3e-29,135
Cyphellophora_pauciseptata_CBS284.85_T,SRR3975576.7651592,87.93,116,13,1,249,363,151,266,3e-29,135
Cyphellophora_pluriseptata_CBS286.85_T,SRR3975576.7651592,87.93,116,13,1,254,368,151,266,3e-29,135
Phialophora_europaea_CBS101466,SRR3975576.7651592,87.93,116,13,1,244,358,151,266,3e-29,135
Phialophora_ambigua_CBS235.93,SRR3975576.7651592,87.93,116,13,1,241,355,151,266,3e-29,135
Cladophialophora_modesta_CBS985.96_T,SRR3975576.7651592,99.02,102,1,0,518,619,115,14,1e-43,183
Cladophialophora_modesta_CBS985.96_T,SRR3975576.7651592,86.32,117,15,1,238,354,151,266,2e-26,126
Cyphellophora_fusarioides_MUCL44033_T,SRR3975576.11271694,86.36,132,16,2,235,365,151,281,2e-31,143
Cyphellophora_fusarioides_MUCL44033_T,SRR3975576.11271694,83.81,105,15,2,262,365,150,47,4e-18,99.0
