Exophiala_polymorpha_CBS138920_T,SRR2080529.20643,93.88,49,3,0,646,694,149,101,8e-13,75.0
Exophiala_jeanselmei_CBS507.90_T,SRR2080529.20643,94.74,57,3,0,548,604,149,93,2e-17,89.8
Exophiala_pisciphila_CBS537.73_T,SRR2080529.20643,89.69,97,10,0,557,653,149,53,7e-28,124
Exophiala_mesophila_CBS402.95_T,SRR2080529.20643,90.72,97,9,0,554,650,149,53,2e-29,130
Exophiala_castellanii_CBS158.58_T,SRR2080529.20643,90.72,97,9,0,553,649,149,53,2e-29,130
Exophiala_dermatitidis_CBS748.88,SRR2080529.20643,90.48,126,12,0,579,704,149,24,3e-40,167
Exophiala_salmonis_CBS157.67_T,SRR2080529.20643,89.69,97,10,0,677,773,149,53,9e-28,124
Exophiala_cancerae_CBS120420_T,SRR2080529.20643,92.98,57,4,0,568,624,149,93,1e-15,84.2
Rhinocladiella_aquaspersa_CBS313.73_T,SRR2080529.20643,90.22,92,8,1,559,649,140,49,3e-26,119
Capronia_dactylotricha_DAOM208471_T,SRR2080529.20643,89.69,97,10,0,562,658,149,53,7e-28,124
Capronia_kleinmondensis_CBS122671_T,SRR2080529.20643,89.69,97,10,0,568,664,149,53,8e-28,124
Capronia_mansonii_CBS101.67_T,SRR2080529.20643,90.72,97,9,0,572,668,149,53,2e-29,130
Capronia_munkii_DAOM216390_T,SRR2080529.20643,90.72,97,9,0,572,668,149,53,2e-29,130
Capronia_coronata_ATCC56201_T,SRR2080529.20643,90.72,97,9,0,543,639,149,53,2e-29,130
Capronia_acutiseta_ATCC56428_T,SRR2080529.20643,89.69,97,10,0,542,638,149,53,7e-28,124
Fonsecaea_pedrosoi_CBS271.37_T,SRR2080529.20643,92.98,57,4,0,589,645,149,93,1e-15,84.2
Cladophialophora_australiensis_CBS112793,SRR2080529.20643,89.68,126,13,0,550,675,149,24,1e-38,161
Cladophialophora_potulentorum_CBS112222,SRR2080529.20643,89.68,126,13,0,552,677,149,24,1e-38,161
Cyphellophora_laciniata_CBS190.61_T,SRR2080529.20643,91.75,97,8,0,639,735,149,53,4e-31,135
Cladophialophora_modesta_CBS985.96_T,SRR2080529.20643,93.81,97,6,0,523,619,149,53,1e-34,147
