Exophiala_nigra_CBS535.94_T,ERR3408909.7309624,98.00,150,2,1,214,363,302,154,2e-66,259
Exophiala_nigra_CBS535.94_T,ERR3408909.5753329,94.44,126,5,2,195,320,124,1,2e-46,193
Exophiala_nigra_CBS535.94_T,ERR3408909.8539875,92.54,134,6,3,174,307,130,1,2e-45,189
Exophiala_nigra_CBS535.94_T,ERR3408909.3380961,100.00,70,0,0,201,270,27,96,1e-27,130
Exophiala_nigra_CBS535.94_T,ERR3408909.3380961,100.00,70,0,0,201,270,164,95,1e-27,130
Exophiala_spinifera_CBS899.68_T,ERR3408909.7309624,97.33,150,3,1,211,360,302,154,7e-65,254
Exophiala_spinifera_CBS899.68_T,ERR3408909.5753329,93.08,130,7,2,188,317,128,1,2e-45,189
Exophiala_spinifera_CBS899.68_T,ERR3408909.8539875,94.83,116,4,2,189,304,114,1,1e-42,180
Exophiala_spinifera_CBS899.68_T,ERR3408909.3380961,96.30,81,2,1,187,267,17,96,3e-28,132
Exophiala_spinifera_CBS899.68_T,ERR3408909.3380961,96.30,81,2,1,187,267,174,95,3e-28,132
Exophiala_exophialae_CBS668.76_T,ERR3408909.7309624,97.33,150,3,1,212,361,302,154,7e-65,254
Exophiala_exophialae_CBS668.76_T,ERR3408909.5753329,93.08,130,7,2,189,318,128,1,2e-45,189
Exophiala_exophialae_CBS668.76_T,ERR3408909.8539875,94.83,116,4,2,190,305,114,1,1e-42,180
Exophiala_exophialae_CBS668.76_T,ERR3408909.3380961,92.78,97,5,2,173,268,1,96,2e-30,139
Exophiala_exophialae_CBS668.76_T,ERR3408909.3380961,92.78,97,5,2,173,268,190,95,2e-30,139
Exophiala_polymorpha_CBS138920_T,ERR3408909.7309624,97.33,150,3,1,314,463,302,154,9e-65,254
Exophiala_polymorpha_CBS138920_T,ERR3408909.5753329,93.65,126,6,2,295,420,124,1,9e-45,187
Exophiala_polymorpha_CBS138920_T,ERR3408909.8539875,95.54,112,4,1,296,407,111,1,5e-42,178
Exophiala_polymorpha_CBS138920_T,ERR3408909.3380961,91.92,99,4,4,273,370,1,96,3e-29,135
Exophiala_polymorpha_CBS138920_T,ERR3408909.3380961,91.92,99,4,4,273,370,190,95,3e-29,135
Exophiala_polymorpha_CBS138920_T,ERR3408909.11732454,98.11,53,1,0,642,694,241,189,2e-16,93.5
Exophiala_polymorpha_CBS138920_T,ERR3408909.13653066,96.23,53,2,0,642,694,174,226,9e-15,87.9
Exophiala_polymorpha_CBS138920_T,ERR3408909.12091093,90.00,60,6,0,635,694,224,283,6e-12,78.7
Exophiala_oligosperma_CBS725.88_T,ERR3408909.7309624,97.33,150,3,1,224,373,302,154,7e-65,254
Exophiala_oligosperma_CBS725.88_T,ERR3408909.8539875,95.73,117,4,1,201,317,116,1,7e-45,187
Exophiala_oligosperma_CBS725.88_T,ERR3408909.5753329,93.60,125,7,1,206,330,124,1,3e-44,185
Exophiala_oligosperma_CBS725.88_T,ERR3408909.3380961,97.44,78,2,0,203,280,19,96,9e-29,134
Exophiala_oligosperma_CBS725.88_T,ERR3408909.3380961,97.44,78,2,0,203,280,172,95,9e-29,134
Exophiala_jeanselmei_CBS507.90_T,ERR3408909.7309624,97.33,150,3,1,216,365,302,154,8e-65,254
Exophiala_jeanselmei_CBS507.90_T,ERR3408909.5753329,93.65,126,6,2,197,322,124,1,8e-45,187
Exophiala_jeanselmei_CBS507.90_T,ERR3408909.8539875,94.87,117,4,2,193,309,115,1,4e-43,182
Exophiala_jeanselmei_CBS507.90_T,ERR3408909.3380961,90.91,99,6,2,174,272,1,96,1e-27,130
Exophiala_jeanselmei_CBS507.90_T,ERR3408909.3380961,90.91,99,6,2,174,272,190,95,1e-27,130
Exophiala_jeanselmei_CBS507.90_T,ERR3408909.11732454,98.36,61,1,0,544,604,241,181,6e-21,108
Exophiala_jeanselmei_CBS507.90_T,ERR3408909.13653066,94.20,69,3,1,537,604,166,234,8e-20,104
Exophiala_jeanselmei_CBS507.90_T,ERR3408909.12091093,92.86,70,4,1,536,604,222,291,1e-18,100
Exophiala_bergeri_CBS353.52,ERR3408909.7309624,98.00,150,2,1,177,326,302,154,1e-66,259
Exophiala_bergeri_CBS353.52,ERR3408909.5753329,94.44,126,5,2,158,283,124,1,1e-46,193
Exophiala_bergeri_CBS353.52,ERR3408909.8539875,93.65,126,4,4,145,270,122,1,2e-44,185
Exophiala_bergeri_CBS353.52,ERR3408909.3380961,100.00,70,0,0,164,233,27,96,1e-27,130
Exophiala_bergeri_CBS353.52,ERR3408909.3380961,100.00,70,0,0,164,233,164,95,1e-27,130
Exophiala_moniliae_CBS520.76_T,ERR3408909.7309624,98.67,150,1,1,214,363,302,154,3e-68,265
Exophiala_moniliae_CBS520.76_T,ERR3408909.8539875,94.07,135,3,5,173,307,130,1,9e-49,200
Exophiala_moniliae_CBS520.76_T,ERR3408909.5753329,92.59,135,8,2,186,320,133,1,2e-46,193
Exophiala_moniliae_CBS520.76_T,ERR3408909.3380961,100.00,70,0,0,201,270,27,96,1e-27,130
Exophiala_moniliae_CBS520.76_T,ERR3408909.3380961,100.00,70,0,0,201,270,164,95,1e-27,130
Exophiala_pisciphila_CBS537.73_T,ERR3408909.7309624,98.67,150,1,1,217,366,302,154,4e-68,265
Exophiala_pisciphila_CBS537.73_T,ERR3408909.5753329,94.44,126,5,2,198,323,124,1,2e-46,193
Exophiala_pisciphila_CBS537.73_T,ERR3408909.8539875,95.73,117,3,2,194,310,115,1,8e-45,187
Exophiala_pisciphila_CBS537.73_T,ERR3408909.13653066,98.04,102,2,0,552,653,173,274,5e-42,178
Exophiala_pisciphila_CBS537.73_T,ERR3408909.11732454,95.56,90,4,0,553,642,241,152,5e-32,145
Exophiala_pisciphila_CBS537.73_T,ERR3408909.3380961,100.00,70,0,0,204,273,27,96,1e-27,130
Exophiala_pisciphila_CBS537.73_T,ERR3408909.3380961,100.00,70,0,0,204,273,164,95,1e-27,130
Exophiala_pisciphila_CBS537.73_T,ERR3408909.12091093,92.86,70,5,0,552,621,230,299,3e-19,102
Exophiala_pisciphila_CBS537.73_T,ERR3408909.2634073,98.25,57,1,0,597,653,152,208,1e-18,100
Exophiala_xenobiotica_CBS117642,ERR3408909.7309624,98.00,150,2,1,209,358,302,154,1e-66,259
Exophiala_xenobiotica_CBS117642,ERR3408909.5753329,94.40,125,6,1,191,315,124,1,5e-46,191
Exophiala_xenobiotica_CBS117642,ERR3408909.8539875,95.76,118,3,2,185,302,116,1,2e-45,189
Exophiala_xenobiotica_CBS117642,ERR3408909.3380961,100.00,70,0,0,196,265,27,96,1e-27,130
Exophiala_xenobiotica_CBS117642,ERR3408909.3380961,100.00,70,0,0,196,265,164,95,1e-27,130
Exophiala_brunnea_CBS,ERR3408909.7309624,98.00,150,2,1,245,394,302,154,2e-66,259
Exophiala_brunnea_CBS,ERR3408909.5753329,94.44,126,5,2,226,351,124,1,2e-46,193
Exophiala_brunnea_CBS,ERR3408909.8539875,96.43,112,3,1,227,338,111,1,1e-43,183
Exophiala_brunnea_CBS,ERR3408909.3380961,95.29,85,2,2,219,301,12,96,1e-28,134
Exophiala_brunnea_CBS,ERR3408909.3380961,95.29,85,2,2,219,301,179,95,1e-28,134
Exophiala_brunnea_CBS,ERR3408909.13653066,96.08,51,2,0,583,633,173,223,3e-14,86.1
Exophiala_brunnea_CBS,ERR3408909.11147204,100.00,40,0,0,1,40,96,57,7e-11,75.0
Exophiala_brunnea_CBS,ERR3408909.5809506,100.00,40,0,0,1,40,190,151,7e-11,75.0
Exophiala_brunnea_CBS,ERR3408909.9238839,100.00,39,0,0,1,39,272,234,2e-10,73.1
Exophiala_brunnea_CBS,ERR3408909.14405275,100.00,38,0,0,1,38,70,107,9e-10,71.3
Exophiala_nishimurae_CBS101538_T,ERR3408909.7309624,97.33,150,3,1,223,372,302,154,7e-65,254
Exophiala_nishimurae_CBS101538_T,ERR3408909.5753329,93.65,126,6,2,204,329,124,1,8e-45,187
Exophiala_nishimurae_CBS101538_T,ERR3408909.8539875,95.54,112,4,1,205,316,111,1,5e-42,178
Exophiala_nishimurae_CBS101538_T,ERR3408909.3380961,96.25,80,2,1,201,279,17,96,1e-27,130
Exophiala_nishimurae_CBS101538_T,ERR3408909.3380961,96.25,80,2,1,201,279,174,95,1e-27,130
Exophiala_mesophila_CBS402.95_T,ERR3408909.7309624,98.00,150,2,1,207,356,302,154,2e-66,259
Exophiala_mesophila_CBS402.95_T,ERR3408909.5753329,94.40,125,6,1,189,313,124,1,6e-46,191
Exophiala_mesophila_CBS402.95_T,ERR3408909.8539875,96.46,113,3,1,188,300,112,1,3e-44,185
Exophiala_mesophila_CBS402.95_T,ERR3408909.13653066,97.03,101,3,0,550,650,174,274,8e-40,171
Exophiala_mesophila_CBS402.95_T,ERR3408909.11732454,96.67,90,3,0,550,639,241,152,1e-33,150
Exophiala_mesophila_CBS402.95_T,ERR3408909.3380961,94.38,89,2,2,177,263,9,96,1e-28,134
Exophiala_mesophila_CBS402.95_T,ERR3408909.3380961,94.38,89,2,2,177,263,182,95,1e-28,134
Exophiala_mesophila_CBS402.95_T,ERR3408909.12091093,95.45,66,3,0,553,618,234,299,2e-20,106
Exophiala_mesophila_CBS402.95_T,ERR3408909.2634073,98.25,57,1,0,594,650,152,208,1e-18,100
Exophiala_castellanii_CBS158.58_T,ERR3408909.7309624,98.00,150,2,1,205,354,302,154,2e-66,259
Exophiala_castellanii_CBS158.58_T,ERR3408909.5753329,94.40,125,6,1,187,311,124,1,6e-46,191
Exophiala_castellanii_CBS158.58_T,ERR3408909.8539875,96.46,113,3,1,186,298,112,1,3e-44,185
Exophiala_castellanii_CBS158.58_T,ERR3408909.13653066,97.03,101,3,0,549,649,174,274,8e-40,171
Exophiala_castellanii_CBS158.58_T,ERR3408909.11732454,96.67,90,3,0,549,638,241,152,1e-33,150
Exophiala_castellanii_CBS158.58_T,ERR3408909.3380961,96.30,81,2,1,181,261,17,96,4e-28,132
Exophiala_castellanii_CBS158.58_T,ERR3408909.3380961,96.30,81,2,1,181,261,174,95,4e-28,132
Exophiala_castellanii_CBS158.58_T,ERR3408909.12091093,95.45,66,3,0,552,617,234,299,2e-20,106
Exophiala_castellanii_CBS158.58_T,ERR3408909.2634073,98.25,57,1,0,593,649,152,208,1e-18,100
Exophiala_lecanii-corni_CBS123.33_T,ERR3408909.7309624,98.00,150,2,1,228,377,302,154,2e-66,259
Exophiala_lecanii-corni_CBS123.33_T,ERR3408909.5753329,94.44,126,5,2,209,334,124,1,2e-46,193
Exophiala_lecanii-corni_CBS123.33_T,ERR3408909.8539875,96.43,112,3,1,210,321,111,1,1e-43,183
Exophiala_lecanii-corni_CBS123.33_T,ERR3408909.3380961,95.29,85,2,2,202,284,12,96,1e-28,134
Exophiala_lecanii-corni_CBS123.33_T,ERR3408909.3380961,95.29,85,2,2,202,284,179,95,1e-28,134
Exophiala_dermatitidis_CBS748.88,ERR3408909.7309624,98.00,150,1,2,221,369,302,154,4e-66,259
Exophiala_dermatitidis_CBS748.88,ERR3408909.9905636,96.50,143,5,0,863,1005,150,292,2e-59,237
Exophiala_dermatitidis_CBS748.88,ERR3408909.10404907,95.14,144,7,0,1361,1504,1,144,1e-56,228
Exophiala_dermatitidis_CBS748.88,ERR3408909.13653066,97.69,130,3,0,574,703,173,302,2e-55,224
Exophiala_dermatitidis_CBS748.88,ERR3408909.13653066,90.73,151,11,2,785,933,150,1,9e-48,198
Exophiala_dermatitidis_CBS748.88,ERR3408909.11580240,99.17,121,1,0,1384,1504,1,121,7e-54,219
Exophiala_dermatitidis_CBS748.88,ERR3408909.2634073,96.00,125,3,2,619,742,152,275,7e-49,202
Exophiala_dermatitidis_CBS748.88,ERR3408909.2634073,84.21,152,22,2,769,920,150,1,3e-32,147
Exophiala_dermatitidis_CBS748.88,ERR3408909.13509532,91.22,148,12,1,1345,1492,4,150,3e-48,200
Exophiala_dermatitidis_CBS748.88,ERR3408909.13509532,100.00,35,0,0,1470,1504,297,263,1e-07,65.8
Exophiala_dermatitidis_CBS748.88,ERR3408909.11068169,93.28,134,9,0,825,958,18,151,9e-48,198
Exophiala_dermatitidis_CBS748.88,ERR3408909.3763429,93.28,134,9,0,825,958,18,151,9e-48,198
Exophiala_dermatitidis_CBS748.88,ERR3408909.8539875,93.98,133,3,5,183,313,130,1,3e-47,196
Exophiala_dermatitidis_CBS748.88,ERR3408909.3899912,92.70,137,9,1,1165,1301,151,16,3e-47,196
Exophiala_dermatitidis_CBS748.88,ERR3408909.3899912,96.30,54,2,0,965,1018,152,205,6e-15,89.8
Exophiala_dermatitidis_CBS748.88,ERR3408909.11900061,89.61,154,11,3,1332,1483,302,152,2e-45,191
Exophiala_dermatitidis_CBS748.88,ERR3408909.11900061,84.35,147,21,2,1186,1332,9,153,4e-31,143
Exophiala_dermatitidis_CBS748.88,ERR3408909.5753329,94.44,126,4,3,202,326,124,1,2e-45,191
Exophiala_dermatitidis_CBS748.88,ERR3408909.10911990,92.86,126,9,0,1379,1504,1,126,3e-43,183
Exophiala_dermatitidis_CBS748.88,ERR3408909.4769005,89.51,143,12,3,1263,1403,142,1,1e-41,178
Exophiala_dermatitidis_CBS748.88,ERR3408909.4769005,89.51,143,12,3,1263,1403,143,284,1e-41,178
Exophiala_dermatitidis_CBS748.88,ERR3408909.10302225,97.12,104,2,1,1401,1504,148,250,2e-40,174
Exophiala_dermatitidis_CBS748.88,ERR3408909.12091093,92.31,117,9,0,889,1005,152,36,3e-38,167
Exophiala_dermatitidis_CBS748.88,ERR3408909.12091093,92.41,79,5,1,565,643,222,299,1e-21,111
Exophiala_dermatitidis_CBS748.88,ERR3408909.11471542,86.08,158,17,5,773,927,146,301,9e-38,165
Exophiala_dermatitidis_CBS748.88,ERR3408909.4896098,86.84,152,15,5,782,930,151,2,9e-38,165
Exophiala_dermatitidis_CBS748.88,ERR3408909.15043103,96.91,97,3,0,1403,1499,151,55,3e-37,163
Exophiala_dermatitidis_CBS748.88,ERR3408909.5361088,96.88,96,3,0,1368,1463,246,151,1e-36,161
Exophiala_dermatitidis_CBS748.88,ERR3408909.4309902,86.67,150,15,4,781,927,154,301,1e-36,161
Exophiala_dermatitidis_CBS748.88,ERR3408909.7791196,96.70,91,3,0,840,930,206,296,7e-34,152
Exophiala_dermatitidis_CBS748.88,ERR3408909.11732454,96.67,90,3,0,575,664,241,152,3e-33,150
Exophiala_dermatitidis_CBS748.88,ERR3408909.4567421,95.00,80,4,0,1425,1504,151,72,4e-26,126
Exophiala_dermatitidis_CBS748.88,ERR3408909.3380961,90.72,97,6,3,182,276,1,96,4e-26,126
Exophiala_dermatitidis_CBS748.88,ERR3408909.3380961,90.72,97,6,3,182,276,190,95,4e-26,126
Exophiala_dermatitidis_CBS748.88,ERR3408909.14685236,86.92,107,13,1,1186,1292,106,1,7e-24,119
Exophiala_dermatitidis_CBS748.88,ERR3408909.10082595,85.00,120,13,4,1210,1328,10,125,3e-23,117
Exophiala_dermatitidis_CBS748.88,ERR3408909.10082595,85.00,120,13,4,1210,1328,275,160,3e-23,117
Exophiala_dermatitidis_CBS748.88,ERR3408909.6633595,84.78,92,13,1,1183,1273,167,258,2e-15,91.6
Exophiala_dermatitidis_CBS748.88,ERR3408909.6633595,95.74,47,2,0,1352,1398,47,1,4e-11,76.8
Exophiala_dermatitidis_CBS748.88,ERR3408909.7756308,76.47,153,30,5,1228,1376,151,301,1e-11,78.7
Exophiala_dermatitidis_CBS748.88,ERR3408909.9927763,93.62,47,3,0,1213,1259,47,1,2e-09,71.3
Exophiala_angulospora_CBS482.92_T,ERR3408909.7309624,98.67,150,1,1,211,360,302,154,3e-68,265
Exophiala_angulospora_CBS482.92_T,ERR3408909.5753329,93.28,134,6,3,184,317,131,1,4e-47,195
Exophiala_angulospora_CBS482.92_T,ERR3408909.8539875,96.58,117,3,1,188,304,116,1,2e-46,193
Exophiala_angulospora_CBS482.92_T,ERR3408909.3380961,97.44,78,2,0,190,267,19,96,9e-29,134
Exophiala_angulospora_CBS482.92_T,ERR3408909.3380961,97.44,78,2,0,190,267,172,95,9e-29,134
Exophiala_opportunistica_CBS109811_T,ERR3408909.7309624,98.67,150,1,1,210,359,302,154,3e-68,265
Exophiala_opportunistica_CBS109811_T,ERR3408909.5753329,95.20,125,5,1,192,316,124,1,1e-47,196
Exophiala_opportunistica_CBS109811_T,ERR3408909.8539875,95.73,117,3,2,187,303,115,1,7e-45,187
Exophiala_opportunistica_CBS109811_T,ERR3408909.3380961,95.24,84,2,2,185,266,13,96,3e-28,132
Exophiala_opportunistica_CBS109811_T,ERR3408909.3380961,95.24,84,2,2,185,266,178,95,3e-28,132
Exophiala_salmonis_CBS157.67_T,ERR3408909.7309624,98.67,150,1,1,339,488,302,154,5e-68,265
Exophiala_salmonis_CBS157.67_T,ERR3408909.5753329,94.44,126,5,2,320,445,124,1,2e-46,193
Exophiala_salmonis_CBS157.67_T,ERR3408909.8539875,95.73,117,3,2,316,432,115,1,1e-44,187
Exophiala_salmonis_CBS157.67_T,ERR3408909.8539875,91.11,45,4,0,1,45,257,301,6e-07,62.1
Exophiala_salmonis_CBS157.67_T,ERR3408909.13653066,98.04,102,2,0,672,773,173,274,6e-42,178
Exophiala_salmonis_CBS157.67_T,ERR3408909.6580477,89.34,122,13,0,1,122,4,125,1e-34,154
Exophiala_salmonis_CBS157.67_T,ERR3408909.6580477,89.34,122,13,0,1,122,293,172,1e-34,154
Exophiala_salmonis_CBS157.67_T,ERR3408909.11732454,95.56,90,4,0,673,762,241,152,6e-32,145
Exophiala_salmonis_CBS157.67_T,ERR3408909.3380961,100.00,70,0,0,326,395,27,96,2e-27,130
Exophiala_salmonis_CBS157.67_T,ERR3408909.3380961,100.00,70,0,0,326,395,164,95,2e-27,130
Exophiala_salmonis_CBS157.67_T,ERR3408909.9831034,83.33,126,13,7,1,122,24,145,2e-21,110
Exophiala_salmonis_CBS157.67_T,ERR3408909.12091093,92.86,70,5,0,672,741,230,299,4e-19,102
Exophiala_salmonis_CBS157.67_T,ERR3408909.2634073,98.25,57,1,0,717,773,152,208,1e-18,100
Exophiala_salmonis_CBS157.67_T,ERR3408909.2038096,94.83,58,3,0,65,122,154,211,8e-16,91.6
Exophiala_salmonis_CBS157.67_T,ERR3408909.11147204,100.00,40,0,0,83,122,129,90,8e-11,75.0
Exophiala_aquamarina_CBS119918_T,ERR3408909.7309624,98.67,150,1,1,217,366,302,154,3e-68,265
Exophiala_aquamarina_CBS119918_T,ERR3408909.5753329,94.44,126,5,2,198,323,124,1,2e-46,193
Exophiala_aquamarina_CBS119918_T,ERR3408909.8539875,95.73,117,3,2,194,310,115,1,7e-45,187
Exophiala_aquamarina_CBS119918_T,ERR3408909.3380961,100.00,70,0,0,204,273,27,96,1e-27,130
Exophiala_aquamarina_CBS119918_T,ERR3408909.3380961,100.00,70,0,0,204,273,164,95,1e-27,130
Exophiala_cancerae_CBS120420_T,ERR3408909.7309624,98.67,150,1,1,232,381,302,154,4e-68,265
Exophiala_cancerae_CBS120420_T,ERR3408909.5753329,95.20,125,5,1,214,338,124,1,1e-47,196
Exophiala_cancerae_CBS120420_T,ERR3408909.8539875,95.73,117,3,2,209,325,115,1,8e-45,187
Exophiala_cancerae_CBS120420_T,ERR3408909.3380961,95.24,84,2,2,207,288,13,96,4e-28,132
Exophiala_cancerae_CBS120420_T,ERR3408909.3380961,95.24,84,2,2,207,288,178,95,4e-28,132
Exophiala_cancerae_CBS120420_T,ERR3408909.13653066,98.39,62,1,0,563,624,173,234,2e-21,110
Exophiala_cancerae_CBS120420_T,ERR3408909.11732454,96.72,61,2,0,564,624,241,181,3e-19,102
Exophiala_cancerae_CBS120420_T,ERR3408909.12091093,92.06,63,5,0,562,624,229,291,2e-15,89.8
Exophiala_tremulae_CBS129355,ERR3408909.7309624,98.67,150,1,1,244,393,302,154,4e-68,265
Exophiala_tremulae_CBS129355,ERR3408909.5753329,94.44,126,5,2,225,350,124,1,2e-46,193
Exophiala_tremulae_CBS129355,ERR3408909.8539875,95.73,117,3,2,221,337,115,1,8e-45,187
Exophiala_tremulae_CBS129355,ERR3408909.3380961,91.67,96,7,1,205,300,2,96,4e-28,132
Exophiala_tremulae_CBS129355,ERR3408909.3380961,91.67,96,7,1,205,300,189,95,4e-28,132
Exophiala_tremulae_CBS129355,ERR3408909.13653066,98.04,51,1,0,578,628,173,223,2e-15,89.8
Exophiala_tremulae_CBS129355,ERR3408909.11147204,100.00,40,0,0,1,40,96,57,7e-11,75.0
Exophiala_tremulae_CBS129355,ERR3408909.5809506,100.00,40,0,0,1,40,190,151,7e-11,75.0
Exophiala_tremulae_CBS129355,ERR3408909.9238839,100.00,39,0,0,1,39,272,234,2e-10,73.1
Exophiala_tremulae_CBS129355,ERR3408909.14405275,100.00,38,0,0,1,38,70,107,9e-10,71.3
Exophiala_equina_CBS116009,ERR3408909.7309624,98.67,150,1,1,210,359,302,154,3e-68,265
Exophiala_equina_CBS116009,ERR3408909.5753329,94.44,126,5,2,191,316,124,1,2e-46,193
Exophiala_equina_CBS116009,ERR3408909.8539875,95.73,117,3,2,187,303,115,1,7e-45,187
Exophiala_equina_CBS116009,ERR3408909.3380961,91.67,96,7,1,171,266,2,96,3e-28,132
Exophiala_equina_CBS116009,ERR3408909.3380961,91.67,96,7,1,171,266,189,95,3e-28,132
Exophiala_alcalophila_CBS520.82_T,ERR3408909.7309624,98.67,150,1,1,221,370,302,154,3e-68,265
Exophiala_alcalophila_CBS520.82_T,ERR3408909.5753329,95.20,125,5,1,203,327,124,1,1e-47,196
Exophiala_alcalophila_CBS520.82_T,ERR3408909.8539875,96.43,112,3,1,203,314,111,1,9e-44,183
Exophiala_alcalophila_CBS520.82_T,ERR3408909.3380961,95.35,86,2,2,194,277,11,96,3e-29,135
Exophiala_alcalophila_CBS520.82_T,ERR3408909.3380961,95.35,86,2,2,194,277,180,95,3e-29,135
Exophiala_crusticola_CBS119970_T,ERR3408909.7309624,98.67,150,1,1,226,375,302,154,3e-68,265
Exophiala_crusticola_CBS119970_T,ERR3408909.5753329,95.04,121,5,1,212,332,120,1,2e-45,189
Exophiala_crusticola_CBS119970_T,ERR3408909.8539875,97.22,108,2,1,212,319,107,1,3e-43,182
Exophiala_crusticola_CBS119970_T,ERR3408909.3380961,100.00,70,0,0,213,282,27,96,1e-27,130
Exophiala_crusticola_CBS119970_T,ERR3408909.3380961,100.00,70,0,0,213,282,164,95,1e-27,130
Rhinocladiella_atrovirens_CBS264.49,ERR3408909.7309624,98.00,150,2,1,252,401,302,154,2e-66,259
Rhinocladiella_atrovirens_CBS264.49,ERR3408909.5753329,95.20,125,5,1,234,358,124,1,1e-47,196
Rhinocladiella_atrovirens_CBS264.49,ERR3408909.8539875,96.46,113,3,1,233,345,112,1,3e-44,185
Rhinocladiella_atrovirens_CBS264.49,ERR3408909.3380961,96.30,81,2,1,228,308,17,96,4e-28,132
Rhinocladiella_atrovirens_CBS264.49,ERR3408909.3380961,96.30,81,2,1,228,308,174,95,4e-28,132
Rhinocladiella_atrovirens_CBS264.49,ERR3408909.9238839,100.00,47,0,0,1,47,277,231,8e-15,87.9
Rhinocladiella_atrovirens_CBS264.49,ERR3408909.13653066,97.96,49,1,0,578,626,174,222,3e-14,86.1
Rhinocladiella_atrovirens_CBS264.49,ERR3408909.11147204,100.00,44,0,0,1,44,101,58,4e-13,82.4
Rhinocladiella_atrovirens_CBS264.49,ERR3408909.5809506,100.00,44,0,0,1,44,195,152,4e-13,82.4
Rhinocladiella_atrovirens_CBS264.49,ERR3408909.14405275,100.00,43,0,0,1,43,65,107,1e-12,80.5
Rhinocladiella_basitona_CBS101460_T,ERR3408909.7309624,97.33,150,3,1,211,360,302,154,7e-65,254
Rhinocladiella_basitona_CBS101460_T,ERR3408909.5753329,93.08,130,7,2,188,317,128,1,2e-45,189
Rhinocladiella_basitona_CBS101460_T,ERR3408909.8539875,94.83,116,4,2,189,304,114,1,1e-42,180
Rhinocladiella_basitona_CBS101460_T,ERR3408909.3380961,91.75,97,6,2,172,267,1,96,9e-29,134
Rhinocladiella_basitona_CBS101460_T,ERR3408909.3380961,91.75,97,6,2,172,267,190,95,9e-29,134
Rhinocladiella_phaeophora_CBS496.78_T,ERR3408909.7309624,98.67,150,1,1,219,368,302,154,3e-68,265
Rhinocladiella_phaeophora_CBS496.78_T,ERR3408909.5753329,95.00,120,5,1,206,325,119,1,7e-45,187
Rhinocladiella_phaeophora_CBS496.78_T,ERR3408909.8539875,97.20,107,2,1,206,312,106,1,1e-42,180
Rhinocladiella_phaeophora_CBS496.78_T,ERR3408909.3380961,92.00,100,3,5,177,275,1,96,3e-29,135
Rhinocladiella_phaeophora_CBS496.78_T,ERR3408909.3380961,92.00,100,3,5,177,275,190,95,3e-29,135
Rhinocladiella_aquaspersa_CBS313.73_T,ERR3408909.7309624,98.67,150,1,1,213,362,302,154,4e-68,265
Rhinocladiella_aquaspersa_CBS313.73_T,ERR3408909.5753329,95.00,120,5,1,200,319,119,1,8e-45,187
Rhinocladiella_aquaspersa_CBS313.73_T,ERR3408909.8539875,97.20,107,2,1,200,306,106,1,1e-42,180
Rhinocladiella_aquaspersa_CBS313.73_T,ERR3408909.13653066,95.33,107,2,3,547,650,173,279,1e-38,167
Rhinocladiella_aquaspersa_CBS313.73_T,ERR3408909.3380961,92.00,100,3,5,171,269,1,96,3e-29,135
Rhinocladiella_aquaspersa_CBS313.73_T,ERR3408909.3380961,92.00,100,3,5,171,269,190,95,3e-29,135
Rhinocladiella_aquaspersa_CBS313.73_T,ERR3408909.11732454,92.22,90,4,3,548,634,241,152,7e-26,124
Rhinocladiella_aquaspersa_CBS313.73_T,ERR3408909.2634073,98.39,62,1,0,589,650,152,213,2e-21,110
Rhinocladiella_aquaspersa_CBS313.73_T,ERR3408909.12091093,88.46,78,6,3,539,613,222,299,7e-16,91.6
Rhinocladiella_fasciculata_CBS132.86_T,ERR3408909.7309624,98.00,150,2,1,229,378,302,154,2e-66,259
Rhinocladiella_fasciculata_CBS132.86_T,ERR3408909.5753329,94.40,125,5,2,212,335,124,1,6e-46,191
Rhinocladiella_fasciculata_CBS132.86_T,ERR3408909.8539875,97.20,107,2,1,216,322,106,1,1e-42,180
Rhinocladiella_fasciculata_CBS132.86_T,ERR3408909.3380961,93.88,98,0,5,192,285,1,96,2e-31,143
Rhinocladiella_fasciculata_CBS132.86_T,ERR3408909.3380961,93.88,98,0,5,192,285,190,95,2e-31,143
Rhinocladiella_fasciculata_CBS132.86_T,ERR3408909.9238839,100.00,30,0,0,1,30,260,231,2e-05,56.5
Rhinocladiella_anceps_CBS181.65_T,ERR3408909.7309624,97.99,149,2,1,211,359,302,155,5e-66,257
Rhinocladiella_anceps_CBS181.65_T,ERR3408909.8539875,93.18,132,7,2,173,304,130,1,2e-46,193
Rhinocladiella_anceps_CBS181.65_T,ERR3408909.5753329,95.04,121,5,1,197,317,120,1,2e-45,189
Rhinocladiella_anceps_CBS181.65_T,ERR3408909.3380961,100.00,70,0,0,198,267,27,96,1e-27,130
Rhinocladiella_anceps_CBS181.65_T,ERR3408909.3380961,100.00,70,0,0,198,267,164,95,1e-27,130
Rhinocladiella_mackenziei_CBS367.92,ERR3408909.7309624,98.67,150,1,1,200,349,302,154,4e-68,265
Rhinocladiella_mackenziei_CBS367.92,ERR3408909.5753329,94.57,129,5,2,178,306,127,1,4e-48,198
Rhinocladiella_mackenziei_CBS367.92,ERR3408909.8539875,96.43,112,3,1,182,293,111,1,1e-43,183
Rhinocladiella_mackenziei_CBS367.92,ERR3408909.3380961,100.00,70,0,0,187,256,27,96,1e-27,130
Rhinocladiella_mackenziei_CBS367.92,ERR3408909.3380961,100.00,70,0,0,187,256,164,95,1e-27,130
Rhinocladiella_mackenziei_CBS367.92,ERR3408909.13653066,97.67,43,1,0,566,608,175,217,6e-11,75.0
Veronaea_compacta_CBS268.75_T,ERR3408909.7309624,98.00,150,2,1,233,382,302,154,2e-66,259
Veronaea_compacta_CBS268.75_T,ERR3408909.5753329,94.44,126,5,2,214,339,124,1,2e-46,193
Veronaea_compacta_CBS268.75_T,ERR3408909.8539875,96.43,112,3,1,215,326,111,1,1e-43,183
Veronaea_compacta_CBS268.75_T,ERR3408909.3380961,95.29,85,2,2,207,289,12,96,1e-28,134
Veronaea_compacta_CBS268.75_T,ERR3408909.3380961,95.29,85,2,2,207,289,179,95,1e-28,134
Veronaea_compacta_CBS268.75_T,ERR3408909.11147204,100.00,28,0,0,1,28,84,57,3e-04,52.8
Veronaea_compacta_CBS268.75_T,ERR3408909.5809506,100.00,28,0,0,1,28,178,151,3e-04,52.8
Capronia_pilosella_AFTOL-ID657,ERR3408909.7309624,98.67,150,1,1,311,460,302,154,4e-68,265
Capronia_pilosella_AFTOL-ID657,ERR3408909.8539875,96.55,116,3,1,289,404,115,1,7e-46,191
Capronia_pilosella_AFTOL-ID657,ERR3408909.5753329,94.40,125,6,1,293,417,124,1,7e-46,191
Capronia_pilosella_AFTOL-ID657,ERR3408909.3380961,92.71,96,6,1,273,367,1,96,9e-30,137
Capronia_pilosella_AFTOL-ID657,ERR3408909.3380961,92.71,96,6,1,273,367,190,95,9e-30,137
Capronia_pilosella_AFTOL-ID657,ERR3408909.11147204,96.97,33,0,1,80,112,83,52,9e-05,54.7
Capronia_dactylotricha_DAOM208471_T,ERR3408909.7309624,98.01,151,1,2,213,363,302,154,5e-67,261
Capronia_dactylotricha_DAOM208471_T,ERR3408909.5753329,95.16,124,5,1,196,319,123,1,5e-47,195
Capronia_dactylotricha_DAOM208471_T,ERR3408909.8539875,96.43,112,2,2,196,306,111,1,1e-43,183
Capronia_dactylotricha_DAOM208471_T,ERR3408909.13653066,98.02,101,2,0,558,658,174,274,2e-41,176
Capronia_dactylotricha_DAOM208471_T,ERR3408909.11732454,95.56,90,4,0,558,647,241,152,5e-32,145
Capronia_dactylotricha_DAOM208471_T,ERR3408909.3380961,100.00,70,0,0,200,269,27,96,1e-27,130
Capronia_dactylotricha_DAOM208471_T,ERR3408909.3380961,100.00,70,0,0,200,269,164,95,1e-27,130
Capronia_dactylotricha_DAOM208471_T,ERR3408909.12091093,93.94,66,4,0,561,626,234,299,1e-18,100
Capronia_dactylotricha_DAOM208471_T,ERR3408909.2634073,98.25,57,1,0,602,658,152,208,1e-18,100
Capronia_kleinmondensis_CBS122671_T,ERR3408909.7309624,98.00,150,2,1,238,387,302,154,2e-66,259
Capronia_kleinmondensis_CBS122671_T,ERR3408909.5753329,94.62,130,5,2,215,344,128,1,1e-48,200
Capronia_kleinmondensis_CBS122671_T,ERR3408909.8539875,95.69,116,3,2,216,331,114,1,3e-44,185
Capronia_kleinmondensis_CBS122671_T,ERR3408909.13653066,98.02,101,2,0,564,664,174,274,2e-41,176
Capronia_kleinmondensis_CBS122671_T,ERR3408909.11732454,95.56,90,4,0,564,653,241,152,5e-32,145
Capronia_kleinmondensis_CBS122671_T,ERR3408909.3380961,96.30,81,2,1,214,294,17,96,4e-28,132
Capronia_kleinmondensis_CBS122671_T,ERR3408909.3380961,96.30,81,2,1,214,294,174,95,4e-28,132
Capronia_kleinmondensis_CBS122671_T,ERR3408909.12091093,93.94,66,4,0,567,632,234,299,1e-18,100
Capronia_kleinmondensis_CBS122671_T,ERR3408909.2634073,98.25,57,1,0,608,664,152,208,1e-18,100
Capronia_kleinmondensis_CBS122671_T,ERR3408909.9238839,100.00,33,0,0,1,33,263,231,5e-07,62.1
Capronia_kleinmondensis_CBS122671_T,ERR3408909.11147204,100.00,30,0,0,1,30,87,58,3e-05,56.5
Capronia_kleinmondensis_CBS122671_T,ERR3408909.5809506,100.00,30,0,0,1,30,181,152,3e-05,56.5
Capronia_kleinmondensis_CBS122671_T,ERR3408909.14405275,100.00,29,0,0,1,29,79,107,9e-05,54.7
Capronia_mansonii_CBS101.67_T,ERR3408909.7309624,98.67,150,1,1,224,373,302,154,4e-68,265
Capronia_mansonii_CBS101.67_T,ERR3408909.5753329,94.44,126,5,2,205,330,124,1,2e-46,193
Capronia_mansonii_CBS101.67_T,ERR3408909.8539875,94.40,125,4,3,193,317,122,1,2e-45,189
Capronia_mansonii_CBS101.67_T,ERR3408909.13653066,97.06,102,3,0,567,668,173,274,2e-40,172
Capronia_mansonii_CBS101.67_T,ERR3408909.11732454,96.67,90,3,0,568,657,241,152,1e-33,150
Capronia_mansonii_CBS101.67_T,ERR3408909.3380961,90.91,99,6,3,182,280,1,96,1e-27,130
Capronia_mansonii_CBS101.67_T,ERR3408909.3380961,90.91,99,6,3,182,280,190,95,1e-27,130
Capronia_mansonii_CBS101.67_T,ERR3408909.12091093,94.29,70,4,0,567,636,230,299,7e-21,108
Capronia_mansonii_CBS101.67_T,ERR3408909.2634073,98.25,57,1,0,612,668,152,208,1e-18,100
Capronia_munkii_DAOM216390_T,ERR3408909.7309624,98.67,150,1,1,224,373,302,154,4e-68,265
Capronia_munkii_DAOM216390_T,ERR3408909.5753329,94.44,126,5,2,205,330,124,1,2e-46,193
Capronia_munkii_DAOM216390_T,ERR3408909.8539875,94.40,125,4,3,193,317,122,1,2e-45,189
Capronia_munkii_DAOM216390_T,ERR3408909.13653066,97.06,102,3,0,567,668,173,274,2e-40,172
Capronia_munkii_DAOM216390_T,ERR3408909.11732454,96.67,90,3,0,568,657,241,152,1e-33,150
Capronia_munkii_DAOM216390_T,ERR3408909.3380961,90.91,99,6,3,182,280,1,96,1e-27,130
Capronia_munkii_DAOM216390_T,ERR3408909.3380961,90.91,99,6,3,182,280,190,95,1e-27,130
Capronia_munkii_DAOM216390_T,ERR3408909.12091093,94.29,70,4,0,567,636,230,299,7e-21,108
Capronia_munkii_DAOM216390_T,ERR3408909.2634073,98.25,57,1,0,612,668,152,208,1e-18,100
Capronia_coronata_ATCC56201_T,ERR3408909.7309624,98.67,150,1,1,212,361,302,154,4e-68,265
Capronia_coronata_ATCC56201_T,ERR3408909.5753329,93.23,133,7,2,186,318,131,1,5e-47,195
Capronia_coronata_ATCC56201_T,ERR3408909.8539875,96.55,116,3,1,190,305,115,1,6e-46,191
Capronia_coronata_ATCC56201_T,ERR3408909.13653066,97.06,102,3,0,538,639,173,274,2e-40,172
Capronia_coronata_ATCC56201_T,ERR3408909.11732454,96.67,90,3,0,539,628,241,152,1e-33,150
Capronia_coronata_ATCC56201_T,ERR3408909.3380961,97.44,78,2,0,191,268,19,96,1e-28,134
Capronia_coronata_ATCC56201_T,ERR3408909.3380961,97.44,78,2,0,191,268,172,95,1e-28,134
Capronia_coronata_ATCC56201_T,ERR3408909.12091093,92.50,80,5,1,529,607,220,299,1e-22,113
Capronia_coronata_ATCC56201_T,ERR3408909.2634073,98.25,57,1,0,583,639,152,208,1e-18,100
Capronia_parasitica_CBS123.88,ERR3408909.7309624,98.67,150,1,1,218,367,302,154,3e-68,265
Capronia_parasitica_CBS123.88,ERR3408909.5753329,95.00,120,5,1,205,324,119,1,8e-45,187
Capronia_parasitica_CBS123.88,ERR3408909.8539875,96.40,111,2,2,202,311,110,1,4e-43,182
Capronia_parasitica_CBS123.88,ERR3408909.3380961,97.47,79,1,1,196,274,19,96,1e-28,134
Capronia_parasitica_CBS123.88,ERR3408909.3380961,97.47,79,1,1,196,274,172,95,1e-28,134
Capronia_parasitica_CBS123.88,ERR3408909.13653066,93.18,44,2,1,553,595,166,209,1e-07,63.9
Veronaea_japonica_CBS776.83_T,ERR3408909.7309624,98.67,150,1,1,246,395,302,154,4e-68,265
Veronaea_japonica_CBS776.83_T,ERR3408909.5753329,94.44,126,5,2,227,352,124,1,2e-46,193
Veronaea_japonica_CBS776.83_T,ERR3408909.8539875,96.43,112,3,1,228,339,111,1,1e-43,183
Veronaea_japonica_CBS776.83_T,ERR3408909.3380961,95.29,85,2,2,220,302,12,96,1e-28,134
Veronaea_japonica_CBS776.83_T,ERR3408909.3380961,95.29,85,2,2,220,302,179,95,1e-28,134
Veronaea_japonica_CBS776.83_T,ERR3408909.11147204,100.00,39,0,0,1,39,95,57,2e-10,73.1
Veronaea_japonica_CBS776.83_T,ERR3408909.5809506,100.00,39,0,0,1,39,189,151,2e-10,73.1
Veronaea_japonica_CBS776.83_T,ERR3408909.9238839,100.00,38,0,0,1,38,271,234,8e-10,71.3
Veronaea_japonica_CBS776.83_T,ERR3408909.14405275,100.00,37,0,0,1,37,71,107,3e-09,69.4
Thysanorea_papuana_CBS212.96_T,ERR3408909.7309624,98.67,150,1,1,220,369,302,154,3e-68,265
Thysanorea_papuana_CBS212.96_T,ERR3408909.5753329,92.75,138,6,4,191,326,136,1,1e-47,196
Thysanorea_papuana_CBS212.96_T,ERR3408909.8539875,94.31,123,6,1,191,313,122,1,7e-45,187
Thysanorea_papuana_CBS212.96_T,ERR3408909.3380961,100.00,70,0,0,207,276,27,96,1e-27,130
Thysanorea_papuana_CBS212.96_T,ERR3408909.3380961,100.00,70,0,0,207,276,164,95,1e-27,130
Capronia_acutiseta_ATCC56428_T,ERR3408909.7309624,98.00,150,1,2,214,362,302,154,2e-66,259
Capronia_acutiseta_ATCC56428_T,ERR3408909.5753329,94.40,125,5,2,196,319,124,1,6e-46,191
Capronia_acutiseta_ATCC56428_T,ERR3408909.8539875,94.87,117,3,3,191,306,115,1,1e-42,180
Capronia_acutiseta_ATCC56428_T,ERR3408909.13653066,95.45,110,5,0,529,638,165,274,2e-41,176
Capronia_acutiseta_ATCC56428_T,ERR3408909.11732454,94.44,90,5,0,538,627,241,152,2e-30,139
Capronia_acutiseta_ATCC56428_T,ERR3408909.3380961,94.12,85,2,3,188,269,12,96,2e-26,126
Capronia_acutiseta_ATCC56428_T,ERR3408909.3380961,94.12,85,2,3,188,269,179,95,2e-26,126
Capronia_acutiseta_ATCC56428_T,ERR3408909.12091093,92.96,71,5,0,536,606,229,299,9e-20,104
Capronia_acutiseta_ATCC56428_T,ERR3408909.2634073,96.49,57,2,0,582,638,152,208,5e-17,95.3
Fonsecaea_brasiliensis_CBS119710_T,ERR3408909.7309624,98.67,150,1,1,220,369,302,154,3e-68,265
Fonsecaea_brasiliensis_CBS119710_T,ERR3408909.5753329,95.00,120,5,1,207,326,119,1,7e-45,187
Fonsecaea_brasiliensis_CBS119710_T,ERR3408909.8539875,88.89,153,10,5,162,313,147,1,3e-43,182
Fonsecaea_brasiliensis_CBS119710_T,ERR3408909.3380961,94.19,86,4,1,192,276,11,96,1e-27,130
Fonsecaea_brasiliensis_CBS119710_T,ERR3408909.3380961,94.19,86,4,1,192,276,180,95,1e-27,130
Fonsecaea_pedrosoi_CBS271.37_T,ERR3408909.7309624,98.67,150,1,1,248,397,302,154,4e-68,265
Fonsecaea_pedrosoi_CBS271.37_T,ERR3408909.5753329,95.00,120,5,1,235,354,119,1,8e-45,187
Fonsecaea_pedrosoi_CBS271.37_T,ERR3408909.8539875,97.20,107,2,1,235,341,106,1,1e-42,180
Fonsecaea_pedrosoi_CBS271.37_T,ERR3408909.3380961,94.19,86,4,1,220,304,11,96,1e-27,130
Fonsecaea_pedrosoi_CBS271.37_T,ERR3408909.3380961,94.19,86,4,1,220,304,180,95,1e-27,130
Fonsecaea_pedrosoi_CBS271.37_T,ERR3408909.11732454,96.72,61,2,0,585,645,241,181,3e-19,102
Fonsecaea_pedrosoi_CBS271.37_T,ERR3408909.13653066,95.16,62,3,0,584,645,173,234,4e-18,99.0
Fonsecaea_pedrosoi_CBS271.37_T,ERR3408909.12091093,91.94,62,5,0,584,645,230,291,9e-15,87.9
Fonsecaea_pedrosoi_CBS271.37_T,ERR3408909.5809506,100.00,33,0,0,1,33,181,149,5e-07,62.1
Fonsecaea_pedrosoi_CBS271.37_T,ERR3408909.11147204,100.00,31,0,0,1,31,87,57,7e-06,58.4
Fonsecaea_pedrosoi_CBS271.37_T,ERR3408909.9238839,100.00,30,0,0,1,30,263,234,2e-05,56.5
Fonsecaea_pedrosoi_CBS271.37_T,ERR3408909.14405275,100.00,29,0,0,1,29,79,107,9e-05,54.7
Fonsecaea_multimorphosa_CBS980.96_T,ERR3408909.7309624,98.67,150,1,1,218,367,302,154,3e-68,265
Fonsecaea_multimorphosa_CBS980.96_T,ERR3408909.5753329,95.00,120,5,1,205,324,119,1,7e-45,187
Fonsecaea_multimorphosa_CBS980.96_T,ERR3408909.8539875,97.20,107,2,1,205,311,106,1,1e-42,180
Fonsecaea_multimorphosa_CBS980.96_T,ERR3408909.3380961,94.19,86,4,1,190,274,11,96,1e-27,130
Fonsecaea_multimorphosa_CBS980.96_T,ERR3408909.3380961,94.19,86,4,1,190,274,180,95,1e-27,130
Fonsecaea_minima_CBS125760_T,ERR3408909.7309624,98.67,150,1,1,214,363,302,154,3e-68,265
Fonsecaea_minima_CBS125760_T,ERR3408909.5753329,95.00,120,5,1,201,320,119,1,7e-45,187
Fonsecaea_minima_CBS125760_T,ERR3408909.8539875,97.20,107,2,1,201,307,106,1,1e-42,180
Fonsecaea_minima_CBS125760_T,ERR3408909.3380961,94.19,86,4,1,186,270,11,96,1e-27,130
Fonsecaea_minima_CBS125760_T,ERR3408909.3380961,94.19,86,4,1,186,270,180,95,1e-27,130
Fonsecaea_nubica_CBS269.64_T,ERR3408909.7309624,98.67,150,1,1,225,374,302,154,3e-68,265
Fonsecaea_nubica_CBS269.64_T,ERR3408909.5753329,95.00,120,5,1,212,331,119,1,7e-45,187
Fonsecaea_nubica_CBS269.64_T,ERR3408909.8539875,97.20,107,2,1,212,318,106,1,1e-42,180
Fonsecaea_nubica_CBS269.64_T,ERR3408909.3380961,94.19,86,4,1,197,281,11,96,1e-27,130
Fonsecaea_nubica_CBS269.64_T,ERR3408909.3380961,94.19,86,4,1,197,281,180,95,1e-27,130
Fonsecaea_monophora_CBS269.37_T,ERR3408909.7309624,98.01,151,1,2,225,375,302,154,4e-67,261
Fonsecaea_monophora_CBS269.37_T,ERR3408909.8539875,96.30,108,2,2,212,319,106,1,2e-41,176
Fonsecaea_monophora_CBS269.37_T,ERR3408909.3380961,93.10,87,4,2,197,282,11,96,2e-26,126
Fonsecaea_monophora_CBS269.37_T,ERR3408909.3380961,93.10,87,4,2,197,282,180,95,2e-26,126
Fonsecaea_erecta_CBS125763_T,ERR3408909.7309624,98.67,150,1,1,209,358,302,154,3e-68,265
Fonsecaea_erecta_CBS125763_T,ERR3408909.5753329,95.00,120,5,1,196,315,119,1,7e-45,187
Fonsecaea_erecta_CBS125763_T,ERR3408909.8539875,97.20,107,2,1,196,302,106,1,1e-42,180
Fonsecaea_erecta_CBS125763_T,ERR3408909.3380961,91.84,98,6,2,168,265,1,96,3e-29,135
Fonsecaea_erecta_CBS125763_T,ERR3408909.3380961,91.84,98,6,2,168,265,190,95,3e-29,135
Fonsecaea_pugnacius_CBS139214_T,ERR3408909.7309624,98.67,150,1,1,218,367,302,154,3e-68,265
Fonsecaea_pugnacius_CBS139214_T,ERR3408909.5753329,95.00,120,5,1,205,324,119,1,7e-45,187
Fonsecaea_pugnacius_CBS139214_T,ERR3408909.8539875,97.20,107,2,1,205,311,106,1,1e-42,180
Fonsecaea_pugnacius_CBS139214_T,ERR3408909.3380961,94.19,86,4,1,190,274,11,96,1e-27,130
Fonsecaea_pugnacius_CBS139214_T,ERR3408909.3380961,94.19,86,4,1,190,274,180,95,1e-27,130
Cladophialophora_psammophila_CBS,ERR3408909.7309624,98.67,150,1,1,224,373,302,154,3e-68,265
Cladophialophora_psammophila_CBS,ERR3408909.5753329,91.97,137,7,4,194,330,133,1,2e-45,189
Cladophialophora_psammophila_CBS,ERR3408909.8539875,97.20,107,2,1,211,317,106,1,1e-42,180
Cladophialophora_psammophila_CBS,ERR3408909.3380961,100.00,70,0,0,211,280,27,96,1e-27,130
Cladophialophora_psammophila_CBS,ERR3408909.3380961,100.00,70,0,0,211,280,164,95,1e-27,130
Cladophialophora_devriesii_CBS,ERR3408909.7309624,98.67,150,1,1,220,369,302,154,3e-68,265
Cladophialophora_devriesii_CBS,ERR3408909.5753329,95.00,120,5,1,207,326,119,1,7e-45,187
Cladophialophora_devriesii_CBS,ERR3408909.8539875,90.34,145,8,5,169,313,139,1,2e-44,185
Cladophialophora_devriesii_CBS,ERR3408909.3380961,94.19,86,4,1,192,276,11,96,1e-27,130
Cladophialophora_devriesii_CBS,ERR3408909.3380961,94.19,86,4,1,192,276,180,95,1e-27,130
Cladophialophora_immunda_CBS834.96,ERR3408909.7309624,98.67,150,1,1,222,371,302,154,3e-68,265
Cladophialophora_immunda_CBS834.96,ERR3408909.5753329,95.00,120,5,1,209,328,119,1,7e-45,187
Cladophialophora_immunda_CBS834.96,ERR3408909.8539875,97.20,107,2,1,209,315,106,1,1e-42,180
Cladophialophora_immunda_CBS834.96,ERR3408909.3380961,94.19,86,4,1,194,278,11,96,1e-27,130
Cladophialophora_immunda_CBS834.96,ERR3408909.3380961,94.19,86,4,1,194,278,180,95,1e-27,130
Cladophialophora_arxii_CBS306.94_T,ERR3408909.7309624,98.67,150,1,1,224,373,302,154,3e-68,265
Cladophialophora_arxii_CBS306.94_T,ERR3408909.5753329,95.00,120,5,1,211,330,119,1,7e-45,187
Cladophialophora_arxii_CBS306.94_T,ERR3408909.8539875,97.20,107,2,1,211,317,106,1,1e-42,180
Cladophialophora_arxii_CBS306.94_T,ERR3408909.3380961,94.19,86,5,0,195,280,11,96,3e-28,132
Cladophialophora_arxii_CBS306.94_T,ERR3408909.3380961,94.19,86,5,0,195,280,180,95,3e-28,132
Cladophialophora_bantiana_CBS173.52,ERR3408909.7309624,98.67,150,1,1,218,367,302,154,3e-68,265
Cladophialophora_bantiana_CBS173.52,ERR3408909.5753329,92.65,136,7,3,189,324,133,1,2e-46,193
Cladophialophora_bantiana_CBS173.52,ERR3408909.8539875,97.20,107,2,1,205,311,106,1,1e-42,180
Cladophialophora_bantiana_CBS173.52,ERR3408909.3380961,100.00,70,0,0,205,274,27,96,1e-27,130
Cladophialophora_bantiana_CBS173.52,ERR3408909.3380961,100.00,70,0,0,205,274,164,95,1e-27,130
Cladophialophora_emmonsii_CBS102594,ERR3408909.7309624,98.67,150,1,1,209,358,302,154,3e-68,265
Cladophialophora_emmonsii_CBS102594,ERR3408909.5753329,92.65,136,7,3,180,315,133,1,2e-46,193
Cladophialophora_emmonsii_CBS102594,ERR3408909.8539875,91.79,134,7,4,169,302,130,1,9e-44,183
Cladophialophora_emmonsii_CBS102594,ERR3408909.3380961,100.00,70,0,0,196,265,27,96,1e-27,130
Cladophialophora_emmonsii_CBS102594,ERR3408909.3380961,100.00,70,0,0,196,265,164,95,1e-27,130
Cladophialophora_minourae_CBS556.83,ERR3408909.7309624,95.39,152,4,3,217,368,302,154,2e-60,239
Cladophialophora_minourae_CBS556.83,ERR3408909.5753329,92.97,128,6,3,196,323,125,1,9e-44,183
Cladophialophora_minourae_CBS556.83,ERR3408909.8539875,96.26,107,3,1,204,310,106,1,6e-41,174
Cladophialophora_minourae_CBS556.83,ERR3408909.3380961,100.00,70,0,0,204,273,27,96,1e-27,130
Cladophialophora_minourae_CBS556.83,ERR3408909.3380961,100.00,70,0,0,204,273,164,95,1e-27,130
Cladophialophora_australiensis_CBS112793,ERR3408909.7309624,98.00,150,2,1,219,368,302,154,4e-66,259
Cladophialophora_australiensis_CBS112793,ERR3408909.9905636,95.21,146,6,1,833,977,150,295,3e-57,230
Cladophialophora_australiensis_CBS112793,ERR3408909.10404907,95.14,144,7,0,1328,1471,1,144,1e-56,228
Cladophialophora_australiensis_CBS112793,ERR3408909.11580240,99.17,121,1,0,1351,1471,1,121,7e-54,219
Cladophialophora_australiensis_CBS112793,ERR3408909.13653066,94.89,137,6,1,539,674,166,302,3e-52,213
Cladophialophora_australiensis_CBS112793,ERR3408909.13653066,90.73,151,11,3,755,903,150,1,9e-48,198
Cladophialophora_australiensis_CBS112793,ERR3408909.11068169,92.81,139,10,0,790,928,13,151,7e-49,202
Cladophialophora_australiensis_CBS112793,ERR3408909.3763429,92.81,139,10,0,790,928,13,151,7e-49,202
Cladophialophora_australiensis_CBS112793,ERR3408909.13509532,91.22,148,12,1,1312,1459,4,150,2e-48,200
Cladophialophora_australiensis_CBS112793,ERR3408909.13509532,100.00,35,0,0,1437,1471,297,263,9e-08,65.8
Cladophialophora_australiensis_CBS112793,ERR3408909.2634073,95.97,124,4,1,590,712,152,275,2e-48,200
Cladophialophora_australiensis_CBS112793,ERR3408909.2634073,84.21,152,22,2,739,890,150,1,3e-32,147
Cladophialophora_australiensis_CBS112793,ERR3408909.5753329,93.08,130,7,2,197,325,129,1,5e-45,189
Cladophialophora_australiensis_CBS112793,ERR3408909.3899912,91.24,137,11,1,1132,1268,151,16,7e-44,185
Cladophialophora_australiensis_CBS112793,ERR3408909.10911990,92.86,126,9,0,1346,1471,1,126,3e-43,183
Cladophialophora_australiensis_CBS112793,ERR3408909.8539875,97.20,107,2,1,206,312,106,1,3e-42,180
Cladophialophora_australiensis_CBS112793,ERR3408909.11900061,89.58,144,10,3,1309,1450,292,152,1e-41,178
Cladophialophora_australiensis_CBS112793,ERR3408909.11900061,85.71,147,19,2,1153,1299,9,153,2e-34,154
Cladophialophora_australiensis_CBS112793,ERR3408909.10302225,97.12,104,2,1,1368,1471,148,250,2e-40,174
Cladophialophora_australiensis_CBS112793,ERR3408909.4309902,87.16,148,18,1,751,897,154,301,3e-38,167
Cladophialophora_australiensis_CBS112793,ERR3408909.11471542,86.08,158,17,5,743,897,146,301,9e-38,165
Cladophialophora_australiensis_CBS112793,ERR3408909.4896098,86.84,152,15,5,752,900,151,2,9e-38,165
Cladophialophora_australiensis_CBS112793,ERR3408909.15043103,96.91,97,3,0,1370,1466,151,55,3e-37,163
Cladophialophora_australiensis_CBS112793,ERR3408909.5361088,96.88,96,3,0,1335,1430,246,151,1e-36,161
Cladophialophora_australiensis_CBS112793,ERR3408909.4769005,87.41,143,15,3,1230,1370,142,1,1e-36,161
Cladophialophora_australiensis_CBS112793,ERR3408909.4769005,87.41,143,15,3,1230,1370,143,284,1e-36,161
Cladophialophora_australiensis_CBS112793,ERR3408909.7791196,96.70,91,3,0,810,900,206,296,7e-34,152
Cladophialophora_australiensis_CBS112793,ERR3408909.11732454,95.56,90,4,0,546,635,241,152,1e-31,145
Cladophialophora_australiensis_CBS112793,ERR3408909.3380961,95.24,84,3,1,193,275,13,96,9e-28,132
Cladophialophora_australiensis_CBS112793,ERR3408909.3380961,95.24,84,3,1,193,275,178,95,9e-28,132
Cladophialophora_australiensis_CBS112793,ERR3408909.4567421,95.00,80,4,0,1392,1471,151,72,4e-26,126
Cladophialophora_australiensis_CBS112793,ERR3408909.14685236,86.11,108,12,3,1153,1259,106,1,3e-22,113
Cladophialophora_australiensis_CBS112793,ERR3408909.10082595,83.33,120,15,4,1177,1295,10,125,6e-20,106
Cladophialophora_australiensis_CBS112793,ERR3408909.10082595,83.33,120,15,4,1177,1295,275,160,6e-20,106
Cladophialophora_australiensis_CBS112793,ERR3408909.12091093,90.00,80,7,1,536,614,220,299,7e-19,102
Cladophialophora_australiensis_CBS112793,ERR3408909.6633595,84.78,92,13,1,1150,1240,167,258,2e-15,91.6
Cladophialophora_australiensis_CBS112793,ERR3408909.6633595,95.74,47,2,0,1319,1365,47,1,4e-11,76.8
Cladophialophora_australiensis_CBS112793,ERR3408909.9927763,93.62,47,3,0,1180,1226,47,1,2e-09,71.3
Cladophialophora_potulentorum_CBS112222,ERR3408909.7309624,97.33,150,3,1,218,367,302,154,2e-64,254
Cladophialophora_potulentorum_CBS112222,ERR3408909.11580240,98.58,141,2,0,1353,1493,1,141,2e-63,250
Cladophialophora_potulentorum_CBS112222,ERR3408909.10404907,94.70,151,8,0,1330,1480,1,151,7e-59,235
Cladophialophora_potulentorum_CBS112222,ERR3408909.9905636,95.80,143,6,0,835,977,150,292,9e-58,231
Cladophialophora_potulentorum_CBS112222,ERR3408909.13653066,94.89,137,7,0,540,676,166,302,9e-53,215
Cladophialophora_potulentorum_CBS112222,ERR3408909.13653066,91.45,152,10,3,756,905,151,1,5e-50,206
Cladophialophora_potulentorum_CBS112222,ERR3408909.10911990,92.91,141,10,0,1348,1488,1,141,5e-50,206
Cladophialophora_potulentorum_CBS112222,ERR3408909.11068169,92.81,139,10,0,792,930,13,151,7e-49,202
Cladophialophora_potulentorum_CBS112222,ERR3408909.3763429,92.81,139,10,0,792,930,13,151,7e-49,202
Cladophialophora_potulentorum_CBS112222,ERR3408909.13509532,91.22,148,12,1,1314,1461,4,150,3e-48,200
Cladophialophora_potulentorum_CBS112222,ERR3408909.13509532,97.62,42,1,0,1439,1480,297,256,6e-10,73.1
Cladophialophora_potulentorum_CBS112222,ERR3408909.2634073,95.97,124,4,1,592,714,152,275,3e-48,200
Cladophialophora_potulentorum_CBS112222,ERR3408909.2634073,91.09,101,9,0,792,892,101,1,2e-29,137
Cladophialophora_potulentorum_CBS112222,ERR3408909.5753329,94.44,126,5,2,199,324,124,1,4e-46,193
Cladophialophora_potulentorum_CBS112222,ERR3408909.8539875,95.73,117,3,2,195,311,115,1,2e-44,187
Cladophialophora_potulentorum_CBS112222,ERR3408909.15043103,93.44,122,8,0,1372,1493,151,30,9e-43,182
Cladophialophora_potulentorum_CBS112222,ERR3408909.3899912,90.51,137,12,1,1134,1270,151,16,3e-42,180
Cladophialophora_potulentorum_CBS112222,ERR3408909.3899912,77.85,149,29,4,937,1083,152,298,6e-15,89.8
Cladophialophora_potulentorum_CBS112222,ERR3408909.11900061,89.58,144,10,3,1311,1452,292,152,1e-41,178
Cladophialophora_potulentorum_CBS112222,ERR3408909.11900061,85.03,147,20,2,1155,1301,9,153,9e-33,148
Cladophialophora_potulentorum_CBS112222,ERR3408909.10302225,97.14,105,2,1,1370,1474,148,251,4e-41,176
Cladophialophora_potulentorum_CBS112222,ERR3408909.4309902,87.92,149,15,3,753,899,154,301,6e-40,172
Cladophialophora_potulentorum_CBS112222,ERR3408909.5361088,96.88,96,3,0,1337,1432,246,151,1e-36,161
Cladophialophora_potulentorum_CBS112222,ERR3408909.4567421,95.00,100,5,0,1394,1493,151,52,2e-35,158
Cladophialophora_potulentorum_CBS112222,ERR3408909.4769005,86.71,143,16,3,1232,1372,142,1,6e-35,156
Cladophialophora_potulentorum_CBS112222,ERR3408909.4769005,86.71,143,16,3,1232,1372,143,284,6e-35,156
Cladophialophora_potulentorum_CBS112222,ERR3408909.11471542,84.71,157,21,3,745,899,146,301,2e-34,154
Cladophialophora_potulentorum_CBS112222,ERR3408909.4896098,85.81,148,18,3,757,902,148,2,2e-34,154
Cladophialophora_potulentorum_CBS112222,ERR3408909.7791196,85.81,148,16,5,758,902,151,296,7e-34,152
Cladophialophora_potulentorum_CBS112222,ERR3408909.11732454,95.56,90,4,0,548,637,241,152,1e-31,145
Cladophialophora_potulentorum_CBS112222,ERR3408909.3380961,100.00,70,0,0,205,274,27,96,3e-27,130
Cladophialophora_potulentorum_CBS112222,ERR3408909.3380961,100.00,70,0,0,205,274,164,95,3e-27,130
Cladophialophora_potulentorum_CBS112222,ERR3408909.12091093,92.41,79,6,0,538,616,221,299,3e-22,113
Cladophialophora_potulentorum_CBS112222,ERR3408909.10082595,84.17,120,14,4,1179,1297,10,125,1e-21,111
Cladophialophora_potulentorum_CBS112222,ERR3408909.10082595,84.17,120,14,4,1179,1297,275,160,1e-21,111
Cladophialophora_potulentorum_CBS112222,ERR3408909.14685236,85.05,107,15,1,1155,1261,106,1,2e-20,108
Cladophialophora_potulentorum_CBS112222,ERR3408909.6633595,84.78,92,13,1,1152,1242,167,258,2e-15,91.6
Cladophialophora_potulentorum_CBS112222,ERR3408909.6633595,95.74,47,2,0,1321,1367,47,1,4e-11,76.8
Cladophialophora_potulentorum_CBS112222,ERR3408909.9927763,91.49,47,4,0,1182,1228,47,1,1e-07,65.8
Cladophialophora_matsushimae_CMRP1198,ERR3408909.7309624,97.33,150,3,1,222,371,302,154,6e-65,254
Cladophialophora_matsushimae_CMRP1198,ERR3408909.8539875,96.58,117,2,2,199,315,115,1,1e-46,193
Cladophialophora_matsushimae_CMRP1198,ERR3408909.5753329,95.04,121,5,1,208,328,120,1,2e-45,189
Cladophialophora_matsushimae_CMRP1198,ERR3408909.3380961,97.47,79,1,1,200,278,19,96,8e-29,134
Cladophialophora_matsushimae_CMRP1198,ERR3408909.3380961,97.47,79,1,1,200,278,172,95,8e-29,134
Cladophialophora_mycetomatis_CBS122637,ERR3408909.7309624,98.00,150,2,1,207,356,302,154,1e-66,259
Cladophialophora_mycetomatis_CBS122637,ERR3408909.8539875,96.58,117,2,2,184,300,115,1,1e-46,193
Cladophialophora_mycetomatis_CBS122637,ERR3408909.5753329,95.04,121,5,1,193,313,120,1,2e-45,189
Cladophialophora_mycetomatis_CBS122637,ERR3408909.3380961,97.47,79,1,1,185,263,19,96,9e-29,134
Cladophialophora_mycetomatis_CBS122637,ERR3408909.3380961,97.47,79,1,1,185,263,172,95,9e-29,134
Cladophialophora_chaetospira_CBS127573,ERR3408909.7309624,98.65,148,1,1,615,762,300,154,7e-67,261
Cladophialophora_chaetospira_CBS127573,ERR3408909.5753329,93.39,121,7,1,599,719,120,1,7e-42,178
Cladophialophora_chaetospira_CBS127573,ERR3408909.8539875,95.37,108,4,1,599,706,107,1,1e-39,171
Cladophialophora_chaetospira_CBS127573,ERR3408909.3380961,97.14,70,2,0,600,669,27,96,5e-24,119
Cladophialophora_chaetospira_CBS127573,ERR3408909.3380961,97.14,70,2,0,600,669,164,95,5e-24,119
Cladophialophora_chaetospira_CBS127573,ERR3408909.11147204,100.00,32,0,0,379,410,88,57,3e-06,60.2
Cladophialophora_chaetospira_CBS127573,ERR3408909.5809506,100.00,32,0,0,379,410,182,151,3e-06,60.2
Cladophialophora_chaetospira_CBS127573,ERR3408909.9238839,100.00,31,0,0,379,409,264,234,1e-05,58.4
Cladophialophora_chaetospira_CBS127573,ERR3408909.14405275,100.00,30,0,0,379,408,78,107,4e-05,56.5
Cladophialophora_boppii_CBS126.86_T,ERR3408909.7309624,98.67,150,1,1,215,364,302,154,3e-68,265
Cladophialophora_boppii_CBS126.86_T,ERR3408909.5753329,95.04,121,5,1,201,321,120,1,2e-45,189
Cladophialophora_boppii_CBS126.86_T,ERR3408909.8539875,97.22,108,2,1,201,308,107,1,3e-43,182
Cladophialophora_boppii_CBS126.86_T,ERR3408909.3380961,100.00,70,0,0,202,271,27,96,1e-27,130
Cladophialophora_boppii_CBS126.86_T,ERR3408909.3380961,100.00,70,0,0,202,271,164,95,1e-27,130
Cladophialophora_abundans_CBS126736,ERR3408909.7309624,95.33,150,6,1,152,301,302,154,6e-60,237
Cladophialophora_abundans_CBS126736,ERR3408909.5753329,94.21,121,6,1,138,258,120,1,8e-44,183
Cladophialophora_abundans_CBS126736,ERR3408909.8539875,96.30,108,3,1,138,245,107,1,1e-41,176
Cladophialophora_abundans_CBS126736,ERR3408909.3380961,100.00,70,0,0,139,208,27,96,1e-27,130
Cladophialophora_abundans_CBS126736,ERR3408909.3380961,100.00,70,0,0,139,208,164,95,1e-27,130
Capronia_semi-immersa_CBS102234,ERR3408909.7309624,96.67,150,4,1,214,363,302,154,3e-63,248
Capronia_semi-immersa_CBS102234,ERR3408909.5753329,92.97,128,6,3,193,320,125,1,9e-44,183
Capronia_semi-immersa_CBS102234,ERR3408909.8539875,96.26,107,3,1,201,307,106,1,5e-41,174
Capronia_semi-immersa_CBS102234,ERR3408909.3380961,100.00,70,0,0,201,270,27,96,1e-27,130
Capronia_semi-immersa_CBS102234,ERR3408909.3380961,100.00,70,0,0,201,270,164,95,1e-27,130
Phialophora_americana_CBS400.67,ERR3408909.7309624,96.67,150,4,1,216,365,302,154,9e-63,248
Phialophora_americana_CBS400.67,ERR3408909.9905636,95.10,143,7,0,827,969,150,292,4e-56,226
Phialophora_americana_CBS400.67,ERR3408909.13653066,96.15,130,5,0,539,668,173,302,3e-52,213
Phialophora_americana_CBS400.67,ERR3408909.13653066,89.47,152,11,4,749,897,150,1,2e-44,187
Phialophora_americana_CBS400.67,ERR3408909.2634073,96.06,127,4,1,584,709,152,278,5e-50,206
Phialophora_americana_CBS400.67,ERR3408909.2634073,84.87,152,21,2,733,884,150,1,7e-34,152
Phialophora_americana_CBS400.67,ERR3408909.11068169,92.81,139,10,0,784,922,13,151,7e-49,202
Phialophora_americana_CBS400.67,ERR3408909.3763429,92.81,139,10,0,784,922,13,151,7e-49,202
Phialophora_americana_CBS400.67,ERR3408909.3899912,92.70,137,9,1,1126,1262,151,16,3e-47,196
Phialophora_americana_CBS400.67,ERR3408909.3899912,94.34,53,3,0,929,981,152,204,9e-13,82.4
Phialophora_americana_CBS400.67,ERR3408909.10404907,94.35,124,7,0,1322,1445,1,124,1e-45,191
Phialophora_americana_CBS400.67,ERR3408909.13509532,90.71,140,12,1,1306,1445,4,142,7e-44,185
Phialophora_americana_CBS400.67,ERR3408909.11900061,90.28,144,9,3,1303,1444,292,152,2e-43,183
Phialophora_americana_CBS400.67,ERR3408909.11900061,84.35,147,21,2,1147,1293,9,153,4e-31,143
Phialophora_americana_CBS400.67,ERR3408909.5753329,92.97,128,6,3,195,322,125,1,2e-43,183
Phialophora_americana_CBS400.67,ERR3408909.11580240,99.01,101,1,0,1345,1445,1,101,9e-43,182
Phialophora_americana_CBS400.67,ERR3408909.8539875,96.26,107,3,1,203,309,106,1,1e-40,174
Phialophora_americana_CBS400.67,ERR3408909.5361088,96.88,96,3,0,1329,1424,246,151,1e-36,161
Phialophora_americana_CBS400.67,ERR3408909.4769005,87.41,143,15,3,1224,1364,142,1,1e-36,161
Phialophora_americana_CBS400.67,ERR3408909.4769005,87.41,143,15,3,1224,1364,143,284,1e-36,161
Phialophora_americana_CBS400.67,ERR3408909.11471542,85.44,158,18,5,737,891,146,301,4e-36,159
Phialophora_americana_CBS400.67,ERR3408909.4896098,86.18,152,16,5,746,894,151,2,4e-36,159
Phialophora_americana_CBS400.67,ERR3408909.4309902,85.81,148,20,1,745,891,154,301,5e-35,156
Phialophora_americana_CBS400.67,ERR3408909.7791196,96.70,91,3,0,804,894,206,296,7e-34,152
Phialophora_americana_CBS400.67,ERR3408909.10302225,96.43,84,2,1,1362,1445,148,230,2e-29,137
Phialophora_americana_CBS400.67,ERR3408909.15043103,96.34,82,3,0,1364,1445,151,70,7e-29,135
Phialophora_americana_CBS400.67,ERR3408909.3380961,100.00,70,0,0,203,272,27,96,3e-27,130
Phialophora_americana_CBS400.67,ERR3408909.3380961,100.00,70,0,0,203,272,164,95,3e-27,130
Phialophora_americana_CBS400.67,ERR3408909.14685236,86.92,107,13,1,1147,1253,106,1,7e-24,119
Phialophora_americana_CBS400.67,ERR3408909.10082595,85.00,120,13,4,1171,1289,10,125,3e-23,117
Phialophora_americana_CBS400.67,ERR3408909.10082595,85.00,120,13,4,1171,1289,275,160,3e-23,117
Phialophora_americana_CBS400.67,ERR3408909.920915,89.13,92,10,0,874,965,299,208,9e-23,115
Phialophora_americana_CBS400.67,ERR3408909.6633595,84.78,92,13,1,1144,1234,167,258,2e-15,91.6
Phialophora_americana_CBS400.67,ERR3408909.6633595,95.74,47,2,0,1313,1359,47,1,4e-11,76.8
Phialophora_americana_CBS400.67,ERR3408909.4567421,93.33,60,4,0,1386,1445,151,92,6e-15,89.8
Phialophora_americana_CBS400.67,ERR3408909.7756308,75.97,154,29,7,1189,1337,151,301,6e-10,73.1
Phialophora_americana_CBS400.67,ERR3408909.9927763,93.62,47,3,0,1174,1220,47,1,2e-09,71.3
Phialophora_verrucosa_CBS140325_T,ERR3408909.7309624,96.67,150,4,1,220,369,302,154,3e-63,248
Phialophora_verrucosa_CBS140325_T,ERR3408909.5753329,92.97,128,6,3,199,326,125,1,1e-43,183
Phialophora_verrucosa_CBS140325_T,ERR3408909.8539875,96.26,107,3,1,207,313,106,1,6e-41,174
Phialophora_verrucosa_CBS140325_T,ERR3408909.3380961,100.00,70,0,0,207,276,27,96,1e-27,130
Phialophora_verrucosa_CBS140325_T,ERR3408909.3380961,100.00,70,0,0,207,276,164,95,1e-27,130
Cladophialophora_samoensis_CBS259.83_T,ERR3408909.7309624,96.67,150,4,1,220,369,302,154,3e-63,248
Cladophialophora_samoensis_CBS259.83_T,ERR3408909.5753329,95.00,120,5,1,207,326,119,1,7e-45,187
Cladophialophora_samoensis_CBS259.83_T,ERR3408909.8539875,97.20,107,2,1,207,313,106,1,1e-42,180
Cladophialophora_samoensis_CBS259.83_T,ERR3408909.3380961,100.00,70,0,0,207,276,27,96,1e-27,130
Cladophialophora_samoensis_CBS259.83_T,ERR3408909.3380961,100.00,70,0,0,207,276,164,95,1e-27,130
Cladophialophora_carrionii_CBS260.83,ERR3408909.7309624,98.00,150,2,1,236,385,302,154,2e-66,259
Cladophialophora_carrionii_CBS260.83,ERR3408909.5753329,95.00,120,5,1,223,342,119,1,8e-45,187
Cladophialophora_carrionii_CBS260.83,ERR3408909.8539875,97.20,107,2,1,223,329,106,1,1e-42,180
Cladophialophora_carrionii_CBS260.83,ERR3408909.3380961,100.00,70,0,0,223,292,27,96,1e-27,130
Cladophialophora_carrionii_CBS260.83,ERR3408909.3380961,100.00,70,0,0,223,292,164,95,1e-27,130
Exophiala_palmae_UPCB86822_T,ERR3408909.7309624,98.67,150,1,1,179,328,302,154,3e-68,265
Exophiala_palmae_UPCB86822_T,ERR3408909.5753329,94.44,126,5,2,160,285,124,1,1e-46,193
Exophiala_palmae_UPCB86822_T,ERR3408909.8539875,91.49,141,7,5,132,272,136,1,2e-45,189
Exophiala_palmae_UPCB86822_T,ERR3408909.3380961,91.84,98,4,4,139,235,2,96,9e-29,134
Exophiala_palmae_UPCB86822_T,ERR3408909.3380961,91.84,98,4,4,139,235,189,95,9e-29,134
Cladophialophora_yegresii_CBS114405_T,ERR3408909.7309624,98.00,150,2,1,221,370,302,154,1e-66,259
Cladophialophora_yegresii_CBS114405_T,ERR3408909.5753329,95.00,120,5,1,208,327,119,1,7e-45,187
Cladophialophora_yegresii_CBS114405_T,ERR3408909.8539875,97.20,107,2,1,208,314,106,1,1e-42,180
Cladophialophora_yegresii_CBS114405_T,ERR3408909.3380961,100.00,70,0,0,208,277,27,96,1e-27,130
Cladophialophora_yegresii_CBS114405_T,ERR3408909.3380961,100.00,70,0,0,208,277,164,95,1e-27,130
Knufia_epidermidis_CBS120353_T,ERR3408909.7309624,95.30,149,6,1,219,367,302,155,2e-59,235
Knufia_epidermidis_CBS120353_T,ERR3408909.5753329,92.70,137,7,3,191,325,136,1,4e-47,195
Knufia_epidermidis_CBS120353_T,ERR3408909.8539875,91.37,139,7,5,178,312,138,1,2e-44,185
Knufia_epidermidis_CBS120353_T,ERR3408909.3380961,100.00,70,0,0,206,275,27,96,1e-27,130
Knufia_epidermidis_CBS120353_T,ERR3408909.3380961,100.00,70,0,0,206,275,164,95,1e-27,130
Arthrocladium_fulminans_CBS136243_T,ERR3408909.7309624,95.97,149,5,1,214,362,302,155,5e-61,241
Arthrocladium_fulminans_CBS136243_T,ERR3408909.5753329,93.13,131,7,2,190,320,129,1,6e-46,191
Arthrocladium_fulminans_CBS136243_T,ERR3408909.8539875,96.30,108,3,1,200,307,107,1,2e-41,176
Arthrocladium_fulminans_CBS136243_T,ERR3408909.3380961,100.00,70,0,0,201,270,27,96,1e-27,130
Arthrocladium_fulminans_CBS136243_T,ERR3408909.3380961,100.00,70,0,0,201,270,164,95,1e-27,130
Anthopsis_deltoidea_CBS263.77_T,ERR3408909.7309624,97.32,149,3,1,223,370,302,154,2e-64,252
Anthopsis_deltoidea_CBS263.77_T,ERR3408909.5753329,90.44,136,10,3,194,327,135,1,1e-41,176
Anthopsis_deltoidea_CBS263.77_T,ERR3408909.8539875,96.23,106,3,1,210,314,106,1,2e-40,172
Anthopsis_deltoidea_CBS263.77_T,ERR3408909.9415911,89.29,112,10,2,270,380,1,111,2e-30,139
Anthopsis_deltoidea_CBS263.77_T,ERR3408909.9415911,89.29,112,10,2,270,380,246,136,2e-30,139
Anthopsis_deltoidea_CBS263.77_T,ERR3408909.3380961,100.00,70,0,0,210,279,27,96,1e-27,130
Anthopsis_deltoidea_CBS263.77_T,ERR3408909.3380961,100.00,70,0,0,210,279,164,95,1e-27,130
Cyphellophora_laciniata_CBS190.61_T,ERR3408909.7309624,95.97,149,5,1,308,455,302,154,7e-61,241
Cyphellophora_laciniata_CBS190.61_T,ERR3408909.5753329,94.35,124,6,1,290,412,124,1,3e-45,189
Cyphellophora_laciniata_CBS190.61_T,ERR3408909.8539875,94.96,119,4,2,282,399,118,1,3e-44,185
Cyphellophora_laciniata_CBS190.61_T,ERR3408909.13653066,98.04,102,2,0,634,735,173,274,6e-42,178
Cyphellophora_laciniata_CBS190.61_T,ERR3408909.11732454,97.78,90,2,0,635,724,241,152,3e-35,156
Cyphellophora_laciniata_CBS190.61_T,ERR3408909.11147204,100.00,72,0,0,29,100,129,58,1e-28,134
Cyphellophora_laciniata_CBS190.61_T,ERR3408909.3380961,100.00,70,0,0,295,364,27,96,2e-27,130
Cyphellophora_laciniata_CBS190.61_T,ERR3408909.3380961,100.00,70,0,0,295,364,164,95,2e-27,130
Cyphellophora_laciniata_CBS190.61_T,ERR3408909.12091093,92.59,81,5,1,623,703,220,299,5e-23,115
Cyphellophora_laciniata_CBS190.61_T,ERR3408909.9238839,100.00,61,0,0,43,103,291,231,2e-22,113
Cyphellophora_laciniata_CBS190.61_T,ERR3408909.9238839,100.00,33,0,0,43,75,119,151,6e-07,62.1
Cyphellophora_laciniata_CBS190.61_T,ERR3408909.2038096,95.52,67,3,0,11,77,154,220,8e-21,108
Cyphellophora_laciniata_CBS190.61_T,ERR3408909.6580477,87.78,90,11,0,1,90,58,147,3e-20,106
Cyphellophora_laciniata_CBS190.61_T,ERR3408909.6580477,87.78,90,11,0,1,90,239,150,3e-20,106
Cyphellophora_laciniata_CBS190.61_T,ERR3408909.5809506,96.83,63,2,0,38,100,214,152,3e-20,106
Cyphellophora_laciniata_CBS190.61_T,ERR3408909.14405275,96.77,62,2,0,38,99,46,107,1e-19,104
Cyphellophora_laciniata_CBS190.61_T,ERR3408909.2634073,96.49,57,2,0,679,735,152,208,6e-17,95.3
Cyphellophora_laciniata_CBS190.61_T,ERR3408909.9831034,100.00,47,0,0,28,74,105,151,1e-14,87.9
Cyphellophora_suttonii_CBS449.91,ERR3408909.7309624,95.97,149,5,1,211,358,302,154,5e-61,241
Cyphellophora_suttonii_CBS449.91,ERR3408909.5753329,94.35,124,6,1,193,315,124,1,2e-45,189
Cyphellophora_suttonii_CBS449.91,ERR3408909.8539875,92.37,131,8,2,173,302,130,1,3e-44,185
Cyphellophora_suttonii_CBS449.91,ERR3408909.3380961,92.71,96,7,0,172,267,1,96,2e-30,139
Cyphellophora_suttonii_CBS449.91,ERR3408909.3380961,92.71,96,7,0,172,267,190,95,2e-30,139
Cyphellophora_pauciseptata_CBS284.85_T,ERR3408909.7309624,95.97,149,5,1,222,369,302,154,5e-61,241
Cyphellophora_pauciseptata_CBS284.85_T,ERR3408909.5753329,93.55,124,7,1,204,326,124,1,9e-44,183
Cyphellophora_pauciseptata_CBS284.85_T,ERR3408909.8539875,91.60,131,9,2,184,313,130,1,1e-42,180
Cyphellophora_pauciseptata_CBS284.85_T,ERR3408909.3380961,93.75,96,6,0,183,278,1,96,4e-32,145
Cyphellophora_pauciseptata_CBS284.85_T,ERR3408909.3380961,93.75,96,6,0,183,278,190,95,4e-32,145
Cyphellophora_pluriseptata_CBS286.85_T,ERR3408909.7309624,95.97,149,5,1,227,374,302,154,5e-61,241
Cyphellophora_pluriseptata_CBS286.85_T,ERR3408909.5753329,93.55,124,7,1,209,331,124,1,9e-44,183
Cyphellophora_pluriseptata_CBS286.85_T,ERR3408909.8539875,94.02,117,5,2,203,318,116,1,2e-41,176
Cyphellophora_pluriseptata_CBS286.85_T,ERR3408909.3380961,98.57,70,1,0,214,283,27,96,6e-26,124
Cyphellophora_pluriseptata_CBS286.85_T,ERR3408909.3380961,98.57,70,1,0,214,283,164,95,6e-26,124
Phialophora_europaea_CBS101466,ERR3408909.7309624,96.64,149,4,1,217,364,302,154,1e-62,246
Phialophora_europaea_CBS101466,ERR3408909.8539875,91.73,133,7,3,177,308,130,1,3e-43,182
Phialophora_europaea_CBS101466,ERR3408909.5753329,94.12,119,6,1,204,321,119,1,1e-42,180
Phialophora_europaea_CBS101466,ERR3408909.3380961,100.00,75,0,0,199,273,22,96,2e-30,139
Phialophora_europaea_CBS101466,ERR3408909.3380961,100.00,75,0,0,199,273,169,95,2e-30,139
Phialophora_ambigua_CBS235.93,ERR3408909.7309624,96.64,149,4,1,214,361,302,154,1e-62,246
Phialophora_ambigua_CBS235.93,ERR3408909.8539875,93.13,131,7,2,176,305,130,1,5e-46,191
Phialophora_ambigua_CBS235.93,ERR3408909.5753329,94.35,124,6,1,196,318,124,1,2e-45,189
Phialophora_ambigua_CBS235.93,ERR3408909.3380961,97.44,78,2,0,193,270,19,96,9e-29,134
Phialophora_ambigua_CBS235.93,ERR3408909.3380961,97.44,78,2,0,193,270,172,95,9e-29,134
Cladophialophora_modesta_CBS985.96_T,ERR3408909.7309624,98.00,150,2,1,211,360,302,154,2e-66,259
Cladophialophora_modesta_CBS985.96_T,ERR3408909.5753329,94.40,125,6,1,193,317,124,1,6e-46,191
Cladophialophora_modesta_CBS985.96_T,ERR3408909.8539875,95.54,112,4,1,193,304,111,1,5e-42,178
Cladophialophora_modesta_CBS985.96_T,ERR3408909.13653066,94.55,110,5,1,511,619,165,274,3e-39,169
Cladophialophora_modesta_CBS985.96_T,ERR3408909.11732454,100.00,90,0,0,519,608,241,152,1e-38,167
Cladophialophora_modesta_CBS985.96_T,ERR3408909.3380961,92.93,99,2,4,171,267,1,96,2e-30,139
Cladophialophora_modesta_CBS985.96_T,ERR3408909.3380961,92.93,99,2,4,171,267,190,95,2e-30,139
Cladophialophora_modesta_CBS985.96_T,ERR3408909.12091093,95.71,70,3,0,518,587,230,299,1e-22,113
Cladophialophora_modesta_CBS985.96_T,ERR3408909.2634073,98.25,57,1,0,563,619,152,208,1e-18,100
Cyphellophora_fusarioides_MUCL44033_T,ERR3408909.7309624,95.30,149,6,1,210,357,302,154,2e-59,235
Cyphellophora_fusarioides_MUCL44033_T,ERR3408909.5753329,93.55,124,7,1,192,314,124,1,9e-44,183
Cyphellophora_fusarioides_MUCL44033_T,ERR3408909.8539875,91.67,132,8,3,171,301,130,1,1e-42,180
Cyphellophora_fusarioides_MUCL44033_T,ERR3408909.9415911,90.18,112,9,2,257,367,1,111,4e-32,145
Cyphellophora_fusarioides_MUCL44033_T,ERR3408909.9415911,90.18,112,9,2,257,367,246,136,4e-32,145
Cyphellophora_fusarioides_MUCL44033_T,ERR3408909.3380961,91.75,97,7,1,170,266,1,96,9e-29,134
Cyphellophora_fusarioides_MUCL44033_T,ERR3408909.3380961,91.75,97,7,1,170,266,190,95,9e-29,134
