Exophiala_nigra_CBS535.94_T,SRR3108818.9482,89.62,106,7,3,285,390,1,102,3e-30,132
Exophiala_nigra_CBS535.94_T,SRR3108818.19282,88.89,90,9,1,285,374,3,91,1e-23,110
Exophiala_nigra_CBS535.94_T,SRR3108818.5054,87.06,85,10,1,285,369,1,84,3e-19,95.3
Exophiala_spinifera_CBS899.68_T,SRR3108818.9482,93.10,87,5,1,284,370,3,88,1e-28,126
Exophiala_spinifera_CBS899.68_T,SRR3108818.19282,88.64,88,9,1,284,371,5,91,1e-22,106
Exophiala_spinifera_CBS899.68_T,SRR3108818.5054,86.75,83,10,1,284,366,3,84,4e-18,91.6
Exophiala_exophialae_CBS668.76_T,SRR3108818.9482,93.10,87,5,1,285,371,3,88,1e-28,126
Exophiala_exophialae_CBS668.76_T,SRR3108818.19282,88.64,88,9,1,285,372,5,91,1e-22,106
Exophiala_exophialae_CBS668.76_T,SRR3108818.5054,86.75,83,10,1,285,367,3,84,4e-18,91.6
Exophiala_polymorpha_CBS138920_T,SRR3108818.9482,93.10,87,5,1,387,473,3,88,1e-28,126
Exophiala_polymorpha_CBS138920_T,SRR3108818.9482,98.00,50,1,0,645,694,314,265,7e-17,87.9
Exophiala_polymorpha_CBS138920_T,SRR3108818.19282,88.64,88,9,1,387,474,5,91,2e-22,106
Exophiala_polymorpha_CBS138920_T,SRR3108818.19282,92.96,71,3,1,624,694,331,263,2e-21,102
Exophiala_polymorpha_CBS138920_T,SRR3108818.5054,100.00,51,0,0,644,694,315,265,4e-19,95.3
Exophiala_polymorpha_CBS138920_T,SRR3108818.5054,86.75,83,10,1,387,469,3,84,5e-18,91.6
Exophiala_polymorpha_CBS138920_T,SRR3108818.17873,98.11,53,1,0,642,694,318,266,1e-18,93.5
Exophiala_polymorpha_CBS138920_T,SRR3108818.17356,98.11,53,1,0,642,694,313,261,1e-18,93.5
Exophiala_polymorpha_CBS138920_T,SRR3108818.5336,98.11,53,1,0,642,694,317,265,1e-18,93.5
Exophiala_polymorpha_CBS138920_T,SRR3108818.15376,94.00,50,3,0,645,694,314,265,1e-13,76.8
Exophiala_polymorpha_CBS138920_T,SRR3108818.13692,94.00,50,3,0,645,694,313,264,1e-13,76.8
Exophiala_polymorpha_CBS138920_T,SRR3108818.13107,94.00,50,3,0,645,694,316,267,1e-13,76.8
Exophiala_polymorpha_CBS138920_T,SRR3108818.15007,93.88,49,3,0,646,694,311,263,5e-13,75.0
Exophiala_polymorpha_CBS138920_T,SRR3108818.3138,93.88,49,3,0,646,694,311,263,5e-13,75.0
Exophiala_polymorpha_CBS138920_T,SRR3108818.15667,95.00,40,2,0,655,694,303,264,1e-09,63.9
Exophiala_polymorpha_CBS138920_T,SRR3108818.9512,95.00,40,2,0,655,694,302,263,1e-09,63.9
Exophiala_polymorpha_CBS138920_T,SRR3108818.8058,88.00,50,6,0,645,694,316,267,2e-08,60.2
Exophiala_oligosperma_CBS725.88_T,SRR3108818.9482,93.10,87,5,1,297,383,3,88,1e-28,126
Exophiala_oligosperma_CBS725.88_T,SRR3108818.19282,88.64,88,9,1,297,384,5,91,2e-22,106
Exophiala_oligosperma_CBS725.88_T,SRR3108818.5054,86.75,83,10,1,297,379,3,84,4e-18,91.6
Exophiala_jeanselmei_CBS507.90_T,SRR3108818.9482,93.10,87,5,1,289,375,3,88,1e-28,126
Exophiala_jeanselmei_CBS507.90_T,SRR3108818.9482,98.28,58,1,0,547,604,314,257,2e-21,102
Exophiala_jeanselmei_CBS507.90_T,SRR3108818.19282,95.00,80,1,3,526,604,332,255,2e-27,122
Exophiala_jeanselmei_CBS507.90_T,SRR3108818.19282,88.64,88,9,1,289,376,5,91,2e-22,106
Exophiala_jeanselmei_CBS507.90_T,SRR3108818.17356,93.59,78,3,2,528,604,329,253,3e-25,115
Exophiala_jeanselmei_CBS507.90_T,SRR3108818.17873,98.41,63,1,0,542,604,320,258,4e-24,111
Exophiala_jeanselmei_CBS507.90_T,SRR3108818.5054,100.00,59,0,0,546,604,315,257,1e-23,110
Exophiala_jeanselmei_CBS507.90_T,SRR3108818.5054,86.75,83,10,1,289,371,3,84,5e-18,91.6
Exophiala_jeanselmei_CBS507.90_T,SRR3108818.5336,98.36,61,1,0,544,604,317,257,5e-23,108
Exophiala_jeanselmei_CBS507.90_T,SRR3108818.13107,91.30,69,5,1,536,604,326,259,1e-18,93.5
Exophiala_jeanselmei_CBS507.90_T,SRR3108818.15376,94.83,58,3,0,547,604,314,257,5e-18,91.6
Exophiala_jeanselmei_CBS507.90_T,SRR3108818.13692,94.83,58,3,0,547,604,313,256,5e-18,91.6
Exophiala_jeanselmei_CBS507.90_T,SRR3108818.15007,94.74,57,3,0,548,604,311,255,2e-17,89.8
Exophiala_jeanselmei_CBS507.90_T,SRR3108818.3138,94.74,57,3,0,548,604,311,255,2e-17,89.8
Exophiala_jeanselmei_CBS507.90_T,SRR3108818.15667,95.83,48,2,0,557,604,303,256,4e-14,78.7
Exophiala_jeanselmei_CBS507.90_T,SRR3108818.8058,89.66,58,6,0,547,604,316,259,5e-13,75.0
Exophiala_jeanselmei_CBS507.90_T,SRR3108818.9512,93.75,48,3,0,557,604,302,255,2e-12,73.1
Exophiala_jeanselmei_CBS507.90_T,SRR3108818.8202,87.93,58,7,0,547,604,309,252,2e-11,69.4
Exophiala_jeanselmei_CBS507.90_T,SRR3108818.16949,97.44,39,1,0,566,604,290,252,8e-11,67.6
Exophiala_jeanselmei_CBS507.90_T,SRR3108818.13217,97.44,39,1,0,566,604,291,253,8e-11,67.6
Exophiala_jeanselmei_CBS507.90_T,SRR3108818.13209,97.44,39,1,0,566,604,292,254,8e-11,67.6
Exophiala_jeanselmei_CBS507.90_T,SRR3108818.11669,97.44,39,1,0,566,604,292,254,8e-11,67.6
Exophiala_jeanselmei_CBS507.90_T,SRR3108818.4891,97.44,39,1,0,566,604,292,254,8e-11,67.6
Exophiala_jeanselmei_CBS507.90_T,SRR3108818.1160,97.44,39,1,0,566,604,292,254,8e-11,67.6
Exophiala_jeanselmei_CBS507.90_T,SRR3108818.13277,100.00,35,0,0,570,604,292,258,3e-10,65.8
Exophiala_jeanselmei_CBS507.90_T,SRR3108818.18608,100.00,34,0,0,571,604,285,252,1e-09,63.9
Exophiala_bergeri_CBS353.52,SRR3108818.9482,93.26,89,5,1,248,336,1,88,8e-30,130
Exophiala_bergeri_CBS353.52,SRR3108818.19282,88.89,90,9,1,248,337,3,91,1e-23,110
Exophiala_bergeri_CBS353.52,SRR3108818.5054,87.06,85,10,1,248,332,1,84,3e-19,95.3
Exophiala_moniliae_CBS520.76_T,SRR3108818.9482,93.26,89,5,1,285,373,1,88,9e-30,130
Exophiala_moniliae_CBS520.76_T,SRR3108818.19282,85.32,109,14,2,285,393,3,109,3e-24,111
Exophiala_moniliae_CBS520.76_T,SRR3108818.5054,87.36,87,10,1,285,371,1,86,3e-20,99.0
Exophiala_pisciphila_CBS537.73_T,SRR3108818.9482,94.38,89,4,1,288,376,1,88,2e-31,135
Exophiala_pisciphila_CBS537.73_T,SRR3108818.9482,100.00,58,0,0,556,613,314,257,5e-23,108
Exophiala_pisciphila_CBS537.73_T,SRR3108818.17873,98.48,66,0,1,548,613,322,258,3e-25,115
Exophiala_pisciphila_CBS537.73_T,SRR3108818.17873,97.44,39,0,1,548,586,215,252,3e-10,65.8
Exophiala_pisciphila_CBS537.73_T,SRR3108818.17356,100.00,62,0,0,552,613,314,253,3e-25,115
Exophiala_pisciphila_CBS537.73_T,SRR3108818.17356,100.00,28,0,0,552,579,225,252,2e-06,52.8
Exophiala_pisciphila_CBS537.73_T,SRR3108818.5336,97.06,68,2,0,546,613,324,257,3e-25,115
Exophiala_pisciphila_CBS537.73_T,SRR3108818.19282,89.01,91,9,1,287,377,2,91,4e-24,111
Exophiala_pisciphila_CBS537.73_T,SRR3108818.19282,98.39,62,1,0,552,613,316,255,1e-23,110
Exophiala_pisciphila_CBS537.73_T,SRR3108818.5054,95.65,69,2,1,546,613,325,257,1e-23,110
Exophiala_pisciphila_CBS537.73_T,SRR3108818.5054,87.06,85,10,1,288,372,1,84,4e-19,95.3
Exophiala_pisciphila_CBS537.73_T,SRR3108818.13842,95.31,64,3,0,550,613,319,256,2e-21,102
Exophiala_pisciphila_CBS537.73_T,SRR3108818.15376,90.77,65,5,1,549,613,320,257,2e-16,86.1
Exophiala_pisciphila_CBS537.73_T,SRR3108818.13692,93.10,58,4,0,556,613,313,256,2e-16,86.1
Exophiala_pisciphila_CBS537.73_T,SRR3108818.13107,93.10,58,4,0,556,613,316,259,2e-16,86.1
Exophiala_pisciphila_CBS537.73_T,SRR3108818.15007,92.98,57,4,0,557,613,311,255,8e-16,84.2
Exophiala_pisciphila_CBS537.73_T,SRR3108818.3138,92.98,57,4,0,557,613,311,255,8e-16,84.2
Exophiala_pisciphila_CBS537.73_T,SRR3108818.8058,89.83,59,4,2,556,613,316,259,5e-13,75.0
Exophiala_pisciphila_CBS537.73_T,SRR3108818.15667,93.75,48,3,0,566,613,303,256,2e-12,73.1
Exophiala_pisciphila_CBS537.73_T,SRR3108818.8202,87.50,64,5,3,556,617,309,247,7e-12,71.3
Exophiala_pisciphila_CBS537.73_T,SRR3108818.16949,100.00,36,0,0,579,614,286,251,8e-11,67.6
Exophiala_pisciphila_CBS537.73_T,SRR3108818.9512,85.94,64,8,1,551,613,318,255,8e-11,67.6
Exophiala_pisciphila_CBS537.73_T,SRR3108818.18608,100.00,35,0,0,580,614,285,251,3e-10,65.8
Exophiala_pisciphila_CBS537.73_T,SRR3108818.13277,100.00,35,0,0,579,613,292,258,3e-10,65.8
Exophiala_pisciphila_CBS537.73_T,SRR3108818.13217,100.00,35,0,0,579,613,287,253,3e-10,65.8
Exophiala_pisciphila_CBS537.73_T,SRR3108818.13209,100.00,35,0,0,579,613,288,254,3e-10,65.8
Exophiala_pisciphila_CBS537.73_T,SRR3108818.11669,100.00,35,0,0,579,613,288,254,3e-10,65.8
Exophiala_pisciphila_CBS537.73_T,SRR3108818.4891,100.00,35,0,0,579,613,288,254,3e-10,65.8
Exophiala_pisciphila_CBS537.73_T,SRR3108818.4891,94.59,37,0,2,287,322,3,38,2e-07,56.5
Exophiala_pisciphila_CBS537.73_T,SRR3108818.1160,100.00,35,0,0,579,613,288,254,3e-10,65.8
Exophiala_xenobiotica_CBS117642,SRR3108818.9482,93.26,89,5,1,280,368,1,88,9e-30,130
Exophiala_xenobiotica_CBS117642,SRR3108818.19282,88.89,90,9,1,280,369,3,91,1e-23,110
Exophiala_xenobiotica_CBS117642,SRR3108818.5054,87.06,85,10,1,280,364,1,84,3e-19,95.3
Exophiala_brunnea_CBS,SRR3108818.9482,93.26,89,5,1,316,404,1,88,1e-29,130
Exophiala_brunnea_CBS,SRR3108818.9482,97.87,47,1,0,587,633,314,268,8e-16,84.2
Exophiala_brunnea_CBS,SRR3108818.19282,87.78,90,10,1,316,405,3,91,6e-22,104
Exophiala_brunnea_CBS,SRR3108818.5054,88.24,85,9,1,316,400,1,84,8e-21,100
Exophiala_brunnea_CBS,SRR3108818.17356,98.11,53,1,0,581,633,316,264,4e-19,95.3
Exophiala_brunnea_CBS,SRR3108818.17873,98.08,52,1,0,582,633,320,269,1e-18,93.5
Exophiala_brunnea_CBS,SRR3108818.5336,98.00,50,1,0,584,633,317,268,2e-17,89.8
Exophiala_nishimurae_CBS101538_T,SRR3108818.9482,93.10,87,5,1,296,382,3,88,1e-28,126
Exophiala_nishimurae_CBS101538_T,SRR3108818.19282,88.64,88,9,1,296,383,5,91,2e-22,106
Exophiala_nishimurae_CBS101538_T,SRR3108818.19282,96.00,50,1,1,542,591,323,275,1e-14,80.5
Exophiala_nishimurae_CBS101538_T,SRR3108818.5054,86.75,83,10,1,296,378,3,84,5e-18,91.6
Exophiala_nishimurae_CBS101538_T,SRR3108818.5054,100.00,39,0,0,553,591,315,277,2e-12,73.1
Exophiala_nishimurae_CBS101538_T,SRR3108818.17356,96.08,51,1,1,542,591,323,273,3e-15,82.4
Exophiala_nishimurae_CBS101538_T,SRR3108818.17356,94.59,37,1,1,542,577,216,252,2e-07,56.5
Exophiala_mesophila_CBS402.95_T,SRR3108818.9482,93.26,89,5,1,278,366,1,88,1e-29,130
Exophiala_mesophila_CBS402.95_T,SRR3108818.9482,98.28,58,1,0,553,610,314,257,2e-21,102
Exophiala_mesophila_CBS402.95_T,SRR3108818.19282,100.00,61,0,0,550,610,315,255,1e-24,113
Exophiala_mesophila_CBS402.95_T,SRR3108818.19282,87.78,90,10,1,278,367,3,91,6e-22,104
Exophiala_mesophila_CBS402.95_T,SRR3108818.5054,100.00,59,0,0,552,610,315,257,1e-23,110
Exophiala_mesophila_CBS402.95_T,SRR3108818.5054,88.24,85,9,1,278,362,1,84,8e-21,100
Exophiala_mesophila_CBS402.95_T,SRR3108818.17873,98.36,61,1,0,550,610,318,258,5e-23,108
Exophiala_mesophila_CBS402.95_T,SRR3108818.17356,98.36,61,1,0,550,610,313,253,5e-23,108
Exophiala_mesophila_CBS402.95_T,SRR3108818.5336,98.36,61,1,0,550,610,317,257,5e-23,108
Exophiala_mesophila_CBS402.95_T,SRR3108818.15376,94.83,58,3,0,553,610,314,257,5e-18,91.6
Exophiala_mesophila_CBS402.95_T,SRR3108818.13692,94.83,58,3,0,553,610,313,256,5e-18,91.6
Exophiala_mesophila_CBS402.95_T,SRR3108818.13107,94.83,58,3,0,553,610,316,259,5e-18,91.6
Exophiala_mesophila_CBS402.95_T,SRR3108818.15007,94.74,57,3,0,554,610,311,255,2e-17,89.8
Exophiala_mesophila_CBS402.95_T,SRR3108818.3138,94.74,57,3,0,554,610,311,255,2e-17,89.8
Exophiala_mesophila_CBS402.95_T,SRR3108818.15667,95.83,48,2,0,563,610,303,256,4e-14,78.7
Exophiala_mesophila_CBS402.95_T,SRR3108818.8058,89.66,58,6,0,553,610,316,259,5e-13,75.0
Exophiala_mesophila_CBS402.95_T,SRR3108818.9512,93.75,48,3,0,563,610,302,255,2e-12,73.1
Exophiala_mesophila_CBS402.95_T,SRR3108818.8202,87.30,63,7,1,553,614,309,247,6e-12,71.3
Exophiala_mesophila_CBS402.95_T,SRR3108818.16949,97.50,40,1,0,572,611,290,251,2e-11,69.4
Exophiala_mesophila_CBS402.95_T,SRR3108818.13217,97.44,39,1,0,572,610,291,253,8e-11,67.6
Exophiala_mesophila_CBS402.95_T,SRR3108818.13209,97.44,39,1,0,572,610,292,254,8e-11,67.6
Exophiala_mesophila_CBS402.95_T,SRR3108818.11669,97.44,39,1,0,572,610,292,254,8e-11,67.6
Exophiala_mesophila_CBS402.95_T,SRR3108818.4891,97.44,39,1,0,572,610,292,254,8e-11,67.6
Exophiala_mesophila_CBS402.95_T,SRR3108818.1160,97.44,39,1,0,572,610,292,254,8e-11,67.6
Exophiala_mesophila_CBS402.95_T,SRR3108818.18608,100.00,35,0,0,577,611,285,251,3e-10,65.8
Exophiala_mesophila_CBS402.95_T,SRR3108818.13277,100.00,35,0,0,576,610,292,258,3e-10,65.8
Exophiala_castellanii_CBS158.58_T,SRR3108818.9482,93.26,89,5,1,276,364,1,88,1e-29,130
Exophiala_castellanii_CBS158.58_T,SRR3108818.9482,98.28,58,1,0,552,609,314,257,2e-21,102
Exophiala_castellanii_CBS158.58_T,SRR3108818.19282,97.06,68,1,1,543,609,322,255,1e-24,113
Exophiala_castellanii_CBS158.58_T,SRR3108818.19282,87.78,90,10,1,276,365,3,91,6e-22,104
Exophiala_castellanii_CBS158.58_T,SRR3108818.5054,100.00,59,0,0,551,609,315,257,1e-23,110
Exophiala_castellanii_CBS158.58_T,SRR3108818.5054,88.24,85,9,1,276,360,1,84,8e-21,100
Exophiala_castellanii_CBS158.58_T,SRR3108818.17873,96.92,65,1,1,546,609,322,258,5e-23,108
Exophiala_castellanii_CBS158.58_T,SRR3108818.17356,98.36,61,1,0,549,609,313,253,5e-23,108
Exophiala_castellanii_CBS158.58_T,SRR3108818.5336,98.36,61,1,0,549,609,317,257,5e-23,108
Exophiala_castellanii_CBS158.58_T,SRR3108818.15376,94.83,58,3,0,552,609,314,257,5e-18,91.6
Exophiala_castellanii_CBS158.58_T,SRR3108818.13692,94.83,58,3,0,552,609,313,256,5e-18,91.6
Exophiala_castellanii_CBS158.58_T,SRR3108818.13107,94.83,58,3,0,552,609,316,259,5e-18,91.6
Exophiala_castellanii_CBS158.58_T,SRR3108818.15007,94.74,57,3,0,553,609,311,255,2e-17,89.8
Exophiala_castellanii_CBS158.58_T,SRR3108818.3138,94.74,57,3,0,553,609,311,255,2e-17,89.8
Exophiala_castellanii_CBS158.58_T,SRR3108818.15667,95.83,48,2,0,562,609,303,256,4e-14,78.7
Exophiala_castellanii_CBS158.58_T,SRR3108818.8058,89.66,58,6,0,552,609,316,259,5e-13,75.0
Exophiala_castellanii_CBS158.58_T,SRR3108818.9512,93.75,48,3,0,562,609,302,255,2e-12,73.1
Exophiala_castellanii_CBS158.58_T,SRR3108818.8202,87.30,63,7,1,552,613,309,247,6e-12,71.3
Exophiala_castellanii_CBS158.58_T,SRR3108818.16949,97.50,40,1,0,571,610,290,251,2e-11,69.4
Exophiala_castellanii_CBS158.58_T,SRR3108818.13217,97.44,39,1,0,571,609,291,253,8e-11,67.6
Exophiala_castellanii_CBS158.58_T,SRR3108818.13209,97.44,39,1,0,571,609,292,254,8e-11,67.6
Exophiala_castellanii_CBS158.58_T,SRR3108818.11669,97.44,39,1,0,571,609,292,254,8e-11,67.6
Exophiala_castellanii_CBS158.58_T,SRR3108818.4891,97.44,39,1,0,571,609,292,254,8e-11,67.6
Exophiala_castellanii_CBS158.58_T,SRR3108818.1160,97.44,39,1,0,571,609,292,254,8e-11,67.6
Exophiala_castellanii_CBS158.58_T,SRR3108818.18608,100.00,35,0,0,576,610,285,251,3e-10,65.8
Exophiala_castellanii_CBS158.58_T,SRR3108818.13277,100.00,35,0,0,575,609,292,258,3e-10,65.8
Exophiala_lecanii-corni_CBS123.33_T,SRR3108818.9482,94.38,89,4,1,299,387,1,88,2e-31,135
Exophiala_lecanii-corni_CBS123.33_T,SRR3108818.19282,86.67,90,11,1,299,388,3,91,3e-20,99.0
Exophiala_lecanii-corni_CBS123.33_T,SRR3108818.5054,88.61,79,8,1,299,377,1,78,3e-19,95.3
Exophiala_dermatitidis_CBS748.88,SRR3108818.9482,94.38,89,4,1,291,379,1,88,5e-31,135
Exophiala_dermatitidis_CBS748.88,SRR3108818.9482,94.29,70,2,2,568,635,326,257,4e-22,106
Exophiala_dermatitidis_CBS748.88,SRR3108818.19282,97.14,70,1,1,566,635,323,255,2e-25,117
Exophiala_dermatitidis_CBS748.88,SRR3108818.19282,88.89,90,9,1,291,380,3,91,3e-23,110
Exophiala_dermatitidis_CBS748.88,SRR3108818.5054,93.59,78,5,0,558,635,334,257,2e-25,117
Exophiala_dermatitidis_CBS748.88,SRR3108818.5054,87.06,85,10,1,291,375,1,84,9e-19,95.3
Exophiala_dermatitidis_CBS748.88,SRR3108818.17873,98.44,64,1,0,572,635,321,258,3e-24,113
Exophiala_dermatitidis_CBS748.88,SRR3108818.17356,95.77,71,1,1,567,635,323,253,3e-24,113
Exophiala_dermatitidis_CBS748.88,SRR3108818.5336,95.59,68,2,1,568,635,323,257,1e-22,108
Exophiala_dermatitidis_CBS748.88,SRR3108818.15376,94.83,58,3,0,578,635,314,257,1e-17,91.6
Exophiala_dermatitidis_CBS748.88,SRR3108818.13692,94.83,58,3,0,578,635,313,256,1e-17,91.6
Exophiala_dermatitidis_CBS748.88,SRR3108818.13107,94.83,58,3,0,578,635,316,259,1e-17,91.6
Exophiala_dermatitidis_CBS748.88,SRR3108818.15007,94.74,57,3,0,579,635,311,255,4e-17,89.8
Exophiala_dermatitidis_CBS748.88,SRR3108818.3138,94.74,57,3,0,579,635,311,255,4e-17,89.8
Exophiala_dermatitidis_CBS748.88,SRR3108818.15667,95.83,48,2,0,588,635,303,256,9e-14,78.7
Exophiala_dermatitidis_CBS748.88,SRR3108818.8058,89.66,58,6,0,578,635,316,259,1e-12,75.0
Exophiala_dermatitidis_CBS748.88,SRR3108818.9512,93.75,48,3,0,588,635,302,255,4e-12,73.1
Exophiala_dermatitidis_CBS748.88,SRR3108818.8202,87.30,63,7,1,578,639,309,247,2e-11,71.3
Exophiala_dermatitidis_CBS748.88,SRR3108818.16949,97.50,40,1,0,597,636,290,251,5e-11,69.4
Exophiala_dermatitidis_CBS748.88,SRR3108818.13217,97.44,39,1,0,597,635,291,253,2e-10,67.6
Exophiala_dermatitidis_CBS748.88,SRR3108818.13209,97.44,39,1,0,597,635,292,254,2e-10,67.6
Exophiala_dermatitidis_CBS748.88,SRR3108818.11669,97.44,39,1,0,597,635,292,254,2e-10,67.6
Exophiala_dermatitidis_CBS748.88,SRR3108818.4891,97.44,39,1,0,597,635,292,254,2e-10,67.6
Exophiala_dermatitidis_CBS748.88,SRR3108818.1160,97.44,39,1,0,597,635,292,254,2e-10,67.6
Exophiala_dermatitidis_CBS748.88,SRR3108818.18608,100.00,35,0,0,602,636,285,251,7e-10,65.8
Exophiala_dermatitidis_CBS748.88,SRR3108818.13277,100.00,35,0,0,601,635,292,258,7e-10,65.8
Exophiala_angulospora_CBS482.92_T,SRR3108818.9482,94.19,86,4,1,282,367,1,85,9e-30,130
Exophiala_angulospora_CBS482.92_T,SRR3108818.19282,89.29,84,8,1,282,365,3,85,5e-22,104
Exophiala_angulospora_CBS482.92_T,SRR3108818.5054,87.06,85,10,1,282,366,1,84,3e-19,95.3
Exophiala_opportunistica_CBS109811_T,SRR3108818.9482,91.43,105,6,3,281,385,1,102,4e-33,141
Exophiala_opportunistica_CBS109811_T,SRR3108818.19282,88.89,90,9,1,281,370,3,91,1e-23,110
Exophiala_opportunistica_CBS109811_T,SRR3108818.5054,87.06,85,10,1,281,365,1,84,3e-19,95.3
Exophiala_salmonis_CBS157.67_T,SRR3108818.9482,94.38,89,4,1,410,498,1,88,3e-31,135
Exophiala_salmonis_CBS157.67_T,SRR3108818.9482,100.00,58,0,0,676,733,314,257,6e-23,108
Exophiala_salmonis_CBS157.67_T,SRR3108818.17873,98.48,66,0,1,668,733,322,258,4e-25,115
Exophiala_salmonis_CBS157.67_T,SRR3108818.17873,97.44,39,0,1,668,706,215,252,4e-10,65.8
Exophiala_salmonis_CBS157.67_T,SRR3108818.17356,100.00,62,0,0,672,733,314,253,4e-25,115
Exophiala_salmonis_CBS157.67_T,SRR3108818.17356,100.00,28,0,0,672,699,225,252,3e-06,52.8
Exophiala_salmonis_CBS157.67_T,SRR3108818.5336,97.06,68,2,0,666,733,324,257,4e-25,115
Exophiala_salmonis_CBS157.67_T,SRR3108818.19282,88.89,90,9,1,410,499,3,91,2e-23,110
Exophiala_salmonis_CBS157.67_T,SRR3108818.19282,98.39,62,1,0,672,733,316,255,2e-23,110
Exophiala_salmonis_CBS157.67_T,SRR3108818.5054,95.65,69,2,1,666,733,325,257,2e-23,110
Exophiala_salmonis_CBS157.67_T,SRR3108818.5054,87.06,85,10,1,410,494,1,84,5e-19,95.3
Exophiala_salmonis_CBS157.67_T,SRR3108818.13842,95.31,64,3,0,670,733,319,256,3e-21,102
Exophiala_salmonis_CBS157.67_T,SRR3108818.15376,90.77,65,5,1,669,733,320,257,3e-16,86.1
Exophiala_salmonis_CBS157.67_T,SRR3108818.13692,93.10,58,4,0,676,733,313,256,3e-16,86.1
Exophiala_salmonis_CBS157.67_T,SRR3108818.13107,93.10,58,4,0,676,733,316,259,3e-16,86.1
Exophiala_salmonis_CBS157.67_T,SRR3108818.15007,92.98,57,4,0,677,733,311,255,1e-15,84.2
Exophiala_salmonis_CBS157.67_T,SRR3108818.3138,92.98,57,4,0,677,733,311,255,1e-15,84.2
Exophiala_salmonis_CBS157.67_T,SRR3108818.8058,89.83,59,4,2,676,733,316,259,6e-13,75.0
Exophiala_salmonis_CBS157.67_T,SRR3108818.15667,93.75,48,3,0,686,733,303,256,2e-12,73.1
Exophiala_salmonis_CBS157.67_T,SRR3108818.8202,87.50,64,5,3,676,737,309,247,8e-12,71.3
Exophiala_salmonis_CBS157.67_T,SRR3108818.16949,100.00,36,0,0,699,734,286,251,1e-10,67.6
Exophiala_salmonis_CBS157.67_T,SRR3108818.9512,85.94,64,8,1,671,733,318,255,1e-10,67.6
Exophiala_salmonis_CBS157.67_T,SRR3108818.18608,100.00,35,0,0,700,734,285,251,4e-10,65.8
Exophiala_salmonis_CBS157.67_T,SRR3108818.13277,100.00,35,0,0,699,733,292,258,4e-10,65.8
Exophiala_salmonis_CBS157.67_T,SRR3108818.13217,100.00,35,0,0,699,733,287,253,4e-10,65.8
Exophiala_salmonis_CBS157.67_T,SRR3108818.13209,100.00,35,0,0,699,733,288,254,4e-10,65.8
Exophiala_salmonis_CBS157.67_T,SRR3108818.11669,100.00,35,0,0,699,733,288,254,4e-10,65.8
Exophiala_salmonis_CBS157.67_T,SRR3108818.4891,100.00,35,0,0,699,733,288,254,4e-10,65.8
Exophiala_salmonis_CBS157.67_T,SRR3108818.1160,100.00,35,0,0,699,733,288,254,4e-10,65.8
Exophiala_aquamarina_CBS119918_T,SRR3108818.9482,90.57,106,6,4,288,393,1,102,5e-32,137
Exophiala_aquamarina_CBS119918_T,SRR3108818.19282,85.32,109,12,3,288,394,3,109,1e-23,110
Exophiala_aquamarina_CBS119918_T,SRR3108818.5054,86.75,83,10,1,288,370,1,82,4e-18,91.6
Exophiala_cancerae_CBS120420_T,SRR3108818.9482,91.43,105,6,3,303,407,1,102,5e-33,141
Exophiala_cancerae_CBS120420_T,SRR3108818.9482,100.00,58,0,0,567,624,314,257,5e-23,108
Exophiala_cancerae_CBS120420_T,SRR3108818.17873,100.00,64,0,0,561,624,321,258,2e-26,119
Exophiala_cancerae_CBS120420_T,SRR3108818.17873,100.00,37,0,0,561,597,216,252,2e-11,69.4
Exophiala_cancerae_CBS120420_T,SRR3108818.17356,95.89,73,2,1,553,624,325,253,8e-26,117
Exophiala_cancerae_CBS120420_T,SRR3108818.17356,92.31,39,2,1,553,590,214,252,6e-07,54.7
Exophiala_cancerae_CBS120420_T,SRR3108818.5336,100.00,61,0,0,564,624,317,257,1e-24,113
Exophiala_cancerae_CBS120420_T,SRR3108818.5054,95.65,69,3,0,556,624,325,257,4e-24,111
Exophiala_cancerae_CBS120420_T,SRR3108818.5054,87.06,85,10,1,303,387,1,84,4e-19,95.3
Exophiala_cancerae_CBS120420_T,SRR3108818.19282,88.89,90,9,1,303,392,3,91,1e-23,110
Exophiala_cancerae_CBS120420_T,SRR3108818.19282,94.44,72,3,1,553,624,325,255,1e-23,110
Exophiala_cancerae_CBS120420_T,SRR3108818.13842,96.67,60,2,0,565,624,315,256,8e-21,100
Exophiala_cancerae_CBS120420_T,SRR3108818.15376,93.10,58,4,0,567,624,314,257,2e-16,86.1
Exophiala_cancerae_CBS120420_T,SRR3108818.13692,93.10,58,4,0,567,624,313,256,2e-16,86.1
Exophiala_cancerae_CBS120420_T,SRR3108818.13107,93.10,58,4,0,567,624,316,259,2e-16,86.1
Exophiala_cancerae_CBS120420_T,SRR3108818.15007,92.98,57,4,0,568,624,311,255,8e-16,84.2
Exophiala_cancerae_CBS120420_T,SRR3108818.3138,92.98,57,4,0,568,624,311,255,8e-16,84.2
Exophiala_cancerae_CBS120420_T,SRR3108818.8058,89.83,59,4,2,567,624,316,259,5e-13,75.0
Exophiala_cancerae_CBS120420_T,SRR3108818.15667,93.75,48,3,0,577,624,303,256,2e-12,73.1
Exophiala_cancerae_CBS120420_T,SRR3108818.8202,88.14,59,5,2,567,624,309,252,2e-11,69.4
Exophiala_cancerae_CBS120420_T,SRR3108818.9512,91.67,48,4,0,577,624,302,255,8e-11,67.6
Exophiala_cancerae_CBS120420_T,SRR3108818.16949,100.00,35,0,0,590,624,286,252,3e-10,65.8
Exophiala_cancerae_CBS120420_T,SRR3108818.13277,100.00,35,0,0,590,624,292,258,3e-10,65.8
Exophiala_cancerae_CBS120420_T,SRR3108818.13217,100.00,35,0,0,590,624,287,253,3e-10,65.8
Exophiala_cancerae_CBS120420_T,SRR3108818.13209,100.00,35,0,0,590,624,288,254,3e-10,65.8
Exophiala_cancerae_CBS120420_T,SRR3108818.11669,100.00,35,0,0,590,624,288,254,3e-10,65.8
Exophiala_cancerae_CBS120420_T,SRR3108818.4891,100.00,35,0,0,590,624,288,254,3e-10,65.8
Exophiala_cancerae_CBS120420_T,SRR3108818.1160,100.00,35,0,0,590,624,288,254,3e-10,65.8
Exophiala_cancerae_CBS120420_T,SRR3108818.18608,100.00,34,0,0,591,624,285,252,1e-09,63.9
Exophiala_tremulae_CBS129355,SRR3108818.9482,91.43,105,6,3,315,419,1,102,5e-33,141
Exophiala_tremulae_CBS129355,SRR3108818.9482,100.00,47,0,0,582,628,314,268,6e-17,87.9
Exophiala_tremulae_CBS129355,SRR3108818.19282,86.11,108,12,2,315,420,3,109,1e-24,113
Exophiala_tremulae_CBS129355,SRR3108818.17873,98.18,55,0,1,574,628,322,269,4e-19,95.3
Exophiala_tremulae_CBS129355,SRR3108818.17873,97.44,39,0,1,574,612,215,252,3e-10,65.8
Exophiala_tremulae_CBS129355,SRR3108818.17356,100.00,51,0,0,578,628,314,264,4e-19,95.3
Exophiala_tremulae_CBS129355,SRR3108818.17356,100.00,28,0,0,578,605,225,252,2e-06,52.8
Exophiala_tremulae_CBS129355,SRR3108818.5336,96.49,57,2,0,572,628,324,268,4e-19,95.3
Exophiala_tremulae_CBS129355,SRR3108818.5054,87.06,85,10,1,315,399,1,84,4e-19,95.3
Exophiala_tremulae_CBS129355,SRR3108818.13842,94.34,53,3,0,576,628,319,267,3e-15,82.4
Exophiala_equina_CBS116009,SRR3108818.9482,91.43,105,6,3,281,385,1,102,4e-33,141
Exophiala_equina_CBS116009,SRR3108818.19282,86.11,108,12,2,281,386,3,109,9e-25,113
Exophiala_equina_CBS116009,SRR3108818.5054,87.06,85,10,1,281,365,1,84,3e-19,95.3
Exophiala_alcalophila_CBS520.82_T,SRR3108818.9482,93.26,89,5,1,292,380,1,88,9e-30,130
Exophiala_alcalophila_CBS520.82_T,SRR3108818.19282,89.29,84,8,1,292,375,3,85,6e-22,104
Exophiala_alcalophila_CBS520.82_T,SRR3108818.5054,87.36,87,10,1,292,378,1,86,3e-20,99.0
Exophiala_crusticola_CBS119970_T,SRR3108818.9482,94.38,89,4,1,297,385,1,88,2e-31,135
Exophiala_crusticola_CBS119970_T,SRR3108818.19282,88.89,90,9,1,297,386,3,91,1e-23,110
Exophiala_crusticola_CBS119970_T,SRR3108818.5054,87.06,85,10,1,297,381,1,84,3e-19,95.3
Rhinocladiella_atrovirens_CBS264.49,SRR3108818.9482,94.38,89,4,1,323,411,1,88,2e-31,135
Rhinocladiella_atrovirens_CBS264.49,SRR3108818.9482,100.00,46,0,0,581,626,314,269,2e-16,86.1
Rhinocladiella_atrovirens_CBS264.49,SRR3108818.19282,86.67,90,11,1,323,412,3,91,3e-20,99.0
Rhinocladiella_atrovirens_CBS264.49,SRR3108818.5054,88.61,79,8,1,323,401,1,78,4e-19,95.3
Rhinocladiella_atrovirens_CBS264.49,SRR3108818.5336,94.92,59,3,0,568,626,327,269,1e-18,93.5
Rhinocladiella_atrovirens_CBS264.49,SRR3108818.17873,100.00,49,0,0,578,626,318,270,5e-18,91.6
Rhinocladiella_atrovirens_CBS264.49,SRR3108818.17873,100.00,34,0,0,578,611,219,252,1e-09,63.9
Rhinocladiella_atrovirens_CBS264.49,SRR3108818.17356,100.00,49,0,0,578,626,313,265,5e-18,91.6
Rhinocladiella_atrovirens_CBS264.49,SRR3108818.13842,97.78,45,1,0,579,623,315,271,4e-14,78.7
Rhinocladiella_basitona_CBS101460_T,SRR3108818.9482,93.10,87,5,1,284,370,3,88,1e-28,126
Rhinocladiella_basitona_CBS101460_T,SRR3108818.19282,88.64,88,9,1,284,371,5,91,1e-22,106
Rhinocladiella_basitona_CBS101460_T,SRR3108818.5054,86.75,83,10,1,284,366,3,84,4e-18,91.6
Rhinocladiella_phaeophora_CBS496.78_T,SRR3108818.9482,94.32,88,4,1,291,378,2,88,7e-31,134
Rhinocladiella_phaeophora_CBS496.78_T,SRR3108818.19282,88.76,89,9,1,291,379,4,91,4e-23,108
Rhinocladiella_phaeophora_CBS496.78_T,SRR3108818.5054,86.90,84,10,1,291,374,2,84,1e-18,93.5
Rhinocladiella_aquaspersa_CBS313.73_T,SRR3108818.9482,94.32,88,4,1,285,372,2,88,8e-31,134
Rhinocladiella_aquaspersa_CBS313.73_T,SRR3108818.9482,94.83,58,0,3,551,605,314,257,6e-17,87.9
Rhinocladiella_aquaspersa_CBS313.73_T,SRR3108818.19282,88.76,89,9,1,285,373,4,91,5e-23,108
Rhinocladiella_aquaspersa_CBS313.73_T,SRR3108818.19282,92.75,69,2,3,540,605,323,255,1e-19,97.1
Rhinocladiella_aquaspersa_CBS313.73_T,SRR3108818.17873,95.38,65,0,3,544,605,322,258,8e-21,100
Rhinocladiella_aquaspersa_CBS313.73_T,SRR3108818.17356,95.24,63,0,3,546,605,315,253,1e-19,97.1
Rhinocladiella_aquaspersa_CBS313.73_T,SRR3108818.5336,95.08,61,0,3,548,605,317,257,1e-18,93.5
Rhinocladiella_aquaspersa_CBS313.73_T,SRR3108818.5054,86.90,84,10,1,285,368,2,84,1e-18,93.5
Rhinocladiella_aquaspersa_CBS313.73_T,SRR3108818.5054,93.22,59,1,3,550,605,315,257,8e-16,84.2
Rhinocladiella_aquaspersa_CBS313.73_T,SRR3108818.15376,93.75,48,2,1,559,605,304,257,6e-12,71.3
Rhinocladiella_aquaspersa_CBS313.73_T,SRR3108818.15007,93.75,48,2,1,559,605,302,255,6e-12,71.3
Rhinocladiella_aquaspersa_CBS313.73_T,SRR3108818.13692,93.75,48,2,1,559,605,303,256,6e-12,71.3
Rhinocladiella_aquaspersa_CBS313.73_T,SRR3108818.13107,93.75,48,2,1,559,605,306,259,6e-12,71.3
Rhinocladiella_aquaspersa_CBS313.73_T,SRR3108818.3138,93.75,48,2,1,559,605,302,255,6e-12,71.3
Rhinocladiella_aquaspersa_CBS313.73_T,SRR3108818.16949,100.00,36,0,0,571,606,286,251,8e-11,67.6
Rhinocladiella_aquaspersa_CBS313.73_T,SRR3108818.15667,97.50,40,0,1,567,605,295,256,8e-11,67.6
Rhinocladiella_aquaspersa_CBS313.73_T,SRR3108818.8058,100.00,36,0,0,570,605,294,259,8e-11,67.6
Rhinocladiella_aquaspersa_CBS313.73_T,SRR3108818.18608,100.00,35,0,0,572,606,285,251,3e-10,65.8
Rhinocladiella_aquaspersa_CBS313.73_T,SRR3108818.13277,100.00,35,0,0,571,605,292,258,3e-10,65.8
Rhinocladiella_aquaspersa_CBS313.73_T,SRR3108818.13217,100.00,35,0,0,571,605,287,253,3e-10,65.8
Rhinocladiella_aquaspersa_CBS313.73_T,SRR3108818.13209,100.00,35,0,0,571,605,288,254,3e-10,65.8
Rhinocladiella_aquaspersa_CBS313.73_T,SRR3108818.11669,100.00,35,0,0,571,605,288,254,3e-10,65.8
Rhinocladiella_aquaspersa_CBS313.73_T,SRR3108818.8202,97.44,39,0,1,572,609,285,247,3e-10,65.8
Rhinocladiella_aquaspersa_CBS313.73_T,SRR3108818.4891,100.00,35,0,0,571,605,288,254,3e-10,65.8
Rhinocladiella_aquaspersa_CBS313.73_T,SRR3108818.1160,100.00,35,0,0,571,605,288,254,3e-10,65.8
Rhinocladiella_aquaspersa_CBS313.73_T,SRR3108818.9512,93.02,43,3,0,563,605,297,255,1e-09,63.9
Rhinocladiella_fasciculata_CBS132.86_T,SRR3108818.9482,92.05,88,6,1,301,388,2,88,2e-27,122
Rhinocladiella_fasciculata_CBS132.86_T,SRR3108818.19282,83.33,108,16,2,301,408,4,109,3e-20,99.0
Rhinocladiella_fasciculata_CBS132.86_T,SRR3108818.5054,86.05,86,11,1,301,386,2,86,4e-18,91.6
Rhinocladiella_anceps_CBS181.65_T,SRR3108818.9482,92.05,88,6,1,283,370,2,88,1e-27,122
Rhinocladiella_anceps_CBS181.65_T,SRR3108818.19282,86.52,89,11,1,283,371,4,91,9e-20,97.1
Rhinocladiella_anceps_CBS181.65_T,SRR3108818.5054,86.90,84,10,1,283,366,2,84,1e-18,93.5
Rhinocladiella_mackenziei_CBS367.92,SRR3108818.9482,97.37,76,2,0,271,346,1,76,1e-29,130
Rhinocladiella_mackenziei_CBS367.92,SRR3108818.9482,97.78,45,0,1,565,608,318,274,1e-13,76.8
Rhinocladiella_mackenziei_CBS367.92,SRR3108818.19282,88.76,89,7,3,271,358,3,89,2e-22,106
Rhinocladiella_mackenziei_CBS367.92,SRR3108818.5054,86.90,84,9,2,271,353,1,83,1e-18,93.5
Rhinocladiella_mackenziei_CBS367.92,SRR3108818.17873,100.00,43,0,0,566,608,317,275,1e-14,80.5
Rhinocladiella_mackenziei_CBS367.92,SRR3108818.17873,100.00,33,0,0,566,598,220,252,4e-09,62.1
Rhinocladiella_mackenziei_CBS367.92,SRR3108818.17356,100.00,43,0,0,566,608,312,270,1e-14,80.5
Rhinocladiella_mackenziei_CBS367.92,SRR3108818.5336,96.00,50,1,1,560,608,323,274,1e-14,80.5
Rhinocladiella_mackenziei_CBS367.92,SRR3108818.13842,97.78,45,1,0,564,608,317,273,4e-14,78.7
Veronaea_compacta_CBS268.75_T,SRR3108818.9482,93.10,87,5,1,304,390,1,86,1e-28,126
Veronaea_compacta_CBS268.75_T,SRR3108818.19282,86.81,91,10,2,304,394,3,91,8e-21,100
Veronaea_compacta_CBS268.75_T,SRR3108818.5054,88.24,85,9,1,304,388,1,84,8e-21,100
Capronia_pilosella_AFTOL-ID657,SRR3108818.9482,90.57,106,6,3,382,487,1,102,7e-32,137
Capronia_pilosella_AFTOL-ID657,SRR3108818.19282,86.11,108,13,2,382,488,3,109,3e-25,115
Capronia_pilosella_AFTOL-ID657,SRR3108818.19282,97.92,48,0,1,637,683,322,275,3e-15,82.4
Capronia_pilosella_AFTOL-ID657,SRR3108818.5054,87.06,85,10,1,382,466,1,84,4e-19,95.3
Capronia_pilosella_AFTOL-ID657,SRR3108818.5054,93.88,49,2,1,636,683,325,277,2e-12,73.1
Capronia_dactylotricha_DAOM208471_T,SRR3108818.9482,93.33,90,4,1,284,373,1,88,3e-30,132
Capronia_dactylotricha_DAOM208471_T,SRR3108818.9482,100.00,58,0,0,561,618,314,257,5e-23,108
Capronia_dactylotricha_DAOM208471_T,SRR3108818.17356,98.51,67,1,0,552,618,319,253,2e-26,119
Capronia_dactylotricha_DAOM208471_T,SRR3108818.17873,100.00,61,0,0,558,618,318,258,1e-24,113
Capronia_dactylotricha_DAOM208471_T,SRR3108818.17873,100.00,34,0,0,558,591,219,252,1e-09,63.9
Capronia_dactylotricha_DAOM208471_T,SRR3108818.5336,100.00,61,0,0,558,618,317,257,1e-24,113
Capronia_dactylotricha_DAOM208471_T,SRR3108818.19282,98.36,61,1,0,558,618,315,255,5e-23,108
Capronia_dactylotricha_DAOM208471_T,SRR3108818.19282,87.91,91,9,1,284,374,3,91,2e-22,106
Capronia_dactylotricha_DAOM208471_T,SRR3108818.5054,98.31,59,1,0,560,618,315,257,6e-22,104
Capronia_dactylotricha_DAOM208471_T,SRR3108818.5054,86.05,86,10,1,284,369,1,84,5e-18,91.6
Capronia_dactylotricha_DAOM208471_T,SRR3108818.13842,96.67,60,2,0,559,618,315,256,8e-21,100
Capronia_dactylotricha_DAOM208471_T,SRR3108818.15376,93.10,58,4,0,561,618,314,257,2e-16,86.1
Capronia_dactylotricha_DAOM208471_T,SRR3108818.13692,93.10,58,4,0,561,618,313,256,2e-16,86.1
Capronia_dactylotricha_DAOM208471_T,SRR3108818.13107,93.10,58,4,0,561,618,316,259,2e-16,86.1
Capronia_dactylotricha_DAOM208471_T,SRR3108818.15007,92.98,57,4,0,562,618,311,255,8e-16,84.2
Capronia_dactylotricha_DAOM208471_T,SRR3108818.3138,92.98,57,4,0,562,618,311,255,8e-16,84.2
Capronia_dactylotricha_DAOM208471_T,SRR3108818.8058,89.83,59,4,2,561,618,316,259,5e-13,75.0
Capronia_dactylotricha_DAOM208471_T,SRR3108818.15667,93.75,48,3,0,571,618,303,256,2e-12,73.1
Capronia_dactylotricha_DAOM208471_T,SRR3108818.8202,87.50,64,5,3,561,622,309,247,7e-12,71.3
Capronia_dactylotricha_DAOM208471_T,SRR3108818.16949,100.00,36,0,0,584,619,286,251,8e-11,67.6
Capronia_dactylotricha_DAOM208471_T,SRR3108818.9512,91.67,48,4,0,571,618,302,255,8e-11,67.6
Capronia_dactylotricha_DAOM208471_T,SRR3108818.18608,100.00,35,0,0,585,619,285,251,3e-10,65.8
Capronia_dactylotricha_DAOM208471_T,SRR3108818.13277,100.00,35,0,0,584,618,292,258,3e-10,65.8
Capronia_dactylotricha_DAOM208471_T,SRR3108818.13217,100.00,35,0,0,584,618,287,253,3e-10,65.8
Capronia_dactylotricha_DAOM208471_T,SRR3108818.13209,100.00,35,0,0,584,618,288,254,3e-10,65.8
Capronia_dactylotricha_DAOM208471_T,SRR3108818.11669,100.00,35,0,0,584,618,288,254,3e-10,65.8
Capronia_dactylotricha_DAOM208471_T,SRR3108818.4891,100.00,35,0,0,584,618,288,254,3e-10,65.8
Capronia_dactylotricha_DAOM208471_T,SRR3108818.1160,100.00,35,0,0,584,618,288,254,3e-10,65.8
Capronia_kleinmondensis_CBS122671_T,SRR3108818.9482,94.38,89,4,1,309,397,1,88,2e-31,135
Capronia_kleinmondensis_CBS122671_T,SRR3108818.9482,100.00,58,0,0,567,624,314,257,5e-23,108
Capronia_kleinmondensis_CBS122671_T,SRR3108818.17873,98.46,65,1,0,560,624,322,258,3e-25,115
Capronia_kleinmondensis_CBS122671_T,SRR3108818.17873,97.37,38,1,0,560,597,215,252,3e-10,65.8
Capronia_kleinmondensis_CBS122671_T,SRR3108818.17356,95.89,73,0,3,555,624,325,253,3e-25,115
Capronia_kleinmondensis_CBS122671_T,SRR3108818.5336,100.00,61,0,0,564,624,317,257,1e-24,113
Capronia_kleinmondensis_CBS122671_T,SRR3108818.19282,95.59,68,3,0,557,624,322,255,1e-23,110
Capronia_kleinmondensis_CBS122671_T,SRR3108818.19282,86.67,90,11,1,309,398,3,91,3e-20,99.0
Capronia_kleinmondensis_CBS122671_T,SRR3108818.5054,98.31,59,1,0,566,624,315,257,7e-22,104
Capronia_kleinmondensis_CBS122671_T,SRR3108818.5054,88.61,79,8,1,309,387,1,78,4e-19,95.3
Capronia_kleinmondensis_CBS122671_T,SRR3108818.13842,96.67,60,2,0,565,624,315,256,8e-21,100
Capronia_kleinmondensis_CBS122671_T,SRR3108818.15376,93.10,58,4,0,567,624,314,257,2e-16,86.1
Capronia_kleinmondensis_CBS122671_T,SRR3108818.13692,93.10,58,4,0,567,624,313,256,2e-16,86.1
Capronia_kleinmondensis_CBS122671_T,SRR3108818.13107,93.10,58,4,0,567,624,316,259,2e-16,86.1
Capronia_kleinmondensis_CBS122671_T,SRR3108818.15007,92.98,57,4,0,568,624,311,255,9e-16,84.2
Capronia_kleinmondensis_CBS122671_T,SRR3108818.3138,92.98,57,4,0,568,624,311,255,9e-16,84.2
Capronia_kleinmondensis_CBS122671_T,SRR3108818.8058,89.83,59,4,2,567,624,316,259,5e-13,75.0
Capronia_kleinmondensis_CBS122671_T,SRR3108818.15667,93.75,48,3,0,577,624,303,256,2e-12,73.1
Capronia_kleinmondensis_CBS122671_T,SRR3108818.8202,87.50,64,5,3,567,628,309,247,7e-12,71.3
Capronia_kleinmondensis_CBS122671_T,SRR3108818.16949,100.00,36,0,0,590,625,286,251,9e-11,67.6
Capronia_kleinmondensis_CBS122671_T,SRR3108818.9512,91.67,48,4,0,577,624,302,255,9e-11,67.6
Capronia_kleinmondensis_CBS122671_T,SRR3108818.18608,100.00,35,0,0,591,625,285,251,3e-10,65.8
Capronia_kleinmondensis_CBS122671_T,SRR3108818.13277,100.00,35,0,0,590,624,292,258,3e-10,65.8
Capronia_kleinmondensis_CBS122671_T,SRR3108818.13217,100.00,35,0,0,590,624,287,253,3e-10,65.8
Capronia_kleinmondensis_CBS122671_T,SRR3108818.13209,100.00,35,0,0,590,624,288,254,3e-10,65.8
Capronia_kleinmondensis_CBS122671_T,SRR3108818.11669,100.00,35,0,0,590,624,288,254,3e-10,65.8
Capronia_kleinmondensis_CBS122671_T,SRR3108818.4891,100.00,35,0,0,590,624,288,254,3e-10,65.8
Capronia_kleinmondensis_CBS122671_T,SRR3108818.1160,100.00,35,0,0,590,624,288,254,3e-10,65.8
Capronia_mansonii_CBS101.67_T,SRR3108818.9482,90.57,106,6,3,295,400,1,102,6e-32,137
Capronia_mansonii_CBS101.67_T,SRR3108818.9482,98.28,58,1,0,571,628,314,257,2e-21,102
Capronia_mansonii_CBS101.67_T,SRR3108818.5054,93.83,81,2,2,549,628,335,257,2e-26,119
Capronia_mansonii_CBS101.67_T,SRR3108818.5054,87.06,85,10,1,295,379,1,84,4e-19,95.3
Capronia_mansonii_CBS101.67_T,SRR3108818.19282,98.51,67,0,1,563,628,321,255,8e-26,117
Capronia_mansonii_CBS101.67_T,SRR3108818.19282,88.89,90,9,1,295,384,3,91,1e-23,110
Capronia_mansonii_CBS101.67_T,SRR3108818.17873,98.39,62,1,0,567,628,319,258,1e-23,110
Capronia_mansonii_CBS101.67_T,SRR3108818.17356,98.39,62,1,0,567,628,314,253,1e-23,110
Capronia_mansonii_CBS101.67_T,SRR3108818.5336,95.59,68,2,1,562,628,324,257,5e-23,108
Capronia_mansonii_CBS101.67_T,SRR3108818.15376,94.83,58,3,0,571,628,314,257,5e-18,91.6
Capronia_mansonii_CBS101.67_T,SRR3108818.13692,94.83,58,3,0,571,628,313,256,5e-18,91.6
Capronia_mansonii_CBS101.67_T,SRR3108818.13107,94.83,58,3,0,571,628,316,259,5e-18,91.6
Capronia_mansonii_CBS101.67_T,SRR3108818.15007,94.74,57,3,0,572,628,311,255,2e-17,89.8
Capronia_mansonii_CBS101.67_T,SRR3108818.3138,92.19,64,4,1,565,628,317,255,2e-17,89.8
Capronia_mansonii_CBS101.67_T,SRR3108818.15667,95.83,48,2,0,581,628,303,256,4e-14,78.7
Capronia_mansonii_CBS101.67_T,SRR3108818.9512,87.88,66,7,1,564,628,320,255,1e-13,76.8
Capronia_mansonii_CBS101.67_T,SRR3108818.8058,89.66,58,6,0,571,628,316,259,5e-13,75.0
Capronia_mansonii_CBS101.67_T,SRR3108818.8202,87.30,63,7,1,571,632,309,247,7e-12,71.3
Capronia_mansonii_CBS101.67_T,SRR3108818.16949,97.50,40,1,0,590,629,290,251,2e-11,69.4
Capronia_mansonii_CBS101.67_T,SRR3108818.13217,97.44,39,1,0,590,628,291,253,9e-11,67.6
Capronia_mansonii_CBS101.67_T,SRR3108818.13209,97.44,39,1,0,590,628,292,254,9e-11,67.6
Capronia_mansonii_CBS101.67_T,SRR3108818.11669,97.44,39,1,0,590,628,292,254,9e-11,67.6
Capronia_mansonii_CBS101.67_T,SRR3108818.4891,97.44,39,1,0,590,628,292,254,9e-11,67.6
Capronia_mansonii_CBS101.67_T,SRR3108818.1160,97.44,39,1,0,590,628,292,254,9e-11,67.6
Capronia_mansonii_CBS101.67_T,SRR3108818.18608,100.00,35,0,0,595,629,285,251,3e-10,65.8
Capronia_mansonii_CBS101.67_T,SRR3108818.13277,100.00,35,0,0,594,628,292,258,3e-10,65.8
Capronia_munkii_DAOM216390_T,SRR3108818.9482,90.57,106,6,3,295,400,1,102,6e-32,137
Capronia_munkii_DAOM216390_T,SRR3108818.9482,98.28,58,1,0,571,628,314,257,2e-21,102
Capronia_munkii_DAOM216390_T,SRR3108818.5054,93.83,81,2,3,549,628,335,257,2e-26,119
Capronia_munkii_DAOM216390_T,SRR3108818.5054,87.06,85,10,1,295,379,1,84,4e-19,95.3
Capronia_munkii_DAOM216390_T,SRR3108818.19282,100.00,62,0,0,567,628,316,255,3e-25,115
Capronia_munkii_DAOM216390_T,SRR3108818.19282,88.89,90,9,1,295,384,3,91,1e-23,110
Capronia_munkii_DAOM216390_T,SRR3108818.17873,97.01,67,1,1,562,628,323,258,4e-24,111
Capronia_munkii_DAOM216390_T,SRR3108818.17356,98.39,62,1,0,567,628,314,253,1e-23,110
Capronia_munkii_DAOM216390_T,SRR3108818.5336,98.36,61,1,0,568,628,317,257,5e-23,108
Capronia_munkii_DAOM216390_T,SRR3108818.15376,92.31,65,4,1,564,628,320,257,5e-18,91.6
Capronia_munkii_DAOM216390_T,SRR3108818.13692,94.83,58,3,0,571,628,313,256,5e-18,91.6
Capronia_munkii_DAOM216390_T,SRR3108818.13107,94.83,58,3,0,571,628,316,259,5e-18,91.6
Capronia_munkii_DAOM216390_T,SRR3108818.15007,94.74,57,3,0,572,628,311,255,2e-17,89.8
Capronia_munkii_DAOM216390_T,SRR3108818.3138,94.74,57,3,0,572,628,311,255,2e-17,89.8
Capronia_munkii_DAOM216390_T,SRR3108818.15667,95.83,48,2,0,581,628,303,256,4e-14,78.7
Capronia_munkii_DAOM216390_T,SRR3108818.9512,86.76,68,7,2,562,628,321,255,5e-13,75.0
Capronia_munkii_DAOM216390_T,SRR3108818.8058,89.66,58,6,0,571,628,316,259,5e-13,75.0
Capronia_munkii_DAOM216390_T,SRR3108818.8202,87.30,63,7,1,571,632,309,247,7e-12,71.3
Capronia_munkii_DAOM216390_T,SRR3108818.16949,97.50,40,1,0,590,629,290,251,2e-11,69.4
Capronia_munkii_DAOM216390_T,SRR3108818.13217,97.44,39,1,0,590,628,291,253,9e-11,67.6
Capronia_munkii_DAOM216390_T,SRR3108818.13209,97.44,39,1,0,590,628,292,254,9e-11,67.6
Capronia_munkii_DAOM216390_T,SRR3108818.11669,97.44,39,1,0,590,628,292,254,9e-11,67.6
Capronia_munkii_DAOM216390_T,SRR3108818.4891,97.44,39,1,0,590,628,292,254,9e-11,67.6
Capronia_munkii_DAOM216390_T,SRR3108818.1160,97.44,39,1,0,590,628,292,254,9e-11,67.6
Capronia_munkii_DAOM216390_T,SRR3108818.18608,100.00,35,0,0,595,629,285,251,3e-10,65.8
Capronia_munkii_DAOM216390_T,SRR3108818.13277,100.00,35,0,0,594,628,292,258,3e-10,65.8
Capronia_coronata_ATCC56201_T,SRR3108818.9482,94.19,86,4,1,283,368,1,85,1e-29,130
Capronia_coronata_ATCC56201_T,SRR3108818.9482,98.28,58,1,0,542,599,314,257,2e-21,102
Capronia_coronata_ATCC56201_T,SRR3108818.19282,98.53,68,1,0,532,599,322,255,6e-27,121
Capronia_coronata_ATCC56201_T,SRR3108818.19282,89.29,84,8,1,283,366,3,85,6e-22,104
Capronia_coronata_ATCC56201_T,SRR3108818.17873,98.46,65,1,0,535,599,322,258,3e-25,115
Capronia_coronata_ATCC56201_T,SRR3108818.5054,95.71,70,3,0,530,599,326,257,1e-24,113
Capronia_coronata_ATCC56201_T,SRR3108818.5054,87.06,85,10,1,283,367,1,84,4e-19,95.3
Capronia_coronata_ATCC56201_T,SRR3108818.17356,98.41,63,1,0,537,599,315,253,4e-24,111
Capronia_coronata_ATCC56201_T,SRR3108818.5336,94.44,72,3,1,528,599,327,257,1e-23,110
Capronia_coronata_ATCC56201_T,SRR3108818.15376,94.83,58,3,0,542,599,314,257,5e-18,91.6
Capronia_coronata_ATCC56201_T,SRR3108818.13692,94.83,58,3,0,542,599,313,256,5e-18,91.6
Capronia_coronata_ATCC56201_T,SRR3108818.13107,94.83,58,3,0,542,599,316,259,5e-18,91.6
Capronia_coronata_ATCC56201_T,SRR3108818.15007,94.74,57,3,0,543,599,311,255,2e-17,89.8
Capronia_coronata_ATCC56201_T,SRR3108818.3138,94.74,57,3,0,543,599,311,255,2e-17,89.8
Capronia_coronata_ATCC56201_T,SRR3108818.15667,95.83,48,2,0,552,599,303,256,4e-14,78.7
Capronia_coronata_ATCC56201_T,SRR3108818.8058,89.66,58,6,0,542,599,316,259,5e-13,75.0
Capronia_coronata_ATCC56201_T,SRR3108818.9512,93.75,48,3,0,552,599,302,255,2e-12,73.1
Capronia_coronata_ATCC56201_T,SRR3108818.8202,87.30,63,7,1,542,603,309,247,6e-12,71.3
Capronia_coronata_ATCC56201_T,SRR3108818.16949,97.50,40,1,0,561,600,290,251,2e-11,69.4
Capronia_coronata_ATCC56201_T,SRR3108818.13217,97.44,39,1,0,561,599,291,253,8e-11,67.6
Capronia_coronata_ATCC56201_T,SRR3108818.13209,97.44,39,1,0,561,599,292,254,8e-11,67.6
Capronia_coronata_ATCC56201_T,SRR3108818.11669,97.44,39,1,0,561,599,292,254,8e-11,67.6
Capronia_coronata_ATCC56201_T,SRR3108818.4891,97.44,39,1,0,561,599,292,254,8e-11,67.6
Capronia_coronata_ATCC56201_T,SRR3108818.1160,97.44,39,1,0,561,599,292,254,8e-11,67.6
Capronia_coronata_ATCC56201_T,SRR3108818.18608,100.00,35,0,0,566,600,285,251,3e-10,65.8
Capronia_coronata_ATCC56201_T,SRR3108818.13277,100.00,35,0,0,565,599,292,258,3e-10,65.8
Capronia_parasitica_CBS123.88,SRR3108818.9482,95.40,87,3,1,289,375,1,86,6e-32,137
Capronia_parasitica_CBS123.88,SRR3108818.9482,100.00,33,0,0,563,595,314,282,4e-09,62.1
Capronia_parasitica_CBS123.88,SRR3108818.19282,89.87,79,7,1,289,367,3,80,8e-21,100
Capronia_parasitica_CBS123.88,SRR3108818.5054,87.34,79,9,1,289,367,1,78,2e-17,89.8
Capronia_parasitica_CBS123.88,SRR3108818.17356,100.00,39,0,0,557,595,316,278,2e-12,73.1
Capronia_parasitica_CBS123.88,SRR3108818.17356,100.00,30,0,0,557,586,223,252,2e-07,56.5
Capronia_parasitica_CBS123.88,SRR3108818.17873,100.00,38,0,0,558,595,320,283,6e-12,71.3
Capronia_parasitica_CBS123.88,SRR3108818.17873,100.00,36,0,0,558,593,217,252,8e-11,67.6
Capronia_parasitica_CBS123.88,SRR3108818.5336,100.00,36,0,0,560,595,317,282,8e-11,67.6
Capronia_parasitica_CBS123.88,SRR3108818.13842,97.14,35,1,0,561,595,315,281,1e-08,60.2
Veronaea_japonica_CBS776.83_T,SRR3108818.9482,94.38,89,4,1,317,405,1,88,2e-31,135
Veronaea_japonica_CBS776.83_T,SRR3108818.19282,88.89,90,9,1,317,406,3,91,1e-23,110
Veronaea_japonica_CBS776.83_T,SRR3108818.5054,87.06,85,10,1,317,401,1,84,4e-19,95.3
Thysanorea_papuana_CBS212.96_T,SRR3108818.9482,91.43,105,6,2,291,395,1,102,4e-33,141
Thysanorea_papuana_CBS212.96_T,SRR3108818.19282,86.11,108,12,3,291,396,3,109,9e-25,113
Thysanorea_papuana_CBS212.96_T,SRR3108818.5054,87.06,85,10,1,291,375,1,84,3e-19,95.3
Capronia_acutiseta_ATCC56428_T,SRR3108818.9482,94.25,87,4,1,284,370,1,86,3e-30,132
Capronia_acutiseta_ATCC56428_T,SRR3108818.9482,100.00,58,0,0,541,598,314,257,5e-23,108
Capronia_acutiseta_ATCC56428_T,SRR3108818.17873,100.00,64,0,0,535,598,321,258,2e-26,119
Capronia_acutiseta_ATCC56428_T,SRR3108818.17873,100.00,37,0,0,535,571,216,252,2e-11,69.4
Capronia_acutiseta_ATCC56428_T,SRR3108818.19282,93.67,79,3,2,520,598,331,255,8e-26,117
Capronia_acutiseta_ATCC56428_T,SRR3108818.19282,88.04,92,10,1,284,375,3,93,5e-23,108
Capronia_acutiseta_ATCC56428_T,SRR3108818.17356,97.14,70,1,1,530,598,322,253,8e-26,117
Capronia_acutiseta_ATCC56428_T,SRR3108818.17356,94.44,36,1,1,530,564,217,252,6e-07,54.7
Capronia_acutiseta_ATCC56428_T,SRR3108818.5336,100.00,61,0,0,538,598,317,257,1e-24,113
Capronia_acutiseta_ATCC56428_T,SRR3108818.5054,95.59,68,3,0,531,598,324,257,1e-23,110
Capronia_acutiseta_ATCC56428_T,SRR3108818.5054,87.06,85,10,1,284,368,1,84,4e-19,95.3
Capronia_acutiseta_ATCC56428_T,SRR3108818.13842,96.67,60,2,0,539,598,315,256,8e-21,100
Capronia_acutiseta_ATCC56428_T,SRR3108818.15376,93.10,58,4,0,541,598,314,257,2e-16,86.1
Capronia_acutiseta_ATCC56428_T,SRR3108818.13692,93.10,58,4,0,541,598,313,256,2e-16,86.1
Capronia_acutiseta_ATCC56428_T,SRR3108818.13107,93.10,58,4,0,541,598,316,259,2e-16,86.1
Capronia_acutiseta_ATCC56428_T,SRR3108818.15007,92.98,57,4,0,542,598,311,255,8e-16,84.2
Capronia_acutiseta_ATCC56428_T,SRR3108818.3138,92.98,57,4,0,542,598,311,255,8e-16,84.2
Capronia_acutiseta_ATCC56428_T,SRR3108818.8058,89.83,59,4,2,541,598,316,259,5e-13,75.0
Capronia_acutiseta_ATCC56428_T,SRR3108818.15667,93.75,48,3,0,551,598,303,256,2e-12,73.1
Capronia_acutiseta_ATCC56428_T,SRR3108818.8202,87.50,64,5,3,541,602,309,247,6e-12,71.3
Capronia_acutiseta_ATCC56428_T,SRR3108818.16949,100.00,36,0,0,564,599,286,251,8e-11,67.6
Capronia_acutiseta_ATCC56428_T,SRR3108818.9512,91.67,48,4,0,551,598,302,255,8e-11,67.6
Capronia_acutiseta_ATCC56428_T,SRR3108818.18608,100.00,35,0,0,565,599,285,251,3e-10,65.8
Capronia_acutiseta_ATCC56428_T,SRR3108818.13277,100.00,35,0,0,564,598,292,258,3e-10,65.8
Capronia_acutiseta_ATCC56428_T,SRR3108818.13217,100.00,35,0,0,564,598,287,253,3e-10,65.8
Capronia_acutiseta_ATCC56428_T,SRR3108818.13209,100.00,35,0,0,564,598,288,254,3e-10,65.8
Capronia_acutiseta_ATCC56428_T,SRR3108818.11669,100.00,35,0,0,564,598,288,254,3e-10,65.8
Capronia_acutiseta_ATCC56428_T,SRR3108818.4891,100.00,35,0,0,564,598,288,254,3e-10,65.8
Capronia_acutiseta_ATCC56428_T,SRR3108818.1160,100.00,35,0,0,564,598,288,254,3e-10,65.8
Fonsecaea_brasiliensis_CBS119710_T,SRR3108818.9482,90.57,106,6,3,291,396,1,102,5e-32,137
Fonsecaea_brasiliensis_CBS119710_T,SRR3108818.19282,85.32,109,12,4,291,397,3,109,1e-23,110
Fonsecaea_brasiliensis_CBS119710_T,SRR3108818.5054,86.75,83,10,1,291,373,1,82,4e-18,91.6
Fonsecaea_pedrosoi_CBS271.37_T,SRR3108818.9482,89.72,107,6,4,319,425,1,102,3e-30,132
Fonsecaea_pedrosoi_CBS271.37_T,SRR3108818.9482,96.55,58,2,0,588,645,314,257,1e-19,97.1
Fonsecaea_pedrosoi_CBS271.37_T,SRR3108818.19282,97.10,69,2,0,577,645,323,255,8e-26,117
Fonsecaea_pedrosoi_CBS271.37_T,SRR3108818.19282,86.24,109,12,3,319,426,3,109,3e-25,115
Fonsecaea_pedrosoi_CBS271.37_T,SRR3108818.17873,96.77,62,2,0,584,645,319,258,6e-22,104
Fonsecaea_pedrosoi_CBS271.37_T,SRR3108818.17356,96.77,62,2,0,584,645,314,253,6e-22,104
Fonsecaea_pedrosoi_CBS271.37_T,SRR3108818.5054,98.31,59,1,0,587,645,315,257,6e-22,104
Fonsecaea_pedrosoi_CBS271.37_T,SRR3108818.5054,86.75,83,10,1,319,401,1,82,5e-18,91.6
Fonsecaea_pedrosoi_CBS271.37_T,SRR3108818.5336,94.12,68,3,1,578,645,323,257,2e-21,102
Fonsecaea_pedrosoi_CBS271.37_T,SRR3108818.15376,93.10,58,4,0,588,645,314,257,2e-16,86.1
Fonsecaea_pedrosoi_CBS271.37_T,SRR3108818.13692,93.10,58,4,0,588,645,313,256,2e-16,86.1
Fonsecaea_pedrosoi_CBS271.37_T,SRR3108818.13107,93.10,58,4,0,588,645,316,259,2e-16,86.1
Fonsecaea_pedrosoi_CBS271.37_T,SRR3108818.15007,92.98,57,4,0,589,645,311,255,8e-16,84.2
Fonsecaea_pedrosoi_CBS271.37_T,SRR3108818.3138,90.62,64,5,1,582,645,317,255,8e-16,84.2
Fonsecaea_pedrosoi_CBS271.37_T,SRR3108818.15667,93.75,48,3,0,598,645,303,256,2e-12,73.1
Fonsecaea_pedrosoi_CBS271.37_T,SRR3108818.8058,87.93,58,7,0,588,645,316,259,2e-11,69.4
Fonsecaea_pedrosoi_CBS271.37_T,SRR3108818.8202,86.21,58,8,0,588,645,309,252,1e-09,63.9
Fonsecaea_pedrosoi_CBS271.37_T,SRR3108818.16949,94.87,39,2,0,607,645,290,252,4e-09,62.1
Fonsecaea_pedrosoi_CBS271.37_T,SRR3108818.13217,94.87,39,2,0,607,645,291,253,4e-09,62.1
Fonsecaea_pedrosoi_CBS271.37_T,SRR3108818.13209,94.87,39,2,0,607,645,292,254,4e-09,62.1
Fonsecaea_pedrosoi_CBS271.37_T,SRR3108818.11669,94.87,39,2,0,607,645,292,254,4e-09,62.1
Fonsecaea_pedrosoi_CBS271.37_T,SRR3108818.4891,94.87,39,2,0,607,645,292,254,4e-09,62.1
Fonsecaea_pedrosoi_CBS271.37_T,SRR3108818.1160,94.87,39,2,0,607,645,292,254,4e-09,62.1
Fonsecaea_pedrosoi_CBS271.37_T,SRR3108818.18608,100.00,32,0,0,614,645,283,252,1e-08,60.2
Fonsecaea_pedrosoi_CBS271.37_T,SRR3108818.13277,100.00,32,0,0,614,645,289,258,1e-08,60.2
Fonsecaea_multimorphosa_CBS980.96_T,SRR3108818.9482,91.51,106,5,4,289,394,1,102,1e-33,143
Fonsecaea_multimorphosa_CBS980.96_T,SRR3108818.19282,86.24,109,11,4,289,395,3,109,2e-25,115
Fonsecaea_multimorphosa_CBS980.96_T,SRR3108818.5054,86.75,83,10,1,289,371,1,82,4e-18,91.6
Fonsecaea_minima_CBS125760_T,SRR3108818.9482,90.57,106,6,3,285,390,1,102,5e-32,137
Fonsecaea_minima_CBS125760_T,SRR3108818.19282,85.32,109,12,4,285,391,3,109,1e-23,110
Fonsecaea_minima_CBS125760_T,SRR3108818.5054,86.75,83,10,1,285,367,1,82,4e-18,91.6
Fonsecaea_nubica_CBS269.64_T,SRR3108818.9482,89.72,107,6,4,296,402,1,102,3e-30,132
Fonsecaea_nubica_CBS269.64_T,SRR3108818.19282,85.32,109,13,3,296,403,3,109,1e-23,110
Fonsecaea_nubica_CBS269.64_T,SRR3108818.5054,86.75,83,10,1,296,378,1,82,4e-18,91.6
Fonsecaea_monophora_CBS269.37_T,SRR3108818.9482,89.72,107,6,4,297,403,1,102,3e-30,132
Fonsecaea_monophora_CBS269.37_T,SRR3108818.19282,86.24,109,12,3,297,404,3,109,3e-25,115
Fonsecaea_monophora_CBS269.37_T,SRR3108818.5054,86.75,83,10,1,297,379,1,82,4e-18,91.6
Fonsecaea_erecta_CBS125763_T,SRR3108818.9482,91.51,106,5,3,280,385,1,102,1e-33,143
Fonsecaea_erecta_CBS125763_T,SRR3108818.19282,86.11,108,13,2,280,386,3,109,2e-25,115
Fonsecaea_erecta_CBS125763_T,SRR3108818.5054,87.06,85,10,1,280,364,1,84,3e-19,95.3
Fonsecaea_pugnacius_CBS139214_T,SRR3108818.9482,93.33,90,4,2,289,378,1,88,2e-30,132
Fonsecaea_pugnacius_CBS139214_T,SRR3108818.19282,85.45,110,12,4,289,397,3,109,3e-24,111
Fonsecaea_pugnacius_CBS139214_T,SRR3108818.5054,86.75,83,10,1,289,371,1,82,4e-18,91.6
Cladophialophora_psammophila_CBS,SRR3108818.9482,91.51,106,5,3,295,400,1,102,1e-33,143
Cladophialophora_psammophila_CBS,SRR3108818.19282,86.11,108,13,2,295,401,3,109,3e-25,115
Cladophialophora_psammophila_CBS,SRR3108818.5054,87.06,85,10,1,295,379,1,84,3e-19,95.3
Cladophialophora_devriesii_CBS,SRR3108818.9482,91.51,106,5,4,291,396,1,102,1e-33,143
Cladophialophora_devriesii_CBS,SRR3108818.19282,86.24,109,11,4,291,397,3,109,2e-25,115
Cladophialophora_devriesii_CBS,SRR3108818.5054,86.75,83,10,1,291,373,1,82,4e-18,91.6
Cladophialophora_immunda_CBS834.96,SRR3108818.9482,90.57,106,6,3,293,398,1,102,5e-32,137
Cladophialophora_immunda_CBS834.96,SRR3108818.19282,85.32,109,12,4,293,399,3,109,1e-23,110
Cladophialophora_immunda_CBS834.96,SRR3108818.5054,86.75,83,10,1,293,375,1,82,4e-18,91.6
Cladophialophora_arxii_CBS306.94_T,SRR3108818.9482,97.37,76,2,0,295,370,1,76,9e-30,130
Cladophialophora_arxii_CBS306.94_T,SRR3108818.19282,85.45,110,12,4,295,403,3,109,3e-24,111
Cladophialophora_arxii_CBS306.94_T,SRR3108818.5054,86.75,83,10,1,295,377,1,82,4e-18,91.6
Cladophialophora_bantiana_CBS173.52,SRR3108818.9482,91.51,106,5,3,289,394,1,102,1e-33,143
Cladophialophora_bantiana_CBS173.52,SRR3108818.19282,86.11,108,13,2,289,395,3,109,3e-25,115
Cladophialophora_bantiana_CBS173.52,SRR3108818.5054,87.06,85,10,1,289,373,1,84,3e-19,95.3
Cladophialophora_emmonsii_CBS102594,SRR3108818.9482,94.38,89,4,1,280,368,1,88,2e-31,135
Cladophialophora_emmonsii_CBS102594,SRR3108818.19282,85.34,116,13,4,280,394,3,115,7e-26,117
Cladophialophora_emmonsii_CBS102594,SRR3108818.5054,87.06,85,10,1,280,364,1,84,3e-19,95.3
Cladophialophora_minourae_CBS556.83,SRR3108818.9482,92.13,89,4,3,290,378,3,88,2e-27,122
Cladophialophora_minourae_CBS556.83,SRR3108818.19282,84.26,108,12,5,290,395,5,109,7e-21,100
Cladophialophora_minourae_CBS556.83,SRR3108818.5054,83.53,85,11,3,290,374,3,84,1e-13,76.8
Cladophialophora_australiensis_CBS112793,SRR3108818.9482,90.48,105,7,2,290,394,1,102,5e-31,135
Cladophialophora_australiensis_CBS112793,SRR3108818.9482,96.55,58,2,0,549,606,314,257,2e-19,97.1
Cladophialophora_australiensis_CBS112793,SRR3108818.19282,84.35,115,14,4,290,402,3,115,3e-23,110
Cladophialophora_australiensis_CBS112793,SRR3108818.19282,95.65,69,2,1,539,606,323,255,3e-23,110
Cladophialophora_australiensis_CBS112793,SRR3108818.5054,95.59,68,2,1,540,606,324,257,1e-22,108
Cladophialophora_australiensis_CBS112793,SRR3108818.5054,85.88,85,11,1,290,374,1,84,4e-17,89.8
Cladophialophora_australiensis_CBS112793,SRR3108818.17873,95.45,66,2,1,541,606,322,258,1e-21,104
Cladophialophora_australiensis_CBS112793,SRR3108818.17356,96.77,62,2,0,545,606,314,253,1e-21,104
Cladophialophora_australiensis_CBS112793,SRR3108818.5336,93.06,72,4,1,535,606,327,257,1e-21,104
Cladophialophora_australiensis_CBS112793,SRR3108818.15376,90.77,65,5,1,542,606,320,257,5e-16,86.1
Cladophialophora_australiensis_CBS112793,SRR3108818.13692,93.10,58,4,0,549,606,313,256,5e-16,86.1
Cladophialophora_australiensis_CBS112793,SRR3108818.13107,93.10,58,4,0,549,606,316,259,5e-16,86.1
Cladophialophora_australiensis_CBS112793,SRR3108818.15007,92.98,57,4,0,550,606,311,255,2e-15,84.2
Cladophialophora_australiensis_CBS112793,SRR3108818.3138,92.98,57,4,0,550,606,311,255,2e-15,84.2
Cladophialophora_australiensis_CBS112793,SRR3108818.15667,93.75,48,3,0,559,606,303,256,4e-12,73.1
Cladophialophora_australiensis_CBS112793,SRR3108818.8058,87.93,58,7,0,549,606,316,259,5e-11,69.4
Cladophialophora_australiensis_CBS112793,SRR3108818.8202,85.71,63,8,1,549,610,309,247,7e-10,65.8
Cladophialophora_australiensis_CBS112793,SRR3108818.16949,95.00,40,2,0,568,607,290,251,2e-09,63.9
Cladophialophora_australiensis_CBS112793,SRR3108818.18608,100.00,33,0,0,575,607,283,251,9e-09,62.1
Cladophialophora_australiensis_CBS112793,SRR3108818.13217,94.87,39,2,0,568,606,291,253,9e-09,62.1
Cladophialophora_australiensis_CBS112793,SRR3108818.13209,94.87,39,2,0,568,606,292,254,9e-09,62.1
Cladophialophora_australiensis_CBS112793,SRR3108818.11669,94.87,39,2,0,568,606,292,254,9e-09,62.1
Cladophialophora_australiensis_CBS112793,SRR3108818.4891,94.87,39,2,0,568,606,292,254,9e-09,62.1
Cladophialophora_australiensis_CBS112793,SRR3108818.1160,94.87,39,2,0,568,606,292,254,9e-09,62.1
Cladophialophora_australiensis_CBS112793,SRR3108818.13277,100.00,32,0,0,575,606,289,258,3e-08,60.2
Cladophialophora_potulentorum_CBS112222,SRR3108818.9482,89.52,105,8,2,289,393,1,102,2e-29,130
Cladophialophora_potulentorum_CBS112222,SRR3108818.9482,96.55,58,2,0,551,608,314,257,3e-19,97.1
Cladophialophora_potulentorum_CBS112222,SRR3108818.19282,97.10,69,1,1,540,608,322,255,7e-25,115
Cladophialophora_potulentorum_CBS112222,SRR3108818.19282,83.48,115,15,4,289,401,3,115,1e-21,104
Cladophialophora_potulentorum_CBS112222,SRR3108818.17356,96.88,64,2,0,545,608,316,253,1e-22,108
Cladophialophora_potulentorum_CBS112222,SRR3108818.17873,96.83,63,2,0,546,608,320,258,4e-22,106
Cladophialophora_potulentorum_CBS112222,SRR3108818.5054,93.06,72,4,1,537,608,327,257,1e-21,104
Cladophialophora_potulentorum_CBS112222,SRR3108818.5054,87.06,85,10,1,289,373,1,84,9e-19,95.3
Cladophialophora_potulentorum_CBS112222,SRR3108818.5336,96.72,61,2,0,548,608,317,257,5e-21,102
Cladophialophora_potulentorum_CBS112222,SRR3108818.13107,85.23,88,10,2,521,608,343,259,2e-16,87.9
Cladophialophora_potulentorum_CBS112222,SRR3108818.15376,93.10,58,4,0,551,608,314,257,5e-16,86.1
Cladophialophora_potulentorum_CBS112222,SRR3108818.13692,88.73,71,7,1,538,608,325,256,5e-16,86.1
Cladophialophora_potulentorum_CBS112222,SRR3108818.15007,92.98,57,4,0,552,608,311,255,2e-15,84.2
Cladophialophora_potulentorum_CBS112222,SRR3108818.3138,92.98,57,4,0,552,608,311,255,2e-15,84.2
Cladophialophora_potulentorum_CBS112222,SRR3108818.15667,93.75,48,3,0,561,608,303,256,4e-12,73.1
Cladophialophora_potulentorum_CBS112222,SRR3108818.8058,87.93,58,7,0,551,608,316,259,5e-11,69.4
Cladophialophora_potulentorum_CBS112222,SRR3108818.8202,85.71,63,8,1,551,612,309,247,7e-10,65.8
Cladophialophora_potulentorum_CBS112222,SRR3108818.16949,95.00,40,2,0,570,609,290,251,3e-09,63.9
Cladophialophora_potulentorum_CBS112222,SRR3108818.18608,100.00,33,0,0,577,609,283,251,9e-09,62.1
Cladophialophora_potulentorum_CBS112222,SRR3108818.13217,94.87,39,2,0,570,608,291,253,9e-09,62.1
Cladophialophora_potulentorum_CBS112222,SRR3108818.13209,94.87,39,2,0,570,608,292,254,9e-09,62.1
Cladophialophora_potulentorum_CBS112222,SRR3108818.11669,94.87,39,2,0,570,608,292,254,9e-09,62.1
Cladophialophora_potulentorum_CBS112222,SRR3108818.4891,94.87,39,2,0,570,608,292,254,9e-09,62.1
Cladophialophora_potulentorum_CBS112222,SRR3108818.1160,94.87,39,2,0,570,608,292,254,9e-09,62.1
Cladophialophora_potulentorum_CBS112222,SRR3108818.13277,100.00,32,0,0,577,608,289,258,3e-08,60.2
Cladophialophora_matsushimae_CMRP1198,SRR3108818.9482,92.13,89,6,1,293,381,1,88,4e-28,124
Cladophialophora_matsushimae_CMRP1198,SRR3108818.19282,87.78,90,10,1,293,382,3,91,5e-22,104
Cladophialophora_matsushimae_CMRP1198,SRR3108818.5054,88.24,85,9,1,293,377,1,84,6e-21,100
Cladophialophora_mycetomatis_CBS122637,SRR3108818.9482,90.48,105,7,2,278,382,1,102,2e-31,135
Cladophialophora_mycetomatis_CBS122637,SRR3108818.19282,85.19,108,13,3,278,383,3,109,4e-23,108
Cladophialophora_mycetomatis_CBS122637,SRR3108818.5054,88.24,85,9,1,278,362,1,84,7e-21,100
Cladophialophora_chaetospira_CBS127573,SRR3108818.9482,91.43,105,6,2,684,788,1,102,7e-33,141
Cladophialophora_chaetospira_CBS127573,SRR3108818.19282,87.04,108,11,3,684,789,3,109,3e-26,119
Cladophialophora_chaetospira_CBS127573,SRR3108818.5054,87.06,85,10,1,684,768,1,84,6e-19,95.3
Cladophialophora_boppii_CBS126.86_T,SRR3108818.9482,92.93,99,4,3,286,384,1,96,4e-33,141
Cladophialophora_boppii_CBS126.86_T,SRR3108818.19282,88.00,100,9,3,286,383,3,101,2e-25,115
Cladophialophora_boppii_CBS126.86_T,SRR3108818.5054,87.06,85,10,1,286,370,1,84,3e-19,95.3
Cladophialophora_abundans_CBS126736,SRR3108818.9482,91.26,103,6,2,225,327,3,102,5e-32,137
Cladophialophora_abundans_CBS126736,SRR3108818.9482,89.39,66,4,2,262,327,499,437,8e-15,80.5
Cladophialophora_abundans_CBS126736,SRR3108818.19282,87.74,106,10,3,225,328,5,109,5e-27,121
Cladophialophora_abundans_CBS126736,SRR3108818.5054,86.75,83,10,1,225,307,3,84,4e-18,91.6
Capronia_semi-immersa_CBS102234,SRR3108818.9482,91.26,103,6,2,287,389,3,102,5e-32,137
Capronia_semi-immersa_CBS102234,SRR3108818.19282,85.85,106,12,3,287,390,5,109,1e-23,110
Capronia_semi-immersa_CBS102234,SRR3108818.5054,85.54,83,11,1,287,369,3,84,2e-16,86.1
Phialophora_americana_CBS400.67,SRR3108818.9482,91.26,103,6,2,289,391,3,102,1e-31,137
Phialophora_americana_CBS400.67,SRR3108818.19282,85.85,106,12,3,289,392,5,109,3e-23,110
Phialophora_americana_CBS400.67,SRR3108818.19282,94.37,71,4,0,530,600,325,255,3e-23,110
Phialophora_americana_CBS400.67,SRR3108818.17873,95.45,66,3,0,535,600,323,258,4e-22,106
Phialophora_americana_CBS400.67,SRR3108818.17873,94.87,39,2,0,535,573,214,252,9e-09,62.1
Phialophora_americana_CBS400.67,SRR3108818.5054,85.54,83,11,1,289,371,3,84,5e-16,86.1
Phialophora_verrucosa_CBS140325_T,SRR3108818.9482,91.26,103,6,2,293,395,3,102,6e-32,137
Phialophora_verrucosa_CBS140325_T,SRR3108818.19282,85.85,106,12,3,293,396,5,109,1e-23,110
Phialophora_verrucosa_CBS140325_T,SRR3108818.19282,94.23,52,2,1,535,586,325,275,3e-14,78.7
Phialophora_verrucosa_CBS140325_T,SRR3108818.5054,85.54,83,11,1,293,375,3,84,2e-16,86.1
Cladophialophora_samoensis_CBS259.83_T,SRR3108818.9482,90.52,116,6,4,291,405,1,112,2e-35,148
Cladophialophora_samoensis_CBS259.83_T,SRR3108818.9482,87.01,77,5,4,330,405,499,427,3e-15,82.4
Cladophialophora_samoensis_CBS259.83_T,SRR3108818.19282,86.61,112,11,4,291,400,3,112,5e-27,121
Cladophialophora_samoensis_CBS259.83_T,SRR3108818.5054,87.06,85,10,1,291,375,1,84,3e-19,95.3
Cladophialophora_carrionii_CBS260.83,SRR3108818.9482,92.38,105,5,2,307,411,1,102,1e-34,147
Cladophialophora_carrionii_CBS260.83,SRR3108818.19282,87.96,108,10,3,307,412,3,109,5e-28,124
Cladophialophora_carrionii_CBS260.83,SRR3108818.19282,96.43,56,2,0,553,608,321,266,1e-18,93.5
Cladophialophora_carrionii_CBS260.83,SRR3108818.5054,87.06,85,10,1,307,391,1,84,4e-19,95.3
Exophiala_palmae_UPCB86822_T,SRR3108818.9482,94.38,89,4,1,250,338,1,88,2e-31,135
Exophiala_palmae_UPCB86822_T,SRR3108818.19282,88.89,90,9,1,250,339,3,91,1e-23,110
Exophiala_palmae_UPCB86822_T,SRR3108818.5054,87.06,85,10,1,250,334,1,84,3e-19,95.3
Cladophialophora_yegresii_CBS114405_T,SRR3108818.9482,92.38,105,5,2,292,396,1,102,9e-35,147
Cladophialophora_yegresii_CBS114405_T,SRR3108818.19282,87.04,108,11,3,292,397,3,109,2e-26,119
Cladophialophora_yegresii_CBS114405_T,SRR3108818.5054,87.06,85,10,1,292,376,1,84,3e-19,95.3
Knufia_epidermidis_CBS120353_T,SRR3108818.9482,94.59,74,4,0,292,365,3,76,2e-25,115
Knufia_epidermidis_CBS120353_T,SRR3108818.19282,93.15,73,5,0,292,364,5,77,4e-23,108
Knufia_epidermidis_CBS120353_T,SRR3108818.5054,85.54,83,11,1,292,374,3,84,2e-16,86.1
Arthrocladium_fulminans_CBS136243_T,SRR3108818.9482,94.67,75,2,2,287,360,3,76,3e-25,115
Arthrocladium_fulminans_CBS136243_T,SRR3108818.19282,91.78,73,6,0,287,359,5,77,2e-21,102
Arthrocladium_fulminans_CBS136243_T,SRR3108818.19282,100.00,28,0,0,533,560,315,288,2e-06,52.8
Arthrocladium_fulminans_CBS136243_T,SRR3108818.5054,86.75,83,10,1,287,369,3,84,4e-18,91.6
Anthopsis_deltoidea_CBS263.77_T,SRR3108818.5336,93.14,102,7,0,294,395,3,104,6e-36,150
Cyphellophora_laciniata_CBS190.61_T,SRR3108818.5336,93.14,102,7,0,379,480,3,104,9e-36,150
Cyphellophora_laciniata_CBS190.61_T,SRR3108818.5336,92.31,78,3,2,618,695,331,257,6e-23,108
Cyphellophora_laciniata_CBS190.61_T,SRR3108818.5336,92.86,70,4,1,411,480,500,432,9e-21,100
Cyphellophora_laciniata_CBS190.61_T,SRR3108818.9482,91.58,95,7,1,379,473,3,96,1e-29,130
Cyphellophora_laciniata_CBS190.61_T,SRR3108818.9482,98.28,58,1,0,638,695,314,257,3e-21,102
Cyphellophora_laciniata_CBS190.61_T,SRR3108818.19282,97.14,70,0,1,626,695,322,255,9e-26,117
Cyphellophora_laciniata_CBS190.61_T,SRR3108818.19282,88.64,88,9,1,379,466,5,91,2e-22,106
Cyphellophora_laciniata_CBS190.61_T,SRR3108818.17356,95.77,71,1,2,627,695,323,253,1e-24,113
Cyphellophora_laciniata_CBS190.61_T,SRR3108818.17873,98.41,63,1,0,633,695,320,258,4e-24,111
Cyphellophora_laciniata_CBS190.61_T,SRR3108818.5054,100.00,59,0,0,637,695,315,257,2e-23,110
Cyphellophora_laciniata_CBS190.61_T,SRR3108818.5054,86.75,83,10,1,379,461,3,84,6e-18,91.6
Cyphellophora_laciniata_CBS190.61_T,SRR3108818.13107,89.33,75,6,2,621,695,331,259,2e-18,93.5
Cyphellophora_laciniata_CBS190.61_T,SRR3108818.15376,94.83,58,3,0,638,695,314,257,6e-18,91.6
Cyphellophora_laciniata_CBS190.61_T,SRR3108818.13692,94.83,58,3,0,638,695,313,256,6e-18,91.6
Cyphellophora_laciniata_CBS190.61_T,SRR3108818.15007,94.74,57,3,0,639,695,311,255,2e-17,89.8
Cyphellophora_laciniata_CBS190.61_T,SRR3108818.3138,94.74,57,3,0,639,695,311,255,2e-17,89.8
Cyphellophora_laciniata_CBS190.61_T,SRR3108818.15667,95.83,48,2,0,648,695,303,256,4e-14,78.7
Cyphellophora_laciniata_CBS190.61_T,SRR3108818.8058,89.66,58,6,0,638,695,316,259,6e-13,75.0
Cyphellophora_laciniata_CBS190.61_T,SRR3108818.9512,93.75,48,3,0,648,695,302,255,2e-12,73.1
Cyphellophora_laciniata_CBS190.61_T,SRR3108818.8202,87.30,63,7,1,638,699,309,247,7e-12,71.3
Cyphellophora_laciniata_CBS190.61_T,SRR3108818.16949,97.50,40,1,0,657,696,290,251,3e-11,69.4
Cyphellophora_laciniata_CBS190.61_T,SRR3108818.13217,97.44,39,1,0,657,695,291,253,1e-10,67.6
Cyphellophora_laciniata_CBS190.61_T,SRR3108818.13209,97.44,39,1,0,657,695,292,254,1e-10,67.6
Cyphellophora_laciniata_CBS190.61_T,SRR3108818.11669,97.44,39,1,0,657,695,292,254,1e-10,67.6
Cyphellophora_laciniata_CBS190.61_T,SRR3108818.4891,97.44,39,1,0,657,695,292,254,1e-10,67.6
Cyphellophora_laciniata_CBS190.61_T,SRR3108818.1160,97.44,39,1,0,657,695,292,254,1e-10,67.6
Cyphellophora_laciniata_CBS190.61_T,SRR3108818.18608,100.00,35,0,0,662,696,285,251,3e-10,65.8
Cyphellophora_laciniata_CBS190.61_T,SRR3108818.13277,100.00,35,0,0,661,695,292,258,3e-10,65.8
Cyphellophora_suttonii_CBS449.91,SRR3108818.5336,93.14,102,7,0,282,383,3,104,7e-36,150
Cyphellophora_suttonii_CBS449.91,SRR3108818.5336,92.86,70,4,1,314,383,500,432,7e-21,100
Cyphellophora_suttonii_CBS449.91,SRR3108818.9482,91.58,95,7,1,282,376,3,96,9e-30,130
Cyphellophora_suttonii_CBS449.91,SRR3108818.19282,88.64,88,9,1,282,369,5,91,1e-22,106
Cyphellophora_suttonii_CBS449.91,SRR3108818.5054,86.75,83,10,1,282,364,3,84,4e-18,91.6
Cyphellophora_pauciseptata_CBS284.85_T,SRR3108818.5336,93.14,102,7,0,293,394,3,104,7e-36,150
Cyphellophora_pauciseptata_CBS284.85_T,SRR3108818.5336,92.86,70,4,1,325,394,500,432,7e-21,100
Cyphellophora_pauciseptata_CBS284.85_T,SRR3108818.9482,91.58,95,7,1,293,387,3,96,9e-30,130
Cyphellophora_pauciseptata_CBS284.85_T,SRR3108818.19282,88.64,88,9,1,293,380,5,91,1e-22,106
Cyphellophora_pauciseptata_CBS284.85_T,SRR3108818.5054,86.75,83,10,1,293,375,3,84,4e-18,91.6
Cyphellophora_pluriseptata_CBS286.85_T,SRR3108818.9482,92.63,95,6,1,298,392,3,96,2e-31,135
Cyphellophora_pluriseptata_CBS286.85_T,SRR3108818.19282,88.64,88,9,1,298,385,5,91,1e-22,106
Cyphellophora_pluriseptata_CBS286.85_T,SRR3108818.5054,86.75,83,10,1,298,380,3,84,4e-18,91.6
Phialophora_europaea_CBS101466,SRR3108818.9482,92.63,95,6,1,288,382,3,96,2e-31,135
Phialophora_europaea_CBS101466,SRR3108818.19282,88.64,88,9,1,288,375,5,91,1e-22,106
Phialophora_europaea_CBS101466,SRR3108818.5054,86.75,83,10,1,288,370,3,84,4e-18,91.6
Phialophora_ambigua_CBS235.93,SRR3108818.9482,92.63,95,6,1,285,379,3,96,2e-31,135
Phialophora_ambigua_CBS235.93,SRR3108818.19282,88.64,88,9,1,285,372,5,91,1e-22,106
Phialophora_ambigua_CBS235.93,SRR3108818.5054,86.75,83,10,1,285,367,3,84,4e-18,91.6
Cladophialophora_modesta_CBS985.96_T,SRR3108818.9482,92.16,102,6,2,284,385,3,102,1e-33,143
Cladophialophora_modesta_CBS985.96_T,SRR3108818.9482,96.55,58,2,0,522,579,314,257,1e-19,97.1
Cladophialophora_modesta_CBS985.96_T,SRR3108818.19282,95.71,70,2,1,511,579,324,255,4e-24,111
Cladophialophora_modesta_CBS985.96_T,SRR3108818.19282,85.85,106,11,3,284,386,5,109,1e-23,110
Cladophialophora_modesta_CBS985.96_T,SRR3108818.5054,95.59,68,2,1,513,579,324,257,5e-23,108
Cladophialophora_modesta_CBS985.96_T,SRR3108818.5054,86.75,83,10,1,284,366,3,84,5e-18,91.6
Cladophialophora_modesta_CBS985.96_T,SRR3108818.17873,95.45,66,2,1,514,579,322,258,6e-22,104
Cladophialophora_modesta_CBS985.96_T,SRR3108818.17356,96.77,62,2,0,518,579,314,253,6e-22,104
Cladophialophora_modesta_CBS985.96_T,SRR3108818.5336,96.72,61,2,0,519,579,317,257,2e-21,102
Cladophialophora_modesta_CBS985.96_T,SRR3108818.15376,93.85,65,3,1,515,579,320,257,1e-19,97.1
Cladophialophora_modesta_CBS985.96_T,SRR3108818.13692,96.55,58,2,0,522,579,313,256,1e-19,97.1
Cladophialophora_modesta_CBS985.96_T,SRR3108818.13107,96.55,58,2,0,522,579,316,259,1e-19,97.1
Cladophialophora_modesta_CBS985.96_T,SRR3108818.15007,96.49,57,2,0,523,579,311,255,4e-19,95.3
Cladophialophora_modesta_CBS985.96_T,SRR3108818.3138,96.49,57,2,0,523,579,311,255,4e-19,95.3
Cladophialophora_modesta_CBS985.96_T,SRR3108818.16120,94.83,58,3,0,522,579,316,259,5e-18,91.6
Cladophialophora_modesta_CBS985.96_T,SRR3108818.15667,97.92,48,1,0,532,579,303,256,8e-16,84.2
Cladophialophora_modesta_CBS985.96_T,SRR3108818.8058,91.38,58,5,0,522,579,316,259,1e-14,80.5
Cladophialophora_modesta_CBS985.96_T,SRR3108818.9512,89.06,64,6,1,517,579,318,255,4e-14,78.7
Cladophialophora_modesta_CBS985.96_T,SRR3108818.8202,88.89,63,6,1,522,583,309,247,1e-13,76.8
Cladophialophora_modesta_CBS985.96_T,SRR3108818.16949,100.00,36,0,0,545,580,286,251,8e-11,67.6
Cladophialophora_modesta_CBS985.96_T,SRR3108818.13277,97.44,39,1,0,541,579,296,258,8e-11,67.6
Cladophialophora_modesta_CBS985.96_T,SRR3108818.18608,100.00,35,0,0,546,580,285,251,3e-10,65.8
Cladophialophora_modesta_CBS985.96_T,SRR3108818.13217,100.00,35,0,0,545,579,287,253,3e-10,65.8
Cladophialophora_modesta_CBS985.96_T,SRR3108818.13209,100.00,35,0,0,545,579,288,254,3e-10,65.8
Cladophialophora_modesta_CBS985.96_T,SRR3108818.11669,100.00,35,0,0,545,579,288,254,3e-10,65.8
Cladophialophora_modesta_CBS985.96_T,SRR3108818.4891,100.00,35,0,0,545,579,288,254,3e-10,65.8
Cladophialophora_modesta_CBS985.96_T,SRR3108818.1160,100.00,35,0,0,545,579,288,254,3e-10,65.8
Cyphellophora_fusarioides_MUCL44033_T,SRR3108818.5336,94.12,102,6,0,281,382,3,104,1e-37,156
Cyphellophora_fusarioides_MUCL44033_T,SRR3108818.5336,92.86,70,4,1,313,382,500,432,7e-21,100
