Exophiala_nigra_CBS535.94_T,SRR3977138.18780606,90.27,113,8,2,209,320,261,151,8e-32,145
Exophiala_nigra_CBS535.94_T,SRR3977138.18780606,90.00,100,7,2,209,307,53,150,3e-26,126
Exophiala_nigra_CBS535.94_T,SRR3977138.11617594,90.27,113,8,2,209,320,111,1,8e-32,145
Exophiala_nigra_CBS535.94_T,SRR3977138.11617594,90.00,100,7,2,209,307,203,300,3e-26,126
Exophiala_nigra_CBS535.94_T,SRR3977138.10506712,88.00,100,8,3,292,391,2,97,7e-23,115
Exophiala_spinifera_CBS899.68_T,SRR3977138.18780606,91.15,113,7,2,206,317,261,151,2e-33,150
Exophiala_spinifera_CBS899.68_T,SRR3977138.18780606,91.00,100,6,2,206,304,53,150,6e-28,132
Exophiala_spinifera_CBS899.68_T,SRR3977138.11617594,91.15,113,7,2,206,317,111,1,2e-33,150
Exophiala_spinifera_CBS899.68_T,SRR3977138.11617594,91.00,100,6,2,206,304,203,300,6e-28,132
Exophiala_spinifera_CBS899.68_T,SRR3977138.10506712,87.88,99,9,3,289,387,2,97,2e-22,113
Exophiala_exophialae_CBS668.76_T,SRR3977138.18780606,91.15,113,7,2,207,318,261,151,2e-33,150
Exophiala_exophialae_CBS668.76_T,SRR3977138.18780606,91.00,100,6,2,207,305,53,150,6e-28,132
Exophiala_exophialae_CBS668.76_T,SRR3977138.11617594,91.15,113,7,2,207,318,111,1,2e-33,150
Exophiala_exophialae_CBS668.76_T,SRR3977138.11617594,91.00,100,6,2,207,305,203,300,6e-28,132
Exophiala_exophialae_CBS668.76_T,SRR3977138.10506712,87.88,99,9,3,290,388,2,97,2e-22,113
Exophiala_polymorpha_CBS138920_T,SRR3977138.18780606,91.15,113,7,2,309,420,261,151,2e-33,150
Exophiala_polymorpha_CBS138920_T,SRR3977138.18780606,91.00,100,6,2,309,407,53,150,8e-28,132
Exophiala_polymorpha_CBS138920_T,SRR3977138.11617594,91.15,113,7,2,309,420,111,1,2e-33,150
Exophiala_polymorpha_CBS138920_T,SRR3977138.11617594,91.00,100,6,2,309,407,203,300,8e-28,132
Exophiala_polymorpha_CBS138920_T,SRR3977138.10506712,87.88,99,9,3,392,490,2,97,3e-22,113
Exophiala_polymorpha_CBS138920_T,SRR3977138.20549260,96.08,51,2,0,644,694,203,253,2e-13,84.2
Exophiala_polymorpha_CBS138920_T,SRR3977138.8396459,100.00,28,0,0,82,109,123,96,6e-04,52.8
Exophiala_polymorpha_CBS138920_T,SRR3977138.8396459,100.00,28,0,0,82,109,240,267,6e-04,52.8
Exophiala_oligosperma_CBS725.88_T,SRR3977138.18780606,91.15,113,7,2,219,330,261,151,2e-33,150
Exophiala_oligosperma_CBS725.88_T,SRR3977138.18780606,91.00,100,6,2,219,317,53,150,6e-28,132
Exophiala_oligosperma_CBS725.88_T,SRR3977138.11617594,91.15,113,7,2,219,330,111,1,2e-33,150
Exophiala_oligosperma_CBS725.88_T,SRR3977138.11617594,91.00,100,6,2,219,317,203,300,6e-28,132
Exophiala_oligosperma_CBS725.88_T,SRR3977138.10506712,87.88,99,9,3,302,400,2,97,2e-22,113
Exophiala_jeanselmei_CBS507.90_T,SRR3977138.18780606,91.15,113,7,2,211,322,261,151,2e-33,150
Exophiala_jeanselmei_CBS507.90_T,SRR3977138.18780606,91.00,100,6,2,211,309,53,150,7e-28,132
Exophiala_jeanselmei_CBS507.90_T,SRR3977138.11617594,91.15,113,7,2,211,322,111,1,2e-33,150
Exophiala_jeanselmei_CBS507.90_T,SRR3977138.11617594,91.00,100,6,2,211,309,203,300,7e-28,132
Exophiala_jeanselmei_CBS507.90_T,SRR3977138.10506712,87.88,99,9,3,294,392,2,97,2e-22,113
Exophiala_jeanselmei_CBS507.90_T,SRR3977138.20549260,94.12,68,3,1,537,604,195,261,5e-19,102
Exophiala_jeanselmei_CBS507.90_T,SRR3977138.4054199,100.00,32,0,0,573,604,150,119,3e-06,60.2
Exophiala_bergeri_CBS353.52,SRR3977138.18780606,90.27,113,8,2,172,283,261,151,7e-32,145
Exophiala_bergeri_CBS353.52,SRR3977138.18780606,90.00,100,7,2,172,270,53,150,3e-26,126
Exophiala_bergeri_CBS353.52,SRR3977138.11617594,90.27,113,8,2,172,283,111,1,7e-32,145
Exophiala_bergeri_CBS353.52,SRR3977138.11617594,90.00,100,7,2,172,270,203,300,3e-26,126
Exophiala_bergeri_CBS353.52,SRR3977138.10506712,91.46,82,6,1,255,336,2,82,7e-22,111
Exophiala_moniliae_CBS520.76_T,SRR3977138.18780606,90.27,113,8,2,209,320,261,151,8e-32,145
Exophiala_moniliae_CBS520.76_T,SRR3977138.18780606,90.00,100,7,2,209,307,53,150,3e-26,126
Exophiala_moniliae_CBS520.76_T,SRR3977138.11617594,90.27,113,8,2,209,320,111,1,8e-32,145
Exophiala_moniliae_CBS520.76_T,SRR3977138.11617594,90.00,100,7,2,209,307,203,300,3e-26,126
Exophiala_moniliae_CBS520.76_T,SRR3977138.10506712,91.46,82,6,1,292,373,2,82,8e-22,111
Exophiala_pisciphila_CBS537.73_T,SRR3977138.20549260,92.23,103,6,2,547,649,197,297,9e-32,145
Exophiala_pisciphila_CBS537.73_T,SRR3977138.18780606,90.18,112,10,1,212,323,261,151,9e-32,145
Exophiala_pisciphila_CBS537.73_T,SRR3977138.18780606,89.90,99,9,1,212,310,53,150,3e-26,126
Exophiala_pisciphila_CBS537.73_T,SRR3977138.11617594,90.18,112,10,1,212,323,111,1,9e-32,145
Exophiala_pisciphila_CBS537.73_T,SRR3977138.11617594,89.90,99,9,1,212,310,203,300,3e-26,126
Exophiala_pisciphila_CBS537.73_T,SRR3977138.10506712,88.89,99,8,3,295,393,2,97,6e-24,119
Exophiala_pisciphila_CBS537.73_T,SRR3977138.9397368,93.42,76,5,0,578,653,148,73,3e-22,113
Exophiala_pisciphila_CBS537.73_T,SRR3977138.4054199,91.67,72,6,0,582,653,150,79,2e-18,100
Exophiala_pisciphila_CBS537.73_T,SRR3977138.6018587,86.36,88,10,2,567,653,292,206,1e-16,95.3
Exophiala_pisciphila_CBS537.73_T,SRR3977138.6018587,85.23,88,11,2,567,653,63,149,4e-15,89.8
Exophiala_pisciphila_CBS537.73_T,SRR3977138.19852999,83.52,91,15,0,558,648,8,98,6e-14,86.1
Exophiala_pisciphila_CBS537.73_T,SRR3977138.547694,83.52,91,15,0,558,648,98,8,6e-14,86.1
Exophiala_xenobiotica_CBS117642,SRR3977138.18780606,90.27,113,8,2,204,315,261,151,8e-32,145
Exophiala_xenobiotica_CBS117642,SRR3977138.18780606,90.00,100,7,2,204,302,53,150,3e-26,126
Exophiala_xenobiotica_CBS117642,SRR3977138.11617594,90.27,113,8,2,204,315,111,1,8e-32,145
Exophiala_xenobiotica_CBS117642,SRR3977138.11617594,90.00,100,7,2,204,302,203,300,3e-26,126
Exophiala_xenobiotica_CBS117642,SRR3977138.10506712,87.88,99,9,3,287,385,2,97,2e-22,113
Exophiala_brunnea_CBS,SRR3977138.18780606,90.27,113,8,2,240,351,261,151,9e-32,145
Exophiala_brunnea_CBS,SRR3977138.18780606,90.00,100,7,2,240,338,53,150,3e-26,126
Exophiala_brunnea_CBS,SRR3977138.11617594,90.27,113,8,2,240,351,111,1,9e-32,145
Exophiala_brunnea_CBS,SRR3977138.11617594,90.00,100,7,2,240,338,203,300,3e-26,126
Exophiala_brunnea_CBS,SRR3977138.10506712,87.88,99,9,3,323,421,2,97,3e-22,113
Exophiala_brunnea_CBS,SRR3977138.8396459,100.00,41,0,0,1,41,136,96,3e-11,76.8
Exophiala_brunnea_CBS,SRR3977138.8396459,100.00,41,0,0,1,41,227,267,3e-11,76.8
Exophiala_brunnea_CBS,SRR3977138.24013152,100.00,39,0,0,1,39,1,39,4e-10,73.1
Exophiala_brunnea_CBS,SRR3977138.8829534,100.00,37,0,0,1,37,39,3,6e-09,69.4
Exophiala_nishimurae_CBS101538_T,SRR3977138.18780606,91.15,113,7,2,218,329,261,151,2e-33,150
Exophiala_nishimurae_CBS101538_T,SRR3977138.18780606,91.00,100,6,2,218,316,53,150,7e-28,132
Exophiala_nishimurae_CBS101538_T,SRR3977138.11617594,91.15,113,7,2,218,329,111,1,2e-33,150
Exophiala_nishimurae_CBS101538_T,SRR3977138.11617594,91.00,100,6,2,218,316,203,300,7e-28,132
Exophiala_nishimurae_CBS101538_T,SRR3977138.10506712,87.88,99,9,3,301,399,2,97,2e-22,113
Exophiala_mesophila_CBS402.95_T,SRR3977138.20549260,92.45,106,8,0,541,646,192,297,6e-34,152
Exophiala_mesophila_CBS402.95_T,SRR3977138.18780606,90.27,113,8,2,202,313,261,151,9e-32,145
Exophiala_mesophila_CBS402.95_T,SRR3977138.18780606,90.00,100,7,2,202,300,53,150,3e-26,126
Exophiala_mesophila_CBS402.95_T,SRR3977138.11617594,90.27,113,8,2,202,313,111,1,9e-32,145
Exophiala_mesophila_CBS402.95_T,SRR3977138.11617594,90.00,100,7,2,202,300,203,300,3e-26,126
Exophiala_mesophila_CBS402.95_T,SRR3977138.9397368,93.42,76,5,0,575,650,148,73,3e-22,113
Exophiala_mesophila_CBS402.95_T,SRR3977138.10506712,91.46,82,6,1,285,366,2,82,1e-21,111
Exophiala_mesophila_CBS402.95_T,SRR3977138.4054199,91.67,72,6,0,579,650,150,79,2e-18,100
Exophiala_mesophila_CBS402.95_T,SRR3977138.6018587,86.21,87,12,0,564,650,292,206,1e-16,95.3
Exophiala_mesophila_CBS402.95_T,SRR3977138.6018587,85.06,87,13,0,564,650,63,149,4e-15,89.8
Exophiala_mesophila_CBS402.95_T,SRR3977138.19852999,84.62,91,14,0,555,645,8,98,1e-15,91.6
Exophiala_mesophila_CBS402.95_T,SRR3977138.547694,84.62,91,14,0,555,645,98,8,1e-15,91.6
Exophiala_castellanii_CBS158.58_T,SRR3977138.20549260,93.46,107,6,1,539,645,192,297,1e-35,158
Exophiala_castellanii_CBS158.58_T,SRR3977138.18780606,90.27,113,8,2,200,311,261,151,9e-32,145
Exophiala_castellanii_CBS158.58_T,SRR3977138.18780606,90.00,100,7,2,200,298,53,150,3e-26,126
Exophiala_castellanii_CBS158.58_T,SRR3977138.11617594,90.27,113,8,2,200,311,111,1,9e-32,145
Exophiala_castellanii_CBS158.58_T,SRR3977138.11617594,90.00,100,7,2,200,298,203,300,3e-26,126
Exophiala_castellanii_CBS158.58_T,SRR3977138.9397368,93.42,76,5,0,574,649,148,73,3e-22,113
Exophiala_castellanii_CBS158.58_T,SRR3977138.10506712,91.46,82,6,1,283,364,2,82,1e-21,111
Exophiala_castellanii_CBS158.58_T,SRR3977138.4054199,91.67,72,6,0,578,649,150,79,2e-18,100
Exophiala_castellanii_CBS158.58_T,SRR3977138.6018587,86.21,87,12,0,563,649,292,206,1e-16,95.3
Exophiala_castellanii_CBS158.58_T,SRR3977138.6018587,85.06,87,13,0,563,649,63,149,4e-15,89.8
Exophiala_castellanii_CBS158.58_T,SRR3977138.19852999,84.62,91,14,0,554,644,8,98,1e-15,91.6
Exophiala_castellanii_CBS158.58_T,SRR3977138.547694,84.62,91,14,0,554,644,98,8,1e-15,91.6
Exophiala_lecanii-corni_CBS123.33_T,SRR3977138.18780606,90.27,113,8,2,223,334,261,151,8e-32,145
Exophiala_lecanii-corni_CBS123.33_T,SRR3977138.18780606,90.00,100,7,2,223,321,53,150,3e-26,126
Exophiala_lecanii-corni_CBS123.33_T,SRR3977138.11617594,90.27,113,8,2,223,334,111,1,8e-32,145
Exophiala_lecanii-corni_CBS123.33_T,SRR3977138.11617594,90.00,100,7,2,223,321,203,300,3e-26,126
Exophiala_lecanii-corni_CBS123.33_T,SRR3977138.10506712,90.24,82,7,1,306,387,2,82,4e-20,106
Exophiala_dermatitidis_CBS748.88,SRR3977138.27820811,98.67,150,2,0,1351,1500,300,151,5e-68,267
Exophiala_dermatitidis_CBS748.88,SRR3977138.27820811,97.96,147,3,0,1321,1467,4,150,1e-64,255
Exophiala_dermatitidis_CBS748.88,SRR3977138.25221038,93.33,150,10,0,1350,1499,1,150,1e-54,222
Exophiala_dermatitidis_CBS748.88,SRR3977138.25221038,92.52,147,11,0,1358,1504,300,154,2e-51,211
Exophiala_dermatitidis_CBS748.88,SRR3977138.9178746,92.67,150,11,0,1350,1499,150,1,5e-53,217
Exophiala_dermatitidis_CBS748.88,SRR3977138.22304778,92.16,153,11,1,849,1001,148,299,2e-52,215
Exophiala_dermatitidis_CBS748.88,SRR3977138.22304778,93.60,125,6,2,908,1031,143,20,1e-43,185
Exophiala_dermatitidis_CBS748.88,SRR3977138.20946592,90.38,156,11,4,1238,1390,300,146,1e-48,202
Exophiala_dermatitidis_CBS748.88,SRR3977138.20946592,94.49,127,6,1,1175,1301,1,126,2e-46,195
Exophiala_dermatitidis_CBS748.88,SRR3977138.16270990,92.14,140,11,0,1348,1487,11,150,2e-47,198
Exophiala_dermatitidis_CBS748.88,SRR3977138.16270990,93.75,128,8,0,1377,1504,300,173,8e-46,193
Exophiala_dermatitidis_CBS748.88,SRR3977138.27929324,89.23,130,12,2,1315,1442,278,149,2e-36,161
Exophiala_dermatitidis_CBS748.88,SRR3977138.27929324,81.67,120,15,6,1192,1305,1,119,8e-16,93.5
Exophiala_dermatitidis_CBS748.88,SRR3977138.20549260,91.45,117,6,3,558,671,182,297,3e-35,158
Exophiala_dermatitidis_CBS748.88,SRR3977138.1527856,94.79,96,5,0,1409,1504,280,185,5e-33,150
Exophiala_dermatitidis_CBS748.88,SRR3977138.1527856,97.06,34,1,0,1368,1401,100,133,3e-05,58.4
Exophiala_dermatitidis_CBS748.88,SRR3977138.18780606,89.29,112,10,2,216,326,261,151,1e-29,139
Exophiala_dermatitidis_CBS748.88,SRR3977138.18780606,88.89,99,9,2,216,313,53,150,4e-24,121
Exophiala_dermatitidis_CBS748.88,SRR3977138.11617594,89.29,112,10,2,216,326,111,1,1e-29,139
Exophiala_dermatitidis_CBS748.88,SRR3977138.11617594,88.89,99,9,2,216,313,203,300,4e-24,121
Exophiala_dermatitidis_CBS748.88,SRR3977138.9397368,91.11,90,8,0,600,689,148,59,1e-24,122
Exophiala_dermatitidis_CBS748.88,SRR3977138.10506712,92.68,82,5,1,298,379,2,82,5e-23,117
Exophiala_dermatitidis_CBS748.88,SRR3977138.27660920,89.25,93,9,1,838,930,251,160,2e-22,115
Exophiala_dermatitidis_CBS748.88,SRR3977138.19834775,90.48,84,7,1,1210,1293,239,157,8e-21,110
Exophiala_dermatitidis_CBS748.88,SRR3977138.14082597,90.48,84,7,1,1210,1293,89,7,8e-21,110
Exophiala_dermatitidis_CBS748.88,SRR3977138.4054199,87.37,95,11,1,604,697,150,56,3e-20,108
Exophiala_dermatitidis_CBS748.88,SRR3977138.20166337,89.41,85,8,1,1182,1265,87,3,1e-19,106
Exophiala_dermatitidis_CBS748.88,SRR3977138.19852999,81.82,121,22,0,580,700,8,128,1e-18,102
Exophiala_dermatitidis_CBS748.88,SRR3977138.8290558,89.16,83,8,1,1184,1265,233,151,1e-18,102
Exophiala_dermatitidis_CBS748.88,SRR3977138.6957114,88.10,84,8,1,1316,1399,218,299,2e-17,99.0
Exophiala_dermatitidis_CBS748.88,SRR3977138.6018587,84.69,98,15,0,589,686,292,195,2e-17,99.0
Exophiala_dermatitidis_CBS748.88,SRR3977138.6018587,85.06,87,13,0,589,675,63,149,1e-14,89.8
Exophiala_dermatitidis_CBS748.88,SRR3977138.17129468,84.00,100,12,4,1315,1411,49,147,8e-16,93.5
Exophiala_dermatitidis_CBS748.88,SRR3977138.17129468,100.00,40,0,0,1465,1504,300,261,3e-10,75.0
Exophiala_dermatitidis_CBS748.88,SRR3977138.547694,84.62,91,14,0,580,670,98,8,3e-15,91.6
Exophiala_dermatitidis_CBS748.88,SRR3977138.27852156,96.08,51,2,0,1454,1504,187,237,5e-13,84.2
Exophiala_dermatitidis_CBS748.88,SRR3977138.129442,97.44,39,1,0,1212,1250,39,1,5e-08,67.6
Exophiala_dermatitidis_CBS748.88,SRR3977138.6879846,93.02,43,3,0,1213,1255,75,117,6e-07,63.9
Exophiala_dermatitidis_CBS748.88,SRR3977138.1640723,88.46,52,4,2,871,920,248,299,2e-06,62.1
Exophiala_angulospora_CBS482.92_T,SRR3977138.18780606,90.27,113,8,2,206,317,261,151,8e-32,145
Exophiala_angulospora_CBS482.92_T,SRR3977138.18780606,90.00,100,7,2,206,304,53,150,3e-26,126
Exophiala_angulospora_CBS482.92_T,SRR3977138.11617594,90.27,113,8,2,206,317,111,1,8e-32,145
Exophiala_angulospora_CBS482.92_T,SRR3977138.11617594,90.00,100,7,2,206,304,203,300,3e-26,126
Exophiala_angulospora_CBS482.92_T,SRR3977138.10506712,92.41,79,5,1,289,367,2,79,8e-22,111
Exophiala_opportunistica_CBS109811_T,SRR3977138.18780606,90.27,113,8,2,205,316,261,151,8e-32,145
Exophiala_opportunistica_CBS109811_T,SRR3977138.18780606,90.00,100,7,2,205,303,53,150,3e-26,126
Exophiala_opportunistica_CBS109811_T,SRR3977138.11617594,90.27,113,8,2,205,316,111,1,8e-32,145
Exophiala_opportunistica_CBS109811_T,SRR3977138.11617594,90.00,100,7,2,205,303,203,300,3e-26,126
Exophiala_opportunistica_CBS109811_T,SRR3977138.10506712,89.90,99,7,3,288,386,2,97,1e-25,124
Exophiala_salmonis_CBS157.67_T,SRR3977138.10676912,90.32,124,8,4,1,122,166,287,4e-36,159
Exophiala_salmonis_CBS157.67_T,SRR3977138.20549260,92.23,103,6,2,667,769,197,297,1e-31,145
Exophiala_salmonis_CBS157.67_T,SRR3977138.18780606,90.27,113,8,2,334,445,261,151,1e-31,145
Exophiala_salmonis_CBS157.67_T,SRR3977138.18780606,90.00,100,7,2,334,432,53,150,4e-26,126
Exophiala_salmonis_CBS157.67_T,SRR3977138.11617594,90.27,113,8,2,334,445,111,1,1e-31,145
Exophiala_salmonis_CBS157.67_T,SRR3977138.11617594,90.00,100,7,2,334,432,203,300,4e-26,126
Exophiala_salmonis_CBS157.67_T,SRR3977138.10506712,88.89,99,8,3,417,515,2,97,7e-24,119
Exophiala_salmonis_CBS157.67_T,SRR3977138.9397368,93.42,76,5,0,698,773,148,73,3e-22,113
Exophiala_salmonis_CBS157.67_T,SRR3977138.4054199,91.67,72,6,0,702,773,150,79,2e-18,100
Exophiala_salmonis_CBS157.67_T,SRR3977138.6018587,86.36,88,10,2,687,773,292,206,1e-16,95.3
Exophiala_salmonis_CBS157.67_T,SRR3977138.6018587,85.23,88,11,2,687,773,63,149,5e-15,89.8
Exophiala_salmonis_CBS157.67_T,SRR3977138.19852999,83.52,91,15,0,678,768,8,98,7e-14,86.1
Exophiala_salmonis_CBS157.67_T,SRR3977138.547694,83.52,91,15,0,678,768,98,8,7e-14,86.1
Exophiala_salmonis_CBS157.67_T,SRR3977138.184257,100.00,40,0,0,83,122,221,260,2e-10,75.0
Exophiala_salmonis_CBS157.67_T,SRR3977138.184257,97.56,41,1,0,82,122,154,114,2e-09,71.3
Exophiala_salmonis_CBS157.67_T,SRR3977138.8396459,97.56,41,1,0,82,122,193,233,2e-09,71.3
Exophiala_salmonis_CBS157.67_T,SRR3977138.6051067,97.56,41,1,0,82,122,46,6,2e-09,71.3
Exophiala_salmonis_CBS157.67_T,SRR3977138.3096783,97.56,41,1,0,82,122,60,20,2e-09,71.3
Exophiala_salmonis_CBS157.67_T,SRR3977138.21847144,100.00,28,0,0,1,28,36,9,7e-04,52.8
Exophiala_salmonis_CBS157.67_T,SRR3977138.6891585,100.00,28,0,0,1,28,186,159,7e-04,52.8
Exophiala_aquamarina_CBS119918_T,SRR3977138.18780606,90.27,113,8,2,212,323,261,151,8e-32,145
Exophiala_aquamarina_CBS119918_T,SRR3977138.18780606,90.00,100,7,2,212,310,53,150,3e-26,126
Exophiala_aquamarina_CBS119918_T,SRR3977138.11617594,90.27,113,8,2,212,323,111,1,8e-32,145
Exophiala_aquamarina_CBS119918_T,SRR3977138.11617594,90.00,100,7,2,212,310,203,300,3e-26,126
Exophiala_aquamarina_CBS119918_T,SRR3977138.10506712,89.00,100,7,4,295,394,2,97,1e-24,121
Exophiala_cancerae_CBS120420_T,SRR3977138.18780606,90.27,113,8,2,227,338,261,151,9e-32,145
Exophiala_cancerae_CBS120420_T,SRR3977138.18780606,90.00,100,7,2,227,325,53,150,3e-26,126
Exophiala_cancerae_CBS120420_T,SRR3977138.11617594,90.27,113,8,2,227,338,111,1,9e-32,145
Exophiala_cancerae_CBS120420_T,SRR3977138.11617594,90.00,100,7,2,227,325,203,300,3e-26,126
Exophiala_cancerae_CBS120420_T,SRR3977138.10506712,89.90,99,7,3,310,408,2,97,1e-25,124
Exophiala_cancerae_CBS120420_T,SRR3977138.20549260,92.65,68,4,1,557,624,195,261,3e-17,97.1
Exophiala_cancerae_CBS120420_T,SRR3977138.4054199,100.00,32,0,0,593,624,150,119,3e-06,60.2
Exophiala_tremulae_CBS129355,SRR3977138.18780606,90.27,113,8,2,239,350,261,151,9e-32,145
Exophiala_tremulae_CBS129355,SRR3977138.18780606,90.00,100,7,2,239,337,53,150,3e-26,126
Exophiala_tremulae_CBS129355,SRR3977138.11617594,90.27,113,8,2,239,350,111,1,9e-32,145
Exophiala_tremulae_CBS129355,SRR3977138.11617594,90.00,100,7,2,239,337,203,300,3e-26,126
Exophiala_tremulae_CBS129355,SRR3977138.10506712,89.90,99,7,3,322,420,2,97,1e-25,124
Exophiala_tremulae_CBS129355,SRR3977138.8396459,100.00,41,0,0,1,41,136,96,3e-11,76.8
Exophiala_tremulae_CBS129355,SRR3977138.8396459,100.00,41,0,0,1,41,227,267,3e-11,76.8
Exophiala_tremulae_CBS129355,SRR3977138.24013152,100.00,39,0,0,1,39,1,39,4e-10,73.1
Exophiala_tremulae_CBS129355,SRR3977138.8829534,100.00,37,0,0,1,37,39,3,6e-09,69.4
Exophiala_equina_CBS116009,SRR3977138.18780606,90.27,113,8,2,205,316,261,151,8e-32,145
Exophiala_equina_CBS116009,SRR3977138.18780606,90.00,100,7,2,205,303,53,150,3e-26,126
Exophiala_equina_CBS116009,SRR3977138.11617594,90.27,113,8,2,205,316,111,1,8e-32,145
Exophiala_equina_CBS116009,SRR3977138.11617594,90.00,100,7,2,205,303,203,300,3e-26,126
Exophiala_equina_CBS116009,SRR3977138.10506712,89.90,99,7,3,288,386,2,97,1e-25,124
Exophiala_alcalophila_CBS520.82_T,SRR3977138.18780606,90.27,113,8,2,216,327,261,151,8e-32,145
Exophiala_alcalophila_CBS520.82_T,SRR3977138.18780606,90.00,100,7,2,216,314,53,150,3e-26,126
Exophiala_alcalophila_CBS520.82_T,SRR3977138.11617594,90.27,113,8,2,216,327,111,1,8e-32,145
Exophiala_alcalophila_CBS520.82_T,SRR3977138.11617594,90.00,100,7,2,216,314,203,300,3e-26,126
Exophiala_alcalophila_CBS520.82_T,SRR3977138.10506712,91.46,82,6,1,299,380,2,82,8e-22,111
Exophiala_crusticola_CBS119970_T,SRR3977138.18780606,90.27,113,8,2,221,332,261,151,8e-32,145
Exophiala_crusticola_CBS119970_T,SRR3977138.18780606,90.00,100,7,2,221,319,53,150,3e-26,126
Exophiala_crusticola_CBS119970_T,SRR3977138.11617594,90.27,113,8,2,221,332,111,1,8e-32,145
Exophiala_crusticola_CBS119970_T,SRR3977138.11617594,90.00,100,7,2,221,319,203,300,3e-26,126
Exophiala_crusticola_CBS119970_T,SRR3977138.10506712,92.68,82,5,1,304,385,2,82,2e-23,117
Rhinocladiella_atrovirens_CBS264.49,SRR3977138.18780606,90.27,113,8,2,247,358,261,151,9e-32,145
Rhinocladiella_atrovirens_CBS264.49,SRR3977138.18780606,90.00,100,7,2,247,345,53,150,3e-26,126
Rhinocladiella_atrovirens_CBS264.49,SRR3977138.11617594,90.27,113,8,2,247,358,111,1,9e-32,145
Rhinocladiella_atrovirens_CBS264.49,SRR3977138.11617594,90.00,100,7,2,247,345,203,300,3e-26,126
Rhinocladiella_atrovirens_CBS264.49,SRR3977138.10506712,90.24,82,7,1,330,411,2,82,4e-20,106
Rhinocladiella_atrovirens_CBS264.49,SRR3977138.8396459,100.00,44,0,0,1,44,141,98,7e-13,82.4
Rhinocladiella_atrovirens_CBS264.49,SRR3977138.8396459,100.00,44,0,0,1,44,222,265,7e-13,82.4
Rhinocladiella_atrovirens_CBS264.49,SRR3977138.8829534,100.00,42,0,0,1,42,44,3,9e-12,78.7
Rhinocladiella_atrovirens_CBS264.49,SRR3977138.24013152,100.00,39,0,0,6,44,1,39,4e-10,73.1
Rhinocladiella_atrovirens_CBS264.49,SRR3977138.3096783,100.00,31,0,0,1,31,31,1,1e-05,58.4
Rhinocladiella_basitona_CBS101460_T,SRR3977138.18780606,91.15,113,7,2,206,317,261,151,2e-33,150
Rhinocladiella_basitona_CBS101460_T,SRR3977138.18780606,91.00,100,6,2,206,304,53,150,6e-28,132
Rhinocladiella_basitona_CBS101460_T,SRR3977138.11617594,91.15,113,7,2,206,317,111,1,2e-33,150
Rhinocladiella_basitona_CBS101460_T,SRR3977138.11617594,91.00,100,6,2,206,304,203,300,6e-28,132
Rhinocladiella_basitona_CBS101460_T,SRR3977138.10506712,87.88,99,9,3,289,387,2,97,2e-22,113
Rhinocladiella_phaeophora_CBS496.78_T,SRR3977138.18780606,91.15,113,7,2,214,325,261,151,2e-33,150
Rhinocladiella_phaeophora_CBS496.78_T,SRR3977138.18780606,91.00,100,6,2,214,312,53,150,6e-28,132
Rhinocladiella_phaeophora_CBS496.78_T,SRR3977138.11617594,91.15,113,7,2,214,325,111,1,2e-33,150
Rhinocladiella_phaeophora_CBS496.78_T,SRR3977138.11617594,91.00,100,6,2,214,312,203,300,6e-28,132
Rhinocladiella_phaeophora_CBS496.78_T,SRR3977138.10506712,92.68,82,5,1,297,378,2,82,2e-23,117
Rhinocladiella_aquaspersa_CBS313.73_T,SRR3977138.18780606,91.15,113,7,2,208,319,261,151,2e-33,150
Rhinocladiella_aquaspersa_CBS313.73_T,SRR3977138.18780606,91.00,100,6,2,208,306,53,150,7e-28,132
Rhinocladiella_aquaspersa_CBS313.73_T,SRR3977138.11617594,91.15,113,7,2,208,319,111,1,2e-33,150
Rhinocladiella_aquaspersa_CBS313.73_T,SRR3977138.11617594,91.00,100,6,2,208,306,203,300,7e-28,132
Rhinocladiella_aquaspersa_CBS313.73_T,SRR3977138.20549260,91.43,105,5,4,540,641,194,297,1e-30,141
Rhinocladiella_aquaspersa_CBS313.73_T,SRR3977138.10506712,92.68,82,5,1,291,372,2,82,2e-23,117
Rhinocladiella_aquaspersa_CBS313.73_T,SRR3977138.9397368,93.51,77,5,0,570,646,148,72,7e-23,115
Rhinocladiella_aquaspersa_CBS313.73_T,SRR3977138.4054199,92.11,76,6,0,574,649,150,75,1e-20,108
Rhinocladiella_aquaspersa_CBS313.73_T,SRR3977138.6018587,87.06,85,10,1,566,649,286,202,1e-16,95.3
Rhinocladiella_aquaspersa_CBS313.73_T,SRR3977138.6018587,86.42,81,10,1,566,645,69,149,2e-14,87.9
Rhinocladiella_aquaspersa_CBS313.73_T,SRR3977138.19852999,87.32,71,9,0,570,640,28,98,7e-13,82.4
Rhinocladiella_aquaspersa_CBS313.73_T,SRR3977138.547694,87.32,71,9,0,570,640,78,8,7e-13,82.4
Rhinocladiella_fasciculata_CBS132.86_T,SRR3977138.18780606,91.15,113,7,2,224,335,261,151,2e-33,150
Rhinocladiella_fasciculata_CBS132.86_T,SRR3977138.18780606,91.00,100,6,2,224,322,53,150,6e-28,132
Rhinocladiella_fasciculata_CBS132.86_T,SRR3977138.11617594,91.15,113,7,2,224,335,111,1,2e-33,150
Rhinocladiella_fasciculata_CBS132.86_T,SRR3977138.11617594,91.00,100,6,2,224,322,203,300,6e-28,132
Rhinocladiella_fasciculata_CBS132.86_T,SRR3977138.10506712,90.24,82,7,1,307,388,2,82,4e-20,106
Rhinocladiella_anceps_CBS181.65_T,SRR3977138.18780606,91.15,113,7,2,206,317,261,151,2e-33,150
Rhinocladiella_anceps_CBS181.65_T,SRR3977138.18780606,91.00,100,6,2,206,304,53,150,6e-28,132
Rhinocladiella_anceps_CBS181.65_T,SRR3977138.11617594,91.15,113,7,2,206,317,111,1,2e-33,150
Rhinocladiella_anceps_CBS181.65_T,SRR3977138.11617594,91.00,100,6,2,206,304,203,300,6e-28,132
Rhinocladiella_anceps_CBS181.65_T,SRR3977138.10506712,90.24,82,7,1,289,370,2,82,4e-20,106
Rhinocladiella_mackenziei_CBS367.92,SRR3977138.18780606,90.27,113,8,2,195,306,261,151,9e-32,145
Rhinocladiella_mackenziei_CBS367.92,SRR3977138.18780606,90.00,100,7,2,195,293,53,150,3e-26,126
Rhinocladiella_mackenziei_CBS367.92,SRR3977138.11617594,90.27,113,8,2,195,306,111,1,9e-32,145
Rhinocladiella_mackenziei_CBS367.92,SRR3977138.11617594,90.00,100,7,2,195,293,203,300,3e-26,126
Rhinocladiella_mackenziei_CBS367.92,SRR3977138.10506712,91.36,81,6,1,278,358,2,81,3e-21,110
Rhinocladiella_mackenziei_CBS367.92,SRR3977138.8396459,100.00,28,0,0,1,28,123,96,5e-04,52.8
Rhinocladiella_mackenziei_CBS367.92,SRR3977138.8396459,100.00,28,0,0,1,28,240,267,5e-04,52.8
Veronaea_compacta_CBS268.75_T,SRR3977138.18780606,90.27,113,8,2,228,339,261,151,9e-32,145
Veronaea_compacta_CBS268.75_T,SRR3977138.18780606,90.00,100,7,2,228,326,53,150,3e-26,126
Veronaea_compacta_CBS268.75_T,SRR3977138.11617594,90.27,113,8,2,228,339,111,1,9e-32,145
Veronaea_compacta_CBS268.75_T,SRR3977138.11617594,90.00,100,7,2,228,326,203,300,3e-26,126
Veronaea_compacta_CBS268.75_T,SRR3977138.10506712,87.00,100,9,4,311,410,2,97,3e-21,110
Veronaea_compacta_CBS268.75_T,SRR3977138.8396459,100.00,29,0,0,1,29,124,96,1e-04,54.7
Veronaea_compacta_CBS268.75_T,SRR3977138.8396459,100.00,29,0,0,1,29,239,267,1e-04,54.7
Capronia_pilosella_AFTOL-ID657,SRR3977138.18780606,90.27,113,8,2,306,417,261,151,1e-31,145
Capronia_pilosella_AFTOL-ID657,SRR3977138.18780606,90.00,100,7,2,306,404,53,150,4e-26,126
Capronia_pilosella_AFTOL-ID657,SRR3977138.11617594,90.27,113,8,2,306,417,111,1,1e-31,145
Capronia_pilosella_AFTOL-ID657,SRR3977138.11617594,90.00,100,7,2,306,404,203,300,4e-26,126
Capronia_pilosella_AFTOL-ID657,SRR3977138.10506712,89.00,100,7,3,389,488,2,97,2e-24,121
Capronia_dactylotricha_DAOM208471_T,SRR3977138.18780606,90.27,113,8,2,208,319,261,151,1e-31,145
Capronia_dactylotricha_DAOM208471_T,SRR3977138.18780606,90.00,100,7,2,208,306,53,150,3e-26,126
Capronia_dactylotricha_DAOM208471_T,SRR3977138.11617594,90.27,113,8,2,208,319,111,1,1e-31,145
Capronia_dactylotricha_DAOM208471_T,SRR3977138.11617594,90.00,100,7,2,208,306,203,300,3e-26,126
Capronia_dactylotricha_DAOM208471_T,SRR3977138.20549260,93.68,95,6,0,560,654,203,297,3e-31,143
Capronia_dactylotricha_DAOM208471_T,SRR3977138.10506712,91.57,83,5,1,291,373,2,82,3e-22,113
Capronia_dactylotricha_DAOM208471_T,SRR3977138.9397368,93.42,76,5,0,583,658,148,73,3e-22,113
Capronia_dactylotricha_DAOM208471_T,SRR3977138.4054199,91.67,72,6,0,587,658,150,79,2e-18,100
Capronia_dactylotricha_DAOM208471_T,SRR3977138.6018587,86.36,88,10,2,572,658,292,206,1e-16,95.3
Capronia_dactylotricha_DAOM208471_T,SRR3977138.6018587,85.23,88,11,2,572,658,63,149,5e-15,89.8
Capronia_dactylotricha_DAOM208471_T,SRR3977138.19852999,83.52,91,15,0,563,653,8,98,6e-14,86.1
Capronia_dactylotricha_DAOM208471_T,SRR3977138.547694,83.52,91,15,0,563,653,98,8,6e-14,86.1
Capronia_kleinmondensis_CBS122671_T,SRR3977138.20549260,92.31,104,8,0,557,660,194,297,7e-33,148
Capronia_kleinmondensis_CBS122671_T,SRR3977138.18780606,90.27,113,8,2,233,344,261,151,1e-31,145
Capronia_kleinmondensis_CBS122671_T,SRR3977138.18780606,90.00,100,7,2,233,331,53,150,3e-26,126
Capronia_kleinmondensis_CBS122671_T,SRR3977138.11617594,90.27,113,8,2,233,344,111,1,1e-31,145
Capronia_kleinmondensis_CBS122671_T,SRR3977138.11617594,90.00,100,7,2,233,331,203,300,3e-26,126
Capronia_kleinmondensis_CBS122671_T,SRR3977138.9397368,93.42,76,5,0,589,664,148,73,3e-22,113
Capronia_kleinmondensis_CBS122671_T,SRR3977138.10506712,90.24,82,7,1,316,397,2,82,5e-20,106
Capronia_kleinmondensis_CBS122671_T,SRR3977138.4054199,91.67,72,6,0,593,664,150,79,2e-18,100
Capronia_kleinmondensis_CBS122671_T,SRR3977138.6018587,86.36,88,10,2,578,664,292,206,1e-16,95.3
Capronia_kleinmondensis_CBS122671_T,SRR3977138.6018587,85.23,88,11,2,578,664,63,149,5e-15,89.8
Capronia_kleinmondensis_CBS122671_T,SRR3977138.19852999,83.52,91,15,0,569,659,8,98,6e-14,86.1
Capronia_kleinmondensis_CBS122671_T,SRR3977138.547694,83.52,91,15,0,569,659,98,8,6e-14,86.1
Capronia_kleinmondensis_CBS122671_T,SRR3977138.24013152,100.00,30,0,0,1,30,10,39,5e-05,56.5
Capronia_kleinmondensis_CBS122671_T,SRR3977138.8396459,100.00,30,0,0,1,30,127,98,5e-05,56.5
Capronia_kleinmondensis_CBS122671_T,SRR3977138.8396459,100.00,30,0,0,1,30,236,265,5e-05,56.5
Capronia_kleinmondensis_CBS122671_T,SRR3977138.8829534,100.00,28,0,0,1,28,30,3,6e-04,52.8
Capronia_mansonii_CBS101.67_T,SRR3977138.20549260,91.45,117,9,1,549,664,181,297,3e-36,159
Capronia_mansonii_CBS101.67_T,SRR3977138.18780606,90.27,113,8,2,219,330,261,151,1e-31,145
Capronia_mansonii_CBS101.67_T,SRR3977138.18780606,90.00,100,7,2,219,317,53,150,4e-26,126
Capronia_mansonii_CBS101.67_T,SRR3977138.11617594,90.27,113,8,2,219,330,111,1,1e-31,145
Capronia_mansonii_CBS101.67_T,SRR3977138.11617594,90.00,100,7,2,219,317,203,300,4e-26,126
Capronia_mansonii_CBS101.67_T,SRR3977138.10506712,89.00,100,7,3,302,401,2,97,2e-24,121
Capronia_mansonii_CBS101.67_T,SRR3977138.9397368,93.42,76,5,0,593,668,148,73,3e-22,113
Capronia_mansonii_CBS101.67_T,SRR3977138.4054199,91.67,72,6,0,597,668,150,79,2e-18,100
Capronia_mansonii_CBS101.67_T,SRR3977138.6018587,86.21,87,12,0,582,668,292,206,1e-16,95.3
Capronia_mansonii_CBS101.67_T,SRR3977138.6018587,85.06,87,13,0,582,668,63,149,5e-15,89.8
Capronia_mansonii_CBS101.67_T,SRR3977138.19852999,84.62,91,14,0,573,663,8,98,1e-15,91.6
Capronia_mansonii_CBS101.67_T,SRR3977138.547694,84.62,91,14,0,573,663,98,8,1e-15,91.6
Capronia_munkii_DAOM216390_T,SRR3977138.20549260,90.60,117,10,1,549,664,181,297,2e-34,154
Capronia_munkii_DAOM216390_T,SRR3977138.18780606,90.27,113,8,2,219,330,261,151,1e-31,145
Capronia_munkii_DAOM216390_T,SRR3977138.18780606,90.00,100,7,2,219,317,53,150,4e-26,126
Capronia_munkii_DAOM216390_T,SRR3977138.11617594,90.27,113,8,2,219,330,111,1,1e-31,145
Capronia_munkii_DAOM216390_T,SRR3977138.11617594,90.00,100,7,2,219,317,203,300,4e-26,126
Capronia_munkii_DAOM216390_T,SRR3977138.10506712,89.00,100,7,3,302,401,2,97,2e-24,121
Capronia_munkii_DAOM216390_T,SRR3977138.9397368,93.42,76,5,0,593,668,148,73,3e-22,113
Capronia_munkii_DAOM216390_T,SRR3977138.4054199,91.67,72,6,0,597,668,150,79,2e-18,100
Capronia_munkii_DAOM216390_T,SRR3977138.6018587,86.21,87,12,0,582,668,292,206,1e-16,95.3
Capronia_munkii_DAOM216390_T,SRR3977138.6018587,85.06,87,13,0,582,668,63,149,5e-15,89.8
Capronia_munkii_DAOM216390_T,SRR3977138.19852999,84.62,91,14,0,573,663,8,98,1e-15,91.6
Capronia_munkii_DAOM216390_T,SRR3977138.547694,84.62,91,14,0,573,663,98,8,1e-15,91.6
Capronia_coronata_ATCC56201_T,SRR3977138.20549260,94.23,104,5,1,532,635,195,297,1e-35,158
Capronia_coronata_ATCC56201_T,SRR3977138.18780606,90.27,113,8,2,207,318,261,151,9e-32,145
Capronia_coronata_ATCC56201_T,SRR3977138.18780606,90.00,100,7,2,207,305,53,150,3e-26,126
Capronia_coronata_ATCC56201_T,SRR3977138.11617594,90.27,113,8,2,207,318,111,1,9e-32,145
Capronia_coronata_ATCC56201_T,SRR3977138.11617594,90.00,100,7,2,207,305,203,300,3e-26,126
Capronia_coronata_ATCC56201_T,SRR3977138.9397368,93.42,76,5,0,564,639,148,73,3e-22,113
Capronia_coronata_ATCC56201_T,SRR3977138.10506712,92.41,79,5,1,290,368,2,79,9e-22,111
Capronia_coronata_ATCC56201_T,SRR3977138.4054199,91.67,72,6,0,568,639,150,79,2e-18,100
Capronia_coronata_ATCC56201_T,SRR3977138.6018587,86.21,87,12,0,553,639,292,206,9e-17,95.3
Capronia_coronata_ATCC56201_T,SRR3977138.6018587,85.06,87,13,0,553,639,63,149,4e-15,89.8
Capronia_coronata_ATCC56201_T,SRR3977138.19852999,84.62,91,14,0,544,634,8,98,1e-15,91.6
Capronia_coronata_ATCC56201_T,SRR3977138.547694,84.62,91,14,0,544,634,98,8,1e-15,91.6
Capronia_parasitica_CBS123.88,SRR3977138.18780606,90.27,113,8,2,213,324,261,151,9e-32,145
Capronia_parasitica_CBS123.88,SRR3977138.18780606,90.00,100,7,2,213,311,53,150,3e-26,126
Capronia_parasitica_CBS123.88,SRR3977138.11617594,90.27,113,8,2,213,324,111,1,9e-32,145
Capronia_parasitica_CBS123.88,SRR3977138.11617594,90.00,100,7,2,213,311,203,300,3e-26,126
Capronia_parasitica_CBS123.88,SRR3977138.10506712,91.25,80,6,1,296,375,2,80,1e-20,108
Veronaea_japonica_CBS776.83_T,SRR3977138.18780606,90.27,113,8,2,241,352,261,151,9e-32,145
Veronaea_japonica_CBS776.83_T,SRR3977138.18780606,90.00,100,7,2,241,339,53,150,3e-26,126
Veronaea_japonica_CBS776.83_T,SRR3977138.11617594,90.27,113,8,2,241,352,111,1,9e-32,145
Veronaea_japonica_CBS776.83_T,SRR3977138.11617594,90.00,100,7,2,241,339,203,300,3e-26,126
Veronaea_japonica_CBS776.83_T,SRR3977138.10506712,88.89,99,8,3,324,422,2,97,5e-24,119
Veronaea_japonica_CBS776.83_T,SRR3977138.8396459,100.00,40,0,0,1,40,135,96,1e-10,75.0
Veronaea_japonica_CBS776.83_T,SRR3977138.8396459,100.00,40,0,0,1,40,228,267,1e-10,75.0
Veronaea_japonica_CBS776.83_T,SRR3977138.24013152,100.00,38,0,0,1,38,2,39,2e-09,71.3
Veronaea_japonica_CBS776.83_T,SRR3977138.8829534,100.00,36,0,0,1,36,38,3,2e-08,67.6
Thysanorea_papuana_CBS212.96_T,SRR3977138.18780606,90.27,113,8,2,215,326,261,151,8e-32,145
Thysanorea_papuana_CBS212.96_T,SRR3977138.18780606,90.00,100,7,2,215,313,53,150,3e-26,126
Thysanorea_papuana_CBS212.96_T,SRR3977138.11617594,90.27,113,8,2,215,326,111,1,8e-32,145
Thysanorea_papuana_CBS212.96_T,SRR3977138.11617594,90.00,100,7,2,215,313,203,300,3e-26,126
Thysanorea_papuana_CBS212.96_T,SRR3977138.10506712,89.90,99,7,2,298,396,2,97,1e-25,124
Capronia_acutiseta_ATCC56428_T,SRR3977138.20549260,91.43,105,8,1,530,634,194,297,3e-31,143
Capronia_acutiseta_ATCC56428_T,SRR3977138.10506712,92.50,80,5,1,291,370,2,80,3e-22,113
Capronia_acutiseta_ATCC56428_T,SRR3977138.9397368,93.42,76,5,0,563,638,148,73,3e-22,113
Capronia_acutiseta_ATCC56428_T,SRR3977138.4054199,91.67,72,6,0,567,638,150,79,2e-18,100
Capronia_acutiseta_ATCC56428_T,SRR3977138.6018587,86.36,88,10,2,552,638,292,206,9e-17,95.3
Capronia_acutiseta_ATCC56428_T,SRR3977138.6018587,85.23,88,11,2,552,638,63,149,4e-15,89.8
Capronia_acutiseta_ATCC56428_T,SRR3977138.19852999,83.52,91,15,0,543,633,8,98,6e-14,86.1
Capronia_acutiseta_ATCC56428_T,SRR3977138.547694,83.52,91,15,0,543,633,98,8,6e-14,86.1
Fonsecaea_brasiliensis_CBS119710_T,SRR3977138.18780606,90.27,113,8,2,215,326,261,151,8e-32,145
Fonsecaea_brasiliensis_CBS119710_T,SRR3977138.18780606,90.00,100,7,2,215,313,53,150,3e-26,126
Fonsecaea_brasiliensis_CBS119710_T,SRR3977138.11617594,90.27,113,8,2,215,326,111,1,8e-32,145
Fonsecaea_brasiliensis_CBS119710_T,SRR3977138.11617594,90.00,100,7,2,215,313,203,300,3e-26,126
Fonsecaea_brasiliensis_CBS119710_T,SRR3977138.10506712,89.00,100,7,3,298,397,2,97,1e-24,121
Fonsecaea_pedrosoi_CBS271.37_T,SRR3977138.18780606,90.27,113,8,2,243,354,261,151,9e-32,145
Fonsecaea_pedrosoi_CBS271.37_T,SRR3977138.18780606,90.00,100,7,2,243,341,53,150,3e-26,126
Fonsecaea_pedrosoi_CBS271.37_T,SRR3977138.11617594,90.27,113,8,2,243,354,111,1,9e-32,145
Fonsecaea_pedrosoi_CBS271.37_T,SRR3977138.11617594,90.00,100,7,2,243,341,203,300,3e-26,126
Fonsecaea_pedrosoi_CBS271.37_T,SRR3977138.10506712,88.12,101,7,4,326,426,2,97,7e-23,115
Fonsecaea_pedrosoi_CBS271.37_T,SRR3977138.20549260,92.96,71,4,1,575,645,192,261,6e-19,102
Fonsecaea_pedrosoi_CBS271.37_T,SRR3977138.4054199,100.00,32,0,0,614,645,150,119,3e-06,60.2
Fonsecaea_pedrosoi_CBS271.37_T,SRR3977138.8396459,100.00,31,0,0,1,31,127,97,1e-05,58.4
Fonsecaea_pedrosoi_CBS271.37_T,SRR3977138.8396459,100.00,31,0,0,1,31,236,266,1e-05,58.4
Fonsecaea_pedrosoi_CBS271.37_T,SRR3977138.24013152,100.00,30,0,0,1,30,10,39,4e-05,56.5
Fonsecaea_pedrosoi_CBS271.37_T,SRR3977138.8829534,100.00,28,0,0,1,28,30,3,6e-04,52.8
Fonsecaea_multimorphosa_CBS980.96_T,SRR3977138.18780606,90.27,113,8,2,213,324,261,151,8e-32,145
Fonsecaea_multimorphosa_CBS980.96_T,SRR3977138.18780606,90.00,100,7,2,213,311,53,150,3e-26,126
Fonsecaea_multimorphosa_CBS980.96_T,SRR3977138.11617594,90.27,113,8,2,213,324,111,1,8e-32,145
Fonsecaea_multimorphosa_CBS980.96_T,SRR3977138.11617594,90.00,100,7,2,213,311,203,300,3e-26,126
Fonsecaea_multimorphosa_CBS980.96_T,SRR3977138.10506712,90.00,100,6,4,296,395,2,97,3e-26,126
Fonsecaea_minima_CBS125760_T,SRR3977138.18780606,90.27,113,8,2,209,320,261,151,8e-32,145
Fonsecaea_minima_CBS125760_T,SRR3977138.18780606,90.00,100,7,2,209,307,53,150,3e-26,126
Fonsecaea_minima_CBS125760_T,SRR3977138.11617594,90.27,113,8,2,209,320,111,1,8e-32,145
Fonsecaea_minima_CBS125760_T,SRR3977138.11617594,90.00,100,7,2,209,307,203,300,3e-26,126
Fonsecaea_minima_CBS125760_T,SRR3977138.10506712,89.00,100,7,3,292,391,2,97,1e-24,121
Fonsecaea_nubica_CBS269.64_T,SRR3977138.18780606,90.27,113,8,2,220,331,261,151,8e-32,145
Fonsecaea_nubica_CBS269.64_T,SRR3977138.18780606,90.00,100,7,2,220,318,53,150,3e-26,126
Fonsecaea_nubica_CBS269.64_T,SRR3977138.11617594,90.27,113,8,2,220,331,111,1,8e-32,145
Fonsecaea_nubica_CBS269.64_T,SRR3977138.11617594,90.00,100,7,2,220,318,203,300,3e-26,126
Fonsecaea_nubica_CBS269.64_T,SRR3977138.10506712,88.12,101,7,4,303,403,2,97,6e-23,115
Fonsecaea_monophora_CBS269.37_T,SRR3977138.10506712,88.12,101,7,4,304,404,2,97,6e-23,115
Fonsecaea_erecta_CBS125763_T,SRR3977138.18780606,90.27,113,8,2,204,315,261,151,8e-32,145
Fonsecaea_erecta_CBS125763_T,SRR3977138.18780606,90.00,100,7,2,204,302,53,150,3e-26,126
Fonsecaea_erecta_CBS125763_T,SRR3977138.11617594,90.27,113,8,2,204,315,111,1,8e-32,145
Fonsecaea_erecta_CBS125763_T,SRR3977138.11617594,90.00,100,7,2,204,302,203,300,3e-26,126
Fonsecaea_erecta_CBS125763_T,SRR3977138.10506712,90.00,100,6,3,287,386,2,97,3e-26,126
Fonsecaea_pugnacius_CBS139214_T,SRR3977138.18780606,90.27,113,8,2,213,324,261,151,8e-32,145
Fonsecaea_pugnacius_CBS139214_T,SRR3977138.18780606,90.00,100,7,2,213,311,53,150,3e-26,126
Fonsecaea_pugnacius_CBS139214_T,SRR3977138.11617594,90.27,113,8,2,213,324,111,1,8e-32,145
Fonsecaea_pugnacius_CBS139214_T,SRR3977138.11617594,90.00,100,7,2,213,311,203,300,3e-26,126
Fonsecaea_pugnacius_CBS139214_T,SRR3977138.10506712,91.57,83,5,2,296,378,2,82,2e-22,113
Cladophialophora_psammophila_CBS,SRR3977138.18780606,90.27,113,8,2,219,330,261,151,8e-32,145
Cladophialophora_psammophila_CBS,SRR3977138.18780606,90.00,100,7,2,219,317,53,150,3e-26,126
Cladophialophora_psammophila_CBS,SRR3977138.11617594,90.27,113,8,2,219,330,111,1,8e-32,145
Cladophialophora_psammophila_CBS,SRR3977138.11617594,90.00,100,7,2,219,317,203,300,3e-26,126
Cladophialophora_psammophila_CBS,SRR3977138.10506712,90.00,100,6,3,302,401,2,97,3e-26,126
Cladophialophora_devriesii_CBS,SRR3977138.18780606,90.27,113,8,2,215,326,261,151,8e-32,145
Cladophialophora_devriesii_CBS,SRR3977138.18780606,90.00,100,7,2,215,313,53,150,3e-26,126
Cladophialophora_devriesii_CBS,SRR3977138.11617594,90.27,113,8,2,215,326,111,1,8e-32,145
Cladophialophora_devriesii_CBS,SRR3977138.11617594,90.00,100,7,2,215,313,203,300,3e-26,126
Cladophialophora_devriesii_CBS,SRR3977138.10506712,90.00,100,6,4,298,397,2,97,3e-26,126
Cladophialophora_immunda_CBS834.96,SRR3977138.18780606,90.27,113,8,2,217,328,261,151,8e-32,145
Cladophialophora_immunda_CBS834.96,SRR3977138.18780606,90.00,100,7,2,217,315,53,150,3e-26,126
Cladophialophora_immunda_CBS834.96,SRR3977138.11617594,90.27,113,8,2,217,328,111,1,8e-32,145
Cladophialophora_immunda_CBS834.96,SRR3977138.11617594,90.00,100,7,2,217,315,203,300,3e-26,126
Cladophialophora_immunda_CBS834.96,SRR3977138.10506712,89.00,100,7,3,300,399,2,97,1e-24,121
Cladophialophora_arxii_CBS306.94_T,SRR3977138.18780606,90.27,113,8,2,219,330,261,151,8e-32,145
Cladophialophora_arxii_CBS306.94_T,SRR3977138.18780606,90.00,100,7,2,219,317,53,150,3e-26,126
Cladophialophora_arxii_CBS306.94_T,SRR3977138.11617594,90.27,113,8,2,219,330,111,1,8e-32,145
Cladophialophora_arxii_CBS306.94_T,SRR3977138.11617594,90.00,100,7,2,219,317,203,300,3e-26,126
Cladophialophora_arxii_CBS306.94_T,SRR3977138.10506712,87.25,102,7,4,302,403,2,97,8e-22,111
Cladophialophora_bantiana_CBS173.52,SRR3977138.18780606,90.27,113,8,2,213,324,261,151,8e-32,145
Cladophialophora_bantiana_CBS173.52,SRR3977138.18780606,90.00,100,7,2,213,311,53,150,3e-26,126
Cladophialophora_bantiana_CBS173.52,SRR3977138.11617594,90.27,113,8,2,213,324,111,1,8e-32,145
Cladophialophora_bantiana_CBS173.52,SRR3977138.11617594,90.00,100,7,2,213,311,203,300,3e-26,126
Cladophialophora_bantiana_CBS173.52,SRR3977138.10506712,90.00,100,6,3,296,395,2,97,3e-26,126
Cladophialophora_emmonsii_CBS102594,SRR3977138.18780606,90.27,113,8,2,204,315,261,151,8e-32,145
Cladophialophora_emmonsii_CBS102594,SRR3977138.18780606,90.00,100,7,2,204,302,53,150,3e-26,126
Cladophialophora_emmonsii_CBS102594,SRR3977138.11617594,90.27,113,8,2,204,315,111,1,8e-32,145
Cladophialophora_emmonsii_CBS102594,SRR3977138.11617594,90.00,100,7,2,204,302,203,300,3e-26,126
Cladophialophora_emmonsii_CBS102594,SRR3977138.10506712,92.68,82,5,1,287,368,2,82,2e-23,117
Cladophialophora_minourae_CBS556.83,SRR3977138.18780606,90.18,112,10,1,212,323,261,151,8e-32,145
Cladophialophora_minourae_CBS556.83,SRR3977138.18780606,89.90,99,9,1,212,310,53,150,3e-26,126
Cladophialophora_minourae_CBS556.83,SRR3977138.11617594,90.18,112,10,1,212,323,111,1,8e-32,145
Cladophialophora_minourae_CBS556.83,SRR3977138.11617594,89.90,99,9,1,212,310,203,300,3e-26,126
Cladophialophora_minourae_CBS556.83,SRR3977138.10506712,86.14,101,9,4,295,395,2,97,4e-20,106
Cladophialophora_australiensis_CBS112793,SRR3977138.27820811,98.00,150,3,0,1318,1467,300,151,2e-66,261
Cladophialophora_australiensis_CBS112793,SRR3977138.27820811,95.24,147,7,0,1288,1434,4,150,5e-58,233
Cladophialophora_australiensis_CBS112793,SRR3977138.25221038,92.67,150,11,0,1317,1466,1,150,5e-53,217
Cladophialophora_australiensis_CBS112793,SRR3977138.25221038,91.84,147,12,0,1325,1471,300,154,1e-49,206
Cladophialophora_australiensis_CBS112793,SRR3977138.9178746,92.67,150,11,0,1317,1466,150,1,5e-53,217
Cladophialophora_australiensis_CBS112793,SRR3977138.22304778,91.50,153,12,1,819,971,148,299,8e-51,209
Cladophialophora_australiensis_CBS112793,SRR3977138.22304778,92.00,125,8,2,878,1001,143,20,3e-40,174
Cladophialophora_australiensis_CBS112793,SRR3977138.16270990,92.14,140,11,0,1315,1454,11,150,2e-47,198
Cladophialophora_australiensis_CBS112793,SRR3977138.16270990,93.75,128,8,0,1344,1471,300,173,8e-46,193
Cladophialophora_australiensis_CBS112793,SRR3977138.20946592,92.91,127,8,1,1142,1268,1,126,5e-43,183
Cladophialophora_australiensis_CBS112793,SRR3977138.27929324,89.23,130,12,2,1282,1409,278,149,2e-36,161
Cladophialophora_australiensis_CBS112793,SRR3977138.27929324,81.67,120,15,6,1159,1272,1,119,8e-16,93.5
Cladophialophora_australiensis_CBS112793,SRR3977138.1527856,94.79,96,5,0,1376,1471,280,185,5e-33,150
Cladophialophora_australiensis_CBS112793,SRR3977138.1527856,93.02,43,3,0,1326,1368,91,133,6e-07,63.9
Cladophialophora_australiensis_CBS112793,SRR3977138.18780606,88.71,124,11,2,203,325,272,151,2e-32,148
Cladophialophora_australiensis_CBS112793,SRR3977138.18780606,88.18,110,12,1,203,312,42,150,6e-27,130
Cladophialophora_australiensis_CBS112793,SRR3977138.11617594,88.71,124,11,2,203,325,122,1,2e-32,148
Cladophialophora_australiensis_CBS112793,SRR3977138.11617594,88.18,110,12,1,203,312,192,300,6e-27,130
Cladophialophora_australiensis_CBS112793,SRR3977138.20549260,92.31,104,6,2,539,642,196,297,6e-32,147
Cladophialophora_australiensis_CBS112793,SRR3977138.10506712,88.89,99,8,2,297,395,2,97,1e-23,119
Cladophialophora_australiensis_CBS112793,SRR3977138.9397368,90.00,90,9,0,571,660,148,59,5e-23,117
Cladophialophora_australiensis_CBS112793,SRR3977138.27660920,89.25,93,9,1,808,900,251,160,2e-22,115
Cladophialophora_australiensis_CBS112793,SRR3977138.4054199,88.42,95,10,1,575,668,150,56,6e-22,113
Cladophialophora_australiensis_CBS112793,SRR3977138.19852999,81.97,122,20,2,551,671,8,128,1e-18,102
Cladophialophora_australiensis_CBS112793,SRR3977138.19834775,88.24,85,7,3,1177,1260,239,157,2e-17,99.0
Cladophialophora_australiensis_CBS112793,SRR3977138.17129468,85.00,100,11,3,1282,1378,49,147,2e-17,99.0
Cladophialophora_australiensis_CBS112793,SRR3977138.17129468,100.00,40,0,0,1432,1471,300,261,3e-10,75.0
Cladophialophora_australiensis_CBS112793,SRR3977138.14082597,88.24,85,7,3,1177,1260,89,7,2e-17,99.0
Cladophialophora_australiensis_CBS112793,SRR3977138.6018587,84.69,98,15,0,560,657,292,195,2e-17,99.0
Cladophialophora_australiensis_CBS112793,SRR3977138.6018587,83.91,87,14,0,560,646,63,149,5e-13,84.2
Cladophialophora_australiensis_CBS112793,SRR3977138.20166337,87.06,85,10,1,1149,1232,87,3,2e-16,95.3
Cladophialophora_australiensis_CBS112793,SRR3977138.8290558,85.54,83,11,1,1151,1232,233,151,1e-13,86.1
Cladophialophora_australiensis_CBS112793,SRR3977138.547694,83.52,91,15,0,551,641,98,8,1e-13,86.1
Cladophialophora_australiensis_CBS112793,SRR3977138.27852156,96.08,51,2,0,1421,1471,187,237,5e-13,84.2
Cladophialophora_australiensis_CBS112793,SRR3977138.129442,100.00,34,0,0,1179,1212,39,6,6e-07,63.9
Cladophialophora_australiensis_CBS112793,SRR3977138.1640723,88.46,52,4,2,841,890,248,299,2e-06,62.1
Cladophialophora_australiensis_CBS112793,SRR3977138.6879846,100.00,30,0,0,1180,1209,75,104,1e-04,56.5
Cladophialophora_potulentorum_CBS112222,SRR3977138.27820811,98.00,150,3,0,1320,1469,300,151,2e-66,261
Cladophialophora_potulentorum_CBS112222,SRR3977138.27820811,95.24,147,7,0,1290,1436,4,150,5e-58,233
Cladophialophora_potulentorum_CBS112222,SRR3977138.25221038,92.67,150,11,0,1319,1468,1,150,5e-53,217
Cladophialophora_potulentorum_CBS112222,SRR3977138.25221038,91.95,149,12,0,1327,1475,300,152,8e-51,209
Cladophialophora_potulentorum_CBS112222,SRR3977138.9178746,92.67,150,11,0,1319,1468,150,1,5e-53,217
Cladophialophora_potulentorum_CBS112222,SRR3977138.16270990,93.71,143,9,0,1346,1488,300,158,2e-52,215
Cladophialophora_potulentorum_CBS112222,SRR3977138.16270990,92.14,140,11,0,1317,1456,11,150,2e-47,198
Cladophialophora_potulentorum_CBS112222,SRR3977138.22304778,91.50,153,12,1,821,973,148,299,8e-51,209
Cladophialophora_potulentorum_CBS112222,SRR3977138.22304778,92.80,125,7,2,880,1003,143,20,6e-42,180
Cladophialophora_potulentorum_CBS112222,SRR3977138.20946592,92.13,127,9,1,1144,1270,1,126,2e-41,178
Cladophialophora_potulentorum_CBS112222,SRR3977138.1527856,94.59,111,6,0,1378,1488,280,170,1e-39,172
Cladophialophora_potulentorum_CBS112222,SRR3977138.1527856,93.02,43,3,0,1328,1370,91,133,6e-07,63.9
Cladophialophora_potulentorum_CBS112222,SRR3977138.27929324,89.23,130,12,2,1284,1411,278,149,2e-36,161
Cladophialophora_potulentorum_CBS112222,SRR3977138.27929324,80.67,119,18,4,1161,1274,1,119,4e-14,87.9
Cladophialophora_potulentorum_CBS112222,SRR3977138.20549260,92.38,105,7,1,540,644,194,297,2e-32,148
Cladophialophora_potulentorum_CBS112222,SRR3977138.18780606,90.27,113,8,2,213,324,261,151,2e-31,145
Cladophialophora_potulentorum_CBS112222,SRR3977138.18780606,90.00,100,7,2,213,311,53,150,8e-26,126
Cladophialophora_potulentorum_CBS112222,SRR3977138.11617594,90.27,113,8,2,213,324,111,1,2e-31,145
Cladophialophora_potulentorum_CBS112222,SRR3977138.11617594,90.00,100,7,2,213,311,203,300,8e-26,126
Cladophialophora_potulentorum_CBS112222,SRR3977138.9397368,90.00,90,9,0,573,662,148,59,5e-23,117
Cladophialophora_potulentorum_CBS112222,SRR3977138.27660920,89.25,93,9,1,810,902,251,160,2e-22,115
Cladophialophora_potulentorum_CBS112222,SRR3977138.10506712,87.88,99,9,2,296,394,2,97,6e-22,113
Cladophialophora_potulentorum_CBS112222,SRR3977138.4054199,88.42,95,10,1,577,670,150,56,6e-22,113
Cladophialophora_potulentorum_CBS112222,SRR3977138.256469,93.42,76,5,0,1413,1488,152,227,6e-22,113
Cladophialophora_potulentorum_CBS112222,SRR3977138.19834775,87.00,100,10,3,1164,1262,254,157,8e-21,110
Cladophialophora_potulentorum_CBS112222,SRR3977138.14082597,87.00,100,10,3,1164,1262,104,7,8e-21,110
Cladophialophora_potulentorum_CBS112222,SRR3977138.19852999,81.97,122,20,2,553,673,8,128,1e-18,102
Cladophialophora_potulentorum_CBS112222,SRR3977138.17129468,85.00,100,11,3,1284,1380,49,147,2e-17,99.0
Cladophialophora_potulentorum_CBS112222,SRR3977138.17129468,98.18,55,1,0,1434,1488,300,246,6e-17,97.1
Cladophialophora_potulentorum_CBS112222,SRR3977138.6018587,84.69,98,15,0,562,659,292,195,2e-17,99.0
Cladophialophora_potulentorum_CBS112222,SRR3977138.6018587,83.91,87,14,0,562,648,63,149,5e-13,84.2
Cladophialophora_potulentorum_CBS112222,SRR3977138.20166337,87.06,85,10,1,1151,1234,87,3,2e-16,95.3
Cladophialophora_potulentorum_CBS112222,SRR3977138.8290558,85.54,83,11,1,1153,1234,233,151,1e-13,86.1
Cladophialophora_potulentorum_CBS112222,SRR3977138.547694,83.52,91,15,0,553,643,98,8,1e-13,86.1
Cladophialophora_potulentorum_CBS112222,SRR3977138.27852156,96.08,51,2,0,1423,1473,187,237,5e-13,84.2
Cladophialophora_potulentorum_CBS112222,SRR3977138.129442,100.00,34,0,0,1181,1214,39,6,6e-07,63.9
Cladophialophora_potulentorum_CBS112222,SRR3977138.1640723,88.46,52,4,2,843,892,248,299,2e-06,62.1
Cladophialophora_potulentorum_CBS112222,SRR3977138.6879846,90.70,43,4,0,1182,1224,75,117,3e-05,58.4
Cladophialophora_matsushimae_CMRP1198,SRR3977138.18780606,90.27,113,8,2,217,328,261,151,7e-32,145
Cladophialophora_matsushimae_CMRP1198,SRR3977138.18780606,90.00,100,7,2,217,315,53,150,3e-26,126
Cladophialophora_matsushimae_CMRP1198,SRR3977138.11617594,90.27,113,8,2,217,328,111,1,7e-32,145
Cladophialophora_matsushimae_CMRP1198,SRR3977138.11617594,90.00,100,7,2,217,315,203,300,3e-26,126
Cladophialophora_matsushimae_CMRP1198,SRR3977138.10506712,86.87,99,10,2,300,398,2,97,9e-21,108
Cladophialophora_mycetomatis_CBS122637,SRR3977138.18780606,90.27,113,8,2,202,313,261,151,8e-32,145
Cladophialophora_mycetomatis_CBS122637,SRR3977138.18780606,90.00,100,7,2,202,300,53,150,3e-26,126
Cladophialophora_mycetomatis_CBS122637,SRR3977138.11617594,90.27,113,8,2,202,313,111,1,8e-32,145
Cladophialophora_mycetomatis_CBS122637,SRR3977138.11617594,90.00,100,7,2,202,300,203,300,3e-26,126
Cladophialophora_mycetomatis_CBS122637,SRR3977138.10506712,88.89,99,8,2,285,383,2,97,5e-24,119
Cladophialophora_chaetospira_CBS127573,SRR3977138.18780606,90.27,113,8,2,608,719,261,151,1e-31,145
Cladophialophora_chaetospira_CBS127573,SRR3977138.18780606,90.00,100,7,2,608,706,53,150,5e-26,126
Cladophialophora_chaetospira_CBS127573,SRR3977138.11617594,90.27,113,8,2,608,719,111,1,1e-31,145
Cladophialophora_chaetospira_CBS127573,SRR3977138.11617594,90.00,100,7,2,608,706,203,300,5e-26,126
Cladophialophora_chaetospira_CBS127573,SRR3977138.10506712,89.90,99,7,2,691,789,2,97,2e-25,124
Cladophialophora_chaetospira_CBS127573,SRR3977138.6929841,97.37,38,1,0,181,218,169,206,1e-07,65.8
Cladophialophora_chaetospira_CBS127573,SRR3977138.8396459,100.00,33,0,0,379,411,128,96,1e-06,62.1
Cladophialophora_chaetospira_CBS127573,SRR3977138.8396459,100.00,33,0,0,379,411,235,267,1e-06,62.1
Cladophialophora_chaetospira_CBS127573,SRR3977138.24013152,100.00,31,0,0,379,409,9,39,2e-05,58.4
Cladophialophora_chaetospira_CBS127573,SRR3977138.8829534,100.00,29,0,0,379,407,31,3,2e-04,54.7
Cladophialophora_boppii_CBS126.86_T,SRR3977138.18780606,90.27,113,8,2,210,321,261,151,8e-32,145
Cladophialophora_boppii_CBS126.86_T,SRR3977138.18780606,90.00,100,7,2,210,308,53,150,3e-26,126
Cladophialophora_boppii_CBS126.86_T,SRR3977138.11617594,90.27,113,8,2,210,321,111,1,8e-32,145
Cladophialophora_boppii_CBS126.86_T,SRR3977138.11617594,90.00,100,7,2,210,308,203,300,3e-26,126
Cladophialophora_boppii_CBS126.86_T,SRR3977138.10506712,89.90,99,7,3,293,391,2,97,1e-25,124
Cladophialophora_abundans_CBS126736,SRR3977138.18780606,90.18,112,10,1,147,258,261,151,7e-32,145
Cladophialophora_abundans_CBS126736,SRR3977138.18780606,89.90,99,9,1,147,245,53,150,2e-26,126
Cladophialophora_abundans_CBS126736,SRR3977138.11617594,90.18,112,10,1,147,258,111,1,7e-32,145
Cladophialophora_abundans_CBS126736,SRR3977138.11617594,89.90,99,9,1,147,245,203,300,2e-26,126
Cladophialophora_abundans_CBS126736,SRR3977138.10506712,91.92,99,5,2,230,328,2,97,4e-29,135
Capronia_semi-immersa_CBS102234,SRR3977138.18780606,90.18,112,10,1,209,320,261,151,8e-32,145
Capronia_semi-immersa_CBS102234,SRR3977138.18780606,89.90,99,9,1,209,307,53,150,3e-26,126
Capronia_semi-immersa_CBS102234,SRR3977138.11617594,90.18,112,10,1,209,320,111,1,8e-32,145
Capronia_semi-immersa_CBS102234,SRR3977138.11617594,89.90,99,9,1,209,307,203,300,3e-26,126
Capronia_semi-immersa_CBS102234,SRR3977138.10506712,87.88,99,9,2,292,390,2,97,2e-22,113
Phialophora_americana_CBS400.67,SRR3977138.27820811,95.92,147,6,0,1282,1428,4,150,1e-59,239
Phialophora_americana_CBS400.67,SRR3977138.27820811,98.51,134,2,0,1312,1445,300,167,3e-59,237
Phialophora_americana_CBS400.67,SRR3977138.22304778,90.85,153,13,1,813,965,148,299,3e-49,204
Phialophora_americana_CBS400.67,SRR3977138.22304778,95.33,107,5,0,872,978,143,37,4e-39,171
Phialophora_americana_CBS400.67,SRR3977138.25221038,92.59,135,10,0,1311,1445,1,135,2e-46,195
Phialophora_americana_CBS400.67,SRR3977138.20946592,94.49,127,6,1,1136,1262,1,126,2e-46,195
Phialophora_americana_CBS400.67,SRR3977138.20946592,88.46,156,14,4,1199,1351,300,146,1e-43,185
Phialophora_americana_CBS400.67,SRR3977138.16270990,91.97,137,11,0,1309,1445,11,147,8e-46,193
Phialophora_americana_CBS400.67,SRR3977138.16270990,92.59,108,8,0,1338,1445,300,193,1e-34,156
Phialophora_americana_CBS400.67,SRR3977138.9178746,91.85,135,11,0,1311,1445,150,16,1e-44,189
Phialophora_americana_CBS400.67,SRR3977138.27929324,89.23,130,12,2,1276,1403,278,149,2e-36,161
Phialophora_americana_CBS400.67,SRR3977138.27929324,81.67,120,15,6,1153,1266,1,119,8e-16,93.5
Phialophora_americana_CBS400.67,SRR3977138.16438688,88.64,132,15,0,832,963,152,283,2e-36,161
Phialophora_americana_CBS400.67,SRR3977138.7697907,87.31,134,16,1,834,967,300,168,1e-33,152
Phialophora_americana_CBS400.67,SRR3977138.18780606,90.18,112,10,1,211,322,261,151,2e-31,145
Phialophora_americana_CBS400.67,SRR3977138.18780606,89.90,99,9,1,211,309,53,150,8e-26,126
Phialophora_americana_CBS400.67,SRR3977138.11617594,90.18,112,10,1,211,322,111,1,2e-31,145
Phialophora_americana_CBS400.67,SRR3977138.11617594,89.90,99,9,1,211,309,203,300,8e-26,126
Phialophora_americana_CBS400.67,SRR3977138.3601207,86.29,124,16,1,844,967,1,123,5e-28,134
Phialophora_americana_CBS400.67,SRR3977138.27660920,89.25,93,9,1,802,894,251,160,2e-22,115
Phialophora_americana_CBS400.67,SRR3977138.10506712,87.88,99,9,2,294,392,2,97,6e-22,113
Phialophora_americana_CBS400.67,SRR3977138.1527856,93.42,76,5,0,1370,1445,280,205,6e-22,113
Phialophora_americana_CBS400.67,SRR3977138.1527856,97.06,34,1,0,1329,1362,100,133,3e-05,58.4
Phialophora_americana_CBS400.67,SRR3977138.19834775,90.48,84,7,1,1171,1254,239,157,8e-21,110
Phialophora_americana_CBS400.67,SRR3977138.14082597,90.48,84,7,1,1171,1254,89,7,8e-21,110
Phialophora_americana_CBS400.67,SRR3977138.27829094,87.23,94,11,1,874,967,3,95,1e-19,106
Phialophora_americana_CBS400.67,SRR3977138.20166337,89.41,85,8,1,1143,1226,87,3,1e-19,106
Phialophora_americana_CBS400.67,SRR3977138.8290558,89.16,83,8,1,1145,1226,233,151,1e-18,102
Phialophora_americana_CBS400.67,SRR3977138.17129468,85.00,100,11,3,1276,1372,49,147,2e-17,99.0
Phialophora_americana_CBS400.67,SRR3977138.6957114,88.10,84,8,2,1277,1360,218,299,2e-17,99.0
Phialophora_americana_CBS400.67,SRR3977138.129442,97.44,39,1,0,1173,1211,39,1,5e-08,67.6
Phialophora_americana_CBS400.67,SRR3977138.6879846,93.02,43,3,0,1174,1216,75,117,6e-07,63.9
Phialophora_americana_CBS400.67,SRR3977138.1640723,88.46,52,4,2,835,884,248,299,2e-06,62.1
Phialophora_verrucosa_CBS140325_T,SRR3977138.18780606,90.18,112,10,1,215,326,261,151,8e-32,145
Phialophora_verrucosa_CBS140325_T,SRR3977138.18780606,89.90,99,9,1,215,313,53,150,3e-26,126
Phialophora_verrucosa_CBS140325_T,SRR3977138.11617594,90.18,112,10,1,215,326,111,1,8e-32,145
Phialophora_verrucosa_CBS140325_T,SRR3977138.11617594,89.90,99,9,1,215,313,203,300,3e-26,126
Phialophora_verrucosa_CBS140325_T,SRR3977138.10506712,87.88,99,9,2,298,396,2,97,2e-22,113
Cladophialophora_samoensis_CBS259.83_T,SRR3977138.18780606,90.27,113,8,2,215,326,261,151,8e-32,145
Cladophialophora_samoensis_CBS259.83_T,SRR3977138.18780606,90.00,100,7,2,215,313,53,150,3e-26,126
Cladophialophora_samoensis_CBS259.83_T,SRR3977138.11617594,90.27,113,8,2,215,326,111,1,8e-32,145
Cladophialophora_samoensis_CBS259.83_T,SRR3977138.11617594,90.00,100,7,2,215,313,203,300,3e-26,126
Cladophialophora_samoensis_CBS259.83_T,SRR3977138.10506712,90.91,99,6,2,298,396,2,97,2e-27,130
Cladophialophora_carrionii_CBS260.83,SRR3977138.18780606,90.27,113,8,2,231,342,261,151,9e-32,145
Cladophialophora_carrionii_CBS260.83,SRR3977138.18780606,90.00,100,7,2,231,329,53,150,3e-26,126
Cladophialophora_carrionii_CBS260.83,SRR3977138.11617594,90.27,113,8,2,231,342,111,1,9e-32,145
Cladophialophora_carrionii_CBS260.83,SRR3977138.11617594,90.00,100,7,2,231,329,203,300,3e-26,126
Cladophialophora_carrionii_CBS260.83,SRR3977138.10506712,88.89,99,8,2,314,412,2,97,5e-24,119
Exophiala_palmae_UPCB86822_T,SRR3977138.18780606,90.27,113,8,2,174,285,261,151,7e-32,145
Exophiala_palmae_UPCB86822_T,SRR3977138.18780606,90.00,100,7,2,174,272,53,150,3e-26,126
Exophiala_palmae_UPCB86822_T,SRR3977138.11617594,90.27,113,8,2,174,285,111,1,7e-32,145
Exophiala_palmae_UPCB86822_T,SRR3977138.11617594,90.00,100,7,2,174,272,203,300,3e-26,126
Exophiala_palmae_UPCB86822_T,SRR3977138.10506712,92.68,82,5,1,257,338,2,82,2e-23,117
Cladophialophora_yegresii_CBS114405_T,SRR3977138.18780606,90.27,113,8,2,216,327,261,151,8e-32,145
Cladophialophora_yegresii_CBS114405_T,SRR3977138.18780606,90.00,100,7,2,216,314,53,150,3e-26,126
Cladophialophora_yegresii_CBS114405_T,SRR3977138.11617594,90.27,113,8,2,216,327,111,1,8e-32,145
Cladophialophora_yegresii_CBS114405_T,SRR3977138.11617594,90.00,100,7,2,216,314,203,300,3e-26,126
Cladophialophora_yegresii_CBS114405_T,SRR3977138.10506712,88.89,99,8,2,299,397,2,97,5e-24,119
Knufia_epidermidis_CBS120353_T,SRR3977138.18780606,91.07,112,9,1,214,325,261,151,2e-33,150
Knufia_epidermidis_CBS120353_T,SRR3977138.18780606,90.91,99,8,1,214,312,53,150,6e-28,132
Knufia_epidermidis_CBS120353_T,SRR3977138.11617594,91.07,112,9,1,214,325,111,1,2e-33,150
Knufia_epidermidis_CBS120353_T,SRR3977138.11617594,90.91,99,8,1,214,312,203,300,6e-28,132
Knufia_epidermidis_CBS120353_T,SRR3977138.10506712,93.75,80,4,1,297,376,2,80,5e-24,119
Arthrocladium_fulminans_CBS136243_T,SRR3977138.18780606,91.07,112,9,1,209,320,261,151,2e-33,150
Arthrocladium_fulminans_CBS136243_T,SRR3977138.18780606,90.91,99,8,1,209,307,53,150,6e-28,132
Arthrocladium_fulminans_CBS136243_T,SRR3977138.11617594,91.07,112,9,1,209,320,111,1,2e-33,150
Arthrocladium_fulminans_CBS136243_T,SRR3977138.11617594,90.91,99,8,1,209,307,203,300,6e-28,132
Arthrocladium_fulminans_CBS136243_T,SRR3977138.10506712,90.00,80,7,1,292,371,2,80,5e-19,102
Anthopsis_deltoidea_CBS263.77_T,SRR3977138.18780606,91.96,112,6,2,218,327,261,151,1e-34,154
Anthopsis_deltoidea_CBS263.77_T,SRR3977138.18780606,90.91,99,6,2,218,314,53,150,2e-27,130
Anthopsis_deltoidea_CBS263.77_T,SRR3977138.11617594,91.96,112,6,2,218,327,111,1,1e-34,154
Anthopsis_deltoidea_CBS263.77_T,SRR3977138.11617594,90.91,99,6,2,218,314,203,300,2e-27,130
Cyphellophora_laciniata_CBS190.61_T,SRR3977138.20549260,93.40,106,6,1,626,731,193,297,5e-35,156
Cyphellophora_laciniata_CBS190.61_T,SRR3977138.18780606,91.07,112,7,2,303,412,261,151,8e-33,148
Cyphellophora_laciniata_CBS190.61_T,SRR3977138.18780606,90.91,99,6,2,303,399,53,150,3e-27,130
Cyphellophora_laciniata_CBS190.61_T,SRR3977138.11617594,91.07,112,7,2,303,412,111,1,8e-33,148
Cyphellophora_laciniata_CBS190.61_T,SRR3977138.11617594,90.91,99,6,2,303,399,203,300,3e-27,130
Cyphellophora_laciniata_CBS190.61_T,SRR3977138.10506712,92.78,97,6,1,384,480,2,97,5e-30,139
Cyphellophora_laciniata_CBS190.61_T,SRR3977138.8396459,98.63,73,1,0,28,100,193,265,3e-27,130
Cyphellophora_laciniata_CBS190.61_T,SRR3977138.8396459,100.00,53,0,0,48,100,150,98,8e-18,99.0
Cyphellophora_laciniata_CBS190.61_T,SRR3977138.8829534,92.94,85,5,1,14,98,86,3,5e-25,122
Cyphellophora_laciniata_CBS190.61_T,SRR3977138.184257,95.77,71,3,0,28,98,154,84,8e-23,115
Cyphellophora_laciniata_CBS190.61_T,SRR3977138.184257,97.01,67,2,0,29,95,221,287,3e-22,113
Cyphellophora_laciniata_CBS190.61_T,SRR3977138.9397368,92.11,76,6,0,660,735,148,73,1e-20,108
Cyphellophora_laciniata_CBS190.61_T,SRR3977138.4054199,93.06,72,5,0,664,735,150,79,5e-20,106
Cyphellophora_laciniata_CBS190.61_T,SRR3977138.3096783,98.33,60,1,0,28,87,60,1,5e-20,106
Cyphellophora_laciniata_CBS190.61_T,SRR3977138.6018587,87.36,87,11,0,649,735,292,206,2e-18,100
Cyphellophora_laciniata_CBS190.61_T,SRR3977138.6018587,86.21,87,12,0,649,735,63,149,1e-16,95.3
Cyphellophora_laciniata_CBS190.61_T,SRR3977138.10676912,93.85,65,4,0,7,71,226,290,8e-18,99.0
Cyphellophora_laciniata_CBS190.61_T,SRR3977138.19852999,85.71,91,13,0,640,730,8,98,3e-17,97.1
Cyphellophora_laciniata_CBS190.61_T,SRR3977138.547694,85.71,91,13,0,640,730,98,8,3e-17,97.1
Cyphellophora_laciniata_CBS190.61_T,SRR3977138.6051067,97.83,46,1,0,28,73,46,1,3e-12,80.5
Cyphellophora_laciniata_CBS190.61_T,SRR3977138.3970705,95.65,46,2,0,29,74,46,1,1e-10,75.0
Cyphellophora_laciniata_CBS190.61_T,SRR3977138.24013152,100.00,39,0,0,62,100,1,39,5e-10,73.1
Cyphellophora_suttonii_CBS449.91,SRR3977138.18780606,91.07,112,7,2,206,315,261,151,6e-33,148
Cyphellophora_suttonii_CBS449.91,SRR3977138.18780606,90.91,99,6,2,206,302,53,150,2e-27,130
Cyphellophora_suttonii_CBS449.91,SRR3977138.11617594,91.07,112,7,2,206,315,111,1,6e-33,148
Cyphellophora_suttonii_CBS449.91,SRR3977138.11617594,90.91,99,6,2,206,302,203,300,2e-27,130
Cyphellophora_suttonii_CBS449.91,SRR3977138.10506712,92.78,97,6,1,287,383,2,97,4e-30,139
Cyphellophora_pauciseptata_CBS284.85_T,SRR3977138.18780606,91.07,112,7,2,217,326,261,151,6e-33,148
Cyphellophora_pauciseptata_CBS284.85_T,SRR3977138.18780606,90.91,99,6,2,217,313,53,150,2e-27,130
Cyphellophora_pauciseptata_CBS284.85_T,SRR3977138.11617594,91.07,112,7,2,217,326,111,1,6e-33,148
Cyphellophora_pauciseptata_CBS284.85_T,SRR3977138.11617594,90.91,99,6,2,217,313,203,300,2e-27,130
Cyphellophora_pauciseptata_CBS284.85_T,SRR3977138.10506712,92.78,97,6,1,298,394,2,97,4e-30,139
Cyphellophora_pluriseptata_CBS286.85_T,SRR3977138.10506712,91.75,97,7,1,303,399,2,97,2e-28,134
Phialophora_europaea_CBS101466,SRR3977138.18780606,91.07,112,7,2,212,321,261,151,6e-33,148
Phialophora_europaea_CBS101466,SRR3977138.18780606,90.91,99,6,2,212,308,53,150,2e-27,130
Phialophora_europaea_CBS101466,SRR3977138.11617594,91.07,112,7,2,212,321,111,1,6e-33,148
Phialophora_europaea_CBS101466,SRR3977138.11617594,90.91,99,6,2,212,308,203,300,2e-27,130
Phialophora_europaea_CBS101466,SRR3977138.10506712,91.75,97,7,1,293,389,2,97,2e-28,134
Phialophora_ambigua_CBS235.93,SRR3977138.18780606,91.07,112,7,2,209,318,261,151,6e-33,148
Phialophora_ambigua_CBS235.93,SRR3977138.18780606,90.91,99,6,2,209,305,53,150,2e-27,130
Phialophora_ambigua_CBS235.93,SRR3977138.11617594,91.07,112,7,2,209,318,111,1,6e-33,148
Phialophora_ambigua_CBS235.93,SRR3977138.11617594,90.91,99,6,2,209,305,203,300,2e-27,130
Phialophora_ambigua_CBS235.93,SRR3977138.10506712,91.75,97,7,1,290,386,2,97,2e-28,134
Cladophialophora_modesta_CBS985.96_T,SRR3977138.20549260,95.45,110,3,2,506,615,190,297,1e-40,174
Cladophialophora_modesta_CBS985.96_T,SRR3977138.18780606,91.07,112,9,1,206,317,261,151,2e-33,150
Cladophialophora_modesta_CBS985.96_T,SRR3977138.18780606,90.91,99,8,1,206,304,53,150,7e-28,132
Cladophialophora_modesta_CBS985.96_T,SRR3977138.11617594,91.07,112,9,1,206,317,111,1,2e-33,150
Cladophialophora_modesta_CBS985.96_T,SRR3977138.11617594,90.91,99,8,1,206,304,203,300,7e-28,132
Cladophialophora_modesta_CBS985.96_T,SRR3977138.10506712,90.82,98,7,2,289,386,2,97,3e-27,130
Cladophialophora_modesta_CBS985.96_T,SRR3977138.4054199,94.44,72,4,0,548,619,150,79,9e-22,111
Cladophialophora_modesta_CBS985.96_T,SRR3977138.9397368,92.21,77,4,2,544,619,148,73,1e-20,108
Cladophialophora_modesta_CBS985.96_T,SRR3977138.6018587,88.51,87,10,0,533,619,292,206,4e-20,106
Cladophialophora_modesta_CBS985.96_T,SRR3977138.6018587,87.36,87,11,0,533,619,63,149,2e-18,100
Cladophialophora_modesta_CBS985.96_T,SRR3977138.19852999,86.81,91,12,0,524,614,8,98,5e-19,102
Cladophialophora_modesta_CBS985.96_T,SRR3977138.547694,86.81,91,12,0,524,614,98,8,5e-19,102
Cyphellophora_fusarioides_MUCL44033_T,SRR3977138.18780606,91.96,112,6,2,205,314,261,151,1e-34,154
Cyphellophora_fusarioides_MUCL44033_T,SRR3977138.18780606,90.91,99,6,2,205,301,53,150,2e-27,130
Cyphellophora_fusarioides_MUCL44033_T,SRR3977138.11617594,91.96,112,6,2,205,314,111,1,1e-34,154
Cyphellophora_fusarioides_MUCL44033_T,SRR3977138.11617594,90.91,99,6,2,205,301,203,300,2e-27,130
Cyphellophora_fusarioides_MUCL44033_T,SRR3977138.10506712,91.75,97,7,1,286,382,2,97,2e-28,134
