Exophiala_nigra_CBS535.94_T,SRR7471037.11699023,93.15,146,9,1,203,348,147,3,2e-52,213
Exophiala_nigra_CBS535.94_T,SRR7471037.14832604,88.60,114,12,1,216,329,271,159,9e-30,137
Exophiala_nigra_CBS535.94_T,SRR7471037.1347052,90.00,100,7,2,209,307,248,151,2e-26,126
Exophiala_nigra_CBS535.94_T,SRR7471037.10726824,86.41,103,10,4,292,391,3,104,2e-21,110
Exophiala_nigra_CBS535.94_T,SRR7471037.16431383,100.00,43,0,0,200,242,193,151,2e-12,80.5
Exophiala_spinifera_CBS899.68_T,SRR7471037.11699023,92.47,146,10,1,200,345,147,3,7e-51,207
Exophiala_spinifera_CBS899.68_T,SRR7471037.14832604,87.72,114,13,1,213,326,271,159,4e-28,132
Exophiala_spinifera_CBS899.68_T,SRR7471037.1347052,91.00,100,6,2,206,304,248,151,4e-28,132
Exophiala_spinifera_CBS899.68_T,SRR7471037.10726824,86.41,103,9,4,289,387,3,104,7e-21,108
Exophiala_spinifera_CBS899.68_T,SRR7471037.16431383,100.00,43,0,0,197,239,193,151,1e-12,80.5
Exophiala_exophialae_CBS668.76_T,SRR7471037.11699023,92.47,146,10,1,201,346,147,3,7e-51,207
Exophiala_exophialae_CBS668.76_T,SRR7471037.14832604,87.72,114,13,1,214,327,271,159,4e-28,132
Exophiala_exophialae_CBS668.76_T,SRR7471037.1347052,91.00,100,6,2,207,305,248,151,4e-28,132
Exophiala_exophialae_CBS668.76_T,SRR7471037.10726824,86.41,103,9,4,290,388,3,104,7e-21,108
Exophiala_exophialae_CBS668.76_T,SRR7471037.16431383,100.00,43,0,0,198,240,193,151,1e-12,80.5
Exophiala_polymorpha_CBS138920_T,SRR7471037.11699023,92.47,146,10,1,303,448,147,3,9e-51,207
Exophiala_polymorpha_CBS138920_T,SRR7471037.14832604,87.72,114,13,1,316,429,271,159,5e-28,132
Exophiala_polymorpha_CBS138920_T,SRR7471037.1347052,91.00,100,6,2,309,407,248,151,5e-28,132
Exophiala_polymorpha_CBS138920_T,SRR7471037.10726824,86.41,103,9,4,392,490,3,104,9e-21,108
Exophiala_polymorpha_CBS138920_T,SRR7471037.16431383,96.00,50,1,1,294,342,200,151,2e-12,80.5
Exophiala_polymorpha_CBS138920_T,SRR7471037.17258020,100.00,28,0,0,82,109,108,135,4e-04,52.8
Exophiala_oligosperma_CBS725.88_T,SRR7471037.11699023,92.47,146,10,1,213,358,147,3,7e-51,207
Exophiala_oligosperma_CBS725.88_T,SRR7471037.14832604,87.72,114,13,1,226,339,271,159,4e-28,132
Exophiala_oligosperma_CBS725.88_T,SRR7471037.1347052,91.00,100,6,2,219,317,248,151,4e-28,132
Exophiala_oligosperma_CBS725.88_T,SRR7471037.10726824,86.41,103,9,4,302,400,3,104,7e-21,108
Exophiala_oligosperma_CBS725.88_T,SRR7471037.16431383,100.00,43,0,0,210,252,193,151,2e-12,80.5
Exophiala_jeanselmei_CBS507.90_T,SRR7471037.11699023,92.47,146,10,1,205,350,147,3,7e-51,207
Exophiala_jeanselmei_CBS507.90_T,SRR7471037.14832604,87.72,114,13,1,218,331,271,159,5e-28,132
Exophiala_jeanselmei_CBS507.90_T,SRR7471037.1347052,91.00,100,6,2,211,309,248,151,5e-28,132
Exophiala_jeanselmei_CBS507.90_T,SRR7471037.10726824,86.41,103,9,4,294,392,3,104,8e-21,108
Exophiala_jeanselmei_CBS507.90_T,SRR7471037.16431383,100.00,43,0,0,202,244,193,151,2e-12,80.5
Exophiala_bergeri_CBS353.52,SRR7471037.11699023,93.15,146,9,1,166,311,147,3,1e-52,213
Exophiala_bergeri_CBS353.52,SRR7471037.14832604,88.60,114,12,1,179,292,271,159,8e-30,137
Exophiala_bergeri_CBS353.52,SRR7471037.1347052,90.00,100,7,2,172,270,248,151,2e-26,126
Exophiala_bergeri_CBS353.52,SRR7471037.10726824,85.44,103,11,3,255,354,3,104,8e-20,104
Exophiala_bergeri_CBS353.52,SRR7471037.16431383,100.00,43,0,0,163,205,193,151,1e-12,80.5
Exophiala_moniliae_CBS520.76_T,SRR7471037.11699023,93.15,146,9,1,203,348,147,3,1e-52,213
Exophiala_moniliae_CBS520.76_T,SRR7471037.14832604,88.60,114,12,1,216,329,271,159,9e-30,137
Exophiala_moniliae_CBS520.76_T,SRR7471037.1347052,90.00,100,7,2,209,307,248,151,2e-26,126
Exophiala_moniliae_CBS520.76_T,SRR7471037.10726824,88.66,97,9,2,292,387,3,98,1e-23,117
Exophiala_moniliae_CBS520.76_T,SRR7471037.16431383,100.00,43,0,0,200,242,193,151,2e-12,80.5
Exophiala_pisciphila_CBS537.73_T,SRR7471037.11699023,93.15,146,9,1,206,351,147,3,2e-52,213
Exophiala_pisciphila_CBS537.73_T,SRR7471037.14832604,88.60,114,12,1,219,332,271,159,1e-29,137
Exophiala_pisciphila_CBS537.73_T,SRR7471037.1347052,89.90,99,9,1,212,310,248,151,2e-26,126
Exophiala_pisciphila_CBS537.73_T,SRR7471037.10726824,87.38,103,8,4,295,393,3,104,2e-22,113
Exophiala_pisciphila_CBS537.73_T,SRR7471037.16431383,100.00,43,0,0,203,245,193,151,2e-12,80.5
Exophiala_xenobiotica_CBS117642,SRR7471037.11699023,93.15,146,9,1,198,343,147,3,1e-52,213
Exophiala_xenobiotica_CBS117642,SRR7471037.14832604,88.60,114,12,1,211,324,271,159,9e-30,137
Exophiala_xenobiotica_CBS117642,SRR7471037.1347052,90.00,100,7,2,204,302,248,151,2e-26,126
Exophiala_xenobiotica_CBS117642,SRR7471037.10726824,86.41,103,9,4,287,385,3,104,7e-21,108
Exophiala_xenobiotica_CBS117642,SRR7471037.16431383,100.00,43,0,0,195,237,193,151,1e-12,80.5
Exophiala_brunnea_CBS,SRR7471037.11699023,92.47,146,10,1,234,379,147,3,8e-51,207
Exophiala_brunnea_CBS,SRR7471037.11699023,100.00,38,0,0,1,38,212,249,1e-09,71.3
Exophiala_brunnea_CBS,SRR7471037.14832604,88.89,108,11,1,247,354,271,165,5e-28,132
Exophiala_brunnea_CBS,SRR7471037.1347052,90.00,100,7,2,240,338,248,151,2e-26,126
Exophiala_brunnea_CBS,SRR7471037.10726824,86.41,103,9,4,323,421,3,104,8e-21,108
Exophiala_brunnea_CBS,SRR7471037.16431383,100.00,43,0,0,231,273,193,151,2e-12,80.5
Exophiala_brunnea_CBS,SRR7471037.17258020,100.00,41,0,0,1,41,95,135,2e-11,76.8
Exophiala_nishimurae_CBS101538_T,SRR7471037.11699023,92.47,146,10,1,212,357,147,3,7e-51,207
Exophiala_nishimurae_CBS101538_T,SRR7471037.14832604,87.72,114,13,1,225,338,271,159,4e-28,132
Exophiala_nishimurae_CBS101538_T,SRR7471037.1347052,91.00,100,6,2,218,316,248,151,4e-28,132
Exophiala_nishimurae_CBS101538_T,SRR7471037.10726824,86.41,103,9,4,301,399,3,104,8e-21,108
Exophiala_nishimurae_CBS101538_T,SRR7471037.16431383,96.00,50,1,1,203,251,200,151,2e-12,80.5
Exophiala_mesophila_CBS402.95_T,SRR7471037.11699023,92.47,146,10,1,196,341,147,3,8e-51,207
Exophiala_mesophila_CBS402.95_T,SRR7471037.14832604,88.89,108,11,1,209,316,271,165,5e-28,132
Exophiala_mesophila_CBS402.95_T,SRR7471037.1347052,90.00,100,7,2,202,300,248,151,2e-26,126
Exophiala_mesophila_CBS402.95_T,SRR7471037.10726824,88.37,86,9,1,285,370,3,87,4e-19,102
Exophiala_mesophila_CBS402.95_T,SRR7471037.16431383,100.00,43,0,0,193,235,193,151,2e-12,80.5
Exophiala_castellanii_CBS158.58_T,SRR7471037.11699023,92.47,146,10,1,194,339,147,3,8e-51,207
Exophiala_castellanii_CBS158.58_T,SRR7471037.14832604,88.89,108,11,1,207,314,271,165,5e-28,132
Exophiala_castellanii_CBS158.58_T,SRR7471037.1347052,90.00,100,7,2,200,298,248,151,2e-26,126
Exophiala_castellanii_CBS158.58_T,SRR7471037.10726824,88.37,86,9,1,283,368,3,87,4e-19,102
Exophiala_castellanii_CBS158.58_T,SRR7471037.16431383,100.00,43,0,0,191,233,193,151,2e-12,80.5
Exophiala_lecanii-corni_CBS123.33_T,SRR7471037.11699023,92.47,146,10,1,217,362,147,3,7e-51,207
Exophiala_lecanii-corni_CBS123.33_T,SRR7471037.14832604,88.89,108,11,1,230,337,271,165,4e-28,132
Exophiala_lecanii-corni_CBS123.33_T,SRR7471037.1347052,90.00,100,7,2,223,321,248,151,2e-26,126
Exophiala_lecanii-corni_CBS123.33_T,SRR7471037.10726824,84.11,107,12,3,306,412,3,104,4e-18,99.0
Exophiala_lecanii-corni_CBS123.33_T,SRR7471037.16431383,100.00,43,0,0,214,256,193,151,2e-12,80.5
Exophiala_dermatitidis_CBS748.88,SRR7471037.12465960,98.44,128,2,0,1377,1504,151,24,5e-56,226
Exophiala_dermatitidis_CBS748.88,SRR7471037.12465960,93.39,121,8,0,1321,1441,176,296,4e-42,180
Exophiala_dermatitidis_CBS748.88,SRR7471037.11699023,93.15,146,8,2,210,354,147,3,4e-52,213
Exophiala_dermatitidis_CBS748.88,SRR7471037.4152715,90.41,146,13,1,1356,1501,151,7,2e-45,191
Exophiala_dermatitidis_CBS748.88,SRR7471037.9175056,91.85,135,11,0,1348,1482,285,151,7e-45,189
Exophiala_dermatitidis_CBS748.88,SRR7471037.18726025,89.21,139,12,3,1192,1328,138,1,2e-39,171
Exophiala_dermatitidis_CBS748.88,SRR7471037.18726025,98.91,92,1,0,934,1025,151,242,1e-37,165
Exophiala_dermatitidis_CBS748.88,SRR7471037.2154723,86.57,134,16,2,1310,1442,283,151,4e-32,147
Exophiala_dermatitidis_CBS748.88,SRR7471037.14832604,88.60,114,11,2,223,335,271,159,3e-29,137
Exophiala_dermatitidis_CBS748.88,SRR7471037.1347052,88.89,99,9,2,216,313,248,151,3e-24,121
Exophiala_dermatitidis_CBS748.88,SRR7471037.16366579,86.24,109,13,2,1184,1291,161,268,3e-23,117
Exophiala_dermatitidis_CBS748.88,SRR7471037.10726824,87.38,103,9,3,298,397,3,104,1e-22,115
Exophiala_dermatitidis_CBS748.88,SRR7471037.9085248,82.95,129,17,5,768,893,127,1,2e-21,111
Exophiala_dermatitidis_CBS748.88,SRR7471037.3264683,78.43,153,27,6,1212,1362,151,299,2e-16,95.3
Exophiala_dermatitidis_CBS748.88,SRR7471037.16431383,97.67,43,0,1,207,248,193,151,7e-10,73.1
Exophiala_dermatitidis_CBS748.88,SRR7471037.2082276,100.00,30,0,0,1475,1504,150,179,7e-05,56.5
Exophiala_dermatitidis_CBS748.88,SRR7471037.4438840,100.00,29,0,0,1476,1504,1,29,3e-04,54.7
Exophiala_angulospora_CBS482.92_T,SRR7471037.11699023,93.15,146,9,1,200,345,147,3,1e-52,213
Exophiala_angulospora_CBS482.92_T,SRR7471037.14832604,88.60,114,12,1,213,326,271,159,9e-30,137
Exophiala_angulospora_CBS482.92_T,SRR7471037.1347052,90.00,100,7,2,206,304,248,151,2e-26,126
Exophiala_angulospora_CBS482.92_T,SRR7471037.10726824,87.38,103,9,4,289,388,3,104,4e-23,115
Exophiala_angulospora_CBS482.92_T,SRR7471037.16431383,100.00,43,0,0,197,239,193,151,2e-12,80.5
Exophiala_opportunistica_CBS109811_T,SRR7471037.11699023,93.15,146,9,1,199,344,147,3,1e-52,213
Exophiala_opportunistica_CBS109811_T,SRR7471037.14832604,88.60,114,12,1,212,325,271,159,9e-30,137
Exophiala_opportunistica_CBS109811_T,SRR7471037.1347052,90.00,100,7,2,205,303,248,151,2e-26,126
Exophiala_opportunistica_CBS109811_T,SRR7471037.10726824,87.38,103,8,5,288,386,3,104,2e-22,113
Exophiala_opportunistica_CBS109811_T,SRR7471037.16431383,100.00,43,0,0,196,238,193,151,2e-12,80.5
Exophiala_salmonis_CBS157.67_T,SRR7471037.11699023,93.15,146,9,1,328,473,147,3,2e-52,213
Exophiala_salmonis_CBS157.67_T,SRR7471037.11699023,100.00,40,0,0,83,122,179,218,1e-10,75.0
Exophiala_salmonis_CBS157.67_T,SRR7471037.14832604,88.60,114,12,1,341,454,271,159,1e-29,137
Exophiala_salmonis_CBS157.67_T,SRR7471037.1347052,90.00,100,7,2,334,432,248,151,3e-26,126
Exophiala_salmonis_CBS157.67_T,SRR7471037.10726824,87.38,103,8,4,417,515,3,104,2e-22,113
Exophiala_salmonis_CBS157.67_T,SRR7471037.16431383,100.00,43,0,0,325,367,193,151,2e-12,80.5
Exophiala_salmonis_CBS157.67_T,SRR7471037.16431383,100.00,31,0,0,92,122,1,31,1e-05,58.4
Exophiala_aquamarina_CBS119918_T,SRR7471037.11699023,93.15,146,9,1,206,351,147,3,1e-52,213
Exophiala_aquamarina_CBS119918_T,SRR7471037.14832604,88.60,114,12,1,219,332,271,159,9e-30,137
Exophiala_aquamarina_CBS119918_T,SRR7471037.1347052,90.00,100,7,2,212,310,248,151,2e-26,126
Exophiala_aquamarina_CBS119918_T,SRR7471037.10726824,87.50,104,7,5,295,394,3,104,4e-23,115
Exophiala_aquamarina_CBS119918_T,SRR7471037.16431383,100.00,43,0,0,203,245,193,151,2e-12,80.5
Exophiala_cancerae_CBS120420_T,SRR7471037.11699023,93.15,146,9,1,221,366,147,3,2e-52,213
Exophiala_cancerae_CBS120420_T,SRR7471037.14832604,88.60,114,12,1,234,347,271,159,1e-29,137
Exophiala_cancerae_CBS120420_T,SRR7471037.1347052,90.00,100,7,2,227,325,248,151,2e-26,126
Exophiala_cancerae_CBS120420_T,SRR7471037.10726824,87.38,103,8,5,310,408,3,104,2e-22,113
Exophiala_cancerae_CBS120420_T,SRR7471037.16431383,100.00,43,0,0,218,260,193,151,2e-12,80.5
Exophiala_cancerae_CBS120420_T,SRR7471037.16431383,80.00,100,14,6,1,99,35,129,4e-09,69.4
Exophiala_tremulae_CBS129355,SRR7471037.11699023,93.15,146,9,1,233,378,147,3,2e-52,213
Exophiala_tremulae_CBS129355,SRR7471037.11699023,100.00,38,0,0,1,38,212,249,1e-09,71.3
Exophiala_tremulae_CBS129355,SRR7471037.14832604,88.60,114,12,1,246,359,271,159,1e-29,137
Exophiala_tremulae_CBS129355,SRR7471037.1347052,90.00,100,7,2,239,337,248,151,2e-26,126
Exophiala_tremulae_CBS129355,SRR7471037.10726824,88.35,103,7,4,322,420,3,104,4e-24,119
Exophiala_tremulae_CBS129355,SRR7471037.16431383,100.00,43,0,0,230,272,193,151,2e-12,80.5
Exophiala_tremulae_CBS129355,SRR7471037.17258020,100.00,41,0,0,1,41,95,135,2e-11,76.8
Exophiala_equina_CBS116009,SRR7471037.11699023,93.15,146,9,1,199,344,147,3,1e-52,213
Exophiala_equina_CBS116009,SRR7471037.14832604,88.60,114,12,1,212,325,271,159,9e-30,137
Exophiala_equina_CBS116009,SRR7471037.1347052,90.00,100,7,2,205,303,248,151,2e-26,126
Exophiala_equina_CBS116009,SRR7471037.10726824,88.35,103,7,4,288,386,3,104,3e-24,119
Exophiala_equina_CBS116009,SRR7471037.16431383,100.00,43,0,0,196,238,193,151,2e-12,80.5
Exophiala_alcalophila_CBS520.82_T,SRR7471037.11699023,93.15,146,9,1,210,355,147,3,1e-52,213
Exophiala_alcalophila_CBS520.82_T,SRR7471037.14832604,88.60,114,12,1,223,336,271,159,9e-30,137
Exophiala_alcalophila_CBS520.82_T,SRR7471037.1347052,90.00,100,7,2,216,314,248,151,2e-26,126
Exophiala_alcalophila_CBS520.82_T,SRR7471037.10726824,87.38,103,9,4,299,398,3,104,4e-23,115
Exophiala_alcalophila_CBS520.82_T,SRR7471037.16431383,100.00,43,0,0,207,249,193,151,2e-12,80.5
Exophiala_crusticola_CBS119970_T,SRR7471037.11699023,93.15,146,9,1,215,360,147,3,1e-52,213
Exophiala_crusticola_CBS119970_T,SRR7471037.14832604,88.60,114,12,1,228,341,271,159,9e-30,137
Exophiala_crusticola_CBS119970_T,SRR7471037.1347052,90.00,100,7,2,221,319,248,151,2e-26,126
Exophiala_crusticola_CBS119970_T,SRR7471037.10726824,87.38,103,9,4,304,403,3,104,4e-23,115
Exophiala_crusticola_CBS119970_T,SRR7471037.16431383,100.00,43,0,0,212,254,193,151,2e-12,80.5
Rhinocladiella_atrovirens_CBS264.49,SRR7471037.11699023,92.47,146,10,1,241,386,147,3,8e-51,207
Rhinocladiella_atrovirens_CBS264.49,SRR7471037.11699023,100.00,43,0,0,1,43,207,249,2e-12,80.5
Rhinocladiella_atrovirens_CBS264.49,SRR7471037.14832604,88.89,108,11,1,254,361,271,165,5e-28,132
Rhinocladiella_atrovirens_CBS264.49,SRR7471037.1347052,90.00,100,7,2,247,345,248,151,2e-26,126
Rhinocladiella_atrovirens_CBS264.49,SRR7471037.10726824,87.50,88,10,1,330,417,3,89,1e-18,100
Rhinocladiella_atrovirens_CBS264.49,SRR7471037.17258020,100.00,44,0,0,1,44,90,133,5e-13,82.4
Rhinocladiella_atrovirens_CBS264.49,SRR7471037.16431383,100.00,43,0,0,238,280,193,151,2e-12,80.5
Rhinocladiella_basitona_CBS101460_T,SRR7471037.11699023,92.47,146,10,1,200,345,147,3,7e-51,207
Rhinocladiella_basitona_CBS101460_T,SRR7471037.14832604,87.72,114,13,1,213,326,271,159,4e-28,132
Rhinocladiella_basitona_CBS101460_T,SRR7471037.1347052,91.00,100,6,2,206,304,248,151,4e-28,132
Rhinocladiella_basitona_CBS101460_T,SRR7471037.10726824,86.41,103,9,4,289,387,3,104,7e-21,108
Rhinocladiella_basitona_CBS101460_T,SRR7471037.16431383,100.00,43,0,0,197,239,193,151,1e-12,80.5
Rhinocladiella_phaeophora_CBS496.78_T,SRR7471037.11699023,93.15,146,9,1,208,353,147,3,2e-52,213
Rhinocladiella_phaeophora_CBS496.78_T,SRR7471037.14832604,88.60,114,12,1,221,334,271,159,9e-30,137
Rhinocladiella_phaeophora_CBS496.78_T,SRR7471037.1347052,91.00,100,6,2,214,312,248,151,4e-28,132
Rhinocladiella_phaeophora_CBS496.78_T,SRR7471037.10726824,88.35,103,9,3,297,397,3,104,9e-25,121
Rhinocladiella_phaeophora_CBS496.78_T,SRR7471037.16431383,97.83,46,1,0,202,247,196,151,2e-12,80.5
Rhinocladiella_aquaspersa_CBS313.73_T,SRR7471037.11699023,93.15,146,9,1,202,347,147,3,2e-52,213
Rhinocladiella_aquaspersa_CBS313.73_T,SRR7471037.14832604,88.60,114,12,1,215,328,271,159,1e-29,137
Rhinocladiella_aquaspersa_CBS313.73_T,SRR7471037.1347052,91.00,100,6,2,208,306,248,151,5e-28,132
Rhinocladiella_aquaspersa_CBS313.73_T,SRR7471037.10726824,88.35,103,9,3,291,391,3,104,1e-24,121
Rhinocladiella_aquaspersa_CBS313.73_T,SRR7471037.16431383,97.83,46,1,0,196,241,196,151,2e-12,80.5
Rhinocladiella_fasciculata_CBS132.86_T,SRR7471037.11699023,93.10,145,9,1,218,362,147,4,5e-52,211
Rhinocladiella_fasciculata_CBS132.86_T,SRR7471037.14832604,88.60,114,12,1,231,344,271,159,9e-30,137
Rhinocladiella_fasciculata_CBS132.86_T,SRR7471037.1347052,91.00,100,6,2,224,322,248,151,4e-28,132
Rhinocladiella_fasciculata_CBS132.86_T,SRR7471037.10726824,87.38,103,11,2,307,408,3,104,1e-23,117
Rhinocladiella_fasciculata_CBS132.86_T,SRR7471037.16431383,100.00,42,0,0,216,257,192,151,6e-12,78.7
Rhinocladiella_anceps_CBS181.65_T,SRR7471037.11699023,92.47,146,10,1,200,345,147,3,7e-51,207
Rhinocladiella_anceps_CBS181.65_T,SRR7471037.14832604,88.89,108,11,1,213,320,271,165,4e-28,132
Rhinocladiella_anceps_CBS181.65_T,SRR7471037.1347052,91.00,100,6,2,206,304,248,151,4e-28,132
Rhinocladiella_anceps_CBS181.65_T,SRR7471037.10726824,86.41,103,10,3,289,388,3,104,2e-21,110
Rhinocladiella_anceps_CBS181.65_T,SRR7471037.16431383,100.00,43,0,0,197,239,193,151,2e-12,80.5
Rhinocladiella_mackenziei_CBS367.92,SRR7471037.11699023,93.15,146,9,1,189,334,147,3,2e-52,213
Rhinocladiella_mackenziei_CBS367.92,SRR7471037.14832604,88.60,114,12,1,202,315,271,159,1e-29,137
Rhinocladiella_mackenziei_CBS367.92,SRR7471037.1347052,90.00,100,7,2,195,293,248,151,2e-26,126
Rhinocladiella_mackenziei_CBS367.92,SRR7471037.10726824,89.53,86,8,1,278,363,3,87,8e-21,108
Rhinocladiella_mackenziei_CBS367.92,SRR7471037.16431383,100.00,43,0,0,186,228,193,151,2e-12,80.5
Rhinocladiella_mackenziei_CBS367.92,SRR7471037.17258020,100.00,28,0,0,1,28,108,135,4e-04,52.8
Veronaea_compacta_CBS268.75_T,SRR7471037.11699023,92.47,146,10,1,222,367,147,3,7e-51,207
Veronaea_compacta_CBS268.75_T,SRR7471037.14832604,88.89,108,11,1,235,342,271,165,4e-28,132
Veronaea_compacta_CBS268.75_T,SRR7471037.1347052,90.00,100,7,2,228,326,248,151,2e-26,126
Veronaea_compacta_CBS268.75_T,SRR7471037.10726824,85.44,103,11,3,311,410,3,104,1e-19,104
Veronaea_compacta_CBS268.75_T,SRR7471037.16431383,100.00,43,0,0,219,261,193,151,2e-12,80.5
Veronaea_compacta_CBS268.75_T,SRR7471037.17258020,100.00,29,0,0,1,29,107,135,1e-04,54.7
Capronia_pilosella_AFTOL-ID657,SRR7471037.11699023,93.15,146,9,1,300,445,147,3,2e-52,213
Capronia_pilosella_AFTOL-ID657,SRR7471037.14832604,88.60,114,12,1,313,426,271,159,1e-29,137
Capronia_pilosella_AFTOL-ID657,SRR7471037.10726824,89.32,103,7,4,389,488,3,104,2e-26,126
Capronia_pilosella_AFTOL-ID657,SRR7471037.1347052,90.00,100,7,2,306,404,248,151,2e-26,126
Capronia_pilosella_AFTOL-ID657,SRR7471037.16431383,100.00,43,0,0,297,339,193,151,2e-12,80.5
Capronia_dactylotricha_DAOM208471_T,SRR7471037.11699023,93.15,146,9,1,202,347,147,3,2e-52,213
Capronia_dactylotricha_DAOM208471_T,SRR7471037.14832604,88.60,114,12,1,215,328,271,159,1e-29,137
Capronia_dactylotricha_DAOM208471_T,SRR7471037.1347052,90.00,100,7,2,208,306,248,151,2e-26,126
Capronia_dactylotricha_DAOM208471_T,SRR7471037.10726824,88.76,89,8,1,291,379,3,89,8e-21,108
Capronia_dactylotricha_DAOM208471_T,SRR7471037.16431383,100.00,43,0,0,199,241,193,151,2e-12,80.5
Capronia_kleinmondensis_CBS122671_T,SRR7471037.11699023,92.47,146,10,1,227,372,147,3,8e-51,207
Capronia_kleinmondensis_CBS122671_T,SRR7471037.11699023,100.00,29,0,0,1,29,221,249,1e-04,54.7
Capronia_kleinmondensis_CBS122671_T,SRR7471037.14832604,88.89,108,11,1,240,347,271,165,5e-28,132
Capronia_kleinmondensis_CBS122671_T,SRR7471037.1347052,90.00,100,7,2,233,331,248,151,2e-26,126
Capronia_kleinmondensis_CBS122671_T,SRR7471037.10726824,87.50,88,10,1,316,403,3,89,1e-18,100
Capronia_kleinmondensis_CBS122671_T,SRR7471037.16431383,100.00,43,0,0,224,266,193,151,2e-12,80.5
Capronia_kleinmondensis_CBS122671_T,SRR7471037.17258020,100.00,30,0,0,1,30,104,133,3e-05,56.5
Capronia_mansonii_CBS101.67_T,SRR7471037.11699023,93.15,146,9,1,213,358,147,3,2e-52,213
Capronia_mansonii_CBS101.67_T,SRR7471037.14832604,88.60,114,12,1,226,339,271,159,1e-29,137
Capronia_mansonii_CBS101.67_T,SRR7471037.1347052,90.00,100,7,2,219,317,248,151,2e-26,126
Capronia_mansonii_CBS101.67_T,SRR7471037.10726824,87.38,103,9,4,302,401,3,104,5e-23,115
Capronia_mansonii_CBS101.67_T,SRR7471037.16431383,100.00,43,0,0,210,252,193,151,2e-12,80.5
Capronia_munkii_DAOM216390_T,SRR7471037.11699023,93.15,146,9,1,213,358,147,3,2e-52,213
Capronia_munkii_DAOM216390_T,SRR7471037.14832604,88.60,114,12,1,226,339,271,159,1e-29,137
Capronia_munkii_DAOM216390_T,SRR7471037.1347052,90.00,100,7,2,219,317,248,151,2e-26,126
Capronia_munkii_DAOM216390_T,SRR7471037.10726824,87.38,103,9,4,302,401,3,104,5e-23,115
Capronia_munkii_DAOM216390_T,SRR7471037.16431383,100.00,43,0,0,210,252,193,151,2e-12,80.5
Capronia_coronata_ATCC56201_T,SRR7471037.11699023,93.15,146,9,1,201,346,147,3,2e-52,213
Capronia_coronata_ATCC56201_T,SRR7471037.14832604,88.60,114,12,1,214,327,271,159,1e-29,137
Capronia_coronata_ATCC56201_T,SRR7471037.1347052,90.00,100,7,2,207,305,248,151,2e-26,126
Capronia_coronata_ATCC56201_T,SRR7471037.10726824,87.38,103,9,4,290,389,3,104,5e-23,115
Capronia_coronata_ATCC56201_T,SRR7471037.16431383,100.00,43,0,0,198,240,193,151,2e-12,80.5
Capronia_parasitica_CBS123.88,SRR7471037.11699023,93.15,146,9,1,207,352,147,3,2e-52,213
Capronia_parasitica_CBS123.88,SRR7471037.14832604,88.60,114,12,1,220,333,271,159,1e-29,137
Capronia_parasitica_CBS123.88,SRR7471037.1347052,90.00,100,7,2,213,311,248,151,2e-26,126
Capronia_parasitica_CBS123.88,SRR7471037.10726824,88.51,87,8,2,296,382,3,87,1e-19,104
Capronia_parasitica_CBS123.88,SRR7471037.16431383,95.92,49,1,1,199,246,199,151,6e-12,78.7
Veronaea_japonica_CBS776.83_T,SRR7471037.11699023,93.15,146,9,1,235,380,147,3,2e-52,213
Veronaea_japonica_CBS776.83_T,SRR7471037.11699023,100.00,37,0,0,1,37,213,249,4e-09,69.4
Veronaea_japonica_CBS776.83_T,SRR7471037.14832604,88.60,114,12,1,248,361,271,159,1e-29,137
Veronaea_japonica_CBS776.83_T,SRR7471037.1347052,90.00,100,7,2,241,339,248,151,2e-26,126
Veronaea_japonica_CBS776.83_T,SRR7471037.10726824,87.38,103,8,4,324,422,3,104,2e-22,113
Veronaea_japonica_CBS776.83_T,SRR7471037.16431383,100.00,43,0,0,232,274,193,151,2e-12,80.5
Veronaea_japonica_CBS776.83_T,SRR7471037.17258020,100.00,40,0,0,1,40,96,135,8e-11,75.0
Thysanorea_papuana_CBS212.96_T,SRR7471037.11699023,93.15,146,9,1,209,354,147,3,2e-52,213
Thysanorea_papuana_CBS212.96_T,SRR7471037.14832604,88.60,114,12,1,222,335,271,159,9e-30,137
Thysanorea_papuana_CBS212.96_T,SRR7471037.1347052,90.00,100,7,2,215,313,248,151,2e-26,126
Thysanorea_papuana_CBS212.96_T,SRR7471037.10726824,88.35,103,7,5,298,396,3,104,3e-24,119
Thysanorea_papuana_CBS212.96_T,SRR7471037.16431383,100.00,43,0,0,206,248,193,151,2e-12,80.5
Capronia_acutiseta_ATCC56428_T,SRR7471037.10726824,85.44,103,12,3,291,391,3,104,1e-19,104
Capronia_acutiseta_ATCC56428_T,SRR7471037.16431383,100.00,43,0,0,200,242,193,151,2e-12,80.5
Fonsecaea_brasiliensis_CBS119710_T,SRR7471037.11699023,93.15,146,9,1,209,354,147,3,1e-52,213
Fonsecaea_brasiliensis_CBS119710_T,SRR7471037.14832604,88.60,114,12,1,222,335,271,159,9e-30,137
Fonsecaea_brasiliensis_CBS119710_T,SRR7471037.1347052,90.00,100,7,2,215,313,248,151,2e-26,126
Fonsecaea_brasiliensis_CBS119710_T,SRR7471037.10726824,87.50,104,7,5,298,397,3,104,4e-23,115
Fonsecaea_brasiliensis_CBS119710_T,SRR7471037.16431383,100.00,42,0,0,207,248,192,151,6e-12,78.7
Fonsecaea_pedrosoi_CBS271.37_T,SRR7471037.11699023,93.15,146,9,1,237,382,147,3,2e-52,213
Fonsecaea_pedrosoi_CBS271.37_T,SRR7471037.11699023,100.00,29,0,0,1,29,221,249,1e-04,54.7
Fonsecaea_pedrosoi_CBS271.37_T,SRR7471037.14832604,88.60,114,12,1,250,363,271,159,1e-29,137
Fonsecaea_pedrosoi_CBS271.37_T,SRR7471037.1347052,90.00,100,7,2,243,341,248,151,2e-26,126
Fonsecaea_pedrosoi_CBS271.37_T,SRR7471037.10726824,88.46,104,7,4,326,426,3,104,1e-24,121
Fonsecaea_pedrosoi_CBS271.37_T,SRR7471037.16431383,100.00,42,0,0,235,276,192,151,6e-12,78.7
Fonsecaea_pedrosoi_CBS271.37_T,SRR7471037.17258020,100.00,31,0,0,1,31,104,134,8e-06,58.4
Fonsecaea_multimorphosa_CBS980.96_T,SRR7471037.11699023,93.15,146,9,1,207,352,147,3,1e-52,213
Fonsecaea_multimorphosa_CBS980.96_T,SRR7471037.14832604,88.60,114,12,1,220,333,271,159,9e-30,137
Fonsecaea_multimorphosa_CBS980.96_T,SRR7471037.1347052,90.00,100,7,2,213,311,248,151,2e-26,126
Fonsecaea_multimorphosa_CBS980.96_T,SRR7471037.10726824,86.54,104,8,5,296,395,3,104,2e-21,110
Fonsecaea_multimorphosa_CBS980.96_T,SRR7471037.16431383,100.00,42,0,0,205,246,192,151,6e-12,78.7
Fonsecaea_minima_CBS125760_T,SRR7471037.11699023,93.15,146,9,1,203,348,147,3,1e-52,213
Fonsecaea_minima_CBS125760_T,SRR7471037.14832604,88.60,114,12,1,216,329,271,159,9e-30,137
Fonsecaea_minima_CBS125760_T,SRR7471037.1347052,90.00,100,7,2,209,307,248,151,2e-26,126
Fonsecaea_minima_CBS125760_T,SRR7471037.10726824,87.50,104,7,5,292,391,3,104,4e-23,115
Fonsecaea_minima_CBS125760_T,SRR7471037.16431383,100.00,42,0,0,201,242,192,151,5e-12,78.7
Fonsecaea_nubica_CBS269.64_T,SRR7471037.11699023,93.15,146,9,1,214,359,147,3,1e-52,213
Fonsecaea_nubica_CBS269.64_T,SRR7471037.14832604,88.60,114,12,1,227,340,271,159,9e-30,137
Fonsecaea_nubica_CBS269.64_T,SRR7471037.1347052,90.00,100,7,2,220,318,248,151,2e-26,126
Fonsecaea_nubica_CBS269.64_T,SRR7471037.10726824,87.50,104,8,4,303,403,3,104,4e-23,115
Fonsecaea_nubica_CBS269.64_T,SRR7471037.16431383,100.00,42,0,0,212,253,192,151,6e-12,78.7
Fonsecaea_monophora_CBS269.37_T,SRR7471037.10726824,88.46,104,7,4,304,404,3,104,9e-25,121
Fonsecaea_monophora_CBS269.37_T,SRR7471037.16431383,100.00,42,0,0,212,253,192,151,6e-12,78.7
Fonsecaea_erecta_CBS125763_T,SRR7471037.11699023,93.15,146,9,1,198,343,147,3,1e-52,213
Fonsecaea_erecta_CBS125763_T,SRR7471037.14832604,88.60,114,12,1,211,324,271,159,9e-30,137
Fonsecaea_erecta_CBS125763_T,SRR7471037.1347052,90.00,100,7,2,204,302,248,151,2e-26,126
Fonsecaea_erecta_CBS125763_T,SRR7471037.10726824,87.38,103,9,3,287,386,3,104,4e-23,115
Fonsecaea_erecta_CBS125763_T,SRR7471037.16431383,100.00,42,0,0,196,237,192,151,5e-12,78.7
Fonsecaea_pugnacius_CBS139214_T,SRR7471037.11699023,93.15,146,9,1,207,352,147,3,1e-52,213
Fonsecaea_pugnacius_CBS139214_T,SRR7471037.14832604,88.60,114,12,1,220,333,271,159,9e-30,137
Fonsecaea_pugnacius_CBS139214_T,SRR7471037.1347052,90.00,100,7,2,213,311,248,151,2e-26,126
Fonsecaea_pugnacius_CBS139214_T,SRR7471037.10726824,88.46,104,8,3,296,397,3,104,2e-25,122
Fonsecaea_pugnacius_CBS139214_T,SRR7471037.16431383,100.00,42,0,0,205,246,192,151,5e-12,78.7
Cladophialophora_psammophila_CBS,SRR7471037.11699023,93.15,146,9,1,213,358,147,3,1e-52,213
Cladophialophora_psammophila_CBS,SRR7471037.14832604,88.60,114,12,1,226,339,271,159,9e-30,137
Cladophialophora_psammophila_CBS,SRR7471037.1347052,90.00,100,7,2,219,317,248,151,2e-26,126
Cladophialophora_psammophila_CBS,SRR7471037.10726824,87.38,103,9,3,302,401,3,104,4e-23,115
Cladophialophora_psammophila_CBS,SRR7471037.16431383,100.00,42,0,0,211,252,192,151,6e-12,78.7
Cladophialophora_devriesii_CBS,SRR7471037.11699023,93.15,146,9,1,209,354,147,3,1e-52,213
Cladophialophora_devriesii_CBS,SRR7471037.14832604,88.60,114,12,1,222,335,271,159,9e-30,137
Cladophialophora_devriesii_CBS,SRR7471037.1347052,90.00,100,7,2,215,313,248,151,2e-26,126
Cladophialophora_devriesii_CBS,SRR7471037.10726824,86.54,104,8,5,298,397,3,104,2e-21,110
Cladophialophora_devriesii_CBS,SRR7471037.16431383,100.00,42,0,0,207,248,192,151,5e-12,78.7
Cladophialophora_immunda_CBS834.96,SRR7471037.11699023,93.15,146,9,1,211,356,147,3,1e-52,213
Cladophialophora_immunda_CBS834.96,SRR7471037.14832604,88.60,114,12,1,224,337,271,159,9e-30,137
Cladophialophora_immunda_CBS834.96,SRR7471037.1347052,90.00,100,7,2,217,315,248,151,2e-26,126
Cladophialophora_immunda_CBS834.96,SRR7471037.10726824,87.50,104,7,5,300,399,3,104,4e-23,115
Cladophialophora_immunda_CBS834.96,SRR7471037.16431383,100.00,42,0,0,209,250,192,151,6e-12,78.7
Cladophialophora_arxii_CBS306.94_T,SRR7471037.11699023,93.15,146,9,1,213,358,147,3,1e-52,213
Cladophialophora_arxii_CBS306.94_T,SRR7471037.14832604,88.60,114,12,1,226,339,271,159,9e-30,137
Cladophialophora_arxii_CBS306.94_T,SRR7471037.1347052,90.00,100,7,2,219,317,248,151,2e-26,126
Cladophialophora_arxii_CBS306.94_T,SRR7471037.10726824,87.62,105,7,4,302,403,3,104,1e-23,117
Cladophialophora_arxii_CBS306.94_T,SRR7471037.16431383,100.00,42,0,0,211,252,192,151,5e-12,78.7
Cladophialophora_bantiana_CBS173.52,SRR7471037.11699023,93.15,146,9,1,207,352,147,3,1e-52,213
Cladophialophora_bantiana_CBS173.52,SRR7471037.14832604,88.60,114,12,1,220,333,271,159,9e-30,137
Cladophialophora_bantiana_CBS173.52,SRR7471037.1347052,90.00,100,7,2,213,311,248,151,2e-26,126
Cladophialophora_bantiana_CBS173.52,SRR7471037.10726824,87.38,103,9,3,296,395,3,104,4e-23,115
Cladophialophora_bantiana_CBS173.52,SRR7471037.16431383,100.00,42,0,0,205,246,192,151,6e-12,78.7
Cladophialophora_emmonsii_CBS102594,SRR7471037.11699023,93.15,146,9,1,198,343,147,3,1e-52,213
Cladophialophora_emmonsii_CBS102594,SRR7471037.14832604,88.60,114,12,1,211,324,271,159,9e-30,137
Cladophialophora_emmonsii_CBS102594,SRR7471037.10726824,89.32,103,8,2,287,387,3,104,2e-26,126
Cladophialophora_emmonsii_CBS102594,SRR7471037.1347052,90.00,100,7,2,204,302,248,151,2e-26,126
Cladophialophora_emmonsii_CBS102594,SRR7471037.16431383,100.00,42,0,0,196,237,192,151,5e-12,78.7
Cladophialophora_minourae_CBS556.83,SRR7471037.11699023,90.48,147,11,3,206,352,147,4,7e-46,191
Cladophialophora_minourae_CBS556.83,SRR7471037.14832604,86.96,115,13,2,219,333,271,159,5e-27,128
Cladophialophora_minourae_CBS556.83,SRR7471037.1347052,89.90,99,9,1,212,310,248,151,2e-26,126
Cladophialophora_minourae_CBS556.83,SRR7471037.10726824,83.81,105,10,6,295,395,3,104,6e-17,95.3
Cladophialophora_minourae_CBS556.83,SRR7471037.16431383,100.00,42,0,0,204,245,192,151,6e-12,78.7
Cladophialophora_australiensis_CBS112793,SRR7471037.12465960,98.44,128,2,0,1344,1471,151,24,5e-56,226
Cladophialophora_australiensis_CBS112793,SRR7471037.12465960,92.56,121,9,0,1288,1408,176,296,2e-40,174
Cladophialophora_australiensis_CBS112793,SRR7471037.11699023,93.10,145,9,1,208,352,147,4,1e-51,211
Cladophialophora_australiensis_CBS112793,SRR7471037.4152715,90.41,146,13,1,1323,1468,151,7,2e-45,191
Cladophialophora_australiensis_CBS112793,SRR7471037.18726025,87.77,139,14,3,1159,1295,138,1,5e-36,159
Cladophialophora_australiensis_CBS112793,SRR7471037.2154723,86.57,134,16,2,1277,1409,283,151,4e-32,147
Cladophialophora_australiensis_CBS112793,SRR7471037.14832604,88.60,114,12,1,221,334,271,159,2e-29,137
Cladophialophora_australiensis_CBS112793,SRR7471037.1347052,88.18,110,12,1,203,312,259,151,4e-27,130
Cladophialophora_australiensis_CBS112793,SRR7471037.9085248,83.72,129,16,5,738,863,127,1,3e-23,117
Cladophialophora_australiensis_CBS112793,SRR7471037.10726824,87.38,103,8,4,297,395,3,104,4e-22,113
Cladophialophora_australiensis_CBS112793,SRR7471037.16366579,84.40,109,15,2,1151,1258,161,268,7e-20,106
Cladophialophora_australiensis_CBS112793,SRR7471037.3264683,77.78,153,28,6,1179,1329,151,299,7e-15,89.8
Cladophialophora_australiensis_CBS112793,SRR7471037.16431383,96.00,50,0,2,199,247,199,151,4e-12,80.5
Cladophialophora_australiensis_CBS112793,SRR7471037.2082276,100.00,30,0,0,1442,1471,150,179,7e-05,56.5
Cladophialophora_australiensis_CBS112793,SRR7471037.4438840,100.00,29,0,0,1443,1471,1,29,3e-04,54.7
Cladophialophora_potulentorum_CBS112222,SRR7471037.12465960,97.97,148,3,0,1346,1493,151,4,2e-65,257
Cladophialophora_potulentorum_CBS112222,SRR7471037.12465960,92.56,121,9,0,1290,1410,176,296,2e-40,174
Cladophialophora_potulentorum_CBS112222,SRR7471037.11699023,92.41,145,10,1,207,351,147,4,7e-50,206
Cladophialophora_potulentorum_CBS112222,SRR7471037.4152715,90.41,146,13,1,1325,1470,151,7,2e-45,191
Cladophialophora_potulentorum_CBS112222,SRR7471037.18726025,87.05,139,15,3,1161,1297,138,1,2e-34,154
Cladophialophora_potulentorum_CBS112222,SRR7471037.18726025,96.74,92,3,0,906,997,151,242,2e-34,154
Cladophialophora_potulentorum_CBS112222,SRR7471037.2154723,86.57,134,16,2,1279,1411,283,151,4e-32,147
Cladophialophora_potulentorum_CBS112222,SRR7471037.14832604,88.89,108,11,1,220,327,271,165,1e-27,132
Cladophialophora_potulentorum_CBS112222,SRR7471037.1347052,90.00,100,7,2,213,311,248,151,5e-26,126
Cladophialophora_potulentorum_CBS112222,SRR7471037.9085248,84.38,128,17,3,740,865,127,1,7e-25,122
Cladophialophora_potulentorum_CBS112222,SRR7471037.10726824,86.41,103,9,4,296,394,3,104,2e-20,108
Cladophialophora_potulentorum_CBS112222,SRR7471037.16366579,84.40,109,15,2,1153,1260,161,268,7e-20,106
Cladophialophora_potulentorum_CBS112222,SRR7471037.3264683,77.12,153,29,6,1181,1331,151,299,3e-13,84.2
Cladophialophora_potulentorum_CBS112222,SRR7471037.2082276,100.00,45,0,0,1444,1488,150,194,3e-13,84.2
Cladophialophora_potulentorum_CBS112222,SRR7471037.2082276,100.00,28,0,0,1461,1488,150,123,0.001,52.8
Cladophialophora_potulentorum_CBS112222,SRR7471037.4438840,100.00,44,0,0,1445,1488,1,44,1e-12,82.4
Cladophialophora_potulentorum_CBS112222,SRR7471037.16431383,100.00,43,0,0,204,246,193,151,4e-12,80.5
Cladophialophora_matsushimae_CMRP1198,SRR7471037.11699023,92.47,146,10,1,211,356,147,3,6e-51,207
Cladophialophora_matsushimae_CMRP1198,SRR7471037.14832604,88.89,108,11,1,224,331,271,165,4e-28,132
Cladophialophora_matsushimae_CMRP1198,SRR7471037.1347052,90.00,100,7,2,217,315,248,151,2e-26,126
Cladophialophora_matsushimae_CMRP1198,SRR7471037.10726824,85.44,103,10,4,300,398,3,104,3e-19,102
Cladophialophora_matsushimae_CMRP1198,SRR7471037.16431383,100.00,43,0,0,208,250,193,151,1e-12,80.5
Cladophialophora_mycetomatis_CBS122637,SRR7471037.11699023,92.47,146,10,1,196,341,147,3,7e-51,207
Cladophialophora_mycetomatis_CBS122637,SRR7471037.14832604,88.89,108,11,1,209,316,271,165,4e-28,132
Cladophialophora_mycetomatis_CBS122637,SRR7471037.1347052,90.00,100,7,2,202,300,248,151,2e-26,126
Cladophialophora_mycetomatis_CBS122637,SRR7471037.10726824,86.41,103,9,4,285,383,3,104,7e-21,108
Cladophialophora_mycetomatis_CBS122637,SRR7471037.16431383,100.00,43,0,0,193,235,193,151,2e-12,80.5
Cladophialophora_chaetospira_CBS127573,SRR7471037.11699023,92.31,143,10,1,605,747,144,3,5e-49,202
Cladophialophora_chaetospira_CBS127573,SRR7471037.11699023,100.00,30,0,0,379,408,220,249,4e-05,56.5
Cladophialophora_chaetospira_CBS127573,SRR7471037.14832604,88.60,114,12,1,615,728,271,159,2e-29,137
Cladophialophora_chaetospira_CBS127573,SRR7471037.1347052,90.00,100,7,2,608,706,248,151,3e-26,126
Cladophialophora_chaetospira_CBS127573,SRR7471037.10726824,88.35,103,7,4,691,789,3,104,6e-24,119
Cladophialophora_chaetospira_CBS127573,SRR7471037.17258020,100.00,33,0,0,379,411,103,135,1e-06,62.1
Cladophialophora_boppii_CBS126.86_T,SRR7471037.11699023,93.15,146,9,1,204,349,147,3,1e-52,213
Cladophialophora_boppii_CBS126.86_T,SRR7471037.14832604,88.60,114,12,1,217,330,271,159,9e-30,137
Cladophialophora_boppii_CBS126.86_T,SRR7471037.1347052,90.00,100,7,2,210,308,248,151,2e-26,126
Cladophialophora_boppii_CBS126.86_T,SRR7471037.10726824,86.41,103,9,4,293,391,3,104,7e-21,108
Cladophialophora_boppii_CBS126.86_T,SRR7471037.16431383,100.00,43,0,0,201,243,193,151,2e-12,80.5
Cladophialophora_abundans_CBS126736,SRR7471037.11699023,89.73,146,14,1,141,286,147,3,3e-44,185
Cladophialophora_abundans_CBS126736,SRR7471037.1347052,89.90,99,9,1,147,245,248,151,2e-26,126
Cladophialophora_abundans_CBS126736,SRR7471037.14832604,88.46,104,11,1,154,257,271,169,6e-26,124
Cladophialophora_abundans_CBS126736,SRR7471037.10726824,87.38,103,8,4,230,328,3,104,1e-22,113
Cladophialophora_abundans_CBS126736,SRR7471037.16431383,100.00,43,0,0,138,180,193,151,1e-12,80.5
Capronia_semi-immersa_CBS102234,SRR7471037.11699023,91.72,145,11,1,203,347,147,4,1e-48,200
Capronia_semi-immersa_CBS102234,SRR7471037.14832604,87.72,114,13,1,216,329,271,159,4e-28,132
Capronia_semi-immersa_CBS102234,SRR7471037.1347052,89.90,99,9,1,209,307,248,151,2e-26,126
Capronia_semi-immersa_CBS102234,SRR7471037.10726824,86.41,103,9,4,292,390,3,104,7e-21,108
Capronia_semi-immersa_CBS102234,SRR7471037.16431383,100.00,42,0,0,201,242,192,151,5e-12,78.7
Phialophora_americana_CBS400.67,SRR7471037.11699023,91.72,145,11,1,205,349,147,4,3e-48,200
Phialophora_americana_CBS400.67,SRR7471037.12465960,98.15,108,2,0,1338,1445,151,44,7e-45,189
Phialophora_americana_CBS400.67,SRR7471037.12465960,92.56,121,9,0,1282,1402,176,296,2e-40,174
Phialophora_americana_CBS400.67,SRR7471037.9175056,91.85,135,11,0,1309,1443,285,151,7e-45,189
Phialophora_americana_CBS400.67,SRR7471037.18726025,89.21,139,12,3,1153,1289,138,1,2e-39,171
Phialophora_americana_CBS400.67,SRR7471037.18726025,95.56,90,4,0,898,987,151,240,1e-31,145
Phialophora_americana_CBS400.67,SRR7471037.2154723,87.31,134,15,2,1271,1403,283,151,9e-34,152
Phialophora_americana_CBS400.67,SRR7471037.14832604,87.72,114,13,1,218,331,271,159,1e-27,132
Phialophora_americana_CBS400.67,SRR7471037.1347052,89.90,99,9,1,211,309,248,151,5e-26,126
Phialophora_americana_CBS400.67,SRR7471037.16366579,86.24,109,13,2,1145,1252,161,268,3e-23,117
Phialophora_americana_CBS400.67,SRR7471037.5416366,85.59,111,16,0,866,976,151,261,3e-23,117
Phialophora_americana_CBS400.67,SRR7471037.10726824,86.41,103,9,4,294,392,3,104,2e-20,108
Phialophora_americana_CBS400.67,SRR7471037.9085248,82.17,129,18,5,732,857,127,1,7e-20,106
Phialophora_americana_CBS400.67,SRR7471037.3264683,78.43,153,27,6,1173,1323,151,299,1e-16,95.3
Phialophora_americana_CBS400.67,SRR7471037.16431383,100.00,42,0,0,203,244,192,151,1e-11,78.7
Phialophora_verrucosa_CBS140325_T,SRR7471037.11699023,91.72,145,11,1,209,353,147,4,1e-48,200
Phialophora_verrucosa_CBS140325_T,SRR7471037.14832604,87.72,114,13,1,222,335,271,159,4e-28,132
Phialophora_verrucosa_CBS140325_T,SRR7471037.1347052,89.90,99,9,1,215,313,248,151,2e-26,126
Phialophora_verrucosa_CBS140325_T,SRR7471037.10726824,86.41,103,9,4,298,396,3,104,7e-21,108
Phialophora_verrucosa_CBS140325_T,SRR7471037.16431383,100.00,42,0,0,207,248,192,151,6e-12,78.7
Cladophialophora_samoensis_CBS259.83_T,SRR7471037.11699023,91.10,146,12,1,209,354,147,3,1e-47,196
Cladophialophora_samoensis_CBS259.83_T,SRR7471037.14832604,87.72,114,13,1,222,335,271,159,4e-28,132
Cladophialophora_samoensis_CBS259.83_T,SRR7471037.1347052,90.00,100,7,2,215,313,248,151,2e-26,126
Cladophialophora_samoensis_CBS259.83_T,SRR7471037.10726824,88.46,104,5,6,298,396,3,104,3e-24,119
Cladophialophora_samoensis_CBS259.83_T,SRR7471037.16431383,100.00,42,0,0,207,248,192,151,6e-12,78.7
Cladophialophora_carrionii_CBS260.83,SRR7471037.11699023,92.47,146,10,1,225,370,147,3,7e-51,207
Cladophialophora_carrionii_CBS260.83,SRR7471037.14832604,88.60,114,12,1,238,351,271,159,1e-29,137
Cladophialophora_carrionii_CBS260.83,SRR7471037.1347052,90.00,100,7,2,231,329,248,151,2e-26,126
Cladophialophora_carrionii_CBS260.83,SRR7471037.10726824,87.38,103,8,4,314,412,3,104,2e-22,113
Cladophialophora_carrionii_CBS260.83,SRR7471037.16431383,100.00,42,0,0,223,264,192,151,6e-12,78.7
Exophiala_palmae_UPCB86822_T,SRR7471037.11699023,93.15,146,9,1,168,313,147,3,1e-52,213
Exophiala_palmae_UPCB86822_T,SRR7471037.14832604,88.60,114,12,1,181,294,271,159,8e-30,137
Exophiala_palmae_UPCB86822_T,SRR7471037.1347052,90.00,100,7,2,174,272,248,151,2e-26,126
Exophiala_palmae_UPCB86822_T,SRR7471037.10726824,86.41,103,10,3,257,356,3,104,2e-21,110
Exophiala_palmae_UPCB86822_T,SRR7471037.16431383,100.00,43,0,0,165,207,193,151,1e-12,80.5
Cladophialophora_yegresii_CBS114405_T,SRR7471037.11699023,92.47,146,10,1,210,355,147,3,7e-51,207
Cladophialophora_yegresii_CBS114405_T,SRR7471037.14832604,88.60,114,12,1,223,336,271,159,9e-30,137
Cladophialophora_yegresii_CBS114405_T,SRR7471037.1347052,90.00,100,7,2,216,314,248,151,2e-26,126
Cladophialophora_yegresii_CBS114405_T,SRR7471037.10726824,87.38,103,8,4,299,397,3,104,2e-22,113
Cladophialophora_yegresii_CBS114405_T,SRR7471037.16431383,100.00,42,0,0,208,249,192,151,6e-12,78.7
Knufia_epidermidis_CBS120353_T,SRR7471037.11699023,89.73,146,14,1,208,353,147,3,3e-44,185
Knufia_epidermidis_CBS120353_T,SRR7471037.1347052,90.91,99,8,1,214,312,248,151,4e-28,132
Knufia_epidermidis_CBS120353_T,SRR7471037.14832604,88.46,104,11,1,221,324,271,169,7e-26,124
Knufia_epidermidis_CBS120353_T,SRR7471037.10726824,85.44,103,10,5,297,395,3,104,3e-19,102
Knufia_epidermidis_CBS120353_T,SRR7471037.16431383,100.00,43,0,0,205,247,193,151,1e-12,80.5
Arthrocladium_fulminans_CBS136243_T,SRR7471037.11699023,90.41,146,13,1,203,348,147,3,7e-46,191
Arthrocladium_fulminans_CBS136243_T,SRR7471037.1347052,90.91,99,8,1,209,307,248,151,4e-28,132
Arthrocladium_fulminans_CBS136243_T,SRR7471037.14832604,87.39,111,12,2,216,326,271,163,2e-26,126
Arthrocladium_fulminans_CBS136243_T,SRR7471037.10726824,86.41,103,11,3,292,392,3,104,2e-21,110
Arthrocladium_fulminans_CBS136243_T,SRR7471037.16431383,100.00,43,0,0,200,242,193,151,2e-12,80.5
Anthopsis_deltoidea_CBS263.77_T,SRR7471037.11699023,93.10,145,9,1,212,355,147,3,5e-52,211
Anthopsis_deltoidea_CBS263.77_T,SRR7471037.14832604,87.61,113,13,1,225,336,271,159,1e-27,130
Anthopsis_deltoidea_CBS263.77_T,SRR7471037.1347052,90.91,99,6,2,218,314,248,151,1e-27,130
Anthopsis_deltoidea_CBS263.77_T,SRR7471037.16431383,100.00,42,0,0,210,251,192,151,5e-12,78.7
Cyphellophora_laciniata_CBS190.61_T,SRR7471037.11699023,90.34,145,13,1,297,440,147,3,3e-45,189
Cyphellophora_laciniata_CBS190.61_T,SRR7471037.11699023,100.00,71,0,0,29,99,179,249,6e-28,132
Cyphellophora_laciniata_CBS190.61_T,SRR7471037.1347052,90.91,99,6,2,303,399,248,151,2e-27,130
Cyphellophora_laciniata_CBS190.61_T,SRR7471037.14832604,86.73,113,14,1,310,421,271,159,9e-26,124
Cyphellophora_laciniata_CBS190.61_T,SRR7471037.17258020,97.22,72,2,0,29,100,62,133,3e-25,122
Cyphellophora_laciniata_CBS190.61_T,SRR7471037.16431383,82.76,145,15,8,38,179,1,138,1e-24,121
Cyphellophora_laciniata_CBS190.61_T,SRR7471037.16431383,100.00,43,0,0,294,336,193,151,2e-12,80.5
Cyphellophora_laciniata_CBS190.61_T,SRR7471037.10726824,90.70,86,4,4,384,467,3,86,7e-22,111
Cyphellophora_suttonii_CBS449.91,SRR7471037.11699023,90.34,145,13,1,200,343,147,3,2e-45,189
Cyphellophora_suttonii_CBS449.91,SRR7471037.1347052,90.91,99,6,2,206,302,248,151,1e-27,130
Cyphellophora_suttonii_CBS449.91,SRR7471037.14832604,86.73,113,14,1,213,324,271,159,7e-26,124
Cyphellophora_suttonii_CBS449.91,SRR7471037.10726824,90.70,86,4,4,287,370,3,86,5e-22,111
Cyphellophora_suttonii_CBS449.91,SRR7471037.16431383,100.00,43,0,0,197,239,193,151,2e-12,80.5
Cyphellophora_pauciseptata_CBS284.85_T,SRR7471037.11699023,90.34,145,13,1,211,354,147,3,2e-45,189
Cyphellophora_pauciseptata_CBS284.85_T,SRR7471037.1347052,90.91,99,6,2,217,313,248,151,1e-27,130
Cyphellophora_pauciseptata_CBS284.85_T,SRR7471037.14832604,86.73,113,14,1,224,335,271,159,7e-26,124
Cyphellophora_pauciseptata_CBS284.85_T,SRR7471037.10726824,90.70,86,4,4,298,381,3,86,5e-22,111
Cyphellophora_pauciseptata_CBS284.85_T,SRR7471037.16431383,100.00,42,0,0,209,250,192,151,5e-12,78.7
Cyphellophora_pluriseptata_CBS286.85_T,SRR7471037.11699023,90.34,145,13,1,216,359,147,3,2e-45,189
Cyphellophora_pluriseptata_CBS286.85_T,SRR7471037.14832604,85.84,113,15,1,229,340,271,159,3e-24,119
Cyphellophora_pluriseptata_CBS286.85_T,SRR7471037.10726824,90.70,86,4,4,303,386,3,86,5e-22,111
Cyphellophora_pluriseptata_CBS286.85_T,SRR7471037.16431383,97.67,43,1,0,213,255,193,151,7e-11,75.0
Phialophora_europaea_CBS101466,SRR7471037.11699023,90.60,149,13,1,202,349,151,3,1e-47,196
Phialophora_europaea_CBS101466,SRR7471037.1347052,90.91,99,6,2,212,308,248,151,1e-27,130
Phialophora_europaea_CBS101466,SRR7471037.14832604,86.73,113,14,1,219,330,271,159,7e-26,124
Phialophora_europaea_CBS101466,SRR7471037.10726824,90.70,86,4,4,293,376,3,86,5e-22,111
Phialophora_europaea_CBS101466,SRR7471037.16431383,100.00,42,0,0,204,245,192,151,5e-12,78.7
Phialophora_ambigua_CBS235.93,SRR7471037.11699023,91.03,145,12,1,203,346,147,3,5e-47,195
Phialophora_ambigua_CBS235.93,SRR7471037.1347052,90.91,99,6,2,209,305,248,151,1e-27,130
Phialophora_ambigua_CBS235.93,SRR7471037.14832604,86.73,113,14,1,216,327,271,159,7e-26,124
Phialophora_ambigua_CBS235.93,SRR7471037.10726824,90.70,86,4,4,290,373,3,86,5e-22,111
Phialophora_ambigua_CBS235.93,SRR7471037.16431383,100.00,43,0,0,200,242,193,151,2e-12,80.5
Cladophialophora_modesta_CBS985.96_T,SRR7471037.11699023,92.47,146,10,1,200,345,147,3,8e-51,207
Cladophialophora_modesta_CBS985.96_T,SRR7471037.14832604,87.72,114,13,1,213,326,271,159,5e-28,132
Cladophialophora_modesta_CBS985.96_T,SRR7471037.1347052,90.91,99,8,1,206,304,248,151,5e-28,132
Cladophialophora_modesta_CBS985.96_T,SRR7471037.10726824,87.38,103,7,5,289,386,3,104,2e-22,113
Cladophialophora_modesta_CBS985.96_T,SRR7471037.10726824,97.78,45,1,0,521,565,195,151,6e-12,78.7
Cladophialophora_modesta_CBS985.96_T,SRR7471037.16431383,100.00,43,0,0,197,239,193,151,2e-12,80.5
Cyphellophora_fusarioides_MUCL44033_T,SRR7471037.11699023,91.03,145,12,1,199,342,147,3,5e-47,195
Cyphellophora_fusarioides_MUCL44033_T,SRR7471037.1347052,90.91,99,6,2,205,301,248,151,1e-27,130
Cyphellophora_fusarioides_MUCL44033_T,SRR7471037.14832604,86.73,113,14,1,212,323,271,159,7e-26,124
Cyphellophora_fusarioides_MUCL44033_T,SRR7471037.16431383,100.00,43,0,0,196,238,193,151,1e-12,80.5
