Exophiala_polymorpha_CBS138920_T,SRR9040251.19248511,97.50,40,1,0,655,694,149,110,2e-08,69.4
Exophiala_polymorpha_CBS138920_T,SRR9040251.19248511,97.50,40,1,0,655,694,227,266,2e-08,69.4
Exophiala_jeanselmei_CBS507.90_T,SRR9040251.19248511,97.92,48,1,0,557,604,149,102,5e-13,84.2
Exophiala_jeanselmei_CBS507.90_T,SRR9040251.19248511,97.92,48,1,0,557,604,227,274,5e-13,84.2
Exophiala_pisciphila_CBS537.73_T,SRR9040251.19248511,93.18,88,6,0,566,653,149,62,7e-27,130
Exophiala_pisciphila_CBS537.73_T,SRR9040251.19248511,92.11,76,6,0,566,641,227,302,3e-20,108
Exophiala_brunnea_CBS,SRR9040251.28672611,100.00,39,0,0,1,39,101,139,1e-09,73.1
Exophiala_brunnea_CBS,SRR9040251.57305556,100.00,35,0,0,1,35,117,151,2e-07,65.8
Exophiala_mesophila_CBS402.95_T,SRR9040251.19248511,94.32,88,5,0,563,650,149,62,2e-28,135
Exophiala_mesophila_CBS402.95_T,SRR9040251.19248511,93.42,76,5,0,563,638,227,302,7e-22,113
Exophiala_castellanii_CBS158.58_T,SRR9040251.19248511,94.32,88,5,0,562,649,149,62,2e-28,135
Exophiala_castellanii_CBS158.58_T,SRR9040251.19248511,93.42,76,5,0,562,637,227,302,7e-22,113
Exophiala_dermatitidis_CBS748.88,SRR9040251.58088218,95.97,149,6,0,1321,1469,3,151,2e-60,243
Exophiala_dermatitidis_CBS748.88,SRR9040251.58088218,94.87,117,6,0,1388,1504,302,186,1e-42,183
Exophiala_dermatitidis_CBS748.88,SRR9040251.20800426,95.97,149,6,0,1321,1469,3,151,2e-60,243
Exophiala_dermatitidis_CBS748.88,SRR9040251.20800426,96.58,117,4,0,1388,1504,302,186,6e-46,195
Exophiala_dermatitidis_CBS748.88,SRR9040251.36459362,93.42,152,10,0,834,985,152,1,2e-55,226
Exophiala_dermatitidis_CBS748.88,SRR9040251.36459362,93.33,150,10,0,832,981,153,302,3e-54,222
Exophiala_dermatitidis_CBS748.88,SRR9040251.19248511,89.26,149,14,2,588,734,149,1,4e-43,185
Exophiala_dermatitidis_CBS748.88,SRR9040251.19248511,93.42,76,5,0,588,663,227,302,2e-21,113
Exophiala_dermatitidis_CBS748.88,SRR9040251.4556788,96.67,90,3,0,1413,1502,151,62,1e-32,150
Exophiala_dermatitidis_CBS748.88,SRR9040251.4556788,85.29,136,17,3,1162,1296,169,302,1e-28,137
Exophiala_dermatitidis_CBS748.88,SRR9040251.63516576,84.42,154,20,4,1251,1403,151,1,5e-32,148
Exophiala_dermatitidis_CBS748.88,SRR9040251.2847403,86.92,107,13,1,1186,1292,46,151,4e-23,119
Exophiala_dermatitidis_CBS748.88,SRR9040251.53523555,89.13,92,4,3,656,747,3,88,2e-20,110
Exophiala_opportunistica_CBS109811_T,SRR9040251.57305556,93.88,49,2,1,190,237,200,152,1e-09,73.1
Exophiala_salmonis_CBS157.67_T,SRR9040251.19248511,93.18,88,6,0,686,773,149,62,8e-27,130
Exophiala_salmonis_CBS157.67_T,SRR9040251.19248511,92.11,76,6,0,686,761,227,302,4e-20,108
Exophiala_salmonis_CBS157.67_T,SRR9040251.57305556,83.33,126,13,8,1,122,2,123,1e-20,110
Exophiala_salmonis_CBS157.67_T,SRR9040251.28672611,100.00,45,0,0,78,122,63,107,7e-13,84.2
Exophiala_salmonis_CBS157.67_T,SRR9040251.29162435,100.00,43,0,0,80,122,1,43,9e-12,80.5
Exophiala_cancerae_CBS120420_T,SRR9040251.19248511,95.83,48,2,0,577,624,149,102,2e-11,78.7
Exophiala_cancerae_CBS120420_T,SRR9040251.19248511,95.83,48,2,0,577,624,227,274,2e-11,78.7
Exophiala_cancerae_CBS120420_T,SRR9040251.57305556,93.88,49,2,1,212,259,200,152,1e-09,73.1
Exophiala_tremulae_CBS129355,SRR9040251.28672611,100.00,39,0,0,1,39,101,139,1e-09,73.1
Exophiala_tremulae_CBS129355,SRR9040251.57305556,100.00,35,0,0,1,35,117,151,2e-07,65.8
Exophiala_alcalophila_CBS520.82_T,SRR9040251.57305556,95.56,45,2,0,204,248,196,152,1e-09,73.1
Rhinocladiella_atrovirens_CBS264.49,SRR9040251.28672611,100.00,44,0,0,1,44,96,139,2e-12,82.4
Rhinocladiella_atrovirens_CBS264.49,SRR9040251.57305556,95.56,45,2,0,235,279,196,152,1e-09,73.1
Rhinocladiella_atrovirens_CBS264.49,SRR9040251.57305556,97.50,40,1,0,1,40,112,151,1e-08,69.4
Rhinocladiella_aquaspersa_CBS313.73_T,SRR9040251.19248511,91.30,92,7,1,559,649,149,58,3e-25,124
Rhinocladiella_aquaspersa_CBS313.73_T,SRR9040251.19248511,89.16,83,7,2,553,633,220,302,2e-18,102
Rhinocladiella_mackenziei_CBS367.92,SRR9040251.57305556,95.56,45,2,0,183,227,196,152,1e-09,73.1
Capronia_dactylotricha_DAOM208471_T,SRR9040251.19248511,93.18,88,6,0,571,658,149,62,7e-27,130
Capronia_dactylotricha_DAOM208471_T,SRR9040251.19248511,92.11,76,6,0,571,646,227,302,3e-20,108
Capronia_dactylotricha_DAOM208471_T,SRR9040251.57305556,95.56,45,2,0,196,240,196,152,1e-09,73.1
Capronia_kleinmondensis_CBS122671_T,SRR9040251.19248511,93.18,88,6,0,577,664,149,62,7e-27,130
Capronia_kleinmondensis_CBS122671_T,SRR9040251.19248511,92.11,76,6,0,577,652,227,302,3e-20,108
Capronia_kleinmondensis_CBS122671_T,SRR9040251.57305556,91.07,56,2,3,211,265,205,152,1e-09,73.1
Capronia_kleinmondensis_CBS122671_T,SRR9040251.28672611,100.00,30,0,0,1,30,110,139,1e-04,56.5
Capronia_mansonii_CBS101.67_T,SRR9040251.19248511,94.32,88,5,0,581,668,149,62,2e-28,135
Capronia_mansonii_CBS101.67_T,SRR9040251.19248511,93.42,76,5,0,581,656,227,302,7e-22,113
Capronia_munkii_DAOM216390_T,SRR9040251.19248511,94.32,88,5,0,581,668,149,62,2e-28,135
Capronia_munkii_DAOM216390_T,SRR9040251.19248511,93.42,76,5,0,581,656,227,302,7e-22,113
Capronia_munkii_DAOM216390_T,SRR9040251.26921721,100.00,28,0,0,129,156,89,116,0.002,52.8
Capronia_munkii_DAOM216390_T,SRR9040251.26921721,100.00,28,0,0,129,156,237,210,0.002,52.8
Capronia_coronata_ATCC56201_T,SRR9040251.19248511,94.32,88,5,0,552,639,149,62,1e-28,135
Capronia_coronata_ATCC56201_T,SRR9040251.19248511,93.42,76,5,0,552,627,227,302,7e-22,113
Veronaea_japonica_CBS776.83_T,SRR9040251.28672611,100.00,38,0,0,1,38,102,139,4e-09,71.3
Veronaea_japonica_CBS776.83_T,SRR9040251.57305556,100.00,34,0,0,1,34,118,151,7e-07,63.9
Capronia_acutiseta_ATCC56428_T,SRR9040251.19248511,93.18,88,6,0,551,638,149,62,7e-27,130
Capronia_acutiseta_ATCC56428_T,SRR9040251.19248511,92.11,76,6,0,551,626,227,302,3e-20,108
Capronia_acutiseta_ATCC56428_T,SRR9040251.57305556,93.88,49,2,1,194,241,200,152,1e-09,73.1
Fonsecaea_pedrosoi_CBS271.37_T,SRR9040251.19248511,95.83,48,2,0,598,645,149,102,3e-11,78.7
Fonsecaea_pedrosoi_CBS271.37_T,SRR9040251.19248511,95.83,48,2,0,598,645,227,274,3e-11,78.7
Fonsecaea_pedrosoi_CBS271.37_T,SRR9040251.28672611,97.06,34,1,0,1,34,110,143,3e-05,58.4
Cladophialophora_australiensis_CBS112793,SRR9040251.58088218,93.29,149,10,0,1288,1436,3,151,9e-54,220
Cladophialophora_australiensis_CBS112793,SRR9040251.58088218,94.87,117,6,0,1355,1471,302,186,1e-42,183
Cladophialophora_australiensis_CBS112793,SRR9040251.36459362,92.76,152,11,0,804,955,152,1,9e-54,220
Cladophialophora_australiensis_CBS112793,SRR9040251.36459362,92.67,150,11,0,802,951,153,302,1e-52,217
Cladophialophora_australiensis_CBS112793,SRR9040251.20800426,93.29,149,10,0,1288,1436,3,151,9e-54,220
Cladophialophora_australiensis_CBS112793,SRR9040251.20800426,96.58,117,4,0,1355,1471,302,186,6e-46,195
Cladophialophora_australiensis_CBS112793,SRR9040251.19248511,88.59,149,14,2,559,704,149,1,6e-41,178
Cladophialophora_australiensis_CBS112793,SRR9040251.19248511,92.11,76,6,0,559,634,227,302,8e-20,108
Cladophialophora_australiensis_CBS112793,SRR9040251.4556788,96.67,90,3,0,1380,1469,151,62,1e-32,150
Cladophialophora_australiensis_CBS112793,SRR9040251.4556788,83.94,137,17,4,1129,1263,169,302,2e-25,126
Cladophialophora_australiensis_CBS112793,SRR9040251.63516576,84.42,154,20,4,1218,1370,151,1,5e-32,148
Cladophialophora_australiensis_CBS112793,SRR9040251.2847403,86.92,107,13,1,1153,1259,46,151,4e-23,119
Cladophialophora_potulentorum_CBS112222,SRR9040251.58088218,93.29,149,10,0,1290,1438,3,151,1e-53,220
Cladophialophora_potulentorum_CBS112222,SRR9040251.58088218,93.43,137,9,0,1357,1493,302,166,1e-48,204
Cladophialophora_potulentorum_CBS112222,SRR9040251.36459362,92.76,152,11,0,806,957,152,1,1e-53,220
Cladophialophora_potulentorum_CBS112222,SRR9040251.36459362,92.67,150,11,0,804,953,153,302,1e-52,217
Cladophialophora_potulentorum_CBS112222,SRR9040251.20800426,93.29,149,10,0,1290,1438,3,151,1e-53,220
Cladophialophora_potulentorum_CBS112222,SRR9040251.20800426,94.89,137,7,0,1357,1493,302,166,4e-52,215
Cladophialophora_potulentorum_CBS112222,SRR9040251.19248511,88.59,149,14,2,561,706,149,1,6e-41,178
Cladophialophora_potulentorum_CBS112222,SRR9040251.19248511,92.11,76,6,0,561,636,227,302,8e-20,108
Cladophialophora_potulentorum_CBS112222,SRR9040251.4556788,93.75,112,7,0,1382,1493,151,40,4e-38,169
Cladophialophora_potulentorum_CBS112222,SRR9040251.4556788,84.56,136,18,3,1131,1265,169,302,5e-27,132
Cladophialophora_potulentorum_CBS112222,SRR9040251.63516576,83.77,154,21,4,1220,1372,151,1,2e-30,143
Cladophialophora_potulentorum_CBS112222,SRR9040251.38120897,87.83,115,14,0,1374,1488,1,115,4e-28,135
Cladophialophora_potulentorum_CBS112222,SRR9040251.38120897,100.00,41,0,0,1448,1488,302,262,2e-10,76.8
Cladophialophora_potulentorum_CBS112222,SRR9040251.26395307,87.83,115,14,0,1374,1488,1,115,4e-28,135
Cladophialophora_potulentorum_CBS112222,SRR9040251.26394866,87.83,115,14,0,1374,1488,1,115,4e-28,135
Cladophialophora_potulentorum_CBS112222,SRR9040251.2847403,85.05,107,15,1,1155,1261,46,151,8e-20,108
Cladophialophora_chaetospira_CBS127573,SRR9040251.28672611,100.00,31,0,0,379,409,109,139,5e-05,58.4
Phialophora_americana_CBS400.67,SRR9040251.58088218,93.96,149,9,0,1282,1430,3,151,2e-55,226
Phialophora_americana_CBS400.67,SRR9040251.58088218,93.81,97,6,0,1349,1445,302,206,2e-31,147
Phialophora_americana_CBS400.67,SRR9040251.20800426,93.96,149,9,0,1282,1430,3,151,2e-55,226
Phialophora_americana_CBS400.67,SRR9040251.20800426,95.88,97,4,0,1349,1445,302,206,7e-35,158
Phialophora_americana_CBS400.67,SRR9040251.36459362,92.11,152,12,0,798,949,152,1,4e-52,215
Phialophora_americana_CBS400.67,SRR9040251.36459362,92.00,150,12,0,796,945,153,302,6e-51,211
Phialophora_americana_CBS400.67,SRR9040251.63516576,83.77,154,21,4,1212,1364,151,1,2e-30,143
Phialophora_americana_CBS400.67,SRR9040251.4556788,85.29,136,17,3,1123,1257,169,302,1e-28,137
Phialophora_americana_CBS400.67,SRR9040251.4556788,95.83,72,3,0,1374,1445,151,80,1e-22,117
Phialophora_americana_CBS400.67,SRR9040251.2847403,86.92,107,13,1,1147,1253,46,151,3e-23,119
Phialophora_americana_CBS400.67,SRR9040251.53523555,91.11,90,3,3,621,710,3,87,1e-22,117
Arthrocladium_fulminans_CBS136243_T,SRR9040251.57305556,92.16,51,2,2,191,241,200,152,4e-09,71.3
Cyphellophora_laciniata_CBS190.61_T,SRR9040251.28672611,100.00,77,0,0,24,100,63,139,1e-30,143
Cyphellophora_laciniata_CBS190.61_T,SRR9040251.19248511,95.45,88,4,0,648,735,149,62,4e-30,141
Cyphellophora_laciniata_CBS190.61_T,SRR9040251.19248511,94.74,76,4,0,648,723,227,302,2e-23,119
Cyphellophora_laciniata_CBS190.61_T,SRR9040251.57305556,95.18,83,2,2,15,96,70,151,8e-27,130
Cyphellophora_laciniata_CBS190.61_T,SRR9040251.29162435,100.00,50,0,0,26,75,1,50,1e-15,93.5
Cyphellophora_suttonii_CBS449.91,SRR9040251.57305556,95.56,45,2,0,194,238,196,152,1e-09,73.1
Phialophora_ambigua_CBS235.93,SRR9040251.57305556,95.56,45,2,0,197,241,196,152,1e-09,73.1
Cladophialophora_modesta_CBS985.96_T,SRR9040251.19248511,95.45,88,4,0,532,619,149,62,3e-30,141
Cladophialophora_modesta_CBS985.96_T,SRR9040251.19248511,94.74,76,4,0,532,607,227,302,1e-23,119
Cladophialophora_modesta_CBS985.96_T,SRR9040251.57305556,94.00,50,2,1,190,238,201,152,3e-10,75.0
Cladophialophora_modesta_CBS985.96_T,SRR9040251.52362595,100.00,38,0,0,532,569,114,151,4e-09,71.3
Cladophialophora_modesta_CBS985.96_T,SRR9040251.18279180,100.00,38,0,0,532,569,114,151,4e-09,71.3
Cladophialophora_modesta_CBS985.96_T,SRR9040251.1595846,100.00,38,0,0,532,569,114,151,4e-09,71.3
Cladophialophora_modesta_CBS985.96_T,SRR9040251.199363,100.00,38,0,0,532,569,114,151,4e-09,71.3
