Exophiala_nigra_CBS535.94_T,SRR9040098.83024037,100.00,59,0,0,200,258,210,152,2e-20,110
Exophiala_nigra_CBS535.94_T,SRR9040098.82963391,100.00,59,0,0,200,258,210,152,2e-20,110
Exophiala_nigra_CBS535.94_T,SRR9040098.112580543,96.88,64,2,0,203,266,239,302,6e-20,108
Exophiala_nigra_CBS535.94_T,SRR9040098.40986068,96.88,64,2,0,203,266,239,302,6e-20,108
Exophiala_spinifera_CBS899.68_T,SRR9040098.83024037,100.00,59,0,0,197,255,210,152,1e-20,110
Exophiala_spinifera_CBS899.68_T,SRR9040098.82963391,100.00,59,0,0,197,255,210,152,1e-20,110
Exophiala_spinifera_CBS899.68_T,SRR9040098.112580543,96.88,64,2,0,200,263,239,302,5e-20,108
Exophiala_spinifera_CBS899.68_T,SRR9040098.40986068,96.88,64,2,0,200,263,239,302,5e-20,108
Exophiala_exophialae_CBS668.76_T,SRR9040098.83024037,100.00,59,0,0,198,256,210,152,1e-20,110
Exophiala_exophialae_CBS668.76_T,SRR9040098.82963391,100.00,59,0,0,198,256,210,152,1e-20,110
Exophiala_exophialae_CBS668.76_T,SRR9040098.112580543,96.88,64,2,0,201,264,239,302,5e-20,108
Exophiala_exophialae_CBS668.76_T,SRR9040098.40986068,96.88,64,2,0,201,264,239,302,5e-20,108
Exophiala_polymorpha_CBS138920_T,SRR9040098.83024037,100.00,59,0,0,300,358,210,152,2e-20,110
Exophiala_polymorpha_CBS138920_T,SRR9040098.82963391,100.00,59,0,0,300,358,210,152,2e-20,110
Exophiala_polymorpha_CBS138920_T,SRR9040098.112580543,96.88,64,2,0,303,366,239,302,7e-20,108
Exophiala_polymorpha_CBS138920_T,SRR9040098.40986068,96.88,64,2,0,303,366,239,302,7e-20,108
Exophiala_polymorpha_CBS138920_T,SRR9040098.131064186,100.00,54,0,0,641,694,160,213,1e-17,100
Exophiala_polymorpha_CBS138920_T,SRR9040098.4973112,100.00,53,0,0,642,694,44,96,4e-17,99.0
Exophiala_polymorpha_CBS138920_T,SRR9040098.72318995,94.00,50,3,0,645,694,162,211,2e-10,76.8
Exophiala_polymorpha_CBS138920_T,SRR9040098.72265027,94.00,50,3,0,645,694,162,211,2e-10,76.8
Exophiala_polymorpha_CBS138920_T,SRR9040098.10298029,94.00,50,3,0,645,694,162,211,2e-10,76.8
Exophiala_polymorpha_CBS138920_T,SRR9040098.54442300,97.50,40,1,0,655,694,25,64,3e-08,69.4
Exophiala_polymorpha_CBS138920_T,SRR9040098.51052131,97.50,40,1,0,655,694,25,64,3e-08,69.4
Exophiala_polymorpha_CBS138920_T,SRR9040098.105456515,92.50,40,3,0,655,694,18,57,7e-05,58.4
Exophiala_polymorpha_CBS138920_T,SRR9040098.136344526,100.00,28,0,0,82,109,58,85,0.003,52.8
Exophiala_polymorpha_CBS138920_T,SRR9040098.136343461,100.00,28,0,0,82,109,58,85,0.003,52.8
Exophiala_polymorpha_CBS138920_T,SRR9040098.98118613,100.00,28,0,0,82,109,58,85,0.003,52.8
Exophiala_polymorpha_CBS138920_T,SRR9040098.84129017,100.00,28,0,0,82,109,58,85,0.003,52.8
Exophiala_polymorpha_CBS138920_T,SRR9040098.66040362,100.00,28,0,0,82,109,58,85,0.003,52.8
Exophiala_polymorpha_CBS138920_T,SRR9040098.26594497,100.00,28,0,0,82,109,58,85,0.003,52.8
Exophiala_polymorpha_CBS138920_T,SRR9040098.1804806,100.00,28,0,0,82,109,58,85,0.003,52.8
Exophiala_polymorpha_CBS138920_T,SRR9040098.1799186,100.00,28,0,0,82,109,58,85,0.003,52.8
Exophiala_oligosperma_CBS725.88_T,SRR9040098.83024037,97.01,67,2,0,202,268,218,152,1e-21,113
Exophiala_oligosperma_CBS725.88_T,SRR9040098.82963391,97.01,67,2,0,202,268,218,152,1e-21,113
Exophiala_oligosperma_CBS725.88_T,SRR9040098.112580543,96.88,64,2,0,213,276,239,302,5e-20,108
Exophiala_oligosperma_CBS725.88_T,SRR9040098.40986068,96.88,64,2,0,213,276,239,302,5e-20,108
Exophiala_jeanselmei_CBS507.90_T,SRR9040098.4973112,94.81,77,2,2,528,604,30,104,3e-23,119
Exophiala_jeanselmei_CBS507.90_T,SRR9040098.131064186,100.00,61,0,0,544,604,161,221,1e-21,113
Exophiala_jeanselmei_CBS507.90_T,SRR9040098.83024037,100.00,59,0,0,202,260,210,152,2e-20,110
Exophiala_jeanselmei_CBS507.90_T,SRR9040098.82963391,100.00,59,0,0,202,260,210,152,2e-20,110
Exophiala_jeanselmei_CBS507.90_T,SRR9040098.112580543,96.88,64,2,0,205,268,239,302,6e-20,108
Exophiala_jeanselmei_CBS507.90_T,SRR9040098.40986068,96.88,64,2,0,205,268,239,302,6e-20,108
Exophiala_jeanselmei_CBS507.90_T,SRR9040098.72318995,94.83,58,3,0,547,604,162,219,6e-15,91.6
Exophiala_jeanselmei_CBS507.90_T,SRR9040098.72265027,94.83,58,3,0,547,604,162,219,6e-15,91.6
Exophiala_jeanselmei_CBS507.90_T,SRR9040098.10298029,94.83,58,3,0,547,604,162,219,6e-15,91.6
Exophiala_jeanselmei_CBS507.90_T,SRR9040098.54442300,97.92,48,1,0,557,604,25,72,1e-12,84.2
Exophiala_jeanselmei_CBS507.90_T,SRR9040098.51052131,97.92,48,1,0,557,604,25,72,1e-12,84.2
Exophiala_jeanselmei_CBS507.90_T,SRR9040098.105456515,93.75,48,3,0,557,604,18,65,2e-09,73.1
Exophiala_bergeri_CBS353.52,SRR9040098.83024037,100.00,59,0,0,163,221,210,152,1e-20,110
Exophiala_bergeri_CBS353.52,SRR9040098.82963391,100.00,59,0,0,163,221,210,152,1e-20,110
Exophiala_bergeri_CBS353.52,SRR9040098.112580543,96.88,64,2,0,166,229,239,302,5e-20,108
Exophiala_bergeri_CBS353.52,SRR9040098.40986068,96.88,64,2,0,166,229,239,302,5e-20,108
Exophiala_moniliae_CBS520.76_T,SRR9040098.83024037,100.00,59,0,0,200,258,210,152,2e-20,110
Exophiala_moniliae_CBS520.76_T,SRR9040098.82963391,100.00,59,0,0,200,258,210,152,2e-20,110
Exophiala_moniliae_CBS520.76_T,SRR9040098.112580543,96.88,64,2,0,203,266,239,302,5e-20,108
Exophiala_moniliae_CBS520.76_T,SRR9040098.40986068,96.88,64,2,0,203,266,239,302,5e-20,108
Exophiala_pisciphila_CBS537.73_T,SRR9040098.4973112,95.37,108,4,1,547,653,37,144,8e-39,171
Exophiala_pisciphila_CBS537.73_T,SRR9040098.131064186,96.04,101,4,0,553,653,161,261,4e-37,165
Exophiala_pisciphila_CBS537.73_T,SRR9040098.54442300,93.18,88,6,0,566,653,25,112,1e-26,130
Exophiala_pisciphila_CBS537.73_T,SRR9040098.51052131,93.18,88,6,0,566,653,25,112,1e-26,130
Exophiala_pisciphila_CBS537.73_T,SRR9040098.72318995,89.80,98,10,0,556,653,162,259,2e-25,126
Exophiala_pisciphila_CBS537.73_T,SRR9040098.72265027,89.80,98,10,0,556,653,162,259,2e-25,126
Exophiala_pisciphila_CBS537.73_T,SRR9040098.10298029,89.80,98,10,0,556,653,162,259,2e-25,126
Exophiala_pisciphila_CBS537.73_T,SRR9040098.105456515,93.42,76,5,0,578,653,30,105,1e-21,113
Exophiala_pisciphila_CBS537.73_T,SRR9040098.83024037,100.00,59,0,0,203,261,210,152,2e-20,110
Exophiala_pisciphila_CBS537.73_T,SRR9040098.82963391,100.00,59,0,0,203,261,210,152,2e-20,110
Exophiala_pisciphila_CBS537.73_T,SRR9040098.112580543,96.88,64,2,0,206,269,239,302,6e-20,108
Exophiala_pisciphila_CBS537.73_T,SRR9040098.40986068,96.88,64,2,0,206,269,239,302,6e-20,108
Exophiala_xenobiotica_CBS117642,SRR9040098.83024037,91.76,85,6,1,169,253,235,152,9e-23,117
Exophiala_xenobiotica_CBS117642,SRR9040098.82963391,91.76,85,6,1,169,253,235,152,9e-23,117
Exophiala_xenobiotica_CBS117642,SRR9040098.112580543,96.88,64,2,0,198,261,239,302,5e-20,108
Exophiala_xenobiotica_CBS117642,SRR9040098.40986068,96.88,64,2,0,198,261,239,302,5e-20,108
Exophiala_brunnea_CBS,SRR9040098.83024037,100.00,59,0,0,231,289,210,152,2e-20,110
Exophiala_brunnea_CBS,SRR9040098.82963391,100.00,59,0,0,231,289,210,152,2e-20,110
Exophiala_brunnea_CBS,SRR9040098.112580543,96.88,64,2,0,234,297,239,302,6e-20,108
Exophiala_brunnea_CBS,SRR9040098.40986068,96.88,64,2,0,234,297,239,302,6e-20,108
Exophiala_brunnea_CBS,SRR9040098.136344526,100.00,41,0,0,1,41,45,85,2e-10,76.8
Exophiala_brunnea_CBS,SRR9040098.136343461,100.00,41,0,0,1,41,45,85,2e-10,76.8
Exophiala_brunnea_CBS,SRR9040098.127226462,97.73,44,1,0,1,44,102,59,2e-10,76.8
Exophiala_brunnea_CBS,SRR9040098.127226397,97.73,44,1,0,1,44,102,59,2e-10,76.8
Exophiala_brunnea_CBS,SRR9040098.98118613,100.00,41,0,0,1,41,45,85,2e-10,76.8
Exophiala_brunnea_CBS,SRR9040098.84129017,100.00,41,0,0,1,41,45,85,2e-10,76.8
Exophiala_brunnea_CBS,SRR9040098.66040362,100.00,41,0,0,1,41,45,85,2e-10,76.8
Exophiala_brunnea_CBS,SRR9040098.55536876,97.73,44,1,0,1,44,102,59,2e-10,76.8
Exophiala_brunnea_CBS,SRR9040098.26594497,100.00,41,0,0,1,41,45,85,2e-10,76.8
Exophiala_brunnea_CBS,SRR9040098.1804806,100.00,41,0,0,1,41,45,85,2e-10,76.8
Exophiala_brunnea_CBS,SRR9040098.1799186,100.00,41,0,0,1,41,45,85,2e-10,76.8
Exophiala_nishimurae_CBS101538_T,SRR9040098.83024037,100.00,59,0,0,209,267,210,152,2e-20,110
Exophiala_nishimurae_CBS101538_T,SRR9040098.82963391,100.00,59,0,0,209,267,210,152,2e-20,110
Exophiala_nishimurae_CBS101538_T,SRR9040098.112580543,96.88,64,2,0,212,275,239,302,6e-20,108
Exophiala_nishimurae_CBS101538_T,SRR9040098.40986068,96.88,64,2,0,212,275,239,302,6e-20,108
Exophiala_nishimurae_CBS101538_T,SRR9040098.4973112,97.92,48,1,0,544,591,37,84,1e-12,84.2
Exophiala_nishimurae_CBS101538_T,SRR9040098.131064186,97.78,45,0,1,547,591,158,201,2e-10,76.8
Exophiala_mesophila_CBS402.95_T,SRR9040098.4973112,96.26,107,3,1,545,650,38,144,6e-40,174
Exophiala_mesophila_CBS402.95_T,SRR9040098.131064186,97.06,102,3,0,549,650,160,261,2e-39,172
Exophiala_mesophila_CBS402.95_T,SRR9040098.54442300,94.32,88,5,0,563,650,25,112,3e-28,135
Exophiala_mesophila_CBS402.95_T,SRR9040098.51052131,94.32,88,5,0,563,650,25,112,3e-28,135
Exophiala_mesophila_CBS402.95_T,SRR9040098.72318995,90.82,98,9,0,553,650,162,259,4e-27,132
Exophiala_mesophila_CBS402.95_T,SRR9040098.72265027,90.82,98,9,0,553,650,162,259,4e-27,132
Exophiala_mesophila_CBS402.95_T,SRR9040098.10298029,90.82,98,9,0,553,650,162,259,4e-27,132
Exophiala_mesophila_CBS402.95_T,SRR9040098.105456515,90.91,88,8,0,563,650,18,105,3e-23,119
Exophiala_mesophila_CBS402.95_T,SRR9040098.83024037,100.00,59,0,0,193,251,210,152,2e-20,110
Exophiala_mesophila_CBS402.95_T,SRR9040098.82963391,100.00,59,0,0,193,251,210,152,2e-20,110
Exophiala_mesophila_CBS402.95_T,SRR9040098.112580543,96.88,64,2,0,196,259,239,302,6e-20,108
Exophiala_mesophila_CBS402.95_T,SRR9040098.40986068,96.88,64,2,0,196,259,239,302,6e-20,108
Exophiala_castellanii_CBS158.58_T,SRR9040098.4973112,95.54,112,4,1,539,649,33,144,5e-41,178
Exophiala_castellanii_CBS158.58_T,SRR9040098.131064186,97.06,102,3,0,548,649,160,261,2e-39,172
Exophiala_castellanii_CBS158.58_T,SRR9040098.54442300,94.32,88,5,0,562,649,25,112,3e-28,135
Exophiala_castellanii_CBS158.58_T,SRR9040098.51052131,94.32,88,5,0,562,649,25,112,3e-28,135
Exophiala_castellanii_CBS158.58_T,SRR9040098.72318995,90.82,98,9,0,552,649,162,259,4e-27,132
Exophiala_castellanii_CBS158.58_T,SRR9040098.72265027,90.82,98,9,0,552,649,162,259,4e-27,132
Exophiala_castellanii_CBS158.58_T,SRR9040098.10298029,90.82,98,9,0,552,649,162,259,4e-27,132
Exophiala_castellanii_CBS158.58_T,SRR9040098.105456515,90.91,88,8,0,562,649,18,105,3e-23,119
Exophiala_castellanii_CBS158.58_T,SRR9040098.83024037,100.00,59,0,0,191,249,210,152,2e-20,110
Exophiala_castellanii_CBS158.58_T,SRR9040098.82963391,100.00,59,0,0,191,249,210,152,2e-20,110
Exophiala_castellanii_CBS158.58_T,SRR9040098.112580543,96.88,64,2,0,194,257,239,302,6e-20,108
Exophiala_castellanii_CBS158.58_T,SRR9040098.40986068,96.88,64,2,0,194,257,239,302,6e-20,108
Exophiala_lecanii-corni_CBS123.33_T,SRR9040098.83024037,100.00,59,0,0,214,272,210,152,2e-20,110
Exophiala_lecanii-corni_CBS123.33_T,SRR9040098.82963391,100.00,59,0,0,214,272,210,152,2e-20,110
Exophiala_lecanii-corni_CBS123.33_T,SRR9040098.112580543,96.88,64,2,0,217,280,239,302,6e-20,108
Exophiala_lecanii-corni_CBS123.33_T,SRR9040098.40986068,96.88,64,2,0,217,280,239,302,6e-20,108
Exophiala_dermatitidis_CBS748.88,SRR9040098.135321516,98.71,155,1,1,831,984,148,302,1e-69,274
Exophiala_dermatitidis_CBS748.88,SRR9040098.135321516,98.01,151,3,0,1253,1403,151,1,3e-66,263
Exophiala_dermatitidis_CBS748.88,SRR9040098.35600762,98.71,155,1,1,831,984,148,302,1e-69,274
Exophiala_dermatitidis_CBS748.88,SRR9040098.35600762,98.01,151,3,0,1253,1403,151,1,3e-66,263
Exophiala_dermatitidis_CBS748.88,SRR9040098.118037964,99.32,146,1,0,1359,1504,1,146,8e-67,265
Exophiala_dermatitidis_CBS748.88,SRR9040098.118003687,99.32,146,1,0,1359,1504,1,146,8e-67,265
Exophiala_dermatitidis_CBS748.88,SRR9040098.131064186,97.74,133,3,0,575,707,161,293,3e-56,230
Exophiala_dermatitidis_CBS748.88,SRR9040098.141030409,95.71,140,6,0,879,1018,1,140,4e-55,226
Exophiala_dermatitidis_CBS748.88,SRR9040098.92058211,95.71,140,6,0,879,1018,1,140,4e-55,226
Exophiala_dermatitidis_CBS748.88,SRR9040098.139530809,92.21,154,8,3,1347,1498,1,152,9e-52,215
Exophiala_dermatitidis_CBS748.88,SRR9040098.67721381,92.21,154,8,3,1347,1498,1,152,9e-52,215
Exophiala_dermatitidis_CBS748.88,SRR9040098.47998800,92.21,154,8,3,1347,1498,1,152,9e-52,215
Exophiala_dermatitidis_CBS748.88,SRR9040098.47998624,92.21,154,8,3,1347,1498,1,152,9e-52,215
Exophiala_dermatitidis_CBS748.88,SRR9040098.47969128,92.21,154,8,3,1347,1498,1,152,9e-52,215
Exophiala_dermatitidis_CBS748.88,SRR9040098.47968471,92.21,154,8,3,1347,1498,1,152,9e-52,215
Exophiala_dermatitidis_CBS748.88,SRR9040098.47998686,91.56,154,9,3,1347,1498,1,152,4e-50,209
Exophiala_dermatitidis_CBS748.88,SRR9040098.100935405,91.33,150,13,0,825,974,2,151,5e-49,206
Exophiala_dermatitidis_CBS748.88,SRR9040098.118111163,96.43,112,4,0,1393,1504,151,262,7e-43,185
Exophiala_dermatitidis_CBS748.88,SRR9040098.4973112,96.43,112,4,0,568,679,37,148,7e-43,185
Exophiala_dermatitidis_CBS748.88,SRR9040098.4973112,98.10,105,2,0,913,1017,302,198,2e-42,183
Exophiala_dermatitidis_CBS748.88,SRR9040098.101524616,88.36,146,14,3,1251,1396,160,302,5e-39,172
Exophiala_dermatitidis_CBS748.88,SRR9040098.54442300,93.16,117,8,0,588,704,25,141,5e-39,172
Exophiala_dermatitidis_CBS748.88,SRR9040098.51052131,93.16,117,8,0,588,704,25,141,5e-39,172
Exophiala_dermatitidis_CBS748.88,SRR9040098.29992344,88.36,146,14,3,1251,1396,160,302,5e-39,172
Exophiala_dermatitidis_CBS748.88,SRR9040098.29991947,88.36,146,14,3,1251,1396,160,302,5e-39,172
Exophiala_dermatitidis_CBS748.88,SRR9040098.29990212,88.36,146,14,3,1251,1396,160,302,5e-39,172
Exophiala_dermatitidis_CBS748.88,SRR9040098.122217413,93.81,113,7,0,912,1024,152,264,2e-38,171
Exophiala_dermatitidis_CBS748.88,SRR9040098.122194282,93.81,113,7,0,912,1024,152,264,2e-38,171
Exophiala_dermatitidis_CBS748.88,SRR9040098.84722816,93.81,113,7,0,912,1024,152,264,2e-38,171
Exophiala_dermatitidis_CBS748.88,SRR9040098.84722761,93.81,113,7,0,912,1024,152,264,2e-38,171
Exophiala_dermatitidis_CBS748.88,SRR9040098.84722569,93.81,113,7,0,912,1024,152,264,2e-38,171
Exophiala_dermatitidis_CBS748.88,SRR9040098.84538950,87.33,150,15,3,1099,1248,3,148,7e-38,169
Exophiala_dermatitidis_CBS748.88,SRR9040098.84538950,86.75,151,17,2,1096,1246,299,152,9e-37,165
Exophiala_dermatitidis_CBS748.88,SRR9040098.131595095,92.92,113,8,0,912,1024,152,264,9e-37,165
Exophiala_dermatitidis_CBS748.88,SRR9040098.56502227,93.75,112,3,2,636,747,152,259,9e-37,165
Exophiala_dermatitidis_CBS748.88,SRR9040098.56502227,87.16,109,14,0,825,933,109,1,1e-24,124
Exophiala_dermatitidis_CBS748.88,SRR9040098.72265027,89.76,127,13,0,578,704,162,288,3e-36,163
Exophiala_dermatitidis_CBS748.88,SRR9040098.10298029,89.76,127,13,0,578,704,162,288,3e-36,163
Exophiala_dermatitidis_CBS748.88,SRR9040098.72318995,88.98,127,14,0,578,704,162,288,1e-34,158
Exophiala_dermatitidis_CBS748.88,SRR9040098.105456515,89.74,117,12,0,588,704,18,134,2e-32,150
Exophiala_dermatitidis_CBS748.88,SRR9040098.85954462,85.03,147,19,2,854,998,3,148,3e-31,147
Exophiala_dermatitidis_CBS748.88,SRR9040098.14392803,85.03,147,19,2,854,998,3,148,3e-31,147
Exophiala_dermatitidis_CBS748.88,SRR9040098.128448700,86.82,129,12,4,1243,1367,128,1,5e-29,139
Exophiala_dermatitidis_CBS748.88,SRR9040098.128448700,86.82,129,11,5,1247,1370,152,279,5e-29,139
Exophiala_dermatitidis_CBS748.88,SRR9040098.127619092,83.66,153,19,5,1278,1427,3,152,5e-29,139
Exophiala_dermatitidis_CBS748.88,SRR9040098.102580830,83.56,146,18,4,1095,1240,302,163,9e-27,132
Exophiala_dermatitidis_CBS748.88,SRR9040098.128589664,93.98,83,5,0,1420,1502,302,220,4e-25,126
Exophiala_dermatitidis_CBS748.88,SRR9040098.21605821,86.21,116,15,1,1186,1301,36,150,1e-24,124
Exophiala_dermatitidis_CBS748.88,SRR9040098.16152204,86.21,116,15,1,1186,1301,36,150,1e-24,124
Exophiala_dermatitidis_CBS748.88,SRR9040098.112580543,89.13,92,4,5,182,272,216,302,4e-20,110
Exophiala_dermatitidis_CBS748.88,SRR9040098.40986068,89.13,92,4,5,182,272,216,302,4e-20,110
Exophiala_dermatitidis_CBS748.88,SRR9040098.130086312,91.89,74,6,0,1428,1501,151,78,2e-18,104
Exophiala_dermatitidis_CBS748.88,SRR9040098.95936768,91.89,74,6,0,1428,1501,151,78,2e-18,104
Exophiala_dermatitidis_CBS748.88,SRR9040098.58034272,91.89,74,6,0,1428,1501,151,78,2e-18,104
Exophiala_dermatitidis_CBS748.88,SRR9040098.83024037,98.31,59,0,1,207,264,210,152,7e-18,102
Exophiala_dermatitidis_CBS748.88,SRR9040098.82963391,98.31,59,0,1,207,264,210,152,7e-18,102
Exophiala_dermatitidis_CBS748.88,SRR9040098.87134068,77.70,139,30,1,1186,1324,165,302,3e-12,84.2
Exophiala_angulospora_CBS482.92_T,SRR9040098.83024037,97.01,67,2,0,189,255,218,152,1e-21,113
Exophiala_angulospora_CBS482.92_T,SRR9040098.82963391,97.01,67,2,0,189,255,218,152,1e-21,113
Exophiala_angulospora_CBS482.92_T,SRR9040098.112580543,96.88,64,2,0,200,263,239,302,5e-20,108
Exophiala_angulospora_CBS482.92_T,SRR9040098.40986068,96.88,64,2,0,200,263,239,302,5e-20,108
Exophiala_opportunistica_CBS109811_T,SRR9040098.112580543,93.42,76,3,2,189,262,227,302,4e-21,111
Exophiala_opportunistica_CBS109811_T,SRR9040098.40986068,93.42,76,3,2,189,262,227,302,4e-21,111
Exophiala_opportunistica_CBS109811_T,SRR9040098.83024037,100.00,59,0,0,196,254,210,152,2e-20,110
Exophiala_opportunistica_CBS109811_T,SRR9040098.82963391,100.00,59,0,0,196,254,210,152,2e-20,110
Exophiala_salmonis_CBS157.67_T,SRR9040098.4973112,95.37,108,4,1,667,773,37,144,9e-39,171
Exophiala_salmonis_CBS157.67_T,SRR9040098.131064186,96.04,101,4,0,673,773,161,261,4e-37,165
Exophiala_salmonis_CBS157.67_T,SRR9040098.55903257,89.34,122,13,0,1,122,148,27,1e-33,154
Exophiala_salmonis_CBS157.67_T,SRR9040098.31693241,89.34,122,13,0,1,122,148,27,1e-33,154
Exophiala_salmonis_CBS157.67_T,SRR9040098.54442300,93.18,88,6,0,686,773,25,112,2e-26,130
Exophiala_salmonis_CBS157.67_T,SRR9040098.51052131,93.18,88,6,0,686,773,25,112,2e-26,130
Exophiala_salmonis_CBS157.67_T,SRR9040098.72318995,89.80,98,10,0,676,773,162,259,2e-25,126
Exophiala_salmonis_CBS157.67_T,SRR9040098.72265027,89.80,98,10,0,676,773,162,259,2e-25,126
Exophiala_salmonis_CBS157.67_T,SRR9040098.10298029,89.80,98,10,0,676,773,162,259,2e-25,126
Exophiala_salmonis_CBS157.67_T,SRR9040098.130588475,93.51,77,5,0,1,77,226,150,4e-22,115
Exophiala_salmonis_CBS157.67_T,SRR9040098.111932860,93.51,77,5,0,1,77,226,150,4e-22,115
Exophiala_salmonis_CBS157.67_T,SRR9040098.111863773,93.51,77,5,0,1,77,226,150,4e-22,115
Exophiala_salmonis_CBS157.67_T,SRR9040098.108294338,92.50,80,6,0,1,80,69,148,4e-22,115
Exophiala_salmonis_CBS157.67_T,SRR9040098.108290657,92.50,80,6,0,1,80,69,148,4e-22,115
Exophiala_salmonis_CBS157.67_T,SRR9040098.108290584,92.50,80,6,0,1,80,69,148,4e-22,115
Exophiala_salmonis_CBS157.67_T,SRR9040098.108284617,92.50,80,6,0,1,80,69,148,4e-22,115
Exophiala_salmonis_CBS157.67_T,SRR9040098.100216843,93.51,77,5,0,1,77,226,150,4e-22,115
Exophiala_salmonis_CBS157.67_T,SRR9040098.97648481,93.51,77,5,0,1,77,226,150,4e-22,115
Exophiala_salmonis_CBS157.67_T,SRR9040098.80574899,92.50,80,6,0,1,80,69,148,4e-22,115
Exophiala_salmonis_CBS157.67_T,SRR9040098.28735784,93.51,77,5,0,1,77,226,150,4e-22,115
Exophiala_salmonis_CBS157.67_T,SRR9040098.6448506,93.51,77,5,0,1,77,226,150,4e-22,115
Exophiala_salmonis_CBS157.67_T,SRR9040098.105456515,93.42,76,5,0,698,773,30,105,2e-21,113
Exophiala_salmonis_CBS157.67_T,SRR9040098.127226462,90.48,84,8,0,1,84,219,302,6e-21,111
Exophiala_salmonis_CBS157.67_T,SRR9040098.127226397,90.48,84,8,0,1,84,219,302,6e-21,111
Exophiala_salmonis_CBS157.67_T,SRR9040098.127226397,94.44,54,3,0,69,122,149,96,1e-12,84.2
Exophiala_salmonis_CBS157.67_T,SRR9040098.55536876,90.48,84,8,0,1,84,219,302,6e-21,111
Exophiala_salmonis_CBS157.67_T,SRR9040098.55536876,94.44,54,3,0,69,122,149,96,1e-12,84.2
Exophiala_salmonis_CBS157.67_T,SRR9040098.83024037,85.05,107,16,0,16,122,1,107,2e-20,110
Exophiala_salmonis_CBS157.67_T,SRR9040098.83024037,100.00,59,0,0,325,383,210,152,2e-20,110
Exophiala_salmonis_CBS157.67_T,SRR9040098.82963391,85.05,107,16,0,16,122,1,107,2e-20,110
Exophiala_salmonis_CBS157.67_T,SRR9040098.82963391,100.00,59,0,0,325,383,210,152,2e-20,110
Exophiala_salmonis_CBS157.67_T,SRR9040098.112580543,96.88,64,2,0,328,391,239,302,8e-20,108
Exophiala_salmonis_CBS157.67_T,SRR9040098.40986068,96.88,64,2,0,328,391,239,302,8e-20,108
Exophiala_salmonis_CBS157.67_T,SRR9040098.107215353,94.92,59,3,0,1,59,94,152,2e-15,93.5
Exophiala_salmonis_CBS157.67_T,SRR9040098.136344526,96.08,51,2,0,72,122,1,51,1e-12,84.2
Exophiala_salmonis_CBS157.67_T,SRR9040098.136343461,96.08,51,2,0,72,122,1,51,1e-12,84.2
Exophiala_salmonis_CBS157.67_T,SRR9040098.98118613,96.08,51,2,0,72,122,1,51,1e-12,84.2
Exophiala_salmonis_CBS157.67_T,SRR9040098.84129017,96.08,51,2,0,72,122,1,51,1e-12,84.2
Exophiala_salmonis_CBS157.67_T,SRR9040098.66040362,96.08,51,2,0,72,122,1,51,1e-12,84.2
Exophiala_salmonis_CBS157.67_T,SRR9040098.26594497,96.08,51,2,0,72,122,1,51,1e-12,84.2
Exophiala_salmonis_CBS157.67_T,SRR9040098.25928545,100.00,45,0,0,78,122,67,111,1e-12,84.2
Exophiala_salmonis_CBS157.67_T,SRR9040098.1804806,96.08,51,2,0,72,122,1,51,1e-12,84.2
Exophiala_salmonis_CBS157.67_T,SRR9040098.1799186,96.08,51,2,0,72,122,1,51,1e-12,84.2
Exophiala_salmonis_CBS157.67_T,SRR9040098.121249135,87.88,66,7,1,1,65,213,148,2e-10,76.8
Exophiala_salmonis_CBS157.67_T,SRR9040098.121246674,87.88,66,7,1,1,65,213,148,2e-10,76.8
Exophiala_aquamarina_CBS119918_T,SRR9040098.83024037,100.00,59,0,0,203,261,210,152,1e-20,110
Exophiala_aquamarina_CBS119918_T,SRR9040098.82963391,100.00,59,0,0,203,261,210,152,1e-20,110
Exophiala_aquamarina_CBS119918_T,SRR9040098.112580543,96.88,64,2,0,206,269,239,302,5e-20,108
Exophiala_aquamarina_CBS119918_T,SRR9040098.40986068,96.88,64,2,0,206,269,239,302,5e-20,108
Exophiala_cancerae_CBS120420_T,SRR9040098.4973112,98.53,68,1,0,557,624,37,104,8e-24,121
Exophiala_cancerae_CBS120420_T,SRR9040098.112580543,93.42,76,3,2,211,284,227,302,5e-21,111
Exophiala_cancerae_CBS120420_T,SRR9040098.40986068,93.42,76,3,2,211,284,227,302,5e-21,111
Exophiala_cancerae_CBS120420_T,SRR9040098.83024037,100.00,59,0,0,218,276,210,152,2e-20,110
Exophiala_cancerae_CBS120420_T,SRR9040098.82963391,100.00,59,0,0,218,276,210,152,2e-20,110
Exophiala_cancerae_CBS120420_T,SRR9040098.131064186,98.36,61,1,0,564,624,161,221,6e-20,108
Exophiala_cancerae_CBS120420_T,SRR9040098.72318995,93.10,58,4,0,567,624,162,219,3e-13,86.1
Exophiala_cancerae_CBS120420_T,SRR9040098.72265027,93.10,58,4,0,567,624,162,219,3e-13,86.1
Exophiala_cancerae_CBS120420_T,SRR9040098.10298029,93.10,58,4,0,567,624,162,219,3e-13,86.1
Exophiala_cancerae_CBS120420_T,SRR9040098.54442300,95.83,48,2,0,577,624,25,72,5e-11,78.7
Exophiala_cancerae_CBS120420_T,SRR9040098.51052131,95.83,48,2,0,577,624,25,72,5e-11,78.7
Exophiala_cancerae_CBS120420_T,SRR9040098.105456515,100.00,36,0,0,589,624,30,65,1e-07,67.6
Exophiala_tremulae_CBS129355,SRR9040098.112580543,91.46,82,5,2,216,296,222,302,5e-21,111
Exophiala_tremulae_CBS129355,SRR9040098.40986068,91.46,82,5,2,216,296,222,302,5e-21,111
Exophiala_tremulae_CBS129355,SRR9040098.83024037,100.00,59,0,0,230,288,210,152,2e-20,110
Exophiala_tremulae_CBS129355,SRR9040098.82963391,100.00,59,0,0,230,288,210,152,2e-20,110
Exophiala_tremulae_CBS129355,SRR9040098.136344526,100.00,41,0,0,1,41,45,85,2e-10,76.8
Exophiala_tremulae_CBS129355,SRR9040098.136343461,100.00,41,0,0,1,41,45,85,2e-10,76.8
Exophiala_tremulae_CBS129355,SRR9040098.127226462,97.73,44,1,0,1,44,102,59,2e-10,76.8
Exophiala_tremulae_CBS129355,SRR9040098.127226397,97.73,44,1,0,1,44,102,59,2e-10,76.8
Exophiala_tremulae_CBS129355,SRR9040098.98118613,100.00,41,0,0,1,41,45,85,2e-10,76.8
Exophiala_tremulae_CBS129355,SRR9040098.84129017,100.00,41,0,0,1,41,45,85,2e-10,76.8
Exophiala_tremulae_CBS129355,SRR9040098.66040362,100.00,41,0,0,1,41,45,85,2e-10,76.8
Exophiala_tremulae_CBS129355,SRR9040098.55536876,97.73,44,1,0,1,44,102,59,2e-10,76.8
Exophiala_tremulae_CBS129355,SRR9040098.26594497,100.00,41,0,0,1,41,45,85,2e-10,76.8
Exophiala_tremulae_CBS129355,SRR9040098.1804806,100.00,41,0,0,1,41,45,85,2e-10,76.8
Exophiala_tremulae_CBS129355,SRR9040098.1799186,100.00,41,0,0,1,41,45,85,2e-10,76.8
Exophiala_equina_CBS116009,SRR9040098.112580543,91.46,82,5,2,182,262,222,302,4e-21,111
Exophiala_equina_CBS116009,SRR9040098.40986068,91.46,82,5,2,182,262,222,302,4e-21,111
Exophiala_equina_CBS116009,SRR9040098.83024037,100.00,59,0,0,196,254,210,152,1e-20,110
Exophiala_equina_CBS116009,SRR9040098.82963391,100.00,59,0,0,196,254,210,152,1e-20,110
Exophiala_alcalophila_CBS520.82_T,SRR9040098.112580543,92.59,81,3,3,194,273,224,302,1e-21,113
Exophiala_alcalophila_CBS520.82_T,SRR9040098.40986068,92.59,81,3,3,194,273,224,302,1e-21,113
Exophiala_alcalophila_CBS520.82_T,SRR9040098.83024037,100.00,59,0,0,207,265,210,152,2e-20,110
Exophiala_alcalophila_CBS520.82_T,SRR9040098.82963391,100.00,59,0,0,207,265,210,152,2e-20,110
Exophiala_crusticola_CBS119970_T,SRR9040098.83024037,100.00,59,0,0,212,270,210,152,1e-20,110
Exophiala_crusticola_CBS119970_T,SRR9040098.82963391,100.00,59,0,0,212,270,210,152,1e-20,110
Exophiala_crusticola_CBS119970_T,SRR9040098.112580543,96.88,64,2,0,215,278,239,302,5e-20,108
Exophiala_crusticola_CBS119970_T,SRR9040098.40986068,96.88,64,2,0,215,278,239,302,5e-20,108
Rhinocladiella_atrovirens_CBS264.49,SRR9040098.112580543,94.37,71,4,0,234,304,232,302,2e-20,110
Rhinocladiella_atrovirens_CBS264.49,SRR9040098.83024037,100.00,59,0,0,238,296,210,152,2e-20,110
Rhinocladiella_atrovirens_CBS264.49,SRR9040098.82963391,100.00,59,0,0,238,296,210,152,2e-20,110
Rhinocladiella_atrovirens_CBS264.49,SRR9040098.40986068,94.37,71,4,0,234,304,232,302,2e-20,110
Rhinocladiella_atrovirens_CBS264.49,SRR9040098.127226462,100.00,49,0,0,1,49,107,59,6e-15,91.6
Rhinocladiella_atrovirens_CBS264.49,SRR9040098.127226397,100.00,49,0,0,1,49,107,59,6e-15,91.6
Rhinocladiella_atrovirens_CBS264.49,SRR9040098.55536876,100.00,49,0,0,1,49,107,59,6e-15,91.6
Rhinocladiella_atrovirens_CBS264.49,SRR9040098.136344526,100.00,44,0,0,1,44,40,83,4e-12,82.4
Rhinocladiella_atrovirens_CBS264.49,SRR9040098.136343461,100.00,44,0,0,1,44,40,83,4e-12,82.4
Rhinocladiella_atrovirens_CBS264.49,SRR9040098.98118613,100.00,44,0,0,1,44,40,83,4e-12,82.4
Rhinocladiella_atrovirens_CBS264.49,SRR9040098.84129017,100.00,44,0,0,1,44,40,83,4e-12,82.4
Rhinocladiella_atrovirens_CBS264.49,SRR9040098.66040362,100.00,44,0,0,1,44,40,83,4e-12,82.4
Rhinocladiella_atrovirens_CBS264.49,SRR9040098.26594497,100.00,44,0,0,1,44,40,83,4e-12,82.4
Rhinocladiella_atrovirens_CBS264.49,SRR9040098.1804806,100.00,44,0,0,1,44,40,83,4e-12,82.4
Rhinocladiella_atrovirens_CBS264.49,SRR9040098.1799186,100.00,44,0,0,1,44,40,83,4e-12,82.4
Rhinocladiella_basitona_CBS101460_T,SRR9040098.83024037,100.00,59,0,0,197,255,210,152,1e-20,110
Rhinocladiella_basitona_CBS101460_T,SRR9040098.82963391,100.00,59,0,0,197,255,210,152,1e-20,110
Rhinocladiella_basitona_CBS101460_T,SRR9040098.112580543,96.88,64,2,0,200,263,239,302,5e-20,108
Rhinocladiella_basitona_CBS101460_T,SRR9040098.40986068,96.88,64,2,0,200,263,239,302,5e-20,108
Rhinocladiella_phaeophora_CBS496.78_T,SRR9040098.112580543,95.59,68,2,1,205,271,235,302,5e-20,108
Rhinocladiella_phaeophora_CBS496.78_T,SRR9040098.83024037,100.00,58,0,0,206,263,209,152,5e-20,108
Rhinocladiella_phaeophora_CBS496.78_T,SRR9040098.82963391,100.00,58,0,0,206,263,209,152,5e-20,108
Rhinocladiella_phaeophora_CBS496.78_T,SRR9040098.40986068,95.59,68,2,1,205,271,235,302,5e-20,108
Rhinocladiella_aquaspersa_CBS313.73_T,SRR9040098.4973112,92.86,112,5,3,541,649,37,148,2e-35,159
Rhinocladiella_aquaspersa_CBS313.73_T,SRR9040098.131064186,93.40,106,4,3,548,650,161,266,8e-34,154
Rhinocladiella_aquaspersa_CBS313.73_T,SRR9040098.54442300,89.90,99,8,2,553,649,18,116,2e-25,126
Rhinocladiella_aquaspersa_CBS313.73_T,SRR9040098.51052131,89.90,99,8,2,553,649,18,116,2e-25,126
Rhinocladiella_aquaspersa_CBS313.73_T,SRR9040098.105456515,93.75,80,5,0,570,649,30,109,8e-24,121
Rhinocladiella_aquaspersa_CBS313.73_T,SRR9040098.72318995,89.89,89,8,1,559,646,172,260,1e-21,113
Rhinocladiella_aquaspersa_CBS313.73_T,SRR9040098.72265027,89.89,89,8,1,559,646,172,260,1e-21,113
Rhinocladiella_aquaspersa_CBS313.73_T,SRR9040098.10298029,89.89,89,8,1,559,646,172,260,1e-21,113
Rhinocladiella_aquaspersa_CBS313.73_T,SRR9040098.112580543,95.59,68,2,1,199,265,235,302,6e-20,108
Rhinocladiella_aquaspersa_CBS313.73_T,SRR9040098.83024037,100.00,58,0,0,200,257,209,152,6e-20,108
Rhinocladiella_aquaspersa_CBS313.73_T,SRR9040098.82963391,100.00,58,0,0,200,257,209,152,6e-20,108
Rhinocladiella_aquaspersa_CBS313.73_T,SRR9040098.40986068,95.59,68,2,1,199,265,235,302,6e-20,108
Rhinocladiella_fasciculata_CBS132.86_T,SRR9040098.112580543,95.77,71,2,1,212,281,232,302,1e-21,113
Rhinocladiella_fasciculata_CBS132.86_T,SRR9040098.40986068,95.77,71,2,1,212,281,232,302,1e-21,113
Rhinocladiella_fasciculata_CBS132.86_T,SRR9040098.83024037,100.00,58,0,0,216,273,209,152,6e-20,108
Rhinocladiella_fasciculata_CBS132.86_T,SRR9040098.82963391,100.00,58,0,0,216,273,209,152,6e-20,108
Rhinocladiella_fasciculata_CBS132.86_T,SRR9040098.127226462,100.00,32,0,0,1,32,90,59,2e-05,60.2
Rhinocladiella_fasciculata_CBS132.86_T,SRR9040098.127226397,100.00,32,0,0,1,32,90,59,2e-05,60.2
Rhinocladiella_fasciculata_CBS132.86_T,SRR9040098.55536876,100.00,32,0,0,1,32,90,59,2e-05,60.2
Rhinocladiella_anceps_CBS181.65_T,SRR9040098.83024037,100.00,59,0,0,197,255,210,152,1e-20,110
Rhinocladiella_anceps_CBS181.65_T,SRR9040098.82963391,100.00,59,0,0,197,255,210,152,1e-20,110
Rhinocladiella_anceps_CBS181.65_T,SRR9040098.112580543,96.88,64,2,0,200,263,239,302,5e-20,108
Rhinocladiella_anceps_CBS181.65_T,SRR9040098.40986068,96.88,64,2,0,200,263,239,302,5e-20,108
Rhinocladiella_mackenziei_CBS367.92,SRR9040098.112580543,94.67,75,3,1,178,252,229,302,3e-22,115
Rhinocladiella_mackenziei_CBS367.92,SRR9040098.40986068,94.67,75,3,1,178,252,229,302,3e-22,115
Rhinocladiella_mackenziei_CBS367.92,SRR9040098.83024037,95.71,70,0,2,178,244,221,152,2e-20,110
Rhinocladiella_mackenziei_CBS367.92,SRR9040098.82963391,95.71,70,0,2,178,244,221,152,2e-20,110
Rhinocladiella_mackenziei_CBS367.92,SRR9040098.136344526,100.00,28,0,0,1,28,58,85,0.003,52.8
Rhinocladiella_mackenziei_CBS367.92,SRR9040098.136343461,100.00,28,0,0,1,28,58,85,0.003,52.8
Rhinocladiella_mackenziei_CBS367.92,SRR9040098.98118613,100.00,28,0,0,1,28,58,85,0.003,52.8
Rhinocladiella_mackenziei_CBS367.92,SRR9040098.84129017,100.00,28,0,0,1,28,58,85,0.003,52.8
Rhinocladiella_mackenziei_CBS367.92,SRR9040098.66040362,100.00,28,0,0,1,28,58,85,0.003,52.8
Rhinocladiella_mackenziei_CBS367.92,SRR9040098.26594497,100.00,28,0,0,1,28,58,85,0.003,52.8
Rhinocladiella_mackenziei_CBS367.92,SRR9040098.1804806,100.00,28,0,0,1,28,58,85,0.003,52.8
Rhinocladiella_mackenziei_CBS367.92,SRR9040098.1799186,100.00,28,0,0,1,28,58,85,0.003,52.8
Veronaea_compacta_CBS268.75_T,SRR9040098.83024037,100.00,59,0,0,219,277,210,152,2e-20,110
Veronaea_compacta_CBS268.75_T,SRR9040098.82963391,100.00,59,0,0,219,277,210,152,2e-20,110
Veronaea_compacta_CBS268.75_T,SRR9040098.112580543,96.88,64,2,0,222,285,239,302,6e-20,108
Veronaea_compacta_CBS268.75_T,SRR9040098.40986068,96.88,64,2,0,222,285,239,302,6e-20,108
Veronaea_compacta_CBS268.75_T,SRR9040098.136344526,100.00,29,0,0,1,29,57,85,8e-04,54.7
Veronaea_compacta_CBS268.75_T,SRR9040098.136343461,100.00,29,0,0,1,29,57,85,8e-04,54.7
Veronaea_compacta_CBS268.75_T,SRR9040098.98118613,100.00,29,0,0,1,29,57,85,8e-04,54.7
Veronaea_compacta_CBS268.75_T,SRR9040098.84129017,100.00,29,0,0,1,29,57,85,8e-04,54.7
Veronaea_compacta_CBS268.75_T,SRR9040098.66040362,100.00,29,0,0,1,29,57,85,8e-04,54.7
Veronaea_compacta_CBS268.75_T,SRR9040098.26594497,100.00,29,0,0,1,29,57,85,8e-04,54.7
Veronaea_compacta_CBS268.75_T,SRR9040098.1804806,100.00,29,0,0,1,29,57,85,8e-04,54.7
Veronaea_compacta_CBS268.75_T,SRR9040098.1799186,100.00,29,0,0,1,29,57,85,8e-04,54.7
Capronia_pilosella_AFTOL-ID657,SRR9040098.83024037,97.01,67,2,0,289,355,218,152,1e-21,113
Capronia_pilosella_AFTOL-ID657,SRR9040098.82963391,97.01,67,2,0,289,355,218,152,1e-21,113
Capronia_pilosella_AFTOL-ID657,SRR9040098.112580543,91.36,81,6,1,284,363,222,302,2e-20,110
Capronia_pilosella_AFTOL-ID657,SRR9040098.40986068,91.36,81,6,1,284,363,222,302,2e-20,110
Capronia_pilosella_AFTOL-ID657,SRR9040098.4973112,100.00,42,0,0,642,683,43,84,5e-11,78.7
Capronia_pilosella_AFTOL-ID657,SRR9040098.131064186,100.00,41,0,0,643,683,161,201,2e-10,76.8
Capronia_dactylotricha_DAOM208471_T,SRR9040098.131064186,96.08,102,4,0,557,658,160,261,1e-37,167
Capronia_dactylotricha_DAOM208471_T,SRR9040098.4973112,96.04,101,4,0,558,658,44,144,4e-37,165
Capronia_dactylotricha_DAOM208471_T,SRR9040098.54442300,93.18,88,6,0,571,658,25,112,1e-26,130
Capronia_dactylotricha_DAOM208471_T,SRR9040098.51052131,93.18,88,6,0,571,658,25,112,1e-26,130
Capronia_dactylotricha_DAOM208471_T,SRR9040098.72318995,89.80,98,10,0,561,658,162,259,2e-25,126
Capronia_dactylotricha_DAOM208471_T,SRR9040098.72265027,89.80,98,10,0,561,658,162,259,2e-25,126
Capronia_dactylotricha_DAOM208471_T,SRR9040098.10298029,89.80,98,10,0,561,658,162,259,2e-25,126
Capronia_dactylotricha_DAOM208471_T,SRR9040098.105456515,93.42,76,5,0,583,658,30,105,1e-21,113
Capronia_dactylotricha_DAOM208471_T,SRR9040098.83024037,98.41,63,1,0,195,257,214,152,5e-21,111
Capronia_dactylotricha_DAOM208471_T,SRR9040098.82963391,98.41,63,1,0,195,257,214,152,5e-21,111
Capronia_dactylotricha_DAOM208471_T,SRR9040098.112580543,94.37,71,3,1,196,265,232,302,6e-20,108
Capronia_dactylotricha_DAOM208471_T,SRR9040098.40986068,94.37,71,3,1,196,265,232,302,6e-20,108
Capronia_kleinmondensis_CBS122671_T,SRR9040098.4973112,94.50,109,6,0,556,664,36,144,3e-38,169
Capronia_kleinmondensis_CBS122671_T,SRR9040098.131064186,96.08,102,4,0,563,664,160,261,1e-37,167
Capronia_kleinmondensis_CBS122671_T,SRR9040098.54442300,93.18,88,6,0,577,664,25,112,1e-26,130
Capronia_kleinmondensis_CBS122671_T,SRR9040098.51052131,93.18,88,6,0,577,664,25,112,1e-26,130
Capronia_kleinmondensis_CBS122671_T,SRR9040098.72318995,89.80,98,10,0,567,664,162,259,2e-25,126
Capronia_kleinmondensis_CBS122671_T,SRR9040098.72265027,89.80,98,10,0,567,664,162,259,2e-25,126
Capronia_kleinmondensis_CBS122671_T,SRR9040098.10298029,89.80,98,10,0,567,664,162,259,2e-25,126
Capronia_kleinmondensis_CBS122671_T,SRR9040098.112580543,92.50,80,4,2,212,290,224,302,1e-21,113
Capronia_kleinmondensis_CBS122671_T,SRR9040098.105456515,93.42,76,5,0,589,664,30,105,1e-21,113
Capronia_kleinmondensis_CBS122671_T,SRR9040098.40986068,92.50,80,4,2,212,290,224,302,1e-21,113
Capronia_kleinmondensis_CBS122671_T,SRR9040098.83024037,100.00,59,0,0,224,282,210,152,2e-20,110
Capronia_kleinmondensis_CBS122671_T,SRR9040098.82963391,100.00,59,0,0,224,282,210,152,2e-20,110
Capronia_kleinmondensis_CBS122671_T,SRR9040098.127226462,100.00,35,0,0,1,35,93,59,4e-07,65.8
Capronia_kleinmondensis_CBS122671_T,SRR9040098.127226397,100.00,35,0,0,1,35,93,59,4e-07,65.8
Capronia_kleinmondensis_CBS122671_T,SRR9040098.55536876,100.00,35,0,0,1,35,93,59,4e-07,65.8
Capronia_kleinmondensis_CBS122671_T,SRR9040098.136344526,100.00,30,0,0,1,30,54,83,2e-04,56.5
Capronia_kleinmondensis_CBS122671_T,SRR9040098.136343461,100.00,30,0,0,1,30,54,83,2e-04,56.5
Capronia_kleinmondensis_CBS122671_T,SRR9040098.98118613,100.00,30,0,0,1,30,54,83,2e-04,56.5
Capronia_kleinmondensis_CBS122671_T,SRR9040098.84129017,100.00,30,0,0,1,30,54,83,2e-04,56.5
Capronia_kleinmondensis_CBS122671_T,SRR9040098.66040362,100.00,30,0,0,1,30,54,83,2e-04,56.5
Capronia_kleinmondensis_CBS122671_T,SRR9040098.26594497,100.00,30,0,0,1,30,54,83,2e-04,56.5
Capronia_kleinmondensis_CBS122671_T,SRR9040098.1804806,100.00,30,0,0,1,30,54,83,2e-04,56.5
Capronia_kleinmondensis_CBS122671_T,SRR9040098.1799186,100.00,30,0,0,1,30,54,83,2e-04,56.5
Capronia_mansonii_CBS101.67_T,SRR9040098.4973112,97.06,102,3,0,567,668,43,144,2e-39,172
Capronia_mansonii_CBS101.67_T,SRR9040098.131064186,97.03,101,3,0,568,668,161,261,8e-39,171
Capronia_mansonii_CBS101.67_T,SRR9040098.54442300,94.32,88,5,0,581,668,25,112,3e-28,135
Capronia_mansonii_CBS101.67_T,SRR9040098.51052131,94.32,88,5,0,581,668,25,112,3e-28,135
Capronia_mansonii_CBS101.67_T,SRR9040098.72318995,90.82,98,9,0,571,668,162,259,4e-27,132
Capronia_mansonii_CBS101.67_T,SRR9040098.72265027,90.82,98,9,0,571,668,162,259,4e-27,132
Capronia_mansonii_CBS101.67_T,SRR9040098.10298029,90.82,98,9,0,571,668,162,259,4e-27,132
Capronia_mansonii_CBS101.67_T,SRR9040098.105456515,90.91,88,8,0,581,668,18,105,3e-23,119
Capronia_mansonii_CBS101.67_T,SRR9040098.83024037,100.00,59,0,0,210,268,210,152,2e-20,110
Capronia_mansonii_CBS101.67_T,SRR9040098.82963391,100.00,59,0,0,210,268,210,152,2e-20,110
Capronia_mansonii_CBS101.67_T,SRR9040098.112580543,96.88,64,2,0,213,276,239,302,6e-20,108
Capronia_mansonii_CBS101.67_T,SRR9040098.40986068,96.88,64,2,0,213,276,239,302,6e-20,108
Capronia_munkii_DAOM216390_T,SRR9040098.4973112,96.26,107,3,1,563,668,38,144,6e-40,174
Capronia_munkii_DAOM216390_T,SRR9040098.131064186,97.03,101,3,0,568,668,161,261,8e-39,171
Capronia_munkii_DAOM216390_T,SRR9040098.54442300,94.32,88,5,0,581,668,25,112,3e-28,135
Capronia_munkii_DAOM216390_T,SRR9040098.51052131,94.32,88,5,0,581,668,25,112,3e-28,135
Capronia_munkii_DAOM216390_T,SRR9040098.72318995,90.82,98,9,0,571,668,162,259,4e-27,132
Capronia_munkii_DAOM216390_T,SRR9040098.72265027,90.82,98,9,0,571,668,162,259,4e-27,132
Capronia_munkii_DAOM216390_T,SRR9040098.10298029,90.82,98,9,0,571,668,162,259,4e-27,132
Capronia_munkii_DAOM216390_T,SRR9040098.105456515,90.91,88,8,0,581,668,18,105,3e-23,119
Capronia_munkii_DAOM216390_T,SRR9040098.83024037,100.00,59,0,0,210,268,210,152,2e-20,110
Capronia_munkii_DAOM216390_T,SRR9040098.82963391,100.00,59,0,0,210,268,210,152,2e-20,110
Capronia_munkii_DAOM216390_T,SRR9040098.112580543,96.88,64,2,0,213,276,239,302,6e-20,108
Capronia_munkii_DAOM216390_T,SRR9040098.40986068,96.88,64,2,0,213,276,239,302,6e-20,108
Capronia_coronata_ATCC56201_T,SRR9040098.4973112,96.30,108,4,0,532,639,37,144,5e-41,178
Capronia_coronata_ATCC56201_T,SRR9040098.131064186,97.03,101,3,0,539,639,161,261,8e-39,171
Capronia_coronata_ATCC56201_T,SRR9040098.54442300,94.32,88,5,0,552,639,25,112,3e-28,135
Capronia_coronata_ATCC56201_T,SRR9040098.51052131,94.32,88,5,0,552,639,25,112,3e-28,135
Capronia_coronata_ATCC56201_T,SRR9040098.72318995,90.82,98,9,0,542,639,162,259,4e-27,132
Capronia_coronata_ATCC56201_T,SRR9040098.72265027,90.82,98,9,0,542,639,162,259,4e-27,132
Capronia_coronata_ATCC56201_T,SRR9040098.10298029,90.82,98,9,0,542,639,162,259,4e-27,132
Capronia_coronata_ATCC56201_T,SRR9040098.105456515,90.91,88,8,0,552,639,18,105,3e-23,119
Capronia_coronata_ATCC56201_T,SRR9040098.83024037,97.01,67,2,0,190,256,218,152,1e-21,113
Capronia_coronata_ATCC56201_T,SRR9040098.82963391,97.01,67,2,0,190,256,218,152,1e-21,113
Capronia_coronata_ATCC56201_T,SRR9040098.112580543,96.88,64,2,0,201,264,239,302,6e-20,108
Capronia_coronata_ATCC56201_T,SRR9040098.40986068,96.88,64,2,0,201,264,239,302,6e-20,108
Capronia_parasitica_CBS123.88,SRR9040098.112580543,93.42,76,3,2,197,270,227,302,4e-21,111
Capronia_parasitica_CBS123.88,SRR9040098.40986068,93.42,76,3,2,197,270,227,302,4e-21,111
Capronia_parasitica_CBS123.88,SRR9040098.83024037,98.39,62,0,1,202,262,213,152,6e-20,108
Capronia_parasitica_CBS123.88,SRR9040098.82963391,98.39,62,0,1,202,262,213,152,6e-20,108
Veronaea_japonica_CBS776.83_T,SRR9040098.83024037,100.00,59,0,0,232,290,210,152,2e-20,110
Veronaea_japonica_CBS776.83_T,SRR9040098.82963391,100.00,59,0,0,232,290,210,152,2e-20,110
Veronaea_japonica_CBS776.83_T,SRR9040098.112580543,96.88,64,2,0,235,298,239,302,6e-20,108
Veronaea_japonica_CBS776.83_T,SRR9040098.40986068,96.88,64,2,0,235,298,239,302,6e-20,108
Veronaea_japonica_CBS776.83_T,SRR9040098.136344526,100.00,40,0,0,1,40,46,85,6e-10,75.0
Veronaea_japonica_CBS776.83_T,SRR9040098.136343461,100.00,40,0,0,1,40,46,85,6e-10,75.0
Veronaea_japonica_CBS776.83_T,SRR9040098.127226462,97.67,43,1,0,1,43,101,59,6e-10,75.0
Veronaea_japonica_CBS776.83_T,SRR9040098.127226397,97.67,43,1,0,1,43,101,59,6e-10,75.0
Veronaea_japonica_CBS776.83_T,SRR9040098.98118613,100.00,40,0,0,1,40,46,85,6e-10,75.0
Veronaea_japonica_CBS776.83_T,SRR9040098.84129017,100.00,40,0,0,1,40,46,85,6e-10,75.0
Veronaea_japonica_CBS776.83_T,SRR9040098.66040362,100.00,40,0,0,1,40,46,85,6e-10,75.0
Veronaea_japonica_CBS776.83_T,SRR9040098.55536876,97.67,43,1,0,1,43,101,59,6e-10,75.0
Veronaea_japonica_CBS776.83_T,SRR9040098.26594497,100.00,40,0,0,1,40,46,85,6e-10,75.0
Veronaea_japonica_CBS776.83_T,SRR9040098.1804806,100.00,40,0,0,1,40,46,85,6e-10,75.0
Veronaea_japonica_CBS776.83_T,SRR9040098.1799186,100.00,40,0,0,1,40,46,85,6e-10,75.0
Thysanorea_papuana_CBS212.96_T,SRR9040098.83024037,95.65,69,2,1,196,264,219,152,2e-20,110
Thysanorea_papuana_CBS212.96_T,SRR9040098.82963391,95.65,69,2,1,196,264,219,152,2e-20,110
Thysanorea_papuana_CBS212.96_T,SRR9040098.112580543,96.88,64,2,0,209,272,239,302,6e-20,108
Thysanorea_papuana_CBS212.96_T,SRR9040098.40986068,96.88,64,2,0,209,272,239,302,6e-20,108
Capronia_acutiseta_ATCC56428_T,SRR9040098.4973112,97.22,108,3,0,531,638,37,144,1e-42,183
Capronia_acutiseta_ATCC56428_T,SRR9040098.131064186,95.05,101,5,0,538,638,161,261,2e-35,159
Capronia_acutiseta_ATCC56428_T,SRR9040098.54442300,93.18,88,6,0,551,638,25,112,1e-26,130
Capronia_acutiseta_ATCC56428_T,SRR9040098.51052131,93.18,88,6,0,551,638,25,112,1e-26,130
Capronia_acutiseta_ATCC56428_T,SRR9040098.72318995,89.80,98,10,0,541,638,162,259,2e-25,126
Capronia_acutiseta_ATCC56428_T,SRR9040098.72265027,89.80,98,10,0,541,638,162,259,2e-25,126
Capronia_acutiseta_ATCC56428_T,SRR9040098.10298029,89.80,98,10,0,541,638,162,259,2e-25,126
Capronia_acutiseta_ATCC56428_T,SRR9040098.105456515,93.42,76,5,0,563,638,30,105,1e-21,113
Capronia_acutiseta_ATCC56428_T,SRR9040098.83024037,98.31,59,0,1,200,257,210,152,3e-18,102
Capronia_acutiseta_ATCC56428_T,SRR9040098.82963391,98.31,59,0,1,200,257,210,152,3e-18,102
Fonsecaea_brasiliensis_CBS119710_T,SRR9040098.112580543,95.59,68,2,1,206,272,235,302,5e-20,108
Fonsecaea_brasiliensis_CBS119710_T,SRR9040098.83024037,100.00,58,0,0,207,264,209,152,5e-20,108
Fonsecaea_brasiliensis_CBS119710_T,SRR9040098.82963391,100.00,58,0,0,207,264,209,152,5e-20,108
Fonsecaea_brasiliensis_CBS119710_T,SRR9040098.40986068,95.59,68,2,1,206,272,235,302,5e-20,108
Fonsecaea_pedrosoi_CBS271.37_T,SRR9040098.4973112,94.59,74,3,1,573,645,31,104,1e-21,113
Fonsecaea_pedrosoi_CBS271.37_T,SRR9040098.131064186,98.36,61,1,0,585,645,161,221,6e-20,108
Fonsecaea_pedrosoi_CBS271.37_T,SRR9040098.112580543,95.59,68,2,1,234,300,235,302,6e-20,108
Fonsecaea_pedrosoi_CBS271.37_T,SRR9040098.83024037,100.00,58,0,0,235,292,209,152,6e-20,108
Fonsecaea_pedrosoi_CBS271.37_T,SRR9040098.82963391,100.00,58,0,0,235,292,209,152,6e-20,108
Fonsecaea_pedrosoi_CBS271.37_T,SRR9040098.40986068,95.59,68,2,1,234,300,235,302,6e-20,108
Fonsecaea_pedrosoi_CBS271.37_T,SRR9040098.72318995,93.10,58,4,0,588,645,162,219,3e-13,86.1
Fonsecaea_pedrosoi_CBS271.37_T,SRR9040098.72265027,93.10,58,4,0,588,645,162,219,3e-13,86.1
Fonsecaea_pedrosoi_CBS271.37_T,SRR9040098.10298029,93.10,58,4,0,588,645,162,219,3e-13,86.1
Fonsecaea_pedrosoi_CBS271.37_T,SRR9040098.54442300,95.83,48,2,0,598,645,25,72,5e-11,78.7
Fonsecaea_pedrosoi_CBS271.37_T,SRR9040098.51052131,95.83,48,2,0,598,645,25,72,5e-11,78.7
Fonsecaea_pedrosoi_CBS271.37_T,SRR9040098.105456515,91.67,48,4,0,598,645,18,65,1e-07,67.6
Fonsecaea_pedrosoi_CBS271.37_T,SRR9040098.136344526,100.00,31,0,0,1,31,54,84,6e-05,58.4
Fonsecaea_pedrosoi_CBS271.37_T,SRR9040098.136343461,100.00,31,0,0,1,31,54,84,6e-05,58.4
Fonsecaea_pedrosoi_CBS271.37_T,SRR9040098.98118613,100.00,31,0,0,1,31,54,84,6e-05,58.4
Fonsecaea_pedrosoi_CBS271.37_T,SRR9040098.84129017,100.00,31,0,0,1,31,54,84,6e-05,58.4
Fonsecaea_pedrosoi_CBS271.37_T,SRR9040098.66040362,100.00,31,0,0,1,31,54,84,6e-05,58.4
Fonsecaea_pedrosoi_CBS271.37_T,SRR9040098.26594497,100.00,31,0,0,1,31,54,84,6e-05,58.4
Fonsecaea_pedrosoi_CBS271.37_T,SRR9040098.1804806,100.00,31,0,0,1,31,54,84,6e-05,58.4
Fonsecaea_pedrosoi_CBS271.37_T,SRR9040098.1799186,100.00,31,0,0,1,31,54,84,6e-05,58.4
Fonsecaea_pedrosoi_CBS271.37_T,SRR9040098.127226462,100.00,30,0,0,1,30,93,64,2e-04,56.5
Fonsecaea_pedrosoi_CBS271.37_T,SRR9040098.127226397,100.00,30,0,0,1,30,93,64,2e-04,56.5
Fonsecaea_pedrosoi_CBS271.37_T,SRR9040098.55536876,100.00,30,0,0,1,30,93,64,2e-04,56.5
Fonsecaea_multimorphosa_CBS980.96_T,SRR9040098.112580543,95.59,68,2,1,204,270,235,302,5e-20,108
Fonsecaea_multimorphosa_CBS980.96_T,SRR9040098.83024037,100.00,58,0,0,205,262,209,152,5e-20,108
Fonsecaea_multimorphosa_CBS980.96_T,SRR9040098.82963391,100.00,58,0,0,205,262,209,152,5e-20,108
Fonsecaea_multimorphosa_CBS980.96_T,SRR9040098.40986068,95.59,68,2,1,204,270,235,302,5e-20,108
Fonsecaea_minima_CBS125760_T,SRR9040098.112580543,95.59,68,2,1,200,266,235,302,5e-20,108
Fonsecaea_minima_CBS125760_T,SRR9040098.83024037,100.00,58,0,0,201,258,209,152,5e-20,108
Fonsecaea_minima_CBS125760_T,SRR9040098.82963391,100.00,58,0,0,201,258,209,152,5e-20,108
Fonsecaea_minima_CBS125760_T,SRR9040098.40986068,95.59,68,2,1,200,266,235,302,5e-20,108
Fonsecaea_nubica_CBS269.64_T,SRR9040098.112580543,95.59,68,2,1,211,277,235,302,5e-20,108
Fonsecaea_nubica_CBS269.64_T,SRR9040098.83024037,100.00,58,0,0,212,269,209,152,5e-20,108
Fonsecaea_nubica_CBS269.64_T,SRR9040098.82963391,100.00,58,0,0,212,269,209,152,5e-20,108
Fonsecaea_nubica_CBS269.64_T,SRR9040098.40986068,95.59,68,2,1,211,277,235,302,5e-20,108
Fonsecaea_monophora_CBS269.37_T,SRR9040098.83024037,98.31,59,0,1,212,270,209,152,3e-18,102
Fonsecaea_monophora_CBS269.37_T,SRR9040098.82963391,98.31,59,0,1,212,270,209,152,3e-18,102
Fonsecaea_erecta_CBS125763_T,SRR9040098.112580543,95.59,68,2,1,195,261,235,302,5e-20,108
Fonsecaea_erecta_CBS125763_T,SRR9040098.83024037,100.00,58,0,0,196,253,209,152,5e-20,108
Fonsecaea_erecta_CBS125763_T,SRR9040098.82963391,100.00,58,0,0,196,253,209,152,5e-20,108
Fonsecaea_erecta_CBS125763_T,SRR9040098.40986068,95.59,68,2,1,195,261,235,302,5e-20,108
Fonsecaea_pugnacius_CBS139214_T,SRR9040098.112580543,95.59,68,2,1,204,270,235,302,5e-20,108
Fonsecaea_pugnacius_CBS139214_T,SRR9040098.83024037,100.00,58,0,0,205,262,209,152,5e-20,108
Fonsecaea_pugnacius_CBS139214_T,SRR9040098.82963391,100.00,58,0,0,205,262,209,152,5e-20,108
Fonsecaea_pugnacius_CBS139214_T,SRR9040098.40986068,95.59,68,2,1,204,270,235,302,5e-20,108
Cladophialophora_psammophila_CBS,SRR9040098.112580543,95.59,68,2,1,210,276,235,302,5e-20,108
Cladophialophora_psammophila_CBS,SRR9040098.83024037,100.00,58,0,0,211,268,209,152,5e-20,108
Cladophialophora_psammophila_CBS,SRR9040098.82963391,100.00,58,0,0,211,268,209,152,5e-20,108
Cladophialophora_psammophila_CBS,SRR9040098.40986068,95.59,68,2,1,210,276,235,302,5e-20,108
Cladophialophora_devriesii_CBS,SRR9040098.112580543,95.59,68,2,1,206,272,235,302,5e-20,108
Cladophialophora_devriesii_CBS,SRR9040098.83024037,100.00,58,0,0,207,264,209,152,5e-20,108
Cladophialophora_devriesii_CBS,SRR9040098.82963391,100.00,58,0,0,207,264,209,152,5e-20,108
Cladophialophora_devriesii_CBS,SRR9040098.40986068,95.59,68,2,1,206,272,235,302,5e-20,108
Cladophialophora_immunda_CBS834.96,SRR9040098.112580543,95.59,68,2,1,208,274,235,302,5e-20,108
Cladophialophora_immunda_CBS834.96,SRR9040098.83024037,100.00,58,0,0,209,266,209,152,5e-20,108
Cladophialophora_immunda_CBS834.96,SRR9040098.82963391,100.00,58,0,0,209,266,209,152,5e-20,108
Cladophialophora_immunda_CBS834.96,SRR9040098.40986068,95.59,68,2,1,208,274,235,302,5e-20,108
Cladophialophora_arxii_CBS306.94_T,SRR9040098.112580543,95.59,68,2,1,210,276,235,302,5e-20,108
Cladophialophora_arxii_CBS306.94_T,SRR9040098.83024037,100.00,58,0,0,211,268,209,152,5e-20,108
Cladophialophora_arxii_CBS306.94_T,SRR9040098.82963391,100.00,58,0,0,211,268,209,152,5e-20,108
Cladophialophora_arxii_CBS306.94_T,SRR9040098.40986068,95.59,68,2,1,210,276,235,302,5e-20,108
Cladophialophora_bantiana_CBS173.52,SRR9040098.112580543,95.59,68,2,1,204,270,235,302,5e-20,108
Cladophialophora_bantiana_CBS173.52,SRR9040098.83024037,100.00,58,0,0,205,262,209,152,5e-20,108
Cladophialophora_bantiana_CBS173.52,SRR9040098.82963391,100.00,58,0,0,205,262,209,152,5e-20,108
Cladophialophora_bantiana_CBS173.52,SRR9040098.40986068,95.59,68,2,1,204,270,235,302,5e-20,108
Cladophialophora_emmonsii_CBS102594,SRR9040098.112580543,95.59,68,2,1,195,261,235,302,5e-20,108
Cladophialophora_emmonsii_CBS102594,SRR9040098.83024037,100.00,58,0,0,196,253,209,152,5e-20,108
Cladophialophora_emmonsii_CBS102594,SRR9040098.82963391,100.00,58,0,0,196,253,209,152,5e-20,108
Cladophialophora_emmonsii_CBS102594,SRR9040098.40986068,95.59,68,2,1,195,261,235,302,5e-20,108
Cladophialophora_minourae_CBS556.83,SRR9040098.112580543,89.89,89,7,1,181,269,216,302,1e-21,113
Cladophialophora_minourae_CBS556.83,SRR9040098.40986068,89.89,89,7,1,181,269,216,302,1e-21,113
Cladophialophora_minourae_CBS556.83,SRR9040098.83024037,100.00,58,0,0,204,261,209,152,5e-20,108
Cladophialophora_minourae_CBS556.83,SRR9040098.82963391,100.00,58,0,0,204,261,209,152,5e-20,108
Cladophialophora_australiensis_CBS112793,SRR9040098.135321516,99.35,155,0,1,801,954,148,302,3e-71,279
Cladophialophora_australiensis_CBS112793,SRR9040098.135321516,96.03,151,6,0,1220,1370,151,1,3e-61,246
Cladophialophora_australiensis_CBS112793,SRR9040098.35600762,99.35,155,0,1,801,954,148,302,3e-71,279
Cladophialophora_australiensis_CBS112793,SRR9040098.35600762,96.03,151,6,0,1220,1370,151,1,3e-61,246
Cladophialophora_australiensis_CBS112793,SRR9040098.118037964,98.63,146,2,0,1326,1471,1,146,4e-65,259
Cladophialophora_australiensis_CBS112793,SRR9040098.118003687,98.63,146,2,0,1326,1471,1,146,4e-65,259
Cladophialophora_australiensis_CBS112793,SRR9040098.131064186,96.24,133,5,0,546,678,161,293,6e-53,219
Cladophialophora_australiensis_CBS112793,SRR9040098.141030409,94.24,139,8,0,849,987,1,139,3e-51,213
Cladophialophora_australiensis_CBS112793,SRR9040098.92058211,94.24,139,8,0,849,987,1,139,3e-51,213
Cladophialophora_australiensis_CBS112793,SRR9040098.139530809,91.56,154,9,3,1314,1465,1,152,4e-50,209
Cladophialophora_australiensis_CBS112793,SRR9040098.67721381,91.56,154,9,3,1314,1465,1,152,4e-50,209
Cladophialophora_australiensis_CBS112793,SRR9040098.47998800,91.56,154,9,3,1314,1465,1,152,4e-50,209
Cladophialophora_australiensis_CBS112793,SRR9040098.47998624,91.56,154,9,3,1314,1465,1,152,4e-50,209
Cladophialophora_australiensis_CBS112793,SRR9040098.47969128,91.56,154,9,3,1314,1465,1,152,4e-50,209
Cladophialophora_australiensis_CBS112793,SRR9040098.47968471,91.56,154,9,3,1314,1465,1,152,4e-50,209
Cladophialophora_australiensis_CBS112793,SRR9040098.100935405,91.33,150,13,0,795,944,2,151,5e-49,206
Cladophialophora_australiensis_CBS112793,SRR9040098.47998686,90.91,154,10,3,1314,1465,1,152,2e-48,204
Cladophialophora_australiensis_CBS112793,SRR9040098.118111163,96.43,112,4,0,1360,1471,151,262,7e-43,185
Cladophialophora_australiensis_CBS112793,SRR9040098.4973112,98.10,105,2,0,883,987,302,198,2e-42,183
Cladophialophora_australiensis_CBS112793,SRR9040098.4973112,95.54,112,4,1,540,650,37,148,1e-40,178
Cladophialophora_australiensis_CBS112793,SRR9040098.84538950,87.84,148,16,2,1066,1212,299,153,5e-39,172
Cladophialophora_australiensis_CBS112793,SRR9040098.84538950,87.67,146,16,2,1068,1212,1,145,7e-38,169
Cladophialophora_australiensis_CBS112793,SRR9040098.54442300,92.31,117,9,0,559,675,25,141,2e-37,167
Cladophialophora_australiensis_CBS112793,SRR9040098.51052131,92.31,117,9,0,559,675,25,141,2e-37,167
Cladophialophora_australiensis_CBS112793,SRR9040098.122217413,92.04,113,9,0,882,994,152,264,4e-35,159
Cladophialophora_australiensis_CBS112793,SRR9040098.122194282,92.04,113,9,0,882,994,152,264,4e-35,159
Cladophialophora_australiensis_CBS112793,SRR9040098.84722816,92.04,113,9,0,882,994,152,264,4e-35,159
Cladophialophora_australiensis_CBS112793,SRR9040098.84722761,92.04,113,9,0,882,994,152,264,4e-35,159
Cladophialophora_australiensis_CBS112793,SRR9040098.84722569,92.04,113,9,0,882,994,152,264,4e-35,159
Cladophialophora_australiensis_CBS112793,SRR9040098.72265027,88.98,127,14,0,549,675,162,288,1e-34,158
Cladophialophora_australiensis_CBS112793,SRR9040098.10298029,88.98,127,14,0,549,675,162,288,1e-34,158
Cladophialophora_australiensis_CBS112793,SRR9040098.131595095,91.15,113,10,0,882,994,152,264,2e-33,154
Cladophialophora_australiensis_CBS112793,SRR9040098.72318995,88.19,127,15,0,549,675,162,288,7e-33,152
Cladophialophora_australiensis_CBS112793,SRR9040098.105456515,88.89,117,13,0,559,675,18,134,1e-30,145
Cladophialophora_australiensis_CBS112793,SRR9040098.127619092,82.89,152,22,4,1245,1394,3,152,2e-27,134
Cladophialophora_australiensis_CBS112793,SRR9040098.56502227,86.84,114,15,0,790,903,114,1,1e-25,128
Cladophialophora_australiensis_CBS112793,SRR9040098.128589664,93.98,83,5,0,1387,1469,302,220,4e-25,126
Cladophialophora_australiensis_CBS112793,SRR9040098.102580830,92.50,80,6,0,1128,1207,242,163,9e-22,115
Cladophialophora_australiensis_CBS112793,SRR9040098.21605821,84.48,116,17,1,1153,1268,36,150,3e-21,113
Cladophialophora_australiensis_CBS112793,SRR9040098.16152204,84.48,116,17,1,1153,1268,36,150,3e-21,113
Cladophialophora_australiensis_CBS112793,SRR9040098.112580543,93.42,76,4,1,197,271,227,302,1e-20,111
Cladophialophora_australiensis_CBS112793,SRR9040098.40986068,93.42,76,4,1,197,271,227,302,1e-20,111
Cladophialophora_australiensis_CBS112793,SRR9040098.83024037,100.00,58,0,0,206,263,209,152,1e-19,108
Cladophialophora_australiensis_CBS112793,SRR9040098.82963391,100.00,58,0,0,206,263,209,152,1e-19,108
Cladophialophora_australiensis_CBS112793,SRR9040098.130086312,91.89,74,6,0,1395,1468,151,78,2e-18,104
Cladophialophora_australiensis_CBS112793,SRR9040098.95936768,91.89,74,6,0,1395,1468,151,78,2e-18,104
Cladophialophora_australiensis_CBS112793,SRR9040098.58034272,91.89,74,6,0,1395,1468,151,78,2e-18,104
Cladophialophora_australiensis_CBS112793,SRR9040098.87134068,76.98,139,31,1,1153,1291,165,302,1e-10,78.7
Cladophialophora_potulentorum_CBS112222,SRR9040098.135321516,99.35,155,0,1,803,956,148,302,3e-71,279
Cladophialophora_potulentorum_CBS112222,SRR9040098.135321516,96.69,151,5,0,1222,1372,151,1,6e-63,252
Cladophialophora_potulentorum_CBS112222,SRR9040098.35600762,99.35,155,0,1,803,956,148,302,3e-71,279
Cladophialophora_potulentorum_CBS112222,SRR9040098.35600762,96.69,151,5,0,1222,1372,151,1,6e-63,252
Cladophialophora_potulentorum_CBS112222,SRR9040098.118037964,98.68,151,2,0,1328,1478,1,151,6e-68,268
Cladophialophora_potulentorum_CBS112222,SRR9040098.118003687,98.68,151,2,0,1328,1478,1,151,6e-68,268
Cladophialophora_potulentorum_CBS112222,SRR9040098.141030409,94.96,139,7,0,851,989,1,139,7e-53,219
Cladophialophora_potulentorum_CBS112222,SRR9040098.131064186,96.24,133,5,0,548,680,161,293,7e-53,219
Cladophialophora_potulentorum_CBS112222,SRR9040098.92058211,94.96,139,7,0,851,989,1,139,7e-53,219
Cladophialophora_potulentorum_CBS112222,SRR9040098.139530809,91.56,154,9,3,1316,1467,1,152,4e-50,209
Cladophialophora_potulentorum_CBS112222,SRR9040098.67721381,91.56,154,9,3,1316,1467,1,152,4e-50,209
Cladophialophora_potulentorum_CBS112222,SRR9040098.47998800,91.56,154,9,3,1316,1467,1,152,4e-50,209
Cladophialophora_potulentorum_CBS112222,SRR9040098.47998624,91.56,154,9,3,1316,1467,1,152,4e-50,209
Cladophialophora_potulentorum_CBS112222,SRR9040098.47969128,91.56,154,9,3,1316,1467,1,152,4e-50,209
Cladophialophora_potulentorum_CBS112222,SRR9040098.47968471,91.56,154,9,3,1316,1467,1,152,4e-50,209
Cladophialophora_potulentorum_CBS112222,SRR9040098.118111163,94.70,132,7,0,1362,1493,151,282,5e-49,206
Cladophialophora_potulentorum_CBS112222,SRR9040098.100935405,91.33,150,13,0,797,946,2,151,5e-49,206
Cladophialophora_potulentorum_CBS112222,SRR9040098.47998686,90.91,154,10,3,1316,1467,1,152,2e-48,204
Cladophialophora_potulentorum_CBS112222,SRR9040098.4973112,92.86,140,10,0,885,1024,302,163,2e-48,204
Cladophialophora_potulentorum_CBS112222,SRR9040098.4973112,96.26,107,4,0,546,652,42,148,4e-40,176
Cladophialophora_potulentorum_CBS112222,SRR9040098.84538950,89.80,147,15,0,1068,1214,299,153,5e-44,189
Cladophialophora_potulentorum_CBS112222,SRR9040098.84538950,89.66,145,15,0,1070,1214,1,145,7e-43,185
Cladophialophora_potulentorum_CBS112222,SRR9040098.54442300,92.31,117,9,0,561,677,25,141,2e-37,167
Cladophialophora_potulentorum_CBS112222,SRR9040098.51052131,92.31,117,9,0,561,677,25,141,2e-37,167
Cladophialophora_potulentorum_CBS112222,SRR9040098.122217413,92.92,113,8,0,884,996,152,264,9e-37,165
Cladophialophora_potulentorum_CBS112222,SRR9040098.122194282,92.92,113,8,0,884,996,152,264,9e-37,165
Cladophialophora_potulentorum_CBS112222,SRR9040098.84722816,92.92,113,8,0,884,996,152,264,9e-37,165
Cladophialophora_potulentorum_CBS112222,SRR9040098.84722761,92.92,113,8,0,884,996,152,264,9e-37,165
Cladophialophora_potulentorum_CBS112222,SRR9040098.84722569,92.92,113,8,0,884,996,152,264,9e-37,165
Cladophialophora_potulentorum_CBS112222,SRR9040098.131595095,92.04,113,9,0,884,996,152,264,4e-35,159
Cladophialophora_potulentorum_CBS112222,SRR9040098.72265027,88.98,127,14,0,551,677,162,288,1e-34,158
Cladophialophora_potulentorum_CBS112222,SRR9040098.10298029,88.98,127,14,0,551,677,162,288,1e-34,158
Cladophialophora_potulentorum_CBS112222,SRR9040098.72318995,88.19,127,15,0,551,677,162,288,7e-33,152
Cladophialophora_potulentorum_CBS112222,SRR9040098.105456515,88.89,117,13,0,561,677,18,134,1e-30,145
Cladophialophora_potulentorum_CBS112222,SRR9040098.128589664,92.00,100,8,0,1389,1488,302,203,1e-29,141
Cladophialophora_potulentorum_CBS112222,SRR9040098.127619092,82.89,152,22,4,1247,1396,3,152,2e-27,134
Cladophialophora_potulentorum_CBS112222,SRR9040098.56502227,86.84,114,15,0,792,905,114,1,1e-25,128
Cladophialophora_potulentorum_CBS112222,SRR9040098.130086312,90.22,92,9,0,1397,1488,151,60,2e-23,121
Cladophialophora_potulentorum_CBS112222,SRR9040098.95936768,90.22,92,9,0,1397,1488,151,60,2e-23,121
Cladophialophora_potulentorum_CBS112222,SRR9040098.58034272,90.22,92,9,0,1397,1488,151,60,2e-23,121
Cladophialophora_potulentorum_CBS112222,SRR9040098.21605821,84.48,116,17,1,1155,1270,36,150,3e-21,113
Cladophialophora_potulentorum_CBS112222,SRR9040098.16152204,84.48,116,17,1,1155,1270,36,150,3e-21,113
Cladophialophora_potulentorum_CBS112222,SRR9040098.102580830,85.32,109,15,1,1101,1209,270,163,1e-20,111
Cladophialophora_potulentorum_CBS112222,SRR9040098.83024037,100.00,59,0,0,204,262,210,152,4e-20,110
Cladophialophora_potulentorum_CBS112222,SRR9040098.82963391,100.00,59,0,0,204,262,210,152,4e-20,110
Cladophialophora_potulentorum_CBS112222,SRR9040098.112580543,96.88,64,2,0,207,270,239,302,1e-19,108
Cladophialophora_potulentorum_CBS112222,SRR9040098.40986068,96.88,64,2,0,207,270,239,302,1e-19,108
Cladophialophora_potulentorum_CBS112222,SRR9040098.87134068,78.42,139,29,1,1155,1293,165,302,5e-14,89.8
Cladophialophora_matsushimae_CMRP1198,SRR9040098.83024037,95.95,74,1,2,193,266,223,152,2e-23,119
Cladophialophora_matsushimae_CMRP1198,SRR9040098.82963391,95.95,74,1,2,193,266,223,152,2e-23,119
Cladophialophora_matsushimae_CMRP1198,SRR9040098.112580543,96.88,64,2,0,211,274,239,302,5e-20,108
Cladophialophora_matsushimae_CMRP1198,SRR9040098.40986068,96.88,64,2,0,211,274,239,302,5e-20,108
Cladophialophora_mycetomatis_CBS122637,SRR9040098.83024037,95.89,73,1,2,179,251,222,152,9e-23,117
Cladophialophora_mycetomatis_CBS122637,SRR9040098.82963391,95.89,73,1,2,179,251,222,152,9e-23,117
Cladophialophora_mycetomatis_CBS122637,SRR9040098.112580543,96.88,64,2,0,196,259,239,302,5e-20,108
Cladophialophora_mycetomatis_CBS122637,SRR9040098.40986068,96.88,64,2,0,196,259,239,302,5e-20,108
Cladophialophora_chaetospira_CBS127573,SRR9040098.83024037,94.12,68,3,1,590,657,218,152,4e-18,102
Cladophialophora_chaetospira_CBS127573,SRR9040098.82963391,94.12,68,3,1,590,657,218,152,4e-18,102
Cladophialophora_chaetospira_CBS127573,SRR9040098.112580543,95.08,61,3,0,605,665,242,302,2e-16,97.1
Cladophialophora_chaetospira_CBS127573,SRR9040098.40986068,95.08,61,3,0,605,665,242,302,2e-16,97.1
Cladophialophora_chaetospira_CBS127573,SRR9040098.136344526,100.00,33,0,0,379,411,53,85,7e-06,62.1
Cladophialophora_chaetospira_CBS127573,SRR9040098.136343461,100.00,33,0,0,379,411,53,85,7e-06,62.1
Cladophialophora_chaetospira_CBS127573,SRR9040098.127226462,97.22,36,1,0,379,414,94,59,7e-06,62.1
Cladophialophora_chaetospira_CBS127573,SRR9040098.127226397,97.22,36,1,0,379,414,94,59,7e-06,62.1
Cladophialophora_chaetospira_CBS127573,SRR9040098.98118613,100.00,33,0,0,379,411,53,85,7e-06,62.1
Cladophialophora_chaetospira_CBS127573,SRR9040098.84129017,100.00,33,0,0,379,411,53,85,7e-06,62.1
Cladophialophora_chaetospira_CBS127573,SRR9040098.66040362,100.00,33,0,0,379,411,53,85,7e-06,62.1
Cladophialophora_chaetospira_CBS127573,SRR9040098.55536876,97.22,36,1,0,379,414,94,59,7e-06,62.1
Cladophialophora_chaetospira_CBS127573,SRR9040098.26594497,100.00,33,0,0,379,411,53,85,7e-06,62.1
Cladophialophora_chaetospira_CBS127573,SRR9040098.1804806,100.00,33,0,0,379,411,53,85,7e-06,62.1
Cladophialophora_chaetospira_CBS127573,SRR9040098.1799186,100.00,33,0,0,379,411,53,85,7e-06,62.1
Cladophialophora_boppii_CBS126.86_T,SRR9040098.83024037,100.00,59,0,0,201,259,210,152,1e-20,110
Cladophialophora_boppii_CBS126.86_T,SRR9040098.82963391,100.00,59,0,0,201,259,210,152,1e-20,110
Cladophialophora_boppii_CBS126.86_T,SRR9040098.112580543,96.88,64,2,0,204,267,239,302,5e-20,108
Cladophialophora_boppii_CBS126.86_T,SRR9040098.40986068,96.88,64,2,0,204,267,239,302,5e-20,108
Cladophialophora_abundans_CBS126736,SRR9040098.83024037,100.00,59,0,0,138,196,210,152,1e-20,110
Cladophialophora_abundans_CBS126736,SRR9040098.82963391,100.00,59,0,0,138,196,210,152,1e-20,110
Cladophialophora_abundans_CBS126736,SRR9040098.112580543,96.88,64,2,0,141,204,239,302,5e-20,108
Cladophialophora_abundans_CBS126736,SRR9040098.40986068,96.88,64,2,0,141,204,239,302,5e-20,108
Capronia_semi-immersa_CBS102234,SRR9040098.112580543,91.36,81,5,1,186,266,224,302,1e-20,110
Capronia_semi-immersa_CBS102234,SRR9040098.40986068,91.36,81,5,1,186,266,224,302,1e-20,110
Capronia_semi-immersa_CBS102234,SRR9040098.83024037,100.00,58,0,0,201,258,209,152,5e-20,108
Capronia_semi-immersa_CBS102234,SRR9040098.82963391,100.00,58,0,0,201,258,209,152,5e-20,108
Phialophora_americana_CBS400.67,SRR9040098.135321516,98.11,159,1,2,792,948,144,302,4e-70,276
Phialophora_americana_CBS400.67,SRR9040098.135321516,96.03,151,6,0,1214,1364,151,1,3e-61,246
Phialophora_americana_CBS400.67,SRR9040098.35600762,98.11,159,1,2,792,948,144,302,4e-70,276
Phialophora_americana_CBS400.67,SRR9040098.35600762,96.03,151,6,0,1214,1364,151,1,3e-61,246
Phialophora_americana_CBS400.67,SRR9040098.118037964,99.21,126,1,0,1320,1445,1,126,1e-55,228
Phialophora_americana_CBS400.67,SRR9040098.118003687,99.21,126,1,0,1320,1445,1,126,1e-55,228
Phialophora_americana_CBS400.67,SRR9040098.131064186,96.24,133,5,0,540,672,161,293,6e-53,219
Phialophora_americana_CBS400.67,SRR9040098.141030409,94.24,139,8,0,843,981,1,139,3e-51,213
Phialophora_americana_CBS400.67,SRR9040098.92058211,94.24,139,8,0,843,981,1,139,3e-51,213
Phialophora_americana_CBS400.67,SRR9040098.100935405,90.07,151,15,0,788,938,1,151,3e-46,196
Phialophora_americana_CBS400.67,SRR9040098.4973112,91.43,140,12,0,877,1016,302,163,4e-45,193
Phialophora_americana_CBS400.67,SRR9040098.4973112,94.74,114,5,1,531,644,36,148,4e-40,176
Phialophora_americana_CBS400.67,SRR9040098.139530809,91.43,140,8,3,1308,1445,1,138,5e-44,189
Phialophora_americana_CBS400.67,SRR9040098.67721381,91.43,140,8,3,1308,1445,1,138,5e-44,189
Phialophora_americana_CBS400.67,SRR9040098.47998800,91.43,140,8,3,1308,1445,1,138,5e-44,189
Phialophora_americana_CBS400.67,SRR9040098.47998624,91.43,140,8,3,1308,1445,1,138,5e-44,189
Phialophora_americana_CBS400.67,SRR9040098.47969128,91.43,140,8,3,1308,1445,1,138,5e-44,189
Phialophora_americana_CBS400.67,SRR9040098.47968471,91.43,140,8,3,1308,1445,1,138,5e-44,189
Phialophora_americana_CBS400.67,SRR9040098.47998686,90.71,140,9,3,1308,1445,1,138,2e-42,183
Phialophora_americana_CBS400.67,SRR9040098.84538950,87.92,149,16,2,1062,1209,1,148,1e-39,174
Phialophora_americana_CBS400.67,SRR9040098.84538950,87.92,149,16,2,1060,1207,299,152,1e-39,174
Phialophora_americana_CBS400.67,SRR9040098.56502227,93.64,110,4,2,601,710,152,258,1e-35,161
Phialophora_americana_CBS400.67,SRR9040098.56502227,86.84,114,15,0,784,897,114,1,1e-25,128
Phialophora_americana_CBS400.67,SRR9040098.122217413,93.40,106,7,0,876,981,152,257,1e-34,158
Phialophora_americana_CBS400.67,SRR9040098.122194282,93.40,106,7,0,876,981,152,257,1e-34,158
Phialophora_americana_CBS400.67,SRR9040098.84722816,93.40,106,7,0,876,981,152,257,1e-34,158
Phialophora_americana_CBS400.67,SRR9040098.84722761,93.40,106,7,0,876,981,152,257,1e-34,158
Phialophora_americana_CBS400.67,SRR9040098.84722569,93.40,106,7,0,876,981,152,257,1e-34,158
Phialophora_americana_CBS400.67,SRR9040098.131595095,92.45,106,8,0,876,981,152,257,7e-33,152
Phialophora_americana_CBS400.67,SRR9040098.118111163,95.65,92,4,0,1354,1445,151,242,8e-32,148
Phialophora_americana_CBS400.67,SRR9040098.85954462,85.03,147,19,2,818,962,3,148,3e-31,147
Phialophora_americana_CBS400.67,SRR9040098.14392803,85.03,147,19,2,818,962,3,148,3e-31,147
Phialophora_americana_CBS400.67,SRR9040098.127619092,82.89,152,22,4,1239,1388,3,152,2e-27,134
Phialophora_americana_CBS400.67,SRR9040098.21605821,86.21,116,15,1,1147,1262,36,150,1e-24,124
Phialophora_americana_CBS400.67,SRR9040098.16152204,86.21,116,15,1,1147,1262,36,150,1e-24,124
Phialophora_americana_CBS400.67,SRR9040098.102580830,82.52,143,22,3,1059,1201,302,163,5e-24,122
Phialophora_americana_CBS400.67,SRR9040098.112580543,89.89,89,7,1,180,268,216,302,3e-21,113
Phialophora_americana_CBS400.67,SRR9040098.40986068,89.89,89,7,1,180,268,216,302,3e-21,113
Phialophora_americana_CBS400.67,SRR9040098.83024037,100.00,58,0,0,203,260,209,152,1e-19,108
Phialophora_americana_CBS400.67,SRR9040098.82963391,100.00,58,0,0,203,260,209,152,1e-19,108
Phialophora_americana_CBS400.67,SRR9040098.87134068,77.70,139,30,1,1147,1285,165,302,2e-12,84.2
Phialophora_verrucosa_CBS140325_T,SRR9040098.112580543,91.36,81,5,1,192,272,224,302,2e-20,110
Phialophora_verrucosa_CBS140325_T,SRR9040098.40986068,91.36,81,5,1,192,272,224,302,2e-20,110
Phialophora_verrucosa_CBS140325_T,SRR9040098.83024037,100.00,58,0,0,207,264,209,152,6e-20,108
Phialophora_verrucosa_CBS140325_T,SRR9040098.82963391,100.00,58,0,0,207,264,209,152,6e-20,108
Phialophora_verrucosa_CBS140325_T,SRR9040098.4973112,97.73,44,1,0,543,586,41,84,2e-10,76.8
Phialophora_verrucosa_CBS140325_T,SRR9040098.131064186,97.56,41,1,0,546,586,161,201,7e-09,71.3
Cladophialophora_samoensis_CBS259.83_T,SRR9040098.112580543,95.65,69,2,1,205,272,234,302,1e-20,110
Cladophialophora_samoensis_CBS259.83_T,SRR9040098.40986068,95.65,69,2,1,205,272,234,302,1e-20,110
Cladophialophora_samoensis_CBS259.83_T,SRR9040098.83024037,100.00,58,0,0,207,264,209,152,5e-20,108
Cladophialophora_samoensis_CBS259.83_T,SRR9040098.82963391,100.00,58,0,0,207,264,209,152,5e-20,108
Cladophialophora_carrionii_CBS260.83,SRR9040098.112580543,95.65,69,2,1,221,288,234,302,2e-20,110
Cladophialophora_carrionii_CBS260.83,SRR9040098.40986068,95.65,69,2,1,221,288,234,302,2e-20,110
Cladophialophora_carrionii_CBS260.83,SRR9040098.83024037,100.00,58,0,0,223,280,209,152,6e-20,108
Cladophialophora_carrionii_CBS260.83,SRR9040098.82963391,100.00,58,0,0,223,280,209,152,6e-20,108
Cladophialophora_carrionii_CBS260.83,SRR9040098.4973112,96.55,58,1,1,552,608,36,93,5e-16,95.3
Cladophialophora_carrionii_CBS260.83,SRR9040098.131064186,98.00,50,1,0,559,608,161,210,8e-14,87.9
Exophiala_palmae_UPCB86822_T,SRR9040098.83024037,100.00,59,0,0,165,223,210,152,1e-20,110
Exophiala_palmae_UPCB86822_T,SRR9040098.82963391,100.00,59,0,0,165,223,210,152,1e-20,110
Exophiala_palmae_UPCB86822_T,SRR9040098.112580543,96.88,64,2,0,168,231,239,302,5e-20,108
Exophiala_palmae_UPCB86822_T,SRR9040098.40986068,96.88,64,2,0,168,231,239,302,5e-20,108
Cladophialophora_yegresii_CBS114405_T,SRR9040098.112580543,95.65,69,2,1,206,273,234,302,1e-20,110
Cladophialophora_yegresii_CBS114405_T,SRR9040098.40986068,95.65,69,2,1,206,273,234,302,1e-20,110
Cladophialophora_yegresii_CBS114405_T,SRR9040098.83024037,100.00,58,0,0,208,265,209,152,5e-20,108
Cladophialophora_yegresii_CBS114405_T,SRR9040098.82963391,100.00,58,0,0,208,265,209,152,5e-20,108
Knufia_epidermidis_CBS120353_T,SRR9040098.112580543,91.57,83,5,2,189,271,222,302,1e-21,113
Knufia_epidermidis_CBS120353_T,SRR9040098.40986068,91.57,83,5,2,189,271,222,302,1e-21,113
Knufia_epidermidis_CBS120353_T,SRR9040098.83024037,100.00,59,0,0,205,263,210,152,1e-20,110
Knufia_epidermidis_CBS120353_T,SRR9040098.82963391,100.00,59,0,0,205,263,210,152,1e-20,110
Arthrocladium_fulminans_CBS136243_T,SRR9040098.112580543,85.34,116,9,8,154,266,192,302,1e-21,113
Arthrocladium_fulminans_CBS136243_T,SRR9040098.40986068,85.34,116,9,8,154,266,192,302,1e-21,113
Arthrocladium_fulminans_CBS136243_T,SRR9040098.83024037,100.00,59,0,0,200,258,210,152,1e-20,110
Arthrocladium_fulminans_CBS136243_T,SRR9040098.82963391,100.00,59,0,0,200,258,210,152,1e-20,110
Arthrocladium_fulminans_CBS136243_T,SRR9040098.4973112,97.14,35,0,1,527,560,37,71,5e-05,58.4
Arthrocladium_fulminans_CBS136243_T,SRR9040098.131064186,100.00,29,0,0,532,560,160,188,7e-04,54.7
Anthopsis_deltoidea_CBS263.77_T,SRR9040098.112580543,93.42,76,4,1,201,275,227,302,4e-21,111
Anthopsis_deltoidea_CBS263.77_T,SRR9040098.40986068,93.42,76,4,1,201,275,227,302,4e-21,111
Anthopsis_deltoidea_CBS263.77_T,SRR9040098.83024037,100.00,58,0,0,210,267,209,152,5e-20,108
Anthopsis_deltoidea_CBS263.77_T,SRR9040098.82963391,100.00,58,0,0,210,267,209,152,5e-20,108
Cyphellophora_laciniata_CBS190.61_T,SRR9040098.4973112,98.06,103,2,0,633,735,42,144,1e-41,180
Cyphellophora_laciniata_CBS190.61_T,SRR9040098.131064186,98.02,101,2,0,635,735,161,261,2e-40,176
Cyphellophora_laciniata_CBS190.61_T,SRR9040098.127226397,96.70,91,3,0,15,105,149,59,3e-33,152
Cyphellophora_laciniata_CBS190.61_T,SRR9040098.55536876,96.70,91,3,0,15,105,149,59,3e-33,152
Cyphellophora_laciniata_CBS190.61_T,SRR9040098.127226462,95.60,91,4,0,15,105,149,59,2e-31,147
Cyphellophora_laciniata_CBS190.61_T,SRR9040098.136344526,97.59,83,2,0,18,100,1,83,2e-30,143
Cyphellophora_laciniata_CBS190.61_T,SRR9040098.136343461,97.59,83,2,0,18,100,1,83,2e-30,143
Cyphellophora_laciniata_CBS190.61_T,SRR9040098.98118613,97.59,83,2,0,18,100,1,83,2e-30,143
Cyphellophora_laciniata_CBS190.61_T,SRR9040098.84129017,97.59,83,2,0,18,100,1,83,2e-30,143
Cyphellophora_laciniata_CBS190.61_T,SRR9040098.66040362,97.59,83,2,0,18,100,1,83,2e-30,143
Cyphellophora_laciniata_CBS190.61_T,SRR9040098.26594497,97.59,83,2,0,18,100,1,83,2e-30,143
Cyphellophora_laciniata_CBS190.61_T,SRR9040098.1804806,97.59,83,2,0,18,100,1,83,2e-30,143
Cyphellophora_laciniata_CBS190.61_T,SRR9040098.1799186,97.59,83,2,0,18,100,1,83,2e-30,143
Cyphellophora_laciniata_CBS190.61_T,SRR9040098.54442300,95.45,88,4,0,648,735,25,112,7e-30,141
Cyphellophora_laciniata_CBS190.61_T,SRR9040098.51052131,95.45,88,4,0,648,735,25,112,7e-30,141
Cyphellophora_laciniata_CBS190.61_T,SRR9040098.72318995,91.84,98,8,0,638,735,162,259,9e-29,137
Cyphellophora_laciniata_CBS190.61_T,SRR9040098.72265027,91.84,98,8,0,638,735,162,259,9e-29,137
Cyphellophora_laciniata_CBS190.61_T,SRR9040098.10298029,91.84,98,8,0,638,735,162,259,9e-29,137
Cyphellophora_laciniata_CBS190.61_T,SRR9040098.105456515,92.05,88,7,0,648,735,18,105,7e-25,124
Cyphellophora_laciniata_CBS190.61_T,SRR9040098.83024037,90.32,93,9,0,15,107,54,146,3e-24,122
Cyphellophora_laciniata_CBS190.61_T,SRR9040098.83024037,91.95,87,5,2,266,352,236,152,9e-24,121
Cyphellophora_laciniata_CBS190.61_T,SRR9040098.82963391,90.32,93,9,0,15,107,54,146,3e-24,122
Cyphellophora_laciniata_CBS190.61_T,SRR9040098.82963391,91.95,87,5,2,266,352,236,152,9e-24,121
Cyphellophora_laciniata_CBS190.61_T,SRR9040098.25928545,92.94,85,5,1,24,107,67,151,3e-24,122
Cyphellophora_laciniata_CBS190.61_T,SRR9040098.112580543,93.42,76,3,2,287,360,227,302,6e-21,111
Cyphellophora_laciniata_CBS190.61_T,SRR9040098.40986068,93.42,76,3,2,287,360,227,302,6e-21,111
Cyphellophora_laciniata_CBS190.61_T,SRR9040098.55903257,87.23,94,12,0,1,94,94,1,7e-20,108
Cyphellophora_laciniata_CBS190.61_T,SRR9040098.31693241,87.23,94,12,0,1,94,94,1,7e-20,108
Cyphellophora_laciniata_CBS190.61_T,SRR9040098.56502227,100.00,40,0,0,696,735,152,191,7e-10,75.0
Cyphellophora_suttonii_CBS449.91,SRR9040098.83024037,94.12,85,5,0,171,255,236,152,1e-26,130
Cyphellophora_suttonii_CBS449.91,SRR9040098.82963391,94.12,85,5,0,171,255,236,152,1e-26,130
Cyphellophora_suttonii_CBS449.91,SRR9040098.112580543,94.37,71,4,0,193,263,232,302,1e-20,110
Cyphellophora_suttonii_CBS449.91,SRR9040098.40986068,94.37,71,4,0,193,263,232,302,1e-20,110
Cyphellophora_pauciseptata_CBS284.85_T,SRR9040098.83024037,92.94,85,6,0,182,266,236,152,5e-25,124
Cyphellophora_pauciseptata_CBS284.85_T,SRR9040098.82963391,92.94,85,6,0,182,266,236,152,5e-25,124
Cyphellophora_pauciseptata_CBS284.85_T,SRR9040098.112580543,94.37,71,4,0,204,274,232,302,1e-20,110
Cyphellophora_pauciseptata_CBS284.85_T,SRR9040098.40986068,94.37,71,4,0,204,274,232,302,1e-20,110
Cyphellophora_pluriseptata_CBS286.85_T,SRR9040098.112580543,92.11,76,4,2,206,279,227,302,2e-19,106
Cyphellophora_pluriseptata_CBS286.85_T,SRR9040098.40986068,92.11,76,4,2,206,279,227,302,2e-19,106
Cyphellophora_pluriseptata_CBS286.85_T,SRR9040098.83024037,98.31,59,1,0,213,271,210,152,7e-19,104
Cyphellophora_pluriseptata_CBS286.85_T,SRR9040098.82963391,98.31,59,1,0,213,271,210,152,7e-19,104
Phialophora_europaea_CBS101466,SRR9040098.83024037,95.89,73,1,1,189,261,222,152,8e-23,117
Phialophora_europaea_CBS101466,SRR9040098.82963391,95.89,73,1,1,189,261,222,152,8e-23,117
Phialophora_europaea_CBS101466,SRR9040098.112580543,88.54,96,2,7,175,269,215,302,5e-20,108
Phialophora_europaea_CBS101466,SRR9040098.40986068,88.54,96,2,7,175,269,215,302,5e-20,108
Phialophora_ambigua_CBS235.93,SRR9040098.83024037,91.86,86,5,2,174,258,236,152,2e-23,119
Phialophora_ambigua_CBS235.93,SRR9040098.82963391,91.86,86,5,2,174,258,236,152,2e-23,119
Phialophora_ambigua_CBS235.93,SRR9040098.112580543,94.37,71,4,0,196,266,232,302,1e-20,110
Phialophora_ambigua_CBS235.93,SRR9040098.40986068,94.37,71,4,0,196,266,232,302,1e-20,110
Cladophialophora_modesta_CBS985.96_T,SRR9040098.4973112,96.46,113,2,2,508,619,33,144,3e-43,185
Cladophialophora_modesta_CBS985.96_T,SRR9040098.131064186,98.02,101,2,0,519,619,161,261,2e-40,176
Cladophialophora_modesta_CBS985.96_T,SRR9040098.72318995,93.88,98,6,0,522,619,162,259,4e-32,148
Cladophialophora_modesta_CBS985.96_T,SRR9040098.72265027,93.88,98,6,0,522,619,162,259,4e-32,148
Cladophialophora_modesta_CBS985.96_T,SRR9040098.10298029,93.88,98,6,0,522,619,162,259,4e-32,148
Cladophialophora_modesta_CBS985.96_T,SRR9040098.54442300,95.45,88,4,0,532,619,25,112,6e-30,141
Cladophialophora_modesta_CBS985.96_T,SRR9040098.51052131,95.45,88,4,0,532,619,25,112,6e-30,141
Cladophialophora_modesta_CBS985.96_T,SRR9040098.105456515,94.32,88,5,0,532,619,18,105,3e-28,135
Cladophialophora_modesta_CBS985.96_T,SRR9040098.112580543,92.41,79,4,2,185,263,226,302,5e-21,111
Cladophialophora_modesta_CBS985.96_T,SRR9040098.40986068,92.41,79,4,2,185,263,226,302,5e-21,111
Cladophialophora_modesta_CBS985.96_T,SRR9040098.83024037,100.00,59,0,0,197,255,210,152,2e-20,110
Cladophialophora_modesta_CBS985.96_T,SRR9040098.82963391,100.00,59,0,0,197,255,210,152,2e-20,110
Cladophialophora_modesta_CBS985.96_T,SRR9040098.99278319,100.00,30,0,0,519,548,30,1,2e-04,56.5
Cladophialophora_modesta_CBS985.96_T,SRR9040098.99278319,97.06,34,0,1,519,552,270,302,2e-04,56.5
Cyphellophora_fusarioides_MUCL44033_T,SRR9040098.83024037,93.02,86,5,1,169,254,236,152,5e-25,124
Cyphellophora_fusarioides_MUCL44033_T,SRR9040098.82963391,93.02,86,5,1,169,254,236,152,5e-25,124
Cyphellophora_fusarioides_MUCL44033_T,SRR9040098.112580543,93.42,76,3,2,189,262,227,302,4e-21,111
Cyphellophora_fusarioides_MUCL44033_T,SRR9040098.40986068,93.42,76,3,2,189,262,227,302,4e-21,111
