Exophiala_nigra_CBS535.94_T,SRR9043664.56970210,100.00,52,0,0,200,251,155,206,9e-17,97.1
Exophiala_nigra_CBS535.94_T,SRR9043664.75369963,94.92,59,3,0,200,258,263,205,1e-15,93.5
Exophiala_nigra_CBS535.94_T,SRR9043664.75369963,96.15,52,2,0,200,251,155,206,2e-13,86.1
Exophiala_spinifera_CBS899.68_T,SRR9043664.56970210,100.00,52,0,0,197,248,155,206,9e-17,97.1
Exophiala_spinifera_CBS899.68_T,SRR9043664.75369963,91.30,69,5,1,187,255,272,205,1e-15,93.5
Exophiala_spinifera_CBS899.68_T,SRR9043664.75369963,96.15,52,2,0,197,248,155,206,2e-13,86.1
Exophiala_exophialae_CBS668.76_T,SRR9043664.56970210,100.00,52,0,0,198,249,155,206,9e-17,97.1
Exophiala_exophialae_CBS668.76_T,SRR9043664.75369963,91.30,69,5,1,188,256,272,205,1e-15,93.5
Exophiala_exophialae_CBS668.76_T,SRR9043664.75369963,96.15,52,2,0,198,249,155,206,2e-13,86.1
Exophiala_polymorpha_CBS138920_T,SRR9043664.56970210,100.00,52,0,0,300,351,155,206,1e-16,97.1
Exophiala_polymorpha_CBS138920_T,SRR9043664.75369963,94.92,59,3,0,300,358,263,205,1e-15,93.5
Exophiala_polymorpha_CBS138920_T,SRR9043664.75369963,96.15,52,2,0,300,351,155,206,2e-13,86.1
Exophiala_polymorpha_CBS138920_T,SRR9043664.90205871,100.00,42,0,0,644,685,192,151,4e-11,78.7
Exophiala_polymorpha_CBS138920_T,SRR9043664.62724480,97.44,39,1,0,656,694,302,264,9e-08,67.6
Exophiala_polymorpha_CBS138920_T,SRR9043664.110175693,97.22,36,1,0,659,694,1,36,4e-06,62.1
Exophiala_polymorpha_CBS138920_T,SRR9043664.110174831,97.22,36,1,0,659,694,1,36,4e-06,62.1
Exophiala_polymorpha_CBS138920_T,SRR9043664.34282843,97.22,36,1,0,659,694,1,36,4e-06,62.1
Exophiala_oligosperma_CBS725.88_T,SRR9043664.56970210,100.00,52,0,0,210,261,155,206,9e-17,97.1
Exophiala_oligosperma_CBS725.88_T,SRR9043664.75369963,92.42,66,5,0,203,268,270,205,3e-16,95.3
Exophiala_oligosperma_CBS725.88_T,SRR9043664.75369963,96.15,52,2,0,210,261,155,206,2e-13,86.1
Exophiala_jeanselmei_CBS507.90_T,SRR9043664.20002031,98.41,63,1,0,542,604,209,271,4e-21,111
Exophiala_jeanselmei_CBS507.90_T,SRR9043664.10173473,98.41,63,1,0,542,604,209,271,4e-21,111
Exophiala_jeanselmei_CBS507.90_T,SRR9043664.10171378,98.41,63,1,0,542,604,209,271,4e-21,111
Exophiala_jeanselmei_CBS507.90_T,SRR9043664.71472977,96.72,61,2,0,544,604,162,222,2e-18,102
Exophiala_jeanselmei_CBS507.90_T,SRR9043664.56970210,100.00,52,0,0,202,253,155,206,1e-16,97.1
Exophiala_jeanselmei_CBS507.90_T,SRR9043664.75369963,94.92,59,3,0,202,260,263,205,1e-15,93.5
Exophiala_jeanselmei_CBS507.90_T,SRR9043664.75369963,96.15,52,2,0,202,253,155,206,2e-13,86.1
Exophiala_jeanselmei_CBS507.90_T,SRR9043664.62724480,97.87,47,1,0,558,604,302,256,3e-12,82.4
Exophiala_jeanselmei_CBS507.90_T,SRR9043664.90205871,100.00,42,0,0,546,587,192,151,4e-11,78.7
Exophiala_jeanselmei_CBS507.90_T,SRR9043664.110175693,97.73,44,1,0,561,604,1,44,1e-10,76.8
Exophiala_jeanselmei_CBS507.90_T,SRR9043664.110174831,97.73,44,1,0,561,604,1,44,1e-10,76.8
Exophiala_jeanselmei_CBS507.90_T,SRR9043664.34282843,97.73,44,1,0,561,604,1,44,1e-10,76.8
Exophiala_bergeri_CBS353.52,SRR9043664.56970210,100.00,52,0,0,163,214,155,206,8e-17,97.1
Exophiala_bergeri_CBS353.52,SRR9043664.75369963,94.92,59,3,0,163,221,263,205,1e-15,93.5
Exophiala_bergeri_CBS353.52,SRR9043664.75369963,96.15,52,2,0,163,214,155,206,2e-13,86.1
Exophiala_moniliae_CBS520.76_T,SRR9043664.56970210,100.00,52,0,0,200,251,155,206,9e-17,97.1
Exophiala_moniliae_CBS520.76_T,SRR9043664.75369963,94.92,59,3,0,200,258,263,205,1e-15,93.5
Exophiala_moniliae_CBS520.76_T,SRR9043664.75369963,96.15,52,2,0,200,251,155,206,2e-13,86.1
Exophiala_pisciphila_CBS537.73_T,SRR9043664.71472977,95.05,101,5,0,553,653,162,262,1e-35,159
Exophiala_pisciphila_CBS537.73_T,SRR9043664.20002031,95.70,93,4,0,552,644,210,302,8e-33,150
Exophiala_pisciphila_CBS537.73_T,SRR9043664.10173473,95.70,93,4,0,552,644,210,302,8e-33,150
Exophiala_pisciphila_CBS537.73_T,SRR9043664.10171378,95.70,93,4,0,552,644,210,302,8e-33,150
Exophiala_pisciphila_CBS537.73_T,SRR9043664.110175693,96.43,84,3,0,570,653,1,84,2e-29,139
Exophiala_pisciphila_CBS537.73_T,SRR9043664.110174831,96.43,84,3,0,570,653,1,84,2e-29,139
Exophiala_pisciphila_CBS537.73_T,SRR9043664.34282843,96.43,84,3,0,570,653,1,84,2e-29,139
Exophiala_pisciphila_CBS537.73_T,SRR9043664.62724480,89.66,87,8,1,567,653,302,217,1e-20,110
Exophiala_pisciphila_CBS537.73_T,SRR9043664.56970210,100.00,52,0,0,203,254,155,206,1e-16,97.1
Exophiala_pisciphila_CBS537.73_T,SRR9043664.75369963,94.92,59,3,0,203,261,263,205,1e-15,93.5
Exophiala_pisciphila_CBS537.73_T,SRR9043664.75369963,96.15,52,2,0,203,254,155,206,2e-13,86.1
Exophiala_pisciphila_CBS537.73_T,SRR9043664.48626599,90.14,71,7,0,578,648,171,241,1e-15,93.5
Exophiala_pisciphila_CBS537.73_T,SRR9043664.82426559,100.00,41,0,0,556,596,41,1,1e-10,76.8
Exophiala_xenobiotica_CBS117642,SRR9043664.56970210,100.00,52,0,0,195,246,155,206,9e-17,97.1
Exophiala_xenobiotica_CBS117642,SRR9043664.75369963,94.92,59,3,0,195,253,263,205,1e-15,93.5
Exophiala_xenobiotica_CBS117642,SRR9043664.75369963,96.15,52,2,0,195,246,155,206,2e-13,86.1
Exophiala_brunnea_CBS,SRR9043664.62797816,89.53,86,8,1,302,387,142,58,5e-20,108
Exophiala_brunnea_CBS,SRR9043664.56970210,100.00,52,0,0,231,282,155,206,1e-16,97.1
Exophiala_brunnea_CBS,SRR9043664.75369963,94.92,59,3,0,231,289,263,205,1e-15,93.5
Exophiala_brunnea_CBS,SRR9043664.75369963,96.15,52,2,0,231,282,155,206,2e-13,86.1
Exophiala_brunnea_CBS,SRR9043664.17687996,90.38,52,5,0,336,387,152,101,2e-08,69.4
Exophiala_brunnea_CBS,SRR9043664.110175693,100.00,30,0,0,604,633,4,33,2e-04,56.5
Exophiala_brunnea_CBS,SRR9043664.110174831,100.00,30,0,0,604,633,4,33,2e-04,56.5
Exophiala_brunnea_CBS,SRR9043664.34282843,100.00,30,0,0,604,633,4,33,2e-04,56.5
Exophiala_nishimurae_CBS101538_T,SRR9043664.56970210,100.00,52,0,0,209,260,155,206,1e-16,97.1
Exophiala_nishimurae_CBS101538_T,SRR9043664.75369963,94.92,59,3,0,209,267,263,205,1e-15,93.5
Exophiala_nishimurae_CBS101538_T,SRR9043664.75369963,96.15,52,2,0,209,260,155,206,2e-13,86.1
Exophiala_nishimurae_CBS101538_T,SRR9043664.90205871,100.00,39,0,0,553,591,192,154,2e-09,73.1
Exophiala_mesophila_CBS402.95_T,SRR9043664.71472977,96.08,102,4,0,549,650,161,262,8e-38,167
Exophiala_mesophila_CBS402.95_T,SRR9043664.20002031,96.74,92,3,0,550,641,211,302,6e-34,154
Exophiala_mesophila_CBS402.95_T,SRR9043664.10173473,96.74,92,3,0,550,641,211,302,6e-34,154
Exophiala_mesophila_CBS402.95_T,SRR9043664.10171378,96.74,92,3,0,550,641,211,302,6e-34,154
Exophiala_mesophila_CBS402.95_T,SRR9043664.110175693,95.24,84,4,0,567,650,1,84,8e-28,134
Exophiala_mesophila_CBS402.95_T,SRR9043664.110174831,95.24,84,4,0,567,650,1,84,8e-28,134
Exophiala_mesophila_CBS402.95_T,SRR9043664.34282843,95.24,84,4,0,567,650,1,84,8e-28,134
Exophiala_mesophila_CBS402.95_T,SRR9043664.62724480,90.80,87,7,1,564,650,302,217,3e-22,115
Exophiala_mesophila_CBS402.95_T,SRR9043664.62797816,89.53,86,8,1,264,349,142,58,5e-20,108
Exophiala_mesophila_CBS402.95_T,SRR9043664.56970210,100.00,52,0,0,193,244,155,206,1e-16,97.1
Exophiala_mesophila_CBS402.95_T,SRR9043664.48626599,85.56,90,13,0,556,645,152,241,4e-16,95.3
Exophiala_mesophila_CBS402.95_T,SRR9043664.75369963,91.30,69,5,1,183,251,272,205,1e-15,93.5
Exophiala_mesophila_CBS402.95_T,SRR9043664.75369963,96.15,52,2,0,193,244,155,206,2e-13,86.1
Exophiala_mesophila_CBS402.95_T,SRR9043664.90205871,100.00,42,0,0,552,593,192,151,4e-11,78.7
Exophiala_mesophila_CBS402.95_T,SRR9043664.17687996,90.38,52,5,0,298,349,152,101,2e-08,69.4
Exophiala_castellanii_CBS158.58_T,SRR9043664.71472977,96.08,102,4,0,548,649,161,262,8e-38,167
Exophiala_castellanii_CBS158.58_T,SRR9043664.20002031,96.74,92,3,0,549,640,211,302,6e-34,154
Exophiala_castellanii_CBS158.58_T,SRR9043664.10173473,96.74,92,3,0,549,640,211,302,6e-34,154
Exophiala_castellanii_CBS158.58_T,SRR9043664.10171378,96.74,92,3,0,549,640,211,302,6e-34,154
Exophiala_castellanii_CBS158.58_T,SRR9043664.110175693,95.24,84,4,0,566,649,1,84,8e-28,134
Exophiala_castellanii_CBS158.58_T,SRR9043664.110174831,95.24,84,4,0,566,649,1,84,8e-28,134
Exophiala_castellanii_CBS158.58_T,SRR9043664.34282843,95.24,84,4,0,566,649,1,84,8e-28,134
Exophiala_castellanii_CBS158.58_T,SRR9043664.62724480,90.80,87,7,1,563,649,302,217,3e-22,115
Exophiala_castellanii_CBS158.58_T,SRR9043664.62797816,89.53,86,8,1,262,347,142,58,5e-20,108
Exophiala_castellanii_CBS158.58_T,SRR9043664.56970210,100.00,52,0,0,191,242,155,206,1e-16,97.1
Exophiala_castellanii_CBS158.58_T,SRR9043664.48626599,85.56,90,13,0,555,644,152,241,4e-16,95.3
Exophiala_castellanii_CBS158.58_T,SRR9043664.75369963,91.30,69,5,1,181,249,272,205,1e-15,93.5
Exophiala_castellanii_CBS158.58_T,SRR9043664.75369963,96.15,52,2,0,191,242,155,206,2e-13,86.1
Exophiala_castellanii_CBS158.58_T,SRR9043664.90205871,100.00,42,0,0,551,592,192,151,4e-11,78.7
Exophiala_castellanii_CBS158.58_T,SRR9043664.17687996,90.38,52,5,0,296,347,152,101,2e-08,69.4
Exophiala_lecanii-corni_CBS123.33_T,SRR9043664.62797816,89.53,86,8,1,285,370,142,58,4e-20,108
Exophiala_lecanii-corni_CBS123.33_T,SRR9043664.56970210,100.00,52,0,0,214,265,155,206,9e-17,97.1
Exophiala_lecanii-corni_CBS123.33_T,SRR9043664.75369963,94.92,59,3,0,214,272,263,205,1e-15,93.5
Exophiala_lecanii-corni_CBS123.33_T,SRR9043664.75369963,96.15,52,2,0,214,265,155,206,2e-13,86.1
Exophiala_lecanii-corni_CBS123.33_T,SRR9043664.17687996,90.38,52,5,0,319,370,152,101,2e-08,69.4
Exophiala_dermatitidis_CBS748.88,SRR9043664.285649,94.70,151,8,0,868,1018,152,302,5e-58,235
Exophiala_dermatitidis_CBS748.88,SRR9043664.285649,84.03,144,17,4,1094,1237,138,1,2e-27,134
Exophiala_dermatitidis_CBS748.88,SRR9043664.71472977,96.95,131,4,0,575,705,162,292,1e-53,220
Exophiala_dermatitidis_CBS748.88,SRR9043664.71472977,90.38,104,5,3,640,742,151,52,7e-27,132
Exophiala_dermatitidis_CBS748.88,SRR9043664.6591664,93.29,149,10,0,853,1001,150,298,1e-53,220
Exophiala_dermatitidis_CBS748.88,SRR9043664.6591664,86.27,153,16,5,1186,1337,149,1,9e-36,161
Exophiala_dermatitidis_CBS748.88,SRR9043664.105850353,92.31,156,7,5,1078,1232,1,152,2e-52,217
Exophiala_dermatitidis_CBS748.88,SRR9043664.105850353,100.00,110,0,0,1395,1504,302,193,1e-48,204
Exophiala_dermatitidis_CBS748.88,SRR9043664.77641574,92.72,151,9,2,1353,1502,1,150,2e-52,217
Exophiala_dermatitidis_CBS748.88,SRR9043664.71290194,92.31,156,7,5,1078,1232,1,152,2e-52,217
Exophiala_dermatitidis_CBS748.88,SRR9043664.71290194,100.00,110,0,0,1395,1504,302,193,1e-48,204
Exophiala_dermatitidis_CBS748.88,SRR9043664.52086043,94.85,136,7,0,1369,1504,152,287,2e-51,213
Exophiala_dermatitidis_CBS748.88,SRR9043664.42252710,92.05,151,12,0,822,972,150,300,2e-51,213
Exophiala_dermatitidis_CBS748.88,SRR9043664.110175693,91.45,152,13,0,592,743,1,152,3e-50,209
Exophiala_dermatitidis_CBS748.88,SRR9043664.110175693,88.67,150,16,1,780,928,301,152,7e-42,182
Exophiala_dermatitidis_CBS748.88,SRR9043664.110174831,91.45,152,13,0,592,743,1,152,3e-50,209
Exophiala_dermatitidis_CBS748.88,SRR9043664.110174831,88.67,150,16,1,780,928,301,152,7e-42,182
Exophiala_dermatitidis_CBS748.88,SRR9043664.34282843,91.45,152,13,0,592,743,1,152,3e-50,209
Exophiala_dermatitidis_CBS748.88,SRR9043664.34282843,88.67,150,16,1,780,928,301,152,7e-42,182
Exophiala_dermatitidis_CBS748.88,SRR9043664.100876909,99.12,113,1,0,1389,1501,1,113,1e-48,204
Exophiala_dermatitidis_CBS748.88,SRR9043664.86079788,91.78,146,12,0,879,1024,152,297,1e-48,204
Exophiala_dermatitidis_CBS748.88,SRR9043664.13722759,91.33,150,12,1,863,1012,155,7,1e-48,204
Exophiala_dermatitidis_CBS748.88,SRR9043664.74443809,96.64,119,4,0,1386,1504,152,270,7e-47,198
Exophiala_dermatitidis_CBS748.88,SRR9043664.33180077,93.94,132,6,2,825,954,21,152,7e-47,198
Exophiala_dermatitidis_CBS748.88,SRR9043664.33180077,93.02,86,6,0,940,1025,302,217,3e-25,126
Exophiala_dermatitidis_CBS748.88,SRR9043664.41942346,94.40,125,7,0,828,952,125,1,3e-45,193
Exophiala_dermatitidis_CBS748.88,SRR9043664.80270769,92.19,128,10,0,908,1035,302,175,5e-43,185
Exophiala_dermatitidis_CBS748.88,SRR9043664.80270769,85.53,159,20,3,781,937,1,158,2e-36,163
Exophiala_dermatitidis_CBS748.88,SRR9043664.33226208,93.60,125,4,3,895,1017,152,274,2e-42,183
Exophiala_dermatitidis_CBS748.88,SRR9043664.51374518,94.83,116,6,0,1389,1504,1,116,7e-42,182
Exophiala_dermatitidis_CBS748.88,SRR9043664.51374239,94.83,116,6,0,1389,1504,1,116,7e-42,182
Exophiala_dermatitidis_CBS748.88,SRR9043664.101455125,94.78,115,6,0,1390,1504,151,37,2e-41,180
Exophiala_dermatitidis_CBS748.88,SRR9043664.101455125,85.53,152,16,5,1132,1281,153,300,1e-33,154
Exophiala_dermatitidis_CBS748.88,SRR9043664.8441484,90.91,132,11,1,1163,1294,20,150,3e-40,176
Exophiala_dermatitidis_CBS748.88,SRR9043664.8441484,90.91,132,11,1,1163,1294,288,158,3e-40,176
Exophiala_dermatitidis_CBS748.88,SRR9043664.62724480,86.67,150,17,3,589,736,302,154,2e-36,163
Exophiala_dermatitidis_CBS748.88,SRR9043664.98571210,96.88,96,3,0,1409,1504,302,207,9e-36,161
Exophiala_dermatitidis_CBS748.88,SRR9043664.11402904,86.27,153,16,5,1186,1337,149,1,9e-36,161
Exophiala_dermatitidis_CBS748.88,SRR9043664.11402532,86.27,153,16,5,1186,1337,149,1,9e-36,161
Exophiala_dermatitidis_CBS748.88,SRR9043664.20002031,96.81,94,3,0,573,666,209,302,1e-34,158
Exophiala_dermatitidis_CBS748.88,SRR9043664.20002031,89.13,92,4,3,657,747,153,67,3e-20,110
Exophiala_dermatitidis_CBS748.88,SRR9043664.10173473,96.81,94,3,0,573,666,209,302,1e-34,158
Exophiala_dermatitidis_CBS748.88,SRR9043664.10173473,89.13,92,4,3,657,747,153,67,3e-20,110
Exophiala_dermatitidis_CBS748.88,SRR9043664.10171378,96.81,94,3,0,573,666,209,302,1e-34,158
Exophiala_dermatitidis_CBS748.88,SRR9043664.10171378,89.13,92,4,3,657,747,153,67,3e-20,110
Exophiala_dermatitidis_CBS748.88,SRR9043664.99579297,94.06,101,6,0,925,1025,1,101,1e-33,154
Exophiala_dermatitidis_CBS748.88,SRR9043664.99579297,83.67,147,14,7,1093,1237,290,152,2e-26,130
Exophiala_dermatitidis_CBS748.88,SRR9043664.74698384,93.07,101,7,0,1404,1504,4,104,7e-32,148
Exophiala_dermatitidis_CBS748.88,SRR9043664.88536742,85.23,149,15,7,1173,1318,156,300,2e-31,147
Exophiala_dermatitidis_CBS748.88,SRR9043664.88536742,96.25,80,3,0,1423,1502,151,72,7e-27,132
Exophiala_dermatitidis_CBS748.88,SRR9043664.74389995,84.35,147,21,2,1186,1332,158,302,3e-30,143
Exophiala_dermatitidis_CBS748.88,SRR9043664.366666,84.35,147,21,2,1186,1332,158,302,3e-30,143
Exophiala_dermatitidis_CBS748.88,SRR9043664.9186574,85.07,134,17,3,1162,1294,20,151,2e-27,134
Exophiala_dermatitidis_CBS748.88,SRR9043664.61644529,82.24,152,26,1,1249,1400,152,302,2e-26,130
Exophiala_dermatitidis_CBS748.88,SRR9043664.87809210,83.46,127,21,0,1326,1452,278,152,5e-23,119
Exophiala_dermatitidis_CBS748.88,SRR9043664.79727865,90.70,86,8,0,920,1005,151,236,7e-22,115
Exophiala_dermatitidis_CBS748.88,SRR9043664.22409511,83.20,125,20,1,1186,1310,142,19,3e-21,113
Exophiala_dermatitidis_CBS748.88,SRR9043664.22408941,83.20,125,20,1,1186,1310,142,19,3e-21,113
Exophiala_dermatitidis_CBS748.88,SRR9043664.48626599,82.64,121,20,1,581,700,152,272,4e-19,106
Exophiala_dermatitidis_CBS748.88,SRR9043664.36238823,100.00,54,0,0,1451,1504,1,54,2e-17,100
Exophiala_dermatitidis_CBS748.88,SRR9043664.92261444,92.65,68,5,0,1198,1265,224,291,7e-17,99.0
Exophiala_dermatitidis_CBS748.88,SRR9043664.56970210,98.08,52,0,1,207,257,155,206,4e-14,89.8
Exophiala_dermatitidis_CBS748.88,SRR9043664.90482208,87.18,78,8,2,1162,1237,78,1,2e-13,87.9
Exophiala_dermatitidis_CBS748.88,SRR9043664.90482208,87.32,71,9,0,954,1024,152,222,7e-12,82.4
Exophiala_dermatitidis_CBS748.88,SRR9043664.108089650,87.67,73,9,0,1198,1270,227,155,5e-13,86.1
Exophiala_dermatitidis_CBS748.88,SRR9043664.10262586,93.22,59,2,2,1198,1255,120,63,5e-13,86.1
Exophiala_dermatitidis_CBS748.88,SRR9043664.10262586,93.22,59,2,2,1198,1255,202,259,5e-13,86.1
Exophiala_dermatitidis_CBS748.88,SRR9043664.90205871,100.00,42,0,0,577,618,192,151,9e-11,78.7
Exophiala_dermatitidis_CBS748.88,SRR9043664.75369963,94.23,52,2,1,207,257,155,206,9e-11,78.7
Exophiala_dermatitidis_CBS748.88,SRR9043664.65287763,83.12,77,12,1,1218,1294,1,76,6e-08,69.4
Exophiala_dermatitidis_CBS748.88,SRR9043664.103016725,87.50,56,7,0,1208,1263,56,1,7e-07,65.8
Exophiala_dermatitidis_CBS748.88,SRR9043664.28443565,87.50,56,7,0,1208,1263,56,1,7e-07,65.8
Exophiala_dermatitidis_CBS748.88,SRR9043664.28443090,87.50,56,7,0,1208,1263,56,1,7e-07,65.8
Exophiala_dermatitidis_CBS748.88,SRR9043664.14465115,100.00,31,0,0,1210,1240,266,296,1e-04,58.4
Exophiala_dermatitidis_CBS748.88,SRR9043664.1874623,100.00,31,0,0,1474,1504,1,31,1e-04,58.4
Exophiala_dermatitidis_CBS748.88,SRR9043664.92197074,92.50,40,2,1,1203,1242,44,6,4e-04,56.5
Exophiala_dermatitidis_CBS748.88,SRR9043664.1321129,92.50,40,2,1,1203,1242,44,6,4e-04,56.5
Exophiala_dermatitidis_CBS748.88,SRR9043664.1320956,92.50,40,2,1,1203,1242,44,6,4e-04,56.5
Exophiala_dermatitidis_CBS748.88,SRR9043664.97130578,100.00,29,0,0,1210,1238,180,152,0.002,54.7
Exophiala_dermatitidis_CBS748.88,SRR9043664.41663637,100.00,29,0,0,1210,1238,180,152,0.002,54.7
Exophiala_angulospora_CBS482.92_T,SRR9043664.56970210,100.00,52,0,0,197,248,155,206,9e-17,97.1
Exophiala_angulospora_CBS482.92_T,SRR9043664.75369963,92.42,66,5,0,190,255,270,205,3e-16,95.3
Exophiala_angulospora_CBS482.92_T,SRR9043664.75369963,96.15,52,2,0,197,248,155,206,2e-13,86.1
Exophiala_opportunistica_CBS109811_T,SRR9043664.56970210,100.00,52,0,0,196,247,155,206,9e-17,97.1
Exophiala_opportunistica_CBS109811_T,SRR9043664.75369963,94.92,59,3,0,196,254,263,205,1e-15,93.5
Exophiala_opportunistica_CBS109811_T,SRR9043664.75369963,96.15,52,2,0,196,247,155,206,2e-13,86.1
Exophiala_salmonis_CBS157.67_T,SRR9043664.71472977,95.05,101,5,0,673,773,162,262,2e-35,159
Exophiala_salmonis_CBS157.67_T,SRR9043664.90205871,89.34,122,13,0,1,122,22,143,7e-34,154
Exophiala_salmonis_CBS157.67_T,SRR9043664.20002031,95.70,93,4,0,672,764,210,302,1e-32,150
Exophiala_salmonis_CBS157.67_T,SRR9043664.10173473,95.70,93,4,0,672,764,210,302,1e-32,150
Exophiala_salmonis_CBS157.67_T,SRR9043664.10171378,95.70,93,4,0,672,764,210,302,1e-32,150
Exophiala_salmonis_CBS157.67_T,SRR9043664.110175693,96.43,84,3,0,690,773,1,84,2e-29,139
Exophiala_salmonis_CBS157.67_T,SRR9043664.110174831,96.43,84,3,0,690,773,1,84,2e-29,139
Exophiala_salmonis_CBS157.67_T,SRR9043664.34282843,96.43,84,3,0,690,773,1,84,2e-29,139
Exophiala_salmonis_CBS157.67_T,SRR9043664.62724480,89.66,87,8,1,687,773,302,217,2e-20,110
Exophiala_salmonis_CBS157.67_T,SRR9043664.34441845,82.35,119,21,0,1,119,269,151,8e-19,104
Exophiala_salmonis_CBS157.67_T,SRR9043664.56970210,100.00,52,0,0,325,376,155,206,1e-16,97.1
Exophiala_salmonis_CBS157.67_T,SRR9043664.56970210,97.50,40,1,0,83,122,4,43,3e-08,69.4
Exophiala_salmonis_CBS157.67_T,SRR9043664.99720982,90.14,71,7,0,1,71,71,1,2e-15,93.5
Exophiala_salmonis_CBS157.67_T,SRR9043664.75369963,94.92,59,3,0,325,383,263,205,2e-15,93.5
Exophiala_salmonis_CBS157.67_T,SRR9043664.75369963,96.15,52,2,0,325,376,155,206,3e-13,86.1
Exophiala_salmonis_CBS157.67_T,SRR9043664.75369963,97.50,40,1,0,83,122,4,43,3e-08,69.4
Exophiala_salmonis_CBS157.67_T,SRR9043664.48626599,90.14,71,7,0,698,768,171,241,2e-15,93.5
Exophiala_salmonis_CBS157.67_T,SRR9043664.66789577,80.34,117,17,6,1,114,38,151,1e-12,84.2
Exophiala_salmonis_CBS157.67_T,SRR9043664.4451355,92.73,55,2,2,1,55,197,145,5e-11,78.7
Exophiala_salmonis_CBS157.67_T,SRR9043664.82426559,100.00,41,0,0,676,716,41,1,2e-10,76.8
Exophiala_salmonis_CBS157.67_T,SRR9043664.111818853,100.00,40,0,0,83,122,158,197,6e-10,75.0
Exophiala_salmonis_CBS157.67_T,SRR9043664.33076308,100.00,40,0,0,83,122,158,197,6e-10,75.0
Exophiala_salmonis_CBS157.67_T,SRR9043664.24814579,100.00,40,0,0,83,122,158,197,6e-10,75.0
Exophiala_aquamarina_CBS119918_T,SRR9043664.56970210,100.00,52,0,0,203,254,155,206,9e-17,97.1
Exophiala_aquamarina_CBS119918_T,SRR9043664.75369963,94.92,59,3,0,203,261,263,205,1e-15,93.5
Exophiala_aquamarina_CBS119918_T,SRR9043664.75369963,96.15,52,2,0,203,254,155,206,2e-13,86.1
Exophiala_cancerae_CBS120420_T,SRR9043664.20002031,96.83,63,2,0,562,624,209,271,2e-19,106
Exophiala_cancerae_CBS120420_T,SRR9043664.10173473,96.83,63,2,0,562,624,209,271,2e-19,106
Exophiala_cancerae_CBS120420_T,SRR9043664.10171378,96.83,63,2,0,562,624,209,271,2e-19,106
Exophiala_cancerae_CBS120420_T,SRR9043664.71472977,95.08,61,3,0,564,624,162,222,1e-16,97.1
Exophiala_cancerae_CBS120420_T,SRR9043664.56970210,100.00,52,0,0,218,269,155,206,1e-16,97.1
Exophiala_cancerae_CBS120420_T,SRR9043664.75369963,94.92,59,3,0,218,276,263,205,1e-15,93.5
Exophiala_cancerae_CBS120420_T,SRR9043664.75369963,96.15,52,2,0,218,269,155,206,2e-13,86.1
Exophiala_cancerae_CBS120420_T,SRR9043664.110175693,100.00,44,0,0,581,624,1,44,3e-12,82.4
Exophiala_cancerae_CBS120420_T,SRR9043664.110174831,100.00,44,0,0,581,624,1,44,3e-12,82.4
Exophiala_cancerae_CBS120420_T,SRR9043664.34282843,100.00,44,0,0,581,624,1,44,3e-12,82.4
Exophiala_cancerae_CBS120420_T,SRR9043664.82426559,100.00,41,0,0,567,607,41,1,1e-10,76.8
Exophiala_cancerae_CBS120420_T,SRR9043664.62724480,95.74,47,2,0,578,624,302,256,1e-10,76.8
Exophiala_tremulae_CBS129355,SRR9043664.56970210,100.00,52,0,0,230,281,155,206,1e-16,97.1
Exophiala_tremulae_CBS129355,SRR9043664.75369963,94.92,59,3,0,230,288,263,205,1e-15,93.5
Exophiala_tremulae_CBS129355,SRR9043664.75369963,96.15,52,2,0,230,281,155,206,2e-13,86.1
Exophiala_tremulae_CBS129355,SRR9043664.82426559,100.00,41,0,0,582,622,41,1,1e-10,76.8
Exophiala_tremulae_CBS129355,SRR9043664.110175693,100.00,33,0,0,596,628,1,33,4e-06,62.1
Exophiala_tremulae_CBS129355,SRR9043664.110174831,100.00,33,0,0,596,628,1,33,4e-06,62.1
Exophiala_tremulae_CBS129355,SRR9043664.34282843,100.00,33,0,0,596,628,1,33,4e-06,62.1
Exophiala_equina_CBS116009,SRR9043664.56970210,100.00,52,0,0,196,247,155,206,9e-17,97.1
Exophiala_equina_CBS116009,SRR9043664.75369963,94.92,59,3,0,196,254,263,205,1e-15,93.5
Exophiala_equina_CBS116009,SRR9043664.75369963,96.15,52,2,0,196,247,155,206,2e-13,86.1
Exophiala_alcalophila_CBS520.82_T,SRR9043664.56970210,100.00,52,0,0,207,258,155,206,9e-17,97.1
Exophiala_alcalophila_CBS520.82_T,SRR9043664.75369963,94.92,59,3,0,207,265,263,205,1e-15,93.5
Exophiala_alcalophila_CBS520.82_T,SRR9043664.75369963,96.15,52,2,0,207,258,155,206,2e-13,86.1
Exophiala_crusticola_CBS119970_T,SRR9043664.56970210,100.00,52,0,0,212,263,155,206,9e-17,97.1
Exophiala_crusticola_CBS119970_T,SRR9043664.75369963,94.92,59,3,0,212,270,263,205,1e-15,93.5
Exophiala_crusticola_CBS119970_T,SRR9043664.75369963,96.15,52,2,0,212,263,155,206,2e-13,86.1
Rhinocladiella_atrovirens_CBS264.49,SRR9043664.62797816,89.53,86,8,1,309,394,142,58,5e-20,108
Rhinocladiella_atrovirens_CBS264.49,SRR9043664.75369963,91.55,71,5,1,226,296,274,205,1e-16,97.1
Rhinocladiella_atrovirens_CBS264.49,SRR9043664.75369963,96.15,52,2,0,238,289,155,206,2e-13,86.1
Rhinocladiella_atrovirens_CBS264.49,SRR9043664.56970210,100.00,52,0,0,238,289,155,206,1e-16,97.1
Rhinocladiella_atrovirens_CBS264.49,SRR9043664.82426559,100.00,41,0,0,581,621,41,1,1e-10,76.8
Rhinocladiella_atrovirens_CBS264.49,SRR9043664.17687996,90.38,52,5,0,343,394,152,101,2e-08,69.4
Rhinocladiella_atrovirens_CBS264.49,SRR9043664.110175693,100.00,32,0,0,595,626,1,32,1e-05,60.2
Rhinocladiella_atrovirens_CBS264.49,SRR9043664.110174831,100.00,32,0,0,595,626,1,32,1e-05,60.2
Rhinocladiella_atrovirens_CBS264.49,SRR9043664.34282843,100.00,32,0,0,595,626,1,32,1e-05,60.2
Rhinocladiella_basitona_CBS101460_T,SRR9043664.56970210,100.00,52,0,0,197,248,155,206,9e-17,97.1
Rhinocladiella_basitona_CBS101460_T,SRR9043664.75369963,91.30,69,5,1,187,255,272,205,1e-15,93.5
Rhinocladiella_basitona_CBS101460_T,SRR9043664.75369963,96.15,52,2,0,197,248,155,206,2e-13,86.1
Rhinocladiella_phaeophora_CBS496.78_T,SRR9043664.56970210,98.18,55,1,0,202,256,152,206,9e-17,97.1
Rhinocladiella_phaeophora_CBS496.78_T,SRR9043664.75369963,94.83,58,3,0,206,263,262,205,4e-15,91.6
Rhinocladiella_phaeophora_CBS496.78_T,SRR9043664.75369963,94.55,55,3,0,202,256,152,206,2e-13,86.1
Rhinocladiella_aquaspersa_CBS313.73_T,SRR9043664.71472977,92.45,106,5,3,548,650,162,267,3e-32,148
Rhinocladiella_aquaspersa_CBS313.73_T,SRR9043664.110175693,96.59,88,3,0,563,650,2,89,1e-31,147
Rhinocladiella_aquaspersa_CBS313.73_T,SRR9043664.110174831,96.59,88,3,0,563,650,2,89,1e-31,147
Rhinocladiella_aquaspersa_CBS313.73_T,SRR9043664.34282843,96.59,88,3,0,563,650,2,89,1e-31,147
Rhinocladiella_aquaspersa_CBS313.73_T,SRR9043664.20002031,92.55,94,4,3,546,636,209,302,3e-27,132
Rhinocladiella_aquaspersa_CBS313.73_T,SRR9043664.10173473,92.55,94,4,3,546,636,209,302,3e-27,132
Rhinocladiella_aquaspersa_CBS313.73_T,SRR9043664.10171378,92.55,94,4,3,546,636,209,302,3e-27,132
Rhinocladiella_aquaspersa_CBS313.73_T,SRR9043664.62724480,89.01,91,8,2,560,649,302,213,4e-21,111
Rhinocladiella_aquaspersa_CBS313.73_T,SRR9043664.56970210,98.18,55,1,0,196,250,152,206,1e-16,97.1
Rhinocladiella_aquaspersa_CBS313.73_T,SRR9043664.48626599,90.14,71,7,0,570,640,171,241,1e-15,93.5
Rhinocladiella_aquaspersa_CBS313.73_T,SRR9043664.75369963,94.83,58,3,0,200,257,262,205,5e-15,91.6
Rhinocladiella_aquaspersa_CBS313.73_T,SRR9043664.75369963,94.55,55,3,0,196,250,152,206,2e-13,86.1
Rhinocladiella_fasciculata_CBS132.86_T,SRR9043664.56970210,100.00,51,0,0,216,266,156,206,3e-16,95.3
Rhinocladiella_fasciculata_CBS132.86_T,SRR9043664.75369963,94.83,58,3,0,216,273,262,205,4e-15,91.6
Rhinocladiella_fasciculata_CBS132.86_T,SRR9043664.75369963,96.08,51,2,0,216,266,156,206,7e-13,84.2
Rhinocladiella_anceps_CBS181.65_T,SRR9043664.62797816,89.53,86,8,1,268,353,142,58,4e-20,108
Rhinocladiella_anceps_CBS181.65_T,SRR9043664.75369963,88.24,85,7,3,173,255,288,205,2e-17,99.0
Rhinocladiella_anceps_CBS181.65_T,SRR9043664.75369963,96.15,52,2,0,197,248,155,206,2e-13,86.1
Rhinocladiella_anceps_CBS181.65_T,SRR9043664.56970210,100.00,52,0,0,197,248,155,206,9e-17,97.1
Rhinocladiella_anceps_CBS181.65_T,SRR9043664.17687996,90.38,52,5,0,302,353,152,101,2e-08,69.4
Rhinocladiella_mackenziei_CBS367.92,SRR9043664.56970210,100.00,52,0,0,186,237,155,206,1e-16,97.1
Rhinocladiella_mackenziei_CBS367.92,SRR9043664.75369963,94.92,59,3,0,186,244,263,205,1e-15,93.5
Rhinocladiella_mackenziei_CBS367.92,SRR9043664.75369963,96.15,52,2,0,186,237,155,206,2e-13,86.1
Rhinocladiella_mackenziei_CBS367.92,SRR9043664.82426559,100.00,41,0,0,568,608,41,1,1e-10,76.8
Veronaea_compacta_CBS268.75_T,SRR9043664.62797816,89.53,86,8,1,290,375,142,58,4e-20,108
Veronaea_compacta_CBS268.75_T,SRR9043664.56970210,100.00,52,0,0,219,270,155,206,1e-16,97.1
Veronaea_compacta_CBS268.75_T,SRR9043664.75369963,94.92,59,3,0,219,277,263,205,1e-15,93.5
Veronaea_compacta_CBS268.75_T,SRR9043664.75369963,96.15,52,2,0,219,270,155,206,2e-13,86.1
Veronaea_compacta_CBS268.75_T,SRR9043664.17687996,90.38,52,5,0,324,375,152,101,2e-08,69.4
Capronia_pilosella_AFTOL-ID657,SRR9043664.56970210,100.00,52,0,0,297,348,155,206,1e-16,97.1
Capronia_pilosella_AFTOL-ID657,SRR9043664.75369963,92.42,66,5,0,290,355,270,205,4e-16,95.3
Capronia_pilosella_AFTOL-ID657,SRR9043664.75369963,96.15,52,2,0,297,348,155,206,2e-13,86.1
Capronia_pilosella_AFTOL-ID657,SRR9043664.90205871,100.00,39,0,0,645,683,192,154,2e-09,73.1
Capronia_dactylotricha_DAOM208471_T,SRR9043664.71472977,95.15,103,5,0,556,658,160,262,1e-36,163
Capronia_dactylotricha_DAOM208471_T,SRR9043664.20002031,95.65,92,4,0,558,649,211,302,3e-32,148
Capronia_dactylotricha_DAOM208471_T,SRR9043664.10173473,95.65,92,4,0,558,649,211,302,3e-32,148
Capronia_dactylotricha_DAOM208471_T,SRR9043664.10171378,95.65,92,4,0,558,649,211,302,3e-32,148
Capronia_dactylotricha_DAOM208471_T,SRR9043664.110175693,96.43,84,3,0,575,658,1,84,2e-29,139
Capronia_dactylotricha_DAOM208471_T,SRR9043664.110174831,96.43,84,3,0,575,658,1,84,2e-29,139
Capronia_dactylotricha_DAOM208471_T,SRR9043664.34282843,96.43,84,3,0,575,658,1,84,2e-29,139
Capronia_dactylotricha_DAOM208471_T,SRR9043664.62724480,89.66,87,8,1,572,658,302,217,1e-20,110
Capronia_dactylotricha_DAOM208471_T,SRR9043664.56970210,100.00,52,0,0,199,250,155,206,1e-16,97.1
Capronia_dactylotricha_DAOM208471_T,SRR9043664.75369963,94.92,59,3,0,199,257,263,205,1e-15,93.5
Capronia_dactylotricha_DAOM208471_T,SRR9043664.75369963,96.15,52,2,0,199,250,155,206,2e-13,86.1
Capronia_dactylotricha_DAOM208471_T,SRR9043664.48626599,90.14,71,7,0,583,653,171,241,1e-15,93.5
Capronia_dactylotricha_DAOM208471_T,SRR9043664.82426559,100.00,41,0,0,561,601,41,1,1e-10,76.8
Capronia_kleinmondensis_CBS122671_T,SRR9043664.71472977,95.15,103,5,0,562,664,160,262,1e-36,163
Capronia_kleinmondensis_CBS122671_T,SRR9043664.20002031,95.65,92,4,0,564,655,211,302,3e-32,148
Capronia_kleinmondensis_CBS122671_T,SRR9043664.10173473,95.65,92,4,0,564,655,211,302,3e-32,148
Capronia_kleinmondensis_CBS122671_T,SRR9043664.10171378,95.65,92,4,0,564,655,211,302,3e-32,148
Capronia_kleinmondensis_CBS122671_T,SRR9043664.110175693,96.43,84,3,0,581,664,1,84,2e-29,139
Capronia_kleinmondensis_CBS122671_T,SRR9043664.110174831,96.43,84,3,0,581,664,1,84,2e-29,139
Capronia_kleinmondensis_CBS122671_T,SRR9043664.34282843,96.43,84,3,0,581,664,1,84,2e-29,139
Capronia_kleinmondensis_CBS122671_T,SRR9043664.62724480,89.66,87,8,1,578,664,302,217,1e-20,110
Capronia_kleinmondensis_CBS122671_T,SRR9043664.62797816,89.53,86,8,1,295,380,142,58,5e-20,108
Capronia_kleinmondensis_CBS122671_T,SRR9043664.56970210,100.00,52,0,0,224,275,155,206,1e-16,97.1
Capronia_kleinmondensis_CBS122671_T,SRR9043664.75369963,91.30,69,5,1,214,282,272,205,1e-15,93.5
Capronia_kleinmondensis_CBS122671_T,SRR9043664.75369963,96.15,52,2,0,224,275,155,206,2e-13,86.1
Capronia_kleinmondensis_CBS122671_T,SRR9043664.48626599,90.14,71,7,0,589,659,171,241,1e-15,93.5
Capronia_kleinmondensis_CBS122671_T,SRR9043664.82426559,100.00,41,0,0,567,607,41,1,1e-10,76.8
Capronia_kleinmondensis_CBS122671_T,SRR9043664.17687996,90.38,52,5,0,329,380,152,101,2e-08,69.4
Capronia_mansonii_CBS101.67_T,SRR9043664.71472977,96.04,101,4,0,568,668,162,262,3e-37,165
Capronia_mansonii_CBS101.67_T,SRR9043664.20002031,96.77,93,3,0,567,659,210,302,2e-34,156
Capronia_mansonii_CBS101.67_T,SRR9043664.10173473,96.77,93,3,0,567,659,210,302,2e-34,156
Capronia_mansonii_CBS101.67_T,SRR9043664.10171378,96.77,93,3,0,567,659,210,302,2e-34,156
Capronia_mansonii_CBS101.67_T,SRR9043664.110175693,95.24,84,4,0,585,668,1,84,8e-28,134
Capronia_mansonii_CBS101.67_T,SRR9043664.110174831,95.24,84,4,0,585,668,1,84,8e-28,134
Capronia_mansonii_CBS101.67_T,SRR9043664.34282843,95.24,84,4,0,585,668,1,84,8e-28,134
Capronia_mansonii_CBS101.67_T,SRR9043664.62724480,90.80,87,7,1,582,668,302,217,3e-22,115
Capronia_mansonii_CBS101.67_T,SRR9043664.56970210,100.00,52,0,0,210,261,155,206,1e-16,97.1
Capronia_mansonii_CBS101.67_T,SRR9043664.48626599,85.56,90,13,0,574,663,152,241,4e-16,95.3
Capronia_mansonii_CBS101.67_T,SRR9043664.75369963,94.92,59,3,0,210,268,263,205,1e-15,93.5
Capronia_mansonii_CBS101.67_T,SRR9043664.75369963,96.15,52,2,0,210,261,155,206,2e-13,86.1
Capronia_mansonii_CBS101.67_T,SRR9043664.90205871,100.00,42,0,0,570,611,192,151,4e-11,78.7
Capronia_munkii_DAOM216390_T,SRR9043664.71472977,96.04,101,4,0,568,668,162,262,3e-37,165
Capronia_munkii_DAOM216390_T,SRR9043664.20002031,96.77,93,3,0,567,659,210,302,2e-34,156
Capronia_munkii_DAOM216390_T,SRR9043664.10173473,96.77,93,3,0,567,659,210,302,2e-34,156
Capronia_munkii_DAOM216390_T,SRR9043664.10171378,96.77,93,3,0,567,659,210,302,2e-34,156
Capronia_munkii_DAOM216390_T,SRR9043664.110175693,95.24,84,4,0,585,668,1,84,8e-28,134
Capronia_munkii_DAOM216390_T,SRR9043664.110174831,95.24,84,4,0,585,668,1,84,8e-28,134
Capronia_munkii_DAOM216390_T,SRR9043664.34282843,95.24,84,4,0,585,668,1,84,8e-28,134
Capronia_munkii_DAOM216390_T,SRR9043664.62724480,90.80,87,7,1,582,668,302,217,3e-22,115
Capronia_munkii_DAOM216390_T,SRR9043664.56970210,100.00,52,0,0,210,261,155,206,1e-16,97.1
Capronia_munkii_DAOM216390_T,SRR9043664.48626599,85.56,90,13,0,574,663,152,241,4e-16,95.3
Capronia_munkii_DAOM216390_T,SRR9043664.75369963,94.92,59,3,0,210,268,263,205,1e-15,93.5
Capronia_munkii_DAOM216390_T,SRR9043664.75369963,96.15,52,2,0,210,261,155,206,2e-13,86.1
Capronia_munkii_DAOM216390_T,SRR9043664.90205871,100.00,42,0,0,570,611,192,151,4e-11,78.7
Capronia_coronata_ATCC56201_T,SRR9043664.71472977,96.04,101,4,0,539,639,162,262,3e-37,165
Capronia_coronata_ATCC56201_T,SRR9043664.20002031,96.81,94,3,0,537,630,209,302,5e-35,158
Capronia_coronata_ATCC56201_T,SRR9043664.10173473,96.81,94,3,0,537,630,209,302,5e-35,158
Capronia_coronata_ATCC56201_T,SRR9043664.10171378,96.81,94,3,0,537,630,209,302,5e-35,158
Capronia_coronata_ATCC56201_T,SRR9043664.110175693,95.24,84,4,0,556,639,1,84,8e-28,134
Capronia_coronata_ATCC56201_T,SRR9043664.110174831,95.24,84,4,0,556,639,1,84,8e-28,134
Capronia_coronata_ATCC56201_T,SRR9043664.34282843,95.24,84,4,0,556,639,1,84,8e-28,134
Capronia_coronata_ATCC56201_T,SRR9043664.62724480,90.80,87,7,1,553,639,302,217,3e-22,115
Capronia_coronata_ATCC56201_T,SRR9043664.56970210,100.00,52,0,0,198,249,155,206,1e-16,97.1
Capronia_coronata_ATCC56201_T,SRR9043664.75369963,92.42,66,5,0,191,256,270,205,4e-16,95.3
Capronia_coronata_ATCC56201_T,SRR9043664.75369963,96.15,52,2,0,198,249,155,206,2e-13,86.1
Capronia_coronata_ATCC56201_T,SRR9043664.48626599,85.56,90,13,0,545,634,152,241,4e-16,95.3
Capronia_coronata_ATCC56201_T,SRR9043664.90205871,92.73,55,3,1,529,582,205,151,4e-11,78.7
Capronia_parasitica_CBS123.88,SRR9043664.56970210,100.00,51,0,0,205,255,156,206,3e-16,95.3
Capronia_parasitica_CBS123.88,SRR9043664.75369963,94.83,58,3,0,205,262,262,205,5e-15,91.6
Capronia_parasitica_CBS123.88,SRR9043664.75369963,96.08,51,2,0,205,255,156,206,8e-13,84.2
Capronia_parasitica_CBS123.88,SRR9043664.82426559,100.00,33,0,0,563,595,41,9,4e-06,62.1
Veronaea_japonica_CBS776.83_T,SRR9043664.56970210,100.00,52,0,0,232,283,155,206,1e-16,97.1
Veronaea_japonica_CBS776.83_T,SRR9043664.75369963,94.92,59,3,0,232,290,263,205,1e-15,93.5
Veronaea_japonica_CBS776.83_T,SRR9043664.75369963,96.15,52,2,0,232,283,155,206,2e-13,86.1
Thysanorea_papuana_CBS212.96_T,SRR9043664.56970210,100.00,52,0,0,206,257,155,206,9e-17,97.1
Thysanorea_papuana_CBS212.96_T,SRR9043664.75369963,94.92,59,3,0,206,264,263,205,1e-15,93.5
Thysanorea_papuana_CBS212.96_T,SRR9043664.75369963,96.15,52,2,0,206,257,155,206,2e-13,86.1
Capronia_acutiseta_ATCC56428_T,SRR9043664.71472977,94.06,101,6,0,538,638,162,262,6e-34,154
Capronia_acutiseta_ATCC56428_T,SRR9043664.20002031,94.68,94,5,0,536,629,209,302,1e-31,147
Capronia_acutiseta_ATCC56428_T,SRR9043664.10173473,94.68,94,5,0,536,629,209,302,1e-31,147
Capronia_acutiseta_ATCC56428_T,SRR9043664.10171378,94.68,94,5,0,536,629,209,302,1e-31,147
Capronia_acutiseta_ATCC56428_T,SRR9043664.110175693,95.24,84,4,0,555,638,1,84,8e-28,134
Capronia_acutiseta_ATCC56428_T,SRR9043664.110174831,95.24,84,4,0,555,638,1,84,8e-28,134
Capronia_acutiseta_ATCC56428_T,SRR9043664.34282843,95.24,84,4,0,555,638,1,84,8e-28,134
Capronia_acutiseta_ATCC56428_T,SRR9043664.62724480,89.66,87,8,1,552,638,302,217,1e-20,110
Capronia_acutiseta_ATCC56428_T,SRR9043664.56970210,96.61,59,1,1,200,258,155,212,1e-16,97.1
Capronia_acutiseta_ATCC56428_T,SRR9043664.48626599,90.14,71,7,0,563,633,171,241,1e-15,93.5
Capronia_acutiseta_ATCC56428_T,SRR9043664.75369963,96.15,52,2,0,200,251,155,206,2e-13,86.1
Capronia_acutiseta_ATCC56428_T,SRR9043664.75369963,93.22,59,3,1,200,257,263,205,2e-13,86.1
Capronia_acutiseta_ATCC56428_T,SRR9043664.82426559,100.00,41,0,0,541,581,41,1,1e-10,76.8
Fonsecaea_brasiliensis_CBS119710_T,SRR9043664.56970210,100.00,51,0,0,207,257,156,206,3e-16,95.3
Fonsecaea_brasiliensis_CBS119710_T,SRR9043664.75369963,94.83,58,3,0,207,264,262,205,4e-15,91.6
Fonsecaea_brasiliensis_CBS119710_T,SRR9043664.75369963,96.08,51,2,0,207,257,156,206,7e-13,84.2
Fonsecaea_pedrosoi_CBS271.37_T,SRR9043664.20002031,96.77,62,2,0,584,645,210,271,6e-19,104
Fonsecaea_pedrosoi_CBS271.37_T,SRR9043664.10173473,96.77,62,2,0,584,645,210,271,6e-19,104
Fonsecaea_pedrosoi_CBS271.37_T,SRR9043664.10171378,96.77,62,2,0,584,645,210,271,6e-19,104
Fonsecaea_pedrosoi_CBS271.37_T,SRR9043664.71472977,95.08,61,3,0,585,645,162,222,1e-16,97.1
Fonsecaea_pedrosoi_CBS271.37_T,SRR9043664.56970210,100.00,51,0,0,235,285,156,206,4e-16,95.3
Fonsecaea_pedrosoi_CBS271.37_T,SRR9043664.75369963,94.83,58,3,0,235,292,262,205,5e-15,91.6
Fonsecaea_pedrosoi_CBS271.37_T,SRR9043664.75369963,96.08,51,2,0,235,285,156,206,8e-13,84.2
Fonsecaea_pedrosoi_CBS271.37_T,SRR9043664.62724480,95.74,47,2,0,599,645,302,256,1e-10,76.8
Fonsecaea_pedrosoi_CBS271.37_T,SRR9043664.110175693,95.45,44,2,0,602,645,1,44,6e-09,71.3
Fonsecaea_pedrosoi_CBS271.37_T,SRR9043664.110174831,95.45,44,2,0,602,645,1,44,6e-09,71.3
Fonsecaea_pedrosoi_CBS271.37_T,SRR9043664.34282843,95.45,44,2,0,602,645,1,44,6e-09,71.3
Fonsecaea_multimorphosa_CBS980.96_T,SRR9043664.56970210,100.00,51,0,0,205,255,156,206,3e-16,95.3
Fonsecaea_multimorphosa_CBS980.96_T,SRR9043664.75369963,94.83,58,3,0,205,262,262,205,4e-15,91.6
Fonsecaea_multimorphosa_CBS980.96_T,SRR9043664.75369963,96.08,51,2,0,205,255,156,206,7e-13,84.2
Fonsecaea_minima_CBS125760_T,SRR9043664.56970210,100.00,51,0,0,201,251,156,206,3e-16,95.3
Fonsecaea_minima_CBS125760_T,SRR9043664.75369963,94.83,58,3,0,201,258,262,205,4e-15,91.6
Fonsecaea_minima_CBS125760_T,SRR9043664.75369963,96.08,51,2,0,201,251,156,206,7e-13,84.2
Fonsecaea_nubica_CBS269.64_T,SRR9043664.56970210,100.00,51,0,0,212,262,156,206,3e-16,95.3
Fonsecaea_nubica_CBS269.64_T,SRR9043664.75369963,94.83,58,3,0,212,269,262,205,4e-15,91.6
Fonsecaea_nubica_CBS269.64_T,SRR9043664.75369963,96.08,51,2,0,212,262,156,206,7e-13,84.2
Fonsecaea_monophora_CBS269.37_T,SRR9043664.56970210,100.00,51,0,0,212,262,156,206,3e-16,95.3
Fonsecaea_monophora_CBS269.37_T,SRR9043664.75369963,96.08,51,2,0,212,262,156,206,7e-13,84.2
Fonsecaea_erecta_CBS125763_T,SRR9043664.56970210,100.00,51,0,0,196,246,156,206,3e-16,95.3
Fonsecaea_erecta_CBS125763_T,SRR9043664.75369963,94.83,58,3,0,196,253,262,205,4e-15,91.6
Fonsecaea_erecta_CBS125763_T,SRR9043664.75369963,96.08,51,2,0,196,246,156,206,7e-13,84.2
Fonsecaea_pugnacius_CBS139214_T,SRR9043664.56970210,100.00,51,0,0,205,255,156,206,3e-16,95.3
Fonsecaea_pugnacius_CBS139214_T,SRR9043664.75369963,94.83,58,3,0,205,262,262,205,4e-15,91.6
Fonsecaea_pugnacius_CBS139214_T,SRR9043664.75369963,96.08,51,2,0,205,255,156,206,7e-13,84.2
Cladophialophora_psammophila_CBS,SRR9043664.56970210,100.00,51,0,0,211,261,156,206,3e-16,95.3
Cladophialophora_psammophila_CBS,SRR9043664.75369963,94.83,58,3,0,211,268,262,205,4e-15,91.6
Cladophialophora_psammophila_CBS,SRR9043664.75369963,96.08,51,2,0,211,261,156,206,7e-13,84.2
Cladophialophora_devriesii_CBS,SRR9043664.56970210,100.00,51,0,0,207,257,156,206,3e-16,95.3
Cladophialophora_devriesii_CBS,SRR9043664.75369963,94.83,58,3,0,207,264,262,205,4e-15,91.6
Cladophialophora_devriesii_CBS,SRR9043664.75369963,96.08,51,2,0,207,257,156,206,7e-13,84.2
Cladophialophora_immunda_CBS834.96,SRR9043664.56970210,100.00,51,0,0,209,259,156,206,3e-16,95.3
Cladophialophora_immunda_CBS834.96,SRR9043664.75369963,94.83,58,3,0,209,266,262,205,4e-15,91.6
Cladophialophora_immunda_CBS834.96,SRR9043664.75369963,96.08,51,2,0,209,259,156,206,7e-13,84.2
Cladophialophora_arxii_CBS306.94_T,SRR9043664.56970210,100.00,51,0,0,211,261,156,206,3e-16,95.3
Cladophialophora_arxii_CBS306.94_T,SRR9043664.75369963,94.83,58,3,0,211,268,262,205,4e-15,91.6
Cladophialophora_arxii_CBS306.94_T,SRR9043664.75369963,96.08,51,2,0,211,261,156,206,7e-13,84.2
Cladophialophora_bantiana_CBS173.52,SRR9043664.56970210,100.00,51,0,0,205,255,156,206,3e-16,95.3
Cladophialophora_bantiana_CBS173.52,SRR9043664.75369963,94.83,58,3,0,205,262,262,205,4e-15,91.6
Cladophialophora_bantiana_CBS173.52,SRR9043664.75369963,96.08,51,2,0,205,255,156,206,7e-13,84.2
Cladophialophora_emmonsii_CBS102594,SRR9043664.56970210,100.00,51,0,0,196,246,156,206,3e-16,95.3
Cladophialophora_emmonsii_CBS102594,SRR9043664.75369963,94.83,58,3,0,196,253,262,205,4e-15,91.6
Cladophialophora_emmonsii_CBS102594,SRR9043664.75369963,96.08,51,2,0,196,246,156,206,7e-13,84.2
Cladophialophora_minourae_CBS556.83,SRR9043664.56970210,100.00,51,0,0,204,254,156,206,3e-16,95.3
Cladophialophora_minourae_CBS556.83,SRR9043664.75369963,94.83,58,3,0,204,261,262,205,4e-15,91.6
Cladophialophora_minourae_CBS556.83,SRR9043664.75369963,96.08,51,2,0,204,254,156,206,7e-13,84.2
Cladophialophora_australiensis_CBS112793,SRR9043664.105850353,94.74,152,8,0,1048,1199,1,152,1e-58,237
Cladophialophora_australiensis_CBS112793,SRR9043664.105850353,100.00,110,0,0,1362,1471,302,193,1e-48,204
Cladophialophora_australiensis_CBS112793,SRR9043664.71290194,94.74,152,8,0,1048,1199,1,152,1e-58,237
Cladophialophora_australiensis_CBS112793,SRR9043664.71290194,100.00,110,0,0,1362,1471,302,193,1e-48,204
Cladophialophora_australiensis_CBS112793,SRR9043664.285649,93.38,151,8,2,838,987,152,301,4e-54,222
Cladophialophora_australiensis_CBS112793,SRR9043664.285649,92.21,77,6,0,1128,1204,77,1,3e-20,110
Cladophialophora_australiensis_CBS112793,SRR9043664.77641574,92.72,151,9,2,1320,1469,1,150,2e-52,217
Cladophialophora_australiensis_CBS112793,SRR9043664.6591664,92.62,149,11,0,823,971,150,298,7e-52,215
Cladophialophora_australiensis_CBS112793,SRR9043664.6591664,84.87,152,16,6,1153,1302,149,3,2e-31,147
Cladophialophora_australiensis_CBS112793,SRR9043664.52086043,94.85,136,7,0,1336,1471,152,287,2e-51,213
Cladophialophora_australiensis_CBS112793,SRR9043664.42252710,91.56,154,12,1,789,942,148,300,8e-51,211
Cladophialophora_australiensis_CBS112793,SRR9043664.71472977,95.42,131,6,0,546,676,162,292,3e-50,209
Cladophialophora_australiensis_CBS112793,SRR9043664.100876909,99.12,113,1,0,1356,1468,1,113,1e-48,204
Cladophialophora_australiensis_CBS112793,SRR9043664.110175693,90.79,152,13,1,563,713,1,152,5e-48,202
Cladophialophora_australiensis_CBS112793,SRR9043664.110175693,88.82,152,12,4,750,898,301,152,7e-42,182
Cladophialophora_australiensis_CBS112793,SRR9043664.110174831,90.79,152,13,1,563,713,1,152,5e-48,202
Cladophialophora_australiensis_CBS112793,SRR9043664.110174831,88.82,152,12,4,750,898,301,152,7e-42,182
Cladophialophora_australiensis_CBS112793,SRR9043664.34282843,90.79,152,13,1,563,713,1,152,5e-48,202
Cladophialophora_australiensis_CBS112793,SRR9043664.34282843,88.82,152,12,4,750,898,301,152,7e-42,182
Cladophialophora_australiensis_CBS112793,SRR9043664.33180077,93.33,135,9,0,790,924,18,152,2e-47,200
Cladophialophora_australiensis_CBS112793,SRR9043664.74443809,96.64,119,4,0,1353,1471,152,270,7e-47,198
Cladophialophora_australiensis_CBS112793,SRR9043664.13722759,92.65,136,9,1,833,968,155,21,9e-46,195
Cladophialophora_australiensis_CBS112793,SRR9043664.86079788,90.41,146,14,0,849,994,152,297,3e-45,193
Cladophialophora_australiensis_CBS112793,SRR9043664.41942346,94.40,125,7,0,798,922,125,1,3e-45,193
Cladophialophora_australiensis_CBS112793,SRR9043664.51374518,94.83,116,6,0,1356,1471,1,116,7e-42,182
Cladophialophora_australiensis_CBS112793,SRR9043664.51374239,94.83,116,6,0,1356,1471,1,116,7e-42,182
Cladophialophora_australiensis_CBS112793,SRR9043664.101455125,94.78,115,6,0,1357,1471,151,37,2e-41,180
Cladophialophora_australiensis_CBS112793,SRR9043664.101455125,85.62,153,18,3,1099,1250,153,302,1e-34,158
Cladophialophora_australiensis_CBS112793,SRR9043664.33226208,91.87,123,10,0,865,987,152,274,4e-39,172
Cladophialophora_australiensis_CBS112793,SRR9043664.80270769,90.32,124,12,0,878,1001,302,179,2e-37,167
Cladophialophora_australiensis_CBS112793,SRR9043664.80270769,85.00,160,19,5,751,907,1,158,1e-34,158
Cladophialophora_australiensis_CBS112793,SRR9043664.8441484,89.39,132,13,1,1130,1261,20,150,7e-37,165
Cladophialophora_australiensis_CBS112793,SRR9043664.8441484,89.39,132,13,1,1130,1261,288,158,7e-37,165
Cladophialophora_australiensis_CBS112793,SRR9043664.98571210,96.88,96,3,0,1376,1471,302,207,9e-36,161
Cladophialophora_australiensis_CBS112793,SRR9043664.62724480,86.00,150,17,3,560,706,302,154,1e-34,158
Cladophialophora_australiensis_CBS112793,SRR9043664.74389995,85.71,147,19,2,1153,1299,158,302,1e-33,154
Cladophialophora_australiensis_CBS112793,SRR9043664.366666,85.71,147,19,2,1153,1299,158,302,1e-33,154
Cladophialophora_australiensis_CBS112793,SRR9043664.20002031,95.70,93,4,0,545,637,210,302,2e-32,150
Cladophialophora_australiensis_CBS112793,SRR9043664.10173473,95.70,93,4,0,545,637,210,302,2e-32,150
Cladophialophora_australiensis_CBS112793,SRR9043664.10171378,95.70,93,4,0,545,637,210,302,2e-32,150
Cladophialophora_australiensis_CBS112793,SRR9043664.74698384,93.07,101,7,0,1371,1471,4,104,7e-32,148
Cladophialophora_australiensis_CBS112793,SRR9043664.11402904,84.87,152,16,6,1153,1302,149,3,2e-31,147
Cladophialophora_australiensis_CBS112793,SRR9043664.11402532,84.87,152,16,6,1153,1302,149,3,2e-31,147
Cladophialophora_australiensis_CBS112793,SRR9043664.99579297,91.09,101,9,0,895,995,1,101,1e-28,137
Cladophialophora_australiensis_CBS112793,SRR9043664.99579297,83.80,142,18,4,1064,1204,289,152,2e-26,130
Cladophialophora_australiensis_CBS112793,SRR9043664.88536742,84.00,150,15,8,1140,1285,156,300,5e-28,135
Cladophialophora_australiensis_CBS112793,SRR9043664.88536742,96.25,80,3,0,1390,1469,151,72,7e-27,132
Cladophialophora_australiensis_CBS112793,SRR9043664.61644529,82.12,151,26,1,1217,1367,153,302,9e-26,128
Cladophialophora_australiensis_CBS112793,SRR9043664.9186574,83.70,135,17,4,1129,1261,20,151,4e-24,122
Cladophialophora_australiensis_CBS112793,SRR9043664.22409511,84.00,125,19,1,1153,1277,142,19,5e-23,119
Cladophialophora_australiensis_CBS112793,SRR9043664.22408941,84.00,125,19,1,1153,1277,142,19,5e-23,119
Cladophialophora_australiensis_CBS112793,SRR9043664.87809210,90.70,86,8,0,1334,1419,237,152,7e-22,115
Cladophialophora_australiensis_CBS112793,SRR9043664.48626599,81.97,122,19,2,552,671,152,272,2e-17,100
Cladophialophora_australiensis_CBS112793,SRR9043664.36238823,100.00,54,0,0,1418,1471,1,54,2e-17,100
Cladophialophora_australiensis_CBS112793,SRR9043664.56970210,98.18,55,0,1,203,256,152,206,9e-16,95.3
Cladophialophora_australiensis_CBS112793,SRR9043664.75369963,94.83,58,3,0,206,263,262,205,1e-14,91.6
Cladophialophora_australiensis_CBS112793,SRR9043664.75369963,94.55,55,2,1,203,256,152,206,2e-12,84.2
Cladophialophora_australiensis_CBS112793,SRR9043664.92261444,89.71,68,7,0,1165,1232,224,291,1e-13,87.9
Cladophialophora_australiensis_CBS112793,SRR9043664.90482208,87.18,78,8,2,1129,1204,78,1,1e-13,87.9
Cladophialophora_australiensis_CBS112793,SRR9043664.108089650,87.67,73,9,0,1165,1237,227,155,5e-13,86.1
Cladophialophora_australiensis_CBS112793,SRR9043664.10262586,89.83,59,4,2,1165,1222,120,63,1e-09,75.0
Cladophialophora_australiensis_CBS112793,SRR9043664.10262586,89.83,59,4,2,1165,1222,202,259,1e-09,75.0
Cladophialophora_australiensis_CBS112793,SRR9043664.65287763,83.54,79,8,4,1185,1261,1,76,5e-08,69.4
Cladophialophora_australiensis_CBS112793,SRR9043664.103016725,87.50,56,7,0,1175,1230,56,1,7e-07,65.8
Cladophialophora_australiensis_CBS112793,SRR9043664.28443565,87.50,56,7,0,1175,1230,56,1,7e-07,65.8
Cladophialophora_australiensis_CBS112793,SRR9043664.28443090,87.50,56,7,0,1175,1230,56,1,7e-07,65.8
Cladophialophora_australiensis_CBS112793,SRR9043664.14465115,100.00,31,0,0,1177,1207,266,296,1e-04,58.4
Cladophialophora_australiensis_CBS112793,SRR9043664.1874623,100.00,31,0,0,1441,1471,1,31,1e-04,58.4
Cladophialophora_australiensis_CBS112793,SRR9043664.92197074,92.50,40,2,1,1170,1209,44,6,4e-04,56.5
Cladophialophora_australiensis_CBS112793,SRR9043664.1321129,92.50,40,2,1,1170,1209,44,6,4e-04,56.5
Cladophialophora_australiensis_CBS112793,SRR9043664.1320956,92.50,40,2,1,1170,1209,44,6,4e-04,56.5
Cladophialophora_australiensis_CBS112793,SRR9043664.97130578,100.00,29,0,0,1177,1205,180,152,0.002,54.7
Cladophialophora_australiensis_CBS112793,SRR9043664.41663637,100.00,29,0,0,1177,1205,180,152,0.002,54.7
Cladophialophora_potulentorum_CBS112222,SRR9043664.105850353,96.05,152,6,0,1050,1201,1,152,7e-62,248
Cladophialophora_potulentorum_CBS112222,SRR9043664.105850353,100.00,130,0,0,1364,1493,302,173,1e-59,241
Cladophialophora_potulentorum_CBS112222,SRR9043664.71290194,96.05,152,6,0,1050,1201,1,152,7e-62,248
Cladophialophora_potulentorum_CBS112222,SRR9043664.71290194,100.00,130,0,0,1364,1493,302,173,1e-59,241
Cladophialophora_potulentorum_CBS112222,SRR9043664.100876909,97.79,136,3,0,1358,1493,1,136,5e-58,235
Cladophialophora_potulentorum_CBS112222,SRR9043664.52086043,94.70,151,8,0,1338,1488,152,302,5e-58,235
Cladophialophora_potulentorum_CBS112222,SRR9043664.285649,94.00,150,9,0,840,989,152,301,9e-56,228
Cladophialophora_potulentorum_CBS112222,SRR9043664.285649,81.56,141,23,3,1066,1206,138,1,2e-21,113
Cladophialophora_potulentorum_CBS112222,SRR9043664.74443809,94.96,139,7,0,1355,1493,152,290,5e-53,219
Cladophialophora_potulentorum_CBS112222,SRR9043664.77641574,92.72,151,9,2,1322,1471,1,150,2e-52,217
Cladophialophora_potulentorum_CBS112222,SRR9043664.6591664,92.62,149,11,0,825,973,150,298,7e-52,215
Cladophialophora_potulentorum_CBS112222,SRR9043664.6591664,84.11,151,19,5,1155,1304,149,3,1e-29,141
Cladophialophora_potulentorum_CBS112222,SRR9043664.42252710,91.56,154,12,1,791,944,148,300,9e-51,211
Cladophialophora_potulentorum_CBS112222,SRR9043664.71472977,95.42,131,6,0,548,678,162,292,3e-50,209
Cladophialophora_potulentorum_CBS112222,SRR9043664.110175693,90.79,152,13,1,565,715,1,152,5e-48,202
Cladophialophora_potulentorum_CBS112222,SRR9043664.110175693,89.33,150,15,1,752,900,301,152,1e-43,187
Cladophialophora_potulentorum_CBS112222,SRR9043664.110174831,90.79,152,13,1,565,715,1,152,5e-48,202
Cladophialophora_potulentorum_CBS112222,SRR9043664.110174831,89.33,150,15,1,752,900,301,152,1e-43,187
Cladophialophora_potulentorum_CBS112222,SRR9043664.51374518,93.38,136,9,0,1358,1493,1,136,5e-48,202
Cladophialophora_potulentorum_CBS112222,SRR9043664.51374239,93.38,136,9,0,1358,1493,1,136,5e-48,202
Cladophialophora_potulentorum_CBS112222,SRR9043664.34282843,90.79,152,13,1,565,715,1,152,5e-48,202
Cladophialophora_potulentorum_CBS112222,SRR9043664.34282843,89.33,150,15,1,752,900,301,152,1e-43,187
Cladophialophora_potulentorum_CBS112222,SRR9043664.101455125,93.33,135,9,0,1359,1493,151,17,2e-47,200
Cladophialophora_potulentorum_CBS112222,SRR9043664.101455125,85.53,152,16,5,1101,1250,153,300,1e-33,154
Cladophialophora_potulentorum_CBS112222,SRR9043664.33180077,93.33,135,9,0,792,926,18,152,2e-47,200
Cladophialophora_potulentorum_CBS112222,SRR9043664.86079788,91.10,146,13,0,851,996,152,297,7e-47,198
Cladophialophora_potulentorum_CBS112222,SRR9043664.13722759,90.67,150,13,1,835,984,155,7,7e-47,198
Cladophialophora_potulentorum_CBS112222,SRR9043664.98571210,96.55,116,4,0,1378,1493,302,187,3e-45,193
Cladophialophora_potulentorum_CBS112222,SRR9043664.41942346,94.40,125,7,0,800,924,125,1,3e-45,193
Cladophialophora_potulentorum_CBS112222,SRR9043664.14465115,89.44,142,15,0,1347,1488,152,11,2e-41,180
Cladophialophora_potulentorum_CBS112222,SRR9043664.14465115,100.00,31,0,0,1179,1209,266,296,1e-04,58.4
Cladophialophora_potulentorum_CBS112222,SRR9043664.33226208,92.80,125,5,3,867,989,152,274,9e-41,178
Cladophialophora_potulentorum_CBS112222,SRR9043664.80270769,91.13,124,11,0,880,1003,302,179,4e-39,172
Cladophialophora_potulentorum_CBS112222,SRR9043664.80270769,93.33,105,6,1,806,909,54,158,1e-33,154
Cladophialophora_potulentorum_CBS112222,SRR9043664.74698384,93.10,116,8,0,1373,1488,4,119,1e-38,171
Cladophialophora_potulentorum_CBS112222,SRR9043664.8441484,88.64,132,14,1,1132,1263,20,150,3e-35,159
Cladophialophora_potulentorum_CBS112222,SRR9043664.8441484,88.64,132,14,1,1132,1263,288,158,3e-35,159
Cladophialophora_potulentorum_CBS112222,SRR9043664.62724480,86.00,150,17,3,562,708,302,154,1e-34,158
Cladophialophora_potulentorum_CBS112222,SRR9043664.20002031,95.74,94,4,0,546,639,209,302,5e-33,152
Cladophialophora_potulentorum_CBS112222,SRR9043664.10173473,95.74,94,4,0,546,639,209,302,5e-33,152
Cladophialophora_potulentorum_CBS112222,SRR9043664.10171378,95.74,94,4,0,546,639,209,302,5e-33,152
Cladophialophora_potulentorum_CBS112222,SRR9043664.88536742,93.14,102,7,0,1392,1493,151,50,2e-32,150
Cladophialophora_potulentorum_CBS112222,SRR9043664.88536742,83.22,149,18,7,1142,1287,156,300,2e-26,130
Cladophialophora_potulentorum_CBS112222,SRR9043664.74389995,85.03,147,20,2,1155,1301,158,302,7e-32,148
Cladophialophora_potulentorum_CBS112222,SRR9043664.366666,85.03,147,20,2,1155,1301,158,302,7e-32,148
Cladophialophora_potulentorum_CBS112222,SRR9043664.99579297,92.08,101,8,0,897,997,1,101,3e-30,143
Cladophialophora_potulentorum_CBS112222,SRR9043664.99579297,84.62,143,17,4,1065,1206,290,152,1e-28,137
Cladophialophora_potulentorum_CBS112222,SRR9043664.11402904,84.11,151,19,5,1155,1304,149,3,1e-29,141
Cladophialophora_potulentorum_CBS112222,SRR9043664.11402532,84.11,151,19,5,1155,1304,149,3,1e-29,141
Cladophialophora_potulentorum_CBS112222,SRR9043664.36238823,98.65,74,1,0,1420,1493,1,74,7e-27,132
Cladophialophora_potulentorum_CBS112222,SRR9043664.9186574,84.33,134,18,3,1131,1263,20,151,9e-26,128
Cladophialophora_potulentorum_CBS112222,SRR9043664.61644529,81.58,152,27,1,1218,1369,152,302,1e-24,124
Cladophialophora_potulentorum_CBS112222,SRR9043664.87809210,90.70,86,8,0,1336,1421,237,152,7e-22,115
Cladophialophora_potulentorum_CBS112222,SRR9043664.62797816,90.70,86,7,1,275,360,142,58,2e-21,113
Cladophialophora_potulentorum_CBS112222,SRR9043664.22409511,81.60,125,22,1,1155,1279,142,19,5e-18,102
Cladophialophora_potulentorum_CBS112222,SRR9043664.22408941,81.60,125,22,1,1155,1279,142,19,5e-18,102
Cladophialophora_potulentorum_CBS112222,SRR9043664.48626599,81.97,122,19,2,554,673,152,272,2e-17,100
Cladophialophora_potulentorum_CBS112222,SRR9043664.56970210,100.00,52,0,0,204,255,155,206,3e-16,97.1
Cladophialophora_potulentorum_CBS112222,SRR9043664.75369963,94.92,59,3,0,204,262,263,205,3e-15,93.5
Cladophialophora_potulentorum_CBS112222,SRR9043664.75369963,96.15,52,2,0,204,255,155,206,5e-13,86.1
Cladophialophora_potulentorum_CBS112222,SRR9043664.92261444,89.71,68,7,0,1167,1234,224,291,2e-13,87.9
Cladophialophora_potulentorum_CBS112222,SRR9043664.90482208,85.90,78,9,2,1131,1206,78,1,7e-12,82.4
Cladophialophora_potulentorum_CBS112222,SRR9043664.10262586,91.38,58,5,0,1167,1224,120,63,3e-11,80.5
Cladophialophora_potulentorum_CBS112222,SRR9043664.10262586,91.38,58,5,0,1167,1224,202,259,3e-11,80.5
Cladophialophora_potulentorum_CBS112222,SRR9043664.1874623,97.83,46,1,0,1443,1488,1,46,3e-11,80.5
Cladophialophora_potulentorum_CBS112222,SRR9043664.108089650,89.83,59,6,0,1181,1239,213,155,3e-10,76.8
Cladophialophora_potulentorum_CBS112222,SRR9043664.17687996,92.31,52,4,0,309,360,152,101,1e-09,75.0
Cladophialophora_potulentorum_CBS112222,SRR9043664.65287763,82.28,79,9,4,1187,1263,1,76,3e-06,63.9
Cladophialophora_potulentorum_CBS112222,SRR9043664.103016725,100.00,33,0,0,1177,1209,56,24,9e-06,62.1
Cladophialophora_potulentorum_CBS112222,SRR9043664.28443565,100.00,33,0,0,1177,1209,56,24,9e-06,62.1
Cladophialophora_potulentorum_CBS112222,SRR9043664.28443090,100.00,33,0,0,1177,1209,56,24,9e-06,62.1
Cladophialophora_potulentorum_CBS112222,SRR9043664.92197074,100.00,30,0,0,1182,1211,35,6,4e-04,56.5
Cladophialophora_potulentorum_CBS112222,SRR9043664.1321129,100.00,30,0,0,1182,1211,35,6,4e-04,56.5
Cladophialophora_potulentorum_CBS112222,SRR9043664.1320956,100.00,30,0,0,1182,1211,35,6,4e-04,56.5
Cladophialophora_potulentorum_CBS112222,SRR9043664.97130578,100.00,29,0,0,1179,1207,180,152,0.002,54.7
Cladophialophora_potulentorum_CBS112222,SRR9043664.41663637,100.00,29,0,0,1179,1207,180,152,0.002,54.7
Cladophialophora_matsushimae_CMRP1198,SRR9043664.62797816,89.53,86,8,1,279,364,142,58,4e-20,108
Cladophialophora_matsushimae_CMRP1198,SRR9043664.56970210,100.00,52,0,0,208,259,155,206,8e-17,97.1
Cladophialophora_matsushimae_CMRP1198,SRR9043664.75369963,92.54,67,4,1,200,266,270,205,3e-16,95.3
Cladophialophora_matsushimae_CMRP1198,SRR9043664.75369963,96.15,52,2,0,208,259,155,206,2e-13,86.1
Cladophialophora_matsushimae_CMRP1198,SRR9043664.17687996,90.38,52,5,0,313,364,152,101,2e-08,69.4
Cladophialophora_mycetomatis_CBS122637,SRR9043664.62797816,89.53,86,8,1,264,349,142,58,4e-20,108
Cladophialophora_mycetomatis_CBS122637,SRR9043664.56970210,100.00,52,0,0,193,244,155,206,9e-17,97.1
Cladophialophora_mycetomatis_CBS122637,SRR9043664.75369963,92.54,67,4,1,185,251,270,205,3e-16,95.3
Cladophialophora_mycetomatis_CBS122637,SRR9043664.75369963,96.15,52,2,0,193,244,155,206,2e-13,86.1
Cladophialophora_mycetomatis_CBS122637,SRR9043664.17687996,90.38,52,5,0,298,349,152,101,2e-08,69.4
Cladophialophora_chaetospira_CBS127573,SRR9043664.56970210,96.15,52,2,0,599,650,155,206,3e-13,86.1
Cladophialophora_chaetospira_CBS127573,SRR9043664.75369963,96.00,50,2,0,608,657,254,205,4e-12,82.4
Cladophialophora_chaetospira_CBS127573,SRR9043664.75369963,92.31,52,4,0,599,650,155,206,7e-10,75.0
Cladophialophora_boppii_CBS126.86_T,SRR9043664.56970210,100.00,52,0,0,201,252,155,206,9e-17,97.1
Cladophialophora_boppii_CBS126.86_T,SRR9043664.75369963,94.92,59,3,0,201,259,263,205,1e-15,93.5
Cladophialophora_boppii_CBS126.86_T,SRR9043664.75369963,96.15,52,2,0,201,252,155,206,2e-13,86.1
Cladophialophora_abundans_CBS126736,SRR9043664.56970210,100.00,52,0,0,138,189,155,206,8e-17,97.1
Cladophialophora_abundans_CBS126736,SRR9043664.75369963,93.65,63,4,0,134,196,267,205,3e-16,95.3
Cladophialophora_abundans_CBS126736,SRR9043664.75369963,96.15,52,2,0,138,189,155,206,2e-13,86.1
Capronia_semi-immersa_CBS102234,SRR9043664.56970210,100.00,51,0,0,201,251,156,206,3e-16,95.3
Capronia_semi-immersa_CBS102234,SRR9043664.75369963,94.83,58,3,0,201,258,262,205,4e-15,91.6
Capronia_semi-immersa_CBS102234,SRR9043664.75369963,96.08,51,2,0,201,251,156,206,7e-13,84.2
Phialophora_americana_CBS400.67,SRR9043664.105850353,97.37,152,4,0,1042,1193,1,152,3e-65,259
Phialophora_americana_CBS400.67,SRR9043664.105850353,100.00,90,0,0,1356,1445,302,213,2e-37,167
Phialophora_americana_CBS400.67,SRR9043664.71290194,97.37,152,4,0,1042,1193,1,152,3e-65,259
Phialophora_americana_CBS400.67,SRR9043664.71290194,100.00,90,0,0,1356,1445,302,213,2e-37,167
Phialophora_americana_CBS400.67,SRR9043664.285649,93.33,150,10,0,832,981,152,301,4e-54,222
Phialophora_americana_CBS400.67,SRR9043664.285649,83.10,142,21,3,1057,1198,139,1,3e-25,126
Phialophora_americana_CBS400.67,SRR9043664.71472977,95.42,131,6,0,540,670,162,292,3e-50,209
Phialophora_americana_CBS400.67,SRR9043664.71472977,91.51,106,5,3,605,709,151,49,3e-30,143
Phialophora_americana_CBS400.67,SRR9043664.6591664,91.95,149,12,0,817,965,150,298,3e-50,209
Phialophora_americana_CBS400.67,SRR9043664.6591664,86.09,151,16,5,1147,1296,149,3,1e-34,158
Phialophora_americana_CBS400.67,SRR9043664.33180077,94.70,132,7,0,784,915,18,149,4e-49,206
Phialophora_americana_CBS400.67,SRR9043664.13722759,91.33,150,12,1,827,976,155,7,1e-48,204
Phialophora_americana_CBS400.67,SRR9043664.42252710,90.54,148,14,0,789,936,153,300,2e-46,196
Phialophora_americana_CBS400.67,SRR9043664.86079788,90.34,145,14,0,843,987,152,296,1e-44,191
Phialophora_americana_CBS400.67,SRR9043664.41942346,95.00,120,6,0,796,915,121,2,4e-44,189
Phialophora_americana_CBS400.67,SRR9043664.77641574,91.73,133,9,2,1314,1445,1,132,2e-42,183
Phialophora_americana_CBS400.67,SRR9043664.110175693,88.82,152,12,4,744,892,301,152,7e-42,182
Phialophora_americana_CBS400.67,SRR9043664.110174831,88.82,152,12,4,744,892,301,152,7e-42,182
Phialophora_americana_CBS400.67,SRR9043664.34282843,88.82,152,12,4,744,892,301,152,7e-42,182
Phialophora_americana_CBS400.67,SRR9043664.8441484,90.91,132,11,1,1124,1255,20,150,3e-40,176
Phialophora_americana_CBS400.67,SRR9043664.8441484,90.91,132,11,1,1124,1255,288,158,3e-40,176
Phialophora_americana_CBS400.67,SRR9043664.100876909,98.96,96,1,0,1350,1445,1,96,4e-39,172
Phialophora_americana_CBS400.67,SRR9043664.33226208,92.00,125,6,3,859,981,152,274,4e-39,172
Phialophora_americana_CBS400.67,SRR9043664.80270769,86.25,160,17,5,745,901,1,158,5e-38,169
Phialophora_americana_CBS400.67,SRR9043664.80270769,89.06,128,13,1,872,998,302,175,8e-36,161
Phialophora_americana_CBS400.67,SRR9043664.74443809,95.96,99,4,0,1347,1445,152,250,8e-36,161
Phialophora_americana_CBS400.67,SRR9043664.11402904,86.09,151,16,5,1147,1296,149,3,1e-34,158
Phialophora_americana_CBS400.67,SRR9043664.11402532,86.09,151,16,5,1147,1296,149,3,1e-34,158
Phialophora_americana_CBS400.67,SRR9043664.101455125,84.87,152,17,5,1093,1242,153,300,7e-32,148
Phialophora_americana_CBS400.67,SRR9043664.101455125,93.68,95,6,0,1351,1445,151,57,3e-30,143
Phialophora_americana_CBS400.67,SRR9043664.88536742,85.23,149,15,7,1134,1279,156,300,2e-31,147
Phialophora_americana_CBS400.67,SRR9043664.88536742,95.16,62,3,0,1384,1445,151,90,7e-17,99.0
Phialophora_americana_CBS400.67,SRR9043664.51374518,93.75,96,6,0,1350,1445,1,96,9e-31,145
Phialophora_americana_CBS400.67,SRR9043664.51374239,93.75,96,6,0,1350,1445,1,96,9e-31,145
Phialophora_americana_CBS400.67,SRR9043664.74389995,84.35,147,21,2,1147,1293,158,302,3e-30,143
Phialophora_americana_CBS400.67,SRR9043664.366666,84.35,147,21,2,1147,1293,158,302,3e-30,143
Phialophora_americana_CBS400.67,SRR9043664.9186574,85.07,134,17,3,1123,1255,20,151,2e-27,134
Phialophora_americana_CBS400.67,SRR9043664.99579297,83.10,142,19,4,1058,1198,289,152,1e-24,124
Phialophora_americana_CBS400.67,SRR9043664.98571210,96.05,76,3,0,1370,1445,302,227,1e-24,124
Phialophora_americana_CBS400.67,SRR9043664.61644529,81.58,152,27,1,1210,1361,152,302,1e-24,124
Phialophora_americana_CBS400.67,SRR9043664.20002031,91.11,90,3,3,622,710,153,68,2e-22,117
Phialophora_americana_CBS400.67,SRR9043664.10173473,91.11,90,3,3,622,710,153,68,2e-22,117
Phialophora_americana_CBS400.67,SRR9043664.10171378,91.11,90,3,3,622,710,153,68,2e-22,117
Phialophora_americana_CBS400.67,SRR9043664.87809210,90.70,86,8,0,1328,1413,237,152,7e-22,115
Phialophora_americana_CBS400.67,SRR9043664.22409511,83.20,125,20,1,1147,1271,142,19,2e-21,113
Phialophora_americana_CBS400.67,SRR9043664.22408941,83.20,125,20,1,1147,1271,142,19,2e-21,113
Phialophora_americana_CBS400.67,SRR9043664.92261444,92.65,68,5,0,1159,1226,224,291,7e-17,99.0
Phialophora_americana_CBS400.67,SRR9043664.101880334,84.95,93,14,0,875,967,151,243,9e-16,95.3
Phialophora_americana_CBS400.67,SRR9043664.56970210,100.00,51,0,0,203,253,156,206,9e-16,95.3
Phialophora_americana_CBS400.67,SRR9043664.75369963,94.83,58,3,0,203,260,262,205,1e-14,91.6
Phialophora_americana_CBS400.67,SRR9043664.75369963,96.08,51,2,0,203,253,156,206,2e-12,84.2
Phialophora_americana_CBS400.67,SRR9043664.90482208,87.18,78,8,2,1123,1198,78,1,1e-13,87.9
Phialophora_americana_CBS400.67,SRR9043664.108089650,87.67,73,9,0,1159,1231,227,155,5e-13,86.1
Phialophora_americana_CBS400.67,SRR9043664.10262586,93.22,59,2,2,1159,1216,120,63,5e-13,86.1
Phialophora_americana_CBS400.67,SRR9043664.10262586,93.22,59,2,2,1159,1216,202,259,5e-13,86.1
Phialophora_americana_CBS400.67,SRR9043664.65287763,83.12,77,12,1,1179,1255,1,76,5e-08,69.4
Phialophora_americana_CBS400.67,SRR9043664.103016725,87.50,56,7,0,1169,1224,56,1,7e-07,65.8
Phialophora_americana_CBS400.67,SRR9043664.28443565,87.50,56,7,0,1169,1224,56,1,7e-07,65.8
Phialophora_americana_CBS400.67,SRR9043664.28443090,87.50,56,7,0,1169,1224,56,1,7e-07,65.8
Phialophora_americana_CBS400.67,SRR9043664.36238823,100.00,34,0,0,1412,1445,1,34,2e-06,63.9
Phialophora_americana_CBS400.67,SRR9043664.14465115,100.00,31,0,0,1171,1201,266,296,1e-04,58.4
Phialophora_americana_CBS400.67,SRR9043664.92197074,92.50,40,2,1,1164,1203,44,6,4e-04,56.5
Phialophora_americana_CBS400.67,SRR9043664.1321129,92.50,40,2,1,1164,1203,44,6,4e-04,56.5
Phialophora_americana_CBS400.67,SRR9043664.1320956,92.50,40,2,1,1164,1203,44,6,4e-04,56.5
Phialophora_americana_CBS400.67,SRR9043664.97130578,100.00,29,0,0,1171,1199,180,152,0.001,54.7
Phialophora_americana_CBS400.67,SRR9043664.41663637,100.00,29,0,0,1171,1199,180,152,0.001,54.7
Phialophora_verrucosa_CBS140325_T,SRR9043664.56970210,100.00,51,0,0,207,257,156,206,3e-16,95.3
Phialophora_verrucosa_CBS140325_T,SRR9043664.75369963,94.83,58,3,0,207,264,262,205,4e-15,91.6
Phialophora_verrucosa_CBS140325_T,SRR9043664.75369963,96.08,51,2,0,207,257,156,206,7e-13,84.2
Cladophialophora_samoensis_CBS259.83_T,SRR9043664.56970210,100.00,51,0,0,207,257,156,206,3e-16,95.3
Cladophialophora_samoensis_CBS259.83_T,SRR9043664.75369963,94.83,58,3,0,207,264,262,205,4e-15,91.6
Cladophialophora_samoensis_CBS259.83_T,SRR9043664.75369963,96.08,51,2,0,207,257,156,206,7e-13,84.2
Cladophialophora_carrionii_CBS260.83,SRR9043664.56970210,100.00,51,0,0,223,273,156,206,4e-16,95.3
Cladophialophora_carrionii_CBS260.83,SRR9043664.75369963,94.83,58,3,0,223,280,262,205,5e-15,91.6
Cladophialophora_carrionii_CBS260.83,SRR9043664.75369963,96.08,51,2,0,223,273,156,206,8e-13,84.2
Exophiala_palmae_UPCB86822_T,SRR9043664.56970210,100.00,52,0,0,165,216,155,206,8e-17,97.1
Exophiala_palmae_UPCB86822_T,SRR9043664.75369963,94.92,59,3,0,165,223,263,205,1e-15,93.5
Exophiala_palmae_UPCB86822_T,SRR9043664.75369963,96.15,52,2,0,165,216,155,206,2e-13,86.1
Cladophialophora_yegresii_CBS114405_T,SRR9043664.56970210,100.00,51,0,0,208,258,156,206,3e-16,95.3
Cladophialophora_yegresii_CBS114405_T,SRR9043664.75369963,94.83,58,3,0,208,265,262,205,4e-15,91.6
Cladophialophora_yegresii_CBS114405_T,SRR9043664.75369963,96.08,51,2,0,208,258,156,206,7e-13,84.2
Knufia_epidermidis_CBS120353_T,SRR9043664.56970210,100.00,52,0,0,205,256,155,206,9e-17,97.1
Knufia_epidermidis_CBS120353_T,SRR9043664.75369963,94.92,59,3,0,205,263,263,205,1e-15,93.5
Knufia_epidermidis_CBS120353_T,SRR9043664.75369963,96.15,52,2,0,205,256,155,206,2e-13,86.1
Arthrocladium_fulminans_CBS136243_T,SRR9043664.75369963,92.65,68,4,1,191,258,271,205,9e-17,97.1
Arthrocladium_fulminans_CBS136243_T,SRR9043664.75369963,96.15,52,2,0,200,251,155,206,2e-13,86.1
Arthrocladium_fulminans_CBS136243_T,SRR9043664.56970210,100.00,52,0,0,200,251,155,206,9e-17,97.1
Anthopsis_deltoidea_CBS263.77_T,SRR9043664.56970210,100.00,51,0,0,210,260,156,206,3e-16,95.3
Anthopsis_deltoidea_CBS263.77_T,SRR9043664.75369963,94.83,58,3,0,210,267,262,205,4e-15,91.6
Anthopsis_deltoidea_CBS263.77_T,SRR9043664.75369963,96.08,51,2,0,210,260,156,206,7e-13,84.2
Cyphellophora_laciniata_CBS190.61_T,SRR9043664.71472977,96.19,105,4,0,631,735,158,262,2e-39,172
Cyphellophora_laciniata_CBS190.61_T,SRR9043664.20002031,97.89,95,2,0,632,726,208,302,3e-37,165
Cyphellophora_laciniata_CBS190.61_T,SRR9043664.10173473,97.89,95,2,0,632,726,208,302,3e-37,165
Cyphellophora_laciniata_CBS190.61_T,SRR9043664.10171378,97.89,95,2,0,632,726,208,302,3e-37,165
Cyphellophora_laciniata_CBS190.61_T,SRR9043664.110175693,96.43,84,3,0,652,735,1,84,2e-29,139
Cyphellophora_laciniata_CBS190.61_T,SRR9043664.110174831,96.43,84,3,0,652,735,1,84,2e-29,139
Cyphellophora_laciniata_CBS190.61_T,SRR9043664.34282843,96.43,84,3,0,652,735,1,84,2e-29,139
Cyphellophora_laciniata_CBS190.61_T,SRR9043664.62724480,91.95,87,6,1,649,735,302,217,7e-24,121
Cyphellophora_laciniata_CBS190.61_T,SRR9043664.111818853,97.14,70,2,0,29,98,158,227,3e-23,119
Cyphellophora_laciniata_CBS190.61_T,SRR9043664.33076308,97.14,70,2,0,29,98,158,227,3e-23,119
Cyphellophora_laciniata_CBS190.61_T,SRR9043664.24814579,97.14,70,2,0,29,98,158,227,3e-23,119
Cyphellophora_laciniata_CBS190.61_T,SRR9043664.75369963,92.41,79,6,0,29,107,4,82,1e-21,113
Cyphellophora_laciniata_CBS190.61_T,SRR9043664.75369963,94.92,59,3,0,294,352,263,205,2e-15,93.5
Cyphellophora_laciniata_CBS190.61_T,SRR9043664.75369963,96.15,52,2,0,294,345,155,206,3e-13,86.1
Cyphellophora_laciniata_CBS190.61_T,SRR9043664.56970210,92.41,79,6,0,29,107,4,82,1e-21,113
Cyphellophora_laciniata_CBS190.61_T,SRR9043664.56970210,100.00,52,0,0,294,345,155,206,1e-16,97.1
Cyphellophora_laciniata_CBS190.61_T,SRR9043664.48626599,86.67,90,12,0,641,730,152,241,9e-18,100
Cyphellophora_laciniata_CBS190.61_T,SRR9043664.90205871,88.00,75,9,0,1,75,76,150,2e-14,89.8
Cyphellophora_laciniata_CBS190.61_T,SRR9043664.90205871,100.00,42,0,0,637,678,192,151,4e-11,78.7
Cyphellophora_laciniata_CBS190.61_T,SRR9043664.34441845,97.62,42,1,0,24,65,192,151,2e-09,73.1
Cyphellophora_laciniata_CBS190.61_T,SRR9043664.66789577,97.30,37,1,0,24,60,115,151,1e-06,63.9
Cyphellophora_suttonii_CBS449.91,SRR9043664.56970210,100.00,52,0,0,197,248,155,206,9e-17,97.1
Cyphellophora_suttonii_CBS449.91,SRR9043664.75369963,92.42,66,5,0,190,255,270,205,3e-16,95.3
Cyphellophora_suttonii_CBS449.91,SRR9043664.75369963,96.15,52,2,0,197,248,155,206,2e-13,86.1
Cyphellophora_pauciseptata_CBS284.85_T,SRR9043664.56970210,100.00,51,0,0,209,259,156,206,3e-16,95.3
Cyphellophora_pauciseptata_CBS284.85_T,SRR9043664.75369963,94.83,58,3,0,209,266,262,205,4e-15,91.6
Cyphellophora_pauciseptata_CBS284.85_T,SRR9043664.75369963,96.08,51,2,0,209,259,156,206,7e-13,84.2
Cyphellophora_pluriseptata_CBS286.85_T,SRR9043664.56970210,98.08,52,1,0,213,264,155,206,4e-15,91.6
Cyphellophora_pluriseptata_CBS286.85_T,SRR9043664.75369963,94.23,52,3,0,213,264,155,206,9e-12,80.5
Phialophora_europaea_CBS101466,SRR9043664.56970210,100.00,51,0,0,204,254,156,206,3e-16,95.3
Phialophora_europaea_CBS101466,SRR9043664.75369963,94.83,58,3,0,204,261,262,205,4e-15,91.6
Phialophora_europaea_CBS101466,SRR9043664.75369963,96.08,51,2,0,204,254,156,206,7e-13,84.2
Phialophora_ambigua_CBS235.93,SRR9043664.56970210,100.00,52,0,0,200,251,155,206,9e-17,97.1
Phialophora_ambigua_CBS235.93,SRR9043664.75369963,92.42,66,5,0,193,258,270,205,3e-16,95.3
Phialophora_ambigua_CBS235.93,SRR9043664.75369963,96.15,52,2,0,200,251,155,206,2e-13,86.1
Cladophialophora_modesta_CBS985.96_T,SRR9043664.71472977,99.01,101,1,0,519,619,162,262,3e-42,182
Cladophialophora_modesta_CBS985.96_T,SRR9043664.71472977,100.00,36,0,0,584,619,151,116,8e-08,67.6
Cladophialophora_modesta_CBS985.96_T,SRR9043664.20002031,97.85,93,2,0,518,610,210,302,4e-36,161
Cladophialophora_modesta_CBS985.96_T,SRR9043664.10173473,97.85,93,2,0,518,610,210,302,4e-36,161
Cladophialophora_modesta_CBS985.96_T,SRR9043664.10171378,97.85,93,2,0,518,610,210,302,4e-36,161
Cladophialophora_modesta_CBS985.96_T,SRR9043664.110175693,96.43,84,3,0,536,619,1,84,2e-29,139
Cladophialophora_modesta_CBS985.96_T,SRR9043664.110174831,96.43,84,3,0,536,619,1,84,2e-29,139
Cladophialophora_modesta_CBS985.96_T,SRR9043664.34282843,96.43,84,3,0,536,619,1,84,2e-29,139
Cladophialophora_modesta_CBS985.96_T,SRR9043664.62724480,91.95,87,6,1,533,619,302,217,6e-24,121
Cladophialophora_modesta_CBS985.96_T,SRR9043664.56970210,100.00,52,0,0,197,248,155,206,1e-16,97.1
Cladophialophora_modesta_CBS985.96_T,SRR9043664.75369963,87.21,86,7,3,172,255,288,205,4e-16,95.3
Cladophialophora_modesta_CBS985.96_T,SRR9043664.75369963,96.15,52,2,0,197,248,155,206,2e-13,86.1
Cladophialophora_modesta_CBS985.96_T,SRR9043664.48626599,85.56,90,13,0,525,614,152,241,4e-16,95.3
Cyphellophora_fusarioides_MUCL44033_T,SRR9043664.56970210,100.00,52,0,0,196,247,155,206,9e-17,97.1
Cyphellophora_fusarioides_MUCL44033_T,SRR9043664.75369963,94.92,59,3,0,196,254,263,205,1e-15,93.5
Cyphellophora_fusarioides_MUCL44033_T,SRR9043664.75369963,96.15,52,2,0,196,247,155,206,2e-13,86.1
