SONDA_E_E_xenobiotica,SRR3613690.29839,100.00,34,0,0,1,34,175,142,8e-12,63.9
SONDA_E_E_xenobiotica,SRR3613690.29508,100.00,34,0,0,1,34,180,147,8e-12,63.9
SONDA_E_E_xenobiotica,SRR3613690.29395,100.00,34,0,0,1,34,175,142,8e-12,63.9
SONDA_E_E_xenobiotica,SRR3613690.29309,100.00,34,0,0,1,34,180,147,8e-12,63.9
SONDA_E_E_xenobiotica,SRR3613690.29302,100.00,34,0,0,1,34,180,147,8e-12,63.9
SONDA_E_E_xenobiotica,SRR3613690.29301,100.00,34,0,0,1,34,175,142,8e-12,63.9
SONDA_E_E_xenobiotica,SRR3613690.29194,100.00,34,0,0,1,34,177,144,8e-12,63.9
SONDA_E_E_xenobiotica,SRR3613690.29178,100.00,34,0,0,1,34,180,147,8e-12,63.9
SONDA_E_E_xenobiotica,SRR3613690.29069,100.00,34,0,0,1,34,179,146,8e-12,63.9
SONDA_E_E_xenobiotica,SRR3613690.29010,100.00,34,0,0,1,34,180,147,8e-12,63.9
SONDA_E_E_xenobiotica,SRR3613690.28958,100.00,34,0,0,1,34,175,142,8e-12,63.9
SONDA_E_E_xenobiotica,SRR3613690.28764,100.00,34,0,0,1,34,175,142,8e-12,63.9
SONDA_E_E_xenobiotica,SRR3613690.28750,100.00,34,0,0,1,34,180,147,8e-12,63.9
SONDA_E_E_xenobiotica,SRR3613690.28589,100.00,34,0,0,1,34,180,147,8e-12,63.9
SONDA_E_E_xenobiotica,SRR3613690.28581,100.00,34,0,0,1,34,180,147,8e-12,63.9
SONDA_E_E_xenobiotica,SRR3613690.28486,100.00,34,0,0,1,34,181,148,8e-12,63.9
SONDA_E_E_xenobiotica,SRR3613690.28446,100.00,34,0,0,1,34,180,147,8e-12,63.9
SONDA_E_E_xenobiotica,SRR3613690.28367,100.00,34,0,0,1,34,175,142,8e-12,63.9
SONDA_E_E_xenobiotica,SRR3613690.28213,100.00,34,0,0,1,34,175,142,8e-12,63.9
SONDA_E_E_xenobiotica,SRR3613690.27882,100.00,34,0,0,1,34,181,148,8e-12,63.9
SONDA_E_E_xenobiotica,SRR3613690.27770,100.00,34,0,0,1,34,175,142,8e-12,63.9
SONDA_E_E_xenobiotica,SRR3613690.27699,100.00,34,0,0,1,34,175,142,8e-12,63.9
SONDA_E_E_xenobiotica,SRR3613690.27588,100.00,34,0,0,1,34,180,147,8e-12,63.9
SONDA_E_E_xenobiotica,SRR3613690.27555,100.00,34,0,0,1,34,175,142,8e-12,63.9
SONDA_E_E_xenobiotica,SRR3613690.27544,100.00,34,0,0,1,34,175,142,8e-12,63.9
SONDA_E_E_xenobiotica,SRR3613690.27256,100.00,34,0,0,1,34,175,142,8e-12,63.9
SONDA_E_E_xenobiotica,SRR3613690.27214,100.00,34,0,0,1,34,181,148,8e-12,63.9
SONDA_E_E_xenobiotica,SRR3613690.27032,100.00,34,0,0,1,34,175,142,8e-12,63.9
SONDA_E_E_xenobiotica,SRR3613690.26831,100.00,34,0,0,1,34,175,142,8e-12,63.9
SONDA_E_E_xenobiotica,SRR3613690.26721,100.00,34,0,0,1,34,176,143,8e-12,63.9
SONDA_E_E_xenobiotica,SRR3613690.26698,100.00,34,0,0,1,34,180,147,8e-12,63.9
SONDA_E_E_xenobiotica,SRR3613690.26587,100.00,34,0,0,1,34,180,147,8e-12,63.9
SONDA_E_E_xenobiotica,SRR3613690.26360,100.00,34,0,0,1,34,180,147,8e-12,63.9
SONDA_E_E_xenobiotica,SRR3613690.26260,100.00,34,0,0,1,34,179,146,8e-12,63.9
SONDA_E_E_xenobiotica,SRR3613690.26218,100.00,34,0,0,1,34,175,142,8e-12,63.9
SONDA_E_E_xenobiotica,SRR3613690.25759,100.00,34,0,0,1,34,179,146,8e-12,63.9
SONDA_E_E_xenobiotica,SRR3613690.25731,100.00,34,0,0,1,34,180,147,8e-12,63.9
SONDA_E_E_xenobiotica,SRR3613690.25666,100.00,34,0,0,1,34,180,147,8e-12,63.9
SONDA_E_E_xenobiotica,SRR3613690.25588,100.00,34,0,0,1,34,180,147,8e-12,63.9
SONDA_E_E_xenobiotica,SRR3613690.25515,100.00,34,0,0,1,34,180,147,8e-12,63.9
SONDA_E_E_xenobiotica,SRR3613690.25422,100.00,34,0,0,1,34,175,142,8e-12,63.9
SONDA_E_E_xenobiotica,SRR3613690.25394,100.00,34,0,0,1,34,180,147,8e-12,63.9
SONDA_E_E_xenobiotica,SRR3613690.24841,100.00,34,0,0,1,34,175,142,8e-12,63.9
SONDA_E_E_xenobiotica,SRR3613690.24771,100.00,34,0,0,1,34,175,142,8e-12,63.9
SONDA_E_E_xenobiotica,SRR3613690.24760,100.00,34,0,0,1,34,180,147,8e-12,63.9
SONDA_E_E_xenobiotica,SRR3613690.24756,100.00,34,0,0,1,34,175,142,8e-12,63.9
SONDA_E_E_xenobiotica,SRR3613690.24503,100.00,34,0,0,1,34,175,142,8e-12,63.9
SONDA_E_E_xenobiotica,SRR3613690.24493,100.00,34,0,0,1,34,180,147,8e-12,63.9
SONDA_E_E_xenobiotica,SRR3613690.24455,100.00,34,0,0,1,34,175,142,8e-12,63.9
SONDA_E_E_xenobiotica,SRR3613690.24352,100.00,34,0,0,1,34,180,147,8e-12,63.9
SONDA_E_E_xenobiotica,SRR3613690.24149,100.00,34,0,0,1,34,175,142,8e-12,63.9
SONDA_E_E_xenobiotica,SRR3613690.24111,100.00,34,0,0,1,34,175,142,8e-12,63.9
SONDA_E_E_xenobiotica,SRR3613690.23956,100.00,34,0,0,1,34,180,147,8e-12,63.9
SONDA_E_E_xenobiotica,SRR3613690.23710,100.00,34,0,0,1,34,180,147,8e-12,63.9
SONDA_E_E_xenobiotica,SRR3613690.23651,100.00,34,0,0,1,34,175,142,8e-12,63.9
SONDA_E_E_xenobiotica,SRR3613690.23643,100.00,34,0,0,1,34,175,142,8e-12,63.9
SONDA_E_E_xenobiotica,SRR3613690.23613,100.00,34,0,0,1,34,179,146,8e-12,63.9
SONDA_E_E_xenobiotica,SRR3613690.23590,100.00,34,0,0,1,34,175,142,8e-12,63.9
SONDA_E_E_xenobiotica,SRR3613690.23490,100.00,34,0,0,1,34,180,147,8e-12,63.9
SONDA_E_E_xenobiotica,SRR3613690.23398,100.00,34,0,0,1,34,180,147,8e-12,63.9
SONDA_E_E_xenobiotica,SRR3613690.23363,100.00,34,0,0,1,34,180,147,8e-12,63.9
SONDA_E_E_xenobiotica,SRR3613690.23184,100.00,34,0,0,1,34,175,142,8e-12,63.9
SONDA_E_E_xenobiotica,SRR3613690.22693,100.00,34,0,0,1,34,175,142,8e-12,63.9
SONDA_E_E_xenobiotica,SRR3613690.22685,100.00,34,0,0,1,34,176,143,8e-12,63.9
SONDA_E_E_xenobiotica,SRR3613690.22622,100.00,34,0,0,1,34,181,148,8e-12,63.9
SONDA_E_E_xenobiotica,SRR3613690.22435,100.00,34,0,0,1,34,180,147,8e-12,63.9
SONDA_E_E_xenobiotica,SRR3613690.22385,100.00,34,0,0,1,34,180,147,8e-12,63.9
SONDA_E_E_xenobiotica,SRR3613690.22341,100.00,34,0,0,1,34,175,142,8e-12,63.9
SONDA_E_E_xenobiotica,SRR3613690.22297,100.00,34,0,0,1,34,180,147,8e-12,63.9
SONDA_E_E_xenobiotica,SRR3613690.22283,100.00,34,0,0,1,34,180,147,8e-12,63.9
SONDA_E_E_xenobiotica,SRR3613690.22096,100.00,34,0,0,1,34,175,142,8e-12,63.9
SONDA_E_E_xenobiotica,SRR3613690.22060,100.00,34,0,0,1,34,178,145,8e-12,63.9
SONDA_E_E_xenobiotica,SRR3613690.22055,100.00,34,0,0,1,34,181,148,8e-12,63.9
SONDA_E_E_xenobiotica,SRR3613690.21976,100.00,34,0,0,1,34,180,147,8e-12,63.9
SONDA_E_E_xenobiotica,SRR3613690.21922,100.00,34,0,0,1,34,175,142,8e-12,63.9
SONDA_E_E_xenobiotica,SRR3613690.21797,100.00,34,0,0,1,34,180,147,8e-12,63.9
SONDA_E_E_xenobiotica,SRR3613690.21747,100.00,34,0,0,1,34,175,142,8e-12,63.9
SONDA_E_E_xenobiotica,SRR3613690.21675,100.00,34,0,0,1,34,175,142,8e-12,63.9
SONDA_E_E_xenobiotica,SRR3613690.21659,100.00,34,0,0,1,34,175,142,8e-12,63.9
SONDA_E_E_xenobiotica,SRR3613690.21584,100.00,34,0,0,1,34,180,147,8e-12,63.9
SONDA_E_E_xenobiotica,SRR3613690.21432,100.00,34,0,0,1,34,175,142,8e-12,63.9
SONDA_E_E_xenobiotica,SRR3613690.21350,100.00,34,0,0,1,34,180,147,8e-12,63.9
SONDA_E_E_xenobiotica,SRR3613690.21312,100.00,34,0,0,1,34,181,148,8e-12,63.9
SONDA_E_E_xenobiotica,SRR3613690.20925,100.00,34,0,0,1,34,180,147,8e-12,63.9
SONDA_E_E_xenobiotica,SRR3613690.20758,100.00,34,0,0,1,34,180,147,8e-12,63.9
SONDA_E_E_xenobiotica,SRR3613690.20735,100.00,34,0,0,1,34,176,143,8e-12,63.9
SONDA_E_E_xenobiotica,SRR3613690.20703,100.00,34,0,0,1,34,179,146,8e-12,63.9
SONDA_E_E_xenobiotica,SRR3613690.20493,100.00,34,0,0,1,34,180,147,8e-12,63.9
SONDA_E_E_xenobiotica,SRR3613690.20455,100.00,34,0,0,1,34,180,147,8e-12,63.9
SONDA_E_E_xenobiotica,SRR3613690.20420,100.00,34,0,0,1,34,180,147,8e-12,63.9
SONDA_E_E_xenobiotica,SRR3613690.20372,100.00,34,0,0,1,34,175,142,8e-12,63.9
SONDA_E_E_xenobiotica,SRR3613690.20322,100.00,34,0,0,1,34,180,147,8e-12,63.9
SONDA_E_E_xenobiotica,SRR3613690.20317,100.00,34,0,0,1,34,175,142,8e-12,63.9
SONDA_E_E_xenobiotica,SRR3613690.20274,100.00,34,0,0,1,34,180,147,8e-12,63.9
SONDA_E_E_xenobiotica,SRR3613690.20197,100.00,34,0,0,1,34,179,146,8e-12,63.9
SONDA_E_E_xenobiotica,SRR3613690.20069,100.00,34,0,0,1,34,180,147,8e-12,63.9
SONDA_E_E_xenobiotica,SRR3613690.20063,100.00,34,0,0,1,34,175,142,8e-12,63.9
SONDA_E_E_xenobiotica,SRR3613690.20023,100.00,34,0,0,1,34,175,142,8e-12,63.9
SONDA_E_E_xenobiotica,SRR3613690.19969,100.00,34,0,0,1,34,180,147,8e-12,63.9
SONDA_E_E_xenobiotica,SRR3613690.19893,100.00,34,0,0,1,34,180,147,8e-12,63.9
SONDA_E_E_xenobiotica,SRR3613690.19738,100.00,34,0,0,1,34,180,147,8e-12,63.9
SONDA_E_E_xenobiotica,SRR3613690.19588,100.00,34,0,0,1,34,175,142,8e-12,63.9
SONDA_E_E_xenobiotica,SRR3613690.19521,100.00,34,0,0,1,34,175,142,8e-12,63.9
SONDA_E_E_xenobiotica,SRR3613690.19403,100.00,34,0,0,1,34,180,147,8e-12,63.9
SONDA_E_E_xenobiotica,SRR3613690.19329,100.00,34,0,0,1,34,179,146,8e-12,63.9
SONDA_E_E_xenobiotica,SRR3613690.19308,100.00,34,0,0,1,34,180,147,8e-12,63.9
SONDA_E_E_xenobiotica,SRR3613690.19293,100.00,34,0,0,1,34,180,147,8e-12,63.9
SONDA_E_E_xenobiotica,SRR3613690.19257,100.00,34,0,0,1,34,175,142,8e-12,63.9
SONDA_E_E_xenobiotica,SRR3613690.18847,100.00,34,0,0,1,34,175,142,8e-12,63.9
SONDA_E_E_xenobiotica,SRR3613690.18774,100.00,34,0,0,1,34,175,142,8e-12,63.9
SONDA_E_E_xenobiotica,SRR3613690.18579,100.00,34,0,0,1,34,175,142,8e-12,63.9
SONDA_E_E_xenobiotica,SRR3613690.18365,100.00,34,0,0,1,34,175,142,8e-12,63.9
SONDA_E_E_xenobiotica,SRR3613690.18333,100.00,34,0,0,1,34,175,142,8e-12,63.9
SONDA_E_E_xenobiotica,SRR3613690.17953,100.00,34,0,0,1,34,175,142,8e-12,63.9
SONDA_E_E_xenobiotica,SRR3613690.17939,100.00,34,0,0,1,34,175,142,8e-12,63.9
SONDA_E_E_xenobiotica,SRR3613690.17896,100.00,34,0,0,1,34,175,142,8e-12,63.9
SONDA_E_E_xenobiotica,SRR3613690.17882,100.00,34,0,0,1,34,175,142,8e-12,63.9
SONDA_E_E_xenobiotica,SRR3613690.17795,100.00,34,0,0,1,34,179,146,8e-12,63.9
SONDA_E_E_xenobiotica,SRR3613690.17697,100.00,34,0,0,1,34,176,143,8e-12,63.9
SONDA_E_E_xenobiotica,SRR3613690.17648,100.00,34,0,0,1,34,180,147,8e-12,63.9
SONDA_E_E_xenobiotica,SRR3613690.17595,100.00,34,0,0,1,34,180,147,8e-12,63.9
SONDA_E_E_xenobiotica,SRR3613690.17104,100.00,34,0,0,1,34,180,147,8e-12,63.9
SONDA_E_E_xenobiotica,SRR3613690.16959,100.00,34,0,0,1,34,180,147,8e-12,63.9
SONDA_E_E_xenobiotica,SRR3613690.16706,100.00,34,0,0,1,34,180,147,8e-12,63.9
SONDA_E_E_xenobiotica,SRR3613690.16641,100.00,34,0,0,1,34,175,142,8e-12,63.9
SONDA_E_E_xenobiotica,SRR3613690.16323,100.00,34,0,0,1,34,180,147,8e-12,63.9
SONDA_E_E_xenobiotica,SRR3613690.16142,100.00,34,0,0,1,34,175,142,8e-12,63.9
SONDA_E_E_xenobiotica,SRR3613690.16000,100.00,34,0,0,1,34,180,147,8e-12,63.9
SONDA_E_E_xenobiotica,SRR3613690.15934,100.00,34,0,0,1,34,180,147,8e-12,63.9
SONDA_E_E_xenobiotica,SRR3613690.15860,100.00,34,0,0,1,34,180,147,8e-12,63.9
SONDA_E_E_xenobiotica,SRR3613690.15669,100.00,34,0,0,1,34,180,147,8e-12,63.9
SONDA_E_E_xenobiotica,SRR3613690.15552,100.00,34,0,0,1,34,180,147,8e-12,63.9
SONDA_E_E_xenobiotica,SRR3613690.15362,100.00,34,0,0,1,34,175,142,8e-12,63.9
SONDA_E_E_xenobiotica,SRR3613690.15319,100.00,34,0,0,1,34,180,147,8e-12,63.9
SONDA_E_E_xenobiotica,SRR3613690.15211,100.00,34,0,0,1,34,175,142,8e-12,63.9
SONDA_E_E_xenobiotica,SRR3613690.15161,100.00,34,0,0,1,34,180,147,8e-12,63.9
SONDA_E_E_xenobiotica,SRR3613690.14994,100.00,34,0,0,1,34,175,142,8e-12,63.9
SONDA_E_E_xenobiotica,SRR3613690.14973,100.00,34,0,0,1,34,181,148,8e-12,63.9
SONDA_E_E_xenobiotica,SRR3613690.14589,100.00,34,0,0,1,34,180,147,8e-12,63.9
SONDA_E_E_xenobiotica,SRR3613690.14581,100.00,34,0,0,1,34,180,147,8e-12,63.9
SONDA_E_E_xenobiotica,SRR3613690.14548,100.00,34,0,0,1,34,175,142,8e-12,63.9
SONDA_E_E_xenobiotica,SRR3613690.14535,100.00,34,0,0,1,34,176,143,8e-12,63.9
SONDA_E_E_xenobiotica,SRR3613690.14532,100.00,34,0,0,1,34,175,142,8e-12,63.9
SONDA_E_E_xenobiotica,SRR3613690.14518,100.00,34,0,0,1,34,175,142,8e-12,63.9
SONDA_E_E_xenobiotica,SRR3613690.14216,100.00,34,0,0,1,34,180,147,8e-12,63.9
SONDA_E_E_xenobiotica,SRR3613690.14209,100.00,34,0,0,1,34,180,147,8e-12,63.9
SONDA_E_E_xenobiotica,SRR3613690.14141,100.00,34,0,0,1,34,175,142,8e-12,63.9
SONDA_E_E_xenobiotica,SRR3613690.14082,100.00,34,0,0,1,34,180,147,8e-12,63.9
SONDA_E_E_xenobiotica,SRR3613690.14012,100.00,34,0,0,1,34,180,147,8e-12,63.9
SONDA_E_E_xenobiotica,SRR3613690.13968,100.00,34,0,0,1,34,180,147,8e-12,63.9
SONDA_E_E_xenobiotica,SRR3613690.13906,100.00,34,0,0,1,34,178,145,8e-12,63.9
SONDA_E_E_xenobiotica,SRR3613690.13859,100.00,34,0,0,1,34,175,142,8e-12,63.9
SONDA_E_E_xenobiotica,SRR3613690.13837,100.00,34,0,0,1,34,180,147,8e-12,63.9
SONDA_E_E_xenobiotica,SRR3613690.13791,100.00,34,0,0,1,34,175,142,8e-12,63.9
SONDA_E_E_xenobiotica,SRR3613690.13687,100.00,34,0,0,1,34,175,142,8e-12,63.9
SONDA_E_E_xenobiotica,SRR3613690.13440,100.00,34,0,0,1,34,175,142,8e-12,63.9
SONDA_E_E_xenobiotica,SRR3613690.12935,100.00,34,0,0,1,34,180,147,8e-12,63.9
SONDA_E_E_xenobiotica,SRR3613690.12897,100.00,34,0,0,1,34,181,148,8e-12,63.9
SONDA_E_E_xenobiotica,SRR3613690.12753,100.00,34,0,0,1,34,180,147,8e-12,63.9
SONDA_E_E_xenobiotica,SRR3613690.12603,100.00,34,0,0,1,34,181,148,8e-12,63.9
SONDA_E_E_xenobiotica,SRR3613690.12579,100.00,34,0,0,1,34,179,146,8e-12,63.9
SONDA_E_E_xenobiotica,SRR3613690.12432,100.00,34,0,0,1,34,180,147,8e-12,63.9
SONDA_E_E_xenobiotica,SRR3613690.12265,100.00,34,0,0,1,34,180,147,8e-12,63.9
SONDA_E_E_xenobiotica,SRR3613690.12098,100.00,34,0,0,1,34,175,142,8e-12,63.9
SONDA_E_E_xenobiotica,SRR3613690.11910,100.00,34,0,0,1,34,181,148,8e-12,63.9
SONDA_E_E_xenobiotica,SRR3613690.11876,100.00,34,0,0,1,34,175,142,8e-12,63.9
SONDA_E_E_xenobiotica,SRR3613690.11456,100.00,34,0,0,1,34,180,147,8e-12,63.9
SONDA_E_E_xenobiotica,SRR3613690.11216,100.00,34,0,0,1,34,180,147,8e-12,63.9
SONDA_E_E_xenobiotica,SRR3613690.11076,100.00,34,0,0,1,34,175,142,8e-12,63.9
SONDA_E_E_xenobiotica,SRR3613690.10955,100.00,34,0,0,1,34,175,142,8e-12,63.9
SONDA_E_E_xenobiotica,SRR3613690.10930,100.00,34,0,0,1,34,175,142,8e-12,63.9
SONDA_E_E_xenobiotica,SRR3613690.10835,100.00,34,0,0,1,34,180,147,8e-12,63.9
SONDA_E_E_xenobiotica,SRR3613690.10721,100.00,34,0,0,1,34,180,147,8e-12,63.9
SONDA_E_E_xenobiotica,SRR3613690.10488,100.00,34,0,0,1,34,175,142,8e-12,63.9
SONDA_E_E_xenobiotica,SRR3613690.10454,100.00,34,0,0,1,34,179,146,8e-12,63.9
SONDA_E_E_xenobiotica,SRR3613690.10317,100.00,34,0,0,1,34,175,142,8e-12,63.9
SONDA_E_E_xenobiotica,SRR3613690.10271,100.00,34,0,0,1,34,175,142,8e-12,63.9
SONDA_E_E_xenobiotica,SRR3613690.10101,100.00,34,0,0,1,34,180,147,8e-12,63.9
SONDA_E_E_xenobiotica,SRR3613690.9973,100.00,34,0,0,1,34,180,147,8e-12,63.9
SONDA_E_E_xenobiotica,SRR3613690.9920,100.00,34,0,0,1,34,180,147,8e-12,63.9
SONDA_E_E_xenobiotica,SRR3613690.9384,100.00,34,0,0,1,34,175,142,8e-12,63.9
SONDA_E_E_xenobiotica,SRR3613690.9226,100.00,34,0,0,1,34,180,147,8e-12,63.9
SONDA_E_E_xenobiotica,SRR3613690.8922,100.00,34,0,0,1,34,180,147,8e-12,63.9
SONDA_E_E_xenobiotica,SRR3613690.8697,100.00,34,0,0,1,34,175,142,8e-12,63.9
SONDA_E_E_xenobiotica,SRR3613690.8690,100.00,34,0,0,1,34,175,142,8e-12,63.9
SONDA_E_E_xenobiotica,SRR3613690.8608,100.00,34,0,0,1,34,175,142,8e-12,63.9
SONDA_E_E_xenobiotica,SRR3613690.8522,100.00,34,0,0,1,34,180,147,8e-12,63.9
SONDA_E_E_xenobiotica,SRR3613690.8492,100.00,34,0,0,1,34,180,147,8e-12,63.9
SONDA_E_E_xenobiotica,SRR3613690.8403,100.00,34,0,0,1,34,175,142,8e-12,63.9
SONDA_E_E_xenobiotica,SRR3613690.8361,100.00,34,0,0,1,34,176,143,8e-12,63.9
SONDA_E_E_xenobiotica,SRR3613690.8195,100.00,34,0,0,1,34,181,148,8e-12,63.9
SONDA_E_E_xenobiotica,SRR3613690.8093,100.00,34,0,0,1,34,175,142,8e-12,63.9
SONDA_E_E_xenobiotica,SRR3613690.8060,100.00,34,0,0,1,34,175,142,8e-12,63.9
SONDA_E_E_xenobiotica,SRR3613690.8027,100.00,34,0,0,1,34,180,147,8e-12,63.9
SONDA_E_E_xenobiotica,SRR3613690.7812,100.00,34,0,0,1,34,175,142,8e-12,63.9
SONDA_E_E_xenobiotica,SRR3613690.7644,100.00,34,0,0,1,34,180,147,8e-12,63.9
SONDA_E_E_xenobiotica,SRR3613690.7603,100.00,34,0,0,1,34,175,142,8e-12,63.9
SONDA_E_E_xenobiotica,SRR3613690.7576,100.00,34,0,0,1,34,176,143,8e-12,63.9
SONDA_E_E_xenobiotica,SRR3613690.7411,100.00,34,0,0,1,34,180,147,8e-12,63.9
SONDA_E_E_xenobiotica,SRR3613690.7388,100.00,34,0,0,1,34,175,142,8e-12,63.9
SONDA_E_E_xenobiotica,SRR3613690.7170,100.00,34,0,0,1,34,180,147,8e-12,63.9
SONDA_E_E_xenobiotica,SRR3613690.6941,100.00,34,0,0,1,34,175,142,8e-12,63.9
SONDA_E_E_xenobiotica,SRR3613690.6907,100.00,34,0,0,1,34,175,142,8e-12,63.9
SONDA_E_E_xenobiotica,SRR3613690.6802,100.00,34,0,0,1,34,180,147,8e-12,63.9
SONDA_E_E_xenobiotica,SRR3613690.6735,100.00,34,0,0,1,34,180,147,8e-12,63.9
SONDA_E_E_xenobiotica,SRR3613690.6733,100.00,34,0,0,1,34,175,142,8e-12,63.9
SONDA_E_E_xenobiotica,SRR3613690.6712,100.00,34,0,0,1,34,175,142,8e-12,63.9
SONDA_E_E_xenobiotica,SRR3613690.6655,100.00,34,0,0,1,34,175,142,8e-12,63.9
SONDA_E_E_xenobiotica,SRR3613690.6636,100.00,34,0,0,1,34,175,142,8e-12,63.9
SONDA_E_E_xenobiotica,SRR3613690.6546,100.00,34,0,0,1,34,175,142,8e-12,63.9
SONDA_E_E_xenobiotica,SRR3613690.6420,100.00,34,0,0,1,34,180,147,8e-12,63.9
SONDA_E_E_xenobiotica,SRR3613690.6409,100.00,34,0,0,1,34,175,142,8e-12,63.9
SONDA_E_E_xenobiotica,SRR3613690.6375,100.00,34,0,0,1,34,180,147,8e-12,63.9
SONDA_E_E_xenobiotica,SRR3613690.6244,100.00,34,0,0,1,34,180,147,8e-12,63.9
SONDA_E_E_xenobiotica,SRR3613690.6075,100.00,34,0,0,1,34,175,142,8e-12,63.9
SONDA_E_E_xenobiotica,SRR3613690.5944,100.00,34,0,0,1,34,175,142,8e-12,63.9
SONDA_E_E_xenobiotica,SRR3613690.5806,100.00,34,0,0,1,34,180,147,8e-12,63.9
SONDA_E_E_xenobiotica,SRR3613690.5804,100.00,34,0,0,1,34,175,142,8e-12,63.9
SONDA_E_E_xenobiotica,SRR3613690.5491,100.00,34,0,0,1,34,180,147,8e-12,63.9
SONDA_E_E_xenobiotica,SRR3613690.5399,100.00,34,0,0,1,34,175,142,8e-12,63.9
SONDA_E_E_xenobiotica,SRR3613690.5345,100.00,34,0,0,1,34,175,142,8e-12,63.9
SONDA_E_E_xenobiotica,SRR3613690.5127,100.00,34,0,0,1,34,180,147,8e-12,63.9
SONDA_E_E_xenobiotica,SRR3613690.4943,100.00,34,0,0,1,34,175,142,8e-12,63.9
SONDA_E_E_xenobiotica,SRR3613690.4849,100.00,34,0,0,1,34,180,147,8e-12,63.9
SONDA_E_E_xenobiotica,SRR3613690.4358,100.00,34,0,0,1,34,180,147,8e-12,63.9
SONDA_E_E_xenobiotica,SRR3613690.4298,100.00,34,0,0,1,34,180,147,8e-12,63.9
SONDA_E_E_xenobiotica,SRR3613690.4271,100.00,34,0,0,1,34,175,142,8e-12,63.9
SONDA_E_E_xenobiotica,SRR3613690.3975,100.00,34,0,0,1,34,175,142,8e-12,63.9
SONDA_E_E_xenobiotica,SRR3613690.3951,100.00,34,0,0,1,34,175,142,8e-12,63.9
SONDA_E_E_xenobiotica,SRR3613690.3761,100.00,34,0,0,1,34,175,142,8e-12,63.9
SONDA_E_E_xenobiotica,SRR3613690.3751,100.00,34,0,0,1,34,175,142,8e-12,63.9
SONDA_E_E_xenobiotica,SRR3613690.3710,100.00,34,0,0,1,34,175,142,8e-12,63.9
SONDA_E_E_xenobiotica,SRR3613690.3698,100.00,34,0,0,1,34,175,142,8e-12,63.9
SONDA_E_E_xenobiotica,SRR3613690.3686,100.00,34,0,0,1,34,180,147,8e-12,63.9
SONDA_E_E_xenobiotica,SRR3613690.3538,100.00,34,0,0,1,34,181,148,8e-12,63.9
SONDA_E_E_xenobiotica,SRR3613690.3468,100.00,34,0,0,1,34,175,142,8e-12,63.9
SONDA_E_E_xenobiotica,SRR3613690.3463,100.00,34,0,0,1,34,180,147,8e-12,63.9
SONDA_E_E_xenobiotica,SRR3613690.3286,100.00,34,0,0,1,34,175,142,8e-12,63.9
SONDA_E_E_xenobiotica,SRR3613690.3217,100.00,34,0,0,1,34,175,142,8e-12,63.9
SONDA_E_E_xenobiotica,SRR3613690.3072,100.00,34,0,0,1,34,175,142,8e-12,63.9
SONDA_E_E_xenobiotica,SRR3613690.2753,100.00,34,0,0,1,34,175,142,8e-12,63.9
SONDA_E_E_xenobiotica,SRR3613690.2618,100.00,34,0,0,1,34,180,147,8e-12,63.9
SONDA_E_E_xenobiotica,SRR3613690.2606,100.00,34,0,0,1,34,175,142,8e-12,63.9
SONDA_E_E_xenobiotica,SRR3613690.2380,100.00,34,0,0,1,34,180,147,8e-12,63.9
SONDA_E_E_xenobiotica,SRR3613690.2275,100.00,34,0,0,1,34,175,142,8e-12,63.9
SONDA_E_E_xenobiotica,SRR3613690.2170,100.00,34,0,0,1,34,175,142,8e-12,63.9
SONDA_E_E_xenobiotica,SRR3613690.2149,100.00,34,0,0,1,34,179,146,8e-12,63.9
SONDA_E_E_xenobiotica,SRR3613690.2074,100.00,34,0,0,1,34,175,142,8e-12,63.9
SONDA_E_E_xenobiotica,SRR3613690.1969,100.00,34,0,0,1,34,181,148,8e-12,63.9
SONDA_E_E_xenobiotica,SRR3613690.1820,100.00,34,0,0,1,34,175,142,8e-12,63.9
SONDA_E_E_xenobiotica,SRR3613690.1586,100.00,34,0,0,1,34,179,146,8e-12,63.9
SONDA_E_E_xenobiotica,SRR3613690.1396,100.00,34,0,0,1,34,180,147,8e-12,63.9
SONDA_E_E_xenobiotica,SRR3613690.1302,100.00,34,0,0,1,34,180,147,8e-12,63.9
SONDA_E_E_xenobiotica,SRR3613690.1260,100.00,34,0,0,1,34,175,142,8e-12,63.9
SONDA_E_E_xenobiotica,SRR3613690.1259,100.00,34,0,0,1,34,180,147,8e-12,63.9
SONDA_E_E_xenobiotica,SRR3613690.1114,100.00,34,0,0,1,34,180,147,8e-12,63.9
SONDA_E_E_xenobiotica,SRR3613690.1098,100.00,34,0,0,1,34,180,147,8e-12,63.9
SONDA_E_E_xenobiotica,SRR3613690.961,100.00,34,0,0,1,34,180,147,8e-12,63.9
SONDA_E_E_xenobiotica,SRR3613690.893,100.00,34,0,0,1,34,179,146,8e-12,63.9
SONDA_E_E_xenobiotica,SRR3613690.757,100.00,34,0,0,1,34,180,147,8e-12,63.9
SONDA_E_E_xenobiotica,SRR3613690.699,100.00,34,0,0,1,34,175,142,8e-12,63.9
SONDA_E_E_xenobiotica,SRR3613690.487,100.00,34,0,0,1,34,175,142,8e-12,63.9
SONDA_E_E_xenobiotica,SRR3613690.474,100.00,34,0,0,1,34,178,145,8e-12,63.9
SONDA_E_E_xenobiotica,SRR3613690.402,100.00,34,0,0,1,34,181,148,8e-12,63.9
SONDA_E_E_xenobiotica,SRR3613690.396,100.00,34,0,0,1,34,175,142,8e-12,63.9
SONDA_E_E_xenobiotica,SRR3613690.268,100.00,34,0,0,1,34,180,147,8e-12,63.9
SONDA_E_E_xenobiotica,SRR3613690.228,100.00,34,0,0,1,34,178,145,8e-12,63.9
SONDA_E_E_xenobiotica,SRR3613690.42,100.00,34,0,0,1,34,175,142,8e-12,63.9
SONDA_E_E_xenobiotica,SRR3613690.25982,100.00,33,0,0,1,33,178,146,3e-11,62.1
SONDA_E_E_xenobiotica,SRR3613690.25735,97.22,36,1,0,1,36,177,142,3e-11,62.1
SONDA_E_E_xenobiotica,SRR3613690.24908,97.22,36,1,0,1,36,177,142,3e-11,62.1
SONDA_E_E_xenobiotica,SRR3613690.24434,97.22,36,1,0,1,36,177,142,3e-11,62.1
SONDA_E_E_xenobiotica,SRR3613690.24098,97.22,36,1,0,1,36,177,142,3e-11,62.1
SONDA_E_E_xenobiotica,SRR3613690.23197,97.22,36,1,0,1,36,177,142,3e-11,62.1
SONDA_E_E_xenobiotica,SRR3613690.20468,97.22,36,1,0,1,36,177,142,3e-11,62.1
SONDA_E_E_xenobiotica,SRR3613690.20116,97.22,36,1,0,1,36,177,142,3e-11,62.1
SONDA_E_E_xenobiotica,SRR3613690.19672,97.22,36,1,0,1,36,177,142,3e-11,62.1
SONDA_E_E_xenobiotica,SRR3613690.19558,97.22,36,1,0,1,36,177,142,3e-11,62.1
SONDA_E_E_xenobiotica,SRR3613690.19350,97.22,36,1,0,1,36,177,142,3e-11,62.1
SONDA_E_E_xenobiotica,SRR3613690.18019,97.22,36,1,0,1,36,177,142,3e-11,62.1
SONDA_E_E_xenobiotica,SRR3613690.15996,100.00,33,0,0,1,33,178,146,3e-11,62.1
SONDA_E_E_xenobiotica,SRR3613690.13671,97.22,36,1,0,1,36,177,142,3e-11,62.1
SONDA_E_E_xenobiotica,SRR3613690.13454,97.22,36,1,0,1,36,177,142,3e-11,62.1
SONDA_E_E_xenobiotica,SRR3613690.11830,100.00,33,0,0,1,33,178,146,3e-11,62.1
SONDA_E_E_xenobiotica,SRR3613690.9916,97.22,36,1,0,1,36,177,142,3e-11,62.1
SONDA_E_E_xenobiotica,SRR3613690.8875,97.22,36,1,0,1,36,177,142,3e-11,62.1
SONDA_E_E_xenobiotica,SRR3613690.8473,100.00,33,0,0,1,33,178,146,3e-11,62.1
SONDA_E_E_xenobiotica,SRR3613690.7595,97.22,36,1,0,1,36,177,142,3e-11,62.1
SONDA_E_E_xenobiotica,SRR3613690.5791,97.22,36,1,0,1,36,177,142,3e-11,62.1
SONDA_E_E_xenobiotica,SRR3613690.4420,97.22,36,1,0,1,36,177,142,3e-11,62.1
SONDA_E_E_xenobiotica,SRR3613690.2973,97.22,36,1,0,1,36,177,142,3e-11,62.1
SONDA_E_E_xenobiotica,SRR3613690.14,97.22,36,1,0,1,36,177,142,3e-11,62.1
SONDA_E_E_xenobiotica,SRR3613690.29830,97.14,35,1,0,1,35,175,141,1e-10,60.2
SONDA_E_E_xenobiotica,SRR3613690.29450,97.14,35,1,0,1,35,175,141,1e-10,60.2
SONDA_E_E_xenobiotica,SRR3613690.29384,97.14,35,1,0,1,35,175,141,1e-10,60.2
SONDA_E_E_xenobiotica,SRR3613690.29112,97.14,35,1,0,1,35,175,141,1e-10,60.2
SONDA_E_E_xenobiotica,SRR3613690.28805,100.00,32,0,0,1,32,175,144,1e-10,60.2
SONDA_E_E_xenobiotica,SRR3613690.28569,100.00,32,0,0,1,32,175,144,1e-10,60.2
SONDA_E_E_xenobiotica,SRR3613690.28115,100.00,32,0,0,1,32,175,144,1e-10,60.2
SONDA_E_E_xenobiotica,SRR3613690.26943,100.00,32,0,0,1,32,175,144,1e-10,60.2
SONDA_E_E_xenobiotica,SRR3613690.25248,97.14,35,1,0,1,35,175,141,1e-10,60.2
SONDA_E_E_xenobiotica,SRR3613690.24590,100.00,32,0,0,1,32,175,144,1e-10,60.2
SONDA_E_E_xenobiotica,SRR3613690.24266,100.00,32,0,0,1,32,175,144,1e-10,60.2
SONDA_E_E_xenobiotica,SRR3613690.23801,100.00,32,0,0,1,32,175,144,1e-10,60.2
SONDA_E_E_xenobiotica,SRR3613690.23291,97.14,35,1,0,1,35,175,141,1e-10,60.2
SONDA_E_E_xenobiotica,SRR3613690.21737,100.00,32,0,0,1,32,175,144,1e-10,60.2
SONDA_E_E_xenobiotica,SRR3613690.21459,100.00,32,0,0,1,32,179,148,1e-10,60.2
SONDA_E_E_xenobiotica,SRR3613690.20350,97.14,35,1,0,1,35,175,141,1e-10,60.2
SONDA_E_E_xenobiotica,SRR3613690.19622,97.14,35,1,0,1,35,175,141,1e-10,60.2
SONDA_E_E_xenobiotica,SRR3613690.18448,100.00,32,0,0,1,32,175,144,1e-10,60.2
SONDA_E_E_xenobiotica,SRR3613690.16075,100.00,32,0,0,1,32,175,144,1e-10,60.2
SONDA_E_E_xenobiotica,SRR3613690.15915,100.00,32,0,0,1,32,175,144,1e-10,60.2
SONDA_E_E_xenobiotica,SRR3613690.15775,100.00,32,0,0,1,32,175,144,1e-10,60.2
SONDA_E_E_xenobiotica,SRR3613690.14277,100.00,32,0,0,1,32,175,144,1e-10,60.2
SONDA_E_E_xenobiotica,SRR3613690.13744,100.00,32,0,0,1,32,175,144,1e-10,60.2
SONDA_E_E_xenobiotica,SRR3613690.13455,100.00,32,0,0,1,32,175,144,1e-10,60.2
SONDA_E_E_xenobiotica,SRR3613690.13139,100.00,32,0,0,1,32,175,144,1e-10,60.2
SONDA_E_E_xenobiotica,SRR3613690.12555,100.00,32,0,0,1,32,175,144,1e-10,60.2
SONDA_E_E_xenobiotica,SRR3613690.12055,97.14,35,1,0,1,35,175,141,1e-10,60.2
SONDA_E_E_xenobiotica,SRR3613690.11954,100.00,32,0,0,1,32,175,144,1e-10,60.2
SONDA_E_E_xenobiotica,SRR3613690.11349,100.00,32,0,0,1,32,175,144,1e-10,60.2
SONDA_E_E_xenobiotica,SRR3613690.8610,100.00,32,0,0,1,32,175,144,1e-10,60.2
SONDA_E_E_xenobiotica,SRR3613690.8310,100.00,32,0,0,1,32,175,144,1e-10,60.2
SONDA_E_E_xenobiotica,SRR3613690.7216,100.00,32,0,0,1,32,175,144,1e-10,60.2
SONDA_E_E_xenobiotica,SRR3613690.6795,100.00,32,0,0,1,32,175,144,1e-10,60.2
SONDA_E_E_xenobiotica,SRR3613690.4564,100.00,32,0,0,1,32,175,144,1e-10,60.2
SONDA_E_E_xenobiotica,SRR3613690.4464,100.00,32,0,0,1,32,175,144,1e-10,60.2
SONDA_E_E_xenobiotica,SRR3613690.4430,97.14,35,1,0,1,35,175,141,1e-10,60.2
SONDA_E_E_xenobiotica,SRR3613690.4182,100.00,32,0,0,1,32,175,144,1e-10,60.2
SONDA_E_E_xenobiotica,SRR3613690.3454,100.00,32,0,0,1,32,175,144,1e-10,60.2
SONDA_E_E_xenobiotica,SRR3613690.3346,97.14,35,1,0,1,35,175,141,1e-10,60.2
SONDA_E_E_xenobiotica,SRR3613690.1636,100.00,32,0,0,1,32,175,144,1e-10,60.2
SONDA_E_E_xenobiotica,SRR3613690.1587,100.00,32,0,0,1,32,175,144,1e-10,60.2
SONDA_E_E_xenobiotica,SRR3613690.1322,100.00,32,0,0,1,32,175,144,1e-10,60.2
SONDA_E_E_xenobiotica,SRR3613690.795,100.00,32,0,0,1,32,175,144,1e-10,60.2
SONDA_E_E_xenobiotica,SRR3613690.29325,97.06,34,1,0,1,34,177,144,4e-10,58.4
SONDA_E_E_xenobiotica,SRR3613690.29064,97.06,34,1,0,1,34,177,144,4e-10,58.4
SONDA_E_E_xenobiotica,SRR3613690.29049,100.00,31,0,0,4,34,172,142,4e-10,58.4
SONDA_E_E_xenobiotica,SRR3613690.28690,97.06,34,1,0,1,34,177,144,4e-10,58.4
SONDA_E_E_xenobiotica,SRR3613690.28570,97.06,34,1,0,1,34,177,144,4e-10,58.4
SONDA_E_E_xenobiotica,SRR3613690.25191,97.06,34,1,0,1,34,177,144,4e-10,58.4
SONDA_E_E_xenobiotica,SRR3613690.24684,97.06,34,1,0,1,34,177,144,4e-10,58.4
SONDA_E_E_xenobiotica,SRR3613690.24337,97.06,34,1,0,1,34,180,147,4e-10,58.4
SONDA_E_E_xenobiotica,SRR3613690.23903,97.06,34,1,0,1,34,177,144,4e-10,58.4
SONDA_E_E_xenobiotica,SRR3613690.23659,97.06,34,1,0,1,34,177,144,4e-10,58.4
SONDA_E_E_xenobiotica,SRR3613690.22735,97.06,34,1,0,1,34,177,144,4e-10,58.4
SONDA_E_E_xenobiotica,SRR3613690.22640,97.06,34,1,0,1,34,177,144,4e-10,58.4
SONDA_E_E_xenobiotica,SRR3613690.20557,97.06,34,1,0,1,34,177,144,4e-10,58.4
SONDA_E_E_xenobiotica,SRR3613690.20370,97.06,34,1,0,1,34,175,142,4e-10,58.4
SONDA_E_E_xenobiotica,SRR3613690.20093,97.06,34,1,0,1,34,177,144,4e-10,58.4
SONDA_E_E_xenobiotica,SRR3613690.19470,97.06,34,1,0,1,34,177,144,4e-10,58.4
SONDA_E_E_xenobiotica,SRR3613690.19015,97.06,34,1,0,1,34,177,144,4e-10,58.4
SONDA_E_E_xenobiotica,SRR3613690.18174,100.00,31,0,0,4,34,172,142,4e-10,58.4
SONDA_E_E_xenobiotica,SRR3613690.16724,100.00,31,0,0,4,34,173,143,4e-10,58.4
SONDA_E_E_xenobiotica,SRR3613690.16324,97.06,34,1,0,1,34,177,144,4e-10,58.4
SONDA_E_E_xenobiotica,SRR3613690.16076,97.06,34,1,0,1,34,175,142,4e-10,58.4
SONDA_E_E_xenobiotica,SRR3613690.14439,97.06,34,1,0,1,34,177,144,4e-10,58.4
SONDA_E_E_xenobiotica,SRR3613690.8910,97.06,34,1,0,1,34,177,144,4e-10,58.4
SONDA_E_E_xenobiotica,SRR3613690.8410,97.06,34,1,0,1,34,177,144,4e-10,58.4
SONDA_E_E_xenobiotica,SRR3613690.7700,97.06,34,1,0,1,34,177,144,4e-10,58.4
SONDA_E_E_xenobiotica,SRR3613690.7203,100.00,31,0,0,4,34,172,142,4e-10,58.4
SONDA_E_E_xenobiotica,SRR3613690.6623,97.06,34,1,0,1,34,177,144,4e-10,58.4
SONDA_E_E_xenobiotica,SRR3613690.6562,97.06,34,1,0,1,34,177,144,4e-10,58.4
SONDA_E_E_xenobiotica,SRR3613690.6422,100.00,31,0,0,4,34,172,142,4e-10,58.4
SONDA_E_E_xenobiotica,SRR3613690.5672,97.06,34,1,0,1,34,177,144,4e-10,58.4
SONDA_E_E_xenobiotica,SRR3613690.31,97.06,34,1,0,1,34,177,144,4e-10,58.4
SONDA_E_E_xenobiotica,SRR3613690.13733,96.88,32,1,0,1,32,175,144,5e-09,54.7
