SONDA_E_E_xenobiotica,SRR3613683.26426,100.00,35,0,0,1,35,175,141,2e-12,65.8
SONDA_E_E_xenobiotica,SRR3613683.26398,100.00,35,0,0,1,35,175,141,2e-12,65.8
SONDA_E_E_xenobiotica,SRR3613683.29196,100.00,34,0,0,1,34,175,142,9e-12,63.9
SONDA_E_E_xenobiotica,SRR3613683.29122,97.30,37,1,0,1,37,177,141,9e-12,63.9
SONDA_E_E_xenobiotica,SRR3613683.29022,100.00,34,0,0,1,34,175,142,9e-12,63.9
SONDA_E_E_xenobiotica,SRR3613683.28995,100.00,34,0,0,1,34,176,143,9e-12,63.9
SONDA_E_E_xenobiotica,SRR3613683.28992,100.00,34,0,0,1,34,175,142,9e-12,63.9
SONDA_E_E_xenobiotica,SRR3613683.28865,100.00,34,0,0,1,34,175,142,9e-12,63.9
SONDA_E_E_xenobiotica,SRR3613683.28825,100.00,34,0,0,1,34,175,142,9e-12,63.9
SONDA_E_E_xenobiotica,SRR3613683.28802,100.00,34,0,0,1,34,175,142,9e-12,63.9
SONDA_E_E_xenobiotica,SRR3613683.28784,100.00,34,0,0,1,34,175,142,9e-12,63.9
SONDA_E_E_xenobiotica,SRR3613683.28778,100.00,34,0,0,1,34,175,142,9e-12,63.9
SONDA_E_E_xenobiotica,SRR3613683.28759,100.00,34,0,0,1,34,175,142,9e-12,63.9
SONDA_E_E_xenobiotica,SRR3613683.28730,100.00,34,0,0,1,34,175,142,9e-12,63.9
SONDA_E_E_xenobiotica,SRR3613683.28715,100.00,34,0,0,1,34,180,147,9e-12,63.9
SONDA_E_E_xenobiotica,SRR3613683.28698,100.00,34,0,0,1,34,175,142,9e-12,63.9
SONDA_E_E_xenobiotica,SRR3613683.28633,100.00,34,0,0,1,34,175,142,9e-12,63.9
SONDA_E_E_xenobiotica,SRR3613683.28577,100.00,34,0,0,1,34,175,142,9e-12,63.9
SONDA_E_E_xenobiotica,SRR3613683.28556,100.00,34,0,0,1,34,175,142,9e-12,63.9
SONDA_E_E_xenobiotica,SRR3613683.28554,100.00,34,0,0,1,34,175,142,9e-12,63.9
SONDA_E_E_xenobiotica,SRR3613683.28457,100.00,34,0,0,1,34,175,142,9e-12,63.9
SONDA_E_E_xenobiotica,SRR3613683.28410,100.00,34,0,0,1,34,175,142,9e-12,63.9
SONDA_E_E_xenobiotica,SRR3613683.28334,100.00,34,0,0,1,34,175,142,9e-12,63.9
SONDA_E_E_xenobiotica,SRR3613683.28327,100.00,34,0,0,1,34,175,142,9e-12,63.9
SONDA_E_E_xenobiotica,SRR3613683.28285,100.00,34,0,0,1,34,175,142,9e-12,63.9
SONDA_E_E_xenobiotica,SRR3613683.28253,100.00,34,0,0,1,34,180,147,9e-12,63.9
SONDA_E_E_xenobiotica,SRR3613683.28152,100.00,34,0,0,1,34,175,142,9e-12,63.9
SONDA_E_E_xenobiotica,SRR3613683.28148,100.00,34,0,0,1,34,176,143,9e-12,63.9
SONDA_E_E_xenobiotica,SRR3613683.28081,100.00,34,0,0,1,34,175,142,9e-12,63.9
SONDA_E_E_xenobiotica,SRR3613683.27927,100.00,34,0,0,1,34,175,142,9e-12,63.9
SONDA_E_E_xenobiotica,SRR3613683.27914,100.00,34,0,0,1,34,176,143,9e-12,63.9
SONDA_E_E_xenobiotica,SRR3613683.27804,100.00,34,0,0,1,34,175,142,9e-12,63.9
SONDA_E_E_xenobiotica,SRR3613683.27792,100.00,34,0,0,1,34,178,145,9e-12,63.9
SONDA_E_E_xenobiotica,SRR3613683.27615,100.00,34,0,0,1,34,175,142,9e-12,63.9
SONDA_E_E_xenobiotica,SRR3613683.27562,100.00,34,0,0,1,34,175,142,9e-12,63.9
SONDA_E_E_xenobiotica,SRR3613683.27483,100.00,34,0,0,1,34,175,142,9e-12,63.9
SONDA_E_E_xenobiotica,SRR3613683.27477,100.00,34,0,0,1,34,175,142,9e-12,63.9
SONDA_E_E_xenobiotica,SRR3613683.27463,100.00,34,0,0,1,34,175,142,9e-12,63.9
SONDA_E_E_xenobiotica,SRR3613683.27431,100.00,34,0,0,1,34,175,142,9e-12,63.9
SONDA_E_E_xenobiotica,SRR3613683.27399,100.00,34,0,0,1,34,175,142,9e-12,63.9
SONDA_E_E_xenobiotica,SRR3613683.27397,100.00,34,0,0,1,34,175,142,9e-12,63.9
SONDA_E_E_xenobiotica,SRR3613683.27387,100.00,34,0,0,1,34,175,142,9e-12,63.9
SONDA_E_E_xenobiotica,SRR3613683.27380,100.00,34,0,0,1,34,175,142,9e-12,63.9
SONDA_E_E_xenobiotica,SRR3613683.27362,100.00,34,0,0,1,34,181,148,9e-12,63.9
SONDA_E_E_xenobiotica,SRR3613683.27339,100.00,34,0,0,1,34,175,142,9e-12,63.9
SONDA_E_E_xenobiotica,SRR3613683.27271,100.00,34,0,0,1,34,175,142,9e-12,63.9
SONDA_E_E_xenobiotica,SRR3613683.27255,100.00,34,0,0,1,34,175,142,9e-12,63.9
SONDA_E_E_xenobiotica,SRR3613683.27225,100.00,34,0,0,1,34,175,142,9e-12,63.9
SONDA_E_E_xenobiotica,SRR3613683.27177,100.00,34,0,0,1,34,175,142,9e-12,63.9
SONDA_E_E_xenobiotica,SRR3613683.27161,100.00,34,0,0,1,34,178,145,9e-12,63.9
SONDA_E_E_xenobiotica,SRR3613683.27150,100.00,34,0,0,1,34,175,142,9e-12,63.9
SONDA_E_E_xenobiotica,SRR3613683.27108,100.00,34,0,0,1,34,175,142,9e-12,63.9
SONDA_E_E_xenobiotica,SRR3613683.26956,100.00,34,0,0,1,34,175,142,9e-12,63.9
SONDA_E_E_xenobiotica,SRR3613683.26953,100.00,34,0,0,1,34,175,142,9e-12,63.9
SONDA_E_E_xenobiotica,SRR3613683.26913,100.00,34,0,0,1,34,175,142,9e-12,63.9
SONDA_E_E_xenobiotica,SRR3613683.26911,100.00,34,0,0,1,34,175,142,9e-12,63.9
SONDA_E_E_xenobiotica,SRR3613683.26887,100.00,34,0,0,1,34,180,147,9e-12,63.9
SONDA_E_E_xenobiotica,SRR3613683.26865,100.00,34,0,0,1,34,175,142,9e-12,63.9
SONDA_E_E_xenobiotica,SRR3613683.26849,100.00,34,0,0,1,34,175,142,9e-12,63.9
SONDA_E_E_xenobiotica,SRR3613683.26804,100.00,34,0,0,1,34,175,142,9e-12,63.9
SONDA_E_E_xenobiotica,SRR3613683.26761,100.00,34,0,0,1,34,175,142,9e-12,63.9
SONDA_E_E_xenobiotica,SRR3613683.26747,100.00,34,0,0,1,34,175,142,9e-12,63.9
SONDA_E_E_xenobiotica,SRR3613683.26631,100.00,34,0,0,1,34,175,142,9e-12,63.9
SONDA_E_E_xenobiotica,SRR3613683.26603,100.00,34,0,0,1,34,175,142,9e-12,63.9
SONDA_E_E_xenobiotica,SRR3613683.26390,100.00,34,0,0,1,34,175,142,9e-12,63.9
SONDA_E_E_xenobiotica,SRR3613683.26317,100.00,34,0,0,1,34,175,142,9e-12,63.9
SONDA_E_E_xenobiotica,SRR3613683.26225,100.00,34,0,0,1,34,175,142,9e-12,63.9
SONDA_E_E_xenobiotica,SRR3613683.26136,100.00,34,0,0,1,34,175,142,9e-12,63.9
SONDA_E_E_xenobiotica,SRR3613683.26122,100.00,34,0,0,1,34,175,142,9e-12,63.9
SONDA_E_E_xenobiotica,SRR3613683.26106,100.00,34,0,0,1,34,176,143,9e-12,63.9
SONDA_E_E_xenobiotica,SRR3613683.26081,100.00,34,0,0,1,34,178,145,9e-12,63.9
SONDA_E_E_xenobiotica,SRR3613683.25968,100.00,34,0,0,1,34,175,142,9e-12,63.9
SONDA_E_E_xenobiotica,SRR3613683.25937,100.00,34,0,0,1,34,179,146,9e-12,63.9
SONDA_E_E_xenobiotica,SRR3613683.25864,100.00,34,0,0,1,34,175,142,9e-12,63.9
SONDA_E_E_xenobiotica,SRR3613683.25849,100.00,34,0,0,1,34,175,142,9e-12,63.9
SONDA_E_E_xenobiotica,SRR3613683.25845,100.00,34,0,0,1,34,180,147,9e-12,63.9
SONDA_E_E_xenobiotica,SRR3613683.25813,100.00,34,0,0,1,34,175,142,9e-12,63.9
SONDA_E_E_xenobiotica,SRR3613683.25798,100.00,34,0,0,1,34,180,147,9e-12,63.9
SONDA_E_E_xenobiotica,SRR3613683.25772,100.00,34,0,0,1,34,175,142,9e-12,63.9
SONDA_E_E_xenobiotica,SRR3613683.25733,100.00,34,0,0,1,34,175,142,9e-12,63.9
SONDA_E_E_xenobiotica,SRR3613683.25725,100.00,34,0,0,1,34,180,147,9e-12,63.9
SONDA_E_E_xenobiotica,SRR3613683.25722,100.00,34,0,0,1,34,175,142,9e-12,63.9
SONDA_E_E_xenobiotica,SRR3613683.25653,100.00,34,0,0,1,34,175,142,9e-12,63.9
SONDA_E_E_xenobiotica,SRR3613683.25631,100.00,34,0,0,1,34,175,142,9e-12,63.9
SONDA_E_E_xenobiotica,SRR3613683.25578,100.00,34,0,0,1,34,176,143,9e-12,63.9
SONDA_E_E_xenobiotica,SRR3613683.25558,100.00,34,0,0,1,34,175,142,9e-12,63.9
SONDA_E_E_xenobiotica,SRR3613683.25436,100.00,34,0,0,1,34,175,142,9e-12,63.9
SONDA_E_E_xenobiotica,SRR3613683.25374,100.00,34,0,0,1,34,178,145,9e-12,63.9
SONDA_E_E_xenobiotica,SRR3613683.25311,100.00,34,0,0,1,34,175,142,9e-12,63.9
SONDA_E_E_xenobiotica,SRR3613683.25208,100.00,34,0,0,1,34,175,142,9e-12,63.9
SONDA_E_E_xenobiotica,SRR3613683.25079,100.00,34,0,0,1,34,180,147,9e-12,63.9
SONDA_E_E_xenobiotica,SRR3613683.25020,100.00,34,0,0,1,34,180,147,9e-12,63.9
SONDA_E_E_xenobiotica,SRR3613683.24932,100.00,34,0,0,1,34,175,142,9e-12,63.9
SONDA_E_E_xenobiotica,SRR3613683.24779,100.00,34,0,0,1,34,176,143,9e-12,63.9
SONDA_E_E_xenobiotica,SRR3613683.24768,100.00,34,0,0,1,34,178,145,9e-12,63.9
SONDA_E_E_xenobiotica,SRR3613683.24765,100.00,34,0,0,1,34,175,142,9e-12,63.9
SONDA_E_E_xenobiotica,SRR3613683.24762,100.00,34,0,0,1,34,176,143,9e-12,63.9
SONDA_E_E_xenobiotica,SRR3613683.24754,100.00,34,0,0,1,34,175,142,9e-12,63.9
SONDA_E_E_xenobiotica,SRR3613683.24734,100.00,34,0,0,1,34,175,142,9e-12,63.9
SONDA_E_E_xenobiotica,SRR3613683.24733,100.00,34,0,0,1,34,175,142,9e-12,63.9
SONDA_E_E_xenobiotica,SRR3613683.24731,100.00,34,0,0,1,34,175,142,9e-12,63.9
SONDA_E_E_xenobiotica,SRR3613683.24726,100.00,34,0,0,1,34,175,142,9e-12,63.9
SONDA_E_E_xenobiotica,SRR3613683.24676,100.00,34,0,0,1,34,175,142,9e-12,63.9
SONDA_E_E_xenobiotica,SRR3613683.24623,100.00,34,0,0,1,34,181,148,9e-12,63.9
SONDA_E_E_xenobiotica,SRR3613683.24616,100.00,34,0,0,1,34,175,142,9e-12,63.9
SONDA_E_E_xenobiotica,SRR3613683.24602,100.00,34,0,0,1,34,176,143,9e-12,63.9
SONDA_E_E_xenobiotica,SRR3613683.24503,100.00,34,0,0,1,34,175,142,9e-12,63.9
SONDA_E_E_xenobiotica,SRR3613683.24502,100.00,34,0,0,1,34,176,143,9e-12,63.9
SONDA_E_E_xenobiotica,SRR3613683.24492,100.00,34,0,0,1,34,175,142,9e-12,63.9
SONDA_E_E_xenobiotica,SRR3613683.24396,100.00,34,0,0,1,34,180,147,9e-12,63.9
SONDA_E_E_xenobiotica,SRR3613683.24325,100.00,34,0,0,1,34,175,142,9e-12,63.9
SONDA_E_E_xenobiotica,SRR3613683.24322,100.00,34,0,0,1,34,175,142,9e-12,63.9
SONDA_E_E_xenobiotica,SRR3613683.24236,100.00,34,0,0,1,34,175,142,9e-12,63.9
SONDA_E_E_xenobiotica,SRR3613683.24234,100.00,34,0,0,1,34,175,142,9e-12,63.9
SONDA_E_E_xenobiotica,SRR3613683.24181,100.00,34,0,0,1,34,175,142,9e-12,63.9
SONDA_E_E_xenobiotica,SRR3613683.24131,100.00,34,0,0,1,34,175,142,9e-12,63.9
SONDA_E_E_xenobiotica,SRR3613683.24043,100.00,34,0,0,1,34,175,142,9e-12,63.9
SONDA_E_E_xenobiotica,SRR3613683.23952,100.00,34,0,0,1,34,175,142,9e-12,63.9
SONDA_E_E_xenobiotica,SRR3613683.23887,100.00,34,0,0,1,34,175,142,9e-12,63.9
SONDA_E_E_xenobiotica,SRR3613683.23778,100.00,34,0,0,1,34,175,142,9e-12,63.9
SONDA_E_E_xenobiotica,SRR3613683.23727,100.00,34,0,0,1,34,175,142,9e-12,63.9
SONDA_E_E_xenobiotica,SRR3613683.23726,100.00,34,0,0,1,34,178,145,9e-12,63.9
SONDA_E_E_xenobiotica,SRR3613683.23704,100.00,34,0,0,1,34,175,142,9e-12,63.9
SONDA_E_E_xenobiotica,SRR3613683.23652,100.00,34,0,0,1,34,175,142,9e-12,63.9
SONDA_E_E_xenobiotica,SRR3613683.23651,100.00,34,0,0,1,34,175,142,9e-12,63.9
SONDA_E_E_xenobiotica,SRR3613683.23607,100.00,34,0,0,1,34,175,142,9e-12,63.9
SONDA_E_E_xenobiotica,SRR3613683.23592,100.00,34,0,0,1,34,175,142,9e-12,63.9
SONDA_E_E_xenobiotica,SRR3613683.23577,100.00,34,0,0,1,34,175,142,9e-12,63.9
SONDA_E_E_xenobiotica,SRR3613683.23575,100.00,34,0,0,1,34,175,142,9e-12,63.9
SONDA_E_E_xenobiotica,SRR3613683.23444,100.00,34,0,0,1,34,175,142,9e-12,63.9
SONDA_E_E_xenobiotica,SRR3613683.23439,100.00,34,0,0,1,34,175,142,9e-12,63.9
SONDA_E_E_xenobiotica,SRR3613683.23434,100.00,34,0,0,1,34,175,142,9e-12,63.9
SONDA_E_E_xenobiotica,SRR3613683.23420,100.00,34,0,0,1,34,175,142,9e-12,63.9
SONDA_E_E_xenobiotica,SRR3613683.23407,100.00,34,0,0,1,34,176,143,9e-12,63.9
SONDA_E_E_xenobiotica,SRR3613683.23402,100.00,34,0,0,1,34,176,143,9e-12,63.9
SONDA_E_E_xenobiotica,SRR3613683.23362,100.00,34,0,0,1,34,175,142,9e-12,63.9
SONDA_E_E_xenobiotica,SRR3613683.23281,100.00,34,0,0,1,34,175,142,9e-12,63.9
SONDA_E_E_xenobiotica,SRR3613683.23248,100.00,34,0,0,1,34,179,146,9e-12,63.9
SONDA_E_E_xenobiotica,SRR3613683.23243,100.00,34,0,0,1,34,175,142,9e-12,63.9
SONDA_E_E_xenobiotica,SRR3613683.23231,100.00,34,0,0,1,34,180,147,9e-12,63.9
SONDA_E_E_xenobiotica,SRR3613683.23188,100.00,34,0,0,1,34,175,142,9e-12,63.9
SONDA_E_E_xenobiotica,SRR3613683.23180,100.00,34,0,0,1,34,175,142,9e-12,63.9
SONDA_E_E_xenobiotica,SRR3613683.23135,100.00,34,0,0,1,34,175,142,9e-12,63.9
SONDA_E_E_xenobiotica,SRR3613683.23132,100.00,34,0,0,1,34,175,142,9e-12,63.9
SONDA_E_E_xenobiotica,SRR3613683.23129,100.00,34,0,0,1,34,175,142,9e-12,63.9
SONDA_E_E_xenobiotica,SRR3613683.23127,100.00,34,0,0,1,34,176,143,9e-12,63.9
SONDA_E_E_xenobiotica,SRR3613683.23059,100.00,34,0,0,1,34,175,142,9e-12,63.9
SONDA_E_E_xenobiotica,SRR3613683.22976,100.00,34,0,0,1,34,175,142,9e-12,63.9
SONDA_E_E_xenobiotica,SRR3613683.22905,100.00,34,0,0,1,34,176,143,9e-12,63.9
SONDA_E_E_xenobiotica,SRR3613683.22868,100.00,34,0,0,1,34,175,142,9e-12,63.9
SONDA_E_E_xenobiotica,SRR3613683.22856,100.00,34,0,0,1,34,175,142,9e-12,63.9
SONDA_E_E_xenobiotica,SRR3613683.22845,100.00,34,0,0,1,34,175,142,9e-12,63.9
SONDA_E_E_xenobiotica,SRR3613683.22811,100.00,34,0,0,1,34,175,142,9e-12,63.9
SONDA_E_E_xenobiotica,SRR3613683.22798,100.00,34,0,0,1,34,175,142,9e-12,63.9
SONDA_E_E_xenobiotica,SRR3613683.22695,100.00,34,0,0,1,34,176,143,9e-12,63.9
SONDA_E_E_xenobiotica,SRR3613683.22686,100.00,34,0,0,1,34,175,142,9e-12,63.9
SONDA_E_E_xenobiotica,SRR3613683.22682,100.00,34,0,0,1,34,175,142,9e-12,63.9
SONDA_E_E_xenobiotica,SRR3613683.22638,100.00,34,0,0,1,34,175,142,9e-12,63.9
SONDA_E_E_xenobiotica,SRR3613683.22632,100.00,34,0,0,1,34,175,142,9e-12,63.9
SONDA_E_E_xenobiotica,SRR3613683.22625,100.00,34,0,0,1,34,175,142,9e-12,63.9
SONDA_E_E_xenobiotica,SRR3613683.22511,100.00,34,0,0,1,34,175,142,9e-12,63.9
SONDA_E_E_xenobiotica,SRR3613683.22424,100.00,34,0,0,1,34,175,142,9e-12,63.9
SONDA_E_E_xenobiotica,SRR3613683.22287,100.00,34,0,0,1,34,175,142,9e-12,63.9
SONDA_E_E_xenobiotica,SRR3613683.22224,100.00,34,0,0,1,34,175,142,9e-12,63.9
SONDA_E_E_xenobiotica,SRR3613683.22178,100.00,34,0,0,1,34,175,142,9e-12,63.9
SONDA_E_E_xenobiotica,SRR3613683.22141,100.00,34,0,0,1,34,179,146,9e-12,63.9
SONDA_E_E_xenobiotica,SRR3613683.22128,100.00,34,0,0,1,34,178,145,9e-12,63.9
SONDA_E_E_xenobiotica,SRR3613683.22086,100.00,34,0,0,1,34,175,142,9e-12,63.9
SONDA_E_E_xenobiotica,SRR3613683.21921,100.00,34,0,0,1,34,175,142,9e-12,63.9
SONDA_E_E_xenobiotica,SRR3613683.21853,100.00,34,0,0,1,34,175,142,9e-12,63.9
SONDA_E_E_xenobiotica,SRR3613683.21802,100.00,34,0,0,1,34,175,142,9e-12,63.9
SONDA_E_E_xenobiotica,SRR3613683.21750,100.00,34,0,0,1,34,175,142,9e-12,63.9
SONDA_E_E_xenobiotica,SRR3613683.21694,100.00,34,0,0,1,34,175,142,9e-12,63.9
SONDA_E_E_xenobiotica,SRR3613683.21609,100.00,34,0,0,1,34,180,147,9e-12,63.9
SONDA_E_E_xenobiotica,SRR3613683.21482,100.00,34,0,0,1,34,180,147,9e-12,63.9
SONDA_E_E_xenobiotica,SRR3613683.21471,100.00,34,0,0,1,34,175,142,9e-12,63.9
SONDA_E_E_xenobiotica,SRR3613683.21451,100.00,34,0,0,1,34,180,147,9e-12,63.9
SONDA_E_E_xenobiotica,SRR3613683.21445,100.00,34,0,0,1,34,175,142,9e-12,63.9
SONDA_E_E_xenobiotica,SRR3613683.21428,100.00,34,0,0,1,34,175,142,9e-12,63.9
SONDA_E_E_xenobiotica,SRR3613683.21368,100.00,34,0,0,1,34,175,142,9e-12,63.9
SONDA_E_E_xenobiotica,SRR3613683.21353,100.00,34,0,0,1,34,176,143,9e-12,63.9
SONDA_E_E_xenobiotica,SRR3613683.21296,100.00,34,0,0,1,34,175,142,9e-12,63.9
SONDA_E_E_xenobiotica,SRR3613683.21142,100.00,34,0,0,1,34,175,142,9e-12,63.9
SONDA_E_E_xenobiotica,SRR3613683.21118,100.00,34,0,0,1,34,175,142,9e-12,63.9
SONDA_E_E_xenobiotica,SRR3613683.21086,100.00,34,0,0,1,34,175,142,9e-12,63.9
SONDA_E_E_xenobiotica,SRR3613683.21083,100.00,34,0,0,1,34,175,142,9e-12,63.9
SONDA_E_E_xenobiotica,SRR3613683.21079,100.00,34,0,0,1,34,175,142,9e-12,63.9
SONDA_E_E_xenobiotica,SRR3613683.20968,100.00,34,0,0,1,34,175,142,9e-12,63.9
SONDA_E_E_xenobiotica,SRR3613683.20950,100.00,34,0,0,1,34,178,145,9e-12,63.9
SONDA_E_E_xenobiotica,SRR3613683.20856,100.00,34,0,0,1,34,175,142,9e-12,63.9
SONDA_E_E_xenobiotica,SRR3613683.20780,100.00,34,0,0,1,34,175,142,9e-12,63.9
SONDA_E_E_xenobiotica,SRR3613683.20773,100.00,34,0,0,1,34,175,142,9e-12,63.9
SONDA_E_E_xenobiotica,SRR3613683.20754,100.00,34,0,0,1,34,175,142,9e-12,63.9
SONDA_E_E_xenobiotica,SRR3613683.20703,100.00,34,0,0,1,34,179,146,9e-12,63.9
SONDA_E_E_xenobiotica,SRR3613683.20651,100.00,34,0,0,1,34,175,142,9e-12,63.9
SONDA_E_E_xenobiotica,SRR3613683.20615,100.00,34,0,0,1,34,175,142,9e-12,63.9
SONDA_E_E_xenobiotica,SRR3613683.20606,100.00,34,0,0,1,34,175,142,9e-12,63.9
SONDA_E_E_xenobiotica,SRR3613683.20564,100.00,34,0,0,1,34,175,142,9e-12,63.9
SONDA_E_E_xenobiotica,SRR3613683.20554,100.00,34,0,0,1,34,176,143,9e-12,63.9
SONDA_E_E_xenobiotica,SRR3613683.20331,100.00,34,0,0,1,34,175,142,9e-12,63.9
SONDA_E_E_xenobiotica,SRR3613683.20309,100.00,34,0,0,1,34,175,142,9e-12,63.9
SONDA_E_E_xenobiotica,SRR3613683.20290,100.00,34,0,0,1,34,175,142,9e-12,63.9
SONDA_E_E_xenobiotica,SRR3613683.20210,100.00,34,0,0,1,34,175,142,9e-12,63.9
SONDA_E_E_xenobiotica,SRR3613683.20180,100.00,34,0,0,1,34,175,142,9e-12,63.9
SONDA_E_E_xenobiotica,SRR3613683.20176,100.00,34,0,0,1,34,175,142,9e-12,63.9
SONDA_E_E_xenobiotica,SRR3613683.20162,100.00,34,0,0,1,34,175,142,9e-12,63.9
SONDA_E_E_xenobiotica,SRR3613683.20112,100.00,34,0,0,1,34,175,142,9e-12,63.9
SONDA_E_E_xenobiotica,SRR3613683.20063,100.00,34,0,0,1,34,175,142,9e-12,63.9
SONDA_E_E_xenobiotica,SRR3613683.19958,100.00,34,0,0,1,34,175,142,9e-12,63.9
SONDA_E_E_xenobiotica,SRR3613683.19938,100.00,34,0,0,1,34,175,142,9e-12,63.9
SONDA_E_E_xenobiotica,SRR3613683.19908,100.00,34,0,0,1,34,175,142,9e-12,63.9
SONDA_E_E_xenobiotica,SRR3613683.19840,100.00,34,0,0,1,34,175,142,9e-12,63.9
SONDA_E_E_xenobiotica,SRR3613683.19829,100.00,34,0,0,1,34,175,142,9e-12,63.9
SONDA_E_E_xenobiotica,SRR3613683.19802,100.00,34,0,0,1,34,175,142,9e-12,63.9
SONDA_E_E_xenobiotica,SRR3613683.19728,100.00,34,0,0,1,34,175,142,9e-12,63.9
SONDA_E_E_xenobiotica,SRR3613683.19653,100.00,34,0,0,1,34,179,146,9e-12,63.9
SONDA_E_E_xenobiotica,SRR3613683.19632,100.00,34,0,0,1,34,175,142,9e-12,63.9
SONDA_E_E_xenobiotica,SRR3613683.19574,100.00,34,0,0,1,34,175,142,9e-12,63.9
SONDA_E_E_xenobiotica,SRR3613683.19445,100.00,34,0,0,1,34,176,143,9e-12,63.9
SONDA_E_E_xenobiotica,SRR3613683.19353,100.00,34,0,0,1,34,176,143,9e-12,63.9
SONDA_E_E_xenobiotica,SRR3613683.19344,100.00,34,0,0,1,34,175,142,9e-12,63.9
SONDA_E_E_xenobiotica,SRR3613683.19331,100.00,34,0,0,1,34,175,142,9e-12,63.9
SONDA_E_E_xenobiotica,SRR3613683.19320,100.00,34,0,0,1,34,176,143,9e-12,63.9
SONDA_E_E_xenobiotica,SRR3613683.19311,100.00,34,0,0,1,34,175,142,9e-12,63.9
SONDA_E_E_xenobiotica,SRR3613683.19286,100.00,34,0,0,1,34,175,142,9e-12,63.9
SONDA_E_E_xenobiotica,SRR3613683.19217,100.00,34,0,0,1,34,176,143,9e-12,63.9
SONDA_E_E_xenobiotica,SRR3613683.19188,100.00,34,0,0,1,34,179,146,9e-12,63.9
SONDA_E_E_xenobiotica,SRR3613683.19182,100.00,34,0,0,1,34,176,143,9e-12,63.9
SONDA_E_E_xenobiotica,SRR3613683.19113,100.00,34,0,0,1,34,175,142,9e-12,63.9
SONDA_E_E_xenobiotica,SRR3613683.19088,100.00,34,0,0,1,34,175,142,9e-12,63.9
SONDA_E_E_xenobiotica,SRR3613683.19067,100.00,34,0,0,1,34,180,147,9e-12,63.9
SONDA_E_E_xenobiotica,SRR3613683.18968,100.00,34,0,0,1,34,180,147,9e-12,63.9
SONDA_E_E_xenobiotica,SRR3613683.18957,100.00,34,0,0,1,34,175,142,9e-12,63.9
SONDA_E_E_xenobiotica,SRR3613683.18950,100.00,34,0,0,1,34,179,146,9e-12,63.9
SONDA_E_E_xenobiotica,SRR3613683.18668,100.00,34,0,0,1,34,175,142,9e-12,63.9
SONDA_E_E_xenobiotica,SRR3613683.18638,100.00,34,0,0,1,34,175,142,9e-12,63.9
SONDA_E_E_xenobiotica,SRR3613683.18609,100.00,34,0,0,1,34,176,143,9e-12,63.9
SONDA_E_E_xenobiotica,SRR3613683.18521,100.00,34,0,0,1,34,175,142,9e-12,63.9
SONDA_E_E_xenobiotica,SRR3613683.18456,100.00,34,0,0,1,34,175,142,9e-12,63.9
SONDA_E_E_xenobiotica,SRR3613683.18406,100.00,34,0,0,1,34,175,142,9e-12,63.9
SONDA_E_E_xenobiotica,SRR3613683.18404,100.00,34,0,0,1,34,175,142,9e-12,63.9
SONDA_E_E_xenobiotica,SRR3613683.18397,100.00,34,0,0,1,34,175,142,9e-12,63.9
SONDA_E_E_xenobiotica,SRR3613683.18360,100.00,34,0,0,1,34,175,142,9e-12,63.9
SONDA_E_E_xenobiotica,SRR3613683.18311,100.00,34,0,0,1,34,175,142,9e-12,63.9
SONDA_E_E_xenobiotica,SRR3613683.18282,100.00,34,0,0,1,34,179,146,9e-12,63.9
SONDA_E_E_xenobiotica,SRR3613683.18210,100.00,34,0,0,1,34,175,142,9e-12,63.9
SONDA_E_E_xenobiotica,SRR3613683.18163,100.00,34,0,0,1,34,175,142,9e-12,63.9
SONDA_E_E_xenobiotica,SRR3613683.18114,100.00,34,0,0,1,34,175,142,9e-12,63.9
SONDA_E_E_xenobiotica,SRR3613683.18089,100.00,34,0,0,1,34,175,142,9e-12,63.9
SONDA_E_E_xenobiotica,SRR3613683.18082,100.00,34,0,0,1,34,175,142,9e-12,63.9
SONDA_E_E_xenobiotica,SRR3613683.18044,100.00,34,0,0,1,34,176,143,9e-12,63.9
SONDA_E_E_xenobiotica,SRR3613683.18024,100.00,34,0,0,1,34,175,142,9e-12,63.9
SONDA_E_E_xenobiotica,SRR3613683.17986,100.00,34,0,0,1,34,176,143,9e-12,63.9
SONDA_E_E_xenobiotica,SRR3613683.17956,100.00,34,0,0,1,34,175,142,9e-12,63.9
SONDA_E_E_xenobiotica,SRR3613683.17944,100.00,34,0,0,1,34,178,145,9e-12,63.9
SONDA_E_E_xenobiotica,SRR3613683.17910,100.00,34,0,0,1,34,176,143,9e-12,63.9
SONDA_E_E_xenobiotica,SRR3613683.17860,100.00,34,0,0,1,34,180,147,9e-12,63.9
SONDA_E_E_xenobiotica,SRR3613683.17785,100.00,34,0,0,1,34,175,142,9e-12,63.9
SONDA_E_E_xenobiotica,SRR3613683.17599,100.00,34,0,0,1,34,175,142,9e-12,63.9
SONDA_E_E_xenobiotica,SRR3613683.17540,100.00,34,0,0,1,34,175,142,9e-12,63.9
SONDA_E_E_xenobiotica,SRR3613683.17535,100.00,34,0,0,1,34,175,142,9e-12,63.9
SONDA_E_E_xenobiotica,SRR3613683.17362,100.00,34,0,0,1,34,175,142,9e-12,63.9
SONDA_E_E_xenobiotica,SRR3613683.17311,100.00,34,0,0,1,34,175,142,9e-12,63.9
SONDA_E_E_xenobiotica,SRR3613683.17229,100.00,34,0,0,1,34,175,142,9e-12,63.9
SONDA_E_E_xenobiotica,SRR3613683.17198,100.00,34,0,0,1,34,179,146,9e-12,63.9
SONDA_E_E_xenobiotica,SRR3613683.17193,100.00,34,0,0,1,34,179,146,9e-12,63.9
SONDA_E_E_xenobiotica,SRR3613683.17160,100.00,34,0,0,1,34,175,142,9e-12,63.9
SONDA_E_E_xenobiotica,SRR3613683.17139,100.00,34,0,0,1,34,175,142,9e-12,63.9
SONDA_E_E_xenobiotica,SRR3613683.17137,100.00,34,0,0,1,34,175,142,9e-12,63.9
SONDA_E_E_xenobiotica,SRR3613683.17131,100.00,34,0,0,1,34,175,142,9e-12,63.9
SONDA_E_E_xenobiotica,SRR3613683.17116,100.00,34,0,0,1,34,175,142,9e-12,63.9
SONDA_E_E_xenobiotica,SRR3613683.17095,100.00,34,0,0,1,34,175,142,9e-12,63.9
SONDA_E_E_xenobiotica,SRR3613683.17087,100.00,34,0,0,1,34,176,143,9e-12,63.9
SONDA_E_E_xenobiotica,SRR3613683.17086,100.00,34,0,0,1,34,175,142,9e-12,63.9
SONDA_E_E_xenobiotica,SRR3613683.16989,100.00,34,0,0,1,34,178,145,9e-12,63.9
SONDA_E_E_xenobiotica,SRR3613683.16964,100.00,34,0,0,1,34,175,142,9e-12,63.9
SONDA_E_E_xenobiotica,SRR3613683.16815,100.00,34,0,0,1,34,175,142,9e-12,63.9
SONDA_E_E_xenobiotica,SRR3613683.16710,100.00,34,0,0,1,34,175,142,9e-12,63.9
SONDA_E_E_xenobiotica,SRR3613683.16705,100.00,34,0,0,1,34,175,142,9e-12,63.9
SONDA_E_E_xenobiotica,SRR3613683.16680,100.00,34,0,0,1,34,180,147,9e-12,63.9
SONDA_E_E_xenobiotica,SRR3613683.16657,100.00,34,0,0,1,34,179,146,9e-12,63.9
SONDA_E_E_xenobiotica,SRR3613683.16597,100.00,34,0,0,1,34,175,142,9e-12,63.9
SONDA_E_E_xenobiotica,SRR3613683.16530,100.00,34,0,0,1,34,180,147,9e-12,63.9
SONDA_E_E_xenobiotica,SRR3613683.16524,100.00,34,0,0,1,34,175,142,9e-12,63.9
SONDA_E_E_xenobiotica,SRR3613683.16427,100.00,34,0,0,1,34,175,142,9e-12,63.9
SONDA_E_E_xenobiotica,SRR3613683.16417,100.00,34,0,0,1,34,175,142,9e-12,63.9
SONDA_E_E_xenobiotica,SRR3613683.16322,100.00,34,0,0,1,34,175,142,9e-12,63.9
SONDA_E_E_xenobiotica,SRR3613683.16297,100.00,34,0,0,1,34,176,143,9e-12,63.9
SONDA_E_E_xenobiotica,SRR3613683.16278,100.00,34,0,0,1,34,180,147,9e-12,63.9
SONDA_E_E_xenobiotica,SRR3613683.16254,100.00,34,0,0,1,34,175,142,9e-12,63.9
SONDA_E_E_xenobiotica,SRR3613683.16245,100.00,34,0,0,1,34,175,142,9e-12,63.9
SONDA_E_E_xenobiotica,SRR3613683.16226,100.00,34,0,0,1,34,175,142,9e-12,63.9
SONDA_E_E_xenobiotica,SRR3613683.16193,100.00,34,0,0,1,34,180,147,9e-12,63.9
SONDA_E_E_xenobiotica,SRR3613683.16188,100.00,34,0,0,1,34,175,142,9e-12,63.9
SONDA_E_E_xenobiotica,SRR3613683.16171,100.00,34,0,0,1,34,175,142,9e-12,63.9
SONDA_E_E_xenobiotica,SRR3613683.16139,100.00,34,0,0,1,34,175,142,9e-12,63.9
SONDA_E_E_xenobiotica,SRR3613683.16131,100.00,34,0,0,1,34,175,142,9e-12,63.9
SONDA_E_E_xenobiotica,SRR3613683.16089,100.00,34,0,0,1,34,175,142,9e-12,63.9
SONDA_E_E_xenobiotica,SRR3613683.16058,100.00,34,0,0,1,34,180,147,9e-12,63.9
SONDA_E_E_xenobiotica,SRR3613683.16051,100.00,34,0,0,1,34,181,148,9e-12,63.9
SONDA_E_E_xenobiotica,SRR3613683.16006,100.00,34,0,0,1,34,175,142,9e-12,63.9
SONDA_E_E_xenobiotica,SRR3613683.15948,100.00,34,0,0,1,34,175,142,9e-12,63.9
SONDA_E_E_xenobiotica,SRR3613683.15915,100.00,34,0,0,1,34,175,142,9e-12,63.9
SONDA_E_E_xenobiotica,SRR3613683.15846,100.00,34,0,0,1,34,175,142,9e-12,63.9
SONDA_E_E_xenobiotica,SRR3613683.15764,100.00,34,0,0,1,34,179,146,9e-12,63.9
SONDA_E_E_xenobiotica,SRR3613683.15679,100.00,34,0,0,1,34,175,142,9e-12,63.9
SONDA_E_E_xenobiotica,SRR3613683.15666,100.00,34,0,0,1,34,175,142,9e-12,63.9
SONDA_E_E_xenobiotica,SRR3613683.15664,100.00,34,0,0,1,34,175,142,9e-12,63.9
SONDA_E_E_xenobiotica,SRR3613683.15617,100.00,34,0,0,1,34,175,142,9e-12,63.9
SONDA_E_E_xenobiotica,SRR3613683.15583,100.00,34,0,0,1,34,178,145,9e-12,63.9
SONDA_E_E_xenobiotica,SRR3613683.15570,100.00,34,0,0,1,34,176,143,9e-12,63.9
SONDA_E_E_xenobiotica,SRR3613683.15517,100.00,34,0,0,1,34,175,142,9e-12,63.9
SONDA_E_E_xenobiotica,SRR3613683.15465,100.00,34,0,0,1,34,175,142,9e-12,63.9
SONDA_E_E_xenobiotica,SRR3613683.15457,100.00,34,0,0,1,34,175,142,9e-12,63.9
SONDA_E_E_xenobiotica,SRR3613683.15410,100.00,34,0,0,1,34,176,143,9e-12,63.9
SONDA_E_E_xenobiotica,SRR3613683.15395,100.00,34,0,0,1,34,175,142,9e-12,63.9
SONDA_E_E_xenobiotica,SRR3613683.15390,100.00,34,0,0,1,34,175,142,9e-12,63.9
SONDA_E_E_xenobiotica,SRR3613683.15350,100.00,34,0,0,1,34,175,142,9e-12,63.9
SONDA_E_E_xenobiotica,SRR3613683.15320,100.00,34,0,0,1,34,175,142,9e-12,63.9
SONDA_E_E_xenobiotica,SRR3613683.15258,100.00,34,0,0,1,34,179,146,9e-12,63.9
SONDA_E_E_xenobiotica,SRR3613683.15163,100.00,34,0,0,1,34,175,142,9e-12,63.9
SONDA_E_E_xenobiotica,SRR3613683.15130,100.00,34,0,0,1,34,176,143,9e-12,63.9
SONDA_E_E_xenobiotica,SRR3613683.15117,100.00,34,0,0,1,34,175,142,9e-12,63.9
SONDA_E_E_xenobiotica,SRR3613683.15035,100.00,34,0,0,1,34,175,142,9e-12,63.9
SONDA_E_E_xenobiotica,SRR3613683.15034,100.00,34,0,0,1,34,175,142,9e-12,63.9
SONDA_E_E_xenobiotica,SRR3613683.15032,100.00,34,0,0,1,34,175,142,9e-12,63.9
SONDA_E_E_xenobiotica,SRR3613683.15031,100.00,34,0,0,1,34,179,146,9e-12,63.9
SONDA_E_E_xenobiotica,SRR3613683.14999,100.00,34,0,0,1,34,175,142,9e-12,63.9
SONDA_E_E_xenobiotica,SRR3613683.14993,100.00,34,0,0,1,34,179,146,9e-12,63.9
SONDA_E_E_xenobiotica,SRR3613683.14951,100.00,34,0,0,1,34,176,143,9e-12,63.9
SONDA_E_E_xenobiotica,SRR3613683.14917,100.00,34,0,0,1,34,176,143,9e-12,63.9
SONDA_E_E_xenobiotica,SRR3613683.14865,100.00,34,0,0,1,34,179,146,9e-12,63.9
SONDA_E_E_xenobiotica,SRR3613683.14864,100.00,34,0,0,1,34,175,142,9e-12,63.9
SONDA_E_E_xenobiotica,SRR3613683.14853,100.00,34,0,0,1,34,175,142,9e-12,63.9
SONDA_E_E_xenobiotica,SRR3613683.14817,100.00,34,0,0,1,34,175,142,9e-12,63.9
SONDA_E_E_xenobiotica,SRR3613683.14766,100.00,34,0,0,1,34,175,142,9e-12,63.9
SONDA_E_E_xenobiotica,SRR3613683.14748,100.00,34,0,0,1,34,175,142,9e-12,63.9
SONDA_E_E_xenobiotica,SRR3613683.14707,100.00,34,0,0,1,34,175,142,9e-12,63.9
SONDA_E_E_xenobiotica,SRR3613683.14697,100.00,34,0,0,1,34,175,142,9e-12,63.9
SONDA_E_E_xenobiotica,SRR3613683.14656,100.00,34,0,0,1,34,175,142,9e-12,63.9
SONDA_E_E_xenobiotica,SRR3613683.14635,100.00,34,0,0,1,34,175,142,9e-12,63.9
SONDA_E_E_xenobiotica,SRR3613683.14574,100.00,34,0,0,1,34,176,143,9e-12,63.9
SONDA_E_E_xenobiotica,SRR3613683.14515,100.00,34,0,0,1,34,176,143,9e-12,63.9
SONDA_E_E_xenobiotica,SRR3613683.14497,100.00,34,0,0,1,34,175,142,9e-12,63.9
SONDA_E_E_xenobiotica,SRR3613683.14485,100.00,34,0,0,1,34,175,142,9e-12,63.9
SONDA_E_E_xenobiotica,SRR3613683.14220,100.00,34,0,0,1,34,176,143,9e-12,63.9
SONDA_E_E_xenobiotica,SRR3613683.14216,100.00,34,0,0,1,34,175,142,9e-12,63.9
SONDA_E_E_xenobiotica,SRR3613683.14184,100.00,34,0,0,1,34,179,146,9e-12,63.9
SONDA_E_E_xenobiotica,SRR3613683.14158,100.00,34,0,0,1,34,175,142,9e-12,63.9
SONDA_E_E_xenobiotica,SRR3613683.14144,100.00,34,0,0,1,34,175,142,9e-12,63.9
SONDA_E_E_xenobiotica,SRR3613683.14135,100.00,34,0,0,1,34,175,142,9e-12,63.9
SONDA_E_E_xenobiotica,SRR3613683.14115,100.00,34,0,0,1,34,175,142,9e-12,63.9
SONDA_E_E_xenobiotica,SRR3613683.14027,100.00,34,0,0,1,34,175,142,9e-12,63.9
SONDA_E_E_xenobiotica,SRR3613683.13987,100.00,34,0,0,1,34,175,142,9e-12,63.9
SONDA_E_E_xenobiotica,SRR3613683.13912,100.00,34,0,0,1,34,176,143,9e-12,63.9
SONDA_E_E_xenobiotica,SRR3613683.13839,100.00,34,0,0,1,34,178,145,9e-12,63.9
SONDA_E_E_xenobiotica,SRR3613683.13800,100.00,34,0,0,1,34,176,143,9e-12,63.9
SONDA_E_E_xenobiotica,SRR3613683.13771,100.00,34,0,0,1,34,181,148,9e-12,63.9
SONDA_E_E_xenobiotica,SRR3613683.13663,100.00,34,0,0,1,34,175,142,9e-12,63.9
SONDA_E_E_xenobiotica,SRR3613683.13656,100.00,34,0,0,1,34,180,147,9e-12,63.9
SONDA_E_E_xenobiotica,SRR3613683.13527,100.00,34,0,0,1,34,176,143,9e-12,63.9
SONDA_E_E_xenobiotica,SRR3613683.13490,100.00,34,0,0,1,34,175,142,9e-12,63.9
SONDA_E_E_xenobiotica,SRR3613683.13465,100.00,34,0,0,1,34,176,143,9e-12,63.9
SONDA_E_E_xenobiotica,SRR3613683.13462,100.00,34,0,0,1,34,175,142,9e-12,63.9
SONDA_E_E_xenobiotica,SRR3613683.13439,100.00,34,0,0,1,34,175,142,9e-12,63.9
SONDA_E_E_xenobiotica,SRR3613683.13391,100.00,34,0,0,1,34,175,142,9e-12,63.9
SONDA_E_E_xenobiotica,SRR3613683.13370,100.00,34,0,0,1,34,175,142,9e-12,63.9
SONDA_E_E_xenobiotica,SRR3613683.13253,100.00,34,0,0,1,34,175,142,9e-12,63.9
SONDA_E_E_xenobiotica,SRR3613683.13018,100.00,34,0,0,1,34,175,142,9e-12,63.9
SONDA_E_E_xenobiotica,SRR3613683.12972,100.00,34,0,0,1,34,175,142,9e-12,63.9
SONDA_E_E_xenobiotica,SRR3613683.12954,100.00,34,0,0,1,34,175,142,9e-12,63.9
SONDA_E_E_xenobiotica,SRR3613683.12945,100.00,34,0,0,1,34,175,142,9e-12,63.9
SONDA_E_E_xenobiotica,SRR3613683.12907,100.00,34,0,0,1,34,176,143,9e-12,63.9
SONDA_E_E_xenobiotica,SRR3613683.12821,100.00,34,0,0,1,34,175,142,9e-12,63.9
SONDA_E_E_xenobiotica,SRR3613683.12722,100.00,34,0,0,1,34,175,142,9e-12,63.9
SONDA_E_E_xenobiotica,SRR3613683.12682,100.00,34,0,0,1,34,175,142,9e-12,63.9
SONDA_E_E_xenobiotica,SRR3613683.12640,100.00,34,0,0,1,34,175,142,9e-12,63.9
SONDA_E_E_xenobiotica,SRR3613683.12609,100.00,34,0,0,1,34,179,146,9e-12,63.9
SONDA_E_E_xenobiotica,SRR3613683.12564,100.00,34,0,0,1,34,179,146,9e-12,63.9
SONDA_E_E_xenobiotica,SRR3613683.12434,100.00,34,0,0,1,34,175,142,9e-12,63.9
SONDA_E_E_xenobiotica,SRR3613683.12412,100.00,34,0,0,1,34,175,142,9e-12,63.9
SONDA_E_E_xenobiotica,SRR3613683.12377,100.00,34,0,0,1,34,175,142,9e-12,63.9
SONDA_E_E_xenobiotica,SRR3613683.12362,100.00,34,0,0,1,34,176,143,9e-12,63.9
SONDA_E_E_xenobiotica,SRR3613683.12333,100.00,34,0,0,1,34,175,142,9e-12,63.9
SONDA_E_E_xenobiotica,SRR3613683.12314,100.00,34,0,0,1,34,175,142,9e-12,63.9
SONDA_E_E_xenobiotica,SRR3613683.12248,100.00,34,0,0,1,34,175,142,9e-12,63.9
SONDA_E_E_xenobiotica,SRR3613683.12206,100.00,34,0,0,1,34,175,142,9e-12,63.9
SONDA_E_E_xenobiotica,SRR3613683.12160,100.00,34,0,0,1,34,175,142,9e-12,63.9
SONDA_E_E_xenobiotica,SRR3613683.12109,100.00,34,0,0,1,34,175,142,9e-12,63.9
SONDA_E_E_xenobiotica,SRR3613683.12078,100.00,34,0,0,1,34,175,142,9e-12,63.9
SONDA_E_E_xenobiotica,SRR3613683.11954,100.00,34,0,0,1,34,175,142,9e-12,63.9
SONDA_E_E_xenobiotica,SRR3613683.11945,100.00,34,0,0,1,34,176,143,9e-12,63.9
SONDA_E_E_xenobiotica,SRR3613683.11863,100.00,34,0,0,1,34,175,142,9e-12,63.9
SONDA_E_E_xenobiotica,SRR3613683.11844,100.00,34,0,0,1,34,176,143,9e-12,63.9
SONDA_E_E_xenobiotica,SRR3613683.11840,100.00,34,0,0,1,34,175,142,9e-12,63.9
SONDA_E_E_xenobiotica,SRR3613683.11816,100.00,34,0,0,1,34,175,142,9e-12,63.9
SONDA_E_E_xenobiotica,SRR3613683.11721,100.00,34,0,0,1,34,176,143,9e-12,63.9
SONDA_E_E_xenobiotica,SRR3613683.11573,100.00,34,0,0,1,34,175,142,9e-12,63.9
SONDA_E_E_xenobiotica,SRR3613683.11553,100.00,34,0,0,1,34,175,142,9e-12,63.9
SONDA_E_E_xenobiotica,SRR3613683.11358,100.00,34,0,0,1,34,175,142,9e-12,63.9
SONDA_E_E_xenobiotica,SRR3613683.11237,100.00,34,0,0,1,34,175,142,9e-12,63.9
SONDA_E_E_xenobiotica,SRR3613683.11203,100.00,34,0,0,1,34,175,142,9e-12,63.9
SONDA_E_E_xenobiotica,SRR3613683.11122,100.00,34,0,0,1,34,175,142,9e-12,63.9
SONDA_E_E_xenobiotica,SRR3613683.11103,100.00,34,0,0,1,34,175,142,9e-12,63.9
SONDA_E_E_xenobiotica,SRR3613683.11050,100.00,34,0,0,1,34,176,143,9e-12,63.9
SONDA_E_E_xenobiotica,SRR3613683.11040,100.00,34,0,0,1,34,175,142,9e-12,63.9
SONDA_E_E_xenobiotica,SRR3613683.10994,100.00,34,0,0,1,34,180,147,9e-12,63.9
SONDA_E_E_xenobiotica,SRR3613683.10979,100.00,34,0,0,1,34,176,143,9e-12,63.9
SONDA_E_E_xenobiotica,SRR3613683.10930,100.00,34,0,0,1,34,175,142,9e-12,63.9
SONDA_E_E_xenobiotica,SRR3613683.10926,100.00,34,0,0,1,34,175,142,9e-12,63.9
SONDA_E_E_xenobiotica,SRR3613683.10923,100.00,34,0,0,1,34,180,147,9e-12,63.9
SONDA_E_E_xenobiotica,SRR3613683.10817,100.00,34,0,0,1,34,175,142,9e-12,63.9
SONDA_E_E_xenobiotica,SRR3613683.10722,100.00,34,0,0,1,34,175,142,9e-12,63.9
SONDA_E_E_xenobiotica,SRR3613683.10690,100.00,34,0,0,1,34,175,142,9e-12,63.9
SONDA_E_E_xenobiotica,SRR3613683.10605,100.00,34,0,0,1,34,175,142,9e-12,63.9
SONDA_E_E_xenobiotica,SRR3613683.10556,100.00,34,0,0,1,34,175,142,9e-12,63.9
SONDA_E_E_xenobiotica,SRR3613683.10525,100.00,34,0,0,1,34,175,142,9e-12,63.9
SONDA_E_E_xenobiotica,SRR3613683.10507,100.00,34,0,0,1,34,178,145,9e-12,63.9
SONDA_E_E_xenobiotica,SRR3613683.10506,100.00,34,0,0,1,34,180,147,9e-12,63.9
SONDA_E_E_xenobiotica,SRR3613683.10434,100.00,34,0,0,1,34,179,146,9e-12,63.9
SONDA_E_E_xenobiotica,SRR3613683.10428,100.00,34,0,0,1,34,175,142,9e-12,63.9
SONDA_E_E_xenobiotica,SRR3613683.10292,100.00,34,0,0,1,34,175,142,9e-12,63.9
SONDA_E_E_xenobiotica,SRR3613683.10264,100.00,34,0,0,1,34,176,143,9e-12,63.9
SONDA_E_E_xenobiotica,SRR3613683.10193,100.00,34,0,0,1,34,175,142,9e-12,63.9
SONDA_E_E_xenobiotica,SRR3613683.10037,100.00,34,0,0,1,34,179,146,9e-12,63.9
SONDA_E_E_xenobiotica,SRR3613683.9937,100.00,34,0,0,1,34,175,142,9e-12,63.9
SONDA_E_E_xenobiotica,SRR3613683.9808,100.00,34,0,0,1,34,176,143,9e-12,63.9
SONDA_E_E_xenobiotica,SRR3613683.9806,100.00,34,0,0,1,34,175,142,9e-12,63.9
SONDA_E_E_xenobiotica,SRR3613683.9781,100.00,34,0,0,1,34,175,142,9e-12,63.9
SONDA_E_E_xenobiotica,SRR3613683.9773,100.00,34,0,0,1,34,175,142,9e-12,63.9
SONDA_E_E_xenobiotica,SRR3613683.9714,100.00,34,0,0,1,34,175,142,9e-12,63.9
SONDA_E_E_xenobiotica,SRR3613683.9711,100.00,34,0,0,1,34,176,143,9e-12,63.9
SONDA_E_E_xenobiotica,SRR3613683.9671,100.00,34,0,0,1,34,175,142,9e-12,63.9
SONDA_E_E_xenobiotica,SRR3613683.9600,100.00,34,0,0,1,34,175,142,9e-12,63.9
SONDA_E_E_xenobiotica,SRR3613683.9551,100.00,34,0,0,1,34,175,142,9e-12,63.9
SONDA_E_E_xenobiotica,SRR3613683.9545,100.00,34,0,0,1,34,175,142,9e-12,63.9
SONDA_E_E_xenobiotica,SRR3613683.9533,100.00,34,0,0,1,34,179,146,9e-12,63.9
SONDA_E_E_xenobiotica,SRR3613683.9438,100.00,34,0,0,1,34,175,142,9e-12,63.9
SONDA_E_E_xenobiotica,SRR3613683.9314,100.00,34,0,0,1,34,175,142,9e-12,63.9
SONDA_E_E_xenobiotica,SRR3613683.9200,100.00,34,0,0,1,34,179,146,9e-12,63.9
SONDA_E_E_xenobiotica,SRR3613683.9197,100.00,34,0,0,1,34,175,142,9e-12,63.9
SONDA_E_E_xenobiotica,SRR3613683.9190,100.00,34,0,0,1,34,175,142,9e-12,63.9
SONDA_E_E_xenobiotica,SRR3613683.9173,100.00,34,0,0,1,34,175,142,9e-12,63.9
SONDA_E_E_xenobiotica,SRR3613683.9041,100.00,34,0,0,1,34,175,142,9e-12,63.9
SONDA_E_E_xenobiotica,SRR3613683.9012,100.00,34,0,0,1,34,175,142,9e-12,63.9
SONDA_E_E_xenobiotica,SRR3613683.8875,100.00,34,0,0,1,34,175,142,9e-12,63.9
SONDA_E_E_xenobiotica,SRR3613683.8829,100.00,34,0,0,1,34,175,142,9e-12,63.9
SONDA_E_E_xenobiotica,SRR3613683.8816,100.00,34,0,0,1,34,175,142,9e-12,63.9
SONDA_E_E_xenobiotica,SRR3613683.8809,100.00,34,0,0,1,34,175,142,9e-12,63.9
SONDA_E_E_xenobiotica,SRR3613683.8791,100.00,34,0,0,1,34,175,142,9e-12,63.9
SONDA_E_E_xenobiotica,SRR3613683.8704,100.00,34,0,0,1,34,175,142,9e-12,63.9
SONDA_E_E_xenobiotica,SRR3613683.8616,100.00,34,0,0,1,34,175,142,9e-12,63.9
SONDA_E_E_xenobiotica,SRR3613683.8591,100.00,34,0,0,1,34,175,142,9e-12,63.9
SONDA_E_E_xenobiotica,SRR3613683.8586,100.00,34,0,0,1,34,175,142,9e-12,63.9
SONDA_E_E_xenobiotica,SRR3613683.8538,100.00,34,0,0,1,34,175,142,9e-12,63.9
SONDA_E_E_xenobiotica,SRR3613683.8520,100.00,34,0,0,1,34,175,142,9e-12,63.9
SONDA_E_E_xenobiotica,SRR3613683.8511,100.00,34,0,0,1,34,175,142,9e-12,63.9
SONDA_E_E_xenobiotica,SRR3613683.8470,100.00,34,0,0,1,34,175,142,9e-12,63.9
SONDA_E_E_xenobiotica,SRR3613683.8457,100.00,34,0,0,1,34,180,147,9e-12,63.9
SONDA_E_E_xenobiotica,SRR3613683.8453,100.00,34,0,0,1,34,179,146,9e-12,63.9
SONDA_E_E_xenobiotica,SRR3613683.8445,100.00,34,0,0,1,34,175,142,9e-12,63.9
SONDA_E_E_xenobiotica,SRR3613683.8437,100.00,34,0,0,1,34,175,142,9e-12,63.9
SONDA_E_E_xenobiotica,SRR3613683.8402,100.00,34,0,0,1,34,175,142,9e-12,63.9
SONDA_E_E_xenobiotica,SRR3613683.8367,100.00,34,0,0,1,34,175,142,9e-12,63.9
SONDA_E_E_xenobiotica,SRR3613683.8195,100.00,34,0,0,1,34,175,142,9e-12,63.9
SONDA_E_E_xenobiotica,SRR3613683.8132,100.00,34,0,0,1,34,176,143,9e-12,63.9
SONDA_E_E_xenobiotica,SRR3613683.8063,100.00,34,0,0,1,34,175,142,9e-12,63.9
SONDA_E_E_xenobiotica,SRR3613683.8002,100.00,34,0,0,1,34,176,143,9e-12,63.9
SONDA_E_E_xenobiotica,SRR3613683.7974,100.00,34,0,0,1,34,175,142,9e-12,63.9
SONDA_E_E_xenobiotica,SRR3613683.7955,100.00,34,0,0,1,34,175,142,9e-12,63.9
SONDA_E_E_xenobiotica,SRR3613683.7755,100.00,34,0,0,1,34,175,142,9e-12,63.9
SONDA_E_E_xenobiotica,SRR3613683.7674,100.00,34,0,0,1,34,175,142,9e-12,63.9
SONDA_E_E_xenobiotica,SRR3613683.7639,100.00,34,0,0,1,34,175,142,9e-12,63.9
SONDA_E_E_xenobiotica,SRR3613683.7634,100.00,34,0,0,1,34,175,142,9e-12,63.9
SONDA_E_E_xenobiotica,SRR3613683.7611,100.00,34,0,0,1,34,178,145,9e-12,63.9
SONDA_E_E_xenobiotica,SRR3613683.7542,100.00,34,0,0,1,34,175,142,9e-12,63.9
SONDA_E_E_xenobiotica,SRR3613683.7525,100.00,34,0,0,1,34,175,142,9e-12,63.9
SONDA_E_E_xenobiotica,SRR3613683.7517,100.00,34,0,0,1,34,175,142,9e-12,63.9
SONDA_E_E_xenobiotica,SRR3613683.7471,100.00,34,0,0,1,34,176,143,9e-12,63.9
SONDA_E_E_xenobiotica,SRR3613683.7457,100.00,34,0,0,1,34,175,142,9e-12,63.9
SONDA_E_E_xenobiotica,SRR3613683.7446,100.00,34,0,0,1,34,180,147,9e-12,63.9
SONDA_E_E_xenobiotica,SRR3613683.7415,100.00,34,0,0,1,34,175,142,9e-12,63.9
SONDA_E_E_xenobiotica,SRR3613683.7348,100.00,34,0,0,1,34,175,142,9e-12,63.9
SONDA_E_E_xenobiotica,SRR3613683.7319,100.00,34,0,0,1,34,179,146,9e-12,63.9
SONDA_E_E_xenobiotica,SRR3613683.7280,100.00,34,0,0,1,34,175,142,9e-12,63.9
SONDA_E_E_xenobiotica,SRR3613683.7169,100.00,34,0,0,1,34,175,142,9e-12,63.9
SONDA_E_E_xenobiotica,SRR3613683.7121,100.00,34,0,0,1,34,180,147,9e-12,63.9
SONDA_E_E_xenobiotica,SRR3613683.7110,100.00,34,0,0,1,34,175,142,9e-12,63.9
SONDA_E_E_xenobiotica,SRR3613683.7097,100.00,34,0,0,1,34,175,142,9e-12,63.9
SONDA_E_E_xenobiotica,SRR3613683.7021,100.00,34,0,0,1,34,179,146,9e-12,63.9
SONDA_E_E_xenobiotica,SRR3613683.6938,100.00,34,0,0,1,34,175,142,9e-12,63.9
SONDA_E_E_xenobiotica,SRR3613683.6900,100.00,34,0,0,1,34,175,142,9e-12,63.9
SONDA_E_E_xenobiotica,SRR3613683.6879,100.00,34,0,0,1,34,175,142,9e-12,63.9
SONDA_E_E_xenobiotica,SRR3613683.6773,100.00,34,0,0,1,34,175,142,9e-12,63.9
SONDA_E_E_xenobiotica,SRR3613683.6619,100.00,34,0,0,1,34,179,146,9e-12,63.9
SONDA_E_E_xenobiotica,SRR3613683.6562,100.00,34,0,0,1,34,175,142,9e-12,63.9
SONDA_E_E_xenobiotica,SRR3613683.6542,100.00,34,0,0,1,34,176,143,9e-12,63.9
SONDA_E_E_xenobiotica,SRR3613683.6475,100.00,34,0,0,1,34,180,147,9e-12,63.9
SONDA_E_E_xenobiotica,SRR3613683.6439,100.00,34,0,0,1,34,175,142,9e-12,63.9
SONDA_E_E_xenobiotica,SRR3613683.6350,100.00,34,0,0,1,34,175,142,9e-12,63.9
