Exophiala_xenobiotica_1_CBS118157T,SRR5787657.108177,100.00,30,0,0,1,30,160,189,6e-09,56.5
Exophiala_xenobiotica_1_CBS118157T,SRR5787657.108177,100.00,30,0,0,1,30,452,423,6e-09,56.5
Exophiala_xenobiotica_1_CBS118157T,SRR5787657.38170,100.00,29,0,0,1,29,160,188,2e-08,54.7
