Exophiala_equina_1_CBS119.23T,ERR1817048.441986,97.37,38,1,0,1,38,105,142,7e-11,65.8
Exophiala_equina_3_CBS122270,ERR1817048.495809,100.00,38,0,0,1,38,105,142,1e-12,71.3
Exophiala_xenobiotica_1_CBS118157T,ERR1817048.384611,100.00,30,0,0,1,30,105,134,2e-08,56.5
Exophiala_xenobiotica_1_CBS118157T,ERR1817048.246441,100.00,30,0,0,1,30,105,134,2e-08,56.5
Exophiala_xenobiotica_1_CBS118157T,ERR1817048.246441,100.00,30,0,0,1,30,503,474,2e-08,56.5
Phaeoannelomyces_elegans_CBS110172,ERR1817048.441986,97.37,38,1,0,1,38,105,142,7e-11,65.8
