Exophiala_xenobiotica_1_CBS118157T,SRR5787619.76267,100.00,30,0,0,1,30,160,189,4e-09,56.5
Exophiala_xenobiotica_1_CBS118157T,SRR5787619.76267,100.00,30,0,0,1,30,452,423,4e-09,56.5
Exophiala_xenobiotica_1_CBS118157T,SRR5787619.32747,100.00,30,0,0,1,30,160,189,4e-09,56.5
Exophiala_xenobiotica_1_CBS118157T,SRR5787619.32747,100.00,30,0,0,1,30,452,423,4e-09,56.5
Exophiala_xenobiotica_1_CBS118157T,SRR5787619.10522,100.00,30,0,0,1,30,160,189,4e-09,56.5
Exophiala_xenobiotica_1_CBS118157T,SRR5787619.10522,100.00,30,0,0,1,30,452,423,4e-09,56.5
Exophiala_xenobiotica_1_CBS118157T,SRR5787619.10521,100.00,30,0,0,1,30,160,189,4e-09,56.5
Exophiala_xenobiotica_1_CBS118157T,SRR5787619.10521,100.00,30,0,0,1,30,452,423,4e-09,56.5
