Exophiala_equina_1_CBS119.23T,ERR1817062.357061,100.00,38,0,0,1,38,105,142,1e-12,71.3
Exophiala_equina_1_CBS119.23T,ERR1817062.357061,97.37,38,1,0,1,38,520,483,5e-11,65.8
Exophiala_equina_1_CBS119.23T,ERR1817062.350720,100.00,38,0,0,1,38,105,142,1e-12,71.3
Exophiala_equina_1_CBS119.23T,ERR1817062.350720,97.30,37,0,1,2,38,518,483,7e-10,62.1
Exophiala_equina_1_CBS119.23T,ERR1817062.335553,100.00,38,0,0,1,38,105,142,1e-12,71.3
Exophiala_equina_1_CBS119.23T,ERR1817062.333185,100.00,38,0,0,1,38,105,142,1e-12,71.3
Exophiala_equina_1_CBS119.23T,ERR1817062.318012,100.00,38,0,0,1,38,104,141,1e-12,71.3
Exophiala_equina_1_CBS119.23T,ERR1817062.318012,100.00,38,0,0,1,38,520,483,1e-12,71.3
Exophiala_equina_1_CBS119.23T,ERR1817062.305278,100.00,38,0,0,1,38,105,142,1e-12,71.3
Exophiala_equina_1_CBS119.23T,ERR1817062.305278,100.00,38,0,0,1,38,520,483,1e-12,71.3
Exophiala_equina_1_CBS119.23T,ERR1817062.305263,100.00,38,0,0,1,38,105,142,1e-12,71.3
Exophiala_equina_1_CBS119.23T,ERR1817062.305263,100.00,38,0,0,1,38,520,483,1e-12,71.3
Exophiala_equina_1_CBS119.23T,ERR1817062.302477,100.00,38,0,0,1,38,104,141,1e-12,71.3
Exophiala_equina_1_CBS119.23T,ERR1817062.302477,97.37,38,1,0,1,38,520,483,5e-11,65.8
Exophiala_equina_1_CBS119.23T,ERR1817062.293942,100.00,38,0,0,1,38,105,142,1e-12,71.3
Exophiala_equina_1_CBS119.23T,ERR1817062.290060,100.00,38,0,0,1,38,105,142,1e-12,71.3
Exophiala_equina_1_CBS119.23T,ERR1817062.290060,100.00,38,0,0,1,38,520,483,1e-12,71.3
Exophiala_equina_1_CBS119.23T,ERR1817062.286992,100.00,38,0,0,1,38,105,142,1e-12,71.3
Exophiala_equina_1_CBS119.23T,ERR1817062.286992,100.00,38,0,0,1,38,520,483,1e-12,71.3
Exophiala_equina_1_CBS119.23T,ERR1817062.286005,100.00,38,0,0,1,38,105,142,1e-12,71.3
Exophiala_equina_1_CBS119.23T,ERR1817062.266932,100.00,38,0,0,1,38,105,142,1e-12,71.3
Exophiala_equina_1_CBS119.23T,ERR1817062.266932,100.00,38,0,0,1,38,520,483,1e-12,71.3
Exophiala_equina_1_CBS119.23T,ERR1817062.266921,100.00,38,0,0,1,38,105,142,1e-12,71.3
Exophiala_equina_1_CBS119.23T,ERR1817062.261189,100.00,38,0,0,1,38,105,142,1e-12,71.3
Exophiala_equina_1_CBS119.23T,ERR1817062.259375,100.00,38,0,0,1,38,105,142,1e-12,71.3
Exophiala_equina_1_CBS119.23T,ERR1817062.248551,100.00,38,0,0,1,38,105,142,1e-12,71.3
Exophiala_equina_1_CBS119.23T,ERR1817062.248551,100.00,38,0,0,1,38,520,483,1e-12,71.3
Exophiala_equina_1_CBS119.23T,ERR1817062.237785,100.00,38,0,0,1,38,520,483,1e-12,71.3
Exophiala_equina_1_CBS119.23T,ERR1817062.237785,97.37,38,1,0,1,38,105,142,5e-11,65.8
Exophiala_equina_1_CBS119.23T,ERR1817062.220963,100.00,38,0,0,1,38,105,142,1e-12,71.3
Exophiala_equina_1_CBS119.23T,ERR1817062.220963,100.00,38,0,0,1,38,520,483,1e-12,71.3
Exophiala_equina_1_CBS119.23T,ERR1817062.218686,100.00,38,0,0,1,38,105,142,1e-12,71.3
Exophiala_equina_1_CBS119.23T,ERR1817062.218686,97.37,38,1,0,1,38,520,483,5e-11,65.8
Exophiala_equina_1_CBS119.23T,ERR1817062.206268,100.00,38,0,0,1,38,105,142,1e-12,71.3
Exophiala_equina_1_CBS119.23T,ERR1817062.200791,100.00,38,0,0,1,38,105,142,1e-12,71.3
Exophiala_equina_1_CBS119.23T,ERR1817062.200791,100.00,38,0,0,1,38,520,483,1e-12,71.3
Exophiala_equina_1_CBS119.23T,ERR1817062.185834,100.00,38,0,0,1,38,105,142,1e-12,71.3
Exophiala_equina_1_CBS119.23T,ERR1817062.184726,100.00,38,0,0,1,38,105,142,1e-12,71.3
Exophiala_equina_1_CBS119.23T,ERR1817062.184726,92.11,38,3,0,1,38,520,483,1e-07,54.7
Exophiala_equina_1_CBS119.23T,ERR1817062.158788,100.00,38,0,0,1,38,105,142,1e-12,71.3
Exophiala_equina_1_CBS119.23T,ERR1817062.158788,97.37,38,1,0,1,38,520,483,5e-11,65.8
Exophiala_equina_1_CBS119.23T,ERR1817062.156767,100.00,38,0,0,1,38,105,142,1e-12,71.3
Exophiala_equina_1_CBS119.23T,ERR1817062.156767,100.00,38,0,0,1,38,520,483,1e-12,71.3
Exophiala_equina_1_CBS119.23T,ERR1817062.151867,100.00,38,0,0,1,38,105,142,1e-12,71.3
Exophiala_equina_1_CBS119.23T,ERR1817062.151867,100.00,38,0,0,1,38,520,483,1e-12,71.3
Exophiala_equina_1_CBS119.23T,ERR1817062.151863,100.00,38,0,0,1,38,105,142,1e-12,71.3
Exophiala_equina_1_CBS119.23T,ERR1817062.151863,100.00,38,0,0,1,38,520,483,1e-12,71.3
Exophiala_equina_1_CBS119.23T,ERR1817062.134985,100.00,38,0,0,1,38,105,142,1e-12,71.3
Exophiala_equina_1_CBS119.23T,ERR1817062.134985,100.00,38,0,0,1,38,520,483,1e-12,71.3
Exophiala_equina_1_CBS119.23T,ERR1817062.123563,100.00,38,0,0,1,38,105,142,1e-12,71.3
Exophiala_equina_1_CBS119.23T,ERR1817062.123563,97.37,38,1,0,1,38,520,483,5e-11,65.8
Exophiala_equina_1_CBS119.23T,ERR1817062.113206,100.00,38,0,0,1,38,105,142,1e-12,71.3
Exophiala_equina_1_CBS119.23T,ERR1817062.113206,100.00,38,0,0,1,38,520,483,1e-12,71.3
Exophiala_equina_1_CBS119.23T,ERR1817062.94386,100.00,38,0,0,1,38,105,142,1e-12,71.3
Exophiala_equina_1_CBS119.23T,ERR1817062.89025,100.00,38,0,0,1,38,105,142,1e-12,71.3
Exophiala_equina_1_CBS119.23T,ERR1817062.80377,100.00,38,0,0,1,38,105,142,1e-12,71.3
Exophiala_equina_1_CBS119.23T,ERR1817062.80377,100.00,38,0,0,1,38,520,483,1e-12,71.3
Exophiala_equina_1_CBS119.23T,ERR1817062.76268,100.00,38,0,0,1,38,105,142,1e-12,71.3
Exophiala_equina_1_CBS119.23T,ERR1817062.70216,100.00,38,0,0,1,38,105,142,1e-12,71.3
Exophiala_equina_1_CBS119.23T,ERR1817062.70216,100.00,38,0,0,1,38,520,483,1e-12,71.3
Exophiala_equina_1_CBS119.23T,ERR1817062.67682,100.00,38,0,0,1,38,105,142,1e-12,71.3
Exophiala_equina_1_CBS119.23T,ERR1817062.65067,100.00,38,0,0,1,38,105,142,1e-12,71.3
Exophiala_equina_1_CBS119.23T,ERR1817062.63926,100.00,38,0,0,1,38,105,142,1e-12,71.3
Exophiala_equina_1_CBS119.23T,ERR1817062.59921,100.00,38,0,0,1,38,105,142,1e-12,71.3
Exophiala_equina_1_CBS119.23T,ERR1817062.59921,100.00,38,0,0,1,38,520,483,1e-12,71.3
Exophiala_equina_1_CBS119.23T,ERR1817062.57976,100.00,38,0,0,1,38,105,142,1e-12,71.3
Exophiala_equina_1_CBS119.23T,ERR1817062.57974,100.00,38,0,0,1,38,105,142,1e-12,71.3
Exophiala_equina_1_CBS119.23T,ERR1817062.57974,100.00,38,0,0,1,38,520,483,1e-12,71.3
Exophiala_equina_1_CBS119.23T,ERR1817062.51889,100.00,38,0,0,1,38,105,142,1e-12,71.3
Exophiala_equina_1_CBS119.23T,ERR1817062.51889,100.00,38,0,0,1,38,520,483,1e-12,71.3
Exophiala_equina_1_CBS119.23T,ERR1817062.49737,100.00,38,0,0,1,38,105,142,1e-12,71.3
Exophiala_equina_1_CBS119.23T,ERR1817062.49737,100.00,38,0,0,1,38,520,483,1e-12,71.3
Exophiala_equina_1_CBS119.23T,ERR1817062.46675,100.00,38,0,0,1,38,105,142,1e-12,71.3
Exophiala_equina_1_CBS119.23T,ERR1817062.46675,100.00,38,0,0,1,38,520,483,1e-12,71.3
Exophiala_equina_1_CBS119.23T,ERR1817062.45318,100.00,38,0,0,1,38,105,142,1e-12,71.3
Exophiala_equina_1_CBS119.23T,ERR1817062.45318,100.00,38,0,0,1,38,520,483,1e-12,71.3
Exophiala_equina_1_CBS119.23T,ERR1817062.45316,100.00,38,0,0,1,38,105,142,1e-12,71.3
Exophiala_equina_1_CBS119.23T,ERR1817062.32428,100.00,38,0,0,1,38,105,142,1e-12,71.3
Exophiala_equina_1_CBS119.23T,ERR1817062.32428,100.00,38,0,0,1,38,520,483,1e-12,71.3
Exophiala_equina_1_CBS119.23T,ERR1817062.22969,100.00,38,0,0,1,38,105,142,1e-12,71.3
Exophiala_equina_1_CBS119.23T,ERR1817062.22969,100.00,38,0,0,1,38,520,483,1e-12,71.3
Exophiala_equina_1_CBS119.23T,ERR1817062.22654,100.00,38,0,0,1,38,105,142,1e-12,71.3
Exophiala_equina_1_CBS119.23T,ERR1817062.22654,100.00,33,0,0,3,35,518,486,7e-10,62.1
Exophiala_equina_1_CBS119.23T,ERR1817062.15729,100.00,38,0,0,1,38,105,142,1e-12,71.3
Exophiala_equina_1_CBS119.23T,ERR1817062.15729,100.00,38,0,0,1,38,519,482,1e-12,71.3
Exophiala_equina_1_CBS119.23T,ERR1817062.15435,100.00,38,0,0,1,38,105,142,1e-12,71.3
Exophiala_equina_1_CBS119.23T,ERR1817062.15435,100.00,38,0,0,1,38,520,483,1e-12,71.3
Exophiala_equina_1_CBS119.23T,ERR1817062.3381,100.00,38,0,0,1,38,105,142,1e-12,71.3
Exophiala_equina_1_CBS119.23T,ERR1817062.3381,100.00,38,0,0,1,38,520,483,1e-12,71.3
Exophiala_equina_1_CBS119.23T,ERR1817062.179174,100.00,37,0,0,2,38,106,142,4e-12,69.4
Exophiala_equina_1_CBS119.23T,ERR1817062.179174,97.37,38,1,0,1,38,520,483,5e-11,65.8
Exophiala_equina_1_CBS119.23T,ERR1817062.177928,100.00,37,0,0,1,37,519,483,4e-12,69.4
Exophiala_equina_1_CBS119.23T,ERR1817062.359659,97.37,38,1,0,1,38,105,142,5e-11,65.8
Exophiala_equina_1_CBS119.23T,ERR1817062.359649,97.37,38,1,0,1,38,105,142,5e-11,65.8
Exophiala_equina_1_CBS119.23T,ERR1817062.359649,94.74,38,2,0,1,38,520,483,2e-09,60.2
Exophiala_equina_1_CBS119.23T,ERR1817062.130446,97.37,38,1,0,1,38,105,142,5e-11,65.8
Exophiala_equina_1_CBS119.23T,ERR1817062.117012,97.37,38,1,0,1,38,520,483,5e-11,65.8
Exophiala_equina_1_CBS119.23T,ERR1817062.107724,100.00,35,0,0,1,35,105,139,5e-11,65.8
Exophiala_equina_1_CBS119.23T,ERR1817062.88639,97.37,38,1,0,1,38,105,142,5e-11,65.8
Exophiala_equina_1_CBS119.23T,ERR1817062.88639,97.37,38,1,0,1,38,520,483,5e-11,65.8
Phaeoannelomyces_elegans_CBS110172,ERR1817062.357061,100.00,38,0,0,1,38,105,142,1e-12,71.3
Phaeoannelomyces_elegans_CBS110172,ERR1817062.357061,97.37,38,1,0,1,38,520,483,5e-11,65.8
Phaeoannelomyces_elegans_CBS110172,ERR1817062.350720,100.00,38,0,0,1,38,105,142,1e-12,71.3
Phaeoannelomyces_elegans_CBS110172,ERR1817062.350720,97.30,37,0,1,2,38,518,483,7e-10,62.1
Phaeoannelomyces_elegans_CBS110172,ERR1817062.335553,100.00,38,0,0,1,38,105,142,1e-12,71.3
Phaeoannelomyces_elegans_CBS110172,ERR1817062.333185,100.00,38,0,0,1,38,105,142,1e-12,71.3
Phaeoannelomyces_elegans_CBS110172,ERR1817062.318012,100.00,38,0,0,1,38,104,141,1e-12,71.3
Phaeoannelomyces_elegans_CBS110172,ERR1817062.318012,100.00,38,0,0,1,38,520,483,1e-12,71.3
Phaeoannelomyces_elegans_CBS110172,ERR1817062.305278,100.00,38,0,0,1,38,105,142,1e-12,71.3
Phaeoannelomyces_elegans_CBS110172,ERR1817062.305278,100.00,38,0,0,1,38,520,483,1e-12,71.3
Phaeoannelomyces_elegans_CBS110172,ERR1817062.305263,100.00,38,0,0,1,38,105,142,1e-12,71.3
Phaeoannelomyces_elegans_CBS110172,ERR1817062.305263,100.00,38,0,0,1,38,520,483,1e-12,71.3
Phaeoannelomyces_elegans_CBS110172,ERR1817062.302477,100.00,38,0,0,1,38,104,141,1e-12,71.3
Phaeoannelomyces_elegans_CBS110172,ERR1817062.302477,97.37,38,1,0,1,38,520,483,5e-11,65.8
Phaeoannelomyces_elegans_CBS110172,ERR1817062.293942,100.00,38,0,0,1,38,105,142,1e-12,71.3
Phaeoannelomyces_elegans_CBS110172,ERR1817062.290060,100.00,38,0,0,1,38,105,142,1e-12,71.3
Phaeoannelomyces_elegans_CBS110172,ERR1817062.290060,100.00,38,0,0,1,38,520,483,1e-12,71.3
Phaeoannelomyces_elegans_CBS110172,ERR1817062.286992,100.00,38,0,0,1,38,105,142,1e-12,71.3
Phaeoannelomyces_elegans_CBS110172,ERR1817062.286992,100.00,38,0,0,1,38,520,483,1e-12,71.3
Phaeoannelomyces_elegans_CBS110172,ERR1817062.286005,100.00,38,0,0,1,38,105,142,1e-12,71.3
Phaeoannelomyces_elegans_CBS110172,ERR1817062.266932,100.00,38,0,0,1,38,105,142,1e-12,71.3
Phaeoannelomyces_elegans_CBS110172,ERR1817062.266932,100.00,38,0,0,1,38,520,483,1e-12,71.3
Phaeoannelomyces_elegans_CBS110172,ERR1817062.266921,100.00,38,0,0,1,38,105,142,1e-12,71.3
Phaeoannelomyces_elegans_CBS110172,ERR1817062.261189,100.00,38,0,0,1,38,105,142,1e-12,71.3
Phaeoannelomyces_elegans_CBS110172,ERR1817062.259375,100.00,38,0,0,1,38,105,142,1e-12,71.3
Phaeoannelomyces_elegans_CBS110172,ERR1817062.248551,100.00,38,0,0,1,38,105,142,1e-12,71.3
Phaeoannelomyces_elegans_CBS110172,ERR1817062.248551,100.00,38,0,0,1,38,520,483,1e-12,71.3
Phaeoannelomyces_elegans_CBS110172,ERR1817062.237785,100.00,38,0,0,1,38,520,483,1e-12,71.3
Phaeoannelomyces_elegans_CBS110172,ERR1817062.237785,97.37,38,1,0,1,38,105,142,5e-11,65.8
Phaeoannelomyces_elegans_CBS110172,ERR1817062.220963,100.00,38,0,0,1,38,105,142,1e-12,71.3
Phaeoannelomyces_elegans_CBS110172,ERR1817062.220963,100.00,38,0,0,1,38,520,483,1e-12,71.3
Phaeoannelomyces_elegans_CBS110172,ERR1817062.218686,100.00,38,0,0,1,38,105,142,1e-12,71.3
Phaeoannelomyces_elegans_CBS110172,ERR1817062.218686,97.37,38,1,0,1,38,520,483,5e-11,65.8
Phaeoannelomyces_elegans_CBS110172,ERR1817062.206268,100.00,38,0,0,1,38,105,142,1e-12,71.3
Phaeoannelomyces_elegans_CBS110172,ERR1817062.200791,100.00,38,0,0,1,38,105,142,1e-12,71.3
Phaeoannelomyces_elegans_CBS110172,ERR1817062.200791,100.00,38,0,0,1,38,520,483,1e-12,71.3
Phaeoannelomyces_elegans_CBS110172,ERR1817062.185834,100.00,38,0,0,1,38,105,142,1e-12,71.3
Phaeoannelomyces_elegans_CBS110172,ERR1817062.184726,100.00,38,0,0,1,38,105,142,1e-12,71.3
Phaeoannelomyces_elegans_CBS110172,ERR1817062.184726,92.11,38,3,0,1,38,520,483,1e-07,54.7
Phaeoannelomyces_elegans_CBS110172,ERR1817062.158788,100.00,38,0,0,1,38,105,142,1e-12,71.3
Phaeoannelomyces_elegans_CBS110172,ERR1817062.158788,97.37,38,1,0,1,38,520,483,5e-11,65.8
Phaeoannelomyces_elegans_CBS110172,ERR1817062.156767,100.00,38,0,0,1,38,105,142,1e-12,71.3
Phaeoannelomyces_elegans_CBS110172,ERR1817062.156767,100.00,38,0,0,1,38,520,483,1e-12,71.3
Phaeoannelomyces_elegans_CBS110172,ERR1817062.151867,100.00,38,0,0,1,38,105,142,1e-12,71.3
Phaeoannelomyces_elegans_CBS110172,ERR1817062.151867,100.00,38,0,0,1,38,520,483,1e-12,71.3
Phaeoannelomyces_elegans_CBS110172,ERR1817062.151863,100.00,38,0,0,1,38,105,142,1e-12,71.3
Phaeoannelomyces_elegans_CBS110172,ERR1817062.151863,100.00,38,0,0,1,38,520,483,1e-12,71.3
Phaeoannelomyces_elegans_CBS110172,ERR1817062.134985,100.00,38,0,0,1,38,105,142,1e-12,71.3
Phaeoannelomyces_elegans_CBS110172,ERR1817062.134985,100.00,38,0,0,1,38,520,483,1e-12,71.3
Phaeoannelomyces_elegans_CBS110172,ERR1817062.123563,100.00,38,0,0,1,38,105,142,1e-12,71.3
Phaeoannelomyces_elegans_CBS110172,ERR1817062.123563,97.37,38,1,0,1,38,520,483,5e-11,65.8
Phaeoannelomyces_elegans_CBS110172,ERR1817062.113206,100.00,38,0,0,1,38,105,142,1e-12,71.3
Phaeoannelomyces_elegans_CBS110172,ERR1817062.113206,100.00,38,0,0,1,38,520,483,1e-12,71.3
Phaeoannelomyces_elegans_CBS110172,ERR1817062.94386,100.00,38,0,0,1,38,105,142,1e-12,71.3
Phaeoannelomyces_elegans_CBS110172,ERR1817062.89025,100.00,38,0,0,1,38,105,142,1e-12,71.3
Phaeoannelomyces_elegans_CBS110172,ERR1817062.80377,100.00,38,0,0,1,38,105,142,1e-12,71.3
Phaeoannelomyces_elegans_CBS110172,ERR1817062.80377,100.00,38,0,0,1,38,520,483,1e-12,71.3
Phaeoannelomyces_elegans_CBS110172,ERR1817062.76268,100.00,38,0,0,1,38,105,142,1e-12,71.3
Phaeoannelomyces_elegans_CBS110172,ERR1817062.70216,100.00,38,0,0,1,38,105,142,1e-12,71.3
Phaeoannelomyces_elegans_CBS110172,ERR1817062.70216,100.00,38,0,0,1,38,520,483,1e-12,71.3
Phaeoannelomyces_elegans_CBS110172,ERR1817062.67682,100.00,38,0,0,1,38,105,142,1e-12,71.3
Phaeoannelomyces_elegans_CBS110172,ERR1817062.65067,100.00,38,0,0,1,38,105,142,1e-12,71.3
Phaeoannelomyces_elegans_CBS110172,ERR1817062.63926,100.00,38,0,0,1,38,105,142,1e-12,71.3
Phaeoannelomyces_elegans_CBS110172,ERR1817062.59921,100.00,38,0,0,1,38,105,142,1e-12,71.3
Phaeoannelomyces_elegans_CBS110172,ERR1817062.59921,100.00,38,0,0,1,38,520,483,1e-12,71.3
Phaeoannelomyces_elegans_CBS110172,ERR1817062.57976,100.00,38,0,0,1,38,105,142,1e-12,71.3
Phaeoannelomyces_elegans_CBS110172,ERR1817062.57974,100.00,38,0,0,1,38,105,142,1e-12,71.3
Phaeoannelomyces_elegans_CBS110172,ERR1817062.57974,100.00,38,0,0,1,38,520,483,1e-12,71.3
Phaeoannelomyces_elegans_CBS110172,ERR1817062.51889,100.00,38,0,0,1,38,105,142,1e-12,71.3
Phaeoannelomyces_elegans_CBS110172,ERR1817062.51889,100.00,38,0,0,1,38,520,483,1e-12,71.3
Phaeoannelomyces_elegans_CBS110172,ERR1817062.49737,100.00,38,0,0,1,38,105,142,1e-12,71.3
Phaeoannelomyces_elegans_CBS110172,ERR1817062.49737,100.00,38,0,0,1,38,520,483,1e-12,71.3
Phaeoannelomyces_elegans_CBS110172,ERR1817062.46675,100.00,38,0,0,1,38,105,142,1e-12,71.3
Phaeoannelomyces_elegans_CBS110172,ERR1817062.46675,100.00,38,0,0,1,38,520,483,1e-12,71.3
Phaeoannelomyces_elegans_CBS110172,ERR1817062.45318,100.00,38,0,0,1,38,105,142,1e-12,71.3
Phaeoannelomyces_elegans_CBS110172,ERR1817062.45318,100.00,38,0,0,1,38,520,483,1e-12,71.3
Phaeoannelomyces_elegans_CBS110172,ERR1817062.45316,100.00,38,0,0,1,38,105,142,1e-12,71.3
Phaeoannelomyces_elegans_CBS110172,ERR1817062.32428,100.00,38,0,0,1,38,105,142,1e-12,71.3
Phaeoannelomyces_elegans_CBS110172,ERR1817062.32428,100.00,38,0,0,1,38,520,483,1e-12,71.3
Phaeoannelomyces_elegans_CBS110172,ERR1817062.22969,100.00,38,0,0,1,38,105,142,1e-12,71.3
Phaeoannelomyces_elegans_CBS110172,ERR1817062.22969,100.00,38,0,0,1,38,520,483,1e-12,71.3
Phaeoannelomyces_elegans_CBS110172,ERR1817062.22654,100.00,38,0,0,1,38,105,142,1e-12,71.3
Phaeoannelomyces_elegans_CBS110172,ERR1817062.22654,100.00,33,0,0,3,35,518,486,7e-10,62.1
Phaeoannelomyces_elegans_CBS110172,ERR1817062.15729,100.00,38,0,0,1,38,105,142,1e-12,71.3
Phaeoannelomyces_elegans_CBS110172,ERR1817062.15729,100.00,38,0,0,1,38,519,482,1e-12,71.3
Phaeoannelomyces_elegans_CBS110172,ERR1817062.15435,100.00,38,0,0,1,38,105,142,1e-12,71.3
Phaeoannelomyces_elegans_CBS110172,ERR1817062.15435,100.00,38,0,0,1,38,520,483,1e-12,71.3
Phaeoannelomyces_elegans_CBS110172,ERR1817062.3381,100.00,38,0,0,1,38,105,142,1e-12,71.3
Phaeoannelomyces_elegans_CBS110172,ERR1817062.3381,100.00,38,0,0,1,38,520,483,1e-12,71.3
Phaeoannelomyces_elegans_CBS110172,ERR1817062.179174,100.00,37,0,0,2,38,106,142,4e-12,69.4
Phaeoannelomyces_elegans_CBS110172,ERR1817062.179174,97.37,38,1,0,1,38,520,483,5e-11,65.8
Phaeoannelomyces_elegans_CBS110172,ERR1817062.177928,100.00,37,0,0,1,37,519,483,4e-12,69.4
Phaeoannelomyces_elegans_CBS110172,ERR1817062.359659,97.37,38,1,0,1,38,105,142,5e-11,65.8
Phaeoannelomyces_elegans_CBS110172,ERR1817062.359649,97.37,38,1,0,1,38,105,142,5e-11,65.8
Phaeoannelomyces_elegans_CBS110172,ERR1817062.359649,94.74,38,2,0,1,38,520,483,2e-09,60.2
Phaeoannelomyces_elegans_CBS110172,ERR1817062.130446,97.37,38,1,0,1,38,105,142,5e-11,65.8
Phaeoannelomyces_elegans_CBS110172,ERR1817062.117012,97.37,38,1,0,1,38,520,483,5e-11,65.8
Phaeoannelomyces_elegans_CBS110172,ERR1817062.107724,100.00,35,0,0,1,35,105,139,5e-11,65.8
Phaeoannelomyces_elegans_CBS110172,ERR1817062.88639,97.37,38,1,0,1,38,105,142,5e-11,65.8
Phaeoannelomyces_elegans_CBS110172,ERR1817062.88639,97.37,38,1,0,1,38,520,483,5e-11,65.8
