Exophiala_xenobiotica_1_CBS118157T,SRR9120822.158439,100.00,30,0,0,1,30,160,189,1e-08,56.5
Exophiala_xenobiotica_1_CBS118157T,SRR9120822.158439,100.00,30,0,0,1,30,503,474,1e-08,56.5
Exophiala_xenobiotica_1_CBS118157T,SRR9120822.81986,100.00,30,0,0,1,30,160,189,1e-08,56.5
Exophiala_xenobiotica_1_CBS118157T,SRR9120822.81986,100.00,30,0,0,1,30,503,474,1e-08,56.5
Exophiala_xenobiotica_1_CBS118157T,SRR9120822.76749,100.00,30,0,0,1,30,160,189,1e-08,56.5
Exophiala_xenobiotica_1_CBS118157T,SRR9120822.76749,100.00,30,0,0,1,30,503,474,1e-08,56.5
Exophiala_xenobiotica_1_CBS118157T,SRR9120822.55292,100.00,30,0,0,1,30,160,189,1e-08,56.5
Exophiala_xenobiotica_1_CBS118157T,SRR9120822.55292,100.00,30,0,0,1,30,503,474,1e-08,56.5
Exophiala_xenobiotica_1_CBS118157T,SRR9120822.8302,100.00,30,0,0,1,30,160,189,1e-08,56.5
Exophiala_xenobiotica_1_CBS118157T,SRR9120822.8302,100.00,30,0,0,1,30,503,474,1e-08,56.5
Exophiala_xenobiotica_3_CBS117665,SRR9120822.192175,100.00,30,0,0,1,30,160,189,1e-08,56.5
Exophiala_xenobiotica_3_CBS117665,SRR9120822.192175,100.00,30,0,0,1,30,503,474,1e-08,56.5
Exophiala_xenobiotica_3_CBS117665,SRR9120822.191565,100.00,30,0,0,1,30,160,189,1e-08,56.5
Exophiala_xenobiotica_3_CBS117665,SRR9120822.191565,100.00,30,0,0,1,30,488,459,1e-08,56.5
Exophiala_xenobiotica_3_CBS117665,SRR9120822.188714,100.00,30,0,0,1,30,159,188,1e-08,56.5
Exophiala_xenobiotica_3_CBS117665,SRR9120822.188714,100.00,30,0,0,1,30,503,474,1e-08,56.5
Exophiala_xenobiotica_3_CBS117665,SRR9120822.187956,100.00,30,0,0,1,30,160,189,1e-08,56.5
Exophiala_xenobiotica_3_CBS117665,SRR9120822.187041,100.00,30,0,0,1,30,160,189,1e-08,56.5
Exophiala_xenobiotica_3_CBS117665,SRR9120822.187041,100.00,30,0,0,1,30,503,474,1e-08,56.5
Exophiala_xenobiotica_3_CBS117665,SRR9120822.183634,100.00,30,0,0,1,30,160,189,1e-08,56.5
Exophiala_xenobiotica_3_CBS117665,SRR9120822.183634,100.00,30,0,0,1,30,503,474,1e-08,56.5
Exophiala_xenobiotica_3_CBS117665,SRR9120822.183002,100.00,30,0,0,1,30,160,189,1e-08,56.5
Exophiala_xenobiotica_3_CBS117665,SRR9120822.183002,100.00,30,0,0,1,30,503,474,1e-08,56.5
Exophiala_xenobiotica_3_CBS117665,SRR9120822.181944,100.00,30,0,0,1,30,160,189,1e-08,56.5
Exophiala_xenobiotica_3_CBS117665,SRR9120822.181944,100.00,30,0,0,1,30,503,474,1e-08,56.5
Exophiala_xenobiotica_3_CBS117665,SRR9120822.180556,100.00,30,0,0,1,30,160,189,1e-08,56.5
Exophiala_xenobiotica_3_CBS117665,SRR9120822.177874,100.00,30,0,0,1,30,160,189,1e-08,56.5
Exophiala_xenobiotica_3_CBS117665,SRR9120822.177874,100.00,30,0,0,1,30,503,474,1e-08,56.5
Exophiala_xenobiotica_3_CBS117665,SRR9120822.175387,100.00,30,0,0,1,30,160,189,1e-08,56.5
Exophiala_xenobiotica_3_CBS117665,SRR9120822.175387,100.00,30,0,0,1,30,503,474,1e-08,56.5
Exophiala_xenobiotica_3_CBS117665,SRR9120822.175381,100.00,30,0,0,1,30,160,189,1e-08,56.5
Exophiala_xenobiotica_3_CBS117665,SRR9120822.175381,100.00,30,0,0,1,30,503,474,1e-08,56.5
Exophiala_xenobiotica_3_CBS117665,SRR9120822.174218,100.00,30,0,0,1,30,160,189,1e-08,56.5
Exophiala_xenobiotica_3_CBS117665,SRR9120822.174218,100.00,30,0,0,1,30,503,474,1e-08,56.5
Exophiala_xenobiotica_3_CBS117665,SRR9120822.173324,100.00,30,0,0,1,30,160,189,1e-08,56.5
Exophiala_xenobiotica_3_CBS117665,SRR9120822.171955,100.00,30,0,0,1,30,160,189,1e-08,56.5
Exophiala_xenobiotica_3_CBS117665,SRR9120822.171955,100.00,30,0,0,1,30,503,474,1e-08,56.5
Exophiala_xenobiotica_3_CBS117665,SRR9120822.167476,100.00,30,0,0,1,30,160,189,1e-08,56.5
Exophiala_xenobiotica_3_CBS117665,SRR9120822.167476,100.00,30,0,0,1,30,503,474,1e-08,56.5
Exophiala_xenobiotica_3_CBS117665,SRR9120822.166137,100.00,30,0,0,1,30,160,189,1e-08,56.5
Exophiala_xenobiotica_3_CBS117665,SRR9120822.166137,100.00,30,0,0,1,30,503,474,1e-08,56.5
Exophiala_xenobiotica_3_CBS117665,SRR9120822.161992,100.00,30,0,0,1,30,160,189,1e-08,56.5
Exophiala_xenobiotica_3_CBS117665,SRR9120822.161992,100.00,30,0,0,1,30,503,474,1e-08,56.5
Exophiala_xenobiotica_3_CBS117665,SRR9120822.159215,100.00,30,0,0,1,30,160,189,1e-08,56.5
Exophiala_xenobiotica_3_CBS117665,SRR9120822.159212,100.00,30,0,0,1,30,160,189,1e-08,56.5
Exophiala_xenobiotica_3_CBS117665,SRR9120822.159212,100.00,30,0,0,1,30,503,474,1e-08,56.5
Exophiala_xenobiotica_3_CBS117665,SRR9120822.159076,100.00,30,0,0,1,30,160,189,1e-08,56.5
Exophiala_xenobiotica_3_CBS117665,SRR9120822.159076,100.00,30,0,0,1,30,504,475,1e-08,56.5
Exophiala_xenobiotica_3_CBS117665,SRR9120822.159001,100.00,30,0,0,1,30,160,189,1e-08,56.5
Exophiala_xenobiotica_3_CBS117665,SRR9120822.155584,100.00,30,0,0,1,30,160,189,1e-08,56.5
Exophiala_xenobiotica_3_CBS117665,SRR9120822.155584,100.00,30,0,0,1,30,503,474,1e-08,56.5
Exophiala_xenobiotica_3_CBS117665,SRR9120822.150814,100.00,30,0,0,1,30,160,189,1e-08,56.5
Exophiala_xenobiotica_3_CBS117665,SRR9120822.150814,100.00,30,0,0,1,30,503,474,1e-08,56.5
Exophiala_xenobiotica_3_CBS117665,SRR9120822.150206,100.00,30,0,0,1,30,160,189,1e-08,56.5
Exophiala_xenobiotica_3_CBS117665,SRR9120822.150206,100.00,30,0,0,1,30,503,474,1e-08,56.5
Exophiala_xenobiotica_3_CBS117665,SRR9120822.147425,100.00,30,0,0,1,30,160,189,1e-08,56.5
Exophiala_xenobiotica_3_CBS117665,SRR9120822.143213,100.00,30,0,0,1,30,160,189,1e-08,56.5
Exophiala_xenobiotica_3_CBS117665,SRR9120822.143213,100.00,30,0,0,1,30,503,474,1e-08,56.5
Exophiala_xenobiotica_3_CBS117665,SRR9120822.136993,100.00,30,0,0,1,30,160,189,1e-08,56.5
Exophiala_xenobiotica_3_CBS117665,SRR9120822.136993,100.00,30,0,0,1,30,503,474,1e-08,56.5
Exophiala_xenobiotica_3_CBS117665,SRR9120822.135823,100.00,30,0,0,1,30,160,189,1e-08,56.5
Exophiala_xenobiotica_3_CBS117665,SRR9120822.135823,100.00,30,0,0,1,30,503,474,1e-08,56.5
Exophiala_xenobiotica_3_CBS117665,SRR9120822.133048,100.00,30,0,0,1,30,160,189,1e-08,56.5
Exophiala_xenobiotica_3_CBS117665,SRR9120822.133048,100.00,30,0,0,1,30,503,474,1e-08,56.5
Exophiala_xenobiotica_3_CBS117665,SRR9120822.128847,100.00,30,0,0,1,30,160,189,1e-08,56.5
Exophiala_xenobiotica_3_CBS117665,SRR9120822.128847,100.00,30,0,0,1,30,503,474,1e-08,56.5
Exophiala_xenobiotica_3_CBS117665,SRR9120822.128741,100.00,30,0,0,1,30,160,189,1e-08,56.5
Exophiala_xenobiotica_3_CBS117665,SRR9120822.126286,100.00,30,0,0,1,30,160,189,1e-08,56.5
Exophiala_xenobiotica_3_CBS117665,SRR9120822.126286,100.00,30,0,0,1,30,503,474,1e-08,56.5
Exophiala_xenobiotica_3_CBS117665,SRR9120822.125227,100.00,30,0,0,1,30,160,189,1e-08,56.5
Exophiala_xenobiotica_3_CBS117665,SRR9120822.125227,100.00,30,0,0,1,30,503,474,1e-08,56.5
Exophiala_xenobiotica_3_CBS117665,SRR9120822.124829,100.00,30,0,0,1,30,160,189,1e-08,56.5
Exophiala_xenobiotica_3_CBS117665,SRR9120822.124829,100.00,30,0,0,1,30,503,474,1e-08,56.5
Exophiala_xenobiotica_3_CBS117665,SRR9120822.123880,100.00,30,0,0,1,30,160,189,1e-08,56.5
Exophiala_xenobiotica_3_CBS117665,SRR9120822.123880,100.00,30,0,0,1,30,503,474,1e-08,56.5
Exophiala_xenobiotica_3_CBS117665,SRR9120822.123022,100.00,30,0,0,1,30,160,189,1e-08,56.5
Exophiala_xenobiotica_3_CBS117665,SRR9120822.123022,100.00,30,0,0,1,30,503,474,1e-08,56.5
Exophiala_xenobiotica_3_CBS117665,SRR9120822.122076,100.00,30,0,0,1,30,160,189,1e-08,56.5
Exophiala_xenobiotica_3_CBS117665,SRR9120822.122076,100.00,30,0,0,1,30,503,474,1e-08,56.5
Exophiala_xenobiotica_3_CBS117665,SRR9120822.121602,100.00,30,0,0,1,30,160,189,1e-08,56.5
Exophiala_xenobiotica_3_CBS117665,SRR9120822.121602,100.00,30,0,0,1,30,503,474,1e-08,56.5
Exophiala_xenobiotica_3_CBS117665,SRR9120822.120158,100.00,30,0,0,1,30,160,189,1e-08,56.5
Exophiala_xenobiotica_3_CBS117665,SRR9120822.120158,100.00,30,0,0,1,30,503,474,1e-08,56.5
Exophiala_xenobiotica_3_CBS117665,SRR9120822.116332,100.00,30,0,0,1,30,160,189,1e-08,56.5
Exophiala_xenobiotica_3_CBS117665,SRR9120822.116332,100.00,30,0,0,1,30,503,474,1e-08,56.5
Exophiala_xenobiotica_3_CBS117665,SRR9120822.115525,100.00,30,0,0,1,30,160,189,1e-08,56.5
Exophiala_xenobiotica_3_CBS117665,SRR9120822.115525,100.00,30,0,0,1,30,503,474,1e-08,56.5
Exophiala_xenobiotica_3_CBS117665,SRR9120822.115100,100.00,30,0,0,1,30,160,189,1e-08,56.5
Exophiala_xenobiotica_3_CBS117665,SRR9120822.115100,100.00,30,0,0,1,30,503,474,1e-08,56.5
Exophiala_xenobiotica_3_CBS117665,SRR9120822.113372,100.00,30,0,0,1,30,160,189,1e-08,56.5
Exophiala_xenobiotica_3_CBS117665,SRR9120822.113372,100.00,30,0,0,1,30,503,474,1e-08,56.5
Exophiala_xenobiotica_3_CBS117665,SRR9120822.113213,100.00,30,0,0,1,30,160,189,1e-08,56.5
Exophiala_xenobiotica_3_CBS117665,SRR9120822.113213,100.00,30,0,0,1,30,503,474,1e-08,56.5
Exophiala_xenobiotica_3_CBS117665,SRR9120822.112817,100.00,30,0,0,1,30,160,189,1e-08,56.5
Exophiala_xenobiotica_3_CBS117665,SRR9120822.112817,100.00,30,0,0,1,30,503,474,1e-08,56.5
Exophiala_xenobiotica_3_CBS117665,SRR9120822.112547,100.00,30,0,0,1,30,160,189,1e-08,56.5
Exophiala_xenobiotica_3_CBS117665,SRR9120822.110605,100.00,30,0,0,1,30,160,189,1e-08,56.5
Exophiala_xenobiotica_3_CBS117665,SRR9120822.110605,100.00,30,0,0,1,30,503,474,1e-08,56.5
Exophiala_xenobiotica_3_CBS117665,SRR9120822.107557,100.00,30,0,0,1,30,160,189,1e-08,56.5
Exophiala_xenobiotica_3_CBS117665,SRR9120822.107557,100.00,30,0,0,1,30,503,474,1e-08,56.5
Exophiala_xenobiotica_3_CBS117665,SRR9120822.106248,100.00,30,0,0,1,30,160,189,1e-08,56.5
Exophiala_xenobiotica_3_CBS117665,SRR9120822.106248,100.00,30,0,0,1,30,503,474,1e-08,56.5
Exophiala_xenobiotica_3_CBS117665,SRR9120822.105770,100.00,30,0,0,1,30,160,189,1e-08,56.5
Exophiala_xenobiotica_3_CBS117665,SRR9120822.105770,100.00,30,0,0,1,30,503,474,1e-08,56.5
Exophiala_xenobiotica_3_CBS117665,SRR9120822.103007,100.00,30,0,0,1,30,160,189,1e-08,56.5
Exophiala_xenobiotica_3_CBS117665,SRR9120822.103007,100.00,30,0,0,1,30,503,474,1e-08,56.5
Exophiala_xenobiotica_3_CBS117665,SRR9120822.99562,100.00,30,0,0,1,30,160,189,1e-08,56.5
Exophiala_xenobiotica_3_CBS117665,SRR9120822.99562,100.00,30,0,0,1,30,503,474,1e-08,56.5
Exophiala_xenobiotica_3_CBS117665,SRR9120822.98427,100.00,30,0,0,1,30,158,187,1e-08,56.5
Exophiala_xenobiotica_3_CBS117665,SRR9120822.98427,100.00,30,0,0,1,30,503,474,1e-08,56.5
Exophiala_xenobiotica_3_CBS117665,SRR9120822.93317,100.00,30,0,0,1,30,160,189,1e-08,56.5
Exophiala_xenobiotica_3_CBS117665,SRR9120822.93317,100.00,30,0,0,1,30,503,474,1e-08,56.5
Exophiala_xenobiotica_3_CBS117665,SRR9120822.91975,100.00,30,0,0,1,30,160,189,1e-08,56.5
Exophiala_xenobiotica_3_CBS117665,SRR9120822.91975,100.00,30,0,0,1,30,503,474,1e-08,56.5
Exophiala_xenobiotica_3_CBS117665,SRR9120822.91393,100.00,30,0,0,1,30,160,189,1e-08,56.5
Exophiala_xenobiotica_3_CBS117665,SRR9120822.91393,100.00,30,0,0,1,30,503,474,1e-08,56.5
Exophiala_xenobiotica_3_CBS117665,SRR9120822.90359,100.00,30,0,0,1,30,160,189,1e-08,56.5
Exophiala_xenobiotica_3_CBS117665,SRR9120822.88220,100.00,30,0,0,1,30,160,189,1e-08,56.5
Exophiala_xenobiotica_3_CBS117665,SRR9120822.88220,100.00,30,0,0,1,30,488,459,1e-08,56.5
Exophiala_xenobiotica_3_CBS117665,SRR9120822.86960,100.00,30,0,0,1,30,160,189,1e-08,56.5
Exophiala_xenobiotica_3_CBS117665,SRR9120822.86960,100.00,30,0,0,1,30,503,474,1e-08,56.5
Exophiala_xenobiotica_3_CBS117665,SRR9120822.84867,100.00,30,0,0,1,30,160,189,1e-08,56.5
Exophiala_xenobiotica_3_CBS117665,SRR9120822.84867,100.00,30,0,0,1,30,503,474,1e-08,56.5
Exophiala_xenobiotica_3_CBS117665,SRR9120822.84797,100.00,30,0,0,1,30,160,189,1e-08,56.5
Exophiala_xenobiotica_3_CBS117665,SRR9120822.84797,100.00,30,0,0,1,30,503,474,1e-08,56.5
Exophiala_xenobiotica_3_CBS117665,SRR9120822.82739,100.00,30,0,0,1,30,160,189,1e-08,56.5
Exophiala_xenobiotica_3_CBS117665,SRR9120822.82739,100.00,30,0,0,1,30,503,474,1e-08,56.5
Exophiala_xenobiotica_3_CBS117665,SRR9120822.76158,100.00,30,0,0,1,30,160,189,1e-08,56.5
Exophiala_xenobiotica_3_CBS117665,SRR9120822.71153,100.00,30,0,0,1,30,160,189,1e-08,56.5
Exophiala_xenobiotica_3_CBS117665,SRR9120822.71153,100.00,30,0,0,1,30,503,474,1e-08,56.5
Exophiala_xenobiotica_3_CBS117665,SRR9120822.66756,100.00,30,0,0,1,30,160,189,1e-08,56.5
Exophiala_xenobiotica_3_CBS117665,SRR9120822.66756,100.00,30,0,0,1,30,503,474,1e-08,56.5
Exophiala_xenobiotica_3_CBS117665,SRR9120822.66329,100.00,30,0,0,1,30,160,189,1e-08,56.5
Exophiala_xenobiotica_3_CBS117665,SRR9120822.63487,100.00,30,0,0,1,30,160,189,1e-08,56.5
Exophiala_xenobiotica_3_CBS117665,SRR9120822.63487,100.00,30,0,0,1,30,503,474,1e-08,56.5
Exophiala_xenobiotica_3_CBS117665,SRR9120822.63483,100.00,30,0,0,1,30,160,189,1e-08,56.5
Exophiala_xenobiotica_3_CBS117665,SRR9120822.63483,100.00,30,0,0,1,30,503,474,1e-08,56.5
Exophiala_xenobiotica_3_CBS117665,SRR9120822.63472,100.00,30,0,0,1,30,160,189,1e-08,56.5
Exophiala_xenobiotica_3_CBS117665,SRR9120822.63472,100.00,30,0,0,1,30,503,474,1e-08,56.5
Exophiala_xenobiotica_3_CBS117665,SRR9120822.62380,100.00,30,0,0,1,30,160,189,1e-08,56.5
Exophiala_xenobiotica_3_CBS117665,SRR9120822.61752,100.00,30,0,0,1,30,159,188,1e-08,56.5
Exophiala_xenobiotica_3_CBS117665,SRR9120822.61752,100.00,30,0,0,1,30,503,474,1e-08,56.5
Exophiala_xenobiotica_3_CBS117665,SRR9120822.58520,100.00,30,0,0,1,30,160,189,1e-08,56.5
Exophiala_xenobiotica_3_CBS117665,SRR9120822.57354,100.00,30,0,0,1,30,160,189,1e-08,56.5
Exophiala_xenobiotica_3_CBS117665,SRR9120822.57354,100.00,30,0,0,1,30,503,474,1e-08,56.5
Exophiala_xenobiotica_3_CBS117665,SRR9120822.53625,100.00,30,0,0,1,30,160,189,1e-08,56.5
Exophiala_xenobiotica_3_CBS117665,SRR9120822.53625,100.00,30,0,0,1,30,503,474,1e-08,56.5
Exophiala_xenobiotica_3_CBS117665,SRR9120822.53377,100.00,30,0,0,1,30,160,189,1e-08,56.5
Exophiala_xenobiotica_3_CBS117665,SRR9120822.53377,100.00,30,0,0,1,30,503,474,1e-08,56.5
Exophiala_xenobiotica_3_CBS117665,SRR9120822.53174,100.00,30,0,0,1,30,160,189,1e-08,56.5
Exophiala_xenobiotica_3_CBS117665,SRR9120822.53174,100.00,30,0,0,1,30,503,474,1e-08,56.5
Exophiala_xenobiotica_3_CBS117665,SRR9120822.52655,100.00,30,0,0,1,30,160,189,1e-08,56.5
Exophiala_xenobiotica_3_CBS117665,SRR9120822.52655,100.00,30,0,0,1,30,503,474,1e-08,56.5
Exophiala_xenobiotica_3_CBS117665,SRR9120822.49885,100.00,30,0,0,1,30,160,189,1e-08,56.5
Exophiala_xenobiotica_3_CBS117665,SRR9120822.49885,100.00,30,0,0,1,30,503,474,1e-08,56.5
Exophiala_xenobiotica_3_CBS117665,SRR9120822.47903,100.00,30,0,0,1,30,160,189,1e-08,56.5
Exophiala_xenobiotica_3_CBS117665,SRR9120822.47903,100.00,30,0,0,1,30,503,474,1e-08,56.5
Exophiala_xenobiotica_3_CBS117665,SRR9120822.47820,100.00,30,0,0,1,30,160,189,1e-08,56.5
Exophiala_xenobiotica_3_CBS117665,SRR9120822.47820,100.00,30,0,0,1,30,504,475,1e-08,56.5
Exophiala_xenobiotica_3_CBS117665,SRR9120822.47004,100.00,30,0,0,1,30,160,189,1e-08,56.5
Exophiala_xenobiotica_3_CBS117665,SRR9120822.47004,100.00,30,0,0,1,30,503,474,1e-08,56.5
Exophiala_xenobiotica_3_CBS117665,SRR9120822.46587,100.00,30,0,0,1,30,160,189,1e-08,56.5
Exophiala_xenobiotica_3_CBS117665,SRR9120822.46587,100.00,30,0,0,1,30,503,474,1e-08,56.5
Exophiala_xenobiotica_3_CBS117665,SRR9120822.46188,100.00,30,0,0,1,30,160,189,1e-08,56.5
Exophiala_xenobiotica_3_CBS117665,SRR9120822.46188,100.00,30,0,0,1,30,503,474,1e-08,56.5
Exophiala_xenobiotica_3_CBS117665,SRR9120822.44204,100.00,30,0,0,1,30,160,189,1e-08,56.5
Exophiala_xenobiotica_3_CBS117665,SRR9120822.44204,100.00,30,0,0,1,30,503,474,1e-08,56.5
Exophiala_xenobiotica_3_CBS117665,SRR9120822.39569,100.00,30,0,0,1,30,160,189,1e-08,56.5
Exophiala_xenobiotica_3_CBS117665,SRR9120822.39569,100.00,30,0,0,1,30,503,474,1e-08,56.5
Exophiala_xenobiotica_3_CBS117665,SRR9120822.38765,100.00,30,0,0,1,30,160,189,1e-08,56.5
Exophiala_xenobiotica_3_CBS117665,SRR9120822.37401,100.00,30,0,0,1,30,160,189,1e-08,56.5
Exophiala_xenobiotica_3_CBS117665,SRR9120822.37401,100.00,30,0,0,1,30,503,474,1e-08,56.5
Exophiala_xenobiotica_3_CBS117665,SRR9120822.33009,100.00,30,0,0,1,30,160,189,1e-08,56.5
Exophiala_xenobiotica_3_CBS117665,SRR9120822.33009,100.00,30,0,0,1,30,503,474,1e-08,56.5
Exophiala_xenobiotica_3_CBS117665,SRR9120822.32867,100.00,30,0,0,1,30,160,189,1e-08,56.5
Exophiala_xenobiotica_3_CBS117665,SRR9120822.32867,100.00,30,0,0,1,30,503,474,1e-08,56.5
Exophiala_xenobiotica_3_CBS117665,SRR9120822.23739,100.00,30,0,0,1,30,160,189,1e-08,56.5
Exophiala_xenobiotica_3_CBS117665,SRR9120822.23051,100.00,30,0,0,1,30,159,188,1e-08,56.5
Exophiala_xenobiotica_3_CBS117665,SRR9120822.23051,100.00,29,0,0,1,29,495,467,3e-08,54.7
Exophiala_xenobiotica_3_CBS117665,SRR9120822.21828,100.00,30,0,0,1,30,160,189,1e-08,56.5
Exophiala_xenobiotica_3_CBS117665,SRR9120822.21828,100.00,30,0,0,1,30,503,474,1e-08,56.5
Exophiala_xenobiotica_3_CBS117665,SRR9120822.20440,100.00,30,0,0,1,30,160,189,1e-08,56.5
Exophiala_xenobiotica_3_CBS117665,SRR9120822.18311,100.00,30,0,0,1,30,160,189,1e-08,56.5
Exophiala_xenobiotica_3_CBS117665,SRR9120822.18311,100.00,30,0,0,1,30,503,474,1e-08,56.5
Exophiala_xenobiotica_3_CBS117665,SRR9120822.18307,100.00,30,0,0,1,30,160,189,1e-08,56.5
Exophiala_xenobiotica_3_CBS117665,SRR9120822.18307,100.00,30,0,0,1,30,503,474,1e-08,56.5
Exophiala_xenobiotica_3_CBS117665,SRR9120822.17296,100.00,30,0,0,1,30,160,189,1e-08,56.5
Exophiala_xenobiotica_3_CBS117665,SRR9120822.15330,100.00,30,0,0,1,30,160,189,1e-08,56.5
Exophiala_xenobiotica_3_CBS117665,SRR9120822.15330,100.00,30,0,0,1,30,488,459,1e-08,56.5
Exophiala_xenobiotica_3_CBS117665,SRR9120822.15072,100.00,30,0,0,1,30,160,189,1e-08,56.5
Exophiala_xenobiotica_3_CBS117665,SRR9120822.15072,100.00,30,0,0,1,30,503,474,1e-08,56.5
Exophiala_xenobiotica_3_CBS117665,SRR9120822.14065,100.00,30,0,0,1,30,160,189,1e-08,56.5
Exophiala_xenobiotica_3_CBS117665,SRR9120822.14065,100.00,30,0,0,1,30,503,474,1e-08,56.5
Exophiala_xenobiotica_3_CBS117665,SRR9120822.13665,100.00,30,0,0,1,30,160,189,1e-08,56.5
Exophiala_xenobiotica_3_CBS117665,SRR9120822.9478,100.00,30,0,0,1,30,160,189,1e-08,56.5
Exophiala_xenobiotica_3_CBS117665,SRR9120822.9478,100.00,30,0,0,1,30,503,474,1e-08,56.5
Exophiala_xenobiotica_3_CBS117665,SRR9120822.6215,100.00,30,0,0,1,30,160,189,1e-08,56.5
Exophiala_xenobiotica_3_CBS117665,SRR9120822.6215,100.00,30,0,0,1,30,503,474,1e-08,56.5
Exophiala_xenobiotica_3_CBS117665,SRR9120822.5439,100.00,30,0,0,1,30,160,189,1e-08,56.5
Exophiala_xenobiotica_3_CBS117665,SRR9120822.5439,100.00,30,0,0,1,30,503,474,1e-08,56.5
Exophiala_xenobiotica_3_CBS117665,SRR9120822.3755,100.00,30,0,0,1,30,160,189,1e-08,56.5
Exophiala_xenobiotica_3_CBS117665,SRR9120822.3755,100.00,29,0,0,2,30,486,458,3e-08,54.7
Exophiala_xenobiotica_3_CBS117665,SRR9120822.3621,100.00,30,0,0,1,30,160,189,1e-08,56.5
Exophiala_xenobiotica_3_CBS117665,SRR9120822.3621,100.00,30,0,0,1,30,503,474,1e-08,56.5
Exophiala_xenobiotica_3_CBS117665,SRR9120822.2586,100.00,30,0,0,1,30,160,189,1e-08,56.5
Exophiala_xenobiotica_3_CBS117665,SRR9120822.2586,100.00,30,0,0,1,30,503,474,1e-08,56.5
Exophiala_xenobiotica_3_CBS117665,SRR9120822.863,100.00,30,0,0,1,30,160,189,1e-08,56.5
Exophiala_xenobiotica_3_CBS117665,SRR9120822.863,100.00,30,0,0,1,30,496,467,1e-08,56.5
Exophiala_xenobiotica_3_CBS117665,SRR9120822.77506,100.00,29,0,0,2,30,161,189,3e-08,54.7
Exophiala_xenobiotica_3_CBS117665,SRR9120822.77506,100.00,29,0,0,2,30,502,474,3e-08,54.7
