Exophiala_nigra_CBS535.94_T,SRR10017073.115358,87.20,125,14,2,232,356,1,123,3e-32,141
Exophiala_nigra_CBS535.94_T,SRR10017073.222629,85.16,128,12,6,232,356,1,124,3e-27,124
Exophiala_spinifera_CBS899.68_T,SRR10017073.115358,86.40,125,15,2,229,353,1,123,1e-30,135
Exophiala_spinifera_CBS899.68_T,SRR10017073.222629,85.16,128,12,6,229,353,1,124,2e-27,124
Exophiala_exophialae_CBS668.76_T,SRR10017073.115358,86.40,125,15,2,230,354,1,123,1e-30,135
Exophiala_exophialae_CBS668.76_T,SRR10017073.222629,85.16,128,12,6,230,354,1,124,2e-27,124
Exophiala_polymorpha_CBS138920_T,SRR10017073.115358,86.40,125,15,2,332,456,1,123,1e-30,135
Exophiala_polymorpha_CBS138920_T,SRR10017073.222629,85.16,128,12,6,332,456,1,124,3e-27,124
Exophiala_polymorpha_CBS138920_T,SRR10017073.248700,95.38,65,1,2,631,694,373,310,1e-20,102
Exophiala_polymorpha_CBS138920_T,SRR10017073.104955,98.11,53,1,0,642,694,362,310,9e-18,93.5
Exophiala_polymorpha_CBS138920_T,SRR10017073.17327,98.11,53,1,0,642,694,354,302,9e-18,93.5
Exophiala_polymorpha_CBS138920_T,SRR10017073.223349,96.23,53,2,0,642,694,362,310,4e-16,87.9
Exophiala_polymorpha_CBS138920_T,SRR10017073.39939,96.23,53,2,0,642,694,362,310,4e-16,87.9
Exophiala_polymorpha_CBS138920_T,SRR10017073.273234,96.00,50,2,0,645,694,359,310,2e-14,82.4
Exophiala_polymorpha_CBS138920_T,SRR10017073.85915,97.87,47,1,0,648,694,356,310,2e-14,82.4
Exophiala_polymorpha_CBS138920_T,SRR10017073.306829,92.86,56,3,1,640,694,365,310,7e-14,80.5
Exophiala_polymorpha_CBS138920_T,SRR10017073.339,93.88,49,1,2,647,694,350,303,1e-11,73.1
Exophiala_polymorpha_CBS138920_T,SRR10017073.106620,93.02,43,3,0,652,694,352,310,7e-09,63.9
Exophiala_polymorpha_CBS138920_T,SRR10017073.204059,85.25,61,8,1,635,694,370,310,3e-08,62.1
Exophiala_polymorpha_CBS138920_T,SRR10017073.7452,89.58,48,5,0,647,694,357,310,3e-08,62.1
Exophiala_oligosperma_CBS725.88_T,SRR10017073.115358,86.40,125,15,2,242,366,1,123,1e-30,135
Exophiala_oligosperma_CBS725.88_T,SRR10017073.222629,85.16,128,12,6,242,366,1,124,3e-27,124
Exophiala_jeanselmei_CBS507.90_T,SRR10017073.115358,86.40,125,15,2,234,358,1,123,1e-30,135
Exophiala_jeanselmei_CBS507.90_T,SRR10017073.222629,85.16,128,12,6,234,358,1,124,3e-27,124
Exophiala_jeanselmei_CBS507.90_T,SRR10017073.248700,95.71,70,1,2,537,604,371,302,2e-23,111
Exophiala_jeanselmei_CBS507.90_T,SRR10017073.104955,98.39,62,1,0,543,604,363,302,8e-23,110
Exophiala_jeanselmei_CBS507.90_T,SRR10017073.17327,98.39,62,1,0,543,604,355,294,8e-23,110
Exophiala_jeanselmei_CBS507.90_T,SRR10017073.161660,96.83,63,2,0,542,604,352,290,1e-21,106
Exophiala_jeanselmei_CBS507.90_T,SRR10017073.223349,96.77,62,2,0,543,604,363,302,4e-21,104
Exophiala_jeanselmei_CBS507.90_T,SRR10017073.39939,96.72,61,2,0,543,603,363,303,1e-20,102
Exophiala_jeanselmei_CBS507.90_T,SRR10017073.306829,92.65,68,5,0,537,604,369,302,2e-19,99.0
Exophiala_jeanselmei_CBS507.90_T,SRR10017073.273234,96.55,58,2,0,547,604,359,302,6e-19,97.1
Exophiala_jeanselmei_CBS507.90_T,SRR10017073.85915,96.36,55,2,0,550,604,356,302,3e-17,91.6
Exophiala_jeanselmei_CBS507.90_T,SRR10017073.339,94.74,57,1,2,549,604,350,295,4e-16,87.9
Exophiala_jeanselmei_CBS507.90_T,SRR10017073.106620,94.12,51,3,0,554,604,352,302,2e-13,78.7
Exophiala_jeanselmei_CBS507.90_T,SRR10017073.7452,91.07,56,5,0,549,604,357,302,8e-13,76.8
Exophiala_jeanselmei_CBS507.90_T,SRR10017073.204059,88.24,51,6,0,546,596,360,310,2e-08,62.1
Exophiala_bergeri_CBS353.52,SRR10017073.115358,87.20,125,14,2,195,319,1,123,2e-32,141
Exophiala_bergeri_CBS353.52,SRR10017073.222629,85.16,128,12,6,195,319,1,124,2e-27,124
Exophiala_moniliae_CBS520.76_T,SRR10017073.115358,87.20,125,14,2,232,356,1,123,3e-32,141
Exophiala_moniliae_CBS520.76_T,SRR10017073.222629,85.16,128,12,6,232,356,1,124,3e-27,124
Exophiala_pisciphila_CBS537.73_T,SRR10017073.115358,87.20,125,14,2,235,359,1,123,3e-32,141
Exophiala_pisciphila_CBS537.73_T,SRR10017073.104955,100.00,67,0,0,547,613,368,302,3e-27,124
Exophiala_pisciphila_CBS537.73_T,SRR10017073.223349,98.51,67,1,0,547,613,368,302,1e-25,119
Exophiala_pisciphila_CBS537.73_T,SRR10017073.222629,84.38,128,13,6,235,359,1,124,1e-25,119
Exophiala_pisciphila_CBS537.73_T,SRR10017073.39939,98.48,66,1,0,547,612,368,303,5e-25,117
Exophiala_pisciphila_CBS537.73_T,SRR10017073.17327,100.00,63,0,0,551,613,356,294,5e-25,117
Exophiala_pisciphila_CBS537.73_T,SRR10017073.248700,96.88,64,2,0,550,613,365,302,3e-22,108
Exophiala_pisciphila_CBS537.73_T,SRR10017073.306829,94.12,68,4,0,547,614,368,301,4e-21,104
Exophiala_pisciphila_CBS537.73_T,SRR10017073.273234,98.31,59,1,0,556,614,359,301,4e-21,104
Exophiala_pisciphila_CBS537.73_T,SRR10017073.161660,94.03,67,3,1,548,613,356,290,5e-20,100
Exophiala_pisciphila_CBS537.73_T,SRR10017073.279632,96.61,59,2,0,555,613,360,302,2e-19,99.0
Exophiala_pisciphila_CBS537.73_T,SRR10017073.85915,98.21,56,1,0,559,614,356,301,2e-19,99.0
Exophiala_pisciphila_CBS537.73_T,SRR10017073.68436,92.54,67,5,0,547,613,368,302,7e-19,97.1
Exophiala_pisciphila_CBS537.73_T,SRR10017073.45801,96.55,58,2,0,556,613,359,302,7e-19,97.1
Exophiala_pisciphila_CBS537.73_T,SRR10017073.2545,92.54,67,5,0,547,613,368,302,7e-19,97.1
Exophiala_pisciphila_CBS537.73_T,SRR10017073.288137,93.10,58,4,0,556,613,353,296,1e-15,86.1
Exophiala_pisciphila_CBS537.73_T,SRR10017073.339,92.98,57,2,2,558,613,350,295,2e-14,82.4
Exophiala_pisciphila_CBS537.73_T,SRR10017073.251003,88.06,67,8,0,547,613,368,302,7e-14,80.5
Exophiala_pisciphila_CBS537.73_T,SRR10017073.106620,92.16,51,4,0,563,613,352,302,1e-11,73.1
Exophiala_pisciphila_CBS537.73_T,SRR10017073.7452,89.29,56,6,0,558,613,357,302,4e-11,71.3
Exophiala_pisciphila_CBS537.73_T,SRR10017073.74689,93.18,44,3,0,559,602,356,313,2e-09,65.8
Exophiala_pisciphila_CBS537.73_T,SRR10017073.204059,88.24,51,6,0,555,605,360,310,2e-08,62.1
Exophiala_xenobiotica_CBS117642,SRR10017073.115358,87.20,125,14,2,227,351,1,123,2e-32,141
Exophiala_xenobiotica_CBS117642,SRR10017073.222629,85.16,128,12,6,227,351,1,124,2e-27,124
Exophiala_brunnea_CBS,SRR10017073.115358,86.40,125,15,2,263,387,1,123,1e-30,135
Exophiala_brunnea_CBS,SRR10017073.222629,85.94,128,11,6,263,387,1,124,6e-29,130
Exophiala_brunnea_CBS,SRR10017073.104955,98.04,51,1,0,583,633,363,313,3e-17,91.6
Exophiala_brunnea_CBS,SRR10017073.17327,98.04,51,1,0,583,633,355,305,3e-17,91.6
Exophiala_brunnea_CBS,SRR10017073.39939,93.10,58,4,0,576,633,370,313,4e-16,87.9
Exophiala_brunnea_CBS,SRR10017073.223349,96.08,51,2,0,583,633,363,313,1e-15,86.1
Exophiala_brunnea_CBS,SRR10017073.306829,91.07,56,5,0,578,633,368,313,2e-13,78.7
Exophiala_brunnea_CBS,SRR10017073.273234,95.74,47,2,0,587,633,359,313,2e-13,78.7
Exophiala_brunnea_CBS,SRR10017073.85915,97.73,44,1,0,590,633,356,313,2e-13,78.7
Exophiala_brunnea_CBS,SRR10017073.68436,93.88,49,2,1,586,633,361,313,3e-12,75.0
Exophiala_brunnea_CBS,SRR10017073.74689,93.18,44,3,0,590,633,356,313,2e-09,65.8
Exophiala_nishimurae_CBS101538_T,SRR10017073.115358,86.40,125,15,2,241,365,1,123,1e-30,135
Exophiala_nishimurae_CBS101538_T,SRR10017073.222629,85.16,128,12,6,241,365,1,124,3e-27,124
Exophiala_nishimurae_CBS101538_T,SRR10017073.248700,96.08,51,1,1,542,591,372,322,2e-14,82.4
Exophiala_mesophila_CBS402.95_T,SRR10017073.115358,86.40,125,15,2,225,349,1,123,1e-30,135
Exophiala_mesophila_CBS402.95_T,SRR10017073.222629,85.94,128,11,6,225,349,1,124,6e-29,130
Exophiala_mesophila_CBS402.95_T,SRR10017073.104955,96.97,66,2,0,545,610,367,302,2e-23,111
Exophiala_mesophila_CBS402.95_T,SRR10017073.248700,98.36,61,1,0,550,610,362,302,3e-22,108
Exophiala_mesophila_CBS402.95_T,SRR10017073.161660,95.59,68,2,1,544,610,357,290,3e-22,108
Exophiala_mesophila_CBS402.95_T,SRR10017073.17327,98.36,61,1,0,550,610,354,294,3e-22,108
Exophiala_mesophila_CBS402.95_T,SRR10017073.223349,95.45,66,3,0,545,610,367,302,1e-21,106
Exophiala_mesophila_CBS402.95_T,SRR10017073.39939,95.38,65,3,0,545,609,367,303,4e-21,104
Exophiala_mesophila_CBS402.95_T,SRR10017073.306829,91.78,73,3,3,540,611,371,301,2e-19,99.0
Exophiala_mesophila_CBS402.95_T,SRR10017073.273234,96.61,59,2,0,553,611,359,301,2e-19,99.0
Exophiala_mesophila_CBS402.95_T,SRR10017073.85915,96.43,56,2,0,556,611,356,301,8e-18,93.5
Exophiala_mesophila_CBS402.95_T,SRR10017073.339,94.74,57,1,2,555,610,350,295,4e-16,87.9
Exophiala_mesophila_CBS402.95_T,SRR10017073.106620,94.12,51,3,0,560,610,352,302,2e-13,78.7
Exophiala_mesophila_CBS402.95_T,SRR10017073.7452,91.07,56,5,0,555,610,357,302,8e-13,76.8
Exophiala_mesophila_CBS402.95_T,SRR10017073.204059,88.24,51,6,0,552,602,360,310,2e-08,62.1
Exophiala_castellanii_CBS158.58_T,SRR10017073.115358,86.40,125,15,2,223,347,1,123,1e-30,135
Exophiala_castellanii_CBS158.58_T,SRR10017073.222629,85.94,128,11,6,223,347,1,124,6e-29,130
Exophiala_castellanii_CBS158.58_T,SRR10017073.104955,95.59,68,3,0,542,609,369,302,8e-23,110
Exophiala_castellanii_CBS158.58_T,SRR10017073.248700,98.36,61,1,0,549,609,362,302,3e-22,108
Exophiala_castellanii_CBS158.58_T,SRR10017073.17327,98.36,61,1,0,549,609,354,294,3e-22,108
Exophiala_castellanii_CBS158.58_T,SRR10017073.223349,94.12,68,4,0,542,609,369,302,4e-21,104
Exophiala_castellanii_CBS158.58_T,SRR10017073.306829,92.96,71,3,2,542,610,371,301,1e-20,102
Exophiala_castellanii_CBS158.58_T,SRR10017073.161660,96.72,61,2,0,549,609,350,290,1e-20,102
Exophiala_castellanii_CBS158.58_T,SRR10017073.39939,94.03,67,4,0,542,608,369,303,1e-20,102
Exophiala_castellanii_CBS158.58_T,SRR10017073.273234,96.61,59,2,0,552,610,359,301,2e-19,99.0
Exophiala_castellanii_CBS158.58_T,SRR10017073.85915,96.43,56,2,0,555,610,356,301,8e-18,93.5
Exophiala_castellanii_CBS158.58_T,SRR10017073.339,94.74,57,1,2,554,609,350,295,4e-16,87.9
Exophiala_castellanii_CBS158.58_T,SRR10017073.106620,94.12,51,3,0,559,609,352,302,2e-13,78.7
Exophiala_castellanii_CBS158.58_T,SRR10017073.7452,91.07,56,5,0,554,609,357,302,8e-13,76.8
Exophiala_castellanii_CBS158.58_T,SRR10017073.204059,88.24,51,6,0,551,601,360,310,2e-08,62.1
Exophiala_lecanii-corni_CBS123.33_T,SRR10017073.115358,86.40,125,15,2,246,370,1,123,1e-30,135
Exophiala_lecanii-corni_CBS123.33_T,SRR10017073.222629,85.94,128,11,6,246,370,1,124,6e-29,130
Exophiala_dermatitidis_CBS748.88,SRR10017073.115358,87.20,125,14,2,238,362,1,123,7e-32,141
Exophiala_dermatitidis_CBS748.88,SRR10017073.222629,85.16,128,12,6,238,362,1,124,7e-27,124
Exophiala_dermatitidis_CBS748.88,SRR10017073.248700,95.77,71,2,1,566,635,372,302,2e-23,113
Exophiala_dermatitidis_CBS748.88,SRR10017073.104955,98.39,62,1,0,574,635,363,302,2e-22,110
Exophiala_dermatitidis_CBS748.88,SRR10017073.17327,98.39,62,1,0,574,635,355,294,2e-22,110
Exophiala_dermatitidis_CBS748.88,SRR10017073.161660,96.88,64,2,0,572,635,353,290,7e-22,108
Exophiala_dermatitidis_CBS748.88,SRR10017073.223349,96.77,62,2,0,574,635,363,302,9e-21,104
Exophiala_dermatitidis_CBS748.88,SRR10017073.39939,96.72,61,2,0,574,634,363,303,3e-20,102
Exophiala_dermatitidis_CBS748.88,SRR10017073.273234,96.61,59,2,0,578,636,359,301,4e-19,99.0
Exophiala_dermatitidis_CBS748.88,SRR10017073.306829,91.55,71,5,1,566,636,370,301,2e-18,97.1
Exophiala_dermatitidis_CBS748.88,SRR10017073.85915,96.43,56,2,0,581,636,356,301,2e-17,93.5
Exophiala_dermatitidis_CBS748.88,SRR10017073.339,94.74,57,1,2,580,635,350,295,9e-16,87.9
Exophiala_dermatitidis_CBS748.88,SRR10017073.106620,94.12,51,3,0,585,635,352,302,6e-13,78.7
Exophiala_dermatitidis_CBS748.88,SRR10017073.7452,91.07,56,5,0,580,635,357,302,2e-12,76.8
Exophiala_dermatitidis_CBS748.88,SRR10017073.204059,85.25,61,8,1,568,627,370,310,6e-08,62.1
Exophiala_angulospora_CBS482.92_T,SRR10017073.115358,87.20,125,14,2,229,353,1,123,2e-32,141
Exophiala_angulospora_CBS482.92_T,SRR10017073.222629,85.16,128,12,6,229,353,1,124,2e-27,124
Exophiala_opportunistica_CBS109811_T,SRR10017073.115358,87.20,125,14,2,228,352,1,123,3e-32,141
Exophiala_opportunistica_CBS109811_T,SRR10017073.222629,85.16,128,12,6,228,352,1,124,3e-27,124
Exophiala_salmonis_CBS157.67_T,SRR10017073.115358,87.20,125,14,2,357,481,1,123,4e-32,141
Exophiala_salmonis_CBS157.67_T,SRR10017073.222629,85.16,128,12,6,357,481,1,124,4e-27,124
Exophiala_salmonis_CBS157.67_T,SRR10017073.104955,100.00,67,0,0,667,733,368,302,4e-27,124
Exophiala_salmonis_CBS157.67_T,SRR10017073.223349,98.51,67,1,0,667,733,368,302,2e-25,119
Exophiala_salmonis_CBS157.67_T,SRR10017073.39939,98.48,66,1,0,667,732,368,303,6e-25,117
Exophiala_salmonis_CBS157.67_T,SRR10017073.17327,100.00,63,0,0,671,733,356,294,6e-25,117
Exophiala_salmonis_CBS157.67_T,SRR10017073.248700,96.88,64,2,0,670,733,365,302,4e-22,108
Exophiala_salmonis_CBS157.67_T,SRR10017073.306829,94.12,68,4,0,667,734,368,301,5e-21,104
Exophiala_salmonis_CBS157.67_T,SRR10017073.273234,98.31,59,1,0,676,734,359,301,5e-21,104
Exophiala_salmonis_CBS157.67_T,SRR10017073.161660,94.03,67,3,1,668,733,356,290,6e-20,100
Exophiala_salmonis_CBS157.67_T,SRR10017073.279632,96.61,59,2,0,675,733,360,302,2e-19,99.0
Exophiala_salmonis_CBS157.67_T,SRR10017073.85915,98.21,56,1,0,679,734,356,301,2e-19,99.0
Exophiala_salmonis_CBS157.67_T,SRR10017073.68436,92.54,67,5,0,667,733,368,302,8e-19,97.1
Exophiala_salmonis_CBS157.67_T,SRR10017073.45801,96.55,58,2,0,676,733,359,302,8e-19,97.1
Exophiala_salmonis_CBS157.67_T,SRR10017073.2545,92.54,67,5,0,667,733,368,302,8e-19,97.1
Exophiala_salmonis_CBS157.67_T,SRR10017073.288137,93.10,58,4,0,676,733,353,296,2e-15,86.1
Exophiala_salmonis_CBS157.67_T,SRR10017073.339,92.98,57,2,2,678,733,350,295,2e-14,82.4
Exophiala_salmonis_CBS157.67_T,SRR10017073.251003,88.06,67,8,0,667,733,368,302,8e-14,80.5
Exophiala_salmonis_CBS157.67_T,SRR10017073.106620,92.16,51,4,0,683,733,352,302,1e-11,73.1
Exophiala_salmonis_CBS157.67_T,SRR10017073.7452,89.29,56,6,0,678,733,357,302,5e-11,71.3
Exophiala_salmonis_CBS157.67_T,SRR10017073.74689,93.18,44,3,0,679,722,356,313,2e-09,65.8
Exophiala_salmonis_CBS157.67_T,SRR10017073.204059,88.24,51,6,0,675,725,360,310,3e-08,62.1
Exophiala_aquamarina_CBS119918_T,SRR10017073.115358,87.20,125,14,2,235,359,1,123,3e-32,141
Exophiala_aquamarina_CBS119918_T,SRR10017073.222629,85.16,128,12,6,235,359,1,124,3e-27,124
Exophiala_cancerae_CBS120420_T,SRR10017073.115358,87.20,125,14,2,250,374,1,123,3e-32,141
Exophiala_cancerae_CBS120420_T,SRR10017073.222629,85.16,128,12,6,250,374,1,124,3e-27,124
Exophiala_cancerae_CBS120420_T,SRR10017073.104955,98.53,68,0,1,557,624,368,302,1e-25,119
Exophiala_cancerae_CBS120420_T,SRR10017073.17327,100.00,62,0,0,563,624,355,294,2e-24,115
Exophiala_cancerae_CBS120420_T,SRR10017073.223349,97.06,68,1,1,557,624,368,302,6e-24,113
Exophiala_cancerae_CBS120420_T,SRR10017073.39939,97.01,67,1,1,557,623,368,303,2e-23,111
Exophiala_cancerae_CBS120420_T,SRR10017073.161660,95.52,67,3,0,558,624,356,290,3e-22,108
Exophiala_cancerae_CBS120420_T,SRR10017073.248700,96.77,62,2,0,563,624,363,302,4e-21,104
Exophiala_cancerae_CBS120420_T,SRR10017073.306829,94.12,68,3,1,557,624,368,302,1e-20,102
Exophiala_cancerae_CBS120420_T,SRR10017073.273234,98.28,58,1,0,567,624,359,302,1e-20,102
Exophiala_cancerae_CBS120420_T,SRR10017073.279632,96.61,59,2,0,566,624,360,302,2e-19,99.0
Exophiala_cancerae_CBS120420_T,SRR10017073.85915,98.18,55,1,0,570,624,356,302,6e-19,97.1
Exophiala_cancerae_CBS120420_T,SRR10017073.45801,96.55,58,2,0,567,624,359,302,6e-19,97.1
Exophiala_cancerae_CBS120420_T,SRR10017073.2545,93.55,62,4,0,563,624,363,302,8e-18,93.5
Exophiala_cancerae_CBS120420_T,SRR10017073.68436,91.18,68,5,1,557,624,368,302,3e-17,91.6
Exophiala_cancerae_CBS120420_T,SRR10017073.288137,93.10,58,4,0,567,624,353,296,1e-15,86.1
Exophiala_cancerae_CBS120420_T,SRR10017073.339,92.98,57,2,2,569,624,350,295,2e-14,82.4
Exophiala_cancerae_CBS120420_T,SRR10017073.251003,88.71,62,7,0,563,624,363,302,8e-13,76.8
Exophiala_cancerae_CBS120420_T,SRR10017073.106620,92.16,51,4,0,574,624,352,302,1e-11,73.1
Exophiala_cancerae_CBS120420_T,SRR10017073.7452,89.29,56,6,0,569,624,357,302,4e-11,71.3
Exophiala_cancerae_CBS120420_T,SRR10017073.74689,93.18,44,3,0,570,613,356,313,2e-09,65.8
Exophiala_cancerae_CBS120420_T,SRR10017073.204059,88.24,51,6,0,566,616,360,310,2e-08,62.1
Exophiala_tremulae_CBS129355,SRR10017073.115358,87.20,125,14,2,262,386,1,123,3e-32,141
Exophiala_tremulae_CBS129355,SRR10017073.222629,85.16,128,12,6,262,386,1,124,3e-27,124
Exophiala_tremulae_CBS129355,SRR10017073.104955,100.00,56,0,0,573,628,368,313,4e-21,104
Exophiala_tremulae_CBS129355,SRR10017073.223349,98.21,56,1,0,573,628,368,313,2e-19,99.0
Exophiala_tremulae_CBS129355,SRR10017073.39939,98.21,56,1,0,573,628,368,313,2e-19,99.0
Exophiala_tremulae_CBS129355,SRR10017073.17327,100.00,52,0,0,577,628,356,305,6e-19,97.1
Exophiala_tremulae_CBS129355,SRR10017073.68436,94.64,56,3,0,573,628,368,313,4e-16,87.9
Exophiala_tremulae_CBS129355,SRR10017073.306829,92.86,56,4,0,573,628,368,313,2e-14,82.4
Exophiala_tremulae_CBS129355,SRR10017073.273234,97.87,47,1,0,582,628,359,313,2e-14,82.4
Exophiala_tremulae_CBS129355,SRR10017073.85915,100.00,44,0,0,585,628,356,313,2e-14,82.4
Exophiala_tremulae_CBS129355,SRR10017073.2545,94.34,53,3,0,573,625,368,316,2e-14,82.4
Exophiala_tremulae_CBS129355,SRR10017073.279632,95.83,48,2,0,581,628,360,313,2e-13,78.7
Exophiala_tremulae_CBS129355,SRR10017073.288137,93.62,47,3,0,582,628,353,307,4e-11,71.3
Exophiala_tremulae_CBS129355,SRR10017073.251003,87.50,56,7,0,573,628,368,313,2e-09,65.8
Exophiala_tremulae_CBS129355,SRR10017073.74689,93.18,44,3,0,585,628,356,313,2e-09,65.8
Exophiala_equina_CBS116009,SRR10017073.115358,87.20,125,14,2,228,352,1,123,3e-32,141
Exophiala_equina_CBS116009,SRR10017073.222629,85.16,128,12,6,228,352,1,124,3e-27,124
Exophiala_alcalophila_CBS520.82_T,SRR10017073.115358,87.20,125,14,2,239,363,1,123,3e-32,141
Exophiala_alcalophila_CBS520.82_T,SRR10017073.222629,85.16,128,12,6,239,363,1,124,3e-27,124
Exophiala_crusticola_CBS119970_T,SRR10017073.115358,87.20,125,14,2,244,368,1,123,2e-32,141
Exophiala_crusticola_CBS119970_T,SRR10017073.222629,85.16,128,12,6,244,368,1,124,3e-27,124
Rhinocladiella_atrovirens_CBS264.49,SRR10017073.115358,86.40,125,15,2,270,394,1,123,1e-30,135
Rhinocladiella_atrovirens_CBS264.49,SRR10017073.222629,85.94,128,11,6,270,394,1,124,6e-29,130
Rhinocladiella_atrovirens_CBS264.49,SRR10017073.104955,98.18,55,1,0,572,626,368,314,6e-19,97.1
Rhinocladiella_atrovirens_CBS264.49,SRR10017073.223349,96.36,55,2,0,572,626,368,314,3e-17,91.6
Rhinocladiella_atrovirens_CBS264.49,SRR10017073.39939,96.36,55,2,0,572,626,368,314,3e-17,91.6
Rhinocladiella_atrovirens_CBS264.49,SRR10017073.17327,100.00,49,0,0,578,626,354,306,3e-17,91.6
Rhinocladiella_atrovirens_CBS264.49,SRR10017073.306829,92.98,57,2,2,571,626,369,314,2e-14,82.4
Rhinocladiella_atrovirens_CBS264.49,SRR10017073.273234,97.83,46,1,0,581,626,359,314,6e-14,80.5
Rhinocladiella_atrovirens_CBS264.49,SRR10017073.85915,100.00,43,0,0,584,626,356,314,6e-14,80.5
Rhinocladiella_atrovirens_CBS264.49,SRR10017073.68436,92.73,55,4,0,572,626,368,314,6e-14,80.5
Rhinocladiella_atrovirens_CBS264.49,SRR10017073.279632,95.74,47,2,0,580,626,360,314,8e-13,76.8
Rhinocladiella_atrovirens_CBS264.49,SRR10017073.2545,95.74,47,2,0,578,624,362,316,8e-13,76.8
Rhinocladiella_atrovirens_CBS264.49,SRR10017073.288137,93.48,46,3,0,581,626,353,308,1e-10,69.4
Rhinocladiella_atrovirens_CBS264.49,SRR10017073.74689,93.02,43,3,0,584,626,356,314,6e-09,63.9
Rhinocladiella_basitona_CBS101460_T,SRR10017073.115358,86.40,125,15,2,229,353,1,123,1e-30,135
Rhinocladiella_basitona_CBS101460_T,SRR10017073.222629,85.16,128,12,6,229,353,1,124,2e-27,124
Rhinocladiella_phaeophora_CBS496.78_T,SRR10017073.115358,87.20,125,14,2,237,361,1,123,3e-32,141
Rhinocladiella_phaeophora_CBS496.78_T,SRR10017073.222629,84.38,128,13,6,237,361,1,124,1e-25,119
Rhinocladiella_aquaspersa_CBS313.73_T,SRR10017073.115358,87.20,125,14,2,231,355,1,123,3e-32,141
Rhinocladiella_aquaspersa_CBS313.73_T,SRR10017073.222629,84.38,128,13,6,231,355,1,124,1e-25,119
Rhinocladiella_aquaspersa_CBS313.73_T,SRR10017073.104955,94.03,67,0,4,543,605,368,302,2e-19,99.0
Rhinocladiella_aquaspersa_CBS313.73_T,SRR10017073.39939,93.94,66,0,4,543,604,368,303,7e-19,97.1
Rhinocladiella_aquaspersa_CBS313.73_T,SRR10017073.17327,95.16,62,0,3,547,605,355,294,2e-18,95.3
Rhinocladiella_aquaspersa_CBS313.73_T,SRR10017073.223349,92.54,67,1,4,543,605,368,302,8e-18,93.5
Rhinocladiella_aquaspersa_CBS313.73_T,SRR10017073.306829,90.00,70,4,3,540,606,370,301,4e-16,87.9
Rhinocladiella_aquaspersa_CBS313.73_T,SRR10017073.273234,96.30,54,0,2,555,606,354,301,4e-16,87.9
Rhinocladiella_aquaspersa_CBS313.73_T,SRR10017073.248700,89.19,74,2,5,538,605,375,302,4e-16,87.9
Rhinocladiella_aquaspersa_CBS313.73_T,SRR10017073.161660,92.19,64,2,3,545,605,353,290,4e-16,87.9
Rhinocladiella_aquaspersa_CBS313.73_T,SRR10017073.85915,94.55,55,1,2,554,606,355,301,5e-15,84.2
Rhinocladiella_aquaspersa_CBS313.73_T,SRR10017073.68436,92.59,54,2,2,554,605,355,302,8e-13,76.8
Rhinocladiella_aquaspersa_CBS313.73_T,SRR10017073.45801,91.38,58,2,3,551,605,359,302,8e-13,76.8
Rhinocladiella_aquaspersa_CBS313.73_T,SRR10017073.7452,93.75,48,2,1,559,605,349,302,4e-11,71.3
Rhinocladiella_aquaspersa_CBS313.73_T,SRR10017073.106620,100.00,37,0,0,569,605,338,302,1e-10,69.4
Rhinocladiella_aquaspersa_CBS313.73_T,SRR10017073.339,95.35,43,2,0,563,605,337,295,1e-10,69.4
Rhinocladiella_aquaspersa_CBS313.73_T,SRR10017073.74689,100.00,30,0,0,565,594,342,313,1e-06,56.5
Rhinocladiella_aquaspersa_CBS313.73_T,SRR10017073.204059,100.00,28,0,0,570,597,337,310,1e-05,52.8
Rhinocladiella_fasciculata_CBS132.86_T,SRR10017073.115358,86.40,125,15,2,247,371,1,123,1e-30,135
Rhinocladiella_fasciculata_CBS132.86_T,SRR10017073.222629,90.00,90,8,1,247,336,1,89,2e-24,115
Rhinocladiella_anceps_CBS181.65_T,SRR10017073.115358,86.40,125,15,2,229,353,1,123,1e-30,135
Rhinocladiella_anceps_CBS181.65_T,SRR10017073.222629,85.16,128,12,6,229,353,1,124,3e-27,124
Rhinocladiella_mackenziei_CBS367.92,SRR10017073.115358,87.20,125,14,2,218,342,1,123,3e-32,141
Rhinocladiella_mackenziei_CBS367.92,SRR10017073.222629,85.16,128,12,6,218,342,1,124,3e-27,124
Rhinocladiella_mackenziei_CBS367.92,SRR10017073.104955,96.08,51,1,1,558,608,368,319,2e-14,82.4
Rhinocladiella_mackenziei_CBS367.92,SRR10017073.17327,97.87,47,0,1,562,608,356,311,6e-14,80.5
Rhinocladiella_mackenziei_CBS367.92,SRR10017073.223349,94.12,51,2,1,558,608,368,319,8e-13,76.8
Rhinocladiella_mackenziei_CBS367.92,SRR10017073.279632,90.57,53,5,0,556,608,371,319,4e-11,71.3
Rhinocladiella_mackenziei_CBS367.92,SRR10017073.273234,97.56,41,1,0,568,608,359,319,4e-11,71.3
Rhinocladiella_mackenziei_CBS367.92,SRR10017073.85915,100.00,38,0,0,571,608,356,319,4e-11,71.3
Rhinocladiella_mackenziei_CBS367.92,SRR10017073.2545,92.16,51,3,1,558,608,368,319,4e-11,71.3
Rhinocladiella_mackenziei_CBS367.92,SRR10017073.306829,95.35,43,2,0,566,608,361,319,1e-10,69.4
Rhinocladiella_mackenziei_CBS367.92,SRR10017073.68436,95.35,43,1,1,567,608,361,319,5e-10,67.6
Rhinocladiella_mackenziei_CBS367.92,SRR10017073.288137,95.12,41,2,0,568,608,353,313,2e-09,65.8
Veronaea_compacta_CBS268.75_T,SRR10017073.115358,86.40,125,15,2,251,375,1,123,1e-30,135
Veronaea_compacta_CBS268.75_T,SRR10017073.222629,85.94,128,11,6,251,375,1,124,6e-29,130
Capronia_pilosella_AFTOL-ID657,SRR10017073.115358,87.20,125,14,2,329,453,1,123,3e-32,141
Capronia_pilosella_AFTOL-ID657,SRR10017073.222629,85.16,128,12,6,329,453,1,124,3e-27,124
Capronia_pilosella_AFTOL-ID657,SRR10017073.248700,100.00,43,0,0,641,683,364,322,7e-14,80.5
Capronia_dactylotricha_DAOM208471_T,SRR10017073.115358,87.20,125,14,2,231,355,1,123,3e-32,141
Capronia_dactylotricha_DAOM208471_T,SRR10017073.222629,85.16,128,12,6,231,355,1,124,3e-27,124
Capronia_dactylotricha_DAOM208471_T,SRR10017073.104955,100.00,61,0,0,558,618,362,302,7e-24,113
Capronia_dactylotricha_DAOM208471_T,SRR10017073.17327,100.00,61,0,0,558,618,354,294,7e-24,113
Capronia_dactylotricha_DAOM208471_T,SRR10017073.223349,98.36,61,1,0,558,618,362,302,3e-22,108
Capronia_dactylotricha_DAOM208471_T,SRR10017073.39939,98.33,60,1,0,558,617,362,303,1e-21,106
Capronia_dactylotricha_DAOM208471_T,SRR10017073.273234,98.31,59,1,0,561,619,359,301,4e-21,104
Capronia_dactylotricha_DAOM208471_T,SRR10017073.306829,95.38,65,2,1,556,619,365,301,1e-20,102
Capronia_dactylotricha_DAOM208471_T,SRR10017073.248700,96.72,61,2,0,558,618,362,302,1e-20,102
Capronia_dactylotricha_DAOM208471_T,SRR10017073.279632,96.61,59,2,0,560,618,360,302,2e-19,99.0
Capronia_dactylotricha_DAOM208471_T,SRR10017073.85915,98.21,56,1,0,564,619,356,301,2e-19,99.0
Capronia_dactylotricha_DAOM208471_T,SRR10017073.45801,95.16,62,3,0,557,618,363,302,2e-19,99.0
Capronia_dactylotricha_DAOM208471_T,SRR10017073.161660,95.08,61,3,0,558,618,350,290,7e-19,97.1
Capronia_dactylotricha_DAOM208471_T,SRR10017073.2545,93.44,61,4,0,558,618,362,302,3e-17,91.6
Capronia_dactylotricha_DAOM208471_T,SRR10017073.68436,93.33,60,3,1,560,618,361,302,4e-16,87.9
Capronia_dactylotricha_DAOM208471_T,SRR10017073.288137,93.10,58,4,0,561,618,353,296,1e-15,86.1
Capronia_dactylotricha_DAOM208471_T,SRR10017073.339,92.98,57,2,2,563,618,350,295,2e-14,82.4
Capronia_dactylotricha_DAOM208471_T,SRR10017073.106620,92.16,51,4,0,568,618,352,302,1e-11,73.1
Capronia_dactylotricha_DAOM208471_T,SRR10017073.7452,89.29,56,6,0,563,618,357,302,4e-11,71.3
Capronia_dactylotricha_DAOM208471_T,SRR10017073.74689,93.18,44,3,0,564,607,356,313,2e-09,65.8
Capronia_dactylotricha_DAOM208471_T,SRR10017073.204059,88.24,51,6,0,560,610,360,310,2e-08,62.1
Capronia_kleinmondensis_CBS122671_T,SRR10017073.115358,86.40,125,15,2,256,380,1,123,1e-30,135
Capronia_kleinmondensis_CBS122671_T,SRR10017073.222629,85.94,128,11,6,256,380,1,124,7e-29,130
Capronia_kleinmondensis_CBS122671_T,SRR10017073.306829,95.77,71,2,1,556,625,371,301,7e-24,113
Capronia_kleinmondensis_CBS122671_T,SRR10017073.104955,100.00,61,0,0,564,624,362,302,7e-24,113
Capronia_kleinmondensis_CBS122671_T,SRR10017073.17327,100.00,61,0,0,564,624,354,294,7e-24,113
Capronia_kleinmondensis_CBS122671_T,SRR10017073.223349,98.36,61,1,0,564,624,362,302,3e-22,108
Capronia_kleinmondensis_CBS122671_T,SRR10017073.39939,98.33,60,1,0,564,623,362,303,1e-21,106
Capronia_kleinmondensis_CBS122671_T,SRR10017073.273234,98.31,59,1,0,567,625,359,301,4e-21,104
Capronia_kleinmondensis_CBS122671_T,SRR10017073.248700,96.72,61,2,0,564,624,362,302,1e-20,102
Capronia_kleinmondensis_CBS122671_T,SRR10017073.279632,96.61,59,2,0,566,624,360,302,2e-19,99.0
Capronia_kleinmondensis_CBS122671_T,SRR10017073.85915,98.21,56,1,0,570,625,356,301,2e-19,99.0
Capronia_kleinmondensis_CBS122671_T,SRR10017073.45801,95.16,62,3,0,563,624,363,302,2e-19,99.0
Capronia_kleinmondensis_CBS122671_T,SRR10017073.161660,95.08,61,3,0,564,624,350,290,7e-19,97.1
Capronia_kleinmondensis_CBS122671_T,SRR10017073.2545,93.44,61,4,0,564,624,362,302,3e-17,91.6
Capronia_kleinmondensis_CBS122671_T,SRR10017073.68436,91.04,67,5,1,559,624,368,302,1e-16,89.8
Capronia_kleinmondensis_CBS122671_T,SRR10017073.288137,93.10,58,4,0,567,624,353,296,1e-15,86.1
Capronia_kleinmondensis_CBS122671_T,SRR10017073.339,92.98,57,2,2,569,624,350,295,2e-14,82.4
Capronia_kleinmondensis_CBS122671_T,SRR10017073.106620,92.16,51,4,0,574,624,352,302,1e-11,73.1
Capronia_kleinmondensis_CBS122671_T,SRR10017073.7452,89.29,56,6,0,569,624,357,302,4e-11,71.3
Capronia_kleinmondensis_CBS122671_T,SRR10017073.74689,93.18,44,3,0,570,613,356,313,2e-09,65.8
Capronia_kleinmondensis_CBS122671_T,SRR10017073.204059,85.48,62,8,1,556,616,371,310,7e-09,63.9
Capronia_mansonii_CBS101.67_T,SRR10017073.115358,87.20,125,14,2,242,366,1,123,3e-32,141
Capronia_mansonii_CBS101.67_T,SRR10017073.222629,85.16,128,12,6,242,366,1,124,3e-27,124
Capronia_mansonii_CBS101.67_T,SRR10017073.248700,98.41,63,1,0,566,628,364,302,2e-23,111
Capronia_mansonii_CBS101.67_T,SRR10017073.104955,97.01,67,1,1,563,628,368,302,2e-23,111
Capronia_mansonii_CBS101.67_T,SRR10017073.17327,98.41,63,1,0,566,628,356,294,2e-23,111
Capronia_mansonii_CBS101.67_T,SRR10017073.223349,95.52,67,2,1,563,628,368,302,1e-21,106
Capronia_mansonii_CBS101.67_T,SRR10017073.161660,96.77,62,2,0,567,628,351,290,4e-21,104
Capronia_mansonii_CBS101.67_T,SRR10017073.39939,95.45,66,2,1,563,627,368,303,4e-21,104
Capronia_mansonii_CBS101.67_T,SRR10017073.273234,96.61,59,2,0,571,629,359,301,2e-19,99.0
Capronia_mansonii_CBS101.67_T,SRR10017073.306829,95.08,61,3,0,569,629,361,301,7e-19,97.1
Capronia_mansonii_CBS101.67_T,SRR10017073.85915,96.43,56,2,0,574,629,356,301,9e-18,93.5
Capronia_mansonii_CBS101.67_T,SRR10017073.339,94.74,57,1,2,573,628,350,295,4e-16,87.9
Capronia_mansonii_CBS101.67_T,SRR10017073.106620,94.12,51,3,0,578,628,352,302,2e-13,78.7
Capronia_mansonii_CBS101.67_T,SRR10017073.7452,88.06,67,6,2,564,628,368,302,2e-13,78.7
Capronia_mansonii_CBS101.67_T,SRR10017073.204059,88.24,51,6,0,570,620,360,310,2e-08,62.1
Capronia_munkii_DAOM216390_T,SRR10017073.115358,87.20,125,14,2,242,366,1,123,3e-32,141
Capronia_munkii_DAOM216390_T,SRR10017073.222629,85.16,128,12,6,242,366,1,124,3e-27,124
Capronia_munkii_DAOM216390_T,SRR10017073.104955,98.48,66,1,0,563,628,367,302,5e-25,117
Capronia_munkii_DAOM216390_T,SRR10017073.248700,98.44,64,1,0,565,628,365,302,7e-24,113
Capronia_munkii_DAOM216390_T,SRR10017073.223349,96.97,66,2,0,563,628,367,302,2e-23,111
Capronia_munkii_DAOM216390_T,SRR10017073.17327,98.41,63,1,0,566,628,356,294,2e-23,111
Capronia_munkii_DAOM216390_T,SRR10017073.39939,96.92,65,2,0,563,627,367,303,9e-23,110
Capronia_munkii_DAOM216390_T,SRR10017073.161660,95.59,68,2,1,562,628,357,290,3e-22,108
Capronia_munkii_DAOM216390_T,SRR10017073.273234,96.61,59,2,0,571,629,359,301,2e-19,99.0
Capronia_munkii_DAOM216390_T,SRR10017073.306829,91.55,71,5,1,559,629,370,301,7e-19,97.1
Capronia_munkii_DAOM216390_T,SRR10017073.85915,96.43,56,2,0,574,629,356,301,9e-18,93.5
Capronia_munkii_DAOM216390_T,SRR10017073.339,94.74,57,1,2,573,628,350,295,4e-16,87.9
Capronia_munkii_DAOM216390_T,SRR10017073.106620,94.12,51,3,0,578,628,352,302,2e-13,78.7
Capronia_munkii_DAOM216390_T,SRR10017073.7452,91.07,56,5,0,573,628,357,302,9e-13,76.8
Capronia_munkii_DAOM216390_T,SRR10017073.204059,88.24,51,6,0,570,620,360,310,2e-08,62.1
Capronia_coronata_ATCC56201_T,SRR10017073.115358,87.20,125,14,2,230,354,1,123,3e-32,141
Capronia_coronata_ATCC56201_T,SRR10017073.222629,85.16,128,12,6,230,354,1,124,3e-27,124
Capronia_coronata_ATCC56201_T,SRR10017073.104955,97.01,67,1,1,534,599,368,302,2e-23,111
Capronia_coronata_ATCC56201_T,SRR10017073.248700,98.39,62,1,0,538,599,363,302,8e-23,110
Capronia_coronata_ATCC56201_T,SRR10017073.17327,98.39,62,1,0,538,599,355,294,8e-23,110
Capronia_coronata_ATCC56201_T,SRR10017073.161660,94.37,71,3,1,529,599,359,290,3e-22,108
Capronia_coronata_ATCC56201_T,SRR10017073.223349,95.52,67,2,1,534,599,368,302,1e-21,106
Capronia_coronata_ATCC56201_T,SRR10017073.39939,95.45,66,2,1,534,598,368,303,4e-21,104
Capronia_coronata_ATCC56201_T,SRR10017073.306829,92.86,70,4,1,532,600,370,301,5e-20,100
Capronia_coronata_ATCC56201_T,SRR10017073.273234,96.61,59,2,0,542,600,359,301,2e-19,99.0
Capronia_coronata_ATCC56201_T,SRR10017073.85915,96.43,56,2,0,545,600,356,301,8e-18,93.5
Capronia_coronata_ATCC56201_T,SRR10017073.339,94.74,57,1,2,544,599,350,295,4e-16,87.9
Capronia_coronata_ATCC56201_T,SRR10017073.106620,94.12,51,3,0,549,599,352,302,2e-13,78.7
Capronia_coronata_ATCC56201_T,SRR10017073.7452,91.07,56,5,0,544,599,357,302,8e-13,76.8
Capronia_coronata_ATCC56201_T,SRR10017073.204059,88.24,51,6,0,541,591,360,310,2e-08,62.1
Capronia_parasitica_CBS123.88,SRR10017073.115358,87.20,125,14,2,236,360,1,123,3e-32,141
Capronia_parasitica_CBS123.88,SRR10017073.222629,85.16,128,12,6,236,360,1,124,3e-27,124
Capronia_parasitica_CBS123.88,SRR10017073.104955,100.00,37,0,0,559,595,363,327,1e-10,69.4
Capronia_parasitica_CBS123.88,SRR10017073.17327,100.00,37,0,0,559,595,355,319,1e-10,69.4
Capronia_parasitica_CBS123.88,SRR10017073.223349,97.30,37,1,0,559,595,363,327,6e-09,63.9
Capronia_parasitica_CBS123.88,SRR10017073.279632,100.00,32,0,0,562,593,360,329,8e-08,60.2
Capronia_parasitica_CBS123.88,SRR10017073.2545,100.00,31,0,0,559,589,363,333,3e-07,58.4
Capronia_parasitica_CBS123.88,SRR10017073.288137,100.00,30,0,0,563,592,353,324,1e-06,56.5
Capronia_parasitica_CBS123.88,SRR10017073.273234,96.97,33,1,0,563,595,359,327,1e-06,56.5
Capronia_parasitica_CBS123.88,SRR10017073.85915,100.00,30,0,0,566,595,356,327,1e-06,56.5
Capronia_parasitica_CBS123.88,SRR10017073.251003,100.00,28,0,0,559,586,363,336,1e-05,52.8
Veronaea_japonica_CBS776.83_T,SRR10017073.115358,87.20,125,14,2,264,388,1,123,3e-32,141
Veronaea_japonica_CBS776.83_T,SRR10017073.222629,85.16,128,12,6,264,388,1,124,3e-27,124
Thysanorea_papuana_CBS212.96_T,SRR10017073.115358,87.20,125,14,2,238,362,1,123,3e-32,141
Thysanorea_papuana_CBS212.96_T,SRR10017073.222629,85.16,128,12,6,238,362,1,124,3e-27,124
Thysanorea_papuana_CBS212.96_T,SRR10017073.104955,100.00,28,0,0,550,577,368,341,1e-05,52.8
Capronia_acutiseta_ATCC56428_T,SRR10017073.104955,98.53,68,0,1,531,598,368,302,1e-25,119
Capronia_acutiseta_ATCC56428_T,SRR10017073.17327,100.00,62,0,0,537,598,355,294,2e-24,115
Capronia_acutiseta_ATCC56428_T,SRR10017073.223349,97.06,68,1,1,531,598,368,302,6e-24,113
Capronia_acutiseta_ATCC56428_T,SRR10017073.39939,97.01,67,1,1,531,597,368,303,2e-23,111
Capronia_acutiseta_ATCC56428_T,SRR10017073.161660,95.52,67,3,0,532,598,356,290,3e-22,108
Capronia_acutiseta_ATCC56428_T,SRR10017073.306829,94.29,70,3,1,530,599,369,301,1e-21,106
Capronia_acutiseta_ATCC56428_T,SRR10017073.273234,98.31,59,1,0,541,599,359,301,4e-21,104
Capronia_acutiseta_ATCC56428_T,SRR10017073.248700,96.77,62,2,0,537,598,363,302,4e-21,104
Capronia_acutiseta_ATCC56428_T,SRR10017073.279632,96.61,59,2,0,540,598,360,302,2e-19,99.0
Capronia_acutiseta_ATCC56428_T,SRR10017073.85915,98.21,56,1,0,544,599,356,301,2e-19,99.0
Capronia_acutiseta_ATCC56428_T,SRR10017073.45801,96.55,58,2,0,541,598,359,302,6e-19,97.1
Capronia_acutiseta_ATCC56428_T,SRR10017073.2545,93.55,62,4,0,537,598,363,302,8e-18,93.5
Capronia_acutiseta_ATCC56428_T,SRR10017073.68436,91.18,68,5,1,531,598,368,302,3e-17,91.6
Capronia_acutiseta_ATCC56428_T,SRR10017073.288137,93.10,58,4,0,541,598,353,296,1e-15,86.1
Capronia_acutiseta_ATCC56428_T,SRR10017073.339,92.98,57,2,2,543,598,350,295,2e-14,82.4
Capronia_acutiseta_ATCC56428_T,SRR10017073.251003,88.71,62,7,0,537,598,363,302,8e-13,76.8
Capronia_acutiseta_ATCC56428_T,SRR10017073.106620,92.16,51,4,0,548,598,352,302,1e-11,73.1
Capronia_acutiseta_ATCC56428_T,SRR10017073.7452,89.29,56,6,0,543,598,357,302,4e-11,71.3
Capronia_acutiseta_ATCC56428_T,SRR10017073.74689,93.18,44,3,0,544,587,356,313,2e-09,65.8
Capronia_acutiseta_ATCC56428_T,SRR10017073.204059,88.24,51,6,0,540,590,360,310,2e-08,62.1
Fonsecaea_brasiliensis_CBS119710_T,SRR10017073.115358,87.20,125,14,2,238,362,1,123,3e-32,141
Fonsecaea_brasiliensis_CBS119710_T,SRR10017073.222629,85.16,128,12,6,238,362,1,124,3e-27,124
Fonsecaea_pedrosoi_CBS271.37_T,SRR10017073.115358,87.20,125,14,2,266,390,1,123,3e-32,141
Fonsecaea_pedrosoi_CBS271.37_T,SRR10017073.222629,85.16,128,12,6,266,390,1,124,3e-27,124
Fonsecaea_pedrosoi_CBS271.37_T,SRR10017073.248700,93.15,73,5,0,573,645,374,302,3e-22,108
Fonsecaea_pedrosoi_CBS271.37_T,SRR10017073.104955,95.52,67,3,0,579,645,368,302,3e-22,108
Fonsecaea_pedrosoi_CBS271.37_T,SRR10017073.17327,96.83,63,2,0,583,645,356,294,1e-21,106
Fonsecaea_pedrosoi_CBS271.37_T,SRR10017073.223349,94.03,67,4,0,579,645,368,302,1e-20,102
Fonsecaea_pedrosoi_CBS271.37_T,SRR10017073.39939,93.94,66,4,0,579,644,368,303,5e-20,100
Fonsecaea_pedrosoi_CBS271.37_T,SRR10017073.161660,95.16,62,3,0,584,645,351,290,2e-19,99.0
Fonsecaea_pedrosoi_CBS271.37_T,SRR10017073.273234,94.83,58,3,0,588,645,359,302,3e-17,91.6
Fonsecaea_pedrosoi_CBS271.37_T,SRR10017073.306829,93.33,60,4,0,586,645,361,302,1e-16,89.8
Fonsecaea_pedrosoi_CBS271.37_T,SRR10017073.339,92.98,57,2,2,590,645,350,295,2e-14,82.4
Fonsecaea_pedrosoi_CBS271.37_T,SRR10017073.106620,92.16,51,4,0,595,645,352,302,1e-11,73.1
Fonsecaea_pedrosoi_CBS271.37_T,SRR10017073.7452,86.57,67,7,2,581,645,368,302,1e-11,73.1
Fonsecaea_multimorphosa_CBS980.96_T,SRR10017073.115358,87.20,125,14,2,236,360,1,123,3e-32,141
Fonsecaea_multimorphosa_CBS980.96_T,SRR10017073.222629,85.16,128,12,6,236,360,1,124,3e-27,124
Fonsecaea_minima_CBS125760_T,SRR10017073.115358,87.20,125,14,2,232,356,1,123,2e-32,141
Fonsecaea_minima_CBS125760_T,SRR10017073.222629,85.16,128,12,6,232,356,1,124,2e-27,124
Fonsecaea_nubica_CBS269.64_T,SRR10017073.115358,87.20,125,14,2,243,367,1,123,3e-32,141
Fonsecaea_nubica_CBS269.64_T,SRR10017073.222629,85.16,128,12,6,243,367,1,124,3e-27,124
Fonsecaea_erecta_CBS125763_T,SRR10017073.115358,87.20,125,14,2,227,351,1,123,2e-32,141
Fonsecaea_erecta_CBS125763_T,SRR10017073.222629,85.16,128,12,6,227,351,1,124,2e-27,124
Fonsecaea_pugnacius_CBS139214_T,SRR10017073.115358,87.20,125,14,2,236,360,1,123,2e-32,141
Fonsecaea_pugnacius_CBS139214_T,SRR10017073.222629,85.16,128,12,6,236,360,1,124,2e-27,124
Cladophialophora_psammophila_CBS,SRR10017073.115358,87.20,125,14,2,242,366,1,123,3e-32,141
Cladophialophora_psammophila_CBS,SRR10017073.222629,85.16,128,12,6,242,366,1,124,3e-27,124
Cladophialophora_devriesii_CBS,SRR10017073.115358,87.20,125,14,2,238,362,1,123,2e-32,141
Cladophialophora_devriesii_CBS,SRR10017073.222629,85.16,128,12,6,238,362,1,124,2e-27,124
Cladophialophora_immunda_CBS834.96,SRR10017073.115358,87.20,125,14,2,240,364,1,123,3e-32,141
Cladophialophora_immunda_CBS834.96,SRR10017073.222629,85.16,128,12,6,240,364,1,124,3e-27,124
Cladophialophora_arxii_CBS306.94_T,SRR10017073.115358,87.20,125,14,2,242,366,1,123,2e-32,141
Cladophialophora_arxii_CBS306.94_T,SRR10017073.222629,85.16,128,12,6,242,366,1,124,3e-27,124
Cladophialophora_bantiana_CBS173.52,SRR10017073.115358,87.20,125,14,2,236,360,1,123,3e-32,141
Cladophialophora_bantiana_CBS173.52,SRR10017073.222629,85.16,128,12,6,236,360,1,124,3e-27,124
Cladophialophora_emmonsii_CBS102594,SRR10017073.115358,87.20,125,14,2,227,351,1,123,2e-32,141
Cladophialophora_emmonsii_CBS102594,SRR10017073.222629,85.16,128,12,6,227,351,1,124,3e-27,124
Cladophialophora_minourae_CBS556.83,SRR10017073.222629,91.11,90,7,1,235,324,1,89,3e-26,121
Cladophialophora_minourae_CBS556.83,SRR10017073.115358,88.24,102,9,3,235,336,1,99,1e-25,119
Cladophialophora_australiensis_CBS112793,SRR10017073.115358,86.40,125,15,2,237,361,1,123,3e-30,135
Cladophialophora_australiensis_CBS112793,SRR10017073.222629,91.11,90,7,1,237,326,1,89,9e-26,121
Cladophialophora_australiensis_CBS112793,SRR10017073.104955,97.01,67,2,0,540,606,368,302,1e-23,113
Cladophialophora_australiensis_CBS112793,SRR10017073.248700,96.88,64,2,0,543,606,365,302,7e-22,108
Cladophialophora_australiensis_CBS112793,SRR10017073.223349,95.52,67,3,0,540,606,368,302,7e-22,108
Cladophialophora_australiensis_CBS112793,SRR10017073.39939,95.45,66,3,0,540,605,368,303,3e-21,106
Cladophialophora_australiensis_CBS112793,SRR10017073.17327,96.83,63,2,0,544,606,356,294,3e-21,106
Cladophialophora_australiensis_CBS112793,SRR10017073.161660,92.96,71,4,1,536,606,359,290,3e-20,102
Cladophialophora_australiensis_CBS112793,SRR10017073.306829,91.30,69,6,0,539,607,369,301,5e-18,95.3
Cladophialophora_australiensis_CBS112793,SRR10017073.273234,94.92,59,3,0,549,607,359,301,2e-17,93.5
Cladophialophora_australiensis_CBS112793,SRR10017073.339,92.98,57,2,2,551,606,350,295,4e-14,82.4
Cladophialophora_australiensis_CBS112793,SRR10017073.106620,92.16,51,4,0,556,606,352,302,3e-11,73.1
Cladophialophora_australiensis_CBS112793,SRR10017073.7452,89.29,56,6,0,551,606,357,302,9e-11,71.3
Cladophialophora_potulentorum_CBS112222,SRR10017073.115358,85.60,125,16,2,236,360,1,123,2e-28,130
Cladophialophora_potulentorum_CBS112222,SRR10017073.222629,85.16,128,12,6,236,360,1,124,7e-27,124
Cladophialophora_potulentorum_CBS112222,SRR10017073.248700,94.37,71,2,2,540,608,372,302,7e-22,108
Cladophialophora_potulentorum_CBS112222,SRR10017073.104955,96.77,62,2,0,547,608,363,302,9e-21,104
Cladophialophora_potulentorum_CBS112222,SRR10017073.17327,96.77,62,2,0,547,608,355,294,9e-21,104
Cladophialophora_potulentorum_CBS112222,SRR10017073.161660,95.24,63,3,0,546,608,352,290,1e-19,100
Cladophialophora_potulentorum_CBS112222,SRR10017073.223349,95.16,62,3,0,547,608,363,302,4e-19,99.0
Cladophialophora_potulentorum_CBS112222,SRR10017073.306829,91.43,70,6,0,540,609,370,301,2e-18,97.1
Cladophialophora_potulentorum_CBS112222,SRR10017073.39939,95.08,61,3,0,547,607,363,303,2e-18,97.1
Cladophialophora_potulentorum_CBS112222,SRR10017073.273234,94.92,59,3,0,551,609,359,301,2e-17,93.5
Cladophialophora_potulentorum_CBS112222,SRR10017073.339,92.98,57,2,2,553,608,350,295,4e-14,82.4
Cladophialophora_potulentorum_CBS112222,SRR10017073.106620,92.16,51,4,0,558,608,352,302,3e-11,73.1
Cladophialophora_potulentorum_CBS112222,SRR10017073.7452,89.29,56,6,0,553,608,357,302,9e-11,71.3
Cladophialophora_matsushimae_CMRP1198,SRR10017073.115358,86.40,125,15,2,240,364,1,123,1e-30,135
Cladophialophora_matsushimae_CMRP1198,SRR10017073.222629,85.94,128,11,6,240,364,1,124,5e-29,130
Cladophialophora_mycetomatis_CBS122637,SRR10017073.115358,86.40,125,15,2,225,349,1,123,1e-30,135
Cladophialophora_mycetomatis_CBS122637,SRR10017073.222629,85.94,128,11,6,225,349,1,124,5e-29,130
Cladophialophora_chaetospira_CBS127573,SRR10017073.115358,87.20,125,14,2,631,755,1,123,4e-32,141
Cladophialophora_chaetospira_CBS127573,SRR10017073.222629,85.16,128,12,6,631,755,1,124,4e-27,124
Cladophialophora_boppii_CBS126.86_T,SRR10017073.115358,87.20,125,14,2,233,357,1,123,2e-32,141
Cladophialophora_boppii_CBS126.86_T,SRR10017073.222629,85.16,128,12,6,233,357,1,124,2e-27,124
Cladophialophora_abundans_CBS126736,SRR10017073.115358,84.80,125,17,2,170,294,1,123,2e-27,124
Cladophialophora_abundans_CBS126736,SRR10017073.222629,91.11,90,7,1,170,259,1,89,3e-26,121
Capronia_semi-immersa_CBS102234,SRR10017073.115358,89.11,101,9,2,232,332,1,99,2e-27,124
Capronia_semi-immersa_CBS102234,SRR10017073.222629,91.11,90,7,1,232,321,1,89,3e-26,121
Phialophora_americana_CBS400.67,SRR10017073.115358,89.11,101,9,2,234,334,1,99,7e-27,124
Phialophora_americana_CBS400.67,SRR10017073.222629,91.11,90,7,1,234,323,1,89,9e-26,121
Phialophora_americana_CBS400.67,SRR10017073.248700,95.16,62,3,0,539,600,363,302,4e-19,99.0
Phialophora_verrucosa_CBS140325_T,SRR10017073.115358,89.11,101,9,2,238,338,1,99,3e-27,124
Phialophora_verrucosa_CBS140325_T,SRR10017073.222629,91.11,90,7,1,238,327,1,89,3e-26,121
Phialophora_verrucosa_CBS140325_T,SRR10017073.248700,97.62,42,1,0,545,586,363,322,1e-11,73.1
Cladophialophora_samoensis_CBS259.83_T,SRR10017073.115358,86.40,125,15,2,238,362,1,123,1e-30,135
Cladophialophora_samoensis_CBS259.83_T,SRR10017073.222629,91.11,90,7,1,238,327,1,89,3e-26,121
Cladophialophora_carrionii_CBS260.83,SRR10017073.115358,86.40,125,15,2,254,378,1,123,1e-30,135
Cladophialophora_carrionii_CBS260.83,SRR10017073.222629,85.16,128,12,6,254,378,1,124,3e-27,124
Cladophialophora_carrionii_CBS260.83,SRR10017073.248700,98.04,51,1,0,558,608,363,313,1e-16,89.8
Exophiala_palmae_UPCB86822_T,SRR10017073.115358,87.20,125,14,2,197,321,1,123,2e-32,141
Exophiala_palmae_UPCB86822_T,SRR10017073.222629,85.16,128,12,6,197,321,1,124,2e-27,124
Cladophialophora_yegresii_CBS114405_T,SRR10017073.115358,86.40,125,15,2,239,363,1,123,1e-30,135
Cladophialophora_yegresii_CBS114405_T,SRR10017073.222629,85.16,128,12,6,239,363,1,124,3e-27,124
Knufia_epidermidis_CBS120353_T,SRR10017073.115358,84.80,125,17,2,237,361,1,123,2e-27,124
Knufia_epidermidis_CBS120353_T,SRR10017073.222629,91.11,90,7,1,237,326,1,89,3e-26,121
Arthrocladium_fulminans_CBS136243_T,SRR10017073.222629,85.16,128,12,6,232,356,1,124,3e-27,124
Arthrocladium_fulminans_CBS136243_T,SRR10017073.115358,84.00,125,18,2,232,356,1,123,1e-25,119
Arthrocladium_fulminans_CBS136243_T,SRR10017073.248700,100.00,28,0,0,533,560,362,335,1e-05,52.8
Anthopsis_deltoidea_CBS263.77_T,SRR10017073.115358,86.99,123,16,0,241,363,1,123,9e-32,139
Anthopsis_deltoidea_CBS263.77_T,SRR10017073.222629,85.83,127,11,6,241,363,1,124,2e-28,128
Cyphellophora_laciniata_CBS190.61_T,SRR10017073.115358,86.18,123,17,0,326,448,1,123,6e-30,134
Cyphellophora_laciniata_CBS190.61_T,SRR10017073.222629,91.01,89,7,1,326,413,1,89,2e-25,119
Cyphellophora_laciniata_CBS190.61_T,SRR10017073.248700,95.77,71,2,1,626,695,372,302,7e-24,113
Cyphellophora_laciniata_CBS190.61_T,SRR10017073.104955,98.39,62,1,0,634,695,363,302,9e-23,110
Cyphellophora_laciniata_CBS190.61_T,SRR10017073.17327,98.39,62,1,0,634,695,355,294,9e-23,110
Cyphellophora_laciniata_CBS190.61_T,SRR10017073.161660,96.83,63,2,0,633,695,352,290,1e-21,106
Cyphellophora_laciniata_CBS190.61_T,SRR10017073.269547,96.83,63,1,1,626,687,366,304,4e-21,104
Cyphellophora_laciniata_CBS190.61_T,SRR10017073.223349,96.77,62,2,0,634,695,363,302,4e-21,104
Cyphellophora_laciniata_CBS190.61_T,SRR10017073.306829,92.96,71,4,1,626,696,370,301,2e-20,102
Cyphellophora_laciniata_CBS190.61_T,SRR10017073.39939,96.72,61,2,0,634,694,363,303,2e-20,102
Cyphellophora_laciniata_CBS190.61_T,SRR10017073.273234,96.61,59,2,0,638,696,359,301,2e-19,99.0
Cyphellophora_laciniata_CBS190.61_T,SRR10017073.85915,96.43,56,2,0,641,696,356,301,1e-17,93.5
Cyphellophora_laciniata_CBS190.61_T,SRR10017073.4253,92.06,63,5,0,632,694,365,303,1e-16,89.8
Cyphellophora_laciniata_CBS190.61_T,SRR10017073.339,94.74,57,1,2,640,695,350,295,4e-16,87.9
Cyphellophora_laciniata_CBS190.61_T,SRR10017073.106620,94.12,51,3,0,645,695,352,302,3e-13,78.7
Cyphellophora_laciniata_CBS190.61_T,SRR10017073.7452,91.07,56,5,0,640,695,357,302,1e-12,76.8
Cyphellophora_laciniata_CBS190.61_T,SRR10017073.204059,85.25,61,8,1,628,687,370,310,3e-08,62.1
Cyphellophora_suttonii_CBS449.91,SRR10017073.115358,86.18,123,17,0,229,351,1,123,4e-30,134
Cyphellophora_suttonii_CBS449.91,SRR10017073.222629,91.01,89,7,1,229,316,1,89,1e-25,119
Cyphellophora_pauciseptata_CBS284.85_T,SRR10017073.115358,86.18,123,17,0,240,362,1,123,4e-30,134
Cyphellophora_pauciseptata_CBS284.85_T,SRR10017073.222629,91.01,89,7,1,240,327,1,89,1e-25,119
Cyphellophora_pluriseptata_CBS286.85_T,SRR10017073.115358,86.78,121,16,0,247,367,3,123,1e-30,135
Cyphellophora_pluriseptata_CBS286.85_T,SRR10017073.222629,90.80,87,7,1,247,332,3,89,2e-24,115
Phialophora_europaea_CBS101466,SRR10017073.115358,86.99,123,16,0,235,357,1,123,9e-32,139
Phialophora_europaea_CBS101466,SRR10017073.222629,91.01,89,7,1,235,322,1,89,1e-25,119
Phialophora_ambigua_CBS235.93,SRR10017073.115358,86.99,123,16,0,232,354,1,123,9e-32,139
Phialophora_ambigua_CBS235.93,SRR10017073.222629,91.01,89,7,1,232,319,1,89,1e-25,119
Cladophialophora_modesta_CBS985.96_T,SRR10017073.115358,86.40,125,15,2,229,353,1,123,1e-30,135
Cladophialophora_modesta_CBS985.96_T,SRR10017073.222629,85.16,128,12,6,229,353,1,124,3e-27,124
Cladophialophora_modesta_CBS985.96_T,SRR10017073.104955,97.01,67,2,0,513,579,368,302,6e-24,113
Cladophialophora_modesta_CBS985.96_T,SRR10017073.248700,96.88,64,2,0,516,579,365,302,3e-22,108
Cladophialophora_modesta_CBS985.96_T,SRR10017073.223349,95.52,67,3,0,513,579,368,302,3e-22,108
Cladophialophora_modesta_CBS985.96_T,SRR10017073.39939,95.45,66,3,0,513,578,368,303,1e-21,106
Cladophialophora_modesta_CBS985.96_T,SRR10017073.17327,96.83,63,2,0,517,579,356,294,1e-21,106
Cladophialophora_modesta_CBS985.96_T,SRR10017073.161660,94.03,67,3,1,514,579,356,290,5e-20,100
Cladophialophora_modesta_CBS985.96_T,SRR10017073.306829,91.30,69,6,0,512,580,369,301,2e-18,95.3
Cladophialophora_modesta_CBS985.96_T,SRR10017073.273234,94.92,59,3,0,522,580,359,301,8e-18,93.5
Cladophialophora_modesta_CBS985.96_T,SRR10017073.339,96.49,57,0,2,524,579,350,295,8e-18,93.5
Cladophialophora_modesta_CBS985.96_T,SRR10017073.85915,94.64,56,3,0,525,580,356,301,4e-16,87.9
Cladophialophora_modesta_CBS985.96_T,SRR10017073.7452,92.86,56,4,0,524,579,357,302,2e-14,82.4
Cladophialophora_modesta_CBS985.96_T,SRR10017073.106620,92.16,51,4,0,529,579,352,302,1e-11,73.1
Cladophialophora_modesta_CBS985.96_T,SRR10017073.204059,90.20,51,5,0,521,571,360,310,5e-10,67.6
Cyphellophora_fusarioides_MUCL44033_T,SRR10017073.115358,86.18,123,17,0,228,350,1,123,4e-30,134
Cyphellophora_fusarioides_MUCL44033_T,SRR10017073.222629,92.13,89,6,1,228,315,1,89,2e-27,124
