Exophiala_brunnea_CBS,ERR1718594.5,100.00,32,0,0,1,32,132,163,5e-13,60.2
Exophiala_tremulae_CBS129355,ERR1718594.5,100.00,32,0,0,1,32,132,163,5e-13,60.2
Rhinocladiella_atrovirens_CBS264.49,ERR1718594.5,100.00,37,0,0,1,37,127,163,8e-16,69.4
Veronaea_japonica_CBS776.83_T,ERR1718594.5,100.00,31,0,0,1,31,133,163,2e-12,58.4
Cyphellophora_laciniata_CBS190.61_T,ERR1718594.5,96.08,51,2,0,43,93,113,163,3e-20,84.2
