Exophiala_nigra_CBS535.94_T,SRR9134806.133393,91.88,160,8,4,232,391,1,155,6e-56,219
Exophiala_nigra_CBS535.94_T,SRR9134806.113267,91.88,160,8,4,232,391,1,155,6e-56,219
Exophiala_nigra_CBS535.94_T,SRR9134806.88427,91.88,160,8,4,232,391,1,155,6e-56,219
Exophiala_nigra_CBS535.94_T,SRR9134806.70054,91.88,160,8,4,232,391,1,155,6e-56,219
Exophiala_nigra_CBS535.94_T,SRR9134806.33025,91.88,160,8,4,232,391,1,155,6e-56,219
Exophiala_nigra_CBS535.94_T,SRR9134806.98742,94.37,142,6,2,232,373,1,140,2e-55,217
Exophiala_nigra_CBS535.94_T,SRR9134806.98742,92.93,99,5,2,275,373,601,505,4e-33,143
Exophiala_nigra_CBS535.94_T,SRR9134806.155087,90.00,160,12,4,232,391,1,156,2e-51,204
Exophiala_nigra_CBS535.94_T,SRR9134806.107504,92.13,127,9,1,232,358,1,126,1e-43,178
Exophiala_spinifera_CBS899.68_T,SRR9134806.133393,91.19,159,10,4,229,387,1,155,3e-54,213
Exophiala_spinifera_CBS899.68_T,SRR9134806.113267,91.19,159,10,4,229,387,1,155,3e-54,213
Exophiala_spinifera_CBS899.68_T,SRR9134806.98742,91.19,159,10,4,229,387,1,155,3e-54,213
Exophiala_spinifera_CBS899.68_T,SRR9134806.98742,88.79,116,9,4,272,387,601,490,5e-32,139
Exophiala_spinifera_CBS899.68_T,SRR9134806.88427,91.19,159,10,4,229,387,1,155,3e-54,213
Exophiala_spinifera_CBS899.68_T,SRR9134806.70054,91.19,159,10,4,229,387,1,155,3e-54,213
Exophiala_spinifera_CBS899.68_T,SRR9134806.33025,91.19,159,10,4,229,387,1,155,3e-54,213
Exophiala_spinifera_CBS899.68_T,SRR9134806.155087,89.94,159,13,3,229,387,1,156,6e-51,202
Exophiala_spinifera_CBS899.68_T,SRR9134806.107504,91.34,127,10,1,229,355,1,126,4e-42,172
Exophiala_exophialae_CBS668.76_T,SRR9134806.133393,91.19,159,10,4,230,388,1,155,3e-54,213
Exophiala_exophialae_CBS668.76_T,SRR9134806.113267,91.19,159,10,4,230,388,1,155,3e-54,213
Exophiala_exophialae_CBS668.76_T,SRR9134806.98742,91.19,159,10,4,230,388,1,155,3e-54,213
Exophiala_exophialae_CBS668.76_T,SRR9134806.98742,88.79,116,9,4,273,388,601,490,5e-32,139
Exophiala_exophialae_CBS668.76_T,SRR9134806.88427,91.19,159,10,4,230,388,1,155,3e-54,213
Exophiala_exophialae_CBS668.76_T,SRR9134806.70054,91.19,159,10,4,230,388,1,155,3e-54,213
Exophiala_exophialae_CBS668.76_T,SRR9134806.33025,91.19,159,10,4,230,388,1,155,3e-54,213
Exophiala_exophialae_CBS668.76_T,SRR9134806.155087,89.94,159,13,3,230,388,1,156,6e-51,202
Exophiala_exophialae_CBS668.76_T,SRR9134806.107504,91.34,127,10,1,230,356,1,126,4e-42,172
Exophiala_polymorpha_CBS138920_T,SRR9134806.133393,91.19,159,10,4,332,490,1,155,3e-54,213
Exophiala_polymorpha_CBS138920_T,SRR9134806.113267,91.19,159,10,4,332,490,1,155,3e-54,213
Exophiala_polymorpha_CBS138920_T,SRR9134806.98742,91.19,159,10,4,332,490,1,155,3e-54,213
Exophiala_polymorpha_CBS138920_T,SRR9134806.98742,88.79,116,9,4,375,490,601,490,6e-32,139
Exophiala_polymorpha_CBS138920_T,SRR9134806.98742,98.00,50,1,0,645,694,359,310,2e-16,87.9
Exophiala_polymorpha_CBS138920_T,SRR9134806.88427,91.19,159,10,4,332,490,1,155,3e-54,213
Exophiala_polymorpha_CBS138920_T,SRR9134806.88427,98.11,53,1,0,642,694,362,310,5e-18,93.5
Exophiala_polymorpha_CBS138920_T,SRR9134806.70054,91.19,159,10,4,332,490,1,155,3e-54,213
Exophiala_polymorpha_CBS138920_T,SRR9134806.33025,91.19,159,10,4,332,490,1,155,3e-54,213
Exophiala_polymorpha_CBS138920_T,SRR9134806.33025,98.11,53,1,0,642,694,362,310,5e-18,93.5
Exophiala_polymorpha_CBS138920_T,SRR9134806.155087,89.94,159,13,3,332,490,1,156,7e-51,202
Exophiala_polymorpha_CBS138920_T,SRR9134806.107504,91.34,127,10,1,332,458,1,126,6e-42,172
Exophiala_polymorpha_CBS138920_T,SRR9134806.107504,97.50,40,1,0,655,694,349,310,8e-11,69.4
Exophiala_oligosperma_CBS725.88_T,SRR9134806.98742,90.00,170,12,4,242,411,1,165,8e-55,215
Exophiala_oligosperma_CBS725.88_T,SRR9134806.98742,87.40,127,11,4,285,411,601,480,1e-32,141
Exophiala_oligosperma_CBS725.88_T,SRR9134806.133393,91.19,159,10,4,242,400,1,155,3e-54,213
Exophiala_oligosperma_CBS725.88_T,SRR9134806.113267,91.19,159,10,4,242,400,1,155,3e-54,213
Exophiala_oligosperma_CBS725.88_T,SRR9134806.88427,91.19,159,10,4,242,400,1,155,3e-54,213
Exophiala_oligosperma_CBS725.88_T,SRR9134806.70054,91.19,159,10,4,242,400,1,155,3e-54,213
Exophiala_oligosperma_CBS725.88_T,SRR9134806.33025,91.19,159,10,4,242,400,1,155,3e-54,213
Exophiala_oligosperma_CBS725.88_T,SRR9134806.155087,89.94,159,13,3,242,400,1,156,6e-51,202
Exophiala_oligosperma_CBS725.88_T,SRR9134806.107504,91.34,127,10,1,242,368,1,126,5e-42,172
Exophiala_jeanselmei_CBS507.90_T,SRR9134806.133393,91.19,159,10,4,234,392,1,155,3e-54,213
Exophiala_jeanselmei_CBS507.90_T,SRR9134806.113267,91.19,159,10,4,234,392,1,155,3e-54,213
Exophiala_jeanselmei_CBS507.90_T,SRR9134806.98742,89.53,172,13,4,234,405,1,167,3e-54,213
Exophiala_jeanselmei_CBS507.90_T,SRR9134806.98742,86.82,129,12,4,277,405,601,478,5e-32,139
Exophiala_jeanselmei_CBS507.90_T,SRR9134806.98742,98.28,58,1,0,547,604,359,302,7e-21,102
Exophiala_jeanselmei_CBS507.90_T,SRR9134806.88427,91.19,159,10,4,234,392,1,155,3e-54,213
Exophiala_jeanselmei_CBS507.90_T,SRR9134806.88427,98.39,62,1,0,543,604,363,302,4e-23,110
Exophiala_jeanselmei_CBS507.90_T,SRR9134806.70054,91.19,159,10,4,234,392,1,155,3e-54,213
Exophiala_jeanselmei_CBS507.90_T,SRR9134806.33025,91.19,159,10,4,234,392,1,155,3e-54,213
Exophiala_jeanselmei_CBS507.90_T,SRR9134806.33025,98.39,62,1,0,543,604,363,302,4e-23,110
Exophiala_jeanselmei_CBS507.90_T,SRR9134806.155087,89.94,159,13,3,234,392,1,156,6e-51,202
Exophiala_jeanselmei_CBS507.90_T,SRR9134806.107504,91.34,127,10,1,234,360,1,126,5e-42,172
Exophiala_jeanselmei_CBS507.90_T,SRR9134806.107504,97.92,48,1,0,557,604,349,302,2e-15,84.2
Exophiala_jeanselmei_CBS507.90_T,SRR9134806.151918,93.44,61,4,0,544,604,362,302,1e-17,91.6
Exophiala_bergeri_CBS353.52,SRR9134806.98742,94.37,142,6,2,195,336,1,140,2e-55,217
Exophiala_bergeri_CBS353.52,SRR9134806.98742,92.93,99,5,2,238,336,601,505,3e-33,143
Exophiala_bergeri_CBS353.52,SRR9134806.133393,91.25,160,9,4,195,354,1,155,2e-54,213
Exophiala_bergeri_CBS353.52,SRR9134806.113267,91.25,160,9,4,195,354,1,155,2e-54,213
Exophiala_bergeri_CBS353.52,SRR9134806.88427,91.25,160,9,4,195,354,1,155,2e-54,213
Exophiala_bergeri_CBS353.52,SRR9134806.70054,91.25,160,9,4,195,354,1,155,2e-54,213
Exophiala_bergeri_CBS353.52,SRR9134806.33025,91.25,160,9,4,195,354,1,155,2e-54,213
Exophiala_bergeri_CBS353.52,SRR9134806.155087,89.81,157,12,4,195,350,1,154,7e-50,198
Exophiala_bergeri_CBS353.52,SRR9134806.107504,92.13,127,9,1,195,321,1,126,9e-44,178
Exophiala_moniliae_CBS520.76_T,SRR9134806.133393,93.01,143,8,2,232,374,1,141,1e-52,207
Exophiala_moniliae_CBS520.76_T,SRR9134806.113267,93.01,143,8,2,232,374,1,141,1e-52,207
Exophiala_moniliae_CBS520.76_T,SRR9134806.98742,96.09,128,4,1,232,359,1,127,1e-52,207
Exophiala_moniliae_CBS520.76_T,SRR9134806.98742,95.29,85,3,1,275,359,601,518,2e-30,134
Exophiala_moniliae_CBS520.76_T,SRR9134806.88427,93.01,143,8,2,232,374,1,141,1e-52,207
Exophiala_moniliae_CBS520.76_T,SRR9134806.70054,93.01,143,8,2,232,374,1,141,1e-52,207
Exophiala_moniliae_CBS520.76_T,SRR9134806.33025,93.01,143,8,2,232,374,1,141,1e-52,207
Exophiala_moniliae_CBS520.76_T,SRR9134806.155087,90.34,145,12,2,232,376,1,143,5e-47,189
Exophiala_moniliae_CBS520.76_T,SRR9134806.107504,92.13,127,9,1,232,358,1,126,1e-43,178
Exophiala_pisciphila_CBS537.73_T,SRR9134806.133393,91.82,159,9,4,235,393,1,155,7e-56,219
Exophiala_pisciphila_CBS537.73_T,SRR9134806.133393,100.00,31,0,0,547,577,270,300,2e-07,58.4
Exophiala_pisciphila_CBS537.73_T,SRR9134806.113267,91.82,159,9,4,235,393,1,155,7e-56,219
Exophiala_pisciphila_CBS537.73_T,SRR9134806.113267,100.00,31,0,0,547,577,270,300,2e-07,58.4
Exophiala_pisciphila_CBS537.73_T,SRR9134806.88427,91.82,159,9,4,235,393,1,155,7e-56,219
Exophiala_pisciphila_CBS537.73_T,SRR9134806.88427,100.00,68,0,0,547,614,368,301,4e-28,126
Exophiala_pisciphila_CBS537.73_T,SRR9134806.88427,100.00,32,0,0,547,578,270,301,4e-08,60.2
Exophiala_pisciphila_CBS537.73_T,SRR9134806.70054,91.82,159,9,4,235,393,1,155,7e-56,219
Exophiala_pisciphila_CBS537.73_T,SRR9134806.70054,100.00,33,0,0,547,579,270,302,1e-08,62.1
Exophiala_pisciphila_CBS537.73_T,SRR9134806.33025,91.82,159,9,4,235,393,1,155,7e-56,219
Exophiala_pisciphila_CBS537.73_T,SRR9134806.33025,100.00,67,0,0,547,613,368,302,2e-27,124
Exophiala_pisciphila_CBS537.73_T,SRR9134806.33025,100.00,31,0,0,547,577,270,300,2e-07,58.4
Exophiala_pisciphila_CBS537.73_T,SRR9134806.98742,91.19,159,10,4,235,393,1,155,3e-54,213
Exophiala_pisciphila_CBS537.73_T,SRR9134806.98742,88.79,116,9,4,278,393,601,490,5e-32,139
Exophiala_pisciphila_CBS537.73_T,SRR9134806.98742,100.00,58,0,0,556,613,359,302,2e-22,108
Exophiala_pisciphila_CBS537.73_T,SRR9134806.155087,90.57,159,12,3,235,393,1,156,1e-52,207
Exophiala_pisciphila_CBS537.73_T,SRR9134806.107504,92.13,127,9,1,235,361,1,126,1e-43,178
Exophiala_pisciphila_CBS537.73_T,SRR9134806.107504,95.83,48,2,0,566,613,349,302,1e-13,78.7
Exophiala_pisciphila_CBS537.73_T,SRR9134806.151918,95.08,61,3,0,553,613,362,302,3e-19,97.1
Exophiala_xenobiotica_CBS117642,SRR9134806.133393,91.82,159,9,4,227,385,1,155,6e-56,219
Exophiala_xenobiotica_CBS117642,SRR9134806.113267,91.82,159,9,4,227,385,1,155,6e-56,219
Exophiala_xenobiotica_CBS117642,SRR9134806.98742,91.82,159,9,4,227,385,1,155,6e-56,219
Exophiala_xenobiotica_CBS117642,SRR9134806.98742,89.66,116,8,4,270,385,601,490,1e-33,145
Exophiala_xenobiotica_CBS117642,SRR9134806.88427,91.82,159,9,4,227,385,1,155,6e-56,219
Exophiala_xenobiotica_CBS117642,SRR9134806.70054,91.82,159,9,4,227,385,1,155,6e-56,219
Exophiala_xenobiotica_CBS117642,SRR9134806.33025,91.82,159,9,4,227,385,1,155,6e-56,219
Exophiala_xenobiotica_CBS117642,SRR9134806.155087,90.57,159,12,3,227,385,1,156,1e-52,207
Exophiala_xenobiotica_CBS117642,SRR9134806.107504,92.13,127,9,1,227,353,1,126,9e-44,178
Exophiala_brunnea_CBS,SRR9134806.133393,91.19,159,10,4,263,421,1,155,3e-54,213
Exophiala_brunnea_CBS,SRR9134806.113267,91.19,159,10,4,263,421,1,155,3e-54,213
Exophiala_brunnea_CBS,SRR9134806.88427,91.19,159,10,4,263,421,1,155,3e-54,213
Exophiala_brunnea_CBS,SRR9134806.88427,98.04,51,1,0,583,633,363,313,2e-17,91.6
Exophiala_brunnea_CBS,SRR9134806.70054,91.19,159,10,4,263,421,1,155,3e-54,213
Exophiala_brunnea_CBS,SRR9134806.33025,91.19,159,10,4,263,421,1,155,3e-54,213
Exophiala_brunnea_CBS,SRR9134806.33025,98.04,51,1,0,583,633,363,313,2e-17,91.6
Exophiala_brunnea_CBS,SRR9134806.98742,90.57,159,11,4,263,421,1,155,1e-52,207
Exophiala_brunnea_CBS,SRR9134806.98742,87.93,116,10,4,306,421,601,490,2e-30,134
Exophiala_brunnea_CBS,SRR9134806.98742,97.87,47,1,0,587,633,359,313,3e-15,84.2
Exophiala_brunnea_CBS,SRR9134806.155087,89.94,159,13,3,263,421,1,156,7e-51,202
Exophiala_brunnea_CBS,SRR9134806.107504,91.34,127,10,1,263,389,1,126,5e-42,172
Exophiala_nishimurae_CBS101538_T,SRR9134806.98742,90.06,171,12,4,241,411,1,166,2e-55,217
Exophiala_nishimurae_CBS101538_T,SRR9134806.98742,87.50,128,11,4,284,411,601,479,4e-33,143
Exophiala_nishimurae_CBS101538_T,SRR9134806.133393,91.19,159,10,4,241,399,1,155,3e-54,213
Exophiala_nishimurae_CBS101538_T,SRR9134806.113267,91.19,159,10,4,241,399,1,155,3e-54,213
Exophiala_nishimurae_CBS101538_T,SRR9134806.88427,91.19,159,10,4,241,399,1,155,3e-54,213
Exophiala_nishimurae_CBS101538_T,SRR9134806.70054,91.19,159,10,4,241,399,1,155,3e-54,213
Exophiala_nishimurae_CBS101538_T,SRR9134806.33025,91.19,159,10,4,241,399,1,155,3e-54,213
Exophiala_nishimurae_CBS101538_T,SRR9134806.155087,89.94,159,13,3,241,399,1,156,6e-51,202
Exophiala_nishimurae_CBS101538_T,SRR9134806.107504,91.34,127,10,1,241,367,1,126,5e-42,172
Exophiala_mesophila_CBS402.95_T,SRR9134806.133393,93.01,143,8,2,225,367,1,141,1e-52,207
Exophiala_mesophila_CBS402.95_T,SRR9134806.113267,93.01,143,8,2,225,367,1,141,1e-52,207
Exophiala_mesophila_CBS402.95_T,SRR9134806.88427,93.01,143,8,2,225,367,1,141,1e-52,207
Exophiala_mesophila_CBS402.95_T,SRR9134806.88427,97.01,67,2,0,545,611,367,301,3e-24,113
Exophiala_mesophila_CBS402.95_T,SRR9134806.70054,93.01,143,8,2,225,367,1,141,1e-52,207
Exophiala_mesophila_CBS402.95_T,SRR9134806.33025,93.01,143,8,2,225,367,1,141,1e-52,207
Exophiala_mesophila_CBS402.95_T,SRR9134806.33025,96.97,66,2,0,545,610,367,302,1e-23,111
Exophiala_mesophila_CBS402.95_T,SRR9134806.98742,92.96,142,8,2,225,366,1,140,5e-52,206
Exophiala_mesophila_CBS402.95_T,SRR9134806.98742,90.91,99,7,2,268,366,601,505,9e-30,132
Exophiala_mesophila_CBS402.95_T,SRR9134806.98742,98.28,58,1,0,553,610,359,302,7e-21,102
Exophiala_mesophila_CBS402.95_T,SRR9134806.155087,90.34,145,12,2,225,369,1,143,5e-47,189
Exophiala_mesophila_CBS402.95_T,SRR9134806.107504,91.34,127,10,1,225,351,1,126,5e-42,172
Exophiala_mesophila_CBS402.95_T,SRR9134806.107504,97.92,48,1,0,563,610,349,302,3e-15,84.2
Exophiala_mesophila_CBS402.95_T,SRR9134806.151918,93.75,64,4,0,547,610,365,302,3e-19,97.1
Exophiala_castellanii_CBS158.58_T,SRR9134806.133393,93.01,143,8,2,223,365,1,141,1e-52,207
Exophiala_castellanii_CBS158.58_T,SRR9134806.113267,93.01,143,8,2,223,365,1,141,1e-52,207
Exophiala_castellanii_CBS158.58_T,SRR9134806.88427,93.01,143,8,2,223,365,1,141,1e-52,207
Exophiala_castellanii_CBS158.58_T,SRR9134806.88427,95.65,69,3,0,542,610,369,301,1e-23,111
Exophiala_castellanii_CBS158.58_T,SRR9134806.70054,93.01,143,8,2,223,365,1,141,1e-52,207
Exophiala_castellanii_CBS158.58_T,SRR9134806.33025,93.01,143,8,2,223,365,1,141,1e-52,207
Exophiala_castellanii_CBS158.58_T,SRR9134806.33025,95.59,68,3,0,542,609,369,302,4e-23,110
Exophiala_castellanii_CBS158.58_T,SRR9134806.98742,92.96,142,8,2,223,364,1,140,5e-52,206
Exophiala_castellanii_CBS158.58_T,SRR9134806.98742,90.91,99,7,2,266,364,601,505,9e-30,132
Exophiala_castellanii_CBS158.58_T,SRR9134806.98742,98.28,58,1,0,552,609,359,302,7e-21,102
Exophiala_castellanii_CBS158.58_T,SRR9134806.155087,90.34,145,12,2,223,367,1,143,5e-47,189
Exophiala_castellanii_CBS158.58_T,SRR9134806.107504,91.34,127,10,1,223,349,1,126,5e-42,172
Exophiala_castellanii_CBS158.58_T,SRR9134806.107504,97.92,48,1,0,562,609,349,302,3e-15,84.2
Exophiala_castellanii_CBS158.58_T,SRR9134806.151918,93.65,63,4,0,547,609,364,302,1e-18,95.3
Exophiala_lecanii-corni_CBS123.33_T,SRR9134806.133393,93.01,143,8,2,246,388,1,141,1e-52,207
Exophiala_lecanii-corni_CBS123.33_T,SRR9134806.113267,93.01,143,8,2,246,388,1,141,1e-52,207
Exophiala_lecanii-corni_CBS123.33_T,SRR9134806.88427,93.01,143,8,2,246,388,1,141,1e-52,207
Exophiala_lecanii-corni_CBS123.33_T,SRR9134806.70054,93.01,143,8,2,246,388,1,141,1e-52,207
Exophiala_lecanii-corni_CBS123.33_T,SRR9134806.33025,93.01,143,8,2,246,388,1,141,1e-52,207
Exophiala_lecanii-corni_CBS123.33_T,SRR9134806.98742,92.96,142,8,2,246,387,1,140,5e-52,206
Exophiala_lecanii-corni_CBS123.33_T,SRR9134806.98742,90.91,99,7,2,289,387,601,505,8e-30,132
Exophiala_lecanii-corni_CBS123.33_T,SRR9134806.155087,89.66,145,13,2,246,390,1,143,2e-45,183
Exophiala_lecanii-corni_CBS123.33_T,SRR9134806.107504,88.89,144,13,3,246,389,1,141,1e-42,174
Exophiala_dermatitidis_CBS748.88,SRR9134806.133393,91.25,160,9,4,238,397,1,155,8e-54,213
Exophiala_dermatitidis_CBS748.88,SRR9134806.113267,91.25,160,9,4,238,397,1,155,8e-54,213
Exophiala_dermatitidis_CBS748.88,SRR9134806.88427,91.25,160,9,4,238,397,1,155,8e-54,213
Exophiala_dermatitidis_CBS748.88,SRR9134806.88427,98.41,63,1,0,574,636,363,301,3e-23,111
Exophiala_dermatitidis_CBS748.88,SRR9134806.70054,91.25,160,9,4,238,397,1,155,8e-54,213
Exophiala_dermatitidis_CBS748.88,SRR9134806.33025,91.25,160,9,4,238,397,1,155,8e-54,213
Exophiala_dermatitidis_CBS748.88,SRR9134806.33025,98.39,62,1,0,574,635,363,302,1e-22,110
Exophiala_dermatitidis_CBS748.88,SRR9134806.98742,93.66,142,7,2,238,379,1,140,3e-53,211
Exophiala_dermatitidis_CBS748.88,SRR9134806.98742,91.92,99,6,2,281,379,601,505,5e-31,137
Exophiala_dermatitidis_CBS748.88,SRR9134806.98742,93.15,73,3,2,564,635,373,302,1e-21,106
Exophiala_dermatitidis_CBS748.88,SRR9134806.155087,90.00,160,12,4,238,397,1,156,5e-51,204
Exophiala_dermatitidis_CBS748.88,SRR9134806.107504,92.13,127,9,1,238,364,1,126,3e-43,178
Exophiala_dermatitidis_CBS748.88,SRR9134806.107504,97.92,48,1,0,588,635,349,302,6e-15,84.2
Exophiala_dermatitidis_CBS748.88,SRR9134806.151918,93.44,61,4,0,575,635,362,302,4e-17,91.6
Exophiala_angulospora_CBS482.92_T,SRR9134806.133393,90.62,160,10,4,229,388,1,155,1e-52,207
Exophiala_angulospora_CBS482.92_T,SRR9134806.113267,90.62,160,10,4,229,388,1,155,1e-52,207
Exophiala_angulospora_CBS482.92_T,SRR9134806.98742,96.09,128,4,1,229,356,1,127,1e-52,207
Exophiala_angulospora_CBS482.92_T,SRR9134806.98742,95.29,85,3,1,272,356,601,518,2e-30,134
Exophiala_angulospora_CBS482.92_T,SRR9134806.88427,90.62,160,10,4,229,388,1,155,1e-52,207
Exophiala_angulospora_CBS482.92_T,SRR9134806.70054,90.62,160,10,4,229,388,1,155,1e-52,207
Exophiala_angulospora_CBS482.92_T,SRR9134806.33025,90.62,160,10,4,229,388,1,155,1e-52,207
Exophiala_angulospora_CBS482.92_T,SRR9134806.155087,90.00,160,12,4,229,388,1,156,2e-51,204
Exophiala_angulospora_CBS482.92_T,SRR9134806.107504,92.13,127,9,1,229,355,1,126,1e-43,178
Exophiala_opportunistica_CBS109811_T,SRR9134806.133393,92.45,159,8,4,228,386,1,155,1e-57,224
Exophiala_opportunistica_CBS109811_T,SRR9134806.113267,92.45,159,8,4,228,386,1,155,1e-57,224
Exophiala_opportunistica_CBS109811_T,SRR9134806.88427,92.45,159,8,4,228,386,1,155,1e-57,224
Exophiala_opportunistica_CBS109811_T,SRR9134806.70054,92.45,159,8,4,228,386,1,155,1e-57,224
Exophiala_opportunistica_CBS109811_T,SRR9134806.33025,92.45,159,8,4,228,386,1,155,1e-57,224
Exophiala_opportunistica_CBS109811_T,SRR9134806.98742,91.82,159,9,4,228,386,1,155,6e-56,219
Exophiala_opportunistica_CBS109811_T,SRR9134806.98742,89.66,116,8,4,271,386,601,490,1e-33,145
Exophiala_opportunistica_CBS109811_T,SRR9134806.155087,89.94,159,13,3,228,386,1,156,6e-51,202
Exophiala_opportunistica_CBS109811_T,SRR9134806.107504,92.13,127,9,1,228,354,1,126,1e-43,178
Exophiala_salmonis_CBS157.67_T,SRR9134806.133393,91.82,159,9,4,357,515,1,155,8e-56,219
Exophiala_salmonis_CBS157.67_T,SRR9134806.133393,100.00,31,0,0,667,697,270,300,2e-07,58.4
Exophiala_salmonis_CBS157.67_T,SRR9134806.113267,91.82,159,9,4,357,515,1,155,8e-56,219
Exophiala_salmonis_CBS157.67_T,SRR9134806.113267,100.00,31,0,0,667,697,270,300,2e-07,58.4
Exophiala_salmonis_CBS157.67_T,SRR9134806.88427,91.82,159,9,4,357,515,1,155,8e-56,219
Exophiala_salmonis_CBS157.67_T,SRR9134806.88427,100.00,68,0,0,667,734,368,301,5e-28,126
Exophiala_salmonis_CBS157.67_T,SRR9134806.88427,100.00,32,0,0,667,698,270,301,5e-08,60.2
Exophiala_salmonis_CBS157.67_T,SRR9134806.70054,91.82,159,9,4,357,515,1,155,8e-56,219
Exophiala_salmonis_CBS157.67_T,SRR9134806.70054,100.00,33,0,0,667,699,270,302,1e-08,62.1
Exophiala_salmonis_CBS157.67_T,SRR9134806.33025,91.82,159,9,4,357,515,1,155,8e-56,219
Exophiala_salmonis_CBS157.67_T,SRR9134806.33025,100.00,67,0,0,667,733,368,302,2e-27,124
Exophiala_salmonis_CBS157.67_T,SRR9134806.33025,100.00,31,0,0,667,697,270,300,2e-07,58.4
Exophiala_salmonis_CBS157.67_T,SRR9134806.98742,91.19,159,10,4,357,515,1,155,4e-54,213
Exophiala_salmonis_CBS157.67_T,SRR9134806.98742,88.79,116,9,4,400,515,601,490,7e-32,139
Exophiala_salmonis_CBS157.67_T,SRR9134806.98742,100.00,58,0,0,676,733,359,302,2e-22,108
Exophiala_salmonis_CBS157.67_T,SRR9134806.155087,90.57,159,12,3,357,515,1,156,2e-52,207
Exophiala_salmonis_CBS157.67_T,SRR9134806.107504,92.13,127,9,1,357,483,1,126,1e-43,178
Exophiala_salmonis_CBS157.67_T,SRR9134806.107504,95.83,48,2,0,686,733,349,302,1e-13,78.7
Exophiala_salmonis_CBS157.67_T,SRR9134806.151918,95.08,61,3,0,673,733,362,302,4e-19,97.1
Exophiala_aquamarina_CBS119918_T,SRR9134806.98742,90.48,168,11,4,235,402,1,163,2e-55,217
Exophiala_aquamarina_CBS119918_T,SRR9134806.98742,88.00,125,10,4,278,402,601,482,4e-33,143
Exophiala_aquamarina_CBS119918_T,SRR9134806.133393,91.25,160,9,5,235,394,1,155,3e-54,213
Exophiala_aquamarina_CBS119918_T,SRR9134806.113267,91.25,160,9,5,235,394,1,155,3e-54,213
Exophiala_aquamarina_CBS119918_T,SRR9134806.88427,91.25,160,9,5,235,394,1,155,3e-54,213
Exophiala_aquamarina_CBS119918_T,SRR9134806.70054,91.25,160,9,5,235,394,1,155,3e-54,213
Exophiala_aquamarina_CBS119918_T,SRR9134806.33025,91.25,160,9,5,235,394,1,155,3e-54,213
Exophiala_aquamarina_CBS119918_T,SRR9134806.155087,90.00,160,12,4,235,394,1,156,2e-51,204
Exophiala_aquamarina_CBS119918_T,SRR9134806.107504,92.13,127,9,1,235,361,1,126,1e-43,178
Exophiala_cancerae_CBS120420_T,SRR9134806.133393,92.45,159,8,4,250,408,1,155,1e-57,224
Exophiala_cancerae_CBS120420_T,SRR9134806.113267,92.45,159,8,4,250,408,1,155,1e-57,224
Exophiala_cancerae_CBS120420_T,SRR9134806.88427,92.45,159,8,4,250,408,1,155,1e-57,224
Exophiala_cancerae_CBS120420_T,SRR9134806.88427,98.53,68,0,1,557,624,368,302,7e-26,119
Exophiala_cancerae_CBS120420_T,SRR9134806.70054,92.45,159,8,4,250,408,1,155,1e-57,224
Exophiala_cancerae_CBS120420_T,SRR9134806.70054,97.06,34,0,1,557,590,270,302,5e-07,56.5
Exophiala_cancerae_CBS120420_T,SRR9134806.33025,92.45,159,8,4,250,408,1,155,1e-57,224
Exophiala_cancerae_CBS120420_T,SRR9134806.33025,98.53,68,0,1,557,624,368,302,7e-26,119
Exophiala_cancerae_CBS120420_T,SRR9134806.98742,91.82,159,9,4,250,408,1,155,7e-56,219
Exophiala_cancerae_CBS120420_T,SRR9134806.98742,89.66,116,8,4,293,408,601,490,1e-33,145
Exophiala_cancerae_CBS120420_T,SRR9134806.98742,100.00,58,0,0,567,624,359,302,1e-22,108
Exophiala_cancerae_CBS120420_T,SRR9134806.155087,89.94,159,13,3,250,408,1,156,7e-51,202
Exophiala_cancerae_CBS120420_T,SRR9134806.107504,92.13,127,9,1,250,376,1,126,1e-43,178
Exophiala_cancerae_CBS120420_T,SRR9134806.107504,95.83,48,2,0,577,624,349,302,1e-13,78.7
Exophiala_cancerae_CBS120420_T,SRR9134806.151918,93.85,65,3,1,560,624,365,302,3e-19,97.1
Exophiala_tremulae_CBS129355,SRR9134806.133393,91.82,159,9,4,262,420,1,155,7e-56,219
Exophiala_tremulae_CBS129355,SRR9134806.133393,100.00,31,0,0,573,603,270,300,2e-07,58.4
Exophiala_tremulae_CBS129355,SRR9134806.113267,91.82,159,9,4,262,420,1,155,7e-56,219
Exophiala_tremulae_CBS129355,SRR9134806.113267,100.00,31,0,0,573,603,270,300,2e-07,58.4
Exophiala_tremulae_CBS129355,SRR9134806.98742,91.82,159,9,4,262,420,1,155,7e-56,219
Exophiala_tremulae_CBS129355,SRR9134806.98742,89.66,116,8,4,305,420,601,490,1e-33,145
Exophiala_tremulae_CBS129355,SRR9134806.98742,100.00,47,0,0,582,628,359,313,2e-16,87.9
Exophiala_tremulae_CBS129355,SRR9134806.88427,91.82,159,9,4,262,420,1,155,7e-56,219
Exophiala_tremulae_CBS129355,SRR9134806.88427,100.00,56,0,0,573,628,368,313,2e-21,104
Exophiala_tremulae_CBS129355,SRR9134806.88427,100.00,32,0,0,573,604,270,301,4e-08,60.2
Exophiala_tremulae_CBS129355,SRR9134806.70054,91.82,159,9,4,262,420,1,155,7e-56,219
Exophiala_tremulae_CBS129355,SRR9134806.70054,100.00,33,0,0,573,605,270,302,1e-08,62.1
Exophiala_tremulae_CBS129355,SRR9134806.33025,91.82,159,9,4,262,420,1,155,7e-56,219
Exophiala_tremulae_CBS129355,SRR9134806.33025,100.00,56,0,0,573,628,368,313,2e-21,104
Exophiala_tremulae_CBS129355,SRR9134806.33025,100.00,31,0,0,573,603,270,300,2e-07,58.4
Exophiala_tremulae_CBS129355,SRR9134806.155087,90.57,159,12,3,262,420,1,156,1e-52,207
Exophiala_tremulae_CBS129355,SRR9134806.107504,92.13,127,9,1,262,388,1,126,1e-43,178
Exophiala_equina_CBS116009,SRR9134806.133393,91.82,159,9,4,228,386,1,155,6e-56,219
Exophiala_equina_CBS116009,SRR9134806.113267,91.82,159,9,4,228,386,1,155,6e-56,219
Exophiala_equina_CBS116009,SRR9134806.98742,91.82,159,9,4,228,386,1,155,6e-56,219
Exophiala_equina_CBS116009,SRR9134806.98742,89.66,116,8,4,271,386,601,490,1e-33,145
Exophiala_equina_CBS116009,SRR9134806.88427,91.82,159,9,4,228,386,1,155,6e-56,219
Exophiala_equina_CBS116009,SRR9134806.70054,91.82,159,9,4,228,386,1,155,6e-56,219
Exophiala_equina_CBS116009,SRR9134806.33025,91.82,159,9,4,228,386,1,155,6e-56,219
Exophiala_equina_CBS116009,SRR9134806.155087,90.57,159,12,3,228,386,1,156,1e-52,207
Exophiala_equina_CBS116009,SRR9134806.107504,92.13,127,9,1,228,354,1,126,1e-43,178
Exophiala_alcalophila_CBS520.82_T,SRR9134806.133393,90.62,160,10,4,239,398,1,155,1e-52,207
Exophiala_alcalophila_CBS520.82_T,SRR9134806.113267,90.62,160,10,4,239,398,1,155,1e-52,207
Exophiala_alcalophila_CBS520.82_T,SRR9134806.98742,96.09,128,4,1,239,366,1,127,1e-52,207
Exophiala_alcalophila_CBS520.82_T,SRR9134806.98742,95.29,85,3,1,282,366,601,518,2e-30,134
Exophiala_alcalophila_CBS520.82_T,SRR9134806.88427,90.62,160,10,4,239,398,1,155,1e-52,207
Exophiala_alcalophila_CBS520.82_T,SRR9134806.70054,90.62,160,10,4,239,398,1,155,1e-52,207
Exophiala_alcalophila_CBS520.82_T,SRR9134806.33025,90.62,160,10,4,239,398,1,155,1e-52,207
Exophiala_alcalophila_CBS520.82_T,SRR9134806.155087,90.00,160,12,4,239,398,1,156,2e-51,204
Exophiala_alcalophila_CBS520.82_T,SRR9134806.107504,92.13,127,9,1,239,365,1,126,1e-43,178
Exophiala_crusticola_CBS119970_T,SRR9134806.133393,91.25,160,9,4,244,403,1,155,3e-54,213
Exophiala_crusticola_CBS119970_T,SRR9134806.113267,91.25,160,9,4,244,403,1,155,3e-54,213
Exophiala_crusticola_CBS119970_T,SRR9134806.88427,91.25,160,9,4,244,403,1,155,3e-54,213
Exophiala_crusticola_CBS119970_T,SRR9134806.70054,91.25,160,9,4,244,403,1,155,3e-54,213
Exophiala_crusticola_CBS119970_T,SRR9134806.33025,91.25,160,9,4,244,403,1,155,3e-54,213
Exophiala_crusticola_CBS119970_T,SRR9134806.98742,93.66,142,7,2,244,385,1,140,1e-53,211
Exophiala_crusticola_CBS119970_T,SRR9134806.98742,91.92,99,6,2,287,385,601,505,2e-31,137
Exophiala_crusticola_CBS119970_T,SRR9134806.155087,90.45,157,11,4,244,399,1,154,2e-51,204
Exophiala_crusticola_CBS119970_T,SRR9134806.107504,92.13,127,9,1,244,370,1,126,1e-43,178
Rhinocladiella_atrovirens_CBS264.49,SRR9134806.133393,91.08,157,10,4,270,424,1,155,4e-53,209
Rhinocladiella_atrovirens_CBS264.49,SRR9134806.113267,91.08,157,10,4,270,424,1,155,4e-53,209
Rhinocladiella_atrovirens_CBS264.49,SRR9134806.88427,91.08,157,10,4,270,424,1,155,4e-53,209
Rhinocladiella_atrovirens_CBS264.49,SRR9134806.88427,98.18,55,1,0,572,626,368,314,3e-19,97.1
Rhinocladiella_atrovirens_CBS264.49,SRR9134806.70054,91.08,157,10,4,270,424,1,155,4e-53,209
Rhinocladiella_atrovirens_CBS264.49,SRR9134806.33025,91.08,157,10,4,270,424,1,155,4e-53,209
Rhinocladiella_atrovirens_CBS264.49,SRR9134806.33025,98.18,55,1,0,572,626,368,314,3e-19,97.1
Rhinocladiella_atrovirens_CBS264.49,SRR9134806.98742,92.96,142,8,2,270,411,1,140,5e-52,206
Rhinocladiella_atrovirens_CBS264.49,SRR9134806.98742,90.91,99,7,2,313,411,601,505,9e-30,132
Rhinocladiella_atrovirens_CBS264.49,SRR9134806.98742,100.00,46,0,0,581,626,359,314,7e-16,86.1
Rhinocladiella_atrovirens_CBS264.49,SRR9134806.155087,89.66,145,13,2,270,414,1,143,2e-45,183
Rhinocladiella_atrovirens_CBS264.49,SRR9134806.107504,88.89,144,13,3,270,413,1,141,1e-42,174
Rhinocladiella_basitona_CBS101460_T,SRR9134806.133393,91.19,159,10,4,229,387,1,155,3e-54,213
Rhinocladiella_basitona_CBS101460_T,SRR9134806.113267,91.19,159,10,4,229,387,1,155,3e-54,213
Rhinocladiella_basitona_CBS101460_T,SRR9134806.98742,91.19,159,10,4,229,387,1,155,3e-54,213
Rhinocladiella_basitona_CBS101460_T,SRR9134806.98742,88.79,116,9,4,272,387,601,490,5e-32,139
Rhinocladiella_basitona_CBS101460_T,SRR9134806.88427,91.19,159,10,4,229,387,1,155,3e-54,213
Rhinocladiella_basitona_CBS101460_T,SRR9134806.70054,91.19,159,10,4,229,387,1,155,3e-54,213
Rhinocladiella_basitona_CBS101460_T,SRR9134806.33025,91.19,159,10,4,229,387,1,155,3e-54,213
Rhinocladiella_basitona_CBS101460_T,SRR9134806.155087,89.94,159,13,3,229,387,1,156,6e-51,202
Rhinocladiella_basitona_CBS101460_T,SRR9134806.107504,91.34,127,10,1,229,355,1,126,4e-42,172
Rhinocladiella_phaeophora_CBS496.78_T,SRR9134806.133393,91.72,157,9,4,237,391,1,155,8e-55,215
Rhinocladiella_phaeophora_CBS496.78_T,SRR9134806.113267,91.72,157,9,4,237,391,1,155,8e-55,215
Rhinocladiella_phaeophora_CBS496.78_T,SRR9134806.88427,91.72,157,9,4,237,391,1,155,8e-55,215
Rhinocladiella_phaeophora_CBS496.78_T,SRR9134806.70054,91.72,157,9,4,237,391,1,155,8e-55,215
Rhinocladiella_phaeophora_CBS496.78_T,SRR9134806.33025,91.72,157,9,4,237,391,1,155,8e-55,215
Rhinocladiella_phaeophora_CBS496.78_T,SRR9134806.98742,93.66,142,7,2,237,378,1,140,1e-53,211
Rhinocladiella_phaeophora_CBS496.78_T,SRR9134806.98742,91.92,99,6,2,280,378,601,505,2e-31,137
Rhinocladiella_phaeophora_CBS496.78_T,SRR9134806.155087,89.44,161,12,5,237,397,1,156,8e-50,198
Rhinocladiella_phaeophora_CBS496.78_T,SRR9134806.107504,92.13,127,9,1,237,363,1,126,1e-43,178
Rhinocladiella_aquaspersa_CBS313.73_T,SRR9134806.133393,91.72,157,9,4,231,385,1,155,9e-55,215
Rhinocladiella_aquaspersa_CBS313.73_T,SRR9134806.113267,91.72,157,9,4,231,385,1,155,9e-55,215
Rhinocladiella_aquaspersa_CBS313.73_T,SRR9134806.88427,91.72,157,9,4,231,385,1,155,9e-55,215
Rhinocladiella_aquaspersa_CBS313.73_T,SRR9134806.88427,92.00,75,2,4,535,606,374,301,7e-21,102
Rhinocladiella_aquaspersa_CBS313.73_T,SRR9134806.70054,91.72,157,9,4,231,385,1,155,9e-55,215
Rhinocladiella_aquaspersa_CBS313.73_T,SRR9134806.33025,91.72,157,9,4,231,385,1,155,9e-55,215
Rhinocladiella_aquaspersa_CBS313.73_T,SRR9134806.33025,91.89,74,2,4,535,605,374,302,3e-20,100
Rhinocladiella_aquaspersa_CBS313.73_T,SRR9134806.98742,93.66,142,7,2,231,372,1,140,1e-53,211
Rhinocladiella_aquaspersa_CBS313.73_T,SRR9134806.98742,91.92,99,6,2,274,372,601,505,2e-31,137
Rhinocladiella_aquaspersa_CBS313.73_T,SRR9134806.98742,91.67,72,2,4,538,605,373,302,3e-19,97.1
Rhinocladiella_aquaspersa_CBS313.73_T,SRR9134806.155087,89.44,161,12,5,231,391,1,156,9e-50,198
Rhinocladiella_aquaspersa_CBS313.73_T,SRR9134806.107504,92.13,127,9,1,231,357,1,126,1e-43,178
Rhinocladiella_aquaspersa_CBS313.73_T,SRR9134806.107504,90.91,55,3,2,553,605,356,302,6e-12,73.1
Rhinocladiella_aquaspersa_CBS313.73_T,SRR9134806.151918,90.16,61,3,3,548,605,362,302,4e-13,76.8
Rhinocladiella_fasciculata_CBS132.86_T,SRR9134806.133393,92.31,143,9,2,247,389,1,141,6e-51,202
Rhinocladiella_fasciculata_CBS132.86_T,SRR9134806.113267,92.31,143,9,2,247,389,1,141,6e-51,202
Rhinocladiella_fasciculata_CBS132.86_T,SRR9134806.98742,95.31,128,5,1,247,374,1,127,6e-51,202
Rhinocladiella_fasciculata_CBS132.86_T,SRR9134806.98742,94.12,85,4,1,290,374,601,518,1e-28,128
Rhinocladiella_fasciculata_CBS132.86_T,SRR9134806.88427,92.31,143,9,2,247,389,1,141,6e-51,202
Rhinocladiella_fasciculata_CBS132.86_T,SRR9134806.70054,92.31,143,9,2,247,389,1,141,6e-51,202
Rhinocladiella_fasciculata_CBS132.86_T,SRR9134806.33025,92.31,143,9,2,247,389,1,141,6e-51,202
Rhinocladiella_fasciculata_CBS132.86_T,SRR9134806.155087,88.27,162,13,5,247,408,1,156,5e-47,189
Rhinocladiella_fasciculata_CBS132.86_T,SRR9134806.107504,91.34,127,10,1,247,373,1,126,5e-42,172
Rhinocladiella_anceps_CBS181.65_T,SRR9134806.98742,93.66,142,7,2,229,370,1,140,1e-53,211
Rhinocladiella_anceps_CBS181.65_T,SRR9134806.98742,91.92,99,6,2,272,370,601,505,2e-31,137
Rhinocladiella_anceps_CBS181.65_T,SRR9134806.133393,90.00,160,11,4,229,388,1,155,6e-51,202
Rhinocladiella_anceps_CBS181.65_T,SRR9134806.113267,90.00,160,11,4,229,388,1,155,6e-51,202
Rhinocladiella_anceps_CBS181.65_T,SRR9134806.88427,90.00,160,11,4,229,388,1,155,6e-51,202
Rhinocladiella_anceps_CBS181.65_T,SRR9134806.70054,90.00,160,11,4,229,388,1,155,6e-51,202
Rhinocladiella_anceps_CBS181.65_T,SRR9134806.33025,90.00,160,11,4,229,388,1,155,6e-51,202
Rhinocladiella_anceps_CBS181.65_T,SRR9134806.155087,88.75,160,14,4,229,388,1,156,3e-48,193
Rhinocladiella_anceps_CBS181.65_T,SRR9134806.107504,91.34,127,10,1,229,355,1,126,5e-42,172
Rhinocladiella_mackenziei_CBS367.92,SRR9134806.98742,93.62,141,7,2,218,358,1,139,4e-53,209
Rhinocladiella_mackenziei_CBS367.92,SRR9134806.98742,91.84,98,6,2,261,358,601,506,7e-31,135
Rhinocladiella_mackenziei_CBS367.92,SRR9134806.98742,100.00,41,0,0,568,608,359,319,4e-13,76.8
Rhinocladiella_mackenziei_CBS367.92,SRR9134806.133393,92.91,141,8,2,218,358,1,139,2e-51,204
Rhinocladiella_mackenziei_CBS367.92,SRR9134806.113267,92.91,141,8,2,218,358,1,139,2e-51,204
Rhinocladiella_mackenziei_CBS367.92,SRR9134806.88427,92.91,141,8,2,218,358,1,139,2e-51,204
Rhinocladiella_mackenziei_CBS367.92,SRR9134806.88427,96.08,51,1,1,558,608,368,319,9e-15,82.4
Rhinocladiella_mackenziei_CBS367.92,SRR9134806.70054,92.91,141,8,2,218,358,1,139,2e-51,204
Rhinocladiella_mackenziei_CBS367.92,SRR9134806.33025,92.91,141,8,2,218,358,1,139,2e-51,204
Rhinocladiella_mackenziei_CBS367.92,SRR9134806.33025,96.08,51,1,1,558,608,368,319,9e-15,82.4
Rhinocladiella_mackenziei_CBS367.92,SRR9134806.155087,90.41,146,11,3,218,363,1,143,5e-47,189
Rhinocladiella_mackenziei_CBS367.92,SRR9134806.107504,92.13,127,9,1,218,344,1,126,1e-43,178
Veronaea_compacta_CBS268.75_T,SRR9134806.133393,90.62,160,10,5,251,410,1,155,1e-52,207
Veronaea_compacta_CBS268.75_T,SRR9134806.113267,90.62,160,10,5,251,410,1,155,1e-52,207
Veronaea_compacta_CBS268.75_T,SRR9134806.88427,90.62,160,10,5,251,410,1,155,1e-52,207
Veronaea_compacta_CBS268.75_T,SRR9134806.70054,90.62,160,10,5,251,410,1,155,1e-52,207
Veronaea_compacta_CBS268.75_T,SRR9134806.33025,90.62,160,10,5,251,410,1,155,1e-52,207
Veronaea_compacta_CBS268.75_T,SRR9134806.98742,95.31,128,5,1,251,378,1,127,6e-51,202
Veronaea_compacta_CBS268.75_T,SRR9134806.98742,94.12,85,4,1,294,378,601,518,1e-28,128
Veronaea_compacta_CBS268.75_T,SRR9134806.155087,89.38,160,13,4,251,410,1,156,8e-50,198
Veronaea_compacta_CBS268.75_T,SRR9134806.107504,91.34,127,10,1,251,377,1,126,5e-42,172
Capronia_pilosella_AFTOL-ID657,SRR9134806.133393,91.25,160,9,4,329,488,1,155,3e-54,213
Capronia_pilosella_AFTOL-ID657,SRR9134806.113267,91.25,160,9,4,329,488,1,155,3e-54,213
Capronia_pilosella_AFTOL-ID657,SRR9134806.98742,91.25,160,9,4,329,488,1,155,3e-54,213
Capronia_pilosella_AFTOL-ID657,SRR9134806.98742,88.89,117,8,4,372,488,601,490,6e-32,139
Capronia_pilosella_AFTOL-ID657,SRR9134806.88427,91.25,160,9,4,329,488,1,155,3e-54,213
Capronia_pilosella_AFTOL-ID657,SRR9134806.70054,91.25,160,9,4,329,488,1,155,3e-54,213
Capronia_pilosella_AFTOL-ID657,SRR9134806.33025,91.25,160,9,4,329,488,1,155,3e-54,213
Capronia_pilosella_AFTOL-ID657,SRR9134806.155087,90.62,160,11,4,329,488,1,156,4e-53,209
Capronia_pilosella_AFTOL-ID657,SRR9134806.107504,92.13,127,9,1,329,455,1,126,1e-43,178
Capronia_dactylotricha_DAOM208471_T,SRR9134806.98742,94.41,143,5,3,231,373,1,140,2e-55,217
Capronia_dactylotricha_DAOM208471_T,SRR9134806.98742,93.00,100,4,3,274,373,601,505,4e-33,143
Capronia_dactylotricha_DAOM208471_T,SRR9134806.98742,100.00,58,0,0,561,618,359,302,2e-22,108
Capronia_dactylotricha_DAOM208471_T,SRR9134806.133393,91.14,158,9,4,231,386,1,155,4e-53,209
Capronia_dactylotricha_DAOM208471_T,SRR9134806.113267,91.14,158,9,4,231,386,1,155,4e-53,209
Capronia_dactylotricha_DAOM208471_T,SRR9134806.88427,91.14,158,9,4,231,386,1,155,4e-53,209
Capronia_dactylotricha_DAOM208471_T,SRR9134806.88427,100.00,62,0,0,558,619,362,301,9e-25,115
Capronia_dactylotricha_DAOM208471_T,SRR9134806.70054,91.14,158,9,4,231,386,1,155,4e-53,209
Capronia_dactylotricha_DAOM208471_T,SRR9134806.33025,91.14,158,9,4,231,386,1,155,4e-53,209
Capronia_dactylotricha_DAOM208471_T,SRR9134806.33025,100.00,61,0,0,558,618,362,302,3e-24,113
Capronia_dactylotricha_DAOM208471_T,SRR9134806.155087,90.41,146,11,2,231,376,1,143,5e-47,189
Capronia_dactylotricha_DAOM208471_T,SRR9134806.107504,92.13,127,9,1,231,357,1,126,1e-43,178
Capronia_dactylotricha_DAOM208471_T,SRR9134806.107504,95.83,48,2,0,571,618,349,302,1e-13,78.7
Capronia_dactylotricha_DAOM208471_T,SRR9134806.151918,95.16,62,3,0,557,618,363,302,9e-20,99.0
Capronia_kleinmondensis_CBS122671_T,SRR9134806.133393,91.08,157,10,4,256,410,1,155,4e-53,209
Capronia_kleinmondensis_CBS122671_T,SRR9134806.113267,91.08,157,10,4,256,410,1,155,4e-53,209
Capronia_kleinmondensis_CBS122671_T,SRR9134806.88427,91.08,157,10,4,256,410,1,155,4e-53,209
Capronia_kleinmondensis_CBS122671_T,SRR9134806.88427,100.00,62,0,0,564,625,362,301,9e-25,115
Capronia_kleinmondensis_CBS122671_T,SRR9134806.70054,91.08,157,10,4,256,410,1,155,4e-53,209
Capronia_kleinmondensis_CBS122671_T,SRR9134806.33025,91.08,157,10,4,256,410,1,155,4e-53,209
Capronia_kleinmondensis_CBS122671_T,SRR9134806.33025,100.00,61,0,0,564,624,362,302,3e-24,113
Capronia_kleinmondensis_CBS122671_T,SRR9134806.98742,92.96,142,8,2,256,397,1,140,5e-52,206
Capronia_kleinmondensis_CBS122671_T,SRR9134806.98742,90.91,99,7,2,299,397,601,505,9e-30,132
Capronia_kleinmondensis_CBS122671_T,SRR9134806.98742,100.00,58,0,0,567,624,359,302,2e-22,108
Capronia_kleinmondensis_CBS122671_T,SRR9134806.155087,89.66,145,13,2,256,400,1,143,3e-45,183
Capronia_kleinmondensis_CBS122671_T,SRR9134806.107504,88.89,144,13,3,256,399,1,141,2e-42,174
Capronia_kleinmondensis_CBS122671_T,SRR9134806.107504,95.83,48,2,0,577,624,349,302,1e-13,78.7
Capronia_kleinmondensis_CBS122671_T,SRR9134806.151918,95.16,62,3,0,563,624,363,302,9e-20,99.0
Capronia_mansonii_CBS101.67_T,SRR9134806.133393,91.88,160,8,5,242,401,1,155,7e-56,219
Capronia_mansonii_CBS101.67_T,SRR9134806.113267,91.88,160,8,5,242,401,1,155,7e-56,219
Capronia_mansonii_CBS101.67_T,SRR9134806.88427,91.88,160,8,5,242,401,1,155,7e-56,219
Capronia_mansonii_CBS101.67_T,SRR9134806.88427,97.06,68,1,1,563,629,368,301,3e-24,113
Capronia_mansonii_CBS101.67_T,SRR9134806.70054,91.88,160,8,5,242,401,1,155,7e-56,219
Capronia_mansonii_CBS101.67_T,SRR9134806.33025,91.88,160,8,5,242,401,1,155,7e-56,219
Capronia_mansonii_CBS101.67_T,SRR9134806.33025,97.01,67,1,1,563,628,368,302,1e-23,111
Capronia_mansonii_CBS101.67_T,SRR9134806.98742,90.06,171,11,4,242,412,1,165,3e-55,217
Capronia_mansonii_CBS101.67_T,SRR9134806.98742,87.50,128,10,4,285,412,601,480,4e-33,143
Capronia_mansonii_CBS101.67_T,SRR9134806.98742,98.28,58,1,0,571,628,359,302,7e-21,102
Capronia_mansonii_CBS101.67_T,SRR9134806.155087,90.00,160,12,4,242,401,1,156,2e-51,204
Capronia_mansonii_CBS101.67_T,SRR9134806.107504,92.13,127,9,1,242,368,1,126,1e-43,178
Capronia_mansonii_CBS101.67_T,SRR9134806.107504,97.92,48,1,0,581,628,349,302,3e-15,84.2
Capronia_mansonii_CBS101.67_T,SRR9134806.151918,93.44,61,4,0,568,628,362,302,2e-17,91.6
Capronia_munkii_DAOM216390_T,SRR9134806.133393,91.88,160,8,5,242,401,1,155,7e-56,219
Capronia_munkii_DAOM216390_T,SRR9134806.133393,100.00,28,0,0,563,590,271,298,8e-06,52.8
Capronia_munkii_DAOM216390_T,SRR9134806.113267,91.88,160,8,5,242,401,1,155,7e-56,219
Capronia_munkii_DAOM216390_T,SRR9134806.113267,100.00,28,0,0,563,590,271,298,8e-06,52.8
Capronia_munkii_DAOM216390_T,SRR9134806.88427,91.88,160,8,5,242,401,1,155,7e-56,219
Capronia_munkii_DAOM216390_T,SRR9134806.88427,98.51,67,1,0,563,629,367,301,7e-26,119
Capronia_munkii_DAOM216390_T,SRR9134806.88427,100.00,28,0,0,563,590,271,298,8e-06,52.8
Capronia_munkii_DAOM216390_T,SRR9134806.70054,91.88,160,8,5,242,401,1,155,7e-56,219
Capronia_munkii_DAOM216390_T,SRR9134806.70054,96.88,32,1,0,563,594,271,302,2e-06,54.7
Capronia_munkii_DAOM216390_T,SRR9134806.33025,91.88,160,8,5,242,401,1,155,7e-56,219
Capronia_munkii_DAOM216390_T,SRR9134806.33025,98.48,66,1,0,563,628,367,302,3e-25,117
Capronia_munkii_DAOM216390_T,SRR9134806.33025,92.50,40,1,2,563,600,271,310,6e-07,56.5
Capronia_munkii_DAOM216390_T,SRR9134806.98742,90.06,171,11,4,242,412,1,165,3e-55,217
Capronia_munkii_DAOM216390_T,SRR9134806.98742,87.50,128,10,4,285,412,601,480,4e-33,143
Capronia_munkii_DAOM216390_T,SRR9134806.98742,98.28,58,1,0,571,628,359,302,7e-21,102
Capronia_munkii_DAOM216390_T,SRR9134806.155087,90.00,160,12,4,242,401,1,156,2e-51,204
Capronia_munkii_DAOM216390_T,SRR9134806.107504,92.13,127,9,1,242,368,1,126,1e-43,178
Capronia_munkii_DAOM216390_T,SRR9134806.107504,97.92,48,1,0,581,628,349,302,3e-15,84.2
Capronia_munkii_DAOM216390_T,SRR9134806.151918,93.44,61,4,0,568,628,362,302,2e-17,91.6
Capronia_coronata_ATCC56201_T,SRR9134806.133393,90.62,160,10,4,230,389,1,155,1e-52,207
Capronia_coronata_ATCC56201_T,SRR9134806.113267,90.62,160,10,4,230,389,1,155,1e-52,207
Capronia_coronata_ATCC56201_T,SRR9134806.98742,96.09,128,4,1,230,357,1,127,1e-52,207
Capronia_coronata_ATCC56201_T,SRR9134806.98742,95.29,85,3,1,273,357,601,518,2e-30,134
Capronia_coronata_ATCC56201_T,SRR9134806.98742,94.20,69,3,1,532,599,370,302,2e-21,104
Capronia_coronata_ATCC56201_T,SRR9134806.88427,90.62,160,10,4,230,389,1,155,1e-52,207
Capronia_coronata_ATCC56201_T,SRR9134806.88427,97.06,68,1,1,534,600,368,301,3e-24,113
Capronia_coronata_ATCC56201_T,SRR9134806.70054,90.62,160,10,4,230,389,1,155,1e-52,207
Capronia_coronata_ATCC56201_T,SRR9134806.33025,90.62,160,10,4,230,389,1,155,1e-52,207
Capronia_coronata_ATCC56201_T,SRR9134806.33025,97.01,67,1,1,534,599,368,302,1e-23,111
Capronia_coronata_ATCC56201_T,SRR9134806.155087,90.00,160,12,4,230,389,1,156,2e-51,204
Capronia_coronata_ATCC56201_T,SRR9134806.107504,92.13,127,9,1,230,356,1,126,1e-43,178
Capronia_coronata_ATCC56201_T,SRR9134806.107504,97.92,48,1,0,552,599,349,302,3e-15,84.2
Capronia_coronata_ATCC56201_T,SRR9134806.151918,93.44,61,4,0,539,599,362,302,2e-17,91.6
Capronia_parasitica_CBS123.88,SRR9134806.133393,93.57,140,7,2,236,375,1,138,1e-52,207
Capronia_parasitica_CBS123.88,SRR9134806.113267,93.57,140,7,2,236,375,1,138,1e-52,207
Capronia_parasitica_CBS123.88,SRR9134806.98742,96.09,128,4,1,236,363,1,127,1e-52,207
Capronia_parasitica_CBS123.88,SRR9134806.98742,95.29,85,3,1,279,363,601,518,2e-30,134
Capronia_parasitica_CBS123.88,SRR9134806.98742,100.00,33,0,0,563,595,359,327,1e-08,62.1
Capronia_parasitica_CBS123.88,SRR9134806.88427,93.57,140,7,2,236,375,1,138,1e-52,207
Capronia_parasitica_CBS123.88,SRR9134806.88427,100.00,37,0,0,559,595,363,327,7e-11,69.4
Capronia_parasitica_CBS123.88,SRR9134806.70054,93.57,140,7,2,236,375,1,138,1e-52,207
Capronia_parasitica_CBS123.88,SRR9134806.70054,100.00,28,0,0,559,586,275,302,7e-06,52.8
Capronia_parasitica_CBS123.88,SRR9134806.33025,93.57,140,7,2,236,375,1,138,1e-52,207
Capronia_parasitica_CBS123.88,SRR9134806.33025,100.00,37,0,0,559,595,363,327,7e-11,69.4
Capronia_parasitica_CBS123.88,SRR9134806.155087,87.65,162,14,6,236,397,1,156,2e-45,183
Capronia_parasitica_CBS123.88,SRR9134806.107504,90.07,141,11,3,236,376,1,138,3e-44,180
Veronaea_japonica_CBS776.83_T,SRR9134806.133393,91.82,159,9,4,264,422,1,155,6e-56,219
Veronaea_japonica_CBS776.83_T,SRR9134806.113267,91.82,159,9,4,264,422,1,155,6e-56,219
Veronaea_japonica_CBS776.83_T,SRR9134806.88427,91.82,159,9,4,264,422,1,155,6e-56,219
Veronaea_japonica_CBS776.83_T,SRR9134806.70054,91.82,159,9,4,264,422,1,155,6e-56,219
Veronaea_japonica_CBS776.83_T,SRR9134806.33025,91.82,159,9,4,264,422,1,155,6e-56,219
Veronaea_japonica_CBS776.83_T,SRR9134806.98742,91.19,159,10,4,264,422,1,155,3e-54,213
Veronaea_japonica_CBS776.83_T,SRR9134806.98742,88.79,116,9,4,307,422,601,490,5e-32,139
Veronaea_japonica_CBS776.83_T,SRR9134806.155087,90.57,159,12,3,264,422,1,156,1e-52,207
Veronaea_japonica_CBS776.83_T,SRR9134806.107504,92.13,127,9,1,264,390,1,126,1e-43,178
Thysanorea_papuana_CBS212.96_T,SRR9134806.133393,91.82,159,9,4,238,396,1,155,6e-56,219
Thysanorea_papuana_CBS212.96_T,SRR9134806.133393,100.00,28,0,0,550,577,270,297,6e-06,52.8
Thysanorea_papuana_CBS212.96_T,SRR9134806.113267,91.82,159,9,4,238,396,1,155,6e-56,219
Thysanorea_papuana_CBS212.96_T,SRR9134806.113267,100.00,28,0,0,550,577,270,297,6e-06,52.8
Thysanorea_papuana_CBS212.96_T,SRR9134806.98742,91.82,159,9,3,238,396,1,155,6e-56,219
Thysanorea_papuana_CBS212.96_T,SRR9134806.98742,89.66,116,8,3,281,396,601,490,1e-33,145
Thysanorea_papuana_CBS212.96_T,SRR9134806.88427,91.82,159,9,4,238,396,1,155,6e-56,219
Thysanorea_papuana_CBS212.96_T,SRR9134806.88427,100.00,28,0,0,550,577,270,297,6e-06,52.8
Thysanorea_papuana_CBS212.96_T,SRR9134806.88427,100.00,28,0,0,550,577,368,341,6e-06,52.8
Thysanorea_papuana_CBS212.96_T,SRR9134806.70054,91.82,159,9,4,238,396,1,155,6e-56,219
Thysanorea_papuana_CBS212.96_T,SRR9134806.70054,100.00,28,0,0,550,577,270,297,6e-06,52.8
Thysanorea_papuana_CBS212.96_T,SRR9134806.33025,91.82,159,9,4,238,396,1,155,6e-56,219
Thysanorea_papuana_CBS212.96_T,SRR9134806.33025,100.00,28,0,0,550,577,270,297,6e-06,52.8
Thysanorea_papuana_CBS212.96_T,SRR9134806.33025,100.00,28,0,0,550,577,368,341,6e-06,52.8
Thysanorea_papuana_CBS212.96_T,SRR9134806.155087,90.57,159,12,3,238,396,1,156,1e-52,207
Thysanorea_papuana_CBS212.96_T,SRR9134806.107504,92.13,127,9,1,238,364,1,126,1e-43,178
Capronia_acutiseta_ATCC56428_T,SRR9134806.133393,92.41,145,8,3,232,375,1,143,2e-51,204
Capronia_acutiseta_ATCC56428_T,SRR9134806.113267,92.41,145,8,3,232,375,1,143,2e-51,204
Capronia_acutiseta_ATCC56428_T,SRR9134806.88427,92.41,145,8,3,232,375,1,143,2e-51,204
Capronia_acutiseta_ATCC56428_T,SRR9134806.88427,98.55,69,0,1,531,599,368,301,2e-26,121
Capronia_acutiseta_ATCC56428_T,SRR9134806.70054,92.41,145,8,3,232,375,1,143,2e-51,204
Capronia_acutiseta_ATCC56428_T,SRR9134806.70054,97.06,34,0,1,531,564,270,302,6e-07,56.5
Capronia_acutiseta_ATCC56428_T,SRR9134806.33025,92.41,145,8,3,232,375,1,143,2e-51,204
Capronia_acutiseta_ATCC56428_T,SRR9134806.33025,98.53,68,0,1,531,598,368,302,7e-26,119
Capronia_acutiseta_ATCC56428_T,SRR9134806.98742,95.31,128,4,2,232,358,1,127,7e-51,202
Capronia_acutiseta_ATCC56428_T,SRR9134806.98742,95.29,85,3,1,274,358,601,518,2e-30,134
Capronia_acutiseta_ATCC56428_T,SRR9134806.98742,100.00,58,0,0,541,598,359,302,2e-22,108
Capronia_acutiseta_ATCC56428_T,SRR9134806.155087,88.20,161,13,6,232,391,1,156,2e-46,187
Capronia_acutiseta_ATCC56428_T,SRR9134806.151918,93.85,65,3,1,534,598,365,302,3e-19,97.1
Capronia_acutiseta_ATCC56428_T,SRR9134806.107504,95.83,48,2,0,551,598,349,302,1e-13,78.7
Fonsecaea_brasiliensis_CBS119710_T,SRR9134806.98742,90.48,168,11,3,238,405,1,163,2e-55,217
Fonsecaea_brasiliensis_CBS119710_T,SRR9134806.98742,88.00,125,10,3,281,405,601,482,4e-33,143
Fonsecaea_brasiliensis_CBS119710_T,SRR9134806.133393,91.25,160,9,4,238,397,1,155,3e-54,213
Fonsecaea_brasiliensis_CBS119710_T,SRR9134806.113267,91.25,160,9,4,238,397,1,155,3e-54,213
Fonsecaea_brasiliensis_CBS119710_T,SRR9134806.88427,91.25,160,9,4,238,397,1,155,3e-54,213
Fonsecaea_brasiliensis_CBS119710_T,SRR9134806.70054,91.25,160,9,4,238,397,1,155,3e-54,213
Fonsecaea_brasiliensis_CBS119710_T,SRR9134806.33025,91.25,160,9,4,238,397,1,155,3e-54,213
Fonsecaea_brasiliensis_CBS119710_T,SRR9134806.155087,90.00,160,12,4,238,397,1,156,2e-51,204
Fonsecaea_brasiliensis_CBS119710_T,SRR9134806.107504,92.13,127,9,1,238,364,1,126,1e-43,178
Fonsecaea_pedrosoi_CBS271.37_T,SRR9134806.98742,90.53,169,10,4,266,434,1,163,7e-56,219
Fonsecaea_pedrosoi_CBS271.37_T,SRR9134806.98742,88.10,126,9,4,309,434,601,482,1e-33,145
Fonsecaea_pedrosoi_CBS271.37_T,SRR9134806.98742,96.55,58,2,0,588,645,359,302,3e-19,97.1
Fonsecaea_pedrosoi_CBS271.37_T,SRR9134806.133393,90.68,161,9,5,266,426,1,155,4e-53,209
Fonsecaea_pedrosoi_CBS271.37_T,SRR9134806.113267,90.68,161,9,5,266,426,1,155,4e-53,209
Fonsecaea_pedrosoi_CBS271.37_T,SRR9134806.88427,90.68,161,9,5,266,426,1,155,4e-53,209
Fonsecaea_pedrosoi_CBS271.37_T,SRR9134806.88427,95.52,67,3,0,579,645,368,302,2e-22,108
Fonsecaea_pedrosoi_CBS271.37_T,SRR9134806.70054,90.68,161,9,5,266,426,1,155,4e-53,209
Fonsecaea_pedrosoi_CBS271.37_T,SRR9134806.33025,90.68,161,9,5,266,426,1,155,4e-53,209
Fonsecaea_pedrosoi_CBS271.37_T,SRR9134806.33025,95.52,67,3,0,579,645,368,302,2e-22,108
Fonsecaea_pedrosoi_CBS271.37_T,SRR9134806.155087,89.44,161,12,5,266,426,1,156,9e-50,198
Fonsecaea_pedrosoi_CBS271.37_T,SRR9134806.107504,92.13,127,9,1,266,392,1,126,1e-43,178
Fonsecaea_pedrosoi_CBS271.37_T,SRR9134806.107504,95.83,48,2,0,598,645,349,302,1e-13,78.7
Fonsecaea_pedrosoi_CBS271.37_T,SRR9134806.151918,91.80,61,5,0,585,645,362,302,7e-16,86.1
Fonsecaea_multimorphosa_CBS980.96_T,SRR9134806.133393,91.88,160,8,4,236,395,1,155,6e-56,219
Fonsecaea_multimorphosa_CBS980.96_T,SRR9134806.113267,91.88,160,8,4,236,395,1,155,6e-56,219
Fonsecaea_multimorphosa_CBS980.96_T,SRR9134806.98742,91.88,160,8,3,236,395,1,155,6e-56,219
Fonsecaea_multimorphosa_CBS980.96_T,SRR9134806.98742,89.74,117,7,3,279,395,601,490,1e-33,145
Fonsecaea_multimorphosa_CBS980.96_T,SRR9134806.88427,91.88,160,8,4,236,395,1,155,6e-56,219
Fonsecaea_multimorphosa_CBS980.96_T,SRR9134806.70054,91.88,160,8,4,236,395,1,155,6e-56,219
Fonsecaea_multimorphosa_CBS980.96_T,SRR9134806.33025,91.88,160,8,4,236,395,1,155,6e-56,219
Fonsecaea_multimorphosa_CBS980.96_T,SRR9134806.155087,89.38,160,13,4,236,395,1,156,8e-50,198
Fonsecaea_multimorphosa_CBS980.96_T,SRR9134806.107504,92.13,127,9,1,236,362,1,126,1e-43,178
Fonsecaea_minima_CBS125760_T,SRR9134806.133393,91.25,160,9,4,232,391,1,155,3e-54,213
Fonsecaea_minima_CBS125760_T,SRR9134806.113267,91.25,160,9,4,232,391,1,155,3e-54,213
Fonsecaea_minima_CBS125760_T,SRR9134806.98742,91.25,160,9,3,232,391,1,155,3e-54,213
Fonsecaea_minima_CBS125760_T,SRR9134806.98742,88.89,117,8,3,275,391,601,490,5e-32,139
Fonsecaea_minima_CBS125760_T,SRR9134806.88427,91.25,160,9,4,232,391,1,155,3e-54,213
Fonsecaea_minima_CBS125760_T,SRR9134806.70054,91.25,160,9,4,232,391,1,155,3e-54,213
Fonsecaea_minima_CBS125760_T,SRR9134806.33025,91.25,160,9,4,232,391,1,155,3e-54,213
Fonsecaea_minima_CBS125760_T,SRR9134806.155087,90.00,160,12,4,232,391,1,156,2e-51,204
Fonsecaea_minima_CBS125760_T,SRR9134806.107504,92.13,127,9,1,232,358,1,126,1e-43,178
Fonsecaea_nubica_CBS269.64_T,SRR9134806.133393,91.30,161,8,5,243,403,1,155,8e-55,215
Fonsecaea_nubica_CBS269.64_T,SRR9134806.113267,91.30,161,8,5,243,403,1,155,8e-55,215
Fonsecaea_nubica_CBS269.64_T,SRR9134806.88427,91.30,161,8,5,243,403,1,155,8e-55,215
Fonsecaea_nubica_CBS269.64_T,SRR9134806.70054,91.30,161,8,5,243,403,1,155,8e-55,215
Fonsecaea_nubica_CBS269.64_T,SRR9134806.33025,91.30,161,8,5,243,403,1,155,8e-55,215
Fonsecaea_nubica_CBS269.64_T,SRR9134806.98742,90.68,161,9,4,243,403,1,155,4e-53,209
Fonsecaea_nubica_CBS269.64_T,SRR9134806.98742,88.14,118,8,4,286,403,601,490,6e-31,135
Fonsecaea_nubica_CBS269.64_T,SRR9134806.155087,89.44,161,12,5,243,403,1,156,8e-50,198
Fonsecaea_nubica_CBS269.64_T,SRR9134806.107504,92.13,127,9,1,243,369,1,126,1e-43,178
Fonsecaea_monophora_CBS269.37_T,SRR9134806.98742,90.00,170,10,5,243,412,1,163,3e-54,213
Fonsecaea_monophora_CBS269.37_T,SRR9134806.98742,88.10,126,9,4,287,412,601,482,1e-33,145
Fonsecaea_monophora_CBS269.37_T,SRR9134806.133393,90.12,162,9,6,243,404,1,155,2e-51,204
Fonsecaea_monophora_CBS269.37_T,SRR9134806.113267,90.12,162,9,6,243,404,1,155,2e-51,204
Fonsecaea_monophora_CBS269.37_T,SRR9134806.88427,90.12,162,9,6,243,404,1,155,2e-51,204
Fonsecaea_monophora_CBS269.37_T,SRR9134806.70054,90.12,162,9,6,243,404,1,155,2e-51,204
Fonsecaea_monophora_CBS269.37_T,SRR9134806.33025,90.12,162,9,6,243,404,1,155,2e-51,204
Fonsecaea_monophora_CBS269.37_T,SRR9134806.155087,88.89,162,12,6,243,404,1,156,1e-48,195
Fonsecaea_erecta_CBS125763_T,SRR9134806.133393,91.88,160,8,4,227,386,1,155,6e-56,219
Fonsecaea_erecta_CBS125763_T,SRR9134806.113267,91.88,160,8,4,227,386,1,155,6e-56,219
Fonsecaea_erecta_CBS125763_T,SRR9134806.98742,91.88,160,8,4,227,386,1,155,6e-56,219
Fonsecaea_erecta_CBS125763_T,SRR9134806.98742,89.74,117,7,4,270,386,601,490,1e-33,145
Fonsecaea_erecta_CBS125763_T,SRR9134806.88427,91.88,160,8,4,227,386,1,155,6e-56,219
Fonsecaea_erecta_CBS125763_T,SRR9134806.70054,91.88,160,8,4,227,386,1,155,6e-56,219
Fonsecaea_erecta_CBS125763_T,SRR9134806.33025,91.88,160,8,4,227,386,1,155,6e-56,219
Fonsecaea_erecta_CBS125763_T,SRR9134806.155087,90.00,160,12,4,227,386,1,156,2e-51,204
Fonsecaea_erecta_CBS125763_T,SRR9134806.107504,92.13,127,9,1,227,353,1,126,9e-44,178
Fonsecaea_pugnacius_CBS139214_T,SRR9134806.98742,90.74,162,8,4,236,397,1,155,3e-53,209
Fonsecaea_pugnacius_CBS139214_T,SRR9134806.98742,88.24,119,7,4,279,397,601,490,6e-31,135
Fonsecaea_pugnacius_CBS139214_T,SRR9134806.133393,93.06,144,7,3,236,379,1,141,1e-52,207
Fonsecaea_pugnacius_CBS139214_T,SRR9134806.113267,93.06,144,7,3,236,379,1,141,1e-52,207
Fonsecaea_pugnacius_CBS139214_T,SRR9134806.88427,93.06,144,7,3,236,379,1,141,1e-52,207
Fonsecaea_pugnacius_CBS139214_T,SRR9134806.70054,93.06,144,7,3,236,379,1,141,1e-52,207
Fonsecaea_pugnacius_CBS139214_T,SRR9134806.33025,93.06,144,7,3,236,379,1,141,1e-52,207
Fonsecaea_pugnacius_CBS139214_T,SRR9134806.155087,88.89,162,12,6,236,397,1,156,1e-48,195
Fonsecaea_pugnacius_CBS139214_T,SRR9134806.107504,92.13,127,9,1,236,362,1,126,1e-43,178
Cladophialophora_psammophila_CBS,SRR9134806.98742,91.02,167,9,5,242,408,1,161,2e-56,220
Cladophialophora_psammophila_CBS,SRR9134806.98742,88.71,124,8,5,285,408,601,484,3e-34,147
Cladophialophora_psammophila_CBS,SRR9134806.133393,91.88,160,8,4,242,401,1,155,6e-56,219
Cladophialophora_psammophila_CBS,SRR9134806.113267,91.88,160,8,4,242,401,1,155,6e-56,219
Cladophialophora_psammophila_CBS,SRR9134806.88427,91.88,160,8,4,242,401,1,155,6e-56,219
Cladophialophora_psammophila_CBS,SRR9134806.70054,91.88,160,8,4,242,401,1,155,6e-56,219
Cladophialophora_psammophila_CBS,SRR9134806.33025,91.88,160,8,4,242,401,1,155,6e-56,219
Cladophialophora_psammophila_CBS,SRR9134806.155087,90.00,160,12,4,242,401,1,156,2e-51,204
Cladophialophora_psammophila_CBS,SRR9134806.107504,92.13,127,9,1,242,368,1,126,1e-43,178
Cladophialophora_devriesii_CBS,SRR9134806.98742,91.07,168,10,3,238,405,1,163,4e-57,222
Cladophialophora_devriesii_CBS,SRR9134806.98742,88.80,125,9,3,281,405,601,482,7e-35,148
Cladophialophora_devriesii_CBS,SRR9134806.133393,91.88,160,8,4,238,397,1,155,6e-56,219
Cladophialophora_devriesii_CBS,SRR9134806.113267,91.88,160,8,4,238,397,1,155,6e-56,219
Cladophialophora_devriesii_CBS,SRR9134806.88427,91.88,160,8,4,238,397,1,155,6e-56,219
Cladophialophora_devriesii_CBS,SRR9134806.70054,91.88,160,8,4,238,397,1,155,6e-56,219
Cladophialophora_devriesii_CBS,SRR9134806.33025,91.88,160,8,4,238,397,1,155,6e-56,219
Cladophialophora_devriesii_CBS,SRR9134806.155087,89.38,160,13,4,238,397,1,156,7e-50,198
Cladophialophora_devriesii_CBS,SRR9134806.107504,92.13,127,9,1,238,364,1,126,9e-44,178
Cladophialophora_immunda_CBS834.96,SRR9134806.133393,91.25,160,9,4,240,399,1,155,3e-54,213
Cladophialophora_immunda_CBS834.96,SRR9134806.113267,91.25,160,9,4,240,399,1,155,3e-54,213
Cladophialophora_immunda_CBS834.96,SRR9134806.98742,91.25,160,9,3,240,399,1,155,3e-54,213
Cladophialophora_immunda_CBS834.96,SRR9134806.98742,88.89,117,8,3,283,399,601,490,5e-32,139
Cladophialophora_immunda_CBS834.96,SRR9134806.88427,91.25,160,9,4,240,399,1,155,3e-54,213
Cladophialophora_immunda_CBS834.96,SRR9134806.70054,91.25,160,9,4,240,399,1,155,3e-54,213
Cladophialophora_immunda_CBS834.96,SRR9134806.33025,91.25,160,9,4,240,399,1,155,3e-54,213
Cladophialophora_immunda_CBS834.96,SRR9134806.155087,90.00,160,12,4,240,399,1,156,2e-51,204
Cladophialophora_immunda_CBS834.96,SRR9134806.107504,92.13,127,9,1,240,366,1,126,1e-43,178
Cladophialophora_arxii_CBS306.94_T,SRR9134806.98742,90.74,162,8,4,242,403,1,155,3e-53,209
Cladophialophora_arxii_CBS306.94_T,SRR9134806.98742,88.24,119,7,4,285,403,601,490,6e-31,135
Cladophialophora_arxii_CBS306.94_T,SRR9134806.133393,90.12,162,9,5,242,403,1,155,2e-51,204
Cladophialophora_arxii_CBS306.94_T,SRR9134806.113267,90.12,162,9,5,242,403,1,155,2e-51,204
Cladophialophora_arxii_CBS306.94_T,SRR9134806.88427,90.12,162,9,5,242,403,1,155,2e-51,204
Cladophialophora_arxii_CBS306.94_T,SRR9134806.70054,90.12,162,9,5,242,403,1,155,2e-51,204
Cladophialophora_arxii_CBS306.94_T,SRR9134806.33025,90.12,162,9,5,242,403,1,155,2e-51,204
Cladophialophora_arxii_CBS306.94_T,SRR9134806.155087,88.89,162,12,5,242,403,1,156,1e-48,195
Cladophialophora_arxii_CBS306.94_T,SRR9134806.107504,92.13,127,9,1,242,368,1,126,1e-43,178
Cladophialophora_bantiana_CBS173.52,SRR9134806.98742,91.02,167,9,5,236,402,1,161,2e-56,220
Cladophialophora_bantiana_CBS173.52,SRR9134806.98742,88.71,124,8,5,279,402,601,484,3e-34,147
Cladophialophora_bantiana_CBS173.52,SRR9134806.133393,91.88,160,8,4,236,395,1,155,6e-56,219
Cladophialophora_bantiana_CBS173.52,SRR9134806.113267,91.88,160,8,4,236,395,1,155,6e-56,219
Cladophialophora_bantiana_CBS173.52,SRR9134806.88427,91.88,160,8,4,236,395,1,155,6e-56,219
Cladophialophora_bantiana_CBS173.52,SRR9134806.70054,91.88,160,8,4,236,395,1,155,6e-56,219
Cladophialophora_bantiana_CBS173.52,SRR9134806.33025,91.88,160,8,4,236,395,1,155,6e-56,219
Cladophialophora_bantiana_CBS173.52,SRR9134806.155087,90.00,160,12,4,236,395,1,156,2e-51,204
Cladophialophora_bantiana_CBS173.52,SRR9134806.107504,92.13,127,9,1,236,362,1,126,1e-43,178
Cladophialophora_emmonsii_CBS102594,SRR9134806.98742,91.30,161,8,4,227,387,1,155,7e-55,215
Cladophialophora_emmonsii_CBS102594,SRR9134806.98742,88.98,118,7,4,270,387,601,490,1e-32,141
Cladophialophora_emmonsii_CBS102594,SRR9134806.133393,93.71,143,7,2,227,369,1,141,3e-54,213
Cladophialophora_emmonsii_CBS102594,SRR9134806.113267,93.71,143,7,2,227,369,1,141,3e-54,213
Cladophialophora_emmonsii_CBS102594,SRR9134806.88427,93.71,143,7,2,227,369,1,141,3e-54,213
Cladophialophora_emmonsii_CBS102594,SRR9134806.70054,93.71,143,7,2,227,369,1,141,3e-54,213
Cladophialophora_emmonsii_CBS102594,SRR9134806.33025,93.71,143,7,2,227,369,1,141,3e-54,213
Cladophialophora_emmonsii_CBS102594,SRR9134806.155087,89.44,161,12,5,227,387,1,156,8e-50,198
Cladophialophora_emmonsii_CBS102594,SRR9134806.107504,92.13,127,9,1,227,353,1,126,1e-43,178
Cladophialophora_minourae_CBS556.83,SRR9134806.98742,89.44,161,11,5,235,395,1,155,2e-50,200
Cladophialophora_minourae_CBS556.83,SRR9134806.98742,86.44,118,10,5,278,395,601,490,4e-28,126
Cladophialophora_minourae_CBS556.83,SRR9134806.133393,91.03,145,9,4,235,379,1,141,4e-48,193
Cladophialophora_minourae_CBS556.83,SRR9134806.113267,91.03,145,9,4,235,379,1,141,4e-48,193
Cladophialophora_minourae_CBS556.83,SRR9134806.88427,91.03,145,9,4,235,379,1,141,4e-48,193
Cladophialophora_minourae_CBS556.83,SRR9134806.70054,91.03,145,9,4,235,379,1,141,4e-48,193
Cladophialophora_minourae_CBS556.83,SRR9134806.33025,91.03,145,9,4,235,379,1,141,4e-48,193
Cladophialophora_minourae_CBS556.83,SRR9134806.155087,87.58,161,15,5,235,395,1,156,8e-45,182
Cladophialophora_minourae_CBS556.83,SRR9134806.107504,89.15,129,11,3,235,363,1,126,1e-37,158
Cladophialophora_australiensis_CBS112793,SRR9134806.133393,91.19,159,10,3,237,395,1,155,7e-54,213
Cladophialophora_australiensis_CBS112793,SRR9134806.133393,100.00,29,0,0,540,568,270,298,5e-06,54.7
Cladophialophora_australiensis_CBS112793,SRR9134806.113267,91.19,159,10,3,237,395,1,155,7e-54,213
Cladophialophora_australiensis_CBS112793,SRR9134806.113267,100.00,29,0,0,540,568,270,298,5e-06,54.7
Cladophialophora_australiensis_CBS112793,SRR9134806.98742,91.19,159,10,3,237,395,1,155,7e-54,213
Cladophialophora_australiensis_CBS112793,SRR9134806.98742,88.79,116,9,3,280,395,601,490,1e-31,139
Cladophialophora_australiensis_CBS112793,SRR9134806.98742,96.55,58,2,0,549,606,359,302,8e-19,97.1
Cladophialophora_australiensis_CBS112793,SRR9134806.88427,91.19,159,10,3,237,395,1,155,7e-54,213
Cladophialophora_australiensis_CBS112793,SRR9134806.88427,97.06,68,2,0,540,607,368,301,2e-24,115
Cladophialophora_australiensis_CBS112793,SRR9134806.88427,100.00,29,0,0,540,568,270,298,5e-06,54.7
Cladophialophora_australiensis_CBS112793,SRR9134806.70054,91.19,159,10,3,237,395,1,155,7e-54,213
Cladophialophora_australiensis_CBS112793,SRR9134806.70054,96.97,33,1,0,540,572,270,302,1e-06,56.5
Cladophialophora_australiensis_CBS112793,SRR9134806.33025,91.19,159,10,3,237,395,1,155,7e-54,213
Cladophialophora_australiensis_CBS112793,SRR9134806.33025,97.01,67,2,0,540,606,368,302,8e-24,113
Cladophialophora_australiensis_CBS112793,SRR9134806.33025,96.97,33,0,1,540,571,270,302,5e-06,54.7
Cladophialophora_australiensis_CBS112793,SRR9134806.155087,89.94,159,13,3,237,395,1,156,2e-50,202
Cladophialophora_australiensis_CBS112793,SRR9134806.107504,91.34,127,10,1,237,363,1,126,1e-41,172
Cladophialophora_australiensis_CBS112793,SRR9134806.107504,95.83,48,2,0,559,606,349,302,3e-13,78.7
Cladophialophora_australiensis_CBS112793,SRR9134806.151918,91.80,61,5,0,546,606,362,302,2e-15,86.1
Cladophialophora_potulentorum_CBS112222,SRR9134806.133393,90.57,159,11,3,236,394,1,155,3e-52,207
Cladophialophora_potulentorum_CBS112222,SRR9134806.113267,90.57,159,11,3,236,394,1,155,3e-52,207
Cladophialophora_potulentorum_CBS112222,SRR9134806.98742,90.57,159,11,3,236,394,1,155,3e-52,207
Cladophialophora_potulentorum_CBS112222,SRR9134806.98742,87.93,116,10,3,279,394,601,490,6e-30,134
Cladophialophora_potulentorum_CBS112222,SRR9134806.98742,91.55,71,5,1,539,608,372,302,8e-19,97.1
Cladophialophora_potulentorum_CBS112222,SRR9134806.88427,90.57,159,11,3,236,394,1,155,3e-52,207
Cladophialophora_potulentorum_CBS112222,SRR9134806.88427,96.83,63,2,0,547,609,363,301,1e-21,106
Cladophialophora_potulentorum_CBS112222,SRR9134806.70054,90.57,159,11,3,236,394,1,155,3e-52,207
Cladophialophora_potulentorum_CBS112222,SRR9134806.33025,90.57,159,11,3,236,394,1,155,3e-52,207
Cladophialophora_potulentorum_CBS112222,SRR9134806.33025,96.77,62,2,0,547,608,363,302,5e-21,104
Cladophialophora_potulentorum_CBS112222,SRR9134806.155087,89.31,159,14,3,236,394,1,156,8e-49,196
Cladophialophora_potulentorum_CBS112222,SRR9134806.107504,90.55,127,11,1,236,362,1,126,6e-40,167
Cladophialophora_potulentorum_CBS112222,SRR9134806.107504,95.83,48,2,0,561,608,349,302,3e-13,78.7
Cladophialophora_potulentorum_CBS112222,SRR9134806.151918,91.80,61,5,0,548,608,362,302,2e-15,86.1
Cladophialophora_matsushimae_CMRP1198,SRR9134806.133393,91.19,159,10,3,240,398,1,155,2e-54,213
Cladophialophora_matsushimae_CMRP1198,SRR9134806.113267,91.19,159,10,3,240,398,1,155,2e-54,213
Cladophialophora_matsushimae_CMRP1198,SRR9134806.88427,91.19,159,10,3,240,398,1,155,2e-54,213
Cladophialophora_matsushimae_CMRP1198,SRR9134806.70054,91.19,159,10,3,240,398,1,155,2e-54,213
Cladophialophora_matsushimae_CMRP1198,SRR9134806.33025,91.19,159,10,3,240,398,1,155,2e-54,213
Cladophialophora_matsushimae_CMRP1198,SRR9134806.98742,89.41,170,13,4,240,409,1,165,3e-53,209
Cladophialophora_matsushimae_CMRP1198,SRR9134806.98742,86.61,127,12,4,283,409,601,480,5e-31,135
Cladophialophora_matsushimae_CMRP1198,SRR9134806.155087,89.94,159,13,3,240,398,1,156,5e-51,202
Cladophialophora_matsushimae_CMRP1198,SRR9134806.107504,91.34,127,10,1,240,366,1,126,4e-42,172
Cladophialophora_mycetomatis_CBS122637,SRR9134806.133393,91.82,159,9,4,225,383,1,155,6e-56,219
Cladophialophora_mycetomatis_CBS122637,SRR9134806.113267,91.82,159,9,4,225,383,1,155,6e-56,219
Cladophialophora_mycetomatis_CBS122637,SRR9134806.88427,91.82,159,9,4,225,383,1,155,6e-56,219
Cladophialophora_mycetomatis_CBS122637,SRR9134806.70054,91.82,159,9,4,225,383,1,155,6e-56,219
Cladophialophora_mycetomatis_CBS122637,SRR9134806.33025,91.82,159,9,4,225,383,1,155,6e-56,219
Cladophialophora_mycetomatis_CBS122637,SRR9134806.98742,91.19,159,10,3,225,383,1,155,3e-54,213
Cladophialophora_mycetomatis_CBS122637,SRR9134806.98742,88.79,116,9,3,268,383,601,490,5e-32,139
Cladophialophora_mycetomatis_CBS122637,SRR9134806.155087,89.31,159,14,3,225,383,1,156,3e-49,196
Cladophialophora_mycetomatis_CBS122637,SRR9134806.107504,91.34,127,10,1,225,351,1,126,5e-42,172
Cladophialophora_chaetospira_CBS127573,SRR9134806.98742,91.12,169,11,4,631,799,1,165,6e-58,226
Cladophialophora_chaetospira_CBS127573,SRR9134806.98742,88.89,126,10,4,674,799,601,480,1e-35,152
Cladophialophora_chaetospira_CBS127573,SRR9134806.133393,91.82,159,9,4,631,789,1,155,1e-55,219
Cladophialophora_chaetospira_CBS127573,SRR9134806.113267,91.82,159,9,4,631,789,1,155,1e-55,219
Cladophialophora_chaetospira_CBS127573,SRR9134806.88427,91.82,159,9,4,631,789,1,155,1e-55,219
Cladophialophora_chaetospira_CBS127573,SRR9134806.70054,91.82,159,9,4,631,789,1,155,1e-55,219
Cladophialophora_chaetospira_CBS127573,SRR9134806.33025,91.82,159,9,4,631,789,1,155,1e-55,219
Cladophialophora_chaetospira_CBS127573,SRR9134806.155087,89.94,159,13,3,631,789,1,156,1e-50,202
Cladophialophora_chaetospira_CBS127573,SRR9134806.107504,92.13,127,9,1,631,757,1,126,2e-43,178
Cladophialophora_boppii_CBS126.86_T,SRR9134806.98742,91.02,167,11,3,233,399,1,163,4e-57,222
Cladophialophora_boppii_CBS126.86_T,SRR9134806.98742,88.71,124,10,3,276,399,601,482,8e-35,148
Cladophialophora_boppii_CBS126.86_T,SRR9134806.133393,93.84,146,7,2,233,378,1,144,6e-56,219
Cladophialophora_boppii_CBS126.86_T,SRR9134806.113267,93.84,146,7,2,233,378,1,144,6e-56,219
Cladophialophora_boppii_CBS126.86_T,SRR9134806.88427,93.84,146,7,2,233,378,1,144,6e-56,219
Cladophialophora_boppii_CBS126.86_T,SRR9134806.70054,93.84,146,7,2,233,378,1,144,6e-56,219
Cladophialophora_boppii_CBS126.86_T,SRR9134806.33025,93.84,146,7,2,233,378,1,144,6e-56,219
Cladophialophora_boppii_CBS126.86_T,SRR9134806.155087,89.94,159,13,3,233,391,1,156,6e-51,202
Cladophialophora_boppii_CBS126.86_T,SRR9134806.107504,92.13,127,9,1,233,359,1,126,1e-43,178
Cladophialophora_abundans_CBS126736,SRR9134806.133393,92.45,159,8,4,170,328,1,155,1e-57,224
Cladophialophora_abundans_CBS126736,SRR9134806.113267,92.45,159,8,4,170,328,1,155,1e-57,224
Cladophialophora_abundans_CBS126736,SRR9134806.88427,92.45,159,8,4,170,328,1,155,1e-57,224
Cladophialophora_abundans_CBS126736,SRR9134806.88427,88.71,124,10,4,205,328,602,483,7e-35,148
Cladophialophora_abundans_CBS126736,SRR9134806.70054,92.45,159,8,4,170,328,1,155,1e-57,224
Cladophialophora_abundans_CBS126736,SRR9134806.33025,92.45,159,8,4,170,328,1,155,1e-57,224
Cladophialophora_abundans_CBS126736,SRR9134806.98742,90.57,159,11,4,170,328,1,155,1e-52,207
Cladophialophora_abundans_CBS126736,SRR9134806.98742,87.93,116,10,4,213,328,601,490,2e-30,134
Cladophialophora_abundans_CBS126736,SRR9134806.155087,89.94,159,13,3,170,328,1,156,5e-51,202
Cladophialophora_abundans_CBS126736,SRR9134806.107504,91.41,128,8,3,170,296,1,126,4e-42,172
Capronia_semi-immersa_CBS102234,SRR9134806.98742,91.19,159,10,3,232,390,1,155,3e-54,213
Capronia_semi-immersa_CBS102234,SRR9134806.98742,88.79,116,9,3,275,390,601,490,5e-32,139
Capronia_semi-immersa_CBS102234,SRR9134806.133393,89.94,159,12,3,232,390,1,155,6e-51,202
Capronia_semi-immersa_CBS102234,SRR9134806.113267,89.94,159,12,3,232,390,1,155,6e-51,202
Capronia_semi-immersa_CBS102234,SRR9134806.88427,89.94,159,12,3,232,390,1,155,6e-51,202
Capronia_semi-immersa_CBS102234,SRR9134806.70054,89.94,159,12,3,232,390,1,155,6e-51,202
Capronia_semi-immersa_CBS102234,SRR9134806.33025,89.94,159,12,3,232,390,1,155,6e-51,202
Capronia_semi-immersa_CBS102234,SRR9134806.155087,88.68,159,15,3,232,390,1,156,1e-47,191
Capronia_semi-immersa_CBS102234,SRR9134806.107504,89.76,127,12,1,232,358,1,126,1e-38,161
Phialophora_americana_CBS400.67,SRR9134806.98742,91.19,159,10,3,234,392,1,155,7e-54,213
Phialophora_americana_CBS400.67,SRR9134806.98742,88.79,116,9,3,277,392,601,490,1e-31,139
Phialophora_americana_CBS400.67,SRR9134806.133393,89.94,159,12,3,234,392,1,155,2e-50,202
Phialophora_americana_CBS400.67,SRR9134806.113267,89.94,159,12,3,234,392,1,155,2e-50,202
Phialophora_americana_CBS400.67,SRR9134806.88427,89.94,159,12,3,234,392,1,155,2e-50,202
Phialophora_americana_CBS400.67,SRR9134806.70054,89.94,159,12,3,234,392,1,155,2e-50,202
Phialophora_americana_CBS400.67,SRR9134806.33025,89.94,159,12,3,234,392,1,155,2e-50,202
Phialophora_americana_CBS400.67,SRR9134806.155087,88.68,159,15,3,234,392,1,156,3e-47,191
Phialophora_americana_CBS400.67,SRR9134806.107504,89.76,127,12,1,234,360,1,126,3e-38,161
Phialophora_verrucosa_CBS140325_T,SRR9134806.98742,91.19,159,10,3,238,396,1,155,3e-54,213
Phialophora_verrucosa_CBS140325_T,SRR9134806.98742,88.79,116,9,3,281,396,601,490,5e-32,139
Phialophora_verrucosa_CBS140325_T,SRR9134806.133393,89.94,159,12,3,238,396,1,155,6e-51,202
Phialophora_verrucosa_CBS140325_T,SRR9134806.113267,89.94,159,12,3,238,396,1,155,6e-51,202
Phialophora_verrucosa_CBS140325_T,SRR9134806.88427,89.94,159,12,3,238,396,1,155,6e-51,202
Phialophora_verrucosa_CBS140325_T,SRR9134806.70054,89.94,159,12,3,238,396,1,155,6e-51,202
Phialophora_verrucosa_CBS140325_T,SRR9134806.33025,89.94,159,12,3,238,396,1,155,6e-51,202
Phialophora_verrucosa_CBS140325_T,SRR9134806.155087,88.68,159,15,3,238,396,1,156,1e-47,191
Phialophora_verrucosa_CBS140325_T,SRR9134806.107504,89.76,127,12,1,238,364,1,126,1e-38,161
Cladophialophora_samoensis_CBS259.83_T,SRR9134806.133393,92.45,159,8,3,238,396,1,155,1e-57,224
Cladophialophora_samoensis_CBS259.83_T,SRR9134806.113267,92.45,159,8,3,238,396,1,155,1e-57,224
Cladophialophora_samoensis_CBS259.83_T,SRR9134806.88427,92.45,159,8,3,238,396,1,155,1e-57,224
Cladophialophora_samoensis_CBS259.83_T,SRR9134806.70054,92.45,159,8,3,238,396,1,155,1e-57,224
Cladophialophora_samoensis_CBS259.83_T,SRR9134806.33025,92.45,159,8,3,238,396,1,155,1e-57,224
Cladophialophora_samoensis_CBS259.83_T,SRR9134806.155087,91.19,159,11,3,238,396,1,156,3e-54,213
Cladophialophora_samoensis_CBS259.83_T,SRR9134806.98742,91.19,159,10,3,238,396,1,155,3e-54,213
Cladophialophora_samoensis_CBS259.83_T,SRR9134806.98742,88.79,116,9,3,281,396,601,490,5e-32,139
Cladophialophora_samoensis_CBS259.83_T,SRR9134806.107504,92.25,129,5,5,238,364,1,126,1e-43,178
Cladophialophora_carrionii_CBS260.83,SRR9134806.98742,93.08,159,7,4,254,412,1,155,3e-59,230
Cladophialophora_carrionii_CBS260.83,SRR9134806.98742,91.38,116,6,4,297,412,601,490,5e-37,156
Cladophialophora_carrionii_CBS260.83,SRR9134806.133393,91.19,159,10,4,254,412,1,155,3e-54,213
Cladophialophora_carrionii_CBS260.83,SRR9134806.113267,91.19,159,10,4,254,412,1,155,3e-54,213
Cladophialophora_carrionii_CBS260.83,SRR9134806.88427,91.19,159,10,4,254,412,1,155,3e-54,213
Cladophialophora_carrionii_CBS260.83,SRR9134806.70054,91.19,159,10,4,254,412,1,155,3e-54,213
Cladophialophora_carrionii_CBS260.83,SRR9134806.33025,91.19,159,10,4,254,412,1,155,3e-54,213
Cladophialophora_carrionii_CBS260.83,SRR9134806.155087,89.31,159,14,3,254,412,1,156,3e-49,196
Cladophialophora_carrionii_CBS260.83,SRR9134806.107504,91.34,127,10,1,254,380,1,126,5e-42,172
Exophiala_palmae_UPCB86822_T,SRR9134806.133393,93.71,143,7,2,197,339,1,141,2e-54,213
Exophiala_palmae_UPCB86822_T,SRR9134806.113267,93.71,143,7,2,197,339,1,141,2e-54,213
Exophiala_palmae_UPCB86822_T,SRR9134806.88427,93.71,143,7,2,197,339,1,141,2e-54,213
Exophiala_palmae_UPCB86822_T,SRR9134806.70054,93.71,143,7,2,197,339,1,141,2e-54,213
Exophiala_palmae_UPCB86822_T,SRR9134806.33025,93.71,143,7,2,197,339,1,141,2e-54,213
Exophiala_palmae_UPCB86822_T,SRR9134806.98742,93.66,142,7,2,197,338,1,140,9e-54,211
Exophiala_palmae_UPCB86822_T,SRR9134806.98742,91.92,99,6,2,240,338,601,505,2e-31,137
Exophiala_palmae_UPCB86822_T,SRR9134806.155087,89.38,160,13,4,197,356,1,156,7e-50,198
Exophiala_palmae_UPCB86822_T,SRR9134806.107504,92.13,127,9,1,197,323,1,126,9e-44,178
Cladophialophora_yegresii_CBS114405_T,SRR9134806.98742,92.45,159,8,3,239,397,1,155,1e-57,224
Cladophialophora_yegresii_CBS114405_T,SRR9134806.98742,90.52,116,7,3,282,397,601,490,2e-35,150
Cladophialophora_yegresii_CBS114405_T,SRR9134806.133393,91.19,159,10,3,239,397,1,155,3e-54,213
Cladophialophora_yegresii_CBS114405_T,SRR9134806.113267,91.19,159,10,3,239,397,1,155,3e-54,213
Cladophialophora_yegresii_CBS114405_T,SRR9134806.88427,91.19,159,10,3,239,397,1,155,3e-54,213
Cladophialophora_yegresii_CBS114405_T,SRR9134806.70054,91.19,159,10,3,239,397,1,155,3e-54,213
Cladophialophora_yegresii_CBS114405_T,SRR9134806.33025,91.19,159,10,3,239,397,1,155,3e-54,213
Cladophialophora_yegresii_CBS114405_T,SRR9134806.155087,89.94,159,13,3,239,397,1,156,6e-51,202
Cladophialophora_yegresii_CBS114405_T,SRR9134806.107504,91.34,127,10,1,239,365,1,126,5e-42,172
Knufia_epidermidis_CBS120353_T,SRR9134806.155087,89.94,159,13,3,237,395,1,156,6e-51,202
Knufia_epidermidis_CBS120353_T,SRR9134806.133393,95.31,128,5,1,237,364,1,127,6e-51,202
Knufia_epidermidis_CBS120353_T,SRR9134806.113267,95.31,128,5,1,237,364,1,127,6e-51,202
Knufia_epidermidis_CBS120353_T,SRR9134806.88427,95.31,128,5,1,237,364,1,127,6e-51,202
Knufia_epidermidis_CBS120353_T,SRR9134806.70054,95.31,128,5,1,237,364,1,127,6e-51,202
Knufia_epidermidis_CBS120353_T,SRR9134806.33025,95.31,128,5,1,237,364,1,127,6e-51,202
Knufia_epidermidis_CBS120353_T,SRR9134806.98742,92.19,128,9,1,237,364,1,127,3e-44,180
Knufia_epidermidis_CBS120353_T,SRR9134806.98742,89.41,85,8,1,280,364,601,518,5e-22,106
Knufia_epidermidis_CBS120353_T,SRR9134806.107504,87.50,144,15,2,237,380,1,141,3e-39,163
Arthrocladium_fulminans_CBS136243_T,SRR9134806.133393,92.97,128,8,1,232,359,1,127,6e-46,185
Arthrocladium_fulminans_CBS136243_T,SRR9134806.113267,92.97,128,8,1,232,359,1,127,6e-46,185
Arthrocladium_fulminans_CBS136243_T,SRR9134806.98742,92.97,128,8,1,232,359,1,127,6e-46,185
Arthrocladium_fulminans_CBS136243_T,SRR9134806.98742,90.59,85,7,1,275,359,601,518,1e-23,111
Arthrocladium_fulminans_CBS136243_T,SRR9134806.88427,92.97,128,8,1,232,359,1,127,6e-46,185
Arthrocladium_fulminans_CBS136243_T,SRR9134806.70054,92.97,128,8,1,232,359,1,127,6e-46,185
Arthrocladium_fulminans_CBS136243_T,SRR9134806.33025,92.97,128,8,1,232,359,1,127,6e-46,185
Arthrocladium_fulminans_CBS136243_T,SRR9134806.155087,86.96,161,16,5,232,392,1,156,4e-43,176
Arthrocladium_fulminans_CBS136243_T,SRR9134806.107504,90.55,127,11,1,232,358,1,126,2e-40,167
Anthopsis_deltoidea_CBS263.77_T,SRR9134806.133393,90.38,156,13,2,241,395,1,155,2e-51,204
Anthopsis_deltoidea_CBS263.77_T,SRR9134806.113267,90.38,156,13,2,241,395,1,155,2e-51,204
Anthopsis_deltoidea_CBS263.77_T,SRR9134806.98742,90.38,156,13,2,241,395,1,155,2e-51,204
Anthopsis_deltoidea_CBS263.77_T,SRR9134806.88427,90.38,156,13,2,241,395,1,155,2e-51,204
Anthopsis_deltoidea_CBS263.77_T,SRR9134806.70054,90.38,156,13,2,241,395,1,155,2e-51,204
Anthopsis_deltoidea_CBS263.77_T,SRR9134806.33025,90.38,156,13,2,241,395,1,155,2e-51,204
Anthopsis_deltoidea_CBS263.77_T,SRR9134806.155087,88.61,158,13,5,241,395,1,156,2e-46,187
Anthopsis_deltoidea_CBS263.77_T,SRR9134806.107504,90.48,126,11,1,241,365,1,126,7e-40,165
Cyphellophora_laciniata_CBS190.61_T,SRR9134806.133393,92.95,156,9,2,326,480,1,155,5e-58,226
Cyphellophora_laciniata_CBS190.61_T,SRR9134806.113267,92.95,156,9,2,326,480,1,155,5e-58,226
Cyphellophora_laciniata_CBS190.61_T,SRR9134806.88427,92.95,156,9,2,326,480,1,155,5e-58,226
Cyphellophora_laciniata_CBS190.61_T,SRR9134806.88427,89.26,121,11,2,361,480,602,483,3e-35,150
Cyphellophora_laciniata_CBS190.61_T,SRR9134806.88427,98.41,63,1,0,634,696,363,301,1e-23,111
Cyphellophora_laciniata_CBS190.61_T,SRR9134806.70054,92.95,156,9,2,326,480,1,155,5e-58,226
Cyphellophora_laciniata_CBS190.61_T,SRR9134806.33025,92.95,156,9,2,326,480,1,155,5e-58,226
Cyphellophora_laciniata_CBS190.61_T,SRR9134806.33025,98.39,62,1,0,634,695,363,302,5e-23,110
Cyphellophora_laciniata_CBS190.61_T,SRR9134806.155087,90.51,158,10,5,326,480,1,156,2e-51,204
Cyphellophora_laciniata_CBS190.61_T,SRR9134806.98742,88.82,161,16,2,326,485,1,160,4e-49,196
Cyphellophora_laciniata_CBS190.61_T,SRR9134806.98742,85.59,118,15,2,369,485,601,485,6e-27,122
Cyphellophora_laciniata_CBS190.61_T,SRR9134806.98742,98.28,58,1,0,638,695,359,302,8e-21,102
Cyphellophora_laciniata_CBS190.61_T,SRR9134806.107504,91.34,127,8,3,326,450,1,126,2e-41,171
Cyphellophora_laciniata_CBS190.61_T,SRR9134806.107504,97.92,48,1,0,648,695,349,302,3e-15,84.2
Cyphellophora_laciniata_CBS190.61_T,SRR9134806.151918,93.44,61,4,0,635,695,362,302,2e-17,91.6
Cyphellophora_suttonii_CBS449.91,SRR9134806.133393,92.95,156,9,2,229,383,1,155,3e-58,226
Cyphellophora_suttonii_CBS449.91,SRR9134806.113267,92.95,156,9,2,229,383,1,155,3e-58,226
Cyphellophora_suttonii_CBS449.91,SRR9134806.88427,92.95,156,9,2,229,383,1,155,3e-58,226
Cyphellophora_suttonii_CBS449.91,SRR9134806.88427,89.26,121,11,2,264,383,602,483,2e-35,150
Cyphellophora_suttonii_CBS449.91,SRR9134806.70054,92.95,156,9,2,229,383,1,155,3e-58,226
Cyphellophora_suttonii_CBS449.91,SRR9134806.33025,92.95,156,9,2,229,383,1,155,3e-58,226
Cyphellophora_suttonii_CBS449.91,SRR9134806.155087,90.51,158,10,5,229,383,1,156,2e-51,204
Cyphellophora_suttonii_CBS449.91,SRR9134806.98742,89.10,156,15,2,229,383,1,155,3e-48,193
Cyphellophora_suttonii_CBS449.91,SRR9134806.98742,85.84,113,14,2,272,383,601,490,6e-26,119
Cyphellophora_suttonii_CBS449.91,SRR9134806.107504,91.34,127,8,3,229,353,1,126,2e-41,171
Cyphellophora_pauciseptata_CBS284.85_T,SRR9134806.133393,92.95,156,9,2,240,394,1,155,3e-58,226
Cyphellophora_pauciseptata_CBS284.85_T,SRR9134806.113267,92.95,156,9,2,240,394,1,155,3e-58,226
Cyphellophora_pauciseptata_CBS284.85_T,SRR9134806.88427,92.95,156,9,2,240,394,1,155,3e-58,226
Cyphellophora_pauciseptata_CBS284.85_T,SRR9134806.88427,89.26,121,11,2,275,394,602,483,2e-35,150
Cyphellophora_pauciseptata_CBS284.85_T,SRR9134806.70054,92.95,156,9,2,240,394,1,155,3e-58,226
Cyphellophora_pauciseptata_CBS284.85_T,SRR9134806.33025,92.95,156,9,2,240,394,1,155,3e-58,226
Cyphellophora_pauciseptata_CBS284.85_T,SRR9134806.155087,90.51,158,10,5,240,394,1,156,2e-51,204
Cyphellophora_pauciseptata_CBS284.85_T,SRR9134806.98742,89.10,156,15,2,240,394,1,155,3e-48,193
Cyphellophora_pauciseptata_CBS284.85_T,SRR9134806.98742,85.84,113,14,2,283,394,601,490,6e-26,119
Cyphellophora_pauciseptata_CBS284.85_T,SRR9134806.107504,91.34,127,8,3,240,364,1,126,2e-41,171
Cyphellophora_pluriseptata_CBS286.85_T,SRR9134806.133393,92.21,154,10,2,247,399,3,155,2e-55,217
Cyphellophora_pluriseptata_CBS286.85_T,SRR9134806.113267,92.21,154,10,2,247,399,3,155,2e-55,217
Cyphellophora_pluriseptata_CBS286.85_T,SRR9134806.88427,92.21,154,10,2,247,399,3,155,2e-55,217
Cyphellophora_pluriseptata_CBS286.85_T,SRR9134806.70054,92.21,154,10,2,247,399,3,155,2e-55,217
Cyphellophora_pluriseptata_CBS286.85_T,SRR9134806.33025,92.21,154,10,2,247,399,3,155,2e-55,217
Cyphellophora_pluriseptata_CBS286.85_T,SRR9134806.155087,90.38,156,10,5,247,399,3,156,2e-50,200
Cyphellophora_pluriseptata_CBS286.85_T,SRR9134806.98742,89.61,154,14,2,247,399,3,155,1e-48,195
Cyphellophora_pluriseptata_CBS286.85_T,SRR9134806.98742,86.73,113,13,2,288,399,601,490,1e-27,124
Cyphellophora_pluriseptata_CBS286.85_T,SRR9134806.107504,91.27,126,6,5,247,369,3,126,2e-40,167
Phialophora_europaea_CBS101466,SRR9134806.133393,92.31,156,10,2,235,389,1,155,2e-56,220
Phialophora_europaea_CBS101466,SRR9134806.113267,92.31,156,10,2,235,389,1,155,2e-56,220
Phialophora_europaea_CBS101466,SRR9134806.88427,92.31,156,10,2,235,389,1,155,2e-56,220
Phialophora_europaea_CBS101466,SRR9134806.70054,92.31,156,10,2,235,389,1,155,2e-56,220
Phialophora_europaea_CBS101466,SRR9134806.33025,92.31,156,10,2,235,389,1,155,2e-56,220
Phialophora_europaea_CBS101466,SRR9134806.155087,90.51,158,10,5,235,389,1,156,2e-51,204
Phialophora_europaea_CBS101466,SRR9134806.98742,89.74,156,14,2,235,389,1,155,7e-50,198
Phialophora_europaea_CBS101466,SRR9134806.98742,86.73,113,13,2,278,389,601,490,1e-27,124
Phialophora_europaea_CBS101466,SRR9134806.107504,91.41,128,6,5,235,359,1,126,2e-41,171
Phialophora_ambigua_CBS235.93,SRR9134806.133393,92.31,156,10,2,232,386,1,155,2e-56,220
Phialophora_ambigua_CBS235.93,SRR9134806.113267,92.31,156,10,2,232,386,1,155,2e-56,220
Phialophora_ambigua_CBS235.93,SRR9134806.88427,92.31,156,10,2,232,386,1,155,2e-56,220
Phialophora_ambigua_CBS235.93,SRR9134806.70054,92.31,156,10,2,232,386,1,155,2e-56,220
Phialophora_ambigua_CBS235.93,SRR9134806.33025,92.31,156,10,2,232,386,1,155,2e-56,220
Phialophora_ambigua_CBS235.93,SRR9134806.155087,90.51,158,10,5,232,386,1,156,2e-51,204
Phialophora_ambigua_CBS235.93,SRR9134806.98742,89.74,156,14,2,232,386,1,155,7e-50,198
Phialophora_ambigua_CBS235.93,SRR9134806.98742,86.73,113,13,2,275,386,601,490,1e-27,124
Phialophora_ambigua_CBS235.93,SRR9134806.107504,91.41,128,6,5,232,356,1,126,2e-41,171
Cladophialophora_modesta_CBS985.96_T,SRR9134806.133393,91.77,158,10,3,229,386,1,155,2e-55,217
Cladophialophora_modesta_CBS985.96_T,SRR9134806.133393,100.00,29,0,0,513,541,270,298,2e-06,54.7
Cladophialophora_modesta_CBS985.96_T,SRR9134806.113267,91.77,158,10,3,229,386,1,155,2e-55,217
Cladophialophora_modesta_CBS985.96_T,SRR9134806.113267,100.00,29,0,0,513,541,270,298,2e-06,54.7
Cladophialophora_modesta_CBS985.96_T,SRR9134806.98742,91.77,158,10,3,229,386,1,155,2e-55,217
Cladophialophora_modesta_CBS985.96_T,SRR9134806.98742,89.57,115,9,3,272,386,601,490,4e-33,143
Cladophialophora_modesta_CBS985.96_T,SRR9134806.98742,96.55,58,2,0,522,579,359,302,3e-19,97.1
Cladophialophora_modesta_CBS985.96_T,SRR9134806.88427,91.77,158,10,3,229,386,1,155,2e-55,217
Cladophialophora_modesta_CBS985.96_T,SRR9134806.88427,97.06,68,2,0,513,580,368,301,9e-25,115
Cladophialophora_modesta_CBS985.96_T,SRR9134806.88427,100.00,29,0,0,513,541,270,298,2e-06,54.7
Cladophialophora_modesta_CBS985.96_T,SRR9134806.70054,91.77,158,10,3,229,386,1,155,2e-55,217
Cladophialophora_modesta_CBS985.96_T,SRR9134806.70054,100.00,29,0,0,513,541,270,298,2e-06,54.7
Cladophialophora_modesta_CBS985.96_T,SRR9134806.33025,91.77,158,10,3,229,386,1,155,2e-55,217
Cladophialophora_modesta_CBS985.96_T,SRR9134806.33025,97.01,67,2,0,513,579,368,302,3e-24,113
Cladophialophora_modesta_CBS985.96_T,SRR9134806.33025,100.00,29,0,0,513,541,270,298,2e-06,54.7
Cladophialophora_modesta_CBS985.96_T,SRR9134806.155087,89.31,159,13,4,229,386,1,156,3e-49,196
Cladophialophora_modesta_CBS985.96_T,SRR9134806.107504,91.34,127,10,1,229,355,1,126,5e-42,172
Cladophialophora_modesta_CBS985.96_T,SRR9134806.107504,100.00,48,0,0,532,579,349,302,5e-17,89.8
Cladophialophora_modesta_CBS985.96_T,SRR9134806.151918,91.80,61,5,0,519,579,362,302,7e-16,86.1
Cyphellophora_fusarioides_MUCL44033_T,SRR9134806.133393,92.31,156,10,2,228,382,1,155,2e-56,220
Cyphellophora_fusarioides_MUCL44033_T,SRR9134806.113267,92.31,156,10,2,228,382,1,155,2e-56,220
Cyphellophora_fusarioides_MUCL44033_T,SRR9134806.88427,92.31,156,10,2,228,382,1,155,2e-56,220
Cyphellophora_fusarioides_MUCL44033_T,SRR9134806.88427,88.43,121,12,2,263,382,602,483,1e-33,145
Cyphellophora_fusarioides_MUCL44033_T,SRR9134806.70054,92.31,156,10,2,228,382,1,155,2e-56,220
Cyphellophora_fusarioides_MUCL44033_T,SRR9134806.33025,92.31,156,10,2,228,382,1,155,2e-56,220
Cyphellophora_fusarioides_MUCL44033_T,SRR9134806.155087,89.87,158,11,5,228,382,1,156,7e-50,198
Cyphellophora_fusarioides_MUCL44033_T,SRR9134806.98742,88.20,161,17,2,228,387,1,160,1e-47,191
Cyphellophora_fusarioides_MUCL44033_T,SRR9134806.107504,90.55,127,9,3,228,352,1,126,7e-40,165
