Exophiala_polymorpha_CBS138920_T,SRR3122403.375,94.12,51,1,2,645,694,17,66,2e-14,76.8
Exophiala_jeanselmei_CBS507.90_T,SRR3122403.375,94.92,59,1,2,547,604,17,74,7e-19,91.6
Exophiala_pisciphila_CBS537.73_T,SRR3122403.375,93.22,59,2,2,556,613,17,74,4e-17,86.1
Exophiala_mesophila_CBS402.95_T,SRR3122403.375,94.92,59,1,2,553,610,17,74,8e-19,91.6
Exophiala_castellanii_CBS158.58_T,SRR3122403.375,94.92,59,1,2,552,609,17,74,8e-19,91.6
Exophiala_dermatitidis_CBS748.88,SRR3122403.375,94.92,59,1,2,578,635,17,74,2e-18,91.6
Exophiala_salmonis_CBS157.67_T,SRR3122403.375,93.22,59,2,2,676,733,17,74,4e-17,86.1
Exophiala_cancerae_CBS120420_T,SRR3122403.375,93.22,59,2,2,567,624,17,74,3e-17,86.1
Rhinocladiella_aquaspersa_CBS313.73_T,SRR3122403.375,95.74,47,1,1,560,605,28,74,8e-14,75.0
Capronia_dactylotricha_DAOM208471_T,SRR3122403.375,93.22,59,2,2,561,618,17,74,4e-17,86.1
Capronia_kleinmondensis_CBS122671_T,SRR3122403.375,93.22,59,2,2,567,624,17,74,4e-17,86.1
Capronia_mansonii_CBS101.67_T,SRR3122403.375,94.92,59,1,2,571,628,17,74,8e-19,91.6
Capronia_munkii_DAOM216390_T,SRR3122403.375,94.92,59,1,2,571,628,17,74,8e-19,91.6
Capronia_coronata_ATCC56201_T,SRR3122403.375,94.92,59,1,2,542,599,17,74,7e-19,91.6
Capronia_acutiseta_ATCC56428_T,SRR3122403.375,93.22,59,2,2,541,598,17,74,3e-17,86.1
Fonsecaea_pedrosoi_CBS271.37_T,SRR3122403.375,93.22,59,2,2,588,645,17,74,4e-17,86.1
Cladophialophora_australiensis_CBS112793,SRR3122403.375,93.22,59,2,2,549,606,17,74,8e-17,86.1
Cladophialophora_potulentorum_CBS112222,SRR3122403.375,93.22,59,2,2,551,608,17,74,8e-17,86.1
Cyphellophora_laciniata_CBS190.61_T,SRR3122403.375,94.92,59,1,2,638,695,17,74,9e-19,91.6
Cladophialophora_modesta_CBS985.96_T,SRR3122403.375,93.22,59,2,2,522,579,17,74,3e-17,86.1
