Exophiala_nigra_CBS535.94_T,SRR10017046.120529,91.45,117,9,1,232,348,1,116,3e-38,159
Exophiala_spinifera_CBS899.68_T,SRR10017046.120529,90.60,117,10,1,229,345,1,116,1e-36,154
Exophiala_exophialae_CBS668.76_T,SRR10017046.120529,90.60,117,10,1,230,346,1,116,1e-36,154
Exophiala_polymorpha_CBS138920_T,SRR10017046.120529,90.60,117,10,1,332,448,1,116,2e-36,154
Exophiala_oligosperma_CBS725.88_T,SRR10017046.120529,90.60,117,10,1,242,358,1,116,1e-36,154
Exophiala_jeanselmei_CBS507.90_T,SRR10017046.120529,90.60,117,10,1,234,350,1,116,1e-36,154
Exophiala_bergeri_CBS353.52,SRR10017046.120529,91.45,117,9,1,195,311,1,116,2e-38,159
Exophiala_moniliae_CBS520.76_T,SRR10017046.120529,91.45,117,9,1,232,348,1,116,3e-38,159
Exophiala_pisciphila_CBS537.73_T,SRR10017046.120529,91.45,117,9,1,235,351,1,116,3e-38,159
Exophiala_xenobiotica_CBS117642,SRR10017046.120529,91.45,117,9,1,227,343,1,116,3e-38,159
Exophiala_brunnea_CBS,SRR10017046.120529,90.60,117,10,1,263,379,1,116,2e-36,154
Exophiala_nishimurae_CBS101538_T,SRR10017046.120529,90.60,117,10,1,241,357,1,116,1e-36,154
Exophiala_mesophila_CBS402.95_T,SRR10017046.120529,90.60,117,10,1,225,341,1,116,2e-36,154
Exophiala_castellanii_CBS158.58_T,SRR10017046.120529,90.60,117,10,1,223,339,1,116,2e-36,154
Exophiala_lecanii-corni_CBS123.33_T,SRR10017046.120529,90.60,117,10,1,246,362,1,116,1e-36,154
Exophiala_dermatitidis_CBS748.88,SRR10017046.120529,91.45,117,9,1,238,354,1,116,8e-38,159
Exophiala_angulospora_CBS482.92_T,SRR10017046.120529,91.45,117,9,1,229,345,1,116,3e-38,159
Exophiala_opportunistica_CBS109811_T,SRR10017046.120529,91.45,117,9,1,228,344,1,116,3e-38,159
Exophiala_salmonis_CBS157.67_T,SRR10017046.120529,91.45,117,9,1,357,473,1,116,4e-38,159
Exophiala_aquamarina_CBS119918_T,SRR10017046.120529,91.45,117,9,1,235,351,1,116,3e-38,159
Exophiala_cancerae_CBS120420_T,SRR10017046.120529,91.45,117,9,1,250,366,1,116,3e-38,159
Exophiala_tremulae_CBS129355,SRR10017046.120529,91.45,117,9,1,262,378,1,116,3e-38,159
Exophiala_equina_CBS116009,SRR10017046.120529,91.45,117,9,1,228,344,1,116,3e-38,159
Exophiala_alcalophila_CBS520.82_T,SRR10017046.120529,91.45,117,9,1,239,355,1,116,3e-38,159
Exophiala_crusticola_CBS119970_T,SRR10017046.120529,91.45,117,9,1,244,360,1,116,3e-38,159
Rhinocladiella_atrovirens_CBS264.49,SRR10017046.120529,90.60,117,10,1,270,386,1,116,1e-36,154
Rhinocladiella_basitona_CBS101460_T,SRR10017046.120529,90.60,117,10,1,229,345,1,116,1e-36,154
Rhinocladiella_phaeophora_CBS496.78_T,SRR10017046.120529,91.45,117,9,1,237,353,1,116,3e-38,159
Rhinocladiella_aquaspersa_CBS313.73_T,SRR10017046.120529,91.45,117,9,1,231,347,1,116,3e-38,159
Rhinocladiella_fasciculata_CBS132.86_T,SRR10017046.120529,91.38,116,9,1,247,362,1,115,1e-37,158
Rhinocladiella_anceps_CBS181.65_T,SRR10017046.120529,90.60,117,10,1,229,345,1,116,1e-36,154
Rhinocladiella_mackenziei_CBS367.92,SRR10017046.120529,91.45,117,9,1,218,334,1,116,3e-38,159
Veronaea_compacta_CBS268.75_T,SRR10017046.120529,90.60,117,10,1,251,367,1,116,1e-36,154
Capronia_pilosella_AFTOL-ID657,SRR10017046.120529,91.45,117,9,1,329,445,1,116,4e-38,159
Capronia_dactylotricha_DAOM208471_T,SRR10017046.120529,91.45,117,9,1,231,347,1,116,3e-38,159
Capronia_kleinmondensis_CBS122671_T,SRR10017046.120529,90.60,117,10,1,256,372,1,116,2e-36,154
Capronia_mansonii_CBS101.67_T,SRR10017046.120529,91.45,117,9,1,242,358,1,116,3e-38,159
Capronia_munkii_DAOM216390_T,SRR10017046.120529,91.45,117,9,1,242,358,1,116,3e-38,159
Capronia_coronata_ATCC56201_T,SRR10017046.120529,91.45,117,9,1,230,346,1,116,3e-38,159
Capronia_parasitica_CBS123.88,SRR10017046.120529,91.45,117,9,1,236,352,1,116,3e-38,159
Veronaea_japonica_CBS776.83_T,SRR10017046.120529,91.45,117,9,1,264,380,1,116,3e-38,159
Thysanorea_papuana_CBS212.96_T,SRR10017046.120529,91.45,117,9,1,238,354,1,116,3e-38,159
Fonsecaea_brasiliensis_CBS119710_T,SRR10017046.120529,91.45,117,9,1,238,354,1,116,3e-38,159
Fonsecaea_pedrosoi_CBS271.37_T,SRR10017046.120529,91.45,117,9,1,266,382,1,116,3e-38,159
Fonsecaea_multimorphosa_CBS980.96_T,SRR10017046.120529,91.45,117,9,1,236,352,1,116,3e-38,159
Fonsecaea_minima_CBS125760_T,SRR10017046.120529,91.45,117,9,1,232,348,1,116,3e-38,159
Fonsecaea_nubica_CBS269.64_T,SRR10017046.120529,91.45,117,9,1,243,359,1,116,3e-38,159
Fonsecaea_erecta_CBS125763_T,SRR10017046.120529,91.45,117,9,1,227,343,1,116,3e-38,159
Fonsecaea_pugnacius_CBS139214_T,SRR10017046.120529,91.45,117,9,1,236,352,1,116,3e-38,159
Cladophialophora_psammophila_CBS,SRR10017046.120529,91.45,117,9,1,242,358,1,116,3e-38,159
Cladophialophora_devriesii_CBS,SRR10017046.120529,91.45,117,9,1,238,354,1,116,3e-38,159
Cladophialophora_immunda_CBS834.96,SRR10017046.120529,91.45,117,9,1,240,356,1,116,3e-38,159
Cladophialophora_arxii_CBS306.94_T,SRR10017046.120529,91.45,117,9,1,242,358,1,116,3e-38,159
Cladophialophora_bantiana_CBS173.52,SRR10017046.120529,91.45,117,9,1,236,352,1,116,3e-38,159
Cladophialophora_emmonsii_CBS102594,SRR10017046.120529,91.45,117,9,1,227,343,1,116,3e-38,159
Cladophialophora_minourae_CBS556.83,SRR10017046.120529,88.14,118,11,3,235,352,1,115,1e-31,137
Cladophialophora_australiensis_CBS112793,SRR10017046.120529,91.38,116,9,1,237,352,1,115,3e-37,158
Cladophialophora_potulentorum_CBS112222,SRR10017046.120529,90.52,116,10,1,236,351,1,115,1e-35,152
Cladophialophora_matsushimae_CMRP1198,SRR10017046.120529,90.60,117,10,1,240,356,1,116,1e-36,154
Cladophialophora_mycetomatis_CBS122637,SRR10017046.120529,90.60,117,10,1,225,341,1,116,1e-36,154
Cladophialophora_chaetospira_CBS127573,SRR10017046.120529,91.45,117,9,1,631,747,1,116,5e-38,159
Cladophialophora_boppii_CBS126.86_T,SRR10017046.120529,91.45,117,9,1,233,349,1,116,3e-38,159
Cladophialophora_abundans_CBS126736,SRR10017046.120529,87.18,117,14,1,170,286,1,116,5e-30,132
Capronia_semi-immersa_CBS102234,SRR10017046.120529,89.66,116,11,1,232,347,1,115,2e-34,147
Phialophora_americana_CBS400.67,SRR10017046.120529,89.66,116,11,1,234,349,1,115,6e-34,147
Phialophora_verrucosa_CBS140325_T,SRR10017046.120529,89.66,116,11,1,238,353,1,115,2e-34,147
Cladophialophora_samoensis_CBS259.83_T,SRR10017046.120529,88.89,117,12,1,238,354,1,116,3e-33,143
Cladophialophora_carrionii_CBS260.83,SRR10017046.120529,90.60,117,10,1,254,370,1,116,1e-36,154
Exophiala_palmae_UPCB86822_T,SRR10017046.120529,91.45,117,9,1,197,313,1,116,3e-38,159
Cladophialophora_yegresii_CBS114405_T,SRR10017046.120529,90.60,117,10,1,239,355,1,116,1e-36,154
Knufia_epidermidis_CBS120353_T,SRR10017046.120529,87.18,117,14,1,237,353,1,116,6e-30,132
Arthrocladium_fulminans_CBS136243_T,SRR10017046.120529,88.03,117,13,1,232,348,1,116,1e-31,137
Anthopsis_deltoidea_CBS263.77_T,SRR10017046.120529,89.66,116,11,1,241,355,1,116,2e-34,147
Cyphellophora_laciniata_CBS190.61_T,SRR10017046.120529,87.93,116,13,1,326,440,1,116,6e-31,135
Cyphellophora_suttonii_CBS449.91,SRR10017046.120529,87.93,116,13,1,229,343,1,116,5e-31,135
Cyphellophora_pauciseptata_CBS284.85_T,SRR10017046.120529,87.93,116,13,1,240,354,1,116,5e-31,135
Cyphellophora_pluriseptata_CBS286.85_T,SRR10017046.120529,88.60,114,12,1,247,359,3,116,1e-31,137
Phialophora_europaea_CBS101466,SRR10017046.120529,88.79,116,12,1,235,349,1,116,1e-32,141
Phialophora_ambigua_CBS235.93,SRR10017046.120529,88.79,116,12,1,232,346,1,116,1e-32,141
Cladophialophora_modesta_CBS985.96_T,SRR10017046.120529,90.60,117,10,1,229,345,1,116,1e-36,154
Cyphellophora_fusarioides_MUCL44033_T,SRR10017046.120529,87.07,116,14,1,228,342,1,116,2e-29,130
