Exophiala_brunnea_CBS,SRR9971568.6409480,97.67,43,1,0,1,43,123,165,3e-11,75.0
Exophiala_brunnea_CBS,SRR9971568.6409480,97.44,39,1,0,5,43,100,62,4e-09,67.6
Exophiala_brunnea_CBS,SRR9971568.2049686,97.67,43,1,0,1,43,145,103,3e-11,75.0
Exophiala_brunnea_CBS,SRR9971568.537035,97.67,43,1,0,1,43,45,3,3e-11,75.0
Exophiala_brunnea_CBS,SRR9971568.1246069,97.37,38,1,0,6,43,1,38,2e-08,65.8
Exophiala_dermatitidis_CBS748.88,SRR9971568.8501526,92.31,91,7,0,1359,1449,186,96,1e-27,130
Exophiala_dermatitidis_CBS748.88,SRR9971568.6665302,91.07,56,5,0,1359,1414,56,1,2e-11,76.8
Exophiala_dermatitidis_CBS748.88,SRR9971568.6276038,95.45,44,2,0,1213,1256,121,164,8e-10,71.3
Exophiala_dermatitidis_CBS748.88,SRR9971568.5960878,95.12,41,2,0,1216,1256,1,41,4e-08,65.8
Exophiala_dermatitidis_CBS748.88,SRR9971568.354135,100.00,34,0,0,1213,1246,140,107,1e-07,63.9
Exophiala_dermatitidis_CBS748.88,SRR9971568.3059908,100.00,32,0,0,1213,1244,32,1,2e-06,60.2
Exophiala_dermatitidis_CBS748.88,SRR9971568.3059908,100.00,32,0,0,1213,1244,154,185,2e-06,60.2
Exophiala_tremulae_CBS129355,SRR9971568.6409480,97.67,43,1,0,1,43,123,165,3e-11,75.0
Exophiala_tremulae_CBS129355,SRR9971568.6409480,97.44,39,1,0,5,43,100,62,4e-09,67.6
Exophiala_tremulae_CBS129355,SRR9971568.2049686,97.67,43,1,0,1,43,145,103,3e-11,75.0
Exophiala_tremulae_CBS129355,SRR9971568.537035,97.67,43,1,0,1,43,45,3,3e-11,75.0
Exophiala_tremulae_CBS129355,SRR9971568.1246069,97.37,38,1,0,6,43,1,38,2e-08,65.8
Rhinocladiella_atrovirens_CBS264.49,SRR9971568.6409480,100.00,48,0,0,1,48,118,165,9e-16,89.8
Rhinocladiella_atrovirens_CBS264.49,SRR9971568.6409480,100.00,39,0,0,10,48,100,62,9e-11,73.1
Rhinocladiella_atrovirens_CBS264.49,SRR9971568.2049686,100.00,48,0,0,1,48,150,103,9e-16,89.8
Rhinocladiella_atrovirens_CBS264.49,SRR9971568.537035,100.00,48,0,0,1,48,50,3,9e-16,89.8
Rhinocladiella_atrovirens_CBS264.49,SRR9971568.1246069,100.00,38,0,0,11,48,1,38,3e-10,71.3
Rhinocladiella_atrovirens_CBS264.49,SRR9971568.4702364,100.00,29,0,0,1,29,128,100,3e-05,54.7
Rhinocladiella_atrovirens_CBS264.49,SRR9971568.4702364,100.00,28,0,0,1,28,42,69,1e-04,52.8
Rhinocladiella_fasciculata_CBS132.86_T,SRR9971568.6409480,100.00,31,0,0,1,31,92,62,2e-06,58.4
Rhinocladiella_fasciculata_CBS132.86_T,SRR9971568.6409480,100.00,31,0,0,1,31,135,165,2e-06,58.4
Rhinocladiella_fasciculata_CBS132.86_T,SRR9971568.2049686,100.00,31,0,0,1,31,133,103,2e-06,58.4
Rhinocladiella_fasciculata_CBS132.86_T,SRR9971568.1246069,100.00,31,0,0,1,31,8,38,2e-06,58.4
Rhinocladiella_fasciculata_CBS132.86_T,SRR9971568.537035,100.00,31,0,0,1,31,33,3,2e-06,58.4
Capronia_kleinmondensis_CBS122671_T,SRR9971568.6409480,100.00,34,0,0,1,34,95,62,6e-08,63.9
Capronia_kleinmondensis_CBS122671_T,SRR9971568.6409480,100.00,34,0,0,1,34,132,165,6e-08,63.9
Capronia_kleinmondensis_CBS122671_T,SRR9971568.2049686,100.00,34,0,0,1,34,136,103,6e-08,63.9
Capronia_kleinmondensis_CBS122671_T,SRR9971568.1246069,100.00,34,0,0,1,34,5,38,6e-08,63.9
Capronia_kleinmondensis_CBS122671_T,SRR9971568.537035,100.00,34,0,0,1,34,36,3,6e-08,63.9
Veronaea_japonica_CBS776.83_T,SRR9971568.6409480,97.62,42,1,0,1,42,124,165,9e-11,73.1
Veronaea_japonica_CBS776.83_T,SRR9971568.6409480,97.44,39,1,0,4,42,100,62,4e-09,67.6
Veronaea_japonica_CBS776.83_T,SRR9971568.2049686,97.62,42,1,0,1,42,144,103,9e-11,73.1
Veronaea_japonica_CBS776.83_T,SRR9971568.537035,97.62,42,1,0,1,42,44,3,9e-11,73.1
Veronaea_japonica_CBS776.83_T,SRR9971568.1246069,97.37,38,1,0,5,42,1,38,2e-08,65.8
Fonsecaea_pedrosoi_CBS271.37_T,SRR9971568.6409480,100.00,30,0,0,1,30,95,66,1e-05,56.5
Fonsecaea_pedrosoi_CBS271.37_T,SRR9971568.6409480,100.00,30,0,0,1,30,132,161,1e-05,56.5
Fonsecaea_pedrosoi_CBS271.37_T,SRR9971568.2049686,100.00,30,0,0,1,30,136,107,1e-05,56.5
Fonsecaea_pedrosoi_CBS271.37_T,SRR9971568.1246069,100.00,30,0,0,1,30,5,34,1e-05,56.5
Fonsecaea_pedrosoi_CBS271.37_T,SRR9971568.537035,100.00,30,0,0,1,30,36,7,1e-05,56.5
Cladophialophora_australiensis_CBS112793,SRR9971568.8501526,92.31,91,7,0,1326,1416,186,96,1e-27,130
Cladophialophora_australiensis_CBS112793,SRR9971568.6665302,91.07,56,5,0,1326,1381,56,1,2e-11,76.8
Cladophialophora_australiensis_CBS112793,SRR9971568.6276038,100.00,33,0,0,1180,1212,121,153,5e-07,62.1
Cladophialophora_australiensis_CBS112793,SRR9971568.354135,100.00,33,0,0,1180,1212,140,108,5e-07,62.1
Cladophialophora_australiensis_CBS112793,SRR9971568.3059908,100.00,32,0,0,1180,1211,32,1,2e-06,60.2
Cladophialophora_australiensis_CBS112793,SRR9971568.3059908,100.00,32,0,0,1180,1211,154,185,2e-06,60.2
Cladophialophora_australiensis_CBS112793,SRR9971568.5960878,100.00,30,0,0,1183,1212,1,30,2e-05,56.5
Cladophialophora_potulentorum_CBS112222,SRR9971568.8501526,92.31,91,7,0,1328,1418,186,96,1e-27,130
Cladophialophora_potulentorum_CBS112222,SRR9971568.6665302,91.07,56,5,0,1328,1383,56,1,2e-11,76.8
Cladophialophora_potulentorum_CBS112222,SRR9971568.6276038,93.18,44,3,0,1182,1225,121,164,4e-08,65.8
Cladophialophora_potulentorum_CBS112222,SRR9971568.354135,100.00,33,0,0,1182,1214,140,108,5e-07,62.1
Cladophialophora_potulentorum_CBS112222,SRR9971568.5960878,92.68,41,3,0,1185,1225,1,41,2e-06,60.2
Cladophialophora_potulentorum_CBS112222,SRR9971568.3059908,100.00,32,0,0,1182,1213,32,1,2e-06,60.2
Cladophialophora_potulentorum_CBS112222,SRR9971568.3059908,100.00,32,0,0,1182,1213,154,185,2e-06,60.2
Cladophialophora_chaetospira_CBS127573,SRR9971568.6409480,97.14,35,1,0,379,413,96,62,1e-06,60.2
Cladophialophora_chaetospira_CBS127573,SRR9971568.6409480,97.14,35,1,0,379,413,131,165,1e-06,60.2
Cladophialophora_chaetospira_CBS127573,SRR9971568.2049686,97.14,35,1,0,379,413,137,103,1e-06,60.2
Cladophialophora_chaetospira_CBS127573,SRR9971568.1246069,97.14,35,1,0,379,413,4,38,1e-06,60.2
Cladophialophora_chaetospira_CBS127573,SRR9971568.537035,97.14,35,1,0,379,413,37,3,1e-06,60.2
Phialophora_americana_CBS400.67,SRR9971568.8501526,92.31,91,7,0,1320,1410,186,96,1e-27,130
Phialophora_americana_CBS400.67,SRR9971568.6665302,91.07,56,5,0,1320,1375,56,1,2e-11,76.8
Phialophora_americana_CBS400.67,SRR9971568.6276038,95.45,44,2,0,1174,1217,121,164,8e-10,71.3
Phialophora_americana_CBS400.67,SRR9971568.5960878,95.12,41,2,0,1177,1217,1,41,4e-08,65.8
Phialophora_americana_CBS400.67,SRR9971568.354135,100.00,34,0,0,1174,1207,140,107,1e-07,63.9
Phialophora_americana_CBS400.67,SRR9971568.3059908,100.00,32,0,0,1174,1205,32,1,2e-06,60.2
Phialophora_americana_CBS400.67,SRR9971568.3059908,100.00,32,0,0,1174,1205,154,185,2e-06,60.2
Cyphellophora_laciniata_CBS190.61_T,SRR9971568.2049686,96.97,66,2,0,39,104,168,103,2e-22,111
Cyphellophora_laciniata_CBS190.61_T,SRR9971568.537035,96.97,66,2,0,39,104,68,3,2e-22,111
Cyphellophora_laciniata_CBS190.61_T,SRR9971568.6409480,96.92,65,2,0,40,104,101,165,8e-22,110
Cyphellophora_laciniata_CBS190.61_T,SRR9971568.6409480,100.00,39,0,0,66,104,100,62,1e-10,73.1
Cyphellophora_laciniata_CBS190.61_T,SRR9971568.4702364,95.74,47,2,0,39,85,146,100,9e-12,76.8
Cyphellophora_laciniata_CBS190.61_T,SRR9971568.4702364,95.65,46,2,0,39,84,24,69,3e-11,75.0
Cyphellophora_laciniata_CBS190.61_T,SRR9971568.1246069,100.00,38,0,0,67,104,1,38,4e-10,71.3
