Exophiala_brunnea_CBS,SRR9971567.9009576,97.67,43,1,0,1,43,38,80,3e-11,75.0
Exophiala_brunnea_CBS,SRR9971567.9009576,97.67,43,1,0,1,43,158,116,3e-11,75.0
Exophiala_brunnea_CBS,SRR9971567.1259562,97.50,40,1,0,4,43,101,62,1e-09,69.4
Exophiala_brunnea_CBS,SRR9971567.4008337,96.88,32,1,0,12,43,200,169,3e-05,54.7
Exophiala_dermatitidis_CBS748.88,SRR9971567.6214118,95.45,44,2,0,1213,1256,136,179,8e-10,71.3
Exophiala_tremulae_CBS129355,SRR9971567.9009576,97.67,43,1,0,1,43,38,80,2e-11,75.0
Exophiala_tremulae_CBS129355,SRR9971567.9009576,97.67,43,1,0,1,43,158,116,2e-11,75.0
Exophiala_tremulae_CBS129355,SRR9971567.1259562,97.50,40,1,0,4,43,101,62,1e-09,69.4
Exophiala_tremulae_CBS129355,SRR9971567.4008337,96.88,32,1,0,12,43,200,169,3e-05,54.7
Rhinocladiella_atrovirens_CBS264.49,SRR9971567.9009576,100.00,48,0,0,1,48,33,80,9e-16,89.8
Rhinocladiella_atrovirens_CBS264.49,SRR9971567.9009576,100.00,48,0,0,1,48,163,116,9e-16,89.8
Rhinocladiella_atrovirens_CBS264.49,SRR9971567.1259562,100.00,40,0,0,9,48,101,62,2e-11,75.0
Rhinocladiella_atrovirens_CBS264.49,SRR9971567.4008337,100.00,32,0,0,17,48,200,169,7e-07,60.2
Rhinocladiella_fasciculata_CBS132.86_T,SRR9971567.9009576,100.00,31,0,0,1,31,50,80,2e-06,58.4
Rhinocladiella_fasciculata_CBS132.86_T,SRR9971567.9009576,100.00,31,0,0,1,31,146,116,2e-06,58.4
Rhinocladiella_fasciculata_CBS132.86_T,SRR9971567.4008337,100.00,31,0,0,1,31,199,169,2e-06,58.4
Rhinocladiella_fasciculata_CBS132.86_T,SRR9971567.1259562,100.00,31,0,0,1,31,92,62,2e-06,58.4
Capronia_kleinmondensis_CBS122671_T,SRR9971567.9009576,100.00,34,0,0,1,34,47,80,6e-08,63.9
Capronia_kleinmondensis_CBS122671_T,SRR9971567.9009576,100.00,34,0,0,1,34,149,116,6e-08,63.9
Capronia_kleinmondensis_CBS122671_T,SRR9971567.1259562,100.00,34,0,0,1,34,95,62,6e-08,63.9
Capronia_kleinmondensis_CBS122671_T,SRR9971567.4008337,100.00,32,0,0,3,34,200,169,7e-07,60.2
Veronaea_japonica_CBS776.83_T,SRR9971567.9009576,97.62,42,1,0,1,42,39,80,9e-11,73.1
Veronaea_japonica_CBS776.83_T,SRR9971567.9009576,97.62,42,1,0,1,42,157,116,9e-11,73.1
Veronaea_japonica_CBS776.83_T,SRR9971567.1259562,97.50,40,1,0,3,42,101,62,1e-09,69.4
Veronaea_japonica_CBS776.83_T,SRR9971567.4008337,96.88,32,1,0,11,42,200,169,3e-05,54.7
Fonsecaea_pedrosoi_CBS271.37_T,SRR9971567.9009576,100.00,30,0,0,1,30,47,76,9e-06,56.5
Fonsecaea_pedrosoi_CBS271.37_T,SRR9971567.9009576,100.00,30,0,0,1,30,149,120,9e-06,56.5
Fonsecaea_pedrosoi_CBS271.37_T,SRR9971567.1259562,100.00,30,0,0,1,30,95,66,9e-06,56.5
Fonsecaea_pedrosoi_CBS271.37_T,SRR9971567.4008337,100.00,28,0,0,3,30,200,173,1e-04,52.8
Cladophialophora_australiensis_CBS112793,SRR9971567.6214118,100.00,33,0,0,1180,1212,136,168,5e-07,62.1
Cladophialophora_potulentorum_CBS112222,SRR9971567.6214118,93.18,44,3,0,1182,1225,136,179,4e-08,65.8
Cladophialophora_chaetospira_CBS127573,SRR9971567.9009576,97.14,35,1,0,379,413,46,80,1e-06,60.2
Cladophialophora_chaetospira_CBS127573,SRR9971567.9009576,97.14,35,1,0,379,413,150,116,1e-06,60.2
Cladophialophora_chaetospira_CBS127573,SRR9971567.1259562,97.14,35,1,0,379,413,96,62,1e-06,60.2
Cladophialophora_chaetospira_CBS127573,SRR9971567.4008337,96.88,32,1,0,382,413,200,169,5e-05,54.7
Phialophora_americana_CBS400.67,SRR9971567.6214118,95.45,44,2,0,1174,1217,136,179,8e-10,71.3
Cyphellophora_laciniata_CBS190.61_T,SRR9971567.9009576,96.97,66,2,0,39,104,15,80,2e-22,111
Cyphellophora_laciniata_CBS190.61_T,SRR9971567.9009576,96.97,66,2,0,39,104,181,116,2e-22,111
Cyphellophora_laciniata_CBS190.61_T,SRR9971567.1259562,100.00,40,0,0,65,104,101,62,3e-11,75.0
Cyphellophora_laciniata_CBS190.61_T,SRR9971567.4008337,100.00,32,0,0,73,104,200,169,8e-07,60.2
