Exophiala_pisciphila_CBS537.73_T,SRR7639370.754484,86.36,88,10,2,567,653,159,245,7e-18,95.3
Exophiala_mesophila_CBS402.95_T,SRR7639370.754484,86.21,87,12,0,564,650,159,245,7e-18,95.3
Exophiala_castellanii_CBS158.58_T,SRR7639370.754484,86.21,87,12,0,563,649,159,245,7e-18,95.3
Exophiala_dermatitidis_CBS748.88,SRR7639370.661357,89.12,147,14,2,1173,1318,5,150,1e-43,182
Exophiala_dermatitidis_CBS748.88,SRR7639370.661357,98.11,53,1,0,1449,1501,300,248,6e-17,93.5
Exophiala_dermatitidis_CBS748.88,SRR7639370.790062,91.76,85,7,0,1359,1443,88,4,1e-24,119
Exophiala_dermatitidis_CBS748.88,SRR7639370.790062,91.76,85,7,0,1359,1443,161,245,1e-24,119
Exophiala_dermatitidis_CBS748.88,SRR7639370.754484,85.71,98,14,0,589,686,159,256,3e-20,104
Exophiala_dermatitidis_CBS748.88,SRR7639370.916989,90.32,62,6,0,1212,1273,1,62,1e-13,82.4
Exophiala_dermatitidis_CBS748.88,SRR7639370.916989,90.32,62,6,0,1212,1273,286,225,1e-13,82.4
Exophiala_dermatitidis_CBS748.88,SRR7639370.965327,95.45,44,2,0,1213,1256,163,206,3e-10,71.3
Exophiala_dermatitidis_CBS748.88,SRR7639370.143027,95.45,44,2,0,1213,1256,228,271,3e-10,71.3
Exophiala_dermatitidis_CBS748.88,SRR7639370.1353719,100.00,31,0,0,1472,1502,119,89,2e-06,58.4
Exophiala_dermatitidis_CBS748.88,SRR7639370.1353719,100.00,31,0,0,1472,1502,152,182,2e-06,58.4
Exophiala_salmonis_CBS157.67_T,SRR7639370.754484,86.36,88,10,2,687,773,159,245,9e-18,95.3
Rhinocladiella_aquaspersa_CBS313.73_T,SRR7639370.754484,87.06,85,10,1,566,649,165,249,7e-18,95.3
Capronia_dactylotricha_DAOM208471_T,SRR7639370.754484,86.36,88,10,2,572,658,159,245,7e-18,95.3
Capronia_kleinmondensis_CBS122671_T,SRR7639370.754484,86.36,88,10,2,578,664,159,245,7e-18,95.3
Capronia_mansonii_CBS101.67_T,SRR7639370.754484,86.21,87,12,0,582,668,159,245,7e-18,95.3
Capronia_munkii_DAOM216390_T,SRR7639370.754484,86.21,87,12,0,582,668,159,245,7e-18,95.3
Capronia_coronata_ATCC56201_T,SRR7639370.754484,86.21,87,12,0,553,639,159,245,7e-18,95.3
Capronia_acutiseta_ATCC56428_T,SRR7639370.754484,86.36,88,10,2,552,638,159,245,7e-18,95.3
Cladophialophora_australiensis_CBS112793,SRR7639370.661357,87.76,147,16,2,1140,1285,5,150,3e-40,171
Cladophialophora_australiensis_CBS112793,SRR7639370.661357,98.11,53,1,0,1416,1468,300,248,6e-17,93.5
Cladophialophora_australiensis_CBS112793,SRR7639370.790062,91.76,85,7,0,1326,1410,88,4,1e-24,119
Cladophialophora_australiensis_CBS112793,SRR7639370.790062,91.76,85,7,0,1326,1410,161,245,1e-24,119
Cladophialophora_australiensis_CBS112793,SRR7639370.754484,83.67,98,16,0,560,657,159,256,6e-17,93.5
Cladophialophora_australiensis_CBS112793,SRR7639370.916989,87.10,62,8,0,1179,1240,1,62,3e-10,71.3
Cladophialophora_australiensis_CBS112793,SRR7639370.916989,87.10,62,8,0,1179,1240,286,225,3e-10,71.3
Cladophialophora_australiensis_CBS112793,SRR7639370.965327,100.00,33,0,0,1180,1212,163,195,2e-07,62.1
Cladophialophora_australiensis_CBS112793,SRR7639370.143027,100.00,33,0,0,1180,1212,228,260,2e-07,62.1
Cladophialophora_australiensis_CBS112793,SRR7639370.1353719,100.00,31,0,0,1439,1469,119,89,2e-06,58.4
Cladophialophora_australiensis_CBS112793,SRR7639370.1353719,100.00,31,0,0,1439,1469,152,182,2e-06,58.4
Cladophialophora_potulentorum_CBS112222,SRR7639370.661357,87.07,147,17,2,1142,1287,5,150,1e-38,165
Cladophialophora_potulentorum_CBS112222,SRR7639370.661357,96.05,76,3,0,1418,1493,300,225,2e-26,124
Cladophialophora_potulentorum_CBS112222,SRR7639370.790062,91.76,85,7,0,1328,1412,88,4,1e-24,119
Cladophialophora_potulentorum_CBS112222,SRR7639370.790062,91.76,85,7,0,1328,1412,161,245,1e-24,119
Cladophialophora_potulentorum_CBS112222,SRR7639370.754484,83.67,98,16,0,562,659,159,256,6e-17,93.5
Cladophialophora_potulentorum_CBS112222,SRR7639370.1353719,95.83,48,2,0,1441,1488,119,72,2e-12,78.7
Cladophialophora_potulentorum_CBS112222,SRR7639370.1353719,95.83,48,2,0,1441,1488,152,199,2e-12,78.7
Cladophialophora_potulentorum_CBS112222,SRR7639370.916989,88.71,62,7,0,1181,1242,1,62,6e-12,76.8
Cladophialophora_potulentorum_CBS112222,SRR7639370.916989,88.71,62,7,0,1181,1242,286,225,6e-12,76.8
Cladophialophora_potulentorum_CBS112222,SRR7639370.965327,93.18,44,3,0,1182,1225,163,206,1e-08,65.8
Cladophialophora_potulentorum_CBS112222,SRR7639370.143027,93.18,44,3,0,1182,1225,228,271,1e-08,65.8
Phialophora_americana_CBS400.67,SRR7639370.661357,89.12,147,14,2,1134,1279,5,150,1e-43,182
Phialophora_americana_CBS400.67,SRR7639370.661357,97.22,36,1,0,1410,1445,300,265,2e-07,62.1
Phialophora_americana_CBS400.67,SRR7639370.790062,91.76,85,7,0,1320,1404,88,4,1e-24,119
Phialophora_americana_CBS400.67,SRR7639370.790062,91.76,85,7,0,1320,1404,161,245,1e-24,119
Phialophora_americana_CBS400.67,SRR7639370.916989,90.32,62,6,0,1173,1234,1,62,1e-13,82.4
Phialophora_americana_CBS400.67,SRR7639370.916989,90.32,62,6,0,1173,1234,286,225,1e-13,82.4
Phialophora_americana_CBS400.67,SRR7639370.965327,95.45,44,2,0,1174,1217,163,206,3e-10,71.3
Phialophora_americana_CBS400.67,SRR7639370.143027,95.45,44,2,0,1174,1217,228,271,3e-10,71.3
Cyphellophora_laciniata_CBS190.61_T,SRR7639370.754484,87.36,87,11,0,649,735,159,245,2e-19,100
Cladophialophora_modesta_CBS985.96_T,SRR7639370.754484,89.66,87,9,0,533,619,159,245,7e-23,111
