Exophiala_nigra_CBS535.94_T,SRR8793753.1,98.04,51,1,0,201,251,99,149,6e-22,89.8
Exophiala_spinifera_CBS899.68_T,SRR8793753.1,98.04,51,1,0,198,248,99,149,6e-22,89.8
Exophiala_exophialae_CBS668.76_T,SRR8793753.1,98.04,51,1,0,199,249,99,149,6e-22,89.8
Exophiala_polymorpha_CBS138920_T,SRR8793753.1,94.83,58,3,0,294,351,92,149,2e-22,91.6
Exophiala_oligosperma_CBS725.88_T,SRR8793753.1,98.04,51,1,0,211,261,99,149,6e-22,89.8
Exophiala_jeanselmei_CBS507.90_T,SRR8793753.1,98.04,51,1,0,203,253,99,149,7e-22,89.8
Exophiala_bergeri_CBS353.52,SRR8793753.1,98.04,51,1,0,164,214,99,149,5e-22,89.8
Exophiala_moniliae_CBS520.76_T,SRR8793753.1,98.04,51,1,0,201,251,99,149,6e-22,89.8
Exophiala_pisciphila_CBS537.73_T,SRR8793753.1,98.04,51,1,0,204,254,99,149,7e-22,89.8
Exophiala_xenobiotica_CBS117642,SRR8793753.1,98.04,51,1,0,196,246,99,149,6e-22,89.8
Exophiala_brunnea_CBS,SRR8793753.1,98.04,51,1,0,232,282,99,149,7e-22,89.8
Exophiala_brunnea_CBS,SRR8793753.1,100.00,40,0,0,1,40,427,388,2e-17,75.0
Exophiala_brunnea_CBS,SRR8793753.1,100.00,28,0,0,13,40,1,28,9e-11,52.8
Exophiala_mesophila_CBS402.95_T,SRR8793753.1,98.04,51,1,0,194,244,99,149,7e-22,89.8
Exophiala_castellanii_CBS158.58_T,SRR8793753.1,98.04,51,1,0,192,242,99,149,7e-22,89.8
Exophiala_lecanii-corni_CBS123.33_T,SRR8793753.1,98.04,51,1,0,215,265,99,149,6e-22,89.8
Exophiala_dermatitidis_CBS748.88,SRR8793753.1,98.04,51,0,1,208,257,99,149,6e-21,87.9
Exophiala_angulospora_CBS482.92_T,SRR8793753.1,98.04,51,1,0,198,248,99,149,6e-22,89.8
Exophiala_opportunistica_CBS109811_T,SRR8793753.1,94.83,58,2,1,191,247,92,149,6e-22,89.8
Exophiala_salmonis_CBS157.67_T,SRR8793753.1,98.04,51,1,0,326,376,99,149,9e-22,89.8
Exophiala_salmonis_CBS157.67_T,SRR8793753.1,100.00,36,0,0,87,122,456,421,4e-15,67.6
Exophiala_salmonis_CBS157.67_T,SRR8793753.2,97.14,35,1,0,87,121,540,506,7e-13,60.2
Exophiala_aquamarina_CBS119918_T,SRR8793753.1,98.04,51,1,0,204,254,99,149,6e-22,89.8
Exophiala_cancerae_CBS120420_T,SRR8793753.1,94.83,58,2,1,213,269,92,149,7e-22,89.8
Exophiala_tremulae_CBS129355,SRR8793753.1,98.04,51,1,0,231,281,99,149,7e-22,89.8
Exophiala_tremulae_CBS129355,SRR8793753.1,100.00,40,0,0,1,40,427,388,2e-17,75.0
Exophiala_tremulae_CBS129355,SRR8793753.1,100.00,28,0,0,13,40,1,28,9e-11,52.8
Exophiala_equina_CBS116009,SRR8793753.1,98.04,51,1,0,197,247,99,149,6e-22,89.8
Exophiala_alcalophila_CBS520.82_T,SRR8793753.1,94.83,58,2,1,202,258,92,149,6e-22,89.8
Exophiala_crusticola_CBS119970_T,SRR8793753.1,98.04,51,1,0,213,263,99,149,6e-22,89.8
Rhinocladiella_atrovirens_CBS264.49,SRR8793753.1,98.04,51,1,0,239,289,99,149,7e-22,89.8
Rhinocladiella_atrovirens_CBS264.49,SRR8793753.1,100.00,44,0,0,1,44,432,389,1e-19,82.4
Rhinocladiella_basitona_CBS101460_T,SRR8793753.1,98.04,51,1,0,198,248,99,149,6e-22,89.8
Rhinocladiella_phaeophora_CBS496.78_T,SRR8793753.1,98.04,51,1,0,206,256,99,149,6e-22,89.8
Rhinocladiella_aquaspersa_CBS313.73_T,SRR8793753.1,98.04,51,1,0,200,250,99,149,7e-22,89.8
Rhinocladiella_anceps_CBS181.65_T,SRR8793753.1,98.04,51,1,0,198,248,99,149,6e-22,89.8
Rhinocladiella_mackenziei_CBS367.92,SRR8793753.1,93.55,62,2,2,178,237,88,149,2e-22,91.6
Veronaea_compacta_CBS268.75_T,SRR8793753.1,98.04,51,1,0,220,270,99,149,7e-22,89.8
Veronaea_compacta_CBS268.75_T,SRR8793753.1,100.00,28,0,0,1,28,1,28,9e-11,52.8
Veronaea_compacta_CBS268.75_T,SRR8793753.1,100.00,28,0,0,1,28,415,388,9e-11,52.8
Capronia_pilosella_AFTOL-ID657,SRR8793753.1,98.04,51,1,0,298,348,99,149,8e-22,89.8
Capronia_pilosella_AFTOL-ID657,SRR8793753.1,100.00,28,0,0,80,107,2,29,1e-10,52.8
Capronia_pilosella_AFTOL-ID657,SRR8793753.1,100.00,28,0,0,80,107,414,387,1e-10,52.8
Capronia_dactylotricha_DAOM208471_T,SRR8793753.1,98.04,51,1,0,200,250,99,149,7e-22,89.8
Capronia_kleinmondensis_CBS122671_T,SRR8793753.1,98.04,51,1,0,225,275,99,149,7e-22,89.8
Capronia_kleinmondensis_CBS122671_T,SRR8793753.1,100.00,30,0,0,1,30,418,389,7e-12,56.5
Capronia_mansonii_CBS101.67_T,SRR8793753.1,98.04,51,1,0,211,261,99,149,7e-22,89.8
Capronia_munkii_DAOM216390_T,SRR8793753.1,98.04,51,1,0,211,261,99,149,7e-22,89.8
Capronia_coronata_ATCC56201_T,SRR8793753.1,98.04,51,1,0,199,249,99,149,7e-22,89.8
Capronia_parasitica_CBS123.88,SRR8793753.1,98.08,52,1,0,204,255,98,149,2e-22,91.6
Veronaea_japonica_CBS776.83_T,SRR8793753.1,98.04,51,1,0,233,283,99,149,7e-22,89.8
Veronaea_japonica_CBS776.83_T,SRR8793753.1,100.00,39,0,0,1,39,426,388,7e-17,73.1
Veronaea_japonica_CBS776.83_T,SRR8793753.1,100.00,28,0,0,12,39,1,28,9e-11,52.8
Thysanorea_papuana_CBS212.96_T,SRR8793753.1,98.04,51,1,0,207,257,99,149,6e-22,89.8
Capronia_acutiseta_ATCC56428_T,SRR8793753.1,94.83,58,2,1,195,251,92,149,7e-22,89.8
Fonsecaea_brasiliensis_CBS119710_T,SRR8793753.1,98.04,51,1,0,207,257,99,149,6e-22,89.8
Fonsecaea_pedrosoi_CBS271.37_T,SRR8793753.1,98.04,51,1,0,235,285,99,149,7e-22,89.8
Fonsecaea_pedrosoi_CBS271.37_T,SRR8793753.1,100.00,31,0,0,1,31,418,388,2e-12,58.4
Fonsecaea_pedrosoi_CBS271.37_T,SRR8793753.1,100.00,28,0,0,4,31,1,28,9e-11,52.8
Fonsecaea_multimorphosa_CBS980.96_T,SRR8793753.1,98.04,51,1,0,205,255,99,149,6e-22,89.8
Fonsecaea_minima_CBS125760_T,SRR8793753.1,98.04,51,1,0,201,251,99,149,6e-22,89.8
Fonsecaea_nubica_CBS269.64_T,SRR8793753.1,98.04,51,1,0,212,262,99,149,6e-22,89.8
Fonsecaea_monophora_CBS269.37_T,SRR8793753.1,98.04,51,1,0,212,262,99,149,6e-22,89.8
Fonsecaea_erecta_CBS125763_T,SRR8793753.1,98.04,51,1,0,196,246,99,149,6e-22,89.8
Fonsecaea_pugnacius_CBS139214_T,SRR8793753.1,98.04,51,1,0,205,255,99,149,6e-22,89.8
Cladophialophora_psammophila_CBS,SRR8793753.1,98.04,51,1,0,211,261,99,149,6e-22,89.8
Cladophialophora_devriesii_CBS,SRR8793753.1,98.04,51,1,0,207,257,99,149,6e-22,89.8
Cladophialophora_immunda_CBS834.96,SRR8793753.1,98.04,51,1,0,209,259,99,149,6e-22,89.8
Cladophialophora_arxii_CBS306.94_T,SRR8793753.1,98.04,51,1,0,211,261,99,149,6e-22,89.8
Cladophialophora_bantiana_CBS173.52,SRR8793753.1,98.04,51,1,0,205,255,99,149,6e-22,89.8
Cladophialophora_emmonsii_CBS102594,SRR8793753.1,98.04,51,1,0,196,246,99,149,6e-22,89.8
Cladophialophora_minourae_CBS556.83,SRR8793753.1,98.04,51,1,0,204,254,99,149,6e-22,89.8
Cladophialophora_australiensis_CBS112793,SRR8793753.1,98.08,52,1,0,205,256,98,149,5e-22,91.6
Cladophialophora_potulentorum_CBS112222,SRR8793753.1,98.04,51,1,0,205,255,99,149,2e-21,89.8
Cladophialophora_matsushimae_CMRP1198,SRR8793753.1,93.55,62,2,2,198,259,90,149,1e-22,91.6
Cladophialophora_mycetomatis_CBS122637,SRR8793753.1,89.47,76,4,4,169,244,78,149,5e-23,93.5
Cladophialophora_chaetospira_CBS127573,SRR8793753.1,100.00,32,0,0,379,410,419,388,8e-13,60.2
Cladophialophora_chaetospira_CBS127573,SRR8793753.1,100.00,28,0,0,383,410,1,28,1e-10,52.8
Cladophialophora_boppii_CBS126.86_T,SRR8793753.1,98.04,51,1,0,202,252,99,149,6e-22,89.8
Cladophialophora_abundans_CBS126736,SRR8793753.1,98.04,51,1,0,139,189,99,149,5e-22,89.8
Capronia_semi-immersa_CBS102234,SRR8793753.1,98.04,51,1,0,201,251,99,149,6e-22,89.8
Phialophora_americana_CBS400.67,SRR8793753.1,98.04,51,1,0,203,253,99,149,2e-21,89.8
Phialophora_verrucosa_CBS140325_T,SRR8793753.1,98.04,51,1,0,207,257,99,149,6e-22,89.8
Cladophialophora_samoensis_CBS259.83_T,SRR8793753.1,98.04,51,1,0,207,257,99,149,6e-22,89.8
Cladophialophora_carrionii_CBS260.83,SRR8793753.1,98.04,51,1,0,223,273,99,149,7e-22,89.8
Exophiala_palmae_UPCB86822_T,SRR8793753.1,98.04,51,1,0,166,216,99,149,6e-22,89.8
Cladophialophora_yegresii_CBS114405_T,SRR8793753.1,98.04,51,1,0,208,258,99,149,6e-22,89.8
Knufia_epidermidis_CBS120353_T,SRR8793753.1,94.92,59,3,0,198,256,91,149,5e-23,93.5
Arthrocladium_fulminans_CBS136243_T,SRR8793753.1,98.04,51,1,0,201,251,99,149,6e-22,89.8
Anthopsis_deltoidea_CBS263.77_T,SRR8793753.1,98.04,51,1,0,210,260,99,149,6e-22,89.8
Cyphellophora_laciniata_CBS190.61_T,SRR8793753.1,100.00,68,0,0,33,100,456,389,6e-33,126
Cyphellophora_laciniata_CBS190.61_T,SRR8793753.2,91.30,69,6,0,33,101,540,472,2e-23,95.3
Cyphellophora_suttonii_CBS449.91,SRR8793753.1,92.54,67,4,1,182,248,84,149,1e-23,95.3
Cyphellophora_pauciseptata_CBS284.85_T,SRR8793753.1,94.03,67,3,1,193,259,84,149,3e-25,100
Phialophora_europaea_CBS101466,SRR8793753.1,98.25,57,1,0,198,254,93,149,3e-25,100
Phialophora_ambigua_CBS235.93,SRR8793753.1,91.18,68,4,2,184,251,84,149,2e-22,91.6
Cladophialophora_modesta_CBS985.96_T,SRR8793753.1,94.83,58,2,1,192,248,92,149,7e-22,89.8
