Exophiala_nigra_CBS535.94_T,ERR3416587.60287,89.52,105,8,2,287,391,278,177,1e-29,130
Exophiala_nigra_CBS535.94_T,ERR3416587.60287,88.57,105,9,2,287,391,328,429,2e-28,126
Exophiala_nigra_CBS535.94_T,ERR3416587.54880,87.85,107,10,1,287,393,328,431,2e-27,122
Exophiala_nigra_CBS535.94_T,ERR3416587.54880,86.92,107,11,1,287,393,282,179,1e-25,117
Exophiala_spinifera_CBS899.68_T,ERR3416587.60287,89.66,116,8,2,280,395,282,171,5e-34,145
Exophiala_spinifera_CBS899.68_T,ERR3416587.60287,88.43,121,8,4,276,395,320,435,2e-33,143
Exophiala_spinifera_CBS899.68_T,ERR3416587.54880,87.74,106,11,1,284,389,328,431,2e-27,122
Exophiala_spinifera_CBS899.68_T,ERR3416587.54880,86.36,110,13,1,280,389,286,179,3e-26,119
Exophiala_exophialae_CBS668.76_T,ERR3416587.60287,89.66,116,8,2,281,396,282,171,4e-34,145
Exophiala_exophialae_CBS668.76_T,ERR3416587.60287,88.43,121,8,4,277,396,320,435,2e-33,143
Exophiala_exophialae_CBS668.76_T,ERR3416587.54880,87.74,106,11,1,285,390,328,431,2e-27,122
Exophiala_exophialae_CBS668.76_T,ERR3416587.54880,86.36,110,13,1,281,390,286,179,3e-26,119
Exophiala_polymorpha_CBS138920_T,ERR3416587.60287,89.66,116,8,2,383,498,282,171,6e-34,145
Exophiala_polymorpha_CBS138920_T,ERR3416587.60287,88.43,121,8,4,379,498,320,435,2e-33,143
Exophiala_polymorpha_CBS138920_T,ERR3416587.54880,87.74,106,11,1,387,492,328,431,3e-27,122
Exophiala_polymorpha_CBS138920_T,ERR3416587.54880,86.36,110,13,1,383,492,286,179,4e-26,119
Exophiala_polymorpha_CBS138920_T,ERR3416587.54880,98.11,53,1,0,642,694,66,14,2e-18,93.5
Exophiala_oligosperma_CBS725.88_T,ERR3416587.60287,90.74,108,8,1,293,400,282,177,2e-33,143
Exophiala_oligosperma_CBS725.88_T,ERR3416587.60287,89.38,113,8,3,289,400,320,429,6e-33,141
Exophiala_oligosperma_CBS725.88_T,ERR3416587.54880,87.74,106,11,1,297,402,328,431,2e-27,122
Exophiala_oligosperma_CBS725.88_T,ERR3416587.54880,86.36,110,13,1,293,402,286,179,3e-26,119
Exophiala_jeanselmei_CBS507.90_T,ERR3416587.60287,89.66,116,8,2,285,400,282,171,5e-34,145
Exophiala_jeanselmei_CBS507.90_T,ERR3416587.60287,88.43,121,8,4,281,400,320,435,2e-33,143
Exophiala_jeanselmei_CBS507.90_T,ERR3416587.54880,87.74,106,11,1,289,394,328,431,2e-27,122
Exophiala_jeanselmei_CBS507.90_T,ERR3416587.54880,86.36,110,13,1,285,394,286,179,3e-26,119
Exophiala_jeanselmei_CBS507.90_T,ERR3416587.54880,98.36,61,1,0,544,604,66,6,7e-23,108
Exophiala_bergeri_CBS353.52,ERR3416587.60287,89.52,105,8,1,250,354,278,177,1e-29,130
Exophiala_bergeri_CBS353.52,ERR3416587.60287,88.57,105,9,1,250,354,328,429,1e-28,126
Exophiala_bergeri_CBS353.52,ERR3416587.54880,93.67,79,5,0,250,328,328,406,2e-26,119
Exophiala_bergeri_CBS353.52,ERR3416587.54880,94.52,73,4,0,250,322,282,210,1e-24,113
Exophiala_moniliae_CBS520.76_T,ERR3416587.60287,93.18,88,6,0,287,374,278,191,1e-29,130
Exophiala_moniliae_CBS520.76_T,ERR3416587.60287,92.05,88,7,0,287,374,328,415,2e-28,126
Exophiala_moniliae_CBS520.76_T,ERR3416587.54880,94.94,79,4,0,287,365,328,406,6e-28,124
Exophiala_moniliae_CBS520.76_T,ERR3416587.54880,93.67,79,5,0,287,365,282,204,3e-26,119
Exophiala_pisciphila_CBS537.73_T,ERR3416587.60287,91.07,112,6,2,290,401,278,171,4e-35,148
Exophiala_pisciphila_CBS537.73_T,ERR3416587.60287,89.17,120,9,2,282,401,320,435,4e-35,148
Exophiala_pisciphila_CBS537.73_T,ERR3416587.60287,94.12,68,3,1,547,613,537,604,3e-21,102
Exophiala_pisciphila_CBS537.73_T,ERR3416587.54880,88.68,106,10,1,290,395,328,431,6e-29,128
Exophiala_pisciphila_CBS537.73_T,ERR3416587.54880,87.74,106,11,1,290,395,282,179,3e-27,122
Exophiala_pisciphila_CBS537.73_T,ERR3416587.54880,98.51,67,1,0,547,613,72,6,3e-26,119
Exophiala_pisciphila_CBS537.73_T,ERR3416587.54880,95.52,67,3,0,547,613,538,604,7e-23,108
Exophiala_xenobiotica_CBS117642,ERR3416587.60287,90.18,112,7,2,282,393,278,171,2e-33,143
Exophiala_xenobiotica_CBS117642,ERR3416587.60287,89.29,112,8,2,282,393,328,435,2e-32,139
Exophiala_xenobiotica_CBS117642,ERR3416587.54880,87.74,106,11,1,282,387,328,431,2e-27,122
Exophiala_xenobiotica_CBS117642,ERR3416587.54880,86.79,106,12,1,282,387,282,179,1e-25,117
Exophiala_brunnea_CBS,ERR3416587.60287,90.18,112,7,2,318,429,278,171,2e-33,143
Exophiala_brunnea_CBS,ERR3416587.60287,89.29,112,8,2,318,429,328,435,2e-32,139
Exophiala_brunnea_CBS,ERR3416587.54880,87.74,106,11,1,318,423,328,431,2e-27,122
Exophiala_brunnea_CBS,ERR3416587.54880,86.79,106,12,1,318,423,282,179,1e-25,117
Exophiala_brunnea_CBS,ERR3416587.54880,98.00,50,1,0,584,633,66,17,3e-17,89.8
Exophiala_nishimurae_CBS101538_T,ERR3416587.60287,90.74,108,8,1,292,399,282,177,2e-33,143
Exophiala_nishimurae_CBS101538_T,ERR3416587.60287,89.38,113,8,3,288,399,320,429,6e-33,141
Exophiala_nishimurae_CBS101538_T,ERR3416587.54880,87.74,106,11,1,296,401,328,431,2e-27,122
Exophiala_nishimurae_CBS101538_T,ERR3416587.54880,86.36,110,13,1,292,401,286,179,3e-26,119
Exophiala_mesophila_CBS402.95_T,ERR3416587.60287,93.18,88,6,0,280,367,278,191,2e-29,130
Exophiala_mesophila_CBS402.95_T,ERR3416587.60287,92.05,88,7,0,280,367,328,415,2e-28,126
Exophiala_mesophila_CBS402.95_T,ERR3416587.54880,93.67,79,5,0,280,358,328,406,3e-26,119
Exophiala_mesophila_CBS402.95_T,ERR3416587.54880,95.77,71,2,1,540,610,75,6,2e-24,113
Exophiala_mesophila_CBS402.95_T,ERR3416587.54880,92.41,79,6,0,280,358,282,204,2e-24,113
Exophiala_castellanii_CBS158.58_T,ERR3416587.60287,93.18,88,6,0,278,365,278,191,2e-29,130
Exophiala_castellanii_CBS158.58_T,ERR3416587.60287,92.05,88,7,0,278,365,328,415,2e-28,126
Exophiala_castellanii_CBS158.58_T,ERR3416587.54880,93.67,79,5,0,278,356,328,406,3e-26,119
Exophiala_castellanii_CBS158.58_T,ERR3416587.54880,95.83,72,1,1,540,609,77,6,4e-25,115
Exophiala_castellanii_CBS158.58_T,ERR3416587.54880,92.41,79,6,0,278,356,282,204,2e-24,113
Exophiala_lecanii-corni_CBS123.33_T,ERR3416587.60287,93.18,88,6,0,301,388,278,191,1e-29,130
Exophiala_lecanii-corni_CBS123.33_T,ERR3416587.60287,92.05,88,7,0,301,388,328,415,2e-28,126
Exophiala_lecanii-corni_CBS123.33_T,ERR3416587.54880,93.67,79,5,0,301,379,328,406,3e-26,119
Exophiala_lecanii-corni_CBS123.33_T,ERR3416587.54880,92.41,79,6,0,301,379,282,204,1e-24,113
Exophiala_dermatitidis_CBS748.88,ERR3416587.60287,91.43,105,6,1,293,397,278,177,2e-32,141
Exophiala_dermatitidis_CBS748.88,ERR3416587.60287,90.48,105,7,1,293,397,328,429,2e-31,137
Exophiala_dermatitidis_CBS748.88,ERR3416587.54880,94.94,79,4,0,293,371,328,406,2e-27,124
Exophiala_dermatitidis_CBS748.88,ERR3416587.54880,93.67,79,5,0,293,371,282,204,8e-26,119
Exophiala_dermatitidis_CBS748.88,ERR3416587.54880,93.33,75,3,2,563,635,80,6,5e-23,110
Exophiala_angulospora_CBS482.92_T,ERR3416587.60287,90.48,105,7,2,284,388,278,177,3e-31,135
Exophiala_angulospora_CBS482.92_T,ERR3416587.60287,89.52,105,8,2,284,388,328,429,4e-30,132
Exophiala_angulospora_CBS482.92_T,ERR3416587.54880,94.94,79,4,0,284,362,328,406,6e-28,124
Exophiala_angulospora_CBS482.92_T,ERR3416587.54880,93.67,79,5,0,284,362,282,204,3e-26,119
Exophiala_opportunistica_CBS109811_T,ERR3416587.60287,91.96,112,5,3,283,394,278,171,8e-37,154
Exophiala_opportunistica_CBS109811_T,ERR3416587.60287,91.07,112,6,3,283,394,328,435,1e-35,150
Exophiala_opportunistica_CBS109811_T,ERR3416587.54880,89.62,106,9,2,283,388,328,431,1e-30,134
Exophiala_opportunistica_CBS109811_T,ERR3416587.54880,88.68,106,10,2,283,388,282,179,5e-29,128
Exophiala_salmonis_CBS157.67_T,ERR3416587.60287,91.07,112,6,2,412,523,278,171,5e-35,148
Exophiala_salmonis_CBS157.67_T,ERR3416587.60287,90.18,112,7,2,412,523,328,435,7e-34,145
Exophiala_salmonis_CBS157.67_T,ERR3416587.60287,94.12,68,3,1,667,733,537,604,4e-21,102
Exophiala_salmonis_CBS157.67_T,ERR3416587.54880,88.68,106,10,1,412,517,328,431,7e-29,128
Exophiala_salmonis_CBS157.67_T,ERR3416587.54880,87.74,106,11,1,412,517,282,179,3e-27,122
Exophiala_salmonis_CBS157.67_T,ERR3416587.54880,98.51,67,1,0,667,733,72,6,4e-26,119
Exophiala_salmonis_CBS157.67_T,ERR3416587.54880,95.52,67,3,0,667,733,538,604,9e-23,108
Exophiala_aquamarina_CBS119918_T,ERR3416587.60287,92.38,105,5,2,290,394,278,177,1e-34,147
Exophiala_aquamarina_CBS119918_T,ERR3416587.60287,91.43,105,6,2,290,394,328,429,2e-33,143
Exophiala_aquamarina_CBS119918_T,ERR3416587.54880,88.79,107,9,2,290,396,328,431,5e-29,128
Exophiala_aquamarina_CBS119918_T,ERR3416587.54880,87.85,107,10,2,290,396,282,179,2e-27,122
Exophiala_cancerae_CBS120420_T,ERR3416587.60287,91.96,112,5,3,305,416,278,171,9e-37,154
Exophiala_cancerae_CBS120420_T,ERR3416587.60287,91.07,112,6,3,305,416,328,435,1e-35,150
Exophiala_cancerae_CBS120420_T,ERR3416587.60287,96.72,61,2,0,564,624,544,604,3e-21,102
Exophiala_cancerae_CBS120420_T,ERR3416587.54880,89.62,106,9,2,305,410,328,431,1e-30,134
Exophiala_cancerae_CBS120420_T,ERR3416587.54880,88.68,106,10,2,305,410,282,179,5e-29,128
Exophiala_cancerae_CBS120420_T,ERR3416587.54880,97.06,68,1,1,557,624,72,6,1e-24,113
Exophiala_cancerae_CBS120420_T,ERR3416587.54880,94.12,68,3,1,557,624,538,604,3e-21,102
Exophiala_tremulae_CBS129355,ERR3416587.60287,91.96,112,5,2,317,428,278,171,9e-37,154
Exophiala_tremulae_CBS129355,ERR3416587.60287,91.07,112,6,2,317,428,328,435,1e-35,150
Exophiala_tremulae_CBS129355,ERR3416587.60287,92.98,57,3,1,573,628,537,593,4e-15,82.4
Exophiala_tremulae_CBS129355,ERR3416587.54880,89.62,106,9,1,317,422,328,431,1e-30,134
Exophiala_tremulae_CBS129355,ERR3416587.54880,88.68,106,10,1,317,422,282,179,5e-29,128
Exophiala_tremulae_CBS129355,ERR3416587.54880,98.21,56,1,0,573,628,72,17,4e-20,99.0
Exophiala_tremulae_CBS129355,ERR3416587.54880,96.43,56,2,0,573,628,538,593,2e-18,93.5
Exophiala_equina_CBS116009,ERR3416587.60287,91.96,112,5,2,283,394,278,171,8e-37,154
Exophiala_equina_CBS116009,ERR3416587.60287,91.07,112,6,2,283,394,328,435,1e-35,150
Exophiala_equina_CBS116009,ERR3416587.54880,89.62,106,9,1,283,388,328,431,1e-30,134
Exophiala_equina_CBS116009,ERR3416587.54880,88.68,106,10,1,283,388,282,179,5e-29,128
Exophiala_alcalophila_CBS520.82_T,ERR3416587.60287,90.48,105,7,2,294,398,278,177,3e-31,135
Exophiala_alcalophila_CBS520.82_T,ERR3416587.60287,89.52,105,8,2,294,398,328,429,4e-30,132
Exophiala_alcalophila_CBS520.82_T,ERR3416587.54880,94.94,79,4,0,294,372,328,406,6e-28,124
Exophiala_alcalophila_CBS520.82_T,ERR3416587.54880,93.67,79,5,0,294,372,282,204,3e-26,119
Exophiala_crusticola_CBS119970_T,ERR3416587.60287,90.48,105,7,2,299,403,278,177,3e-31,135
Exophiala_crusticola_CBS119970_T,ERR3416587.60287,89.52,105,8,2,299,403,328,429,4e-30,132
Exophiala_crusticola_CBS119970_T,ERR3416587.54880,94.94,79,4,0,299,377,328,406,6e-28,124
Exophiala_crusticola_CBS119970_T,ERR3416587.54880,93.67,79,5,0,299,377,282,204,3e-26,119
Rhinocladiella_atrovirens_CBS264.49,ERR3416587.60287,93.18,88,6,0,325,412,278,191,1e-29,130
Rhinocladiella_atrovirens_CBS264.49,ERR3416587.60287,92.05,88,7,0,325,412,328,415,2e-28,126
Rhinocladiella_atrovirens_CBS264.49,ERR3416587.60287,94.44,54,3,0,570,623,536,589,1e-15,84.2
Rhinocladiella_atrovirens_CBS264.49,ERR3416587.54880,93.67,79,5,0,325,403,328,406,3e-26,119
Rhinocladiella_atrovirens_CBS264.49,ERR3416587.54880,92.41,79,6,0,325,403,282,204,1e-24,113
Rhinocladiella_atrovirens_CBS264.49,ERR3416587.54880,98.21,56,1,0,571,626,73,18,4e-20,99.0
Rhinocladiella_atrovirens_CBS264.49,ERR3416587.54880,96.43,56,2,0,571,626,537,592,2e-18,93.5
Rhinocladiella_basitona_CBS101460_T,ERR3416587.60287,89.66,116,8,2,280,395,282,171,5e-34,145
Rhinocladiella_basitona_CBS101460_T,ERR3416587.60287,88.43,121,8,4,276,395,320,435,2e-33,143
Rhinocladiella_basitona_CBS101460_T,ERR3416587.54880,87.74,106,11,1,284,389,328,431,2e-27,122
Rhinocladiella_basitona_CBS101460_T,ERR3416587.54880,86.36,110,13,1,280,389,286,179,3e-26,119
Rhinocladiella_phaeophora_CBS496.78_T,ERR3416587.60287,90.00,110,7,1,288,397,282,177,2e-32,139
Rhinocladiella_phaeophora_CBS496.78_T,ERR3416587.60287,88.70,115,7,3,284,397,320,429,8e-32,137
Rhinocladiella_phaeophora_CBS496.78_T,ERR3416587.54880,94.94,79,4,0,292,370,328,406,6e-28,124
Rhinocladiella_phaeophora_CBS496.78_T,ERR3416587.54880,92.77,83,6,0,288,370,286,204,8e-27,121
Rhinocladiella_aquaspersa_CBS313.73_T,ERR3416587.60287,90.00,110,7,1,282,391,282,177,3e-32,139
Rhinocladiella_aquaspersa_CBS313.73_T,ERR3416587.60287,88.70,115,7,3,278,391,320,429,9e-32,137
Rhinocladiella_aquaspersa_CBS313.73_T,ERR3416587.54880,94.94,79,4,0,286,364,328,406,7e-28,124
Rhinocladiella_aquaspersa_CBS313.73_T,ERR3416587.54880,92.77,83,6,0,282,364,286,204,9e-27,121
Rhinocladiella_aquaspersa_CBS313.73_T,ERR3416587.54880,90.79,76,2,5,535,605,81,6,2e-19,97.1
Rhinocladiella_fasciculata_CBS132.86_T,ERR3416587.60287,88.29,111,8,1,298,408,282,177,5e-29,128
Rhinocladiella_fasciculata_CBS132.86_T,ERR3416587.60287,87.07,116,8,3,294,408,320,429,2e-28,126
Rhinocladiella_fasciculata_CBS132.86_T,ERR3416587.54880,93.67,79,5,0,302,380,328,406,3e-26,119
Rhinocladiella_fasciculata_CBS132.86_T,ERR3416587.54880,91.57,83,7,0,298,380,286,204,4e-25,115
Rhinocladiella_anceps_CBS181.65_T,ERR3416587.60287,88.99,109,9,1,280,388,282,177,4e-30,132
Rhinocladiella_anceps_CBS181.65_T,ERR3416587.60287,87.72,114,9,3,276,388,320,429,1e-29,130
Rhinocladiella_anceps_CBS181.65_T,ERR3416587.54880,92.41,79,6,0,280,358,286,208,1e-24,113
Rhinocladiella_anceps_CBS181.65_T,ERR3416587.54880,93.42,76,5,0,284,359,328,403,1e-24,113
Rhinocladiella_mackenziei_CBS367.92,ERR3416587.60287,93.02,86,6,0,273,358,278,193,2e-28,126
Rhinocladiella_mackenziei_CBS367.92,ERR3416587.60287,91.86,86,7,0,273,358,328,413,2e-27,122
Rhinocladiella_mackenziei_CBS367.92,ERR3416587.60287,94.12,51,3,0,558,608,537,587,5e-14,78.7
Rhinocladiella_mackenziei_CBS367.92,ERR3416587.54880,94.94,79,4,0,273,351,328,406,7e-28,124
Rhinocladiella_mackenziei_CBS367.92,ERR3416587.54880,93.67,79,5,0,273,351,282,204,3e-26,119
Rhinocladiella_mackenziei_CBS367.92,ERR3416587.54880,94.44,54,1,2,555,608,74,23,4e-15,82.4
Rhinocladiella_mackenziei_CBS367.92,ERR3416587.54880,94.44,54,1,2,555,608,536,587,4e-15,82.4
Veronaea_compacta_CBS268.75_T,ERR3416587.60287,88.89,117,7,4,306,422,278,168,2e-32,139
Veronaea_compacta_CBS268.75_T,ERR3416587.60287,88.03,117,8,4,306,422,328,438,3e-31,135
Veronaea_compacta_CBS268.75_T,ERR3416587.54880,93.67,79,5,0,306,384,328,406,3e-26,119
Veronaea_compacta_CBS268.75_T,ERR3416587.54880,92.41,79,6,0,306,384,282,204,1e-24,113
Capronia_pilosella_AFTOL-ID657,ERR3416587.60287,91.15,113,5,3,384,496,278,171,4e-35,148
Capronia_pilosella_AFTOL-ID657,ERR3416587.60287,90.27,113,6,3,384,496,328,435,6e-34,145
Capronia_pilosella_AFTOL-ID657,ERR3416587.54880,88.79,107,9,2,384,490,328,431,6e-29,128
Capronia_pilosella_AFTOL-ID657,ERR3416587.54880,87.85,107,10,2,384,490,282,179,3e-27,122
Capronia_dactylotricha_DAOM208471_T,ERR3416587.60287,93.26,89,5,1,286,374,278,191,2e-29,130
Capronia_dactylotricha_DAOM208471_T,ERR3416587.60287,92.13,89,6,1,286,374,328,415,2e-28,126
Capronia_dactylotricha_DAOM208471_T,ERR3416587.60287,96.77,62,2,0,557,618,543,604,9e-22,104
Capronia_dactylotricha_DAOM208471_T,ERR3416587.54880,93.75,80,4,1,286,365,328,406,3e-26,119
Capronia_dactylotricha_DAOM208471_T,ERR3416587.54880,94.59,74,4,0,286,359,282,209,4e-25,115
Capronia_dactylotricha_DAOM208471_T,ERR3416587.54880,100.00,61,0,0,558,618,66,6,2e-24,113
Capronia_dactylotricha_DAOM208471_T,ERR3416587.54880,96.72,61,2,0,558,618,544,604,3e-21,102
Capronia_kleinmondensis_CBS122671_T,ERR3416587.60287,93.18,88,6,0,311,398,278,191,2e-29,130
Capronia_kleinmondensis_CBS122671_T,ERR3416587.60287,92.05,88,7,0,311,398,328,415,2e-28,126
Capronia_kleinmondensis_CBS122671_T,ERR3416587.60287,95.65,69,3,0,556,624,536,604,6e-24,111
Capronia_kleinmondensis_CBS122671_T,ERR3416587.54880,93.67,79,5,0,311,389,328,406,3e-26,119
Capronia_kleinmondensis_CBS122671_T,ERR3416587.54880,97.14,70,1,1,556,624,75,6,1e-25,117
Capronia_kleinmondensis_CBS122671_T,ERR3416587.54880,92.41,79,6,0,311,389,282,204,2e-24,113
Capronia_kleinmondensis_CBS122671_T,ERR3416587.54880,94.29,70,3,1,556,624,535,604,3e-22,106
Capronia_mansonii_CBS101.67_T,ERR3416587.60287,92.38,105,5,2,297,401,278,177,2e-34,147
Capronia_mansonii_CBS101.67_T,ERR3416587.60287,91.43,105,6,2,297,401,328,429,2e-33,143
Capronia_mansonii_CBS101.67_T,ERR3416587.54880,88.79,107,9,2,297,403,328,431,6e-29,128
Capronia_mansonii_CBS101.67_T,ERR3416587.54880,87.85,107,10,2,297,403,282,179,3e-27,122
Capronia_mansonii_CBS101.67_T,ERR3416587.54880,93.33,75,3,2,556,628,80,6,2e-23,110
Capronia_munkii_DAOM216390_T,ERR3416587.60287,92.38,105,5,2,297,401,278,177,2e-34,147
Capronia_munkii_DAOM216390_T,ERR3416587.60287,91.43,105,6,2,297,401,328,429,2e-33,143
Capronia_munkii_DAOM216390_T,ERR3416587.54880,88.79,107,9,2,297,403,328,431,6e-29,128
Capronia_munkii_DAOM216390_T,ERR3416587.54880,87.85,107,10,2,297,403,282,179,3e-27,122
Capronia_munkii_DAOM216390_T,ERR3416587.54880,95.71,70,2,1,559,628,74,6,6e-24,111
Capronia_coronata_ATCC56201_T,ERR3416587.60287,90.48,105,7,2,285,389,278,177,3e-31,135
Capronia_coronata_ATCC56201_T,ERR3416587.60287,89.52,105,8,2,285,389,328,429,4e-30,132
Capronia_coronata_ATCC56201_T,ERR3416587.54880,94.94,79,4,0,285,363,328,406,7e-28,124
Capronia_coronata_ATCC56201_T,ERR3416587.54880,93.67,79,5,0,285,363,282,204,3e-26,119
Capronia_coronata_ATCC56201_T,ERR3416587.54880,95.65,69,2,1,532,599,74,6,2e-23,110
Capronia_parasitica_CBS123.88,ERR3416587.60287,94.12,85,5,0,291,375,278,194,1e-29,130
Capronia_parasitica_CBS123.88,ERR3416587.60287,92.94,85,6,0,291,375,328,412,2e-28,126
Capronia_parasitica_CBS123.88,ERR3416587.60287,95.35,43,1,1,553,595,538,579,1e-10,67.6
Capronia_parasitica_CBS123.88,ERR3416587.54880,94.94,79,4,0,291,369,328,406,7e-28,124
Capronia_parasitica_CBS123.88,ERR3416587.54880,93.67,79,5,0,291,369,282,204,3e-26,119
Capronia_parasitica_CBS123.88,ERR3416587.54880,100.00,36,0,0,560,595,66,31,1e-10,67.6
Capronia_parasitica_CBS123.88,ERR3416587.54880,100.00,36,0,0,560,595,544,579,1e-10,67.6
Veronaea_japonica_CBS776.83_T,ERR3416587.60287,90.52,116,6,3,319,434,278,168,4e-35,148
Veronaea_japonica_CBS776.83_T,ERR3416587.60287,89.66,116,7,3,319,434,328,438,5e-34,145
Veronaea_japonica_CBS776.83_T,ERR3416587.54880,88.68,106,10,1,319,424,328,431,5e-29,128
Veronaea_japonica_CBS776.83_T,ERR3416587.54880,87.74,106,11,1,319,424,282,179,2e-27,122
Thysanorea_papuana_CBS212.96_T,ERR3416587.60287,93.27,104,5,2,293,396,278,177,3e-36,152
Thysanorea_papuana_CBS212.96_T,ERR3416587.60287,92.31,104,6,2,293,396,328,429,4e-35,148
Thysanorea_papuana_CBS212.96_T,ERR3416587.54880,89.62,106,9,2,293,398,328,431,1e-30,134
Thysanorea_papuana_CBS212.96_T,ERR3416587.54880,88.68,106,10,2,293,398,282,179,5e-29,128
Capronia_acutiseta_ATCC56428_T,ERR3416587.60287,93.26,89,6,0,286,374,278,190,4e-30,132
Capronia_acutiseta_ATCC56428_T,ERR3416587.60287,92.13,89,7,0,286,374,328,416,5e-29,128
Capronia_acutiseta_ATCC56428_T,ERR3416587.60287,96.72,61,2,0,538,598,544,604,3e-21,102
Capronia_acutiseta_ATCC56428_T,ERR3416587.54880,94.94,79,4,0,286,364,328,406,7e-28,124
Capronia_acutiseta_ATCC56428_T,ERR3416587.54880,95.95,74,1,2,525,598,77,6,3e-26,119
Capronia_acutiseta_ATCC56428_T,ERR3416587.54880,93.67,79,5,0,286,364,282,204,3e-26,119
Capronia_acutiseta_ATCC56428_T,ERR3416587.54880,93.24,74,3,2,525,598,533,604,7e-23,108
Fonsecaea_brasiliensis_CBS119710_T,ERR3416587.60287,91.43,105,6,3,293,397,278,177,6e-33,141
Fonsecaea_brasiliensis_CBS119710_T,ERR3416587.60287,90.48,105,7,3,293,397,328,429,8e-32,137
Fonsecaea_brasiliensis_CBS119710_T,ERR3416587.54880,94.94,79,4,0,293,371,328,406,6e-28,124
Fonsecaea_brasiliensis_CBS119710_T,ERR3416587.54880,93.67,79,5,0,293,371,282,204,3e-26,119
Fonsecaea_pedrosoi_CBS271.37_T,ERR3416587.60287,91.51,106,5,3,321,426,278,177,2e-33,143
Fonsecaea_pedrosoi_CBS271.37_T,ERR3416587.60287,90.57,106,6,3,321,426,328,429,3e-32,139
Fonsecaea_pedrosoi_CBS271.37_T,ERR3416587.54880,94.94,79,4,0,321,399,328,406,7e-28,124
Fonsecaea_pedrosoi_CBS271.37_T,ERR3416587.54880,93.67,79,5,0,321,399,282,204,3e-26,119
Fonsecaea_pedrosoi_CBS271.37_T,ERR3416587.54880,92.21,77,6,0,569,645,82,6,2e-23,110
Fonsecaea_multimorphosa_CBS980.96_T,ERR3416587.60287,92.38,105,5,3,291,395,278,177,1e-34,147
Fonsecaea_multimorphosa_CBS980.96_T,ERR3416587.60287,91.43,105,6,3,291,395,328,429,2e-33,143
Fonsecaea_multimorphosa_CBS980.96_T,ERR3416587.54880,88.79,107,9,3,291,397,328,431,5e-29,128
Fonsecaea_multimorphosa_CBS980.96_T,ERR3416587.54880,87.85,107,10,3,291,397,282,179,2e-27,122
Fonsecaea_minima_CBS125760_T,ERR3416587.60287,91.43,105,6,3,287,391,278,177,6e-33,141
Fonsecaea_minima_CBS125760_T,ERR3416587.60287,90.48,105,7,3,287,391,328,429,8e-32,137
Fonsecaea_minima_CBS125760_T,ERR3416587.54880,94.94,79,4,0,287,365,328,406,6e-28,124
Fonsecaea_minima_CBS125760_T,ERR3416587.54880,93.67,79,5,0,287,365,282,204,3e-26,119
Fonsecaea_nubica_CBS269.64_T,ERR3416587.60287,90.35,114,5,4,298,411,278,171,5e-34,145
Fonsecaea_nubica_CBS269.64_T,ERR3416587.60287,89.47,114,6,4,298,411,328,435,6e-33,141
Fonsecaea_nubica_CBS269.64_T,ERR3416587.54880,94.94,79,4,0,298,376,328,406,6e-28,124
Fonsecaea_nubica_CBS269.64_T,ERR3416587.54880,93.67,79,5,0,298,376,282,204,3e-26,119
Fonsecaea_monophora_CBS269.37_T,ERR3416587.60287,91.51,106,5,3,299,404,278,177,2e-33,143
Fonsecaea_monophora_CBS269.37_T,ERR3416587.60287,90.57,106,6,3,299,404,328,429,2e-32,139
Fonsecaea_monophora_CBS269.37_T,ERR3416587.54880,94.94,79,4,0,299,377,328,406,6e-28,124
Fonsecaea_monophora_CBS269.37_T,ERR3416587.54880,93.67,79,5,0,299,377,282,204,3e-26,119
Fonsecaea_erecta_CBS125763_T,ERR3416587.60287,92.38,105,5,3,282,386,278,177,1e-34,147
Fonsecaea_erecta_CBS125763_T,ERR3416587.60287,91.43,105,6,3,282,386,328,429,2e-33,143
Fonsecaea_erecta_CBS125763_T,ERR3416587.54880,88.79,107,9,3,282,388,328,431,4e-29,128
Fonsecaea_erecta_CBS125763_T,ERR3416587.54880,87.85,107,10,3,282,388,282,179,2e-27,122
Fonsecaea_pugnacius_CBS139214_T,ERR3416587.60287,89.57,115,5,4,291,405,278,171,2e-32,139
Fonsecaea_pugnacius_CBS139214_T,ERR3416587.60287,88.70,115,6,4,291,405,328,435,3e-31,135
Fonsecaea_pugnacius_CBS139214_T,ERR3416587.54880,94.94,79,4,0,291,369,328,406,6e-28,124
Fonsecaea_pugnacius_CBS139214_T,ERR3416587.54880,93.67,79,5,0,291,369,282,204,3e-26,119
Cladophialophora_psammophila_CBS,ERR3416587.60287,92.38,105,5,3,297,401,278,177,1e-34,147
Cladophialophora_psammophila_CBS,ERR3416587.60287,91.43,105,6,3,297,401,328,429,2e-33,143
Cladophialophora_psammophila_CBS,ERR3416587.54880,88.79,107,9,3,297,403,328,431,5e-29,128
Cladophialophora_psammophila_CBS,ERR3416587.54880,87.85,107,10,3,297,403,282,179,2e-27,122
Cladophialophora_devriesii_CBS,ERR3416587.60287,92.38,105,5,3,293,397,278,177,1e-34,147
Cladophialophora_devriesii_CBS,ERR3416587.60287,91.43,105,6,3,293,397,328,429,2e-33,143
Cladophialophora_devriesii_CBS,ERR3416587.54880,88.79,107,9,3,293,399,328,431,4e-29,128
Cladophialophora_devriesii_CBS,ERR3416587.54880,87.85,107,10,3,293,399,282,179,2e-27,122
Cladophialophora_immunda_CBS834.96,ERR3416587.60287,90.27,113,6,4,295,407,278,171,2e-33,143
Cladophialophora_immunda_CBS834.96,ERR3416587.60287,89.38,113,7,4,295,407,328,435,2e-32,139
Cladophialophora_immunda_CBS834.96,ERR3416587.54880,94.94,79,4,0,295,373,328,406,6e-28,124
Cladophialophora_immunda_CBS834.96,ERR3416587.54880,93.67,79,5,0,295,373,282,204,3e-26,119
Cladophialophora_arxii_CBS306.94_T,ERR3416587.60287,89.57,115,5,4,297,411,278,171,2e-32,139
Cladophialophora_arxii_CBS306.94_T,ERR3416587.60287,88.70,115,6,4,297,411,328,435,3e-31,135
Cladophialophora_arxii_CBS306.94_T,ERR3416587.54880,94.94,79,4,0,297,375,328,406,6e-28,124
Cladophialophora_arxii_CBS306.94_T,ERR3416587.54880,93.67,79,5,0,297,375,282,204,3e-26,119
Cladophialophora_bantiana_CBS173.52,ERR3416587.60287,92.38,105,5,3,291,395,278,177,1e-34,147
Cladophialophora_bantiana_CBS173.52,ERR3416587.60287,91.43,105,6,3,291,395,328,429,2e-33,143
Cladophialophora_bantiana_CBS173.52,ERR3416587.54880,88.79,107,9,3,291,397,328,431,5e-29,128
Cladophialophora_bantiana_CBS173.52,ERR3416587.54880,87.85,107,10,3,291,397,282,179,2e-27,122
Cladophialophora_emmonsii_CBS102594,ERR3416587.60287,91.51,106,5,2,282,387,278,177,2e-33,143
Cladophialophora_emmonsii_CBS102594,ERR3416587.60287,90.57,106,6,2,282,387,328,429,2e-32,139
Cladophialophora_emmonsii_CBS102594,ERR3416587.54880,94.94,79,4,0,282,360,328,406,6e-28,124
Cladophialophora_emmonsii_CBS102594,ERR3416587.54880,93.67,79,5,0,282,360,282,204,3e-26,119
Cladophialophora_minourae_CBS556.83,ERR3416587.60287,87.74,106,9,4,290,395,278,177,2e-27,122
Cladophialophora_minourae_CBS556.83,ERR3416587.60287,86.79,106,10,4,290,395,328,429,3e-26,119
Cladophialophora_minourae_CBS556.83,ERR3416587.54880,91.36,81,5,2,290,370,328,406,2e-23,110
Cladophialophora_minourae_CBS556.83,ERR3416587.54880,90.12,81,6,2,290,370,282,204,8e-22,104
Cladophialophora_australiensis_CBS112793,ERR3416587.60287,91.35,104,7,2,292,395,278,177,2e-32,141
Cladophialophora_australiensis_CBS112793,ERR3416587.60287,90.38,104,8,2,292,395,328,429,2e-31,137
Cladophialophora_australiensis_CBS112793,ERR3416587.54880,87.74,106,11,2,292,397,328,431,6e-27,122
Cladophialophora_australiensis_CBS112793,ERR3416587.54880,86.79,106,12,2,292,397,282,179,3e-25,117
Cladophialophora_australiensis_CBS112793,ERR3416587.54880,95.59,68,3,0,539,606,73,6,5e-23,110
Cladophialophora_potulentorum_CBS112222,ERR3416587.60287,90.38,104,8,2,291,394,278,177,8e-31,135
Cladophialophora_potulentorum_CBS112222,ERR3416587.60287,89.42,104,9,2,291,394,328,429,1e-29,132
Cladophialophora_potulentorum_CBS112222,ERR3416587.54880,86.79,106,12,2,291,396,328,431,3e-25,117
Cladophialophora_potulentorum_CBS112222,ERR3416587.54880,85.85,106,13,2,291,396,282,179,1e-23,111
Cladophialophora_potulentorum_CBS112222,ERR3416587.54880,96.72,61,2,0,548,608,66,6,8e-21,102
Cladophialophora_matsushimae_CMRP1198,ERR3416587.60287,90.38,104,8,2,295,398,278,177,2e-31,135
Cladophialophora_matsushimae_CMRP1198,ERR3416587.60287,89.42,104,9,2,295,398,328,429,3e-30,132
Cladophialophora_matsushimae_CMRP1198,ERR3416587.54880,86.79,106,12,2,295,400,328,431,9e-26,117
Cladophialophora_matsushimae_CMRP1198,ERR3416587.54880,85.85,106,13,2,295,400,282,179,4e-24,111
Cladophialophora_mycetomatis_CBS122637,ERR3416587.60287,91.07,112,6,3,280,391,278,171,4e-35,148
Cladophialophora_mycetomatis_CBS122637,ERR3416587.60287,90.18,112,7,3,280,391,328,435,5e-34,145
Cladophialophora_mycetomatis_CBS122637,ERR3416587.54880,88.68,106,10,2,280,385,328,431,5e-29,128
Cladophialophora_mycetomatis_CBS122637,ERR3416587.54880,87.74,106,11,2,280,385,282,179,2e-27,122
Cladophialophora_chaetospira_CBS127573,ERR3416587.60287,93.27,104,5,2,686,789,278,177,5e-36,152
Cladophialophora_chaetospira_CBS127573,ERR3416587.60287,92.31,104,6,2,686,789,328,429,6e-35,148
Cladophialophora_chaetospira_CBS127573,ERR3416587.54880,89.62,106,9,2,686,791,328,431,2e-30,134
Cladophialophora_chaetospira_CBS127573,ERR3416587.54880,88.68,106,10,2,686,791,282,179,8e-29,128
Cladophialophora_boppii_CBS126.86_T,ERR3416587.60287,92.31,104,6,2,288,391,278,177,1e-34,147
Cladophialophora_boppii_CBS126.86_T,ERR3416587.60287,91.35,104,7,2,288,391,328,429,2e-33,143
Cladophialophora_boppii_CBS126.86_T,ERR3416587.54880,88.68,106,10,2,288,393,328,431,5e-29,128
Cladophialophora_boppii_CBS126.86_T,ERR3416587.54880,87.74,106,11,2,288,393,282,179,2e-27,122
Cladophialophora_abundans_CBS126736,ERR3416587.60287,91.35,104,7,2,225,328,278,177,5e-33,141
Cladophialophora_abundans_CBS126736,ERR3416587.60287,90.38,104,8,2,225,328,328,429,7e-32,137
Cladophialophora_abundans_CBS126736,ERR3416587.54880,89.62,106,9,2,225,330,328,431,9e-31,134
Cladophialophora_abundans_CBS126736,ERR3416587.54880,88.68,106,10,2,225,330,282,179,4e-29,128
Capronia_semi-immersa_CBS102234,ERR3416587.60287,90.38,104,8,2,287,390,278,177,3e-31,135
Capronia_semi-immersa_CBS102234,ERR3416587.60287,89.42,104,9,2,287,390,328,429,4e-30,132
Capronia_semi-immersa_CBS102234,ERR3416587.54880,86.79,106,12,2,287,392,328,431,1e-25,117
Capronia_semi-immersa_CBS102234,ERR3416587.54880,85.85,106,13,2,287,392,282,179,5e-24,111
Phialophora_americana_CBS400.67,ERR3416587.60287,90.38,104,8,2,289,392,278,177,7e-31,135
Phialophora_americana_CBS400.67,ERR3416587.60287,89.42,104,9,2,289,392,328,429,1e-29,132
Phialophora_americana_CBS400.67,ERR3416587.54880,86.79,106,12,2,289,394,328,431,3e-25,117
Phialophora_americana_CBS400.67,ERR3416587.54880,85.85,106,13,2,289,394,282,179,1e-23,111
Phialophora_verrucosa_CBS140325_T,ERR3416587.60287,90.38,104,8,2,293,396,278,177,3e-31,135
Phialophora_verrucosa_CBS140325_T,ERR3416587.60287,89.42,104,9,2,293,396,328,429,4e-30,132
Phialophora_verrucosa_CBS140325_T,ERR3416587.54880,86.79,106,12,2,293,398,328,431,1e-25,117
Phialophora_verrucosa_CBS140325_T,ERR3416587.54880,85.85,106,13,2,293,398,282,179,5e-24,111
Cladophialophora_samoensis_CBS259.83_T,ERR3416587.60287,91.35,104,7,2,293,396,278,177,6e-33,141
Cladophialophora_samoensis_CBS259.83_T,ERR3416587.60287,90.38,104,8,2,293,396,328,429,8e-32,137
Cladophialophora_samoensis_CBS259.83_T,ERR3416587.54880,87.62,105,11,2,293,397,328,430,8e-27,121
Cladophialophora_samoensis_CBS259.83_T,ERR3416587.54880,86.67,105,12,2,293,397,282,180,4e-25,115
Cladophialophora_carrionii_CBS260.83,ERR3416587.60287,92.31,104,6,2,309,412,278,177,1e-34,147
Cladophialophora_carrionii_CBS260.83,ERR3416587.60287,91.35,104,7,2,309,412,328,429,2e-33,143
Cladophialophora_carrionii_CBS260.83,ERR3416587.54880,88.68,106,10,2,309,414,328,431,5e-29,128
Cladophialophora_carrionii_CBS260.83,ERR3416587.54880,87.74,106,11,2,309,414,282,179,2e-27,122
Exophiala_palmae_UPCB86822_T,ERR3416587.60287,90.48,105,7,1,252,356,278,177,3e-31,135
Exophiala_palmae_UPCB86822_T,ERR3416587.60287,89.52,105,8,1,252,356,328,429,3e-30,132
Exophiala_palmae_UPCB86822_T,ERR3416587.54880,94.94,79,4,0,252,330,328,406,6e-28,124
Exophiala_palmae_UPCB86822_T,ERR3416587.54880,93.67,79,5,0,252,330,282,204,3e-26,119
Cladophialophora_yegresii_CBS114405_T,ERR3416587.60287,91.35,104,7,2,294,397,278,177,6e-33,141
Cladophialophora_yegresii_CBS114405_T,ERR3416587.60287,90.38,104,8,2,294,397,328,429,8e-32,137
Cladophialophora_yegresii_CBS114405_T,ERR3416587.54880,87.74,106,11,2,294,399,328,431,2e-27,122
Cladophialophora_yegresii_CBS114405_T,ERR3416587.54880,86.79,106,12,2,294,399,282,179,1e-25,117
Knufia_epidermidis_CBS120353_T,ERR3416587.54880,94.74,76,4,0,292,367,328,403,3e-26,119
Knufia_epidermidis_CBS120353_T,ERR3416587.54880,94.67,75,4,0,292,366,282,208,1e-25,117
Knufia_epidermidis_CBS120353_T,ERR3416587.60287,86.54,104,12,2,292,395,278,177,1e-24,113
Knufia_epidermidis_CBS120353_T,ERR3416587.60287,84.82,112,15,2,284,395,320,429,1e-24,113
Arthrocladium_fulminans_CBS136243_T,ERR3416587.54880,93.42,76,5,0,287,362,328,403,1e-24,113
Arthrocladium_fulminans_CBS136243_T,ERR3416587.54880,93.33,75,5,0,287,361,282,208,5e-24,111
Arthrocladium_fulminans_CBS136243_T,ERR3416587.60287,92.00,75,6,0,287,361,278,204,2e-22,106
Arthrocladium_fulminans_CBS136243_T,ERR3416587.60287,89.16,83,9,0,279,361,320,402,2e-22,106
Anthopsis_deltoidea_CBS263.77_T,ERR3416587.54880,88.57,105,12,0,294,398,328,432,4e-29,128
Cyphellophora_laciniata_CBS190.61_T,ERR3416587.60287,92.16,102,8,0,379,480,278,177,6e-34,145
Cyphellophora_laciniata_CBS190.61_T,ERR3416587.60287,90.00,110,9,2,373,480,320,429,2e-33,143
Cyphellophora_laciniata_CBS190.61_T,ERR3416587.54880,89.81,108,11,0,379,486,328,435,3e-32,139
Cyphellophora_laciniata_CBS190.61_T,ERR3416587.54880,88.89,108,12,0,379,486,282,175,1e-30,134
Cyphellophora_laciniata_CBS190.61_T,ERR3416587.54880,98.36,61,1,0,635,695,66,6,8e-23,108
Cyphellophora_suttonii_CBS449.91,ERR3416587.60287,90.18,112,10,1,282,393,278,168,5e-34,145
Cyphellophora_suttonii_CBS449.91,ERR3416587.60287,88.33,120,11,3,276,393,320,438,2e-33,143
Cyphellophora_suttonii_CBS449.91,ERR3416587.54880,90.29,103,10,0,282,384,328,430,3e-31,135
Cyphellophora_suttonii_CBS449.91,ERR3416587.54880,89.32,103,11,0,282,384,282,180,1e-29,130
Cyphellophora_pauciseptata_CBS284.85_T,ERR3416587.60287,92.16,102,8,0,293,394,278,177,5e-34,145
Cyphellophora_pauciseptata_CBS284.85_T,ERR3416587.60287,90.00,110,9,2,287,394,320,429,2e-33,143
Cyphellophora_pauciseptata_CBS284.85_T,ERR3416587.54880,90.29,103,10,0,293,395,328,430,3e-31,135
Cyphellophora_pauciseptata_CBS284.85_T,ERR3416587.54880,89.32,103,11,0,293,395,282,180,1e-29,130
Cyphellophora_pluriseptata_CBS286.85_T,ERR3416587.60287,93.14,102,7,0,298,399,278,177,1e-35,150
Cyphellophora_pluriseptata_CBS286.85_T,ERR3416587.60287,90.91,110,8,2,292,399,320,429,4e-35,148
Cyphellophora_pluriseptata_CBS286.85_T,ERR3416587.54880,89.42,104,11,0,298,401,328,431,4e-30,132
Cyphellophora_pluriseptata_CBS286.85_T,ERR3416587.54880,88.46,104,12,0,298,401,282,179,2e-28,126
Phialophora_europaea_CBS101466,ERR3416587.60287,93.14,102,7,0,288,389,278,177,1e-35,150
Phialophora_europaea_CBS101466,ERR3416587.60287,90.91,110,8,2,282,389,320,429,3e-35,148
Phialophora_europaea_CBS101466,ERR3416587.54880,91.40,93,8,0,288,380,328,420,4e-29,128
Phialophora_europaea_CBS101466,ERR3416587.54880,90.32,93,9,0,288,380,282,190,2e-27,122
Phialophora_ambigua_CBS235.93,ERR3416587.60287,93.14,102,7,0,285,386,278,177,1e-35,150
Phialophora_ambigua_CBS235.93,ERR3416587.60287,90.91,110,8,2,279,386,320,429,4e-35,148
Phialophora_ambigua_CBS235.93,ERR3416587.54880,89.42,104,11,0,285,388,328,431,4e-30,132
Phialophora_ambigua_CBS235.93,ERR3416587.54880,88.46,104,12,0,285,388,282,179,2e-28,126
Cladophialophora_modesta_CBS985.96_T,ERR3416587.60287,94.17,103,5,1,284,386,278,177,2e-37,156
Cladophialophora_modesta_CBS985.96_T,ERR3416587.60287,91.89,111,8,1,276,386,320,429,2e-37,156
Cladophialophora_modesta_CBS985.96_T,ERR3416587.54880,90.38,104,9,1,284,387,328,430,3e-31,135
Cladophialophora_modesta_CBS985.96_T,ERR3416587.54880,89.42,104,10,1,284,387,282,180,1e-29,130
Cladophialophora_modesta_CBS985.96_T,ERR3416587.54880,94.44,72,3,1,509,579,77,6,2e-23,110
Cyphellophora_fusarioides_MUCL44033_T,ERR3416587.54880,88.89,108,12,0,281,388,328,435,1e-30,134
Cyphellophora_fusarioides_MUCL44033_T,ERR3416587.54880,87.96,108,13,0,281,388,282,175,5e-29,128
