Exophiala_nigra_CBS535.94_T,ERR3416606.57297,88.99,109,9,2,283,391,282,177,4e-30,132
Exophiala_nigra_CBS535.94_T,ERR3416606.57297,88.89,108,9,2,284,391,327,431,1e-29,130
Exophiala_nigra_CBS535.94_T,ERR3416606.1377,89.52,105,8,2,287,391,278,177,1e-29,130
Exophiala_nigra_CBS535.94_T,ERR3416606.1377,89.52,105,8,2,287,391,328,429,1e-29,130
Exophiala_spinifera_CBS899.68_T,ERR3416606.1377,89.66,116,8,2,280,395,282,171,4e-34,145
Exophiala_spinifera_CBS899.68_T,ERR3416606.1377,90.18,112,7,2,284,395,328,435,2e-33,143
Exophiala_spinifera_CBS899.68_T,ERR3416606.57297,88.46,104,10,1,284,387,278,177,6e-28,124
Exophiala_spinifera_CBS899.68_T,ERR3416606.57297,88.46,104,10,1,284,387,330,431,6e-28,124
Exophiala_exophialae_CBS668.76_T,ERR3416606.1377,89.66,116,8,2,281,396,282,171,4e-34,145
Exophiala_exophialae_CBS668.76_T,ERR3416606.1377,90.18,112,7,2,285,396,328,435,2e-33,143
Exophiala_exophialae_CBS668.76_T,ERR3416606.57297,88.46,104,10,1,285,388,278,177,6e-28,124
Exophiala_exophialae_CBS668.76_T,ERR3416606.57297,88.46,104,10,1,285,388,330,431,6e-28,124
Exophiala_polymorpha_CBS138920_T,ERR3416606.1377,89.66,116,8,2,383,498,282,171,6e-34,145
Exophiala_polymorpha_CBS138920_T,ERR3416606.1377,90.18,112,7,2,387,498,328,435,2e-33,143
Exophiala_polymorpha_CBS138920_T,ERR3416606.57297,88.46,104,10,1,387,490,278,177,7e-28,124
Exophiala_polymorpha_CBS138920_T,ERR3416606.57297,88.46,104,10,1,387,490,330,431,7e-28,124
Exophiala_polymorpha_CBS138920_T,ERR3416606.57297,98.15,54,1,0,641,694,63,10,6e-19,95.3
Exophiala_polymorpha_CBS138920_T,ERR3416606.57297,96.30,54,2,0,641,694,545,598,3e-17,89.8
Exophiala_oligosperma_CBS725.88_T,ERR3416606.1377,90.74,108,8,1,293,400,282,177,2e-33,143
Exophiala_oligosperma_CBS725.88_T,ERR3416606.1377,91.35,104,7,1,297,400,328,429,6e-33,141
Exophiala_oligosperma_CBS725.88_T,ERR3416606.57297,88.46,104,10,1,297,400,278,177,6e-28,124
Exophiala_oligosperma_CBS725.88_T,ERR3416606.57297,88.46,104,10,1,297,400,330,431,6e-28,124
Exophiala_jeanselmei_CBS507.90_T,ERR3416606.1377,89.66,116,8,2,285,400,282,171,5e-34,145
Exophiala_jeanselmei_CBS507.90_T,ERR3416606.1377,90.18,112,7,2,289,400,328,435,2e-33,143
Exophiala_jeanselmei_CBS507.90_T,ERR3416606.57297,88.46,104,10,1,289,392,278,177,6e-28,124
Exophiala_jeanselmei_CBS507.90_T,ERR3416606.57297,88.46,104,10,1,289,392,330,431,6e-28,124
Exophiala_jeanselmei_CBS507.90_T,ERR3416606.57297,97.06,68,1,1,537,604,68,2,1e-24,113
Exophiala_jeanselmei_CBS507.90_T,ERR3416606.57297,95.38,65,2,1,537,601,540,603,3e-21,102
Exophiala_bergeri_CBS353.52,ERR3416606.1377,89.52,105,8,1,250,354,278,177,1e-29,130
Exophiala_bergeri_CBS353.52,ERR3416606.1377,89.52,105,8,1,250,354,328,429,1e-29,130
Exophiala_bergeri_CBS353.52,ERR3416606.57297,88.07,109,10,1,246,354,282,177,1e-28,126
Exophiala_bergeri_CBS353.52,ERR3416606.57297,87.96,108,10,1,247,354,327,431,5e-28,124
Exophiala_moniliae_CBS520.76_T,ERR3416606.1377,93.18,88,6,0,287,374,278,191,1e-29,130
Exophiala_moniliae_CBS520.76_T,ERR3416606.1377,93.18,88,6,0,287,374,328,415,1e-29,130
Exophiala_moniliae_CBS520.76_T,ERR3416606.57297,91.30,92,8,0,283,374,282,191,2e-28,126
Exophiala_moniliae_CBS520.76_T,ERR3416606.57297,91.21,91,8,0,284,374,327,417,6e-28,124
Exophiala_pisciphila_CBS537.73_T,ERR3416606.1377,91.07,112,6,2,290,401,278,171,4e-35,148
Exophiala_pisciphila_CBS537.73_T,ERR3416606.1377,91.07,112,6,2,290,401,328,435,4e-35,148
Exophiala_pisciphila_CBS537.73_T,ERR3416606.57297,89.62,106,9,1,288,393,280,177,1e-30,134
Exophiala_pisciphila_CBS537.73_T,ERR3416606.57297,89.62,106,9,1,288,393,328,431,1e-30,134
Exophiala_pisciphila_CBS537.73_T,ERR3416606.57297,97.06,68,1,1,547,613,69,2,2e-24,113
Exophiala_pisciphila_CBS537.73_T,ERR3416606.57297,94.52,73,3,1,546,617,538,610,5e-24,111
Exophiala_xenobiotica_CBS117642,ERR3416606.1377,90.18,112,7,2,282,393,278,171,2e-33,143
Exophiala_xenobiotica_CBS117642,ERR3416606.1377,90.18,112,7,2,282,393,328,435,2e-33,143
Exophiala_xenobiotica_CBS117642,ERR3416606.57297,88.89,108,10,1,278,385,282,177,3e-30,132
Exophiala_xenobiotica_CBS117642,ERR3416606.57297,88.79,107,10,1,279,385,327,431,1e-29,130
Exophiala_brunnea_CBS,ERR3416606.1377,90.18,112,7,2,318,429,278,171,2e-33,143
Exophiala_brunnea_CBS,ERR3416606.1377,90.18,112,7,2,318,429,328,435,2e-33,143
Exophiala_brunnea_CBS,ERR3416606.57297,88.89,108,10,1,314,421,282,177,4e-30,132
Exophiala_brunnea_CBS,ERR3416606.57297,88.79,107,10,1,315,421,327,431,1e-29,130
Exophiala_brunnea_CBS,ERR3416606.57297,96.43,56,1,1,578,633,67,13,2e-18,93.5
Exophiala_brunnea_CBS,ERR3416606.57297,94.64,56,2,1,578,633,541,595,9e-17,87.9
Exophiala_nishimurae_CBS101538_T,ERR3416606.1377,90.74,108,8,1,292,399,282,177,2e-33,143
Exophiala_nishimurae_CBS101538_T,ERR3416606.1377,91.35,104,7,1,296,399,328,429,6e-33,141
Exophiala_nishimurae_CBS101538_T,ERR3416606.57297,88.46,104,10,1,296,399,278,177,6e-28,124
Exophiala_nishimurae_CBS101538_T,ERR3416606.57297,88.46,104,10,1,296,399,330,431,6e-28,124
Exophiala_mesophila_CBS402.95_T,ERR3416606.1377,93.18,88,6,0,280,367,278,191,2e-29,130
Exophiala_mesophila_CBS402.95_T,ERR3416606.1377,93.18,88,6,0,280,367,328,415,2e-29,130
Exophiala_mesophila_CBS402.95_T,ERR3416606.57297,91.30,92,8,0,276,367,282,191,2e-28,126
Exophiala_mesophila_CBS402.95_T,ERR3416606.57297,91.21,91,8,0,277,367,327,417,7e-28,124
Exophiala_mesophila_CBS402.95_T,ERR3416606.57297,98.39,62,1,0,549,610,63,2,2e-23,110
Exophiala_mesophila_CBS402.95_T,ERR3416606.57297,95.45,66,3,0,549,614,545,610,3e-22,106
Exophiala_castellanii_CBS158.58_T,ERR3416606.1377,93.18,88,6,0,278,365,278,191,1e-29,130
Exophiala_castellanii_CBS158.58_T,ERR3416606.1377,93.18,88,6,0,278,365,328,415,1e-29,130
Exophiala_castellanii_CBS158.58_T,ERR3416606.57297,91.30,92,8,0,274,365,282,191,2e-28,126
Exophiala_castellanii_CBS158.58_T,ERR3416606.57297,91.21,91,8,0,275,365,327,417,7e-28,124
Exophiala_castellanii_CBS158.58_T,ERR3416606.57297,97.10,69,1,1,542,609,70,2,4e-25,115
Exophiala_castellanii_CBS158.58_T,ERR3416606.57297,94.44,72,3,1,543,613,539,610,2e-23,110
Exophiala_lecanii-corni_CBS123.33_T,ERR3416606.1377,93.18,88,6,0,301,388,278,191,1e-29,130
Exophiala_lecanii-corni_CBS123.33_T,ERR3416606.1377,93.18,88,6,0,301,388,328,415,1e-29,130
Exophiala_lecanii-corni_CBS123.33_T,ERR3416606.57297,91.30,92,8,0,297,388,282,191,2e-28,126
Exophiala_lecanii-corni_CBS123.33_T,ERR3416606.57297,91.21,91,8,0,298,388,327,417,6e-28,124
Exophiala_dermatitidis_CBS748.88,ERR3416606.1377,91.43,105,6,1,293,397,278,177,2e-32,141
Exophiala_dermatitidis_CBS748.88,ERR3416606.1377,91.43,105,6,1,293,397,328,429,2e-32,141
Exophiala_dermatitidis_CBS748.88,ERR3416606.57297,88.99,109,9,1,289,397,282,177,1e-29,132
Exophiala_dermatitidis_CBS748.88,ERR3416606.57297,88.89,108,9,1,290,397,327,431,4e-29,130
Exophiala_dermatitidis_CBS748.88,ERR3416606.57297,95.06,81,1,3,556,635,80,2,2e-27,124
Exophiala_dermatitidis_CBS748.88,ERR3416606.57297,92.94,85,3,3,556,639,528,610,2e-26,121
Exophiala_angulospora_CBS482.92_T,ERR3416606.1377,90.48,105,7,2,284,388,278,177,3e-31,135
Exophiala_angulospora_CBS482.92_T,ERR3416606.1377,90.48,105,7,2,284,388,328,429,3e-31,135
Exophiala_angulospora_CBS482.92_T,ERR3416606.57297,88.07,109,10,2,280,388,282,177,2e-28,126
Exophiala_angulospora_CBS482.92_T,ERR3416606.57297,87.96,108,10,2,281,388,327,431,6e-28,124
Exophiala_opportunistica_CBS109811_T,ERR3416606.1377,91.96,112,5,3,283,394,278,171,8e-37,154
Exophiala_opportunistica_CBS109811_T,ERR3416606.1377,91.96,112,5,3,283,394,328,435,8e-37,154
Exophiala_opportunistica_CBS109811_T,ERR3416606.57297,90.74,108,8,2,279,386,282,177,2e-33,143
Exophiala_opportunistica_CBS109811_T,ERR3416606.57297,90.65,107,8,2,280,386,327,431,6e-33,141
Exophiala_salmonis_CBS157.67_T,ERR3416606.1377,91.07,112,6,2,412,523,278,171,5e-35,148
Exophiala_salmonis_CBS157.67_T,ERR3416606.1377,91.07,112,6,2,412,523,328,435,5e-35,148
Exophiala_salmonis_CBS157.67_T,ERR3416606.57297,89.81,108,9,1,408,515,282,177,1e-31,137
Exophiala_salmonis_CBS157.67_T,ERR3416606.57297,89.72,107,9,1,409,515,327,431,4e-31,135
Exophiala_salmonis_CBS157.67_T,ERR3416606.57297,97.06,68,1,1,667,733,69,2,2e-24,113
Exophiala_salmonis_CBS157.67_T,ERR3416606.57297,94.52,73,3,1,666,737,538,610,7e-24,111
Exophiala_aquamarina_CBS119918_T,ERR3416606.1377,92.38,105,5,2,290,394,278,177,1e-34,147
Exophiala_aquamarina_CBS119918_T,ERR3416606.1377,92.38,105,5,2,290,394,328,429,1e-34,147
Exophiala_aquamarina_CBS119918_T,ERR3416606.57297,89.91,109,8,2,286,394,282,177,8e-32,137
Exophiala_aquamarina_CBS119918_T,ERR3416606.57297,89.81,108,8,2,287,394,327,431,3e-31,135
Exophiala_cancerae_CBS120420_T,ERR3416606.1377,91.96,112,5,3,305,416,278,171,9e-37,154
Exophiala_cancerae_CBS120420_T,ERR3416606.1377,91.96,112,5,3,305,416,328,435,9e-37,154
Exophiala_cancerae_CBS120420_T,ERR3416606.57297,90.74,108,8,2,301,408,282,177,2e-33,143
Exophiala_cancerae_CBS120420_T,ERR3416606.57297,90.65,107,8,2,302,408,327,431,7e-33,141
Exophiala_cancerae_CBS120420_T,ERR3416606.57297,100.00,61,0,0,564,624,62,2,1e-24,113
Exophiala_cancerae_CBS120420_T,ERR3416606.57297,98.28,58,1,0,564,621,546,603,3e-21,102
Exophiala_tremulae_CBS129355,ERR3416606.1377,91.96,112,5,2,317,428,278,171,9e-37,154
Exophiala_tremulae_CBS129355,ERR3416606.1377,91.96,112,5,2,317,428,328,435,9e-37,154
Exophiala_tremulae_CBS129355,ERR3416606.57297,90.74,108,8,1,313,420,282,177,2e-33,143
Exophiala_tremulae_CBS129355,ERR3416606.57297,90.65,107,8,1,314,420,327,431,7e-33,141
Exophiala_tremulae_CBS129355,ERR3416606.57297,96.49,57,1,1,573,628,69,13,2e-18,93.5
Exophiala_tremulae_CBS129355,ERR3416606.57297,94.83,58,2,1,572,628,538,595,2e-17,89.8
Exophiala_equina_CBS116009,ERR3416606.1377,91.96,112,5,2,283,394,278,171,8e-37,154
Exophiala_equina_CBS116009,ERR3416606.1377,91.96,112,5,2,283,394,328,435,8e-37,154
Exophiala_equina_CBS116009,ERR3416606.57297,90.74,108,8,1,279,386,282,177,2e-33,143
Exophiala_equina_CBS116009,ERR3416606.57297,90.65,107,8,1,280,386,327,431,6e-33,141
Exophiala_alcalophila_CBS520.82_T,ERR3416606.1377,90.48,105,7,2,294,398,278,177,3e-31,135
Exophiala_alcalophila_CBS520.82_T,ERR3416606.1377,90.48,105,7,2,294,398,328,429,3e-31,135
Exophiala_alcalophila_CBS520.82_T,ERR3416606.57297,88.07,109,10,2,290,398,282,177,2e-28,126
Exophiala_alcalophila_CBS520.82_T,ERR3416606.57297,87.96,108,10,2,291,398,327,431,6e-28,124
Exophiala_crusticola_CBS119970_T,ERR3416606.1377,90.48,105,7,2,299,403,278,177,3e-31,135
Exophiala_crusticola_CBS119970_T,ERR3416606.1377,90.48,105,7,2,299,403,328,429,3e-31,135
Exophiala_crusticola_CBS119970_T,ERR3416606.57297,88.99,109,9,2,295,403,282,177,4e-30,132
Exophiala_crusticola_CBS119970_T,ERR3416606.57297,88.89,108,9,2,296,403,327,431,1e-29,130
Rhinocladiella_atrovirens_CBS264.49,ERR3416606.1377,93.18,88,6,0,325,412,278,191,1e-29,130
Rhinocladiella_atrovirens_CBS264.49,ERR3416606.1377,93.18,88,6,0,325,412,328,415,1e-29,130
Rhinocladiella_atrovirens_CBS264.49,ERR3416606.57297,91.30,92,8,0,321,412,282,191,2e-28,126
Rhinocladiella_atrovirens_CBS264.49,ERR3416606.57297,91.21,91,8,0,322,412,327,417,7e-28,124
Rhinocladiella_atrovirens_CBS264.49,ERR3416606.57297,96.49,57,2,0,570,626,70,14,5e-19,95.3
Rhinocladiella_atrovirens_CBS264.49,ERR3416606.57297,98.00,50,1,0,577,626,545,594,9e-17,87.9
Rhinocladiella_basitona_CBS101460_T,ERR3416606.1377,89.66,116,8,2,280,395,282,171,4e-34,145
Rhinocladiella_basitona_CBS101460_T,ERR3416606.1377,90.18,112,7,2,284,395,328,435,2e-33,143
Rhinocladiella_basitona_CBS101460_T,ERR3416606.57297,88.46,104,10,1,284,387,278,177,6e-28,124
Rhinocladiella_basitona_CBS101460_T,ERR3416606.57297,88.46,104,10,1,284,387,330,431,6e-28,124
Rhinocladiella_phaeophora_CBS496.78_T,ERR3416606.1377,90.00,110,7,1,288,397,282,177,2e-32,139
Rhinocladiella_phaeophora_CBS496.78_T,ERR3416606.1377,90.57,106,6,1,292,397,328,429,8e-32,137
Rhinocladiella_phaeophora_CBS496.78_T,ERR3416606.57297,92.13,89,7,0,291,379,279,191,2e-28,126
Rhinocladiella_phaeophora_CBS496.78_T,ERR3416606.57297,92.13,89,7,0,291,379,329,417,2e-28,126
Rhinocladiella_aquaspersa_CBS313.73_T,ERR3416606.1377,90.00,110,7,1,282,391,282,177,2e-32,139
Rhinocladiella_aquaspersa_CBS313.73_T,ERR3416606.1377,90.57,106,6,1,286,391,328,429,9e-32,137
Rhinocladiella_aquaspersa_CBS313.73_T,ERR3416606.57297,92.13,89,7,0,285,373,279,191,2e-28,126
Rhinocladiella_aquaspersa_CBS313.73_T,ERR3416606.57297,92.13,89,7,0,285,373,329,417,2e-28,126
Rhinocladiella_aquaspersa_CBS313.73_T,ERR3416606.57297,90.91,77,3,4,536,609,535,610,1e-20,100
Rhinocladiella_aquaspersa_CBS313.73_T,ERR3416606.57297,91.78,73,3,3,536,605,74,2,4e-20,99.0
Rhinocladiella_fasciculata_CBS132.86_T,ERR3416606.1377,88.29,111,8,1,298,408,282,177,5e-29,128
Rhinocladiella_fasciculata_CBS132.86_T,ERR3416606.1377,88.79,107,7,1,302,408,328,429,2e-28,126
Rhinocladiella_fasciculata_CBS132.86_T,ERR3416606.57297,89.89,89,9,0,301,389,279,191,4e-25,115
Rhinocladiella_fasciculata_CBS132.86_T,ERR3416606.57297,89.89,89,9,0,301,389,329,417,4e-25,115
Rhinocladiella_anceps_CBS181.65_T,ERR3416606.1377,88.99,109,9,1,280,388,282,177,4e-30,132
Rhinocladiella_anceps_CBS181.65_T,ERR3416606.1377,89.52,105,8,1,284,388,328,429,1e-29,130
Rhinocladiella_anceps_CBS181.65_T,ERR3416606.57297,86.79,106,11,1,283,388,279,177,4e-25,115
Rhinocladiella_anceps_CBS181.65_T,ERR3416606.57297,86.79,106,11,1,283,388,329,431,4e-25,115
Rhinocladiella_mackenziei_CBS367.92,ERR3416606.1377,93.02,86,6,0,273,358,278,193,2e-28,126
Rhinocladiella_mackenziei_CBS367.92,ERR3416606.1377,93.02,86,6,0,273,358,328,413,2e-28,126
Rhinocladiella_mackenziei_CBS367.92,ERR3416606.57297,91.11,90,8,0,269,358,282,193,2e-27,122
Rhinocladiella_mackenziei_CBS367.92,ERR3416606.57297,91.01,89,8,0,270,358,327,415,8e-27,121
Rhinocladiella_mackenziei_CBS367.92,ERR3416606.57297,96.08,51,2,0,558,608,69,19,1e-15,84.2
Rhinocladiella_mackenziei_CBS367.92,ERR3416606.57297,94.12,51,3,0,558,608,539,589,5e-14,78.7
Veronaea_compacta_CBS268.75_T,ERR3416606.1377,88.89,117,7,4,306,422,278,168,2e-32,139
Veronaea_compacta_CBS268.75_T,ERR3416606.1377,88.89,117,7,4,306,422,328,438,2e-32,139
Veronaea_compacta_CBS268.75_T,ERR3416606.57297,88.07,109,10,2,302,410,282,177,2e-28,126
Veronaea_compacta_CBS268.75_T,ERR3416606.57297,87.96,108,10,2,303,410,327,431,6e-28,124
Capronia_pilosella_AFTOL-ID657,ERR3416606.1377,91.15,113,5,3,384,496,278,171,4e-35,148
Capronia_pilosella_AFTOL-ID657,ERR3416606.1377,91.15,113,5,3,384,496,328,435,4e-35,148
Capronia_pilosella_AFTOL-ID657,ERR3416606.57297,89.91,109,8,2,380,488,282,177,9e-32,137
Capronia_pilosella_AFTOL-ID657,ERR3416606.57297,89.81,108,8,2,381,488,327,431,3e-31,135
Capronia_dactylotricha_DAOM208471_T,ERR3416606.1377,93.26,89,5,1,286,374,278,191,2e-29,130
Capronia_dactylotricha_DAOM208471_T,ERR3416606.1377,93.26,89,5,1,286,374,328,415,2e-29,130
Capronia_dactylotricha_DAOM208471_T,ERR3416606.57297,91.40,93,7,1,282,374,282,191,2e-28,126
Capronia_dactylotricha_DAOM208471_T,ERR3416606.57297,91.30,92,7,1,283,374,327,417,7e-28,124
Capronia_dactylotricha_DAOM208471_T,ERR3416606.57297,100.00,62,0,0,557,618,63,2,4e-25,115
Capronia_dactylotricha_DAOM208471_T,ERR3416606.57297,96.97,66,2,0,557,622,545,610,6e-24,111
Capronia_kleinmondensis_CBS122671_T,ERR3416606.1377,93.18,88,6,0,311,398,278,191,2e-29,130
Capronia_kleinmondensis_CBS122671_T,ERR3416606.1377,93.18,88,6,0,311,398,328,415,2e-29,130
Capronia_kleinmondensis_CBS122671_T,ERR3416606.57297,91.30,92,8,0,307,398,282,191,2e-28,126
Capronia_kleinmondensis_CBS122671_T,ERR3416606.57297,91.21,91,8,0,308,398,327,417,7e-28,124
Capronia_kleinmondensis_CBS122671_T,ERR3416606.57297,98.55,69,1,0,556,624,70,2,3e-27,122
Capronia_kleinmondensis_CBS122671_T,ERR3416606.57297,95.83,72,3,0,557,628,539,610,1e-25,117
Capronia_mansonii_CBS101.67_T,ERR3416606.1377,92.38,105,5,2,297,401,278,177,2e-34,147
Capronia_mansonii_CBS101.67_T,ERR3416606.1377,92.38,105,5,2,297,401,328,429,2e-34,147
Capronia_mansonii_CBS101.67_T,ERR3416606.57297,89.91,109,8,2,293,401,282,177,9e-32,137
Capronia_mansonii_CBS101.67_T,ERR3416606.57297,89.81,108,8,2,294,401,327,431,3e-31,135
Capronia_mansonii_CBS101.67_T,ERR3416606.57297,91.67,84,3,3,550,632,530,610,2e-24,113
Capronia_mansonii_CBS101.67_T,ERR3416606.57297,97.01,67,1,1,563,628,68,2,6e-24,111
Capronia_munkii_DAOM216390_T,ERR3416606.1377,92.38,105,5,2,297,401,278,177,2e-34,147
Capronia_munkii_DAOM216390_T,ERR3416606.1377,92.38,105,5,2,297,401,328,429,2e-34,147
Capronia_munkii_DAOM216390_T,ERR3416606.57297,89.91,109,8,2,293,401,282,177,9e-32,137
Capronia_munkii_DAOM216390_T,ERR3416606.57297,89.81,108,8,2,294,401,327,431,3e-31,135
Capronia_munkii_DAOM216390_T,ERR3416606.57297,91.67,84,3,4,550,632,530,610,2e-24,113
Capronia_munkii_DAOM216390_T,ERR3416606.57297,93.51,77,2,3,553,628,76,2,6e-24,111
Capronia_coronata_ATCC56201_T,ERR3416606.1377,90.48,105,7,2,285,389,278,177,3e-31,135
Capronia_coronata_ATCC56201_T,ERR3416606.1377,90.48,105,7,2,285,389,328,429,3e-31,135
Capronia_coronata_ATCC56201_T,ERR3416606.57297,88.07,109,10,2,281,389,282,177,2e-28,126
Capronia_coronata_ATCC56201_T,ERR3416606.57297,87.96,108,10,2,282,389,327,431,7e-28,124
Capronia_coronata_ATCC56201_T,ERR3416606.57297,95.59,68,3,0,532,599,69,2,2e-23,110
Capronia_coronata_ATCC56201_T,ERR3416606.57297,93.15,73,5,0,531,603,538,610,7e-23,108
Capronia_parasitica_CBS123.88,ERR3416606.1377,94.12,85,5,0,291,375,278,194,1e-29,130
Capronia_parasitica_CBS123.88,ERR3416606.1377,94.12,85,5,0,291,375,328,412,1e-29,130
Capronia_parasitica_CBS123.88,ERR3416606.57297,92.13,89,7,0,287,375,282,194,2e-28,126
Capronia_parasitica_CBS123.88,ERR3416606.57297,92.05,88,7,0,288,375,327,414,6e-28,124
Capronia_parasitica_CBS123.88,ERR3416606.57297,97.67,43,0,1,553,595,68,27,2e-12,73.1
Veronaea_japonica_CBS776.83_T,ERR3416606.1377,90.52,116,6,3,319,434,278,168,4e-35,148
Veronaea_japonica_CBS776.83_T,ERR3416606.1377,90.52,116,6,3,319,434,328,438,4e-35,148
Veronaea_japonica_CBS776.83_T,ERR3416606.57297,89.81,108,9,1,315,422,282,177,8e-32,137
Veronaea_japonica_CBS776.83_T,ERR3416606.57297,89.72,107,9,1,316,422,327,431,3e-31,135
Thysanorea_papuana_CBS212.96_T,ERR3416606.1377,93.27,104,5,2,293,396,278,177,3e-36,152
Thysanorea_papuana_CBS212.96_T,ERR3416606.1377,93.27,104,5,2,293,396,328,429,3e-36,152
Thysanorea_papuana_CBS212.96_T,ERR3416606.57297,90.74,108,8,2,289,396,282,177,2e-33,143
Thysanorea_papuana_CBS212.96_T,ERR3416606.57297,90.65,107,8,2,290,396,327,431,6e-33,141
Capronia_acutiseta_ATCC56428_T,ERR3416606.1377,93.26,89,6,0,286,374,278,190,4e-30,132
Capronia_acutiseta_ATCC56428_T,ERR3416606.1377,93.26,89,6,0,286,374,328,416,4e-30,132
Capronia_acutiseta_ATCC56428_T,ERR3416606.57297,91.40,93,8,0,282,374,282,190,5e-29,128
Capronia_acutiseta_ATCC56428_T,ERR3416606.57297,91.30,92,8,0,283,374,327,418,2e-28,126
Capronia_acutiseta_ATCC56428_T,ERR3416606.57297,100.00,61,0,0,538,598,62,2,1e-24,113
Capronia_acutiseta_ATCC56428_T,ERR3416606.57297,96.92,65,2,0,538,602,546,610,2e-23,110
Fonsecaea_brasiliensis_CBS119710_T,ERR3416606.1377,91.43,105,6,3,293,397,278,177,6e-33,141
Fonsecaea_brasiliensis_CBS119710_T,ERR3416606.1377,91.43,105,6,3,293,397,328,429,6e-33,141
Fonsecaea_brasiliensis_CBS119710_T,ERR3416606.57297,88.99,109,9,3,289,397,282,177,4e-30,132
Fonsecaea_brasiliensis_CBS119710_T,ERR3416606.57297,88.89,108,9,3,290,397,327,431,1e-29,130
Fonsecaea_pedrosoi_CBS271.37_T,ERR3416606.1377,91.51,106,5,3,321,426,278,177,2e-33,143
Fonsecaea_pedrosoi_CBS271.37_T,ERR3416606.1377,91.51,106,5,3,321,426,328,429,2e-33,143
Fonsecaea_pedrosoi_CBS271.37_T,ERR3416606.57297,89.09,110,8,3,317,426,282,177,1e-30,134
Fonsecaea_pedrosoi_CBS271.37_T,ERR3416606.57297,88.99,109,8,3,318,426,327,431,4e-30,132
Fonsecaea_pedrosoi_CBS271.37_T,ERR3416606.57297,95.59,68,2,1,579,645,69,2,7e-23,108
Fonsecaea_pedrosoi_CBS271.37_T,ERR3416606.57297,93.85,65,3,1,579,642,539,603,2e-19,97.1
Fonsecaea_multimorphosa_CBS980.96_T,ERR3416606.1377,92.38,105,5,3,291,395,278,177,1e-34,147
Fonsecaea_multimorphosa_CBS980.96_T,ERR3416606.1377,92.38,105,5,3,291,395,328,429,1e-34,147
Fonsecaea_multimorphosa_CBS980.96_T,ERR3416606.57297,89.91,109,8,3,287,395,282,177,8e-32,137
Fonsecaea_multimorphosa_CBS980.96_T,ERR3416606.57297,89.81,108,8,3,288,395,327,431,3e-31,135
Fonsecaea_minima_CBS125760_T,ERR3416606.1377,91.43,105,6,3,287,391,278,177,6e-33,141
Fonsecaea_minima_CBS125760_T,ERR3416606.1377,91.43,105,6,3,287,391,328,429,6e-33,141
Fonsecaea_minima_CBS125760_T,ERR3416606.57297,88.99,109,9,3,283,391,282,177,3e-30,132
Fonsecaea_minima_CBS125760_T,ERR3416606.57297,88.89,108,9,3,284,391,327,431,1e-29,130
Fonsecaea_nubica_CBS269.64_T,ERR3416606.1377,90.35,114,5,4,298,411,278,171,5e-34,145
Fonsecaea_nubica_CBS269.64_T,ERR3416606.1377,90.35,114,5,4,298,411,328,435,5e-34,145
Fonsecaea_nubica_CBS269.64_T,ERR3416606.57297,89.09,110,8,3,294,403,282,177,1e-30,134
Fonsecaea_nubica_CBS269.64_T,ERR3416606.57297,88.99,109,8,3,295,403,327,431,4e-30,132
Fonsecaea_monophora_CBS269.37_T,ERR3416606.1377,91.51,106,5,3,299,404,278,177,2e-33,143
Fonsecaea_monophora_CBS269.37_T,ERR3416606.1377,91.51,106,5,3,299,404,328,429,2e-33,143
Fonsecaea_monophora_CBS269.37_T,ERR3416606.57297,89.09,110,8,3,295,404,282,177,1e-30,134
Fonsecaea_monophora_CBS269.37_T,ERR3416606.57297,88.99,109,8,3,296,404,327,431,4e-30,132
Fonsecaea_erecta_CBS125763_T,ERR3416606.1377,92.38,105,5,3,282,386,278,177,1e-34,147
Fonsecaea_erecta_CBS125763_T,ERR3416606.1377,92.38,105,5,3,282,386,328,429,1e-34,147
Fonsecaea_erecta_CBS125763_T,ERR3416606.57297,89.91,109,8,3,278,386,282,177,7e-32,137
Fonsecaea_erecta_CBS125763_T,ERR3416606.57297,89.81,108,8,3,279,386,327,431,3e-31,135
Fonsecaea_pugnacius_CBS139214_T,ERR3416606.1377,89.57,115,5,4,291,405,278,171,2e-32,139
Fonsecaea_pugnacius_CBS139214_T,ERR3416606.1377,89.57,115,5,4,291,405,328,435,2e-32,139
Fonsecaea_pugnacius_CBS139214_T,ERR3416606.57297,88.29,111,8,3,287,397,282,177,4e-29,128
Fonsecaea_pugnacius_CBS139214_T,ERR3416606.57297,88.18,110,8,3,288,397,327,431,2e-28,126
Cladophialophora_psammophila_CBS,ERR3416606.1377,92.38,105,5,3,297,401,278,177,1e-34,147
Cladophialophora_psammophila_CBS,ERR3416606.1377,92.38,105,5,3,297,401,328,429,1e-34,147
Cladophialophora_psammophila_CBS,ERR3416606.57297,89.91,109,8,3,293,401,282,177,8e-32,137
Cladophialophora_psammophila_CBS,ERR3416606.57297,89.81,108,8,3,294,401,327,431,3e-31,135
Cladophialophora_devriesii_CBS,ERR3416606.1377,92.38,105,5,3,293,397,278,177,1e-34,147
Cladophialophora_devriesii_CBS,ERR3416606.1377,92.38,105,5,3,293,397,328,429,1e-34,147
Cladophialophora_devriesii_CBS,ERR3416606.57297,89.91,109,8,3,289,397,282,177,7e-32,137
Cladophialophora_devriesii_CBS,ERR3416606.57297,89.81,108,8,3,290,397,327,431,3e-31,135
Cladophialophora_immunda_CBS834.96,ERR3416606.1377,90.27,113,6,4,295,407,278,171,2e-33,143
Cladophialophora_immunda_CBS834.96,ERR3416606.1377,90.27,113,6,4,295,407,328,435,2e-33,143
Cladophialophora_immunda_CBS834.96,ERR3416606.57297,88.99,109,9,3,291,399,282,177,4e-30,132
Cladophialophora_immunda_CBS834.96,ERR3416606.57297,88.89,108,9,3,292,399,327,431,1e-29,130
Cladophialophora_arxii_CBS306.94_T,ERR3416606.1377,89.57,115,5,4,297,411,278,171,2e-32,139
Cladophialophora_arxii_CBS306.94_T,ERR3416606.1377,89.57,115,5,4,297,411,328,435,2e-32,139
Cladophialophora_arxii_CBS306.94_T,ERR3416606.57297,88.29,111,8,3,293,403,282,177,5e-29,128
Cladophialophora_arxii_CBS306.94_T,ERR3416606.57297,88.18,110,8,3,294,403,327,431,2e-28,126
Cladophialophora_bantiana_CBS173.52,ERR3416606.1377,92.38,105,5,3,291,395,278,177,1e-34,147
Cladophialophora_bantiana_CBS173.52,ERR3416606.1377,92.38,105,5,3,291,395,328,429,1e-34,147
Cladophialophora_bantiana_CBS173.52,ERR3416606.57297,89.91,109,8,3,287,395,282,177,8e-32,137
Cladophialophora_bantiana_CBS173.52,ERR3416606.57297,89.81,108,8,3,288,395,327,431,3e-31,135
Cladophialophora_emmonsii_CBS102594,ERR3416606.1377,91.51,106,5,2,282,387,278,177,2e-33,143
Cladophialophora_emmonsii_CBS102594,ERR3416606.1377,91.51,106,5,2,282,387,328,429,2e-33,143
Cladophialophora_emmonsii_CBS102594,ERR3416606.57297,89.09,110,8,2,278,387,282,177,1e-30,134
Cladophialophora_emmonsii_CBS102594,ERR3416606.57297,88.99,109,8,2,279,387,327,431,4e-30,132
Cladophialophora_minourae_CBS556.83,ERR3416606.1377,87.74,106,9,4,290,395,278,177,2e-27,122
Cladophialophora_minourae_CBS556.83,ERR3416606.1377,87.74,106,9,4,290,395,328,429,2e-27,122
Cladophialophora_minourae_CBS556.83,ERR3416606.57297,87.23,94,10,2,286,379,282,191,2e-22,106
Cladophialophora_minourae_CBS556.83,ERR3416606.57297,87.37,95,9,3,286,379,325,417,2e-22,106
Cladophialophora_australiensis_CBS112793,ERR3416606.1377,91.35,104,7,2,292,395,278,177,2e-32,141
Cladophialophora_australiensis_CBS112793,ERR3416606.1377,91.35,104,7,2,292,395,328,429,2e-32,141
Cladophialophora_australiensis_CBS112793,ERR3416606.57297,88.89,108,10,2,288,395,282,177,1e-29,132
Cladophialophora_australiensis_CBS112793,ERR3416606.57297,88.79,107,10,2,289,395,327,431,3e-29,130
Cladophialophora_australiensis_CBS112793,ERR3416606.57297,94.20,69,2,2,539,606,69,2,2e-21,104
Cladophialophora_australiensis_CBS112793,ERR3416606.57297,91.89,74,4,2,538,610,538,610,8e-21,102
Cladophialophora_potulentorum_CBS112222,ERR3416606.1377,90.38,104,8,2,291,394,278,177,8e-31,135
Cladophialophora_potulentorum_CBS112222,ERR3416606.1377,90.38,104,8,2,291,394,328,429,8e-31,135
Cladophialophora_potulentorum_CBS112222,ERR3416606.57297,87.96,108,11,2,287,394,282,177,5e-28,126
Cladophialophora_potulentorum_CBS112222,ERR3416606.57297,87.85,107,11,2,288,394,327,431,2e-27,124
Cladophialophora_potulentorum_CBS112222,ERR3416606.57297,95.65,69,2,1,540,608,69,2,5e-23,110
Cladophialophora_potulentorum_CBS112222,ERR3416606.57297,93.24,74,4,1,539,612,538,610,2e-22,108
Cladophialophora_matsushimae_CMRP1198,ERR3416606.1377,90.38,104,8,2,295,398,278,177,2e-31,135
Cladophialophora_matsushimae_CMRP1198,ERR3416606.1377,90.38,104,8,2,295,398,328,429,2e-31,135
Cladophialophora_matsushimae_CMRP1198,ERR3416606.57297,87.96,108,11,2,291,398,282,177,1e-28,126
Cladophialophora_matsushimae_CMRP1198,ERR3416606.57297,87.85,107,11,2,292,398,327,431,5e-28,124
Cladophialophora_mycetomatis_CBS122637,ERR3416606.1377,91.07,112,6,3,280,391,278,171,3e-35,148
Cladophialophora_mycetomatis_CBS122637,ERR3416606.1377,91.07,112,6,3,280,391,328,435,3e-35,148
Cladophialophora_mycetomatis_CBS122637,ERR3416606.57297,89.81,108,9,2,276,383,282,177,7e-32,137
Cladophialophora_mycetomatis_CBS122637,ERR3416606.57297,89.72,107,9,2,277,383,327,431,3e-31,135
Cladophialophora_chaetospira_CBS127573,ERR3416606.1377,93.27,104,5,2,686,789,278,177,5e-36,152
Cladophialophora_chaetospira_CBS127573,ERR3416606.1377,93.27,104,5,2,686,789,328,429,5e-36,152
Cladophialophora_chaetospira_CBS127573,ERR3416606.57297,90.74,108,8,2,682,789,282,177,3e-33,143
Cladophialophora_chaetospira_CBS127573,ERR3416606.57297,90.65,107,8,2,683,789,327,431,1e-32,141
Cladophialophora_boppii_CBS126.86_T,ERR3416606.1377,92.31,104,6,2,288,391,278,177,1e-34,147
Cladophialophora_boppii_CBS126.86_T,ERR3416606.1377,92.31,104,6,2,288,391,328,429,1e-34,147
Cladophialophora_boppii_CBS126.86_T,ERR3416606.57297,89.81,108,9,2,284,391,282,177,7e-32,137
Cladophialophora_boppii_CBS126.86_T,ERR3416606.57297,89.72,107,9,2,285,391,327,431,3e-31,135
Cladophialophora_abundans_CBS126736,ERR3416606.1377,91.35,104,7,2,225,328,278,177,5e-33,141
Cladophialophora_abundans_CBS126736,ERR3416606.1377,91.35,104,7,2,225,328,328,429,5e-33,141
Cladophialophora_abundans_CBS126736,ERR3416606.57297,88.89,108,10,2,221,328,282,177,3e-30,132
Cladophialophora_abundans_CBS126736,ERR3416606.57297,88.99,109,9,3,221,328,325,431,3e-30,132
Capronia_semi-immersa_CBS102234,ERR3416606.1377,90.38,104,8,2,287,390,278,177,3e-31,135
Capronia_semi-immersa_CBS102234,ERR3416606.1377,90.38,104,8,2,287,390,328,429,3e-31,135
Capronia_semi-immersa_CBS102234,ERR3416606.57297,87.04,108,12,2,283,390,282,177,8e-27,121
Capronia_semi-immersa_CBS102234,ERR3416606.57297,87.16,109,11,3,283,390,325,431,8e-27,121
Phialophora_americana_CBS400.67,ERR3416606.1377,90.38,104,8,2,289,392,278,177,7e-31,135
Phialophora_americana_CBS400.67,ERR3416606.1377,90.38,104,8,2,289,392,328,429,7e-31,135
Phialophora_americana_CBS400.67,ERR3416606.57297,87.04,108,12,2,285,392,282,177,2e-26,121
Phialophora_americana_CBS400.67,ERR3416606.57297,87.16,109,11,3,285,392,325,431,2e-26,121
Phialophora_verrucosa_CBS140325_T,ERR3416606.1377,90.38,104,8,2,293,396,278,177,3e-31,135
Phialophora_verrucosa_CBS140325_T,ERR3416606.1377,90.38,104,8,2,293,396,328,429,3e-31,135
Phialophora_verrucosa_CBS140325_T,ERR3416606.57297,87.04,108,12,2,289,396,282,177,8e-27,121
Phialophora_verrucosa_CBS140325_T,ERR3416606.57297,87.16,109,11,3,289,396,325,431,8e-27,121
Cladophialophora_samoensis_CBS259.83_T,ERR3416606.1377,91.35,104,7,2,293,396,278,177,6e-33,141
Cladophialophora_samoensis_CBS259.83_T,ERR3416606.1377,91.35,104,7,2,293,396,328,429,6e-33,141
Cladophialophora_samoensis_CBS259.83_T,ERR3416606.57297,88.89,108,10,2,289,396,282,177,4e-30,132
Cladophialophora_samoensis_CBS259.83_T,ERR3416606.57297,88.79,107,10,2,290,396,327,431,1e-29,130
Cladophialophora_carrionii_CBS260.83,ERR3416606.1377,92.31,104,6,2,309,412,278,177,1e-34,147
Cladophialophora_carrionii_CBS260.83,ERR3416606.1377,92.31,104,6,2,309,412,328,429,1e-34,147
Cladophialophora_carrionii_CBS260.83,ERR3416606.57297,89.81,108,9,2,305,412,282,177,8e-32,137
Cladophialophora_carrionii_CBS260.83,ERR3416606.57297,89.72,107,9,2,306,412,327,431,3e-31,135
Exophiala_palmae_UPCB86822_T,ERR3416606.1377,90.48,105,7,1,252,356,278,177,3e-31,135
Exophiala_palmae_UPCB86822_T,ERR3416606.1377,90.48,105,7,1,252,356,328,429,3e-31,135
Exophiala_palmae_UPCB86822_T,ERR3416606.57297,92.39,92,7,0,248,339,282,191,3e-30,132
Exophiala_palmae_UPCB86822_T,ERR3416606.57297,92.31,91,7,0,249,339,327,417,1e-29,130
Cladophialophora_yegresii_CBS114405_T,ERR3416606.1377,91.35,104,7,2,294,397,278,177,6e-33,141
Cladophialophora_yegresii_CBS114405_T,ERR3416606.1377,91.35,104,7,2,294,397,328,429,6e-33,141
Cladophialophora_yegresii_CBS114405_T,ERR3416606.57297,88.89,108,10,2,290,397,282,177,4e-30,132
Cladophialophora_yegresii_CBS114405_T,ERR3416606.57297,88.79,107,10,2,291,397,327,431,1e-29,130
Knufia_epidermidis_CBS120353_T,ERR3416606.1377,86.54,104,12,2,292,395,278,177,1e-24,113
Knufia_epidermidis_CBS120353_T,ERR3416606.1377,86.54,104,12,2,292,395,328,429,1e-24,113
Knufia_epidermidis_CBS120353_T,ERR3416606.57297,92.41,79,5,1,289,366,282,204,5e-24,111
Knufia_epidermidis_CBS120353_T,ERR3416606.57297,93.33,75,5,0,292,366,330,404,5e-24,111
Arthrocladium_fulminans_CBS136243_T,ERR3416606.57297,91.14,79,6,1,284,361,282,204,2e-22,106
Arthrocladium_fulminans_CBS136243_T,ERR3416606.57297,92.00,75,6,0,287,361,330,404,2e-22,106
Arthrocladium_fulminans_CBS136243_T,ERR3416606.1377,92.00,75,6,0,287,361,278,204,2e-22,106
Arthrocladium_fulminans_CBS136243_T,ERR3416606.1377,92.00,75,6,0,287,361,328,402,2e-22,106
Cyphellophora_laciniata_CBS190.61_T,ERR3416606.1377,92.16,102,8,0,379,480,278,177,6e-34,145
Cyphellophora_laciniata_CBS190.61_T,ERR3416606.1377,92.16,102,8,0,379,480,328,429,6e-34,145
Cyphellophora_laciniata_CBS190.61_T,ERR3416606.57297,89.62,106,10,1,376,480,282,177,1e-30,134
Cyphellophora_laciniata_CBS190.61_T,ERR3416606.57297,90.20,102,10,0,379,480,330,431,1e-30,134
Cyphellophora_laciniata_CBS190.61_T,ERR3416606.57297,95.71,70,1,2,626,695,69,2,6e-24,111
Cyphellophora_laciniata_CBS190.61_T,ERR3416606.57297,93.33,75,3,2,625,699,538,610,2e-23,110
Cyphellophora_suttonii_CBS449.91,ERR3416606.1377,90.18,112,10,1,282,393,278,168,4e-34,145
Cyphellophora_suttonii_CBS449.91,ERR3416606.1377,90.18,112,10,1,282,393,328,438,4e-34,145
Cyphellophora_suttonii_CBS449.91,ERR3416606.57297,89.62,106,10,1,279,383,282,177,1e-30,134
Cyphellophora_suttonii_CBS449.91,ERR3416606.57297,90.20,102,10,0,282,383,330,431,1e-30,134
Cyphellophora_pauciseptata_CBS284.85_T,ERR3416606.1377,92.16,102,8,0,293,394,278,177,4e-34,145
Cyphellophora_pauciseptata_CBS284.85_T,ERR3416606.1377,92.16,102,8,0,293,394,328,429,4e-34,145
Cyphellophora_pauciseptata_CBS284.85_T,ERR3416606.57297,89.62,106,10,1,290,394,282,177,1e-30,134
Cyphellophora_pauciseptata_CBS284.85_T,ERR3416606.57297,90.20,102,10,0,293,394,330,431,1e-30,134
Cyphellophora_pluriseptata_CBS286.85_T,ERR3416606.1377,93.14,102,7,0,298,399,278,177,1e-35,150
Cyphellophora_pluriseptata_CBS286.85_T,ERR3416606.1377,93.14,102,7,0,298,399,328,429,1e-35,150
Cyphellophora_pluriseptata_CBS286.85_T,ERR3416606.57297,89.62,106,10,1,295,399,282,177,1e-30,134
Cyphellophora_pluriseptata_CBS286.85_T,ERR3416606.57297,90.20,102,10,0,298,399,330,431,1e-30,134
Phialophora_europaea_CBS101466,ERR3416606.1377,93.14,102,7,0,288,389,278,177,9e-36,150
Phialophora_europaea_CBS101466,ERR3416606.1377,93.14,102,7,0,288,389,328,429,9e-36,150
Phialophora_europaea_CBS101466,ERR3416606.57297,89.62,106,10,1,285,389,282,177,9e-31,134
Phialophora_europaea_CBS101466,ERR3416606.57297,90.20,102,10,0,288,389,330,431,9e-31,134
Phialophora_ambigua_CBS235.93,ERR3416606.1377,93.14,102,7,0,285,386,278,177,1e-35,150
Phialophora_ambigua_CBS235.93,ERR3416606.1377,93.14,102,7,0,285,386,328,429,1e-35,150
Phialophora_ambigua_CBS235.93,ERR3416606.57297,89.62,106,10,1,282,386,282,177,1e-30,134
Phialophora_ambigua_CBS235.93,ERR3416606.57297,90.20,102,10,0,285,386,330,431,1e-30,134
Cladophialophora_modesta_CBS985.96_T,ERR3416606.1377,94.17,103,5,1,284,386,278,177,2e-37,156
Cladophialophora_modesta_CBS985.96_T,ERR3416606.1377,94.17,103,5,1,284,386,328,429,2e-37,156
Cladophialophora_modesta_CBS985.96_T,ERR3416606.57297,90.65,107,8,2,281,386,282,177,7e-33,141
Cladophialophora_modesta_CBS985.96_T,ERR3416606.57297,91.26,103,8,1,284,386,330,431,2e-32,139
Cladophialophora_modesta_CBS985.96_T,ERR3416606.57297,94.29,70,2,2,511,579,70,2,2e-22,106
Cladophialophora_modesta_CBS985.96_T,ERR3416606.57297,91.78,73,4,2,512,583,539,610,1e-20,100
