Exophiala_brunnea_CBS,ERR1718588.60,100.00,32,0,0,1,32,32,1,5e-12,60.2
Exophiala_tremulae_CBS129355,ERR1718588.60,100.00,32,0,0,1,32,32,1,5e-12,60.2
Rhinocladiella_atrovirens_CBS264.49,ERR1718588.60,100.00,37,0,0,1,37,37,1,8e-15,69.4
Rhinocladiella_atrovirens_CBS264.49,ERR1718588.52,97.30,37,1,0,1,37,37,1,4e-13,63.9
Rhinocladiella_atrovirens_CBS264.49,ERR1718588.43,97.30,37,1,0,1,37,37,1,4e-13,63.9
Rhinocladiella_atrovirens_CBS264.49,ERR1718588.41,97.30,37,1,0,1,37,37,1,4e-13,63.9
Rhinocladiella_atrovirens_CBS264.49,ERR1718588.8,97.30,37,1,0,1,37,127,163,4e-13,63.9
Veronaea_japonica_CBS776.83_T,ERR1718588.60,100.00,31,0,0,1,31,31,1,2e-11,58.4
Cyphellophora_laciniata_CBS190.61_T,ERR1718588.52,96.15,52,2,0,42,93,52,1,9e-20,86.1
Cyphellophora_laciniata_CBS190.61_T,ERR1718588.41,96.15,52,2,0,42,93,52,1,9e-20,86.1
Cyphellophora_laciniata_CBS190.61_T,ERR1718588.60,96.08,51,2,0,43,93,51,1,3e-19,84.2
Cyphellophora_laciniata_CBS190.61_T,ERR1718588.43,94.12,51,3,0,43,93,51,1,1e-17,78.7
Cyphellophora_laciniata_CBS190.61_T,ERR1718588.8,94.12,51,3,0,43,93,113,163,1e-17,78.7
