Exophiala_dermatitidis_CBS748.88,SRR5429885.59929,90.91,132,12,0,1373,1504,137,6,8e-44,178
Exophiala_dermatitidis_CBS748.88,SRR5429885.13022,90.91,132,12,0,1373,1504,198,67,8e-44,178
Exophiala_dermatitidis_CBS748.88,SRR5429885.28074,90.08,131,12,1,1372,1501,131,1,5e-41,169
Exophiala_dermatitidis_CBS748.88,SRR5429885.121884,89.34,122,13,0,1373,1494,122,1,1e-36,154
Exophiala_dermatitidis_CBS748.88,SRR5429885.125014,88.99,109,12,0,1373,1481,109,1,5e-31,135
Exophiala_dermatitidis_CBS748.88,SRR5429885.75023,91.58,95,7,1,1373,1467,138,231,2e-29,130
Exophiala_dermatitidis_CBS748.88,SRR5429885.31254,92.13,89,7,0,1373,1461,106,194,3e-28,126
Exophiala_dermatitidis_CBS748.88,SRR5429885.68694,91.57,83,6,1,1373,1455,164,245,2e-24,113
Exophiala_dermatitidis_CBS748.88,SRR5429885.25981,90.59,85,8,0,1373,1457,135,219,2e-24,113
Exophiala_dermatitidis_CBS748.88,SRR5429885.4415,91.36,81,7,0,1373,1453,160,240,8e-24,111
Exophiala_dermatitidis_CBS748.88,SRR5429885.81128,89.04,73,8,0,1432,1504,142,70,1e-17,91.6
Exophiala_dermatitidis_CBS748.88,SRR5429885.94271,100.00,35,0,0,1210,1244,195,161,6e-10,65.8
Exophiala_dermatitidis_CBS748.88,SRR5429885.82248,100.00,35,0,0,1210,1244,200,166,6e-10,65.8
Exophiala_dermatitidis_CBS748.88,SRR5429885.69805,100.00,35,0,0,1210,1244,34,68,6e-10,65.8
Exophiala_dermatitidis_CBS748.88,SRR5429885.38352,100.00,35,0,0,1210,1244,154,120,6e-10,65.8
Exophiala_salmonis_CBS157.67_T,SRR5429885.138421,92.50,40,3,0,83,122,69,30,5e-08,58.4
Exophiala_salmonis_CBS157.67_T,SRR5429885.26119,92.50,40,3,0,83,122,69,30,5e-08,58.4
Rhinocladiella_atrovirens_CBS264.49,SRR5429885.138421,97.56,41,1,0,1,41,41,1,6e-12,71.3
Rhinocladiella_atrovirens_CBS264.49,SRR5429885.26119,97.56,41,1,0,1,41,41,1,6e-12,71.3
Cladophialophora_australiensis_CBS112793,SRR5429885.59929,90.91,132,12,0,1340,1471,137,6,8e-44,178
Cladophialophora_australiensis_CBS112793,SRR5429885.13022,90.91,132,12,0,1340,1471,198,67,8e-44,178
Cladophialophora_australiensis_CBS112793,SRR5429885.28074,90.08,131,12,1,1339,1468,131,1,5e-41,169
Cladophialophora_australiensis_CBS112793,SRR5429885.121884,89.34,122,13,0,1340,1461,122,1,1e-36,154
Cladophialophora_australiensis_CBS112793,SRR5429885.125014,88.99,109,12,0,1340,1448,109,1,5e-31,135
Cladophialophora_australiensis_CBS112793,SRR5429885.75023,91.58,95,7,1,1340,1434,138,231,2e-29,130
Cladophialophora_australiensis_CBS112793,SRR5429885.31254,92.13,89,7,0,1340,1428,106,194,3e-28,126
Cladophialophora_australiensis_CBS112793,SRR5429885.68694,91.57,83,6,1,1340,1422,164,245,2e-24,113
Cladophialophora_australiensis_CBS112793,SRR5429885.25981,90.59,85,8,0,1340,1424,135,219,2e-24,113
Cladophialophora_australiensis_CBS112793,SRR5429885.4415,91.36,81,7,0,1340,1420,160,240,8e-24,111
Cladophialophora_australiensis_CBS112793,SRR5429885.81128,89.04,73,8,0,1399,1471,142,70,1e-17,91.6
Cladophialophora_australiensis_CBS112793,SRR5429885.94271,100.00,35,0,0,1177,1211,195,161,6e-10,65.8
Cladophialophora_australiensis_CBS112793,SRR5429885.82248,100.00,35,0,0,1177,1211,200,166,6e-10,65.8
Cladophialophora_australiensis_CBS112793,SRR5429885.69805,100.00,35,0,0,1177,1211,34,68,6e-10,65.8
Cladophialophora_australiensis_CBS112793,SRR5429885.38352,100.00,35,0,0,1177,1211,154,120,6e-10,65.8
Cladophialophora_potulentorum_CBS112222,SRR5429885.13022,91.16,147,13,0,1342,1488,198,52,2e-50,200
Cladophialophora_potulentorum_CBS112222,SRR5429885.59929,91.04,134,12,0,1342,1475,137,4,6e-45,182
Cladophialophora_potulentorum_CBS112222,SRR5429885.28074,90.08,131,12,1,1341,1470,131,1,5e-41,169
Cladophialophora_potulentorum_CBS112222,SRR5429885.121884,89.34,122,13,0,1342,1463,122,1,1e-36,154
Cladophialophora_potulentorum_CBS112222,SRR5429885.125014,88.99,109,12,0,1342,1450,109,1,5e-31,135
Cladophialophora_potulentorum_CBS112222,SRR5429885.75023,91.58,95,7,1,1342,1436,138,231,2e-29,130
Cladophialophora_potulentorum_CBS112222,SRR5429885.31254,92.13,89,7,0,1342,1430,106,194,3e-28,126
Cladophialophora_potulentorum_CBS112222,SRR5429885.81128,89.77,88,9,0,1401,1488,142,55,2e-24,113
Cladophialophora_potulentorum_CBS112222,SRR5429885.68694,91.57,83,6,1,1342,1424,164,245,2e-24,113
Cladophialophora_potulentorum_CBS112222,SRR5429885.25981,90.59,85,8,0,1342,1426,135,219,2e-24,113
Cladophialophora_potulentorum_CBS112222,SRR5429885.4415,91.36,81,7,0,1342,1422,160,240,8e-24,111
Cladophialophora_potulentorum_CBS112222,SRR5429885.115543,97.56,41,1,0,1448,1488,345,305,1e-11,71.3
Cladophialophora_potulentorum_CBS112222,SRR5429885.94271,100.00,35,0,0,1179,1213,195,161,6e-10,65.8
Cladophialophora_potulentorum_CBS112222,SRR5429885.82248,100.00,35,0,0,1179,1213,200,166,6e-10,65.8
Cladophialophora_potulentorum_CBS112222,SRR5429885.69805,100.00,35,0,0,1179,1213,34,68,6e-10,65.8
Cladophialophora_potulentorum_CBS112222,SRR5429885.38352,100.00,35,0,0,1179,1213,154,120,6e-10,65.8
Phialophora_americana_CBS400.67,SRR5429885.59929,89.29,112,12,0,1334,1445,137,26,1e-32,141
Phialophora_americana_CBS400.67,SRR5429885.13022,89.29,112,12,0,1334,1445,198,87,1e-32,141
Phialophora_americana_CBS400.67,SRR5429885.28074,88.60,114,12,1,1333,1445,131,18,1e-31,137
Phialophora_americana_CBS400.67,SRR5429885.125014,88.99,109,12,0,1334,1442,109,1,5e-31,135
Phialophora_americana_CBS400.67,SRR5429885.121884,88.39,112,13,0,1334,1445,122,11,5e-31,135
Phialophora_americana_CBS400.67,SRR5429885.75023,91.58,95,7,1,1334,1428,138,231,2e-29,130
Phialophora_americana_CBS400.67,SRR5429885.31254,92.13,89,7,0,1334,1422,106,194,3e-28,126
Phialophora_americana_CBS400.67,SRR5429885.68694,91.57,83,6,1,1334,1416,164,245,2e-24,113
Phialophora_americana_CBS400.67,SRR5429885.25981,90.59,85,8,0,1334,1418,135,219,2e-24,113
Phialophora_americana_CBS400.67,SRR5429885.4415,91.36,81,7,0,1334,1414,160,240,8e-24,111
Phialophora_americana_CBS400.67,SRR5429885.94271,100.00,35,0,0,1171,1205,195,161,6e-10,65.8
Phialophora_americana_CBS400.67,SRR5429885.82248,100.00,35,0,0,1171,1205,200,166,6e-10,65.8
Phialophora_americana_CBS400.67,SRR5429885.69805,100.00,35,0,0,1171,1205,34,68,6e-10,65.8
Phialophora_americana_CBS400.67,SRR5429885.38352,100.00,35,0,0,1171,1205,154,120,6e-10,65.8
Cyphellophora_laciniata_CBS190.61_T,SRR5429885.138421,94.20,69,4,0,29,97,69,1,2e-22,106
Cyphellophora_laciniata_CBS190.61_T,SRR5429885.26119,94.20,69,4,0,29,97,69,1,2e-22,106
