Exophiala_nigra_CBS535.94_T,SRR5227269.34464,92.05,88,6,1,232,319,1,87,2e-27,122
Exophiala_spinifera_CBS899.68_T,SRR5227269.34464,92.05,88,6,1,229,316,1,87,1e-27,122
Exophiala_exophialae_CBS668.76_T,SRR5227269.34464,92.05,88,6,1,230,317,1,87,1e-27,122
Exophiala_polymorpha_CBS138920_T,SRR5227269.34464,92.05,88,6,1,332,419,1,87,2e-27,122
Exophiala_oligosperma_CBS725.88_T,SRR5227269.34464,92.05,88,6,1,242,329,1,87,1e-27,122
Exophiala_jeanselmei_CBS507.90_T,SRR5227269.34464,92.05,88,6,1,234,321,1,87,2e-27,122
Exophiala_bergeri_CBS353.52,SRR5227269.34464,92.05,88,6,1,195,282,1,87,1e-27,122
Exophiala_moniliae_CBS520.76_T,SRR5227269.34464,92.05,88,6,1,232,319,1,87,2e-27,122
Exophiala_pisciphila_CBS537.73_T,SRR5227269.34464,90.91,88,7,1,235,322,1,87,8e-26,117
Exophiala_xenobiotica_CBS117642,SRR5227269.34464,92.05,88,6,1,227,314,1,87,1e-27,122
Exophiala_brunnea_CBS,SRR5227269.34464,92.05,88,6,1,263,350,1,87,2e-27,122
Exophiala_nishimurae_CBS101538_T,SRR5227269.34464,92.05,88,6,1,241,328,1,87,2e-27,122
Exophiala_mesophila_CBS402.95_T,SRR5227269.34464,92.05,88,6,1,225,312,1,87,2e-27,122
Exophiala_castellanii_CBS158.58_T,SRR5227269.34464,92.05,88,6,1,223,310,1,87,2e-27,122
Exophiala_lecanii-corni_CBS123.33_T,SRR5227269.34464,92.05,88,6,1,246,333,1,87,2e-27,122
Exophiala_dermatitidis_CBS748.88,SRR5227269.34464,92.05,88,6,1,238,325,1,87,4e-27,122
Exophiala_angulospora_CBS482.92_T,SRR5227269.34464,92.05,88,6,1,229,316,1,87,1e-27,122
Exophiala_opportunistica_CBS109811_T,SRR5227269.34464,92.05,88,6,1,228,315,1,87,2e-27,122
Exophiala_salmonis_CBS157.67_T,SRR5227269.34464,92.05,88,6,1,357,444,1,87,2e-27,122
Exophiala_aquamarina_CBS119918_T,SRR5227269.34464,92.05,88,6,1,235,322,1,87,1e-27,122
Exophiala_cancerae_CBS120420_T,SRR5227269.34464,92.05,88,6,1,250,337,1,87,2e-27,122
Exophiala_tremulae_CBS129355,SRR5227269.34464,92.05,88,6,1,262,349,1,87,2e-27,122
Exophiala_equina_CBS116009,SRR5227269.34464,92.05,88,6,1,228,315,1,87,1e-27,122
Exophiala_alcalophila_CBS520.82_T,SRR5227269.34464,92.05,88,6,1,239,326,1,87,2e-27,122
Exophiala_crusticola_CBS119970_T,SRR5227269.34464,92.05,88,6,1,244,331,1,87,1e-27,122
Rhinocladiella_atrovirens_CBS264.49,SRR5227269.34464,92.05,88,6,1,270,357,1,87,2e-27,122
Rhinocladiella_basitona_CBS101460_T,SRR5227269.34464,92.05,88,6,1,229,316,1,87,1e-27,122
Rhinocladiella_phaeophora_CBS496.78_T,SRR5227269.34464,90.91,88,7,1,237,324,1,87,7e-26,117
Rhinocladiella_aquaspersa_CBS313.73_T,SRR5227269.34464,90.91,88,7,1,231,318,1,87,8e-26,117
Rhinocladiella_fasciculata_CBS132.86_T,SRR5227269.34464,90.91,88,7,1,247,334,1,87,7e-26,117
Rhinocladiella_anceps_CBS181.65_T,SRR5227269.34464,90.91,88,7,1,229,316,1,87,7e-26,117
Rhinocladiella_mackenziei_CBS367.92,SRR5227269.34464,92.05,88,6,1,218,305,1,87,2e-27,122
Veronaea_compacta_CBS268.75_T,SRR5227269.34464,92.05,88,6,1,251,338,1,87,2e-27,122
Capronia_pilosella_AFTOL-ID657,SRR5227269.34464,92.05,88,6,1,329,416,1,87,2e-27,122
Capronia_dactylotricha_DAOM208471_T,SRR5227269.34464,92.05,88,6,1,231,318,1,87,2e-27,122
Capronia_kleinmondensis_CBS122671_T,SRR5227269.34464,92.05,88,6,1,256,343,1,87,2e-27,122
Capronia_mansonii_CBS101.67_T,SRR5227269.34464,92.05,88,6,1,242,329,1,87,2e-27,122
Capronia_munkii_DAOM216390_T,SRR5227269.34464,92.05,88,6,1,242,329,1,87,2e-27,122
Capronia_coronata_ATCC56201_T,SRR5227269.34464,92.05,88,6,1,230,317,1,87,2e-27,122
Capronia_parasitica_CBS123.88,SRR5227269.34464,92.05,88,6,1,236,323,1,87,2e-27,122
Veronaea_japonica_CBS776.83_T,SRR5227269.34464,92.05,88,6,1,264,351,1,87,2e-27,122
Thysanorea_papuana_CBS212.96_T,SRR5227269.34464,92.05,88,6,1,238,325,1,87,2e-27,122
Fonsecaea_brasiliensis_CBS119710_T,SRR5227269.34464,92.05,88,6,1,238,325,1,87,1e-27,122
Fonsecaea_pedrosoi_CBS271.37_T,SRR5227269.34464,92.05,88,6,1,266,353,1,87,2e-27,122
Fonsecaea_multimorphosa_CBS980.96_T,SRR5227269.34464,92.05,88,6,1,236,323,1,87,1e-27,122
Fonsecaea_minima_CBS125760_T,SRR5227269.34464,92.05,88,6,1,232,319,1,87,1e-27,122
Fonsecaea_nubica_CBS269.64_T,SRR5227269.34464,92.05,88,6,1,243,330,1,87,2e-27,122
Fonsecaea_erecta_CBS125763_T,SRR5227269.34464,92.05,88,6,1,227,314,1,87,1e-27,122
Fonsecaea_pugnacius_CBS139214_T,SRR5227269.34464,92.05,88,6,1,236,323,1,87,1e-27,122
Cladophialophora_psammophila_CBS,SRR5227269.34464,92.05,88,6,1,242,329,1,87,2e-27,122
Cladophialophora_devriesii_CBS,SRR5227269.34464,92.05,88,6,1,238,325,1,87,1e-27,122
Cladophialophora_immunda_CBS834.96,SRR5227269.34464,92.05,88,6,1,240,327,1,87,1e-27,122
Cladophialophora_arxii_CBS306.94_T,SRR5227269.34464,92.05,88,6,1,242,329,1,87,1e-27,122
Cladophialophora_bantiana_CBS173.52,SRR5227269.34464,92.05,88,6,1,236,323,1,87,1e-27,122
Cladophialophora_emmonsii_CBS102594,SRR5227269.34464,92.05,88,6,1,227,314,1,87,1e-27,122
Cladophialophora_minourae_CBS556.83,SRR5227269.34464,92.05,88,6,1,235,322,1,87,1e-27,122
Cladophialophora_australiensis_CBS112793,SRR5227269.34464,92.05,88,6,1,237,324,1,87,4e-27,122
Cladophialophora_potulentorum_CBS112222,SRR5227269.34464,92.05,88,6,1,236,323,1,87,4e-27,122
Cladophialophora_matsushimae_CMRP1198,SRR5227269.34464,92.05,88,6,1,240,327,1,87,1e-27,122
Cladophialophora_mycetomatis_CBS122637,SRR5227269.34464,92.05,88,6,1,225,312,1,87,1e-27,122
Cladophialophora_chaetospira_CBS127573,SRR5227269.34464,92.05,88,6,1,631,718,1,87,3e-27,122
Cladophialophora_boppii_CBS126.86_T,SRR5227269.34464,92.05,88,6,1,233,320,1,87,1e-27,122
Cladophialophora_abundans_CBS126736,SRR5227269.34464,92.05,88,6,1,170,257,1,87,1e-27,122
Capronia_semi-immersa_CBS102234,SRR5227269.34464,92.05,88,6,1,232,319,1,87,1e-27,122
Phialophora_americana_CBS400.67,SRR5227269.34464,92.05,88,6,1,234,321,1,87,4e-27,122
Phialophora_verrucosa_CBS140325_T,SRR5227269.34464,92.05,88,6,1,238,325,1,87,2e-27,122
Cladophialophora_samoensis_CBS259.83_T,SRR5227269.34464,92.05,88,6,1,238,325,1,87,1e-27,122
Cladophialophora_carrionii_CBS260.83,SRR5227269.34464,92.05,88,6,1,254,341,1,87,2e-27,122
Exophiala_palmae_UPCB86822_T,SRR5227269.34464,92.05,88,6,1,197,284,1,87,1e-27,122
Cladophialophora_yegresii_CBS114405_T,SRR5227269.34464,92.05,88,6,1,239,326,1,87,1e-27,122
Knufia_epidermidis_CBS120353_T,SRR5227269.34464,92.05,88,6,1,237,324,1,87,1e-27,122
Arthrocladium_fulminans_CBS136243_T,SRR5227269.34464,92.05,88,6,1,232,319,1,87,1e-27,122
Anthopsis_deltoidea_CBS263.77_T,SRR5227269.34464,93.10,87,5,1,241,326,1,87,1e-28,126
Cyphellophora_laciniata_CBS190.61_T,SRR5227269.34464,91.95,87,6,1,326,411,1,87,7e-27,121
Cyphellophora_suttonii_CBS449.91,SRR5227269.34464,91.95,87,6,1,229,314,1,87,5e-27,121
Cyphellophora_pauciseptata_CBS284.85_T,SRR5227269.34464,91.95,87,6,1,240,325,1,87,5e-27,121
Cyphellophora_pluriseptata_CBS286.85_T,SRR5227269.34464,91.76,85,6,1,247,330,3,87,7e-26,117
Phialophora_europaea_CBS101466,SRR5227269.34464,91.95,87,6,1,235,320,1,87,5e-27,121
Phialophora_ambigua_CBS235.93,SRR5227269.34464,91.95,87,6,1,232,317,1,87,5e-27,121
Cladophialophora_modesta_CBS985.96_T,SRR5227269.34464,92.05,88,6,1,229,316,1,87,2e-27,122
Cyphellophora_fusarioides_MUCL44033_T,SRR5227269.34464,93.10,87,5,1,228,313,1,87,1e-28,126
