Exophiala_brunnea_CBS,SRR9005087.607699,97.67,43,1,0,1,43,316,358,2e-11,75.0
Exophiala_brunnea_CBS,SRR9005087.236003,97.67,43,1,0,1,43,50,92,2e-11,75.0
Exophiala_dermatitidis_CBS748.88,SRR9005087.1081965,90.41,146,14,0,1359,1504,452,307,1e-46,193
Exophiala_dermatitidis_CBS748.88,SRR9005087.1081965,89.04,146,16,0,1359,1504,156,301,2e-43,182
Exophiala_dermatitidis_CBS748.88,SRR9005087.1081965,94.87,39,2,0,1218,1256,1,39,3e-07,62.1
Exophiala_dermatitidis_CBS748.88,SRR9005087.1291374,95.45,44,2,0,1213,1256,448,405,5e-10,71.3
Exophiala_dermatitidis_CBS748.88,SRR9005087.672168,95.45,44,2,0,1213,1256,326,369,5e-10,71.3
Exophiala_dermatitidis_CBS748.88,SRR9005087.631492,95.45,44,2,0,1213,1256,149,106,5e-10,71.3
Exophiala_dermatitidis_CBS748.88,SRR9005087.631492,95.45,44,2,0,1213,1256,310,353,5e-10,71.3
Exophiala_tremulae_CBS129355,SRR9005087.607699,97.67,43,1,0,1,43,316,358,2e-11,75.0
Exophiala_tremulae_CBS129355,SRR9005087.236003,97.67,43,1,0,1,43,50,92,2e-11,75.0
Rhinocladiella_atrovirens_CBS264.49,SRR9005087.607699,100.00,48,0,0,1,48,311,358,6e-16,89.8
Rhinocladiella_atrovirens_CBS264.49,SRR9005087.236003,100.00,48,0,0,1,48,45,92,6e-16,89.8
Rhinocladiella_atrovirens_CBS264.49,SRR9005087.1546491,95.83,48,2,0,1,48,45,92,1e-12,78.7
Rhinocladiella_atrovirens_CBS264.49,SRR9005087.1743281,100.00,28,0,0,1,28,28,1,7e-05,52.8
Rhinocladiella_fasciculata_CBS132.86_T,SRR9005087.607699,100.00,31,0,0,1,31,328,358,1e-06,58.4
Rhinocladiella_fasciculata_CBS132.86_T,SRR9005087.236003,100.00,31,0,0,1,31,62,92,1e-06,58.4
Capronia_kleinmondensis_CBS122671_T,SRR9005087.607699,100.00,34,0,0,1,34,325,358,4e-08,63.9
Capronia_kleinmondensis_CBS122671_T,SRR9005087.236003,100.00,34,0,0,1,34,59,92,4e-08,63.9
Veronaea_japonica_CBS776.83_T,SRR9005087.607699,97.62,42,1,0,1,42,317,358,6e-11,73.1
Veronaea_japonica_CBS776.83_T,SRR9005087.236003,97.62,42,1,0,1,42,51,92,6e-11,73.1
Fonsecaea_pedrosoi_CBS271.37_T,SRR9005087.607699,100.00,30,0,0,1,30,325,354,6e-06,56.5
Fonsecaea_pedrosoi_CBS271.37_T,SRR9005087.236003,100.00,30,0,0,1,30,59,88,6e-06,56.5
Cladophialophora_australiensis_CBS112793,SRR9005087.1081965,90.41,146,14,0,1326,1471,452,307,1e-46,193
Cladophialophora_australiensis_CBS112793,SRR9005087.1081965,89.04,146,16,0,1326,1471,156,301,2e-43,182
Cladophialophora_australiensis_CBS112793,SRR9005087.1081965,100.00,28,0,0,1185,1212,1,28,2e-04,52.8
Cladophialophora_australiensis_CBS112793,SRR9005087.1291374,100.00,33,0,0,1180,1212,448,416,3e-07,62.1
Cladophialophora_australiensis_CBS112793,SRR9005087.672168,100.00,33,0,0,1180,1212,326,358,3e-07,62.1
Cladophialophora_australiensis_CBS112793,SRR9005087.631492,100.00,33,0,0,1180,1212,149,117,3e-07,62.1
Cladophialophora_australiensis_CBS112793,SRR9005087.631492,100.00,33,0,0,1180,1212,310,342,3e-07,62.1
Cladophialophora_potulentorum_CBS112222,SRR9005087.1081965,89.38,160,15,1,1328,1487,452,295,6e-49,200
Cladophialophora_potulentorum_CBS112222,SRR9005087.1081965,89.04,146,16,0,1328,1473,156,301,2e-43,182
Cladophialophora_potulentorum_CBS112222,SRR9005087.1081965,92.31,39,3,0,1187,1225,1,39,1e-05,56.5
Cladophialophora_potulentorum_CBS112222,SRR9005087.1291374,93.18,44,3,0,1182,1225,448,405,2e-08,65.8
Cladophialophora_potulentorum_CBS112222,SRR9005087.672168,93.18,44,3,0,1182,1225,326,369,2e-08,65.8
Cladophialophora_potulentorum_CBS112222,SRR9005087.631492,93.18,44,3,0,1182,1225,149,106,2e-08,65.8
Cladophialophora_potulentorum_CBS112222,SRR9005087.631492,93.18,44,3,0,1182,1225,310,353,2e-08,65.8
Cladophialophora_chaetospira_CBS127573,SRR9005087.607699,97.14,35,1,0,379,413,324,358,7e-07,60.2
Cladophialophora_chaetospira_CBS127573,SRR9005087.236003,97.14,35,1,0,379,413,58,92,7e-07,60.2
Phialophora_americana_CBS400.67,SRR9005087.1081965,89.68,126,13,0,1320,1445,452,327,3e-37,161
Phialophora_americana_CBS400.67,SRR9005087.1081965,88.10,126,15,0,1320,1445,156,281,6e-34,150
Phialophora_americana_CBS400.67,SRR9005087.1081965,94.87,39,2,0,1179,1217,1,39,3e-07,62.1
Phialophora_americana_CBS400.67,SRR9005087.1291374,95.45,44,2,0,1174,1217,448,405,5e-10,71.3
Phialophora_americana_CBS400.67,SRR9005087.672168,95.45,44,2,0,1174,1217,326,369,5e-10,71.3
Phialophora_americana_CBS400.67,SRR9005087.631492,95.45,44,2,0,1174,1217,149,106,5e-10,71.3
Phialophora_americana_CBS400.67,SRR9005087.631492,95.45,44,2,0,1174,1217,310,353,5e-10,71.3
Cyphellophora_laciniata_CBS190.61_T,SRR9005087.236003,96.97,66,2,0,39,104,27,92,1e-22,111
Cyphellophora_laciniata_CBS190.61_T,SRR9005087.607699,96.55,58,2,0,47,104,301,358,4e-18,97.1
Cyphellophora_laciniata_CBS190.61_T,SRR9005087.1546491,92.42,66,5,0,39,104,27,92,1e-17,95.3
Cyphellophora_laciniata_CBS190.61_T,SRR9005087.1743281,95.65,46,2,0,39,84,46,1,2e-11,75.0
