Exophiala_nigra_CBS535.94_T,SRR10062856.57258,90.08,121,11,1,232,352,1,120,5e-37,156
Exophiala_spinifera_CBS899.68_T,SRR10062856.57258,89.26,121,12,1,229,349,1,120,2e-35,150
Exophiala_exophialae_CBS668.76_T,SRR10062856.57258,89.26,121,12,1,230,350,1,120,2e-35,150
Exophiala_polymorpha_CBS138920_T,SRR10062856.57258,89.26,121,12,1,332,452,1,120,3e-35,150
Exophiala_polymorpha_CBS138920_T,SRR10062856.73893,98.11,53,1,0,642,694,362,310,5e-18,93.5
Exophiala_oligosperma_CBS725.88_T,SRR10062856.57258,89.26,121,12,1,242,362,1,120,2e-35,150
Exophiala_jeanselmei_CBS507.90_T,SRR10062856.57258,89.26,121,12,1,234,354,1,120,2e-35,150
Exophiala_jeanselmei_CBS507.90_T,SRR10062856.73893,94.44,72,4,0,533,604,373,302,1e-23,111
Exophiala_bergeri_CBS353.52,SRR10062856.57258,90.08,121,11,1,195,315,1,120,4e-37,156
Exophiala_moniliae_CBS520.76_T,SRR10062856.57258,90.08,121,11,1,232,352,1,120,5e-37,156
Exophiala_pisciphila_CBS537.73_T,SRR10062856.57258,87.14,140,16,2,235,374,1,138,2e-37,158
Exophiala_pisciphila_CBS537.73_T,SRR10062856.73893,100.00,61,0,0,553,613,362,302,3e-24,113
Exophiala_xenobiotica_CBS117642,SRR10062856.57258,90.08,121,11,1,227,347,1,120,4e-37,156
Exophiala_brunnea_CBS,SRR10062856.57258,86.43,140,17,2,263,402,1,138,7e-36,152
Exophiala_brunnea_CBS,SRR10062856.73893,94.83,58,2,1,577,633,370,313,2e-17,91.6
Exophiala_nishimurae_CBS101538_T,SRR10062856.57258,89.26,121,12,1,241,361,1,120,2e-35,150
Exophiala_mesophila_CBS402.95_T,SRR10062856.57258,84.28,159,23,2,225,383,1,157,2e-36,154
Exophiala_mesophila_CBS402.95_T,SRR10062856.73893,98.36,61,1,0,550,610,362,302,2e-22,108
Exophiala_castellanii_CBS158.58_T,SRR10062856.57258,84.38,160,23,2,223,382,1,158,5e-37,156
Exophiala_castellanii_CBS158.58_T,SRR10062856.73893,98.36,61,1,0,549,609,362,302,2e-22,108
Exophiala_lecanii-corni_CBS123.33_T,SRR10062856.57258,86.86,137,16,2,246,381,1,136,6e-36,152
Exophiala_dermatitidis_CBS748.88,SRR10062856.57258,87.14,140,16,2,238,377,1,138,4e-37,158
Exophiala_dermatitidis_CBS748.88,SRR10062856.73893,98.36,61,1,0,575,635,362,302,4e-22,108
Exophiala_angulospora_CBS482.92_T,SRR10062856.57258,90.08,121,11,1,229,349,1,120,5e-37,156
Exophiala_opportunistica_CBS109811_T,SRR10062856.57258,87.14,140,16,2,228,367,1,138,1e-37,158
Exophiala_salmonis_CBS157.67_T,SRR10062856.57258,87.14,140,16,2,357,496,1,138,2e-37,158
Exophiala_salmonis_CBS157.67_T,SRR10062856.73893,100.00,61,0,0,673,733,362,302,4e-24,113
Exophiala_aquamarina_CBS119918_T,SRR10062856.57258,90.08,121,11,1,235,355,1,120,5e-37,156
Exophiala_cancerae_CBS120420_T,SRR10062856.57258,87.14,140,16,2,250,389,1,138,1e-37,158
Exophiala_cancerae_CBS120420_T,SRR10062856.73893,100.00,61,0,0,564,624,362,302,3e-24,113
Exophiala_tremulae_CBS129355,SRR10062856.57258,87.14,140,16,2,262,401,1,138,1e-37,158
Exophiala_tremulae_CBS129355,SRR10062856.73893,100.00,50,0,0,579,628,362,313,4e-18,93.5
Exophiala_equina_CBS116009,SRR10062856.57258,87.14,140,16,2,228,367,1,138,1e-37,158
Exophiala_alcalophila_CBS520.82_T,SRR10062856.57258,90.08,121,11,1,239,359,1,120,5e-37,156
Exophiala_crusticola_CBS119970_T,SRR10062856.57258,87.14,140,16,2,244,383,1,138,1e-37,158
Rhinocladiella_atrovirens_CBS264.49,SRR10062856.57258,86.86,137,16,2,270,405,1,136,7e-36,152
Rhinocladiella_atrovirens_CBS264.49,SRR10062856.73893,100.00,49,0,0,578,626,362,314,1e-17,91.6
Rhinocladiella_basitona_CBS101460_T,SRR10062856.57258,89.26,121,12,1,229,349,1,120,2e-35,150
Rhinocladiella_phaeophora_CBS496.78_T,SRR10062856.57258,87.14,140,16,2,237,376,1,138,1e-37,158
Rhinocladiella_aquaspersa_CBS313.73_T,SRR10062856.57258,87.14,140,16,2,231,370,1,138,2e-37,158
Rhinocladiella_aquaspersa_CBS313.73_T,SRR10062856.73893,95.08,61,0,3,548,605,362,302,4e-18,93.5
Rhinocladiella_fasciculata_CBS132.86_T,SRR10062856.57258,90.52,116,10,1,247,362,1,115,6e-36,152
Rhinocladiella_anceps_CBS181.65_T,SRR10062856.57258,89.26,121,12,1,229,349,1,120,2e-35,150
Rhinocladiella_mackenziei_CBS367.92,SRR10062856.57258,90.08,121,11,1,218,338,1,120,5e-37,156
Rhinocladiella_mackenziei_CBS367.92,SRR10062856.73893,100.00,43,0,0,566,608,361,319,3e-14,80.5
Veronaea_compacta_CBS268.75_T,SRR10062856.57258,86.43,140,17,2,251,390,1,138,6e-36,152
Capronia_pilosella_AFTOL-ID657,SRR10062856.57258,87.14,140,16,2,329,468,1,138,2e-37,158
Capronia_dactylotricha_DAOM208471_T,SRR10062856.57258,90.08,121,11,1,231,351,1,120,6e-37,156
Capronia_dactylotricha_DAOM208471_T,SRR10062856.73893,100.00,61,0,0,558,618,362,302,3e-24,113
Capronia_kleinmondensis_CBS122671_T,SRR10062856.57258,86.86,137,16,2,256,391,1,136,7e-36,152
Capronia_kleinmondensis_CBS122671_T,SRR10062856.73893,100.00,61,0,0,564,624,362,302,3e-24,113
Capronia_mansonii_CBS101.67_T,SRR10062856.57258,87.14,140,16,2,242,381,1,138,2e-37,158
Capronia_mansonii_CBS101.67_T,SRR10062856.73893,98.36,61,1,0,568,628,362,302,2e-22,108
Capronia_munkii_DAOM216390_T,SRR10062856.57258,87.14,140,16,2,242,381,1,138,2e-37,158
Capronia_munkii_DAOM216390_T,SRR10062856.73893,98.36,61,1,0,568,628,362,302,2e-22,108
Capronia_coronata_ATCC56201_T,SRR10062856.57258,90.08,121,11,1,230,350,1,120,5e-37,156
Capronia_coronata_ATCC56201_T,SRR10062856.73893,98.36,61,1,0,539,599,362,302,2e-22,108
Capronia_parasitica_CBS123.88,SRR10062856.57258,87.59,137,15,2,236,371,1,136,1e-37,158
Capronia_parasitica_CBS123.88,SRR10062856.73893,97.50,40,1,0,556,595,366,327,7e-11,69.4
Veronaea_japonica_CBS776.83_T,SRR10062856.57258,87.14,140,16,2,264,403,1,138,1e-37,158
Thysanorea_papuana_CBS212.96_T,SRR10062856.57258,87.14,140,16,2,238,377,1,138,1e-37,158
Capronia_acutiseta_ATCC56428_T,SRR10062856.73893,91.86,86,2,4,514,598,383,302,9e-25,115
Fonsecaea_brasiliensis_CBS119710_T,SRR10062856.57258,90.08,121,11,1,238,358,1,120,5e-37,156
Fonsecaea_pedrosoi_CBS271.37_T,SRR10062856.57258,90.08,121,11,1,266,386,1,120,5e-37,156
Fonsecaea_pedrosoi_CBS271.37_T,SRR10062856.73893,96.72,61,2,0,585,645,362,302,7e-21,102
Fonsecaea_multimorphosa_CBS980.96_T,SRR10062856.57258,90.08,121,11,1,236,356,1,120,5e-37,156
Fonsecaea_minima_CBS125760_T,SRR10062856.57258,90.08,121,11,1,232,352,1,120,5e-37,156
Fonsecaea_nubica_CBS269.64_T,SRR10062856.57258,90.08,121,11,1,243,363,1,120,5e-37,156
Fonsecaea_erecta_CBS125763_T,SRR10062856.57258,87.14,140,16,2,227,366,1,138,1e-37,158
Fonsecaea_pugnacius_CBS139214_T,SRR10062856.57258,90.08,121,11,1,236,356,1,120,5e-37,156
Cladophialophora_psammophila_CBS,SRR10062856.57258,87.14,140,16,2,242,381,1,138,1e-37,158
Cladophialophora_devriesii_CBS,SRR10062856.57258,90.08,121,11,1,238,358,1,120,4e-37,156
Cladophialophora_immunda_CBS834.96,SRR10062856.57258,90.08,121,11,1,240,360,1,120,5e-37,156
Cladophialophora_arxii_CBS306.94_T,SRR10062856.57258,90.08,121,11,1,242,362,1,120,5e-37,156
Cladophialophora_bantiana_CBS173.52,SRR10062856.57258,87.14,140,16,2,236,375,1,138,1e-37,158
Cladophialophora_emmonsii_CBS102594,SRR10062856.57258,86.39,147,17,3,227,373,1,144,1e-37,158
Cladophialophora_minourae_CBS556.83,SRR10062856.57258,87.29,118,12,3,235,352,1,115,8e-30,132
Cladophialophora_australiensis_CBS112793,SRR10062856.57258,90.52,116,10,1,237,352,1,115,2e-35,152
Cladophialophora_australiensis_CBS112793,SRR10062856.73893,96.72,61,2,0,546,606,362,302,2e-20,102
Cladophialophora_potulentorum_CBS112222,SRR10062856.57258,89.66,116,11,1,236,351,1,115,8e-34,147
Cladophialophora_potulentorum_CBS112222,SRR10062856.73893,95.38,65,3,0,544,608,366,302,5e-21,104
Cladophialophora_matsushimae_CMRP1198,SRR10062856.57258,89.26,121,12,1,240,360,1,120,2e-35,150
Cladophialophora_mycetomatis_CBS122637,SRR10062856.57258,86.43,140,17,2,225,364,1,138,6e-36,152
Cladophialophora_chaetospira_CBS127573,SRR10062856.57258,87.14,140,16,2,631,770,1,138,2e-37,158
Cladophialophora_boppii_CBS126.86_T,SRR10062856.57258,87.14,140,16,2,233,372,1,138,1e-37,158
Cladophialophora_abundans_CBS126736,SRR10062856.57258,86.43,140,17,2,170,309,1,138,5e-36,152
Capronia_semi-immersa_CBS102234,SRR10062856.57258,88.79,116,12,1,232,347,1,115,1e-32,141
Phialophora_americana_CBS400.67,SRR10062856.57258,88.79,116,12,1,234,349,1,115,3e-32,141
Phialophora_verrucosa_CBS140325_T,SRR10062856.57258,88.79,116,12,1,238,353,1,115,1e-32,141
Cladophialophora_samoensis_CBS259.83_T,SRR10062856.57258,87.86,140,15,2,238,377,1,138,3e-39,163
Cladophialophora_carrionii_CBS260.83,SRR10062856.57258,86.43,140,17,2,254,393,1,138,7e-36,152
Exophiala_palmae_UPCB86822_T,SRR10062856.57258,87.14,140,16,2,197,336,1,138,1e-37,158
Cladophialophora_yegresii_CBS114405_T,SRR10062856.57258,86.43,140,17,2,239,378,1,138,6e-36,152
Knufia_epidermidis_CBS120353_T,SRR10062856.57258,89.26,121,12,1,237,357,1,120,2e-35,150
Arthrocladium_fulminans_CBS136243_T,SRR10062856.57258,86.78,121,15,1,232,352,1,120,2e-30,134
Anthopsis_deltoidea_CBS263.77_T,SRR10062856.57258,87.05,139,16,2,241,378,1,138,4e-37,156
Cyphellophora_laciniata_CBS190.61_T,SRR10062856.57258,87.05,139,16,2,326,463,1,138,6e-37,156
Cyphellophora_laciniata_CBS190.61_T,SRR10062856.73893,98.36,61,1,0,635,695,362,302,2e-22,108
Cyphellophora_suttonii_CBS449.91,SRR10062856.57258,87.05,139,16,2,229,366,1,138,5e-37,156
Cyphellophora_pauciseptata_CBS284.85_T,SRR10062856.57258,87.05,139,16,2,240,377,1,138,5e-37,156
Cyphellophora_pluriseptata_CBS286.85_T,SRR10062856.57258,87.59,137,15,2,247,382,3,138,1e-37,158
Phialophora_europaea_CBS101466,SRR10062856.57258,87.77,139,15,2,235,372,1,138,1e-38,161
Phialophora_ambigua_CBS235.93,SRR10062856.57258,87.77,139,15,2,232,369,1,138,1e-38,161
Cladophialophora_modesta_CBS985.96_T,SRR10062856.57258,86.43,140,17,2,229,368,1,138,7e-36,152
Cladophialophora_modesta_CBS985.96_T,SRR10062856.73893,96.72,61,2,0,519,579,362,302,7e-21,102
Cyphellophora_fusarioides_MUCL44033_T,SRR10062856.57258,87.77,139,15,2,228,365,1,138,1e-38,161
