Exophiala_nigra_CBS535.94_T,SRR8796175.1,100.00,51,0,0,201,251,188,238,6e-24,95.3
Exophiala_spinifera_CBS899.68_T,SRR8796175.1,100.00,51,0,0,198,248,188,238,5e-24,95.3
Exophiala_exophialae_CBS668.76_T,SRR8796175.1,100.00,51,0,0,199,249,188,238,5e-24,95.3
Exophiala_polymorpha_CBS138920_T,SRR8796175.1,100.00,51,0,0,301,351,188,238,7e-24,95.3
Exophiala_oligosperma_CBS725.88_T,SRR8796175.1,100.00,51,0,0,211,261,188,238,5e-24,95.3
Exophiala_jeanselmei_CBS507.90_T,SRR8796175.1,100.00,51,0,0,203,253,188,238,6e-24,95.3
Exophiala_bergeri_CBS353.52,SRR8796175.1,100.00,51,0,0,164,214,188,238,5e-24,95.3
Exophiala_moniliae_CBS520.76_T,SRR8796175.1,100.00,51,0,0,201,251,188,238,6e-24,95.3
Exophiala_pisciphila_CBS537.73_T,SRR8796175.1,100.00,51,0,0,204,254,188,238,6e-24,95.3
Exophiala_xenobiotica_CBS117642,SRR8796175.1,100.00,51,0,0,196,246,188,238,5e-24,95.3
Exophiala_brunnea_CBS,SRR8796175.1,100.00,51,0,0,232,282,188,238,6e-24,95.3
Exophiala_brunnea_CBS,SRR8796175.1,81.90,116,16,4,1,115,466,355,2e-23,93.5
Exophiala_brunnea_CBS,SRR8796175.1,79.81,104,16,4,13,115,1,100,1e-16,71.3
Exophiala_nishimurae_CBS101538_T,SRR8796175.1,100.00,51,0,0,210,260,188,238,6e-24,95.3
Exophiala_mesophila_CBS402.95_T,SRR8796175.1,100.00,51,0,0,194,244,188,238,6e-24,95.3
Exophiala_castellanii_CBS158.58_T,SRR8796175.1,100.00,51,0,0,192,242,188,238,6e-24,95.3
Exophiala_lecanii-corni_CBS123.33_T,SRR8796175.1,100.00,51,0,0,215,265,188,238,6e-24,95.3
Exophiala_dermatitidis_CBS748.88,SRR8796175.1,98.04,51,0,1,208,257,188,238,3e-21,87.9
Exophiala_angulospora_CBS482.92_T,SRR8796175.1,100.00,51,0,0,198,248,188,238,5e-24,95.3
Exophiala_opportunistica_CBS109811_T,SRR8796175.1,100.00,51,0,0,197,247,188,238,6e-24,95.3
Exophiala_salmonis_CBS157.67_T,SRR8796175.1,100.00,51,0,0,326,376,188,238,8e-24,95.3
Exophiala_salmonis_CBS157.67_T,SRR8796175.1,100.00,36,0,0,87,122,495,460,2e-15,67.6
Exophiala_aquamarina_CBS119918_T,SRR8796175.1,100.00,51,0,0,204,254,188,238,6e-24,95.3
Exophiala_cancerae_CBS120420_T,SRR8796175.1,100.00,51,0,0,219,269,188,238,6e-24,95.3
Exophiala_tremulae_CBS129355,SRR8796175.1,100.00,51,0,0,231,281,188,238,6e-24,95.3
Exophiala_tremulae_CBS129355,SRR8796175.1,80.70,114,19,3,1,113,466,355,4e-21,86.1
Exophiala_tremulae_CBS129355,SRR8796175.1,78.43,102,19,3,13,113,1,100,2e-14,63.9
Exophiala_equina_CBS116009,SRR8796175.1,100.00,51,0,0,197,247,188,238,6e-24,95.3
Exophiala_alcalophila_CBS520.82_T,SRR8796175.1,100.00,51,0,0,208,258,188,238,6e-24,95.3
Exophiala_crusticola_CBS119970_T,SRR8796175.1,100.00,51,0,0,213,263,188,238,5e-24,95.3
Rhinocladiella_atrovirens_CBS264.49,SRR8796175.1,100.00,51,0,0,239,289,188,238,6e-24,95.3
Rhinocladiella_atrovirens_CBS264.49,SRR8796175.1,80.83,120,19,4,1,119,471,355,8e-23,91.6
Rhinocladiella_basitona_CBS101460_T,SRR8796175.1,100.00,51,0,0,198,248,188,238,5e-24,95.3
Rhinocladiella_phaeophora_CBS496.78_T,SRR8796175.1,98.18,55,1,0,202,256,184,238,2e-24,97.1
Rhinocladiella_aquaspersa_CBS313.73_T,SRR8796175.1,98.18,55,1,0,196,250,184,238,2e-24,97.1
Rhinocladiella_fasciculata_CBS132.86_T,SRR8796175.1,100.00,51,0,0,216,266,188,238,6e-24,95.3
Rhinocladiella_anceps_CBS181.65_T,SRR8796175.1,100.00,51,0,0,198,248,188,238,5e-24,95.3
Rhinocladiella_mackenziei_CBS367.92,SRR8796175.1,100.00,51,0,0,187,237,188,238,6e-24,95.3
Veronaea_compacta_CBS268.75_T,SRR8796175.1,100.00,51,0,0,220,270,188,238,6e-24,95.3
Veronaea_compacta_CBS268.75_T,SRR8796175.1,77.88,104,18,4,1,103,1,100,2e-13,60.2
Veronaea_compacta_CBS268.75_T,SRR8796175.1,77.88,104,18,4,1,103,454,355,2e-13,60.2
Capronia_pilosella_AFTOL-ID657,SRR8796175.1,100.00,51,0,0,298,348,188,238,7e-24,95.3
Capronia_dactylotricha_DAOM208471_T,SRR8796175.1,100.00,51,0,0,200,250,188,238,7e-24,95.3
Capronia_kleinmondensis_CBS122671_T,SRR8796175.1,100.00,51,0,0,225,275,188,238,7e-24,95.3
Capronia_kleinmondensis_CBS122671_T,SRR8796175.1,78.30,106,19,4,1,105,457,355,5e-15,65.8
Capronia_mansonii_CBS101.67_T,SRR8796175.1,100.00,51,0,0,211,261,188,238,7e-24,95.3
Capronia_munkii_DAOM216390_T,SRR8796175.1,100.00,51,0,0,211,261,188,238,7e-24,95.3
Capronia_coronata_ATCC56201_T,SRR8796175.1,100.00,51,0,0,199,249,188,238,6e-24,95.3
Capronia_parasitica_CBS123.88,SRR8796175.1,100.00,52,0,0,204,255,187,238,2e-24,97.1
Veronaea_japonica_CBS776.83_T,SRR8796175.1,100.00,51,0,0,233,283,188,238,6e-24,95.3
Veronaea_japonica_CBS776.83_T,SRR8796175.1,80.00,115,18,4,1,114,465,355,2e-19,80.5
Veronaea_japonica_CBS776.83_T,SRR8796175.1,77.88,104,18,4,12,114,1,100,2e-13,60.2
Thysanorea_papuana_CBS212.96_T,SRR8796175.1,100.00,51,0,0,207,257,188,238,6e-24,95.3
Capronia_acutiseta_ATCC56428_T,SRR8796175.1,100.00,51,0,0,201,251,188,238,6e-24,95.3
Fonsecaea_brasiliensis_CBS119710_T,SRR8796175.1,100.00,51,0,0,207,257,188,238,5e-24,95.3
Fonsecaea_pedrosoi_CBS271.37_T,SRR8796175.1,100.00,51,0,0,235,285,188,238,6e-24,95.3
Fonsecaea_pedrosoi_CBS271.37_T,SRR8796175.1,79.05,105,19,3,1,104,457,355,4e-16,69.4
Fonsecaea_pedrosoi_CBS271.37_T,SRR8796175.1,78.43,102,19,3,4,104,1,100,2e-14,63.9
Fonsecaea_multimorphosa_CBS980.96_T,SRR8796175.1,100.00,51,0,0,205,255,188,238,5e-24,95.3
Fonsecaea_minima_CBS125760_T,SRR8796175.1,100.00,51,0,0,201,251,188,238,5e-24,95.3
Fonsecaea_nubica_CBS269.64_T,SRR8796175.1,100.00,51,0,0,212,262,188,238,6e-24,95.3
Fonsecaea_monophora_CBS269.37_T,SRR8796175.1,100.00,51,0,0,212,262,188,238,6e-24,95.3
Fonsecaea_erecta_CBS125763_T,SRR8796175.1,100.00,51,0,0,196,246,188,238,5e-24,95.3
Fonsecaea_pugnacius_CBS139214_T,SRR8796175.1,100.00,51,0,0,205,255,188,238,5e-24,95.3
Cladophialophora_psammophila_CBS,SRR8796175.1,100.00,51,0,0,211,261,188,238,6e-24,95.3
Cladophialophora_devriesii_CBS,SRR8796175.1,100.00,51,0,0,207,257,188,238,5e-24,95.3
Cladophialophora_immunda_CBS834.96,SRR8796175.1,100.00,51,0,0,209,259,188,238,5e-24,95.3
Cladophialophora_arxii_CBS306.94_T,SRR8796175.1,100.00,51,0,0,211,261,188,238,5e-24,95.3
Cladophialophora_bantiana_CBS173.52,SRR8796175.1,100.00,51,0,0,205,255,188,238,5e-24,95.3
Cladophialophora_emmonsii_CBS102594,SRR8796175.1,100.00,51,0,0,196,246,188,238,5e-24,95.3
Cladophialophora_minourae_CBS556.83,SRR8796175.1,100.00,51,0,0,204,254,188,238,5e-24,95.3
Cladophialophora_australiensis_CBS112793,SRR8796175.1,100.00,52,0,0,205,256,187,238,4e-24,97.1
Cladophialophora_potulentorum_CBS112222,SRR8796175.1,100.00,51,0,0,205,255,188,238,1e-23,95.3
Cladophialophora_matsushimae_CMRP1198,SRR8796175.1,100.00,51,0,0,209,259,188,238,5e-24,95.3
Cladophialophora_mycetomatis_CBS122637,SRR8796175.1,100.00,51,0,0,194,244,188,238,5e-24,95.3
Cladophialophora_chaetospira_CBS127573,SRR8796175.1,96.08,51,2,0,600,650,188,238,2e-20,84.2
Cladophialophora_chaetospira_CBS127573,SRR8796175.1,78.85,104,19,3,379,481,458,357,2e-15,67.6
Cladophialophora_chaetospira_CBS127573,SRR8796175.1,78.00,100,19,3,383,481,1,98,3e-13,60.2
Cladophialophora_boppii_CBS126.86_T,SRR8796175.1,100.00,51,0,0,202,252,188,238,5e-24,95.3
Cladophialophora_abundans_CBS126736,SRR8796175.1,100.00,51,0,0,139,189,188,238,5e-24,95.3
Capronia_semi-immersa_CBS102234,SRR8796175.1,100.00,51,0,0,201,251,188,238,5e-24,95.3
Phialophora_americana_CBS400.67,SRR8796175.1,100.00,51,0,0,203,253,188,238,1e-23,95.3
Phialophora_verrucosa_CBS140325_T,SRR8796175.1,100.00,51,0,0,207,257,188,238,6e-24,95.3
Cladophialophora_samoensis_CBS259.83_T,SRR8796175.1,100.00,51,0,0,207,257,188,238,5e-24,95.3
Cladophialophora_carrionii_CBS260.83,SRR8796175.1,100.00,51,0,0,223,273,188,238,6e-24,95.3
Exophiala_palmae_UPCB86822_T,SRR8796175.1,100.00,51,0,0,166,216,188,238,5e-24,95.3
Cladophialophora_yegresii_CBS114405_T,SRR8796175.1,100.00,51,0,0,208,258,188,238,5e-24,95.3
Knufia_epidermidis_CBS120353_T,SRR8796175.1,100.00,51,0,0,206,256,188,238,5e-24,95.3
Arthrocladium_fulminans_CBS136243_T,SRR8796175.1,100.00,51,0,0,201,251,188,238,6e-24,95.3
Anthopsis_deltoidea_CBS263.77_T,SRR8796175.1,100.00,51,0,0,210,260,188,238,5e-24,95.3
Cyphellophora_laciniata_CBS190.61_T,SRR8796175.1,100.00,68,0,0,33,100,495,428,3e-33,126
Cyphellophora_laciniata_CBS190.61_T,SRR8796175.1,100.00,51,0,0,295,345,188,238,7e-24,95.3
Cyphellophora_suttonii_CBS449.91,SRR8796175.1,100.00,51,0,0,198,248,188,238,5e-24,95.3
Cyphellophora_pauciseptata_CBS284.85_T,SRR8796175.1,100.00,52,0,0,208,259,187,238,1e-24,97.1
Cyphellophora_pluriseptata_CBS286.85_T,SRR8796175.1,98.04,51,1,0,214,264,188,238,3e-22,89.8
Phialophora_europaea_CBS101466,SRR8796175.1,100.00,53,0,0,202,254,186,238,4e-25,99.0
Phialophora_ambigua_CBS235.93,SRR8796175.1,100.00,51,0,0,201,251,188,238,5e-24,95.3
Cladophialophora_modesta_CBS985.96_T,SRR8796175.1,100.00,51,0,0,198,248,188,238,6e-24,95.3
Cyphellophora_fusarioides_MUCL44033_T,SRR8796175.1,100.00,51,0,0,197,247,188,238,5e-24,95.3
