Exophiala_nigra_CBS535.94_T,SRR10016845.200649,87.14,140,15,3,232,371,1,137,9e-37,156
Exophiala_nigra_CBS535.94_T,SRR10016845.200649,85.15,101,12,3,271,371,596,499,4e-20,100
Exophiala_spinifera_CBS899.68_T,SRR10016845.200649,85.71,140,17,3,229,368,1,137,2e-33,145
Exophiala_spinifera_CBS899.68_T,SRR10016845.200649,83.17,101,14,3,268,368,596,499,9e-17,89.8
Exophiala_exophialae_CBS668.76_T,SRR10016845.200649,85.71,140,17,3,230,369,1,137,2e-33,145
Exophiala_exophialae_CBS668.76_T,SRR10016845.200649,83.17,101,14,3,269,369,596,499,9e-17,89.8
Exophiala_polymorpha_CBS138920_T,SRR10016845.200649,85.71,140,17,3,332,471,1,137,2e-33,145
Exophiala_polymorpha_CBS138920_T,SRR10016845.200649,83.17,101,14,3,371,471,596,499,1e-16,89.8
Exophiala_polymorpha_CBS138920_T,SRR10016845.189908,94.23,52,3,0,643,694,361,310,7e-14,80.5
Exophiala_polymorpha_CBS138920_T,SRR10016845.268582,94.12,51,3,0,644,694,354,304,2e-13,78.7
Exophiala_polymorpha_CBS138920_T,SRR10016845.34748,94.12,51,3,0,644,694,360,310,2e-13,78.7
Exophiala_polymorpha_CBS138920_T,SRR10016845.98888,90.57,53,5,0,642,694,362,310,4e-11,71.3
Exophiala_polymorpha_CBS138920_T,SRR10016845.279003,95.12,41,2,0,654,694,350,310,2e-09,65.8
Exophiala_oligosperma_CBS725.88_T,SRR10016845.200649,85.71,140,17,3,242,381,1,137,2e-33,145
Exophiala_oligosperma_CBS725.88_T,SRR10016845.200649,83.17,101,14,3,281,381,596,499,9e-17,89.8
Exophiala_jeanselmei_CBS507.90_T,SRR10016845.200649,85.71,140,17,3,234,373,1,137,2e-33,145
Exophiala_jeanselmei_CBS507.90_T,SRR10016845.200649,94.83,58,3,0,547,604,359,302,3e-17,91.6
Exophiala_jeanselmei_CBS507.90_T,SRR10016845.200649,83.17,101,14,3,273,373,596,499,1e-16,89.8
Exophiala_jeanselmei_CBS507.90_T,SRR10016845.189908,92.86,70,3,2,536,604,370,302,5e-20,100
Exophiala_jeanselmei_CBS507.90_T,SRR10016845.268582,91.30,69,6,0,536,604,364,296,2e-18,95.3
Exophiala_jeanselmei_CBS507.90_T,SRR10016845.34748,94.92,59,3,0,546,604,360,302,8e-18,93.5
Exophiala_jeanselmei_CBS507.90_T,SRR10016845.297710,94.83,58,3,0,547,604,359,302,3e-17,91.6
Exophiala_jeanselmei_CBS507.90_T,SRR10016845.98888,91.94,62,5,0,543,604,363,302,4e-16,87.9
Exophiala_jeanselmei_CBS507.90_T,SRR10016845.279003,95.92,49,2,0,556,604,350,302,6e-14,80.5
Exophiala_jeanselmei_CBS507.90_T,SRR10016845.307436,87.50,64,6,2,542,604,364,302,1e-11,73.1
Exophiala_jeanselmei_CBS507.90_T,SRR10016845.177955,93.62,47,3,0,558,604,348,302,4e-11,71.3
Exophiala_bergeri_CBS353.52,SRR10016845.200649,87.14,140,15,3,195,334,1,137,8e-37,156
Exophiala_bergeri_CBS353.52,SRR10016845.200649,85.15,101,12,3,234,334,596,499,4e-20,100
Exophiala_moniliae_CBS520.76_T,SRR10016845.200649,88.89,126,13,1,232,357,1,125,3e-36,154
Exophiala_moniliae_CBS520.76_T,SRR10016845.200649,87.36,87,10,1,271,357,596,511,2e-19,99.0
Exophiala_pisciphila_CBS537.73_T,SRR10016845.200649,88.10,126,14,1,235,360,1,125,2e-34,148
Exophiala_pisciphila_CBS537.73_T,SRR10016845.200649,96.55,58,2,0,556,613,359,302,6e-19,97.1
Exophiala_pisciphila_CBS537.73_T,SRR10016845.200649,86.21,87,11,1,274,360,596,511,8e-18,93.5
Exophiala_pisciphila_CBS537.73_T,SRR10016845.125457,98.51,67,1,0,547,613,368,302,1e-25,119
Exophiala_pisciphila_CBS537.73_T,SRR10016845.40992,98.51,67,1,0,547,613,360,294,1e-25,119
Exophiala_pisciphila_CBS537.73_T,SRR10016845.268582,94.03,67,4,0,547,613,362,296,1e-20,102
Exophiala_pisciphila_CBS537.73_T,SRR10016845.189908,94.03,67,4,0,547,613,368,302,1e-20,102
Exophiala_pisciphila_CBS537.73_T,SRR10016845.98888,93.85,65,4,0,550,614,365,301,2e-19,99.0
Exophiala_pisciphila_CBS537.73_T,SRR10016845.297710,96.55,58,2,0,556,613,359,302,6e-19,97.1
Exophiala_pisciphila_CBS537.73_T,SRR10016845.279003,97.96,49,1,0,565,613,350,302,1e-15,86.1
Exophiala_pisciphila_CBS537.73_T,SRR10016845.307436,85.71,63,7,2,552,613,363,302,2e-09,65.8
Exophiala_pisciphila_CBS537.73_T,SRR10016845.177955,91.49,47,4,0,567,613,348,302,2e-09,65.8
Exophiala_xenobiotica_CBS117642,SRR10016845.200649,87.14,140,15,3,227,366,1,137,8e-37,156
Exophiala_xenobiotica_CBS117642,SRR10016845.200649,85.15,101,12,3,266,366,596,499,4e-20,100
Exophiala_brunnea_CBS,SRR10016845.200649,88.10,126,14,1,263,388,1,125,2e-34,148
Exophiala_brunnea_CBS,SRR10016845.200649,86.21,87,11,1,302,388,596,511,8e-18,93.5
Exophiala_brunnea_CBS,SRR10016845.189908,92.98,57,3,1,578,633,369,313,2e-14,82.4
Exophiala_brunnea_CBS,SRR10016845.268582,93.75,48,3,0,586,633,354,307,3e-12,75.0
Exophiala_brunnea_CBS,SRR10016845.279003,94.74,38,2,0,596,633,350,313,2e-08,62.1
Exophiala_nishimurae_CBS101538_T,SRR10016845.200649,85.71,140,17,3,241,380,1,137,2e-33,145
Exophiala_nishimurae_CBS101538_T,SRR10016845.200649,83.17,101,14,3,280,380,596,499,1e-16,89.8
Exophiala_nishimurae_CBS101538_T,SRR10016845.34748,97.22,36,1,0,553,588,360,325,2e-08,62.1
Exophiala_mesophila_CBS402.95_T,SRR10016845.200649,88.10,126,14,1,225,350,1,125,2e-34,148
Exophiala_mesophila_CBS402.95_T,SRR10016845.200649,86.21,87,11,1,264,350,596,511,8e-18,93.5
Exophiala_mesophila_CBS402.95_T,SRR10016845.200649,94.83,58,3,0,553,610,359,302,3e-17,91.6
Exophiala_mesophila_CBS402.95_T,SRR10016845.189908,95.00,60,3,0,551,610,361,302,2e-18,95.3
Exophiala_mesophila_CBS402.95_T,SRR10016845.268582,94.92,59,3,0,552,610,354,296,8e-18,93.5
Exophiala_mesophila_CBS402.95_T,SRR10016845.34748,94.92,59,3,0,552,610,360,302,8e-18,93.5
Exophiala_mesophila_CBS402.95_T,SRR10016845.297710,94.83,58,3,0,553,610,359,302,3e-17,91.6
Exophiala_mesophila_CBS402.95_T,SRR10016845.98888,91.94,62,5,0,550,611,362,301,4e-16,87.9
Exophiala_mesophila_CBS402.95_T,SRR10016845.279003,95.92,49,2,0,562,610,350,302,6e-14,80.5
Exophiala_mesophila_CBS402.95_T,SRR10016845.177955,93.62,47,3,0,564,610,348,302,4e-11,71.3
Exophiala_mesophila_CBS402.95_T,SRR10016845.307436,87.10,62,6,2,550,610,362,302,1e-10,69.4
Exophiala_castellanii_CBS158.58_T,SRR10016845.200649,88.10,126,14,1,223,348,1,125,2e-34,148
Exophiala_castellanii_CBS158.58_T,SRR10016845.200649,86.21,87,11,1,262,348,596,511,8e-18,93.5
Exophiala_castellanii_CBS158.58_T,SRR10016845.200649,94.83,58,3,0,552,609,359,302,3e-17,91.6
Exophiala_castellanii_CBS158.58_T,SRR10016845.189908,92.65,68,3,2,544,609,369,302,6e-19,97.1
Exophiala_castellanii_CBS158.58_T,SRR10016845.268582,94.92,59,3,0,551,609,354,296,8e-18,93.5
Exophiala_castellanii_CBS158.58_T,SRR10016845.34748,94.92,59,3,0,551,609,360,302,8e-18,93.5
Exophiala_castellanii_CBS158.58_T,SRR10016845.297710,94.83,58,3,0,552,609,359,302,3e-17,91.6
Exophiala_castellanii_CBS158.58_T,SRR10016845.98888,91.94,62,5,0,549,610,362,301,4e-16,87.9
Exophiala_castellanii_CBS158.58_T,SRR10016845.279003,95.92,49,2,0,561,609,350,302,6e-14,80.5
Exophiala_castellanii_CBS158.58_T,SRR10016845.177955,93.62,47,3,0,563,609,348,302,4e-11,71.3
Exophiala_castellanii_CBS158.58_T,SRR10016845.307436,87.10,62,6,2,549,609,362,302,1e-10,69.4
Exophiala_lecanii-corni_CBS123.33_T,SRR10016845.200649,88.10,126,14,1,246,371,1,125,2e-34,148
Exophiala_lecanii-corni_CBS123.33_T,SRR10016845.200649,86.21,87,11,1,285,371,596,511,7e-18,93.5
Exophiala_dermatitidis_CBS748.88,SRR10016845.200649,88.89,126,13,1,238,363,1,125,9e-36,154
Exophiala_dermatitidis_CBS748.88,SRR10016845.200649,87.36,87,10,1,277,363,596,511,4e-19,99.0
Exophiala_dermatitidis_CBS748.88,SRR10016845.200649,94.83,58,3,0,578,635,359,302,7e-17,91.6
Exophiala_dermatitidis_CBS748.88,SRR10016845.189908,92.75,69,3,2,568,635,369,302,4e-19,99.0
Exophiala_dermatitidis_CBS748.88,SRR10016845.268582,91.30,69,5,1,567,635,363,296,2e-17,93.5
Exophiala_dermatitidis_CBS748.88,SRR10016845.34748,94.92,59,3,0,577,635,360,302,2e-17,93.5
Exophiala_dermatitidis_CBS748.88,SRR10016845.297710,94.83,58,3,0,578,635,359,302,7e-17,91.6
Exophiala_dermatitidis_CBS748.88,SRR10016845.98888,92.06,63,5,0,574,636,363,301,3e-16,89.8
Exophiala_dermatitidis_CBS748.88,SRR10016845.279003,95.92,49,2,0,587,635,350,302,2e-13,80.5
Exophiala_dermatitidis_CBS748.88,SRR10016845.307436,87.50,64,6,2,573,635,364,302,3e-11,73.1
Exophiala_dermatitidis_CBS748.88,SRR10016845.177955,93.62,47,3,0,589,635,348,302,9e-11,71.3
Exophiala_angulospora_CBS482.92_T,SRR10016845.200649,88.89,126,13,1,229,354,1,125,3e-36,154
Exophiala_angulospora_CBS482.92_T,SRR10016845.200649,87.36,87,10,1,268,354,596,511,1e-19,99.0
Exophiala_opportunistica_CBS109811_T,SRR10016845.200649,88.89,126,13,1,228,353,1,125,3e-36,154
Exophiala_opportunistica_CBS109811_T,SRR10016845.200649,87.36,87,10,1,267,353,596,511,2e-19,99.0
Exophiala_salmonis_CBS157.67_T,SRR10016845.200649,88.89,126,13,1,357,482,1,125,4e-36,154
Exophiala_salmonis_CBS157.67_T,SRR10016845.200649,87.36,87,10,1,396,482,596,511,2e-19,99.0
Exophiala_salmonis_CBS157.67_T,SRR10016845.200649,96.55,58,2,0,676,733,359,302,8e-19,97.1
Exophiala_salmonis_CBS157.67_T,SRR10016845.125457,98.51,67,1,0,667,733,368,302,2e-25,119
Exophiala_salmonis_CBS157.67_T,SRR10016845.40992,98.51,67,1,0,667,733,360,294,2e-25,119
Exophiala_salmonis_CBS157.67_T,SRR10016845.268582,94.03,67,4,0,667,733,362,296,2e-20,102
Exophiala_salmonis_CBS157.67_T,SRR10016845.189908,94.03,67,4,0,667,733,368,302,2e-20,102
Exophiala_salmonis_CBS157.67_T,SRR10016845.98888,93.85,65,4,0,670,734,365,301,2e-19,99.0
Exophiala_salmonis_CBS157.67_T,SRR10016845.297710,96.55,58,2,0,676,733,359,302,8e-19,97.1
Exophiala_salmonis_CBS157.67_T,SRR10016845.279003,97.96,49,1,0,685,733,350,302,2e-15,86.1
Exophiala_salmonis_CBS157.67_T,SRR10016845.307436,85.71,63,7,2,672,733,363,302,2e-09,65.8
Exophiala_salmonis_CBS157.67_T,SRR10016845.177955,91.49,47,4,0,687,733,348,302,2e-09,65.8
Exophiala_aquamarina_CBS119918_T,SRR10016845.200649,88.89,126,13,1,235,360,1,125,3e-36,154
Exophiala_aquamarina_CBS119918_T,SRR10016845.200649,87.36,87,10,1,274,360,596,511,2e-19,99.0
Exophiala_cancerae_CBS120420_T,SRR10016845.200649,88.89,126,13,1,250,375,1,125,4e-36,154
Exophiala_cancerae_CBS120420_T,SRR10016845.200649,87.36,87,10,1,289,375,596,511,2e-19,99.0
Exophiala_cancerae_CBS120420_T,SRR10016845.200649,96.55,58,2,0,567,624,359,302,6e-19,97.1
Exophiala_cancerae_CBS120420_T,SRR10016845.125457,97.06,68,1,1,557,624,368,302,6e-24,113
Exophiala_cancerae_CBS120420_T,SRR10016845.40992,97.06,68,1,1,557,624,360,294,6e-24,113
Exophiala_cancerae_CBS120420_T,SRR10016845.189908,94.29,70,2,2,556,624,370,302,1e-21,106
Exophiala_cancerae_CBS120420_T,SRR10016845.268582,96.61,59,2,0,566,624,354,296,2e-19,99.0
Exophiala_cancerae_CBS120420_T,SRR10016845.297710,96.55,58,2,0,567,624,359,302,6e-19,97.1
Exophiala_cancerae_CBS120420_T,SRR10016845.98888,93.55,62,4,0,563,624,363,302,8e-18,93.5
Exophiala_cancerae_CBS120420_T,SRR10016845.279003,97.96,49,1,0,576,624,350,302,1e-15,86.1
Exophiala_cancerae_CBS120420_T,SRR10016845.307436,85.94,64,7,2,562,624,364,302,5e-10,67.6
Exophiala_cancerae_CBS120420_T,SRR10016845.177955,91.49,47,4,0,578,624,348,302,2e-09,65.8
Exophiala_tremulae_CBS129355,SRR10016845.200649,88.89,126,13,1,262,387,1,125,4e-36,154
Exophiala_tremulae_CBS129355,SRR10016845.200649,87.36,87,10,1,301,387,596,511,2e-19,99.0
Exophiala_tremulae_CBS129355,SRR10016845.125457,98.21,56,1,0,573,628,368,313,2e-19,99.0
Exophiala_tremulae_CBS129355,SRR10016845.40992,98.21,56,1,0,573,628,360,305,2e-19,99.0
Exophiala_tremulae_CBS129355,SRR10016845.268582,92.86,56,4,0,573,628,362,307,2e-14,82.4
Exophiala_tremulae_CBS129355,SRR10016845.189908,92.86,56,4,0,573,628,368,313,2e-14,82.4
Exophiala_tremulae_CBS129355,SRR10016845.279003,97.37,38,1,0,591,628,350,313,2e-09,65.8
Exophiala_equina_CBS116009,SRR10016845.200649,88.89,126,13,1,228,353,1,125,3e-36,154
Exophiala_equina_CBS116009,SRR10016845.200649,87.36,87,10,1,267,353,596,511,2e-19,99.0
Exophiala_alcalophila_CBS520.82_T,SRR10016845.200649,88.89,126,13,1,239,364,1,125,3e-36,154
Exophiala_alcalophila_CBS520.82_T,SRR10016845.200649,87.36,87,10,1,278,364,596,511,2e-19,99.0
Exophiala_crusticola_CBS119970_T,SRR10016845.200649,88.89,126,13,1,244,369,1,125,3e-36,154
Exophiala_crusticola_CBS119970_T,SRR10016845.200649,87.36,87,10,1,283,369,596,511,1e-19,99.0
Rhinocladiella_atrovirens_CBS264.49,SRR10016845.200649,88.10,126,14,1,270,395,1,125,2e-34,148
Rhinocladiella_atrovirens_CBS264.49,SRR10016845.200649,86.21,87,11,1,309,395,596,511,8e-18,93.5
Rhinocladiella_atrovirens_CBS264.49,SRR10016845.125457,96.36,55,2,0,572,626,368,314,3e-17,91.6
Rhinocladiella_atrovirens_CBS264.49,SRR10016845.40992,96.36,55,2,0,572,626,360,306,3e-17,91.6
Rhinocladiella_atrovirens_CBS264.49,SRR10016845.189908,95.83,48,2,0,579,626,361,314,2e-13,78.7
Rhinocladiella_atrovirens_CBS264.49,SRR10016845.268582,95.74,47,2,0,580,626,354,308,8e-13,76.8
Rhinocladiella_atrovirens_CBS264.49,SRR10016845.279003,97.30,37,1,0,590,626,350,314,6e-09,63.9
Rhinocladiella_basitona_CBS101460_T,SRR10016845.200649,85.71,140,17,3,229,368,1,137,2e-33,145
Rhinocladiella_basitona_CBS101460_T,SRR10016845.200649,83.17,101,14,3,268,368,596,499,9e-17,89.8
Rhinocladiella_phaeophora_CBS496.78_T,SRR10016845.200649,88.10,126,14,1,237,362,1,125,2e-34,148
Rhinocladiella_phaeophora_CBS496.78_T,SRR10016845.200649,86.21,87,11,1,276,362,596,511,7e-18,93.5
Rhinocladiella_aquaspersa_CBS313.73_T,SRR10016845.200649,88.10,126,14,1,231,356,1,125,2e-34,148
Rhinocladiella_aquaspersa_CBS313.73_T,SRR10016845.200649,86.21,87,11,1,270,356,596,511,8e-18,93.5
Rhinocladiella_aquaspersa_CBS313.73_T,SRR10016845.200649,93.10,58,1,3,551,605,359,302,2e-14,82.4
Rhinocladiella_aquaspersa_CBS313.73_T,SRR10016845.189908,91.18,68,2,4,542,605,369,302,1e-16,89.8
Rhinocladiella_aquaspersa_CBS313.73_T,SRR10016845.268582,90.00,70,3,4,539,605,364,296,4e-16,87.9
Rhinocladiella_aquaspersa_CBS313.73_T,SRR10016845.297710,93.10,58,1,3,551,605,359,302,2e-14,82.4
Rhinocladiella_aquaspersa_CBS313.73_T,SRR10016845.279003,95.92,49,1,1,558,605,350,302,2e-13,78.7
Rhinocladiella_aquaspersa_CBS313.73_T,SRR10016845.98888,94.00,50,2,1,558,606,350,301,3e-12,75.0
Rhinocladiella_aquaspersa_CBS313.73_T,SRR10016845.177955,100.00,32,0,0,574,605,333,302,8e-08,60.2
Rhinocladiella_aquaspersa_CBS313.73_T,SRR10016845.307436,84.13,63,7,2,546,605,364,302,3e-07,58.4
Rhinocladiella_fasciculata_CBS132.86_T,SRR10016845.200649,88.89,126,13,1,247,372,1,125,3e-36,154
Rhinocladiella_fasciculata_CBS132.86_T,SRR10016845.200649,87.36,87,10,1,286,372,596,511,2e-19,99.0
Rhinocladiella_anceps_CBS181.65_T,SRR10016845.200649,87.30,126,15,1,229,354,1,125,7e-33,143
Rhinocladiella_anceps_CBS181.65_T,SRR10016845.200649,85.06,87,12,1,268,354,596,511,3e-16,87.9
Rhinocladiella_mackenziei_CBS367.92,SRR10016845.200649,88.89,126,13,1,218,343,1,125,3e-36,154
Rhinocladiella_mackenziei_CBS367.92,SRR10016845.200649,87.36,87,10,1,257,343,596,511,2e-19,99.0
Rhinocladiella_mackenziei_CBS367.92,SRR10016845.40992,96.08,51,1,1,558,608,360,311,2e-14,82.4
Rhinocladiella_mackenziei_CBS367.92,SRR10016845.125457,94.12,51,2,1,558,608,368,319,8e-13,76.8
Rhinocladiella_mackenziei_CBS367.92,SRR10016845.268582,90.38,52,4,1,557,608,363,313,5e-10,67.6
Veronaea_compacta_CBS268.75_T,SRR10016845.200649,88.10,126,14,1,251,376,1,125,2e-34,148
Veronaea_compacta_CBS268.75_T,SRR10016845.200649,86.21,87,11,1,290,376,596,511,7e-18,93.5
Capronia_pilosella_AFTOL-ID657,SRR10016845.200649,88.89,126,13,1,329,454,1,125,4e-36,154
Capronia_pilosella_AFTOL-ID657,SRR10016845.200649,87.36,87,10,1,368,454,596,511,2e-19,99.0
Capronia_pilosella_AFTOL-ID657,SRR10016845.34748,97.22,36,1,0,645,680,360,325,2e-08,62.1
Capronia_dactylotricha_DAOM208471_T,SRR10016845.200649,88.89,126,13,1,231,356,1,125,4e-36,154
Capronia_dactylotricha_DAOM208471_T,SRR10016845.200649,87.36,87,10,1,270,356,596,511,2e-19,99.0
Capronia_dactylotricha_DAOM208471_T,SRR10016845.200649,96.55,58,2,0,561,618,359,302,6e-19,97.1
Capronia_dactylotricha_DAOM208471_T,SRR10016845.125457,98.36,61,1,0,558,618,362,302,3e-22,108
Capronia_dactylotricha_DAOM208471_T,SRR10016845.40992,98.36,61,1,0,558,618,354,294,3e-22,108
Capronia_dactylotricha_DAOM208471_T,SRR10016845.189908,96.67,60,2,0,559,618,361,302,5e-20,100
Capronia_dactylotricha_DAOM208471_T,SRR10016845.268582,96.61,59,2,0,560,618,354,296,2e-19,99.0
Capronia_dactylotricha_DAOM208471_T,SRR10016845.297710,96.55,58,2,0,561,618,359,302,6e-19,97.1
Capronia_dactylotricha_DAOM208471_T,SRR10016845.98888,93.55,62,4,0,558,619,362,301,8e-18,93.5
Capronia_dactylotricha_DAOM208471_T,SRR10016845.279003,97.96,49,1,0,570,618,350,302,1e-15,86.1
Capronia_dactylotricha_DAOM208471_T,SRR10016845.177955,91.49,47,4,0,572,618,348,302,2e-09,65.8
Capronia_dactylotricha_DAOM208471_T,SRR10016845.307436,85.48,62,7,2,558,618,362,302,7e-09,63.9
Capronia_kleinmondensis_CBS122671_T,SRR10016845.200649,88.10,126,14,1,256,381,1,125,2e-34,148
Capronia_kleinmondensis_CBS122671_T,SRR10016845.200649,96.55,58,2,0,567,624,359,302,6e-19,97.1
Capronia_kleinmondensis_CBS122671_T,SRR10016845.200649,86.21,87,11,1,295,381,596,511,8e-18,93.5
Capronia_kleinmondensis_CBS122671_T,SRR10016845.125457,98.36,61,1,0,564,624,362,302,3e-22,108
Capronia_kleinmondensis_CBS122671_T,SRR10016845.40992,98.36,61,1,0,564,624,354,294,3e-22,108
Capronia_kleinmondensis_CBS122671_T,SRR10016845.189908,94.12,68,3,1,558,624,369,302,1e-20,102
Capronia_kleinmondensis_CBS122671_T,SRR10016845.268582,96.61,59,2,0,566,624,354,296,2e-19,99.0
Capronia_kleinmondensis_CBS122671_T,SRR10016845.297710,96.55,58,2,0,567,624,359,302,6e-19,97.1
Capronia_kleinmondensis_CBS122671_T,SRR10016845.98888,93.55,62,4,0,564,625,362,301,8e-18,93.5
Capronia_kleinmondensis_CBS122671_T,SRR10016845.279003,97.96,49,1,0,576,624,350,302,1e-15,86.1
Capronia_kleinmondensis_CBS122671_T,SRR10016845.177955,91.49,47,4,0,578,624,348,302,2e-09,65.8
Capronia_kleinmondensis_CBS122671_T,SRR10016845.307436,85.48,62,7,2,564,624,362,302,7e-09,63.9
Capronia_mansonii_CBS101.67_T,SRR10016845.200649,88.89,126,13,1,242,367,1,125,4e-36,154
Capronia_mansonii_CBS101.67_T,SRR10016845.200649,87.36,87,10,1,281,367,596,511,2e-19,99.0
Capronia_mansonii_CBS101.67_T,SRR10016845.200649,94.83,58,3,0,571,628,359,302,3e-17,91.6
Capronia_mansonii_CBS101.67_T,SRR10016845.189908,92.75,69,3,2,562,628,370,302,2e-19,99.0
Capronia_mansonii_CBS101.67_T,SRR10016845.268582,92.54,67,4,1,563,628,362,296,2e-18,95.3
Capronia_mansonii_CBS101.67_T,SRR10016845.34748,94.92,59,3,0,570,628,360,302,8e-18,93.5
Capronia_mansonii_CBS101.67_T,SRR10016845.297710,94.83,58,3,0,571,628,359,302,3e-17,91.6
Capronia_mansonii_CBS101.67_T,SRR10016845.98888,92.19,64,5,0,566,629,364,301,3e-17,91.6
Capronia_mansonii_CBS101.67_T,SRR10016845.279003,95.92,49,2,0,580,628,350,302,7e-14,80.5
Capronia_mansonii_CBS101.67_T,SRR10016845.307436,87.30,63,6,2,567,628,363,302,4e-11,71.3
Capronia_mansonii_CBS101.67_T,SRR10016845.177955,93.62,47,3,0,582,628,348,302,4e-11,71.3
Capronia_munkii_DAOM216390_T,SRR10016845.200649,88.89,126,13,1,242,367,1,125,4e-36,154
Capronia_munkii_DAOM216390_T,SRR10016845.200649,87.36,87,10,1,281,367,596,511,2e-19,99.0
Capronia_munkii_DAOM216390_T,SRR10016845.200649,94.83,58,3,0,571,628,359,302,3e-17,91.6
Capronia_munkii_DAOM216390_T,SRR10016845.125457,96.97,66,2,0,563,628,367,302,2e-23,111
Capronia_munkii_DAOM216390_T,SRR10016845.40992,96.97,66,2,0,563,628,359,294,2e-23,111
Capronia_munkii_DAOM216390_T,SRR10016845.268582,93.65,63,4,0,566,628,358,296,2e-18,95.3
Capronia_munkii_DAOM216390_T,SRR10016845.189908,95.00,60,3,0,569,628,361,302,2e-18,95.3
Capronia_munkii_DAOM216390_T,SRR10016845.98888,92.31,65,5,0,565,629,365,301,8e-18,93.5
Capronia_munkii_DAOM216390_T,SRR10016845.34748,94.92,59,3,0,570,628,360,302,8e-18,93.5
Capronia_munkii_DAOM216390_T,SRR10016845.297710,94.83,58,3,0,571,628,359,302,3e-17,91.6
Capronia_munkii_DAOM216390_T,SRR10016845.279003,95.92,49,2,0,580,628,350,302,7e-14,80.5
Capronia_munkii_DAOM216390_T,SRR10016845.307436,87.30,63,6,2,567,628,363,302,4e-11,71.3
Capronia_munkii_DAOM216390_T,SRR10016845.177955,93.62,47,3,0,582,628,348,302,4e-11,71.3
Capronia_coronata_ATCC56201_T,SRR10016845.200649,88.89,126,13,1,230,355,1,125,4e-36,154
Capronia_coronata_ATCC56201_T,SRR10016845.200649,87.36,87,10,1,269,355,596,511,2e-19,99.0
Capronia_coronata_ATCC56201_T,SRR10016845.200649,94.83,58,3,0,542,599,359,302,3e-17,91.6
Capronia_coronata_ATCC56201_T,SRR10016845.189908,94.12,68,3,1,533,599,369,302,1e-20,102
Capronia_coronata_ATCC56201_T,SRR10016845.268582,90.54,74,6,1,527,599,369,296,6e-19,97.1
Capronia_coronata_ATCC56201_T,SRR10016845.34748,94.92,59,3,0,541,599,360,302,8e-18,93.5
Capronia_coronata_ATCC56201_T,SRR10016845.297710,94.83,58,3,0,542,599,359,302,3e-17,91.6
Capronia_coronata_ATCC56201_T,SRR10016845.98888,92.06,63,5,0,538,600,363,301,1e-16,89.8
Capronia_coronata_ATCC56201_T,SRR10016845.279003,95.92,49,2,0,551,599,350,302,6e-14,80.5
Capronia_coronata_ATCC56201_T,SRR10016845.307436,87.50,64,6,2,537,599,364,302,1e-11,73.1
Capronia_coronata_ATCC56201_T,SRR10016845.177955,93.62,47,3,0,553,599,348,302,4e-11,71.3
Capronia_parasitica_CBS123.88,SRR10016845.200649,88.89,126,13,1,236,361,1,125,3e-36,154
Capronia_parasitica_CBS123.88,SRR10016845.200649,87.36,87,10,1,275,361,596,511,2e-19,99.0
Capronia_parasitica_CBS123.88,SRR10016845.125457,100.00,37,0,0,559,595,363,327,1e-10,69.4
Capronia_parasitica_CBS123.88,SRR10016845.40992,100.00,37,0,0,559,595,355,319,1e-10,69.4
Veronaea_japonica_CBS776.83_T,SRR10016845.200649,88.89,126,13,1,264,389,1,125,3e-36,154
Veronaea_japonica_CBS776.83_T,SRR10016845.200649,87.36,87,10,1,303,389,596,511,2e-19,99.0
Thysanorea_papuana_CBS212.96_T,SRR10016845.200649,88.89,126,13,1,238,363,1,125,3e-36,154
Thysanorea_papuana_CBS212.96_T,SRR10016845.200649,87.36,87,10,1,277,363,596,511,2e-19,99.0
Thysanorea_papuana_CBS212.96_T,SRR10016845.125457,100.00,28,0,0,550,577,368,341,1e-05,52.8
Thysanorea_papuana_CBS212.96_T,SRR10016845.40992,100.00,28,0,0,550,577,360,333,1e-05,52.8
Capronia_acutiseta_ATCC56428_T,SRR10016845.200649,88.89,126,12,2,232,356,1,125,4e-36,154
Capronia_acutiseta_ATCC56428_T,SRR10016845.200649,87.36,87,10,1,270,356,596,511,2e-19,99.0
Capronia_acutiseta_ATCC56428_T,SRR10016845.200649,96.55,58,2,0,541,598,359,302,6e-19,97.1
Capronia_acutiseta_ATCC56428_T,SRR10016845.125457,97.06,68,1,1,531,598,368,302,6e-24,113
Capronia_acutiseta_ATCC56428_T,SRR10016845.40992,97.06,68,1,1,531,598,360,294,6e-24,113
Capronia_acutiseta_ATCC56428_T,SRR10016845.189908,94.20,69,2,2,531,598,369,302,4e-21,104
Capronia_acutiseta_ATCC56428_T,SRR10016845.268582,92.75,69,4,1,530,598,363,296,2e-19,99.0
Capronia_acutiseta_ATCC56428_T,SRR10016845.297710,96.55,58,2,0,541,598,359,302,6e-19,97.1
Capronia_acutiseta_ATCC56428_T,SRR10016845.98888,93.65,63,4,0,537,599,363,301,2e-18,95.3
Capronia_acutiseta_ATCC56428_T,SRR10016845.279003,97.96,49,1,0,550,598,350,302,1e-15,86.1
Capronia_acutiseta_ATCC56428_T,SRR10016845.307436,85.94,64,7,2,536,598,364,302,5e-10,67.6
Capronia_acutiseta_ATCC56428_T,SRR10016845.177955,91.49,47,4,0,552,598,348,302,2e-09,65.8
Fonsecaea_brasiliensis_CBS119710_T,SRR10016845.200649,88.89,126,13,1,238,363,1,125,3e-36,154
Fonsecaea_brasiliensis_CBS119710_T,SRR10016845.200649,87.36,87,10,1,277,363,596,511,1e-19,99.0
Fonsecaea_pedrosoi_CBS271.37_T,SRR10016845.200649,88.89,126,13,1,266,391,1,125,4e-36,154
Fonsecaea_pedrosoi_CBS271.37_T,SRR10016845.200649,87.36,87,10,1,305,391,596,511,2e-19,99.0
Fonsecaea_pedrosoi_CBS271.37_T,SRR10016845.200649,93.10,58,4,0,588,645,359,302,1e-15,86.1
Fonsecaea_pedrosoi_CBS271.37_T,SRR10016845.268582,91.18,68,6,0,578,645,363,296,8e-18,93.5
Fonsecaea_pedrosoi_CBS271.37_T,SRR10016845.189908,91.18,68,5,1,579,645,369,302,3e-17,91.6
Fonsecaea_pedrosoi_CBS271.37_T,SRR10016845.297710,93.10,58,4,0,588,645,359,302,1e-15,86.1
Fonsecaea_pedrosoi_CBS271.37_T,SRR10016845.98888,90.48,63,6,0,583,645,364,302,5e-15,84.2
Fonsecaea_pedrosoi_CBS271.37_T,SRR10016845.177955,95.74,47,2,0,599,645,348,302,8e-13,76.8
Fonsecaea_pedrosoi_CBS271.37_T,SRR10016845.279003,93.88,49,3,0,597,645,350,302,3e-12,75.0
Fonsecaea_pedrosoi_CBS271.37_T,SRR10016845.307436,87.50,64,4,4,584,645,363,302,4e-11,71.3
Fonsecaea_multimorphosa_CBS980.96_T,SRR10016845.200649,88.89,126,13,1,236,361,1,125,3e-36,154
Fonsecaea_multimorphosa_CBS980.96_T,SRR10016845.200649,87.36,87,10,1,275,361,596,511,1e-19,99.0
Fonsecaea_minima_CBS125760_T,SRR10016845.200649,88.89,126,13,1,232,357,1,125,3e-36,154
Fonsecaea_minima_CBS125760_T,SRR10016845.200649,87.36,87,10,1,271,357,596,511,1e-19,99.0
Fonsecaea_nubica_CBS269.64_T,SRR10016845.200649,88.89,126,13,1,243,368,1,125,3e-36,154
Fonsecaea_nubica_CBS269.64_T,SRR10016845.200649,87.36,87,10,1,282,368,596,511,2e-19,99.0
Fonsecaea_monophora_CBS269.37_T,SRR10016845.200649,88.19,127,13,2,243,369,1,125,4e-35,150
Fonsecaea_monophora_CBS269.37_T,SRR10016845.200649,87.36,87,10,1,283,369,596,511,2e-19,99.0
Fonsecaea_erecta_CBS125763_T,SRR10016845.200649,88.89,126,13,1,227,352,1,125,3e-36,154
Fonsecaea_erecta_CBS125763_T,SRR10016845.200649,87.36,87,10,1,266,352,596,511,1e-19,99.0
Fonsecaea_pugnacius_CBS139214_T,SRR10016845.200649,88.89,126,13,1,236,361,1,125,3e-36,154
Fonsecaea_pugnacius_CBS139214_T,SRR10016845.200649,87.36,87,10,1,275,361,596,511,1e-19,99.0
Cladophialophora_psammophila_CBS,SRR10016845.200649,88.89,126,13,1,242,367,1,125,3e-36,154
Cladophialophora_psammophila_CBS,SRR10016845.200649,87.36,87,10,1,281,367,596,511,2e-19,99.0
Cladophialophora_devriesii_CBS,SRR10016845.200649,88.89,126,13,1,238,363,1,125,3e-36,154
Cladophialophora_devriesii_CBS,SRR10016845.200649,87.36,87,10,1,277,363,596,511,1e-19,99.0
Cladophialophora_immunda_CBS834.96,SRR10016845.200649,88.89,126,13,1,240,365,1,125,3e-36,154
Cladophialophora_immunda_CBS834.96,SRR10016845.200649,87.36,87,10,1,279,365,596,511,1e-19,99.0
Cladophialophora_arxii_CBS306.94_T,SRR10016845.200649,88.89,126,13,1,242,367,1,125,3e-36,154
Cladophialophora_arxii_CBS306.94_T,SRR10016845.200649,87.36,87,10,1,281,367,596,511,1e-19,99.0
Cladophialophora_bantiana_CBS173.52,SRR10016845.200649,88.89,126,13,1,236,361,1,125,3e-36,154
Cladophialophora_bantiana_CBS173.52,SRR10016845.200649,87.36,87,10,1,275,361,596,511,1e-19,99.0
Cladophialophora_emmonsii_CBS102594,SRR10016845.200649,88.89,126,13,1,227,352,1,125,3e-36,154
Cladophialophora_emmonsii_CBS102594,SRR10016845.200649,87.36,87,10,1,266,352,596,511,1e-19,99.0
Cladophialophora_minourae_CBS556.83,SRR10016845.200649,86.72,128,14,3,235,362,1,125,9e-32,139
Cladophialophora_minourae_CBS556.83,SRR10016845.200649,84.27,89,11,3,274,362,596,511,4e-15,84.2
Cladophialophora_australiensis_CBS112793,SRR10016845.200649,89.68,126,12,1,237,362,1,125,2e-37,159
Cladophialophora_australiensis_CBS112793,SRR10016845.200649,88.51,87,9,1,276,362,596,511,9e-21,104
Cladophialophora_australiensis_CBS112793,SRR10016845.200649,90.00,70,7,0,537,606,371,302,7e-17,91.6
Cladophialophora_australiensis_CBS112793,SRR10016845.125457,95.52,67,3,0,540,606,368,302,7e-22,108
Cladophialophora_australiensis_CBS112793,SRR10016845.40992,95.52,67,3,0,540,606,360,294,7e-22,108
Cladophialophora_australiensis_CBS112793,SRR10016845.268582,90.54,74,7,0,533,606,369,296,4e-19,99.0
Cladophialophora_australiensis_CBS112793,SRR10016845.189908,91.43,70,6,0,537,606,371,302,1e-18,97.1
Cladophialophora_australiensis_CBS112793,SRR10016845.297710,90.00,70,7,0,537,606,371,302,7e-17,91.6
Cladophialophora_australiensis_CBS112793,SRR10016845.98888,90.77,65,6,0,543,607,365,301,9e-16,87.9
Cladophialophora_australiensis_CBS112793,SRR10016845.177955,95.74,47,2,0,560,606,348,302,2e-12,76.8
Cladophialophora_australiensis_CBS112793,SRR10016845.279003,93.88,49,3,0,558,606,350,302,7e-12,75.0
Cladophialophora_australiensis_CBS112793,SRR10016845.307436,87.50,64,4,4,545,606,363,302,9e-11,71.3
Cladophialophora_potulentorum_CBS112222,SRR10016845.200649,88.89,126,13,1,236,361,1,125,9e-36,154
Cladophialophora_potulentorum_CBS112222,SRR10016845.200649,87.36,87,10,1,275,361,596,511,4e-19,99.0
Cladophialophora_potulentorum_CBS112222,SRR10016845.200649,93.10,58,4,0,551,608,359,302,3e-15,86.1
Cladophialophora_potulentorum_CBS112222,SRR10016845.268582,90.67,75,4,3,535,608,368,296,1e-18,97.1
Cladophialophora_potulentorum_CBS112222,SRR10016845.189908,90.54,74,4,3,536,608,373,302,5e-18,95.3
Cladophialophora_potulentorum_CBS112222,SRR10016845.297710,93.10,58,4,0,551,608,359,302,3e-15,86.1
Cladophialophora_potulentorum_CBS112222,SRR10016845.98888,90.48,63,6,0,547,609,363,301,1e-14,84.2
Cladophialophora_potulentorum_CBS112222,SRR10016845.177955,95.74,47,2,0,562,608,348,302,2e-12,76.8
Cladophialophora_potulentorum_CBS112222,SRR10016845.279003,93.88,49,3,0,560,608,350,302,7e-12,75.0
Cladophialophora_potulentorum_CBS112222,SRR10016845.307436,87.69,65,4,4,546,608,364,302,3e-11,73.1
Cladophialophora_matsushimae_CMRP1198,SRR10016845.200649,86.43,140,16,3,240,379,1,137,4e-35,150
Cladophialophora_matsushimae_CMRP1198,SRR10016845.200649,84.16,101,13,3,279,379,596,499,2e-18,95.3
Cladophialophora_mycetomatis_CBS122637,SRR10016845.200649,88.10,126,14,1,225,350,1,125,1e-34,148
Cladophialophora_mycetomatis_CBS122637,SRR10016845.200649,86.21,87,11,1,264,350,596,511,7e-18,93.5
Cladophialophora_chaetospira_CBS127573,SRR10016845.200649,88.89,126,13,1,631,756,1,125,5e-36,154
Cladophialophora_chaetospira_CBS127573,SRR10016845.200649,87.36,87,10,1,670,756,596,511,3e-19,99.0
Cladophialophora_boppii_CBS126.86_T,SRR10016845.200649,88.89,126,13,1,233,358,1,125,3e-36,154
Cladophialophora_boppii_CBS126.86_T,SRR10016845.200649,87.36,87,10,1,272,358,596,511,1e-19,99.0
Cladophialophora_abundans_CBS126736,SRR10016845.200649,88.10,126,14,1,170,295,1,125,1e-34,148
Cladophialophora_abundans_CBS126736,SRR10016845.200649,86.21,87,11,1,209,295,596,511,6e-18,93.5
Capronia_semi-immersa_CBS102234,SRR10016845.200649,88.10,126,14,1,232,357,1,125,1e-34,148
Capronia_semi-immersa_CBS102234,SRR10016845.200649,86.21,87,11,1,271,357,596,511,7e-18,93.5
Phialophora_americana_CBS400.67,SRR10016845.200649,88.10,126,14,1,234,359,1,125,4e-34,148
Phialophora_americana_CBS400.67,SRR10016845.200649,86.21,87,11,1,273,359,596,511,2e-17,93.5
Phialophora_americana_CBS400.67,SRR10016845.177955,93.62,47,3,0,554,600,348,302,9e-11,71.3
Phialophora_verrucosa_CBS140325_T,SRR10016845.200649,88.10,126,14,1,238,363,1,125,2e-34,148
Phialophora_verrucosa_CBS140325_T,SRR10016845.200649,86.21,87,11,1,277,363,596,511,7e-18,93.5
Cladophialophora_samoensis_CBS259.83_T,SRR10016845.200649,89.68,126,12,1,238,363,1,125,7e-38,159
Cladophialophora_samoensis_CBS259.83_T,SRR10016845.200649,88.51,87,9,1,277,363,596,511,3e-21,104
Cladophialophora_carrionii_CBS260.83,SRR10016845.200649,88.10,126,14,1,254,379,1,125,2e-34,148
Cladophialophora_carrionii_CBS260.83,SRR10016845.200649,86.21,87,11,1,293,379,596,511,8e-18,93.5
Exophiala_palmae_UPCB86822_T,SRR10016845.200649,88.89,126,13,1,197,322,1,125,3e-36,154
Exophiala_palmae_UPCB86822_T,SRR10016845.200649,87.36,87,10,1,236,322,596,511,1e-19,99.0
Cladophialophora_yegresii_CBS114405_T,SRR10016845.200649,88.10,126,14,1,239,364,1,125,1e-34,148
Cladophialophora_yegresii_CBS114405_T,SRR10016845.200649,86.21,87,11,1,278,364,596,511,7e-18,93.5
Knufia_epidermidis_CBS120353_T,SRR10016845.200649,87.30,126,15,1,237,362,1,125,7e-33,143
Knufia_epidermidis_CBS120353_T,SRR10016845.200649,85.06,87,12,1,276,362,596,511,3e-16,87.9
Arthrocladium_fulminans_CBS136243_T,SRR10016845.200649,84.92,126,18,1,232,357,1,125,7e-28,126
Arthrocladium_fulminans_CBS136243_T,SRR10016845.200649,81.61,87,15,1,271,357,596,511,3e-11,71.3
Cyphellophora_laciniata_CBS190.61_T,SRR10016845.200649,89.60,125,12,1,326,449,1,125,3e-37,158
Cyphellophora_laciniata_CBS190.61_T,SRR10016845.200649,88.37,86,9,1,365,449,596,511,2e-20,102
Cyphellophora_laciniata_CBS190.61_T,SRR10016845.200649,94.83,58,3,0,638,695,359,302,3e-17,91.6
Cyphellophora_laciniata_CBS190.61_T,SRR10016845.189908,93.75,64,3,1,633,695,365,302,3e-18,95.3
Cyphellophora_laciniata_CBS190.61_T,SRR10016845.268582,94.92,59,3,0,637,695,354,296,9e-18,93.5
Cyphellophora_laciniata_CBS190.61_T,SRR10016845.34748,94.92,59,3,0,637,695,360,302,9e-18,93.5
Cyphellophora_laciniata_CBS190.61_T,SRR10016845.297710,94.83,58,3,0,638,695,359,302,3e-17,91.6
Cyphellophora_laciniata_CBS190.61_T,SRR10016845.98888,92.06,63,5,0,634,696,363,301,1e-16,89.8
Cyphellophora_laciniata_CBS190.61_T,SRR10016845.279003,95.92,49,2,0,647,695,350,302,7e-14,80.5
Cyphellophora_laciniata_CBS190.61_T,SRR10016845.307436,87.69,65,6,2,632,695,365,302,3e-12,75.0
Cyphellophora_laciniata_CBS190.61_T,SRR10016845.177955,93.62,47,3,0,649,695,348,302,4e-11,71.3
Cyphellophora_suttonii_CBS449.91,SRR10016845.200649,89.60,125,12,1,229,352,1,125,2e-37,158
Cyphellophora_suttonii_CBS449.91,SRR10016845.200649,88.37,86,9,1,268,352,596,511,1e-20,102
Cyphellophora_pauciseptata_CBS284.85_T,SRR10016845.200649,89.60,125,12,1,240,363,1,125,2e-37,158
Cyphellophora_pauciseptata_CBS284.85_T,SRR10016845.200649,88.37,86,9,1,279,363,596,511,1e-20,102
Cyphellophora_pluriseptata_CBS286.85_T,SRR10016845.200649,90.24,123,11,1,247,368,3,125,7e-38,159
Cyphellophora_pluriseptata_CBS286.85_T,SRR10016845.200649,89.53,86,8,1,284,368,596,511,2e-22,108
Phialophora_europaea_CBS101466,SRR10016845.200649,90.40,125,11,1,235,358,1,125,5e-39,163
Phialophora_europaea_CBS101466,SRR10016845.200649,89.53,86,8,1,274,358,596,511,2e-22,108
Phialophora_ambigua_CBS235.93,SRR10016845.200649,90.40,125,11,1,232,355,1,125,5e-39,163
Phialophora_ambigua_CBS235.93,SRR10016845.200649,89.53,86,8,1,271,355,596,511,2e-22,108
Cladophialophora_modesta_CBS985.96_T,SRR10016845.200649,87.30,126,15,1,229,354,1,125,8e-33,143
Cladophialophora_modesta_CBS985.96_T,SRR10016845.200649,89.71,68,7,0,512,579,369,302,4e-16,87.9
Cladophialophora_modesta_CBS985.96_T,SRR10016845.200649,85.06,87,12,1,268,354,596,511,4e-16,87.9
Cladophialophora_modesta_CBS985.96_T,SRR10016845.125457,95.52,67,3,0,513,579,368,302,3e-22,108
Cladophialophora_modesta_CBS985.96_T,SRR10016845.40992,95.52,67,3,0,513,579,360,294,3e-22,108
Cladophialophora_modesta_CBS985.96_T,SRR10016845.268582,91.18,68,6,0,512,579,363,296,8e-18,93.5
Cladophialophora_modesta_CBS985.96_T,SRR10016845.189908,91.18,68,6,0,512,579,369,302,8e-18,93.5
Cladophialophora_modesta_CBS985.96_T,SRR10016845.98888,92.31,65,5,0,516,580,365,301,8e-18,93.5
Cladophialophora_modesta_CBS985.96_T,SRR10016845.297710,89.71,68,7,0,512,579,369,302,4e-16,87.9
Cladophialophora_modesta_CBS985.96_T,SRR10016845.246568,91.07,56,5,0,524,579,357,302,8e-13,76.8
Cladophialophora_modesta_CBS985.96_T,SRR10016845.279003,93.88,49,3,0,531,579,350,302,3e-12,75.0
Cladophialophora_modesta_CBS985.96_T,SRR10016845.177955,93.62,47,3,0,533,579,348,302,4e-11,71.3
Cladophialophora_modesta_CBS985.96_T,SRR10016845.307436,85.71,63,7,2,518,579,363,302,2e-09,65.8
