Exophiala_brunnea_CBS,SRR6651938.19934869,97.67,43,1,0,1,43,9,51,5e-11,75.0
Exophiala_brunnea_CBS,SRR6651938.16294851,97.67,43,1,0,1,43,52,10,5e-11,75.0
Exophiala_brunnea_CBS,SRR6651938.14207079,97.67,43,1,0,1,43,32,74,5e-11,75.0
Exophiala_brunnea_CBS,SRR6651938.9622486,97.67,43,1,0,1,43,43,1,5e-11,75.0
Exophiala_brunnea_CBS,SRR6651938.8879403,97.67,43,1,0,1,43,58,16,5e-11,75.0
Exophiala_brunnea_CBS,SRR6651938.7679816,97.67,43,1,0,1,43,49,7,5e-11,75.0
Exophiala_brunnea_CBS,SRR6651938.6494659,97.67,43,1,0,1,43,43,85,5e-11,75.0
Exophiala_brunnea_CBS,SRR6651938.6490609,97.67,43,1,0,1,43,179,137,5e-11,75.0
Exophiala_brunnea_CBS,SRR6651938.1900348,97.67,43,1,0,1,43,90,132,5e-11,75.0
Exophiala_brunnea_CBS,SRR6651938.285649,97.67,43,1,0,1,43,73,31,5e-11,75.0
Exophiala_brunnea_CBS,SRR6651938.19711962,97.56,41,1,0,3,43,1,41,6e-10,71.3
Exophiala_brunnea_CBS,SRR6651938.17579178,100.00,36,0,0,1,36,36,1,8e-09,67.6
Exophiala_brunnea_CBS,SRR6651938.1375047,100.00,35,0,0,1,35,51,85,3e-08,65.8
Exophiala_dermatitidis_CBS748.88,SRR6651938.6896826,94.06,101,6,0,1366,1466,101,1,2e-34,154
Exophiala_dermatitidis_CBS748.88,SRR6651938.20595062,94.74,95,5,0,1367,1461,6,100,7e-33,148
Exophiala_dermatitidis_CBS748.88,SRR6651938.244737,93.88,98,6,0,1370,1467,146,49,7e-33,148
Exophiala_dermatitidis_CBS748.88,SRR6651938.244737,100.00,34,0,0,1213,1246,10,43,3e-07,63.9
Exophiala_dermatitidis_CBS748.88,SRR6651938.20953482,93.75,96,6,0,1372,1467,195,100,9e-32,145
Exophiala_dermatitidis_CBS748.88,SRR6651938.6680469,92.86,98,7,0,1359,1456,103,200,3e-31,143
Exophiala_dermatitidis_CBS748.88,SRR6651938.21970241,93.10,87,6,0,1359,1445,90,4,9e-27,128
Exophiala_dermatitidis_CBS748.88,SRR6651938.7924126,93.10,87,6,0,1359,1445,88,2,9e-27,128
Exophiala_dermatitidis_CBS748.88,SRR6651938.5092491,93.10,87,6,0,1359,1445,90,4,9e-27,128
Exophiala_dermatitidis_CBS748.88,SRR6651938.10174097,93.02,86,6,0,1359,1444,115,200,3e-26,126
Exophiala_dermatitidis_CBS748.88,SRR6651938.22212649,92.86,84,6,0,1359,1442,183,100,4e-25,122
Exophiala_dermatitidis_CBS748.88,SRR6651938.11315914,92.86,84,6,0,1359,1442,84,1,4e-25,122
Exophiala_dermatitidis_CBS748.88,SRR6651938.7964786,92.59,81,6,0,1359,1439,166,86,2e-23,117
Exophiala_dermatitidis_CBS748.88,SRR6651938.17219623,93.51,77,5,0,1359,1435,80,4,7e-23,115
Exophiala_dermatitidis_CBS748.88,SRR6651938.1071113,93.42,76,5,0,1359,1434,25,100,3e-22,113
Exophiala_dermatitidis_CBS748.88,SRR6651938.18292317,92.21,77,6,0,1359,1435,67,143,3e-21,110
Exophiala_dermatitidis_CBS748.88,SRR6651938.19168162,92.86,70,5,0,1359,1428,70,1,6e-19,102
Exophiala_dermatitidis_CBS748.88,SRR6651938.10770233,92.86,70,5,0,1359,1428,151,82,6e-19,102
Exophiala_dermatitidis_CBS748.88,SRR6651938.8269602,92.31,65,5,0,1359,1423,165,101,3e-16,93.5
Exophiala_dermatitidis_CBS748.88,SRR6651938.19285621,94.55,55,3,0,1370,1424,36,90,6e-14,86.1
Exophiala_dermatitidis_CBS748.88,SRR6651938.23872818,95.45,44,2,0,1213,1256,144,101,2e-09,71.3
Exophiala_dermatitidis_CBS748.88,SRR6651938.19491040,95.45,44,2,0,1213,1256,140,183,2e-09,71.3
Exophiala_dermatitidis_CBS748.88,SRR6651938.19225789,95.45,44,2,0,1213,1256,16,59,2e-09,71.3
Exophiala_dermatitidis_CBS748.88,SRR6651938.18459243,95.45,44,2,0,1213,1256,44,1,2e-09,71.3
Exophiala_dermatitidis_CBS748.88,SRR6651938.15058960,90.57,53,5,0,1359,1411,53,1,2e-09,71.3
Exophiala_dermatitidis_CBS748.88,SRR6651938.12155294,95.45,44,2,0,1213,1256,23,66,2e-09,71.3
Exophiala_dermatitidis_CBS748.88,SRR6651938.9838851,95.45,44,2,0,1213,1256,45,2,2e-09,71.3
Exophiala_dermatitidis_CBS748.88,SRR6651938.11320899,95.35,43,2,0,1359,1401,47,5,6e-09,69.4
Exophiala_dermatitidis_CBS748.88,SRR6651938.11170477,95.35,43,2,0,1214,1256,78,36,6e-09,69.4
Exophiala_dermatitidis_CBS748.88,SRR6651938.6267918,95.24,42,2,0,1359,1400,142,101,2e-08,67.6
Exophiala_dermatitidis_CBS748.88,SRR6651938.22144250,100.00,34,0,0,1213,1246,140,107,3e-07,63.9
Exophiala_dermatitidis_CBS748.88,SRR6651938.14455779,94.87,39,2,0,1218,1256,200,162,9e-07,62.1
Exophiala_dermatitidis_CBS748.88,SRR6651938.2693015,94.87,39,2,0,1218,1256,1,39,9e-07,62.1
Exophiala_dermatitidis_CBS748.88,SRR6651938.10392011,100.00,30,0,0,1213,1242,30,1,4e-05,56.5
Exophiala_dermatitidis_CBS748.88,SRR6651938.10013337,94.44,36,2,0,1359,1394,83,48,4e-05,56.5
Exophiala_tremulae_CBS129355,SRR6651938.19934869,97.67,43,1,0,1,43,9,51,5e-11,75.0
Exophiala_tremulae_CBS129355,SRR6651938.16294851,97.67,43,1,0,1,43,52,10,5e-11,75.0
Exophiala_tremulae_CBS129355,SRR6651938.14207079,97.67,43,1,0,1,43,32,74,5e-11,75.0
Exophiala_tremulae_CBS129355,SRR6651938.9622486,97.67,43,1,0,1,43,43,1,5e-11,75.0
Exophiala_tremulae_CBS129355,SRR6651938.8879403,97.67,43,1,0,1,43,58,16,5e-11,75.0
Exophiala_tremulae_CBS129355,SRR6651938.7679816,97.67,43,1,0,1,43,49,7,5e-11,75.0
Exophiala_tremulae_CBS129355,SRR6651938.6494659,97.67,43,1,0,1,43,43,85,5e-11,75.0
Exophiala_tremulae_CBS129355,SRR6651938.6490609,97.67,43,1,0,1,43,179,137,5e-11,75.0
Exophiala_tremulae_CBS129355,SRR6651938.1900348,97.67,43,1,0,1,43,90,132,5e-11,75.0
Exophiala_tremulae_CBS129355,SRR6651938.285649,97.67,43,1,0,1,43,73,31,5e-11,75.0
Exophiala_tremulae_CBS129355,SRR6651938.19711962,97.56,41,1,0,3,43,1,41,6e-10,71.3
Exophiala_tremulae_CBS129355,SRR6651938.17579178,100.00,36,0,0,1,36,36,1,8e-09,67.6
Exophiala_tremulae_CBS129355,SRR6651938.1375047,100.00,35,0,0,1,35,51,85,3e-08,65.8
Rhinocladiella_atrovirens_CBS264.49,SRR6651938.19934869,100.00,48,0,0,1,48,4,51,2e-15,89.8
Rhinocladiella_atrovirens_CBS264.49,SRR6651938.16294851,100.00,48,0,0,1,48,57,10,2e-15,89.8
Rhinocladiella_atrovirens_CBS264.49,SRR6651938.14207079,100.00,48,0,0,1,48,27,74,2e-15,89.8
Rhinocladiella_atrovirens_CBS264.49,SRR6651938.9622486,100.00,48,0,0,1,48,48,1,2e-15,89.8
Rhinocladiella_atrovirens_CBS264.49,SRR6651938.8879403,100.00,48,0,0,1,48,63,16,2e-15,89.8
Rhinocladiella_atrovirens_CBS264.49,SRR6651938.7679816,100.00,48,0,0,1,48,54,7,2e-15,89.8
Rhinocladiella_atrovirens_CBS264.49,SRR6651938.6490609,100.00,48,0,0,1,48,184,137,2e-15,89.8
Rhinocladiella_atrovirens_CBS264.49,SRR6651938.1900348,100.00,48,0,0,1,48,85,132,2e-15,89.8
Rhinocladiella_atrovirens_CBS264.49,SRR6651938.285649,100.00,48,0,0,1,48,78,31,2e-15,89.8
Rhinocladiella_atrovirens_CBS264.49,SRR6651938.6494659,100.00,46,0,0,3,48,40,85,2e-14,86.1
Rhinocladiella_atrovirens_CBS264.49,SRR6651938.19711962,100.00,41,0,0,8,48,1,41,1e-11,76.8
Rhinocladiella_atrovirens_CBS264.49,SRR6651938.17579178,100.00,41,0,0,1,41,41,1,1e-11,76.8
Rhinocladiella_atrovirens_CBS264.49,SRR6651938.1375047,100.00,40,0,0,1,40,46,85,5e-11,75.0
Rhinocladiella_atrovirens_CBS264.49,SRR6651938.9890637,100.00,32,0,0,1,32,69,100,1e-06,60.2
Rhinocladiella_atrovirens_CBS264.49,SRR6651938.17216752,100.00,29,0,0,20,48,200,172,6e-05,54.7
Rhinocladiella_fasciculata_CBS132.86_T,SRR6651938.19934869,100.00,31,0,0,1,31,21,51,5e-06,58.4
Rhinocladiella_fasciculata_CBS132.86_T,SRR6651938.19711962,100.00,31,0,0,1,31,11,41,5e-06,58.4
Rhinocladiella_fasciculata_CBS132.86_T,SRR6651938.16294851,100.00,31,0,0,1,31,40,10,5e-06,58.4
Rhinocladiella_fasciculata_CBS132.86_T,SRR6651938.14207079,100.00,31,0,0,1,31,44,74,5e-06,58.4
Rhinocladiella_fasciculata_CBS132.86_T,SRR6651938.9622486,100.00,31,0,0,1,31,31,1,5e-06,58.4
Rhinocladiella_fasciculata_CBS132.86_T,SRR6651938.8879403,100.00,31,0,0,1,31,46,16,5e-06,58.4
Rhinocladiella_fasciculata_CBS132.86_T,SRR6651938.7679816,100.00,31,0,0,1,31,37,7,5e-06,58.4
Rhinocladiella_fasciculata_CBS132.86_T,SRR6651938.6494659,100.00,31,0,0,1,31,55,85,5e-06,58.4
Rhinocladiella_fasciculata_CBS132.86_T,SRR6651938.6490609,100.00,31,0,0,1,31,167,137,5e-06,58.4
Rhinocladiella_fasciculata_CBS132.86_T,SRR6651938.1900348,100.00,31,0,0,1,31,102,132,5e-06,58.4
Rhinocladiella_fasciculata_CBS132.86_T,SRR6651938.285649,100.00,31,0,0,1,31,61,31,5e-06,58.4
Rhinocladiella_fasciculata_CBS132.86_T,SRR6651938.17216752,100.00,29,0,0,3,31,200,172,6e-05,54.7
Capronia_kleinmondensis_CBS122671_T,SRR6651938.19934869,100.00,34,0,0,1,34,18,51,1e-07,63.9
Capronia_kleinmondensis_CBS122671_T,SRR6651938.19711962,100.00,34,0,0,1,34,8,41,1e-07,63.9
Capronia_kleinmondensis_CBS122671_T,SRR6651938.16294851,100.00,34,0,0,1,34,43,10,1e-07,63.9
Capronia_kleinmondensis_CBS122671_T,SRR6651938.14207079,100.00,34,0,0,1,34,41,74,1e-07,63.9
Capronia_kleinmondensis_CBS122671_T,SRR6651938.9622486,100.00,34,0,0,1,34,34,1,1e-07,63.9
Capronia_kleinmondensis_CBS122671_T,SRR6651938.8879403,100.00,34,0,0,1,34,49,16,1e-07,63.9
Capronia_kleinmondensis_CBS122671_T,SRR6651938.7679816,100.00,34,0,0,1,34,40,7,1e-07,63.9
Capronia_kleinmondensis_CBS122671_T,SRR6651938.6494659,100.00,34,0,0,1,34,52,85,1e-07,63.9
Capronia_kleinmondensis_CBS122671_T,SRR6651938.6490609,100.00,34,0,0,1,34,170,137,1e-07,63.9
Capronia_kleinmondensis_CBS122671_T,SRR6651938.1900348,100.00,34,0,0,1,34,99,132,1e-07,63.9
Capronia_kleinmondensis_CBS122671_T,SRR6651938.285649,100.00,34,0,0,1,34,64,31,1e-07,63.9
Capronia_kleinmondensis_CBS122671_T,SRR6651938.17216752,100.00,29,0,0,6,34,200,172,7e-05,54.7
Veronaea_japonica_CBS776.83_T,SRR6651938.19934869,97.62,42,1,0,1,42,10,51,2e-10,73.1
Veronaea_japonica_CBS776.83_T,SRR6651938.16294851,97.62,42,1,0,1,42,51,10,2e-10,73.1
Veronaea_japonica_CBS776.83_T,SRR6651938.14207079,97.62,42,1,0,1,42,33,74,2e-10,73.1
Veronaea_japonica_CBS776.83_T,SRR6651938.9622486,97.62,42,1,0,1,42,42,1,2e-10,73.1
Veronaea_japonica_CBS776.83_T,SRR6651938.8879403,97.62,42,1,0,1,42,57,16,2e-10,73.1
Veronaea_japonica_CBS776.83_T,SRR6651938.7679816,97.62,42,1,0,1,42,48,7,2e-10,73.1
Veronaea_japonica_CBS776.83_T,SRR6651938.6494659,97.62,42,1,0,1,42,44,85,2e-10,73.1
Veronaea_japonica_CBS776.83_T,SRR6651938.6490609,97.62,42,1,0,1,42,178,137,2e-10,73.1
Veronaea_japonica_CBS776.83_T,SRR6651938.1900348,97.62,42,1,0,1,42,91,132,2e-10,73.1
Veronaea_japonica_CBS776.83_T,SRR6651938.285649,97.62,42,1,0,1,42,72,31,2e-10,73.1
Veronaea_japonica_CBS776.83_T,SRR6651938.19711962,97.56,41,1,0,2,42,1,41,6e-10,71.3
Veronaea_japonica_CBS776.83_T,SRR6651938.17579178,100.00,35,0,0,1,35,35,1,3e-08,65.8
Veronaea_japonica_CBS776.83_T,SRR6651938.1375047,100.00,34,0,0,1,34,52,85,1e-07,63.9
Fonsecaea_pedrosoi_CBS271.37_T,SRR6651938.19934869,100.00,30,0,0,1,30,18,47,2e-05,56.5
Fonsecaea_pedrosoi_CBS271.37_T,SRR6651938.19711962,100.00,30,0,0,1,30,8,37,2e-05,56.5
Fonsecaea_pedrosoi_CBS271.37_T,SRR6651938.16294851,100.00,30,0,0,1,30,43,14,2e-05,56.5
Fonsecaea_pedrosoi_CBS271.37_T,SRR6651938.14207079,100.00,30,0,0,1,30,41,70,2e-05,56.5
Fonsecaea_pedrosoi_CBS271.37_T,SRR6651938.9622486,100.00,30,0,0,1,30,34,5,2e-05,56.5
Fonsecaea_pedrosoi_CBS271.37_T,SRR6651938.8879403,100.00,30,0,0,1,30,49,20,2e-05,56.5
Fonsecaea_pedrosoi_CBS271.37_T,SRR6651938.7679816,100.00,30,0,0,1,30,40,11,2e-05,56.5
Fonsecaea_pedrosoi_CBS271.37_T,SRR6651938.6494659,100.00,30,0,0,1,30,52,81,2e-05,56.5
Fonsecaea_pedrosoi_CBS271.37_T,SRR6651938.6490609,100.00,30,0,0,1,30,170,141,2e-05,56.5
Fonsecaea_pedrosoi_CBS271.37_T,SRR6651938.1900348,100.00,30,0,0,1,30,99,128,2e-05,56.5
Fonsecaea_pedrosoi_CBS271.37_T,SRR6651938.285649,100.00,30,0,0,1,30,64,35,2e-05,56.5
Cladophialophora_australiensis_CBS112793,SRR6651938.6896826,94.00,100,6,0,1334,1433,100,1,5e-34,152
Cladophialophora_australiensis_CBS112793,SRR6651938.20595062,94.74,95,5,0,1334,1428,6,100,7e-33,148
Cladophialophora_australiensis_CBS112793,SRR6651938.244737,93.88,98,6,0,1337,1434,146,49,7e-33,148
Cladophialophora_australiensis_CBS112793,SRR6651938.244737,100.00,33,0,0,1180,1212,10,42,9e-07,62.1
Cladophialophora_australiensis_CBS112793,SRR6651938.20953482,93.75,96,6,0,1339,1434,195,100,9e-32,145
Cladophialophora_australiensis_CBS112793,SRR6651938.6680469,92.86,98,7,0,1326,1423,103,200,3e-31,143
Cladophialophora_australiensis_CBS112793,SRR6651938.21970241,93.10,87,6,0,1326,1412,90,4,9e-27,128
Cladophialophora_australiensis_CBS112793,SRR6651938.7924126,93.10,87,6,0,1326,1412,88,2,9e-27,128
Cladophialophora_australiensis_CBS112793,SRR6651938.5092491,93.10,87,6,0,1326,1412,90,4,9e-27,128
Cladophialophora_australiensis_CBS112793,SRR6651938.10174097,93.02,86,6,0,1326,1411,115,200,3e-26,126
Cladophialophora_australiensis_CBS112793,SRR6651938.22212649,92.86,84,6,0,1326,1409,183,100,4e-25,122
Cladophialophora_australiensis_CBS112793,SRR6651938.11315914,92.86,84,6,0,1326,1409,84,1,4e-25,122
Cladophialophora_australiensis_CBS112793,SRR6651938.7964786,92.59,81,6,0,1326,1406,166,86,2e-23,117
Cladophialophora_australiensis_CBS112793,SRR6651938.17219623,93.51,77,5,0,1326,1402,80,4,7e-23,115
Cladophialophora_australiensis_CBS112793,SRR6651938.1071113,93.42,76,5,0,1326,1401,25,100,3e-22,113
Cladophialophora_australiensis_CBS112793,SRR6651938.18292317,92.21,77,6,0,1326,1402,67,143,3e-21,110
Cladophialophora_australiensis_CBS112793,SRR6651938.19168162,92.86,70,5,0,1326,1395,70,1,5e-19,102
Cladophialophora_australiensis_CBS112793,SRR6651938.10770233,92.86,70,5,0,1326,1395,151,82,5e-19,102
Cladophialophora_australiensis_CBS112793,SRR6651938.8269602,92.31,65,5,0,1326,1390,165,101,3e-16,93.5
Cladophialophora_australiensis_CBS112793,SRR6651938.19285621,93.22,59,3,1,1333,1391,33,90,5e-14,86.1
Cladophialophora_australiensis_CBS112793,SRR6651938.15058960,90.57,53,5,0,1326,1378,53,1,2e-09,71.3
Cladophialophora_australiensis_CBS112793,SRR6651938.11320899,95.35,43,2,0,1326,1368,47,5,6e-09,69.4
Cladophialophora_australiensis_CBS112793,SRR6651938.6267918,95.24,42,2,0,1326,1367,142,101,2e-08,67.6
Cladophialophora_australiensis_CBS112793,SRR6651938.23872818,100.00,33,0,0,1180,1212,144,112,9e-07,62.1
Cladophialophora_australiensis_CBS112793,SRR6651938.22144250,100.00,33,0,0,1180,1212,140,108,9e-07,62.1
Cladophialophora_australiensis_CBS112793,SRR6651938.19491040,100.00,33,0,0,1180,1212,140,172,9e-07,62.1
Cladophialophora_australiensis_CBS112793,SRR6651938.19225789,100.00,33,0,0,1180,1212,16,48,9e-07,62.1
Cladophialophora_australiensis_CBS112793,SRR6651938.18459243,100.00,33,0,0,1180,1212,44,12,9e-07,62.1
Cladophialophora_australiensis_CBS112793,SRR6651938.12155294,100.00,33,0,0,1180,1212,23,55,9e-07,62.1
Cladophialophora_australiensis_CBS112793,SRR6651938.9838851,100.00,33,0,0,1180,1212,45,13,9e-07,62.1
Cladophialophora_australiensis_CBS112793,SRR6651938.11170477,100.00,32,0,0,1181,1212,78,47,3e-06,60.2
Cladophialophora_australiensis_CBS112793,SRR6651938.10392011,100.00,30,0,0,1180,1209,30,1,4e-05,56.5
Cladophialophora_australiensis_CBS112793,SRR6651938.10013337,94.44,36,2,0,1326,1361,83,48,4e-05,56.5
Cladophialophora_australiensis_CBS112793,SRR6651938.14455779,100.00,28,0,0,1185,1212,200,173,6e-04,52.8
Cladophialophora_australiensis_CBS112793,SRR6651938.2693015,100.00,28,0,0,1185,1212,1,28,6e-04,52.8
Cladophialophora_potulentorum_CBS112222,SRR6651938.6896826,94.00,100,6,0,1336,1435,100,1,5e-34,152
Cladophialophora_potulentorum_CBS112222,SRR6651938.20595062,94.74,95,5,0,1336,1430,6,100,7e-33,148
Cladophialophora_potulentorum_CBS112222,SRR6651938.244737,93.88,98,6,0,1339,1436,146,49,7e-33,148
Cladophialophora_potulentorum_CBS112222,SRR6651938.244737,100.00,33,0,0,1182,1214,10,42,9e-07,62.1
Cladophialophora_potulentorum_CBS112222,SRR6651938.20953482,93.75,96,6,0,1341,1436,195,100,9e-32,145
Cladophialophora_potulentorum_CBS112222,SRR6651938.6680469,92.86,98,7,0,1328,1425,103,200,3e-31,143
Cladophialophora_potulentorum_CBS112222,SRR6651938.21970241,93.10,87,6,0,1328,1414,90,4,9e-27,128
Cladophialophora_potulentorum_CBS112222,SRR6651938.7924126,93.10,87,6,0,1328,1414,88,2,9e-27,128
Cladophialophora_potulentorum_CBS112222,SRR6651938.5092491,93.10,87,6,0,1328,1414,90,4,9e-27,128
Cladophialophora_potulentorum_CBS112222,SRR6651938.10174097,93.02,86,6,0,1328,1413,115,200,3e-26,126
Cladophialophora_potulentorum_CBS112222,SRR6651938.22212649,92.86,84,6,0,1328,1411,183,100,4e-25,122
Cladophialophora_potulentorum_CBS112222,SRR6651938.11315914,92.86,84,6,0,1328,1411,84,1,4e-25,122
Cladophialophora_potulentorum_CBS112222,SRR6651938.7964786,92.59,81,6,0,1328,1408,166,86,2e-23,117
Cladophialophora_potulentorum_CBS112222,SRR6651938.17219623,93.51,77,5,0,1328,1404,80,4,7e-23,115
Cladophialophora_potulentorum_CBS112222,SRR6651938.1071113,93.42,76,5,0,1328,1403,25,100,3e-22,113
Cladophialophora_potulentorum_CBS112222,SRR6651938.18292317,92.21,77,6,0,1328,1404,67,143,3e-21,110
Cladophialophora_potulentorum_CBS112222,SRR6651938.19168162,92.86,70,5,0,1328,1397,70,1,6e-19,102
Cladophialophora_potulentorum_CBS112222,SRR6651938.10770233,92.86,70,5,0,1328,1397,151,82,6e-19,102
Cladophialophora_potulentorum_CBS112222,SRR6651938.8269602,92.31,65,5,0,1328,1392,165,101,3e-16,93.5
Cladophialophora_potulentorum_CBS112222,SRR6651938.19285621,93.22,59,3,1,1335,1393,33,90,6e-14,86.1
Cladophialophora_potulentorum_CBS112222,SRR6651938.15058960,90.57,53,5,0,1328,1380,53,1,2e-09,71.3
Cladophialophora_potulentorum_CBS112222,SRR6651938.11320899,95.35,43,2,0,1328,1370,47,5,6e-09,69.4
Cladophialophora_potulentorum_CBS112222,SRR6651938.6267918,95.24,42,2,0,1328,1369,142,101,2e-08,67.6
Cladophialophora_potulentorum_CBS112222,SRR6651938.23872818,93.18,44,3,0,1182,1225,144,101,7e-08,65.8
Cladophialophora_potulentorum_CBS112222,SRR6651938.19491040,93.18,44,3,0,1182,1225,140,183,7e-08,65.8
Cladophialophora_potulentorum_CBS112222,SRR6651938.19225789,93.18,44,3,0,1182,1225,16,59,7e-08,65.8
Cladophialophora_potulentorum_CBS112222,SRR6651938.18459243,93.18,44,3,0,1182,1225,44,1,7e-08,65.8
Cladophialophora_potulentorum_CBS112222,SRR6651938.12155294,93.18,44,3,0,1182,1225,23,66,7e-08,65.8
Cladophialophora_potulentorum_CBS112222,SRR6651938.9838851,93.18,44,3,0,1182,1225,45,2,7e-08,65.8
Cladophialophora_potulentorum_CBS112222,SRR6651938.11170477,93.02,43,3,0,1183,1225,78,36,3e-07,63.9
Cladophialophora_potulentorum_CBS112222,SRR6651938.22144250,100.00,33,0,0,1182,1214,140,108,9e-07,62.1
Cladophialophora_potulentorum_CBS112222,SRR6651938.14455779,92.31,39,3,0,1187,1225,200,162,4e-05,56.5
Cladophialophora_potulentorum_CBS112222,SRR6651938.10392011,100.00,30,0,0,1182,1211,30,1,4e-05,56.5
Cladophialophora_potulentorum_CBS112222,SRR6651938.10013337,94.44,36,2,0,1328,1363,83,48,4e-05,56.5
Cladophialophora_potulentorum_CBS112222,SRR6651938.2693015,92.31,39,3,0,1187,1225,1,39,4e-05,56.5
Cladophialophora_chaetospira_CBS127573,SRR6651938.19934869,97.14,35,1,0,379,413,17,51,2e-06,60.2
Cladophialophora_chaetospira_CBS127573,SRR6651938.19711962,97.14,35,1,0,379,413,7,41,2e-06,60.2
Cladophialophora_chaetospira_CBS127573,SRR6651938.16294851,97.14,35,1,0,379,413,44,10,2e-06,60.2
Cladophialophora_chaetospira_CBS127573,SRR6651938.14207079,97.14,35,1,0,379,413,40,74,2e-06,60.2
Cladophialophora_chaetospira_CBS127573,SRR6651938.9622486,97.14,35,1,0,379,413,35,1,2e-06,60.2
Cladophialophora_chaetospira_CBS127573,SRR6651938.8879403,97.14,35,1,0,379,413,50,16,2e-06,60.2
Cladophialophora_chaetospira_CBS127573,SRR6651938.7679816,97.14,35,1,0,379,413,41,7,2e-06,60.2
Cladophialophora_chaetospira_CBS127573,SRR6651938.6494659,97.14,35,1,0,379,413,51,85,2e-06,60.2
Cladophialophora_chaetospira_CBS127573,SRR6651938.6490609,97.14,35,1,0,379,413,171,137,2e-06,60.2
Cladophialophora_chaetospira_CBS127573,SRR6651938.1900348,97.14,35,1,0,379,413,98,132,2e-06,60.2
Cladophialophora_chaetospira_CBS127573,SRR6651938.285649,97.14,35,1,0,379,413,65,31,2e-06,60.2
Cladophialophora_chaetospira_CBS127573,SRR6651938.17579178,100.00,28,0,0,379,406,28,1,4e-04,52.8
Phialophora_americana_CBS400.67,SRR6651938.6896826,94.06,101,6,0,1327,1427,101,1,1e-34,154
Phialophora_americana_CBS400.67,SRR6651938.20595062,94.74,95,5,0,1328,1422,6,100,7e-33,148
Phialophora_americana_CBS400.67,SRR6651938.244737,93.88,98,6,0,1331,1428,146,49,7e-33,148
Phialophora_americana_CBS400.67,SRR6651938.244737,100.00,34,0,0,1174,1207,10,43,3e-07,63.9
Phialophora_americana_CBS400.67,SRR6651938.20953482,93.75,96,6,0,1333,1428,195,100,9e-32,145
Phialophora_americana_CBS400.67,SRR6651938.6680469,92.86,98,7,0,1320,1417,103,200,3e-31,143
Phialophora_americana_CBS400.67,SRR6651938.21970241,93.10,87,6,0,1320,1406,90,4,9e-27,128
Phialophora_americana_CBS400.67,SRR6651938.7924126,93.10,87,6,0,1320,1406,88,2,9e-27,128
Phialophora_americana_CBS400.67,SRR6651938.5092491,93.10,87,6,0,1320,1406,90,4,9e-27,128
Phialophora_americana_CBS400.67,SRR6651938.10174097,93.02,86,6,0,1320,1405,115,200,3e-26,126
Phialophora_americana_CBS400.67,SRR6651938.22212649,92.86,84,6,0,1320,1403,183,100,4e-25,122
Phialophora_americana_CBS400.67,SRR6651938.11315914,92.86,84,6,0,1320,1403,84,1,4e-25,122
Phialophora_americana_CBS400.67,SRR6651938.7964786,92.59,81,6,0,1320,1400,166,86,2e-23,117
Phialophora_americana_CBS400.67,SRR6651938.17219623,93.51,77,5,0,1320,1396,80,4,7e-23,115
Phialophora_americana_CBS400.67,SRR6651938.1071113,93.42,76,5,0,1320,1395,25,100,2e-22,113
Phialophora_americana_CBS400.67,SRR6651938.18292317,92.21,77,6,0,1320,1396,67,143,3e-21,110
Phialophora_americana_CBS400.67,SRR6651938.19168162,92.86,70,5,0,1320,1389,70,1,5e-19,102
Phialophora_americana_CBS400.67,SRR6651938.10770233,92.86,70,5,0,1320,1389,151,82,5e-19,102
Phialophora_americana_CBS400.67,SRR6651938.8269602,92.31,65,5,0,1320,1384,165,101,3e-16,93.5
Phialophora_americana_CBS400.67,SRR6651938.19285621,94.55,55,3,0,1331,1385,36,90,5e-14,86.1
Phialophora_americana_CBS400.67,SRR6651938.23872818,95.45,44,2,0,1174,1217,144,101,2e-09,71.3
Phialophora_americana_CBS400.67,SRR6651938.19491040,95.45,44,2,0,1174,1217,140,183,2e-09,71.3
Phialophora_americana_CBS400.67,SRR6651938.19225789,95.45,44,2,0,1174,1217,16,59,2e-09,71.3
Phialophora_americana_CBS400.67,SRR6651938.18459243,95.45,44,2,0,1174,1217,44,1,2e-09,71.3
Phialophora_americana_CBS400.67,SRR6651938.15058960,90.57,53,5,0,1320,1372,53,1,2e-09,71.3
Phialophora_americana_CBS400.67,SRR6651938.12155294,95.45,44,2,0,1174,1217,23,66,2e-09,71.3
Phialophora_americana_CBS400.67,SRR6651938.9838851,95.45,44,2,0,1174,1217,45,2,2e-09,71.3
Phialophora_americana_CBS400.67,SRR6651938.11320899,95.35,43,2,0,1320,1362,47,5,5e-09,69.4
Phialophora_americana_CBS400.67,SRR6651938.11170477,95.35,43,2,0,1175,1217,78,36,5e-09,69.4
Phialophora_americana_CBS400.67,SRR6651938.6267918,95.24,42,2,0,1320,1361,142,101,2e-08,67.6
Phialophora_americana_CBS400.67,SRR6651938.22144250,100.00,34,0,0,1174,1207,140,107,3e-07,63.9
Phialophora_americana_CBS400.67,SRR6651938.14455779,94.87,39,2,0,1179,1217,200,162,9e-07,62.1
Phialophora_americana_CBS400.67,SRR6651938.2693015,94.87,39,2,0,1179,1217,1,39,9e-07,62.1
Phialophora_americana_CBS400.67,SRR6651938.10392011,100.00,30,0,0,1174,1203,30,1,4e-05,56.5
Phialophora_americana_CBS400.67,SRR6651938.10013337,94.44,36,2,0,1320,1355,83,48,4e-05,56.5
Cyphellophora_laciniata_CBS190.61_T,SRR6651938.16294851,96.97,66,2,0,39,104,75,10,4e-22,111
Cyphellophora_laciniata_CBS190.61_T,SRR6651938.14207079,96.97,66,2,0,39,104,9,74,4e-22,111
Cyphellophora_laciniata_CBS190.61_T,SRR6651938.9622486,96.97,66,2,0,39,104,66,1,4e-22,111
Cyphellophora_laciniata_CBS190.61_T,SRR6651938.8879403,96.97,66,2,0,39,104,81,16,4e-22,111
Cyphellophora_laciniata_CBS190.61_T,SRR6651938.7679816,96.97,66,2,0,39,104,72,7,4e-22,111
Cyphellophora_laciniata_CBS190.61_T,SRR6651938.1900348,96.97,66,2,0,39,104,67,132,4e-22,111
Cyphellophora_laciniata_CBS190.61_T,SRR6651938.285649,96.97,66,2,0,39,104,96,31,4e-22,111
Cyphellophora_laciniata_CBS190.61_T,SRR6651938.6490609,96.88,64,2,0,41,104,200,137,6e-21,108
Cyphellophora_laciniata_CBS190.61_T,SRR6651938.17579178,96.61,59,2,0,39,97,59,1,3e-18,99.0
Cyphellophora_laciniata_CBS190.61_T,SRR6651938.1375047,96.55,58,2,0,39,96,28,85,1e-17,97.1
Cyphellophora_laciniata_CBS190.61_T,SRR6651938.19934869,100.00,50,0,0,55,104,2,51,2e-16,93.5
Cyphellophora_laciniata_CBS190.61_T,SRR6651938.6494659,100.00,46,0,0,59,104,40,85,3e-14,86.1
Cyphellophora_laciniata_CBS190.61_T,SRR6651938.9890637,96.00,50,2,0,39,88,51,100,4e-13,82.4
Cyphellophora_laciniata_CBS190.61_T,SRR6651938.19711962,100.00,41,0,0,64,104,1,41,2e-11,76.8
Cyphellophora_laciniata_CBS190.61_T,SRR6651938.17216752,100.00,29,0,0,76,104,200,172,8e-05,54.7
