Exophiala_brunnea_CBS,ERR1718587.3833,100.00,32,0,0,1,32,132,163,3e-10,60.2
Exophiala_brunnea_CBS,ERR1718587.3801,100.00,32,0,0,1,32,32,1,3e-10,60.2
Exophiala_brunnea_CBS,ERR1718587.3756,100.00,32,0,0,1,32,32,1,3e-10,60.2
Exophiala_brunnea_CBS,ERR1718587.3372,100.00,32,0,0,1,32,132,163,3e-10,60.2
Exophiala_brunnea_CBS,ERR1718587.3119,100.00,32,0,0,1,32,32,1,3e-10,60.2
Exophiala_brunnea_CBS,ERR1718587.2913,100.00,32,0,0,1,32,32,1,3e-10,60.2
Exophiala_brunnea_CBS,ERR1718587.2737,100.00,32,0,0,1,32,32,1,3e-10,60.2
Exophiala_brunnea_CBS,ERR1718587.2646,100.00,32,0,0,1,32,32,1,3e-10,60.2
Exophiala_brunnea_CBS,ERR1718587.2401,100.00,32,0,0,1,32,32,1,3e-10,60.2
Exophiala_brunnea_CBS,ERR1718587.2387,100.00,32,0,0,1,32,132,163,3e-10,60.2
Exophiala_brunnea_CBS,ERR1718587.2284,100.00,32,0,0,1,32,32,1,3e-10,60.2
Exophiala_brunnea_CBS,ERR1718587.2216,100.00,32,0,0,1,32,32,1,3e-10,60.2
Exophiala_brunnea_CBS,ERR1718587.2077,100.00,32,0,0,1,32,132,163,3e-10,60.2
Exophiala_brunnea_CBS,ERR1718587.1953,100.00,32,0,0,1,32,132,163,3e-10,60.2
Exophiala_brunnea_CBS,ERR1718587.1678,100.00,32,0,0,1,32,134,165,3e-10,60.2
Exophiala_brunnea_CBS,ERR1718587.1667,100.00,32,0,0,1,32,32,1,3e-10,60.2
Exophiala_brunnea_CBS,ERR1718587.1467,100.00,32,0,0,1,32,32,1,3e-10,60.2
Exophiala_brunnea_CBS,ERR1718587.1231,100.00,32,0,0,1,32,32,1,3e-10,60.2
Exophiala_brunnea_CBS,ERR1718587.1207,100.00,32,0,0,1,32,32,1,3e-10,60.2
Exophiala_brunnea_CBS,ERR1718587.639,100.00,32,0,0,1,32,32,1,3e-10,60.2
Exophiala_brunnea_CBS,ERR1718587.446,100.00,32,0,0,1,32,134,165,3e-10,60.2
Exophiala_brunnea_CBS,ERR1718587.427,100.00,32,0,0,1,32,32,1,3e-10,60.2
Exophiala_brunnea_CBS,ERR1718587.367,100.00,32,0,0,1,32,32,1,3e-10,60.2
Exophiala_brunnea_CBS,ERR1718587.365,100.00,32,0,0,1,32,32,1,3e-10,60.2
Exophiala_tremulae_CBS129355,ERR1718587.3833,100.00,32,0,0,1,32,132,163,3e-10,60.2
Exophiala_tremulae_CBS129355,ERR1718587.3801,100.00,32,0,0,1,32,32,1,3e-10,60.2
Exophiala_tremulae_CBS129355,ERR1718587.3756,100.00,32,0,0,1,32,32,1,3e-10,60.2
Exophiala_tremulae_CBS129355,ERR1718587.3372,100.00,32,0,0,1,32,132,163,3e-10,60.2
Exophiala_tremulae_CBS129355,ERR1718587.3119,100.00,32,0,0,1,32,32,1,3e-10,60.2
Exophiala_tremulae_CBS129355,ERR1718587.2913,100.00,32,0,0,1,32,32,1,3e-10,60.2
Exophiala_tremulae_CBS129355,ERR1718587.2737,100.00,32,0,0,1,32,32,1,3e-10,60.2
Exophiala_tremulae_CBS129355,ERR1718587.2646,100.00,32,0,0,1,32,32,1,3e-10,60.2
Exophiala_tremulae_CBS129355,ERR1718587.2401,100.00,32,0,0,1,32,32,1,3e-10,60.2
Exophiala_tremulae_CBS129355,ERR1718587.2387,100.00,32,0,0,1,32,132,163,3e-10,60.2
Exophiala_tremulae_CBS129355,ERR1718587.2284,100.00,32,0,0,1,32,32,1,3e-10,60.2
Exophiala_tremulae_CBS129355,ERR1718587.2216,100.00,32,0,0,1,32,32,1,3e-10,60.2
Exophiala_tremulae_CBS129355,ERR1718587.2077,100.00,32,0,0,1,32,132,163,3e-10,60.2
Exophiala_tremulae_CBS129355,ERR1718587.1953,100.00,32,0,0,1,32,132,163,3e-10,60.2
Exophiala_tremulae_CBS129355,ERR1718587.1678,100.00,32,0,0,1,32,134,165,3e-10,60.2
Exophiala_tremulae_CBS129355,ERR1718587.1667,100.00,32,0,0,1,32,32,1,3e-10,60.2
Exophiala_tremulae_CBS129355,ERR1718587.1467,100.00,32,0,0,1,32,32,1,3e-10,60.2
Exophiala_tremulae_CBS129355,ERR1718587.1231,100.00,32,0,0,1,32,32,1,3e-10,60.2
Exophiala_tremulae_CBS129355,ERR1718587.1207,100.00,32,0,0,1,32,32,1,3e-10,60.2
Exophiala_tremulae_CBS129355,ERR1718587.639,100.00,32,0,0,1,32,32,1,3e-10,60.2
Exophiala_tremulae_CBS129355,ERR1718587.446,100.00,32,0,0,1,32,134,165,3e-10,60.2
Exophiala_tremulae_CBS129355,ERR1718587.427,100.00,32,0,0,1,32,32,1,3e-10,60.2
Exophiala_tremulae_CBS129355,ERR1718587.367,100.00,32,0,0,1,32,32,1,3e-10,60.2
Exophiala_tremulae_CBS129355,ERR1718587.365,100.00,32,0,0,1,32,32,1,3e-10,60.2
Rhinocladiella_atrovirens_CBS264.49,ERR1718587.3833,100.00,37,0,0,1,37,127,163,4e-13,69.4
Rhinocladiella_atrovirens_CBS264.49,ERR1718587.3801,100.00,37,0,0,1,37,37,1,4e-13,69.4
Rhinocladiella_atrovirens_CBS264.49,ERR1718587.3756,100.00,37,0,0,1,37,37,1,4e-13,69.4
Rhinocladiella_atrovirens_CBS264.49,ERR1718587.3372,100.00,37,0,0,1,37,127,163,4e-13,69.4
Rhinocladiella_atrovirens_CBS264.49,ERR1718587.3119,100.00,37,0,0,1,37,37,1,4e-13,69.4
Rhinocladiella_atrovirens_CBS264.49,ERR1718587.2913,100.00,37,0,0,1,37,37,1,4e-13,69.4
Rhinocladiella_atrovirens_CBS264.49,ERR1718587.2737,100.00,37,0,0,1,37,37,1,4e-13,69.4
Rhinocladiella_atrovirens_CBS264.49,ERR1718587.2646,100.00,37,0,0,1,37,37,1,4e-13,69.4
Rhinocladiella_atrovirens_CBS264.49,ERR1718587.2401,100.00,37,0,0,1,37,37,1,4e-13,69.4
Rhinocladiella_atrovirens_CBS264.49,ERR1718587.2387,100.00,37,0,0,1,37,127,163,4e-13,69.4
Rhinocladiella_atrovirens_CBS264.49,ERR1718587.2284,100.00,37,0,0,1,37,37,1,4e-13,69.4
Rhinocladiella_atrovirens_CBS264.49,ERR1718587.2216,100.00,37,0,0,1,37,37,1,4e-13,69.4
Rhinocladiella_atrovirens_CBS264.49,ERR1718587.2077,100.00,37,0,0,1,37,127,163,4e-13,69.4
Rhinocladiella_atrovirens_CBS264.49,ERR1718587.1953,100.00,37,0,0,1,37,127,163,4e-13,69.4
Rhinocladiella_atrovirens_CBS264.49,ERR1718587.1678,100.00,37,0,0,1,37,129,165,4e-13,69.4
Rhinocladiella_atrovirens_CBS264.49,ERR1718587.1667,100.00,37,0,0,1,37,37,1,4e-13,69.4
Rhinocladiella_atrovirens_CBS264.49,ERR1718587.1467,100.00,37,0,0,1,37,37,1,4e-13,69.4
Rhinocladiella_atrovirens_CBS264.49,ERR1718587.1231,100.00,37,0,0,1,37,37,1,4e-13,69.4
Rhinocladiella_atrovirens_CBS264.49,ERR1718587.1207,100.00,37,0,0,1,37,37,1,4e-13,69.4
Rhinocladiella_atrovirens_CBS264.49,ERR1718587.639,100.00,37,0,0,1,37,37,1,4e-13,69.4
Rhinocladiella_atrovirens_CBS264.49,ERR1718587.446,100.00,37,0,0,1,37,129,165,4e-13,69.4
Rhinocladiella_atrovirens_CBS264.49,ERR1718587.427,100.00,37,0,0,1,37,37,1,4e-13,69.4
Rhinocladiella_atrovirens_CBS264.49,ERR1718587.367,100.00,37,0,0,1,37,37,1,4e-13,69.4
Rhinocladiella_atrovirens_CBS264.49,ERR1718587.365,100.00,37,0,0,1,37,37,1,4e-13,69.4
Rhinocladiella_atrovirens_CBS264.49,ERR1718587.3948,97.30,37,1,0,1,37,127,163,2e-11,63.9
Rhinocladiella_atrovirens_CBS264.49,ERR1718587.3894,97.30,37,1,0,1,37,37,1,2e-11,63.9
Rhinocladiella_atrovirens_CBS264.49,ERR1718587.3778,97.30,37,1,0,1,37,37,1,2e-11,63.9
Rhinocladiella_atrovirens_CBS264.49,ERR1718587.3630,97.30,37,1,0,1,37,37,1,2e-11,63.9
Rhinocladiella_atrovirens_CBS264.49,ERR1718587.3455,97.30,37,1,0,1,37,37,1,2e-11,63.9
Rhinocladiella_atrovirens_CBS264.49,ERR1718587.3379,97.30,37,1,0,1,37,37,1,2e-11,63.9
Rhinocladiella_atrovirens_CBS264.49,ERR1718587.3205,97.30,37,1,0,1,37,37,1,2e-11,63.9
Rhinocladiella_atrovirens_CBS264.49,ERR1718587.3196,97.30,37,1,0,1,37,37,1,2e-11,63.9
Rhinocladiella_atrovirens_CBS264.49,ERR1718587.3180,97.30,37,1,0,1,37,37,1,2e-11,63.9
Rhinocladiella_atrovirens_CBS264.49,ERR1718587.3147,97.30,37,1,0,1,37,37,1,2e-11,63.9
Rhinocladiella_atrovirens_CBS264.49,ERR1718587.3113,97.30,37,1,0,1,37,37,1,2e-11,63.9
Rhinocladiella_atrovirens_CBS264.49,ERR1718587.3053,97.30,37,1,0,1,37,37,1,2e-11,63.9
Rhinocladiella_atrovirens_CBS264.49,ERR1718587.2851,97.30,37,1,0,1,37,37,1,2e-11,63.9
Rhinocladiella_atrovirens_CBS264.49,ERR1718587.2668,97.30,37,1,0,1,37,37,1,2e-11,63.9
Rhinocladiella_atrovirens_CBS264.49,ERR1718587.2492,97.30,37,1,0,1,37,127,163,2e-11,63.9
Rhinocladiella_atrovirens_CBS264.49,ERR1718587.2353,97.30,37,1,0,1,37,37,1,2e-11,63.9
Rhinocladiella_atrovirens_CBS264.49,ERR1718587.2141,97.30,37,1,0,1,37,127,163,2e-11,63.9
Rhinocladiella_atrovirens_CBS264.49,ERR1718587.1980,97.30,37,1,0,1,37,37,1,2e-11,63.9
Rhinocladiella_atrovirens_CBS264.49,ERR1718587.1740,97.30,37,1,0,1,37,37,1,2e-11,63.9
Rhinocladiella_atrovirens_CBS264.49,ERR1718587.1646,97.30,37,1,0,1,37,37,1,2e-11,63.9
Rhinocladiella_atrovirens_CBS264.49,ERR1718587.1480,97.30,37,1,0,1,37,37,1,2e-11,63.9
Rhinocladiella_atrovirens_CBS264.49,ERR1718587.1476,97.30,37,1,0,1,37,127,163,2e-11,63.9
Rhinocladiella_atrovirens_CBS264.49,ERR1718587.1390,97.30,37,1,0,1,37,127,163,2e-11,63.9
Rhinocladiella_atrovirens_CBS264.49,ERR1718587.1283,97.30,37,1,0,1,37,37,1,2e-11,63.9
Rhinocladiella_atrovirens_CBS264.49,ERR1718587.1281,97.30,37,1,0,1,37,37,1,2e-11,63.9
Rhinocladiella_atrovirens_CBS264.49,ERR1718587.1190,97.30,37,1,0,1,37,37,1,2e-11,63.9
Rhinocladiella_atrovirens_CBS264.49,ERR1718587.1160,97.30,37,1,0,1,37,37,1,2e-11,63.9
Rhinocladiella_atrovirens_CBS264.49,ERR1718587.1136,97.30,37,1,0,1,37,37,1,2e-11,63.9
Rhinocladiella_atrovirens_CBS264.49,ERR1718587.1090,97.30,37,1,0,1,37,127,163,2e-11,63.9
Rhinocladiella_atrovirens_CBS264.49,ERR1718587.606,97.30,37,1,0,1,37,37,1,2e-11,63.9
Rhinocladiella_atrovirens_CBS264.49,ERR1718587.593,97.30,37,1,0,1,37,37,1,2e-11,63.9
Rhinocladiella_atrovirens_CBS264.49,ERR1718587.510,97.30,37,1,0,1,37,37,1,2e-11,63.9
Rhinocladiella_atrovirens_CBS264.49,ERR1718587.488,97.30,37,1,0,1,37,37,1,2e-11,63.9
Rhinocladiella_atrovirens_CBS264.49,ERR1718587.407,97.30,37,1,0,1,37,37,1,2e-11,63.9
Rhinocladiella_atrovirens_CBS264.49,ERR1718587.394,97.30,37,1,0,1,37,37,1,2e-11,63.9
Rhinocladiella_atrovirens_CBS264.49,ERR1718587.321,97.30,37,1,0,1,37,37,1,2e-11,63.9
Rhinocladiella_atrovirens_CBS264.49,ERR1718587.296,97.30,37,1,0,1,37,37,1,2e-11,63.9
Rhinocladiella_atrovirens_CBS264.49,ERR1718587.285,97.30,37,1,0,1,37,37,1,2e-11,63.9
Rhinocladiella_atrovirens_CBS264.49,ERR1718587.226,97.30,37,1,0,1,37,127,163,2e-11,63.9
Veronaea_japonica_CBS776.83_T,ERR1718587.3833,100.00,31,0,0,1,31,133,163,9e-10,58.4
Veronaea_japonica_CBS776.83_T,ERR1718587.3801,100.00,31,0,0,1,31,31,1,9e-10,58.4
Veronaea_japonica_CBS776.83_T,ERR1718587.3756,100.00,31,0,0,1,31,31,1,9e-10,58.4
Veronaea_japonica_CBS776.83_T,ERR1718587.3372,100.00,31,0,0,1,31,133,163,9e-10,58.4
Veronaea_japonica_CBS776.83_T,ERR1718587.3119,100.00,31,0,0,1,31,31,1,9e-10,58.4
Veronaea_japonica_CBS776.83_T,ERR1718587.2913,100.00,31,0,0,1,31,31,1,9e-10,58.4
Veronaea_japonica_CBS776.83_T,ERR1718587.2737,100.00,31,0,0,1,31,31,1,9e-10,58.4
Veronaea_japonica_CBS776.83_T,ERR1718587.2646,100.00,31,0,0,1,31,31,1,9e-10,58.4
Veronaea_japonica_CBS776.83_T,ERR1718587.2401,100.00,31,0,0,1,31,31,1,9e-10,58.4
Veronaea_japonica_CBS776.83_T,ERR1718587.2387,100.00,31,0,0,1,31,133,163,9e-10,58.4
Veronaea_japonica_CBS776.83_T,ERR1718587.2284,100.00,31,0,0,1,31,31,1,9e-10,58.4
Veronaea_japonica_CBS776.83_T,ERR1718587.2216,100.00,31,0,0,1,31,31,1,9e-10,58.4
Veronaea_japonica_CBS776.83_T,ERR1718587.2077,100.00,31,0,0,1,31,133,163,9e-10,58.4
Veronaea_japonica_CBS776.83_T,ERR1718587.1953,100.00,31,0,0,1,31,133,163,9e-10,58.4
Veronaea_japonica_CBS776.83_T,ERR1718587.1678,100.00,31,0,0,1,31,135,165,9e-10,58.4
Veronaea_japonica_CBS776.83_T,ERR1718587.1667,100.00,31,0,0,1,31,31,1,9e-10,58.4
Veronaea_japonica_CBS776.83_T,ERR1718587.1467,100.00,31,0,0,1,31,31,1,9e-10,58.4
Veronaea_japonica_CBS776.83_T,ERR1718587.1231,100.00,31,0,0,1,31,31,1,9e-10,58.4
Veronaea_japonica_CBS776.83_T,ERR1718587.1207,100.00,31,0,0,1,31,31,1,9e-10,58.4
Veronaea_japonica_CBS776.83_T,ERR1718587.639,100.00,31,0,0,1,31,31,1,9e-10,58.4
Veronaea_japonica_CBS776.83_T,ERR1718587.446,100.00,31,0,0,1,31,135,165,9e-10,58.4
Veronaea_japonica_CBS776.83_T,ERR1718587.427,100.00,31,0,0,1,31,31,1,9e-10,58.4
Veronaea_japonica_CBS776.83_T,ERR1718587.367,100.00,31,0,0,1,31,31,1,9e-10,58.4
Veronaea_japonica_CBS776.83_T,ERR1718587.365,100.00,31,0,0,1,31,31,1,9e-10,58.4
Cyphellophora_laciniata_CBS190.61_T,ERR1718587.3833,98.08,52,1,0,42,93,112,163,1e-19,91.6
Cyphellophora_laciniata_CBS190.61_T,ERR1718587.3801,98.08,52,1,0,42,93,52,1,1e-19,91.6
Cyphellophora_laciniata_CBS190.61_T,ERR1718587.3756,98.08,52,1,0,42,93,52,1,1e-19,91.6
Cyphellophora_laciniata_CBS190.61_T,ERR1718587.3372,98.08,52,1,0,42,93,112,163,1e-19,91.6
Cyphellophora_laciniata_CBS190.61_T,ERR1718587.3119,98.08,52,1,0,42,93,52,1,1e-19,91.6
Cyphellophora_laciniata_CBS190.61_T,ERR1718587.2913,98.08,52,1,0,42,93,52,1,1e-19,91.6
Cyphellophora_laciniata_CBS190.61_T,ERR1718587.2646,98.08,52,1,0,42,93,52,1,1e-19,91.6
Cyphellophora_laciniata_CBS190.61_T,ERR1718587.2401,98.08,52,1,0,42,93,52,1,1e-19,91.6
Cyphellophora_laciniata_CBS190.61_T,ERR1718587.2387,98.08,52,1,0,42,93,112,163,1e-19,91.6
Cyphellophora_laciniata_CBS190.61_T,ERR1718587.2284,98.08,52,1,0,42,93,52,1,1e-19,91.6
Cyphellophora_laciniata_CBS190.61_T,ERR1718587.2216,98.08,52,1,0,42,93,52,1,1e-19,91.6
Cyphellophora_laciniata_CBS190.61_T,ERR1718587.2077,98.08,52,1,0,42,93,112,163,1e-19,91.6
Cyphellophora_laciniata_CBS190.61_T,ERR1718587.1953,98.08,52,1,0,42,93,112,163,1e-19,91.6
Cyphellophora_laciniata_CBS190.61_T,ERR1718587.1667,98.08,52,1,0,42,93,52,1,1e-19,91.6
Cyphellophora_laciniata_CBS190.61_T,ERR1718587.1467,98.08,52,1,0,42,93,52,1,1e-19,91.6
Cyphellophora_laciniata_CBS190.61_T,ERR1718587.1231,98.08,52,1,0,42,93,52,1,1e-19,91.6
Cyphellophora_laciniata_CBS190.61_T,ERR1718587.1207,98.08,52,1,0,42,93,52,1,1e-19,91.6
Cyphellophora_laciniata_CBS190.61_T,ERR1718587.639,98.08,52,1,0,42,93,52,1,1e-19,91.6
Cyphellophora_laciniata_CBS190.61_T,ERR1718587.427,98.08,52,1,0,42,93,52,1,1e-19,91.6
Cyphellophora_laciniata_CBS190.61_T,ERR1718587.367,98.08,52,1,0,42,93,52,1,1e-19,91.6
Cyphellophora_laciniata_CBS190.61_T,ERR1718587.365,98.08,52,1,0,42,93,52,1,1e-19,91.6
Cyphellophora_laciniata_CBS190.61_T,ERR1718587.446,98.04,51,1,0,43,93,115,165,4e-19,89.8
Cyphellophora_laciniata_CBS190.61_T,ERR1718587.3948,96.15,52,2,0,42,93,112,163,5e-18,86.1
Cyphellophora_laciniata_CBS190.61_T,ERR1718587.3894,96.15,52,2,0,42,93,52,1,5e-18,86.1
Cyphellophora_laciniata_CBS190.61_T,ERR1718587.3630,96.15,52,2,0,42,93,52,1,5e-18,86.1
Cyphellophora_laciniata_CBS190.61_T,ERR1718587.3455,96.15,52,2,0,42,93,52,1,5e-18,86.1
Cyphellophora_laciniata_CBS190.61_T,ERR1718587.3379,96.15,52,2,0,42,93,52,1,5e-18,86.1
Cyphellophora_laciniata_CBS190.61_T,ERR1718587.3205,96.15,52,2,0,42,93,52,1,5e-18,86.1
Cyphellophora_laciniata_CBS190.61_T,ERR1718587.3196,96.15,52,2,0,42,93,52,1,5e-18,86.1
Cyphellophora_laciniata_CBS190.61_T,ERR1718587.3180,96.15,52,2,0,42,93,52,1,5e-18,86.1
Cyphellophora_laciniata_CBS190.61_T,ERR1718587.3147,96.15,52,2,0,42,93,52,1,5e-18,86.1
Cyphellophora_laciniata_CBS190.61_T,ERR1718587.3113,96.15,52,2,0,42,93,52,1,5e-18,86.1
Cyphellophora_laciniata_CBS190.61_T,ERR1718587.3053,96.15,52,2,0,42,93,52,1,5e-18,86.1
Cyphellophora_laciniata_CBS190.61_T,ERR1718587.2851,96.15,52,2,0,42,93,52,1,5e-18,86.1
Cyphellophora_laciniata_CBS190.61_T,ERR1718587.2737,96.15,52,2,0,42,93,52,1,5e-18,86.1
Cyphellophora_laciniata_CBS190.61_T,ERR1718587.2668,96.15,52,2,0,42,93,52,1,5e-18,86.1
Cyphellophora_laciniata_CBS190.61_T,ERR1718587.2492,96.15,52,2,0,42,93,112,163,5e-18,86.1
Cyphellophora_laciniata_CBS190.61_T,ERR1718587.2353,96.15,52,2,0,42,93,52,1,5e-18,86.1
Cyphellophora_laciniata_CBS190.61_T,ERR1718587.1980,96.15,52,2,0,42,93,52,1,5e-18,86.1
Cyphellophora_laciniata_CBS190.61_T,ERR1718587.1740,96.15,52,2,0,42,93,52,1,5e-18,86.1
Cyphellophora_laciniata_CBS190.61_T,ERR1718587.1646,96.15,52,2,0,42,93,52,1,5e-18,86.1
Cyphellophora_laciniata_CBS190.61_T,ERR1718587.1480,96.15,52,2,0,42,93,52,1,5e-18,86.1
Cyphellophora_laciniata_CBS190.61_T,ERR1718587.1476,96.15,52,2,0,42,93,112,163,5e-18,86.1
Cyphellophora_laciniata_CBS190.61_T,ERR1718587.1390,96.15,52,2,0,42,93,112,163,5e-18,86.1
Cyphellophora_laciniata_CBS190.61_T,ERR1718587.1283,96.15,52,2,0,42,93,52,1,5e-18,86.1
Cyphellophora_laciniata_CBS190.61_T,ERR1718587.1281,96.15,52,2,0,42,93,52,1,5e-18,86.1
Cyphellophora_laciniata_CBS190.61_T,ERR1718587.1190,96.15,52,2,0,42,93,52,1,5e-18,86.1
Cyphellophora_laciniata_CBS190.61_T,ERR1718587.1160,96.15,52,2,0,42,93,52,1,5e-18,86.1
Cyphellophora_laciniata_CBS190.61_T,ERR1718587.1136,96.15,52,2,0,42,93,52,1,5e-18,86.1
Cyphellophora_laciniata_CBS190.61_T,ERR1718587.1090,96.15,52,2,0,42,93,112,163,5e-18,86.1
Cyphellophora_laciniata_CBS190.61_T,ERR1718587.606,96.15,52,2,0,42,93,52,1,5e-18,86.1
Cyphellophora_laciniata_CBS190.61_T,ERR1718587.593,96.15,52,2,0,42,93,52,1,5e-18,86.1
Cyphellophora_laciniata_CBS190.61_T,ERR1718587.510,96.15,52,2,0,42,93,52,1,5e-18,86.1
Cyphellophora_laciniata_CBS190.61_T,ERR1718587.488,96.15,52,2,0,42,93,52,1,5e-18,86.1
Cyphellophora_laciniata_CBS190.61_T,ERR1718587.407,96.15,52,2,0,42,93,52,1,5e-18,86.1
Cyphellophora_laciniata_CBS190.61_T,ERR1718587.321,96.15,52,2,0,42,93,52,1,5e-18,86.1
Cyphellophora_laciniata_CBS190.61_T,ERR1718587.296,96.15,52,2,0,42,93,52,1,5e-18,86.1
Cyphellophora_laciniata_CBS190.61_T,ERR1718587.285,96.15,52,2,0,42,93,52,1,5e-18,86.1
Cyphellophora_laciniata_CBS190.61_T,ERR1718587.226,96.15,52,2,0,42,93,112,163,5e-18,86.1
Cyphellophora_laciniata_CBS190.61_T,ERR1718587.3778,96.08,51,2,0,43,93,51,1,2e-17,84.2
Cyphellophora_laciniata_CBS190.61_T,ERR1718587.1678,96.08,51,2,0,43,93,115,165,2e-17,84.2
Cyphellophora_laciniata_CBS190.61_T,ERR1718587.394,96.08,51,2,0,43,93,51,1,2e-17,84.2
Cyphellophora_laciniata_CBS190.61_T,ERR1718587.2141,94.12,51,3,0,43,93,113,163,8e-16,78.7
