Exophiala_brunnea_CBS,SRR2630167.50111989,97.67,43,1,0,1,43,133,175,1e-10,75.0
Exophiala_brunnea_CBS,SRR2630167.49147979,97.67,43,1,0,1,43,45,3,1e-10,75.0
Exophiala_brunnea_CBS,SRR2630167.44142563,97.67,43,1,0,1,43,80,38,1e-10,75.0
Exophiala_brunnea_CBS,SRR2630167.40951096,97.67,43,1,0,1,43,46,88,1e-10,75.0
Exophiala_brunnea_CBS,SRR2630167.6965939,97.67,43,1,0,1,43,104,146,1e-10,75.0
Exophiala_brunnea_CBS,SRR2630167.2556276,97.67,43,1,0,1,43,45,3,1e-10,75.0
Exophiala_brunnea_CBS,SRR2630167.46537670,100.00,39,0,0,1,39,192,154,5e-10,73.1
Exophiala_brunnea_CBS,SRR2630167.25085628,100.00,39,0,0,1,39,192,154,5e-10,73.1
Exophiala_brunnea_CBS,SRR2630167.17076081,100.00,39,0,0,1,39,192,154,5e-10,73.1
Exophiala_brunnea_CBS,SRR2630167.10294167,100.00,39,0,0,1,39,141,103,5e-10,73.1
Exophiala_brunnea_CBS,SRR2630167.9425267,100.00,39,0,0,1,39,192,154,5e-10,73.1
Exophiala_brunnea_CBS,SRR2630167.8038025,100.00,39,0,0,1,39,192,154,5e-10,73.1
Exophiala_brunnea_CBS,SRR2630167.5548013,100.00,39,0,0,1,39,161,199,5e-10,73.1
Exophiala_brunnea_CBS,SRR2630167.1526817,100.00,39,0,0,1,39,161,199,5e-10,73.1
Exophiala_brunnea_CBS,SRR2630167.5492792,100.00,38,0,0,1,38,91,54,2e-09,71.3
Exophiala_dermatitidis_CBS748.88,SRR2630167.13144364,93.94,99,6,0,1367,1465,104,202,6e-33,150
Exophiala_dermatitidis_CBS748.88,SRR2630167.41420361,93.07,101,7,0,1359,1459,1,101,2e-32,148
Exophiala_dermatitidis_CBS748.88,SRR2630167.10348650,92.78,97,7,0,1359,1455,197,101,3e-30,141
Exophiala_dermatitidis_CBS748.88,SRR2630167.23848770,92.71,96,7,0,1359,1454,7,102,1e-29,139
Exophiala_dermatitidis_CBS748.88,SRR2630167.12281639,92.63,95,7,0,1359,1453,7,101,4e-29,137
Exophiala_dermatitidis_CBS748.88,SRR2630167.48361018,92.55,94,7,0,1367,1460,104,197,2e-28,135
Exophiala_dermatitidis_CBS748.88,SRR2630167.36325669,92.39,92,7,0,1359,1450,92,1,2e-27,132
Exophiala_dermatitidis_CBS748.88,SRR2630167.48381280,93.02,86,6,0,1359,1444,184,99,9e-26,126
Exophiala_dermatitidis_CBS748.88,SRR2630167.36149890,93.02,86,6,0,1359,1444,184,99,9e-26,126
Exophiala_dermatitidis_CBS748.88,SRR2630167.22612757,89.80,98,9,1,1408,1504,99,196,3e-25,124
Exophiala_dermatitidis_CBS748.88,SRR2630167.12733747,89.80,98,9,1,1408,1504,99,196,3e-25,124
Exophiala_dermatitidis_CBS748.88,SRR2630167.46563240,95.45,44,2,0,1213,1256,170,127,4e-09,71.3
Exophiala_dermatitidis_CBS748.88,SRR2630167.46047042,95.45,44,2,0,1213,1256,51,94,4e-09,71.3
Exophiala_dermatitidis_CBS748.88,SRR2630167.42223556,95.45,44,2,0,1213,1256,8,51,4e-09,71.3
Exophiala_dermatitidis_CBS748.88,SRR2630167.42223556,95.35,43,2,0,1359,1401,146,104,2e-08,69.4
Exophiala_dermatitidis_CBS748.88,SRR2630167.34722244,95.45,44,2,0,1213,1256,8,51,4e-09,71.3
Exophiala_dermatitidis_CBS748.88,SRR2630167.34722244,95.35,43,2,0,1359,1401,146,104,2e-08,69.4
Exophiala_dermatitidis_CBS748.88,SRR2630167.29161945,95.45,44,2,0,1213,1256,160,117,4e-09,71.3
Exophiala_dermatitidis_CBS748.88,SRR2630167.21357376,95.45,44,2,0,1213,1256,160,117,4e-09,71.3
Exophiala_dermatitidis_CBS748.88,SRR2630167.20703628,95.45,44,2,0,1213,1256,160,117,4e-09,71.3
Exophiala_dermatitidis_CBS748.88,SRR2630167.18020641,95.45,44,2,0,1213,1256,13,56,4e-09,71.3
Exophiala_dermatitidis_CBS748.88,SRR2630167.15223638,95.45,44,2,0,1213,1256,51,94,4e-09,71.3
Exophiala_dermatitidis_CBS748.88,SRR2630167.4848645,95.45,44,2,0,1213,1256,51,94,4e-09,71.3
Exophiala_dermatitidis_CBS748.88,SRR2630167.1866561,95.45,44,2,0,1213,1256,8,51,4e-09,71.3
Exophiala_dermatitidis_CBS748.88,SRR2630167.1866561,95.35,43,2,0,1359,1401,146,104,2e-08,69.4
Exophiala_dermatitidis_CBS748.88,SRR2630167.51154820,95.35,43,2,0,1359,1401,50,8,2e-08,69.4
Exophiala_dermatitidis_CBS748.88,SRR2630167.41545109,95.00,40,2,0,1217,1256,102,141,7e-07,63.9
Exophiala_dermatitidis_CBS748.88,SRR2630167.16901768,100.00,34,0,0,1213,1246,34,1,7e-07,63.9
Exophiala_dermatitidis_CBS748.88,SRR2630167.13913445,95.00,40,2,0,1217,1256,102,141,7e-07,63.9
Exophiala_dermatitidis_CBS748.88,SRR2630167.12610438,95.00,40,2,0,1217,1256,102,141,7e-07,63.9
Exophiala_dermatitidis_CBS748.88,SRR2630167.35582080,94.59,37,2,0,1359,1395,37,1,3e-05,58.4
Exophiala_tremulae_CBS129355,SRR2630167.50111989,97.67,43,1,0,1,43,133,175,1e-10,75.0
Exophiala_tremulae_CBS129355,SRR2630167.49147979,97.67,43,1,0,1,43,45,3,1e-10,75.0
Exophiala_tremulae_CBS129355,SRR2630167.44142563,97.67,43,1,0,1,43,80,38,1e-10,75.0
Exophiala_tremulae_CBS129355,SRR2630167.40951096,97.67,43,1,0,1,43,46,88,1e-10,75.0
Exophiala_tremulae_CBS129355,SRR2630167.6965939,97.67,43,1,0,1,43,104,146,1e-10,75.0
Exophiala_tremulae_CBS129355,SRR2630167.2556276,97.67,43,1,0,1,43,45,3,1e-10,75.0
Exophiala_tremulae_CBS129355,SRR2630167.46537670,100.00,39,0,0,1,39,192,154,5e-10,73.1
Exophiala_tremulae_CBS129355,SRR2630167.25085628,100.00,39,0,0,1,39,192,154,5e-10,73.1
Exophiala_tremulae_CBS129355,SRR2630167.17076081,100.00,39,0,0,1,39,192,154,5e-10,73.1
Exophiala_tremulae_CBS129355,SRR2630167.10294167,100.00,39,0,0,1,39,141,103,5e-10,73.1
Exophiala_tremulae_CBS129355,SRR2630167.9425267,100.00,39,0,0,1,39,192,154,5e-10,73.1
Exophiala_tremulae_CBS129355,SRR2630167.8038025,100.00,39,0,0,1,39,192,154,5e-10,73.1
Exophiala_tremulae_CBS129355,SRR2630167.5548013,100.00,39,0,0,1,39,161,199,5e-10,73.1
Exophiala_tremulae_CBS129355,SRR2630167.1526817,100.00,39,0,0,1,39,161,199,5e-10,73.1
Exophiala_tremulae_CBS129355,SRR2630167.5492792,100.00,38,0,0,1,38,91,54,2e-09,71.3
Rhinocladiella_atrovirens_CBS264.49,SRR2630167.50111989,100.00,48,0,0,1,48,128,175,5e-15,89.8
Rhinocladiella_atrovirens_CBS264.49,SRR2630167.49147979,100.00,48,0,0,1,48,50,3,5e-15,89.8
Rhinocladiella_atrovirens_CBS264.49,SRR2630167.44142563,100.00,48,0,0,1,48,85,38,5e-15,89.8
Rhinocladiella_atrovirens_CBS264.49,SRR2630167.40951096,100.00,48,0,0,1,48,41,88,5e-15,89.8
Rhinocladiella_atrovirens_CBS264.49,SRR2630167.2556276,100.00,48,0,0,1,48,50,3,5e-15,89.8
Rhinocladiella_atrovirens_CBS264.49,SRR2630167.46537670,100.00,47,0,0,1,47,197,151,2e-14,87.9
Rhinocladiella_atrovirens_CBS264.49,SRR2630167.25085628,100.00,47,0,0,1,47,197,151,2e-14,87.9
Rhinocladiella_atrovirens_CBS264.49,SRR2630167.17076081,100.00,47,0,0,1,47,197,151,2e-14,87.9
Rhinocladiella_atrovirens_CBS264.49,SRR2630167.9425267,100.00,47,0,0,1,47,197,151,2e-14,87.9
Rhinocladiella_atrovirens_CBS264.49,SRR2630167.8038025,100.00,47,0,0,1,47,197,151,2e-14,87.9
Rhinocladiella_atrovirens_CBS264.49,SRR2630167.5548013,100.00,47,0,0,1,47,156,202,2e-14,87.9
Rhinocladiella_atrovirens_CBS264.49,SRR2630167.1526817,100.00,47,0,0,1,47,156,202,2e-14,87.9
Rhinocladiella_atrovirens_CBS264.49,SRR2630167.10294167,100.00,45,0,0,1,45,146,102,2e-13,84.2
Rhinocladiella_atrovirens_CBS264.49,SRR2630167.6965939,100.00,45,0,0,4,48,102,146,2e-13,84.2
Rhinocladiella_atrovirens_CBS264.49,SRR2630167.5492792,97.87,47,1,0,1,47,96,50,8e-13,82.4
Rhinocladiella_atrovirens_CBS264.49,SRR2630167.41059403,100.00,30,0,0,1,30,30,1,5e-05,56.5
Rhinocladiella_atrovirens_CBS264.49,SRR2630167.17190461,100.00,30,0,0,1,30,30,1,5e-05,56.5
Rhinocladiella_atrovirens_CBS264.49,SRR2630167.4053734,100.00,30,0,0,1,30,30,1,5e-05,56.5
Rhinocladiella_atrovirens_CBS264.49,SRR2630167.46130286,100.00,29,0,0,1,29,174,202,2e-04,54.7
Rhinocladiella_atrovirens_CBS264.49,SRR2630167.12742998,100.00,29,0,0,1,29,174,202,2e-04,54.7
Rhinocladiella_atrovirens_CBS264.49,SRR2630167.3128070,100.00,29,0,0,1,29,174,202,2e-04,54.7
Rhinocladiella_fasciculata_CBS132.86_T,SRR2630167.50111989,100.00,31,0,0,1,31,145,175,1e-05,58.4
Rhinocladiella_fasciculata_CBS132.86_T,SRR2630167.49147979,100.00,31,0,0,1,31,33,3,1e-05,58.4
Rhinocladiella_fasciculata_CBS132.86_T,SRR2630167.44142563,100.00,31,0,0,1,31,68,38,1e-05,58.4
Rhinocladiella_fasciculata_CBS132.86_T,SRR2630167.40951096,100.00,31,0,0,1,31,58,88,1e-05,58.4
Rhinocladiella_fasciculata_CBS132.86_T,SRR2630167.6965939,100.00,31,0,0,1,31,116,146,1e-05,58.4
Rhinocladiella_fasciculata_CBS132.86_T,SRR2630167.2556276,100.00,31,0,0,1,31,33,3,1e-05,58.4
Rhinocladiella_fasciculata_CBS132.86_T,SRR2630167.46537670,100.00,30,0,0,1,30,180,151,5e-05,56.5
Rhinocladiella_fasciculata_CBS132.86_T,SRR2630167.25085628,100.00,30,0,0,1,30,180,151,5e-05,56.5
Rhinocladiella_fasciculata_CBS132.86_T,SRR2630167.17076081,100.00,30,0,0,1,30,180,151,5e-05,56.5
Rhinocladiella_fasciculata_CBS132.86_T,SRR2630167.9425267,100.00,30,0,0,1,30,180,151,5e-05,56.5
Rhinocladiella_fasciculata_CBS132.86_T,SRR2630167.8038025,100.00,30,0,0,1,30,180,151,5e-05,56.5
Rhinocladiella_fasciculata_CBS132.86_T,SRR2630167.5548013,100.00,30,0,0,1,30,173,202,5e-05,56.5
Rhinocladiella_fasciculata_CBS132.86_T,SRR2630167.1526817,100.00,30,0,0,1,30,173,202,5e-05,56.5
Rhinocladiella_fasciculata_CBS132.86_T,SRR2630167.10294167,100.00,28,0,0,1,28,129,102,6e-04,52.8
Capronia_kleinmondensis_CBS122671_T,SRR2630167.50111989,100.00,34,0,0,1,34,142,175,3e-07,63.9
Capronia_kleinmondensis_CBS122671_T,SRR2630167.49147979,100.00,34,0,0,1,34,36,3,3e-07,63.9
Capronia_kleinmondensis_CBS122671_T,SRR2630167.44142563,100.00,34,0,0,1,34,71,38,3e-07,63.9
Capronia_kleinmondensis_CBS122671_T,SRR2630167.40951096,100.00,34,0,0,1,34,55,88,3e-07,63.9
Capronia_kleinmondensis_CBS122671_T,SRR2630167.6965939,100.00,34,0,0,1,34,113,146,3e-07,63.9
Capronia_kleinmondensis_CBS122671_T,SRR2630167.2556276,100.00,34,0,0,1,34,36,3,3e-07,63.9
Capronia_kleinmondensis_CBS122671_T,SRR2630167.46537670,100.00,33,0,0,1,33,183,151,1e-06,62.1
Capronia_kleinmondensis_CBS122671_T,SRR2630167.25085628,100.00,33,0,0,1,33,183,151,1e-06,62.1
Capronia_kleinmondensis_CBS122671_T,SRR2630167.17076081,100.00,33,0,0,1,33,183,151,1e-06,62.1
Capronia_kleinmondensis_CBS122671_T,SRR2630167.9425267,100.00,33,0,0,1,33,183,151,1e-06,62.1
Capronia_kleinmondensis_CBS122671_T,SRR2630167.8038025,100.00,33,0,0,1,33,183,151,1e-06,62.1
Capronia_kleinmondensis_CBS122671_T,SRR2630167.5548013,100.00,33,0,0,1,33,170,202,1e-06,62.1
Capronia_kleinmondensis_CBS122671_T,SRR2630167.1526817,100.00,33,0,0,1,33,170,202,1e-06,62.1
Capronia_kleinmondensis_CBS122671_T,SRR2630167.10294167,100.00,31,0,0,1,31,132,102,1e-05,58.4
Capronia_kleinmondensis_CBS122671_T,SRR2630167.5492792,96.97,33,1,0,1,33,82,50,5e-05,56.5
Veronaea_japonica_CBS776.83_T,SRR2630167.50111989,97.62,42,1,0,1,42,134,175,5e-10,73.1
Veronaea_japonica_CBS776.83_T,SRR2630167.49147979,97.62,42,1,0,1,42,44,3,5e-10,73.1
Veronaea_japonica_CBS776.83_T,SRR2630167.44142563,97.62,42,1,0,1,42,79,38,5e-10,73.1
Veronaea_japonica_CBS776.83_T,SRR2630167.40951096,97.62,42,1,0,1,42,47,88,5e-10,73.1
Veronaea_japonica_CBS776.83_T,SRR2630167.6965939,97.62,42,1,0,1,42,105,146,5e-10,73.1
Veronaea_japonica_CBS776.83_T,SRR2630167.2556276,97.62,42,1,0,1,42,44,3,5e-10,73.1
Veronaea_japonica_CBS776.83_T,SRR2630167.46537670,100.00,38,0,0,1,38,191,154,2e-09,71.3
Veronaea_japonica_CBS776.83_T,SRR2630167.25085628,100.00,38,0,0,1,38,191,154,2e-09,71.3
Veronaea_japonica_CBS776.83_T,SRR2630167.17076081,100.00,38,0,0,1,38,191,154,2e-09,71.3
Veronaea_japonica_CBS776.83_T,SRR2630167.10294167,100.00,38,0,0,1,38,140,103,2e-09,71.3
Veronaea_japonica_CBS776.83_T,SRR2630167.9425267,100.00,38,0,0,1,38,191,154,2e-09,71.3
Veronaea_japonica_CBS776.83_T,SRR2630167.8038025,100.00,38,0,0,1,38,191,154,2e-09,71.3
Veronaea_japonica_CBS776.83_T,SRR2630167.5548013,100.00,38,0,0,1,38,162,199,2e-09,71.3
Veronaea_japonica_CBS776.83_T,SRR2630167.1526817,100.00,38,0,0,1,38,162,199,2e-09,71.3
Veronaea_japonica_CBS776.83_T,SRR2630167.5492792,100.00,37,0,0,1,37,90,54,6e-09,69.4
Fonsecaea_pedrosoi_CBS271.37_T,SRR2630167.50111989,100.00,30,0,0,1,30,142,171,5e-05,56.5
Fonsecaea_pedrosoi_CBS271.37_T,SRR2630167.49147979,100.00,30,0,0,1,30,36,7,5e-05,56.5
Fonsecaea_pedrosoi_CBS271.37_T,SRR2630167.46537670,100.00,30,0,0,1,30,183,154,5e-05,56.5
Fonsecaea_pedrosoi_CBS271.37_T,SRR2630167.44142563,100.00,30,0,0,1,30,71,42,5e-05,56.5
Fonsecaea_pedrosoi_CBS271.37_T,SRR2630167.40951096,100.00,30,0,0,1,30,55,84,5e-05,56.5
Fonsecaea_pedrosoi_CBS271.37_T,SRR2630167.25085628,100.00,30,0,0,1,30,183,154,5e-05,56.5
Fonsecaea_pedrosoi_CBS271.37_T,SRR2630167.17076081,100.00,30,0,0,1,30,183,154,5e-05,56.5
Fonsecaea_pedrosoi_CBS271.37_T,SRR2630167.10294167,100.00,30,0,0,1,30,132,103,5e-05,56.5
Fonsecaea_pedrosoi_CBS271.37_T,SRR2630167.9425267,100.00,30,0,0,1,30,183,154,5e-05,56.5
Fonsecaea_pedrosoi_CBS271.37_T,SRR2630167.8038025,100.00,30,0,0,1,30,183,154,5e-05,56.5
Fonsecaea_pedrosoi_CBS271.37_T,SRR2630167.6965939,100.00,30,0,0,1,30,113,142,5e-05,56.5
Fonsecaea_pedrosoi_CBS271.37_T,SRR2630167.5548013,100.00,30,0,0,1,30,170,199,5e-05,56.5
Fonsecaea_pedrosoi_CBS271.37_T,SRR2630167.2556276,100.00,30,0,0,1,30,36,7,5e-05,56.5
Fonsecaea_pedrosoi_CBS271.37_T,SRR2630167.1526817,100.00,30,0,0,1,30,170,199,5e-05,56.5
Fonsecaea_pedrosoi_CBS271.37_T,SRR2630167.5492792,100.00,29,0,0,1,29,82,54,2e-04,54.7
Cladophialophora_australiensis_CBS112793,SRR2630167.13144364,93.94,99,6,0,1334,1432,104,202,5e-33,150
Cladophialophora_australiensis_CBS112793,SRR2630167.41420361,93.07,101,7,0,1326,1426,1,101,2e-32,148
Cladophialophora_australiensis_CBS112793,SRR2630167.10348650,92.78,97,7,0,1326,1422,197,101,3e-30,141
Cladophialophora_australiensis_CBS112793,SRR2630167.23848770,92.71,96,7,0,1326,1421,7,102,1e-29,139
Cladophialophora_australiensis_CBS112793,SRR2630167.12281639,92.63,95,7,0,1326,1420,7,101,4e-29,137
Cladophialophora_australiensis_CBS112793,SRR2630167.48361018,92.55,94,7,0,1334,1427,104,197,2e-28,135
Cladophialophora_australiensis_CBS112793,SRR2630167.36325669,92.39,92,7,0,1326,1417,92,1,2e-27,132
Cladophialophora_australiensis_CBS112793,SRR2630167.48381280,93.02,86,6,0,1326,1411,184,99,9e-26,126
Cladophialophora_australiensis_CBS112793,SRR2630167.36149890,93.02,86,6,0,1326,1411,184,99,9e-26,126
Cladophialophora_australiensis_CBS112793,SRR2630167.22612757,89.80,98,9,1,1375,1471,99,196,3e-25,124
Cladophialophora_australiensis_CBS112793,SRR2630167.12733747,89.80,98,9,1,1375,1471,99,196,3e-25,124
Cladophialophora_australiensis_CBS112793,SRR2630167.51154820,95.35,43,2,0,1326,1368,50,8,2e-08,69.4
Cladophialophora_australiensis_CBS112793,SRR2630167.42223556,95.35,43,2,0,1326,1368,146,104,2e-08,69.4
Cladophialophora_australiensis_CBS112793,SRR2630167.42223556,100.00,33,0,0,1180,1212,8,40,3e-06,62.1
Cladophialophora_australiensis_CBS112793,SRR2630167.34722244,95.35,43,2,0,1326,1368,146,104,2e-08,69.4
Cladophialophora_australiensis_CBS112793,SRR2630167.34722244,100.00,33,0,0,1180,1212,8,40,3e-06,62.1
Cladophialophora_australiensis_CBS112793,SRR2630167.1866561,95.35,43,2,0,1326,1368,146,104,2e-08,69.4
Cladophialophora_australiensis_CBS112793,SRR2630167.1866561,100.00,33,0,0,1180,1212,8,40,3e-06,62.1
Cladophialophora_australiensis_CBS112793,SRR2630167.46563240,100.00,33,0,0,1180,1212,170,138,3e-06,62.1
Cladophialophora_australiensis_CBS112793,SRR2630167.46047042,100.00,33,0,0,1180,1212,51,83,3e-06,62.1
Cladophialophora_australiensis_CBS112793,SRR2630167.29161945,100.00,33,0,0,1180,1212,160,128,3e-06,62.1
Cladophialophora_australiensis_CBS112793,SRR2630167.21357376,100.00,33,0,0,1180,1212,160,128,3e-06,62.1
Cladophialophora_australiensis_CBS112793,SRR2630167.20703628,100.00,33,0,0,1180,1212,160,128,3e-06,62.1
Cladophialophora_australiensis_CBS112793,SRR2630167.18020641,100.00,33,0,0,1180,1212,13,45,3e-06,62.1
Cladophialophora_australiensis_CBS112793,SRR2630167.16901768,100.00,33,0,0,1180,1212,34,2,3e-06,62.1
Cladophialophora_australiensis_CBS112793,SRR2630167.15223638,100.00,33,0,0,1180,1212,51,83,3e-06,62.1
Cladophialophora_australiensis_CBS112793,SRR2630167.4848645,100.00,33,0,0,1180,1212,51,83,3e-06,62.1
Cladophialophora_australiensis_CBS112793,SRR2630167.35582080,94.59,37,2,0,1326,1362,37,1,3e-05,58.4
Cladophialophora_australiensis_CBS112793,SRR2630167.41545109,100.00,29,0,0,1184,1212,102,130,4e-04,54.7
Cladophialophora_australiensis_CBS112793,SRR2630167.13913445,100.00,29,0,0,1184,1212,102,130,4e-04,54.7
Cladophialophora_australiensis_CBS112793,SRR2630167.12610438,100.00,29,0,0,1184,1212,102,130,4e-04,54.7
Cladophialophora_potulentorum_CBS112222,SRR2630167.13144364,93.94,99,6,0,1336,1434,104,202,6e-33,150
Cladophialophora_potulentorum_CBS112222,SRR2630167.41420361,93.07,101,7,0,1328,1428,1,101,2e-32,148
Cladophialophora_potulentorum_CBS112222,SRR2630167.10348650,92.78,97,7,0,1328,1424,197,101,3e-30,141
Cladophialophora_potulentorum_CBS112222,SRR2630167.23848770,92.71,96,7,0,1328,1423,7,102,1e-29,139
Cladophialophora_potulentorum_CBS112222,SRR2630167.12281639,92.63,95,7,0,1328,1422,7,101,4e-29,137
Cladophialophora_potulentorum_CBS112222,SRR2630167.48361018,92.55,94,7,0,1336,1429,104,197,2e-28,135
Cladophialophora_potulentorum_CBS112222,SRR2630167.36325669,92.39,92,7,0,1328,1419,92,1,2e-27,132
Cladophialophora_potulentorum_CBS112222,SRR2630167.22612757,89.42,104,10,1,1377,1479,99,202,7e-27,130
Cladophialophora_potulentorum_CBS112222,SRR2630167.12733747,89.42,104,10,1,1377,1479,99,202,7e-27,130
Cladophialophora_potulentorum_CBS112222,SRR2630167.48381280,93.02,86,6,0,1328,1413,184,99,9e-26,126
Cladophialophora_potulentorum_CBS112222,SRR2630167.36149890,93.02,86,6,0,1328,1413,184,99,9e-26,126
Cladophialophora_potulentorum_CBS112222,SRR2630167.51154820,95.35,43,2,0,1328,1370,50,8,2e-08,69.4
Cladophialophora_potulentorum_CBS112222,SRR2630167.42223556,95.35,43,2,0,1328,1370,146,104,2e-08,69.4
Cladophialophora_potulentorum_CBS112222,SRR2630167.42223556,93.18,44,3,0,1182,1225,8,51,2e-07,65.8
Cladophialophora_potulentorum_CBS112222,SRR2630167.34722244,95.35,43,2,0,1328,1370,146,104,2e-08,69.4
Cladophialophora_potulentorum_CBS112222,SRR2630167.34722244,93.18,44,3,0,1182,1225,8,51,2e-07,65.8
Cladophialophora_potulentorum_CBS112222,SRR2630167.1866561,95.35,43,2,0,1328,1370,146,104,2e-08,69.4
Cladophialophora_potulentorum_CBS112222,SRR2630167.1866561,93.18,44,3,0,1182,1225,8,51,2e-07,65.8
Cladophialophora_potulentorum_CBS112222,SRR2630167.46563240,93.18,44,3,0,1182,1225,170,127,2e-07,65.8
Cladophialophora_potulentorum_CBS112222,SRR2630167.46047042,93.18,44,3,0,1182,1225,51,94,2e-07,65.8
Cladophialophora_potulentorum_CBS112222,SRR2630167.29161945,93.18,44,3,0,1182,1225,160,117,2e-07,65.8
Cladophialophora_potulentorum_CBS112222,SRR2630167.21357376,93.18,44,3,0,1182,1225,160,117,2e-07,65.8
Cladophialophora_potulentorum_CBS112222,SRR2630167.20703628,93.18,44,3,0,1182,1225,160,117,2e-07,65.8
Cladophialophora_potulentorum_CBS112222,SRR2630167.18020641,93.18,44,3,0,1182,1225,13,56,2e-07,65.8
Cladophialophora_potulentorum_CBS112222,SRR2630167.15223638,93.18,44,3,0,1182,1225,51,94,2e-07,65.8
Cladophialophora_potulentorum_CBS112222,SRR2630167.4848645,93.18,44,3,0,1182,1225,51,94,2e-07,65.8
Cladophialophora_potulentorum_CBS112222,SRR2630167.16901768,100.00,33,0,0,1182,1214,34,2,3e-06,62.1
Cladophialophora_potulentorum_CBS112222,SRR2630167.41545109,92.50,40,3,0,1186,1225,102,141,3e-05,58.4
Cladophialophora_potulentorum_CBS112222,SRR2630167.35582080,94.59,37,2,0,1328,1364,37,1,3e-05,58.4
Cladophialophora_potulentorum_CBS112222,SRR2630167.13913445,92.50,40,3,0,1186,1225,102,141,3e-05,58.4
Cladophialophora_potulentorum_CBS112222,SRR2630167.12610438,92.50,40,3,0,1186,1225,102,141,3e-05,58.4
Cladophialophora_chaetospira_CBS127573,SRR2630167.50111989,97.14,35,1,0,379,413,141,175,6e-06,60.2
Cladophialophora_chaetospira_CBS127573,SRR2630167.49147979,97.14,35,1,0,379,413,37,3,6e-06,60.2
Cladophialophora_chaetospira_CBS127573,SRR2630167.44142563,97.14,35,1,0,379,413,72,38,6e-06,60.2
Cladophialophora_chaetospira_CBS127573,SRR2630167.40951096,97.14,35,1,0,379,413,54,88,6e-06,60.2
Cladophialophora_chaetospira_CBS127573,SRR2630167.6965939,97.14,35,1,0,379,413,112,146,6e-06,60.2
Cladophialophora_chaetospira_CBS127573,SRR2630167.2556276,97.14,35,1,0,379,413,37,3,6e-06,60.2
Cladophialophora_chaetospira_CBS127573,SRR2630167.46537670,100.00,31,0,0,379,409,184,154,2e-05,58.4
Cladophialophora_chaetospira_CBS127573,SRR2630167.25085628,100.00,31,0,0,379,409,184,154,2e-05,58.4
Cladophialophora_chaetospira_CBS127573,SRR2630167.17076081,100.00,31,0,0,379,409,184,154,2e-05,58.4
Cladophialophora_chaetospira_CBS127573,SRR2630167.10294167,100.00,31,0,0,379,409,133,103,2e-05,58.4
Cladophialophora_chaetospira_CBS127573,SRR2630167.9425267,100.00,31,0,0,379,409,184,154,2e-05,58.4
Cladophialophora_chaetospira_CBS127573,SRR2630167.8038025,100.00,31,0,0,379,409,184,154,2e-05,58.4
Cladophialophora_chaetospira_CBS127573,SRR2630167.5548013,100.00,31,0,0,379,409,169,199,2e-05,58.4
Cladophialophora_chaetospira_CBS127573,SRR2630167.1526817,100.00,31,0,0,379,409,169,199,2e-05,58.4
Cladophialophora_chaetospira_CBS127573,SRR2630167.5492792,100.00,30,0,0,379,408,83,54,8e-05,56.5
Phialophora_americana_CBS400.67,SRR2630167.13144364,93.94,99,6,0,1328,1426,104,202,5e-33,150
Phialophora_americana_CBS400.67,SRR2630167.41420361,93.07,101,7,0,1320,1420,1,101,2e-32,148
Phialophora_americana_CBS400.67,SRR2630167.10348650,92.78,97,7,0,1320,1416,197,101,3e-30,141
Phialophora_americana_CBS400.67,SRR2630167.23848770,92.71,96,7,0,1320,1415,7,102,1e-29,139
Phialophora_americana_CBS400.67,SRR2630167.12281639,92.63,95,7,0,1320,1414,7,101,4e-29,137
Phialophora_americana_CBS400.67,SRR2630167.48361018,92.55,94,7,0,1328,1421,104,197,1e-28,135
Phialophora_americana_CBS400.67,SRR2630167.36325669,92.39,92,7,0,1320,1411,92,1,2e-27,132
Phialophora_americana_CBS400.67,SRR2630167.48381280,93.02,86,6,0,1320,1405,184,99,9e-26,126
Phialophora_americana_CBS400.67,SRR2630167.36149890,93.02,86,6,0,1320,1405,184,99,9e-26,126
Phialophora_americana_CBS400.67,SRR2630167.22612757,89.61,77,8,0,1369,1445,99,175,2e-17,99.0
Phialophora_americana_CBS400.67,SRR2630167.12733747,89.61,77,8,0,1369,1445,99,175,2e-17,99.0
Phialophora_americana_CBS400.67,SRR2630167.46563240,95.45,44,2,0,1174,1217,170,127,4e-09,71.3
Phialophora_americana_CBS400.67,SRR2630167.46047042,95.45,44,2,0,1174,1217,51,94,4e-09,71.3
Phialophora_americana_CBS400.67,SRR2630167.42223556,95.45,44,2,0,1174,1217,8,51,4e-09,71.3
Phialophora_americana_CBS400.67,SRR2630167.42223556,95.35,43,2,0,1320,1362,146,104,2e-08,69.4
Phialophora_americana_CBS400.67,SRR2630167.34722244,95.45,44,2,0,1174,1217,8,51,4e-09,71.3
Phialophora_americana_CBS400.67,SRR2630167.34722244,95.35,43,2,0,1320,1362,146,104,2e-08,69.4
Phialophora_americana_CBS400.67,SRR2630167.29161945,95.45,44,2,0,1174,1217,160,117,4e-09,71.3
Phialophora_americana_CBS400.67,SRR2630167.21357376,95.45,44,2,0,1174,1217,160,117,4e-09,71.3
Phialophora_americana_CBS400.67,SRR2630167.20703628,95.45,44,2,0,1174,1217,160,117,4e-09,71.3
Phialophora_americana_CBS400.67,SRR2630167.18020641,95.45,44,2,0,1174,1217,13,56,4e-09,71.3
Phialophora_americana_CBS400.67,SRR2630167.15223638,95.45,44,2,0,1174,1217,51,94,4e-09,71.3
Phialophora_americana_CBS400.67,SRR2630167.4848645,95.45,44,2,0,1174,1217,51,94,4e-09,71.3
Phialophora_americana_CBS400.67,SRR2630167.1866561,95.45,44,2,0,1174,1217,8,51,4e-09,71.3
Phialophora_americana_CBS400.67,SRR2630167.1866561,95.35,43,2,0,1320,1362,146,104,2e-08,69.4
Phialophora_americana_CBS400.67,SRR2630167.51154820,95.35,43,2,0,1320,1362,50,8,2e-08,69.4
Phialophora_americana_CBS400.67,SRR2630167.41545109,95.00,40,2,0,1178,1217,102,141,7e-07,63.9
Phialophora_americana_CBS400.67,SRR2630167.16901768,100.00,34,0,0,1174,1207,34,1,7e-07,63.9
Phialophora_americana_CBS400.67,SRR2630167.13913445,95.00,40,2,0,1178,1217,102,141,7e-07,63.9
Phialophora_americana_CBS400.67,SRR2630167.12610438,95.00,40,2,0,1178,1217,102,141,7e-07,63.9
Phialophora_americana_CBS400.67,SRR2630167.35582080,94.59,37,2,0,1320,1356,37,1,3e-05,58.4
Cyphellophora_laciniata_CBS190.61_T,SRR2630167.50111989,96.97,66,2,0,39,104,110,175,1e-21,111
Cyphellophora_laciniata_CBS190.61_T,SRR2630167.49147979,96.97,66,2,0,39,104,68,3,1e-21,111
Cyphellophora_laciniata_CBS190.61_T,SRR2630167.40951096,96.97,66,2,0,39,104,23,88,1e-21,111
Cyphellophora_laciniata_CBS190.61_T,SRR2630167.2556276,96.97,66,2,0,39,104,68,3,1e-21,111
Cyphellophora_laciniata_CBS190.61_T,SRR2630167.5548013,96.92,65,2,0,39,103,138,202,5e-21,110
Cyphellophora_laciniata_CBS190.61_T,SRR2630167.1526817,96.92,65,2,0,39,103,138,202,5e-21,110
Cyphellophora_laciniata_CBS190.61_T,SRR2630167.44142563,96.88,64,2,0,41,104,101,38,2e-20,108
Cyphellophora_laciniata_CBS190.61_T,SRR2630167.10294167,96.83,63,2,0,39,101,164,102,6e-20,106
Cyphellophora_laciniata_CBS190.61_T,SRR2630167.46537670,100.00,49,0,0,55,103,199,151,2e-15,91.6
Cyphellophora_laciniata_CBS190.61_T,SRR2630167.25085628,100.00,49,0,0,55,103,199,151,2e-15,91.6
Cyphellophora_laciniata_CBS190.61_T,SRR2630167.17076081,100.00,49,0,0,55,103,199,151,2e-15,91.6
Cyphellophora_laciniata_CBS190.61_T,SRR2630167.9425267,100.00,49,0,0,55,103,199,151,2e-15,91.6
Cyphellophora_laciniata_CBS190.61_T,SRR2630167.8038025,100.00,49,0,0,55,103,199,151,2e-15,91.6
Cyphellophora_laciniata_CBS190.61_T,SRR2630167.5492792,97.96,49,1,0,55,103,98,50,8e-14,86.1
Cyphellophora_laciniata_CBS190.61_T,SRR2630167.6965939,100.00,45,0,0,60,104,102,146,3e-13,84.2
Cyphellophora_laciniata_CBS190.61_T,SRR2630167.41059403,95.83,48,2,0,39,86,48,1,1e-11,78.7
Cyphellophora_laciniata_CBS190.61_T,SRR2630167.17190461,95.83,48,2,0,39,86,48,1,1e-11,78.7
Cyphellophora_laciniata_CBS190.61_T,SRR2630167.4053734,95.83,48,2,0,39,86,48,1,1e-11,78.7
Cyphellophora_laciniata_CBS190.61_T,SRR2630167.46130286,95.74,47,2,0,39,85,156,202,5e-11,76.8
Cyphellophora_laciniata_CBS190.61_T,SRR2630167.12742998,95.74,47,2,0,39,85,156,202,5e-11,76.8
Cyphellophora_laciniata_CBS190.61_T,SRR2630167.3128070,95.74,47,2,0,39,85,156,202,5e-11,76.8
