Exophiala_brunnea_CBS,SRR9417675.25118830,100.00,40,0,0,1,40,183,144,9e-11,75.0
Exophiala_brunnea_CBS,SRR9417675.28140584,95.65,46,1,1,1,46,44,88,3e-10,73.1
Exophiala_brunnea_CBS,SRR9417675.9472406,95.65,46,1,1,1,46,44,88,3e-10,73.1
Exophiala_dermatitidis_CBS748.88,SRR9417675.8132564,92.63,95,7,0,1373,1467,100,6,3e-29,137
Exophiala_dermatitidis_CBS748.88,SRR9417675.8132564,86.57,67,9,0,1350,1416,133,199,2e-10,75.0
Exophiala_dermatitidis_CBS748.88,SRR9417675.12688337,91.49,94,7,1,1350,1443,194,102,2e-26,128
Exophiala_dermatitidis_CBS748.88,SRR9417675.26857574,89.00,100,11,0,1367,1466,200,101,2e-25,124
Exophiala_dermatitidis_CBS748.88,SRR9417675.26857574,89.19,74,8,0,1350,1423,29,102,6e-16,93.5
Exophiala_dermatitidis_CBS748.88,SRR9417675.5358161,88.66,97,11,0,1408,1504,104,200,1e-23,119
Exophiala_dermatitidis_CBS748.88,SRR9417675.32049297,89.01,91,10,0,1414,1504,102,192,5e-22,113
Exophiala_dermatitidis_CBS748.88,SRR9417675.32049297,89.04,73,8,0,1431,1503,102,30,2e-15,91.6
Exophiala_dermatitidis_CBS748.88,SRR9417675.19534754,87.63,97,12,0,1371,1467,101,5,5e-22,113
Exophiala_dermatitidis_CBS748.88,SRR9417675.19534754,95.35,43,2,0,1358,1400,160,202,1e-08,69.4
Exophiala_dermatitidis_CBS748.88,SRR9417675.27059183,89.66,87,9,0,870,956,116,202,2e-21,111
Exophiala_dermatitidis_CBS748.88,SRR9417675.22279865,89.66,87,9,0,870,956,116,202,2e-21,111
Exophiala_dermatitidis_CBS748.88,SRR9417675.12834411,90.41,73,7,0,1432,1504,101,173,5e-17,97.1
Exophiala_dermatitidis_CBS748.88,SRR9417675.17141173,96.23,53,2,0,1211,1263,53,1,3e-14,87.9
Exophiala_dermatitidis_CBS748.88,SRR9417675.27958685,97.83,46,1,0,1210,1255,30,75,5e-12,80.5
Exophiala_dermatitidis_CBS748.88,SRR9417675.27958685,97.56,41,1,0,1215,1255,202,162,3e-09,71.3
Exophiala_dermatitidis_CBS748.88,SRR9417675.22793439,97.83,46,1,0,1210,1255,30,75,5e-12,80.5
Exophiala_dermatitidis_CBS748.88,SRR9417675.22793439,97.56,41,1,0,1215,1255,202,162,3e-09,71.3
Exophiala_dermatitidis_CBS748.88,SRR9417675.18941258,97.83,46,1,0,1210,1255,30,75,5e-12,80.5
Exophiala_dermatitidis_CBS748.88,SRR9417675.18941258,97.56,41,1,0,1215,1255,202,162,3e-09,71.3
Exophiala_dermatitidis_CBS748.88,SRR9417675.4123466,97.83,46,1,0,1210,1255,30,75,5e-12,80.5
Exophiala_dermatitidis_CBS748.88,SRR9417675.4123466,97.56,41,1,0,1215,1255,202,162,3e-09,71.3
Exophiala_dermatitidis_CBS748.88,SRR9417675.14269421,92.45,53,4,0,1452,1504,87,35,6e-11,76.8
Exophiala_dermatitidis_CBS748.88,SRR9417675.14269421,92.45,53,4,0,1452,1504,102,154,6e-11,76.8
Exophiala_dermatitidis_CBS748.88,SRR9417675.23014318,95.45,44,2,0,1212,1255,49,92,3e-09,71.3
Exophiala_dermatitidis_CBS748.88,SRR9417675.18905555,100.00,37,0,0,1210,1246,138,102,1e-08,69.4
Exophiala_dermatitidis_CBS748.88,SRR9417675.11812071,85.94,64,8,1,1210,1272,40,103,4e-08,67.6
Exophiala_dermatitidis_CBS748.88,SRR9417675.11806079,85.94,64,8,1,1210,1272,40,103,4e-08,67.6
Exophiala_salmonis_CBS157.67_T,SRR9417675.30022097,92.50,40,3,0,83,122,172,133,1e-05,58.4
Exophiala_salmonis_CBS157.67_T,SRR9417675.4040644,92.50,40,3,0,83,122,49,88,1e-05,58.4
Exophiala_salmonis_CBS157.67_T,SRR9417675.4040644,92.50,40,3,0,83,122,185,146,1e-05,58.4
Exophiala_salmonis_CBS157.67_T,SRR9417675.1066911,92.50,40,3,0,83,122,49,88,1e-05,58.4
Exophiala_salmonis_CBS157.67_T,SRR9417675.1066911,92.50,40,3,0,83,122,185,146,1e-05,58.4
Exophiala_salmonis_CBS157.67_T,SRR9417675.28140584,100.00,28,0,0,95,122,23,50,5e-04,52.8
Exophiala_salmonis_CBS157.67_T,SRR9417675.9472406,100.00,28,0,0,95,122,23,50,5e-04,52.8
Exophiala_tremulae_CBS129355,SRR9417675.25118830,100.00,40,0,0,1,40,183,144,9e-11,75.0
Exophiala_tremulae_CBS129355,SRR9417675.28140584,95.65,46,1,1,1,46,44,88,3e-10,73.1
Exophiala_tremulae_CBS129355,SRR9417675.9472406,95.65,46,1,1,1,46,44,88,3e-10,73.1
Rhinocladiella_atrovirens_CBS264.49,SRR9417675.28140584,96.08,51,1,1,1,51,39,88,5e-13,82.4
Rhinocladiella_atrovirens_CBS264.49,SRR9417675.25118830,100.00,44,0,0,1,44,188,145,5e-13,82.4
Rhinocladiella_atrovirens_CBS264.49,SRR9417675.9472406,96.08,51,1,1,1,51,39,88,5e-13,82.4
Veronaea_compacta_CBS268.75_T,SRR9417675.25118830,100.00,28,0,0,1,28,171,144,4e-04,52.8
Capronia_pilosella_AFTOL-ID657,SRR9417675.25118830,100.00,28,0,0,80,107,170,143,5e-04,52.8
Capronia_kleinmondensis_CBS122671_T,SRR9417675.28140584,94.59,37,1,1,1,37,53,88,3e-05,56.5
Capronia_kleinmondensis_CBS122671_T,SRR9417675.25118830,100.00,30,0,0,1,30,174,145,3e-05,56.5
Capronia_kleinmondensis_CBS122671_T,SRR9417675.9472406,94.59,37,1,1,1,37,53,88,3e-05,56.5
Veronaea_japonica_CBS776.83_T,SRR9417675.25118830,100.00,39,0,0,1,39,182,144,3e-10,73.1
Veronaea_japonica_CBS776.83_T,SRR9417675.28140584,95.56,45,1,1,1,45,45,88,1e-09,71.3
Veronaea_japonica_CBS776.83_T,SRR9417675.9472406,95.56,45,1,1,1,45,45,88,1e-09,71.3
Fonsecaea_pedrosoi_CBS271.37_T,SRR9417675.25118830,100.00,31,0,0,1,31,174,144,9e-06,58.4
Fonsecaea_pedrosoi_CBS271.37_T,SRR9417675.28140584,100.00,30,0,0,1,30,53,82,3e-05,56.5
Fonsecaea_pedrosoi_CBS271.37_T,SRR9417675.9472406,100.00,30,0,0,1,30,53,82,3e-05,56.5
Cladophialophora_australiensis_CBS112793,SRR9417675.8132564,92.63,95,7,0,1340,1434,100,6,3e-29,137
Cladophialophora_australiensis_CBS112793,SRR9417675.8132564,86.57,67,9,0,1317,1383,133,199,2e-10,75.0
Cladophialophora_australiensis_CBS112793,SRR9417675.12688337,91.49,94,7,1,1317,1410,194,102,2e-26,128
Cladophialophora_australiensis_CBS112793,SRR9417675.26857574,89.00,100,11,0,1334,1433,200,101,2e-25,124
Cladophialophora_australiensis_CBS112793,SRR9417675.26857574,89.19,74,8,0,1317,1390,29,102,6e-16,93.5
Cladophialophora_australiensis_CBS112793,SRR9417675.5358161,88.66,97,11,0,1375,1471,104,200,1e-23,119
Cladophialophora_australiensis_CBS112793,SRR9417675.32049297,89.01,91,10,0,1381,1471,102,192,5e-22,113
Cladophialophora_australiensis_CBS112793,SRR9417675.32049297,89.04,73,8,0,1398,1470,102,30,2e-15,91.6
Cladophialophora_australiensis_CBS112793,SRR9417675.19534754,87.63,97,12,0,1338,1434,101,5,5e-22,113
Cladophialophora_australiensis_CBS112793,SRR9417675.19534754,97.67,43,1,0,1325,1367,160,202,2e-10,75.0
Cladophialophora_australiensis_CBS112793,SRR9417675.27059183,89.66,87,9,0,840,926,116,202,2e-21,111
Cladophialophora_australiensis_CBS112793,SRR9417675.22279865,89.66,87,9,0,840,926,116,202,2e-21,111
Cladophialophora_australiensis_CBS112793,SRR9417675.12834411,90.41,73,7,0,1399,1471,101,173,5e-17,97.1
Cladophialophora_australiensis_CBS112793,SRR9417675.17141173,92.45,53,4,0,1178,1230,53,1,6e-11,76.8
Cladophialophora_australiensis_CBS112793,SRR9417675.14269421,92.45,53,4,0,1419,1471,87,35,6e-11,76.8
Cladophialophora_australiensis_CBS112793,SRR9417675.14269421,92.45,53,4,0,1419,1471,102,154,6e-11,76.8
Cladophialophora_australiensis_CBS112793,SRR9417675.27958685,93.48,46,3,0,1177,1222,30,75,1e-08,69.4
Cladophialophora_australiensis_CBS112793,SRR9417675.27958685,92.68,41,3,0,1182,1222,202,162,6e-06,60.2
Cladophialophora_australiensis_CBS112793,SRR9417675.22793439,93.48,46,3,0,1177,1222,30,75,1e-08,69.4
Cladophialophora_australiensis_CBS112793,SRR9417675.22793439,92.68,41,3,0,1182,1222,202,162,6e-06,60.2
Cladophialophora_australiensis_CBS112793,SRR9417675.18941258,93.48,46,3,0,1177,1222,30,75,1e-08,69.4
Cladophialophora_australiensis_CBS112793,SRR9417675.18941258,92.68,41,3,0,1182,1222,202,162,6e-06,60.2
Cladophialophora_australiensis_CBS112793,SRR9417675.4123466,93.48,46,3,0,1177,1222,30,75,1e-08,69.4
Cladophialophora_australiensis_CBS112793,SRR9417675.4123466,92.68,41,3,0,1182,1222,202,162,6e-06,60.2
Cladophialophora_australiensis_CBS112793,SRR9417675.18905555,100.00,36,0,0,1177,1212,138,103,4e-08,67.6
Cladophialophora_australiensis_CBS112793,SRR9417675.11812071,85.94,64,8,1,1177,1239,40,103,4e-08,67.6
Cladophialophora_australiensis_CBS112793,SRR9417675.11806079,85.94,64,8,1,1177,1239,40,103,4e-08,67.6
Cladophialophora_australiensis_CBS112793,SRR9417675.23014318,90.91,44,4,0,1179,1222,49,92,6e-06,60.2
Cladophialophora_potulentorum_CBS112222,SRR9417675.8132564,92.63,95,7,0,1342,1436,100,6,3e-29,137
Cladophialophora_potulentorum_CBS112222,SRR9417675.8132564,86.57,67,9,0,1319,1385,133,199,2e-10,75.0
Cladophialophora_potulentorum_CBS112222,SRR9417675.12688337,91.49,94,7,1,1319,1412,194,102,2e-26,128
Cladophialophora_potulentorum_CBS112222,SRR9417675.32049297,89.11,101,11,0,1383,1483,102,202,6e-26,126
Cladophialophora_potulentorum_CBS112222,SRR9417675.32049297,88.76,89,10,0,1400,1488,102,14,6e-21,110
Cladophialophora_potulentorum_CBS112222,SRR9417675.26857574,89.00,100,11,0,1336,1435,200,101,2e-25,124
Cladophialophora_potulentorum_CBS112222,SRR9417675.26857574,89.19,74,8,0,1319,1392,29,102,6e-16,93.5
Cladophialophora_potulentorum_CBS112222,SRR9417675.5358161,88.89,99,11,0,1377,1475,104,202,8e-25,122
Cladophialophora_potulentorum_CBS112222,SRR9417675.19822876,91.76,85,7,0,1409,1493,3,87,1e-23,119
Cladophialophora_potulentorum_CBS112222,SRR9417675.12834411,90.91,88,8,0,1401,1488,101,188,1e-23,119
Cladophialophora_potulentorum_CBS112222,SRR9417675.2839084,91.76,85,7,0,1409,1493,3,87,1e-23,119
Cladophialophora_potulentorum_CBS112222,SRR9417675.19534754,87.63,97,12,0,1340,1436,101,5,5e-22,113
Cladophialophora_potulentorum_CBS112222,SRR9417675.19534754,97.67,43,1,0,1327,1369,160,202,2e-10,75.0
Cladophialophora_potulentorum_CBS112222,SRR9417675.27059183,89.66,87,9,0,842,928,116,202,2e-21,111
Cladophialophora_potulentorum_CBS112222,SRR9417675.22279865,89.66,87,9,0,842,928,116,202,2e-21,111
Cladophialophora_potulentorum_CBS112222,SRR9417675.14269421,92.65,68,5,0,1421,1488,87,20,1e-17,99.0
Cladophialophora_potulentorum_CBS112222,SRR9417675.14269421,92.65,68,5,0,1421,1488,102,169,1e-17,99.0
Cladophialophora_potulentorum_CBS112222,SRR9417675.17141173,94.34,53,3,0,1180,1232,53,1,1e-12,82.4
Cladophialophora_potulentorum_CBS112222,SRR9417675.27958685,95.65,46,2,0,1179,1224,30,75,2e-10,75.0
Cladophialophora_potulentorum_CBS112222,SRR9417675.27958685,95.12,41,2,0,1184,1224,202,162,1e-07,65.8
Cladophialophora_potulentorum_CBS112222,SRR9417675.22793439,95.65,46,2,0,1179,1224,30,75,2e-10,75.0
Cladophialophora_potulentorum_CBS112222,SRR9417675.22793439,95.12,41,2,0,1184,1224,202,162,1e-07,65.8
Cladophialophora_potulentorum_CBS112222,SRR9417675.18941258,95.65,46,2,0,1179,1224,30,75,2e-10,75.0
Cladophialophora_potulentorum_CBS112222,SRR9417675.18941258,95.12,41,2,0,1184,1224,202,162,1e-07,65.8
Cladophialophora_potulentorum_CBS112222,SRR9417675.4123466,95.65,46,2,0,1179,1224,30,75,2e-10,75.0
Cladophialophora_potulentorum_CBS112222,SRR9417675.4123466,95.12,41,2,0,1184,1224,202,162,1e-07,65.8
Cladophialophora_potulentorum_CBS112222,SRR9417675.18905555,100.00,36,0,0,1179,1214,138,103,4e-08,67.6
Cladophialophora_potulentorum_CBS112222,SRR9417675.23014318,93.18,44,3,0,1181,1224,49,92,1e-07,65.8
Cladophialophora_potulentorum_CBS112222,SRR9417675.11812071,84.38,64,9,1,1179,1241,40,103,2e-06,62.1
Cladophialophora_potulentorum_CBS112222,SRR9417675.11806079,84.38,64,9,1,1179,1241,40,103,2e-06,62.1
Cladophialophora_chaetospira_CBS127573,SRR9417675.25118830,100.00,32,0,0,379,410,175,144,4e-06,60.2
Cladophialophora_chaetospira_CBS127573,SRR9417675.28140584,94.74,38,1,1,379,416,52,88,1e-05,58.4
Cladophialophora_chaetospira_CBS127573,SRR9417675.9472406,94.74,38,1,1,379,416,52,88,1e-05,58.4
Phialophora_americana_CBS400.67,SRR9417675.8132564,92.63,95,7,0,1334,1428,100,6,3e-29,137
Phialophora_americana_CBS400.67,SRR9417675.8132564,86.57,67,9,0,1311,1377,133,199,2e-10,75.0
Phialophora_americana_CBS400.67,SRR9417675.12688337,91.49,94,7,1,1311,1404,194,102,2e-26,128
Phialophora_americana_CBS400.67,SRR9417675.26857574,89.00,100,11,0,1328,1427,200,101,2e-25,124
Phialophora_americana_CBS400.67,SRR9417675.26857574,89.19,74,8,0,1311,1384,29,102,6e-16,93.5
Phialophora_americana_CBS400.67,SRR9417675.27059183,90.80,87,8,0,834,920,116,202,3e-23,117
Phialophora_americana_CBS400.67,SRR9417675.22279865,90.80,87,8,0,834,920,116,202,3e-23,117
Phialophora_americana_CBS400.67,SRR9417675.19534754,87.63,97,12,0,1332,1428,101,5,4e-22,113
Phialophora_americana_CBS400.67,SRR9417675.19534754,95.35,43,2,0,1319,1361,160,202,1e-08,69.4
Phialophora_americana_CBS400.67,SRR9417675.17141173,96.23,53,2,0,1172,1224,53,1,3e-14,87.9
Phialophora_americana_CBS400.67,SRR9417675.27958685,97.83,46,1,0,1171,1216,30,75,5e-12,80.5
Phialophora_americana_CBS400.67,SRR9417675.27958685,97.56,41,1,0,1176,1216,202,162,3e-09,71.3
Phialophora_americana_CBS400.67,SRR9417675.22793439,97.83,46,1,0,1171,1216,30,75,5e-12,80.5
Phialophora_americana_CBS400.67,SRR9417675.22793439,97.56,41,1,0,1176,1216,202,162,3e-09,71.3
Phialophora_americana_CBS400.67,SRR9417675.18941258,97.83,46,1,0,1171,1216,30,75,5e-12,80.5
Phialophora_americana_CBS400.67,SRR9417675.18941258,97.56,41,1,0,1176,1216,202,162,3e-09,71.3
Phialophora_americana_CBS400.67,SRR9417675.4123466,97.83,46,1,0,1171,1216,30,75,5e-12,80.5
Phialophora_americana_CBS400.67,SRR9417675.4123466,97.56,41,1,0,1176,1216,202,162,3e-09,71.3
Phialophora_americana_CBS400.67,SRR9417675.23014318,95.45,44,2,0,1173,1216,49,92,3e-09,71.3
Phialophora_americana_CBS400.67,SRR9417675.18905555,100.00,37,0,0,1171,1207,138,102,1e-08,69.4
Phialophora_americana_CBS400.67,SRR9417675.11812071,85.94,64,8,1,1171,1233,40,103,4e-08,67.6
Phialophora_americana_CBS400.67,SRR9417675.11806079,85.94,64,8,1,1171,1233,40,103,4e-08,67.6
Cyphellophora_laciniata_CBS190.61_T,SRR9417675.28140584,97.01,67,1,1,41,107,23,88,8e-22,111
Cyphellophora_laciniata_CBS190.61_T,SRR9417675.9472406,97.01,67,1,1,41,107,23,88,8e-22,111
Cyphellophora_laciniata_CBS190.61_T,SRR9417675.4040644,92.31,78,6,0,29,106,185,108,8e-22,111
Cyphellophora_laciniata_CBS190.61_T,SRR9417675.4040644,91.38,58,4,1,29,86,49,105,8e-12,78.7
Cyphellophora_laciniata_CBS190.61_T,SRR9417675.1066911,91.03,78,7,0,29,106,185,108,4e-20,106
Cyphellophora_laciniata_CBS190.61_T,SRR9417675.1066911,91.38,58,4,1,29,86,49,105,8e-12,78.7
Cyphellophora_laciniata_CBS190.61_T,SRR9417675.30022097,91.55,71,6,0,29,99,172,102,6e-18,99.0
Cyphellophora_laciniata_CBS190.61_T,SRR9417675.25118830,96.55,58,2,0,43,100,202,145,2e-17,97.1
