Exophiala_nigra_CBS535.94_T,SRR4417703.23079,95.65,46,2,0,201,246,210,255,5e-13,75.0
Exophiala_spinifera_CBS899.68_T,SRR4417703.23079,95.65,46,2,0,198,243,210,255,5e-13,75.0
Exophiala_exophialae_CBS668.76_T,SRR4417703.23079,95.65,46,2,0,199,244,210,255,5e-13,75.0
Exophiala_polymorpha_CBS138920_T,SRR4417703.23079,95.65,46,2,0,301,346,210,255,6e-13,75.0
Exophiala_polymorpha_CBS138920_T,SRR4417703.31050,97.50,40,1,0,655,694,299,260,3e-11,69.4
Exophiala_oligosperma_CBS725.88_T,SRR4417703.23079,95.65,46,2,0,211,256,210,255,5e-13,75.0
Exophiala_jeanselmei_CBS507.90_T,SRR4417703.31050,97.92,48,1,0,557,604,299,252,9e-16,84.2
Exophiala_jeanselmei_CBS507.90_T,SRR4417703.23079,89.83,59,5,1,191,248,197,255,5e-13,75.0
Exophiala_jeanselmei_CBS507.90_T,SRR4417703.44889,91.67,48,4,0,557,604,299,252,9e-11,67.6
Exophiala_bergeri_CBS353.52,SRR4417703.23079,95.65,46,2,0,164,209,210,255,4e-13,75.0
Exophiala_moniliae_CBS520.76_T,SRR4417703.23079,95.65,46,2,0,201,246,210,255,5e-13,75.0
Exophiala_pisciphila_CBS537.73_T,SRR4417703.31050,95.83,48,2,0,566,613,299,252,4e-14,78.7
Exophiala_pisciphila_CBS537.73_T,SRR4417703.23079,86.49,74,7,3,177,249,184,255,4e-14,78.7
Exophiala_pisciphila_CBS537.73_T,SRR4417703.44889,100.00,35,0,0,579,613,286,252,3e-10,65.8
Exophiala_xenobiotica_CBS117642,SRR4417703.23079,95.65,46,2,0,196,241,210,255,5e-13,75.0
Exophiala_brunnea_CBS,SRR4417703.23079,88.73,71,8,0,1,71,30,100,7e-17,87.9
Exophiala_brunnea_CBS,SRR4417703.23079,95.65,46,2,0,232,277,210,255,5e-13,75.0
Exophiala_brunnea_CBS,SRR4417703.13673,100.00,39,0,0,1,39,30,68,2e-12,73.1
Exophiala_mesophila_CBS402.95_T,SRR4417703.31050,97.92,48,1,0,563,610,299,252,9e-16,84.2
Exophiala_mesophila_CBS402.95_T,SRR4417703.23079,95.65,46,2,0,194,239,210,255,6e-13,75.0
Exophiala_mesophila_CBS402.95_T,SRR4417703.44889,91.67,48,4,0,563,610,299,252,9e-11,67.6
Exophiala_castellanii_CBS158.58_T,SRR4417703.31050,97.92,48,1,0,562,609,299,252,9e-16,84.2
Exophiala_castellanii_CBS158.58_T,SRR4417703.23079,95.65,46,2,0,192,237,210,255,6e-13,75.0
Exophiala_castellanii_CBS158.58_T,SRR4417703.44889,91.67,48,4,0,562,609,299,252,9e-11,67.6
Exophiala_lecanii-corni_CBS123.33_T,SRR4417703.23079,95.65,46,2,0,215,260,210,255,5e-13,75.0
Exophiala_dermatitidis_CBS748.88,SRR4417703.31050,97.92,48,1,0,588,635,299,252,2e-15,84.2
Exophiala_dermatitidis_CBS748.88,SRR4417703.23079,95.65,46,1,1,208,252,210,255,5e-12,73.1
Exophiala_dermatitidis_CBS748.88,SRR4417703.44889,91.67,48,4,0,588,635,299,252,2e-10,67.6
Exophiala_angulospora_CBS482.92_T,SRR4417703.23079,95.65,46,2,0,198,243,210,255,5e-13,75.0
Exophiala_opportunistica_CBS109811_T,SRR4417703.23079,86.30,73,8,2,171,242,184,255,4e-14,78.7
Exophiala_salmonis_CBS157.67_T,SRR4417703.31050,95.83,48,2,0,686,733,299,252,5e-14,78.7
Exophiala_salmonis_CBS157.67_T,SRR4417703.23079,89.06,64,5,2,310,371,192,255,5e-14,78.7
Exophiala_salmonis_CBS157.67_T,SRR4417703.23079,100.00,36,0,0,87,122,1,36,1e-10,67.6
Exophiala_salmonis_CBS157.67_T,SRR4417703.13673,100.00,36,0,0,87,122,1,36,1e-10,67.6
Exophiala_salmonis_CBS157.67_T,SRR4417703.44889,100.00,35,0,0,699,733,286,252,4e-10,65.8
Exophiala_aquamarina_CBS119918_T,SRR4417703.23079,89.06,64,5,2,188,249,192,255,4e-14,78.7
Exophiala_cancerae_CBS120420_T,SRR4417703.31050,95.83,48,2,0,577,624,299,252,4e-14,78.7
Exophiala_cancerae_CBS120420_T,SRR4417703.23079,86.30,73,8,2,193,264,184,255,4e-14,78.7
Exophiala_cancerae_CBS120420_T,SRR4417703.44889,100.00,35,0,0,590,624,286,252,3e-10,65.8
Exophiala_cancerae_CBS120420_T,SRR4417703.27032,100.00,29,0,0,1,29,40,68,7e-07,54.7
Exophiala_tremulae_CBS129355,SRR4417703.23079,84.11,107,11,5,1,105,30,132,3e-20,99.0
Exophiala_tremulae_CBS129355,SRR4417703.23079,88.89,63,5,2,216,276,193,255,1e-13,76.8
Exophiala_tremulae_CBS129355,SRR4417703.13673,100.00,39,0,0,1,39,30,68,2e-12,73.1
Exophiala_equina_CBS116009,SRR4417703.23079,88.89,63,5,2,182,242,193,255,1e-13,76.8
Exophiala_alcalophila_CBS520.82_T,SRR4417703.23079,89.83,59,5,1,196,253,197,255,5e-13,75.0
Exophiala_crusticola_CBS119970_T,SRR4417703.23079,88.89,63,6,1,197,258,193,255,1e-13,76.8
Rhinocladiella_atrovirens_CBS264.49,SRR4417703.23079,84.82,112,12,3,1,111,25,132,5e-23,108
Rhinocladiella_atrovirens_CBS264.49,SRR4417703.23079,95.65,46,2,0,239,284,210,255,5e-13,75.0
Rhinocladiella_atrovirens_CBS264.49,SRR4417703.13673,100.00,45,0,0,1,45,25,69,9e-16,84.2
Rhinocladiella_basitona_CBS101460_T,SRR4417703.23079,95.65,46,2,0,198,243,210,255,5e-13,75.0
Rhinocladiella_phaeophora_CBS496.78_T,SRR4417703.23079,95.65,46,2,0,206,251,210,255,5e-13,75.0
Rhinocladiella_aquaspersa_CBS313.73_T,SRR4417703.23079,95.65,46,2,0,200,245,210,255,6e-13,75.0
Rhinocladiella_aquaspersa_CBS313.73_T,SRR4417703.31050,93.75,48,2,1,559,605,299,252,7e-12,71.3
Rhinocladiella_aquaspersa_CBS313.73_T,SRR4417703.44889,100.00,35,0,0,571,605,286,252,3e-10,65.8
Rhinocladiella_fasciculata_CBS132.86_T,SRR4417703.23079,81.00,100,12,4,1,97,42,137,2e-12,73.1
Rhinocladiella_fasciculata_CBS132.86_T,SRR4417703.13673,100.00,28,0,0,1,28,42,69,2e-06,52.8
Rhinocladiella_anceps_CBS181.65_T,SRR4417703.23079,95.65,46,2,0,198,243,210,255,5e-13,75.0
Rhinocladiella_mackenziei_CBS367.92,SRR4417703.23079,91.07,56,4,1,178,232,200,255,5e-13,75.0
Veronaea_compacta_CBS268.75_T,SRR4417703.23079,95.65,46,2,0,220,265,210,255,5e-13,75.0
Capronia_pilosella_AFTOL-ID657,SRR4417703.23079,86.49,74,6,4,273,343,183,255,5e-14,78.7
Capronia_dactylotricha_DAOM208471_T,SRR4417703.31050,95.83,48,2,0,571,618,299,252,4e-14,78.7
Capronia_dactylotricha_DAOM208471_T,SRR4417703.23079,95.65,46,2,0,200,245,210,255,6e-13,75.0
Capronia_dactylotricha_DAOM208471_T,SRR4417703.44889,100.00,35,0,0,584,618,286,252,3e-10,65.8
Capronia_kleinmondensis_CBS122671_T,SRR4417703.23079,82.65,98,12,3,1,97,39,132,3e-15,82.4
Capronia_kleinmondensis_CBS122671_T,SRR4417703.23079,95.65,46,2,0,225,270,210,255,6e-13,75.0
Capronia_kleinmondensis_CBS122671_T,SRR4417703.31050,95.83,48,2,0,577,624,299,252,4e-14,78.7
Capronia_kleinmondensis_CBS122671_T,SRR4417703.44889,100.00,35,0,0,590,624,286,252,3e-10,65.8
Capronia_kleinmondensis_CBS122671_T,SRR4417703.13673,100.00,31,0,0,1,31,39,69,6e-08,58.4
Capronia_mansonii_CBS101.67_T,SRR4417703.31050,97.92,48,1,0,581,628,299,252,9e-16,84.2
Capronia_mansonii_CBS101.67_T,SRR4417703.23079,95.65,46,2,0,211,256,210,255,6e-13,75.0
Capronia_mansonii_CBS101.67_T,SRR4417703.44889,91.67,48,4,0,581,628,299,252,1e-10,67.6
Capronia_munkii_DAOM216390_T,SRR4417703.31050,97.92,48,1,0,581,628,299,252,9e-16,84.2
Capronia_munkii_DAOM216390_T,SRR4417703.23079,85.53,76,7,3,182,256,183,255,2e-13,76.8
Capronia_munkii_DAOM216390_T,SRR4417703.44889,91.67,48,4,0,581,628,299,252,1e-10,67.6
Capronia_coronata_ATCC56201_T,SRR4417703.31050,97.92,48,1,0,552,599,299,252,9e-16,84.2
Capronia_coronata_ATCC56201_T,SRR4417703.23079,95.65,46,2,0,199,244,210,255,5e-13,75.0
Capronia_coronata_ATCC56201_T,SRR4417703.44889,91.67,48,4,0,552,599,299,252,9e-11,67.6
Capronia_parasitica_CBS123.88,SRR4417703.23079,91.67,60,4,1,192,250,196,255,3e-15,82.4
Capronia_parasitica_CBS123.88,SRR4417703.27032,94.44,36,1,1,196,231,217,251,7e-07,54.7
Veronaea_japonica_CBS776.83_T,SRR4417703.23079,97.73,44,1,0,1,44,31,74,1e-13,76.8
Veronaea_japonica_CBS776.83_T,SRR4417703.23079,95.65,46,2,0,233,278,210,255,5e-13,75.0
Veronaea_japonica_CBS776.83_T,SRR4417703.13673,100.00,38,0,0,1,38,31,68,7e-12,71.3
Thysanorea_papuana_CBS212.96_T,SRR4417703.23079,95.65,46,2,0,207,252,210,255,5e-13,75.0
Capronia_acutiseta_ATCC56428_T,SRR4417703.31050,95.83,48,2,0,551,598,299,252,4e-14,78.7
Capronia_acutiseta_ATCC56428_T,SRR4417703.23079,89.83,59,5,1,189,246,197,255,5e-13,75.0
Capronia_acutiseta_ATCC56428_T,SRR4417703.44889,100.00,35,0,0,564,598,286,252,3e-10,65.8
Fonsecaea_brasiliensis_CBS119710_T,SRR4417703.23079,95.65,46,2,0,207,252,210,255,5e-13,75.0
Fonsecaea_pedrosoi_CBS271.37_T,SRR4417703.31050,95.83,48,2,0,598,645,299,252,4e-14,78.7
Fonsecaea_pedrosoi_CBS271.37_T,SRR4417703.23079,95.65,46,2,0,235,280,210,255,5e-13,75.0
Fonsecaea_pedrosoi_CBS271.37_T,SRR4417703.23079,78.95,95,18,2,1,95,39,131,1e-09,63.9
Fonsecaea_pedrosoi_CBS271.37_T,SRR4417703.44889,89.58,48,5,0,598,645,299,252,4e-09,62.1
Fonsecaea_pedrosoi_CBS271.37_T,SRR4417703.13673,100.00,30,0,0,1,30,39,68,2e-07,56.5
Fonsecaea_multimorphosa_CBS980.96_T,SRR4417703.23079,95.65,46,2,0,205,250,210,255,5e-13,75.0
Fonsecaea_minima_CBS125760_T,SRR4417703.23079,95.65,46,2,0,201,246,210,255,5e-13,75.0
Fonsecaea_nubica_CBS269.64_T,SRR4417703.23079,95.65,46,2,0,212,257,210,255,5e-13,75.0
Fonsecaea_monophora_CBS269.37_T,SRR4417703.23079,95.65,46,2,0,212,257,210,255,5e-13,75.0
Fonsecaea_erecta_CBS125763_T,SRR4417703.23079,95.65,46,2,0,196,241,210,255,4e-13,75.0
Fonsecaea_pugnacius_CBS139214_T,SRR4417703.23079,95.65,46,2,0,205,250,210,255,5e-13,75.0
Cladophialophora_psammophila_CBS,SRR4417703.23079,95.65,46,2,0,211,256,210,255,5e-13,75.0
Cladophialophora_devriesii_CBS,SRR4417703.23079,95.65,46,2,0,207,252,210,255,4e-13,75.0
Cladophialophora_immunda_CBS834.96,SRR4417703.23079,95.65,46,2,0,209,254,210,255,5e-13,75.0
Cladophialophora_arxii_CBS306.94_T,SRR4417703.23079,95.65,46,2,0,211,256,210,255,5e-13,75.0
Cladophialophora_bantiana_CBS173.52,SRR4417703.23079,95.65,46,2,0,205,250,210,255,5e-13,75.0
Cladophialophora_emmonsii_CBS102594,SRR4417703.23079,95.65,46,2,0,196,241,210,255,5e-13,75.0
Cladophialophora_minourae_CBS556.83,SRR4417703.23079,85.33,75,9,2,175,249,183,255,1e-13,76.8
Cladophialophora_australiensis_CBS112793,SRR4417703.23079,91.53,59,5,0,193,251,197,255,8e-15,82.4
Cladophialophora_australiensis_CBS112793,SRR4417703.31050,95.83,48,2,0,559,606,299,252,1e-13,78.7
Cladophialophora_australiensis_CBS112793,SRR4417703.44889,89.58,48,5,0,559,606,299,252,1e-08,62.1
Cladophialophora_australiensis_CBS112793,SRR4417703.27032,90.24,41,3,1,193,232,211,251,6e-06,52.8
Cladophialophora_potulentorum_CBS112222,SRR4417703.31050,95.83,48,2,0,561,608,299,252,1e-13,78.7
Cladophialophora_potulentorum_CBS112222,SRR4417703.23079,86.30,73,8,2,180,250,183,255,1e-13,78.7
Cladophialophora_potulentorum_CBS112222,SRR4417703.44889,89.58,48,5,0,561,608,299,252,1e-08,62.1
Cladophialophora_matsushimae_CMRP1198,SRR4417703.23079,95.65,46,2,0,209,254,210,255,4e-13,75.0
Cladophialophora_mycetomatis_CBS122637,SRR4417703.23079,95.65,46,2,0,194,239,210,255,5e-13,75.0
Cladophialophora_chaetospira_CBS127573,SRR4417703.23079,83.67,98,12,3,379,475,38,132,3e-17,89.8
Cladophialophora_chaetospira_CBS127573,SRR4417703.13673,100.00,31,0,0,379,409,38,68,8e-08,58.4
Cladophialophora_boppii_CBS126.86_T,SRR4417703.23079,95.65,46,2,0,202,247,210,255,5e-13,75.0
Cladophialophora_abundans_CBS126736,SRR4417703.23079,95.65,46,2,0,139,184,210,255,4e-13,75.0
Capronia_semi-immersa_CBS102234,SRR4417703.23079,95.65,46,2,0,201,246,210,255,5e-13,75.0
Phialophora_americana_CBS400.67,SRR4417703.23079,85.33,75,9,2,174,248,183,255,3e-13,76.8
Phialophora_verrucosa_CBS140325_T,SRR4417703.23079,85.33,75,9,2,178,252,183,255,1e-13,76.8
Cladophialophora_samoensis_CBS259.83_T,SRR4417703.23079,95.65,46,2,0,207,252,210,255,5e-13,75.0
Cladophialophora_carrionii_CBS260.83,SRR4417703.23079,95.65,46,2,0,223,268,210,255,5e-13,75.0
Exophiala_palmae_UPCB86822_T,SRR4417703.23079,95.65,46,2,0,166,211,210,255,4e-13,75.0
Cladophialophora_yegresii_CBS114405_T,SRR4417703.23079,95.65,46,2,0,208,253,210,255,5e-13,75.0
Knufia_epidermidis_CBS120353_T,SRR4417703.23079,95.65,46,2,0,206,251,210,255,5e-13,75.0
Arthrocladium_fulminans_CBS136243_T,SRR4417703.23079,95.65,46,2,0,201,246,210,255,5e-13,75.0
Anthopsis_deltoidea_CBS263.77_T,SRR4417703.23079,95.65,46,2,0,210,255,210,255,4e-13,75.0
Cyphellophora_laciniata_CBS190.61_T,SRR4417703.23079,86.76,136,12,5,33,167,1,131,1e-34,147
Cyphellophora_laciniata_CBS190.61_T,SRR4417703.13673,100.00,69,0,0,33,101,1,69,5e-29,128
Cyphellophora_laciniata_CBS190.61_T,SRR4417703.31050,97.92,48,1,0,648,695,299,252,1e-15,84.2
Cyphellophora_laciniata_CBS190.61_T,SRR4417703.44889,91.67,48,4,0,648,695,299,252,1e-10,67.6
Cyphellophora_suttonii_CBS449.91,SRR4417703.23079,95.65,46,2,0,198,243,210,255,5e-13,75.0
Cyphellophora_pauciseptata_CBS284.85_T,SRR4417703.23079,91.53,59,3,2,196,254,199,255,1e-14,80.5
Cyphellophora_pauciseptata_CBS284.85_T,SRR4417703.27032,88.68,53,6,0,183,235,199,251,3e-10,65.8
Phialophora_europaea_CBS101466,SRR4417703.23079,96.00,50,2,0,200,249,206,255,3e-15,82.4
Phialophora_europaea_CBS101466,SRR4417703.27032,100.00,32,0,0,199,230,220,251,1e-08,60.2
Phialophora_ambigua_CBS235.93,SRR4417703.23079,95.65,46,2,0,201,246,210,255,5e-13,75.0
Cladophialophora_modesta_CBS985.96_T,SRR4417703.31050,100.00,48,0,0,532,579,299,252,2e-17,89.8
Cladophialophora_modesta_CBS985.96_T,SRR4417703.23079,95.65,46,2,0,198,243,210,255,5e-13,75.0
Cladophialophora_modesta_CBS985.96_T,SRR4417703.44889,93.75,48,3,0,532,579,299,252,2e-12,73.1
