Exophiala_nigra_CBS535.94_T,SRR9856991.170351,91.88,160,9,3,232,391,1,156,3e-56,220
Exophiala_nigra_CBS535.94_T,SRR9856991.170351,90.23,133,9,3,259,391,601,473,3e-41,171
Exophiala_nigra_CBS535.94_T,SRR9856991.170346,91.25,160,10,3,232,391,1,156,2e-54,215
Exophiala_spinifera_CBS899.68_T,SRR9856991.170351,91.19,159,11,2,229,387,1,156,5e-54,213
Exophiala_spinifera_CBS899.68_T,SRR9856991.170351,89.39,132,11,2,256,387,601,473,5e-39,163
Exophiala_spinifera_CBS899.68_T,SRR9856991.170346,90.57,159,12,2,229,387,1,156,2e-52,207
Exophiala_exophialae_CBS668.76_T,SRR9856991.170351,91.19,159,11,2,230,388,1,156,5e-54,213
Exophiala_exophialae_CBS668.76_T,SRR9856991.170351,89.39,132,11,2,257,388,601,473,5e-39,163
Exophiala_exophialae_CBS668.76_T,SRR9856991.170346,90.57,159,12,2,230,388,1,156,2e-52,207
Exophiala_polymorpha_CBS138920_T,SRR9856991.170351,91.19,159,11,2,332,490,1,156,7e-54,213
Exophiala_polymorpha_CBS138920_T,SRR9856991.170351,89.39,132,11,2,359,490,601,473,7e-39,163
Exophiala_polymorpha_CBS138920_T,SRR9856991.170351,98.11,53,1,0,642,694,362,310,9e-18,93.5
Exophiala_polymorpha_CBS138920_T,SRR9856991.170346,90.57,159,12,2,332,490,1,156,3e-52,207
Exophiala_polymorpha_CBS138920_T,SRR9856991.170346,98.11,53,1,0,642,694,362,310,9e-18,93.5
Exophiala_oligosperma_CBS725.88_T,SRR9856991.170351,91.19,159,11,2,242,400,1,156,5e-54,213
Exophiala_oligosperma_CBS725.88_T,SRR9856991.170351,89.39,132,11,2,269,400,601,473,5e-39,163
Exophiala_oligosperma_CBS725.88_T,SRR9856991.170346,90.57,159,12,2,242,400,1,156,2e-52,207
Exophiala_jeanselmei_CBS507.90_T,SRR9856991.170351,91.19,159,11,2,234,392,1,156,6e-54,213
Exophiala_jeanselmei_CBS507.90_T,SRR9856991.170351,89.39,132,11,2,261,392,601,473,6e-39,163
Exophiala_jeanselmei_CBS507.90_T,SRR9856991.170351,98.41,63,1,0,542,604,364,302,2e-23,111
Exophiala_jeanselmei_CBS507.90_T,SRR9856991.170346,90.57,159,12,2,234,392,1,156,3e-52,207
Exophiala_jeanselmei_CBS507.90_T,SRR9856991.170346,98.41,63,1,0,542,604,364,302,2e-23,111
Exophiala_bergeri_CBS353.52,SRR9856991.170351,91.25,160,10,2,195,354,1,156,1e-54,215
Exophiala_bergeri_CBS353.52,SRR9856991.170351,89.47,133,10,2,222,354,601,473,1e-39,165
Exophiala_bergeri_CBS353.52,SRR9856991.170346,90.62,160,11,2,195,354,1,156,6e-53,209
Exophiala_moniliae_CBS520.76_T,SRR9856991.170351,95.52,134,5,1,232,365,1,133,5e-54,213
Exophiala_moniliae_CBS520.76_T,SRR9856991.170351,94.39,107,5,1,259,365,601,496,5e-39,163
Exophiala_moniliae_CBS520.76_T,SRR9856991.170346,94.78,134,6,1,232,365,1,133,2e-52,207
Exophiala_pisciphila_CBS537.73_T,SRR9856991.170351,92.45,159,9,2,235,393,1,156,3e-57,224
Exophiala_pisciphila_CBS537.73_T,SRR9856991.170351,90.91,132,9,2,262,393,601,473,3e-42,174
Exophiala_pisciphila_CBS537.73_T,SRR9856991.170351,98.48,66,0,1,549,613,367,302,2e-24,115
Exophiala_pisciphila_CBS537.73_T,SRR9856991.170351,97.50,40,0,1,549,587,262,301,5e-10,67.6
Exophiala_pisciphila_CBS537.73_T,SRR9856991.170346,91.82,159,10,2,235,393,1,156,1e-55,219
Exophiala_pisciphila_CBS537.73_T,SRR9856991.170346,98.48,66,0,1,549,613,367,302,2e-24,115
Exophiala_pisciphila_CBS537.73_T,SRR9856991.170346,97.50,40,0,1,549,587,262,301,5e-10,67.6
Exophiala_xenobiotica_CBS117642,SRR9856991.170351,91.82,159,10,2,227,385,1,156,1e-55,219
Exophiala_xenobiotica_CBS117642,SRR9856991.170351,90.15,132,10,2,254,385,601,473,1e-40,169
Exophiala_xenobiotica_CBS117642,SRR9856991.170346,91.19,159,11,2,227,385,1,156,5e-54,213
Exophiala_brunnea_CBS,SRR9856991.170351,91.82,159,10,2,263,421,1,156,1e-55,219
Exophiala_brunnea_CBS,SRR9856991.170351,90.15,132,10,2,290,421,601,473,1e-40,169
Exophiala_brunnea_CBS,SRR9856991.170351,92.42,66,3,2,569,633,377,313,2e-18,95.3
Exophiala_brunnea_CBS,SRR9856991.170346,91.19,159,11,2,263,421,1,156,6e-54,213
Exophiala_brunnea_CBS,SRR9856991.170346,92.42,66,3,2,569,633,377,313,2e-18,95.3
Exophiala_nishimurae_CBS101538_T,SRR9856991.170351,91.19,159,11,2,241,399,1,156,6e-54,213
Exophiala_nishimurae_CBS101538_T,SRR9856991.170351,89.39,132,11,2,268,399,601,473,6e-39,163
Exophiala_nishimurae_CBS101538_T,SRR9856991.170346,90.57,159,12,2,241,399,1,156,3e-52,207
Exophiala_mesophila_CBS402.95_T,SRR9856991.170351,93.71,143,8,1,225,367,1,142,6e-54,213
Exophiala_mesophila_CBS402.95_T,SRR9856991.170351,92.24,116,8,1,252,367,601,487,6e-39,163
Exophiala_mesophila_CBS402.95_T,SRR9856991.170351,94.52,73,2,2,540,610,374,302,2e-23,111
Exophiala_mesophila_CBS402.95_T,SRR9856991.170346,93.01,143,9,1,225,367,1,142,3e-52,207
Exophiala_mesophila_CBS402.95_T,SRR9856991.170346,94.52,73,2,2,540,610,374,302,2e-23,111
Exophiala_castellanii_CBS158.58_T,SRR9856991.170351,93.71,143,8,1,223,365,1,142,6e-54,213
Exophiala_castellanii_CBS158.58_T,SRR9856991.170351,92.24,116,8,1,250,365,601,487,6e-39,163
Exophiala_castellanii_CBS158.58_T,SRR9856991.170351,98.36,61,1,0,549,609,362,302,3e-22,108
Exophiala_castellanii_CBS158.58_T,SRR9856991.170346,93.01,143,9,1,223,365,1,142,3e-52,207
Exophiala_castellanii_CBS158.58_T,SRR9856991.170346,98.36,61,1,0,549,609,362,302,3e-22,108
Exophiala_lecanii-corni_CBS123.33_T,SRR9856991.170351,93.71,143,8,1,246,388,1,142,5e-54,213
Exophiala_lecanii-corni_CBS123.33_T,SRR9856991.170351,92.24,116,8,1,273,388,601,487,5e-39,163
Exophiala_lecanii-corni_CBS123.33_T,SRR9856991.170346,93.01,143,9,1,246,388,1,142,2e-52,207
Exophiala_dermatitidis_CBS748.88,SRR9856991.170351,91.88,160,9,2,238,397,1,156,9e-56,220
Exophiala_dermatitidis_CBS748.88,SRR9856991.170351,90.23,133,9,2,265,397,601,473,9e-41,171
Exophiala_dermatitidis_CBS748.88,SRR9856991.170351,98.44,64,1,0,572,635,365,302,2e-23,113
Exophiala_dermatitidis_CBS748.88,SRR9856991.170346,91.25,160,10,2,238,397,1,156,4e-54,215
Exophiala_dermatitidis_CBS748.88,SRR9856991.170346,98.44,64,1,0,572,635,365,302,2e-23,113
Exophiala_angulospora_CBS482.92_T,SRR9856991.170351,91.25,160,10,3,229,388,1,156,1e-54,215
Exophiala_angulospora_CBS482.92_T,SRR9856991.170351,89.47,133,10,3,256,388,601,473,1e-39,165
Exophiala_angulospora_CBS482.92_T,SRR9856991.170346,90.62,160,11,3,229,388,1,156,7e-53,209
Exophiala_opportunistica_CBS109811_T,SRR9856991.170351,93.08,159,8,3,228,386,1,156,5e-59,230
Exophiala_opportunistica_CBS109811_T,SRR9856991.170351,91.67,132,8,3,255,386,601,473,5e-44,180
Exophiala_opportunistica_CBS109811_T,SRR9856991.170346,92.45,159,9,3,228,386,1,156,2e-57,224
Exophiala_salmonis_CBS157.67_T,SRR9856991.170351,92.45,159,9,2,357,515,1,156,3e-57,224
Exophiala_salmonis_CBS157.67_T,SRR9856991.170351,90.91,132,9,2,384,515,601,473,3e-42,174
Exophiala_salmonis_CBS157.67_T,SRR9856991.170351,98.48,66,0,1,669,733,367,302,2e-24,115
Exophiala_salmonis_CBS157.67_T,SRR9856991.170351,97.50,40,0,1,669,707,262,301,6e-10,67.6
Exophiala_salmonis_CBS157.67_T,SRR9856991.170346,91.82,159,10,2,357,515,1,156,2e-55,219
Exophiala_salmonis_CBS157.67_T,SRR9856991.170346,98.48,66,0,1,669,733,367,302,2e-24,115
Exophiala_salmonis_CBS157.67_T,SRR9856991.170346,97.50,40,0,1,669,707,262,301,6e-10,67.6
Exophiala_aquamarina_CBS119918_T,SRR9856991.170351,92.50,160,8,3,235,394,1,156,7e-58,226
Exophiala_aquamarina_CBS119918_T,SRR9856991.170351,90.98,133,8,3,262,394,601,473,7e-43,176
Exophiala_aquamarina_CBS119918_T,SRR9856991.170346,91.88,160,9,3,235,394,1,156,3e-56,220
Exophiala_cancerae_CBS120420_T,SRR9856991.170351,93.08,159,8,3,250,408,1,156,6e-59,230
Exophiala_cancerae_CBS120420_T,SRR9856991.170351,91.67,132,8,3,277,408,601,473,6e-44,180
Exophiala_cancerae_CBS120420_T,SRR9856991.170351,100.00,66,0,0,559,624,367,302,1e-26,122
Exophiala_cancerae_CBS120420_T,SRR9856991.170351,100.00,40,0,0,559,598,262,301,3e-12,75.0
Exophiala_cancerae_CBS120420_T,SRR9856991.170346,92.45,159,9,3,250,408,1,156,3e-57,224
Exophiala_cancerae_CBS120420_T,SRR9856991.170346,100.00,66,0,0,559,624,367,302,1e-26,122
Exophiala_cancerae_CBS120420_T,SRR9856991.170346,100.00,40,0,0,559,598,262,301,3e-12,75.0
Exophiala_tremulae_CBS129355,SRR9856991.170351,93.08,159,8,2,262,420,1,156,6e-59,230
Exophiala_tremulae_CBS129355,SRR9856991.170351,91.67,132,8,2,289,420,601,473,6e-44,180
Exophiala_tremulae_CBS129355,SRR9856991.170351,98.18,55,0,1,575,628,367,313,2e-18,95.3
Exophiala_tremulae_CBS129355,SRR9856991.170351,97.50,40,0,1,575,613,262,301,5e-10,67.6
Exophiala_tremulae_CBS129355,SRR9856991.170346,92.45,159,9,2,262,420,1,156,3e-57,224
Exophiala_tremulae_CBS129355,SRR9856991.170346,98.18,55,0,1,575,628,367,313,2e-18,95.3
Exophiala_tremulae_CBS129355,SRR9856991.170346,97.50,40,0,1,575,613,262,301,5e-10,67.6
Exophiala_equina_CBS116009,SRR9856991.170351,93.08,159,8,2,228,386,1,156,5e-59,230
Exophiala_equina_CBS116009,SRR9856991.170351,91.67,132,8,2,255,386,601,473,5e-44,180
Exophiala_equina_CBS116009,SRR9856991.170346,92.45,159,9,2,228,386,1,156,2e-57,224
Exophiala_alcalophila_CBS520.82_T,SRR9856991.170351,91.25,160,10,3,239,398,1,156,1e-54,215
Exophiala_alcalophila_CBS520.82_T,SRR9856991.170351,89.47,133,10,3,266,398,601,473,2e-39,165
Exophiala_alcalophila_CBS520.82_T,SRR9856991.170346,90.62,160,11,3,239,398,1,156,7e-53,209
Exophiala_crusticola_CBS119970_T,SRR9856991.170351,91.88,160,9,3,244,403,1,156,3e-56,220
Exophiala_crusticola_CBS119970_T,SRR9856991.170351,90.23,133,9,3,271,403,601,473,3e-41,171
Exophiala_crusticola_CBS119970_T,SRR9856991.170346,91.25,160,10,3,244,403,1,156,1e-54,215
Rhinocladiella_atrovirens_CBS264.49,SRR9856991.170351,93.71,143,8,1,270,412,1,142,6e-54,213
Rhinocladiella_atrovirens_CBS264.49,SRR9856991.170351,92.24,116,8,1,297,412,601,487,6e-39,163
Rhinocladiella_atrovirens_CBS264.49,SRR9856991.170351,98.15,54,0,1,574,626,367,314,8e-18,93.5
Rhinocladiella_atrovirens_CBS264.49,SRR9856991.170351,97.50,40,0,1,574,612,262,301,5e-10,67.6
Rhinocladiella_atrovirens_CBS264.49,SRR9856991.170346,93.01,143,9,1,270,412,1,142,3e-52,207
Rhinocladiella_atrovirens_CBS264.49,SRR9856991.170346,98.15,54,0,1,574,626,367,314,8e-18,93.5
Rhinocladiella_atrovirens_CBS264.49,SRR9856991.170346,97.50,40,0,1,574,612,262,301,5e-10,67.6
Rhinocladiella_basitona_CBS101460_T,SRR9856991.170351,91.19,159,11,2,229,387,1,156,5e-54,213
Rhinocladiella_basitona_CBS101460_T,SRR9856991.170351,89.39,132,11,2,256,387,601,473,5e-39,163
Rhinocladiella_basitona_CBS101460_T,SRR9856991.170346,90.57,159,12,2,229,387,1,156,2e-52,207
Rhinocladiella_phaeophora_CBS496.78_T,SRR9856991.170351,94.41,143,7,1,237,379,1,142,1e-55,219
Rhinocladiella_phaeophora_CBS496.78_T,SRR9856991.170351,93.10,116,7,1,264,379,601,487,1e-40,169
Rhinocladiella_phaeophora_CBS496.78_T,SRR9856991.170346,93.71,143,8,1,237,379,1,142,5e-54,213
Rhinocladiella_aquaspersa_CBS313.73_T,SRR9856991.170351,94.41,143,7,1,231,373,1,142,1e-55,219
Rhinocladiella_aquaspersa_CBS313.73_T,SRR9856991.170351,93.10,116,7,1,258,373,601,487,1e-40,169
Rhinocladiella_aquaspersa_CBS313.73_T,SRR9856991.170351,95.31,64,0,3,545,605,365,302,2e-19,99.0
Rhinocladiella_aquaspersa_CBS313.73_T,SRR9856991.170346,93.71,143,8,1,231,373,1,142,6e-54,213
Rhinocladiella_aquaspersa_CBS313.73_T,SRR9856991.170346,95.31,64,0,3,545,605,365,302,2e-19,99.0
Rhinocladiella_fasciculata_CBS132.86_T,SRR9856991.170351,94.78,134,6,1,247,380,1,133,3e-52,207
Rhinocladiella_fasciculata_CBS132.86_T,SRR9856991.170351,93.46,107,6,1,274,380,601,496,3e-37,158
Rhinocladiella_fasciculata_CBS132.86_T,SRR9856991.170346,94.03,134,7,1,247,380,1,133,1e-50,202
Rhinocladiella_anceps_CBS181.65_T,SRR9856991.170351,90.62,160,11,2,229,388,1,156,7e-53,209
Rhinocladiella_anceps_CBS181.65_T,SRR9856991.170351,88.72,133,11,2,256,388,601,473,7e-38,159
Rhinocladiella_anceps_CBS181.65_T,SRR9856991.170346,90.00,160,12,2,229,388,1,156,3e-51,204
Rhinocladiella_mackenziei_CBS367.92,SRR9856991.170351,94.33,141,7,1,218,358,1,140,2e-54,215
Rhinocladiella_mackenziei_CBS367.92,SRR9856991.170351,92.98,114,7,1,245,358,601,489,2e-39,165
Rhinocladiella_mackenziei_CBS367.92,SRR9856991.170351,100.00,43,0,0,566,608,361,319,6e-14,80.5
Rhinocladiella_mackenziei_CBS367.92,SRR9856991.170351,100.00,34,0,0,566,599,268,301,6e-09,63.9
Rhinocladiella_mackenziei_CBS367.92,SRR9856991.170346,93.62,141,8,1,218,358,1,140,7e-53,209
Rhinocladiella_mackenziei_CBS367.92,SRR9856991.170346,100.00,43,0,0,566,608,361,319,6e-14,80.5
Rhinocladiella_mackenziei_CBS367.92,SRR9856991.170346,100.00,34,0,0,566,599,268,301,6e-09,63.9
Veronaea_compacta_CBS268.75_T,SRR9856991.170351,91.25,160,10,3,251,410,1,156,2e-54,215
Veronaea_compacta_CBS268.75_T,SRR9856991.170351,89.47,133,10,3,278,410,601,473,2e-39,165
Veronaea_compacta_CBS268.75_T,SRR9856991.170346,90.62,160,11,3,251,410,1,156,7e-53,209
Capronia_pilosella_AFTOL-ID657,SRR9856991.170351,92.50,160,8,3,329,488,1,156,8e-58,226
Capronia_pilosella_AFTOL-ID657,SRR9856991.170351,90.98,133,8,3,356,488,601,473,8e-43,176
Capronia_pilosella_AFTOL-ID657,SRR9856991.170346,91.88,160,9,3,329,488,1,156,4e-56,220
Capronia_dactylotricha_DAOM208471_T,SRR9856991.170351,93.75,144,7,2,231,374,1,142,2e-54,215
Capronia_dactylotricha_DAOM208471_T,SRR9856991.170351,92.31,117,7,2,258,374,601,487,2e-39,165
Capronia_dactylotricha_DAOM208471_T,SRR9856991.170351,95.83,72,2,1,548,618,373,302,2e-24,115
Capronia_dactylotricha_DAOM208471_T,SRR9856991.170351,93.48,46,2,1,548,592,256,301,5e-10,67.6
Capronia_dactylotricha_DAOM208471_T,SRR9856991.170346,93.06,144,8,2,231,374,1,142,8e-53,209
Capronia_dactylotricha_DAOM208471_T,SRR9856991.170346,95.83,72,2,1,548,618,373,302,2e-24,115
Capronia_dactylotricha_DAOM208471_T,SRR9856991.170346,93.48,46,2,1,548,592,256,301,5e-10,67.6
Capronia_kleinmondensis_CBS122671_T,SRR9856991.170351,93.71,143,8,1,256,398,1,142,6e-54,213
Capronia_kleinmondensis_CBS122671_T,SRR9856991.170351,92.24,116,8,1,283,398,601,487,6e-39,163
Capronia_kleinmondensis_CBS122671_T,SRR9856991.170351,100.00,61,0,0,564,624,362,302,7e-24,113
Capronia_kleinmondensis_CBS122671_T,SRR9856991.170351,100.00,35,0,0,564,598,267,301,2e-09,65.8
Capronia_kleinmondensis_CBS122671_T,SRR9856991.170346,93.01,143,9,1,256,398,1,142,3e-52,207
Capronia_kleinmondensis_CBS122671_T,SRR9856991.170346,100.00,61,0,0,564,624,362,302,7e-24,113
Capronia_kleinmondensis_CBS122671_T,SRR9856991.170346,100.00,35,0,0,564,598,267,301,2e-09,65.8
Capronia_mansonii_CBS101.67_T,SRR9856991.170351,92.50,160,8,3,242,401,1,156,8e-58,226
Capronia_mansonii_CBS101.67_T,SRR9856991.170351,90.98,133,8,3,269,401,601,473,8e-43,176
Capronia_mansonii_CBS101.67_T,SRR9856991.170351,98.39,62,1,0,567,628,363,302,8e-23,110
Capronia_mansonii_CBS101.67_T,SRR9856991.170346,91.88,160,9,3,242,401,1,156,4e-56,220
Capronia_mansonii_CBS101.67_T,SRR9856991.170346,98.39,62,1,0,567,628,363,302,8e-23,110
Capronia_munkii_DAOM216390_T,SRR9856991.170351,92.50,160,8,3,242,401,1,156,8e-58,226
Capronia_munkii_DAOM216390_T,SRR9856991.170351,90.98,133,8,3,269,401,601,473,8e-43,176
Capronia_munkii_DAOM216390_T,SRR9856991.170351,96.97,66,1,1,564,628,367,302,8e-23,110
Capronia_munkii_DAOM216390_T,SRR9856991.170346,91.88,160,9,3,242,401,1,156,4e-56,220
Capronia_munkii_DAOM216390_T,SRR9856991.170346,96.97,66,1,1,564,628,367,302,8e-23,110
Capronia_coronata_ATCC56201_T,SRR9856991.170351,91.25,160,10,3,230,389,1,156,2e-54,215
Capronia_coronata_ATCC56201_T,SRR9856991.170351,89.47,133,10,3,257,389,601,473,2e-39,165
Capronia_coronata_ATCC56201_T,SRR9856991.170351,98.44,64,1,0,536,599,365,302,6e-24,113
Capronia_coronata_ATCC56201_T,SRR9856991.170346,90.62,160,11,3,230,389,1,156,8e-53,209
Capronia_coronata_ATCC56201_T,SRR9856991.170346,98.44,64,1,0,536,599,365,302,6e-24,113
Capronia_parasitica_CBS123.88,SRR9856991.170351,95.52,134,5,1,236,369,1,133,6e-54,213
Capronia_parasitica_CBS123.88,SRR9856991.170351,94.39,107,5,1,263,369,601,496,6e-39,163
Capronia_parasitica_CBS123.88,SRR9856991.170351,100.00,38,0,0,558,595,364,327,4e-11,71.3
Capronia_parasitica_CBS123.88,SRR9856991.170351,100.00,37,0,0,558,594,265,301,1e-10,69.4
Capronia_parasitica_CBS123.88,SRR9856991.170346,94.78,134,6,1,236,369,1,133,3e-52,207
Capronia_parasitica_CBS123.88,SRR9856991.170346,100.00,38,0,0,558,595,364,327,4e-11,71.3
Capronia_parasitica_CBS123.88,SRR9856991.170346,100.00,37,0,0,558,594,265,301,1e-10,69.4
Veronaea_japonica_CBS776.83_T,SRR9856991.170351,92.45,159,9,2,264,422,1,156,3e-57,224
Veronaea_japonica_CBS776.83_T,SRR9856991.170351,90.91,132,9,2,291,422,601,473,3e-42,174
Veronaea_japonica_CBS776.83_T,SRR9856991.170346,91.82,159,10,2,264,422,1,156,1e-55,219
Thysanorea_papuana_CBS212.96_T,SRR9856991.170351,93.08,159,8,3,238,396,1,156,5e-59,230
Thysanorea_papuana_CBS212.96_T,SRR9856991.170351,91.67,132,8,3,265,396,601,473,5e-44,180
Thysanorea_papuana_CBS212.96_T,SRR9856991.170346,92.45,159,9,3,238,396,1,156,2e-57,224
Capronia_acutiseta_ATCC56428_T,SRR9856991.170351,93.06,144,8,2,232,374,1,143,8e-53,209
Capronia_acutiseta_ATCC56428_T,SRR9856991.170351,92.31,117,8,1,258,374,601,486,2e-39,165
Capronia_acutiseta_ATCC56428_T,SRR9856991.170351,100.00,66,0,0,533,598,367,302,1e-26,122
Capronia_acutiseta_ATCC56428_T,SRR9856991.170351,100.00,40,0,0,533,572,262,301,3e-12,75.0
Capronia_acutiseta_ATCC56428_T,SRR9856991.170346,100.00,66,0,0,533,598,367,302,1e-26,122
Capronia_acutiseta_ATCC56428_T,SRR9856991.170346,100.00,40,0,0,533,572,262,301,3e-12,75.0
Fonsecaea_brasiliensis_CBS119710_T,SRR9856991.170351,91.88,160,9,4,238,397,1,156,3e-56,220
Fonsecaea_brasiliensis_CBS119710_T,SRR9856991.170351,90.23,133,9,4,265,397,601,473,3e-41,171
Fonsecaea_brasiliensis_CBS119710_T,SRR9856991.170346,91.25,160,10,4,238,397,1,156,1e-54,215
Fonsecaea_pedrosoi_CBS271.37_T,SRR9856991.170351,91.93,161,8,4,266,426,1,156,4e-56,220
Fonsecaea_pedrosoi_CBS271.37_T,SRR9856991.170351,90.30,134,8,4,293,426,601,473,4e-41,171
Fonsecaea_pedrosoi_CBS271.37_T,SRR9856991.170351,96.77,62,2,0,584,645,363,302,4e-21,104
Fonsecaea_pedrosoi_CBS271.37_T,SRR9856991.170346,91.30,161,9,4,266,426,1,156,2e-54,215
Fonsecaea_pedrosoi_CBS271.37_T,SRR9856991.170346,96.77,62,2,0,584,645,363,302,4e-21,104
Fonsecaea_multimorphosa_CBS980.96_T,SRR9856991.170351,92.50,160,8,4,236,395,1,156,7e-58,226
Fonsecaea_multimorphosa_CBS980.96_T,SRR9856991.170351,90.98,133,8,4,263,395,601,473,7e-43,176
Fonsecaea_multimorphosa_CBS980.96_T,SRR9856991.170346,91.88,160,9,4,236,395,1,156,3e-56,220
Fonsecaea_minima_CBS125760_T,SRR9856991.170351,91.07,168,9,5,232,399,1,162,8e-57,222
Fonsecaea_minima_CBS125760_T,SRR9856991.170351,89.36,141,9,5,259,399,601,467,9e-42,172
Fonsecaea_minima_CBS125760_T,SRR9856991.170346,90.48,168,10,5,232,399,1,162,4e-55,217
Fonsecaea_nubica_CBS269.64_T,SRR9856991.170351,91.93,161,8,4,243,403,1,156,3e-56,220
Fonsecaea_nubica_CBS269.64_T,SRR9856991.170351,90.30,134,8,4,270,403,601,473,3e-41,171
Fonsecaea_nubica_CBS269.64_T,SRR9856991.170346,91.30,161,9,4,243,403,1,156,1e-54,215
Fonsecaea_monophora_CBS269.37_T,SRR9856991.170351,91.36,162,8,5,243,404,1,156,4e-55,217
Fonsecaea_monophora_CBS269.37_T,SRR9856991.170351,90.30,134,8,4,271,404,601,473,3e-41,171
Fonsecaea_erecta_CBS125763_T,SRR9856991.170351,92.50,160,8,4,227,386,1,156,6e-58,226
Fonsecaea_erecta_CBS125763_T,SRR9856991.170351,90.98,133,8,4,254,386,601,473,7e-43,176
Fonsecaea_erecta_CBS125763_T,SRR9856991.170346,91.88,160,9,4,227,386,1,156,3e-56,220
Fonsecaea_pugnacius_CBS139214_T,SRR9856991.170351,91.36,162,8,4,236,397,1,156,4e-55,217
Fonsecaea_pugnacius_CBS139214_T,SRR9856991.170351,89.63,135,8,4,263,397,601,473,4e-40,167
Fonsecaea_pugnacius_CBS139214_T,SRR9856991.170346,90.74,162,9,4,236,397,1,156,2e-53,211
Cladophialophora_psammophila_CBS,SRR9856991.170351,92.50,160,8,4,242,401,1,156,7e-58,226
Cladophialophora_psammophila_CBS,SRR9856991.170351,90.98,133,8,4,269,401,601,473,7e-43,176
Cladophialophora_psammophila_CBS,SRR9856991.170346,91.88,160,9,4,242,401,1,156,3e-56,220
Cladophialophora_devriesii_CBS,SRR9856991.170351,92.50,160,8,4,238,397,1,156,6e-58,226
Cladophialophora_devriesii_CBS,SRR9856991.170351,90.98,133,8,4,265,397,601,473,6e-43,176
Cladophialophora_devriesii_CBS,SRR9856991.170346,91.88,160,9,4,238,397,1,156,3e-56,220
Cladophialophora_immunda_CBS834.96,SRR9856991.170351,91.88,160,9,4,240,399,1,156,3e-56,220
Cladophialophora_immunda_CBS834.96,SRR9856991.170351,90.23,133,9,4,267,399,601,473,3e-41,171
Cladophialophora_immunda_CBS834.96,SRR9856991.170346,91.25,160,10,4,240,399,1,156,1e-54,215
Cladophialophora_arxii_CBS306.94_T,SRR9856991.170351,91.36,162,8,4,242,403,1,156,4e-55,217
Cladophialophora_arxii_CBS306.94_T,SRR9856991.170351,89.63,135,8,4,269,403,601,473,4e-40,167
Cladophialophora_arxii_CBS306.94_T,SRR9856991.170346,90.74,162,9,4,242,403,1,156,2e-53,211
Cladophialophora_bantiana_CBS173.52,SRR9856991.170351,92.50,160,8,4,236,395,1,156,7e-58,226
Cladophialophora_bantiana_CBS173.52,SRR9856991.170351,90.98,133,8,4,263,395,601,473,7e-43,176
Cladophialophora_bantiana_CBS173.52,SRR9856991.170346,91.88,160,9,4,236,395,1,156,3e-56,220
Cladophialophora_emmonsii_CBS102594,SRR9856991.170351,91.93,161,8,3,227,387,1,156,3e-56,220
Cladophialophora_emmonsii_CBS102594,SRR9856991.170351,90.30,134,8,3,254,387,601,473,3e-41,171
Cladophialophora_emmonsii_CBS102594,SRR9856991.170346,91.30,161,9,3,227,387,1,156,1e-54,215
Cladophialophora_minourae_CBS556.83,SRR9856991.170351,91.72,145,9,3,235,379,1,142,1e-49,198
Cladophialophora_minourae_CBS556.83,SRR9856991.170351,89.83,118,9,3,262,379,601,487,1e-34,148
Cladophialophora_minourae_CBS556.83,SRR9856991.170346,91.03,145,10,3,235,379,1,142,7e-48,193
Cladophialophora_australiensis_CBS112793,SRR9856991.170351,91.82,159,10,3,237,395,1,156,3e-55,219
Cladophialophora_australiensis_CBS112793,SRR9856991.170351,90.15,132,10,3,264,395,601,473,3e-40,169
Cladophialophora_australiensis_CBS112793,SRR9856991.170351,95.45,66,2,1,542,606,367,302,9e-21,104
Cladophialophora_australiensis_CBS112793,SRR9856991.170346,91.19,159,11,3,237,395,1,156,1e-53,213
Cladophialophora_australiensis_CBS112793,SRR9856991.170346,95.45,66,2,1,542,606,367,302,9e-21,104
Cladophialophora_potulentorum_CBS112222,SRR9856991.170351,91.19,159,11,3,236,394,1,156,1e-53,213
Cladophialophora_potulentorum_CBS112222,SRR9856991.170351,89.39,132,11,3,263,394,601,473,1e-38,163
Cladophialophora_potulentorum_CBS112222,SRR9856991.170351,96.83,63,2,0,546,608,364,302,3e-21,106
Cladophialophora_potulentorum_CBS112222,SRR9856991.170346,90.57,159,12,3,236,394,1,156,7e-52,207
Cladophialophora_potulentorum_CBS112222,SRR9856991.170346,96.83,63,2,0,546,608,364,302,3e-21,106
Cladophialophora_matsushimae_CMRP1198,SRR9856991.170351,91.19,159,11,3,240,398,1,156,4e-54,213
Cladophialophora_matsushimae_CMRP1198,SRR9856991.170351,89.39,132,11,3,267,398,601,473,5e-39,163
Cladophialophora_matsushimae_CMRP1198,SRR9856991.170346,90.57,159,12,3,240,398,1,156,2e-52,207
Cladophialophora_mycetomatis_CBS122637,SRR9856991.170351,92.45,159,9,3,225,383,1,156,2e-57,224
Cladophialophora_mycetomatis_CBS122637,SRR9856991.170351,90.91,132,9,3,252,383,601,473,2e-42,174
Cladophialophora_mycetomatis_CBS122637,SRR9856991.170346,91.82,159,10,3,225,383,1,156,1e-55,219
Cladophialophora_chaetospira_CBS127573,SRR9856991.170351,93.08,159,8,3,631,789,1,156,9e-59,230
Cladophialophora_chaetospira_CBS127573,SRR9856991.170351,91.67,132,8,3,658,789,601,473,9e-44,180
Cladophialophora_chaetospira_CBS127573,SRR9856991.170346,92.45,159,9,3,631,789,1,156,4e-57,224
Cladophialophora_boppii_CBS126.86_T,SRR9856991.170351,92.45,159,9,3,233,391,1,156,2e-57,224
Cladophialophora_boppii_CBS126.86_T,SRR9856991.170351,90.91,132,9,3,260,391,601,473,2e-42,174
Cladophialophora_boppii_CBS126.86_T,SRR9856991.170346,91.82,159,10,3,233,391,1,156,1e-55,219
Cladophialophora_abundans_CBS126736,SRR9856991.170351,91.88,160,8,5,170,328,1,156,1e-55,219
Cladophialophora_abundans_CBS126736,SRR9856991.170351,90.23,133,8,5,197,328,601,473,1e-40,169
Cladophialophora_abundans_CBS126736,SRR9856991.170346,91.25,160,9,5,170,328,1,156,4e-54,213
Capronia_semi-immersa_CBS102234,SRR9856991.170351,90.57,159,12,3,232,390,1,156,2e-52,207
Capronia_semi-immersa_CBS102234,SRR9856991.170351,88.64,132,12,3,259,390,601,473,2e-37,158
Capronia_semi-immersa_CBS102234,SRR9856991.170346,89.94,159,13,3,232,390,1,156,1e-50,202
Phialophora_americana_CBS400.67,SRR9856991.170351,90.57,159,12,3,234,392,1,156,6e-52,207
Phialophora_americana_CBS400.67,SRR9856991.170351,88.64,132,12,3,261,392,601,473,7e-37,158
Phialophora_americana_CBS400.67,SRR9856991.170346,89.94,159,13,3,234,392,1,156,3e-50,202
Phialophora_verrucosa_CBS140325_T,SRR9856991.170351,90.57,159,12,3,238,396,1,156,3e-52,207
Phialophora_verrucosa_CBS140325_T,SRR9856991.170351,88.64,132,12,3,265,396,601,473,3e-37,158
Phialophora_verrucosa_CBS140325_T,SRR9856991.170346,89.94,159,13,3,238,396,1,156,1e-50,202
Cladophialophora_samoensis_CBS259.83_T,SRR9856991.170351,91.25,160,9,5,238,396,1,156,5e-54,213
Cladophialophora_samoensis_CBS259.83_T,SRR9856991.170351,89.47,133,9,5,265,396,601,473,5e-39,163
Cladophialophora_samoensis_CBS259.83_T,SRR9856991.170346,90.62,160,10,5,238,396,1,156,2e-52,207
Cladophialophora_carrionii_CBS260.83,SRR9856991.170351,92.45,159,9,3,254,412,1,156,3e-57,224
Cladophialophora_carrionii_CBS260.83,SRR9856991.170351,90.91,132,9,3,281,412,601,473,3e-42,174
Cladophialophora_carrionii_CBS260.83,SRR9856991.170346,91.82,159,10,3,254,412,1,156,1e-55,219
Exophiala_palmae_UPCB86822_T,SRR9856991.170351,94.41,143,7,1,197,339,1,142,1e-55,219
Exophiala_palmae_UPCB86822_T,SRR9856991.170351,93.10,116,7,1,224,339,601,487,1e-40,169
Exophiala_palmae_UPCB86822_T,SRR9856991.170346,93.71,143,8,1,197,339,1,142,5e-54,213
Cladophialophora_yegresii_CBS114405_T,SRR9856991.170351,91.82,159,10,3,239,397,1,156,1e-55,219
Cladophialophora_yegresii_CBS114405_T,SRR9856991.170351,90.15,132,10,3,266,397,601,473,1e-40,169
Cladophialophora_yegresii_CBS114405_T,SRR9856991.170346,91.19,159,11,3,239,397,1,156,5e-54,213
Knufia_epidermidis_CBS120353_T,SRR9856991.170351,93.85,130,7,1,237,366,1,129,2e-48,195
Knufia_epidermidis_CBS120353_T,SRR9856991.170351,92.23,103,7,1,264,366,601,500,2e-33,145
Knufia_epidermidis_CBS120353_T,SRR9856991.170346,93.08,130,8,1,237,366,1,129,8e-47,189
Arthrocladium_fulminans_CBS136243_T,SRR9856991.170351,94.62,130,6,1,232,361,1,129,4e-50,200
Arthrocladium_fulminans_CBS136243_T,SRR9856991.170351,93.20,103,6,1,259,361,601,500,4e-35,150
Arthrocladium_fulminans_CBS136243_T,SRR9856991.170346,93.85,130,7,1,232,361,1,129,2e-48,195
Anthopsis_deltoidea_CBS263.77_T,SRR9856991.170351,91.67,156,12,1,241,395,1,156,1e-54,215
Anthopsis_deltoidea_CBS263.77_T,SRR9856991.170346,91.03,156,13,1,241,395,1,156,6e-53,209
Cyphellophora_laciniata_CBS190.61_T,SRR9856991.170351,91.67,156,12,1,326,480,1,156,2e-54,215
Cyphellophora_laciniata_CBS190.61_T,SRR9856991.170351,89.92,129,12,1,353,480,601,473,2e-39,165
Cyphellophora_laciniata_CBS190.61_T,SRR9856991.170351,98.41,63,1,0,633,695,364,302,3e-23,111
Cyphellophora_laciniata_CBS190.61_T,SRR9856991.170346,91.03,156,13,1,326,480,1,156,9e-53,209
Cyphellophora_laciniata_CBS190.61_T,SRR9856991.170346,98.41,63,1,0,633,695,364,302,3e-23,111
Cyphellophora_suttonii_CBS449.91,SRR9856991.170351,90.36,166,14,2,229,393,1,165,4e-55,217
Cyphellophora_suttonii_CBS449.91,SRR9856991.170351,88.49,139,14,2,256,393,601,464,4e-40,167
Cyphellophora_suttonii_CBS449.91,SRR9856991.170346,89.76,166,15,2,229,393,1,165,2e-53,211
Cyphellophora_pauciseptata_CBS284.85_T,SRR9856991.170351,91.67,156,12,1,240,394,1,156,1e-54,215
Cyphellophora_pauciseptata_CBS284.85_T,SRR9856991.170351,89.92,129,12,1,267,394,601,473,1e-39,165
Cyphellophora_pauciseptata_CBS284.85_T,SRR9856991.170346,91.03,156,13,1,240,394,1,156,7e-53,209
Cyphellophora_pluriseptata_CBS286.85_T,SRR9856991.170351,90.91,154,13,1,247,399,3,156,9e-52,206
Cyphellophora_pluriseptata_CBS286.85_T,SRR9856991.170351,89.15,129,13,1,272,399,601,473,7e-38,159
Cyphellophora_pluriseptata_CBS286.85_T,SRR9856991.170346,90.26,154,14,1,247,399,3,156,4e-50,200
Phialophora_europaea_CBS101466,SRR9856991.170351,91.03,156,13,1,235,389,1,156,6e-53,209
Phialophora_europaea_CBS101466,SRR9856991.170351,89.15,129,13,1,262,389,601,473,7e-38,159
Phialophora_europaea_CBS101466,SRR9856991.170346,90.38,156,14,1,235,389,1,156,3e-51,204
Phialophora_ambigua_CBS235.93,SRR9856991.170351,91.03,156,13,1,232,386,1,156,7e-53,209
Phialophora_ambigua_CBS235.93,SRR9856991.170351,89.15,129,13,1,259,386,601,473,7e-38,159
Phialophora_ambigua_CBS235.93,SRR9856991.170346,90.38,156,14,1,232,386,1,156,3e-51,204
Cladophialophora_modesta_CBS985.96_T,SRR9856991.170351,93.04,158,9,2,229,386,1,156,6e-59,230
Cladophialophora_modesta_CBS985.96_T,SRR9856991.170351,91.60,131,9,2,256,386,601,473,6e-44,180
Cladophialophora_modesta_CBS985.96_T,SRR9856991.170351,95.45,66,2,1,515,579,367,302,4e-21,104
Cladophialophora_modesta_CBS985.96_T,SRR9856991.170346,92.41,158,10,2,229,386,1,156,3e-57,224
Cladophialophora_modesta_CBS985.96_T,SRR9856991.170346,95.45,66,2,1,515,579,367,302,4e-21,104
Cyphellophora_fusarioides_MUCL44033_T,SRR9856991.170351,91.03,156,13,1,228,382,1,156,7e-53,209
Cyphellophora_fusarioides_MUCL44033_T,SRR9856991.170346,90.38,156,14,1,228,382,1,156,3e-51,204
