Exophiala_nigra_CBS535.94_T,SRR10017049.83555,91.41,128,10,1,232,359,1,127,1e-42,174
Exophiala_spinifera_CBS899.68_T,SRR10017049.83555,90.62,128,11,1,229,356,1,127,4e-41,169
Exophiala_exophialae_CBS668.76_T,SRR10017049.83555,90.62,128,11,1,230,357,1,127,4e-41,169
Exophiala_polymorpha_CBS138920_T,SRR10017049.83555,90.62,128,11,1,332,459,1,127,5e-41,169
Exophiala_oligosperma_CBS725.88_T,SRR10017049.83555,90.62,128,11,1,242,369,1,127,4e-41,169
Exophiala_jeanselmei_CBS507.90_T,SRR10017049.83555,90.62,128,11,1,234,361,1,127,5e-41,169
Exophiala_bergeri_CBS353.52,SRR10017049.83555,91.41,128,10,1,195,322,1,127,8e-43,174
Exophiala_moniliae_CBS520.76_T,SRR10017049.83555,91.47,129,10,1,232,360,1,128,3e-43,176
Exophiala_pisciphila_CBS537.73_T,SRR10017049.83555,91.47,129,10,1,235,363,1,128,3e-43,176
Exophiala_xenobiotica_CBS117642,SRR10017049.83555,91.41,128,10,1,227,354,1,127,9e-43,174
Exophiala_brunnea_CBS,SRR10017049.83555,90.70,129,11,1,263,391,1,128,1e-41,171
Exophiala_nishimurae_CBS101538_T,SRR10017049.83555,90.62,128,11,1,241,368,1,127,5e-41,169
Exophiala_mesophila_CBS402.95_T,SRR10017049.83555,90.70,129,11,1,225,353,1,128,1e-41,171
Exophiala_castellanii_CBS158.58_T,SRR10017049.83555,90.70,129,11,1,223,351,1,128,1e-41,171
Exophiala_lecanii-corni_CBS123.33_T,SRR10017049.83555,90.70,129,11,1,246,374,1,128,1e-41,171
Exophiala_dermatitidis_CBS748.88,SRR10017049.83555,91.47,129,10,1,238,366,1,128,7e-43,176
Exophiala_angulospora_CBS482.92_T,SRR10017049.83555,91.47,129,10,1,229,357,1,128,2e-43,176
Exophiala_opportunistica_CBS109811_T,SRR10017049.83555,91.47,129,10,1,228,356,1,128,3e-43,176
Exophiala_salmonis_CBS157.67_T,SRR10017049.83555,91.47,129,10,1,357,485,1,128,4e-43,176
Exophiala_aquamarina_CBS119918_T,SRR10017049.83555,91.47,129,10,1,235,363,1,128,3e-43,176
Exophiala_cancerae_CBS120420_T,SRR10017049.83555,91.47,129,10,1,250,378,1,128,3e-43,176
Exophiala_tremulae_CBS129355,SRR10017049.83555,91.47,129,10,1,262,390,1,128,3e-43,176
Exophiala_equina_CBS116009,SRR10017049.83555,91.47,129,10,1,228,356,1,128,3e-43,176
Exophiala_alcalophila_CBS520.82_T,SRR10017049.83555,91.47,129,10,1,239,367,1,128,3e-43,176
Exophiala_crusticola_CBS119970_T,SRR10017049.83555,91.47,129,10,1,244,372,1,128,3e-43,176
Rhinocladiella_atrovirens_CBS264.49,SRR10017049.83555,90.70,129,11,1,270,398,1,128,1e-41,171
Rhinocladiella_basitona_CBS101460_T,SRR10017049.83555,90.62,128,11,1,229,356,1,127,4e-41,169
Rhinocladiella_phaeophora_CBS496.78_T,SRR10017049.83555,91.47,129,10,1,237,365,1,128,3e-43,176
Rhinocladiella_aquaspersa_CBS313.73_T,SRR10017049.83555,91.47,129,10,1,231,359,1,128,3e-43,176
Rhinocladiella_fasciculata_CBS132.86_T,SRR10017049.83555,90.70,129,11,1,247,375,1,128,1e-41,171
Rhinocladiella_anceps_CBS181.65_T,SRR10017049.83555,90.70,129,11,1,229,357,1,128,1e-41,171
Rhinocladiella_mackenziei_CBS367.92,SRR10017049.83555,91.47,129,10,1,218,346,1,128,3e-43,176
Veronaea_compacta_CBS268.75_T,SRR10017049.83555,90.70,129,11,1,251,379,1,128,1e-41,171
Capronia_pilosella_AFTOL-ID657,SRR10017049.83555,91.47,129,10,1,329,457,1,128,3e-43,176
Capronia_dactylotricha_DAOM208471_T,SRR10017049.83555,91.47,129,10,1,231,359,1,128,3e-43,176
Capronia_kleinmondensis_CBS122671_T,SRR10017049.83555,90.70,129,11,1,256,384,1,128,1e-41,171
Capronia_mansonii_CBS101.67_T,SRR10017049.83555,91.47,129,10,1,242,370,1,128,3e-43,176
Capronia_munkii_DAOM216390_T,SRR10017049.83555,91.47,129,10,1,242,370,1,128,3e-43,176
Capronia_coronata_ATCC56201_T,SRR10017049.83555,91.47,129,10,1,230,358,1,128,3e-43,176
Capronia_parasitica_CBS123.88,SRR10017049.83555,91.47,129,10,1,236,364,1,128,3e-43,176
Veronaea_japonica_CBS776.83_T,SRR10017049.83555,91.47,129,10,1,264,392,1,128,3e-43,176
Thysanorea_papuana_CBS212.96_T,SRR10017049.83555,91.47,129,10,1,238,366,1,128,3e-43,176
Fonsecaea_brasiliensis_CBS119710_T,SRR10017049.83555,91.47,129,10,1,238,366,1,128,3e-43,176
Fonsecaea_pedrosoi_CBS271.37_T,SRR10017049.83555,91.47,129,10,1,266,394,1,128,3e-43,176
Fonsecaea_multimorphosa_CBS980.96_T,SRR10017049.83555,91.47,129,10,1,236,364,1,128,3e-43,176
Fonsecaea_minima_CBS125760_T,SRR10017049.83555,91.47,129,10,1,232,360,1,128,2e-43,176
Fonsecaea_nubica_CBS269.64_T,SRR10017049.83555,91.47,129,10,1,243,371,1,128,3e-43,176
Fonsecaea_erecta_CBS125763_T,SRR10017049.83555,91.47,129,10,1,227,355,1,128,2e-43,176
Fonsecaea_pugnacius_CBS139214_T,SRR10017049.83555,91.47,129,10,1,236,364,1,128,2e-43,176
Cladophialophora_psammophila_CBS,SRR10017049.83555,91.47,129,10,1,242,370,1,128,3e-43,176
Cladophialophora_devriesii_CBS,SRR10017049.83555,91.47,129,10,1,238,366,1,128,2e-43,176
Cladophialophora_immunda_CBS834.96,SRR10017049.83555,91.47,129,10,1,240,368,1,128,3e-43,176
Cladophialophora_arxii_CBS306.94_T,SRR10017049.83555,91.47,129,10,1,242,370,1,128,3e-43,176
Cladophialophora_bantiana_CBS173.52,SRR10017049.83555,91.47,129,10,1,236,364,1,128,3e-43,176
Cladophialophora_emmonsii_CBS102594,SRR10017049.83555,91.47,129,10,1,227,355,1,128,3e-43,176
Cladophialophora_minourae_CBS556.83,SRR10017049.83555,88.55,131,12,3,235,365,1,128,3e-37,156
Cladophialophora_australiensis_CBS112793,SRR10017049.83555,90.70,129,11,1,237,365,1,128,3e-41,171
Cladophialophora_potulentorum_CBS112222,SRR10017049.83555,89.92,129,12,1,236,364,1,128,2e-39,165
Cladophialophora_matsushimae_CMRP1198,SRR10017049.83555,90.62,128,11,1,240,367,1,127,4e-41,169
Cladophialophora_mycetomatis_CBS122637,SRR10017049.83555,90.70,129,11,1,225,353,1,128,1e-41,171
Cladophialophora_chaetospira_CBS127573,SRR10017049.83555,91.47,129,10,1,631,759,1,128,4e-43,176
Cladophialophora_boppii_CBS126.86_T,SRR10017049.83555,91.47,129,10,1,233,361,1,128,2e-43,176
Cladophialophora_abundans_CBS126736,SRR10017049.83555,90.77,130,9,3,170,298,1,128,1e-41,171
Capronia_semi-immersa_CBS102234,SRR10017049.83555,89.15,129,13,1,232,360,1,128,3e-38,159
Phialophora_americana_CBS400.67,SRR10017049.83555,89.15,129,13,1,234,362,1,128,7e-38,159
Phialophora_verrucosa_CBS140325_T,SRR10017049.83555,89.15,129,13,1,238,366,1,128,3e-38,159
Cladophialophora_samoensis_CBS259.83_T,SRR10017049.83555,91.60,131,6,5,238,366,1,128,3e-43,176
Cladophialophora_carrionii_CBS260.83,SRR10017049.83555,90.70,129,11,1,254,382,1,128,1e-41,171
Exophiala_palmae_UPCB86822_T,SRR10017049.83555,91.47,129,10,1,197,325,1,128,2e-43,176
Cladophialophora_yegresii_CBS114405_T,SRR10017049.83555,90.70,129,11,1,239,367,1,128,1e-41,171
Knufia_epidermidis_CBS120353_T,SRR10017049.83555,89.15,129,13,1,237,365,1,128,2e-38,159
Arthrocladium_fulminans_CBS136243_T,SRR10017049.83555,89.92,129,12,1,232,360,1,128,6e-40,165
Anthopsis_deltoidea_CBS263.77_T,SRR10017049.83555,91.41,128,10,1,241,367,1,128,9e-43,174
Cyphellophora_laciniata_CBS190.61_T,SRR10017049.83555,90.70,129,9,3,326,452,1,128,6e-41,169
Cyphellophora_suttonii_CBS449.91,SRR10017049.83555,90.70,129,9,3,229,355,1,128,4e-41,169
Cyphellophora_pauciseptata_CBS284.85_T,SRR10017049.83555,90.70,129,9,3,240,366,1,128,4e-41,169
Cyphellophora_pluriseptata_CBS286.85_T,SRR10017049.83555,90.62,128,7,5,247,371,3,128,5e-40,165
Phialophora_europaea_CBS101466,SRR10017049.83555,90.77,130,7,5,235,361,1,128,4e-41,169
Phialophora_ambigua_CBS235.93,SRR10017049.83555,90.77,130,7,5,232,358,1,128,4e-41,169
Cladophialophora_modesta_CBS985.96_T,SRR10017049.83555,90.70,129,11,1,229,357,1,128,1e-41,171
Cyphellophora_fusarioides_MUCL44033_T,SRR10017049.83555,91.47,129,8,3,228,354,1,128,9e-43,174
