Exophiala_nigra_CBS535.94_T,SRR1763045.11060,94.80,173,7,2,201,373,397,227,7e-72,268
Exophiala_nigra_CBS535.94_T,SRR1763045.10910,90.67,193,12,5,200,391,399,212,2e-67,254
Exophiala_nigra_CBS535.94_T,SRR1763045.6254,90.67,193,11,6,201,391,399,212,3e-66,250
Exophiala_nigra_CBS535.94_T,SRR1763045.4598,92.40,171,12,1,203,373,393,224,4e-64,243
Exophiala_nigra_CBS535.94_T,SRR1763045.17144,91.03,156,13,1,203,358,377,223,4e-54,209
Exophiala_nigra_CBS535.94_T,SRR1763045.4986,88.05,159,18,1,202,360,329,172,2e-47,187
Exophiala_nigra_CBS535.94_T,SRR1763045.4413,88.05,159,18,1,202,360,327,170,2e-47,187
Exophiala_nigra_CBS535.94_T,SRR1763045.16725,80.09,211,20,21,196,386,473,265,2e-33,141
Exophiala_spinifera_CBS899.68_T,SRR1763045.11060,94.22,173,8,2,198,370,397,227,3e-70,263
Exophiala_spinifera_CBS899.68_T,SRR1763045.10910,90.10,192,14,5,197,387,399,212,3e-65,246
Exophiala_spinifera_CBS899.68_T,SRR1763045.6254,90.10,192,13,6,198,387,399,212,1e-64,244
Exophiala_spinifera_CBS899.68_T,SRR1763045.4598,91.81,171,13,1,200,370,393,224,2e-62,237
Exophiala_spinifera_CBS899.68_T,SRR1763045.17144,90.38,156,14,1,200,355,377,223,2e-52,204
Exophiala_spinifera_CBS899.68_T,SRR1763045.4986,88.05,159,18,1,199,357,329,172,2e-47,187
Exophiala_spinifera_CBS899.68_T,SRR1763045.4413,88.05,159,18,1,199,357,327,170,2e-47,187
Exophiala_spinifera_CBS899.68_T,SRR1763045.16725,79.91,219,24,19,188,387,477,260,3e-35,147
Exophiala_exophialae_CBS668.76_T,SRR1763045.11060,94.22,173,8,2,199,371,397,227,3e-70,263
Exophiala_exophialae_CBS668.76_T,SRR1763045.10910,90.10,192,14,5,198,388,399,212,3e-65,246
Exophiala_exophialae_CBS668.76_T,SRR1763045.6254,90.10,192,13,6,199,388,399,212,1e-64,244
Exophiala_exophialae_CBS668.76_T,SRR1763045.4598,91.81,171,13,1,201,371,393,224,2e-62,237
Exophiala_exophialae_CBS668.76_T,SRR1763045.17144,90.38,156,14,1,201,356,377,223,2e-52,204
Exophiala_exophialae_CBS668.76_T,SRR1763045.4986,88.05,159,18,1,200,358,329,172,2e-47,187
Exophiala_exophialae_CBS668.76_T,SRR1763045.4413,88.05,159,18,1,200,358,327,170,2e-47,187
Exophiala_exophialae_CBS668.76_T,SRR1763045.16725,79.49,234,27,20,174,388,491,260,2e-36,150
Exophiala_polymorpha_CBS138920_T,SRR1763045.11060,94.22,173,8,2,301,473,397,227,4e-70,263
Exophiala_polymorpha_CBS138920_T,SRR1763045.11060,98.11,53,1,0,642,694,93,41,5e-19,93.5
Exophiala_polymorpha_CBS138920_T,SRR1763045.10910,90.10,192,14,5,300,490,399,212,4e-65,246
Exophiala_polymorpha_CBS138920_T,SRR1763045.6254,90.10,192,13,6,301,490,399,212,1e-64,244
Exophiala_polymorpha_CBS138920_T,SRR1763045.6254,98.00,50,1,0,645,694,90,41,3e-17,87.9
Exophiala_polymorpha_CBS138920_T,SRR1763045.4598,91.81,171,13,1,303,473,393,224,2e-62,237
Exophiala_polymorpha_CBS138920_T,SRR1763045.4598,98.11,53,1,0,642,694,93,41,5e-19,93.5
Exophiala_polymorpha_CBS138920_T,SRR1763045.17144,90.38,156,14,1,303,458,377,223,2e-52,204
Exophiala_polymorpha_CBS138920_T,SRR1763045.4986,88.05,159,18,1,302,460,329,172,2e-47,187
Exophiala_polymorpha_CBS138920_T,SRR1763045.4413,88.05,159,18,1,302,460,327,170,2e-47,187
Exophiala_polymorpha_CBS138920_T,SRR1763045.16725,79.91,219,22,21,293,490,477,260,1e-34,145
Exophiala_polymorpha_CBS138920_T,SRR1763045.20006,96.43,56,1,1,640,694,96,41,2e-18,91.6
Exophiala_polymorpha_CBS138920_T,SRR1763045.21017,94.00,50,3,0,645,694,103,54,5e-14,76.8
Exophiala_polymorpha_CBS138920_T,SRR1763045.18575,94.00,50,3,0,645,694,90,41,5e-14,76.8
Exophiala_polymorpha_CBS138920_T,SRR1763045.17883,94.00,50,3,0,645,694,96,47,5e-14,76.8
Exophiala_polymorpha_CBS138920_T,SRR1763045.15719,94.00,50,3,0,645,694,90,41,5e-14,76.8
Exophiala_polymorpha_CBS138920_T,SRR1763045.11041,94.00,50,3,0,645,694,97,48,5e-14,76.8
Exophiala_polymorpha_CBS138920_T,SRR1763045.9667,94.00,50,3,0,645,694,89,40,5e-14,76.8
Exophiala_polymorpha_CBS138920_T,SRR1763045.9253,94.00,50,3,0,645,694,89,40,5e-14,76.8
Exophiala_polymorpha_CBS138920_T,SRR1763045.8995,94.00,50,3,0,645,694,90,41,5e-14,76.8
Exophiala_polymorpha_CBS138920_T,SRR1763045.7204,94.00,50,3,0,645,694,90,41,5e-14,76.8
Exophiala_polymorpha_CBS138920_T,SRR1763045.6869,94.00,50,3,0,645,694,90,41,5e-14,76.8
Exophiala_polymorpha_CBS138920_T,SRR1763045.4712,94.00,50,3,0,645,694,87,38,5e-14,76.8
Exophiala_polymorpha_CBS138920_T,SRR1763045.3542,94.00,50,3,0,645,694,87,38,5e-14,76.8
Exophiala_polymorpha_CBS138920_T,SRR1763045.455,89.36,47,5,0,648,694,86,40,6e-09,60.2
Exophiala_polymorpha_CBS138920_T,SRR1763045.7807,100.00,28,0,0,667,694,76,49,9e-07,52.8
Exophiala_oligosperma_CBS725.88_T,SRR1763045.11060,94.22,173,8,2,211,383,397,227,3e-70,263
Exophiala_oligosperma_CBS725.88_T,SRR1763045.10910,90.10,192,14,5,210,400,399,212,3e-65,246
Exophiala_oligosperma_CBS725.88_T,SRR1763045.6254,90.10,192,13,6,211,400,399,212,1e-64,244
Exophiala_oligosperma_CBS725.88_T,SRR1763045.4598,91.81,171,13,1,213,383,393,224,2e-62,237
Exophiala_oligosperma_CBS725.88_T,SRR1763045.17144,90.38,156,14,1,213,368,377,223,2e-52,204
Exophiala_oligosperma_CBS725.88_T,SRR1763045.4986,88.05,159,18,1,212,370,329,172,2e-47,187
Exophiala_oligosperma_CBS725.88_T,SRR1763045.4413,88.05,159,18,1,212,370,327,170,2e-47,187
Exophiala_oligosperma_CBS725.88_T,SRR1763045.16725,80.28,218,22,20,203,400,476,260,9e-36,148
Exophiala_jeanselmei_CBS507.90_T,SRR1763045.11060,94.22,173,8,2,203,375,397,227,3e-70,263
Exophiala_jeanselmei_CBS507.90_T,SRR1763045.11060,98.39,62,1,0,543,604,94,33,5e-24,110
Exophiala_jeanselmei_CBS507.90_T,SRR1763045.10910,90.10,192,14,5,202,392,399,212,3e-65,246
Exophiala_jeanselmei_CBS507.90_T,SRR1763045.6254,90.10,192,13,6,203,392,399,212,1e-64,244
Exophiala_jeanselmei_CBS507.90_T,SRR1763045.6254,96.77,62,2,0,543,604,94,33,2e-22,104
Exophiala_jeanselmei_CBS507.90_T,SRR1763045.4598,91.81,171,13,1,205,375,393,224,2e-62,237
Exophiala_jeanselmei_CBS507.90_T,SRR1763045.4598,98.36,61,1,0,544,604,93,33,2e-23,108
Exophiala_jeanselmei_CBS507.90_T,SRR1763045.17144,90.38,156,14,1,205,360,377,223,2e-52,204
Exophiala_jeanselmei_CBS507.90_T,SRR1763045.4986,88.05,159,18,1,204,362,329,172,2e-47,187
Exophiala_jeanselmei_CBS507.90_T,SRR1763045.4986,93.44,61,4,0,544,604,92,32,2e-18,91.6
Exophiala_jeanselmei_CBS507.90_T,SRR1763045.4413,88.05,159,18,1,204,362,327,170,2e-47,187
Exophiala_jeanselmei_CBS507.90_T,SRR1763045.4413,93.44,61,4,0,544,604,90,30,2e-18,91.6
Exophiala_jeanselmei_CBS507.90_T,SRR1763045.16725,79.82,218,24,19,194,392,476,260,1e-34,145
Exophiala_jeanselmei_CBS507.90_T,SRR1763045.20006,98.33,60,0,1,546,604,92,33,2e-22,104
Exophiala_jeanselmei_CBS507.90_T,SRR1763045.21017,94.83,58,3,0,547,604,103,46,2e-18,91.6
Exophiala_jeanselmei_CBS507.90_T,SRR1763045.18575,94.83,58,3,0,547,604,90,33,2e-18,91.6
Exophiala_jeanselmei_CBS507.90_T,SRR1763045.16370,93.44,61,4,0,544,604,92,32,2e-18,91.6
Exophiala_jeanselmei_CBS507.90_T,SRR1763045.15719,94.83,58,3,0,547,604,90,33,2e-18,91.6
Exophiala_jeanselmei_CBS507.90_T,SRR1763045.9667,94.83,58,3,0,547,604,89,32,2e-18,91.6
Exophiala_jeanselmei_CBS507.90_T,SRR1763045.9253,94.83,58,3,0,547,604,89,32,2e-18,91.6
Exophiala_jeanselmei_CBS507.90_T,SRR1763045.8995,94.83,58,3,0,547,604,90,33,2e-18,91.6
Exophiala_jeanselmei_CBS507.90_T,SRR1763045.7204,94.83,58,3,0,547,604,90,33,2e-18,91.6
Exophiala_jeanselmei_CBS507.90_T,SRR1763045.6869,94.83,58,3,0,547,604,90,33,2e-18,91.6
Exophiala_jeanselmei_CBS507.90_T,SRR1763045.4712,94.83,58,3,0,547,604,87,30,2e-18,91.6
Exophiala_jeanselmei_CBS507.90_T,SRR1763045.3542,94.83,58,3,0,547,604,87,30,2e-18,91.6
Exophiala_jeanselmei_CBS507.90_T,SRR1763045.17883,93.10,58,3,1,547,604,96,40,3e-16,84.2
Exophiala_jeanselmei_CBS507.90_T,SRR1763045.11041,93.10,58,3,1,547,603,97,40,3e-16,84.2
Exophiala_jeanselmei_CBS507.90_T,SRR1763045.455,90.91,55,5,0,550,604,86,32,2e-13,75.0
Exophiala_jeanselmei_CBS507.90_T,SRR1763045.7807,100.00,36,0,0,569,604,76,41,3e-11,67.6
Exophiala_bergeri_CBS353.52,SRR1763045.11060,94.80,173,7,2,164,336,397,227,6e-72,268
Exophiala_bergeri_CBS353.52,SRR1763045.10910,92.57,175,10,3,163,336,399,227,2e-66,250
Exophiala_bergeri_CBS353.52,SRR1763045.6254,92.57,175,9,4,164,336,399,227,8e-66,248
Exophiala_bergeri_CBS353.52,SRR1763045.4598,92.40,171,12,1,166,336,393,224,4e-64,243
Exophiala_bergeri_CBS353.52,SRR1763045.17144,91.03,156,13,1,166,321,377,223,4e-54,209
Exophiala_bergeri_CBS353.52,SRR1763045.4986,88.05,159,18,1,165,323,329,172,2e-47,187
Exophiala_bergeri_CBS353.52,SRR1763045.4413,88.05,159,18,1,165,323,327,170,2e-47,187
Exophiala_bergeri_CBS353.52,SRR1763045.16725,80.57,211,19,21,159,349,473,265,3e-35,147
Exophiala_moniliae_CBS520.76_T,SRR1763045.11060,94.80,173,7,2,201,373,397,227,7e-72,268
Exophiala_moniliae_CBS520.76_T,SRR1763045.10910,92.57,175,10,3,200,373,399,227,2e-66,250
Exophiala_moniliae_CBS520.76_T,SRR1763045.6254,92.57,175,9,4,201,373,399,227,9e-66,248
Exophiala_moniliae_CBS520.76_T,SRR1763045.4598,93.87,163,9,1,203,365,393,232,1e-64,244
Exophiala_moniliae_CBS520.76_T,SRR1763045.17144,91.03,156,13,1,203,358,377,223,4e-54,209
Exophiala_moniliae_CBS520.76_T,SRR1763045.4986,88.39,155,17,1,202,356,329,176,7e-47,185
Exophiala_moniliae_CBS520.76_T,SRR1763045.4413,88.39,155,17,1,202,356,327,174,7e-47,185
Exophiala_moniliae_CBS520.76_T,SRR1763045.16725,81.00,200,16,21,187,366,481,284,4e-34,143
Exophiala_pisciphila_CBS537.73_T,SRR1763045.11060,95.38,173,6,2,204,376,397,227,2e-73,274
Exophiala_pisciphila_CBS537.73_T,SRR1763045.11060,97.22,72,1,1,543,614,102,32,2e-27,121
Exophiala_pisciphila_CBS537.73_T,SRR1763045.10910,91.15,192,12,5,203,393,399,212,2e-68,257
Exophiala_pisciphila_CBS537.73_T,SRR1763045.10910,97.10,69,1,1,546,613,99,31,1e-25,115
Exophiala_pisciphila_CBS537.73_T,SRR1763045.6254,91.15,192,11,6,204,393,399,212,6e-68,255
Exophiala_pisciphila_CBS537.73_T,SRR1763045.6254,98.53,68,1,0,546,613,100,33,2e-27,121
Exophiala_pisciphila_CBS537.73_T,SRR1763045.4598,92.98,171,11,1,206,376,393,224,1e-65,248
Exophiala_pisciphila_CBS537.73_T,SRR1763045.4598,98.53,68,1,0,546,613,100,33,2e-27,121
Exophiala_pisciphila_CBS537.73_T,SRR1763045.17144,91.03,156,13,1,206,361,377,223,5e-54,209
Exophiala_pisciphila_CBS537.73_T,SRR1763045.4986,87.74,155,18,1,205,359,329,176,4e-45,180
Exophiala_pisciphila_CBS537.73_T,SRR1763045.4986,91.80,61,5,0,553,613,92,32,9e-17,86.1
Exophiala_pisciphila_CBS537.73_T,SRR1763045.4413,87.74,155,18,1,205,359,327,174,4e-45,180
Exophiala_pisciphila_CBS537.73_T,SRR1763045.4413,91.80,61,5,0,553,613,90,30,9e-17,86.1
Exophiala_pisciphila_CBS537.73_T,SRR1763045.16725,80.28,218,23,19,195,393,476,260,3e-36,150
Exophiala_pisciphila_CBS537.73_T,SRR1763045.21017,91.30,69,3,3,546,613,112,46,2e-18,91.6
Exophiala_pisciphila_CBS537.73_T,SRR1763045.18575,91.30,69,3,3,546,613,99,33,2e-18,91.6
Exophiala_pisciphila_CBS537.73_T,SRR1763045.15719,91.30,69,3,3,546,613,99,33,2e-18,91.6
Exophiala_pisciphila_CBS537.73_T,SRR1763045.9667,91.30,69,3,3,546,613,98,32,2e-18,91.6
Exophiala_pisciphila_CBS537.73_T,SRR1763045.9253,91.30,69,3,3,546,613,98,32,2e-18,91.6
Exophiala_pisciphila_CBS537.73_T,SRR1763045.8995,91.30,69,3,3,546,613,99,33,2e-18,91.6
Exophiala_pisciphila_CBS537.73_T,SRR1763045.7204,91.30,69,3,3,546,613,99,33,2e-18,91.6
Exophiala_pisciphila_CBS537.73_T,SRR1763045.6869,91.30,69,3,3,546,613,99,33,2e-18,91.6
Exophiala_pisciphila_CBS537.73_T,SRR1763045.4712,91.30,69,3,3,546,613,96,30,2e-18,91.6
Exophiala_pisciphila_CBS537.73_T,SRR1763045.3542,91.30,69,3,3,546,613,96,30,2e-18,91.6
Exophiala_pisciphila_CBS537.73_T,SRR1763045.16370,91.80,61,5,0,553,613,92,32,9e-17,86.1
Exophiala_pisciphila_CBS537.73_T,SRR1763045.11041,89.86,69,3,4,546,612,106,40,9e-17,86.1
Exophiala_pisciphila_CBS537.73_T,SRR1763045.17883,93.22,59,1,3,556,613,96,40,3e-16,84.2
Exophiala_pisciphila_CBS537.73_T,SRR1763045.455,100.00,37,0,0,577,613,68,32,9e-12,69.4
Exophiala_pisciphila_CBS537.73_T,SRR1763045.7807,100.00,36,0,0,578,613,76,41,3e-11,67.6
Exophiala_xenobiotica_CBS117642,SRR1763045.11060,94.80,173,7,2,196,368,397,227,6e-72,268
Exophiala_xenobiotica_CBS117642,SRR1763045.10910,90.62,192,13,5,195,385,399,212,6e-67,252
Exophiala_xenobiotica_CBS117642,SRR1763045.6254,90.62,192,12,6,196,385,399,212,2e-66,250
Exophiala_xenobiotica_CBS117642,SRR1763045.4598,92.40,171,12,1,198,368,393,224,4e-64,243
Exophiala_xenobiotica_CBS117642,SRR1763045.17144,91.03,156,13,1,198,353,377,223,4e-54,209
Exophiala_xenobiotica_CBS117642,SRR1763045.4986,88.05,159,18,1,197,355,329,172,2e-47,187
Exophiala_xenobiotica_CBS117642,SRR1763045.4413,88.05,159,18,1,197,355,327,170,2e-47,187
Exophiala_xenobiotica_CBS117642,SRR1763045.16725,80.56,216,21,20,190,385,474,260,2e-36,150
Exophiala_brunnea_CBS,SRR1763045.11060,94.80,173,7,2,232,404,397,227,8e-72,268
Exophiala_brunnea_CBS,SRR1763045.11060,98.04,51,1,0,583,633,94,44,2e-18,91.6
Exophiala_brunnea_CBS,SRR1763045.10910,91.67,192,11,5,231,421,399,212,4e-70,263
Exophiala_brunnea_CBS,SRR1763045.6254,91.67,192,10,6,232,421,399,212,1e-69,261
Exophiala_brunnea_CBS,SRR1763045.6254,96.08,51,2,0,583,633,94,44,8e-17,86.1
Exophiala_brunnea_CBS,SRR1763045.4598,92.40,171,12,1,234,404,393,224,5e-64,243
Exophiala_brunnea_CBS,SRR1763045.4598,98.00,50,1,0,584,633,93,44,6e-18,89.8
Exophiala_brunnea_CBS,SRR1763045.17144,90.38,156,14,1,234,389,377,223,2e-52,204
Exophiala_brunnea_CBS,SRR1763045.4986,89.03,155,16,1,233,387,329,176,2e-48,191
Exophiala_brunnea_CBS,SRR1763045.4413,89.03,155,16,1,233,387,327,174,2e-48,191
Exophiala_brunnea_CBS,SRR1763045.16725,80.00,215,22,20,227,421,473,260,5e-34,143
Exophiala_brunnea_CBS,SRR1763045.455,100.00,39,0,0,1,39,437,399,6e-13,73.1
Exophiala_nishimurae_CBS101538_T,SRR1763045.11060,94.22,173,8,2,210,382,397,227,3e-70,263
Exophiala_nishimurae_CBS101538_T,SRR1763045.10910,90.10,192,14,5,209,399,399,212,3e-65,246
Exophiala_nishimurae_CBS101538_T,SRR1763045.6254,90.10,192,13,6,210,399,399,212,1e-64,244
Exophiala_nishimurae_CBS101538_T,SRR1763045.4598,91.81,171,13,1,212,382,393,224,2e-62,237
Exophiala_nishimurae_CBS101538_T,SRR1763045.17144,90.38,156,14,1,212,367,377,223,2e-52,204
Exophiala_nishimurae_CBS101538_T,SRR1763045.4986,88.05,159,18,1,211,369,329,172,2e-47,187
Exophiala_nishimurae_CBS101538_T,SRR1763045.4413,88.05,159,18,1,211,369,327,170,2e-47,187
Exophiala_nishimurae_CBS101538_T,SRR1763045.16725,79.91,219,22,21,202,399,477,260,1e-34,145
Exophiala_nishimurae_CBS101538_T,SRR1763045.20006,100.00,37,0,0,553,589,92,56,8e-12,69.4
Exophiala_mesophila_CBS402.95_T,SRR1763045.11060,94.80,173,7,2,194,366,397,227,8e-72,268
Exophiala_mesophila_CBS402.95_T,SRR1763045.11060,98.39,62,1,0,550,611,93,32,5e-24,110
Exophiala_mesophila_CBS402.95_T,SRR1763045.10910,93.71,175,8,3,193,366,399,227,1e-69,261
Exophiala_mesophila_CBS402.95_T,SRR1763045.6254,93.71,175,7,4,194,366,399,227,5e-69,259
Exophiala_mesophila_CBS402.95_T,SRR1763045.6254,95.45,66,3,0,545,610,98,33,7e-23,106
Exophiala_mesophila_CBS402.95_T,SRR1763045.4598,92.40,171,12,1,196,366,393,224,5e-64,243
Exophiala_mesophila_CBS402.95_T,SRR1763045.4598,96.97,66,2,0,545,610,98,33,1e-24,111
Exophiala_mesophila_CBS402.95_T,SRR1763045.17144,90.38,156,14,1,196,351,377,223,2e-52,204
Exophiala_mesophila_CBS402.95_T,SRR1763045.4986,89.03,155,16,1,195,349,329,176,2e-48,191
Exophiala_mesophila_CBS402.95_T,SRR1763045.4986,93.55,62,4,0,549,610,93,32,5e-19,93.5
Exophiala_mesophila_CBS402.95_T,SRR1763045.4413,89.03,155,16,1,195,349,327,174,2e-48,191
Exophiala_mesophila_CBS402.95_T,SRR1763045.4413,93.55,62,4,0,549,610,91,30,5e-19,93.5
Exophiala_mesophila_CBS402.95_T,SRR1763045.16725,80.10,206,19,21,184,369,477,274,2e-32,137
Exophiala_mesophila_CBS402.95_T,SRR1763045.20006,94.44,72,1,3,540,610,102,33,2e-23,108
Exophiala_mesophila_CBS402.95_T,SRR1763045.16370,93.55,62,4,0,549,610,93,32,5e-19,93.5
Exophiala_mesophila_CBS402.95_T,SRR1763045.21017,94.83,58,3,0,553,610,103,46,2e-18,91.6
Exophiala_mesophila_CBS402.95_T,SRR1763045.18575,94.83,58,3,0,553,610,90,33,2e-18,91.6
Exophiala_mesophila_CBS402.95_T,SRR1763045.15719,94.83,58,3,0,553,610,90,33,2e-18,91.6
Exophiala_mesophila_CBS402.95_T,SRR1763045.9667,94.83,58,3,0,553,610,89,32,2e-18,91.6
Exophiala_mesophila_CBS402.95_T,SRR1763045.9253,94.83,58,3,0,553,610,89,32,2e-18,91.6
Exophiala_mesophila_CBS402.95_T,SRR1763045.8995,94.83,58,3,0,553,610,90,33,2e-18,91.6
Exophiala_mesophila_CBS402.95_T,SRR1763045.7204,94.83,58,3,0,553,610,90,33,2e-18,91.6
Exophiala_mesophila_CBS402.95_T,SRR1763045.6869,94.83,58,3,0,553,610,90,33,2e-18,91.6
Exophiala_mesophila_CBS402.95_T,SRR1763045.4712,94.83,58,3,0,553,610,87,30,2e-18,91.6
Exophiala_mesophila_CBS402.95_T,SRR1763045.3542,94.83,58,3,0,553,610,87,30,2e-18,91.6
Exophiala_mesophila_CBS402.95_T,SRR1763045.17883,93.10,58,3,1,553,610,96,40,3e-16,84.2
Exophiala_mesophila_CBS402.95_T,SRR1763045.11041,93.10,58,3,1,553,609,97,40,3e-16,84.2
Exophiala_mesophila_CBS402.95_T,SRR1763045.455,90.91,55,5,0,556,610,86,32,2e-13,75.0
Exophiala_mesophila_CBS402.95_T,SRR1763045.7807,100.00,36,0,0,575,610,76,41,3e-11,67.6
Exophiala_castellanii_CBS158.58_T,SRR1763045.11060,94.80,173,7,2,192,364,397,227,8e-72,268
Exophiala_castellanii_CBS158.58_T,SRR1763045.11060,97.06,68,2,0,543,610,99,32,1e-25,115
Exophiala_castellanii_CBS158.58_T,SRR1763045.10910,93.71,175,8,3,191,364,399,227,1e-69,261
Exophiala_castellanii_CBS158.58_T,SRR1763045.6254,93.71,175,7,4,192,364,399,227,5e-69,259
Exophiala_castellanii_CBS158.58_T,SRR1763045.6254,98.28,58,1,0,552,609,90,33,8e-22,102
Exophiala_castellanii_CBS158.58_T,SRR1763045.4598,92.40,171,12,1,194,364,393,224,5e-64,243
Exophiala_castellanii_CBS158.58_T,SRR1763045.4598,98.36,61,1,0,549,609,93,33,2e-23,108
Exophiala_castellanii_CBS158.58_T,SRR1763045.17144,90.38,156,14,1,194,349,377,223,2e-52,204
Exophiala_castellanii_CBS158.58_T,SRR1763045.4986,89.03,155,16,1,193,347,329,176,2e-48,191
Exophiala_castellanii_CBS158.58_T,SRR1763045.4986,93.55,62,4,0,548,609,93,32,5e-19,93.5
Exophiala_castellanii_CBS158.58_T,SRR1763045.4413,89.03,155,16,1,193,347,327,174,2e-48,191
Exophiala_castellanii_CBS158.58_T,SRR1763045.4413,93.55,62,4,0,548,609,91,30,5e-19,93.5
Exophiala_castellanii_CBS158.58_T,SRR1763045.16725,80.10,206,19,21,182,367,477,274,2e-32,137
Exophiala_castellanii_CBS158.58_T,SRR1763045.20006,93.33,75,3,2,537,609,107,33,5e-24,110
Exophiala_castellanii_CBS158.58_T,SRR1763045.16370,93.55,62,4,0,548,609,93,32,5e-19,93.5
Exophiala_castellanii_CBS158.58_T,SRR1763045.21017,94.83,58,3,0,552,609,103,46,2e-18,91.6
Exophiala_castellanii_CBS158.58_T,SRR1763045.18575,94.83,58,3,0,552,609,90,33,2e-18,91.6
Exophiala_castellanii_CBS158.58_T,SRR1763045.15719,94.83,58,3,0,552,609,90,33,2e-18,91.6
Exophiala_castellanii_CBS158.58_T,SRR1763045.9667,94.83,58,3,0,552,609,89,32,2e-18,91.6
Exophiala_castellanii_CBS158.58_T,SRR1763045.9253,94.83,58,3,0,552,609,89,32,2e-18,91.6
Exophiala_castellanii_CBS158.58_T,SRR1763045.8995,94.83,58,3,0,552,609,90,33,2e-18,91.6
Exophiala_castellanii_CBS158.58_T,SRR1763045.7204,94.83,58,3,0,552,609,90,33,2e-18,91.6
Exophiala_castellanii_CBS158.58_T,SRR1763045.6869,94.83,58,3,0,552,609,90,33,2e-18,91.6
Exophiala_castellanii_CBS158.58_T,SRR1763045.4712,94.83,58,3,0,552,609,87,30,2e-18,91.6
Exophiala_castellanii_CBS158.58_T,SRR1763045.3542,94.83,58,3,0,552,609,87,30,2e-18,91.6
Exophiala_castellanii_CBS158.58_T,SRR1763045.17883,93.10,58,3,1,552,609,96,40,3e-16,84.2
Exophiala_castellanii_CBS158.58_T,SRR1763045.11041,93.10,58,3,1,552,608,97,40,3e-16,84.2
Exophiala_castellanii_CBS158.58_T,SRR1763045.455,90.91,55,5,0,555,609,86,32,2e-13,75.0
Exophiala_castellanii_CBS158.58_T,SRR1763045.7807,100.00,36,0,0,574,609,76,41,3e-11,67.6
Exophiala_lecanii-corni_CBS123.33_T,SRR1763045.11060,94.22,173,8,2,215,387,397,227,3e-70,263
Exophiala_lecanii-corni_CBS123.33_T,SRR1763045.10910,93.14,175,9,3,214,387,399,227,5e-68,255
Exophiala_lecanii-corni_CBS123.33_T,SRR1763045.6254,93.14,175,8,4,215,387,399,227,2e-67,254
Exophiala_lecanii-corni_CBS123.33_T,SRR1763045.4598,92.40,171,12,1,217,387,393,224,4e-64,243
Exophiala_lecanii-corni_CBS123.33_T,SRR1763045.17144,90.38,156,14,1,217,372,377,223,2e-52,204
Exophiala_lecanii-corni_CBS123.33_T,SRR1763045.4986,87.95,166,18,2,216,381,329,166,1e-49,195
Exophiala_lecanii-corni_CBS123.33_T,SRR1763045.4413,87.95,166,18,2,216,381,327,164,1e-49,195
Exophiala_lecanii-corni_CBS123.33_T,SRR1763045.16725,80.20,202,17,22,210,390,473,274,3e-31,134
Exophiala_dermatitidis_CBS748.88,SRR1763045.11060,94.80,173,6,3,208,379,397,227,7e-71,267
Exophiala_dermatitidis_CBS748.88,SRR1763045.11060,93.67,79,4,1,558,636,109,32,7e-26,117
Exophiala_dermatitidis_CBS748.88,SRR1763045.10910,92.57,175,9,4,207,379,399,227,7e-66,250
Exophiala_dermatitidis_CBS748.88,SRR1763045.6254,92.57,175,8,5,208,379,399,227,9e-65,246
Exophiala_dermatitidis_CBS748.88,SRR1763045.6254,91.03,78,6,1,558,635,109,33,6e-22,104
Exophiala_dermatitidis_CBS748.88,SRR1763045.4598,92.40,171,11,2,210,379,393,224,1e-63,243
Exophiala_dermatitidis_CBS748.88,SRR1763045.4598,91.46,82,2,3,556,635,111,33,4e-23,108
Exophiala_dermatitidis_CBS748.88,SRR1763045.17144,91.03,156,12,2,210,364,377,223,1e-53,209
Exophiala_dermatitidis_CBS748.88,SRR1763045.4986,87.74,155,17,2,209,362,329,176,9e-45,180
Exophiala_dermatitidis_CBS748.88,SRR1763045.4986,93.44,61,4,0,575,635,92,32,4e-18,91.6
Exophiala_dermatitidis_CBS748.88,SRR1763045.4413,87.74,155,17,2,209,362,327,174,9e-45,180
Exophiala_dermatitidis_CBS748.88,SRR1763045.4413,93.44,61,4,0,575,635,90,30,4e-18,91.6
Exophiala_dermatitidis_CBS748.88,SRR1763045.20006,98.33,60,0,1,577,635,92,33,6e-22,104
Exophiala_dermatitidis_CBS748.88,SRR1763045.21017,94.83,58,3,0,578,635,103,46,4e-18,91.6
Exophiala_dermatitidis_CBS748.88,SRR1763045.18575,94.83,58,3,0,578,635,90,33,4e-18,91.6
Exophiala_dermatitidis_CBS748.88,SRR1763045.16370,93.44,61,4,0,575,635,92,32,4e-18,91.6
Exophiala_dermatitidis_CBS748.88,SRR1763045.15719,94.83,58,3,0,578,635,90,33,4e-18,91.6
Exophiala_dermatitidis_CBS748.88,SRR1763045.9667,94.83,58,3,0,578,635,89,32,4e-18,91.6
Exophiala_dermatitidis_CBS748.88,SRR1763045.9253,94.83,58,3,0,578,635,89,32,4e-18,91.6
Exophiala_dermatitidis_CBS748.88,SRR1763045.8995,94.83,58,3,0,578,635,90,33,4e-18,91.6
Exophiala_dermatitidis_CBS748.88,SRR1763045.7204,94.83,58,3,0,578,635,90,33,4e-18,91.6
Exophiala_dermatitidis_CBS748.88,SRR1763045.6869,94.83,58,3,0,578,635,90,33,4e-18,91.6
Exophiala_dermatitidis_CBS748.88,SRR1763045.4712,94.83,58,3,0,578,635,87,30,4e-18,91.6
Exophiala_dermatitidis_CBS748.88,SRR1763045.3542,94.83,58,3,0,578,635,87,30,4e-18,91.6
Exophiala_dermatitidis_CBS748.88,SRR1763045.17883,93.10,58,3,1,578,635,96,40,7e-16,84.2
Exophiala_dermatitidis_CBS748.88,SRR1763045.11041,93.10,58,3,1,578,634,97,40,7e-16,84.2
Exophiala_dermatitidis_CBS748.88,SRR1763045.455,90.91,55,5,0,581,635,86,32,4e-13,75.0
Exophiala_dermatitidis_CBS748.88,SRR1763045.7807,100.00,36,0,0,600,635,76,41,7e-11,67.6
Exophiala_angulospora_CBS482.92_T,SRR1763045.11060,95.29,170,6,2,198,367,397,230,7e-72,268
Exophiala_angulospora_CBS482.92_T,SRR1763045.10910,93.02,172,9,3,197,367,399,230,2e-66,250
Exophiala_angulospora_CBS482.92_T,SRR1763045.6254,93.02,172,8,4,198,367,399,230,9e-66,248
Exophiala_angulospora_CBS482.92_T,SRR1763045.4598,93.87,163,9,1,200,362,393,232,1e-64,244
Exophiala_angulospora_CBS482.92_T,SRR1763045.17144,91.03,156,13,1,200,355,377,223,4e-54,209
Exophiala_angulospora_CBS482.92_T,SRR1763045.4986,88.39,155,17,1,199,353,329,176,7e-47,185
Exophiala_angulospora_CBS482.92_T,SRR1763045.4413,88.39,155,17,1,199,353,327,174,7e-47,185
Exophiala_angulospora_CBS482.92_T,SRR1763045.16725,79.91,219,22,21,190,388,476,260,1e-34,145
Exophiala_opportunistica_CBS109811_T,SRR1763045.11060,94.05,185,7,4,197,381,397,217,1e-74,278
Exophiala_opportunistica_CBS109811_T,SRR1763045.10910,91.24,194,12,5,194,386,401,212,1e-69,261
Exophiala_opportunistica_CBS109811_T,SRR1763045.6254,91.15,192,11,6,197,386,399,212,5e-68,255
Exophiala_opportunistica_CBS109811_T,SRR1763045.4598,91.76,182,12,3,199,380,393,215,2e-66,250
Exophiala_opportunistica_CBS109811_T,SRR1763045.17144,91.03,156,13,1,199,354,377,223,4e-54,209
Exophiala_opportunistica_CBS109811_T,SRR1763045.4986,88.05,159,17,2,194,352,332,176,2e-47,187
Exophiala_opportunistica_CBS109811_T,SRR1763045.4413,88.05,159,17,2,194,352,330,174,2e-47,187
Exophiala_opportunistica_CBS109811_T,SRR1763045.16725,80.82,219,20,21,188,386,476,260,6e-38,156
Exophiala_salmonis_CBS157.67_T,SRR1763045.11060,95.38,173,6,2,326,498,397,227,2e-73,274
Exophiala_salmonis_CBS157.67_T,SRR1763045.11060,97.22,72,1,1,663,734,102,32,3e-27,121
Exophiala_salmonis_CBS157.67_T,SRR1763045.10910,91.15,192,12,5,325,515,399,212,2e-68,257
Exophiala_salmonis_CBS157.67_T,SRR1763045.10910,97.10,69,1,1,666,733,99,31,1e-25,115
Exophiala_salmonis_CBS157.67_T,SRR1763045.6254,91.15,192,11,6,326,515,399,212,7e-68,255
Exophiala_salmonis_CBS157.67_T,SRR1763045.6254,98.53,68,1,0,666,733,100,33,3e-27,121
Exophiala_salmonis_CBS157.67_T,SRR1763045.4598,92.98,171,11,1,328,498,393,224,1e-65,248
Exophiala_salmonis_CBS157.67_T,SRR1763045.4598,98.53,68,1,0,666,733,100,33,3e-27,121
Exophiala_salmonis_CBS157.67_T,SRR1763045.17144,91.03,156,13,1,328,483,377,223,6e-54,209
Exophiala_salmonis_CBS157.67_T,SRR1763045.4986,88.39,155,17,1,327,481,329,176,1e-46,185
Exophiala_salmonis_CBS157.67_T,SRR1763045.4986,91.80,61,5,0,673,733,92,32,1e-16,86.1
Exophiala_salmonis_CBS157.67_T,SRR1763045.4413,88.39,155,17,1,327,481,327,174,1e-46,185
Exophiala_salmonis_CBS157.67_T,SRR1763045.4413,91.80,61,5,0,673,733,90,30,1e-16,86.1
Exophiala_salmonis_CBS157.67_T,SRR1763045.4413,93.62,47,1,1,76,122,493,449,1e-11,69.4
Exophiala_salmonis_CBS157.67_T,SRR1763045.16725,80.28,218,23,19,317,515,476,260,4e-36,150
Exophiala_salmonis_CBS157.67_T,SRR1763045.21017,91.30,69,3,3,666,733,112,46,2e-18,91.6
Exophiala_salmonis_CBS157.67_T,SRR1763045.18575,91.30,69,3,3,666,733,99,33,2e-18,91.6
Exophiala_salmonis_CBS157.67_T,SRR1763045.15719,91.30,69,3,3,666,733,99,33,2e-18,91.6
Exophiala_salmonis_CBS157.67_T,SRR1763045.9667,91.30,69,3,3,666,733,98,32,2e-18,91.6
Exophiala_salmonis_CBS157.67_T,SRR1763045.9253,91.30,69,3,3,666,733,98,32,2e-18,91.6
Exophiala_salmonis_CBS157.67_T,SRR1763045.8995,91.30,69,3,3,666,733,99,33,2e-18,91.6
Exophiala_salmonis_CBS157.67_T,SRR1763045.7204,91.30,69,3,3,666,733,99,33,2e-18,91.6
Exophiala_salmonis_CBS157.67_T,SRR1763045.6869,91.30,69,3,3,666,733,99,33,2e-18,91.6
Exophiala_salmonis_CBS157.67_T,SRR1763045.4712,91.30,69,3,3,666,733,96,30,2e-18,91.6
Exophiala_salmonis_CBS157.67_T,SRR1763045.3542,91.30,69,3,3,666,733,96,30,2e-18,91.6
Exophiala_salmonis_CBS157.67_T,SRR1763045.16370,91.80,61,5,0,673,733,92,32,1e-16,86.1
Exophiala_salmonis_CBS157.67_T,SRR1763045.11041,89.86,69,3,4,666,732,106,40,1e-16,86.1
Exophiala_salmonis_CBS157.67_T,SRR1763045.17883,93.22,59,1,3,676,733,96,40,4e-16,84.2
Exophiala_salmonis_CBS157.67_T,SRR1763045.455,100.00,37,0,0,697,733,68,32,1e-11,69.4
Exophiala_salmonis_CBS157.67_T,SRR1763045.455,93.62,47,1,1,76,122,475,431,1e-11,69.4
Exophiala_salmonis_CBS157.67_T,SRR1763045.7807,100.00,36,0,0,698,733,76,41,4e-11,67.6
Exophiala_aquamarina_CBS119918_T,SRR1763045.11060,93.55,186,7,5,204,389,397,217,5e-73,272
Exophiala_aquamarina_CBS119918_T,SRR1763045.10910,90.67,193,12,6,203,394,399,212,2e-67,254
Exophiala_aquamarina_CBS119918_T,SRR1763045.6254,90.67,193,11,7,204,394,399,212,2e-66,250
Exophiala_aquamarina_CBS119918_T,SRR1763045.4598,91.26,183,12,4,206,388,393,215,3e-65,246
Exophiala_aquamarina_CBS119918_T,SRR1763045.17144,91.03,156,13,1,206,361,377,223,4e-54,209
Exophiala_aquamarina_CBS119918_T,SRR1763045.4986,88.39,155,17,1,205,359,329,176,7e-47,185
Exophiala_aquamarina_CBS119918_T,SRR1763045.4413,88.39,155,17,1,205,359,327,174,7e-47,185
Exophiala_aquamarina_CBS119918_T,SRR1763045.16725,80.82,219,21,20,195,394,476,260,5e-38,156
Exophiala_cancerae_CBS120420_T,SRR1763045.11060,94.05,185,7,4,219,403,397,217,1e-74,278
Exophiala_cancerae_CBS120420_T,SRR1763045.11060,100.00,62,0,0,563,624,94,33,1e-25,115
Exophiala_cancerae_CBS120420_T,SRR1763045.10910,91.24,194,12,5,216,408,401,212,1e-69,261
Exophiala_cancerae_CBS120420_T,SRR1763045.10910,95.71,70,1,2,556,624,99,31,1e-24,111
Exophiala_cancerae_CBS120420_T,SRR1763045.6254,91.15,192,11,6,219,408,399,212,6e-68,255
Exophiala_cancerae_CBS120420_T,SRR1763045.6254,97.10,69,1,1,556,624,100,33,1e-25,115
Exophiala_cancerae_CBS120420_T,SRR1763045.4598,91.76,182,12,3,221,402,393,215,3e-66,250
Exophiala_cancerae_CBS120420_T,SRR1763045.4598,97.10,69,1,1,556,624,100,33,1e-25,115
Exophiala_cancerae_CBS120420_T,SRR1763045.17144,91.03,156,13,1,221,376,377,223,5e-54,209
Exophiala_cancerae_CBS120420_T,SRR1763045.4986,88.05,159,17,2,216,374,332,176,2e-47,187
Exophiala_cancerae_CBS120420_T,SRR1763045.4986,91.80,61,5,0,564,624,92,32,8e-17,86.1
Exophiala_cancerae_CBS120420_T,SRR1763045.4413,88.05,159,17,2,216,374,330,174,2e-47,187
Exophiala_cancerae_CBS120420_T,SRR1763045.4413,91.80,61,5,0,564,624,90,30,8e-17,86.1
Exophiala_cancerae_CBS120420_T,SRR1763045.16725,80.82,219,20,21,210,408,476,260,6e-38,156
Exophiala_cancerae_CBS120420_T,SRR1763045.21017,94.92,59,1,2,567,624,103,46,2e-18,91.6
Exophiala_cancerae_CBS120420_T,SRR1763045.18575,94.92,59,1,2,567,624,90,33,2e-18,91.6
Exophiala_cancerae_CBS120420_T,SRR1763045.15719,94.92,59,1,2,567,624,90,33,2e-18,91.6
Exophiala_cancerae_CBS120420_T,SRR1763045.9667,94.92,59,1,2,567,624,89,32,2e-18,91.6
Exophiala_cancerae_CBS120420_T,SRR1763045.9253,94.92,59,1,2,567,624,89,32,2e-18,91.6
Exophiala_cancerae_CBS120420_T,SRR1763045.8995,94.92,59,1,2,567,624,90,33,2e-18,91.6
Exophiala_cancerae_CBS120420_T,SRR1763045.7204,94.92,59,1,2,567,624,90,33,2e-18,91.6
Exophiala_cancerae_CBS120420_T,SRR1763045.6869,94.92,59,1,2,567,624,90,33,2e-18,91.6
Exophiala_cancerae_CBS120420_T,SRR1763045.4712,94.92,59,1,2,567,624,87,30,2e-18,91.6
Exophiala_cancerae_CBS120420_T,SRR1763045.3542,94.92,59,1,2,567,624,87,30,2e-18,91.6
Exophiala_cancerae_CBS120420_T,SRR1763045.16370,91.80,61,5,0,564,624,92,32,8e-17,86.1
Exophiala_cancerae_CBS120420_T,SRR1763045.17883,93.22,59,1,3,567,624,96,40,3e-16,84.2
Exophiala_cancerae_CBS120420_T,SRR1763045.11041,93.22,59,1,3,567,623,97,40,3e-16,84.2
Exophiala_cancerae_CBS120420_T,SRR1763045.455,100.00,37,0,0,588,624,68,32,8e-12,69.4
Exophiala_cancerae_CBS120420_T,SRR1763045.7807,100.00,36,0,0,589,624,76,41,3e-11,67.6
Exophiala_tremulae_CBS129355,SRR1763045.11060,94.05,185,7,4,231,415,397,217,1e-74,278
Exophiala_tremulae_CBS129355,SRR1763045.11060,96.67,60,1,1,569,628,102,44,1e-20,99.0
Exophiala_tremulae_CBS129355,SRR1763045.10910,91.15,192,12,5,230,420,399,212,2e-68,257
Exophiala_tremulae_CBS129355,SRR1763045.10910,96.55,58,1,1,572,628,99,42,1e-19,95.3
Exophiala_tremulae_CBS129355,SRR1763045.6254,91.15,192,11,6,231,420,399,212,6e-68,255
Exophiala_tremulae_CBS129355,SRR1763045.6254,98.25,57,1,0,572,628,100,44,3e-21,100
Exophiala_tremulae_CBS129355,SRR1763045.4598,91.76,182,12,3,233,414,393,215,3e-66,250
Exophiala_tremulae_CBS129355,SRR1763045.4598,98.25,57,1,0,572,628,100,44,3e-21,100
Exophiala_tremulae_CBS129355,SRR1763045.17144,91.03,156,13,1,233,388,377,223,5e-54,209
Exophiala_tremulae_CBS129355,SRR1763045.4986,88.39,155,17,1,232,386,329,176,8e-47,185
Exophiala_tremulae_CBS129355,SRR1763045.4413,88.39,155,17,1,232,386,327,174,8e-47,185
Exophiala_tremulae_CBS129355,SRR1763045.16725,80.73,218,22,19,222,420,476,260,6e-38,156
Exophiala_tremulae_CBS129355,SRR1763045.455,100.00,39,0,0,1,39,437,399,6e-13,73.1
Exophiala_equina_CBS116009,SRR1763045.11060,94.05,185,7,4,197,381,397,217,1e-74,278
Exophiala_equina_CBS116009,SRR1763045.10910,91.15,192,12,5,196,386,399,212,1e-68,257
Exophiala_equina_CBS116009,SRR1763045.6254,91.15,192,11,6,197,386,399,212,5e-68,255
Exophiala_equina_CBS116009,SRR1763045.4598,91.76,182,12,3,199,380,393,215,2e-66,250
Exophiala_equina_CBS116009,SRR1763045.17144,91.03,156,13,1,199,354,377,223,4e-54,209
Exophiala_equina_CBS116009,SRR1763045.4986,88.39,155,17,1,198,352,329,176,7e-47,185
Exophiala_equina_CBS116009,SRR1763045.4413,88.39,155,17,1,198,352,327,174,7e-47,185
Exophiala_equina_CBS116009,SRR1763045.16725,80.73,218,22,19,188,386,476,260,6e-38,156
Exophiala_alcalophila_CBS520.82_T,SRR1763045.11060,94.80,173,7,2,208,380,397,227,7e-72,268
Exophiala_alcalophila_CBS520.82_T,SRR1763045.10910,92.66,177,10,3,205,380,401,227,2e-67,254
Exophiala_alcalophila_CBS520.82_T,SRR1763045.6254,92.57,175,9,4,208,380,399,227,9e-66,248
Exophiala_alcalophila_CBS520.82_T,SRR1763045.4598,93.87,163,9,1,210,372,393,232,1e-64,244
Exophiala_alcalophila_CBS520.82_T,SRR1763045.17144,91.03,156,13,1,210,365,377,223,4e-54,209
Exophiala_alcalophila_CBS520.82_T,SRR1763045.4986,88.05,159,17,2,205,363,332,176,2e-47,187
Exophiala_alcalophila_CBS520.82_T,SRR1763045.4413,88.05,159,17,2,205,363,330,174,2e-47,187
Exophiala_alcalophila_CBS520.82_T,SRR1763045.16725,79.19,221,24,21,197,398,477,260,2e-32,137
Exophiala_crusticola_CBS119970_T,SRR1763045.11060,95.38,173,6,2,213,385,397,227,1e-73,274
Exophiala_crusticola_CBS119970_T,SRR1763045.10910,93.14,175,9,3,212,385,399,227,5e-68,255
Exophiala_crusticola_CBS119970_T,SRR1763045.6254,93.14,175,8,4,213,385,399,227,2e-67,254
Exophiala_crusticola_CBS119970_T,SRR1763045.4598,92.98,171,11,1,215,385,393,224,9e-66,248
Exophiala_crusticola_CBS119970_T,SRR1763045.17144,91.03,156,13,1,215,370,377,223,4e-54,209
Exophiala_crusticola_CBS119970_T,SRR1763045.4986,88.39,155,17,1,214,368,329,176,7e-47,185
Exophiala_crusticola_CBS119970_T,SRR1763045.4413,88.39,155,17,1,214,368,327,174,7e-47,185
Exophiala_crusticola_CBS119970_T,SRR1763045.16725,80.00,210,20,21,209,398,472,265,5e-33,139
Rhinocladiella_atrovirens_CBS264.49,SRR1763045.11060,94.22,173,8,2,239,411,397,227,4e-70,263
Rhinocladiella_atrovirens_CBS264.49,SRR1763045.11060,96.55,58,2,0,569,626,102,45,4e-20,97.1
Rhinocladiella_atrovirens_CBS264.49,SRR1763045.10910,93.22,177,9,3,236,411,401,227,5e-69,259
Rhinocladiella_atrovirens_CBS264.49,SRR1763045.10910,94.64,56,2,1,572,626,98,43,8e-17,86.1
Rhinocladiella_atrovirens_CBS264.49,SRR1763045.6254,93.14,175,8,4,239,411,399,227,2e-67,254
Rhinocladiella_atrovirens_CBS264.49,SRR1763045.6254,96.36,55,2,0,572,626,99,45,2e-18,91.6
Rhinocladiella_atrovirens_CBS264.49,SRR1763045.4598,92.40,171,12,1,241,411,393,224,5e-64,243
Rhinocladiella_atrovirens_CBS264.49,SRR1763045.4598,98.18,55,1,0,572,626,99,45,4e-20,97.1
Rhinocladiella_atrovirens_CBS264.49,SRR1763045.17144,90.38,156,14,1,241,396,377,223,2e-52,204
Rhinocladiella_atrovirens_CBS264.49,SRR1763045.4986,87.65,170,18,3,236,405,332,166,1e-49,195
Rhinocladiella_atrovirens_CBS264.49,SRR1763045.4413,87.65,170,18,3,236,405,330,164,1e-49,195
Rhinocladiella_atrovirens_CBS264.49,SRR1763045.16725,80.20,197,17,21,238,414,468,274,1e-30,132
Rhinocladiella_atrovirens_CBS264.49,SRR1763045.455,98.00,50,0,1,1,49,442,393,8e-17,86.1
Rhinocladiella_basitona_CBS101460_T,SRR1763045.11060,94.22,173,8,2,198,370,397,227,3e-70,263
Rhinocladiella_basitona_CBS101460_T,SRR1763045.10910,90.10,192,14,5,197,387,399,212,3e-65,246
Rhinocladiella_basitona_CBS101460_T,SRR1763045.6254,90.10,192,13,6,198,387,399,212,1e-64,244
Rhinocladiella_basitona_CBS101460_T,SRR1763045.4598,91.81,171,13,1,200,370,393,224,2e-62,237
Rhinocladiella_basitona_CBS101460_T,SRR1763045.17144,90.38,156,14,1,200,355,377,223,2e-52,204
Rhinocladiella_basitona_CBS101460_T,SRR1763045.4986,88.05,159,18,1,199,357,329,172,2e-47,187
Rhinocladiella_basitona_CBS101460_T,SRR1763045.4413,88.05,159,18,1,199,357,327,170,2e-47,187
Rhinocladiella_basitona_CBS101460_T,SRR1763045.16725,79.91,219,24,19,188,387,477,260,3e-35,147
Rhinocladiella_phaeophora_CBS496.78_T,SRR1763045.11060,94.92,177,7,2,202,378,401,227,4e-74,276
Rhinocladiella_phaeophora_CBS496.78_T,SRR1763045.6254,92.74,179,9,4,202,378,403,227,5e-68,255
Rhinocladiella_phaeophora_CBS496.78_T,SRR1763045.10910,93.10,174,9,3,206,378,398,227,2e-67,254
Rhinocladiella_phaeophora_CBS496.78_T,SRR1763045.4598,92.98,171,11,1,208,378,393,224,9e-66,248
Rhinocladiella_phaeophora_CBS496.78_T,SRR1763045.17144,90.62,160,13,2,205,363,381,223,1e-54,211
Rhinocladiella_phaeophora_CBS496.78_T,SRR1763045.4986,87.74,155,18,1,207,361,329,176,3e-45,180
Rhinocladiella_phaeophora_CBS496.78_T,SRR1763045.4413,87.74,155,18,1,207,361,327,174,3e-45,180
Rhinocladiella_phaeophora_CBS496.78_T,SRR1763045.16725,80.27,223,20,23,178,381,491,274,3e-36,150
Rhinocladiella_aquaspersa_CBS313.73_T,SRR1763045.11060,94.92,177,7,2,196,372,401,227,5e-74,276
Rhinocladiella_aquaspersa_CBS313.73_T,SRR1763045.11060,94.29,70,0,4,540,606,100,32,2e-22,104
Rhinocladiella_aquaspersa_CBS313.73_T,SRR1763045.6254,92.74,179,9,4,196,372,403,227,6e-68,255
Rhinocladiella_aquaspersa_CBS313.73_T,SRR1763045.6254,92.54,67,1,4,543,605,99,33,5e-19,93.5
Rhinocladiella_aquaspersa_CBS313.73_T,SRR1763045.10910,93.10,174,9,3,200,372,398,227,2e-67,254
Rhinocladiella_aquaspersa_CBS313.73_T,SRR1763045.4598,92.98,171,11,1,202,372,393,224,1e-65,248
Rhinocladiella_aquaspersa_CBS313.73_T,SRR1763045.4598,95.08,61,0,3,548,605,93,33,5e-19,93.5
Rhinocladiella_aquaspersa_CBS313.73_T,SRR1763045.17144,90.62,160,13,2,199,357,381,223,1e-54,211
Rhinocladiella_aquaspersa_CBS313.73_T,SRR1763045.4986,87.74,155,18,1,201,355,329,176,4e-45,180
Rhinocladiella_aquaspersa_CBS313.73_T,SRR1763045.4986,86.89,61,5,3,548,605,92,32,1e-10,65.8
Rhinocladiella_aquaspersa_CBS313.73_T,SRR1763045.4413,87.74,155,18,1,201,355,327,174,4e-45,180
Rhinocladiella_aquaspersa_CBS313.73_T,SRR1763045.4413,86.89,61,5,3,548,605,90,30,1e-10,65.8
Rhinocladiella_aquaspersa_CBS313.73_T,SRR1763045.16725,80.27,223,20,23,172,375,491,274,3e-36,150
Rhinocladiella_aquaspersa_CBS313.73_T,SRR1763045.21017,89.39,66,4,3,543,605,111,46,4e-15,80.5
Rhinocladiella_aquaspersa_CBS313.73_T,SRR1763045.18575,89.39,66,4,3,543,605,98,33,4e-15,80.5
Rhinocladiella_aquaspersa_CBS313.73_T,SRR1763045.15719,89.39,66,4,3,543,605,98,33,4e-15,80.5
Rhinocladiella_aquaspersa_CBS313.73_T,SRR1763045.9667,89.39,66,4,3,543,605,97,32,4e-15,80.5
Rhinocladiella_aquaspersa_CBS313.73_T,SRR1763045.9253,89.39,66,4,3,543,605,97,32,4e-15,80.5
Rhinocladiella_aquaspersa_CBS313.73_T,SRR1763045.8995,89.39,66,4,3,543,605,98,33,4e-15,80.5
Rhinocladiella_aquaspersa_CBS313.73_T,SRR1763045.7204,89.39,66,4,3,543,605,98,33,4e-15,80.5
Rhinocladiella_aquaspersa_CBS313.73_T,SRR1763045.6869,89.39,66,4,3,543,605,98,33,4e-15,80.5
Rhinocladiella_aquaspersa_CBS313.73_T,SRR1763045.4712,89.39,66,4,3,543,605,95,30,4e-15,80.5
Rhinocladiella_aquaspersa_CBS313.73_T,SRR1763045.3542,89.39,66,4,3,543,605,95,30,4e-15,80.5
Rhinocladiella_aquaspersa_CBS313.73_T,SRR1763045.11041,87.88,66,4,4,543,604,105,40,2e-13,75.0
Rhinocladiella_aquaspersa_CBS313.73_T,SRR1763045.17883,87.69,65,3,5,544,605,102,40,2e-12,71.3
Rhinocladiella_aquaspersa_CBS313.73_T,SRR1763045.455,100.00,37,0,0,569,605,68,32,9e-12,69.4
Rhinocladiella_aquaspersa_CBS313.73_T,SRR1763045.7807,100.00,36,0,0,570,605,76,41,3e-11,67.6
Rhinocladiella_aquaspersa_CBS313.73_T,SRR1763045.16370,86.89,61,5,3,548,605,92,32,1e-10,65.8
Rhinocladiella_fasciculata_CBS132.86_T,SRR1763045.11060,94.22,173,8,2,216,388,397,227,3e-70,263
Rhinocladiella_fasciculata_CBS132.86_T,SRR1763045.10910,91.95,174,11,3,216,388,398,227,4e-64,243
Rhinocladiella_fasciculata_CBS132.86_T,SRR1763045.6254,92.00,175,10,4,216,388,399,227,4e-64,243
Rhinocladiella_fasciculata_CBS132.86_T,SRR1763045.4598,93.25,163,10,1,218,380,393,232,5e-63,239
Rhinocladiella_fasciculata_CBS132.86_T,SRR1763045.17144,90.00,160,15,1,214,373,381,223,6e-53,206
Rhinocladiella_fasciculata_CBS132.86_T,SRR1763045.4986,87.10,155,19,1,217,371,329,176,2e-43,174
Rhinocladiella_fasciculata_CBS132.86_T,SRR1763045.4413,87.10,155,19,1,217,371,327,174,2e-43,174
Rhinocladiella_fasciculata_CBS132.86_T,SRR1763045.16725,79.90,209,21,20,193,381,491,284,2e-32,137
Rhinocladiella_fasciculata_CBS132.86_T,SRR1763045.455,96.97,33,0,1,1,32,425,393,2e-07,54.7
Rhinocladiella_anceps_CBS181.65_T,SRR1763045.11060,94.22,173,8,2,198,370,397,227,3e-70,263
Rhinocladiella_anceps_CBS181.65_T,SRR1763045.10910,93.14,175,9,3,197,370,399,227,5e-68,255
Rhinocladiella_anceps_CBS181.65_T,SRR1763045.6254,93.14,175,8,4,198,370,399,227,2e-67,254
Rhinocladiella_anceps_CBS181.65_T,SRR1763045.4598,93.71,159,9,1,200,358,393,236,2e-62,237
Rhinocladiella_anceps_CBS181.65_T,SRR1763045.17144,89.57,163,15,2,200,361,377,216,5e-53,206
Rhinocladiella_anceps_CBS181.65_T,SRR1763045.4986,87.80,164,18,2,199,362,329,168,1e-48,191
Rhinocladiella_anceps_CBS181.65_T,SRR1763045.4413,87.80,164,18,2,199,362,327,166,1e-48,191
Rhinocladiella_anceps_CBS181.65_T,SRR1763045.16725,78.72,235,28,21,173,388,491,260,2e-33,141
Rhinocladiella_mackenziei_CBS367.92,SRR1763045.11060,94.77,172,7,2,187,358,397,228,3e-71,267
Rhinocladiella_mackenziei_CBS367.92,SRR1763045.11060,98.08,52,0,1,557,608,100,50,6e-18,89.8
Rhinocladiella_mackenziei_CBS367.92,SRR1763045.10910,92.61,176,10,3,184,358,401,228,7e-67,252
Rhinocladiella_mackenziei_CBS367.92,SRR1763045.10910,92.31,52,2,2,558,608,98,48,6e-13,73.1
Rhinocladiella_mackenziei_CBS367.92,SRR1763045.6254,92.53,174,9,4,187,358,399,228,3e-65,246
Rhinocladiella_mackenziei_CBS367.92,SRR1763045.6254,94.12,51,2,1,558,608,99,50,5e-14,76.8
Rhinocladiella_mackenziei_CBS367.92,SRR1763045.4598,92.94,170,11,1,189,358,393,225,3e-65,246
Rhinocladiella_mackenziei_CBS367.92,SRR1763045.4598,100.00,43,0,0,566,608,92,50,4e-15,80.5
Rhinocladiella_mackenziei_CBS367.92,SRR1763045.17144,91.03,156,13,1,189,344,377,223,5e-54,209
Rhinocladiella_mackenziei_CBS367.92,SRR1763045.4986,88.05,159,17,2,184,342,332,176,2e-47,187
Rhinocladiella_mackenziei_CBS367.92,SRR1763045.4413,88.05,159,17,2,184,342,330,174,2e-47,187
Rhinocladiella_mackenziei_CBS367.92,SRR1763045.16725,80.19,212,21,20,170,362,483,274,5e-34,143
Veronaea_compacta_CBS268.75_T,SRR1763045.11060,94.74,171,7,2,220,390,397,229,9e-71,265
Veronaea_compacta_CBS268.75_T,SRR1763045.10910,91.19,193,11,6,219,410,399,212,4e-69,259
Veronaea_compacta_CBS268.75_T,SRR1763045.6254,91.19,193,10,7,220,410,399,212,6e-68,255
Veronaea_compacta_CBS268.75_T,SRR1763045.4598,93.25,163,10,1,222,384,393,232,6e-63,239
Veronaea_compacta_CBS268.75_T,SRR1763045.17144,90.38,156,14,1,222,377,377,223,2e-52,204
Veronaea_compacta_CBS268.75_T,SRR1763045.4986,89.03,155,16,1,221,375,329,176,2e-48,191
Veronaea_compacta_CBS268.75_T,SRR1763045.4413,89.03,155,16,1,221,375,327,174,2e-48,191
Veronaea_compacta_CBS268.75_T,SRR1763045.16725,79.24,236,25,23,194,410,490,260,4e-35,147
Capronia_pilosella_AFTOL-ID657,SRR1763045.11060,95.38,173,6,2,298,470,397,227,2e-73,274
Capronia_pilosella_AFTOL-ID657,SRR1763045.11060,97.87,47,1,0,637,683,99,53,1e-15,82.4
Capronia_pilosella_AFTOL-ID657,SRR1763045.10910,93.14,175,9,3,297,470,399,227,6e-68,255
Capronia_pilosella_AFTOL-ID657,SRR1763045.6254,93.14,175,8,4,298,470,399,227,2e-67,254
Capronia_pilosella_AFTOL-ID657,SRR1763045.4598,92.98,171,11,1,300,470,393,224,1e-65,248
Capronia_pilosella_AFTOL-ID657,SRR1763045.17144,91.03,156,13,1,300,455,377,223,5e-54,209
Capronia_pilosella_AFTOL-ID657,SRR1763045.4986,88.39,155,17,1,299,453,329,176,9e-47,185
Capronia_pilosella_AFTOL-ID657,SRR1763045.4413,88.39,155,17,1,299,453,327,174,9e-47,185
Capronia_pilosella_AFTOL-ID657,SRR1763045.16725,80.82,219,20,21,290,488,476,260,7e-38,156
Capronia_pilosella_AFTOL-ID657,SRR1763045.20006,100.00,37,0,0,645,681,92,56,9e-12,69.4
Capronia_dactylotricha_DAOM208471_T,SRR1763045.11060,94.83,174,6,2,200,373,397,227,8e-72,268
Capronia_dactylotricha_DAOM208471_T,SRR1763045.11060,100.00,62,0,0,558,619,93,32,1e-25,115
Capronia_dactylotricha_DAOM208471_T,SRR1763045.10910,92.70,178,9,3,197,373,401,227,6e-68,255
Capronia_dactylotricha_DAOM208471_T,SRR1763045.10910,98.31,59,0,1,561,618,89,31,9e-22,102
Capronia_dactylotricha_DAOM208471_T,SRR1763045.6254,92.61,176,8,4,200,373,399,227,1e-65,248
Capronia_dactylotricha_DAOM208471_T,SRR1763045.6254,100.00,58,0,0,561,618,90,33,2e-23,108
Capronia_dactylotricha_DAOM208471_T,SRR1763045.4598,92.44,172,11,2,202,373,393,224,1e-64,244
Capronia_dactylotricha_DAOM208471_T,SRR1763045.4598,100.00,61,0,0,558,618,93,33,4e-25,113
Capronia_dactylotricha_DAOM208471_T,SRR1763045.17144,91.03,156,13,1,202,357,377,223,5e-54,209
Capronia_dactylotricha_DAOM208471_T,SRR1763045.4986,88.05,159,17,2,197,355,332,176,2e-47,187
Capronia_dactylotricha_DAOM208471_T,SRR1763045.4986,90.91,66,5,1,554,618,97,32,2e-17,87.9
Capronia_dactylotricha_DAOM208471_T,SRR1763045.4413,88.05,159,17,2,197,355,330,174,2e-47,187
Capronia_dactylotricha_DAOM208471_T,SRR1763045.4413,90.91,66,5,1,554,618,95,30,2e-17,87.9
Capronia_dactylotricha_DAOM208471_T,SRR1763045.16725,81.56,179,13,19,199,358,468,291,3e-31,134
Capronia_dactylotricha_DAOM208471_T,SRR1763045.21017,94.92,59,1,2,561,618,103,46,2e-18,91.6
Capronia_dactylotricha_DAOM208471_T,SRR1763045.18575,94.92,59,1,2,561,618,90,33,2e-18,91.6
Capronia_dactylotricha_DAOM208471_T,SRR1763045.15719,94.92,59,1,2,561,618,90,33,2e-18,91.6
Capronia_dactylotricha_DAOM208471_T,SRR1763045.9667,94.92,59,1,2,561,618,89,32,2e-18,91.6
Capronia_dactylotricha_DAOM208471_T,SRR1763045.9253,94.92,59,1,2,561,618,89,32,2e-18,91.6
Capronia_dactylotricha_DAOM208471_T,SRR1763045.8995,94.92,59,1,2,561,618,90,33,2e-18,91.6
Capronia_dactylotricha_DAOM208471_T,SRR1763045.7204,94.92,59,1,2,561,618,90,33,2e-18,91.6
Capronia_dactylotricha_DAOM208471_T,SRR1763045.6869,94.92,59,1,2,561,618,90,33,2e-18,91.6
Capronia_dactylotricha_DAOM208471_T,SRR1763045.4712,94.92,59,1,2,561,618,87,30,2e-18,91.6
Capronia_dactylotricha_DAOM208471_T,SRR1763045.3542,94.92,59,1,2,561,618,87,30,2e-18,91.6
Capronia_dactylotricha_DAOM208471_T,SRR1763045.16370,90.91,66,5,1,554,618,97,32,2e-17,87.9
Capronia_dactylotricha_DAOM208471_T,SRR1763045.17883,93.22,59,1,3,561,618,96,40,3e-16,84.2
Capronia_dactylotricha_DAOM208471_T,SRR1763045.11041,93.22,59,1,3,561,617,97,40,3e-16,84.2
Capronia_dactylotricha_DAOM208471_T,SRR1763045.455,100.00,37,0,0,582,618,68,32,9e-12,69.4
Capronia_dactylotricha_DAOM208471_T,SRR1763045.7807,100.00,36,0,0,583,618,76,41,3e-11,67.6
Capronia_kleinmondensis_CBS122671_T,SRR1763045.11060,94.22,173,8,2,225,397,397,227,4e-70,263
Capronia_kleinmondensis_CBS122671_T,SRR1763045.11060,97.18,71,2,0,555,625,102,32,2e-27,121
Capronia_kleinmondensis_CBS122671_T,SRR1763045.10910,93.22,177,9,3,222,397,401,227,5e-69,259
Capronia_kleinmondensis_CBS122671_T,SRR1763045.10910,98.31,59,0,1,567,624,89,31,9e-22,102
Capronia_kleinmondensis_CBS122671_T,SRR1763045.6254,93.14,175,8,4,225,397,399,227,2e-67,254
Capronia_kleinmondensis_CBS122671_T,SRR1763045.6254,100.00,58,0,0,567,624,90,33,2e-23,108
Capronia_kleinmondensis_CBS122671_T,SRR1763045.4598,92.40,171,12,1,227,397,393,224,5e-64,243
Capronia_kleinmondensis_CBS122671_T,SRR1763045.4598,100.00,61,0,0,564,624,93,33,4e-25,113
Capronia_kleinmondensis_CBS122671_T,SRR1763045.17144,90.38,156,14,1,227,382,377,223,2e-52,204
Capronia_kleinmondensis_CBS122671_T,SRR1763045.4986,87.65,170,18,3,222,391,332,166,1e-49,195
Capronia_kleinmondensis_CBS122671_T,SRR1763045.4986,91.94,62,5,0,563,624,93,32,2e-17,87.9
Capronia_kleinmondensis_CBS122671_T,SRR1763045.4413,87.65,170,18,3,222,391,330,164,1e-49,195
Capronia_kleinmondensis_CBS122671_T,SRR1763045.4413,91.94,62,5,0,563,624,91,30,2e-17,87.9
Capronia_kleinmondensis_CBS122671_T,SRR1763045.16725,80.20,197,17,21,224,400,468,274,1e-30,132
Capronia_kleinmondensis_CBS122671_T,SRR1763045.21017,94.92,59,1,2,567,624,103,46,2e-18,91.6
Capronia_kleinmondensis_CBS122671_T,SRR1763045.18575,94.92,59,1,2,567,624,90,33,2e-18,91.6
Capronia_kleinmondensis_CBS122671_T,SRR1763045.15719,94.92,59,1,2,567,624,90,33,2e-18,91.6
Capronia_kleinmondensis_CBS122671_T,SRR1763045.9667,94.92,59,1,2,567,624,89,32,2e-18,91.6
Capronia_kleinmondensis_CBS122671_T,SRR1763045.9253,94.92,59,1,2,567,624,89,32,2e-18,91.6
Capronia_kleinmondensis_CBS122671_T,SRR1763045.8995,94.92,59,1,2,567,624,90,33,2e-18,91.6
Capronia_kleinmondensis_CBS122671_T,SRR1763045.7204,94.92,59,1,2,567,624,90,33,2e-18,91.6
Capronia_kleinmondensis_CBS122671_T,SRR1763045.6869,94.92,59,1,2,567,624,90,33,2e-18,91.6
Capronia_kleinmondensis_CBS122671_T,SRR1763045.4712,94.92,59,1,2,567,624,87,30,2e-18,91.6
Capronia_kleinmondensis_CBS122671_T,SRR1763045.3542,94.92,59,1,2,567,624,87,30,2e-18,91.6
Capronia_kleinmondensis_CBS122671_T,SRR1763045.16370,91.94,62,5,0,563,624,93,32,2e-17,87.9
Capronia_kleinmondensis_CBS122671_T,SRR1763045.17883,93.22,59,1,3,567,624,96,40,3e-16,84.2
Capronia_kleinmondensis_CBS122671_T,SRR1763045.11041,93.22,59,1,3,567,623,97,40,3e-16,84.2
Capronia_kleinmondensis_CBS122671_T,SRR1763045.455,100.00,37,0,0,588,624,68,32,9e-12,69.4
Capronia_kleinmondensis_CBS122671_T,SRR1763045.455,97.22,36,0,1,1,35,428,393,5e-09,60.2
Capronia_kleinmondensis_CBS122671_T,SRR1763045.7807,100.00,36,0,0,589,624,76,41,3e-11,67.6
Capronia_mansonii_CBS101.67_T,SRR1763045.11060,95.38,173,6,2,211,383,397,227,2e-73,274
Capronia_mansonii_CBS101.67_T,SRR1763045.11060,94.81,77,3,1,553,629,107,32,9e-27,119
Capronia_mansonii_CBS101.67_T,SRR1763045.10910,93.14,175,9,3,210,383,399,227,6e-68,255
Capronia_mansonii_CBS101.67_T,SRR1763045.6254,93.14,175,8,4,211,383,399,227,2e-67,254
Capronia_mansonii_CBS101.67_T,SRR1763045.6254,95.59,68,2,1,562,628,100,33,2e-23,108
Capronia_mansonii_CBS101.67_T,SRR1763045.4598,92.98,171,11,1,213,383,393,224,1e-65,248
Capronia_mansonii_CBS101.67_T,SRR1763045.4598,92.50,80,2,3,550,628,109,33,1e-24,111
Capronia_mansonii_CBS101.67_T,SRR1763045.17144,91.03,156,13,1,213,368,377,223,5e-54,209
Capronia_mansonii_CBS101.67_T,SRR1763045.4986,88.39,155,17,1,212,366,329,176,8e-47,185
Capronia_mansonii_CBS101.67_T,SRR1763045.4986,93.44,61,4,0,568,628,92,32,2e-18,91.6
Capronia_mansonii_CBS101.67_T,SRR1763045.4413,88.39,155,17,1,212,366,327,174,8e-47,185
Capronia_mansonii_CBS101.67_T,SRR1763045.4413,93.44,61,4,0,568,628,90,30,2e-18,91.6
Capronia_mansonii_CBS101.67_T,SRR1763045.16725,80.45,220,20,22,202,401,476,260,3e-36,150
Capronia_mansonii_CBS101.67_T,SRR1763045.20006,98.33,60,0,1,570,628,92,33,2e-22,104
Capronia_mansonii_CBS101.67_T,SRR1763045.21017,94.83,58,3,0,571,628,103,46,2e-18,91.6
Capronia_mansonii_CBS101.67_T,SRR1763045.18575,94.83,58,3,0,571,628,90,33,2e-18,91.6
Capronia_mansonii_CBS101.67_T,SRR1763045.16370,93.44,61,4,0,568,628,92,32,2e-18,91.6
Capronia_mansonii_CBS101.67_T,SRR1763045.15719,94.83,58,3,0,571,628,90,33,2e-18,91.6
Capronia_mansonii_CBS101.67_T,SRR1763045.9667,94.83,58,3,0,571,628,89,32,2e-18,91.6
Capronia_mansonii_CBS101.67_T,SRR1763045.9253,94.83,58,3,0,571,628,89,32,2e-18,91.6
Capronia_mansonii_CBS101.67_T,SRR1763045.8995,94.83,58,3,0,571,628,90,33,2e-18,91.6
Capronia_mansonii_CBS101.67_T,SRR1763045.7204,94.83,58,3,0,571,628,90,33,2e-18,91.6
Capronia_mansonii_CBS101.67_T,SRR1763045.6869,94.83,58,3,0,571,628,90,33,2e-18,91.6
Capronia_mansonii_CBS101.67_T,SRR1763045.4712,94.83,58,3,0,571,628,87,30,2e-18,91.6
Capronia_mansonii_CBS101.67_T,SRR1763045.3542,94.83,58,3,0,571,628,87,30,2e-18,91.6
Capronia_mansonii_CBS101.67_T,SRR1763045.17883,93.10,58,3,1,571,628,96,40,3e-16,84.2
Capronia_mansonii_CBS101.67_T,SRR1763045.11041,93.10,58,3,1,571,627,97,40,3e-16,84.2
Capronia_mansonii_CBS101.67_T,SRR1763045.455,90.91,55,5,0,574,628,86,32,2e-13,75.0
Capronia_mansonii_CBS101.67_T,SRR1763045.7807,100.00,36,0,0,593,628,76,41,3e-11,67.6
Capronia_munkii_DAOM216390_T,SRR1763045.11060,95.38,173,6,2,211,383,397,227,2e-73,274
Capronia_munkii_DAOM216390_T,SRR1763045.11060,93.75,80,3,2,550,629,109,32,9e-27,119
Capronia_munkii_DAOM216390_T,SRR1763045.10910,93.14,175,9,3,210,383,399,227,6e-68,255
Capronia_munkii_DAOM216390_T,SRR1763045.6254,93.14,175,8,4,211,383,399,227,2e-67,254
Capronia_munkii_DAOM216390_T,SRR1763045.6254,96.97,66,2,0,563,628,98,33,1e-24,111
Capronia_munkii_DAOM216390_T,SRR1763045.4598,92.98,171,11,1,213,383,393,224,1e-65,248
Capronia_munkii_DAOM216390_T,SRR1763045.4598,96.97,66,2,0,563,628,98,33,1e-24,111
Capronia_munkii_DAOM216390_T,SRR1763045.17144,91.03,156,13,1,213,368,377,223,5e-54,209
Capronia_munkii_DAOM216390_T,SRR1763045.4986,88.39,155,17,1,212,366,329,176,8e-47,185
Capronia_munkii_DAOM216390_T,SRR1763045.4986,93.44,61,4,0,568,628,92,32,2e-18,91.6
Capronia_munkii_DAOM216390_T,SRR1763045.4413,88.39,155,17,1,212,366,327,174,8e-47,185
Capronia_munkii_DAOM216390_T,SRR1763045.4413,93.44,61,4,0,568,628,90,30,2e-18,91.6
Capronia_munkii_DAOM216390_T,SRR1763045.16725,80.45,220,20,22,202,401,476,260,3e-36,150
Capronia_munkii_DAOM216390_T,SRR1763045.20006,98.33,60,0,1,570,628,92,33,2e-22,104
Capronia_munkii_DAOM216390_T,SRR1763045.21017,94.83,58,3,0,571,628,103,46,2e-18,91.6
Capronia_munkii_DAOM216390_T,SRR1763045.18575,94.83,58,3,0,571,628,90,33,2e-18,91.6
Capronia_munkii_DAOM216390_T,SRR1763045.16370,93.44,61,4,0,568,628,92,32,2e-18,91.6
Capronia_munkii_DAOM216390_T,SRR1763045.15719,94.83,58,3,0,571,628,90,33,2e-18,91.6
Capronia_munkii_DAOM216390_T,SRR1763045.9667,94.83,58,3,0,571,628,89,32,2e-18,91.6
Capronia_munkii_DAOM216390_T,SRR1763045.9253,94.83,58,3,0,571,628,89,32,2e-18,91.6
Capronia_munkii_DAOM216390_T,SRR1763045.8995,94.83,58,3,0,571,628,90,33,2e-18,91.6
Capronia_munkii_DAOM216390_T,SRR1763045.7204,94.83,58,3,0,571,628,90,33,2e-18,91.6
Capronia_munkii_DAOM216390_T,SRR1763045.6869,94.83,58,3,0,571,628,90,33,2e-18,91.6
Capronia_munkii_DAOM216390_T,SRR1763045.4712,94.83,58,3,0,571,628,87,30,2e-18,91.6
Capronia_munkii_DAOM216390_T,SRR1763045.3542,94.83,58,3,0,571,628,87,30,2e-18,91.6
Capronia_munkii_DAOM216390_T,SRR1763045.17883,93.10,58,3,1,571,628,96,40,3e-16,84.2
Capronia_munkii_DAOM216390_T,SRR1763045.11041,93.10,58,3,1,571,627,97,40,3e-16,84.2
Capronia_munkii_DAOM216390_T,SRR1763045.455,90.91,55,5,0,574,628,86,32,2e-13,75.0
Capronia_munkii_DAOM216390_T,SRR1763045.7807,100.00,36,0,0,593,628,76,41,3e-11,67.6
Capronia_coronata_ATCC56201_T,SRR1763045.11060,95.29,170,6,2,199,368,397,230,8e-72,268
Capronia_coronata_ATCC56201_T,SRR1763045.11060,97.10,69,2,0,532,600,100,32,3e-26,117
Capronia_coronata_ATCC56201_T,SRR1763045.10910,93.02,172,9,3,198,368,399,230,3e-66,250
Capronia_coronata_ATCC56201_T,SRR1763045.6254,93.02,172,8,4,199,368,399,230,1e-65,248
Capronia_coronata_ATCC56201_T,SRR1763045.6254,94.37,71,3,1,529,599,102,33,2e-23,108
Capronia_coronata_ATCC56201_T,SRR1763045.4598,93.87,163,9,1,201,363,393,232,1e-64,244
Capronia_coronata_ATCC56201_T,SRR1763045.4598,94.37,71,3,1,529,599,102,33,2e-23,108
Capronia_coronata_ATCC56201_T,SRR1763045.17144,91.03,156,13,1,201,356,377,223,5e-54,209
Capronia_coronata_ATCC56201_T,SRR1763045.4986,88.39,155,17,1,200,354,329,176,8e-47,185
Capronia_coronata_ATCC56201_T,SRR1763045.4986,93.44,61,4,0,539,599,92,32,2e-18,91.6
Capronia_coronata_ATCC56201_T,SRR1763045.4413,88.39,155,17,1,200,354,327,174,8e-47,185
Capronia_coronata_ATCC56201_T,SRR1763045.4413,93.44,61,4,0,539,599,90,30,2e-18,91.6
Capronia_coronata_ATCC56201_T,SRR1763045.16725,79.91,224,22,22,186,389,480,260,4e-35,147
Capronia_coronata_ATCC56201_T,SRR1763045.20006,98.33,60,0,1,541,599,92,33,2e-22,104
Capronia_coronata_ATCC56201_T,SRR1763045.21017,92.42,66,5,0,534,599,111,46,1e-19,95.3
Capronia_coronata_ATCC56201_T,SRR1763045.18575,92.42,66,5,0,534,599,98,33,1e-19,95.3
Capronia_coronata_ATCC56201_T,SRR1763045.15719,92.42,66,5,0,534,599,98,33,1e-19,95.3
Capronia_coronata_ATCC56201_T,SRR1763045.9667,92.42,66,5,0,534,599,97,32,1e-19,95.3
Capronia_coronata_ATCC56201_T,SRR1763045.9253,92.42,66,5,0,534,599,97,32,1e-19,95.3
Capronia_coronata_ATCC56201_T,SRR1763045.8995,92.42,66,5,0,534,599,98,33,1e-19,95.3
Capronia_coronata_ATCC56201_T,SRR1763045.7204,92.42,66,5,0,534,599,98,33,1e-19,95.3
Capronia_coronata_ATCC56201_T,SRR1763045.6869,92.42,66,5,0,534,599,98,33,1e-19,95.3
Capronia_coronata_ATCC56201_T,SRR1763045.4712,92.42,66,5,0,534,599,95,30,1e-19,95.3
Capronia_coronata_ATCC56201_T,SRR1763045.3542,92.42,66,5,0,534,599,95,30,1e-19,95.3
Capronia_coronata_ATCC56201_T,SRR1763045.16370,93.44,61,4,0,539,599,92,32,2e-18,91.6
Capronia_coronata_ATCC56201_T,SRR1763045.11041,90.91,66,5,1,534,598,105,40,2e-17,87.9
Capronia_coronata_ATCC56201_T,SRR1763045.17883,90.77,65,4,2,535,599,102,40,8e-17,86.1
Capronia_coronata_ATCC56201_T,SRR1763045.455,90.91,55,5,0,545,599,86,32,2e-13,75.0
Capronia_coronata_ATCC56201_T,SRR1763045.7807,100.00,36,0,0,564,599,76,41,3e-11,67.6
Capronia_parasitica_CBS123.88,SRR1763045.11060,94.77,172,7,2,204,375,398,229,3e-71,267
Capronia_parasitica_CBS123.88,SRR1763045.11060,100.00,37,0,0,559,595,94,58,8e-12,69.4
Capronia_parasitica_CBS123.88,SRR1763045.10910,92.13,178,11,3,199,375,404,229,3e-66,250
Capronia_parasitica_CBS123.88,SRR1763045.10910,97.30,37,1,0,559,595,93,57,4e-10,63.9
Capronia_parasitica_CBS123.88,SRR1763045.6254,92.53,174,9,4,204,375,400,229,3e-65,246
Capronia_parasitica_CBS123.88,SRR1763045.6254,97.30,37,1,0,559,595,94,58,4e-10,63.9
Capronia_parasitica_CBS123.88,SRR1763045.4598,93.41,167,10,1,203,369,397,232,3e-65,246
Capronia_parasitica_CBS123.88,SRR1763045.4598,100.00,36,0,0,560,595,93,58,3e-11,67.6
Capronia_parasitica_CBS123.88,SRR1763045.17144,91.03,156,13,1,207,362,377,223,4e-54,209
Capronia_parasitica_CBS123.88,SRR1763045.4986,86.71,173,20,3,199,371,335,166,6e-48,189
Capronia_parasitica_CBS123.88,SRR1763045.4413,86.71,173,20,3,199,371,333,164,6e-48,189
Capronia_parasitica_CBS123.88,SRR1763045.16725,80.61,196,17,20,205,381,467,274,8e-32,135
Veronaea_japonica_CBS776.83_T,SRR1763045.11060,95.38,173,6,2,233,405,397,227,2e-73,274
Veronaea_japonica_CBS776.83_T,SRR1763045.10910,91.15,192,12,5,232,422,399,212,2e-68,257
Veronaea_japonica_CBS776.83_T,SRR1763045.6254,91.15,192,11,6,233,422,399,212,6e-68,255
Veronaea_japonica_CBS776.83_T,SRR1763045.4598,92.98,171,11,1,235,405,393,224,1e-65,248
Veronaea_japonica_CBS776.83_T,SRR1763045.17144,91.03,156,13,1,235,390,377,223,5e-54,209
Veronaea_japonica_CBS776.83_T,SRR1763045.4986,88.39,155,17,1,234,388,329,176,8e-47,185
Veronaea_japonica_CBS776.83_T,SRR1763045.4413,88.39,155,17,1,234,388,327,174,8e-47,185
Veronaea_japonica_CBS776.83_T,SRR1763045.16725,80.47,215,21,20,228,422,473,260,1e-35,148
Veronaea_japonica_CBS776.83_T,SRR1763045.455,100.00,38,0,0,1,38,436,399,2e-12,71.3
Thysanorea_papuana_CBS212.96_T,SRR1763045.11060,88.98,236,13,8,156,391,439,217,3e-75,279
Thysanorea_papuana_CBS212.96_T,SRR1763045.10910,91.15,192,12,4,206,396,399,212,2e-68,257
Thysanorea_papuana_CBS212.96_T,SRR1763045.6254,91.15,192,11,5,207,396,399,212,5e-68,255
Thysanorea_papuana_CBS212.96_T,SRR1763045.4598,92.57,175,12,1,209,383,393,220,3e-66,250
Thysanorea_papuana_CBS212.96_T,SRR1763045.17144,91.03,156,13,1,209,364,377,223,4e-54,209
Thysanorea_papuana_CBS212.96_T,SRR1763045.4986,88.39,155,17,1,208,362,329,176,7e-47,185
Thysanorea_papuana_CBS212.96_T,SRR1763045.4413,88.39,155,17,1,208,362,327,174,7e-47,185
Thysanorea_papuana_CBS212.96_T,SRR1763045.16725,79.75,237,22,25,181,396,491,260,7e-37,152
Capronia_acutiseta_ATCC56428_T,SRR1763045.11060,94.74,171,6,3,201,370,397,229,4e-70,263
Capronia_acutiseta_ATCC56428_T,SRR1763045.11060,97.18,71,1,1,529,599,101,32,8e-27,119
Capronia_acutiseta_ATCC56428_T,SRR1763045.10910,92.57,175,9,4,198,370,401,229,3e-66,250
Capronia_acutiseta_ATCC56428_T,SRR1763045.10910,95.65,69,1,2,531,598,98,31,5e-24,110
Capronia_acutiseta_ATCC56428_T,SRR1763045.6254,92.49,173,8,4,201,370,399,229,5e-64,243
Capronia_acutiseta_ATCC56428_T,SRR1763045.6254,97.06,68,1,1,531,598,99,33,4e-25,113
Capronia_acutiseta_ATCC56428_T,SRR1763045.4598,93.25,163,9,2,203,364,393,232,6e-63,239
Capronia_acutiseta_ATCC56428_T,SRR1763045.4598,97.06,68,1,1,531,598,99,33,4e-25,113
Capronia_acutiseta_ATCC56428_T,SRR1763045.4986,87.42,159,17,3,198,355,332,176,4e-45,180
Capronia_acutiseta_ATCC56428_T,SRR1763045.4986,91.80,61,5,0,538,598,92,32,8e-17,86.1
Capronia_acutiseta_ATCC56428_T,SRR1763045.4413,87.42,159,17,3,198,355,330,174,4e-45,180
Capronia_acutiseta_ATCC56428_T,SRR1763045.4413,91.80,61,5,0,538,598,90,30,8e-17,86.1
Capronia_acutiseta_ATCC56428_T,SRR1763045.16725,80.41,194,17,20,192,365,476,284,1e-30,132
Capronia_acutiseta_ATCC56428_T,SRR1763045.21017,94.92,59,1,2,541,598,103,46,2e-18,91.6
Capronia_acutiseta_ATCC56428_T,SRR1763045.18575,94.92,59,1,2,541,598,90,33,2e-18,91.6
Capronia_acutiseta_ATCC56428_T,SRR1763045.15719,94.92,59,1,2,541,598,90,33,2e-18,91.6
Capronia_acutiseta_ATCC56428_T,SRR1763045.9667,94.92,59,1,2,541,598,89,32,2e-18,91.6
Capronia_acutiseta_ATCC56428_T,SRR1763045.9253,94.92,59,1,2,541,598,89,32,2e-18,91.6
Capronia_acutiseta_ATCC56428_T,SRR1763045.8995,94.92,59,1,2,541,598,90,33,2e-18,91.6
Capronia_acutiseta_ATCC56428_T,SRR1763045.7204,94.92,59,1,2,541,598,90,33,2e-18,91.6
Capronia_acutiseta_ATCC56428_T,SRR1763045.6869,94.92,59,1,2,541,598,90,33,2e-18,91.6
Capronia_acutiseta_ATCC56428_T,SRR1763045.4712,94.92,59,1,2,541,598,87,30,2e-18,91.6
Capronia_acutiseta_ATCC56428_T,SRR1763045.3542,94.92,59,1,2,541,598,87,30,2e-18,91.6
Capronia_acutiseta_ATCC56428_T,SRR1763045.16370,91.80,61,5,0,538,598,92,32,8e-17,86.1
Capronia_acutiseta_ATCC56428_T,SRR1763045.17883,93.22,59,1,3,541,598,96,40,3e-16,84.2
Capronia_acutiseta_ATCC56428_T,SRR1763045.11041,93.22,59,1,3,541,597,97,40,3e-16,84.2
Capronia_acutiseta_ATCC56428_T,SRR1763045.455,100.00,37,0,0,562,598,68,32,8e-12,69.4
Capronia_acutiseta_ATCC56428_T,SRR1763045.7807,100.00,36,0,0,563,598,76,41,3e-11,67.6
Fonsecaea_brasiliensis_CBS119710_T,SRR1763045.11060,93.55,186,7,4,207,392,397,217,5e-73,272
Fonsecaea_brasiliensis_CBS119710_T,SRR1763045.10910,90.62,192,12,5,207,397,398,212,7e-67,252
Fonsecaea_brasiliensis_CBS119710_T,SRR1763045.6254,90.67,193,11,6,207,397,399,212,2e-66,250
Fonsecaea_brasiliensis_CBS119710_T,SRR1763045.4598,91.26,183,12,3,209,391,393,215,3e-65,246
Fonsecaea_brasiliensis_CBS119710_T,SRR1763045.17144,90.30,165,14,2,201,364,386,223,9e-56,215
Fonsecaea_brasiliensis_CBS119710_T,SRR1763045.4986,88.05,159,17,2,205,362,333,176,2e-47,187
Fonsecaea_brasiliensis_CBS119710_T,SRR1763045.4413,88.05,159,17,2,205,362,331,174,2e-47,187
Fonsecaea_brasiliensis_CBS119710_T,SRR1763045.16725,80.48,210,20,20,207,397,467,260,1e-34,145
Fonsecaea_pedrosoi_CBS271.37_T,SRR1763045.11060,94.83,174,6,3,235,408,397,227,8e-72,268
Fonsecaea_pedrosoi_CBS271.37_T,SRR1763045.11060,97.06,68,2,0,578,645,100,33,1e-25,115
Fonsecaea_pedrosoi_CBS271.37_T,SRR1763045.10910,92.57,175,9,4,235,408,398,227,3e-66,250
Fonsecaea_pedrosoi_CBS271.37_T,SRR1763045.6254,92.61,176,8,5,235,408,399,227,1e-65,248
Fonsecaea_pedrosoi_CBS271.37_T,SRR1763045.6254,94.03,67,4,0,579,645,99,33,8e-22,102
Fonsecaea_pedrosoi_CBS271.37_T,SRR1763045.4598,93.87,163,9,1,237,399,393,232,1e-64,244
Fonsecaea_pedrosoi_CBS271.37_T,SRR1763045.4598,94.12,68,3,1,578,645,99,33,8e-22,102
Fonsecaea_pedrosoi_CBS271.37_T,SRR1763045.17144,90.30,165,14,2,229,392,386,223,1e-55,215
Fonsecaea_pedrosoi_CBS271.37_T,SRR1763045.4986,88.05,159,17,2,233,390,333,176,2e-47,187
Fonsecaea_pedrosoi_CBS271.37_T,SRR1763045.4986,91.80,61,5,0,585,645,92,32,8e-17,86.1
Fonsecaea_pedrosoi_CBS271.37_T,SRR1763045.4413,88.05,159,17,2,233,390,331,174,2e-47,187
Fonsecaea_pedrosoi_CBS271.37_T,SRR1763045.4413,91.80,61,5,0,585,645,90,30,8e-17,86.1
Fonsecaea_pedrosoi_CBS271.37_T,SRR1763045.16725,80.57,211,19,21,235,426,467,260,4e-35,147
Fonsecaea_pedrosoi_CBS271.37_T,SRR1763045.21017,93.10,58,4,0,588,645,103,46,8e-17,86.1
Fonsecaea_pedrosoi_CBS271.37_T,SRR1763045.18575,93.10,58,4,0,588,645,90,33,8e-17,86.1
Fonsecaea_pedrosoi_CBS271.37_T,SRR1763045.16370,91.80,61,5,0,585,645,92,32,8e-17,86.1
Fonsecaea_pedrosoi_CBS271.37_T,SRR1763045.15719,93.10,58,4,0,588,645,90,33,8e-17,86.1
Fonsecaea_pedrosoi_CBS271.37_T,SRR1763045.9667,93.10,58,4,0,588,645,89,32,8e-17,86.1
Fonsecaea_pedrosoi_CBS271.37_T,SRR1763045.9253,93.10,58,4,0,588,645,89,32,8e-17,86.1
Fonsecaea_pedrosoi_CBS271.37_T,SRR1763045.8995,93.10,58,4,0,588,645,90,33,8e-17,86.1
Fonsecaea_pedrosoi_CBS271.37_T,SRR1763045.7204,93.10,58,4,0,588,645,90,33,8e-17,86.1
Fonsecaea_pedrosoi_CBS271.37_T,SRR1763045.6869,93.10,58,4,0,588,645,90,33,8e-17,86.1
Fonsecaea_pedrosoi_CBS271.37_T,SRR1763045.4712,93.10,58,4,0,588,645,87,30,8e-17,86.1
Fonsecaea_pedrosoi_CBS271.37_T,SRR1763045.3542,93.10,58,4,0,588,645,87,30,8e-17,86.1
Fonsecaea_pedrosoi_CBS271.37_T,SRR1763045.455,89.09,55,6,0,591,645,86,32,9e-12,69.4
Fonsecaea_pedrosoi_CBS271.37_T,SRR1763045.455,100.00,30,0,0,1,30,428,399,7e-08,56.5
Fonsecaea_pedrosoi_CBS271.37_T,SRR1763045.7807,97.22,36,1,0,610,645,76,41,1e-09,62.1
Fonsecaea_multimorphosa_CBS980.96_T,SRR1763045.11060,94.09,186,6,5,205,390,397,217,1e-74,278
Fonsecaea_multimorphosa_CBS980.96_T,SRR1763045.10910,90.62,192,12,6,205,395,398,212,7e-67,252
Fonsecaea_multimorphosa_CBS980.96_T,SRR1763045.4598,91.80,183,11,4,207,389,393,215,7e-67,252
Fonsecaea_multimorphosa_CBS980.96_T,SRR1763045.6254,90.67,193,11,7,205,395,399,212,2e-66,250
Fonsecaea_multimorphosa_CBS980.96_T,SRR1763045.17144,90.30,165,14,2,199,362,386,223,9e-56,215
Fonsecaea_multimorphosa_CBS980.96_T,SRR1763045.4986,88.05,159,17,2,203,360,333,176,2e-47,187
Fonsecaea_multimorphosa_CBS980.96_T,SRR1763045.4413,88.05,159,17,2,203,360,331,174,2e-47,187
Fonsecaea_multimorphosa_CBS980.96_T,SRR1763045.16725,80.19,212,17,23,205,395,467,260,5e-33,139
Fonsecaea_minima_CBS125760_T,SRR1763045.11060,93.55,186,7,4,201,386,397,217,5e-73,272
Fonsecaea_minima_CBS125760_T,SRR1763045.10910,90.62,192,12,5,201,391,398,212,7e-67,252
Fonsecaea_minima_CBS125760_T,SRR1763045.6254,90.67,193,11,6,201,391,399,212,2e-66,250
Fonsecaea_minima_CBS125760_T,SRR1763045.4598,91.26,183,12,3,203,385,393,215,3e-65,246
Fonsecaea_minima_CBS125760_T,SRR1763045.17144,90.30,165,14,2,195,358,386,223,9e-56,215
Fonsecaea_minima_CBS125760_T,SRR1763045.4986,88.05,159,17,2,199,356,333,176,2e-47,187
Fonsecaea_minima_CBS125760_T,SRR1763045.4413,88.05,159,17,2,199,356,331,174,2e-47,187
Fonsecaea_minima_CBS125760_T,SRR1763045.16725,80.48,210,20,20,201,391,467,260,1e-34,145
Fonsecaea_nubica_CBS269.64_T,SRR1763045.11060,94.83,174,6,3,212,385,397,227,7e-72,268
Fonsecaea_nubica_CBS269.64_T,SRR1763045.10910,92.57,175,9,4,212,385,398,227,2e-66,250
Fonsecaea_nubica_CBS269.64_T,SRR1763045.6254,92.61,176,8,5,212,385,399,227,9e-66,248
Fonsecaea_nubica_CBS269.64_T,SRR1763045.4598,93.87,163,9,1,214,376,393,232,1e-64,244
Fonsecaea_nubica_CBS269.64_T,SRR1763045.17144,90.30,165,14,2,206,369,386,223,9e-56,215
Fonsecaea_nubica_CBS269.64_T,SRR1763045.4986,88.05,159,17,2,210,367,333,176,2e-47,187
Fonsecaea_nubica_CBS269.64_T,SRR1763045.4413,88.05,159,17,2,210,367,331,174,2e-47,187
Fonsecaea_nubica_CBS269.64_T,SRR1763045.16725,81.04,211,18,21,212,403,467,260,7e-37,152
Fonsecaea_monophora_CBS269.37_T,SRR1763045.11060,94.29,175,6,4,212,386,397,227,9e-71,265
Fonsecaea_monophora_CBS269.37_T,SRR1763045.6254,92.61,176,9,4,212,386,399,227,2e-66,250
Fonsecaea_monophora_CBS269.37_T,SRR1763045.10910,92.05,176,9,5,212,386,398,227,1e-64,244
Fonsecaea_monophora_CBS269.37_T,SRR1763045.4598,93.29,164,9,2,214,377,393,232,2e-63,241
Fonsecaea_monophora_CBS269.37_T,SRR1763045.4986,87.50,160,17,3,210,368,333,176,9e-46,182
Fonsecaea_monophora_CBS269.37_T,SRR1763045.4413,87.50,160,17,3,210,368,331,174,9e-46,182
Fonsecaea_monophora_CBS269.37_T,SRR1763045.16725,80.19,212,19,22,212,404,467,260,2e-33,141
Fonsecaea_erecta_CBS125763_T,SRR1763045.11060,94.09,186,6,4,196,381,397,217,1e-74,278
Fonsecaea_erecta_CBS125763_T,SRR1763045.10910,93.10,174,9,3,196,368,398,227,2e-67,254
Fonsecaea_erecta_CBS125763_T,SRR1763045.6254,93.14,175,8,4,196,368,399,227,2e-67,254
Fonsecaea_erecta_CBS125763_T,SRR1763045.4598,91.80,183,11,3,198,380,393,215,6e-67,252
Fonsecaea_erecta_CBS125763_T,SRR1763045.17144,90.30,165,14,2,190,353,386,223,8e-56,215
Fonsecaea_erecta_CBS125763_T,SRR1763045.4986,88.05,159,17,2,194,351,333,176,2e-47,187
Fonsecaea_erecta_CBS125763_T,SRR1763045.4413,88.05,159,17,2,194,351,331,174,2e-47,187
Fonsecaea_erecta_CBS125763_T,SRR1763045.16725,80.09,221,20,22,186,386,476,260,3e-35,147
Fonsecaea_pugnacius_CBS139214_T,SRR1763045.11060,94.83,174,6,3,205,378,397,227,7e-72,268
Fonsecaea_pugnacius_CBS139214_T,SRR1763045.10910,92.57,175,9,4,205,378,398,227,2e-66,250
Fonsecaea_pugnacius_CBS139214_T,SRR1763045.6254,92.61,176,8,5,205,378,399,227,9e-66,248
Fonsecaea_pugnacius_CBS139214_T,SRR1763045.4598,93.87,163,9,1,207,369,393,232,1e-64,244
Fonsecaea_pugnacius_CBS139214_T,SRR1763045.17144,90.30,165,14,2,199,362,386,223,9e-56,215
Fonsecaea_pugnacius_CBS139214_T,SRR1763045.4986,88.05,159,17,2,203,360,333,176,2e-47,187
Fonsecaea_pugnacius_CBS139214_T,SRR1763045.4413,88.05,159,17,2,203,360,331,174,2e-47,187
Fonsecaea_pugnacius_CBS139214_T,SRR1763045.16725,80.19,212,19,22,205,397,467,260,1e-33,141
Cladophialophora_psammophila_CBS,SRR1763045.11060,94.09,186,6,4,211,396,397,217,1e-74,278
Cladophialophora_psammophila_CBS,SRR1763045.10910,93.10,174,9,3,211,383,398,227,2e-67,254
Cladophialophora_psammophila_CBS,SRR1763045.6254,93.14,175,8,4,211,383,399,227,2e-67,254
Cladophialophora_psammophila_CBS,SRR1763045.4598,91.80,183,11,3,213,395,393,215,7e-67,252
Cladophialophora_psammophila_CBS,SRR1763045.17144,90.30,165,14,2,205,368,386,223,9e-56,215
Cladophialophora_psammophila_CBS,SRR1763045.4986,88.05,159,17,2,209,366,333,176,2e-47,187
Cladophialophora_psammophila_CBS,SRR1763045.4413,88.05,159,17,2,209,366,331,174,2e-47,187
Cladophialophora_psammophila_CBS,SRR1763045.16725,79.91,229,20,23,196,401,485,260,9e-36,148
Cladophialophora_devriesii_CBS,SRR1763045.11060,94.09,186,6,5,207,392,397,217,1e-74,278
Cladophialophora_devriesii_CBS,SRR1763045.10910,90.62,192,12,6,207,397,398,212,6e-67,252
Cladophialophora_devriesii_CBS,SRR1763045.4598,91.80,183,11,4,209,391,393,215,6e-67,252
Cladophialophora_devriesii_CBS,SRR1763045.6254,90.67,193,11,7,207,397,399,212,2e-66,250
Cladophialophora_devriesii_CBS,SRR1763045.17144,90.30,165,14,2,201,364,386,223,8e-56,215
Cladophialophora_devriesii_CBS,SRR1763045.4986,88.05,159,17,2,205,362,333,176,2e-47,187
Cladophialophora_devriesii_CBS,SRR1763045.4413,88.05,159,17,2,205,362,331,174,2e-47,187
Cladophialophora_devriesii_CBS,SRR1763045.16725,80.19,212,17,23,207,397,467,260,5e-33,139
Cladophialophora_immunda_CBS834.96,SRR1763045.11060,93.55,186,7,4,209,394,397,217,5e-73,272
Cladophialophora_immunda_CBS834.96,SRR1763045.10910,90.62,192,12,5,209,399,398,212,7e-67,252
Cladophialophora_immunda_CBS834.96,SRR1763045.6254,90.67,193,11,6,209,399,399,212,2e-66,250
Cladophialophora_immunda_CBS834.96,SRR1763045.4598,91.26,183,12,3,211,393,393,215,3e-65,246
Cladophialophora_immunda_CBS834.96,SRR1763045.17144,90.30,165,14,2,203,366,386,223,9e-56,215
Cladophialophora_immunda_CBS834.96,SRR1763045.4986,88.05,159,17,2,207,364,333,176,2e-47,187
Cladophialophora_immunda_CBS834.96,SRR1763045.4413,88.05,159,17,2,207,364,331,174,2e-47,187
Cladophialophora_immunda_CBS834.96,SRR1763045.16725,80.48,210,20,20,209,399,467,260,1e-34,145
Cladophialophora_arxii_CBS306.94_T,SRR1763045.11060,94.29,175,6,3,211,385,397,227,9e-71,265
Cladophialophora_arxii_CBS306.94_T,SRR1763045.10910,92.05,176,9,4,211,385,398,227,1e-64,244
Cladophialophora_arxii_CBS306.94_T,SRR1763045.6254,90.91,187,10,6,202,385,409,227,1e-64,244
Cladophialophora_arxii_CBS306.94_T,SRR1763045.4598,93.87,163,9,1,213,375,393,232,1e-64,244
Cladophialophora_arxii_CBS306.94_T,SRR1763045.17144,90.30,165,14,2,205,368,386,223,9e-56,215
Cladophialophora_arxii_CBS306.94_T,SRR1763045.4986,88.05,159,17,2,209,366,333,176,2e-47,187
Cladophialophora_arxii_CBS306.94_T,SRR1763045.4413,88.05,159,17,2,209,366,331,174,2e-47,187
Cladophialophora_arxii_CBS306.94_T,SRR1763045.16725,79.73,222,21,22,202,403,477,260,4e-34,143
Cladophialophora_bantiana_CBS173.52,SRR1763045.11060,94.09,186,6,4,205,390,397,217,1e-74,278
Cladophialophora_bantiana_CBS173.52,SRR1763045.10910,93.10,174,9,3,205,377,398,227,2e-67,254
Cladophialophora_bantiana_CBS173.52,SRR1763045.6254,93.14,175,8,4,205,377,399,227,2e-67,254
Cladophialophora_bantiana_CBS173.52,SRR1763045.4598,91.80,183,11,3,207,389,393,215,7e-67,252
Cladophialophora_bantiana_CBS173.52,SRR1763045.17144,90.30,165,14,2,199,362,386,223,9e-56,215
Cladophialophora_bantiana_CBS173.52,SRR1763045.4986,88.05,159,17,2,203,360,333,176,2e-47,187
Cladophialophora_bantiana_CBS173.52,SRR1763045.4413,88.05,159,17,2,203,360,331,174,2e-47,187
Cladophialophora_bantiana_CBS173.52,SRR1763045.16725,80.57,211,18,21,205,395,467,260,1e-34,145
Cladophialophora_emmonsii_CBS102594,SRR1763045.11060,95.38,173,6,2,196,368,397,227,1e-73,274
Cladophialophora_emmonsii_CBS102594,SRR1763045.10910,93.10,174,9,3,196,368,398,227,2e-67,254
Cladophialophora_emmonsii_CBS102594,SRR1763045.6254,93.14,175,8,4,196,368,399,227,2e-67,254
Cladophialophora_emmonsii_CBS102594,SRR1763045.4598,92.98,171,11,1,198,368,393,224,9e-66,248
Cladophialophora_emmonsii_CBS102594,SRR1763045.17144,90.30,165,14,2,190,353,386,223,9e-56,215
Cladophialophora_emmonsii_CBS102594,SRR1763045.4986,88.05,159,17,2,194,351,333,176,2e-47,187
Cladophialophora_emmonsii_CBS102594,SRR1763045.4413,88.05,159,17,2,194,351,331,174,2e-47,187
Cladophialophora_emmonsii_CBS102594,SRR1763045.16725,80.09,211,20,21,196,387,467,260,2e-33,141
Cladophialophora_minourae_CBS556.83,SRR1763045.11060,92.57,175,9,4,204,378,397,227,9e-66,248
Cladophialophora_minourae_CBS556.83,SRR1763045.10910,91.43,175,12,3,204,378,398,227,5e-63,239
Cladophialophora_minourae_CBS556.83,SRR1763045.6254,90.96,177,10,6,204,378,399,227,2e-61,233
Cladophialophora_minourae_CBS556.83,SRR1763045.4598,90.17,173,14,3,206,378,393,224,5e-58,222
Cladophialophora_minourae_CBS556.83,SRR1763045.17144,87.43,167,17,4,198,363,386,223,5e-48,189
Cladophialophora_minourae_CBS556.83,SRR1763045.4986,91.13,124,9,2,202,324,333,211,3e-41,167
Cladophialophora_minourae_CBS556.83,SRR1763045.4413,91.13,124,9,2,202,324,331,209,3e-41,167
Cladophialophora_minourae_CBS556.83,SRR1763045.16725,78.47,209,27,17,204,395,467,260,4e-29,126
Cladophialophora_australiensis_CBS112793,SRR1763045.11060,93.55,186,8,3,205,390,398,217,4e-73,274
Cladophialophora_australiensis_CBS112793,SRR1763045.11060,95.65,69,3,0,539,607,100,32,3e-24,111
Cladophialophora_australiensis_CBS112793,SRR1763045.10910,89.90,198,14,5,199,395,404,212,2e-66,252
Cladophialophora_australiensis_CBS112793,SRR1763045.6254,90.67,193,12,5,205,395,400,212,2e-66,252
Cladophialophora_australiensis_CBS112793,SRR1763045.6254,94.37,71,3,1,536,606,102,33,4e-23,108
Cladophialophora_australiensis_CBS112793,SRR1763045.4598,91.21,182,13,2,208,389,393,215,3e-64,244
Cladophialophora_australiensis_CBS112793,SRR1763045.4598,94.37,71,3,1,536,606,102,33,4e-23,108
Cladophialophora_australiensis_CBS112793,SRR1763045.17144,90.38,156,14,1,208,363,377,223,5e-52,204
Cladophialophora_australiensis_CBS112793,SRR1763045.4986,87.74,155,18,1,207,361,329,176,9e-45,180
Cladophialophora_australiensis_CBS112793,SRR1763045.4986,91.80,61,5,0,546,606,92,32,2e-16,86.1
Cladophialophora_australiensis_CBS112793,SRR1763045.4413,87.74,155,18,1,207,361,327,174,9e-45,180
Cladophialophora_australiensis_CBS112793,SRR1763045.4413,91.80,61,5,0,546,606,90,30,2e-16,86.1
Cladophialophora_australiensis_CBS112793,SRR1763045.16725,79.91,214,22,20,202,395,472,260,4e-33,141
Cladophialophora_australiensis_CBS112793,SRR1763045.21017,88.73,71,7,1,536,606,115,46,2e-16,86.1
Cladophialophora_australiensis_CBS112793,SRR1763045.18575,88.73,71,7,1,536,606,102,33,2e-16,86.1
Cladophialophora_australiensis_CBS112793,SRR1763045.16370,91.80,61,5,0,546,606,92,32,2e-16,86.1
Cladophialophora_australiensis_CBS112793,SRR1763045.15719,88.73,71,7,1,536,606,102,33,2e-16,86.1
Cladophialophora_australiensis_CBS112793,SRR1763045.9667,88.73,71,7,1,536,606,101,32,2e-16,86.1
Cladophialophora_australiensis_CBS112793,SRR1763045.9253,88.73,71,7,1,536,606,101,32,2e-16,86.1
Cladophialophora_australiensis_CBS112793,SRR1763045.8995,88.73,71,7,1,536,606,102,33,2e-16,86.1
Cladophialophora_australiensis_CBS112793,SRR1763045.7204,88.73,71,7,1,536,606,102,33,2e-16,86.1
Cladophialophora_australiensis_CBS112793,SRR1763045.6869,88.73,71,7,1,536,606,102,33,2e-16,86.1
Cladophialophora_australiensis_CBS112793,SRR1763045.4712,88.73,71,7,1,536,606,99,30,2e-16,86.1
Cladophialophora_australiensis_CBS112793,SRR1763045.3542,88.73,71,7,1,536,606,99,30,2e-16,86.1
Cladophialophora_australiensis_CBS112793,SRR1763045.455,89.09,55,6,0,552,606,86,32,2e-11,69.4
Cladophialophora_australiensis_CBS112793,SRR1763045.7807,97.22,36,1,0,571,606,76,41,3e-09,62.1
Cladophialophora_potulentorum_CBS112222,SRR1763045.11060,92.97,185,9,3,205,389,397,217,7e-71,267
Cladophialophora_potulentorum_CBS112222,SRR1763045.11060,94.29,70,3,1,540,609,100,32,2e-22,106
Cladophialophora_potulentorum_CBS112222,SRR1763045.10910,91.15,192,12,4,204,394,399,212,4e-68,257
Cladophialophora_potulentorum_CBS112222,SRR1763045.6254,91.15,192,11,5,205,394,399,212,1e-67,255
Cladophialophora_potulentorum_CBS112222,SRR1763045.6254,95.16,62,3,0,547,608,94,33,3e-20,99.0
Cladophialophora_potulentorum_CBS112222,SRR1763045.4598,90.66,182,14,2,207,388,393,215,1e-62,239
Cladophialophora_potulentorum_CBS112222,SRR1763045.4598,96.72,61,2,0,548,608,93,33,2e-21,102
Cladophialophora_potulentorum_CBS112222,SRR1763045.17144,89.74,156,15,1,207,362,377,223,2e-50,198
Cladophialophora_potulentorum_CBS112222,SRR1763045.4986,88.39,155,17,1,206,360,329,176,2e-46,185
Cladophialophora_potulentorum_CBS112222,SRR1763045.4986,91.80,61,5,0,548,608,92,32,2e-16,86.1
Cladophialophora_potulentorum_CBS112222,SRR1763045.4413,88.39,155,17,1,206,360,327,174,2e-46,185
Cladophialophora_potulentorum_CBS112222,SRR1763045.4413,91.80,61,5,0,548,608,90,30,2e-16,86.1
Cladophialophora_potulentorum_CBS112222,SRR1763045.16725,79.36,218,25,19,196,394,476,260,2e-32,139
Cladophialophora_potulentorum_CBS112222,SRR1763045.21017,93.10,58,4,0,551,608,103,46,2e-16,86.1
Cladophialophora_potulentorum_CBS112222,SRR1763045.18575,93.10,58,4,0,551,608,90,33,2e-16,86.1
Cladophialophora_potulentorum_CBS112222,SRR1763045.16370,91.80,61,5,0,548,608,92,32,2e-16,86.1
Cladophialophora_potulentorum_CBS112222,SRR1763045.15719,93.10,58,4,0,551,608,90,33,2e-16,86.1
Cladophialophora_potulentorum_CBS112222,SRR1763045.9667,93.10,58,4,0,551,608,89,32,2e-16,86.1
Cladophialophora_potulentorum_CBS112222,SRR1763045.9253,93.10,58,4,0,551,608,89,32,2e-16,86.1
Cladophialophora_potulentorum_CBS112222,SRR1763045.8995,93.10,58,4,0,551,608,90,33,2e-16,86.1
Cladophialophora_potulentorum_CBS112222,SRR1763045.7204,93.10,58,4,0,551,608,90,33,2e-16,86.1
Cladophialophora_potulentorum_CBS112222,SRR1763045.6869,93.10,58,4,0,551,608,90,33,2e-16,86.1
Cladophialophora_potulentorum_CBS112222,SRR1763045.4712,93.10,58,4,0,551,608,87,30,2e-16,86.1
Cladophialophora_potulentorum_CBS112222,SRR1763045.3542,93.10,58,4,0,551,608,87,30,2e-16,86.1
Cladophialophora_potulentorum_CBS112222,SRR1763045.455,89.09,55,6,0,554,608,86,32,2e-11,69.4
Cladophialophora_potulentorum_CBS112222,SRR1763045.7807,97.22,36,1,0,573,608,76,41,3e-09,62.1
Cladophialophora_matsushimae_CMRP1198,SRR1763045.11060,94.22,173,8,2,209,381,397,227,3e-70,263
Cladophialophora_matsushimae_CMRP1198,SRR1763045.10910,91.15,192,12,4,208,398,399,212,1e-68,257
Cladophialophora_matsushimae_CMRP1198,SRR1763045.6254,91.15,192,11,5,209,398,399,212,5e-68,255
Cladophialophora_matsushimae_CMRP1198,SRR1763045.4598,91.81,171,13,1,211,381,393,224,2e-62,237
Cladophialophora_matsushimae_CMRP1198,SRR1763045.17144,90.38,156,14,1,211,366,377,223,2e-52,204
Cladophialophora_matsushimae_CMRP1198,SRR1763045.4986,88.27,162,17,2,210,370,329,169,4e-49,193
Cladophialophora_matsushimae_CMRP1198,SRR1763045.4413,88.27,162,17,2,210,370,327,167,4e-49,193
Cladophialophora_matsushimae_CMRP1198,SRR1763045.16725,80.53,226,23,20,193,398,484,260,1e-38,158
Cladophialophora_mycetomatis_CBS122637,SRR1763045.11060,94.38,178,8,2,194,371,397,222,5e-73,272
Cladophialophora_mycetomatis_CBS122637,SRR1763045.10910,91.67,192,11,4,193,383,399,212,3e-70,263
Cladophialophora_mycetomatis_CBS122637,SRR1763045.6254,91.67,192,10,5,194,383,399,212,1e-69,261
Cladophialophora_mycetomatis_CBS122637,SRR1763045.4598,92.05,176,13,1,196,371,393,219,3e-65,246
Cladophialophora_mycetomatis_CBS122637,SRR1763045.17144,90.38,156,14,1,196,351,377,223,2e-52,204
Cladophialophora_mycetomatis_CBS122637,SRR1763045.4986,89.03,155,16,1,195,349,329,176,1e-48,191
Cladophialophora_mycetomatis_CBS122637,SRR1763045.4413,89.03,155,16,1,195,349,327,174,1e-48,191
Cladophialophora_mycetomatis_CBS122637,SRR1763045.16725,80.09,226,22,22,179,383,483,260,2e-36,150
Cladophialophora_chaetospira_CBS127573,SRR1763045.11060,92.97,185,9,3,600,784,397,217,4e-71,267
Cladophialophora_chaetospira_CBS127573,SRR1763045.10910,90.10,192,14,4,599,789,399,212,5e-65,246
Cladophialophora_chaetospira_CBS127573,SRR1763045.6254,90.10,192,13,5,600,789,399,212,2e-64,244
Cladophialophora_chaetospira_CBS127573,SRR1763045.4598,91.86,172,13,1,605,776,390,220,9e-63,239
Cladophialophora_chaetospira_CBS127573,SRR1763045.17144,90.20,153,14,1,605,757,374,223,2e-50,198
Cladophialophora_chaetospira_CBS127573,SRR1763045.4986,87.74,155,18,1,601,755,329,176,6e-45,180
Cladophialophora_chaetospira_CBS127573,SRR1763045.4413,87.74,155,18,1,601,755,327,174,6e-45,180
Cladophialophora_chaetospira_CBS127573,SRR1763045.16725,79.53,215,21,22,596,789,472,260,1e-31,135
Cladophialophora_chaetospira_CBS127573,SRR1763045.455,100.00,31,0,0,379,409,429,399,3e-08,58.4
Cladophialophora_boppii_CBS126.86_T,SRR1763045.11060,94.54,183,6,4,202,384,397,219,3e-75,279
Cladophialophora_boppii_CBS126.86_T,SRR1763045.10910,93.14,175,9,3,201,374,399,227,5e-68,255
Cladophialophora_boppii_CBS126.86_T,SRR1763045.6254,93.14,175,8,4,202,374,399,227,2e-67,254
Cladophialophora_boppii_CBS126.86_T,SRR1763045.4598,92.27,181,11,3,204,384,393,216,2e-67,254
Cladophialophora_boppii_CBS126.86_T,SRR1763045.17144,91.03,156,13,1,204,359,377,223,4e-54,209
Cladophialophora_boppii_CBS126.86_T,SRR1763045.4986,88.39,155,17,1,203,357,329,176,7e-47,185
Cladophialophora_boppii_CBS126.86_T,SRR1763045.4413,88.39,155,17,1,203,357,327,174,7e-47,185
Cladophialophora_boppii_CBS126.86_T,SRR1763045.16725,81.05,190,15,20,198,367,472,284,7e-32,135
Cladophialophora_abundans_CBS126736,SRR1763045.11060,93.51,185,8,3,139,323,397,217,4e-73,272
Cladophialophora_abundans_CBS126736,SRR1763045.10910,91.67,192,11,4,138,328,399,212,3e-70,263
Cladophialophora_abundans_CBS126736,SRR1763045.6254,90.62,192,12,5,139,328,399,212,2e-66,250
Cladophialophora_abundans_CBS126736,SRR1763045.4598,92.57,175,12,1,141,315,393,220,2e-66,250
Cladophialophora_abundans_CBS126736,SRR1763045.17144,90.38,156,14,1,141,296,377,223,2e-52,204
Cladophialophora_abundans_CBS126736,SRR1763045.4986,89.03,155,16,1,140,294,329,176,1e-48,191
Cladophialophora_abundans_CBS126736,SRR1763045.4413,89.03,155,16,1,140,294,327,174,1e-48,191
Cladophialophora_abundans_CBS126736,SRR1763045.16725,81.04,211,18,21,138,328,468,260,6e-37,152
Capronia_semi-immersa_CBS102234,SRR1763045.11060,92.43,185,10,3,201,385,397,217,1e-69,261
Capronia_semi-immersa_CBS102234,SRR1763045.10910,90.05,191,14,4,201,390,398,212,1e-64,244
Capronia_semi-immersa_CBS102234,SRR1763045.6254,89.58,192,14,5,201,390,399,212,5e-63,239
Capronia_semi-immersa_CBS102234,SRR1763045.4598,90.11,182,15,2,203,384,393,215,2e-61,233
Capronia_semi-immersa_CBS102234,SRR1763045.17144,88.48,165,17,2,195,358,386,223,9e-51,198
Capronia_semi-immersa_CBS102234,SRR1763045.4986,86.79,159,19,2,199,356,333,176,4e-44,176
Capronia_semi-immersa_CBS102234,SRR1763045.4413,86.79,159,19,2,199,356,331,174,4e-44,176
Capronia_semi-immersa_CBS102234,SRR1763045.16725,78.95,209,24,19,201,390,467,260,1e-29,128
Phialophora_americana_CBS400.67,SRR1763045.11060,92.43,185,10,3,203,387,397,217,3e-69,261
Phialophora_americana_CBS400.67,SRR1763045.10910,90.05,191,14,4,203,392,398,212,3e-64,244
Phialophora_americana_CBS400.67,SRR1763045.6254,89.58,192,14,5,203,392,399,212,1e-62,239
Phialophora_americana_CBS400.67,SRR1763045.4598,90.11,182,15,2,205,386,393,215,7e-61,233
Phialophora_americana_CBS400.67,SRR1763045.17144,88.48,165,17,2,197,360,386,223,2e-50,198
Phialophora_americana_CBS400.67,SRR1763045.4986,86.79,159,19,2,201,358,333,176,1e-43,176
Phialophora_americana_CBS400.67,SRR1763045.4413,86.79,159,19,2,201,358,331,174,1e-43,176
Phialophora_americana_CBS400.67,SRR1763045.16725,78.95,209,24,19,203,392,467,260,3e-29,128
Phialophora_verrucosa_CBS140325_T,SRR1763045.11060,92.43,185,10,3,207,391,397,217,1e-69,261
Phialophora_verrucosa_CBS140325_T,SRR1763045.10910,90.05,191,14,4,207,396,398,212,1e-64,244
Phialophora_verrucosa_CBS140325_T,SRR1763045.6254,89.58,192,14,5,207,396,399,212,6e-63,239
Phialophora_verrucosa_CBS140325_T,SRR1763045.4598,90.11,182,15,2,209,390,393,215,3e-61,233
Phialophora_verrucosa_CBS140325_T,SRR1763045.17144,88.48,165,17,2,201,364,386,223,9e-51,198
Phialophora_verrucosa_CBS140325_T,SRR1763045.4986,86.79,159,19,2,205,362,333,176,4e-44,176
Phialophora_verrucosa_CBS140325_T,SRR1763045.4413,86.79,159,19,2,205,362,331,174,4e-44,176
Phialophora_verrucosa_CBS140325_T,SRR1763045.16725,78.95,209,24,19,207,396,467,260,1e-29,128
Cladophialophora_samoensis_CBS259.83_T,SRR1763045.11060,94.59,185,6,3,207,391,397,217,2e-76,283
Cladophialophora_samoensis_CBS259.83_T,SRR1763045.10910,91.28,195,11,5,204,396,402,212,3e-70,263
Cladophialophora_samoensis_CBS259.83_T,SRR1763045.4598,92.31,182,11,2,209,390,393,215,5e-68,255
Cladophialophora_samoensis_CBS259.83_T,SRR1763045.6254,90.62,192,12,5,207,396,399,212,2e-66,250
Cladophialophora_samoensis_CBS259.83_T,SRR1763045.17144,91.30,161,13,1,204,364,382,223,7e-57,219
Cladophialophora_samoensis_CBS259.83_T,SRR1763045.4986,88.68,159,17,1,204,362,333,176,4e-49,193
Cladophialophora_samoensis_CBS259.83_T,SRR1763045.4413,88.68,159,17,1,204,362,331,174,4e-49,193
Cladophialophora_samoensis_CBS259.83_T,SRR1763045.16725,80.86,209,20,19,207,396,467,260,3e-36,150
Cladophialophora_carrionii_CBS260.83,SRR1763045.11060,93.51,185,8,3,223,407,397,217,6e-73,272
Cladophialophora_carrionii_CBS260.83,SRR1763045.10910,90.77,195,12,5,220,412,402,212,2e-68,257
Cladophialophora_carrionii_CBS260.83,SRR1763045.6254,90.62,192,12,5,223,412,399,212,3e-66,250
Cladophialophora_carrionii_CBS260.83,SRR1763045.4598,92.00,175,13,1,225,399,393,220,1e-64,244
Cladophialophora_carrionii_CBS260.83,SRR1763045.17144,89.70,165,16,1,216,380,386,223,5e-54,209
Cladophialophora_carrionii_CBS260.83,SRR1763045.4986,87.42,159,19,1,220,378,333,176,1e-45,182
Cladophialophora_carrionii_CBS260.83,SRR1763045.4413,87.42,159,19,1,220,378,331,174,1e-45,182
Cladophialophora_carrionii_CBS260.83,SRR1763045.16725,80.00,210,20,21,223,412,467,260,6e-33,139
Exophiala_palmae_UPCB86822_T,SRR1763045.11060,95.38,173,6,2,166,338,397,227,1e-73,274
Exophiala_palmae_UPCB86822_T,SRR1763045.10910,93.14,175,9,3,165,338,399,227,5e-68,255
Exophiala_palmae_UPCB86822_T,SRR1763045.6254,93.14,175,8,4,166,338,399,227,2e-67,254
Exophiala_palmae_UPCB86822_T,SRR1763045.4598,92.98,171,11,1,168,338,393,224,8e-66,248
Exophiala_palmae_UPCB86822_T,SRR1763045.17144,91.03,156,13,1,168,323,377,223,4e-54,209
Exophiala_palmae_UPCB86822_T,SRR1763045.4986,88.39,155,17,1,167,321,329,176,6e-47,185
Exophiala_palmae_UPCB86822_T,SRR1763045.4413,88.39,155,17,1,167,321,327,174,6e-47,185
Exophiala_palmae_UPCB86822_T,SRR1763045.16725,80.48,210,19,21,161,350,473,266,1e-34,145
Cladophialophora_yegresii_CBS114405_T,SRR1763045.11060,93.51,185,8,3,208,392,397,217,5e-73,272
Cladophialophora_yegresii_CBS114405_T,SRR1763045.10910,90.77,195,12,5,205,397,402,212,1e-68,257
Cladophialophora_yegresii_CBS114405_T,SRR1763045.6254,90.62,192,12,5,208,397,399,212,2e-66,250
Cladophialophora_yegresii_CBS114405_T,SRR1763045.4598,91.21,182,13,2,210,391,393,215,1e-64,244
Cladophialophora_yegresii_CBS114405_T,SRR1763045.17144,89.70,165,16,1,201,365,386,223,4e-54,209
Cladophialophora_yegresii_CBS114405_T,SRR1763045.4986,87.42,159,19,1,205,363,333,176,9e-46,182
Cladophialophora_yegresii_CBS114405_T,SRR1763045.4413,87.42,159,19,1,205,363,331,174,9e-46,182
Cladophialophora_yegresii_CBS114405_T,SRR1763045.16725,79.90,209,22,19,208,397,467,260,5e-33,139
Knufia_epidermidis_CBS120353_T,SRR1763045.11060,94.74,171,7,2,206,376,397,229,8e-71,265
Knufia_epidermidis_CBS120353_T,SRR1763045.10910,92.57,175,10,3,203,376,401,229,8e-66,248
Knufia_epidermidis_CBS120353_T,SRR1763045.4598,94.97,159,7,1,208,366,393,236,8e-66,248
Knufia_epidermidis_CBS120353_T,SRR1763045.6254,91.91,173,10,4,206,376,399,229,5e-63,239
Knufia_epidermidis_CBS120353_T,SRR1763045.17144,90.38,156,14,1,208,363,377,223,2e-52,204
Knufia_epidermidis_CBS120353_T,SRR1763045.4986,88.17,169,17,3,203,370,332,166,9e-51,198
Knufia_epidermidis_CBS120353_T,SRR1763045.4413,88.17,169,17,3,203,370,330,164,9e-51,198
Knufia_epidermidis_CBS120353_T,SRR1763045.16725,81.35,193,14,21,193,364,482,291,1e-33,141
Arthrocladium_fulminans_CBS136243_T,SRR1763045.10910,92.13,178,10,4,196,371,404,229,2e-66,250
Arthrocladium_fulminans_CBS136243_T,SRR1763045.11060,92.98,171,10,2,201,371,397,229,9e-66,248
Arthrocladium_fulminans_CBS136243_T,SRR1763045.6254,92.49,173,9,4,201,371,399,229,1e-64,244
Arthrocladium_fulminans_CBS136243_T,SRR1763045.4598,93.08,159,10,1,203,361,393,236,9e-61,231
Arthrocladium_fulminans_CBS136243_T,SRR1763045.4986,87.88,165,18,2,202,365,329,166,4e-49,193
Arthrocladium_fulminans_CBS136243_T,SRR1763045.4413,87.88,165,18,2,202,365,327,164,4e-49,193
Arthrocladium_fulminans_CBS136243_T,SRR1763045.17144,88.46,156,17,1,203,358,377,223,2e-47,187
Arthrocladium_fulminans_CBS136243_T,SRR1763045.16725,79.89,189,18,19,190,359,478,291,2e-28,124
Anthopsis_deltoidea_CBS263.77_T,SRR1763045.11060,93.33,180,10,2,210,388,397,219,8e-71,265
Anthopsis_deltoidea_CBS263.77_T,SRR1763045.10910,90.43,188,15,3,210,395,398,212,3e-65,246
Anthopsis_deltoidea_CBS263.77_T,SRR1763045.6254,90.48,189,14,4,210,395,399,212,3e-65,246
Anthopsis_deltoidea_CBS263.77_T,SRR1763045.4598,91.01,178,15,1,212,388,393,216,5e-63,239
Anthopsis_deltoidea_CBS263.77_T,SRR1763045.17144,89.94,159,15,1,208,365,381,223,2e-52,204
Anthopsis_deltoidea_CBS263.77_T,SRR1763045.4986,87.66,154,18,1,211,363,329,176,1e-44,178
Anthopsis_deltoidea_CBS263.77_T,SRR1763045.4413,87.66,154,18,1,211,363,327,174,1e-44,178
Anthopsis_deltoidea_CBS263.77_T,SRR1763045.16725,78.44,218,24,22,200,395,476,260,1e-28,124
Cyphellophora_laciniata_CBS190.61_T,SRR1763045.11060,95.56,180,6,2,295,473,397,219,2e-77,287
Cyphellophora_laciniata_CBS190.61_T,SRR1763045.11060,98.41,63,1,0,634,696,94,32,2e-24,111
Cyphellophora_laciniata_CBS190.61_T,SRR1763045.10910,92.15,191,12,3,292,480,401,212,9e-72,268
Cyphellophora_laciniata_CBS190.61_T,SRR1763045.6254,91.53,189,12,4,295,480,399,212,2e-68,257
Cyphellophora_laciniata_CBS190.61_T,SRR1763045.6254,96.77,62,2,0,634,695,94,33,3e-22,104
Cyphellophora_laciniata_CBS190.61_T,SRR1763045.4598,92.70,178,12,1,297,473,393,216,7e-68,255
Cyphellophora_laciniata_CBS190.61_T,SRR1763045.4598,98.36,61,1,0,635,695,93,33,2e-23,108
Cyphellophora_laciniata_CBS190.61_T,SRR1763045.17144,90.97,155,13,1,297,450,377,223,2e-53,207
Cyphellophora_laciniata_CBS190.61_T,SRR1763045.4986,89.24,158,15,2,292,448,332,176,4e-50,196
Cyphellophora_laciniata_CBS190.61_T,SRR1763045.4986,93.44,61,4,0,635,695,92,32,2e-18,91.6
Cyphellophora_laciniata_CBS190.61_T,SRR1763045.4413,89.24,158,15,2,292,448,330,174,4e-50,196
Cyphellophora_laciniata_CBS190.61_T,SRR1763045.4413,90.80,87,6,1,22,108,493,409,1e-25,115
Cyphellophora_laciniata_CBS190.61_T,SRR1763045.4413,93.44,61,4,0,635,695,90,30,2e-18,91.6
Cyphellophora_laciniata_CBS190.61_T,SRR1763045.16725,80.44,225,21,22,279,480,484,260,3e-37,154
Cyphellophora_laciniata_CBS190.61_T,SRR1763045.455,95.29,85,1,2,22,105,475,393,1e-30,132
Cyphellophora_laciniata_CBS190.61_T,SRR1763045.455,90.91,55,5,0,641,695,86,32,2e-13,75.0
Cyphellophora_laciniata_CBS190.61_T,SRR1763045.20006,98.33,60,0,1,637,695,92,33,3e-22,104
Cyphellophora_laciniata_CBS190.61_T,SRR1763045.21017,94.83,58,3,0,638,695,103,46,2e-18,91.6
Cyphellophora_laciniata_CBS190.61_T,SRR1763045.18575,94.83,58,3,0,638,695,90,33,2e-18,91.6
Cyphellophora_laciniata_CBS190.61_T,SRR1763045.16370,93.44,61,4,0,635,695,92,32,2e-18,91.6
Cyphellophora_laciniata_CBS190.61_T,SRR1763045.15719,94.83,58,3,0,638,695,90,33,2e-18,91.6
Cyphellophora_laciniata_CBS190.61_T,SRR1763045.9667,94.83,58,3,0,638,695,89,32,2e-18,91.6
Cyphellophora_laciniata_CBS190.61_T,SRR1763045.9253,94.83,58,3,0,638,695,89,32,2e-18,91.6
Cyphellophora_laciniata_CBS190.61_T,SRR1763045.8995,94.83,58,3,0,638,695,90,33,2e-18,91.6
Cyphellophora_laciniata_CBS190.61_T,SRR1763045.7204,94.83,58,3,0,638,695,90,33,2e-18,91.6
Cyphellophora_laciniata_CBS190.61_T,SRR1763045.6869,94.83,58,3,0,638,695,90,33,2e-18,91.6
Cyphellophora_laciniata_CBS190.61_T,SRR1763045.4712,94.83,58,3,0,638,695,87,30,2e-18,91.6
Cyphellophora_laciniata_CBS190.61_T,SRR1763045.3542,94.83,58,3,0,638,695,87,30,2e-18,91.6
Cyphellophora_laciniata_CBS190.61_T,SRR1763045.17883,93.10,58,3,1,638,695,96,40,3e-16,84.2
Cyphellophora_laciniata_CBS190.61_T,SRR1763045.11041,93.10,58,3,1,638,694,97,40,3e-16,84.2
Cyphellophora_laciniata_CBS190.61_T,SRR1763045.7807,100.00,36,0,0,660,695,76,41,4e-11,67.6
Cyphellophora_suttonii_CBS449.91,SRR1763045.11060,95.56,180,6,2,198,376,397,219,2e-77,287
Cyphellophora_suttonii_CBS449.91,SRR1763045.10910,92.15,191,12,3,195,383,401,212,7e-72,268
Cyphellophora_suttonii_CBS449.91,SRR1763045.6254,91.53,189,12,4,198,383,399,212,1e-68,257
Cyphellophora_suttonii_CBS449.91,SRR1763045.4598,92.70,178,12,1,200,376,393,216,5e-68,255
Cyphellophora_suttonii_CBS449.91,SRR1763045.17144,90.97,155,13,1,200,353,377,223,1e-53,207
Cyphellophora_suttonii_CBS449.91,SRR1763045.4986,89.24,158,15,2,195,351,332,176,3e-50,196
Cyphellophora_suttonii_CBS449.91,SRR1763045.4413,89.24,158,15,2,195,351,330,174,3e-50,196
Cyphellophora_suttonii_CBS449.91,SRR1763045.16725,80.44,225,19,24,184,383,484,260,7e-37,152
Cyphellophora_pauciseptata_CBS284.85_T,SRR1763045.11060,95.58,181,6,2,208,387,398,219,5e-78,289
Cyphellophora_pauciseptata_CBS284.85_T,SRR1763045.10910,92.02,188,12,3,209,394,398,212,3e-70,263
Cyphellophora_pauciseptata_CBS284.85_T,SRR1763045.6254,91.58,190,12,4,208,394,400,212,4e-69,259
Cyphellophora_pauciseptata_CBS284.85_T,SRR1763045.4598,92.31,182,13,1,207,387,397,216,1e-68,257
Cyphellophora_pauciseptata_CBS284.85_T,SRR1763045.17144,90.97,155,13,1,211,364,377,223,1e-53,207
Cyphellophora_pauciseptata_CBS284.85_T,SRR1763045.4986,89.61,154,15,1,210,362,329,176,1e-49,195
Cyphellophora_pauciseptata_CBS284.85_T,SRR1763045.4413,89.61,154,15,1,210,362,327,174,1e-49,195
Cyphellophora_pauciseptata_CBS284.85_T,SRR1763045.16725,80.44,225,19,24,195,394,484,260,7e-37,152
Cyphellophora_pluriseptata_CBS286.85_T,SRR1763045.11060,94.44,180,8,2,214,392,397,219,4e-74,276
Cyphellophora_pluriseptata_CBS286.85_T,SRR1763045.10910,91.10,191,14,3,211,399,401,212,5e-68,255
Cyphellophora_pluriseptata_CBS286.85_T,SRR1763045.4598,92.13,178,13,1,216,392,393,216,2e-66,250
Cyphellophora_pluriseptata_CBS286.85_T,SRR1763045.6254,90.48,189,14,4,214,399,399,212,3e-65,246
Cyphellophora_pluriseptata_CBS286.85_T,SRR1763045.4986,88.61,158,16,2,211,367,332,176,1e-48,191
Cyphellophora_pluriseptata_CBS286.85_T,SRR1763045.4413,88.61,158,16,2,211,367,330,174,1e-48,191
Cyphellophora_pluriseptata_CBS286.85_T,SRR1763045.20694,84.66,163,9,14,214,367,457,302,9e-36,148
Phialophora_europaea_CBS101466,SRR1763045.11060,91.55,213,10,6,171,382,424,219,2e-77,287
Phialophora_europaea_CBS101466,SRR1763045.10910,91.49,188,13,3,204,389,398,212,5e-68,255
Phialophora_europaea_CBS101466,SRR1763045.6254,91.10,191,13,4,202,389,401,212,5e-68,255
Phialophora_europaea_CBS101466,SRR1763045.4598,92.70,178,12,1,206,382,393,216,5e-68,255
Phialophora_europaea_CBS101466,SRR1763045.17144,91.61,155,12,1,206,359,377,223,3e-55,213
Phialophora_europaea_CBS101466,SRR1763045.4986,89.61,154,15,1,205,357,329,176,1e-49,195
Phialophora_europaea_CBS101466,SRR1763045.4413,89.61,154,15,1,205,357,327,174,1e-49,195
Phialophora_europaea_CBS101466,SRR1763045.455,87.18,156,19,1,201,356,353,199,4e-44,176
Phialophora_europaea_CBS101466,SRR1763045.16725,79.82,218,21,22,194,389,476,260,1e-33,141
Phialophora_ambigua_CBS235.93,SRR1763045.11060,95.00,180,7,2,201,379,397,219,8e-76,281
Phialophora_ambigua_CBS235.93,SRR1763045.10910,91.62,191,13,3,198,386,401,212,1e-69,261
Phialophora_ambigua_CBS235.93,SRR1763045.4598,92.70,178,12,1,203,379,393,216,5e-68,255
Phialophora_ambigua_CBS235.93,SRR1763045.6254,91.01,189,13,4,201,386,399,212,7e-67,252
Phialophora_ambigua_CBS235.93,SRR1763045.17144,91.61,155,12,1,203,356,377,223,3e-55,213
Phialophora_ambigua_CBS235.93,SRR1763045.4986,89.24,158,15,2,198,354,332,176,3e-50,196
Phialophora_ambigua_CBS235.93,SRR1763045.4413,89.24,158,15,2,198,354,330,174,3e-50,196
Phialophora_ambigua_CBS235.93,SRR1763045.16725,80.00,225,21,23,186,386,484,260,9e-36,148
Cladophialophora_modesta_CBS985.96_T,SRR1763045.11060,94.02,184,8,3,198,381,397,217,4e-74,276
Cladophialophora_modesta_CBS985.96_T,SRR1763045.11060,95.71,70,3,0,511,580,101,32,4e-25,113
Cladophialophora_modesta_CBS985.96_T,SRR1763045.10910,91.19,193,13,4,195,386,401,212,1e-69,261
Cladophialophora_modesta_CBS985.96_T,SRR1763045.6254,91.10,191,12,5,198,386,399,212,2e-67,254
Cladophialophora_modesta_CBS985.96_T,SRR1763045.6254,95.52,67,3,0,513,579,99,33,2e-23,108
Cladophialophora_modesta_CBS985.96_T,SRR1763045.4598,91.71,181,13,2,200,380,393,215,3e-66,250
Cladophialophora_modesta_CBS985.96_T,SRR1763045.4598,95.52,67,3,0,513,579,99,33,2e-23,108
Cladophialophora_modesta_CBS985.96_T,SRR1763045.17144,90.38,156,14,1,200,355,377,223,2e-52,204
Cladophialophora_modesta_CBS985.96_T,SRR1763045.4986,88.05,159,17,2,195,353,332,176,2e-47,187
Cladophialophora_modesta_CBS985.96_T,SRR1763045.4986,93.44,61,4,0,519,579,92,32,2e-18,91.6
Cladophialophora_modesta_CBS985.96_T,SRR1763045.4413,88.05,159,17,2,195,353,330,174,2e-47,187
Cladophialophora_modesta_CBS985.96_T,SRR1763045.4413,93.44,61,4,0,519,579,90,30,2e-18,91.6
Cladophialophora_modesta_CBS985.96_T,SRR1763045.16725,80.00,235,24,22,172,386,491,260,6e-38,156
Cladophialophora_modesta_CBS985.96_T,SRR1763045.21017,96.55,58,2,0,522,579,103,46,4e-20,97.1
Cladophialophora_modesta_CBS985.96_T,SRR1763045.18575,96.55,58,2,0,522,579,90,33,4e-20,97.1
Cladophialophora_modesta_CBS985.96_T,SRR1763045.15719,96.55,58,2,0,522,579,90,33,4e-20,97.1
Cladophialophora_modesta_CBS985.96_T,SRR1763045.9667,96.55,58,2,0,522,579,89,32,4e-20,97.1
Cladophialophora_modesta_CBS985.96_T,SRR1763045.9253,96.55,58,2,0,522,579,89,32,4e-20,97.1
Cladophialophora_modesta_CBS985.96_T,SRR1763045.8995,96.55,58,2,0,522,579,90,33,4e-20,97.1
Cladophialophora_modesta_CBS985.96_T,SRR1763045.7204,96.55,58,2,0,522,579,90,33,4e-20,97.1
Cladophialophora_modesta_CBS985.96_T,SRR1763045.6869,96.55,58,2,0,522,579,90,33,4e-20,97.1
Cladophialophora_modesta_CBS985.96_T,SRR1763045.4712,96.55,58,2,0,522,579,87,30,4e-20,97.1
Cladophialophora_modesta_CBS985.96_T,SRR1763045.3542,96.55,58,2,0,522,579,87,30,4e-20,97.1
Cladophialophora_modesta_CBS985.96_T,SRR1763045.16370,93.44,61,4,0,519,579,92,32,2e-18,91.6
Cladophialophora_modesta_CBS985.96_T,SRR1763045.17883,94.83,58,2,1,522,579,96,40,6e-18,89.8
Cladophialophora_modesta_CBS985.96_T,SRR1763045.11041,94.83,58,2,1,522,578,97,40,6e-18,89.8
Cladophialophora_modesta_CBS985.96_T,SRR1763045.7807,95.65,46,0,2,534,579,84,41,6e-13,73.1
Cladophialophora_modesta_CBS985.96_T,SRR1763045.455,89.09,55,6,0,525,579,86,32,8e-12,69.4
Cyphellophora_fusarioides_MUCL44033_T,SRR1763045.11060,95.00,180,7,2,197,375,397,219,8e-76,281
Cyphellophora_fusarioides_MUCL44033_T,SRR1763045.10910,91.62,191,13,3,194,382,401,212,3e-70,263
Cyphellophora_fusarioides_MUCL44033_T,SRR1763045.6254,91.01,189,13,4,197,382,399,212,7e-67,252
Cyphellophora_fusarioides_MUCL44033_T,SRR1763045.4598,92.13,178,13,1,199,375,393,216,2e-66,250
Cyphellophora_fusarioides_MUCL44033_T,SRR1763045.17144,90.97,155,13,1,199,352,377,223,1e-53,207
Cyphellophora_fusarioides_MUCL44033_T,SRR1763045.4986,88.61,158,16,2,194,350,332,176,1e-48,191
Cyphellophora_fusarioides_MUCL44033_T,SRR1763045.4413,88.61,158,16,2,194,350,330,174,1e-48,191
Cyphellophora_fusarioides_MUCL44033_T,SRR1763045.16725,80.00,225,21,23,182,382,484,260,9e-36,148
