Exophiala_brunnea_CBS,SRR7639366.1311615,97.67,43,1,0,1,43,247,205,1e-11,75.0
Exophiala_brunnea_CBS,SRR7639366.2373734,100.00,38,0,0,1,38,50,87,2e-10,71.3
Exophiala_brunnea_CBS,SRR7639366.1662097,100.00,38,0,0,1,38,7,44,2e-10,71.3
Exophiala_brunnea_CBS,SRR7639366.1662097,100.00,38,0,0,1,38,268,231,2e-10,71.3
Exophiala_brunnea_CBS,SRR7639366.2525280,97.22,36,1,0,8,43,1,36,1e-07,62.1
Exophiala_brunnea_CBS,SRR7639366.911797,97.22,36,1,0,8,43,1,36,1e-07,62.1
Exophiala_dermatitidis_CBS748.88,SRR7639366.2426167,92.66,109,8,0,1359,1467,36,144,3e-36,158
Exophiala_dermatitidis_CBS748.88,SRR7639366.497801,92.66,109,8,0,1359,1467,186,294,3e-36,158
Exophiala_dermatitidis_CBS748.88,SRR7639366.304092,90.52,116,11,0,1387,1502,151,266,4e-35,154
Exophiala_dermatitidis_CBS748.88,SRR7639366.304092,89.81,108,11,0,1395,1502,150,43,1e-30,139
Exophiala_dermatitidis_CBS748.88,SRR7639366.2303783,81.21,149,23,4,1213,1359,155,300,2e-23,115
Exophiala_dermatitidis_CBS748.88,SRR7639366.2303783,100.00,59,0,0,1446,1504,150,92,9e-22,110
Exophiala_dermatitidis_CBS748.88,SRR7639366.2405710,95.45,44,2,0,1213,1256,76,33,4e-10,71.3
Exophiala_dermatitidis_CBS748.88,SRR7639366.1906943,95.45,44,2,0,1213,1256,242,199,4e-10,71.3
Exophiala_dermatitidis_CBS748.88,SRR7639366.2871187,97.30,37,1,0,1210,1246,111,147,7e-08,63.9
Exophiala_dermatitidis_CBS748.88,SRR7639366.2871187,97.30,37,1,0,1210,1246,191,155,7e-08,63.9
Exophiala_dermatitidis_CBS748.88,SRR7639366.2497826,97.30,37,1,0,1210,1246,38,2,7e-08,63.9
Exophiala_dermatitidis_CBS748.88,SRR7639366.2497826,97.30,37,1,0,1210,1246,237,273,7e-08,63.9
Exophiala_dermatitidis_CBS748.88,SRR7639366.2244751,94.87,39,2,0,1218,1256,1,39,3e-07,62.1
Exophiala_tremulae_CBS129355,SRR7639366.1311615,97.67,43,1,0,1,43,247,205,1e-11,75.0
Exophiala_tremulae_CBS129355,SRR7639366.2373734,100.00,38,0,0,1,38,50,87,2e-10,71.3
Exophiala_tremulae_CBS129355,SRR7639366.1662097,100.00,38,0,0,1,38,7,44,2e-10,71.3
Exophiala_tremulae_CBS129355,SRR7639366.1662097,100.00,38,0,0,1,38,268,231,2e-10,71.3
Exophiala_tremulae_CBS129355,SRR7639366.2525280,97.22,36,1,0,8,43,1,36,1e-07,62.1
Exophiala_tremulae_CBS129355,SRR7639366.911797,97.22,36,1,0,8,43,1,36,1e-07,62.1
Rhinocladiella_atrovirens_CBS264.49,SRR7639366.1311615,100.00,48,0,0,1,48,252,205,5e-16,89.8
Rhinocladiella_atrovirens_CBS264.49,SRR7639366.2373734,100.00,43,0,0,1,43,45,87,3e-13,80.5
Rhinocladiella_atrovirens_CBS264.49,SRR7639366.1662097,100.00,43,0,0,1,43,2,44,3e-13,80.5
Rhinocladiella_atrovirens_CBS264.49,SRR7639366.1662097,100.00,43,0,0,1,43,273,231,3e-13,80.5
Rhinocladiella_atrovirens_CBS264.49,SRR7639366.2525280,100.00,36,0,0,13,48,1,36,2e-09,67.6
Rhinocladiella_atrovirens_CBS264.49,SRR7639366.911797,100.00,36,0,0,13,48,1,36,2e-09,67.6
Rhinocladiella_fasciculata_CBS132.86_T,SRR7639366.2525280,100.00,31,0,0,1,31,6,36,1e-06,58.4
Rhinocladiella_fasciculata_CBS132.86_T,SRR7639366.1311615,100.00,31,0,0,1,31,235,205,1e-06,58.4
Rhinocladiella_fasciculata_CBS132.86_T,SRR7639366.911797,100.00,31,0,0,1,31,6,36,1e-06,58.4
Capronia_kleinmondensis_CBS122671_T,SRR7639366.2525280,100.00,34,0,0,1,34,3,36,3e-08,63.9
Capronia_kleinmondensis_CBS122671_T,SRR7639366.1311615,100.00,34,0,0,1,34,238,205,3e-08,63.9
Capronia_kleinmondensis_CBS122671_T,SRR7639366.911797,100.00,34,0,0,1,34,3,36,3e-08,63.9
Capronia_kleinmondensis_CBS122671_T,SRR7639366.2373734,100.00,29,0,0,1,29,59,87,2e-05,54.7
Capronia_kleinmondensis_CBS122671_T,SRR7639366.1662097,100.00,29,0,0,1,29,16,44,2e-05,54.7
Capronia_kleinmondensis_CBS122671_T,SRR7639366.1662097,100.00,29,0,0,1,29,259,231,2e-05,54.7
Veronaea_japonica_CBS776.83_T,SRR7639366.1311615,97.62,42,1,0,1,42,246,205,5e-11,73.1
Veronaea_japonica_CBS776.83_T,SRR7639366.2373734,100.00,37,0,0,1,37,51,87,6e-10,69.4
Veronaea_japonica_CBS776.83_T,SRR7639366.1662097,100.00,37,0,0,1,37,8,44,6e-10,69.4
Veronaea_japonica_CBS776.83_T,SRR7639366.1662097,100.00,37,0,0,1,37,267,231,6e-10,69.4
Veronaea_japonica_CBS776.83_T,SRR7639366.2525280,97.22,36,1,0,7,42,1,36,1e-07,62.1
Veronaea_japonica_CBS776.83_T,SRR7639366.911797,97.22,36,1,0,7,42,1,36,1e-07,62.1
Fonsecaea_pedrosoi_CBS271.37_T,SRR7639366.2525280,100.00,30,0,0,1,30,3,32,5e-06,56.5
Fonsecaea_pedrosoi_CBS271.37_T,SRR7639366.1311615,100.00,30,0,0,1,30,238,209,5e-06,56.5
Fonsecaea_pedrosoi_CBS271.37_T,SRR7639366.911797,100.00,30,0,0,1,30,3,32,5e-06,56.5
Fonsecaea_pedrosoi_CBS271.37_T,SRR7639366.2373734,100.00,29,0,0,1,29,59,87,2e-05,54.7
Fonsecaea_pedrosoi_CBS271.37_T,SRR7639366.1662097,100.00,29,0,0,1,29,16,44,2e-05,54.7
Fonsecaea_pedrosoi_CBS271.37_T,SRR7639366.1662097,100.00,29,0,0,1,29,259,231,2e-05,54.7
Cladophialophora_australiensis_CBS112793,SRR7639366.2426167,92.66,109,8,0,1326,1434,36,144,3e-36,158
Cladophialophora_australiensis_CBS112793,SRR7639366.497801,92.66,109,8,0,1326,1434,186,294,3e-36,158
Cladophialophora_australiensis_CBS112793,SRR7639366.304092,90.52,116,11,0,1354,1469,151,266,4e-35,154
Cladophialophora_australiensis_CBS112793,SRR7639366.304092,89.81,108,11,0,1362,1469,150,43,1e-30,139
Cladophialophora_australiensis_CBS112793,SRR7639366.2303783,81.21,149,23,4,1180,1326,155,300,2e-23,115
Cladophialophora_australiensis_CBS112793,SRR7639366.2303783,100.00,59,0,0,1413,1471,150,92,9e-22,110
Cladophialophora_australiensis_CBS112793,SRR7639366.2871187,97.22,36,1,0,1177,1212,111,146,2e-07,62.1
Cladophialophora_australiensis_CBS112793,SRR7639366.2871187,97.22,36,1,0,1177,1212,191,156,2e-07,62.1
Cladophialophora_australiensis_CBS112793,SRR7639366.2497826,97.22,36,1,0,1177,1212,38,3,2e-07,62.1
Cladophialophora_australiensis_CBS112793,SRR7639366.2497826,97.22,36,1,0,1177,1212,237,272,2e-07,62.1
Cladophialophora_australiensis_CBS112793,SRR7639366.2405710,100.00,33,0,0,1180,1212,76,44,2e-07,62.1
Cladophialophora_australiensis_CBS112793,SRR7639366.1906943,100.00,33,0,0,1180,1212,242,210,2e-07,62.1
Cladophialophora_australiensis_CBS112793,SRR7639366.2244751,100.00,28,0,0,1185,1212,1,28,1e-04,52.8
Cladophialophora_potulentorum_CBS112222,SRR7639366.304092,90.23,133,13,0,1356,1488,151,283,3e-41,174
Cladophialophora_potulentorum_CBS112222,SRR7639366.304092,89.60,125,13,0,1364,1488,150,26,9e-37,159
Cladophialophora_potulentorum_CBS112222,SRR7639366.2426167,92.66,109,8,0,1328,1436,36,144,3e-36,158
Cladophialophora_potulentorum_CBS112222,SRR7639366.497801,92.66,109,8,0,1328,1436,186,294,3e-36,158
Cladophialophora_potulentorum_CBS112222,SRR7639366.2303783,98.73,79,1,0,1415,1493,150,72,3e-31,141
Cladophialophora_potulentorum_CBS112222,SRR7639366.2303783,79.87,149,25,4,1182,1328,155,300,4e-20,104
Cladophialophora_potulentorum_CBS112222,SRR7639366.2405710,93.18,44,3,0,1182,1225,76,33,2e-08,65.8
Cladophialophora_potulentorum_CBS112222,SRR7639366.1906943,93.18,44,3,0,1182,1225,242,199,2e-08,65.8
Cladophialophora_potulentorum_CBS112222,SRR7639366.2871187,97.22,36,1,0,1179,1214,111,146,2e-07,62.1
Cladophialophora_potulentorum_CBS112222,SRR7639366.2871187,97.22,36,1,0,1179,1214,191,156,2e-07,62.1
Cladophialophora_potulentorum_CBS112222,SRR7639366.2497826,97.22,36,1,0,1179,1214,38,3,2e-07,62.1
Cladophialophora_potulentorum_CBS112222,SRR7639366.2497826,97.22,36,1,0,1179,1214,237,272,2e-07,62.1
Cladophialophora_potulentorum_CBS112222,SRR7639366.2244751,92.31,39,3,0,1187,1225,1,39,1e-05,56.5
Cladophialophora_chaetospira_CBS127573,SRR7639366.2525280,97.14,35,1,0,379,413,2,36,6e-07,60.2
Cladophialophora_chaetospira_CBS127573,SRR7639366.1311615,97.14,35,1,0,379,413,239,205,6e-07,60.2
Cladophialophora_chaetospira_CBS127573,SRR7639366.911797,97.14,35,1,0,379,413,2,36,6e-07,60.2
Cladophialophora_chaetospira_CBS127573,SRR7639366.2373734,100.00,30,0,0,379,408,58,87,7e-06,56.5
Cladophialophora_chaetospira_CBS127573,SRR7639366.1662097,100.00,30,0,0,379,408,15,44,7e-06,56.5
Cladophialophora_chaetospira_CBS127573,SRR7639366.1662097,100.00,30,0,0,379,408,260,231,7e-06,56.5
Phialophora_americana_CBS400.67,SRR7639366.2426167,92.66,109,8,0,1320,1428,36,144,3e-36,158
Phialophora_americana_CBS400.67,SRR7639366.497801,92.66,109,8,0,1320,1428,186,294,3e-36,158
Phialophora_americana_CBS400.67,SRR7639366.2303783,80.54,149,24,4,1174,1320,155,300,8e-22,110
Phialophora_americana_CBS400.67,SRR7639366.2303783,100.00,39,0,0,1407,1445,150,112,1e-10,73.1
Phialophora_americana_CBS400.67,SRR7639366.2405710,95.45,44,2,0,1174,1217,76,33,4e-10,71.3
Phialophora_americana_CBS400.67,SRR7639366.1906943,95.45,44,2,0,1174,1217,242,199,4e-10,71.3
Phialophora_americana_CBS400.67,SRR7639366.2871187,97.30,37,1,0,1171,1207,111,147,7e-08,63.9
Phialophora_americana_CBS400.67,SRR7639366.2871187,97.30,37,1,0,1171,1207,191,155,7e-08,63.9
Phialophora_americana_CBS400.67,SRR7639366.2497826,97.30,37,1,0,1171,1207,38,2,7e-08,63.9
Phialophora_americana_CBS400.67,SRR7639366.2497826,97.30,37,1,0,1171,1207,237,273,7e-08,63.9
Phialophora_americana_CBS400.67,SRR7639366.2244751,94.87,39,2,0,1179,1217,1,39,2e-07,62.1
Cyphellophora_laciniata_CBS190.61_T,SRR7639366.1311615,96.97,66,2,0,39,104,270,205,1e-22,111
Cyphellophora_laciniata_CBS190.61_T,SRR7639366.2373734,96.77,62,2,0,38,99,26,87,2e-20,104
Cyphellophora_laciniata_CBS190.61_T,SRR7639366.1662097,100.00,44,0,0,56,99,1,44,9e-14,82.4
Cyphellophora_laciniata_CBS190.61_T,SRR7639366.1662097,100.00,44,0,0,56,99,274,231,9e-14,82.4
Cyphellophora_laciniata_CBS190.61_T,SRR7639366.2525280,100.00,36,0,0,69,104,1,36,3e-09,67.6
Cyphellophora_laciniata_CBS190.61_T,SRR7639366.911797,100.00,36,0,0,69,104,1,36,3e-09,67.6
