Exophiala_nigra_CBS535.94_T,SRR10017048.82361,87.94,141,15,2,232,371,1,140,6e-40,165
Exophiala_nigra_CBS535.94_T,SRR10017048.55619,87.94,141,15,2,232,371,1,140,6e-40,165
Exophiala_spinifera_CBS899.68_T,SRR10017048.82361,87.23,141,16,2,229,368,1,140,3e-38,159
Exophiala_spinifera_CBS899.68_T,SRR10017048.55619,87.23,141,16,2,229,368,1,140,3e-38,159
Exophiala_exophialae_CBS668.76_T,SRR10017048.82361,87.23,141,16,2,230,369,1,140,3e-38,159
Exophiala_exophialae_CBS668.76_T,SRR10017048.55619,87.23,141,16,2,230,369,1,140,3e-38,159
Exophiala_polymorpha_CBS138920_T,SRR10017048.82361,87.23,141,16,2,332,471,1,140,3e-38,159
Exophiala_polymorpha_CBS138920_T,SRR10017048.55619,87.23,141,16,2,332,471,1,140,3e-38,159
Exophiala_oligosperma_CBS725.88_T,SRR10017048.82361,87.23,141,16,2,242,381,1,140,3e-38,159
Exophiala_oligosperma_CBS725.88_T,SRR10017048.55619,87.23,141,16,2,242,381,1,140,3e-38,159
Exophiala_jeanselmei_CBS507.90_T,SRR10017048.82361,87.23,141,16,2,234,373,1,140,3e-38,159
Exophiala_jeanselmei_CBS507.90_T,SRR10017048.55619,87.23,141,16,2,234,373,1,140,3e-38,159
Exophiala_bergeri_CBS353.52,SRR10017048.82361,87.94,141,15,2,195,334,1,140,5e-40,165
Exophiala_bergeri_CBS353.52,SRR10017048.55619,87.94,141,15,2,195,334,1,140,5e-40,165
Exophiala_moniliae_CBS520.76_T,SRR10017048.82361,88.49,139,14,2,232,369,1,138,2e-40,167
Exophiala_moniliae_CBS520.76_T,SRR10017048.55619,88.49,139,14,2,232,369,1,138,2e-40,167
Exophiala_pisciphila_CBS537.73_T,SRR10017048.82361,88.65,141,14,2,235,374,1,140,1e-41,171
Exophiala_pisciphila_CBS537.73_T,SRR10017048.55619,88.65,141,14,2,235,374,1,140,1e-41,171
Exophiala_xenobiotica_CBS117642,SRR10017048.82361,87.94,141,15,2,227,366,1,140,5e-40,165
Exophiala_xenobiotica_CBS117642,SRR10017048.55619,87.94,141,15,2,227,366,1,140,5e-40,165
Exophiala_brunnea_CBS,SRR10017048.82361,87.94,141,15,2,263,402,1,140,7e-40,165
Exophiala_brunnea_CBS,SRR10017048.55619,87.94,141,15,2,263,402,1,140,7e-40,165
Exophiala_nishimurae_CBS101538_T,SRR10017048.82361,87.23,141,16,2,241,380,1,140,3e-38,159
Exophiala_nishimurae_CBS101538_T,SRR10017048.55619,87.23,141,16,2,241,380,1,140,3e-38,159
Exophiala_mesophila_CBS402.95_T,SRR10017048.82361,87.94,141,15,2,225,364,1,140,7e-40,165
Exophiala_mesophila_CBS402.95_T,SRR10017048.55619,87.94,141,15,2,225,364,1,140,7e-40,165
Exophiala_castellanii_CBS158.58_T,SRR10017048.82361,87.94,141,15,2,223,362,1,140,7e-40,165
Exophiala_castellanii_CBS158.58_T,SRR10017048.55619,87.94,141,15,2,223,362,1,140,7e-40,165
Exophiala_lecanii-corni_CBS123.33_T,SRR10017048.82361,87.23,141,16,2,246,385,1,140,3e-38,159
Exophiala_lecanii-corni_CBS123.33_T,SRR10017048.55619,87.23,141,16,2,246,385,1,140,3e-38,159
Exophiala_dermatitidis_CBS748.88,SRR10017048.82361,88.65,141,14,2,238,377,1,140,3e-41,171
Exophiala_dermatitidis_CBS748.88,SRR10017048.55619,88.65,141,14,2,238,377,1,140,3e-41,171
Exophiala_angulospora_CBS482.92_T,SRR10017048.82361,88.57,140,14,2,229,367,1,139,4e-41,169
Exophiala_angulospora_CBS482.92_T,SRR10017048.55619,88.57,140,14,2,229,367,1,139,4e-41,169
Exophiala_opportunistica_CBS109811_T,SRR10017048.82361,88.65,141,14,2,228,367,1,140,1e-41,171
Exophiala_opportunistica_CBS109811_T,SRR10017048.55619,88.65,141,14,2,228,367,1,140,1e-41,171
Exophiala_salmonis_CBS157.67_T,SRR10017048.82361,88.65,141,14,2,357,496,1,140,2e-41,171
Exophiala_salmonis_CBS157.67_T,SRR10017048.55619,88.65,141,14,2,357,496,1,140,2e-41,171
Exophiala_aquamarina_CBS119918_T,SRR10017048.82361,88.65,141,15,1,235,375,1,140,1e-41,171
Exophiala_aquamarina_CBS119918_T,SRR10017048.55619,88.65,141,15,1,235,375,1,140,1e-41,171
Exophiala_cancerae_CBS120420_T,SRR10017048.82361,88.65,141,14,2,250,389,1,140,1e-41,171
Exophiala_cancerae_CBS120420_T,SRR10017048.55619,88.65,141,14,2,250,389,1,140,1e-41,171
Exophiala_tremulae_CBS129355,SRR10017048.82361,88.65,141,14,2,262,401,1,140,1e-41,171
Exophiala_tremulae_CBS129355,SRR10017048.55619,88.65,141,14,2,262,401,1,140,1e-41,171
Exophiala_equina_CBS116009,SRR10017048.82361,88.65,141,14,2,228,367,1,140,1e-41,171
Exophiala_equina_CBS116009,SRR10017048.55619,88.65,141,14,2,228,367,1,140,1e-41,171
Exophiala_alcalophila_CBS520.82_T,SRR10017048.82361,88.49,139,14,2,239,376,1,138,2e-40,167
Exophiala_alcalophila_CBS520.82_T,SRR10017048.55619,88.49,139,14,2,239,376,1,138,2e-40,167
Exophiala_crusticola_CBS119970_T,SRR10017048.82361,88.65,141,14,2,244,383,1,140,1e-41,171
Exophiala_crusticola_CBS119970_T,SRR10017048.55619,88.65,141,14,2,244,383,1,140,1e-41,171
Rhinocladiella_atrovirens_CBS264.49,SRR10017048.82361,87.23,141,16,2,270,409,1,140,3e-38,159
Rhinocladiella_atrovirens_CBS264.49,SRR10017048.55619,87.23,141,16,2,270,409,1,140,3e-38,159
Rhinocladiella_basitona_CBS101460_T,SRR10017048.82361,87.23,141,16,2,229,368,1,140,3e-38,159
Rhinocladiella_basitona_CBS101460_T,SRR10017048.55619,87.23,141,16,2,229,368,1,140,3e-38,159
Rhinocladiella_phaeophora_CBS496.78_T,SRR10017048.82361,88.65,141,14,2,237,376,1,140,1e-41,171
Rhinocladiella_phaeophora_CBS496.78_T,SRR10017048.55619,88.65,141,14,2,237,376,1,140,1e-41,171
Rhinocladiella_aquaspersa_CBS313.73_T,SRR10017048.82361,88.65,141,14,2,231,370,1,140,1e-41,171
Rhinocladiella_aquaspersa_CBS313.73_T,SRR10017048.55619,88.65,141,14,2,231,370,1,140,1e-41,171
Rhinocladiella_fasciculata_CBS132.86_T,SRR10017048.82361,93.58,109,6,1,247,355,1,108,8e-39,161
Rhinocladiella_fasciculata_CBS132.86_T,SRR10017048.55619,93.58,109,6,1,247,355,1,108,8e-39,161
Rhinocladiella_anceps_CBS181.65_T,SRR10017048.82361,87.23,141,16,2,229,368,1,140,3e-38,159
Rhinocladiella_anceps_CBS181.65_T,SRR10017048.55619,87.23,141,16,2,229,368,1,140,3e-38,159
Rhinocladiella_mackenziei_CBS367.92,SRR10017048.82361,87.94,141,15,2,218,357,1,140,6e-40,165
Rhinocladiella_mackenziei_CBS367.92,SRR10017048.55619,87.94,141,15,2,218,357,1,140,6e-40,165
Veronaea_compacta_CBS268.75_T,SRR10017048.82361,87.94,141,15,2,251,390,1,140,6e-40,165
Veronaea_compacta_CBS268.75_T,SRR10017048.55619,87.94,141,15,2,251,390,1,140,6e-40,165
Capronia_pilosella_AFTOL-ID657,SRR10017048.82361,88.65,141,14,2,329,468,1,140,2e-41,171
Capronia_pilosella_AFTOL-ID657,SRR10017048.55619,88.65,141,14,2,329,468,1,140,2e-41,171
Capronia_dactylotricha_DAOM208471_T,SRR10017048.82361,88.03,142,14,3,231,371,1,140,7e-40,165
Capronia_dactylotricha_DAOM208471_T,SRR10017048.55619,88.03,142,14,3,231,371,1,140,7e-40,165
Capronia_kleinmondensis_CBS122671_T,SRR10017048.82361,87.23,141,16,2,256,395,1,140,3e-38,159
Capronia_kleinmondensis_CBS122671_T,SRR10017048.55619,87.23,141,16,2,256,395,1,140,3e-38,159
Capronia_mansonii_CBS101.67_T,SRR10017048.82361,88.65,141,14,2,242,381,1,140,1e-41,171
Capronia_mansonii_CBS101.67_T,SRR10017048.55619,88.65,141,14,2,242,381,1,140,1e-41,171
Capronia_munkii_DAOM216390_T,SRR10017048.82361,88.65,141,14,2,242,381,1,140,1e-41,171
Capronia_munkii_DAOM216390_T,SRR10017048.55619,88.65,141,14,2,242,381,1,140,1e-41,171
Capronia_coronata_ATCC56201_T,SRR10017048.82361,88.57,140,14,2,230,368,1,139,5e-41,169
Capronia_coronata_ATCC56201_T,SRR10017048.55619,88.57,140,14,2,230,368,1,139,5e-41,169
Capronia_parasitica_CBS123.88,SRR10017048.82361,87.94,141,15,2,236,375,1,140,6e-40,165
Capronia_parasitica_CBS123.88,SRR10017048.55619,87.94,141,15,2,236,375,1,140,6e-40,165
Veronaea_japonica_CBS776.83_T,SRR10017048.82361,88.65,141,14,2,264,403,1,140,1e-41,171
Veronaea_japonica_CBS776.83_T,SRR10017048.55619,88.65,141,14,2,264,403,1,140,1e-41,171
Thysanorea_papuana_CBS212.96_T,SRR10017048.82361,88.65,141,14,2,238,377,1,140,1e-41,171
Thysanorea_papuana_CBS212.96_T,SRR10017048.55619,88.65,141,14,2,238,377,1,140,1e-41,171
Fonsecaea_brasiliensis_CBS119710_T,SRR10017048.82361,88.65,141,15,1,238,378,1,140,1e-41,171
Fonsecaea_brasiliensis_CBS119710_T,SRR10017048.55619,88.65,141,15,1,238,378,1,140,1e-41,171
Fonsecaea_pedrosoi_CBS271.37_T,SRR10017048.82361,88.65,141,15,1,266,406,1,140,1e-41,171
Fonsecaea_pedrosoi_CBS271.37_T,SRR10017048.55619,88.65,141,15,1,266,406,1,140,1e-41,171
Fonsecaea_multimorphosa_CBS980.96_T,SRR10017048.82361,88.28,145,15,2,236,380,1,143,3e-42,172
Fonsecaea_multimorphosa_CBS980.96_T,SRR10017048.55619,88.28,145,15,2,236,380,1,143,3e-42,172
Fonsecaea_minima_CBS125760_T,SRR10017048.82361,88.65,141,15,1,232,372,1,140,1e-41,171
Fonsecaea_minima_CBS125760_T,SRR10017048.55619,88.65,141,15,1,232,372,1,140,1e-41,171
Fonsecaea_nubica_CBS269.64_T,SRR10017048.82361,88.65,141,15,1,243,383,1,140,1e-41,171
Fonsecaea_nubica_CBS269.64_T,SRR10017048.55619,88.65,141,15,1,243,383,1,140,1e-41,171
Fonsecaea_erecta_CBS125763_T,SRR10017048.82361,88.65,141,14,2,227,366,1,140,1e-41,171
Fonsecaea_erecta_CBS125763_T,SRR10017048.55619,88.65,141,14,2,227,366,1,140,1e-41,171
Fonsecaea_pugnacius_CBS139214_T,SRR10017048.82361,88.65,141,15,1,236,376,1,140,1e-41,171
Fonsecaea_pugnacius_CBS139214_T,SRR10017048.55619,88.65,141,15,1,236,376,1,140,1e-41,171
Cladophialophora_psammophila_CBS,SRR10017048.82361,88.65,141,14,2,242,381,1,140,1e-41,171
Cladophialophora_psammophila_CBS,SRR10017048.55619,88.65,141,14,2,242,381,1,140,1e-41,171
Cladophialophora_devriesii_CBS,SRR10017048.82361,88.28,145,15,2,238,382,1,143,3e-42,172
Cladophialophora_devriesii_CBS,SRR10017048.55619,88.28,145,15,2,238,382,1,143,3e-42,172
Cladophialophora_immunda_CBS834.96,SRR10017048.82361,88.65,141,15,1,240,380,1,140,1e-41,171
Cladophialophora_immunda_CBS834.96,SRR10017048.55619,88.65,141,15,1,240,380,1,140,1e-41,171
Cladophialophora_arxii_CBS306.94_T,SRR10017048.82361,88.03,142,15,2,242,383,1,140,2e-40,167
Cladophialophora_arxii_CBS306.94_T,SRR10017048.55619,88.03,142,15,2,242,383,1,140,2e-40,167
Cladophialophora_bantiana_CBS173.52,SRR10017048.82361,88.65,141,14,2,236,375,1,140,1e-41,171
Cladophialophora_bantiana_CBS173.52,SRR10017048.55619,88.65,141,14,2,236,375,1,140,1e-41,171
Cladophialophora_emmonsii_CBS102594,SRR10017048.82361,88.65,141,14,2,227,366,1,140,1e-41,171
Cladophialophora_emmonsii_CBS102594,SRR10017048.55619,88.65,141,14,2,227,366,1,140,1e-41,171
Cladophialophora_minourae_CBS556.83,SRR10017048.82361,91.82,110,7,2,235,344,1,108,4e-36,152
Cladophialophora_minourae_CBS556.83,SRR10017048.55619,91.82,110,7,2,235,344,1,108,4e-36,152
Cladophialophora_australiensis_CBS112793,SRR10017048.82361,87.94,141,15,2,237,376,1,140,2e-39,165
Cladophialophora_australiensis_CBS112793,SRR10017048.55619,87.94,141,15,2,237,376,1,140,2e-39,165
Cladophialophora_potulentorum_CBS112222,SRR10017048.82361,87.23,141,16,2,236,375,1,140,7e-38,159
Cladophialophora_potulentorum_CBS112222,SRR10017048.55619,87.23,141,16,2,236,375,1,140,7e-38,159
Cladophialophora_matsushimae_CMRP1198,SRR10017048.82361,87.23,141,16,2,240,379,1,140,2e-38,159
Cladophialophora_matsushimae_CMRP1198,SRR10017048.55619,87.23,141,16,2,240,379,1,140,2e-38,159
Cladophialophora_mycetomatis_CBS122637,SRR10017048.82361,87.94,141,15,2,225,364,1,140,6e-40,165
Cladophialophora_mycetomatis_CBS122637,SRR10017048.55619,87.94,141,15,2,225,364,1,140,6e-40,165
Cladophialophora_chaetospira_CBS127573,SRR10017048.82361,88.65,141,14,2,631,770,1,140,2e-41,171
Cladophialophora_chaetospira_CBS127573,SRR10017048.55619,88.65,141,14,2,631,770,1,140,2e-41,171
Cladophialophora_boppii_CBS126.86_T,SRR10017048.82361,88.28,145,14,3,233,376,1,143,1e-41,171
Cladophialophora_boppii_CBS126.86_T,SRR10017048.55619,88.28,145,14,3,233,376,1,143,1e-41,171
Cladophialophora_abundans_CBS126736,SRR10017048.82361,87.32,142,14,4,170,309,1,140,2e-38,159
Cladophialophora_abundans_CBS126736,SRR10017048.55619,87.32,142,14,4,170,309,1,140,2e-38,159
Capronia_semi-immersa_CBS102234,SRR10017048.82361,86.52,141,17,2,232,371,1,140,1e-36,154
Capronia_semi-immersa_CBS102234,SRR10017048.55619,86.52,141,17,2,232,371,1,140,1e-36,154
Phialophora_americana_CBS400.67,SRR10017048.82361,86.52,141,17,2,234,373,1,140,3e-36,154
Phialophora_americana_CBS400.67,SRR10017048.55619,86.52,141,17,2,234,373,1,140,3e-36,154
Phialophora_verrucosa_CBS140325_T,SRR10017048.82361,86.52,141,17,2,238,377,1,140,1e-36,154
Phialophora_verrucosa_CBS140325_T,SRR10017048.55619,86.52,141,17,2,238,377,1,140,1e-36,154
Cladophialophora_samoensis_CBS259.83_T,SRR10017048.82361,87.32,142,14,4,238,377,1,140,3e-38,159
Cladophialophora_samoensis_CBS259.83_T,SRR10017048.55619,87.32,142,14,4,238,377,1,140,3e-38,159
Cladophialophora_carrionii_CBS260.83,SRR10017048.82361,87.94,141,15,2,254,393,1,140,6e-40,165
Cladophialophora_carrionii_CBS260.83,SRR10017048.55619,87.94,141,15,2,254,393,1,140,6e-40,165
Exophiala_palmae_UPCB86822_T,SRR10017048.82361,88.65,141,14,2,197,336,1,140,1e-41,171
Exophiala_palmae_UPCB86822_T,SRR10017048.55619,88.65,141,14,2,197,336,1,140,1e-41,171
Cladophialophora_yegresii_CBS114405_T,SRR10017048.82361,87.94,141,15,2,239,378,1,140,6e-40,165
Cladophialophora_yegresii_CBS114405_T,SRR10017048.55619,87.94,141,15,2,239,378,1,140,6e-40,165
Knufia_epidermidis_CBS120353_T,SRR10017048.82361,85.82,141,18,2,237,376,1,140,6e-35,148
Knufia_epidermidis_CBS120353_T,SRR10017048.55619,85.82,141,18,2,237,376,1,140,6e-35,148
Arthrocladium_fulminans_CBS136243_T,SRR10017048.82361,86.52,141,17,2,232,371,1,140,1e-36,154
Arthrocladium_fulminans_CBS136243_T,SRR10017048.55619,86.52,141,17,2,232,371,1,140,1e-36,154
Anthopsis_deltoidea_CBS263.77_T,SRR10017048.82361,87.14,140,16,2,241,378,1,140,9e-38,158
Anthopsis_deltoidea_CBS263.77_T,SRR10017048.55619,87.14,140,16,2,241,378,1,140,9e-38,158
Cyphellophora_laciniata_CBS190.61_T,SRR10017048.82361,87.14,140,16,2,326,463,1,140,1e-37,158
Cyphellophora_laciniata_CBS190.61_T,SRR10017048.55619,87.14,140,16,2,326,463,1,140,1e-37,158
Cyphellophora_suttonii_CBS449.91,SRR10017048.82361,87.14,140,16,2,229,366,1,140,9e-38,158
Cyphellophora_suttonii_CBS449.91,SRR10017048.55619,87.14,140,16,2,229,366,1,140,9e-38,158
Cyphellophora_pauciseptata_CBS284.85_T,SRR10017048.82361,87.14,140,16,2,240,377,1,140,9e-38,158
Cyphellophora_pauciseptata_CBS284.85_T,SRR10017048.55619,87.14,140,16,2,240,377,1,140,9e-38,158
Cyphellophora_pluriseptata_CBS286.85_T,SRR10017048.48568,91.53,118,9,1,247,363,3,120,7e-39,161
Cyphellophora_pluriseptata_CBS286.85_T,SRR10017048.82361,86.23,138,17,2,247,382,3,140,6e-35,148
Cyphellophora_pluriseptata_CBS286.85_T,SRR10017048.55619,86.23,138,17,2,247,382,3,140,6e-35,148
Phialophora_europaea_CBS101466,SRR10017048.48568,91.67,120,9,1,235,353,1,120,5e-40,165
Phialophora_europaea_CBS101466,SRR10017048.82361,86.43,140,17,2,235,372,1,140,4e-36,152
Phialophora_europaea_CBS101466,SRR10017048.55619,86.43,140,17,2,235,372,1,140,4e-36,152
Phialophora_ambigua_CBS235.93,SRR10017048.48568,91.67,120,9,1,232,350,1,120,6e-40,165
Phialophora_ambigua_CBS235.93,SRR10017048.82361,86.43,140,17,2,232,369,1,140,4e-36,152
Phialophora_ambigua_CBS235.93,SRR10017048.55619,86.43,140,17,2,232,369,1,140,4e-36,152
Cladophialophora_modesta_CBS985.96_T,SRR10017048.82361,87.94,141,15,2,229,368,1,140,6e-40,165
Cladophialophora_modesta_CBS985.96_T,SRR10017048.82361,97.44,39,1,0,541,579,340,302,2e-10,67.6
Cladophialophora_modesta_CBS985.96_T,SRR10017048.55619,87.94,141,15,2,229,368,1,140,6e-40,165
Cyphellophora_fusarioides_MUCL44033_T,SRR10017048.82361,86.43,140,17,2,228,365,1,140,4e-36,152
Cyphellophora_fusarioides_MUCL44033_T,SRR10017048.55619,86.43,140,17,2,228,365,1,140,4e-36,152
