Exophiala_nigra_CBS535.94_T,SRR10016841.277333,91.41,128,10,1,232,359,1,127,3e-42,174
Exophiala_nigra_CBS535.94_T,SRR10016841.83588,86.67,75,10,0,286,360,54,128,5e-15,84.2
Exophiala_spinifera_CBS899.68_T,SRR10016841.277333,90.62,128,11,1,229,356,1,127,1e-40,169
Exophiala_spinifera_CBS899.68_T,SRR10016841.83588,86.49,74,10,0,284,357,55,128,2e-14,82.4
Exophiala_exophialae_CBS668.76_T,SRR10016841.277333,90.62,128,11,1,230,357,1,127,1e-40,169
Exophiala_exophialae_CBS668.76_T,SRR10016841.83588,86.49,74,10,0,285,358,55,128,2e-14,82.4
Exophiala_polymorpha_CBS138920_T,SRR10016841.277333,90.62,128,11,1,332,459,1,127,2e-40,169
Exophiala_polymorpha_CBS138920_T,SRR10016841.325253,96.00,50,2,0,645,694,359,310,2e-14,82.4
Exophiala_polymorpha_CBS138920_T,SRR10016841.83588,86.49,74,10,0,387,460,55,128,2e-14,82.4
Exophiala_polymorpha_CBS138920_T,SRR10016841.257663,92.59,54,4,0,641,694,363,310,3e-13,78.7
Exophiala_polymorpha_CBS138920_T,SRR10016841.143745,94.00,50,3,0,645,694,359,310,9e-13,76.8
Exophiala_polymorpha_CBS138920_T,SRR10016841.328497,95.12,41,2,0,654,694,350,310,2e-09,65.8
Exophiala_polymorpha_CBS138920_T,SRR10016841.209423,89.80,49,5,0,646,694,358,310,7e-09,63.9
Exophiala_oligosperma_CBS725.88_T,SRR10016841.277333,90.62,128,11,1,242,369,1,127,1e-40,169
Exophiala_oligosperma_CBS725.88_T,SRR10016841.83588,86.49,74,10,0,297,370,55,128,2e-14,82.4
Exophiala_jeanselmei_CBS507.90_T,SRR10016841.277333,90.62,128,11,1,234,361,1,127,1e-40,169
Exophiala_jeanselmei_CBS507.90_T,SRR10016841.4088,98.41,63,1,0,542,604,364,302,2e-23,111
Exophiala_jeanselmei_CBS507.90_T,SRR10016841.147790,98.21,56,1,0,549,604,357,302,2e-19,99.0
Exophiala_jeanselmei_CBS507.90_T,SRR10016841.325253,96.55,58,2,0,547,604,359,302,6e-19,97.1
Exophiala_jeanselmei_CBS507.90_T,SRR10016841.302025,93.75,64,3,1,542,604,365,302,2e-18,95.3
Exophiala_jeanselmei_CBS507.90_T,SRR10016841.143745,90.54,74,4,3,532,604,373,302,2e-18,95.3
Exophiala_jeanselmei_CBS507.90_T,SRR10016841.221026,94.83,58,3,0,547,604,359,302,3e-17,91.6
Exophiala_jeanselmei_CBS507.90_T,SRR10016841.257663,91.80,61,5,0,544,604,362,302,1e-15,86.1
Exophiala_jeanselmei_CBS507.90_T,SRR10016841.83588,86.49,74,10,0,289,362,55,128,2e-14,82.4
Exophiala_jeanselmei_CBS507.90_T,SRR10016841.328497,95.92,49,2,0,556,604,350,302,6e-14,80.5
Exophiala_jeanselmei_CBS507.90_T,SRR10016841.209423,91.23,57,5,0,548,604,358,302,2e-13,78.7
Exophiala_jeanselmei_CBS507.90_T,SRR10016841.264855,93.88,49,3,0,556,604,350,302,3e-12,75.0
Exophiala_jeanselmei_CBS507.90_T,SRR10016841.151754,89.09,55,6,0,549,603,357,303,1e-10,69.4
Exophiala_jeanselmei_CBS507.90_T,SRR10016841.169255,96.97,33,1,0,571,603,335,303,1e-06,56.5
Exophiala_bergeri_CBS353.52,SRR10016841.277333,91.41,128,10,1,195,322,1,127,2e-42,174
Exophiala_bergeri_CBS353.52,SRR10016841.83588,86.67,75,10,0,249,323,54,128,4e-15,84.2
Exophiala_moniliae_CBS520.76_T,SRR10016841.277333,91.47,129,10,1,232,360,1,128,7e-43,176
Exophiala_moniliae_CBS520.76_T,SRR10016841.83588,86.49,74,10,0,286,359,54,127,2e-14,82.4
Exophiala_pisciphila_CBS537.73_T,SRR10016841.277333,89.44,142,14,1,235,376,1,141,2e-43,178
Exophiala_pisciphila_CBS537.73_T,SRR10016841.4088,96.77,62,2,0,552,613,363,302,4e-21,104
Exophiala_pisciphila_CBS537.73_T,SRR10016841.325253,98.28,58,1,0,556,613,359,302,1e-20,102
Exophiala_pisciphila_CBS537.73_T,SRR10016841.302025,95.24,63,2,1,552,613,364,302,2e-19,99.0
Exophiala_pisciphila_CBS537.73_T,SRR10016841.221026,96.61,59,2,0,556,614,359,301,2e-19,99.0
Exophiala_pisciphila_CBS537.73_T,SRR10016841.147790,92.75,69,4,1,546,613,370,302,2e-19,99.0
Exophiala_pisciphila_CBS537.73_T,SRR10016841.143745,90.54,74,6,1,541,613,375,302,7e-19,97.1
Exophiala_pisciphila_CBS537.73_T,SRR10016841.257663,93.65,63,4,0,553,615,362,300,2e-18,95.3
Exophiala_pisciphila_CBS537.73_T,SRR10016841.83588,86.49,74,10,0,289,362,54,127,2e-14,82.4
Exophiala_pisciphila_CBS537.73_T,SRR10016841.209423,91.38,58,3,2,557,613,358,302,2e-13,78.7
Exophiala_pisciphila_CBS537.73_T,SRR10016841.328497,93.88,49,3,0,565,613,350,302,3e-12,75.0
Exophiala_pisciphila_CBS537.73_T,SRR10016841.151754,90.91,55,5,0,558,612,357,303,3e-12,75.0
Exophiala_pisciphila_CBS537.73_T,SRR10016841.264855,92.00,50,4,0,565,614,350,301,4e-11,71.3
Exophiala_pisciphila_CBS537.73_T,SRR10016841.169255,96.97,33,1,0,580,612,335,303,1e-06,56.5
Exophiala_xenobiotica_CBS117642,SRR10016841.277333,91.41,128,10,1,227,354,1,127,2e-42,174
Exophiala_xenobiotica_CBS117642,SRR10016841.83588,86.67,75,10,0,281,355,54,128,4e-15,84.2
Exophiala_brunnea_CBS,SRR10016841.277333,90.14,142,13,1,263,404,1,141,5e-45,183
Exophiala_brunnea_CBS,SRR10016841.83588,87.84,74,9,0,317,390,54,127,4e-16,87.9
Exophiala_brunnea_CBS,SRR10016841.325253,95.74,47,2,0,587,633,359,313,2e-13,78.7
Exophiala_brunnea_CBS,SRR10016841.257663,94.00,50,3,0,584,633,362,313,9e-13,76.8
Exophiala_brunnea_CBS,SRR10016841.143745,91.23,57,4,1,578,633,369,313,9e-13,76.8
Exophiala_nishimurae_CBS101538_T,SRR10016841.277333,90.62,128,11,1,241,368,1,127,1e-40,169
Exophiala_nishimurae_CBS101538_T,SRR10016841.83588,86.49,74,10,0,296,369,55,128,2e-14,82.4
Exophiala_mesophila_CBS402.95_T,SRR10016841.277333,90.14,142,13,1,225,366,1,141,5e-45,183
Exophiala_mesophila_CBS402.95_T,SRR10016841.4088,98.36,61,1,0,550,610,362,302,3e-22,108
Exophiala_mesophila_CBS402.95_T,SRR10016841.147790,98.21,56,1,0,555,610,357,302,2e-19,99.0
Exophiala_mesophila_CBS402.95_T,SRR10016841.325253,96.55,58,2,0,553,610,359,302,7e-19,97.1
Exophiala_mesophila_CBS402.95_T,SRR10016841.302025,92.42,66,3,2,547,610,367,302,9e-18,93.5
Exophiala_mesophila_CBS402.95_T,SRR10016841.221026,94.92,59,3,0,553,611,359,301,9e-18,93.5
Exophiala_mesophila_CBS402.95_T,SRR10016841.257663,92.19,64,5,0,549,612,363,300,3e-17,91.6
Exophiala_mesophila_CBS402.95_T,SRR10016841.143745,94.83,58,3,0,553,610,359,302,3e-17,91.6
Exophiala_mesophila_CBS402.95_T,SRR10016841.83588,87.84,74,9,0,279,352,54,127,4e-16,87.9
Exophiala_mesophila_CBS402.95_T,SRR10016841.328497,95.92,49,2,0,562,610,350,302,7e-14,80.5
Exophiala_mesophila_CBS402.95_T,SRR10016841.264855,89.23,65,3,3,549,611,363,301,2e-13,78.7
Exophiala_mesophila_CBS402.95_T,SRR10016841.209423,91.23,57,5,0,554,610,358,302,2e-13,78.7
Exophiala_mesophila_CBS402.95_T,SRR10016841.151754,89.09,55,6,0,555,609,357,303,1e-10,69.4
Exophiala_mesophila_CBS402.95_T,SRR10016841.169255,96.97,33,1,0,577,609,335,303,1e-06,56.5
Exophiala_castellanii_CBS158.58_T,SRR10016841.277333,90.14,142,13,1,223,364,1,141,5e-45,183
Exophiala_castellanii_CBS158.58_T,SRR10016841.4088,98.36,61,1,0,549,609,362,302,3e-22,108
Exophiala_castellanii_CBS158.58_T,SRR10016841.147790,98.21,56,1,0,554,609,357,302,2e-19,99.0
Exophiala_castellanii_CBS158.58_T,SRR10016841.325253,96.55,58,2,0,552,609,359,302,7e-19,97.1
Exophiala_castellanii_CBS158.58_T,SRR10016841.143745,91.55,71,4,2,541,609,372,302,7e-19,97.1
Exophiala_castellanii_CBS158.58_T,SRR10016841.221026,94.92,59,3,0,552,610,359,301,9e-18,93.5
Exophiala_castellanii_CBS158.58_T,SRR10016841.302025,93.55,62,3,1,549,609,363,302,3e-17,91.6
Exophiala_castellanii_CBS158.58_T,SRR10016841.257663,92.19,64,5,0,548,611,363,300,3e-17,91.6
Exophiala_castellanii_CBS158.58_T,SRR10016841.83588,87.84,74,9,0,277,350,54,127,4e-16,87.9
Exophiala_castellanii_CBS158.58_T,SRR10016841.328497,95.92,49,2,0,561,609,350,302,7e-14,80.5
Exophiala_castellanii_CBS158.58_T,SRR10016841.264855,89.23,65,3,3,548,610,363,301,2e-13,78.7
Exophiala_castellanii_CBS158.58_T,SRR10016841.209423,91.23,57,5,0,553,609,358,302,2e-13,78.7
Exophiala_castellanii_CBS158.58_T,SRR10016841.151754,89.09,55,6,0,554,608,357,303,1e-10,69.4
Exophiala_castellanii_CBS158.58_T,SRR10016841.169255,96.97,33,1,0,576,608,335,303,1e-06,56.5
Exophiala_lecanii-corni_CBS123.33_T,SRR10016841.277333,90.14,142,13,1,246,387,1,141,4e-45,183
Exophiala_lecanii-corni_CBS123.33_T,SRR10016841.83588,87.84,74,9,0,300,373,54,127,4e-16,87.9
Exophiala_dermatitidis_CBS748.88,SRR10016841.277333,89.44,142,14,1,238,379,1,141,6e-43,178
Exophiala_dermatitidis_CBS748.88,SRR10016841.4088,95.77,71,2,1,566,635,372,302,2e-23,113
Exophiala_dermatitidis_CBS748.88,SRR10016841.147790,98.21,56,1,0,580,635,357,302,4e-19,99.0
Exophiala_dermatitidis_CBS748.88,SRR10016841.325253,96.55,58,2,0,578,635,359,302,2e-18,97.1
Exophiala_dermatitidis_CBS748.88,SRR10016841.302025,93.85,65,3,1,572,635,366,302,2e-18,97.1
Exophiala_dermatitidis_CBS748.88,SRR10016841.143745,91.43,70,4,2,567,635,370,302,6e-18,95.3
Exophiala_dermatitidis_CBS748.88,SRR10016841.221026,94.92,59,3,0,578,636,359,301,2e-17,93.5
Exophiala_dermatitidis_CBS748.88,SRR10016841.257663,91.18,68,5,1,571,637,367,300,7e-17,91.6
Exophiala_dermatitidis_CBS748.88,SRR10016841.83588,86.49,74,10,0,292,365,54,127,5e-14,82.4
Exophiala_dermatitidis_CBS748.88,SRR10016841.328497,95.92,49,2,0,587,635,350,302,2e-13,80.5
Exophiala_dermatitidis_CBS748.88,SRR10016841.209423,91.23,57,5,0,579,635,358,302,6e-13,78.7
Exophiala_dermatitidis_CBS748.88,SRR10016841.264855,94.00,50,3,0,587,636,350,301,2e-12,76.8
Exophiala_dermatitidis_CBS748.88,SRR10016841.151754,89.09,55,6,0,580,634,357,303,4e-10,69.4
Exophiala_dermatitidis_CBS748.88,SRR10016841.169255,96.97,33,1,0,602,634,335,303,3e-06,56.5
Exophiala_angulospora_CBS482.92_T,SRR10016841.277333,91.47,129,10,1,229,357,1,128,7e-43,176
Exophiala_angulospora_CBS482.92_T,SRR10016841.83588,86.49,74,10,0,283,356,54,127,2e-14,82.4
Exophiala_opportunistica_CBS109811_T,SRR10016841.277333,89.44,142,14,1,228,369,1,141,2e-43,178
Exophiala_opportunistica_CBS109811_T,SRR10016841.83588,86.49,74,10,0,282,355,54,127,2e-14,82.4
Exophiala_salmonis_CBS157.67_T,SRR10016841.277333,89.44,142,14,1,357,498,1,141,3e-43,178
Exophiala_salmonis_CBS157.67_T,SRR10016841.4088,96.77,62,2,0,672,733,363,302,5e-21,104
Exophiala_salmonis_CBS157.67_T,SRR10016841.325253,98.28,58,1,0,676,733,359,302,2e-20,102
Exophiala_salmonis_CBS157.67_T,SRR10016841.302025,95.24,63,2,1,672,733,364,302,2e-19,99.0
Exophiala_salmonis_CBS157.67_T,SRR10016841.221026,96.61,59,2,0,676,734,359,301,2e-19,99.0
Exophiala_salmonis_CBS157.67_T,SRR10016841.147790,92.75,69,4,1,666,733,370,302,2e-19,99.0
Exophiala_salmonis_CBS157.67_T,SRR10016841.143745,90.54,74,6,1,661,733,375,302,8e-19,97.1
Exophiala_salmonis_CBS157.67_T,SRR10016841.257663,93.65,63,4,0,673,735,362,300,3e-18,95.3
Exophiala_salmonis_CBS157.67_T,SRR10016841.83588,86.49,74,10,0,411,484,54,127,2e-14,82.4
Exophiala_salmonis_CBS157.67_T,SRR10016841.209423,91.38,58,3,2,677,733,358,302,3e-13,78.7
Exophiala_salmonis_CBS157.67_T,SRR10016841.328497,93.88,49,3,0,685,733,350,302,4e-12,75.0
Exophiala_salmonis_CBS157.67_T,SRR10016841.151754,90.91,55,5,0,678,732,357,303,4e-12,75.0
Exophiala_salmonis_CBS157.67_T,SRR10016841.264855,92.00,50,4,0,685,734,350,301,5e-11,71.3
Exophiala_salmonis_CBS157.67_T,SRR10016841.169255,96.97,33,1,0,700,732,335,303,1e-06,56.5
Exophiala_aquamarina_CBS119918_T,SRR10016841.277333,91.47,129,10,1,235,363,1,128,7e-43,176
Exophiala_aquamarina_CBS119918_T,SRR10016841.83588,86.49,74,10,0,289,362,54,127,2e-14,82.4
Exophiala_cancerae_CBS120420_T,SRR10016841.277333,89.44,142,14,1,250,391,1,141,2e-43,178
Exophiala_cancerae_CBS120420_T,SRR10016841.4088,96.83,63,2,0,562,624,364,302,1e-21,106
Exophiala_cancerae_CBS120420_T,SRR10016841.302025,95.45,66,2,1,560,624,367,302,4e-21,104
Exophiala_cancerae_CBS120420_T,SRR10016841.325253,98.28,58,1,0,567,624,359,302,1e-20,102
Exophiala_cancerae_CBS120420_T,SRR10016841.147790,92.75,69,5,0,556,624,370,302,5e-20,100
Exophiala_cancerae_CBS120420_T,SRR10016841.143745,92.75,69,4,1,557,624,370,302,2e-19,99.0
Exophiala_cancerae_CBS120420_T,SRR10016841.221026,96.55,58,2,0,567,624,359,302,7e-19,97.1
Exophiala_cancerae_CBS120420_T,SRR10016841.257663,92.31,65,4,1,561,624,366,302,3e-17,91.6
Exophiala_cancerae_CBS120420_T,SRR10016841.83588,86.49,74,10,0,304,377,54,127,2e-14,82.4
Exophiala_cancerae_CBS120420_T,SRR10016841.209423,91.38,58,3,2,568,624,358,302,2e-13,78.7
Exophiala_cancerae_CBS120420_T,SRR10016841.328497,93.88,49,3,0,576,624,350,302,3e-12,75.0
Exophiala_cancerae_CBS120420_T,SRR10016841.151754,90.91,55,5,0,569,623,357,303,3e-12,75.0
Exophiala_cancerae_CBS120420_T,SRR10016841.264855,91.84,49,4,0,576,624,350,302,1e-10,69.4
Exophiala_cancerae_CBS120420_T,SRR10016841.169255,96.97,33,1,0,591,623,335,303,1e-06,56.5
Exophiala_tremulae_CBS129355,SRR10016841.277333,89.44,142,14,1,262,403,1,141,2e-43,178
Exophiala_tremulae_CBS129355,SRR10016841.325253,97.87,47,1,0,582,628,359,313,2e-14,82.4
Exophiala_tremulae_CBS129355,SRR10016841.83588,86.49,74,10,0,316,389,54,127,2e-14,82.4
Exophiala_tremulae_CBS129355,SRR10016841.257663,94.00,50,3,0,579,628,362,313,9e-13,76.8
Exophiala_tremulae_CBS129355,SRR10016841.143745,88.89,63,6,1,567,628,375,313,9e-13,76.8
Exophiala_equina_CBS116009,SRR10016841.277333,89.44,142,14,1,228,369,1,141,2e-43,178
Exophiala_equina_CBS116009,SRR10016841.83588,86.49,74,10,0,282,355,54,127,2e-14,82.4
Exophiala_alcalophila_CBS520.82_T,SRR10016841.277333,91.47,129,10,1,239,367,1,128,7e-43,176
Exophiala_alcalophila_CBS520.82_T,SRR10016841.83588,86.49,74,10,0,293,366,54,127,2e-14,82.4
Exophiala_crusticola_CBS119970_T,SRR10016841.277333,89.44,142,14,1,244,385,1,141,2e-43,178
Exophiala_crusticola_CBS119970_T,SRR10016841.83588,86.49,74,10,0,298,371,54,127,2e-14,82.4
Rhinocladiella_atrovirens_CBS264.49,SRR10016841.277333,90.14,142,13,1,270,411,1,141,5e-45,183
Rhinocladiella_atrovirens_CBS264.49,SRR10016841.83588,87.84,74,9,0,324,397,54,127,4e-16,87.9
Rhinocladiella_atrovirens_CBS264.49,SRR10016841.325253,97.83,46,1,0,581,626,359,314,7e-14,80.5
Rhinocladiella_atrovirens_CBS264.49,SRR10016841.257663,94.00,50,3,0,577,626,363,314,9e-13,76.8
Rhinocladiella_atrovirens_CBS264.49,SRR10016841.143745,95.65,46,2,0,581,626,359,314,3e-12,75.0
Rhinocladiella_basitona_CBS101460_T,SRR10016841.277333,90.62,128,11,1,229,356,1,127,1e-40,169
Rhinocladiella_basitona_CBS101460_T,SRR10016841.83588,86.49,74,10,0,284,357,55,128,2e-14,82.4
Rhinocladiella_phaeophora_CBS496.78_T,SRR10016841.277333,89.44,142,14,1,237,378,1,141,2e-43,178
Rhinocladiella_phaeophora_CBS496.78_T,SRR10016841.83588,86.49,74,10,0,291,364,54,127,2e-14,82.4
Rhinocladiella_aquaspersa_CBS313.73_T,SRR10016841.277333,89.44,142,14,1,231,372,1,141,2e-43,178
Rhinocladiella_aquaspersa_CBS313.73_T,SRR10016841.4088,89.19,74,2,4,538,605,375,302,4e-16,87.9
Rhinocladiella_aquaspersa_CBS313.73_T,SRR10016841.143745,89.86,69,3,4,541,605,370,302,1e-15,86.1
Rhinocladiella_aquaspersa_CBS313.73_T,SRR10016841.302025,90.77,65,2,4,545,605,366,302,5e-15,84.2
Rhinocladiella_aquaspersa_CBS313.73_T,SRR10016841.221026,93.22,59,1,3,551,606,359,301,5e-15,84.2
Rhinocladiella_aquaspersa_CBS313.73_T,SRR10016841.325253,93.10,58,1,3,551,605,359,302,2e-14,82.4
Rhinocladiella_aquaspersa_CBS313.73_T,SRR10016841.257663,89.55,67,3,4,545,607,366,300,2e-14,82.4
Rhinocladiella_aquaspersa_CBS313.73_T,SRR10016841.83588,86.49,74,10,0,285,358,54,127,2e-14,82.4
Rhinocladiella_aquaspersa_CBS313.73_T,SRR10016841.147790,92.59,54,2,2,554,605,355,302,9e-13,76.8
Rhinocladiella_aquaspersa_CBS313.73_T,SRR10016841.209423,93.75,48,2,1,559,605,349,302,4e-11,71.3
Rhinocladiella_aquaspersa_CBS313.73_T,SRR10016841.328497,97.50,40,0,1,567,605,341,302,5e-10,67.6
Rhinocladiella_aquaspersa_CBS313.73_T,SRR10016841.264855,90.20,51,4,1,557,606,351,301,2e-09,65.8
Rhinocladiella_aquaspersa_CBS313.73_T,SRR10016841.151754,91.49,47,3,1,559,604,349,303,7e-09,63.9
Rhinocladiella_aquaspersa_CBS313.73_T,SRR10016841.169255,96.97,33,1,0,572,604,335,303,1e-06,56.5
Rhinocladiella_fasciculata_CBS132.86_T,SRR10016841.277333,90.70,129,11,1,247,375,1,128,3e-41,171
Rhinocladiella_fasciculata_CBS132.86_T,SRR10016841.83588,85.14,74,11,0,301,374,54,127,8e-13,76.8
Rhinocladiella_anceps_CBS181.65_T,SRR10016841.277333,92.25,129,9,1,229,357,1,128,2e-44,182
Rhinocladiella_anceps_CBS181.65_T,SRR10016841.83588,87.84,74,9,0,283,356,54,127,3e-16,87.9
Rhinocladiella_mackenziei_CBS367.92,SRR10016841.277333,91.47,129,10,1,218,346,1,128,8e-43,176
Rhinocladiella_mackenziei_CBS367.92,SRR10016841.83588,86.49,74,10,0,272,345,54,127,2e-14,82.4
Veronaea_compacta_CBS268.75_T,SRR10016841.277333,92.25,129,9,1,251,379,1,128,2e-44,182
Veronaea_compacta_CBS268.75_T,SRR10016841.83588,87.84,74,9,0,305,378,54,127,4e-16,87.9
Capronia_pilosella_AFTOL-ID657,SRR10016841.277333,89.44,142,14,1,329,470,1,141,2e-43,178
Capronia_pilosella_AFTOL-ID657,SRR10016841.83588,86.49,74,10,0,383,456,54,127,2e-14,82.4
Capronia_dactylotricha_DAOM208471_T,SRR10016841.277333,91.47,129,10,1,231,359,1,128,9e-43,176
Capronia_dactylotricha_DAOM208471_T,SRR10016841.325253,98.28,58,1,0,561,618,359,302,1e-20,102
Capronia_dactylotricha_DAOM208471_T,SRR10016841.4088,96.72,61,2,0,558,618,362,302,1e-20,102
Capronia_dactylotricha_DAOM208471_T,SRR10016841.257663,92.86,70,4,1,551,620,368,300,5e-20,100
Capronia_dactylotricha_DAOM208471_T,SRR10016841.221026,96.61,59,2,0,561,619,359,301,2e-19,99.0
Capronia_dactylotricha_DAOM208471_T,SRR10016841.302025,95.16,62,2,1,558,618,363,302,7e-19,97.1
Capronia_dactylotricha_DAOM208471_T,SRR10016841.143745,96.55,58,2,0,561,618,359,302,7e-19,97.1
Capronia_dactylotricha_DAOM208471_T,SRR10016841.147790,96.43,56,2,0,563,618,357,302,9e-18,93.5
Capronia_dactylotricha_DAOM208471_T,SRR10016841.83588,86.49,74,10,0,285,358,54,127,2e-14,82.4
Capronia_dactylotricha_DAOM208471_T,SRR10016841.209423,91.38,58,3,2,562,618,358,302,2e-13,78.7
Capronia_dactylotricha_DAOM208471_T,SRR10016841.328497,93.88,49,3,0,570,618,350,302,3e-12,75.0
Capronia_dactylotricha_DAOM208471_T,SRR10016841.151754,90.91,55,5,0,563,617,357,303,3e-12,75.0
Capronia_dactylotricha_DAOM208471_T,SRR10016841.264855,87.69,65,4,3,557,619,363,301,1e-11,73.1
Capronia_dactylotricha_DAOM208471_T,SRR10016841.169255,96.97,33,1,0,585,617,335,303,1e-06,56.5
Capronia_kleinmondensis_CBS122671_T,SRR10016841.277333,90.14,142,13,1,256,397,1,141,5e-45,183
Capronia_kleinmondensis_CBS122671_T,SRR10016841.325253,98.28,58,1,0,567,624,359,302,1e-20,102
Capronia_kleinmondensis_CBS122671_T,SRR10016841.4088,96.72,61,2,0,564,624,362,302,1e-20,102
Capronia_kleinmondensis_CBS122671_T,SRR10016841.143745,92.86,70,4,1,556,624,371,302,5e-20,100
Capronia_kleinmondensis_CBS122671_T,SRR10016841.221026,96.61,59,2,0,567,625,359,301,2e-19,99.0
Capronia_kleinmondensis_CBS122671_T,SRR10016841.302025,95.16,62,2,1,564,624,363,302,7e-19,97.1
Capronia_kleinmondensis_CBS122671_T,SRR10016841.257663,93.75,64,4,0,563,626,363,300,7e-19,97.1
Capronia_kleinmondensis_CBS122671_T,SRR10016841.147790,96.43,56,2,0,569,624,357,302,9e-18,93.5
Capronia_kleinmondensis_CBS122671_T,SRR10016841.83588,87.84,74,9,0,310,383,54,127,4e-16,87.9
Capronia_kleinmondensis_CBS122671_T,SRR10016841.209423,91.38,58,3,2,568,624,358,302,3e-13,78.7
Capronia_kleinmondensis_CBS122671_T,SRR10016841.328497,93.88,49,3,0,576,624,350,302,3e-12,75.0
Capronia_kleinmondensis_CBS122671_T,SRR10016841.151754,90.91,55,5,0,569,623,357,303,3e-12,75.0
Capronia_kleinmondensis_CBS122671_T,SRR10016841.264855,87.69,65,4,3,563,625,363,301,1e-11,73.1
Capronia_kleinmondensis_CBS122671_T,SRR10016841.169255,96.97,33,1,0,591,623,335,303,1e-06,56.5
Capronia_mansonii_CBS101.67_T,SRR10016841.277333,89.44,142,14,1,242,383,1,141,2e-43,178
Capronia_mansonii_CBS101.67_T,SRR10016841.4088,98.39,62,1,0,567,628,363,302,9e-23,110
Capronia_mansonii_CBS101.67_T,SRR10016841.147790,98.21,56,1,0,573,628,357,302,2e-19,99.0
Capronia_mansonii_CBS101.67_T,SRR10016841.325253,96.55,58,2,0,571,628,359,302,7e-19,97.1
Capronia_mansonii_CBS101.67_T,SRR10016841.302025,93.65,63,3,1,567,628,364,302,9e-18,93.5
Capronia_mansonii_CBS101.67_T,SRR10016841.221026,94.92,59,3,0,571,629,359,301,9e-18,93.5
Capronia_mansonii_CBS101.67_T,SRR10016841.143745,94.83,58,3,0,571,628,359,302,3e-17,91.6
Capronia_mansonii_CBS101.67_T,SRR10016841.257663,92.06,63,5,0,568,630,362,300,1e-16,89.8
Capronia_mansonii_CBS101.67_T,SRR10016841.83588,86.49,74,10,0,296,369,54,127,2e-14,82.4
Capronia_mansonii_CBS101.67_T,SRR10016841.328497,95.92,49,2,0,580,628,350,302,7e-14,80.5
Capronia_mansonii_CBS101.67_T,SRR10016841.209423,91.23,57,5,0,572,628,358,302,3e-13,78.7
Capronia_mansonii_CBS101.67_T,SRR10016841.264855,94.00,50,3,0,580,629,350,301,9e-13,76.8
Capronia_mansonii_CBS101.67_T,SRR10016841.151754,89.09,55,6,0,573,627,357,303,2e-10,69.4
Capronia_mansonii_CBS101.67_T,SRR10016841.169255,96.97,33,1,0,595,627,335,303,1e-06,56.5
Capronia_munkii_DAOM216390_T,SRR10016841.277333,89.44,142,14,1,242,383,1,141,2e-43,178
Capronia_munkii_DAOM216390_T,SRR10016841.4088,98.39,62,1,0,567,628,363,302,9e-23,110
Capronia_munkii_DAOM216390_T,SRR10016841.147790,94.03,67,3,1,563,628,368,302,5e-20,100
Capronia_munkii_DAOM216390_T,SRR10016841.325253,96.55,58,2,0,571,628,359,302,7e-19,97.1
Capronia_munkii_DAOM216390_T,SRR10016841.302025,93.65,63,3,1,567,628,364,302,9e-18,93.5
Capronia_munkii_DAOM216390_T,SRR10016841.221026,94.92,59,3,0,571,629,359,301,9e-18,93.5
Capronia_munkii_DAOM216390_T,SRR10016841.143745,94.83,58,3,0,571,628,359,302,3e-17,91.6
Capronia_munkii_DAOM216390_T,SRR10016841.257663,92.06,63,5,0,568,630,362,300,1e-16,89.8
Capronia_munkii_DAOM216390_T,SRR10016841.83588,86.49,74,10,0,296,369,54,127,2e-14,82.4
Capronia_munkii_DAOM216390_T,SRR10016841.328497,95.92,49,2,0,580,628,350,302,7e-14,80.5
Capronia_munkii_DAOM216390_T,SRR10016841.209423,91.23,57,5,0,572,628,358,302,3e-13,78.7
Capronia_munkii_DAOM216390_T,SRR10016841.264855,94.00,50,3,0,580,629,350,301,9e-13,76.8
Capronia_munkii_DAOM216390_T,SRR10016841.151754,89.09,55,6,0,573,627,357,303,2e-10,69.4
Capronia_munkii_DAOM216390_T,SRR10016841.169255,96.97,33,1,0,595,627,335,303,1e-06,56.5
Capronia_coronata_ATCC56201_T,SRR10016841.277333,91.47,129,10,1,230,358,1,128,8e-43,176
Capronia_coronata_ATCC56201_T,SRR10016841.4088,98.41,63,1,0,537,599,364,302,2e-23,111
Capronia_coronata_ATCC56201_T,SRR10016841.147790,92.86,70,5,0,530,599,371,302,1e-20,102
Capronia_coronata_ATCC56201_T,SRR10016841.143745,92.75,69,4,1,532,599,370,302,2e-19,99.0
Capronia_coronata_ATCC56201_T,SRR10016841.325253,96.55,58,2,0,542,599,359,302,7e-19,97.1
Capronia_coronata_ATCC56201_T,SRR10016841.302025,93.85,65,3,1,536,599,366,302,7e-19,97.1
Capronia_coronata_ATCC56201_T,SRR10016841.221026,94.92,59,3,0,542,600,359,301,9e-18,93.5
Capronia_coronata_ATCC56201_T,SRR10016841.257663,91.04,67,5,1,536,601,366,300,1e-16,89.8
Capronia_coronata_ATCC56201_T,SRR10016841.83588,86.49,74,10,0,284,357,54,127,2e-14,82.4
Capronia_coronata_ATCC56201_T,SRR10016841.328497,95.92,49,2,0,551,599,350,302,7e-14,80.5
Capronia_coronata_ATCC56201_T,SRR10016841.209423,88.06,67,7,1,534,599,368,302,2e-13,78.7
Capronia_coronata_ATCC56201_T,SRR10016841.264855,94.00,50,3,0,551,600,350,301,9e-13,76.8
Capronia_coronata_ATCC56201_T,SRR10016841.151754,89.09,55,6,0,544,598,357,303,1e-10,69.4
Capronia_coronata_ATCC56201_T,SRR10016841.169255,96.97,33,1,0,566,598,335,303,1e-06,56.5
Capronia_parasitica_CBS123.88,SRR10016841.277333,91.47,129,10,1,236,364,1,128,8e-43,176
Capronia_parasitica_CBS123.88,SRR10016841.83588,86.49,74,10,0,290,363,54,127,2e-14,82.4
Veronaea_japonica_CBS776.83_T,SRR10016841.277333,89.44,142,14,1,264,405,1,141,2e-43,178
Veronaea_japonica_CBS776.83_T,SRR10016841.83588,86.49,74,10,0,318,391,54,127,2e-14,82.4
Thysanorea_papuana_CBS212.96_T,SRR10016841.277333,89.44,142,14,1,238,379,1,141,2e-43,178
Thysanorea_papuana_CBS212.96_T,SRR10016841.83588,86.49,74,10,0,292,365,54,127,2e-14,82.4
Capronia_acutiseta_ATCC56428_T,SRR10016841.277333,90.70,129,10,2,232,359,1,128,4e-41,171
Capronia_acutiseta_ATCC56428_T,SRR10016841.143745,91.46,82,4,3,518,598,381,302,9e-23,110
Capronia_acutiseta_ATCC56428_T,SRR10016841.4088,94.29,70,3,1,530,598,371,302,1e-21,106
Capronia_acutiseta_ATCC56428_T,SRR10016841.302025,95.45,66,2,1,534,598,367,302,4e-21,104
Capronia_acutiseta_ATCC56428_T,SRR10016841.325253,98.28,58,1,0,541,598,359,302,1e-20,102
Capronia_acutiseta_ATCC56428_T,SRR10016841.221026,96.61,59,2,0,541,599,359,301,2e-19,99.0
Capronia_acutiseta_ATCC56428_T,SRR10016841.147790,92.65,68,5,0,531,598,369,302,2e-19,99.0
Capronia_acutiseta_ATCC56428_T,SRR10016841.257663,92.54,67,4,1,535,600,366,300,2e-18,95.3
Capronia_acutiseta_ATCC56428_T,SRR10016841.83588,86.49,74,10,0,285,358,54,127,2e-14,82.4
Capronia_acutiseta_ATCC56428_T,SRR10016841.209423,91.38,58,3,2,542,598,358,302,2e-13,78.7
Capronia_acutiseta_ATCC56428_T,SRR10016841.328497,93.88,49,3,0,550,598,350,302,3e-12,75.0
Capronia_acutiseta_ATCC56428_T,SRR10016841.151754,90.91,55,5,0,543,597,357,303,3e-12,75.0
Capronia_acutiseta_ATCC56428_T,SRR10016841.264855,92.00,50,4,0,550,599,350,301,4e-11,71.3
Capronia_acutiseta_ATCC56428_T,SRR10016841.169255,96.97,33,1,0,565,597,335,303,1e-06,56.5
Fonsecaea_brasiliensis_CBS119710_T,SRR10016841.277333,91.47,129,10,1,238,366,1,128,7e-43,176
Fonsecaea_brasiliensis_CBS119710_T,SRR10016841.83588,86.49,74,10,0,292,365,54,127,2e-14,82.4
Fonsecaea_pedrosoi_CBS271.37_T,SRR10016841.277333,91.47,129,10,1,266,394,1,128,8e-43,176
Fonsecaea_pedrosoi_CBS271.37_T,SRR10016841.4088,96.77,62,2,0,584,645,363,302,4e-21,104
Fonsecaea_pedrosoi_CBS271.37_T,SRR10016841.147790,96.43,56,2,0,590,645,357,302,9e-18,93.5
Fonsecaea_pedrosoi_CBS271.37_T,SRR10016841.325253,94.83,58,3,0,588,645,359,302,3e-17,91.6
Fonsecaea_pedrosoi_CBS271.37_T,SRR10016841.302025,92.06,63,4,1,584,645,364,302,4e-16,87.9
Fonsecaea_pedrosoi_CBS271.37_T,SRR10016841.143745,89.86,69,6,1,578,645,370,302,4e-16,87.9
Fonsecaea_pedrosoi_CBS271.37_T,SRR10016841.221026,93.10,58,4,0,588,645,359,302,1e-15,86.1
Fonsecaea_pedrosoi_CBS271.37_T,SRR10016841.83588,86.49,74,10,0,320,393,54,127,2e-14,82.4
Fonsecaea_pedrosoi_CBS271.37_T,SRR10016841.257663,90.16,61,6,0,585,645,362,302,7e-14,80.5
Fonsecaea_pedrosoi_CBS271.37_T,SRR10016841.328497,93.88,49,3,0,597,645,350,302,3e-12,75.0
Fonsecaea_pedrosoi_CBS271.37_T,SRR10016841.209423,89.47,57,6,0,589,645,358,302,1e-11,73.1
Fonsecaea_pedrosoi_CBS271.37_T,SRR10016841.264855,91.84,49,4,0,597,645,350,302,1e-10,69.4
Fonsecaea_pedrosoi_CBS271.37_T,SRR10016841.151754,87.27,55,7,0,590,644,357,303,7e-09,63.9
Fonsecaea_multimorphosa_CBS980.96_T,SRR10016841.277333,91.47,129,10,1,236,364,1,128,7e-43,176
Fonsecaea_multimorphosa_CBS980.96_T,SRR10016841.83588,86.49,74,10,0,290,363,54,127,2e-14,82.4
Fonsecaea_minima_CBS125760_T,SRR10016841.277333,91.47,129,10,1,232,360,1,128,7e-43,176
Fonsecaea_minima_CBS125760_T,SRR10016841.83588,86.49,74,10,0,286,359,54,127,2e-14,82.4
Fonsecaea_nubica_CBS269.64_T,SRR10016841.277333,91.47,129,10,1,243,371,1,128,7e-43,176
Fonsecaea_nubica_CBS269.64_T,SRR10016841.83588,86.49,74,10,0,297,370,54,127,2e-14,82.4
Fonsecaea_monophora_CBS269.37_T,SRR10016841.277333,90.77,130,10,2,243,372,1,128,1e-41,172
Fonsecaea_monophora_CBS269.37_T,SRR10016841.83588,86.49,74,10,0,298,371,54,127,2e-14,82.4
Fonsecaea_erecta_CBS125763_T,SRR10016841.277333,89.44,142,14,1,227,368,1,141,2e-43,178
Fonsecaea_erecta_CBS125763_T,SRR10016841.83588,86.49,74,10,0,281,354,54,127,2e-14,82.4
Fonsecaea_pugnacius_CBS139214_T,SRR10016841.277333,91.47,129,10,1,236,364,1,128,7e-43,176
Fonsecaea_pugnacius_CBS139214_T,SRR10016841.83588,86.49,74,10,0,290,363,54,127,2e-14,82.4
Cladophialophora_psammophila_CBS,SRR10016841.277333,89.44,142,14,1,242,383,1,141,2e-43,178
Cladophialophora_psammophila_CBS,SRR10016841.83588,86.49,74,10,0,296,369,54,127,2e-14,82.4
Cladophialophora_devriesii_CBS,SRR10016841.277333,91.47,129,10,1,238,366,1,128,7e-43,176
Cladophialophora_devriesii_CBS,SRR10016841.83588,86.49,74,10,0,292,365,54,127,2e-14,82.4
Cladophialophora_immunda_CBS834.96,SRR10016841.277333,91.47,129,10,1,240,368,1,128,7e-43,176
Cladophialophora_immunda_CBS834.96,SRR10016841.83588,86.49,74,10,0,294,367,54,127,2e-14,82.4
Cladophialophora_arxii_CBS306.94_T,SRR10016841.277333,91.47,129,10,1,242,370,1,128,7e-43,176
Cladophialophora_arxii_CBS306.94_T,SRR10016841.83588,86.49,74,10,0,296,369,54,127,2e-14,82.4
Cladophialophora_bantiana_CBS173.52,SRR10016841.277333,89.44,142,14,1,236,377,1,141,2e-43,178
Cladophialophora_bantiana_CBS173.52,SRR10016841.83588,86.49,74,10,0,290,363,54,127,2e-14,82.4
Cladophialophora_emmonsii_CBS102594,SRR10016841.277333,89.44,142,14,1,227,368,1,141,2e-43,178
Cladophialophora_emmonsii_CBS102594,SRR10016841.83588,86.49,74,10,0,281,354,54,127,2e-14,82.4
Cladophialophora_minourae_CBS556.83,SRR10016841.277333,86.81,144,16,3,235,378,1,141,3e-37,158
Cladophialophora_minourae_CBS556.83,SRR10016841.83588,82.67,75,11,2,290,364,55,127,2e-09,65.8
Cladophialophora_australiensis_CBS112793,SRR10016841.277333,88.73,142,15,1,237,378,1,141,3e-41,172
Cladophialophora_australiensis_CBS112793,SRR10016841.4088,96.77,62,2,0,545,606,363,302,9e-21,104
Cladophialophora_australiensis_CBS112793,SRR10016841.147790,92.65,68,4,1,540,606,369,302,2e-18,97.1
Cladophialophora_australiensis_CBS112793,SRR10016841.325253,94.83,58,3,0,549,606,359,302,7e-17,91.6
Cladophialophora_australiensis_CBS112793,SRR10016841.302025,92.06,63,4,1,545,606,364,302,9e-16,87.9
Cladophialophora_australiensis_CBS112793,SRR10016841.221026,93.22,59,4,0,549,607,359,301,9e-16,87.9
Cladophialophora_australiensis_CBS112793,SRR10016841.143745,89.71,68,7,0,539,606,369,302,9e-16,87.9
Cladophialophora_australiensis_CBS112793,SRR10016841.257663,90.48,63,6,0,546,608,362,300,1e-14,84.2
Cladophialophora_australiensis_CBS112793,SRR10016841.83588,85.14,74,11,0,291,364,54,127,2e-12,76.8
Cladophialophora_australiensis_CBS112793,SRR10016841.328497,93.88,49,3,0,558,606,350,302,7e-12,75.0
Cladophialophora_australiensis_CBS112793,SRR10016841.209423,89.47,57,6,0,550,606,358,302,3e-11,73.1
Cladophialophora_australiensis_CBS112793,SRR10016841.264855,92.00,50,4,0,558,607,350,301,1e-10,71.3
Cladophialophora_australiensis_CBS112793,SRR10016841.151754,87.27,55,7,0,551,605,357,303,2e-08,63.9
Cladophialophora_potulentorum_CBS112222,SRR10016841.277333,89.44,142,14,1,236,377,1,141,6e-43,178
Cladophialophora_potulentorum_CBS112222,SRR10016841.4088,94.37,71,2,1,540,608,372,302,7e-22,108
Cladophialophora_potulentorum_CBS112222,SRR10016841.147790,96.43,56,2,0,553,608,357,302,2e-17,93.5
Cladophialophora_potulentorum_CBS112222,SRR10016841.325253,94.83,58,3,0,551,608,359,302,7e-17,91.6
Cladophialophora_potulentorum_CBS112222,SRR10016841.302025,92.19,64,4,1,546,608,365,302,3e-16,89.8
Cladophialophora_potulentorum_CBS112222,SRR10016841.143745,90.00,70,5,2,540,608,370,302,3e-16,89.8
Cladophialophora_potulentorum_CBS112222,SRR10016841.221026,93.22,59,4,0,551,609,359,301,1e-15,87.9
Cladophialophora_potulentorum_CBS112222,SRR10016841.257663,90.48,63,6,0,548,610,362,300,1e-14,84.2
Cladophialophora_potulentorum_CBS112222,SRR10016841.83588,86.49,74,10,0,290,363,54,127,4e-14,82.4
Cladophialophora_potulentorum_CBS112222,SRR10016841.328497,93.88,49,3,0,560,608,350,302,7e-12,75.0
Cladophialophora_potulentorum_CBS112222,SRR10016841.209423,89.47,57,6,0,552,608,358,302,3e-11,73.1
Cladophialophora_potulentorum_CBS112222,SRR10016841.264855,92.00,50,4,0,560,609,350,301,1e-10,71.3
Cladophialophora_potulentorum_CBS112222,SRR10016841.151754,87.27,55,7,0,553,607,357,303,2e-08,63.9
Cladophialophora_matsushimae_CMRP1198,SRR10016841.277333,92.19,128,9,1,240,367,1,127,5e-44,180
Cladophialophora_matsushimae_CMRP1198,SRR10016841.83588,87.84,74,9,0,294,367,54,127,3e-16,87.9
Cladophialophora_mycetomatis_CBS122637,SRR10016841.277333,90.14,142,13,1,225,366,1,141,4e-45,183
Cladophialophora_mycetomatis_CBS122637,SRR10016841.83588,87.84,74,9,0,279,352,54,127,3e-16,87.9
Cladophialophora_chaetospira_CBS127573,SRR10016841.277333,89.44,142,14,1,631,772,1,141,3e-43,178
Cladophialophora_chaetospira_CBS127573,SRR10016841.83588,86.49,74,10,0,685,758,54,127,3e-14,82.4
Cladophialophora_boppii_CBS126.86_T,SRR10016841.277333,89.44,142,14,1,233,374,1,141,2e-43,178
Cladophialophora_boppii_CBS126.86_T,SRR10016841.83588,86.49,74,10,0,287,360,54,127,2e-14,82.4
Cladophialophora_abundans_CBS126736,SRR10016841.277333,90.14,142,13,1,170,311,1,141,4e-45,183
Cladophialophora_abundans_CBS126736,SRR10016841.83588,86.30,73,10,0,225,297,55,127,5e-14,80.5
Capronia_semi-immersa_CBS102234,SRR10016841.277333,87.32,142,17,1,232,373,1,141,2e-38,161
Capronia_semi-immersa_CBS102234,SRR10016841.83588,83.56,73,12,0,287,359,55,127,1e-10,69.4
Phialophora_americana_CBS400.67,SRR10016841.277333,87.32,142,17,1,234,375,1,141,5e-38,161
Phialophora_americana_CBS400.67,SRR10016841.83588,83.56,73,12,0,289,361,55,127,3e-10,69.4
Phialophora_verrucosa_CBS140325_T,SRR10016841.277333,87.32,142,17,1,238,379,1,141,2e-38,161
Phialophora_verrucosa_CBS140325_T,SRR10016841.83588,83.56,73,12,0,293,365,55,127,1e-10,69.4
Cladophialophora_samoensis_CBS259.83_T,SRR10016841.277333,90.14,142,13,1,238,379,1,141,4e-45,183
Cladophialophora_samoensis_CBS259.83_T,SRR10016841.83588,85.14,74,11,0,292,365,54,127,8e-13,76.8
Cladophialophora_carrionii_CBS260.83,SRR10016841.277333,88.73,142,15,1,254,395,1,141,1e-41,172
Cladophialophora_carrionii_CBS260.83,SRR10016841.83588,85.14,74,11,0,308,381,54,127,8e-13,76.8
Exophiala_palmae_UPCB86822_T,SRR10016841.277333,89.44,142,14,1,197,338,1,141,2e-43,178
Exophiala_palmae_UPCB86822_T,SRR10016841.83588,86.49,74,10,0,251,324,54,127,1e-14,82.4
Cladophialophora_yegresii_CBS114405_T,SRR10016841.277333,88.73,142,15,1,239,380,1,141,9e-42,172
Cladophialophora_yegresii_CBS114405_T,SRR10016841.83588,85.14,74,11,0,293,366,54,127,8e-13,76.8
Knufia_epidermidis_CBS120353_T,SRR10016841.277333,92.25,129,9,1,237,365,1,128,2e-44,182
Knufia_epidermidis_CBS120353_T,SRR10016841.83588,85.90,78,10,1,292,369,55,131,2e-14,82.4
Arthrocladium_fulminans_CBS136243_T,SRR10016841.277333,91.47,129,10,1,232,360,1,128,7e-43,176
Arthrocladium_fulminans_CBS136243_T,SRR10016841.83588,87.18,78,9,1,287,364,55,131,4e-16,87.9
Anthopsis_deltoidea_CBS263.77_T,SRR10016841.277333,87.94,141,16,1,241,380,1,141,1e-39,165
Cyphellophora_laciniata_CBS190.61_T,SRR10016841.277333,90.78,141,12,1,326,465,1,141,4e-46,187
Cyphellophora_laciniata_CBS190.61_T,SRR10016841.4088,97.18,71,1,1,626,695,372,302,2e-25,119
Cyphellophora_laciniata_CBS190.61_T,SRR10016841.325253,94.03,67,2,2,631,695,368,302,6e-20,100
Cyphellophora_laciniata_CBS190.61_T,SRR10016841.147790,98.21,56,1,0,640,695,357,302,2e-19,99.0
Cyphellophora_laciniata_CBS190.61_T,SRR10016841.302025,93.75,64,3,1,633,695,365,302,3e-18,95.3
Cyphellophora_laciniata_CBS190.61_T,SRR10016841.221026,94.92,59,3,0,638,696,359,301,1e-17,93.5
Cyphellophora_laciniata_CBS190.61_T,SRR10016841.143745,94.83,58,3,0,638,695,359,302,4e-17,91.6
Cyphellophora_laciniata_CBS190.61_T,SRR10016841.257663,92.06,63,5,0,635,697,362,300,1e-16,89.8
Cyphellophora_laciniata_CBS190.61_T,SRR10016841.83588,87.67,73,9,0,379,451,55,127,2e-15,86.1
Cyphellophora_laciniata_CBS190.61_T,SRR10016841.328497,95.92,49,2,0,647,695,350,302,8e-14,80.5
Cyphellophora_laciniata_CBS190.61_T,SRR10016841.209423,91.23,57,5,0,639,695,358,302,3e-13,78.7
Cyphellophora_laciniata_CBS190.61_T,SRR10016841.264855,94.00,50,3,0,647,696,350,301,1e-12,76.8
Cyphellophora_laciniata_CBS190.61_T,SRR10016841.151754,89.09,55,6,0,640,694,357,303,2e-10,69.4
Cyphellophora_laciniata_CBS190.61_T,SRR10016841.169255,96.97,33,1,0,662,694,335,303,1e-06,56.5
Cyphellophora_suttonii_CBS449.91,SRR10016841.277333,90.78,141,12,1,229,368,1,141,3e-46,187
Cyphellophora_suttonii_CBS449.91,SRR10016841.83588,87.67,73,9,0,282,354,55,127,1e-15,86.1
Cyphellophora_pauciseptata_CBS284.85_T,SRR10016841.277333,90.78,141,12,1,240,379,1,141,3e-46,187
Cyphellophora_pauciseptata_CBS284.85_T,SRR10016841.83588,87.67,73,9,0,293,365,55,127,1e-15,86.1
Cyphellophora_pluriseptata_CBS286.85_T,SRR10016841.277333,89.93,139,13,1,247,384,3,141,2e-43,178
Cyphellophora_pluriseptata_CBS286.85_T,SRR10016841.83588,86.30,73,10,0,298,370,55,127,6e-14,80.5
Phialophora_europaea_CBS101466,SRR10016841.277333,90.07,141,13,1,235,374,1,141,1e-44,182
Phialophora_europaea_CBS101466,SRR10016841.83588,86.30,73,10,0,288,360,55,127,6e-14,80.5
Phialophora_ambigua_CBS235.93,SRR10016841.277333,90.07,141,13,1,232,371,1,141,2e-44,182
Phialophora_ambigua_CBS235.93,SRR10016841.83588,86.30,73,10,0,285,357,55,127,6e-14,80.5
Cladophialophora_modesta_CBS985.96_T,SRR10016841.277333,88.73,142,15,1,229,370,1,141,1e-41,172
Cladophialophora_modesta_CBS985.96_T,SRR10016841.4088,96.77,62,2,0,518,579,363,302,4e-21,104
Cladophialophora_modesta_CBS985.96_T,SRR10016841.147790,92.65,68,4,1,513,579,369,302,6e-19,97.1
Cladophialophora_modesta_CBS985.96_T,SRR10016841.325253,94.83,58,3,0,522,579,359,302,3e-17,91.6
Cladophialophora_modesta_CBS985.96_T,SRR10016841.302025,92.06,63,4,1,518,579,364,302,4e-16,87.9
Cladophialophora_modesta_CBS985.96_T,SRR10016841.221026,93.22,59,4,0,522,580,359,301,4e-16,87.9
Cladophialophora_modesta_CBS985.96_T,SRR10016841.143745,89.71,68,7,0,512,579,369,302,4e-16,87.9
Cladophialophora_modesta_CBS985.96_T,SRR10016841.328497,97.96,49,1,0,531,579,350,302,1e-15,86.1
Cladophialophora_modesta_CBS985.96_T,SRR10016841.257663,90.48,63,6,0,519,581,362,300,5e-15,84.2
Cladophialophora_modesta_CBS985.96_T,SRR10016841.209423,92.98,57,4,0,523,579,358,302,5e-15,84.2
Cladophialophora_modesta_CBS985.96_T,SRR10016841.83588,86.30,73,10,0,284,356,55,127,7e-14,80.5
Cladophialophora_modesta_CBS985.96_T,SRR10016841.264855,92.00,50,4,0,531,580,350,301,4e-11,71.3
Cladophialophora_modesta_CBS985.96_T,SRR10016841.151754,87.27,55,7,0,524,578,357,303,7e-09,63.9
Cladophialophora_modesta_CBS985.96_T,SRR10016841.169255,92.86,42,3,0,537,578,344,303,2e-08,62.1
Cyphellophora_fusarioides_MUCL44033_T,SRR10016841.277333,90.07,141,13,1,228,367,1,141,2e-44,182
