Exophiala_polymorpha_CBS138920_T,SRR9856994.53956,100.00,28,0,0,667,694,204,231,1e-05,52.8
Exophiala_polymorpha_CBS138920_T,SRR9856994.53956,100.00,28,0,0,667,694,337,310,1e-05,52.8
Exophiala_polymorpha_CBS138920_T,SRR9856994.53955,100.00,28,0,0,667,694,337,310,1e-05,52.8
Exophiala_jeanselmei_CBS507.90_T,SRR9856994.53956,100.00,36,0,0,569,604,204,239,4e-10,67.6
Exophiala_jeanselmei_CBS507.90_T,SRR9856994.53956,100.00,36,0,0,569,604,337,302,4e-10,67.6
Exophiala_jeanselmei_CBS507.90_T,SRR9856994.53955,100.00,36,0,0,569,604,337,302,4e-10,67.6
Exophiala_pisciphila_CBS537.73_T,SRR9856994.53955,97.62,42,0,1,578,619,337,297,3e-11,71.3
Exophiala_pisciphila_CBS537.73_T,SRR9856994.53956,100.00,36,0,0,578,613,204,239,4e-10,67.6
Exophiala_pisciphila_CBS537.73_T,SRR9856994.53956,100.00,36,0,0,578,613,337,302,4e-10,67.6
Exophiala_mesophila_CBS402.95_T,SRR9856994.53955,97.62,42,0,1,575,616,337,297,3e-11,71.3
Exophiala_mesophila_CBS402.95_T,SRR9856994.53956,100.00,36,0,0,575,610,204,239,4e-10,67.6
Exophiala_mesophila_CBS402.95_T,SRR9856994.53956,100.00,36,0,0,575,610,337,302,4e-10,67.6
Exophiala_castellanii_CBS158.58_T,SRR9856994.53955,97.62,42,0,1,574,615,337,297,3e-11,71.3
Exophiala_castellanii_CBS158.58_T,SRR9856994.53956,100.00,36,0,0,574,609,204,239,4e-10,67.6
Exophiala_castellanii_CBS158.58_T,SRR9856994.53956,100.00,36,0,0,574,609,337,302,4e-10,67.6
Exophiala_dermatitidis_CBS748.88,SRR9856994.53955,97.62,42,0,1,600,641,337,297,8e-11,71.3
Exophiala_dermatitidis_CBS748.88,SRR9856994.53956,100.00,36,0,0,600,635,204,239,1e-09,67.6
Exophiala_dermatitidis_CBS748.88,SRR9856994.53956,100.00,36,0,0,600,635,337,302,1e-09,67.6
Exophiala_salmonis_CBS157.67_T,SRR9856994.53955,97.62,42,0,1,698,739,337,297,4e-11,71.3
Exophiala_salmonis_CBS157.67_T,SRR9856994.53956,100.00,36,0,0,698,733,204,239,5e-10,67.6
Exophiala_salmonis_CBS157.67_T,SRR9856994.53956,100.00,36,0,0,698,733,337,302,5e-10,67.6
Exophiala_cancerae_CBS120420_T,SRR9856994.53956,100.00,36,0,0,589,624,204,239,4e-10,67.6
Exophiala_cancerae_CBS120420_T,SRR9856994.53956,100.00,36,0,0,589,624,337,302,4e-10,67.6
Exophiala_cancerae_CBS120420_T,SRR9856994.53955,100.00,36,0,0,589,624,337,302,4e-10,67.6
Rhinocladiella_aquaspersa_CBS313.73_T,SRR9856994.53955,97.62,42,0,1,570,611,337,297,3e-11,71.3
Rhinocladiella_aquaspersa_CBS313.73_T,SRR9856994.53956,100.00,36,0,0,570,605,204,239,4e-10,67.6
Rhinocladiella_aquaspersa_CBS313.73_T,SRR9856994.53956,100.00,36,0,0,570,605,337,302,4e-10,67.6
Capronia_dactylotricha_DAOM208471_T,SRR9856994.53955,97.62,42,0,1,583,624,337,297,3e-11,71.3
Capronia_dactylotricha_DAOM208471_T,SRR9856994.53956,100.00,36,0,0,583,618,204,239,4e-10,67.6
Capronia_dactylotricha_DAOM208471_T,SRR9856994.53956,100.00,36,0,0,583,618,337,302,4e-10,67.6
Capronia_kleinmondensis_CBS122671_T,SRR9856994.53955,97.62,42,0,1,589,630,337,297,3e-11,71.3
Capronia_kleinmondensis_CBS122671_T,SRR9856994.53956,100.00,36,0,0,589,624,204,239,4e-10,67.6
Capronia_kleinmondensis_CBS122671_T,SRR9856994.53956,100.00,36,0,0,589,624,337,302,4e-10,67.6
Capronia_mansonii_CBS101.67_T,SRR9856994.53955,97.62,42,0,1,593,634,337,297,3e-11,71.3
Capronia_mansonii_CBS101.67_T,SRR9856994.53956,100.00,36,0,0,593,628,204,239,4e-10,67.6
Capronia_mansonii_CBS101.67_T,SRR9856994.53956,100.00,36,0,0,593,628,337,302,4e-10,67.6
Capronia_munkii_DAOM216390_T,SRR9856994.53955,97.62,42,0,1,593,634,337,297,3e-11,71.3
Capronia_munkii_DAOM216390_T,SRR9856994.53956,100.00,36,0,0,593,628,204,239,4e-10,67.6
Capronia_munkii_DAOM216390_T,SRR9856994.53956,100.00,36,0,0,593,628,337,302,4e-10,67.6
Capronia_coronata_ATCC56201_T,SRR9856994.53955,97.62,42,0,1,564,605,337,297,3e-11,71.3
Capronia_coronata_ATCC56201_T,SRR9856994.53956,100.00,36,0,0,564,599,204,239,4e-10,67.6
Capronia_coronata_ATCC56201_T,SRR9856994.53956,100.00,36,0,0,564,599,337,302,4e-10,67.6
Capronia_acutiseta_ATCC56428_T,SRR9856994.53955,97.62,42,0,1,563,604,337,297,3e-11,71.3
Capronia_acutiseta_ATCC56428_T,SRR9856994.53956,100.00,36,0,0,563,598,204,239,4e-10,67.6
Capronia_acutiseta_ATCC56428_T,SRR9856994.53956,100.00,36,0,0,563,598,337,302,4e-10,67.6
Fonsecaea_pedrosoi_CBS271.37_T,SRR9856994.53956,97.22,36,1,0,610,645,204,239,2e-08,62.1
Fonsecaea_pedrosoi_CBS271.37_T,SRR9856994.53956,97.22,36,1,0,610,645,337,302,2e-08,62.1
Fonsecaea_pedrosoi_CBS271.37_T,SRR9856994.53955,97.22,36,1,0,610,645,337,302,2e-08,62.1
Cladophialophora_australiensis_CBS112793,SRR9856994.53955,95.24,42,1,1,571,612,337,297,4e-09,65.8
Cladophialophora_australiensis_CBS112793,SRR9856994.53956,97.22,36,1,0,571,606,204,239,5e-08,62.1
Cladophialophora_australiensis_CBS112793,SRR9856994.53956,97.22,36,1,0,571,606,337,302,5e-08,62.1
Cladophialophora_potulentorum_CBS112222,SRR9856994.53955,95.24,42,1,1,573,614,337,297,4e-09,65.8
Cladophialophora_potulentorum_CBS112222,SRR9856994.53956,97.22,36,1,0,573,608,204,239,5e-08,62.1
Cladophialophora_potulentorum_CBS112222,SRR9856994.53956,97.22,36,1,0,573,608,337,302,5e-08,62.1
Cyphellophora_laciniata_CBS190.61_T,SRR9856994.53955,97.62,42,0,1,660,701,337,297,4e-11,71.3
Cyphellophora_laciniata_CBS190.61_T,SRR9856994.53956,100.00,36,0,0,660,695,204,239,5e-10,67.6
Cyphellophora_laciniata_CBS190.61_T,SRR9856994.53956,100.00,36,0,0,660,695,337,302,5e-10,67.6
Cladophialophora_modesta_CBS985.96_T,SRR9856994.53955,97.62,42,0,1,544,585,337,297,3e-11,71.3
Cladophialophora_modesta_CBS985.96_T,SRR9856994.53956,100.00,36,0,0,544,579,204,239,4e-10,67.6
Cladophialophora_modesta_CBS985.96_T,SRR9856994.53956,100.00,36,0,0,544,579,337,302,4e-10,67.6
