Exophiala_nigra_CBS535.94_T,SRR5227279.20091,89.12,147,13,3,232,377,1,145,1e-44,180
Exophiala_nigra_CBS535.94_T,SRR5227279.4678,100.00,51,0,0,201,251,302,252,4e-19,95.3
Exophiala_nigra_CBS535.94_T,SRR5227279.32545,100.00,50,0,0,203,252,299,250,1e-18,93.5
Exophiala_nigra_CBS535.94_T,SRR5227279.25733,98.08,52,1,0,200,251,303,252,5e-18,91.6
Exophiala_nigra_CBS535.94_T,SRR5227279.25733,97.78,45,1,0,200,244,207,251,4e-14,78.7
Exophiala_spinifera_CBS899.68_T,SRR5227279.20091,88.44,147,14,3,229,374,1,145,4e-43,174
Exophiala_spinifera_CBS899.68_T,SRR5227279.4678,95.16,62,2,1,187,248,312,252,9e-20,97.1
Exophiala_spinifera_CBS899.68_T,SRR5227279.32545,100.00,50,0,0,200,249,299,250,1e-18,93.5
Exophiala_spinifera_CBS899.68_T,SRR5227279.25733,98.08,52,1,0,197,248,303,252,4e-18,91.6
Exophiala_spinifera_CBS899.68_T,SRR5227279.25733,97.78,45,1,0,197,241,207,251,3e-14,78.7
Exophiala_exophialae_CBS668.76_T,SRR5227279.20091,88.44,147,14,3,230,375,1,145,4e-43,174
Exophiala_exophialae_CBS668.76_T,SRR5227279.4678,91.03,78,5,2,173,249,328,252,6e-22,104
Exophiala_exophialae_CBS668.76_T,SRR5227279.32545,100.00,50,0,0,201,250,299,250,1e-18,93.5
Exophiala_exophialae_CBS668.76_T,SRR5227279.25733,98.08,52,1,0,198,249,303,252,4e-18,91.6
Exophiala_exophialae_CBS668.76_T,SRR5227279.25733,97.78,45,1,0,198,242,207,251,3e-14,78.7
Exophiala_polymorpha_CBS138920_T,SRR5227279.20091,88.44,147,14,3,332,477,1,145,5e-43,174
Exophiala_polymorpha_CBS138920_T,SRR5227279.4678,90.00,80,4,4,273,351,328,252,9e-21,100
Exophiala_polymorpha_CBS138920_T,SRR5227279.32545,100.00,50,0,0,303,352,299,250,2e-18,93.5
Exophiala_polymorpha_CBS138920_T,SRR5227279.25733,98.08,52,1,0,300,351,303,252,6e-18,91.6
Exophiala_polymorpha_CBS138920_T,SRR5227279.25733,97.78,45,1,0,300,344,207,251,4e-14,78.7
Exophiala_oligosperma_CBS725.88_T,SRR5227279.20091,88.44,147,14,3,242,387,1,145,4e-43,174
Exophiala_oligosperma_CBS725.88_T,SRR5227279.4678,96.61,59,2,0,203,261,310,252,3e-20,99.0
Exophiala_oligosperma_CBS725.88_T,SRR5227279.32545,100.00,50,0,0,213,262,299,250,1e-18,93.5
Exophiala_oligosperma_CBS725.88_T,SRR5227279.25733,98.08,52,1,0,210,261,303,252,4e-18,91.6
Exophiala_oligosperma_CBS725.88_T,SRR5227279.25733,97.78,45,1,0,210,254,207,251,3e-14,78.7
Exophiala_jeanselmei_CBS507.90_T,SRR5227279.20091,88.44,147,14,3,234,379,1,145,5e-43,174
Exophiala_jeanselmei_CBS507.90_T,SRR5227279.4678,88.75,80,6,2,174,253,328,252,4e-19,95.3
Exophiala_jeanselmei_CBS507.90_T,SRR5227279.32545,100.00,50,0,0,205,254,299,250,1e-18,93.5
Exophiala_jeanselmei_CBS507.90_T,SRR5227279.25733,98.08,52,1,0,202,253,303,252,5e-18,91.6
Exophiala_jeanselmei_CBS507.90_T,SRR5227279.25733,97.78,45,1,0,202,246,207,251,4e-14,78.7
Exophiala_bergeri_CBS353.52,SRR5227279.20091,89.12,147,14,2,195,341,1,145,2e-45,182
Exophiala_bergeri_CBS353.52,SRR5227279.4678,100.00,51,0,0,164,214,302,252,3e-19,95.3
Exophiala_bergeri_CBS353.52,SRR5227279.32545,100.00,50,0,0,166,215,299,250,1e-18,93.5
Exophiala_bergeri_CBS353.52,SRR5227279.25733,98.08,52,1,0,163,214,303,252,4e-18,91.6
Exophiala_bergeri_CBS353.52,SRR5227279.25733,97.78,45,1,0,163,207,207,251,3e-14,78.7
Exophiala_moniliae_CBS520.76_T,SRR5227279.20091,89.86,148,12,3,232,378,1,146,6e-47,187
Exophiala_moniliae_CBS520.76_T,SRR5227279.4678,100.00,51,0,0,201,251,302,252,4e-19,95.3
Exophiala_moniliae_CBS520.76_T,SRR5227279.32545,100.00,50,0,0,203,252,299,250,1e-18,93.5
Exophiala_moniliae_CBS520.76_T,SRR5227279.25733,98.08,52,1,0,200,251,303,252,5e-18,91.6
Exophiala_moniliae_CBS520.76_T,SRR5227279.25733,97.78,45,1,0,200,244,207,251,4e-14,78.7
Exophiala_pisciphila_CBS537.73_T,SRR5227279.20091,89.12,147,13,3,235,380,1,145,1e-44,180
Exophiala_pisciphila_CBS537.73_T,SRR5227279.4678,100.00,51,0,0,204,254,302,252,4e-19,95.3
Exophiala_pisciphila_CBS537.73_T,SRR5227279.32545,100.00,50,0,0,206,255,299,250,1e-18,93.5
Exophiala_pisciphila_CBS537.73_T,SRR5227279.25733,98.08,52,1,0,203,254,303,252,5e-18,91.6
Exophiala_pisciphila_CBS537.73_T,SRR5227279.25733,97.78,45,1,0,203,247,207,251,4e-14,78.7
Exophiala_xenobiotica_CBS117642,SRR5227279.20091,89.12,147,13,3,227,372,1,145,9e-45,180
Exophiala_xenobiotica_CBS117642,SRR5227279.4678,100.00,51,0,0,196,246,302,252,3e-19,95.3
Exophiala_xenobiotica_CBS117642,SRR5227279.32545,100.00,50,0,0,198,247,299,250,1e-18,93.5
Exophiala_xenobiotica_CBS117642,SRR5227279.25733,98.08,52,1,0,195,246,303,252,4e-18,91.6
Exophiala_xenobiotica_CBS117642,SRR5227279.25733,97.78,45,1,0,195,239,207,251,3e-14,78.7
Exophiala_brunnea_CBS,SRR5227279.20091,89.12,147,13,3,263,408,1,145,1e-44,180
Exophiala_brunnea_CBS,SRR5227279.4678,93.94,66,2,2,219,282,317,252,3e-20,99.0
Exophiala_brunnea_CBS,SRR5227279.32545,100.00,50,0,0,234,283,299,250,1e-18,93.5
Exophiala_brunnea_CBS,SRR5227279.32545,100.00,40,0,0,1,40,30,69,5e-13,75.0
Exophiala_brunnea_CBS,SRR5227279.25733,98.08,52,1,0,231,282,303,252,5e-18,91.6
Exophiala_brunnea_CBS,SRR5227279.25733,97.78,45,1,0,231,275,207,251,4e-14,78.7
Exophiala_brunnea_CBS,SRR5227279.25733,100.00,39,0,0,1,39,30,68,2e-12,73.1
Exophiala_brunnea_CBS,SRR5227279.25733,100.00,39,0,0,1,39,480,442,2e-12,73.1
Exophiala_brunnea_CBS,SRR5227279.18370,100.00,39,0,0,1,39,30,68,2e-12,73.1
Exophiala_brunnea_CBS,SRR5227279.18370,100.00,39,0,0,1,39,431,393,2e-12,73.1
Exophiala_brunnea_CBS,SRR5227279.13417,100.00,39,0,0,1,39,30,68,2e-12,73.1
Exophiala_brunnea_CBS,SRR5227279.13417,100.00,39,0,0,1,39,431,393,2e-12,73.1
Exophiala_brunnea_CBS,SRR5227279.955,100.00,39,0,0,1,39,30,68,2e-12,73.1
Exophiala_brunnea_CBS,SRR5227279.955,100.00,39,0,0,1,39,431,393,2e-12,73.1
Exophiala_nishimurae_CBS101538_T,SRR5227279.20091,88.44,147,14,3,241,386,1,145,5e-43,174
Exophiala_nishimurae_CBS101538_T,SRR5227279.4678,95.08,61,2,1,201,260,312,252,4e-19,95.3
Exophiala_nishimurae_CBS101538_T,SRR5227279.32545,100.00,50,0,0,212,261,299,250,1e-18,93.5
Exophiala_mesophila_CBS402.95_T,SRR5227279.20091,88.82,152,14,3,225,376,1,149,8e-46,183
Exophiala_mesophila_CBS402.95_T,SRR5227279.4678,92.86,70,2,2,177,244,320,252,3e-20,99.0
Exophiala_mesophila_CBS402.95_T,SRR5227279.32545,100.00,50,0,0,196,245,299,250,1e-18,93.5
Exophiala_mesophila_CBS402.95_T,SRR5227279.25733,98.08,52,1,0,193,244,303,252,5e-18,91.6
Exophiala_mesophila_CBS402.95_T,SRR5227279.25733,97.78,45,1,0,193,237,207,251,4e-14,78.7
Exophiala_castellanii_CBS158.58_T,SRR5227279.20091,88.82,152,14,3,223,374,1,149,8e-46,183
Exophiala_castellanii_CBS158.58_T,SRR5227279.4678,95.16,62,2,1,181,242,312,252,1e-19,97.1
Exophiala_castellanii_CBS158.58_T,SRR5227279.32545,100.00,50,0,0,194,243,299,250,1e-18,93.5
Exophiala_castellanii_CBS158.58_T,SRR5227279.25733,98.08,52,1,0,191,242,303,252,5e-18,91.6
Exophiala_castellanii_CBS158.58_T,SRR5227279.25733,97.78,45,1,0,191,235,207,251,4e-14,78.7
Exophiala_lecanii-corni_CBS123.33_T,SRR5227279.20091,87.97,158,14,5,246,401,1,155,3e-45,182
Exophiala_lecanii-corni_CBS123.33_T,SRR5227279.4678,93.94,66,2,2,202,265,317,252,3e-20,99.0
Exophiala_lecanii-corni_CBS123.33_T,SRR5227279.32545,100.00,50,0,0,217,266,299,250,1e-18,93.5
Exophiala_lecanii-corni_CBS123.33_T,SRR5227279.25733,98.08,52,1,0,214,265,303,252,5e-18,91.6
Exophiala_lecanii-corni_CBS123.33_T,SRR5227279.25733,97.78,45,1,0,214,258,207,251,4e-14,78.7
Exophiala_dermatitidis_CBS748.88,SRR5227279.20091,89.12,147,14,2,238,384,1,145,7e-45,182
Exophiala_dermatitidis_CBS748.88,SRR5227279.4678,88.46,78,6,3,182,257,328,252,1e-17,91.6
Exophiala_dermatitidis_CBS748.88,SRR5227279.25733,98.08,52,0,1,207,257,303,252,4e-17,89.8
Exophiala_dermatitidis_CBS748.88,SRR5227279.25733,97.78,45,0,1,207,250,207,251,3e-13,76.8
Exophiala_dermatitidis_CBS748.88,SRR5227279.32545,98.00,50,0,1,210,258,299,250,6e-16,86.1
Exophiala_angulospora_CBS482.92_T,SRR5227279.20091,89.86,138,12,2,229,366,1,136,1e-43,176
Exophiala_angulospora_CBS482.92_T,SRR5227279.4678,96.61,59,2,0,190,248,310,252,3e-20,99.0
Exophiala_angulospora_CBS482.92_T,SRR5227279.32545,100.00,50,0,0,200,249,299,250,1e-18,93.5
Exophiala_angulospora_CBS482.92_T,SRR5227279.25733,98.08,52,1,0,197,248,303,252,4e-18,91.6
Exophiala_angulospora_CBS482.92_T,SRR5227279.25733,97.78,45,1,0,197,241,207,251,3e-14,78.7
Exophiala_opportunistica_CBS109811_T,SRR5227279.20091,89.44,142,13,2,228,369,1,140,3e-44,178
Exophiala_opportunistica_CBS109811_T,SRR5227279.4678,93.85,65,2,2,185,247,316,252,1e-19,97.1
Exophiala_opportunistica_CBS109811_T,SRR5227279.32545,100.00,50,0,0,199,248,299,250,1e-18,93.5
Exophiala_opportunistica_CBS109811_T,SRR5227279.25733,98.08,52,1,0,196,247,303,252,5e-18,91.6
Exophiala_opportunistica_CBS109811_T,SRR5227279.25733,97.78,45,1,0,196,240,207,251,4e-14,78.7
Exophiala_salmonis_CBS157.67_T,SRR5227279.20091,89.12,147,13,3,357,502,1,145,1e-44,180
Exophiala_salmonis_CBS157.67_T,SRR5227279.4678,100.00,51,0,0,326,376,302,252,5e-19,95.3
Exophiala_salmonis_CBS157.67_T,SRR5227279.4678,100.00,36,0,0,87,122,1,36,1e-10,67.6
Exophiala_salmonis_CBS157.67_T,SRR5227279.32545,100.00,50,0,0,328,377,299,250,2e-18,93.5
Exophiala_salmonis_CBS157.67_T,SRR5227279.25733,98.08,52,1,0,325,376,303,252,6e-18,91.6
Exophiala_salmonis_CBS157.67_T,SRR5227279.25733,97.78,45,1,0,325,369,207,251,5e-14,78.7
Exophiala_salmonis_CBS157.67_T,SRR5227279.25733,100.00,36,0,0,87,122,1,36,1e-10,67.6
Exophiala_salmonis_CBS157.67_T,SRR5227279.25733,100.00,29,0,0,94,122,502,474,8e-07,54.7
Exophiala_salmonis_CBS157.67_T,SRR5227279.13417,100.00,36,0,0,87,122,460,425,1e-10,67.6
Exophiala_salmonis_CBS157.67_T,SRR5227279.955,100.00,36,0,0,87,122,1,36,1e-10,67.6
Exophiala_salmonis_CBS157.67_T,SRR5227279.955,100.00,36,0,0,87,122,460,425,1e-10,67.6
Exophiala_aquamarina_CBS119918_T,SRR5227279.20091,88.44,147,13,4,235,380,1,144,4e-43,174
Exophiala_aquamarina_CBS119918_T,SRR5227279.4678,100.00,51,0,0,204,254,302,252,3e-19,95.3
Exophiala_aquamarina_CBS119918_T,SRR5227279.32545,100.00,50,0,0,206,255,299,250,1e-18,93.5
Exophiala_aquamarina_CBS119918_T,SRR5227279.25733,98.08,52,1,0,203,254,303,252,4e-18,91.6
Exophiala_aquamarina_CBS119918_T,SRR5227279.25733,97.78,45,1,0,203,247,207,251,4e-14,78.7
Exophiala_cancerae_CBS120420_T,SRR5227279.20091,89.44,142,13,2,250,391,1,140,4e-44,178
Exophiala_cancerae_CBS120420_T,SRR5227279.4678,93.85,65,2,2,207,269,316,252,1e-19,97.1
Exophiala_cancerae_CBS120420_T,SRR5227279.4678,100.00,29,0,0,1,29,40,68,7e-07,54.7
Exophiala_cancerae_CBS120420_T,SRR5227279.4678,100.00,29,0,0,1,29,487,459,7e-07,54.7
Exophiala_cancerae_CBS120420_T,SRR5227279.32545,100.00,50,0,0,221,270,299,250,1e-18,93.5
Exophiala_cancerae_CBS120420_T,SRR5227279.25733,98.08,52,1,0,218,269,303,252,5e-18,91.6
Exophiala_cancerae_CBS120420_T,SRR5227279.25733,97.78,45,1,0,218,262,207,251,4e-14,78.7
Exophiala_tremulae_CBS129355,SRR5227279.20091,89.04,146,13,3,262,406,1,144,4e-44,178
Exophiala_tremulae_CBS129355,SRR5227279.4678,89.61,77,7,1,205,281,327,252,1e-19,97.1
Exophiala_tremulae_CBS129355,SRR5227279.32545,100.00,50,0,0,233,282,299,250,1e-18,93.5
Exophiala_tremulae_CBS129355,SRR5227279.32545,100.00,40,0,0,1,40,30,69,5e-13,75.0
Exophiala_tremulae_CBS129355,SRR5227279.25733,98.08,52,1,0,230,281,303,252,5e-18,91.6
Exophiala_tremulae_CBS129355,SRR5227279.25733,97.78,45,1,0,230,274,207,251,4e-14,78.7
Exophiala_tremulae_CBS129355,SRR5227279.25733,100.00,39,0,0,1,39,30,68,2e-12,73.1
Exophiala_tremulae_CBS129355,SRR5227279.25733,100.00,39,0,0,1,39,480,442,2e-12,73.1
Exophiala_tremulae_CBS129355,SRR5227279.18370,100.00,39,0,0,1,39,30,68,2e-12,73.1
Exophiala_tremulae_CBS129355,SRR5227279.18370,100.00,39,0,0,1,39,431,393,2e-12,73.1
Exophiala_tremulae_CBS129355,SRR5227279.13417,100.00,39,0,0,1,39,30,68,2e-12,73.1
Exophiala_tremulae_CBS129355,SRR5227279.13417,100.00,39,0,0,1,39,431,393,2e-12,73.1
Exophiala_tremulae_CBS129355,SRR5227279.955,100.00,39,0,0,1,39,30,68,2e-12,73.1
Exophiala_tremulae_CBS129355,SRR5227279.955,100.00,39,0,0,1,39,431,393,2e-12,73.1
Exophiala_equina_CBS116009,SRR5227279.20091,89.04,146,13,3,228,372,1,144,3e-44,178
Exophiala_equina_CBS116009,SRR5227279.4678,89.61,77,7,1,171,247,327,252,1e-19,97.1
Exophiala_equina_CBS116009,SRR5227279.32545,100.00,50,0,0,199,248,299,250,1e-18,93.5
Exophiala_equina_CBS116009,SRR5227279.25733,98.08,52,1,0,196,247,303,252,5e-18,91.6
Exophiala_equina_CBS116009,SRR5227279.25733,97.78,45,1,0,196,240,207,251,4e-14,78.7
Exophiala_alcalophila_CBS520.82_T,SRR5227279.20091,89.80,147,12,3,239,384,1,145,2e-46,185
Exophiala_alcalophila_CBS520.82_T,SRR5227279.4678,94.03,67,2,2,194,258,318,252,8e-21,100
Exophiala_alcalophila_CBS520.82_T,SRR5227279.32545,100.00,50,0,0,210,259,299,250,1e-18,93.5
Exophiala_alcalophila_CBS520.82_T,SRR5227279.25733,98.08,52,1,0,207,258,303,252,5e-18,91.6
Exophiala_alcalophila_CBS520.82_T,SRR5227279.25733,97.78,45,1,0,207,251,207,251,4e-14,78.7
Exophiala_crusticola_CBS119970_T,SRR5227279.20091,89.12,147,13,3,244,389,1,145,9e-45,180
Exophiala_crusticola_CBS119970_T,SRR5227279.4678,100.00,51,0,0,213,263,302,252,3e-19,95.3
Exophiala_crusticola_CBS119970_T,SRR5227279.32545,100.00,50,0,0,215,264,299,250,1e-18,93.5
Exophiala_crusticola_CBS119970_T,SRR5227279.25733,98.08,52,1,0,212,263,303,252,4e-18,91.6
Exophiala_crusticola_CBS119970_T,SRR5227279.25733,97.78,45,1,0,212,256,207,251,3e-14,78.7
Rhinocladiella_atrovirens_CBS264.49,SRR5227279.20091,88.51,148,14,3,270,416,1,146,1e-43,176
Rhinocladiella_atrovirens_CBS264.49,SRR5227279.4678,95.16,62,2,1,228,289,312,252,1e-19,97.1
Rhinocladiella_atrovirens_CBS264.49,SRR5227279.32545,100.00,50,0,0,241,290,299,250,1e-18,93.5
Rhinocladiella_atrovirens_CBS264.49,SRR5227279.32545,100.00,44,0,0,1,44,25,68,3e-15,82.4
Rhinocladiella_atrovirens_CBS264.49,SRR5227279.25733,98.08,52,1,0,238,289,303,252,5e-18,91.6
Rhinocladiella_atrovirens_CBS264.49,SRR5227279.25733,100.00,44,0,0,1,44,25,68,3e-15,82.4
Rhinocladiella_atrovirens_CBS264.49,SRR5227279.25733,100.00,44,0,0,1,44,485,442,3e-15,82.4
Rhinocladiella_atrovirens_CBS264.49,SRR5227279.25733,97.78,45,1,0,238,282,207,251,4e-14,78.7
Rhinocladiella_atrovirens_CBS264.49,SRR5227279.18370,100.00,44,0,0,1,44,25,68,3e-15,82.4
Rhinocladiella_atrovirens_CBS264.49,SRR5227279.18370,100.00,44,0,0,1,44,436,393,3e-15,82.4
Rhinocladiella_atrovirens_CBS264.49,SRR5227279.13417,100.00,44,0,0,1,44,25,68,3e-15,82.4
Rhinocladiella_atrovirens_CBS264.49,SRR5227279.13417,100.00,44,0,0,1,44,436,393,3e-15,82.4
Rhinocladiella_atrovirens_CBS264.49,SRR5227279.955,100.00,44,0,0,1,44,25,68,3e-15,82.4
Rhinocladiella_atrovirens_CBS264.49,SRR5227279.955,100.00,44,0,0,1,44,436,393,3e-15,82.4
Rhinocladiella_basitona_CBS101460_T,SRR5227279.20091,88.44,147,14,3,229,374,1,145,4e-43,174
Rhinocladiella_basitona_CBS101460_T,SRR5227279.4678,89.74,78,6,2,172,248,328,252,3e-20,99.0
Rhinocladiella_basitona_CBS101460_T,SRR5227279.32545,100.00,50,0,0,200,249,299,250,1e-18,93.5
Rhinocladiella_basitona_CBS101460_T,SRR5227279.25733,98.08,52,1,0,197,248,303,252,4e-18,91.6
Rhinocladiella_basitona_CBS101460_T,SRR5227279.25733,97.78,45,1,0,197,241,207,251,3e-14,78.7
Rhinocladiella_phaeophora_CBS496.78_T,SRR5227279.20091,89.12,147,13,3,237,382,1,145,1e-44,180
Rhinocladiella_phaeophora_CBS496.78_T,SRR5227279.4678,90.12,81,3,5,177,256,328,252,8e-21,100
Rhinocladiella_phaeophora_CBS496.78_T,SRR5227279.32545,100.00,50,0,0,208,257,299,250,1e-18,93.5
Rhinocladiella_phaeophora_CBS496.78_T,SRR5227279.25733,98.04,51,1,0,206,256,302,252,2e-17,89.8
Rhinocladiella_phaeophora_CBS496.78_T,SRR5227279.25733,97.73,44,1,0,206,249,208,251,1e-13,76.8
Rhinocladiella_aquaspersa_CBS313.73_T,SRR5227279.20091,89.12,147,13,3,231,376,1,145,1e-44,180
Rhinocladiella_aquaspersa_CBS313.73_T,SRR5227279.4678,90.12,81,3,5,171,250,328,252,9e-21,100
Rhinocladiella_aquaspersa_CBS313.73_T,SRR5227279.32545,100.00,50,0,0,202,251,299,250,1e-18,93.5
Rhinocladiella_aquaspersa_CBS313.73_T,SRR5227279.25733,98.04,51,1,0,200,250,302,252,2e-17,89.8
Rhinocladiella_aquaspersa_CBS313.73_T,SRR5227279.25733,97.73,44,1,0,200,243,208,251,1e-13,76.8
Rhinocladiella_fasciculata_CBS132.86_T,SRR5227279.20091,89.12,147,14,2,247,393,1,145,3e-45,182
Rhinocladiella_fasciculata_CBS132.86_T,SRR5227279.4678,92.41,79,0,5,192,266,328,252,5e-23,108
Rhinocladiella_fasciculata_CBS132.86_T,SRR5227279.32545,100.00,50,0,0,218,267,299,250,1e-18,93.5
Rhinocladiella_anceps_CBS181.65_T,SRR5227279.20091,88.44,147,15,2,229,375,1,145,1e-43,176
Rhinocladiella_anceps_CBS181.65_T,SRR5227279.4678,100.00,51,0,0,198,248,302,252,3e-19,95.3
Rhinocladiella_anceps_CBS181.65_T,SRR5227279.32545,100.00,50,0,0,200,249,299,250,1e-18,93.5
Rhinocladiella_anceps_CBS181.65_T,SRR5227279.25733,98.08,52,1,0,197,248,303,252,4e-18,91.6
Rhinocladiella_anceps_CBS181.65_T,SRR5227279.25733,97.78,45,1,0,197,241,207,251,3e-14,78.7
Rhinocladiella_mackenziei_CBS367.92,SRR5227279.20091,87.74,155,16,3,218,372,1,152,4e-44,178
Rhinocladiella_mackenziei_CBS367.92,SRR5227279.4678,100.00,51,0,0,187,237,302,252,4e-19,95.3
Rhinocladiella_mackenziei_CBS367.92,SRR5227279.32545,100.00,50,0,0,189,238,299,250,1e-18,93.5
Rhinocladiella_mackenziei_CBS367.92,SRR5227279.25733,98.08,52,1,0,186,237,303,252,5e-18,91.6
Rhinocladiella_mackenziei_CBS367.92,SRR5227279.25733,97.78,45,1,0,186,230,207,251,4e-14,78.7
Veronaea_compacta_CBS268.75_T,SRR5227279.20091,89.86,138,12,2,251,388,1,136,1e-43,176
Veronaea_compacta_CBS268.75_T,SRR5227279.4678,93.94,66,2,2,207,270,317,252,3e-20,99.0
Veronaea_compacta_CBS268.75_T,SRR5227279.32545,100.00,50,0,0,222,271,299,250,1e-18,93.5
Veronaea_compacta_CBS268.75_T,SRR5227279.32545,100.00,28,0,0,1,28,42,69,2e-06,52.8
Veronaea_compacta_CBS268.75_T,SRR5227279.25733,98.08,52,1,0,219,270,303,252,5e-18,91.6
Veronaea_compacta_CBS268.75_T,SRR5227279.25733,97.78,45,1,0,219,263,207,251,4e-14,78.7
Capronia_pilosella_AFTOL-ID657,SRR5227279.20091,89.04,146,13,3,329,473,1,144,4e-44,178
Capronia_pilosella_AFTOL-ID657,SRR5227279.4678,90.91,77,6,1,273,348,328,252,3e-21,102
Capronia_pilosella_AFTOL-ID657,SRR5227279.32545,100.00,50,0,0,300,349,299,250,2e-18,93.5
Capronia_pilosella_AFTOL-ID657,SRR5227279.32545,100.00,28,0,0,80,107,43,70,3e-06,52.8
Capronia_pilosella_AFTOL-ID657,SRR5227279.25733,98.08,52,1,0,297,348,303,252,6e-18,91.6
Capronia_pilosella_AFTOL-ID657,SRR5227279.25733,97.78,45,1,0,297,341,207,251,4e-14,78.7
Capronia_dactylotricha_DAOM208471_T,SRR5227279.20091,88.59,149,13,3,231,378,1,146,4e-44,178
Capronia_dactylotricha_DAOM208471_T,SRR5227279.4678,100.00,51,0,0,200,250,302,252,4e-19,95.3
Capronia_dactylotricha_DAOM208471_T,SRR5227279.32545,100.00,50,0,0,202,251,299,250,1e-18,93.5
Capronia_dactylotricha_DAOM208471_T,SRR5227279.25733,98.08,52,1,0,199,250,303,252,5e-18,91.6
Capronia_dactylotricha_DAOM208471_T,SRR5227279.25733,97.78,45,1,0,199,243,207,251,4e-14,78.7
Capronia_kleinmondensis_CBS122671_T,SRR5227279.20091,88.51,148,14,3,256,402,1,146,1e-43,176
Capronia_kleinmondensis_CBS122671_T,SRR5227279.4678,95.16,62,2,1,214,275,312,252,1e-19,97.1
Capronia_kleinmondensis_CBS122671_T,SRR5227279.32545,100.00,50,0,0,227,276,299,250,1e-18,93.5
Capronia_kleinmondensis_CBS122671_T,SRR5227279.32545,100.00,30,0,0,1,30,39,68,2e-07,56.5
Capronia_kleinmondensis_CBS122671_T,SRR5227279.25733,98.08,52,1,0,224,275,303,252,5e-18,91.6
Capronia_kleinmondensis_CBS122671_T,SRR5227279.25733,97.78,45,1,0,224,268,207,251,4e-14,78.7
Capronia_kleinmondensis_CBS122671_T,SRR5227279.25733,100.00,30,0,0,1,30,39,68,2e-07,56.5
Capronia_kleinmondensis_CBS122671_T,SRR5227279.25733,100.00,30,0,0,1,30,471,442,2e-07,56.5
Capronia_kleinmondensis_CBS122671_T,SRR5227279.18370,100.00,30,0,0,1,30,39,68,2e-07,56.5
Capronia_kleinmondensis_CBS122671_T,SRR5227279.18370,100.00,30,0,0,1,30,422,393,2e-07,56.5
Capronia_kleinmondensis_CBS122671_T,SRR5227279.13417,100.00,30,0,0,1,30,39,68,2e-07,56.5
Capronia_kleinmondensis_CBS122671_T,SRR5227279.13417,100.00,30,0,0,1,30,422,393,2e-07,56.5
Capronia_kleinmondensis_CBS122671_T,SRR5227279.955,100.00,30,0,0,1,30,39,68,2e-07,56.5
Capronia_kleinmondensis_CBS122671_T,SRR5227279.955,100.00,30,0,0,1,30,422,393,2e-07,56.5
Capronia_mansonii_CBS101.67_T,SRR5227279.20091,89.44,142,13,2,242,383,1,140,4e-44,178
Capronia_mansonii_CBS101.67_T,SRR5227279.4678,88.75,80,6,3,182,261,328,252,4e-19,95.3
Capronia_mansonii_CBS101.67_T,SRR5227279.32545,100.00,50,0,0,213,262,299,250,1e-18,93.5
Capronia_mansonii_CBS101.67_T,SRR5227279.25733,98.08,52,1,0,210,261,303,252,5e-18,91.6
Capronia_mansonii_CBS101.67_T,SRR5227279.25733,97.78,45,1,0,210,254,207,251,4e-14,78.7
Capronia_munkii_DAOM216390_T,SRR5227279.20091,89.44,142,13,2,242,383,1,140,4e-44,178
Capronia_munkii_DAOM216390_T,SRR5227279.4678,88.75,80,6,3,182,261,328,252,4e-19,95.3
Capronia_munkii_DAOM216390_T,SRR5227279.32545,100.00,50,0,0,213,262,299,250,1e-18,93.5
Capronia_munkii_DAOM216390_T,SRR5227279.25733,98.08,52,1,0,210,261,303,252,5e-18,91.6
Capronia_munkii_DAOM216390_T,SRR5227279.25733,97.78,45,1,0,210,254,207,251,4e-14,78.7
Capronia_coronata_ATCC56201_T,SRR5227279.20091,89.86,138,12,2,230,367,1,136,1e-43,176
Capronia_coronata_ATCC56201_T,SRR5227279.4678,96.61,59,2,0,191,249,310,252,3e-20,99.0
Capronia_coronata_ATCC56201_T,SRR5227279.32545,100.00,50,0,0,201,250,299,250,1e-18,93.5
Capronia_coronata_ATCC56201_T,SRR5227279.25733,98.08,52,1,0,198,249,303,252,5e-18,91.6
Capronia_coronata_ATCC56201_T,SRR5227279.25733,97.78,45,1,0,198,242,207,251,4e-14,78.7
Capronia_parasitica_CBS123.88,SRR5227279.20091,90.15,132,11,2,236,367,1,130,6e-42,171
Capronia_parasitica_CBS123.88,SRR5227279.4678,96.67,60,1,1,196,255,310,252,3e-20,99.0
Capronia_parasitica_CBS123.88,SRR5227279.4678,92.50,40,2,1,196,235,217,255,2e-07,56.5
Capronia_parasitica_CBS123.88,SRR5227279.32545,95.00,60,2,1,198,256,309,250,1e-18,93.5
Capronia_parasitica_CBS123.88,SRR5227279.25733,98.04,51,1,0,205,255,302,252,2e-17,89.8
Capronia_parasitica_CBS123.88,SRR5227279.25733,97.73,44,1,0,205,248,208,251,1e-13,76.8
Veronaea_japonica_CBS776.83_T,SRR5227279.20091,89.12,147,13,3,264,409,1,145,1e-44,180
Veronaea_japonica_CBS776.83_T,SRR5227279.4678,93.94,66,2,2,220,283,317,252,3e-20,99.0
Veronaea_japonica_CBS776.83_T,SRR5227279.32545,100.00,50,0,0,235,284,299,250,1e-18,93.5
Veronaea_japonica_CBS776.83_T,SRR5227279.32545,100.00,39,0,0,1,39,31,69,2e-12,73.1
Veronaea_japonica_CBS776.83_T,SRR5227279.25733,98.08,52,1,0,232,283,303,252,5e-18,91.6
Veronaea_japonica_CBS776.83_T,SRR5227279.25733,97.78,45,1,0,232,276,207,251,4e-14,78.7
Veronaea_japonica_CBS776.83_T,SRR5227279.25733,100.00,38,0,0,1,38,31,68,6e-12,71.3
Veronaea_japonica_CBS776.83_T,SRR5227279.25733,100.00,38,0,0,1,38,479,442,6e-12,71.3
Veronaea_japonica_CBS776.83_T,SRR5227279.18370,100.00,38,0,0,1,38,31,68,6e-12,71.3
Veronaea_japonica_CBS776.83_T,SRR5227279.18370,100.00,38,0,0,1,38,430,393,6e-12,71.3
Veronaea_japonica_CBS776.83_T,SRR5227279.13417,100.00,38,0,0,1,38,31,68,6e-12,71.3
Veronaea_japonica_CBS776.83_T,SRR5227279.13417,100.00,38,0,0,1,38,430,393,6e-12,71.3
Veronaea_japonica_CBS776.83_T,SRR5227279.955,100.00,38,0,0,1,38,31,68,6e-12,71.3
Veronaea_japonica_CBS776.83_T,SRR5227279.955,100.00,38,0,0,1,38,430,393,6e-12,71.3
Thysanorea_papuana_CBS212.96_T,SRR5227279.20091,89.44,142,13,2,238,379,1,140,3e-44,178
Thysanorea_papuana_CBS212.96_T,SRR5227279.4678,100.00,51,0,0,207,257,302,252,4e-19,95.3
Thysanorea_papuana_CBS212.96_T,SRR5227279.32545,100.00,50,0,0,209,258,299,250,1e-18,93.5
Thysanorea_papuana_CBS212.96_T,SRR5227279.25733,98.08,52,1,0,206,257,303,252,5e-18,91.6
Thysanorea_papuana_CBS212.96_T,SRR5227279.25733,97.78,45,1,0,206,250,207,251,4e-14,78.7
Capronia_acutiseta_ATCC56428_T,SRR5227279.4678,93.94,66,2,2,188,251,317,252,3e-20,99.0
Capronia_acutiseta_ATCC56428_T,SRR5227279.32545,100.00,50,0,0,203,252,299,250,1e-18,93.5
Capronia_acutiseta_ATCC56428_T,SRR5227279.25733,98.08,52,1,0,200,251,303,252,5e-18,91.6
Capronia_acutiseta_ATCC56428_T,SRR5227279.25733,97.78,45,1,0,200,244,207,251,4e-14,78.7
Fonsecaea_brasiliensis_CBS119710_T,SRR5227279.20091,88.44,147,13,4,238,383,1,144,4e-43,174
Fonsecaea_brasiliensis_CBS119710_T,SRR5227279.4678,92.54,67,4,1,192,257,318,252,3e-19,95.3
Fonsecaea_brasiliensis_CBS119710_T,SRR5227279.32545,100.00,50,0,0,209,258,299,250,1e-18,93.5
Fonsecaea_brasiliensis_CBS119710_T,SRR5227279.25733,98.04,51,1,0,207,257,302,252,2e-17,89.8
Fonsecaea_brasiliensis_CBS119710_T,SRR5227279.25733,97.73,44,1,0,207,250,208,251,1e-13,76.8
Fonsecaea_pedrosoi_CBS271.37_T,SRR5227279.20091,88.44,147,13,4,266,411,1,144,5e-43,174
Fonsecaea_pedrosoi_CBS271.37_T,SRR5227279.4678,92.54,67,4,1,220,285,318,252,4e-19,95.3
Fonsecaea_pedrosoi_CBS271.37_T,SRR5227279.32545,100.00,50,0,0,237,286,299,250,1e-18,93.5
Fonsecaea_pedrosoi_CBS271.37_T,SRR5227279.32545,100.00,31,0,0,1,31,39,69,5e-08,58.4
Fonsecaea_pedrosoi_CBS271.37_T,SRR5227279.25733,98.04,51,1,0,235,285,302,252,2e-17,89.8
Fonsecaea_pedrosoi_CBS271.37_T,SRR5227279.25733,97.73,44,1,0,235,278,208,251,1e-13,76.8
Fonsecaea_pedrosoi_CBS271.37_T,SRR5227279.25733,100.00,30,0,0,1,30,39,68,2e-07,56.5
Fonsecaea_pedrosoi_CBS271.37_T,SRR5227279.25733,100.00,30,0,0,1,30,471,442,2e-07,56.5
Fonsecaea_pedrosoi_CBS271.37_T,SRR5227279.18370,94.74,38,1,1,1,38,39,75,5e-08,58.4
Fonsecaea_pedrosoi_CBS271.37_T,SRR5227279.18370,94.74,38,1,1,1,38,422,386,5e-08,58.4
Fonsecaea_pedrosoi_CBS271.37_T,SRR5227279.13417,94.74,38,1,1,1,38,39,75,5e-08,58.4
Fonsecaea_pedrosoi_CBS271.37_T,SRR5227279.13417,94.74,38,1,1,1,38,422,386,5e-08,58.4
Fonsecaea_pedrosoi_CBS271.37_T,SRR5227279.955,94.74,38,1,1,1,38,39,75,5e-08,58.4
Fonsecaea_pedrosoi_CBS271.37_T,SRR5227279.955,94.74,38,1,1,1,38,422,386,5e-08,58.4
Fonsecaea_multimorphosa_CBS980.96_T,SRR5227279.20091,88.81,143,13,3,236,378,1,140,2e-42,172
Fonsecaea_multimorphosa_CBS980.96_T,SRR5227279.4678,92.54,67,4,1,190,255,318,252,3e-19,95.3
Fonsecaea_multimorphosa_CBS980.96_T,SRR5227279.32545,100.00,50,0,0,207,256,299,250,1e-18,93.5
Fonsecaea_multimorphosa_CBS980.96_T,SRR5227279.25733,98.04,51,1,0,205,255,302,252,2e-17,89.8
Fonsecaea_multimorphosa_CBS980.96_T,SRR5227279.25733,97.73,44,1,0,205,248,208,251,1e-13,76.8
Fonsecaea_minima_CBS125760_T,SRR5227279.20091,88.44,147,13,4,232,377,1,144,4e-43,174
Fonsecaea_minima_CBS125760_T,SRR5227279.4678,92.54,67,4,1,186,251,318,252,3e-19,95.3
Fonsecaea_minima_CBS125760_T,SRR5227279.32545,100.00,50,0,0,203,252,299,250,1e-18,93.5
Fonsecaea_minima_CBS125760_T,SRR5227279.25733,98.04,51,1,0,201,251,302,252,2e-17,89.8
Fonsecaea_minima_CBS125760_T,SRR5227279.25733,97.73,44,1,0,201,244,208,251,1e-13,76.8
Fonsecaea_nubica_CBS269.64_T,SRR5227279.20091,88.44,147,13,4,243,388,1,144,4e-43,174
Fonsecaea_nubica_CBS269.64_T,SRR5227279.4678,92.54,67,4,1,197,262,318,252,4e-19,95.3
Fonsecaea_nubica_CBS269.64_T,SRR5227279.32545,100.00,50,0,0,214,263,299,250,1e-18,93.5
Fonsecaea_nubica_CBS269.64_T,SRR5227279.25733,98.04,51,1,0,212,262,302,252,2e-17,89.8
Fonsecaea_nubica_CBS269.64_T,SRR5227279.25733,97.73,44,1,0,212,255,208,251,1e-13,76.8
Fonsecaea_monophora_CBS269.37_T,SRR5227279.4678,92.54,67,4,1,197,262,318,252,4e-19,95.3
Fonsecaea_monophora_CBS269.37_T,SRR5227279.32545,100.00,50,0,0,214,263,299,250,1e-18,93.5
Fonsecaea_monophora_CBS269.37_T,SRR5227279.25733,98.04,51,1,0,212,262,302,252,2e-17,89.8
Fonsecaea_monophora_CBS269.37_T,SRR5227279.25733,97.73,44,1,0,212,255,208,251,1e-13,76.8
Fonsecaea_erecta_CBS125763_T,SRR5227279.20091,89.44,142,13,2,227,368,1,140,3e-44,178
Fonsecaea_erecta_CBS125763_T,SRR5227279.4678,89.87,79,6,2,168,246,328,252,7e-21,100
Fonsecaea_erecta_CBS125763_T,SRR5227279.32545,100.00,50,0,0,198,247,299,250,1e-18,93.5
Fonsecaea_erecta_CBS125763_T,SRR5227279.25733,98.04,51,1,0,196,246,302,252,2e-17,89.8
Fonsecaea_erecta_CBS125763_T,SRR5227279.25733,97.73,44,1,0,196,239,208,251,1e-13,76.8
Fonsecaea_pugnacius_CBS139214_T,SRR5227279.20091,88.59,149,13,4,236,383,1,146,3e-44,178
Fonsecaea_pugnacius_CBS139214_T,SRR5227279.4678,92.54,67,4,1,190,255,318,252,3e-19,95.3
Fonsecaea_pugnacius_CBS139214_T,SRR5227279.32545,100.00,50,0,0,207,256,299,250,1e-18,93.5
Fonsecaea_pugnacius_CBS139214_T,SRR5227279.25733,98.04,51,1,0,205,255,302,252,2e-17,89.8
Fonsecaea_pugnacius_CBS139214_T,SRR5227279.25733,97.73,44,1,0,205,248,208,251,1e-13,76.8
Cladophialophora_psammophila_CBS,SRR5227279.20091,89.44,142,13,2,242,383,1,140,3e-44,178
Cladophialophora_psammophila_CBS,SRR5227279.4678,100.00,51,0,0,211,261,302,252,4e-19,95.3
Cladophialophora_psammophila_CBS,SRR5227279.32545,100.00,50,0,0,213,262,299,250,1e-18,93.5
Cladophialophora_psammophila_CBS,SRR5227279.25733,98.04,51,1,0,211,261,302,252,2e-17,89.8
Cladophialophora_psammophila_CBS,SRR5227279.25733,97.73,44,1,0,211,254,208,251,1e-13,76.8
Cladophialophora_devriesii_CBS,SRR5227279.20091,88.81,143,13,3,238,380,1,140,1e-42,172
Cladophialophora_devriesii_CBS,SRR5227279.4678,92.54,67,4,1,192,257,318,252,3e-19,95.3
Cladophialophora_devriesii_CBS,SRR5227279.32545,100.00,50,0,0,209,258,299,250,1e-18,93.5
Cladophialophora_devriesii_CBS,SRR5227279.25733,98.04,51,1,0,207,257,302,252,2e-17,89.8
Cladophialophora_devriesii_CBS,SRR5227279.25733,97.73,44,1,0,207,250,208,251,1e-13,76.8
Cladophialophora_immunda_CBS834.96,SRR5227279.20091,88.44,147,13,4,240,385,1,144,4e-43,174
Cladophialophora_immunda_CBS834.96,SRR5227279.4678,92.54,67,4,1,194,259,318,252,3e-19,95.3
Cladophialophora_immunda_CBS834.96,SRR5227279.32545,100.00,50,0,0,211,260,299,250,1e-18,93.5
Cladophialophora_immunda_CBS834.96,SRR5227279.25733,98.04,51,1,0,209,259,302,252,2e-17,89.8
Cladophialophora_immunda_CBS834.96,SRR5227279.25733,97.73,44,1,0,209,252,208,251,1e-13,76.8
Cladophialophora_arxii_CBS306.94_T,SRR5227279.20091,89.71,136,12,2,242,377,1,134,2e-42,172
Cladophialophora_arxii_CBS306.94_T,SRR5227279.4678,92.54,67,5,0,195,261,318,252,9e-20,97.1
Cladophialophora_arxii_CBS306.94_T,SRR5227279.32545,100.00,50,0,0,213,262,299,250,1e-18,93.5
Cladophialophora_arxii_CBS306.94_T,SRR5227279.25733,98.04,51,1,0,211,261,302,252,2e-17,89.8
Cladophialophora_arxii_CBS306.94_T,SRR5227279.25733,97.73,44,1,0,211,254,208,251,1e-13,76.8
Cladophialophora_bantiana_CBS173.52,SRR5227279.20091,89.44,142,13,2,236,377,1,140,3e-44,178
Cladophialophora_bantiana_CBS173.52,SRR5227279.4678,100.00,51,0,0,205,255,302,252,3e-19,95.3
Cladophialophora_bantiana_CBS173.52,SRR5227279.32545,100.00,50,0,0,207,256,299,250,1e-18,93.5
Cladophialophora_bantiana_CBS173.52,SRR5227279.25733,98.04,51,1,0,205,255,302,252,2e-17,89.8
Cladophialophora_bantiana_CBS173.52,SRR5227279.25733,97.73,44,1,0,205,248,208,251,1e-13,76.8
Cladophialophora_emmonsii_CBS102594,SRR5227279.20091,89.19,148,13,3,227,373,1,146,3e-45,182
Cladophialophora_emmonsii_CBS102594,SRR5227279.4678,100.00,51,0,0,196,246,302,252,3e-19,95.3
Cladophialophora_emmonsii_CBS102594,SRR5227279.32545,100.00,50,0,0,198,247,299,250,1e-18,93.5
Cladophialophora_emmonsii_CBS102594,SRR5227279.25733,98.04,51,1,0,196,246,302,252,2e-17,89.8
Cladophialophora_emmonsii_CBS102594,SRR5227279.25733,97.73,44,1,0,196,239,208,251,1e-13,76.8
Cladophialophora_minourae_CBS556.83,SRR5227279.20091,85.81,148,16,5,235,381,1,144,2e-36,152
Cladophialophora_minourae_CBS556.83,SRR5227279.4678,100.00,51,0,0,204,254,302,252,3e-19,95.3
Cladophialophora_minourae_CBS556.83,SRR5227279.32545,100.00,50,0,0,206,255,299,250,1e-18,93.5
Cladophialophora_minourae_CBS556.83,SRR5227279.25733,98.04,51,1,0,204,254,302,252,2e-17,89.8
Cladophialophora_minourae_CBS556.83,SRR5227279.25733,97.73,44,1,0,204,247,208,251,1e-13,76.8
Cladophialophora_australiensis_CBS112793,SRR5227279.20091,88.36,146,14,3,237,381,1,144,4e-42,172
Cladophialophora_australiensis_CBS112793,SRR5227279.4678,93.85,65,3,1,193,256,316,252,3e-19,97.1
Cladophialophora_australiensis_CBS112793,SRR5227279.4678,88.89,45,4,1,193,236,211,255,2e-06,54.7
Cladophialophora_australiensis_CBS112793,SRR5227279.32545,95.00,60,3,0,198,257,309,250,9e-19,95.3
Cladophialophora_australiensis_CBS112793,SRR5227279.25733,98.04,51,1,0,206,256,302,252,4e-17,89.8
Cladophialophora_australiensis_CBS112793,SRR5227279.25733,97.73,44,1,0,206,249,208,251,3e-13,76.8
Cladophialophora_potulentorum_CBS112222,SRR5227279.20091,88.36,146,14,3,236,380,1,144,4e-42,172
Cladophialophora_potulentorum_CBS112222,SRR5227279.4678,100.00,51,0,0,205,255,302,252,9e-19,95.3
Cladophialophora_potulentorum_CBS112222,SRR5227279.32545,100.00,50,0,0,207,256,299,250,3e-18,93.5
Cladophialophora_potulentorum_CBS112222,SRR5227279.25733,98.08,52,1,0,204,255,303,252,1e-17,91.6
Cladophialophora_potulentorum_CBS112222,SRR5227279.25733,97.78,45,1,0,204,248,207,251,1e-13,78.7
Cladophialophora_matsushimae_CMRP1198,SRR5227279.20091,89.04,146,13,3,240,384,1,144,3e-44,178
Cladophialophora_matsushimae_CMRP1198,SRR5227279.4678,96.67,60,1,1,200,259,310,252,2e-20,99.0
Cladophialophora_matsushimae_CMRP1198,SRR5227279.32545,100.00,50,0,0,211,260,299,250,1e-18,93.5
Cladophialophora_matsushimae_CMRP1198,SRR5227279.25733,98.08,52,1,0,208,259,303,252,4e-18,91.6
Cladophialophora_matsushimae_CMRP1198,SRR5227279.25733,97.78,45,1,0,208,252,207,251,3e-14,78.7
Cladophialophora_mycetomatis_CBS122637,SRR5227279.20091,89.44,142,13,2,225,366,1,140,3e-44,178
Cladophialophora_mycetomatis_CBS122637,SRR5227279.4678,96.67,60,1,1,185,244,310,252,3e-20,99.0
Cladophialophora_mycetomatis_CBS122637,SRR5227279.32545,100.00,50,0,0,196,245,299,250,1e-18,93.5
Cladophialophora_mycetomatis_CBS122637,SRR5227279.25733,98.08,52,1,0,193,244,303,252,4e-18,91.6
Cladophialophora_mycetomatis_CBS122637,SRR5227279.25733,97.78,45,1,0,193,237,207,251,3e-14,78.7
Cladophialophora_chaetospira_CBS127573,SRR5227279.20091,89.44,142,13,2,631,772,1,140,6e-44,178
Cladophialophora_chaetospira_CBS127573,SRR5227279.4678,96.08,51,2,0,600,650,302,252,1e-15,84.2
Cladophialophora_chaetospira_CBS127573,SRR5227279.32545,97.87,47,1,0,605,651,296,250,5e-15,82.4
Cladophialophora_chaetospira_CBS127573,SRR5227279.32545,100.00,32,0,0,379,410,38,69,2e-08,60.2
Cladophialophora_chaetospira_CBS127573,SRR5227279.25733,100.00,31,0,0,379,409,38,68,8e-08,58.4
Cladophialophora_chaetospira_CBS127573,SRR5227279.25733,100.00,31,0,0,379,409,472,442,8e-08,58.4
Cladophialophora_chaetospira_CBS127573,SRR5227279.18370,100.00,31,0,0,379,409,38,68,8e-08,58.4
Cladophialophora_chaetospira_CBS127573,SRR5227279.18370,100.00,31,0,0,379,409,423,393,8e-08,58.4
Cladophialophora_chaetospira_CBS127573,SRR5227279.13417,100.00,31,0,0,379,409,38,68,8e-08,58.4
Cladophialophora_chaetospira_CBS127573,SRR5227279.13417,100.00,31,0,0,379,409,423,393,8e-08,58.4
Cladophialophora_chaetospira_CBS127573,SRR5227279.955,100.00,31,0,0,379,409,38,68,8e-08,58.4
Cladophialophora_chaetospira_CBS127573,SRR5227279.955,100.00,31,0,0,379,409,423,393,8e-08,58.4
Cladophialophora_boppii_CBS126.86_T,SRR5227279.20091,89.44,142,13,2,233,374,1,140,3e-44,178
Cladophialophora_boppii_CBS126.86_T,SRR5227279.4678,100.00,51,0,0,202,252,302,252,3e-19,95.3
Cladophialophora_boppii_CBS126.86_T,SRR5227279.32545,100.00,50,0,0,204,253,299,250,1e-18,93.5
Cladophialophora_boppii_CBS126.86_T,SRR5227279.25733,98.08,52,1,0,201,252,303,252,4e-18,91.6
Cladophialophora_boppii_CBS126.86_T,SRR5227279.25733,97.78,45,1,0,201,245,207,251,3e-14,78.7
Cladophialophora_abundans_CBS126736,SRR5227279.20091,89.44,142,13,2,170,311,1,140,3e-44,178
Cladophialophora_abundans_CBS126736,SRR5227279.4678,100.00,51,0,0,139,189,302,252,3e-19,95.3
Cladophialophora_abundans_CBS126736,SRR5227279.32545,100.00,50,0,0,141,190,299,250,1e-18,93.5
Cladophialophora_abundans_CBS126736,SRR5227279.25733,93.65,63,3,1,128,189,314,252,1e-18,93.5
Cladophialophora_abundans_CBS126736,SRR5227279.25733,92.86,56,3,1,128,182,196,251,8e-15,80.5
Capronia_semi-immersa_CBS102234,SRR5227279.20091,86.99,146,16,3,232,376,1,144,3e-39,161
Capronia_semi-immersa_CBS102234,SRR5227279.4678,100.00,51,0,0,201,251,302,252,3e-19,95.3
Capronia_semi-immersa_CBS102234,SRR5227279.32545,100.00,50,0,0,203,252,299,250,1e-18,93.5
Capronia_semi-immersa_CBS102234,SRR5227279.25733,98.04,51,1,0,201,251,302,252,2e-17,89.8
Capronia_semi-immersa_CBS102234,SRR5227279.25733,97.73,44,1,0,201,244,208,251,1e-13,76.8
Phialophora_americana_CBS400.67,SRR5227279.20091,86.99,146,16,3,234,378,1,144,9e-39,161
Phialophora_americana_CBS400.67,SRR5227279.4678,100.00,51,0,0,203,253,302,252,9e-19,95.3
Phialophora_americana_CBS400.67,SRR5227279.32545,100.00,50,0,0,205,254,299,250,3e-18,93.5
Phialophora_americana_CBS400.67,SRR5227279.25733,98.04,51,1,0,203,253,302,252,4e-17,89.8
Phialophora_americana_CBS400.67,SRR5227279.25733,97.73,44,1,0,203,246,208,251,3e-13,76.8
Phialophora_verrucosa_CBS140325_T,SRR5227279.20091,86.99,146,16,3,238,382,1,144,4e-39,161
Phialophora_verrucosa_CBS140325_T,SRR5227279.4678,100.00,51,0,0,207,257,302,252,4e-19,95.3
Phialophora_verrucosa_CBS140325_T,SRR5227279.32545,100.00,50,0,0,209,258,299,250,1e-18,93.5
Phialophora_verrucosa_CBS140325_T,SRR5227279.25733,98.04,51,1,0,207,257,302,252,2e-17,89.8
Phialophora_verrucosa_CBS140325_T,SRR5227279.25733,97.73,44,1,0,207,250,208,251,1e-13,76.8
Cladophialophora_samoensis_CBS259.83_T,SRR5227279.20091,89.73,146,12,3,238,382,1,144,7e-46,183
Cladophialophora_samoensis_CBS259.83_T,SRR5227279.4678,100.00,51,0,0,207,257,302,252,3e-19,95.3
Cladophialophora_samoensis_CBS259.83_T,SRR5227279.32545,100.00,50,0,0,209,258,299,250,1e-18,93.5
Cladophialophora_samoensis_CBS259.83_T,SRR5227279.25733,98.04,51,1,0,207,257,302,252,2e-17,89.8
Cladophialophora_samoensis_CBS259.83_T,SRR5227279.25733,97.73,44,1,0,207,250,208,251,1e-13,76.8
Cladophialophora_carrionii_CBS260.83,SRR5227279.20091,88.73,142,14,2,254,395,1,140,2e-42,172
Cladophialophora_carrionii_CBS260.83,SRR5227279.4678,100.00,51,0,0,223,273,302,252,4e-19,95.3
Cladophialophora_carrionii_CBS260.83,SRR5227279.32545,100.00,50,0,0,225,274,299,250,1e-18,93.5
Cladophialophora_carrionii_CBS260.83,SRR5227279.25733,98.04,51,1,0,223,273,302,252,2e-17,89.8
Cladophialophora_carrionii_CBS260.83,SRR5227279.25733,97.73,44,1,0,223,266,208,251,1e-13,76.8
Exophiala_palmae_UPCB86822_T,SRR5227279.20091,89.12,147,14,2,197,343,1,145,2e-45,182
Exophiala_palmae_UPCB86822_T,SRR5227279.4678,89.87,79,4,4,139,216,327,252,2e-20,99.0
Exophiala_palmae_UPCB86822_T,SRR5227279.32545,100.00,50,0,0,168,217,299,250,1e-18,93.5
Exophiala_palmae_UPCB86822_T,SRR5227279.25733,98.08,52,1,0,165,216,303,252,4e-18,91.6
Exophiala_palmae_UPCB86822_T,SRR5227279.25733,97.78,45,1,0,165,209,207,251,3e-14,78.7
Cladophialophora_yegresii_CBS114405_T,SRR5227279.20091,88.36,146,14,3,239,383,1,144,2e-42,172
Cladophialophora_yegresii_CBS114405_T,SRR5227279.4678,100.00,51,0,0,208,258,302,252,3e-19,95.3
Cladophialophora_yegresii_CBS114405_T,SRR5227279.32545,100.00,50,0,0,210,259,299,250,1e-18,93.5
Cladophialophora_yegresii_CBS114405_T,SRR5227279.25733,98.04,51,1,0,208,258,302,252,2e-17,89.8
Cladophialophora_yegresii_CBS114405_T,SRR5227279.25733,97.73,44,1,0,208,251,208,251,1e-13,76.8
Knufia_epidermidis_CBS120353_T,SRR5227279.20091,89.86,138,12,2,237,374,1,136,1e-43,176
Knufia_epidermidis_CBS120353_T,SRR5227279.4678,100.00,51,0,0,206,256,302,252,3e-19,95.3
Knufia_epidermidis_CBS120353_T,SRR5227279.32545,100.00,50,0,0,208,257,299,250,1e-18,93.5
Knufia_epidermidis_CBS120353_T,SRR5227279.25733,98.08,52,1,0,205,256,303,252,4e-18,91.6
Knufia_epidermidis_CBS120353_T,SRR5227279.25733,97.78,45,1,0,205,249,207,251,3e-14,78.7
Arthrocladium_fulminans_CBS136243_T,SRR5227279.20091,87.16,148,16,3,232,378,1,146,3e-40,165
Arthrocladium_fulminans_CBS136243_T,SRR5227279.4678,100.00,51,0,0,201,251,302,252,3e-19,95.3
Arthrocladium_fulminans_CBS136243_T,SRR5227279.32545,100.00,50,0,0,203,252,299,250,1e-18,93.5
Arthrocladium_fulminans_CBS136243_T,SRR5227279.25733,98.08,52,1,0,200,251,303,252,4e-18,91.6
Arthrocladium_fulminans_CBS136243_T,SRR5227279.25733,97.78,45,1,0,200,244,207,251,3e-14,78.7
Anthopsis_deltoidea_CBS263.77_T,SRR5227279.20091,87.94,141,15,2,241,380,1,140,2e-40,165
Anthopsis_deltoidea_CBS263.77_T,SRR5227279.4678,100.00,51,0,0,210,260,302,252,3e-19,95.3
Anthopsis_deltoidea_CBS263.77_T,SRR5227279.32545,100.00,50,0,0,212,261,299,250,1e-18,93.5
Anthopsis_deltoidea_CBS263.77_T,SRR5227279.25733,98.04,51,1,0,210,260,302,252,2e-17,89.8
Anthopsis_deltoidea_CBS263.77_T,SRR5227279.25733,97.73,44,1,0,210,253,208,251,1e-13,76.8
Cyphellophora_laciniata_CBS190.61_T,SRR5227279.20091,90.07,141,12,2,326,465,1,140,3e-45,182
Cyphellophora_laciniata_CBS190.61_T,SRR5227279.25733,100.00,68,0,0,33,100,1,68,2e-28,126
Cyphellophora_laciniata_CBS190.61_T,SRR5227279.25733,100.00,61,0,0,40,100,502,442,1e-24,113
Cyphellophora_laciniata_CBS190.61_T,SRR5227279.13417,100.00,68,0,0,33,100,460,393,2e-28,126
Cyphellophora_laciniata_CBS190.61_T,SRR5227279.13417,98.53,68,1,0,33,100,1,68,8e-27,121
Cyphellophora_laciniata_CBS190.61_T,SRR5227279.955,100.00,68,0,0,33,100,1,68,2e-28,126
Cyphellophora_laciniata_CBS190.61_T,SRR5227279.955,100.00,68,0,0,33,100,460,393,2e-28,126
Cyphellophora_laciniata_CBS190.61_T,SRR5227279.32545,98.53,68,1,0,33,100,1,68,8e-27,121
Cyphellophora_laciniata_CBS190.61_T,SRR5227279.32545,100.00,50,0,0,297,346,299,250,2e-18,93.5
Cyphellophora_laciniata_CBS190.61_T,SRR5227279.18370,98.53,68,1,0,33,100,1,68,8e-27,121
Cyphellophora_laciniata_CBS190.61_T,SRR5227279.18370,98.53,68,1,0,33,100,460,393,8e-27,121
Cyphellophora_laciniata_CBS190.61_T,SRR5227279.4678,97.10,69,2,0,33,101,1,69,1e-25,117
Cyphellophora_laciniata_CBS190.61_T,SRR5227279.4678,84.31,102,11,4,245,345,349,252,5e-19,95.3
Cyphellophora_suttonii_CBS449.91,SRR5227279.20091,90.07,141,12,2,229,368,1,140,3e-45,182
Cyphellophora_suttonii_CBS449.91,SRR5227279.4678,86.87,99,12,1,150,248,349,252,1e-23,110
Cyphellophora_suttonii_CBS449.91,SRR5227279.32545,100.00,50,0,0,200,249,299,250,1e-18,93.5
Cyphellophora_suttonii_CBS449.91,SRR5227279.25733,98.08,52,1,0,197,248,303,252,4e-18,91.6
Cyphellophora_suttonii_CBS449.91,SRR5227279.25733,97.78,45,1,0,197,241,207,251,3e-14,78.7
Cyphellophora_pauciseptata_CBS284.85_T,SRR5227279.20091,90.07,141,12,2,240,379,1,140,3e-45,182
Cyphellophora_pauciseptata_CBS284.85_T,SRR5227279.4678,87.88,99,10,2,162,259,349,252,3e-25,115
Cyphellophora_pauciseptata_CBS284.85_T,SRR5227279.4678,83.54,79,11,2,162,239,178,255,2e-12,73.1
Cyphellophora_pauciseptata_CBS284.85_T,SRR5227279.32545,95.00,60,2,1,201,260,308,250,1e-18,93.5
Cyphellophora_pauciseptata_CBS284.85_T,SRR5227279.25733,98.04,51,1,0,209,259,302,252,2e-17,89.8
Cyphellophora_pauciseptata_CBS284.85_T,SRR5227279.25733,97.73,44,1,0,209,252,208,251,1e-13,76.8
Cyphellophora_pluriseptata_CBS286.85_T,SRR5227279.20091,89.93,139,12,2,247,384,3,140,3e-44,178
Cyphellophora_pluriseptata_CBS286.85_T,SRR5227279.4678,98.04,51,1,0,214,264,302,252,2e-17,89.8
Cyphellophora_pluriseptata_CBS286.85_T,SRR5227279.32545,98.00,50,1,0,216,265,299,250,6e-17,87.9
Phialophora_europaea_CBS101466,SRR5227279.20091,90.07,141,12,2,235,374,1,140,2e-45,182
Phialophora_europaea_CBS101466,SRR5227279.4678,100.00,56,0,0,199,254,307,252,5e-22,104
Phialophora_europaea_CBS101466,SRR5227279.4678,97.22,36,1,0,199,234,220,255,3e-09,62.1
Phialophora_europaea_CBS101466,SRR5227279.32545,98.21,56,1,0,200,255,305,250,3e-20,99.0
Phialophora_europaea_CBS101466,SRR5227279.25733,98.04,51,1,0,204,254,302,252,2e-17,89.8
Phialophora_europaea_CBS101466,SRR5227279.25733,97.73,44,1,0,204,247,208,251,1e-13,76.8
Phialophora_ambigua_CBS235.93,SRR5227279.20091,90.07,141,12,2,232,371,1,140,3e-45,182
Phialophora_ambigua_CBS235.93,SRR5227279.4678,96.61,59,2,0,193,251,310,252,3e-20,99.0
Phialophora_ambigua_CBS235.93,SRR5227279.32545,100.00,50,0,0,203,252,299,250,1e-18,93.5
Phialophora_ambigua_CBS235.93,SRR5227279.25733,98.08,52,1,0,200,251,303,252,4e-18,91.6
Phialophora_ambigua_CBS235.93,SRR5227279.25733,97.78,45,1,0,200,244,207,251,3e-14,78.7
Cladophialophora_modesta_CBS985.96_T,SRR5227279.20091,88.73,142,14,2,229,370,1,140,2e-42,172
Cladophialophora_modesta_CBS985.96_T,SRR5227279.4678,87.25,102,8,4,149,248,350,252,4e-24,111
Cladophialophora_modesta_CBS985.96_T,SRR5227279.32545,100.00,50,0,0,200,249,299,250,1e-18,93.5
Cladophialophora_modesta_CBS985.96_T,SRR5227279.25733,98.08,52,1,0,197,248,303,252,5e-18,91.6
Cladophialophora_modesta_CBS985.96_T,SRR5227279.25733,97.78,45,1,0,197,241,207,251,4e-14,78.7
Cyphellophora_fusarioides_MUCL44033_T,SRR5227279.20091,89.36,141,13,2,228,367,1,140,1e-43,176
Cyphellophora_fusarioides_MUCL44033_T,SRR5227279.4678,85.00,100,13,2,148,247,349,252,7e-21,100
Cyphellophora_fusarioides_MUCL44033_T,SRR5227279.32545,100.00,50,0,0,199,248,299,250,1e-18,93.5
