Exophiala_nigra_CBS535.94_T,SRR8504027.11258367,83.81,105,13,1,213,317,202,102,6e-18,97.1
Exophiala_spinifera_CBS899.68_T,SRR8504027.11258367,83.81,105,13,1,210,314,202,102,6e-18,97.1
Exophiala_exophialae_CBS668.76_T,SRR8504027.11258367,83.81,105,13,1,211,315,202,102,6e-18,97.1
Exophiala_polymorpha_CBS138920_T,SRR8504027.7399479,96.72,61,1,1,635,694,8,68,6e-19,100
Exophiala_polymorpha_CBS138920_T,SRR8504027.11258367,83.81,105,13,1,313,417,202,102,7e-18,97.1
Exophiala_polymorpha_CBS138920_T,SRR8504027.4340544,100.00,28,0,0,82,109,140,113,2e-04,52.8
Exophiala_oligosperma_CBS725.88_T,SRR8504027.11258367,83.81,105,13,1,223,327,202,102,6e-18,97.1
Exophiala_jeanselmei_CBS507.90_T,SRR8504027.7399479,95.71,70,1,1,537,604,7,76,2e-22,111
Exophiala_jeanselmei_CBS507.90_T,SRR8504027.11258367,83.81,105,13,1,215,319,202,102,6e-18,97.1
Exophiala_jeanselmei_CBS507.90_T,SRR8504027.4293559,91.07,56,5,0,549,604,59,4,8e-12,76.8
Exophiala_bergeri_CBS353.52,SRR8504027.11258367,83.81,105,13,1,176,280,202,102,5e-18,97.1
Exophiala_moniliae_CBS520.76_T,SRR8504027.11258367,83.81,105,13,1,213,317,202,102,6e-18,97.1
Exophiala_pisciphila_CBS537.73_T,SRR8504027.7399479,100.00,80,0,0,553,632,16,95,2e-33,148
Exophiala_pisciphila_CBS537.73_T,SRR8504027.11258367,83.81,105,13,1,216,320,202,102,7e-18,97.1
Exophiala_pisciphila_CBS537.73_T,SRR8504027.4293559,89.83,59,6,0,558,616,59,1,9e-12,76.8
Exophiala_xenobiotica_CBS117642,SRR8504027.11258367,83.81,105,13,1,208,312,202,102,6e-18,97.1
Exophiala_brunnea_CBS,SRR8504027.11258367,83.81,105,13,1,244,348,202,102,7e-18,97.1
Exophiala_brunnea_CBS,SRR8504027.7399479,94.83,58,1,1,578,633,8,65,3e-16,91.6
Exophiala_brunnea_CBS,SRR8504027.4340544,100.00,41,0,0,1,41,153,113,9e-12,76.8
Exophiala_brunnea_CBS,SRR8504027.523593,97.67,43,1,0,1,43,45,87,3e-11,75.0
Exophiala_brunnea_CBS,SRR8504027.4837677,100.00,39,0,0,1,39,34,72,1e-10,73.1
Exophiala_brunnea_CBS,SRR8504027.1735682,100.00,39,0,0,1,39,102,140,1e-10,73.1
Exophiala_brunnea_CBS,SRR8504027.998545,100.00,39,0,0,1,39,159,197,1e-10,73.1
Exophiala_brunnea_CBS,SRR8504027.998545,94.44,36,1,1,11,46,101,67,4e-05,54.7
Exophiala_brunnea_CBS,SRR8504027.988099,100.00,39,0,0,1,39,144,182,1e-10,73.1
Exophiala_brunnea_CBS,SRR8504027.9821298,100.00,38,0,0,1,38,38,75,4e-10,71.3
Exophiala_brunnea_CBS,SRR8504027.9400406,100.00,38,0,0,1,38,78,41,4e-10,71.3
Exophiala_brunnea_CBS,SRR8504027.8120143,100.00,38,0,0,1,38,175,138,4e-10,71.3
Exophiala_brunnea_CBS,SRR8504027.7272007,100.00,38,0,0,1,38,73,36,4e-10,71.3
Exophiala_brunnea_CBS,SRR8504027.3720448,100.00,38,0,0,1,38,144,107,4e-10,71.3
Exophiala_brunnea_CBS,SRR8504027.2118435,100.00,38,0,0,1,38,102,139,4e-10,71.3
Exophiala_brunnea_CBS,SRR8504027.1553761,100.00,38,0,0,1,38,173,136,4e-10,71.3
Exophiala_brunnea_CBS,SRR8504027.1553761,100.00,29,0,0,1,29,73,101,4e-05,54.7
Exophiala_brunnea_CBS,SRR8504027.1377648,100.00,38,0,0,1,38,152,115,4e-10,71.3
Exophiala_brunnea_CBS,SRR8504027.952990,100.00,38,0,0,1,38,139,176,4e-10,71.3
Exophiala_brunnea_CBS,SRR8504027.162164,100.00,38,0,0,1,38,154,191,4e-10,71.3
Exophiala_brunnea_CBS,SRR8504027.5550145,100.00,37,0,0,1,37,29,65,1e-09,69.4
Exophiala_brunnea_CBS,SRR8504027.1569968,100.00,34,0,0,1,34,34,1,7e-08,63.9
Exophiala_brunnea_CBS,SRR8504027.1569968,100.00,28,0,0,1,28,175,202,1e-04,52.8
Exophiala_brunnea_CBS,SRR8504027.2288146,100.00,32,0,0,1,32,32,1,9e-07,60.2
Exophiala_brunnea_CBS,SRR8504027.1145521,100.00,32,0,0,1,32,32,1,9e-07,60.2
Exophiala_nishimurae_CBS101538_T,SRR8504027.11258367,83.81,105,13,1,222,326,202,102,6e-18,97.1
Exophiala_mesophila_CBS402.95_T,SRR8504027.7399479,98.77,81,1,0,549,629,15,95,2e-32,145
Exophiala_mesophila_CBS402.95_T,SRR8504027.11258367,83.81,105,13,1,206,310,202,102,7e-18,97.1
Exophiala_mesophila_CBS402.95_T,SRR8504027.4293559,88.41,69,7,1,545,613,68,1,2e-13,82.4
Exophiala_castellanii_CBS158.58_T,SRR8504027.7399479,98.77,81,1,0,548,628,15,95,2e-32,145
Exophiala_castellanii_CBS158.58_T,SRR8504027.11258367,83.81,105,13,1,204,308,202,102,7e-18,97.1
Exophiala_castellanii_CBS158.58_T,SRR8504027.4293559,91.53,59,5,0,554,612,59,1,2e-13,82.4
Exophiala_lecanii-corni_CBS123.33_T,SRR8504027.11258367,83.81,105,13,1,227,331,202,102,6e-18,97.1
Exophiala_dermatitidis_CBS748.88,SRR8504027.2549350,96.94,98,3,0,1407,1504,102,199,4e-38,165
Exophiala_dermatitidis_CBS748.88,SRR8504027.5668572,93.88,98,6,0,1404,1501,199,102,4e-33,148
Exophiala_dermatitidis_CBS748.88,SRR8504027.796861,93.07,101,7,0,1351,1451,101,1,4e-33,148
Exophiala_dermatitidis_CBS748.88,SRR8504027.9605535,93.81,97,6,0,1368,1464,199,103,2e-32,147
Exophiala_dermatitidis_CBS748.88,SRR8504027.9605535,90.00,60,5,1,1352,1410,45,104,2e-11,76.8
Exophiala_dermatitidis_CBS748.88,SRR8504027.8280611,93.00,100,7,0,1405,1504,102,3,2e-32,147
Exophiala_dermatitidis_CBS748.88,SRR8504027.8280611,91.03,78,7,0,1352,1429,125,202,3e-20,106
Exophiala_dermatitidis_CBS748.88,SRR8504027.3999986,93.81,97,6,0,1368,1464,199,103,2e-32,147
Exophiala_dermatitidis_CBS748.88,SRR8504027.3999986,90.00,60,5,1,1352,1410,45,104,2e-11,76.8
Exophiala_dermatitidis_CBS748.88,SRR8504027.1226046,92.16,102,8,0,1397,1498,101,202,6e-32,145
Exophiala_dermatitidis_CBS748.88,SRR8504027.7399479,95.60,91,1,2,566,654,6,95,2e-31,143
Exophiala_dermatitidis_CBS748.88,SRR8504027.6009741,92.08,101,8,0,1394,1494,102,202,2e-31,143
Exophiala_dermatitidis_CBS748.88,SRR8504027.798394,92.08,101,8,0,1351,1451,101,1,2e-31,143
Exophiala_dermatitidis_CBS748.88,SRR8504027.1911300,92.78,97,7,0,1371,1467,198,102,7e-31,141
Exophiala_dermatitidis_CBS748.88,SRR8504027.1911300,87.30,63,8,0,1350,1412,39,101,3e-10,73.1
Exophiala_dermatitidis_CBS748.88,SRR8504027.5832023,91.92,99,8,0,1406,1504,101,199,3e-30,139
Exophiala_dermatitidis_CBS748.88,SRR8504027.5832023,97.56,41,1,0,1464,1504,101,61,1e-09,71.3
Exophiala_dermatitidis_CBS748.88,SRR8504027.2789260,91.18,102,9,0,1398,1499,202,101,3e-30,139
Exophiala_dermatitidis_CBS748.88,SRR8504027.134751,92.71,96,7,0,1409,1504,102,197,3e-30,139
Exophiala_dermatitidis_CBS748.88,SRR8504027.8376308,96.30,81,3,0,1350,1430,122,202,1e-28,134
Exophiala_dermatitidis_CBS748.88,SRR8504027.8376308,96.30,54,2,0,1448,1501,101,48,3e-15,89.8
Exophiala_dermatitidis_CBS748.88,SRR8504027.3195783,95.24,84,4,0,1373,1456,183,100,1e-28,134
Exophiala_dermatitidis_CBS748.88,SRR8504027.3195783,84.91,53,8,0,1348,1400,49,101,1e-04,54.7
Exophiala_dermatitidis_CBS748.88,SRR8504027.9912192,90.91,99,8,1,1341,1438,101,3,4e-28,132
Exophiala_dermatitidis_CBS748.88,SRR8504027.6317675,89.11,101,11,0,1404,1504,1,101,2e-26,126
Exophiala_dermatitidis_CBS748.88,SRR8504027.6317675,93.10,58,4,0,1447,1504,196,139,4e-14,86.1
Exophiala_dermatitidis_CBS748.88,SRR8504027.734015,93.02,86,6,0,1419,1504,1,86,2e-26,126
Exophiala_dermatitidis_CBS748.88,SRR8504027.734015,96.49,57,2,0,1448,1504,202,146,6e-17,95.3
Exophiala_dermatitidis_CBS748.88,SRR8504027.725336,93.02,86,6,0,1419,1504,1,86,2e-26,126
Exophiala_dermatitidis_CBS748.88,SRR8504027.725336,96.49,57,2,0,1448,1504,202,146,6e-17,95.3
Exophiala_dermatitidis_CBS748.88,SRR8504027.7012905,91.21,91,8,0,1414,1504,101,11,7e-26,124
Exophiala_dermatitidis_CBS748.88,SRR8504027.7012905,87.50,96,12,0,1373,1468,103,198,6e-22,111
Exophiala_dermatitidis_CBS748.88,SRR8504027.6981666,92.77,83,6,0,1422,1504,202,120,1e-24,121
Exophiala_dermatitidis_CBS748.88,SRR8504027.5861335,88.78,98,11,0,1371,1468,199,102,1e-24,121
Exophiala_dermatitidis_CBS748.88,SRR8504027.5861335,87.30,63,8,0,1350,1412,39,101,3e-10,73.1
Exophiala_dermatitidis_CBS748.88,SRR8504027.2946921,94.81,77,4,0,1428,1504,102,178,1e-24,121
Exophiala_dermatitidis_CBS748.88,SRR8504027.6100935,87.25,102,13,0,1368,1469,202,101,1e-23,117
Exophiala_dermatitidis_CBS748.88,SRR8504027.8396945,89.01,91,10,0,1414,1504,1,91,2e-22,113
Exophiala_dermatitidis_CBS748.88,SRR8504027.11234974,89.66,87,9,0,1418,1504,7,93,6e-22,111
Exophiala_dermatitidis_CBS748.88,SRR8504027.5246150,86.14,101,14,0,1361,1461,1,101,2e-21,110
Exophiala_dermatitidis_CBS748.88,SRR8504027.5246150,85.71,91,13,0,1414,1504,202,112,2e-17,97.1
Exophiala_dermatitidis_CBS748.88,SRR8504027.561172,86.14,101,14,0,1351,1451,101,1,2e-21,110
Exophiala_dermatitidis_CBS748.88,SRR8504027.2823310,90.00,80,7,1,1212,1291,94,16,4e-19,102
Exophiala_dermatitidis_CBS748.88,SRR8504027.2823310,87.36,87,11,0,1187,1273,113,199,1e-18,100
Exophiala_dermatitidis_CBS748.88,SRR8504027.5995268,88.89,81,9,0,1350,1430,178,98,1e-18,100
Exophiala_dermatitidis_CBS748.88,SRR8504027.5995268,93.33,45,3,0,1212,1256,1,45,1e-08,67.6
Exophiala_dermatitidis_CBS748.88,SRR8504027.5834200,96.55,58,2,0,1447,1504,101,158,2e-17,97.1
Exophiala_dermatitidis_CBS748.88,SRR8504027.11258367,83.81,105,12,2,220,323,202,102,6e-17,95.3
Exophiala_dermatitidis_CBS748.88,SRR8504027.6880912,96.49,57,2,0,1448,1504,102,158,6e-17,95.3
Exophiala_dermatitidis_CBS748.88,SRR8504027.5987974,87.65,81,10,0,1350,1430,178,98,6e-17,95.3
Exophiala_dermatitidis_CBS748.88,SRR8504027.5987974,93.33,45,3,0,1212,1256,1,45,1e-08,67.6
Exophiala_dermatitidis_CBS748.88,SRR8504027.5177568,88.46,78,9,0,1350,1427,78,1,6e-17,95.3
Exophiala_dermatitidis_CBS748.88,SRR8504027.4922163,85.71,84,12,0,1350,1433,185,102,3e-15,89.8
Exophiala_dermatitidis_CBS748.88,SRR8504027.1455248,90.91,66,6,0,842,907,67,2,3e-15,89.8
Exophiala_dermatitidis_CBS748.88,SRR8504027.8003596,96.23,53,2,0,1368,1420,53,1,1e-14,87.9
Exophiala_dermatitidis_CBS748.88,SRR8504027.8899262,90.48,63,6,0,1352,1414,39,101,1e-13,84.2
Exophiala_dermatitidis_CBS748.88,SRR8504027.6194057,94.44,54,3,0,1369,1422,54,1,1e-13,84.2
Exophiala_dermatitidis_CBS748.88,SRR8504027.4293559,91.53,59,5,0,580,638,59,1,5e-13,82.4
Exophiala_dermatitidis_CBS748.88,SRR8504027.1764399,86.49,74,10,0,1350,1423,28,101,5e-13,82.4
Exophiala_dermatitidis_CBS748.88,SRR8504027.7594206,88.06,67,8,0,1350,1416,171,105,2e-12,80.5
Exophiala_dermatitidis_CBS748.88,SRR8504027.7594206,93.18,44,3,0,1213,1256,1,44,5e-08,65.8
Exophiala_dermatitidis_CBS748.88,SRR8504027.7137067,94.12,51,3,0,1350,1400,152,102,6e-12,78.7
Exophiala_dermatitidis_CBS748.88,SRR8504027.7137067,95.74,47,2,0,1210,1256,32,78,2e-11,76.8
Exophiala_dermatitidis_CBS748.88,SRR8504027.4417361,95.74,47,2,0,1210,1256,175,129,2e-11,76.8
Exophiala_dermatitidis_CBS748.88,SRR8504027.4417361,100.00,35,0,0,1210,1244,67,101,5e-08,65.8
Exophiala_dermatitidis_CBS748.88,SRR8504027.3294825,90.00,60,4,2,1198,1256,76,18,2e-11,76.8
Exophiala_dermatitidis_CBS748.88,SRR8504027.1403903,90.00,60,4,2,1198,1256,181,123,2e-11,76.8
Exophiala_dermatitidis_CBS748.88,SRR8504027.1385583,90.00,60,4,2,1198,1256,181,123,2e-11,76.8
Exophiala_dermatitidis_CBS748.88,SRR8504027.1383407,90.00,60,4,2,1198,1256,181,123,2e-11,76.8
Exophiala_dermatitidis_CBS748.88,SRR8504027.443556,90.00,60,4,2,1198,1256,62,4,2e-11,76.8
Exophiala_dermatitidis_CBS748.88,SRR8504027.443556,93.88,49,1,2,1198,1245,154,201,3e-10,73.1
Exophiala_dermatitidis_CBS748.88,SRR8504027.3288000,97.67,43,1,0,1210,1252,51,9,8e-11,75.0
Exophiala_dermatitidis_CBS748.88,SRR8504027.10916633,92.16,51,2,2,1198,1247,57,106,1e-09,71.3
Exophiala_dermatitidis_CBS748.88,SRR8504027.10916633,93.62,47,3,0,1210,1256,197,151,1e-09,71.3
Exophiala_dermatitidis_CBS748.88,SRR8504027.3121711,97.56,41,1,0,1368,1408,135,175,1e-09,71.3
Exophiala_dermatitidis_CBS748.88,SRR8504027.8571982,82.72,81,11,3,1212,1290,1,80,4e-09,69.4
Exophiala_dermatitidis_CBS748.88,SRR8504027.5800129,95.35,43,2,0,1213,1255,11,53,4e-09,69.4
Exophiala_dermatitidis_CBS748.88,SRR8504027.5800129,80.00,90,14,3,1314,1401,193,106,2e-07,63.9
Exophiala_dermatitidis_CBS748.88,SRR8504027.2159273,95.35,43,2,0,1213,1255,94,52,4e-09,69.4
Exophiala_dermatitidis_CBS748.88,SRR8504027.1134436,95.35,43,2,0,1213,1255,132,174,4e-09,69.4
Exophiala_dermatitidis_CBS748.88,SRR8504027.4926060,93.48,46,2,1,1212,1256,150,105,1e-08,67.6
Exophiala_dermatitidis_CBS748.88,SRR8504027.4803030,93.48,46,1,2,1198,1242,146,102,1e-08,67.6
Exophiala_dermatitidis_CBS748.88,SRR8504027.2200360,93.33,45,3,0,1212,1256,46,2,1e-08,67.6
Exophiala_dermatitidis_CBS748.88,SRR8504027.1585795,85.48,62,9,0,842,903,62,1,5e-08,65.8
Exophiala_dermatitidis_CBS748.88,SRR8504027.3574293,100.00,33,0,0,1472,1504,196,164,6e-07,62.1
Exophiala_dermatitidis_CBS748.88,SRR8504027.10964356,100.00,29,0,0,1211,1239,73,45,1e-04,54.7
Exophiala_dermatitidis_CBS748.88,SRR8504027.10597805,100.00,29,0,0,1476,1504,102,130,1e-04,54.7
Exophiala_dermatitidis_CBS748.88,SRR8504027.7036957,92.31,39,2,1,1212,1250,163,200,1e-04,54.7
Exophiala_dermatitidis_CBS748.88,SRR8504027.1655699,100.00,28,0,0,1477,1504,101,128,4e-04,52.8
Exophiala_angulospora_CBS482.92_T,SRR8504027.11258367,83.81,105,13,1,210,314,202,102,6e-18,97.1
Exophiala_opportunistica_CBS109811_T,SRR8504027.11258367,83.81,105,13,1,209,313,202,102,6e-18,97.1
Exophiala_salmonis_CBS157.67_T,SRR8504027.7399479,100.00,80,0,0,673,752,16,95,2e-33,148
Exophiala_salmonis_CBS157.67_T,SRR8504027.11258367,83.81,105,13,1,338,442,202,102,8e-18,97.1
Exophiala_salmonis_CBS157.67_T,SRR8504027.4293559,89.83,59,6,0,678,736,59,1,1e-11,76.8
Exophiala_salmonis_CBS157.67_T,SRR8504027.5788693,92.50,40,3,0,83,122,49,10,4e-06,58.4
Exophiala_salmonis_CBS157.67_T,SRR8504027.523593,92.50,40,3,0,83,122,12,51,4e-06,58.4
Exophiala_salmonis_CBS157.67_T,SRR8504027.998545,100.00,28,0,0,95,122,138,165,2e-04,52.8
Exophiala_aquamarina_CBS119918_T,SRR8504027.11258367,83.81,105,13,1,216,320,202,102,6e-18,97.1
Exophiala_cancerae_CBS120420_T,SRR8504027.7399479,100.00,61,0,0,564,624,16,76,7e-23,113
Exophiala_cancerae_CBS120420_T,SRR8504027.11258367,83.81,105,13,1,231,335,202,102,7e-18,97.1
Exophiala_cancerae_CBS120420_T,SRR8504027.4293559,89.29,56,6,0,569,624,59,4,4e-10,71.3
Exophiala_tremulae_CBS129355,SRR8504027.11258367,83.81,105,13,1,243,347,202,102,7e-18,97.1
Exophiala_tremulae_CBS129355,SRR8504027.7399479,100.00,50,0,0,579,628,16,65,9e-17,93.5
Exophiala_tremulae_CBS129355,SRR8504027.4340544,100.00,41,0,0,1,41,153,113,9e-12,76.8
Exophiala_tremulae_CBS129355,SRR8504027.523593,97.67,43,1,0,1,43,45,87,3e-11,75.0
Exophiala_tremulae_CBS129355,SRR8504027.4837677,100.00,39,0,0,1,39,34,72,1e-10,73.1
Exophiala_tremulae_CBS129355,SRR8504027.1735682,100.00,39,0,0,1,39,102,140,1e-10,73.1
Exophiala_tremulae_CBS129355,SRR8504027.998545,100.00,39,0,0,1,39,159,197,1e-10,73.1
Exophiala_tremulae_CBS129355,SRR8504027.998545,94.44,36,1,1,11,46,101,67,4e-05,54.7
Exophiala_tremulae_CBS129355,SRR8504027.988099,100.00,39,0,0,1,39,144,182,1e-10,73.1
Exophiala_tremulae_CBS129355,SRR8504027.9821298,100.00,38,0,0,1,38,38,75,4e-10,71.3
Exophiala_tremulae_CBS129355,SRR8504027.9400406,100.00,38,0,0,1,38,78,41,4e-10,71.3
Exophiala_tremulae_CBS129355,SRR8504027.8120143,100.00,38,0,0,1,38,175,138,4e-10,71.3
Exophiala_tremulae_CBS129355,SRR8504027.7272007,100.00,38,0,0,1,38,73,36,4e-10,71.3
Exophiala_tremulae_CBS129355,SRR8504027.3720448,100.00,38,0,0,1,38,144,107,4e-10,71.3
Exophiala_tremulae_CBS129355,SRR8504027.2118435,100.00,38,0,0,1,38,102,139,4e-10,71.3
Exophiala_tremulae_CBS129355,SRR8504027.1553761,100.00,38,0,0,1,38,173,136,4e-10,71.3
Exophiala_tremulae_CBS129355,SRR8504027.1553761,100.00,29,0,0,1,29,73,101,4e-05,54.7
Exophiala_tremulae_CBS129355,SRR8504027.1377648,100.00,38,0,0,1,38,152,115,4e-10,71.3
Exophiala_tremulae_CBS129355,SRR8504027.952990,100.00,38,0,0,1,38,139,176,4e-10,71.3
Exophiala_tremulae_CBS129355,SRR8504027.162164,100.00,38,0,0,1,38,154,191,4e-10,71.3
Exophiala_tremulae_CBS129355,SRR8504027.5550145,100.00,37,0,0,1,37,29,65,1e-09,69.4
Exophiala_tremulae_CBS129355,SRR8504027.1569968,100.00,34,0,0,1,34,34,1,7e-08,63.9
Exophiala_tremulae_CBS129355,SRR8504027.1569968,100.00,28,0,0,1,28,175,202,1e-04,52.8
Exophiala_tremulae_CBS129355,SRR8504027.2288146,100.00,32,0,0,1,32,32,1,9e-07,60.2
Exophiala_tremulae_CBS129355,SRR8504027.1145521,100.00,32,0,0,1,32,32,1,9e-07,60.2
Exophiala_equina_CBS116009,SRR8504027.11258367,83.81,105,13,1,209,313,202,102,6e-18,97.1
Exophiala_alcalophila_CBS520.82_T,SRR8504027.11258367,83.81,105,13,1,220,324,202,102,6e-18,97.1
Exophiala_crusticola_CBS119970_T,SRR8504027.11258367,83.81,105,13,1,225,329,202,102,6e-18,97.1
Rhinocladiella_atrovirens_CBS264.49,SRR8504027.11258367,83.81,105,13,1,251,355,202,102,7e-18,97.1
Rhinocladiella_atrovirens_CBS264.49,SRR8504027.7399479,100.00,50,0,0,577,626,15,64,9e-17,93.5
Rhinocladiella_atrovirens_CBS264.49,SRR8504027.4837677,100.00,46,0,0,1,46,29,74,1e-14,86.1
Rhinocladiella_atrovirens_CBS264.49,SRR8504027.988099,100.00,46,0,0,1,46,139,184,1e-14,86.1
Rhinocladiella_atrovirens_CBS264.49,SRR8504027.523593,97.92,48,1,0,1,48,40,87,5e-14,84.2
Rhinocladiella_atrovirens_CBS264.49,SRR8504027.4340544,100.00,44,0,0,1,44,158,115,2e-13,82.4
Rhinocladiella_atrovirens_CBS264.49,SRR8504027.998545,100.00,44,0,0,1,44,154,197,2e-13,82.4
Rhinocladiella_atrovirens_CBS264.49,SRR8504027.998545,94.44,36,1,1,16,51,101,67,4e-05,54.7
Rhinocladiella_atrovirens_CBS264.49,SRR8504027.9821298,100.00,43,0,0,1,43,33,75,7e-13,80.5
Rhinocladiella_atrovirens_CBS264.49,SRR8504027.9400406,100.00,43,0,0,1,43,83,41,7e-13,80.5
Rhinocladiella_atrovirens_CBS264.49,SRR8504027.8120143,100.00,43,0,0,1,43,180,138,7e-13,80.5
Rhinocladiella_atrovirens_CBS264.49,SRR8504027.7272007,100.00,43,0,0,1,43,78,36,7e-13,80.5
Rhinocladiella_atrovirens_CBS264.49,SRR8504027.3720448,100.00,43,0,0,1,43,149,107,7e-13,80.5
Rhinocladiella_atrovirens_CBS264.49,SRR8504027.1553761,100.00,43,0,0,1,43,178,136,7e-13,80.5
Rhinocladiella_atrovirens_CBS264.49,SRR8504027.1553761,100.00,34,0,0,1,34,68,101,7e-08,63.9
Rhinocladiella_atrovirens_CBS264.49,SRR8504027.1377648,100.00,43,0,0,1,43,157,115,7e-13,80.5
Rhinocladiella_atrovirens_CBS264.49,SRR8504027.952990,100.00,43,0,0,1,43,134,176,7e-13,80.5
Rhinocladiella_atrovirens_CBS264.49,SRR8504027.162164,100.00,43,0,0,1,43,149,191,7e-13,80.5
Rhinocladiella_atrovirens_CBS264.49,SRR8504027.5550145,100.00,42,0,0,1,42,24,65,2e-12,78.7
Rhinocladiella_atrovirens_CBS264.49,SRR8504027.1735682,100.00,41,0,0,6,46,102,142,9e-12,76.8
Rhinocladiella_atrovirens_CBS264.49,SRR8504027.1569968,100.00,39,0,0,1,39,39,1,1e-10,73.1
Rhinocladiella_atrovirens_CBS264.49,SRR8504027.1569968,100.00,33,0,0,1,33,170,202,2e-07,62.1
Rhinocladiella_atrovirens_CBS264.49,SRR8504027.2118435,100.00,38,0,0,6,43,102,139,4e-10,71.3
Rhinocladiella_atrovirens_CBS264.49,SRR8504027.2288146,100.00,37,0,0,1,37,37,1,1e-09,69.4
Rhinocladiella_atrovirens_CBS264.49,SRR8504027.1145521,100.00,37,0,0,1,37,37,1,1e-09,69.4
Rhinocladiella_atrovirens_CBS264.49,SRR8504027.3591625,100.00,29,0,0,1,29,130,102,4e-05,54.7
Rhinocladiella_atrovirens_CBS264.49,SRR8504027.805369,100.00,28,0,0,1,28,129,102,1e-04,52.8
Rhinocladiella_basitona_CBS101460_T,SRR8504027.11258367,83.81,105,13,1,210,314,202,102,6e-18,97.1
Rhinocladiella_phaeophora_CBS496.78_T,SRR8504027.11258367,83.81,105,13,1,218,322,202,102,6e-18,97.1
Rhinocladiella_aquaspersa_CBS313.73_T,SRR8504027.7399479,96.25,80,0,3,548,624,16,95,2e-27,128
Rhinocladiella_aquaspersa_CBS313.73_T,SRR8504027.11258367,83.81,105,13,1,212,316,202,102,7e-18,97.1
Rhinocladiella_aquaspersa_CBS313.73_T,SRR8504027.4293559,100.00,38,0,0,571,608,38,1,4e-10,71.3
Rhinocladiella_fasciculata_CBS132.86_T,SRR8504027.11258367,83.81,105,13,1,228,332,202,102,6e-18,97.1
Rhinocladiella_fasciculata_CBS132.86_T,SRR8504027.4837677,100.00,29,0,0,1,29,46,74,4e-05,54.7
Rhinocladiella_fasciculata_CBS132.86_T,SRR8504027.1735682,100.00,29,0,0,1,29,114,142,4e-05,54.7
Rhinocladiella_fasciculata_CBS132.86_T,SRR8504027.988099,100.00,29,0,0,1,29,156,184,4e-05,54.7
Rhinocladiella_anceps_CBS181.65_T,SRR8504027.11258367,83.81,105,13,1,210,314,202,102,6e-18,97.1
Rhinocladiella_mackenziei_CBS367.92,SRR8504027.11258367,83.81,105,13,1,199,303,202,102,6e-18,97.1
Rhinocladiella_mackenziei_CBS367.92,SRR8504027.7399479,100.00,43,0,0,566,608,17,59,6e-13,80.5
Rhinocladiella_mackenziei_CBS367.92,SRR8504027.4340544,100.00,28,0,0,1,28,140,113,1e-04,52.8
Veronaea_compacta_CBS268.75_T,SRR8504027.11258367,83.81,105,13,1,232,336,202,102,6e-18,97.1
Veronaea_compacta_CBS268.75_T,SRR8504027.4340544,100.00,29,0,0,1,29,141,113,4e-05,54.7
Capronia_pilosella_AFTOL-ID657,SRR8504027.11258367,83.81,105,13,1,310,414,202,102,7e-18,97.1
Capronia_dactylotricha_DAOM208471_T,SRR8504027.7399479,100.00,84,0,0,554,637,12,95,1e-35,156
Capronia_dactylotricha_DAOM208471_T,SRR8504027.11258367,83.81,105,13,1,212,316,202,102,7e-18,97.1
Capronia_dactylotricha_DAOM208471_T,SRR8504027.4293559,89.83,59,6,0,563,621,59,1,9e-12,76.8
Capronia_kleinmondensis_CBS122671_T,SRR8504027.7399479,100.00,82,0,0,562,643,14,95,1e-34,152
Capronia_kleinmondensis_CBS122671_T,SRR8504027.11258367,83.81,105,13,1,237,341,202,102,7e-18,97.1
Capronia_kleinmondensis_CBS122671_T,SRR8504027.4293559,89.83,59,6,0,569,627,59,1,9e-12,76.8
Capronia_kleinmondensis_CBS122671_T,SRR8504027.4837677,100.00,32,0,0,1,32,43,74,9e-07,60.2
Capronia_kleinmondensis_CBS122671_T,SRR8504027.1735682,100.00,32,0,0,1,32,111,142,9e-07,60.2
Capronia_kleinmondensis_CBS122671_T,SRR8504027.988099,100.00,32,0,0,1,32,153,184,9e-07,60.2
Capronia_kleinmondensis_CBS122671_T,SRR8504027.523593,97.06,34,1,0,1,34,54,87,3e-06,58.4
Capronia_kleinmondensis_CBS122671_T,SRR8504027.4340544,100.00,30,0,0,1,30,144,115,1e-05,56.5
Capronia_kleinmondensis_CBS122671_T,SRR8504027.998545,100.00,30,0,0,1,30,168,197,1e-05,56.5
Capronia_kleinmondensis_CBS122671_T,SRR8504027.998545,94.44,36,1,1,2,37,101,67,4e-05,54.7
Capronia_kleinmondensis_CBS122671_T,SRR8504027.9821298,100.00,29,0,0,1,29,47,75,4e-05,54.7
Capronia_kleinmondensis_CBS122671_T,SRR8504027.9400406,100.00,29,0,0,1,29,69,41,4e-05,54.7
Capronia_kleinmondensis_CBS122671_T,SRR8504027.8120143,100.00,29,0,0,1,29,166,138,4e-05,54.7
Capronia_kleinmondensis_CBS122671_T,SRR8504027.7272007,100.00,29,0,0,1,29,64,36,4e-05,54.7
Capronia_kleinmondensis_CBS122671_T,SRR8504027.3720448,100.00,29,0,0,1,29,135,107,4e-05,54.7
Capronia_kleinmondensis_CBS122671_T,SRR8504027.2118435,100.00,29,0,0,1,29,111,139,4e-05,54.7
Capronia_kleinmondensis_CBS122671_T,SRR8504027.1553761,100.00,29,0,0,1,29,164,136,4e-05,54.7
Capronia_kleinmondensis_CBS122671_T,SRR8504027.1377648,100.00,29,0,0,1,29,143,115,4e-05,54.7
Capronia_kleinmondensis_CBS122671_T,SRR8504027.952990,100.00,29,0,0,1,29,148,176,4e-05,54.7
Capronia_kleinmondensis_CBS122671_T,SRR8504027.162164,100.00,29,0,0,1,29,163,191,4e-05,54.7
Capronia_kleinmondensis_CBS122671_T,SRR8504027.5550145,100.00,28,0,0,1,28,38,65,2e-04,52.8
Capronia_mansonii_CBS101.67_T,SRR8504027.7399479,98.75,80,1,0,568,647,16,95,9e-32,143
Capronia_mansonii_CBS101.67_T,SRR8504027.11258367,83.81,105,13,1,223,327,202,102,7e-18,97.1
Capronia_mansonii_CBS101.67_T,SRR8504027.4293559,91.53,59,5,0,573,631,59,1,2e-13,82.4
Capronia_munkii_DAOM216390_T,SRR8504027.7399479,98.75,80,1,0,568,647,16,95,9e-32,143
Capronia_munkii_DAOM216390_T,SRR8504027.11258367,83.81,105,13,1,223,327,202,102,7e-18,97.1
Capronia_munkii_DAOM216390_T,SRR8504027.4293559,91.53,59,5,0,573,631,59,1,2e-13,82.4
Capronia_coronata_ATCC56201_T,SRR8504027.7399479,98.75,80,1,0,539,618,16,95,9e-32,143
Capronia_coronata_ATCC56201_T,SRR8504027.11258367,83.81,105,13,1,211,315,202,102,7e-18,97.1
Capronia_coronata_ATCC56201_T,SRR8504027.4293559,91.53,59,5,0,544,602,59,1,2e-13,82.4
Capronia_parasitica_CBS123.88,SRR8504027.11258367,83.81,105,13,1,217,321,202,102,6e-18,97.1
Capronia_parasitica_CBS123.88,SRR8504027.7399479,95.56,45,0,1,553,595,7,51,4e-10,71.3
Veronaea_japonica_CBS776.83_T,SRR8504027.11258367,83.81,105,13,1,245,349,202,102,6e-18,97.1
Veronaea_japonica_CBS776.83_T,SRR8504027.4340544,100.00,40,0,0,1,40,152,113,3e-11,75.0
Veronaea_japonica_CBS776.83_T,SRR8504027.523593,97.62,42,1,0,1,42,46,87,1e-10,73.1
Veronaea_japonica_CBS776.83_T,SRR8504027.4837677,100.00,38,0,0,1,38,35,72,4e-10,71.3
Veronaea_japonica_CBS776.83_T,SRR8504027.1735682,100.00,38,0,0,1,38,103,140,4e-10,71.3
Veronaea_japonica_CBS776.83_T,SRR8504027.998545,100.00,38,0,0,1,38,160,197,4e-10,71.3
Veronaea_japonica_CBS776.83_T,SRR8504027.998545,94.44,36,1,1,10,45,101,67,4e-05,54.7
Veronaea_japonica_CBS776.83_T,SRR8504027.988099,100.00,38,0,0,1,38,145,182,4e-10,71.3
Veronaea_japonica_CBS776.83_T,SRR8504027.9821298,100.00,37,0,0,1,37,39,75,1e-09,69.4
Veronaea_japonica_CBS776.83_T,SRR8504027.9400406,100.00,37,0,0,1,37,77,41,1e-09,69.4
Veronaea_japonica_CBS776.83_T,SRR8504027.8120143,100.00,37,0,0,1,37,174,138,1e-09,69.4
Veronaea_japonica_CBS776.83_T,SRR8504027.7272007,100.00,37,0,0,1,37,72,36,1e-09,69.4
Veronaea_japonica_CBS776.83_T,SRR8504027.3720448,100.00,37,0,0,1,37,143,107,1e-09,69.4
Veronaea_japonica_CBS776.83_T,SRR8504027.2118435,100.00,37,0,0,1,37,103,139,1e-09,69.4
Veronaea_japonica_CBS776.83_T,SRR8504027.1553761,100.00,37,0,0,1,37,172,136,1e-09,69.4
Veronaea_japonica_CBS776.83_T,SRR8504027.1553761,100.00,28,0,0,1,28,74,101,1e-04,52.8
Veronaea_japonica_CBS776.83_T,SRR8504027.1377648,100.00,37,0,0,1,37,151,115,1e-09,69.4
Veronaea_japonica_CBS776.83_T,SRR8504027.952990,100.00,37,0,0,1,37,140,176,1e-09,69.4
Veronaea_japonica_CBS776.83_T,SRR8504027.162164,100.00,37,0,0,1,37,155,191,1e-09,69.4
Veronaea_japonica_CBS776.83_T,SRR8504027.5550145,100.00,36,0,0,1,36,30,65,5e-09,67.6
Veronaea_japonica_CBS776.83_T,SRR8504027.1569968,100.00,33,0,0,1,33,33,1,2e-07,62.1
Veronaea_japonica_CBS776.83_T,SRR8504027.2288146,100.00,31,0,0,1,31,31,1,3e-06,58.4
Veronaea_japonica_CBS776.83_T,SRR8504027.1145521,100.00,31,0,0,1,31,31,1,3e-06,58.4
Thysanorea_papuana_CBS212.96_T,SRR8504027.11258367,83.81,105,13,1,219,323,202,102,6e-18,97.1
Capronia_acutiseta_ATCC56428_T,SRR8504027.7399479,100.00,83,0,0,538,620,16,98,4e-35,154
Capronia_acutiseta_ATCC56428_T,SRR8504027.4293559,89.83,59,6,0,543,601,59,1,9e-12,76.8
Fonsecaea_brasiliensis_CBS119710_T,SRR8504027.11258367,83.81,105,13,1,219,323,202,102,6e-18,97.1
Fonsecaea_pedrosoi_CBS271.37_T,SRR8504027.7399479,96.72,61,2,0,585,645,16,76,1e-19,102
Fonsecaea_pedrosoi_CBS271.37_T,SRR8504027.11258367,83.81,105,13,1,247,351,202,102,7e-18,97.1
Fonsecaea_pedrosoi_CBS271.37_T,SRR8504027.4293559,89.29,56,6,0,590,645,59,4,4e-10,71.3
Fonsecaea_pedrosoi_CBS271.37_T,SRR8504027.4340544,100.00,31,0,0,1,31,144,114,3e-06,58.4
Fonsecaea_pedrosoi_CBS271.37_T,SRR8504027.4837677,100.00,30,0,0,1,30,43,72,1e-05,56.5
Fonsecaea_pedrosoi_CBS271.37_T,SRR8504027.1735682,100.00,30,0,0,1,30,111,140,1e-05,56.5
Fonsecaea_pedrosoi_CBS271.37_T,SRR8504027.998545,100.00,30,0,0,1,30,168,197,1e-05,56.5
Fonsecaea_pedrosoi_CBS271.37_T,SRR8504027.998545,100.00,29,0,0,2,30,101,73,4e-05,54.7
Fonsecaea_pedrosoi_CBS271.37_T,SRR8504027.988099,100.00,30,0,0,1,30,153,182,1e-05,56.5
Fonsecaea_pedrosoi_CBS271.37_T,SRR8504027.523593,100.00,30,0,0,1,30,54,83,1e-05,56.5
Fonsecaea_pedrosoi_CBS271.37_T,SRR8504027.9821298,96.97,33,0,1,1,32,47,79,4e-05,54.7
Fonsecaea_pedrosoi_CBS271.37_T,SRR8504027.9400406,100.00,29,0,0,1,29,69,41,4e-05,54.7
Fonsecaea_pedrosoi_CBS271.37_T,SRR8504027.8120143,100.00,29,0,0,1,29,166,138,4e-05,54.7
Fonsecaea_pedrosoi_CBS271.37_T,SRR8504027.7272007,100.00,29,0,0,1,29,64,36,4e-05,54.7
Fonsecaea_pedrosoi_CBS271.37_T,SRR8504027.3720448,100.00,29,0,0,1,29,135,107,4e-05,54.7
Fonsecaea_pedrosoi_CBS271.37_T,SRR8504027.2118435,100.00,29,0,0,1,29,111,139,4e-05,54.7
Fonsecaea_pedrosoi_CBS271.37_T,SRR8504027.1553761,96.97,33,0,1,1,32,164,132,4e-05,54.7
Fonsecaea_pedrosoi_CBS271.37_T,SRR8504027.1377648,100.00,29,0,0,1,29,143,115,4e-05,54.7
Fonsecaea_pedrosoi_CBS271.37_T,SRR8504027.952990,100.00,29,0,0,1,29,148,176,4e-05,54.7
Fonsecaea_pedrosoi_CBS271.37_T,SRR8504027.162164,100.00,29,0,0,1,29,163,191,4e-05,54.7
Fonsecaea_pedrosoi_CBS271.37_T,SRR8504027.5550145,100.00,28,0,0,1,28,38,65,2e-04,52.8
Fonsecaea_multimorphosa_CBS980.96_T,SRR8504027.11258367,83.81,105,13,1,217,321,202,102,6e-18,97.1
Fonsecaea_minima_CBS125760_T,SRR8504027.11258367,83.81,105,13,1,213,317,202,102,6e-18,97.1
Fonsecaea_nubica_CBS269.64_T,SRR8504027.11258367,83.81,105,13,1,224,328,202,102,6e-18,97.1
Fonsecaea_erecta_CBS125763_T,SRR8504027.11258367,83.81,105,13,1,208,312,202,102,6e-18,97.1
Fonsecaea_pugnacius_CBS139214_T,SRR8504027.11258367,83.81,105,13,1,217,321,202,102,6e-18,97.1
Cladophialophora_psammophila_CBS,SRR8504027.11258367,83.81,105,13,1,223,327,202,102,6e-18,97.1
Cladophialophora_devriesii_CBS,SRR8504027.11258367,83.81,105,13,1,219,323,202,102,6e-18,97.1
Cladophialophora_immunda_CBS834.96,SRR8504027.11258367,83.81,105,13,1,221,325,202,102,6e-18,97.1
Cladophialophora_arxii_CBS306.94_T,SRR8504027.11258367,83.81,105,13,1,223,327,202,102,6e-18,97.1
Cladophialophora_bantiana_CBS173.52,SRR8504027.11258367,83.81,105,13,1,217,321,202,102,6e-18,97.1
Cladophialophora_emmonsii_CBS102594,SRR8504027.11258367,83.81,105,13,1,208,312,202,102,6e-18,97.1
Cladophialophora_minourae_CBS556.83,SRR8504027.11258367,83.81,105,13,1,216,320,202,102,6e-18,97.1
Cladophialophora_australiensis_CBS112793,SRR8504027.2549350,96.94,98,3,0,1374,1471,102,199,4e-38,165
Cladophialophora_australiensis_CBS112793,SRR8504027.5668572,93.88,98,6,0,1371,1468,199,102,4e-33,148
Cladophialophora_australiensis_CBS112793,SRR8504027.796861,93.07,101,7,0,1318,1418,101,1,4e-33,148
Cladophialophora_australiensis_CBS112793,SRR8504027.9605535,93.81,97,6,0,1335,1431,199,103,2e-32,147
Cladophialophora_australiensis_CBS112793,SRR8504027.9605535,90.00,60,5,1,1319,1377,45,104,2e-11,76.8
Cladophialophora_australiensis_CBS112793,SRR8504027.8280611,93.00,100,7,0,1372,1471,102,3,2e-32,147
Cladophialophora_australiensis_CBS112793,SRR8504027.8280611,91.03,78,7,0,1319,1396,125,202,3e-20,106
Cladophialophora_australiensis_CBS112793,SRR8504027.3999986,93.81,97,6,0,1335,1431,199,103,2e-32,147
Cladophialophora_australiensis_CBS112793,SRR8504027.3999986,90.00,60,5,1,1319,1377,45,104,2e-11,76.8
Cladophialophora_australiensis_CBS112793,SRR8504027.1226046,92.16,102,8,0,1364,1465,101,202,6e-32,145
Cladophialophora_australiensis_CBS112793,SRR8504027.6009741,92.08,101,8,0,1361,1461,102,202,2e-31,143
Cladophialophora_australiensis_CBS112793,SRR8504027.798394,92.08,101,8,0,1318,1418,101,1,2e-31,143
Cladophialophora_australiensis_CBS112793,SRR8504027.1911300,92.78,97,7,0,1338,1434,198,102,7e-31,141
Cladophialophora_australiensis_CBS112793,SRR8504027.1911300,87.30,63,8,0,1317,1379,39,101,3e-10,73.1
Cladophialophora_australiensis_CBS112793,SRR8504027.5832023,91.92,99,8,0,1373,1471,101,199,3e-30,139
Cladophialophora_australiensis_CBS112793,SRR8504027.5832023,97.56,41,1,0,1431,1471,101,61,1e-09,71.3
Cladophialophora_australiensis_CBS112793,SRR8504027.2789260,91.18,102,9,0,1365,1466,202,101,3e-30,139
Cladophialophora_australiensis_CBS112793,SRR8504027.134751,92.71,96,7,0,1376,1471,102,197,3e-30,139
Cladophialophora_australiensis_CBS112793,SRR8504027.7399479,97.50,80,2,0,546,625,16,95,9e-30,137
Cladophialophora_australiensis_CBS112793,SRR8504027.8376308,96.30,81,3,0,1317,1397,122,202,1e-28,134
Cladophialophora_australiensis_CBS112793,SRR8504027.8376308,96.30,54,2,0,1415,1468,101,48,3e-15,89.8
Cladophialophora_australiensis_CBS112793,SRR8504027.3195783,95.24,84,4,0,1340,1423,183,100,1e-28,134
Cladophialophora_australiensis_CBS112793,SRR8504027.3195783,86.79,53,7,0,1315,1367,49,101,2e-06,60.2
Cladophialophora_australiensis_CBS112793,SRR8504027.9912192,90.82,98,8,1,1309,1405,100,3,2e-27,130
Cladophialophora_australiensis_CBS112793,SRR8504027.6317675,89.11,101,11,0,1371,1471,1,101,2e-26,126
Cladophialophora_australiensis_CBS112793,SRR8504027.6317675,93.10,58,4,0,1414,1471,196,139,3e-14,86.1
Cladophialophora_australiensis_CBS112793,SRR8504027.734015,93.02,86,6,0,1386,1471,1,86,2e-26,126
Cladophialophora_australiensis_CBS112793,SRR8504027.734015,96.49,57,2,0,1415,1471,202,146,6e-17,95.3
Cladophialophora_australiensis_CBS112793,SRR8504027.725336,93.02,86,6,0,1386,1471,1,86,2e-26,126
Cladophialophora_australiensis_CBS112793,SRR8504027.725336,96.49,57,2,0,1415,1471,202,146,6e-17,95.3
Cladophialophora_australiensis_CBS112793,SRR8504027.7012905,91.21,91,8,0,1381,1471,101,11,7e-26,124
Cladophialophora_australiensis_CBS112793,SRR8504027.7012905,87.50,96,12,0,1340,1435,103,198,6e-22,111
Cladophialophora_australiensis_CBS112793,SRR8504027.6981666,92.77,83,6,0,1389,1471,202,120,9e-25,121
Cladophialophora_australiensis_CBS112793,SRR8504027.5861335,88.78,98,11,0,1338,1435,199,102,9e-25,121
Cladophialophora_australiensis_CBS112793,SRR8504027.5861335,87.30,63,8,0,1317,1379,39,101,3e-10,73.1
Cladophialophora_australiensis_CBS112793,SRR8504027.2946921,94.81,77,4,0,1395,1471,102,178,9e-25,121
Cladophialophora_australiensis_CBS112793,SRR8504027.6100935,87.25,102,13,0,1335,1436,202,101,1e-23,117
Cladophialophora_australiensis_CBS112793,SRR8504027.5246150,87.13,101,13,0,1328,1428,1,101,4e-23,115
Cladophialophora_australiensis_CBS112793,SRR8504027.5246150,85.71,91,13,0,1381,1471,202,112,2e-17,97.1
Cladophialophora_australiensis_CBS112793,SRR8504027.8396945,89.01,91,10,0,1381,1471,1,91,2e-22,113
Cladophialophora_australiensis_CBS112793,SRR8504027.11234974,89.66,87,9,0,1385,1471,7,93,6e-22,111
Cladophialophora_australiensis_CBS112793,SRR8504027.561172,86.14,101,14,0,1318,1418,101,1,2e-21,110
Cladophialophora_australiensis_CBS112793,SRR8504027.5995268,88.89,81,9,0,1317,1397,178,98,1e-18,100
Cladophialophora_australiensis_CBS112793,SRR8504027.5995268,93.33,45,3,0,1179,1223,1,45,1e-08,67.6
Cladophialophora_australiensis_CBS112793,SRR8504027.11258367,83.81,105,13,1,218,322,202,102,2e-17,97.1
Cladophialophora_australiensis_CBS112793,SRR8504027.5834200,96.55,58,2,0,1414,1471,101,158,2e-17,97.1
Cladophialophora_australiensis_CBS112793,SRR8504027.6880912,96.49,57,2,0,1415,1471,102,158,6e-17,95.3
Cladophialophora_australiensis_CBS112793,SRR8504027.5987974,87.65,81,10,0,1317,1397,178,98,6e-17,95.3
Cladophialophora_australiensis_CBS112793,SRR8504027.5987974,93.33,45,3,0,1179,1223,1,45,1e-08,67.6
Cladophialophora_australiensis_CBS112793,SRR8504027.5177568,88.46,78,9,0,1317,1394,78,1,6e-17,95.3
Cladophialophora_australiensis_CBS112793,SRR8504027.2823310,87.50,80,9,1,1179,1258,94,16,7e-16,91.6
Cladophialophora_australiensis_CBS112793,SRR8504027.2823310,85.06,87,13,0,1154,1240,113,199,3e-15,89.8
Cladophialophora_australiensis_CBS112793,SRR8504027.4922163,85.71,84,12,0,1317,1400,185,102,3e-15,89.8
Cladophialophora_australiensis_CBS112793,SRR8504027.1455248,90.91,66,6,0,812,877,67,2,3e-15,89.8
Cladophialophora_australiensis_CBS112793,SRR8504027.8003596,96.23,53,2,0,1335,1387,53,1,1e-14,87.9
Cladophialophora_australiensis_CBS112793,SRR8504027.6194057,88.73,71,6,2,1320,1389,70,1,3e-14,86.1
Cladophialophora_australiensis_CBS112793,SRR8504027.8899262,90.48,63,6,0,1319,1381,39,101,1e-13,84.2
Cladophialophora_australiensis_CBS112793,SRR8504027.1764399,86.49,74,10,0,1317,1390,28,101,4e-13,82.4
Cladophialophora_australiensis_CBS112793,SRR8504027.7594206,88.06,67,8,0,1317,1383,171,105,2e-12,80.5
Cladophialophora_australiensis_CBS112793,SRR8504027.7594206,93.18,44,3,0,1180,1223,1,44,4e-08,65.8
Cladophialophora_australiensis_CBS112793,SRR8504027.7137067,94.12,51,3,0,1317,1367,152,102,6e-12,78.7
Cladophialophora_australiensis_CBS112793,SRR8504027.7137067,95.74,47,2,0,1177,1223,32,78,2e-11,76.8
Cladophialophora_australiensis_CBS112793,SRR8504027.4417361,95.74,47,2,0,1177,1223,175,129,2e-11,76.8
Cladophialophora_australiensis_CBS112793,SRR8504027.4417361,100.00,35,0,0,1177,1211,67,101,4e-08,65.8
Cladophialophora_australiensis_CBS112793,SRR8504027.4293559,89.83,59,6,0,551,609,59,1,2e-11,76.8
Cladophialophora_australiensis_CBS112793,SRR8504027.3294825,90.00,60,4,2,1165,1223,76,18,2e-11,76.8
Cladophialophora_australiensis_CBS112793,SRR8504027.1403903,90.00,60,4,2,1165,1223,181,123,2e-11,76.8
Cladophialophora_australiensis_CBS112793,SRR8504027.1385583,90.00,60,4,2,1165,1223,181,123,2e-11,76.8
Cladophialophora_australiensis_CBS112793,SRR8504027.1383407,90.00,60,4,2,1165,1223,181,123,2e-11,76.8
Cladophialophora_australiensis_CBS112793,SRR8504027.443556,90.00,60,4,2,1165,1223,62,4,2e-11,76.8
Cladophialophora_australiensis_CBS112793,SRR8504027.443556,94.00,50,1,2,1165,1213,154,202,7e-11,75.0
Cladophialophora_australiensis_CBS112793,SRR8504027.10916633,93.62,47,3,0,1177,1223,197,151,1e-09,71.3
Cladophialophora_australiensis_CBS112793,SRR8504027.10916633,93.62,47,1,2,1165,1210,57,102,3e-09,69.4
Cladophialophora_australiensis_CBS112793,SRR8504027.3121711,97.56,41,1,0,1335,1375,135,175,1e-09,71.3
Cladophialophora_australiensis_CBS112793,SRR8504027.8571982,82.72,81,11,3,1179,1257,1,80,3e-09,69.4
Cladophialophora_australiensis_CBS112793,SRR8504027.4926060,93.48,46,2,1,1179,1223,150,105,1e-08,67.6
Cladophialophora_australiensis_CBS112793,SRR8504027.4803030,92.00,50,1,3,1165,1213,146,99,1e-08,67.6
Cladophialophora_australiensis_CBS112793,SRR8504027.3288000,100.00,36,0,0,1177,1212,51,16,1e-08,67.6
Cladophialophora_australiensis_CBS112793,SRR8504027.2200360,93.33,45,3,0,1179,1223,46,2,1e-08,67.6
Cladophialophora_australiensis_CBS112793,SRR8504027.1585795,85.48,62,9,0,812,873,62,1,4e-08,65.8
Cladophialophora_australiensis_CBS112793,SRR8504027.5800129,90.00,50,3,2,1320,1368,154,106,2e-07,63.9
Cladophialophora_australiensis_CBS112793,SRR8504027.5800129,100.00,32,0,0,1180,1211,11,42,2e-06,60.2
Cladophialophora_australiensis_CBS112793,SRR8504027.3574293,100.00,33,0,0,1439,1471,196,164,6e-07,62.1
Cladophialophora_australiensis_CBS112793,SRR8504027.2159273,100.00,32,0,0,1180,1211,94,63,2e-06,60.2
Cladophialophora_australiensis_CBS112793,SRR8504027.1134436,100.00,32,0,0,1180,1211,132,163,2e-06,60.2
Cladophialophora_australiensis_CBS112793,SRR8504027.10964356,100.00,29,0,0,1178,1206,73,45,1e-04,54.7
Cladophialophora_australiensis_CBS112793,SRR8504027.10597805,100.00,29,0,0,1443,1471,102,130,1e-04,54.7
Cladophialophora_australiensis_CBS112793,SRR8504027.7036957,100.00,29,0,0,1179,1207,163,191,1e-04,54.7
Cladophialophora_australiensis_CBS112793,SRR8504027.1655699,100.00,28,0,0,1444,1471,101,128,4e-04,52.8
Cladophialophora_potulentorum_CBS112222,SRR8504027.2549350,97.00,100,3,0,1376,1475,102,201,3e-39,169
Cladophialophora_potulentorum_CBS112222,SRR8504027.734015,93.33,105,7,0,1388,1492,1,105,3e-35,156
Cladophialophora_potulentorum_CBS112222,SRR8504027.734015,95.83,72,3,0,1417,1488,202,131,1e-23,117
Cladophialophora_potulentorum_CBS112222,SRR8504027.725336,93.33,105,7,0,1388,1492,1,105,3e-35,156
Cladophialophora_potulentorum_CBS112222,SRR8504027.725336,95.83,72,3,0,1417,1488,202,131,1e-23,117
Cladophialophora_potulentorum_CBS112222,SRR8504027.8280611,93.14,102,7,0,1374,1475,102,1,1e-33,150
Cladophialophora_potulentorum_CBS112222,SRR8504027.8280611,91.03,78,7,0,1321,1398,125,202,3e-20,106
Cladophialophora_potulentorum_CBS112222,SRR8504027.5668572,93.88,98,6,0,1373,1470,199,102,4e-33,148
Cladophialophora_potulentorum_CBS112222,SRR8504027.796861,93.07,101,7,0,1320,1420,101,1,4e-33,148
Cladophialophora_potulentorum_CBS112222,SRR8504027.9605535,93.81,97,6,0,1337,1433,199,103,2e-32,147
Cladophialophora_potulentorum_CBS112222,SRR8504027.9605535,90.00,60,5,1,1321,1379,45,104,2e-11,76.8
Cladophialophora_potulentorum_CBS112222,SRR8504027.3999986,93.81,97,6,0,1337,1433,199,103,2e-32,147
Cladophialophora_potulentorum_CBS112222,SRR8504027.3999986,90.00,60,5,1,1321,1379,45,104,2e-11,76.8
Cladophialophora_potulentorum_CBS112222,SRR8504027.1226046,92.16,102,8,0,1366,1467,101,202,6e-32,145
Cladophialophora_potulentorum_CBS112222,SRR8504027.7399479,95.56,90,2,1,540,627,6,95,2e-31,143
Cladophialophora_potulentorum_CBS112222,SRR8504027.6981666,92.86,98,7,0,1391,1488,202,105,2e-31,143
Cladophialophora_potulentorum_CBS112222,SRR8504027.6009741,92.08,101,8,0,1363,1463,102,202,2e-31,143
Cladophialophora_potulentorum_CBS112222,SRR8504027.5832023,92.08,101,8,0,1375,1475,101,201,2e-31,143
Cladophialophora_potulentorum_CBS112222,SRR8504027.5832023,96.43,56,2,0,1433,1488,101,46,2e-16,93.5
Cladophialophora_potulentorum_CBS112222,SRR8504027.2946921,94.57,92,5,0,1397,1488,102,193,2e-31,143
Cladophialophora_potulentorum_CBS112222,SRR8504027.798394,92.08,101,8,0,1320,1420,101,1,2e-31,143
Cladophialophora_potulentorum_CBS112222,SRR8504027.134751,92.86,98,7,0,1378,1475,102,199,2e-31,143
Cladophialophora_potulentorum_CBS112222,SRR8504027.1911300,92.78,97,7,0,1340,1436,198,102,7e-31,141
Cladophialophora_potulentorum_CBS112222,SRR8504027.1911300,87.30,63,8,0,1319,1381,39,101,3e-10,73.1
Cladophialophora_potulentorum_CBS112222,SRR8504027.2789260,91.18,102,9,0,1367,1468,202,101,3e-30,139
Cladophialophora_potulentorum_CBS112222,SRR8504027.7012905,91.09,101,9,0,1383,1483,101,1,1e-29,137
Cladophialophora_potulentorum_CBS112222,SRR8504027.7012905,87.50,96,12,0,1342,1437,103,198,6e-22,111
Cladophialophora_potulentorum_CBS112222,SRR8504027.8376308,96.30,81,3,0,1319,1399,122,202,1e-28,134
Cladophialophora_potulentorum_CBS112222,SRR8504027.8376308,94.44,72,4,0,1417,1488,101,30,6e-22,111
Cladophialophora_potulentorum_CBS112222,SRR8504027.3195783,95.24,84,4,0,1342,1425,183,100,1e-28,134
Cladophialophora_potulentorum_CBS112222,SRR8504027.3195783,86.79,53,7,0,1317,1369,49,101,2e-06,60.2
Cladophialophora_potulentorum_CBS112222,SRR8504027.9912192,90.82,98,8,1,1311,1407,100,3,2e-27,130
Cladophialophora_potulentorum_CBS112222,SRR8504027.8396945,88.57,105,11,1,1383,1487,1,104,2e-26,126
Cladophialophora_potulentorum_CBS112222,SRR8504027.8396945,97.62,42,1,0,1447,1488,202,161,3e-10,73.1
Cladophialophora_potulentorum_CBS112222,SRR8504027.6317675,89.11,101,11,0,1373,1473,1,101,2e-26,126
Cladophialophora_potulentorum_CBS112222,SRR8504027.6317675,93.15,73,5,0,1416,1488,196,124,7e-21,108
Cladophialophora_potulentorum_CBS112222,SRR8504027.11234974,89.47,95,10,0,1387,1481,7,101,1e-24,121
Cladophialophora_potulentorum_CBS112222,SRR8504027.5861335,88.78,98,11,0,1340,1437,199,102,1e-24,121
Cladophialophora_potulentorum_CBS112222,SRR8504027.5861335,87.30,63,8,0,1319,1381,39,101,3e-10,73.1
Cladophialophora_potulentorum_CBS112222,SRR8504027.5834200,95.89,73,3,0,1416,1488,101,173,3e-24,119
Cladophialophora_potulentorum_CBS112222,SRR8504027.6880912,95.83,72,3,0,1417,1488,102,173,1e-23,117
Cladophialophora_potulentorum_CBS112222,SRR8504027.6100935,87.25,102,13,0,1337,1438,202,101,1e-23,117
Cladophialophora_potulentorum_CBS112222,SRR8504027.5246150,87.13,101,13,0,1330,1430,1,101,4e-23,115
Cladophialophora_potulentorum_CBS112222,SRR8504027.5246150,86.14,101,14,0,1383,1483,202,102,2e-21,110
Cladophialophora_potulentorum_CBS112222,SRR8504027.561172,86.14,101,14,0,1320,1420,101,1,2e-21,110
Cladophialophora_potulentorum_CBS112222,SRR8504027.5995268,88.89,81,9,0,1319,1399,178,98,1e-18,100
Cladophialophora_potulentorum_CBS112222,SRR8504027.5995268,100.00,34,0,0,1181,1214,1,34,2e-07,63.9
Cladophialophora_potulentorum_CBS112222,SRR8504027.11258367,83.81,105,13,1,217,321,202,102,2e-17,97.1
Cladophialophora_potulentorum_CBS112222,SRR8504027.2823310,88.75,80,8,1,1181,1260,94,16,2e-17,97.1
Cladophialophora_potulentorum_CBS112222,SRR8504027.2823310,85.06,87,13,0,1156,1242,113,199,3e-15,89.8
Cladophialophora_potulentorum_CBS112222,SRR8504027.5987974,87.65,81,10,0,1319,1399,178,98,6e-17,95.3
Cladophialophora_potulentorum_CBS112222,SRR8504027.5987974,100.00,34,0,0,1181,1214,1,34,2e-07,63.9
Cladophialophora_potulentorum_CBS112222,SRR8504027.5177568,88.46,78,9,0,1319,1396,78,1,6e-17,95.3
Cladophialophora_potulentorum_CBS112222,SRR8504027.4922163,85.71,84,12,0,1319,1402,185,102,3e-15,89.8
Cladophialophora_potulentorum_CBS112222,SRR8504027.1455248,90.91,66,6,0,814,879,67,2,3e-15,89.8
Cladophialophora_potulentorum_CBS112222,SRR8504027.8003596,96.23,53,2,0,1337,1389,53,1,1e-14,87.9
Cladophialophora_potulentorum_CBS112222,SRR8504027.6194057,88.73,71,6,2,1322,1391,70,1,4e-14,86.1
Cladophialophora_potulentorum_CBS112222,SRR8504027.8899262,90.48,63,6,0,1321,1383,39,101,1e-13,84.2
Cladophialophora_potulentorum_CBS112222,SRR8504027.3574293,97.92,48,1,0,1441,1488,196,149,1e-13,84.2
Cladophialophora_potulentorum_CBS112222,SRR8504027.1764399,86.49,74,10,0,1319,1392,28,101,5e-13,82.4
Cladophialophora_potulentorum_CBS112222,SRR8504027.7594206,88.06,67,8,0,1319,1385,171,105,2e-12,80.5
Cladophialophora_potulentorum_CBS112222,SRR8504027.7594206,100.00,33,0,0,1182,1214,1,33,6e-07,62.1
Cladophialophora_potulentorum_CBS112222,SRR8504027.7137067,94.12,51,3,0,1319,1369,152,102,6e-12,78.7
Cladophialophora_potulentorum_CBS112222,SRR8504027.7137067,93.62,47,3,0,1179,1225,32,78,1e-09,71.3
Cladophialophora_potulentorum_CBS112222,SRR8504027.10597805,97.73,44,1,0,1445,1488,102,145,2e-11,76.8
Cladophialophora_potulentorum_CBS112222,SRR8504027.4293559,89.83,59,6,0,553,611,59,1,2e-11,76.8
Cladophialophora_potulentorum_CBS112222,SRR8504027.1655699,97.67,43,1,0,1446,1488,101,143,8e-11,75.0
Cladophialophora_potulentorum_CBS112222,SRR8504027.4417361,93.62,47,3,0,1179,1225,175,129,1e-09,71.3
Cladophialophora_potulentorum_CBS112222,SRR8504027.4417361,100.00,35,0,0,1179,1213,67,101,5e-08,65.8
Cladophialophora_potulentorum_CBS112222,SRR8504027.3121711,97.56,41,1,0,1337,1377,135,175,1e-09,71.3
Cladophialophora_potulentorum_CBS112222,SRR8504027.2589340,97.56,41,1,0,1448,1488,1,41,1e-09,71.3
Cladophialophora_potulentorum_CBS112222,SRR8504027.3288000,95.35,43,2,0,1179,1221,51,9,4e-09,69.4
Cladophialophora_potulentorum_CBS112222,SRR8504027.443556,100.00,37,0,0,1179,1215,166,202,4e-09,69.4
Cladophialophora_potulentorum_CBS112222,SRR8504027.443556,100.00,36,0,0,1179,1214,50,15,1e-08,67.6
Cladophialophora_potulentorum_CBS112222,SRR8504027.10916633,100.00,36,0,0,1179,1214,197,162,1e-08,67.6
Cladophialophora_potulentorum_CBS112222,SRR8504027.10916633,100.00,34,0,0,1179,1212,69,102,2e-07,63.9
Cladophialophora_potulentorum_CBS112222,SRR8504027.3294825,100.00,36,0,0,1179,1214,64,29,1e-08,67.6
Cladophialophora_potulentorum_CBS112222,SRR8504027.1403903,100.00,36,0,0,1179,1214,169,134,1e-08,67.6
Cladophialophora_potulentorum_CBS112222,SRR8504027.1385583,100.00,36,0,0,1179,1214,169,134,1e-08,67.6
Cladophialophora_potulentorum_CBS112222,SRR8504027.1383407,100.00,36,0,0,1179,1214,169,134,1e-08,67.6
Cladophialophora_potulentorum_CBS112222,SRR8504027.1585795,85.48,62,9,0,814,875,62,1,5e-08,65.8
Cladophialophora_potulentorum_CBS112222,SRR8504027.8571982,81.48,81,12,3,1181,1259,1,80,2e-07,63.9
Cladophialophora_potulentorum_CBS112222,SRR8504027.5800129,93.02,43,3,0,1182,1224,11,53,2e-07,63.9
Cladophialophora_potulentorum_CBS112222,SRR8504027.5800129,90.00,50,3,2,1322,1370,154,106,2e-07,63.9
Cladophialophora_potulentorum_CBS112222,SRR8504027.2200360,100.00,34,0,0,1181,1214,46,13,2e-07,63.9
Cladophialophora_potulentorum_CBS112222,SRR8504027.2159273,93.02,43,3,0,1182,1224,94,52,2e-07,63.9
Cladophialophora_potulentorum_CBS112222,SRR8504027.1134436,93.02,43,3,0,1182,1224,132,174,2e-07,63.9
Cladophialophora_potulentorum_CBS112222,SRR8504027.4926060,91.30,46,3,1,1181,1225,150,105,6e-07,62.1
Cladophialophora_potulentorum_CBS112222,SRR8504027.4803030,97.30,37,0,1,1179,1215,134,99,6e-07,62.1
Cladophialophora_potulentorum_CBS112222,SRR8504027.10964356,100.00,29,0,0,1180,1208,73,45,1e-04,54.7
Cladophialophora_potulentorum_CBS112222,SRR8504027.7036957,100.00,29,0,0,1181,1209,163,191,1e-04,54.7
Cladophialophora_matsushimae_CMRP1198,SRR8504027.11258367,83.81,105,13,1,221,325,202,102,5e-18,97.1
Cladophialophora_mycetomatis_CBS122637,SRR8504027.11258367,83.81,105,13,1,206,310,202,102,6e-18,97.1
Cladophialophora_chaetospira_CBS127573,SRR8504027.11258367,83.33,102,13,1,615,716,199,102,5e-16,91.6
Cladophialophora_chaetospira_CBS127573,SRR8504027.4340544,100.00,33,0,0,379,411,145,113,4e-07,62.1
Cladophialophora_chaetospira_CBS127573,SRR8504027.523593,97.14,35,1,0,379,413,53,87,1e-06,60.2
Cladophialophora_chaetospira_CBS127573,SRR8504027.4837677,100.00,31,0,0,379,409,42,72,5e-06,58.4
Cladophialophora_chaetospira_CBS127573,SRR8504027.1735682,100.00,31,0,0,379,409,110,140,5e-06,58.4
Cladophialophora_chaetospira_CBS127573,SRR8504027.998545,100.00,31,0,0,379,409,167,197,5e-06,58.4
Cladophialophora_chaetospira_CBS127573,SRR8504027.998545,94.44,36,1,1,381,416,101,67,6e-05,54.7
Cladophialophora_chaetospira_CBS127573,SRR8504027.988099,100.00,31,0,0,379,409,152,182,5e-06,58.4
Cladophialophora_chaetospira_CBS127573,SRR8504027.9821298,100.00,30,0,0,379,408,46,75,2e-05,56.5
Cladophialophora_chaetospira_CBS127573,SRR8504027.9400406,100.00,30,0,0,379,408,70,41,2e-05,56.5
Cladophialophora_chaetospira_CBS127573,SRR8504027.8120143,100.00,30,0,0,379,408,167,138,2e-05,56.5
Cladophialophora_chaetospira_CBS127573,SRR8504027.7272007,100.00,30,0,0,379,408,65,36,2e-05,56.5
Cladophialophora_chaetospira_CBS127573,SRR8504027.3720448,100.00,30,0,0,379,408,136,107,2e-05,56.5
Cladophialophora_chaetospira_CBS127573,SRR8504027.2118435,100.00,30,0,0,379,408,110,139,2e-05,56.5
Cladophialophora_chaetospira_CBS127573,SRR8504027.1553761,100.00,30,0,0,379,408,165,136,2e-05,56.5
Cladophialophora_chaetospira_CBS127573,SRR8504027.1377648,100.00,30,0,0,379,408,144,115,2e-05,56.5
Cladophialophora_chaetospira_CBS127573,SRR8504027.952990,100.00,30,0,0,379,408,147,176,2e-05,56.5
Cladophialophora_chaetospira_CBS127573,SRR8504027.162164,100.00,30,0,0,379,408,162,191,2e-05,56.5
Cladophialophora_chaetospira_CBS127573,SRR8504027.5550145,100.00,29,0,0,379,407,37,65,6e-05,54.7
Cladophialophora_boppii_CBS126.86_T,SRR8504027.11258367,83.81,105,13,1,214,318,202,102,6e-18,97.1
Cladophialophora_abundans_CBS126736,SRR8504027.11258367,83.81,105,13,1,151,255,202,102,5e-18,97.1
Capronia_semi-immersa_CBS102234,SRR8504027.11258367,83.81,105,13,1,213,317,202,102,6e-18,97.1
Phialophora_americana_CBS400.67,SRR8504027.796861,93.07,101,7,0,1312,1412,101,1,4e-33,148
Phialophora_americana_CBS400.67,SRR8504027.9605535,93.81,97,6,0,1329,1425,199,103,2e-32,147
Phialophora_americana_CBS400.67,SRR8504027.9605535,90.00,60,5,1,1313,1371,45,104,2e-11,76.8
Phialophora_americana_CBS400.67,SRR8504027.3999986,93.81,97,6,0,1329,1425,199,103,2e-32,147
Phialophora_americana_CBS400.67,SRR8504027.3999986,90.00,60,5,1,1313,1371,45,104,2e-11,76.8
Phialophora_americana_CBS400.67,SRR8504027.798394,92.08,101,8,0,1312,1412,101,1,2e-31,143
Phialophora_americana_CBS400.67,SRR8504027.1911300,92.78,97,7,0,1332,1428,198,102,7e-31,141
Phialophora_americana_CBS400.67,SRR8504027.1911300,87.30,63,8,0,1311,1373,39,101,3e-10,73.1
Phialophora_americana_CBS400.67,SRR8504027.8376308,96.30,81,3,0,1311,1391,122,202,1e-28,134
Phialophora_americana_CBS400.67,SRR8504027.3195783,95.24,84,4,0,1334,1417,183,100,1e-28,134
Phialophora_americana_CBS400.67,SRR8504027.3195783,84.91,53,8,0,1309,1361,49,101,1e-04,54.7
Phialophora_americana_CBS400.67,SRR8504027.9912192,90.82,98,8,1,1303,1399,100,3,2e-27,130
Phialophora_americana_CBS400.67,SRR8504027.2549350,96.15,78,3,0,1368,1445,102,179,6e-27,128
Phialophora_americana_CBS400.67,SRR8504027.6009741,91.21,91,8,0,1355,1445,102,192,7e-26,124
Phialophora_americana_CBS400.67,SRR8504027.5861335,88.78,98,11,0,1332,1429,199,102,9e-25,121
Phialophora_americana_CBS400.67,SRR8504027.5861335,87.30,63,8,0,1311,1373,39,101,3e-10,73.1
Phialophora_americana_CBS400.67,SRR8504027.6100935,87.25,102,13,0,1329,1430,202,101,1e-23,117
Phialophora_americana_CBS400.67,SRR8504027.7012905,87.50,96,12,0,1334,1429,103,198,6e-22,111
Phialophora_americana_CBS400.67,SRR8504027.5246150,86.14,101,14,0,1322,1422,1,101,2e-21,110
Phialophora_americana_CBS400.67,SRR8504027.561172,86.14,101,14,0,1312,1412,101,1,2e-21,110
Phialophora_americana_CBS400.67,SRR8504027.5726776,89.53,86,8,1,878,963,202,118,7e-21,108
Phialophora_americana_CBS400.67,SRR8504027.8280611,91.03,78,7,0,1313,1390,125,202,3e-20,106
Phialophora_americana_CBS400.67,SRR8504027.2823310,90.00,80,7,1,1173,1252,94,16,3e-19,102
Phialophora_americana_CBS400.67,SRR8504027.2823310,87.36,87,11,0,1148,1234,113,199,1e-18,100
Phialophora_americana_CBS400.67,SRR8504027.5995268,88.89,81,9,0,1311,1391,178,98,1e-18,100
Phialophora_americana_CBS400.67,SRR8504027.5995268,93.33,45,3,0,1173,1217,1,45,1e-08,67.6
Phialophora_americana_CBS400.67,SRR8504027.11258367,83.81,105,13,1,215,319,202,102,2e-17,97.1
Phialophora_americana_CBS400.67,SRR8504027.5987974,87.65,81,10,0,1311,1391,178,98,6e-17,95.3
Phialophora_americana_CBS400.67,SRR8504027.5987974,93.33,45,3,0,1173,1217,1,45,1e-08,67.6
Phialophora_americana_CBS400.67,SRR8504027.5177568,88.46,78,9,0,1311,1388,78,1,6e-17,95.3
Phialophora_americana_CBS400.67,SRR8504027.4922163,85.71,84,12,0,1311,1394,185,102,3e-15,89.8
Phialophora_americana_CBS400.67,SRR8504027.1455248,90.91,66,6,0,806,871,67,2,3e-15,89.8
Phialophora_americana_CBS400.67,SRR8504027.8003596,96.23,53,2,0,1329,1381,53,1,9e-15,87.9
Phialophora_americana_CBS400.67,SRR8504027.8899262,90.48,63,6,0,1313,1375,39,101,1e-13,84.2
Phialophora_americana_CBS400.67,SRR8504027.6194057,94.44,54,3,0,1330,1383,54,1,1e-13,84.2
Phialophora_americana_CBS400.67,SRR8504027.1764399,86.49,74,10,0,1311,1384,28,101,4e-13,82.4
Phialophora_americana_CBS400.67,SRR8504027.7594206,88.06,67,8,0,1311,1377,171,105,2e-12,80.5
Phialophora_americana_CBS400.67,SRR8504027.7594206,93.18,44,3,0,1174,1217,1,44,4e-08,65.8
Phialophora_americana_CBS400.67,SRR8504027.7137067,94.12,51,3,0,1311,1361,152,102,6e-12,78.7
Phialophora_americana_CBS400.67,SRR8504027.7137067,95.74,47,2,0,1171,1217,32,78,2e-11,76.8
Phialophora_americana_CBS400.67,SRR8504027.4417361,95.74,47,2,0,1171,1217,175,129,2e-11,76.8
Phialophora_americana_CBS400.67,SRR8504027.4417361,100.00,35,0,0,1171,1205,67,101,4e-08,65.8
Phialophora_americana_CBS400.67,SRR8504027.3294825,90.00,60,4,2,1159,1217,76,18,2e-11,76.8
Phialophora_americana_CBS400.67,SRR8504027.1403903,90.00,60,4,2,1159,1217,181,123,2e-11,76.8
Phialophora_americana_CBS400.67,SRR8504027.1385583,90.00,60,4,2,1159,1217,181,123,2e-11,76.8
Phialophora_americana_CBS400.67,SRR8504027.1383407,90.00,60,4,2,1159,1217,181,123,2e-11,76.8
Phialophora_americana_CBS400.67,SRR8504027.443556,90.00,60,4,2,1159,1217,62,4,2e-11,76.8
Phialophora_americana_CBS400.67,SRR8504027.443556,93.88,49,1,2,1159,1206,154,201,3e-10,73.1
Phialophora_americana_CBS400.67,SRR8504027.3288000,97.67,43,1,0,1171,1213,51,9,7e-11,75.0
Phialophora_americana_CBS400.67,SRR8504027.10916633,92.16,51,2,2,1159,1208,57,106,9e-10,71.3
Phialophora_americana_CBS400.67,SRR8504027.10916633,93.62,47,3,0,1171,1217,197,151,9e-10,71.3
Phialophora_americana_CBS400.67,SRR8504027.3121711,97.56,41,1,0,1329,1369,135,175,9e-10,71.3
Phialophora_americana_CBS400.67,SRR8504027.8571982,82.72,81,11,3,1173,1251,1,80,3e-09,69.4
Phialophora_americana_CBS400.67,SRR8504027.5800129,95.35,43,2,0,1174,1216,11,53,3e-09,69.4
Phialophora_americana_CBS400.67,SRR8504027.5800129,100.00,31,0,0,1332,1362,136,106,7e-06,58.4
Phialophora_americana_CBS400.67,SRR8504027.2159273,95.35,43,2,0,1174,1216,94,52,3e-09,69.4
Phialophora_americana_CBS400.67,SRR8504027.1134436,95.35,43,2,0,1174,1216,132,174,3e-09,69.4
Phialophora_americana_CBS400.67,SRR8504027.4926060,93.48,46,2,1,1173,1217,150,105,1e-08,67.6
Phialophora_americana_CBS400.67,SRR8504027.4803030,93.48,46,1,2,1159,1203,146,102,1e-08,67.6
Phialophora_americana_CBS400.67,SRR8504027.2200360,93.33,45,3,0,1173,1217,46,2,1e-08,67.6
Phialophora_americana_CBS400.67,SRR8504027.1585795,85.48,62,9,0,806,867,62,1,4e-08,65.8
Phialophora_americana_CBS400.67,SRR8504027.5740048,92.86,42,3,0,907,948,162,121,6e-07,62.1
Phialophora_americana_CBS400.67,SRR8504027.10964356,100.00,29,0,0,1172,1200,73,45,1e-04,54.7
Phialophora_americana_CBS400.67,SRR8504027.7036957,92.31,39,2,1,1173,1211,163,200,1e-04,54.7
Phialophora_verrucosa_CBS140325_T,SRR8504027.11258367,83.81,105,13,1,219,323,202,102,6e-18,97.1
Cladophialophora_samoensis_CBS259.83_T,SRR8504027.11258367,83.81,105,13,1,219,323,202,102,6e-18,97.1
Cladophialophora_carrionii_CBS260.83,SRR8504027.11258367,83.81,105,13,1,235,339,202,102,6e-18,97.1
Exophiala_palmae_UPCB86822_T,SRR8504027.11258367,83.81,105,13,1,178,282,202,102,5e-18,97.1
Cladophialophora_yegresii_CBS114405_T,SRR8504027.11258367,83.81,105,13,1,220,324,202,102,6e-18,97.1
Knufia_epidermidis_CBS120353_T,SRR8504027.11258367,83.81,105,13,1,218,322,202,102,6e-18,97.1
Arthrocladium_fulminans_CBS136243_T,SRR8504027.11258367,83.81,105,13,1,213,317,202,102,6e-18,97.1
Anthopsis_deltoidea_CBS263.77_T,SRR8504027.11258367,85.57,97,12,1,222,318,202,108,4e-19,100
Cyphellophora_laciniata_CBS190.61_T,SRR8504027.7399479,96.67,90,2,1,626,714,6,95,2e-33,148
Cyphellophora_laciniata_CBS190.61_T,SRR8504027.523593,94.74,76,4,0,29,104,12,87,2e-24,119
Cyphellophora_laciniata_CBS190.61_T,SRR8504027.998545,100.00,60,0,0,41,100,138,197,3e-22,111
Cyphellophora_laciniata_CBS190.61_T,SRR8504027.998545,94.44,36,1,1,72,107,101,67,5e-05,54.7
Cyphellophora_laciniata_CBS190.61_T,SRR8504027.988099,90.24,82,8,0,21,102,103,184,4e-21,108
Cyphellophora_laciniata_CBS190.61_T,SRR8504027.11258367,85.44,103,13,1,307,409,202,102,1e-20,106
Cyphellophora_laciniata_CBS190.61_T,SRR8504027.4340544,96.83,63,2,0,38,100,177,115,1e-20,106
Cyphellophora_laciniata_CBS190.61_T,SRR8504027.7272007,95.16,62,3,0,38,99,97,36,2e-18,99.0
Cyphellophora_laciniata_CBS190.61_T,SRR8504027.7272007,93.33,45,3,0,38,82,158,202,6e-09,67.6
Cyphellophora_laciniata_CBS190.61_T,SRR8504027.4837677,93.85,65,4,0,38,102,10,74,2e-18,99.0
Cyphellophora_laciniata_CBS190.61_T,SRR8504027.3720448,95.16,62,3,0,38,99,168,107,2e-18,99.0
Cyphellophora_laciniata_CBS190.61_T,SRR8504027.1377648,95.16,62,3,0,38,99,176,115,2e-18,99.0
Cyphellophora_laciniata_CBS190.61_T,SRR8504027.1377648,93.33,45,3,0,38,82,59,103,6e-09,67.6
Cyphellophora_laciniata_CBS190.61_T,SRR8504027.952990,95.16,62,3,0,38,99,115,176,2e-18,99.0
Cyphellophora_laciniata_CBS190.61_T,SRR8504027.162164,95.16,62,3,0,38,99,130,191,2e-18,99.0
Cyphellophora_laciniata_CBS190.61_T,SRR8504027.9400406,96.55,58,2,0,42,99,98,41,8e-18,97.1
Cyphellophora_laciniata_CBS190.61_T,SRR8504027.8120143,96.55,58,2,0,42,99,195,138,8e-18,97.1
Cyphellophora_laciniata_CBS190.61_T,SRR8504027.5550145,95.08,61,3,0,38,98,5,65,8e-18,97.1
Cyphellophora_laciniata_CBS190.61_T,SRR8504027.9821298,96.49,57,2,0,43,99,19,75,3e-17,95.3
Cyphellophora_laciniata_CBS190.61_T,SRR8504027.1553761,96.49,57,2,0,43,99,192,136,3e-17,95.3
Cyphellophora_laciniata_CBS190.61_T,SRR8504027.1553761,95.83,48,2,0,43,90,54,101,3e-12,78.7
Cyphellophora_laciniata_CBS190.61_T,SRR8504027.2288146,89.04,73,8,0,21,93,73,1,4e-16,91.6
Cyphellophora_laciniata_CBS190.61_T,SRR8504027.1569968,94.83,58,3,0,38,95,58,1,4e-16,91.6
Cyphellophora_laciniata_CBS190.61_T,SRR8504027.1569968,94.23,52,3,0,38,89,151,202,8e-13,80.5
Cyphellophora_laciniata_CBS190.61_T,SRR8504027.1145521,94.64,56,3,0,38,93,56,1,5e-15,87.9
Cyphellophora_laciniata_CBS190.61_T,SRR8504027.4293559,91.53,59,5,0,640,698,59,1,2e-13,82.4
Cyphellophora_laciniata_CBS190.61_T,SRR8504027.3591625,95.83,48,2,0,38,85,149,102,3e-12,78.7
Cyphellophora_laciniata_CBS190.61_T,SRR8504027.1735682,100.00,41,0,0,62,102,102,142,1e-11,76.8
Cyphellophora_laciniata_CBS190.61_T,SRR8504027.5788693,93.88,49,3,0,29,77,49,1,4e-11,75.0
Cyphellophora_laciniata_CBS190.61_T,SRR8504027.805369,87.50,64,8,0,21,84,165,102,4e-11,75.0
Cyphellophora_laciniata_CBS190.61_T,SRR8504027.2944114,95.56,45,2,0,38,82,45,1,1e-10,73.1
Cyphellophora_laciniata_CBS190.61_T,SRR8504027.2118435,100.00,38,0,0,62,99,102,139,5e-10,71.3
Cyphellophora_suttonii_CBS449.91,SRR8504027.11258367,85.44,103,13,1,210,312,202,102,1e-20,106
Cyphellophora_pauciseptata_CBS284.85_T,SRR8504027.11258367,85.44,103,13,1,221,323,202,102,1e-20,106
Cyphellophora_pluriseptata_CBS286.85_T,SRR8504027.11258367,86.41,103,12,1,226,328,202,102,2e-22,111
Phialophora_europaea_CBS101466,SRR8504027.11258367,85.44,103,13,1,216,318,202,102,9e-21,106
Phialophora_ambigua_CBS235.93,SRR8504027.11258367,85.44,103,13,1,213,315,202,102,1e-20,106
Cladophialophora_modesta_CBS985.96_T,SRR8504027.7399479,96.51,86,3,0,519,604,16,101,8e-32,143
Cladophialophora_modesta_CBS985.96_T,SRR8504027.11258367,83.81,105,13,1,210,314,202,102,7e-18,97.1
Cladophialophora_modesta_CBS985.96_T,SRR8504027.4293559,89.83,59,6,0,524,582,59,1,9e-12,76.8
Cyphellophora_fusarioides_MUCL44033_T,SRR8504027.11258367,85.57,97,12,1,209,305,202,108,4e-19,100
