Exophiala_polymorpha_CBS138920_T,SRR9856992.204759,100.00,28,0,0,667,694,337,310,1e-05,52.8
Exophiala_polymorpha_CBS138920_T,SRR9856992.91928,100.00,28,0,0,667,694,337,310,1e-05,52.8
Exophiala_jeanselmei_CBS507.90_T,SRR9856992.204759,100.00,36,0,0,569,604,337,302,3e-10,67.6
Exophiala_jeanselmei_CBS507.90_T,SRR9856992.91928,100.00,36,0,0,569,604,337,302,3e-10,67.6
Exophiala_pisciphila_CBS537.73_T,SRR9856992.204759,100.00,36,0,0,578,613,337,302,4e-10,67.6
Exophiala_pisciphila_CBS537.73_T,SRR9856992.91928,100.00,36,0,0,578,613,337,302,4e-10,67.6
Exophiala_mesophila_CBS402.95_T,SRR9856992.204759,100.00,36,0,0,575,610,337,302,4e-10,67.6
Exophiala_mesophila_CBS402.95_T,SRR9856992.91928,100.00,36,0,0,575,610,337,302,4e-10,67.6
Exophiala_castellanii_CBS158.58_T,SRR9856992.204759,100.00,36,0,0,574,609,337,302,4e-10,67.6
Exophiala_castellanii_CBS158.58_T,SRR9856992.91928,100.00,36,0,0,574,609,337,302,4e-10,67.6
Exophiala_dermatitidis_CBS748.88,SRR9856992.204759,100.00,36,0,0,600,635,337,302,9e-10,67.6
Exophiala_dermatitidis_CBS748.88,SRR9856992.91928,100.00,36,0,0,600,635,337,302,9e-10,67.6
Exophiala_salmonis_CBS157.67_T,SRR9856992.204759,100.00,36,0,0,698,733,337,302,4e-10,67.6
Exophiala_salmonis_CBS157.67_T,SRR9856992.91928,100.00,36,0,0,698,733,337,302,4e-10,67.6
Exophiala_cancerae_CBS120420_T,SRR9856992.204759,100.00,36,0,0,589,624,337,302,3e-10,67.6
Exophiala_cancerae_CBS120420_T,SRR9856992.91928,100.00,36,0,0,589,624,337,302,3e-10,67.6
Rhinocladiella_aquaspersa_CBS313.73_T,SRR9856992.204759,100.00,36,0,0,570,605,337,302,4e-10,67.6
Rhinocladiella_aquaspersa_CBS313.73_T,SRR9856992.91928,100.00,36,0,0,570,605,337,302,4e-10,67.6
Capronia_dactylotricha_DAOM208471_T,SRR9856992.204759,100.00,36,0,0,583,618,337,302,4e-10,67.6
Capronia_dactylotricha_DAOM208471_T,SRR9856992.91928,100.00,36,0,0,583,618,337,302,4e-10,67.6
Capronia_kleinmondensis_CBS122671_T,SRR9856992.204759,100.00,36,0,0,589,624,337,302,4e-10,67.6
Capronia_kleinmondensis_CBS122671_T,SRR9856992.91928,100.00,36,0,0,589,624,337,302,4e-10,67.6
Capronia_mansonii_CBS101.67_T,SRR9856992.204759,100.00,36,0,0,593,628,337,302,4e-10,67.6
Capronia_mansonii_CBS101.67_T,SRR9856992.91928,100.00,36,0,0,593,628,337,302,4e-10,67.6
Capronia_munkii_DAOM216390_T,SRR9856992.204759,100.00,36,0,0,593,628,337,302,4e-10,67.6
Capronia_munkii_DAOM216390_T,SRR9856992.91928,100.00,36,0,0,593,628,337,302,4e-10,67.6
Capronia_coronata_ATCC56201_T,SRR9856992.204759,100.00,36,0,0,564,599,337,302,4e-10,67.6
Capronia_coronata_ATCC56201_T,SRR9856992.91928,100.00,36,0,0,564,599,337,302,4e-10,67.6
Capronia_acutiseta_ATCC56428_T,SRR9856992.204759,100.00,36,0,0,563,598,337,302,4e-10,67.6
Capronia_acutiseta_ATCC56428_T,SRR9856992.91928,100.00,36,0,0,563,598,337,302,4e-10,67.6
Fonsecaea_pedrosoi_CBS271.37_T,SRR9856992.204759,97.22,36,1,0,610,645,337,302,2e-08,62.1
Fonsecaea_pedrosoi_CBS271.37_T,SRR9856992.91928,97.22,36,1,0,610,645,337,302,2e-08,62.1
Cladophialophora_australiensis_CBS112793,SRR9856992.204759,97.22,36,1,0,571,606,337,302,4e-08,62.1
Cladophialophora_australiensis_CBS112793,SRR9856992.91928,97.22,36,1,0,571,606,337,302,4e-08,62.1
Cladophialophora_potulentorum_CBS112222,SRR9856992.204759,97.22,36,1,0,573,608,337,302,4e-08,62.1
Cladophialophora_potulentorum_CBS112222,SRR9856992.91928,97.22,36,1,0,573,608,337,302,4e-08,62.1
Cyphellophora_laciniata_CBS190.61_T,SRR9856992.204759,100.00,36,0,0,660,695,337,302,4e-10,67.6
Cyphellophora_laciniata_CBS190.61_T,SRR9856992.91928,100.00,36,0,0,660,695,337,302,4e-10,67.6
Cladophialophora_modesta_CBS985.96_T,SRR9856992.204759,100.00,39,0,0,541,579,340,302,7e-12,73.1
Cladophialophora_modesta_CBS985.96_T,SRR9856992.91928,100.00,36,0,0,544,579,337,302,3e-10,67.6
