Exophiala_nigra_CBS535.94_T,ERR3416594.66250,89.52,105,8,2,287,391,277,176,2e-29,130
Exophiala_nigra_CBS535.94_T,ERR3416594.66250,89.52,105,8,2,287,391,327,428,2e-29,130
Exophiala_spinifera_CBS899.68_T,ERR3416594.66250,89.66,116,7,3,280,395,280,170,2e-33,143
Exophiala_spinifera_CBS899.68_T,ERR3416594.66250,90.18,112,7,2,284,395,327,434,2e-33,143
Exophiala_exophialae_CBS668.76_T,ERR3416594.66250,89.66,116,7,3,281,396,280,170,2e-33,143
Exophiala_exophialae_CBS668.76_T,ERR3416594.66250,90.18,112,7,2,285,396,327,434,2e-33,143
Exophiala_polymorpha_CBS138920_T,ERR3416594.66250,89.66,116,7,3,383,498,280,170,3e-33,143
Exophiala_polymorpha_CBS138920_T,ERR3416594.66250,90.18,112,7,2,387,498,327,434,3e-33,143
Exophiala_polymorpha_CBS138920_T,ERR3416594.66250,98.15,54,1,0,641,694,62,9,8e-19,95.3
Exophiala_oligosperma_CBS725.88_T,ERR3416594.66250,90.74,108,7,2,293,400,280,176,8e-33,141
Exophiala_oligosperma_CBS725.88_T,ERR3416594.66250,91.35,104,7,1,297,400,327,428,8e-33,141
Exophiala_jeanselmei_CBS507.90_T,ERR3416594.66250,89.66,116,7,3,285,400,280,170,2e-33,143
Exophiala_jeanselmei_CBS507.90_T,ERR3416594.66250,90.18,112,7,2,289,400,327,434,2e-33,143
Exophiala_jeanselmei_CBS507.90_T,ERR3416594.66250,97.06,68,1,1,537,604,67,1,2e-24,113
Exophiala_bergeri_CBS353.52,ERR3416594.66250,89.52,105,8,1,250,354,277,176,1e-29,130
Exophiala_bergeri_CBS353.52,ERR3416594.66250,89.52,105,8,1,250,354,327,428,1e-29,130
Exophiala_moniliae_CBS520.76_T,ERR3416594.66250,93.18,88,6,0,287,374,277,190,2e-29,130
Exophiala_moniliae_CBS520.76_T,ERR3416594.66250,93.18,88,6,0,287,374,327,414,2e-29,130
Exophiala_pisciphila_CBS537.73_T,ERR3416594.66250,91.07,112,6,2,290,401,277,170,5e-35,148
Exophiala_pisciphila_CBS537.73_T,ERR3416594.66250,91.07,112,6,2,290,401,327,434,5e-35,148
Exophiala_pisciphila_CBS537.73_T,ERR3416594.66250,97.06,68,1,1,547,613,68,1,2e-24,113
Exophiala_pisciphila_CBS537.73_T,ERR3416594.66250,95.65,69,2,1,547,614,536,604,3e-23,110
Exophiala_xenobiotica_CBS117642,ERR3416594.66250,90.18,112,7,2,282,393,277,170,2e-33,143
Exophiala_xenobiotica_CBS117642,ERR3416594.66250,90.18,112,7,2,282,393,327,434,2e-33,143
Exophiala_brunnea_CBS,ERR3416594.66250,90.18,112,7,2,318,429,277,170,2e-33,143
Exophiala_brunnea_CBS,ERR3416594.66250,90.18,112,7,2,318,429,327,434,2e-33,143
Exophiala_brunnea_CBS,ERR3416594.66250,96.43,56,1,1,578,633,66,12,2e-18,93.5
Exophiala_nishimurae_CBS101538_T,ERR3416594.66250,90.74,108,7,2,292,399,280,176,8e-33,141
Exophiala_nishimurae_CBS101538_T,ERR3416594.66250,91.35,104,7,1,296,399,327,428,8e-33,141
Exophiala_mesophila_CBS402.95_T,ERR3416594.66250,93.18,88,6,0,280,367,277,190,2e-29,130
Exophiala_mesophila_CBS402.95_T,ERR3416594.66250,93.18,88,6,0,280,367,327,414,2e-29,130
Exophiala_mesophila_CBS402.95_T,ERR3416594.66250,98.39,62,1,0,549,610,62,1,3e-23,110
Exophiala_castellanii_CBS158.58_T,ERR3416594.66250,93.18,88,6,0,278,365,277,190,2e-29,130
Exophiala_castellanii_CBS158.58_T,ERR3416594.66250,93.18,88,6,0,278,365,327,414,2e-29,130
Exophiala_castellanii_CBS158.58_T,ERR3416594.66250,97.10,69,1,1,542,609,69,1,5e-25,115
Exophiala_lecanii-corni_CBS123.33_T,ERR3416594.66250,93.18,88,6,0,301,388,277,190,2e-29,130
Exophiala_lecanii-corni_CBS123.33_T,ERR3416594.66250,93.18,88,6,0,301,388,327,414,2e-29,130
Exophiala_dermatitidis_CBS748.88,ERR3416594.66250,91.43,105,6,1,293,397,277,176,2e-32,141
Exophiala_dermatitidis_CBS748.88,ERR3416594.66250,91.43,105,6,1,293,397,327,428,2e-32,141
Exophiala_dermatitidis_CBS748.88,ERR3416594.66250,93.83,81,2,3,556,635,79,1,1e-25,119
Exophiala_angulospora_CBS482.92_T,ERR3416594.66250,90.48,105,7,2,284,388,277,176,3e-31,135
Exophiala_angulospora_CBS482.92_T,ERR3416594.66250,90.48,105,7,2,284,388,327,428,3e-31,135
Exophiala_opportunistica_CBS109811_T,ERR3416594.66250,91.96,112,5,3,283,394,277,170,1e-36,154
Exophiala_opportunistica_CBS109811_T,ERR3416594.66250,91.96,112,5,3,283,394,327,434,1e-36,154
Exophiala_salmonis_CBS157.67_T,ERR3416594.66250,91.07,112,6,2,412,523,277,170,6e-35,148
Exophiala_salmonis_CBS157.67_T,ERR3416594.66250,91.07,112,6,2,412,523,327,434,6e-35,148
Exophiala_salmonis_CBS157.67_T,ERR3416594.66250,97.06,68,1,1,667,733,68,1,2e-24,113
Exophiala_salmonis_CBS157.67_T,ERR3416594.66250,95.65,69,2,1,667,734,536,604,3e-23,110
Exophiala_aquamarina_CBS119918_T,ERR3416594.66250,92.38,105,5,2,290,394,277,176,2e-34,147
Exophiala_aquamarina_CBS119918_T,ERR3416594.66250,92.38,105,5,2,290,394,327,428,2e-34,147
Exophiala_cancerae_CBS120420_T,ERR3416594.66250,91.96,112,5,3,305,416,277,170,1e-36,154
Exophiala_cancerae_CBS120420_T,ERR3416594.66250,91.96,112,5,3,305,416,327,434,1e-36,154
Exophiala_cancerae_CBS120420_T,ERR3416594.66250,100.00,61,0,0,564,624,61,1,2e-24,113
Exophiala_cancerae_CBS120420_T,ERR3416594.66250,98.36,61,1,0,564,624,543,603,9e-23,108
Exophiala_tremulae_CBS129355,ERR3416594.66250,91.96,112,5,2,317,428,277,170,1e-36,154
Exophiala_tremulae_CBS129355,ERR3416594.66250,91.96,112,5,2,317,428,327,434,1e-36,154
Exophiala_tremulae_CBS129355,ERR3416594.66250,96.49,57,1,1,573,628,68,12,2e-18,93.5
Exophiala_tremulae_CBS129355,ERR3416594.66250,94.74,57,2,1,573,628,536,592,1e-16,87.9
Exophiala_equina_CBS116009,ERR3416594.66250,91.96,112,5,2,283,394,277,170,1e-36,154
Exophiala_equina_CBS116009,ERR3416594.66250,91.96,112,5,2,283,394,327,434,1e-36,154
Exophiala_alcalophila_CBS520.82_T,ERR3416594.66250,90.48,105,7,2,294,398,277,176,4e-31,135
Exophiala_alcalophila_CBS520.82_T,ERR3416594.66250,90.48,105,7,2,294,398,327,428,4e-31,135
Exophiala_crusticola_CBS119970_T,ERR3416594.66250,90.48,105,7,2,299,403,277,176,3e-31,135
Exophiala_crusticola_CBS119970_T,ERR3416594.66250,90.48,105,7,2,299,403,327,428,3e-31,135
Rhinocladiella_atrovirens_CBS264.49,ERR3416594.66250,93.18,88,6,0,325,412,277,190,2e-29,130
Rhinocladiella_atrovirens_CBS264.49,ERR3416594.66250,93.18,88,6,0,325,412,327,414,2e-29,130
Rhinocladiella_atrovirens_CBS264.49,ERR3416594.66250,96.55,58,2,0,569,626,70,13,2e-19,97.1
Rhinocladiella_atrovirens_CBS264.49,ERR3416594.66250,96.36,55,2,0,569,623,534,588,9e-18,91.6
Rhinocladiella_basitona_CBS101460_T,ERR3416594.66250,89.66,116,7,3,280,395,280,170,2e-33,143
Rhinocladiella_basitona_CBS101460_T,ERR3416594.66250,90.18,112,7,2,284,395,327,434,2e-33,143
Rhinocladiella_phaeophora_CBS496.78_T,ERR3416594.66250,90.00,110,6,2,288,397,280,176,1e-31,137
Rhinocladiella_phaeophora_CBS496.78_T,ERR3416594.66250,90.57,106,6,1,292,397,327,428,1e-31,137
Rhinocladiella_aquaspersa_CBS313.73_T,ERR3416594.66250,90.00,110,6,2,282,391,280,176,1e-31,137
Rhinocladiella_aquaspersa_CBS313.73_T,ERR3416594.66250,90.57,106,6,1,286,391,327,428,1e-31,137
Rhinocladiella_aquaspersa_CBS313.73_T,ERR3416594.66250,92.75,69,1,4,540,605,68,1,2e-19,97.1
Rhinocladiella_aquaspersa_CBS313.73_T,ERR3416594.66250,91.43,70,2,4,540,606,536,604,3e-18,93.5
Rhinocladiella_fasciculata_CBS132.86_T,ERR3416594.66250,88.29,111,7,2,298,408,280,176,6e-29,128
Rhinocladiella_fasciculata_CBS132.86_T,ERR3416594.66250,88.79,107,7,1,302,408,327,428,2e-28,126
Rhinocladiella_anceps_CBS181.65_T,ERR3416594.66250,88.99,109,8,2,280,388,280,176,5e-30,132
Rhinocladiella_anceps_CBS181.65_T,ERR3416594.66250,89.52,105,8,1,284,388,327,428,2e-29,130
Rhinocladiella_mackenziei_CBS367.92,ERR3416594.66250,93.02,86,6,0,273,358,277,192,2e-28,126
Rhinocladiella_mackenziei_CBS367.92,ERR3416594.66250,93.02,86,6,0,273,358,327,412,2e-28,126
Rhinocladiella_mackenziei_CBS367.92,ERR3416594.66250,96.08,51,2,0,558,608,68,18,1e-15,84.2
Rhinocladiella_mackenziei_CBS367.92,ERR3416594.66250,96.08,51,2,0,558,608,536,586,1e-15,84.2
Veronaea_compacta_CBS268.75_T,ERR3416594.66250,88.89,117,7,4,306,422,277,167,3e-32,139
Veronaea_compacta_CBS268.75_T,ERR3416594.66250,88.89,117,7,4,306,422,327,437,3e-32,139
Capronia_pilosella_AFTOL-ID657,ERR3416594.66250,91.15,113,5,3,384,496,277,170,6e-35,148
Capronia_pilosella_AFTOL-ID657,ERR3416594.66250,91.15,113,5,3,384,496,327,434,6e-35,148
Capronia_dactylotricha_DAOM208471_T,ERR3416594.66250,93.26,89,5,1,286,374,277,190,2e-29,130
Capronia_dactylotricha_DAOM208471_T,ERR3416594.66250,93.26,89,5,1,286,374,327,414,2e-29,130
Capronia_dactylotricha_DAOM208471_T,ERR3416594.66250,100.00,62,0,0,557,618,62,1,5e-25,115
Capronia_dactylotricha_DAOM208471_T,ERR3416594.66250,98.41,63,1,0,557,619,542,604,7e-24,111
Capronia_kleinmondensis_CBS122671_T,ERR3416594.66250,93.18,88,6,0,311,398,277,190,2e-29,130
Capronia_kleinmondensis_CBS122671_T,ERR3416594.66250,93.18,88,6,0,311,398,327,414,2e-29,130
Capronia_kleinmondensis_CBS122671_T,ERR3416594.66250,98.57,70,1,0,555,624,70,1,9e-28,124
Capronia_kleinmondensis_CBS122671_T,ERR3416594.66250,97.18,71,2,0,555,625,534,604,1e-26,121
Capronia_mansonii_CBS101.67_T,ERR3416594.66250,92.38,105,5,2,297,401,277,176,2e-34,147
Capronia_mansonii_CBS101.67_T,ERR3416594.66250,92.38,105,5,2,297,401,327,428,2e-34,147
Capronia_mansonii_CBS101.67_T,ERR3416594.66250,97.01,67,1,1,563,628,67,1,7e-24,111
Capronia_munkii_DAOM216390_T,ERR3416594.66250,92.38,105,5,2,297,401,277,176,2e-34,147
Capronia_munkii_DAOM216390_T,ERR3416594.66250,92.38,105,5,2,297,401,327,428,2e-34,147
Capronia_munkii_DAOM216390_T,ERR3416594.66250,98.36,61,1,0,568,628,61,1,9e-23,108
Capronia_coronata_ATCC56201_T,ERR3416594.66250,90.48,105,7,2,285,389,277,176,4e-31,135
Capronia_coronata_ATCC56201_T,ERR3416594.66250,90.48,105,7,2,285,389,327,428,4e-31,135
Capronia_coronata_ATCC56201_T,ERR3416594.66250,95.59,68,3,0,532,599,68,1,2e-23,110
Capronia_parasitica_CBS123.88,ERR3416594.66250,94.12,85,5,0,291,375,277,193,2e-29,130
Capronia_parasitica_CBS123.88,ERR3416594.66250,94.12,85,5,0,291,375,327,411,2e-29,130
Capronia_parasitica_CBS123.88,ERR3416594.66250,97.67,43,0,1,553,595,67,26,3e-12,73.1
Capronia_parasitica_CBS123.88,ERR3416594.66250,97.67,43,0,1,553,595,537,578,3e-12,73.1
Veronaea_japonica_CBS776.83_T,ERR3416594.66250,90.52,116,6,3,319,434,277,167,5e-35,148
Veronaea_japonica_CBS776.83_T,ERR3416594.66250,90.52,116,6,3,319,434,327,437,5e-35,148
Thysanorea_papuana_CBS212.96_T,ERR3416594.66250,93.27,104,5,2,293,396,277,176,4e-36,152
Thysanorea_papuana_CBS212.96_T,ERR3416594.66250,93.27,104,5,2,293,396,327,428,4e-36,152
Capronia_acutiseta_ATCC56428_T,ERR3416594.66250,93.26,89,6,0,286,374,277,189,5e-30,132
Capronia_acutiseta_ATCC56428_T,ERR3416594.66250,93.26,89,6,0,286,374,327,415,5e-30,132
Capronia_acutiseta_ATCC56428_T,ERR3416594.66250,100.00,61,0,0,538,598,61,1,2e-24,113
Capronia_acutiseta_ATCC56428_T,ERR3416594.66250,98.39,62,1,0,538,599,543,604,2e-23,110
Fonsecaea_brasiliensis_CBS119710_T,ERR3416594.66250,91.43,105,6,3,293,397,277,176,8e-33,141
Fonsecaea_brasiliensis_CBS119710_T,ERR3416594.66250,91.43,105,6,3,293,397,327,428,8e-33,141
Fonsecaea_pedrosoi_CBS271.37_T,ERR3416594.66250,91.51,106,5,3,321,426,277,176,2e-33,143
Fonsecaea_pedrosoi_CBS271.37_T,ERR3416594.66250,91.51,106,5,3,321,426,327,428,2e-33,143
Fonsecaea_pedrosoi_CBS271.37_T,ERR3416594.66250,95.59,68,2,1,579,645,68,1,9e-23,108
Fonsecaea_multimorphosa_CBS980.96_T,ERR3416594.66250,92.38,105,5,3,291,395,277,176,2e-34,147
Fonsecaea_multimorphosa_CBS980.96_T,ERR3416594.66250,92.38,105,5,3,291,395,327,428,2e-34,147
Fonsecaea_minima_CBS125760_T,ERR3416594.66250,91.43,105,6,3,287,391,277,176,7e-33,141
Fonsecaea_minima_CBS125760_T,ERR3416594.66250,91.43,105,6,3,287,391,327,428,7e-33,141
Fonsecaea_nubica_CBS269.64_T,ERR3416594.66250,90.35,114,5,4,298,411,277,170,6e-34,145
Fonsecaea_nubica_CBS269.64_T,ERR3416594.66250,90.35,114,5,4,298,411,327,434,6e-34,145
Fonsecaea_monophora_CBS269.37_T,ERR3416594.66250,91.51,106,5,3,299,404,277,176,2e-33,143
Fonsecaea_monophora_CBS269.37_T,ERR3416594.66250,91.51,106,5,3,299,404,327,428,2e-33,143
Fonsecaea_erecta_CBS125763_T,ERR3416594.66250,92.38,105,5,3,282,386,277,176,2e-34,147
Fonsecaea_erecta_CBS125763_T,ERR3416594.66250,92.38,105,5,3,282,386,327,428,2e-34,147
Fonsecaea_pugnacius_CBS139214_T,ERR3416594.66250,89.57,115,5,4,291,405,277,170,3e-32,139
Fonsecaea_pugnacius_CBS139214_T,ERR3416594.66250,89.57,115,5,4,291,405,327,434,3e-32,139
Cladophialophora_psammophila_CBS,ERR3416594.66250,92.38,105,5,3,297,401,277,176,2e-34,147
Cladophialophora_psammophila_CBS,ERR3416594.66250,92.38,105,5,3,297,401,327,428,2e-34,147
Cladophialophora_devriesii_CBS,ERR3416594.66250,92.38,105,5,3,293,397,277,176,2e-34,147
Cladophialophora_devriesii_CBS,ERR3416594.66250,92.38,105,5,3,293,397,327,428,2e-34,147
Cladophialophora_immunda_CBS834.96,ERR3416594.66250,90.27,113,6,4,295,407,277,170,2e-33,143
Cladophialophora_immunda_CBS834.96,ERR3416594.66250,90.27,113,6,4,295,407,327,434,2e-33,143
Cladophialophora_arxii_CBS306.94_T,ERR3416594.66250,89.57,115,5,4,297,411,277,170,3e-32,139
Cladophialophora_arxii_CBS306.94_T,ERR3416594.66250,89.57,115,5,4,297,411,327,434,3e-32,139
Cladophialophora_bantiana_CBS173.52,ERR3416594.66250,92.38,105,5,3,291,395,277,176,2e-34,147
Cladophialophora_bantiana_CBS173.52,ERR3416594.66250,92.38,105,5,3,291,395,327,428,2e-34,147
Cladophialophora_emmonsii_CBS102594,ERR3416594.66250,91.51,106,5,2,282,387,277,176,2e-33,143
Cladophialophora_emmonsii_CBS102594,ERR3416594.66250,91.51,106,5,2,282,387,327,428,2e-33,143
Cladophialophora_minourae_CBS556.83,ERR3416594.66250,87.74,106,9,4,290,395,277,176,3e-27,122
Cladophialophora_minourae_CBS556.83,ERR3416594.66250,87.74,106,9,4,290,395,327,428,3e-27,122
Cladophialophora_australiensis_CBS112793,ERR3416594.66250,91.35,104,7,2,292,395,277,176,2e-32,141
Cladophialophora_australiensis_CBS112793,ERR3416594.66250,91.35,104,7,2,292,395,327,428,2e-32,141
Cladophialophora_australiensis_CBS112793,ERR3416594.66250,94.20,69,2,2,539,606,68,1,3e-21,104
Cladophialophora_potulentorum_CBS112222,ERR3416594.66250,90.38,104,8,2,291,394,277,176,1e-30,135
Cladophialophora_potulentorum_CBS112222,ERR3416594.66250,90.38,104,8,2,291,394,327,428,1e-30,135
Cladophialophora_potulentorum_CBS112222,ERR3416594.66250,95.65,69,2,1,540,608,68,1,6e-23,110
Cladophialophora_matsushimae_CMRP1198,ERR3416594.66250,90.38,104,8,2,295,398,277,176,3e-31,135
Cladophialophora_matsushimae_CMRP1198,ERR3416594.66250,90.38,104,8,2,295,398,327,428,3e-31,135
Cladophialophora_mycetomatis_CBS122637,ERR3416594.66250,91.07,112,6,3,280,391,277,170,4e-35,148
Cladophialophora_mycetomatis_CBS122637,ERR3416594.66250,91.07,112,6,3,280,391,327,434,4e-35,148
Cladophialophora_chaetospira_CBS127573,ERR3416594.66250,93.27,104,5,2,686,789,277,176,6e-36,152
Cladophialophora_chaetospira_CBS127573,ERR3416594.66250,93.27,104,5,2,686,789,327,428,6e-36,152
Cladophialophora_boppii_CBS126.86_T,ERR3416594.66250,92.31,104,6,2,288,391,277,176,2e-34,147
Cladophialophora_boppii_CBS126.86_T,ERR3416594.66250,92.31,104,6,2,288,391,327,428,2e-34,147
Cladophialophora_abundans_CBS126736,ERR3416594.66250,91.35,104,7,2,225,328,277,176,6e-33,141
Cladophialophora_abundans_CBS126736,ERR3416594.66250,91.35,104,7,2,225,328,327,428,6e-33,141
Capronia_semi-immersa_CBS102234,ERR3416594.66250,90.38,104,8,2,287,390,277,176,3e-31,135
Capronia_semi-immersa_CBS102234,ERR3416594.66250,90.38,104,8,2,287,390,327,428,3e-31,135
Phialophora_americana_CBS400.67,ERR3416594.66250,90.38,104,8,2,289,392,277,176,9e-31,135
Phialophora_americana_CBS400.67,ERR3416594.66250,90.38,104,8,2,289,392,327,428,9e-31,135
Phialophora_verrucosa_CBS140325_T,ERR3416594.66250,90.38,104,8,2,293,396,277,176,4e-31,135
Phialophora_verrucosa_CBS140325_T,ERR3416594.66250,90.38,104,8,2,293,396,327,428,4e-31,135
Cladophialophora_samoensis_CBS259.83_T,ERR3416594.66250,91.35,104,7,2,293,396,277,176,8e-33,141
Cladophialophora_samoensis_CBS259.83_T,ERR3416594.66250,91.35,104,7,2,293,396,327,428,8e-33,141
Cladophialophora_carrionii_CBS260.83,ERR3416594.66250,92.31,104,6,2,309,412,277,176,2e-34,147
Cladophialophora_carrionii_CBS260.83,ERR3416594.66250,92.31,104,6,2,309,412,327,428,2e-34,147
Exophiala_palmae_UPCB86822_T,ERR3416594.66250,90.48,105,7,1,252,356,277,176,3e-31,135
Exophiala_palmae_UPCB86822_T,ERR3416594.66250,90.48,105,7,1,252,356,327,428,3e-31,135
Cladophialophora_yegresii_CBS114405_T,ERR3416594.66250,91.35,104,7,2,294,397,277,176,8e-33,141
Cladophialophora_yegresii_CBS114405_T,ERR3416594.66250,91.35,104,7,2,294,397,327,428,8e-33,141
Knufia_epidermidis_CBS120353_T,ERR3416594.66250,86.54,104,12,2,292,395,277,176,2e-24,113
Knufia_epidermidis_CBS120353_T,ERR3416594.66250,86.54,104,12,2,292,395,327,428,2e-24,113
Arthrocladium_fulminans_CBS136243_T,ERR3416594.66250,92.00,75,6,0,287,361,277,203,3e-22,106
Arthrocladium_fulminans_CBS136243_T,ERR3416594.66250,92.00,75,6,0,287,361,327,401,3e-22,106
Cyphellophora_laciniata_CBS190.61_T,ERR3416594.66250,91.51,106,9,0,375,480,281,176,2e-34,147
Cyphellophora_laciniata_CBS190.61_T,ERR3416594.66250,92.16,102,8,0,379,480,327,428,8e-34,145
Cyphellophora_laciniata_CBS190.61_T,ERR3416594.66250,93.59,78,2,3,618,695,75,1,2e-24,113
Cyphellophora_suttonii_CBS449.91,ERR3416594.66250,89.66,116,11,1,278,393,281,167,2e-34,147
Cyphellophora_suttonii_CBS449.91,ERR3416594.66250,90.18,112,10,1,282,393,327,437,6e-34,145
Cyphellophora_pauciseptata_CBS284.85_T,ERR3416594.66250,91.51,106,9,0,289,394,281,176,2e-34,147
Cyphellophora_pauciseptata_CBS284.85_T,ERR3416594.66250,92.16,102,8,0,293,394,327,428,6e-34,145
Cyphellophora_pluriseptata_CBS286.85_T,ERR3416594.66250,92.45,106,8,0,294,399,281,176,3e-36,152
Cyphellophora_pluriseptata_CBS286.85_T,ERR3416594.66250,93.14,102,7,0,298,399,327,428,1e-35,150
Phialophora_europaea_CBS101466,ERR3416594.66250,92.45,106,8,0,284,389,281,176,3e-36,152
Phialophora_europaea_CBS101466,ERR3416594.66250,93.14,102,7,0,288,389,327,428,1e-35,150
Phialophora_ambigua_CBS235.93,ERR3416594.66250,92.45,106,8,0,281,386,281,176,3e-36,152
Phialophora_ambigua_CBS235.93,ERR3416594.66250,93.14,102,7,0,285,386,327,428,1e-35,150
Cladophialophora_modesta_CBS985.96_T,ERR3416594.66250,94.17,103,5,1,284,386,277,176,3e-37,156
Cladophialophora_modesta_CBS985.96_T,ERR3416594.66250,94.17,103,5,1,284,386,327,428,3e-37,156
Cladophialophora_modesta_CBS985.96_T,ERR3416594.66250,94.29,70,2,2,511,579,69,1,3e-22,106
