Exophiala_nigra_CBS535.94_T,SRR10016842.155593,93.66,142,7,2,232,373,1,140,2e-53,211
Exophiala_nigra_CBS535.94_T,SRR10016842.10657,90.65,139,11,2,232,370,1,137,4e-45,183
Exophiala_spinifera_CBS899.68_T,SRR10016842.155593,91.19,159,10,4,229,387,1,155,5e-54,213
Exophiala_spinifera_CBS899.68_T,SRR10016842.10657,89.93,139,12,2,229,367,1,137,2e-43,178
Exophiala_exophialae_CBS668.76_T,SRR10016842.155593,91.19,159,10,4,230,388,1,155,5e-54,213
Exophiala_exophialae_CBS668.76_T,SRR10016842.10657,89.93,139,12,2,230,368,1,137,2e-43,178
Exophiala_polymorpha_CBS138920_T,SRR10016842.155593,91.19,159,10,4,332,490,1,155,6e-54,213
Exophiala_polymorpha_CBS138920_T,SRR10016842.10657,89.93,139,12,2,332,470,1,137,2e-43,178
Exophiala_polymorpha_CBS138920_T,SRR10016842.10657,100.00,51,0,0,644,694,352,302,2e-18,95.3
Exophiala_polymorpha_CBS138920_T,SRR10016842.254131,100.00,52,0,0,643,694,361,310,6e-19,97.1
Exophiala_polymorpha_CBS138920_T,SRR10016842.118600,100.00,51,0,0,644,694,360,310,2e-18,95.3
Exophiala_polymorpha_CBS138920_T,SRR10016842.78118,94.92,59,3,0,635,693,358,300,8e-18,93.5
Exophiala_polymorpha_CBS138920_T,SRR10016842.121583,96.15,52,2,0,643,694,361,310,1e-15,86.1
Exophiala_polymorpha_CBS138920_T,SRR10016842.220832,92.45,53,4,0,642,694,362,310,8e-13,76.8
Exophiala_polymorpha_CBS138920_T,SRR10016842.121535,92.45,53,4,0,642,694,362,310,8e-13,76.8
Exophiala_polymorpha_CBS138920_T,SRR10016842.44965,92.45,53,4,0,642,694,362,310,8e-13,76.8
Exophiala_polymorpha_CBS138920_T,SRR10016842.193893,87.72,57,7,0,638,694,366,310,5e-10,67.6
Exophiala_polymorpha_CBS138920_T,SRR10016842.258925,89.80,49,5,0,646,694,358,310,6e-09,63.9
Exophiala_oligosperma_CBS725.88_T,SRR10016842.155593,91.19,159,10,4,242,400,1,155,5e-54,213
Exophiala_oligosperma_CBS725.88_T,SRR10016842.10657,89.93,139,12,2,242,380,1,137,2e-43,178
Exophiala_jeanselmei_CBS507.90_T,SRR10016842.155593,91.19,159,10,4,234,392,1,155,5e-54,213
Exophiala_jeanselmei_CBS507.90_T,SRR10016842.10657,89.93,139,12,2,234,372,1,137,2e-43,178
Exophiala_jeanselmei_CBS507.90_T,SRR10016842.10657,100.00,59,0,0,546,604,352,294,7e-23,110
Exophiala_jeanselmei_CBS507.90_T,SRR10016842.254131,100.00,60,0,0,545,604,361,302,2e-23,111
Exophiala_jeanselmei_CBS507.90_T,SRR10016842.118600,100.00,59,0,0,546,604,360,302,7e-23,110
Exophiala_jeanselmei_CBS507.90_T,SRR10016842.78118,94.20,69,3,1,537,604,359,291,3e-21,104
Exophiala_jeanselmei_CBS507.90_T,SRR10016842.121583,96.67,60,2,0,545,604,361,302,4e-20,100
Exophiala_jeanselmei_CBS507.90_T,SRR10016842.220832,93.55,62,4,0,543,604,363,302,7e-18,93.5
Exophiala_jeanselmei_CBS507.90_T,SRR10016842.121535,93.55,62,4,0,543,604,363,302,7e-18,93.5
Exophiala_jeanselmei_CBS507.90_T,SRR10016842.44965,93.55,62,4,0,543,604,363,302,7e-18,93.5
Exophiala_jeanselmei_CBS507.90_T,SRR10016842.275237,92.86,56,4,0,549,604,357,302,2e-14,82.4
Exophiala_jeanselmei_CBS507.90_T,SRR10016842.193893,91.38,58,5,0,547,604,359,302,6e-14,80.5
Exophiala_jeanselmei_CBS507.90_T,SRR10016842.258925,91.23,57,5,0,548,604,358,302,2e-13,78.7
Exophiala_jeanselmei_CBS507.90_T,SRR10016842.82694,92.59,54,3,1,551,604,354,302,7e-13,76.8
Exophiala_bergeri_CBS353.52,SRR10016842.155593,93.66,142,7,2,195,336,1,140,2e-53,211
Exophiala_bergeri_CBS353.52,SRR10016842.10657,90.65,139,11,2,195,333,1,137,3e-45,183
Exophiala_moniliae_CBS520.76_T,SRR10016842.155593,93.01,143,6,4,232,373,1,140,8e-52,206
Exophiala_moniliae_CBS520.76_T,SRR10016842.10657,90.58,138,11,2,232,369,1,136,1e-44,182
Exophiala_pisciphila_CBS537.73_T,SRR10016842.155593,91.88,160,7,6,235,393,1,155,1e-55,219
Exophiala_pisciphila_CBS537.73_T,SRR10016842.10657,90.65,139,11,2,235,373,1,137,4e-45,183
Exophiala_pisciphila_CBS537.73_T,SRR10016842.10657,95.65,69,2,1,546,613,362,294,8e-23,110
Exophiala_pisciphila_CBS537.73_T,SRR10016842.121583,97.01,67,2,0,547,613,368,302,6e-24,113
Exophiala_pisciphila_CBS537.73_T,SRR10016842.254131,98.33,60,1,0,554,613,361,302,1e-21,106
Exophiala_pisciphila_CBS537.73_T,SRR10016842.118600,95.52,67,2,1,548,613,368,302,1e-21,106
Exophiala_pisciphila_CBS537.73_T,SRR10016842.185513,98.28,58,1,0,556,613,359,302,1e-20,102
Exophiala_pisciphila_CBS537.73_T,SRR10016842.220832,95.16,62,3,0,552,613,363,302,2e-19,99.0
Exophiala_pisciphila_CBS537.73_T,SRR10016842.121535,95.16,62,3,0,552,613,363,302,2e-19,99.0
Exophiala_pisciphila_CBS537.73_T,SRR10016842.44965,92.42,66,5,0,548,613,367,302,2e-18,95.3
Exophiala_pisciphila_CBS537.73_T,SRR10016842.79304,94.83,58,3,0,556,613,359,302,3e-17,91.6
Exophiala_pisciphila_CBS537.73_T,SRR10016842.193893,93.10,58,4,0,556,613,359,302,1e-15,86.1
Exophiala_pisciphila_CBS537.73_T,SRR10016842.258925,91.38,58,3,2,557,613,358,302,2e-13,78.7
Exophiala_pisciphila_CBS537.73_T,SRR10016842.275237,91.07,56,5,0,558,613,357,302,8e-13,76.8
Exophiala_pisciphila_CBS537.73_T,SRR10016842.82694,90.74,54,4,1,560,613,354,302,4e-11,71.3
Exophiala_xenobiotica_CBS117642,SRR10016842.155593,91.82,159,9,4,227,385,1,155,1e-55,219
Exophiala_xenobiotica_CBS117642,SRR10016842.10657,90.65,139,11,2,227,365,1,137,4e-45,183
Exophiala_brunnea_CBS,SRR10016842.155593,91.25,160,8,6,263,421,1,155,6e-54,213
Exophiala_brunnea_CBS,SRR10016842.10657,91.37,139,10,2,263,401,1,137,9e-47,189
Exophiala_brunnea_CBS,SRR10016842.220832,94.12,51,3,0,583,633,363,313,2e-13,78.7
Exophiala_brunnea_CBS,SRR10016842.121535,94.12,51,3,0,583,633,363,313,2e-13,78.7
Exophiala_nishimurae_CBS101538_T,SRR10016842.155593,91.19,159,10,4,241,399,1,155,5e-54,213
Exophiala_nishimurae_CBS101538_T,SRR10016842.10657,89.93,139,12,2,241,379,1,137,2e-43,178
Exophiala_nishimurae_CBS101538_T,SRR10016842.10657,100.00,39,0,0,553,591,352,314,9e-12,73.1
Exophiala_nishimurae_CBS101538_T,SRR10016842.78118,94.00,50,3,0,542,591,360,311,7e-13,76.8
Exophiala_nishimurae_CBS101538_T,SRR10016842.254131,100.00,40,0,0,552,591,361,322,3e-12,75.0
Exophiala_nishimurae_CBS101538_T,SRR10016842.118600,100.00,39,0,0,553,591,360,322,9e-12,73.1
Exophiala_mesophila_CBS402.95_T,SRR10016842.155593,93.01,143,6,4,225,366,1,140,1e-51,206
Exophiala_mesophila_CBS402.95_T,SRR10016842.10657,91.37,139,10,2,225,363,1,137,1e-46,189
Exophiala_mesophila_CBS402.95_T,SRR10016842.10657,100.00,59,0,0,552,610,352,294,8e-23,110
Exophiala_mesophila_CBS402.95_T,SRR10016842.254131,100.00,60,0,0,551,610,361,302,2e-23,111
Exophiala_mesophila_CBS402.95_T,SRR10016842.118600,100.00,59,0,0,552,610,360,302,8e-23,110
Exophiala_mesophila_CBS402.95_T,SRR10016842.78118,96.72,61,2,0,550,610,351,291,1e-20,102
Exophiala_mesophila_CBS402.95_T,SRR10016842.121583,96.67,60,2,0,551,610,361,302,5e-20,100
Exophiala_mesophila_CBS402.95_T,SRR10016842.44965,92.42,66,5,0,545,610,367,302,2e-18,95.3
Exophiala_mesophila_CBS402.95_T,SRR10016842.220832,93.44,61,4,0,550,610,362,302,3e-17,91.6
Exophiala_mesophila_CBS402.95_T,SRR10016842.121535,93.44,61,4,0,550,610,362,302,3e-17,91.6
Exophiala_mesophila_CBS402.95_T,SRR10016842.275237,92.86,56,4,0,555,610,357,302,2e-14,82.4
Exophiala_mesophila_CBS402.95_T,SRR10016842.193893,91.38,58,5,0,553,610,359,302,6e-14,80.5
Exophiala_mesophila_CBS402.95_T,SRR10016842.258925,91.23,57,5,0,554,610,358,302,2e-13,78.7
Exophiala_mesophila_CBS402.95_T,SRR10016842.82694,92.59,54,3,1,557,610,354,302,8e-13,76.8
Exophiala_castellanii_CBS158.58_T,SRR10016842.155593,93.01,143,6,4,223,364,1,140,1e-51,206
Exophiala_castellanii_CBS158.58_T,SRR10016842.10657,91.37,139,10,2,223,361,1,137,1e-46,189
Exophiala_castellanii_CBS158.58_T,SRR10016842.10657,100.00,59,0,0,551,609,352,294,8e-23,110
Exophiala_castellanii_CBS158.58_T,SRR10016842.254131,100.00,60,0,0,550,609,361,302,2e-23,111
Exophiala_castellanii_CBS158.58_T,SRR10016842.118600,100.00,59,0,0,551,609,360,302,8e-23,110
Exophiala_castellanii_CBS158.58_T,SRR10016842.78118,96.72,61,2,0,549,609,351,291,1e-20,102
Exophiala_castellanii_CBS158.58_T,SRR10016842.121583,96.67,60,2,0,550,609,361,302,5e-20,100
Exophiala_castellanii_CBS158.58_T,SRR10016842.220832,93.44,61,4,0,549,609,362,302,3e-17,91.6
Exophiala_castellanii_CBS158.58_T,SRR10016842.121535,93.44,61,4,0,549,609,362,302,3e-17,91.6
Exophiala_castellanii_CBS158.58_T,SRR10016842.44965,93.44,61,4,0,549,609,362,302,3e-17,91.6
Exophiala_castellanii_CBS158.58_T,SRR10016842.275237,92.86,56,4,0,554,609,357,302,2e-14,82.4
Exophiala_castellanii_CBS158.58_T,SRR10016842.193893,91.38,58,5,0,552,609,359,302,6e-14,80.5
Exophiala_castellanii_CBS158.58_T,SRR10016842.258925,91.23,57,5,0,553,609,358,302,2e-13,78.7
Exophiala_castellanii_CBS158.58_T,SRR10016842.82694,92.59,54,3,1,556,609,354,302,8e-13,76.8
Exophiala_lecanii-corni_CBS123.33_T,SRR10016842.155593,93.01,143,6,4,246,387,1,140,8e-52,206
Exophiala_lecanii-corni_CBS123.33_T,SRR10016842.10657,90.65,139,11,2,246,384,1,137,4e-45,183
Exophiala_dermatitidis_CBS748.88,SRR10016842.155593,91.30,161,7,6,238,397,1,155,1e-53,213
Exophiala_dermatitidis_CBS748.88,SRR10016842.10657,90.65,139,11,2,238,376,1,137,1e-44,183
Exophiala_dermatitidis_CBS748.88,SRR10016842.10657,92.31,78,6,0,558,635,371,294,5e-23,111
Exophiala_dermatitidis_CBS748.88,SRR10016842.254131,100.00,60,0,0,576,635,361,302,5e-23,111
Exophiala_dermatitidis_CBS748.88,SRR10016842.118600,100.00,59,0,0,577,635,360,302,2e-22,110
Exophiala_dermatitidis_CBS748.88,SRR10016842.78118,94.37,71,4,0,565,635,361,291,2e-22,110
Exophiala_dermatitidis_CBS748.88,SRR10016842.121583,96.67,60,2,0,576,635,361,302,1e-19,100
Exophiala_dermatitidis_CBS748.88,SRR10016842.220832,92.42,66,4,1,571,635,367,302,2e-17,93.5
Exophiala_dermatitidis_CBS748.88,SRR10016842.121535,92.42,66,4,1,571,635,367,302,2e-17,93.5
Exophiala_dermatitidis_CBS748.88,SRR10016842.44965,93.55,62,4,0,574,635,363,302,2e-17,93.5
Exophiala_dermatitidis_CBS748.88,SRR10016842.275237,92.86,56,4,0,580,635,357,302,4e-14,82.4
Exophiala_dermatitidis_CBS748.88,SRR10016842.193893,91.38,58,5,0,578,635,359,302,1e-13,80.5
Exophiala_dermatitidis_CBS748.88,SRR10016842.258925,91.23,57,5,0,579,635,358,302,5e-13,78.7
Exophiala_dermatitidis_CBS748.88,SRR10016842.82694,92.59,54,3,1,582,635,354,302,2e-12,76.8
Exophiala_angulospora_CBS482.92_T,SRR10016842.155593,90.68,161,8,6,229,388,1,155,2e-52,207
Exophiala_angulospora_CBS482.92_T,SRR10016842.10657,89.86,148,12,3,229,375,1,146,3e-46,187
Exophiala_opportunistica_CBS109811_T,SRR10016842.155593,92.50,160,6,6,228,386,1,155,2e-57,224
Exophiala_opportunistica_CBS109811_T,SRR10016842.10657,90.65,139,11,2,228,366,1,137,4e-45,183
Exophiala_salmonis_CBS157.67_T,SRR10016842.155593,91.88,160,7,6,357,515,1,155,1e-55,219
Exophiala_salmonis_CBS157.67_T,SRR10016842.10657,90.65,139,11,2,357,495,1,137,5e-45,183
Exophiala_salmonis_CBS157.67_T,SRR10016842.10657,95.65,69,2,1,666,733,362,294,9e-23,110
Exophiala_salmonis_CBS157.67_T,SRR10016842.121583,97.01,67,2,0,667,733,368,302,7e-24,113
Exophiala_salmonis_CBS157.67_T,SRR10016842.254131,98.33,60,1,0,674,733,361,302,1e-21,106
Exophiala_salmonis_CBS157.67_T,SRR10016842.118600,95.52,67,2,1,668,733,368,302,1e-21,106
Exophiala_salmonis_CBS157.67_T,SRR10016842.185513,98.28,58,1,0,676,733,359,302,2e-20,102
Exophiala_salmonis_CBS157.67_T,SRR10016842.220832,95.16,62,3,0,672,733,363,302,2e-19,99.0
Exophiala_salmonis_CBS157.67_T,SRR10016842.121535,95.16,62,3,0,672,733,363,302,2e-19,99.0
Exophiala_salmonis_CBS157.67_T,SRR10016842.44965,92.42,66,5,0,668,733,367,302,3e-18,95.3
Exophiala_salmonis_CBS157.67_T,SRR10016842.79304,94.83,58,3,0,676,733,359,302,3e-17,91.6
Exophiala_salmonis_CBS157.67_T,SRR10016842.193893,93.10,58,4,0,676,733,359,302,2e-15,86.1
Exophiala_salmonis_CBS157.67_T,SRR10016842.258925,91.38,58,3,2,677,733,358,302,3e-13,78.7
Exophiala_salmonis_CBS157.67_T,SRR10016842.275237,91.07,56,5,0,678,733,357,302,9e-13,76.8
Exophiala_salmonis_CBS157.67_T,SRR10016842.82694,90.74,54,4,1,680,733,354,302,4e-11,71.3
Exophiala_aquamarina_CBS119918_T,SRR10016842.155593,91.93,161,6,6,235,394,1,155,1e-55,219
Exophiala_aquamarina_CBS119918_T,SRR10016842.10657,90.00,140,11,3,235,374,1,137,2e-43,178
Exophiala_cancerae_CBS120420_T,SRR10016842.155593,92.50,160,6,6,250,408,1,155,3e-57,224
Exophiala_cancerae_CBS120420_T,SRR10016842.10657,90.65,139,11,2,250,388,1,137,4e-45,183
Exophiala_cancerae_CBS120420_T,SRR10016842.10657,95.65,69,3,0,556,624,362,294,2e-23,111
Exophiala_cancerae_CBS120420_T,SRR10016842.121583,95.59,68,2,1,557,624,368,302,3e-22,108
Exophiala_cancerae_CBS120420_T,SRR10016842.118600,95.52,67,3,0,558,624,368,302,3e-22,108
Exophiala_cancerae_CBS120420_T,SRR10016842.254131,98.33,60,1,0,565,624,361,302,1e-21,106
Exophiala_cancerae_CBS120420_T,SRR10016842.185513,98.28,58,1,0,567,624,359,302,1e-20,102
Exophiala_cancerae_CBS120420_T,SRR10016842.220832,95.16,62,3,0,563,624,363,302,2e-19,99.0
Exophiala_cancerae_CBS120420_T,SRR10016842.121535,95.16,62,3,0,563,624,363,302,2e-19,99.0
Exophiala_cancerae_CBS120420_T,SRR10016842.79304,94.83,58,3,0,567,624,359,302,3e-17,91.6
Exophiala_cancerae_CBS120420_T,SRR10016842.44965,91.04,67,5,1,558,624,367,302,1e-16,89.8
Exophiala_cancerae_CBS120420_T,SRR10016842.193893,93.10,58,4,0,567,624,359,302,1e-15,86.1
Exophiala_cancerae_CBS120420_T,SRR10016842.258925,91.38,58,3,2,568,624,358,302,2e-13,78.7
Exophiala_cancerae_CBS120420_T,SRR10016842.275237,91.07,56,5,0,569,624,357,302,7e-13,76.8
Exophiala_cancerae_CBS120420_T,SRR10016842.82694,90.74,54,4,1,571,624,354,302,3e-11,71.3
Exophiala_tremulae_CBS129355,SRR10016842.155593,92.50,160,6,6,262,420,1,155,3e-57,224
Exophiala_tremulae_CBS129355,SRR10016842.10657,90.65,139,11,2,262,400,1,137,4e-45,183
Exophiala_tremulae_CBS129355,SRR10016842.185513,97.87,47,1,0,582,628,359,313,2e-14,82.4
Exophiala_tremulae_CBS129355,SRR10016842.220832,94.12,51,3,0,578,628,363,313,2e-13,78.7
Exophiala_tremulae_CBS129355,SRR10016842.121535,94.12,51,3,0,578,628,363,313,2e-13,78.7
Exophiala_tremulae_CBS129355,SRR10016842.79304,93.62,47,3,0,582,628,359,313,4e-11,71.3
Exophiala_equina_CBS116009,SRR10016842.155593,92.50,160,6,6,228,386,1,155,2e-57,224
Exophiala_equina_CBS116009,SRR10016842.10657,90.65,139,11,2,228,366,1,137,4e-45,183
Exophiala_alcalophila_CBS520.82_T,SRR10016842.155593,90.68,161,8,6,239,398,1,155,2e-52,207
Exophiala_alcalophila_CBS520.82_T,SRR10016842.10657,89.19,148,13,3,239,385,1,146,1e-44,182
Exophiala_crusticola_CBS119970_T,SRR10016842.155593,93.71,143,5,4,244,385,1,140,2e-53,211
Exophiala_crusticola_CBS119970_T,SRR10016842.10657,90.65,139,11,2,244,382,1,137,4e-45,183
Rhinocladiella_atrovirens_CBS264.49,SRR10016842.155593,93.01,143,6,4,270,411,1,140,9e-52,206
Rhinocladiella_atrovirens_CBS264.49,SRR10016842.10657,90.65,139,11,2,270,408,1,137,4e-45,183
Rhinocladiella_atrovirens_CBS264.49,SRR10016842.185513,97.83,46,1,0,581,626,359,314,6e-14,80.5
Rhinocladiella_atrovirens_CBS264.49,SRR10016842.220832,93.88,49,3,0,578,626,362,314,3e-12,75.0
Rhinocladiella_atrovirens_CBS264.49,SRR10016842.121535,93.88,49,3,0,578,626,362,314,3e-12,75.0
Rhinocladiella_atrovirens_CBS264.49,SRR10016842.79304,93.48,46,3,0,581,626,359,314,1e-10,69.4
Rhinocladiella_basitona_CBS101460_T,SRR10016842.155593,91.19,159,10,4,229,387,1,155,5e-54,213
Rhinocladiella_basitona_CBS101460_T,SRR10016842.10657,89.93,139,12,2,229,367,1,137,2e-43,178
Rhinocladiella_phaeophora_CBS496.78_T,SRR10016842.155593,93.71,143,5,4,237,378,1,140,2e-53,211
Rhinocladiella_phaeophora_CBS496.78_T,SRR10016842.10657,89.26,149,13,3,237,384,1,147,4e-45,183
Rhinocladiella_aquaspersa_CBS313.73_T,SRR10016842.155593,93.71,143,5,4,231,372,1,140,2e-53,211
Rhinocladiella_aquaspersa_CBS313.73_T,SRR10016842.10657,89.26,149,13,3,231,378,1,147,4e-45,183
Rhinocladiella_aquaspersa_CBS313.73_T,SRR10016842.10657,93.22,59,1,3,550,605,352,294,5e-15,84.2
Rhinocladiella_aquaspersa_CBS313.73_T,SRR10016842.121583,91.04,67,2,4,543,605,368,302,4e-16,87.9
Rhinocladiella_aquaspersa_CBS313.73_T,SRR10016842.254131,93.33,60,1,3,549,605,361,302,1e-15,86.1
Rhinocladiella_aquaspersa_CBS313.73_T,SRR10016842.118600,93.22,59,1,3,550,605,360,302,5e-15,84.2
Rhinocladiella_aquaspersa_CBS313.73_T,SRR10016842.220832,90.32,62,3,3,547,605,363,302,2e-13,78.7
Rhinocladiella_aquaspersa_CBS313.73_T,SRR10016842.193893,95.92,49,1,1,558,605,350,302,2e-13,78.7
Rhinocladiella_aquaspersa_CBS313.73_T,SRR10016842.121535,90.32,62,3,3,547,605,363,302,2e-13,78.7
Rhinocladiella_aquaspersa_CBS313.73_T,SRR10016842.44965,97.67,43,1,0,563,605,344,302,3e-12,75.0
Rhinocladiella_aquaspersa_CBS313.73_T,SRR10016842.258925,93.75,48,2,1,559,605,349,302,4e-11,71.3
Rhinocladiella_aquaspersa_CBS313.73_T,SRR10016842.82694,100.00,35,0,0,571,605,336,302,2e-09,65.8
Rhinocladiella_aquaspersa_CBS313.73_T,SRR10016842.275237,97.14,35,1,0,571,605,336,302,8e-08,60.2
Rhinocladiella_fasciculata_CBS132.86_T,SRR10016842.155593,92.31,143,7,4,247,388,1,140,4e-50,200
Rhinocladiella_fasciculata_CBS132.86_T,SRR10016842.10657,91.30,138,10,2,247,384,1,136,3e-46,187
Rhinocladiella_anceps_CBS181.65_T,SRR10016842.155593,90.06,161,9,6,229,388,1,155,1e-50,202
Rhinocladiella_anceps_CBS181.65_T,SRR10016842.10657,90.65,139,11,2,229,367,1,137,4e-45,183
Rhinocladiella_mackenziei_CBS367.92,SRR10016842.155593,93.66,142,5,4,218,358,1,139,7e-53,209
Rhinocladiella_mackenziei_CBS367.92,SRR10016842.10657,89.12,147,13,3,218,363,1,145,5e-44,180
Rhinocladiella_mackenziei_CBS367.92,SRR10016842.185513,97.56,41,1,0,568,608,359,319,3e-11,71.3
Rhinocladiella_mackenziei_CBS367.92,SRR10016842.79304,95.00,40,2,0,568,607,359,320,6e-09,63.9
Veronaea_compacta_CBS268.75_T,SRR10016842.155593,90.68,161,8,7,251,410,1,155,2e-52,207
Veronaea_compacta_CBS268.75_T,SRR10016842.10657,91.37,139,10,2,251,389,1,137,9e-47,189
Capronia_pilosella_AFTOL-ID657,SRR10016842.155593,91.93,161,6,6,329,488,1,155,1e-55,219
Capronia_pilosella_AFTOL-ID657,SRR10016842.10657,90.65,139,11,2,329,467,1,137,5e-45,183
Capronia_pilosella_AFTOL-ID657,SRR10016842.10657,93.88,49,2,1,636,683,362,314,1e-11,73.1
Capronia_pilosella_AFTOL-ID657,SRR10016842.254131,100.00,40,0,0,644,683,361,322,3e-12,75.0
Capronia_pilosella_AFTOL-ID657,SRR10016842.118600,100.00,39,0,0,645,683,360,322,1e-11,73.1
Capronia_pilosella_AFTOL-ID657,SRR10016842.78118,97.62,42,1,0,642,683,352,311,1e-11,73.1
Capronia_dactylotricha_DAOM208471_T,SRR10016842.155593,93.06,144,5,4,231,373,1,140,1e-51,206
Capronia_dactylotricha_DAOM208471_T,SRR10016842.10657,90.00,140,11,2,231,370,1,137,2e-43,178
Capronia_dactylotricha_DAOM208471_T,SRR10016842.10657,98.31,59,1,0,560,618,352,294,4e-21,104
Capronia_dactylotricha_DAOM208471_T,SRR10016842.254131,98.33,60,1,0,559,618,361,302,1e-21,106
Capronia_dactylotricha_DAOM208471_T,SRR10016842.121583,98.33,60,1,0,559,618,361,302,1e-21,106
Capronia_dactylotricha_DAOM208471_T,SRR10016842.118600,98.31,59,1,0,560,618,360,302,4e-21,104
Capronia_dactylotricha_DAOM208471_T,SRR10016842.185513,98.28,58,1,0,561,618,359,302,1e-20,102
Capronia_dactylotricha_DAOM208471_T,SRR10016842.220832,92.75,69,4,1,550,618,369,302,2e-19,99.0
Capronia_dactylotricha_DAOM208471_T,SRR10016842.121535,92.75,69,4,1,550,618,369,302,2e-19,99.0
Capronia_dactylotricha_DAOM208471_T,SRR10016842.79304,94.83,58,3,0,561,618,359,302,3e-17,91.6
Capronia_dactylotricha_DAOM208471_T,SRR10016842.193893,89.86,69,6,1,551,618,370,302,4e-16,87.9
Capronia_dactylotricha_DAOM208471_T,SRR10016842.44965,91.80,61,5,0,558,618,362,302,1e-15,86.1
Capronia_dactylotricha_DAOM208471_T,SRR10016842.258925,91.38,58,3,2,562,618,358,302,2e-13,78.7
Capronia_dactylotricha_DAOM208471_T,SRR10016842.275237,91.07,56,5,0,563,618,357,302,8e-13,76.8
Capronia_dactylotricha_DAOM208471_T,SRR10016842.82694,90.74,54,4,1,565,618,354,302,4e-11,71.3
Capronia_kleinmondensis_CBS122671_T,SRR10016842.155593,93.01,143,6,4,256,397,1,140,1e-51,206
Capronia_kleinmondensis_CBS122671_T,SRR10016842.10657,90.65,139,11,2,256,394,1,137,5e-45,183
Capronia_kleinmondensis_CBS122671_T,SRR10016842.10657,98.31,59,1,0,566,624,352,294,4e-21,104
Capronia_kleinmondensis_CBS122671_T,SRR10016842.254131,98.33,60,1,0,565,624,361,302,1e-21,106
Capronia_kleinmondensis_CBS122671_T,SRR10016842.121583,95.52,67,2,1,559,624,368,302,1e-21,106
Capronia_kleinmondensis_CBS122671_T,SRR10016842.118600,98.31,59,1,0,566,624,360,302,4e-21,104
Capronia_kleinmondensis_CBS122671_T,SRR10016842.185513,98.28,58,1,0,567,624,359,302,1e-20,102
Capronia_kleinmondensis_CBS122671_T,SRR10016842.220832,95.08,61,3,0,564,624,362,302,6e-19,97.1
Capronia_kleinmondensis_CBS122671_T,SRR10016842.121535,95.08,61,3,0,564,624,362,302,6e-19,97.1
Capronia_kleinmondensis_CBS122671_T,SRR10016842.79304,94.83,58,3,0,567,624,359,302,3e-17,91.6
Capronia_kleinmondensis_CBS122671_T,SRR10016842.193893,93.10,58,4,0,567,624,359,302,1e-15,86.1
Capronia_kleinmondensis_CBS122671_T,SRR10016842.44965,91.80,61,5,0,564,624,362,302,1e-15,86.1
Capronia_kleinmondensis_CBS122671_T,SRR10016842.258925,91.38,58,3,2,568,624,358,302,2e-13,78.7
Capronia_kleinmondensis_CBS122671_T,SRR10016842.275237,91.07,56,5,0,569,624,357,302,8e-13,76.8
Capronia_kleinmondensis_CBS122671_T,SRR10016842.82694,90.74,54,4,1,571,624,354,302,4e-11,71.3
Capronia_mansonii_CBS101.67_T,SRR10016842.155593,91.93,161,6,6,242,401,1,155,1e-55,219
Capronia_mansonii_CBS101.67_T,SRR10016842.10657,90.65,139,11,2,242,380,1,137,5e-45,183
Capronia_mansonii_CBS101.67_T,SRR10016842.10657,92.59,81,3,2,549,628,372,294,6e-24,113
Capronia_mansonii_CBS101.67_T,SRR10016842.254131,100.00,60,0,0,569,628,361,302,2e-23,111
Capronia_mansonii_CBS101.67_T,SRR10016842.118600,100.00,59,0,0,570,628,360,302,8e-23,110
Capronia_mansonii_CBS101.67_T,SRR10016842.78118,96.77,62,2,0,567,628,352,291,4e-21,104
Capronia_mansonii_CBS101.67_T,SRR10016842.121583,94.03,67,3,1,563,628,368,302,5e-20,100
Capronia_mansonii_CBS101.67_T,SRR10016842.44965,93.65,63,4,0,566,628,364,302,2e-18,95.3
Capronia_mansonii_CBS101.67_T,SRR10016842.220832,93.55,62,4,0,567,628,363,302,8e-18,93.5
Capronia_mansonii_CBS101.67_T,SRR10016842.121535,93.55,62,4,0,567,628,363,302,8e-18,93.5
Capronia_mansonii_CBS101.67_T,SRR10016842.275237,92.86,56,4,0,573,628,357,302,2e-14,82.4
Capronia_mansonii_CBS101.67_T,SRR10016842.193893,91.38,58,5,0,571,628,359,302,6e-14,80.5
Capronia_mansonii_CBS101.67_T,SRR10016842.258925,91.23,57,5,0,572,628,358,302,2e-13,78.7
Capronia_mansonii_CBS101.67_T,SRR10016842.82694,92.59,54,3,1,575,628,354,302,8e-13,76.8
Capronia_munkii_DAOM216390_T,SRR10016842.155593,91.93,161,6,6,242,401,1,155,1e-55,219
Capronia_munkii_DAOM216390_T,SRR10016842.10657,90.65,139,11,2,242,380,1,137,5e-45,183
Capronia_munkii_DAOM216390_T,SRR10016842.10657,92.59,81,3,3,549,628,372,294,6e-24,113
Capronia_munkii_DAOM216390_T,SRR10016842.118600,97.06,68,1,1,562,628,369,302,6e-24,113
Capronia_munkii_DAOM216390_T,SRR10016842.254131,100.00,60,0,0,569,628,361,302,2e-23,111
Capronia_munkii_DAOM216390_T,SRR10016842.121583,95.45,66,3,0,563,628,367,302,1e-21,106
Capronia_munkii_DAOM216390_T,SRR10016842.78118,96.77,62,2,0,567,628,352,291,4e-21,104
Capronia_munkii_DAOM216390_T,SRR10016842.44965,93.94,66,4,0,563,628,367,302,5e-20,100
Capronia_munkii_DAOM216390_T,SRR10016842.220832,93.55,62,4,0,567,628,363,302,8e-18,93.5
Capronia_munkii_DAOM216390_T,SRR10016842.121535,93.55,62,4,0,567,628,363,302,8e-18,93.5
Capronia_munkii_DAOM216390_T,SRR10016842.275237,92.86,56,4,0,573,628,357,302,2e-14,82.4
Capronia_munkii_DAOM216390_T,SRR10016842.193893,91.38,58,5,0,571,628,359,302,6e-14,80.5
Capronia_munkii_DAOM216390_T,SRR10016842.258925,91.23,57,5,0,572,628,358,302,2e-13,78.7
Capronia_munkii_DAOM216390_T,SRR10016842.82694,92.59,54,3,1,575,628,354,302,8e-13,76.8
Capronia_coronata_ATCC56201_T,SRR10016842.155593,90.68,161,8,6,230,389,1,155,3e-52,207
Capronia_coronata_ATCC56201_T,SRR10016842.10657,89.86,148,12,3,230,376,1,146,3e-46,187
Capronia_coronata_ATCC56201_T,SRR10016842.10657,95.71,70,3,0,530,599,363,294,6e-24,113
Capronia_coronata_ATCC56201_T,SRR10016842.254131,100.00,60,0,0,540,599,361,302,2e-23,111
Capronia_coronata_ATCC56201_T,SRR10016842.118600,100.00,59,0,0,541,599,360,302,8e-23,110
Capronia_coronata_ATCC56201_T,SRR10016842.78118,96.77,62,2,0,538,599,352,291,4e-21,104
Capronia_coronata_ATCC56201_T,SRR10016842.121583,94.03,67,3,1,534,599,368,302,5e-20,100
Capronia_coronata_ATCC56201_T,SRR10016842.220832,93.55,62,4,0,538,599,363,302,8e-18,93.5
Capronia_coronata_ATCC56201_T,SRR10016842.121535,93.55,62,4,0,538,599,363,302,8e-18,93.5
Capronia_coronata_ATCC56201_T,SRR10016842.44965,92.42,66,4,1,535,599,367,302,8e-18,93.5
Capronia_coronata_ATCC56201_T,SRR10016842.275237,92.86,56,4,0,544,599,357,302,2e-14,82.4
Capronia_coronata_ATCC56201_T,SRR10016842.193893,91.38,58,5,0,542,599,359,302,6e-14,80.5
Capronia_coronata_ATCC56201_T,SRR10016842.258925,91.23,57,5,0,543,599,358,302,2e-13,78.7
Capronia_coronata_ATCC56201_T,SRR10016842.82694,92.59,54,3,1,546,599,354,302,8e-13,76.8
Capronia_parasitica_CBS123.88,SRR10016842.155593,93.62,141,5,4,236,375,1,138,2e-52,207
Capronia_parasitica_CBS123.88,SRR10016842.10657,89.12,147,14,2,236,382,1,145,1e-44,182
Capronia_parasitica_CBS123.88,SRR10016842.185513,100.00,32,0,0,563,594,359,328,7e-08,60.2
Veronaea_japonica_CBS776.83_T,SRR10016842.155593,91.88,160,7,6,264,422,1,155,1e-55,219
Veronaea_japonica_CBS776.83_T,SRR10016842.10657,90.65,139,11,2,264,402,1,137,4e-45,183
Thysanorea_papuana_CBS212.96_T,SRR10016842.155593,92.50,160,6,5,238,396,1,155,2e-57,224
Thysanorea_papuana_CBS212.96_T,SRR10016842.10657,90.65,139,11,2,238,376,1,137,4e-45,183
Capronia_acutiseta_ATCC56428_T,SRR10016842.155593,92.91,141,5,5,232,370,1,138,4e-50,200
Capronia_acutiseta_ATCC56428_T,SRR10016842.10657,89.93,139,11,3,232,369,1,137,7e-43,176
Capronia_acutiseta_ATCC56428_T,SRR10016842.10657,95.59,68,3,0,531,598,361,294,8e-23,110
Capronia_acutiseta_ATCC56428_T,SRR10016842.121583,95.59,68,2,1,531,598,368,302,3e-22,108
Capronia_acutiseta_ATCC56428_T,SRR10016842.118600,95.52,67,3,0,532,598,368,302,3e-22,108
Capronia_acutiseta_ATCC56428_T,SRR10016842.254131,98.33,60,1,0,539,598,361,302,1e-21,106
Capronia_acutiseta_ATCC56428_T,SRR10016842.185513,98.28,58,1,0,541,598,359,302,1e-20,102
Capronia_acutiseta_ATCC56428_T,SRR10016842.220832,95.16,62,3,0,537,598,363,302,2e-19,99.0
Capronia_acutiseta_ATCC56428_T,SRR10016842.121535,95.16,62,3,0,537,598,363,302,2e-19,99.0
Capronia_acutiseta_ATCC56428_T,SRR10016842.79304,94.83,58,3,0,541,598,359,302,3e-17,91.6
Capronia_acutiseta_ATCC56428_T,SRR10016842.44965,91.04,67,5,1,532,598,367,302,1e-16,89.8
Capronia_acutiseta_ATCC56428_T,SRR10016842.193893,93.10,58,4,0,541,598,359,302,1e-15,86.1
Capronia_acutiseta_ATCC56428_T,SRR10016842.258925,91.38,58,3,2,542,598,358,302,2e-13,78.7
Capronia_acutiseta_ATCC56428_T,SRR10016842.275237,91.07,56,5,0,543,598,357,302,8e-13,76.8
Capronia_acutiseta_ATCC56428_T,SRR10016842.82694,90.74,54,4,1,545,598,354,302,4e-11,71.3
Fonsecaea_brasiliensis_CBS119710_T,SRR10016842.155593,91.93,161,6,5,238,397,1,155,1e-55,219
Fonsecaea_brasiliensis_CBS119710_T,SRR10016842.10657,90.00,140,11,3,238,377,1,137,2e-43,178
Fonsecaea_pedrosoi_CBS271.37_T,SRR10016842.155593,91.36,162,6,6,266,426,1,155,2e-54,215
Fonsecaea_pedrosoi_CBS271.37_T,SRR10016842.10657,90.00,140,11,3,266,405,1,137,2e-43,178
Fonsecaea_pedrosoi_CBS271.37_T,SRR10016842.10657,98.31,59,1,0,587,645,352,294,4e-21,104
Fonsecaea_pedrosoi_CBS271.37_T,SRR10016842.254131,98.33,60,1,0,586,645,361,302,1e-21,106
Fonsecaea_pedrosoi_CBS271.37_T,SRR10016842.118600,98.31,59,1,0,587,645,360,302,4e-21,104
Fonsecaea_pedrosoi_CBS271.37_T,SRR10016842.78118,95.16,62,3,0,584,645,352,291,2e-19,99.0
Fonsecaea_pedrosoi_CBS271.37_T,SRR10016842.121583,92.54,67,5,0,579,645,368,302,6e-19,97.1
Fonsecaea_pedrosoi_CBS271.37_T,SRR10016842.44965,92.06,63,5,0,583,645,364,302,1e-16,89.8
Fonsecaea_pedrosoi_CBS271.37_T,SRR10016842.220832,91.94,62,5,0,584,645,363,302,4e-16,87.9
Fonsecaea_pedrosoi_CBS271.37_T,SRR10016842.121535,91.94,62,5,0,584,645,363,302,4e-16,87.9
Fonsecaea_pedrosoi_CBS271.37_T,SRR10016842.275237,91.07,56,5,0,590,645,357,302,8e-13,76.8
Fonsecaea_pedrosoi_CBS271.37_T,SRR10016842.193893,89.66,58,6,0,588,645,359,302,3e-12,75.0
Fonsecaea_pedrosoi_CBS271.37_T,SRR10016842.258925,89.47,57,6,0,589,645,358,302,1e-11,73.1
Fonsecaea_pedrosoi_CBS271.37_T,SRR10016842.82694,90.74,54,4,1,592,645,354,302,4e-11,71.3
Fonsecaea_multimorphosa_CBS980.96_T,SRR10016842.155593,91.93,161,6,6,236,395,1,155,1e-55,219
Fonsecaea_multimorphosa_CBS980.96_T,SRR10016842.10657,90.00,140,11,3,236,375,1,137,2e-43,178
Fonsecaea_minima_CBS125760_T,SRR10016842.155593,91.93,161,6,5,232,391,1,155,1e-55,219
Fonsecaea_minima_CBS125760_T,SRR10016842.10657,90.00,140,11,3,232,371,1,137,2e-43,178
Fonsecaea_nubica_CBS269.64_T,SRR10016842.155593,91.36,162,6,6,243,403,1,155,1e-54,215
Fonsecaea_nubica_CBS269.64_T,SRR10016842.10657,90.00,140,11,3,243,382,1,137,2e-43,178
Fonsecaea_monophora_CBS269.37_T,SRR10016842.155593,90.80,163,6,7,243,404,1,155,6e-53,209
Fonsecaea_monophora_CBS269.37_T,SRR10016842.10657,89.36,141,11,4,243,383,1,137,2e-42,174
Fonsecaea_erecta_CBS125763_T,SRR10016842.155593,91.93,161,6,6,227,386,1,155,1e-55,219
Fonsecaea_erecta_CBS125763_T,SRR10016842.10657,90.65,139,11,2,227,365,1,137,4e-45,183
Fonsecaea_pugnacius_CBS139214_T,SRR10016842.155593,90.80,163,6,6,236,397,1,155,6e-53,209
Fonsecaea_pugnacius_CBS139214_T,SRR10016842.10657,90.00,140,11,3,236,375,1,137,2e-43,178
Cladophialophora_psammophila_CBS,SRR10016842.155593,91.93,161,6,6,242,401,1,155,1e-55,219
Cladophialophora_psammophila_CBS,SRR10016842.10657,90.65,139,11,2,242,380,1,137,4e-45,183
Cladophialophora_devriesii_CBS,SRR10016842.155593,91.93,161,6,6,238,397,1,155,1e-55,219
Cladophialophora_devriesii_CBS,SRR10016842.10657,90.00,140,11,3,238,377,1,137,2e-43,178
Cladophialophora_immunda_CBS834.96,SRR10016842.155593,91.93,161,6,5,240,399,1,155,1e-55,219
Cladophialophora_immunda_CBS834.96,SRR10016842.10657,90.00,140,11,3,240,379,1,137,2e-43,178
Cladophialophora_arxii_CBS306.94_T,SRR10016842.155593,90.80,163,6,6,242,403,1,155,6e-53,209
Cladophialophora_arxii_CBS306.94_T,SRR10016842.10657,90.44,136,11,2,242,377,1,134,2e-43,178
Cladophialophora_bantiana_CBS173.52,SRR10016842.155593,91.93,161,6,6,236,395,1,155,1e-55,219
Cladophialophora_bantiana_CBS173.52,SRR10016842.10657,90.65,139,11,2,236,374,1,137,4e-45,183
Cladophialophora_emmonsii_CBS102594,SRR10016842.155593,91.36,162,6,6,227,387,1,155,1e-54,215
Cladophialophora_emmonsii_CBS102594,SRR10016842.10657,90.65,139,11,2,227,365,1,137,4e-45,183
Cladophialophora_minourae_CBS556.83,SRR10016842.155593,89.51,162,9,7,235,395,1,155,4e-50,200
Cladophialophora_minourae_CBS556.83,SRR10016842.10657,90.07,141,10,4,235,375,1,137,5e-44,180
Cladophialophora_australiensis_CBS112793,SRR10016842.155593,91.88,160,7,5,237,395,1,155,3e-55,219
Cladophialophora_australiensis_CBS112793,SRR10016842.10657,91.37,139,10,2,237,375,1,137,2e-46,189
Cladophialophora_australiensis_CBS112793,SRR10016842.10657,95.59,68,2,1,540,606,361,294,6e-22,108
Cladophialophora_australiensis_CBS112793,SRR10016842.254131,98.33,60,1,0,547,606,361,302,2e-21,106
Cladophialophora_australiensis_CBS112793,SRR10016842.118600,95.52,67,2,1,541,606,368,302,2e-21,106
Cladophialophora_australiensis_CBS112793,SRR10016842.121583,94.03,67,4,0,540,606,368,302,3e-20,102
Cladophialophora_australiensis_CBS112793,SRR10016842.78118,95.16,62,3,0,545,606,352,291,4e-19,99.0
Cladophialophora_australiensis_CBS112793,SRR10016842.44965,92.42,66,5,0,541,606,367,302,5e-18,95.3
Cladophialophora_australiensis_CBS112793,SRR10016842.220832,91.94,62,5,0,545,606,363,302,8e-16,87.9
Cladophialophora_australiensis_CBS112793,SRR10016842.121535,91.94,62,5,0,545,606,363,302,8e-16,87.9
Cladophialophora_australiensis_CBS112793,SRR10016842.275237,91.07,56,5,0,551,606,357,302,2e-12,76.8
Cladophialophora_australiensis_CBS112793,SRR10016842.193893,89.66,58,6,0,549,606,359,302,6e-12,75.0
Cladophialophora_australiensis_CBS112793,SRR10016842.258925,89.47,57,6,0,550,606,358,302,2e-11,73.1
Cladophialophora_australiensis_CBS112793,SRR10016842.82694,90.74,54,4,1,553,606,354,302,8e-11,71.3
Cladophialophora_potulentorum_CBS112222,SRR10016842.155593,91.25,160,8,5,236,394,1,155,1e-53,213
Cladophialophora_potulentorum_CBS112222,SRR10016842.10657,92.09,139,9,2,236,374,1,137,5e-48,195
Cladophialophora_potulentorum_CBS112222,SRR10016842.10657,98.31,59,1,0,550,608,352,294,8e-21,104
Cladophialophora_potulentorum_CBS112222,SRR10016842.254131,98.33,60,1,0,549,608,361,302,2e-21,106
Cladophialophora_potulentorum_CBS112222,SRR10016842.118600,98.31,59,1,0,550,608,360,302,8e-21,104
Cladophialophora_potulentorum_CBS112222,SRR10016842.78118,93.06,72,4,1,538,608,362,291,8e-21,104
Cladophialophora_potulentorum_CBS112222,SRR10016842.121583,95.00,60,3,0,549,608,361,302,5e-18,95.3
Cladophialophora_potulentorum_CBS112222,SRR10016842.220832,91.94,62,5,0,547,608,363,302,8e-16,87.9
Cladophialophora_potulentorum_CBS112222,SRR10016842.121535,91.94,62,5,0,547,608,363,302,8e-16,87.9
Cladophialophora_potulentorum_CBS112222,SRR10016842.44965,91.94,62,5,0,547,608,363,302,8e-16,87.9
Cladophialophora_potulentorum_CBS112222,SRR10016842.275237,91.07,56,5,0,553,608,357,302,2e-12,76.8
Cladophialophora_potulentorum_CBS112222,SRR10016842.193893,89.66,58,6,0,551,608,359,302,7e-12,75.0
Cladophialophora_potulentorum_CBS112222,SRR10016842.258925,89.47,57,6,0,552,608,358,302,2e-11,73.1
Cladophialophora_potulentorum_CBS112222,SRR10016842.82694,90.74,54,4,1,555,608,354,302,9e-11,71.3
Cladophialophora_matsushimae_CMRP1198,SRR10016842.155593,91.25,160,8,5,240,398,1,155,4e-54,213
Cladophialophora_matsushimae_CMRP1198,SRR10016842.10657,91.37,139,10,2,240,378,1,137,7e-47,189
Cladophialophora_mycetomatis_CBS122637,SRR10016842.155593,91.88,160,7,5,225,383,1,155,1e-55,219
Cladophialophora_mycetomatis_CBS122637,SRR10016842.10657,91.37,139,10,2,225,363,1,137,8e-47,189
Cladophialophora_chaetospira_CBS127573,SRR10016842.155593,92.50,160,6,5,631,789,1,155,4e-57,224
Cladophialophora_chaetospira_CBS127573,SRR10016842.10657,90.65,139,11,2,631,769,1,137,6e-45,183
Cladophialophora_boppii_CBS126.86_T,SRR10016842.155593,91.88,160,7,6,233,391,1,155,1e-55,219
Cladophialophora_boppii_CBS126.86_T,SRR10016842.10657,90.65,139,11,2,233,371,1,137,4e-45,183
Cladophialophora_abundans_CBS126736,SRR10016842.155593,90.62,160,9,5,170,328,1,155,2e-52,207
Cladophialophora_abundans_CBS126736,SRR10016842.10657,90.65,139,11,2,170,308,1,137,3e-45,183
Capronia_semi-immersa_CBS102234,SRR10016842.155593,91.25,160,8,5,232,390,1,155,5e-54,213
Capronia_semi-immersa_CBS102234,SRR10016842.10657,91.37,139,10,2,232,370,1,137,8e-47,189
Phialophora_americana_CBS400.67,SRR10016842.155593,91.25,160,8,5,234,392,1,155,1e-53,213
Phialophora_americana_CBS400.67,SRR10016842.10657,91.37,139,10,2,234,372,1,137,2e-46,189
Phialophora_americana_CBS400.67,SRR10016842.78118,93.55,62,4,0,539,600,352,291,2e-17,93.5
Phialophora_verrucosa_CBS140325_T,SRR10016842.155593,91.25,160,8,5,238,396,1,155,5e-54,213
Phialophora_verrucosa_CBS140325_T,SRR10016842.10657,91.37,139,10,2,238,376,1,137,9e-47,189
Phialophora_verrucosa_CBS140325_T,SRR10016842.78118,95.24,42,2,0,545,586,352,311,4e-10,67.6
Cladophialophora_samoensis_CBS259.83_T,SRR10016842.155593,91.88,160,7,5,238,396,1,155,1e-55,219
Cladophialophora_samoensis_CBS259.83_T,SRR10016842.10657,91.37,139,10,2,238,376,1,137,8e-47,189
Cladophialophora_carrionii_CBS260.83,SRR10016842.155593,92.50,160,6,5,254,412,1,155,2e-57,224
Cladophialophora_carrionii_CBS260.83,SRR10016842.10657,91.37,139,10,2,254,392,1,137,9e-47,189
Cladophialophora_carrionii_CBS260.83,SRR10016842.78118,96.08,51,2,0,558,608,352,302,4e-15,84.2
Exophiala_palmae_UPCB86822_T,SRR10016842.155593,93.71,143,5,4,197,338,1,140,2e-53,211
Exophiala_palmae_UPCB86822_T,SRR10016842.10657,90.65,139,11,2,197,335,1,137,3e-45,183
Cladophialophora_yegresii_CBS114405_T,SRR10016842.155593,92.50,160,6,5,239,397,1,155,2e-57,224
Cladophialophora_yegresii_CBS114405_T,SRR10016842.10657,91.37,139,10,2,239,377,1,137,8e-47,189
Knufia_epidermidis_CBS120353_T,SRR10016842.155593,90.07,141,10,4,237,376,1,138,5e-44,180
Knufia_epidermidis_CBS120353_T,SRR10016842.10657,89.21,139,13,2,237,375,1,137,8e-42,172
Arthrocladium_fulminans_CBS136243_T,SRR10016842.155593,90.07,141,10,4,232,371,1,138,5e-44,180
Arthrocladium_fulminans_CBS136243_T,SRR10016842.10657,89.93,139,12,2,232,370,1,137,2e-43,178
Arthrocladium_fulminans_CBS136243_T,SRR10016842.78118,100.00,28,0,0,533,560,351,324,1e-05,52.8
Anthopsis_deltoidea_CBS263.77_T,SRR10016842.155593,91.08,157,10,4,241,395,1,155,6e-53,209
Anthopsis_deltoidea_CBS263.77_T,SRR10016842.10657,89.13,138,13,2,241,377,1,137,3e-41,171
Cyphellophora_laciniata_CBS190.61_T,SRR10016842.155593,90.45,157,11,4,326,480,1,155,4e-51,204
Cyphellophora_laciniata_CBS190.61_T,SRR10016842.10657,89.86,138,12,2,326,462,1,137,8e-43,176
Cyphellophora_laciniata_CBS190.61_T,SRR10016842.10657,100.00,59,0,0,637,695,352,294,9e-23,110
Cyphellophora_laciniata_CBS190.61_T,SRR10016842.254131,100.00,60,0,0,636,695,361,302,2e-23,111
Cyphellophora_laciniata_CBS190.61_T,SRR10016842.78118,94.44,72,4,0,624,695,362,291,2e-23,111
Cyphellophora_laciniata_CBS190.61_T,SRR10016842.118600,100.00,59,0,0,637,695,360,302,9e-23,110
Cyphellophora_laciniata_CBS190.61_T,SRR10016842.121583,96.67,60,2,0,636,695,361,302,5e-20,100
Cyphellophora_laciniata_CBS190.61_T,SRR10016842.220832,93.55,62,4,0,634,695,363,302,9e-18,93.5
Cyphellophora_laciniata_CBS190.61_T,SRR10016842.121535,93.55,62,4,0,634,695,363,302,9e-18,93.5
Cyphellophora_laciniata_CBS190.61_T,SRR10016842.44965,93.55,62,4,0,634,695,363,302,9e-18,93.5
Cyphellophora_laciniata_CBS190.61_T,SRR10016842.275237,92.86,56,4,0,640,695,357,302,2e-14,82.4
Cyphellophora_laciniata_CBS190.61_T,SRR10016842.193893,91.38,58,5,0,638,695,359,302,7e-14,80.5
Cyphellophora_laciniata_CBS190.61_T,SRR10016842.258925,91.23,57,5,0,639,695,358,302,2e-13,78.7
Cyphellophora_laciniata_CBS190.61_T,SRR10016842.82694,92.59,54,3,1,642,695,354,302,9e-13,76.8
Cyphellophora_suttonii_CBS449.91,SRR10016842.155593,90.45,157,11,4,229,383,1,155,3e-51,204
Cyphellophora_suttonii_CBS449.91,SRR10016842.10657,89.86,138,12,2,229,365,1,137,6e-43,176
Cyphellophora_pauciseptata_CBS284.85_T,SRR10016842.155593,90.45,157,11,4,240,394,1,155,3e-51,204
Cyphellophora_pauciseptata_CBS284.85_T,SRR10016842.10657,89.86,138,12,2,240,376,1,137,6e-43,176
Cyphellophora_pluriseptata_CBS286.85_T,SRR10016842.155593,90.97,155,10,4,247,399,3,155,8e-52,206
Cyphellophora_pluriseptata_CBS286.85_T,SRR10016842.10657,89.71,136,12,2,247,381,3,137,8e-42,172
Phialophora_europaea_CBS101466,SRR10016842.155593,91.08,157,10,4,235,389,1,155,6e-53,209
Phialophora_europaea_CBS101466,SRR10016842.10657,89.86,138,12,2,235,371,1,137,6e-43,176
Phialophora_ambigua_CBS235.93,SRR10016842.155593,91.08,157,10,4,232,386,1,155,6e-53,209
Phialophora_ambigua_CBS235.93,SRR10016842.10657,89.86,138,12,2,232,368,1,137,6e-43,176
Cladophialophora_modesta_CBS985.96_T,SRR10016842.155593,92.45,159,7,5,229,386,1,155,9e-57,222
Cladophialophora_modesta_CBS985.96_T,SRR10016842.10657,89.93,139,12,2,229,367,1,137,2e-43,178
Cladophialophora_modesta_CBS985.96_T,SRR10016842.10657,95.59,68,2,1,513,579,361,294,3e-22,108
Cladophialophora_modesta_CBS985.96_T,SRR10016842.121583,95.52,67,3,0,513,579,368,302,3e-22,108
Cladophialophora_modesta_CBS985.96_T,SRR10016842.254131,98.33,60,1,0,520,579,361,302,9e-22,106
Cladophialophora_modesta_CBS985.96_T,SRR10016842.118600,95.52,67,2,1,514,579,368,302,9e-22,106
Cladophialophora_modesta_CBS985.96_T,SRR10016842.44965,92.42,66,5,0,514,579,367,302,2e-18,95.3
Cladophialophora_modesta_CBS985.96_T,SRR10016842.220832,91.94,62,5,0,518,579,363,302,3e-16,87.9
Cladophialophora_modesta_CBS985.96_T,SRR10016842.121535,91.94,62,5,0,518,579,363,302,3e-16,87.9
Cladophialophora_modesta_CBS985.96_T,SRR10016842.258925,92.98,57,4,0,523,579,358,302,4e-15,84.2
Cladophialophora_modesta_CBS985.96_T,SRR10016842.193893,91.53,59,3,2,522,579,359,302,6e-14,80.5
Cladophialophora_modesta_CBS985.96_T,SRR10016842.275237,91.07,56,5,0,524,579,357,302,7e-13,76.8
Cladophialophora_modesta_CBS985.96_T,SRR10016842.82694,90.74,54,4,1,526,579,354,302,3e-11,71.3
Cyphellophora_fusarioides_MUCL44033_T,SRR10016842.155593,89.81,157,12,4,228,382,1,155,1e-49,198
Cyphellophora_fusarioides_MUCL44033_T,SRR10016842.10657,89.13,138,13,2,228,364,1,137,3e-41,171
