Exophiala_nigra_CBS535.94_T,ERR3416581.27327,93.26,89,6,0,287,375,304,216,6e-30,132
Exophiala_nigra_CBS535.94_T,ERR3416581.27327,93.26,89,6,0,287,375,328,416,6e-30,132
Exophiala_nigra_CBS535.94_T,ERR3416581.26579,87.16,109,10,3,283,391,291,187,1e-26,121
Exophiala_nigra_CBS535.94_T,ERR3416581.26579,87.04,108,10,3,284,391,327,430,4e-26,119
Exophiala_nigra_CBS535.94_T,ERR3416581.42351,90.80,87,7,1,287,373,279,194,6e-25,115
Exophiala_nigra_CBS535.94_T,ERR3416581.42351,90.80,87,7,1,287,373,327,412,6e-25,115
Exophiala_nigra_CBS535.94_T,ERR3416581.47280,86.90,84,10,1,286,369,305,223,3e-18,93.5
Exophiala_nigra_CBS535.94_T,ERR3416581.47280,86.90,84,10,1,286,369,327,409,3e-18,93.5
Exophiala_spinifera_CBS899.68_T,ERR3416581.27327,91.09,101,7,1,280,380,308,210,4e-31,135
Exophiala_spinifera_CBS899.68_T,ERR3416581.27327,91.09,101,7,1,280,380,324,422,4e-31,135
Exophiala_spinifera_CBS899.68_T,ERR3416581.42351,87.96,108,10,3,280,387,323,427,9e-28,124
Exophiala_spinifera_CBS899.68_T,ERR3416581.42351,87.04,108,10,4,280,387,282,179,4e-26,119
Exophiala_spinifera_CBS899.68_T,ERR3416581.26579,86.54,104,11,3,284,387,287,187,7e-24,111
Exophiala_spinifera_CBS899.68_T,ERR3416581.26579,86.54,104,11,3,284,387,330,430,7e-24,111
Exophiala_spinifera_CBS899.68_T,ERR3416581.47280,86.21,87,11,1,280,366,308,223,2e-18,93.5
Exophiala_spinifera_CBS899.68_T,ERR3416581.47280,86.21,87,11,1,280,366,324,409,2e-18,93.5
Exophiala_exophialae_CBS668.76_T,ERR3416581.27327,91.09,101,7,1,281,381,308,210,4e-31,135
Exophiala_exophialae_CBS668.76_T,ERR3416581.27327,91.09,101,7,1,281,381,324,422,4e-31,135
Exophiala_exophialae_CBS668.76_T,ERR3416581.42351,87.96,108,10,3,281,388,323,427,9e-28,124
Exophiala_exophialae_CBS668.76_T,ERR3416581.42351,87.04,108,10,4,281,388,282,179,4e-26,119
Exophiala_exophialae_CBS668.76_T,ERR3416581.26579,86.54,104,11,3,285,388,287,187,7e-24,111
Exophiala_exophialae_CBS668.76_T,ERR3416581.26579,86.54,104,11,3,285,388,330,430,7e-24,111
Exophiala_exophialae_CBS668.76_T,ERR3416581.47280,86.21,87,11,1,281,367,308,223,2e-18,93.5
Exophiala_exophialae_CBS668.76_T,ERR3416581.47280,86.21,87,11,1,281,367,324,409,2e-18,93.5
Exophiala_polymorpha_CBS138920_T,ERR3416581.27327,76.73,318,45,22,383,694,308,14,2e-35,150
Exophiala_polymorpha_CBS138920_T,ERR3416581.27327,91.09,101,7,1,383,483,324,422,5e-31,135
Exophiala_polymorpha_CBS138920_T,ERR3416581.42351,87.96,108,10,3,383,490,323,427,1e-27,124
Exophiala_polymorpha_CBS138920_T,ERR3416581.42351,87.04,108,10,4,383,490,282,179,5e-26,119
Exophiala_polymorpha_CBS138920_T,ERR3416581.26579,86.54,104,11,3,387,490,287,187,9e-24,111
Exophiala_polymorpha_CBS138920_T,ERR3416581.26579,86.54,104,11,3,387,490,330,430,9e-24,111
Exophiala_polymorpha_CBS138920_T,ERR3416581.26579,98.08,52,1,0,643,694,60,9,1e-17,91.6
Exophiala_polymorpha_CBS138920_T,ERR3416581.47280,100.00,50,0,0,645,694,58,9,3e-18,93.5
Exophiala_polymorpha_CBS138920_T,ERR3416581.47280,86.21,87,11,1,383,469,308,223,3e-18,93.5
Exophiala_polymorpha_CBS138920_T,ERR3416581.47280,86.21,87,11,1,383,469,324,409,3e-18,93.5
Exophiala_oligosperma_CBS725.88_T,ERR3416581.27327,91.09,101,7,1,293,393,308,210,4e-31,135
Exophiala_oligosperma_CBS725.88_T,ERR3416581.27327,91.09,101,7,1,293,393,324,422,4e-31,135
Exophiala_oligosperma_CBS725.88_T,ERR3416581.42351,87.96,108,10,3,293,400,323,427,9e-28,124
Exophiala_oligosperma_CBS725.88_T,ERR3416581.42351,87.04,108,10,4,293,400,282,179,4e-26,119
Exophiala_oligosperma_CBS725.88_T,ERR3416581.26579,86.54,104,11,3,297,400,287,187,7e-24,111
Exophiala_oligosperma_CBS725.88_T,ERR3416581.26579,86.54,104,11,3,297,400,330,430,7e-24,111
Exophiala_oligosperma_CBS725.88_T,ERR3416581.47280,86.21,87,11,1,293,379,308,223,3e-18,93.5
Exophiala_oligosperma_CBS725.88_T,ERR3416581.47280,86.21,87,11,1,293,379,324,409,3e-18,93.5
Exophiala_jeanselmei_CBS507.90_T,ERR3416581.27327,77.74,328,40,24,285,604,308,6,1e-41,171
Exophiala_jeanselmei_CBS507.90_T,ERR3416581.27327,91.09,101,7,1,285,385,324,422,4e-31,135
Exophiala_jeanselmei_CBS507.90_T,ERR3416581.42351,87.96,108,10,3,285,392,323,427,1e-27,124
Exophiala_jeanselmei_CBS507.90_T,ERR3416581.42351,87.04,108,10,4,285,392,282,179,5e-26,119
Exophiala_jeanselmei_CBS507.90_T,ERR3416581.26579,86.54,104,11,3,289,392,287,187,8e-24,111
Exophiala_jeanselmei_CBS507.90_T,ERR3416581.26579,86.54,104,11,3,289,392,330,430,8e-24,111
Exophiala_jeanselmei_CBS507.90_T,ERR3416581.26579,94.37,71,3,1,534,604,70,1,1e-22,108
Exophiala_jeanselmei_CBS507.90_T,ERR3416581.47280,100.00,58,0,0,547,604,58,1,1e-22,108
Exophiala_jeanselmei_CBS507.90_T,ERR3416581.47280,86.21,87,11,1,285,371,308,223,3e-18,93.5
Exophiala_jeanselmei_CBS507.90_T,ERR3416581.47280,86.21,87,11,1,285,371,324,409,3e-18,93.5
Exophiala_bergeri_CBS353.52,ERR3416581.27327,93.26,89,6,0,250,338,304,216,5e-30,132
Exophiala_bergeri_CBS353.52,ERR3416581.27327,93.26,89,6,0,250,338,328,416,5e-30,132
Exophiala_bergeri_CBS353.52,ERR3416581.26579,90.11,91,8,1,246,336,291,202,1e-25,117
Exophiala_bergeri_CBS353.52,ERR3416581.26579,90.00,90,8,1,247,336,327,415,5e-25,115
Exophiala_bergeri_CBS353.52,ERR3416581.42351,90.80,87,7,1,250,336,279,194,5e-25,115
Exophiala_bergeri_CBS353.52,ERR3416581.42351,90.80,87,7,1,250,336,327,412,5e-25,115
Exophiala_bergeri_CBS353.52,ERR3416581.47280,86.90,84,10,1,249,332,305,223,2e-18,93.5
Exophiala_bergeri_CBS353.52,ERR3416581.47280,86.90,84,10,1,249,332,327,409,2e-18,93.5
Exophiala_moniliae_CBS520.76_T,ERR3416581.27327,92.13,89,7,0,287,375,304,216,3e-28,126
Exophiala_moniliae_CBS520.76_T,ERR3416581.27327,92.13,89,7,0,287,375,328,416,3e-28,126
Exophiala_moniliae_CBS520.76_T,ERR3416581.26579,90.11,91,8,1,283,373,291,202,2e-25,117
Exophiala_moniliae_CBS520.76_T,ERR3416581.26579,90.00,90,8,1,284,373,327,415,5e-25,115
Exophiala_moniliae_CBS520.76_T,ERR3416581.42351,90.80,87,7,1,287,373,279,194,5e-25,115
Exophiala_moniliae_CBS520.76_T,ERR3416581.42351,90.80,87,7,1,287,373,327,412,5e-25,115
Exophiala_moniliae_CBS520.76_T,ERR3416581.47280,85.57,97,12,2,286,381,305,210,2e-20,100
Exophiala_moniliae_CBS520.76_T,ERR3416581.47280,83.64,110,14,4,286,393,327,434,2e-20,100
Exophiala_pisciphila_CBS537.73_T,ERR3416581.27327,91.75,97,6,1,290,386,304,210,2e-30,134
Exophiala_pisciphila_CBS537.73_T,ERR3416581.27327,91.75,97,6,1,290,386,328,422,2e-30,134
Exophiala_pisciphila_CBS537.73_T,ERR3416581.27327,100.00,61,0,0,553,613,66,6,2e-24,113
Exophiala_pisciphila_CBS537.73_T,ERR3416581.42351,88.46,104,9,3,290,393,279,179,4e-27,122
Exophiala_pisciphila_CBS537.73_T,ERR3416581.42351,88.46,104,9,3,290,393,327,427,4e-27,122
Exophiala_pisciphila_CBS537.73_T,ERR3416581.42351,98.39,62,0,1,552,613,61,1,1e-22,108
Exophiala_pisciphila_CBS537.73_T,ERR3416581.42351,94.83,58,2,1,552,609,545,601,4e-17,89.8
Exophiala_pisciphila_CBS537.73_T,ERR3416581.26579,87.74,106,10,3,288,393,289,187,1e-26,121
Exophiala_pisciphila_CBS537.73_T,ERR3416581.26579,87.74,106,10,3,288,393,328,430,1e-26,121
Exophiala_pisciphila_CBS537.73_T,ERR3416581.26579,97.14,70,2,0,544,613,70,1,5e-26,119
Exophiala_pisciphila_CBS537.73_T,ERR3416581.47280,98.28,58,1,0,556,613,58,1,5e-21,102
Exophiala_pisciphila_CBS537.73_T,ERR3416581.47280,86.90,84,10,1,289,372,305,223,3e-18,93.5
Exophiala_pisciphila_CBS537.73_T,ERR3416581.47280,86.90,84,10,1,289,372,327,409,3e-18,93.5
Exophiala_xenobiotica_CBS117642,ERR3416581.27327,91.75,97,6,1,282,378,304,210,1e-30,134
Exophiala_xenobiotica_CBS117642,ERR3416581.27327,91.75,97,6,1,282,378,328,422,1e-30,134
Exophiala_xenobiotica_CBS117642,ERR3416581.26579,87.04,108,11,3,278,385,291,187,4e-26,119
Exophiala_xenobiotica_CBS117642,ERR3416581.26579,86.92,107,11,3,279,385,327,430,1e-25,117
Exophiala_xenobiotica_CBS117642,ERR3416581.42351,87.50,104,10,3,282,385,279,179,1e-25,117
Exophiala_xenobiotica_CBS117642,ERR3416581.42351,87.50,104,10,3,282,385,327,427,1e-25,117
Exophiala_xenobiotica_CBS117642,ERR3416581.47280,86.90,84,10,1,281,364,305,223,2e-18,93.5
Exophiala_xenobiotica_CBS117642,ERR3416581.47280,86.90,84,10,1,281,364,327,409,2e-18,93.5
Exophiala_brunnea_CBS,ERR3416581.26579,88.89,108,9,3,314,421,291,187,2e-29,130
Exophiala_brunnea_CBS,ERR3416581.26579,88.79,107,9,3,315,421,327,430,8e-29,128
Exophiala_brunnea_CBS,ERR3416581.26579,97.96,49,1,0,585,633,60,12,1e-16,87.9
Exophiala_brunnea_CBS,ERR3416581.42351,89.42,104,8,3,318,421,279,179,8e-29,128
Exophiala_brunnea_CBS,ERR3416581.42351,89.42,104,8,3,318,421,327,427,8e-29,128
Exophiala_brunnea_CBS,ERR3416581.42351,98.08,52,1,0,581,632,63,12,3e-18,93.5
Exophiala_brunnea_CBS,ERR3416581.27327,90.72,97,7,1,318,414,304,210,8e-29,128
Exophiala_brunnea_CBS,ERR3416581.27327,90.72,97,7,1,318,414,328,422,8e-29,128
Exophiala_brunnea_CBS,ERR3416581.27327,98.00,50,1,0,584,633,66,17,4e-17,89.8
Exophiala_brunnea_CBS,ERR3416581.47280,88.10,84,9,1,317,400,305,223,6e-20,99.0
Exophiala_brunnea_CBS,ERR3416581.47280,88.10,84,9,1,317,400,327,409,6e-20,99.0
Exophiala_nishimurae_CBS101538_T,ERR3416581.27327,91.09,101,7,1,292,392,308,210,4e-31,135
Exophiala_nishimurae_CBS101538_T,ERR3416581.27327,91.09,101,7,1,292,392,324,422,4e-31,135
Exophiala_nishimurae_CBS101538_T,ERR3416581.42351,87.96,108,10,3,292,399,323,427,9e-28,124
Exophiala_nishimurae_CBS101538_T,ERR3416581.42351,87.04,108,10,4,292,399,282,179,4e-26,119
Exophiala_nishimurae_CBS101538_T,ERR3416581.42351,97.83,46,1,0,546,591,65,20,2e-14,80.5
Exophiala_nishimurae_CBS101538_T,ERR3416581.42351,97.83,46,1,0,546,591,541,586,2e-14,80.5
Exophiala_nishimurae_CBS101538_T,ERR3416581.26579,86.54,104,11,3,296,399,287,187,7e-24,111
Exophiala_nishimurae_CBS101538_T,ERR3416581.26579,86.54,104,11,3,296,399,330,430,7e-24,111
Exophiala_nishimurae_CBS101538_T,ERR3416581.47280,86.21,87,11,1,292,378,308,223,3e-18,93.5
Exophiala_nishimurae_CBS101538_T,ERR3416581.47280,86.21,87,11,1,292,378,324,409,3e-18,93.5
Exophiala_nishimurae_CBS101538_T,ERR3416581.47280,100.00,38,0,0,554,591,58,21,1e-11,71.3
Exophiala_mesophila_CBS402.95_T,ERR3416581.26579,92.31,91,6,1,276,366,291,202,8e-29,128
Exophiala_mesophila_CBS402.95_T,ERR3416581.26579,92.22,90,6,1,277,366,327,415,3e-28,126
Exophiala_mesophila_CBS402.95_T,ERR3416581.26579,98.33,60,1,0,551,610,60,1,4e-22,106
Exophiala_mesophila_CBS402.95_T,ERR3416581.42351,93.10,87,5,1,280,366,279,194,3e-28,126
Exophiala_mesophila_CBS402.95_T,ERR3416581.42351,93.10,87,5,1,280,366,327,412,3e-28,126
Exophiala_mesophila_CBS402.95_T,ERR3416581.27327,92.13,89,7,0,280,368,304,216,3e-28,126
Exophiala_mesophila_CBS402.95_T,ERR3416581.27327,92.13,89,7,0,280,368,328,416,3e-28,126
Exophiala_mesophila_CBS402.95_T,ERR3416581.27327,98.39,62,1,0,549,610,67,6,3e-23,110
Exophiala_mesophila_CBS402.95_T,ERR3416581.47280,100.00,58,0,0,553,610,58,1,1e-22,108
Exophiala_mesophila_CBS402.95_T,ERR3416581.47280,88.10,84,9,1,279,362,305,223,6e-20,99.0
Exophiala_mesophila_CBS402.95_T,ERR3416581.47280,88.10,84,9,1,279,362,327,409,6e-20,99.0
Exophiala_castellanii_CBS158.58_T,ERR3416581.26579,92.31,91,6,1,274,364,291,202,8e-29,128
Exophiala_castellanii_CBS158.58_T,ERR3416581.26579,92.22,90,6,1,275,364,327,415,3e-28,126
Exophiala_castellanii_CBS158.58_T,ERR3416581.26579,95.52,67,3,0,543,609,67,1,1e-22,108
Exophiala_castellanii_CBS158.58_T,ERR3416581.42351,93.10,87,5,1,278,364,279,194,3e-28,126
Exophiala_castellanii_CBS158.58_T,ERR3416581.42351,93.10,87,5,1,278,364,327,412,3e-28,126
Exophiala_castellanii_CBS158.58_T,ERR3416581.27327,92.13,89,7,0,278,366,304,216,3e-28,126
Exophiala_castellanii_CBS158.58_T,ERR3416581.27327,92.13,89,7,0,278,366,328,416,3e-28,126
Exophiala_castellanii_CBS158.58_T,ERR3416581.27327,98.39,62,1,0,548,609,67,6,3e-23,110
Exophiala_castellanii_CBS158.58_T,ERR3416581.47280,100.00,58,0,0,552,609,58,1,1e-22,108
Exophiala_castellanii_CBS158.58_T,ERR3416581.47280,88.10,84,9,1,277,360,305,223,6e-20,99.0
Exophiala_castellanii_CBS158.58_T,ERR3416581.47280,88.10,84,9,1,277,360,327,409,6e-20,99.0
Exophiala_lecanii-corni_CBS123.33_T,ERR3416581.27327,93.33,90,4,2,301,389,304,216,5e-30,132
Exophiala_lecanii-corni_CBS123.33_T,ERR3416581.27327,93.33,90,4,2,301,389,328,416,5e-30,132
Exophiala_lecanii-corni_CBS123.33_T,ERR3416581.26579,92.31,91,6,1,297,387,291,202,7e-29,128
Exophiala_lecanii-corni_CBS123.33_T,ERR3416581.26579,92.22,90,6,1,298,387,327,415,3e-28,126
Exophiala_lecanii-corni_CBS123.33_T,ERR3416581.42351,91.95,87,6,1,301,387,279,194,1e-26,121
Exophiala_lecanii-corni_CBS123.33_T,ERR3416581.42351,91.95,87,6,1,301,387,327,412,1e-26,121
Exophiala_lecanii-corni_CBS123.33_T,ERR3416581.47280,88.46,78,8,1,300,377,305,229,3e-18,93.5
Exophiala_lecanii-corni_CBS123.33_T,ERR3416581.47280,88.46,78,8,1,300,377,327,403,3e-18,93.5
Exophiala_dermatitidis_CBS748.88,ERR3416581.27327,93.26,89,6,0,293,381,304,216,1e-29,132
Exophiala_dermatitidis_CBS748.88,ERR3416581.27327,93.26,89,6,0,293,381,328,416,1e-29,132
Exophiala_dermatitidis_CBS748.88,ERR3416581.27327,98.36,61,1,0,575,635,66,6,2e-22,108
Exophiala_dermatitidis_CBS748.88,ERR3416581.26579,91.21,91,7,1,289,379,291,202,9e-27,122
Exophiala_dermatitidis_CBS748.88,ERR3416581.26579,91.11,90,7,1,290,379,327,415,3e-26,121
Exophiala_dermatitidis_CBS748.88,ERR3416581.26579,92.50,80,1,2,558,635,77,1,7e-23,110
Exophiala_dermatitidis_CBS748.88,ERR3416581.42351,91.95,87,6,1,293,379,279,194,3e-26,121
Exophiala_dermatitidis_CBS748.88,ERR3416581.42351,91.95,87,6,1,293,379,327,412,3e-26,121
Exophiala_dermatitidis_CBS748.88,ERR3416581.47280,100.00,58,0,0,578,635,58,1,2e-22,108
Exophiala_dermatitidis_CBS748.88,ERR3416581.47280,86.90,84,10,1,292,375,305,223,7e-18,93.5
Exophiala_dermatitidis_CBS748.88,ERR3416581.47280,86.90,84,10,1,292,375,327,409,7e-18,93.5
Exophiala_angulospora_CBS482.92_T,ERR3416581.27327,92.13,89,7,0,284,372,304,216,2e-28,126
Exophiala_angulospora_CBS482.92_T,ERR3416581.27327,92.13,89,7,0,284,372,328,416,2e-28,126
Exophiala_angulospora_CBS482.92_T,ERR3416581.26579,90.91,88,7,1,280,367,291,205,1e-25,117
Exophiala_angulospora_CBS482.92_T,ERR3416581.26579,90.80,87,7,1,281,367,327,412,5e-25,115
Exophiala_angulospora_CBS482.92_T,ERR3416581.42351,91.67,84,6,1,284,367,279,197,5e-25,115
Exophiala_angulospora_CBS482.92_T,ERR3416581.42351,91.67,84,6,1,284,367,327,409,5e-25,115
Exophiala_angulospora_CBS482.92_T,ERR3416581.47280,86.90,84,10,1,283,366,305,223,2e-18,93.5
Exophiala_angulospora_CBS482.92_T,ERR3416581.47280,86.90,84,10,1,283,366,327,409,2e-18,93.5
Exophiala_opportunistica_CBS109811_T,ERR3416581.27327,91.75,97,6,1,283,379,304,210,2e-30,134
Exophiala_opportunistica_CBS109811_T,ERR3416581.27327,91.75,97,6,1,283,379,328,422,2e-30,134
Exophiala_opportunistica_CBS109811_T,ERR3416581.26579,88.89,108,9,2,279,386,291,187,2e-29,130
Exophiala_opportunistica_CBS109811_T,ERR3416581.26579,88.79,107,9,2,280,386,327,430,7e-29,128
Exophiala_opportunistica_CBS109811_T,ERR3416581.42351,89.42,104,8,3,283,386,279,179,7e-29,128
Exophiala_opportunistica_CBS109811_T,ERR3416581.42351,89.42,104,8,3,283,386,327,427,7e-29,128
Exophiala_opportunistica_CBS109811_T,ERR3416581.47280,86.90,84,10,1,282,365,305,223,3e-18,93.5
Exophiala_opportunistica_CBS109811_T,ERR3416581.47280,86.90,84,10,1,282,365,327,409,3e-18,93.5
Exophiala_salmonis_CBS157.67_T,ERR3416581.27327,91.75,97,6,1,412,508,304,210,2e-30,134
Exophiala_salmonis_CBS157.67_T,ERR3416581.27327,91.75,97,6,1,412,508,328,422,2e-30,134
Exophiala_salmonis_CBS157.67_T,ERR3416581.27327,100.00,61,0,0,673,733,66,6,3e-24,113
Exophiala_salmonis_CBS157.67_T,ERR3416581.26579,87.96,108,10,3,408,515,291,187,1e-27,124
Exophiala_salmonis_CBS157.67_T,ERR3416581.26579,87.85,107,10,3,409,515,327,430,4e-27,122
Exophiala_salmonis_CBS157.67_T,ERR3416581.26579,97.14,70,2,0,664,733,70,1,6e-26,119
Exophiala_salmonis_CBS157.67_T,ERR3416581.42351,88.46,104,9,3,412,515,279,179,4e-27,122
Exophiala_salmonis_CBS157.67_T,ERR3416581.42351,88.46,104,9,3,412,515,327,427,4e-27,122
Exophiala_salmonis_CBS157.67_T,ERR3416581.42351,98.39,62,0,1,672,733,61,1,1e-22,108
Exophiala_salmonis_CBS157.67_T,ERR3416581.42351,94.83,58,2,1,672,729,545,601,5e-17,89.8
Exophiala_salmonis_CBS157.67_T,ERR3416581.47280,98.28,58,1,0,676,733,58,1,6e-21,102
Exophiala_salmonis_CBS157.67_T,ERR3416581.47280,86.90,84,10,1,411,494,305,223,4e-18,93.5
Exophiala_salmonis_CBS157.67_T,ERR3416581.47280,86.90,84,10,1,411,494,327,409,4e-18,93.5
Exophiala_aquamarina_CBS119918_T,ERR3416581.27327,91.84,98,5,2,290,387,304,210,1e-30,134
Exophiala_aquamarina_CBS119918_T,ERR3416581.27327,91.84,98,5,2,290,387,328,422,1e-30,134
Exophiala_aquamarina_CBS119918_T,ERR3416581.42351,88.57,105,8,4,290,394,279,179,9e-28,124
Exophiala_aquamarina_CBS119918_T,ERR3416581.42351,88.57,105,8,4,290,394,327,427,9e-28,124
Exophiala_aquamarina_CBS119918_T,ERR3416581.26579,87.16,109,10,4,286,394,291,187,1e-26,121
Exophiala_aquamarina_CBS119918_T,ERR3416581.26579,87.04,108,10,4,287,394,327,430,4e-26,119
Exophiala_aquamarina_CBS119918_T,ERR3416581.47280,86.59,82,10,1,289,370,305,225,3e-17,89.8
Exophiala_aquamarina_CBS119918_T,ERR3416581.47280,86.59,82,10,1,289,370,327,407,3e-17,89.8
Exophiala_cancerae_CBS120420_T,ERR3416581.27327,91.75,97,6,1,305,401,304,210,2e-30,134
Exophiala_cancerae_CBS120420_T,ERR3416581.27327,91.75,97,6,1,305,401,328,422,2e-30,134
Exophiala_cancerae_CBS120420_T,ERR3416581.27327,100.00,61,0,0,564,624,66,6,2e-24,113
Exophiala_cancerae_CBS120420_T,ERR3416581.26579,88.89,108,9,2,301,408,291,187,2e-29,130
Exophiala_cancerae_CBS120420_T,ERR3416581.26579,88.79,107,9,2,302,408,327,430,8e-29,128
Exophiala_cancerae_CBS120420_T,ERR3416581.26579,95.77,71,2,1,554,624,70,1,2e-24,113
Exophiala_cancerae_CBS120420_T,ERR3416581.42351,89.42,104,8,3,305,408,279,179,8e-29,128
Exophiala_cancerae_CBS120420_T,ERR3416581.42351,89.42,104,8,3,305,408,327,427,8e-29,128
Exophiala_cancerae_CBS120420_T,ERR3416581.42351,98.41,63,0,1,562,624,62,1,3e-23,110
Exophiala_cancerae_CBS120420_T,ERR3416581.42351,94.92,59,2,1,562,620,544,601,1e-17,91.6
Exophiala_cancerae_CBS120420_T,ERR3416581.47280,98.28,58,1,0,567,624,58,1,5e-21,102
Exophiala_cancerae_CBS120420_T,ERR3416581.47280,86.90,84,10,1,304,387,305,223,3e-18,93.5
Exophiala_cancerae_CBS120420_T,ERR3416581.47280,86.90,84,10,1,304,387,327,409,3e-18,93.5
Exophiala_tremulae_CBS129355,ERR3416581.27327,91.75,97,6,1,317,413,304,210,2e-30,134
Exophiala_tremulae_CBS129355,ERR3416581.27327,91.75,97,6,1,317,413,328,422,2e-30,134
Exophiala_tremulae_CBS129355,ERR3416581.27327,100.00,50,0,0,579,628,66,17,3e-18,93.5
Exophiala_tremulae_CBS129355,ERR3416581.42351,89.42,104,8,3,317,420,279,179,8e-29,128
Exophiala_tremulae_CBS129355,ERR3416581.42351,89.42,104,8,3,317,420,327,427,8e-29,128
Exophiala_tremulae_CBS129355,ERR3416581.42351,100.00,50,0,0,578,627,61,12,3e-18,93.5
Exophiala_tremulae_CBS129355,ERR3416581.42351,100.00,47,0,0,578,624,545,591,1e-16,87.9
Exophiala_tremulae_CBS129355,ERR3416581.26579,87.96,108,10,3,313,420,291,187,1e-27,124
Exophiala_tremulae_CBS129355,ERR3416581.26579,87.85,107,10,3,314,420,327,430,4e-27,122
Exophiala_tremulae_CBS129355,ERR3416581.26579,96.61,59,2,0,570,628,70,12,6e-20,99.0
Exophiala_tremulae_CBS129355,ERR3416581.47280,86.90,84,10,1,316,399,305,223,3e-18,93.5
Exophiala_tremulae_CBS129355,ERR3416581.47280,86.90,84,10,1,316,399,327,409,3e-18,93.5
Exophiala_equina_CBS116009,ERR3416581.27327,91.75,97,6,1,283,379,304,210,1e-30,134
Exophiala_equina_CBS116009,ERR3416581.27327,91.75,97,6,1,283,379,328,422,1e-30,134
Exophiala_equina_CBS116009,ERR3416581.42351,89.42,104,8,3,283,386,279,179,7e-29,128
Exophiala_equina_CBS116009,ERR3416581.42351,89.42,104,8,3,283,386,327,427,7e-29,128
Exophiala_equina_CBS116009,ERR3416581.26579,87.96,108,10,3,279,386,291,187,9e-28,124
Exophiala_equina_CBS116009,ERR3416581.26579,87.85,107,10,3,280,386,327,430,3e-27,122
Exophiala_equina_CBS116009,ERR3416581.47280,86.90,84,10,1,282,365,305,223,3e-18,93.5
Exophiala_equina_CBS116009,ERR3416581.47280,86.90,84,10,1,282,365,327,409,3e-18,93.5
Exophiala_alcalophila_CBS520.82_T,ERR3416581.27327,92.13,89,7,0,294,382,304,216,3e-28,126
Exophiala_alcalophila_CBS520.82_T,ERR3416581.27327,92.13,89,7,0,294,382,328,416,3e-28,126
Exophiala_alcalophila_CBS520.82_T,ERR3416581.26579,90.11,91,8,1,290,380,291,202,2e-25,117
Exophiala_alcalophila_CBS520.82_T,ERR3416581.26579,90.00,90,8,1,291,380,327,415,5e-25,115
Exophiala_alcalophila_CBS520.82_T,ERR3416581.42351,90.80,87,7,1,294,380,279,194,5e-25,115
Exophiala_alcalophila_CBS520.82_T,ERR3416581.42351,90.80,87,7,1,294,380,327,412,5e-25,115
Exophiala_alcalophila_CBS520.82_T,ERR3416581.47280,86.67,90,11,1,293,382,305,217,5e-20,99.0
Exophiala_alcalophila_CBS520.82_T,ERR3416581.47280,86.67,90,11,1,293,382,327,415,5e-20,99.0
Exophiala_crusticola_CBS119970_T,ERR3416581.27327,93.26,89,6,0,299,387,304,216,5e-30,132
Exophiala_crusticola_CBS119970_T,ERR3416581.27327,93.26,89,6,0,299,387,328,416,5e-30,132
Exophiala_crusticola_CBS119970_T,ERR3416581.26579,91.21,91,7,1,295,385,291,202,3e-27,122
Exophiala_crusticola_CBS119970_T,ERR3416581.26579,91.11,90,7,1,296,385,327,415,1e-26,121
Exophiala_crusticola_CBS119970_T,ERR3416581.42351,91.95,87,6,1,299,385,279,194,1e-26,121
Exophiala_crusticola_CBS119970_T,ERR3416581.42351,91.95,87,6,1,299,385,327,412,1e-26,121
Exophiala_crusticola_CBS119970_T,ERR3416581.47280,86.90,84,10,1,298,381,305,223,2e-18,93.5
Exophiala_crusticola_CBS119970_T,ERR3416581.47280,86.90,84,10,1,298,381,327,409,2e-18,93.5
Rhinocladiella_atrovirens_CBS264.49,ERR3416581.27327,93.33,90,4,2,325,413,304,216,6e-30,132
Rhinocladiella_atrovirens_CBS264.49,ERR3416581.27327,93.33,90,4,2,325,413,328,416,6e-30,132
Rhinocladiella_atrovirens_CBS264.49,ERR3416581.27327,100.00,50,0,0,577,626,67,18,3e-18,93.5
Rhinocladiella_atrovirens_CBS264.49,ERR3416581.26579,92.31,91,6,1,321,411,291,202,8e-29,128
Rhinocladiella_atrovirens_CBS264.49,ERR3416581.26579,92.22,90,6,1,322,411,327,415,3e-28,126
Rhinocladiella_atrovirens_CBS264.49,ERR3416581.26579,100.00,48,0,0,579,626,60,13,4e-17,89.8
Rhinocladiella_atrovirens_CBS264.49,ERR3416581.42351,91.95,87,6,1,325,411,279,194,1e-26,121
Rhinocladiella_atrovirens_CBS264.49,ERR3416581.42351,91.95,87,6,1,325,411,327,412,1e-26,121
Rhinocladiella_atrovirens_CBS264.49,ERR3416581.42351,100.00,49,0,0,578,626,60,12,1e-17,91.6
Rhinocladiella_atrovirens_CBS264.49,ERR3416581.42351,100.00,46,0,0,578,623,546,591,5e-16,86.1
Rhinocladiella_atrovirens_CBS264.49,ERR3416581.47280,84.54,97,13,2,324,419,327,422,8e-19,95.3
Rhinocladiella_atrovirens_CBS264.49,ERR3416581.47280,88.46,78,8,1,324,401,305,229,3e-18,93.5
Rhinocladiella_basitona_CBS101460_T,ERR3416581.27327,91.09,101,7,1,280,380,308,210,4e-31,135
Rhinocladiella_basitona_CBS101460_T,ERR3416581.27327,91.09,101,7,1,280,380,324,422,4e-31,135
Rhinocladiella_basitona_CBS101460_T,ERR3416581.42351,87.96,108,10,3,280,387,323,427,9e-28,124
Rhinocladiella_basitona_CBS101460_T,ERR3416581.42351,87.04,108,10,4,280,387,282,179,4e-26,119
Rhinocladiella_basitona_CBS101460_T,ERR3416581.26579,86.54,104,11,3,284,387,287,187,7e-24,111
Rhinocladiella_basitona_CBS101460_T,ERR3416581.26579,86.54,104,11,3,284,387,330,430,7e-24,111
Rhinocladiella_basitona_CBS101460_T,ERR3416581.47280,86.21,87,11,1,280,366,308,223,2e-18,93.5
Rhinocladiella_basitona_CBS101460_T,ERR3416581.47280,86.21,87,11,1,280,366,324,409,2e-18,93.5
Rhinocladiella_phaeophora_CBS496.78_T,ERR3416581.27327,92.47,93,7,0,288,380,308,216,2e-30,134
Rhinocladiella_phaeophora_CBS496.78_T,ERR3416581.27327,92.47,93,7,0,288,380,324,416,2e-30,134
Rhinocladiella_phaeophora_CBS496.78_T,ERR3416581.42351,91.21,91,6,2,288,378,282,194,3e-27,122
Rhinocladiella_phaeophora_CBS496.78_T,ERR3416581.42351,91.21,91,7,1,288,378,323,412,3e-27,122
Rhinocladiella_phaeophora_CBS496.78_T,ERR3416581.26579,90.91,88,7,1,291,378,288,202,2e-25,117
Rhinocladiella_phaeophora_CBS496.78_T,ERR3416581.26579,90.91,88,7,1,291,378,329,415,2e-25,117
Rhinocladiella_phaeophora_CBS496.78_T,ERR3416581.47280,87.36,87,10,1,288,374,308,223,6e-20,99.0
Rhinocladiella_phaeophora_CBS496.78_T,ERR3416581.47280,87.36,87,10,1,288,374,324,409,6e-20,99.0
Rhinocladiella_aquaspersa_CBS313.73_T,ERR3416581.27327,92.47,93,7,0,282,374,308,216,2e-30,134
Rhinocladiella_aquaspersa_CBS313.73_T,ERR3416581.27327,92.47,93,7,0,282,374,324,416,2e-30,134
Rhinocladiella_aquaspersa_CBS313.73_T,ERR3416581.27327,95.08,61,0,3,548,605,66,6,3e-18,93.5
Rhinocladiella_aquaspersa_CBS313.73_T,ERR3416581.42351,91.21,91,6,2,282,372,282,194,4e-27,122
Rhinocladiella_aquaspersa_CBS313.73_T,ERR3416581.42351,91.21,91,7,1,282,372,323,412,4e-27,122
Rhinocladiella_aquaspersa_CBS313.73_T,ERR3416581.42351,93.65,63,0,4,546,605,62,1,1e-17,91.6
Rhinocladiella_aquaspersa_CBS313.73_T,ERR3416581.42351,89.83,59,2,4,546,601,544,601,4e-12,73.1
Rhinocladiella_aquaspersa_CBS313.73_T,ERR3416581.26579,90.91,88,7,1,285,372,288,202,2e-25,117
Rhinocladiella_aquaspersa_CBS313.73_T,ERR3416581.26579,90.91,88,7,1,285,372,329,415,2e-25,117
Rhinocladiella_aquaspersa_CBS313.73_T,ERR3416581.26579,92.65,68,1,4,541,605,67,1,8e-19,95.3
Rhinocladiella_aquaspersa_CBS313.73_T,ERR3416581.47280,87.36,87,10,1,282,368,308,223,6e-20,99.0
Rhinocladiella_aquaspersa_CBS313.73_T,ERR3416581.47280,87.36,87,10,1,282,368,324,409,6e-20,99.0
Rhinocladiella_aquaspersa_CBS313.73_T,ERR3416581.47280,93.10,58,1,3,551,605,58,1,6e-15,82.4
Rhinocladiella_fasciculata_CBS132.86_T,ERR3416581.27327,92.47,93,7,0,298,390,308,216,2e-30,134
Rhinocladiella_fasciculata_CBS132.86_T,ERR3416581.27327,92.47,93,7,0,298,390,324,416,2e-30,134
Rhinocladiella_fasciculata_CBS132.86_T,ERR3416581.42351,89.01,91,8,2,298,388,282,194,7e-24,111
Rhinocladiella_fasciculata_CBS132.86_T,ERR3416581.42351,89.01,91,9,1,298,388,323,412,7e-24,111
Rhinocladiella_fasciculata_CBS132.86_T,ERR3416581.26579,88.64,88,9,1,301,388,288,202,3e-22,106
Rhinocladiella_fasciculata_CBS132.86_T,ERR3416581.26579,88.64,88,9,1,301,388,329,415,3e-22,106
Rhinocladiella_fasciculata_CBS132.86_T,ERR3416581.47280,86.02,93,12,1,298,390,308,217,6e-20,99.0
Rhinocladiella_fasciculata_CBS132.86_T,ERR3416581.47280,86.02,93,12,1,298,390,324,415,6e-20,99.0
Rhinocladiella_anceps_CBS181.65_T,ERR3416581.27327,91.40,93,8,0,280,372,308,216,7e-29,128
Rhinocladiella_anceps_CBS181.65_T,ERR3416581.27327,91.40,93,8,0,280,372,324,416,7e-29,128
Rhinocladiella_anceps_CBS181.65_T,ERR3416581.42351,91.21,91,6,2,280,370,282,194,3e-27,122
Rhinocladiella_anceps_CBS181.65_T,ERR3416581.42351,91.21,91,7,1,280,370,323,412,3e-27,122
Rhinocladiella_anceps_CBS181.65_T,ERR3416581.26579,90.91,88,7,1,283,370,288,202,1e-25,117
Rhinocladiella_anceps_CBS181.65_T,ERR3416581.26579,90.91,88,7,1,283,370,329,415,1e-25,117
Rhinocladiella_anceps_CBS181.65_T,ERR3416581.47280,87.36,87,10,1,280,366,308,223,5e-20,99.0
Rhinocladiella_anceps_CBS181.65_T,ERR3416581.47280,87.36,87,10,1,280,366,324,409,5e-20,99.0
Rhinocladiella_mackenziei_CBS367.92,ERR3416581.27327,93.33,90,5,1,273,362,304,216,6e-30,132
Rhinocladiella_mackenziei_CBS367.92,ERR3416581.27327,93.33,90,5,1,273,362,328,416,6e-30,132
Rhinocladiella_mackenziei_CBS367.92,ERR3416581.27327,100.00,43,0,0,566,608,65,23,2e-14,80.5
Rhinocladiella_mackenziei_CBS367.92,ERR3416581.26579,90.00,90,8,1,269,358,291,203,6e-25,115
Rhinocladiella_mackenziei_CBS367.92,ERR3416581.26579,89.89,89,8,1,270,358,327,414,2e-24,113
Rhinocladiella_mackenziei_CBS367.92,ERR3416581.26579,98.04,51,0,1,558,608,67,18,1e-16,87.9
Rhinocladiella_mackenziei_CBS367.92,ERR3416581.42351,90.70,86,7,1,273,358,279,195,2e-24,113
Rhinocladiella_mackenziei_CBS367.92,ERR3416581.42351,90.70,86,7,1,273,358,327,411,2e-24,113
Rhinocladiella_mackenziei_CBS367.92,ERR3416581.42351,100.00,43,0,0,566,608,59,17,2e-14,80.5
Rhinocladiella_mackenziei_CBS367.92,ERR3416581.42351,100.00,43,0,0,566,608,547,589,2e-14,80.5
Rhinocladiella_mackenziei_CBS367.92,ERR3416581.47280,86.75,83,9,2,272,353,305,224,1e-17,91.6
Rhinocladiella_mackenziei_CBS367.92,ERR3416581.47280,86.75,83,9,2,272,353,327,408,1e-17,91.6
Veronaea_compacta_CBS268.75_T,ERR3416581.26579,88.07,109,9,4,302,410,291,187,3e-28,126
Veronaea_compacta_CBS268.75_T,ERR3416581.26579,87.96,108,9,4,303,410,327,430,9e-28,124
Veronaea_compacta_CBS268.75_T,ERR3416581.42351,88.57,105,8,4,306,410,279,179,9e-28,124
Veronaea_compacta_CBS268.75_T,ERR3416581.42351,88.57,105,8,4,306,410,327,427,9e-28,124
Veronaea_compacta_CBS268.75_T,ERR3416581.27327,89.80,98,7,2,306,403,304,210,3e-27,122
Veronaea_compacta_CBS268.75_T,ERR3416581.27327,89.80,98,7,2,306,403,328,422,3e-27,122
Veronaea_compacta_CBS268.75_T,ERR3416581.47280,88.10,84,9,1,305,388,305,223,6e-20,99.0
Veronaea_compacta_CBS268.75_T,ERR3416581.47280,88.10,84,9,1,305,388,327,409,6e-20,99.0
Capronia_pilosella_AFTOL-ID657,ERR3416581.27327,93.26,89,6,0,384,472,304,216,7e-30,132
Capronia_pilosella_AFTOL-ID657,ERR3416581.27327,93.26,89,6,0,384,472,328,416,7e-30,132
Capronia_pilosella_AFTOL-ID657,ERR3416581.42351,88.57,105,8,3,384,488,279,179,1e-27,124
Capronia_pilosella_AFTOL-ID657,ERR3416581.42351,88.57,105,8,3,384,488,327,427,1e-27,124
Capronia_pilosella_AFTOL-ID657,ERR3416581.26579,91.21,91,7,1,380,470,291,202,4e-27,122
Capronia_pilosella_AFTOL-ID657,ERR3416581.26579,91.11,90,7,1,381,470,327,415,1e-26,121
Capronia_pilosella_AFTOL-ID657,ERR3416581.47280,83.49,109,14,3,383,488,327,434,7e-20,99.0
Capronia_pilosella_AFTOL-ID657,ERR3416581.47280,86.90,84,10,1,383,466,305,223,3e-18,93.5
Capronia_pilosella_AFTOL-ID657,ERR3416581.47280,100.00,38,0,0,646,683,58,21,1e-11,71.3
Capronia_dactylotricha_DAOM208471_T,ERR3416581.27327,93.33,90,5,1,286,375,304,216,6e-30,132
Capronia_dactylotricha_DAOM208471_T,ERR3416581.27327,93.33,90,5,1,286,375,328,416,6e-30,132
Capronia_dactylotricha_DAOM208471_T,ERR3416581.27327,100.00,65,0,0,554,618,70,6,1e-26,121
Capronia_dactylotricha_DAOM208471_T,ERR3416581.26579,90.22,92,7,1,282,373,291,202,5e-26,119
Capronia_dactylotricha_DAOM208471_T,ERR3416581.26579,90.11,91,7,1,283,373,327,415,2e-25,117
Capronia_dactylotricha_DAOM208471_T,ERR3416581.26579,100.00,60,0,0,559,618,60,1,8e-24,111
Capronia_dactylotricha_DAOM208471_T,ERR3416581.42351,90.91,88,6,1,286,373,279,194,2e-25,117
Capronia_dactylotricha_DAOM208471_T,ERR3416581.42351,90.91,88,6,1,286,373,327,412,2e-25,117
Capronia_dactylotricha_DAOM208471_T,ERR3416581.42351,96.97,66,1,1,553,618,65,1,3e-23,110
Capronia_dactylotricha_DAOM208471_T,ERR3416581.42351,93.55,62,3,1,553,614,541,601,1e-17,91.6
Capronia_dactylotricha_DAOM208471_T,ERR3416581.47280,98.28,58,1,0,561,618,58,1,5e-21,102
Capronia_dactylotricha_DAOM208471_T,ERR3416581.47280,85.88,85,10,1,285,369,305,223,4e-17,89.8
Capronia_dactylotricha_DAOM208471_T,ERR3416581.47280,83.67,98,13,2,285,381,327,422,4e-17,89.8
Capronia_kleinmondensis_CBS122671_T,ERR3416581.27327,76.78,323,42,22,311,624,304,6,2e-35,150
Capronia_kleinmondensis_CBS122671_T,ERR3416581.27327,93.33,90,4,2,311,399,328,416,6e-30,132
Capronia_kleinmondensis_CBS122671_T,ERR3416581.26579,92.31,91,6,1,307,397,291,202,8e-29,128
Capronia_kleinmondensis_CBS122671_T,ERR3416581.26579,92.22,90,6,1,308,397,327,415,3e-28,126
Capronia_kleinmondensis_CBS122671_T,ERR3416581.26579,100.00,60,0,0,565,624,60,1,8e-24,111
Capronia_kleinmondensis_CBS122671_T,ERR3416581.42351,91.95,87,6,1,311,397,279,194,1e-26,121
Capronia_kleinmondensis_CBS122671_T,ERR3416581.42351,91.95,87,6,1,311,397,327,412,1e-26,121
Capronia_kleinmondensis_CBS122671_T,ERR3416581.42351,98.36,61,0,1,564,624,60,1,4e-22,106
Capronia_kleinmondensis_CBS122671_T,ERR3416581.42351,94.74,57,2,1,564,620,546,601,1e-16,87.9
Capronia_kleinmondensis_CBS122671_T,ERR3416581.47280,98.28,58,1,0,567,624,58,1,5e-21,102
Capronia_kleinmondensis_CBS122671_T,ERR3416581.47280,84.54,97,13,2,310,405,327,422,8e-19,95.3
Capronia_kleinmondensis_CBS122671_T,ERR3416581.47280,88.46,78,8,1,310,387,305,229,3e-18,93.5
Capronia_mansonii_CBS101.67_T,ERR3416581.27327,93.26,89,6,0,297,385,304,216,6e-30,132
Capronia_mansonii_CBS101.67_T,ERR3416581.27327,93.26,89,6,0,297,385,328,416,6e-30,132
Capronia_mansonii_CBS101.67_T,ERR3416581.27327,98.36,61,1,0,568,628,66,6,1e-22,108
Capronia_mansonii_CBS101.67_T,ERR3416581.26579,88.07,109,9,3,293,401,291,187,3e-28,126
Capronia_mansonii_CBS101.67_T,ERR3416581.26579,87.96,108,9,3,294,401,327,430,1e-27,124
Capronia_mansonii_CBS101.67_T,ERR3416581.26579,93.42,76,4,1,553,628,75,1,8e-24,111
Capronia_mansonii_CBS101.67_T,ERR3416581.42351,88.57,105,8,3,297,401,279,179,1e-27,124
Capronia_mansonii_CBS101.67_T,ERR3416581.42351,88.57,105,8,3,297,401,327,427,1e-27,124
Capronia_mansonii_CBS101.67_T,ERR3416581.47280,100.00,58,0,0,571,628,58,1,1e-22,108
Capronia_mansonii_CBS101.67_T,ERR3416581.47280,86.90,84,10,1,296,379,305,223,3e-18,93.5
Capronia_mansonii_CBS101.67_T,ERR3416581.47280,86.90,84,10,1,296,379,327,409,3e-18,93.5
Capronia_munkii_DAOM216390_T,ERR3416581.27327,93.26,89,6,0,297,385,304,216,6e-30,132
Capronia_munkii_DAOM216390_T,ERR3416581.27327,93.26,89,6,0,297,385,328,416,6e-30,132
Capronia_munkii_DAOM216390_T,ERR3416581.27327,98.36,61,1,0,568,628,66,6,1e-22,108
Capronia_munkii_DAOM216390_T,ERR3416581.26579,88.07,109,9,3,293,401,291,187,3e-28,126
Capronia_munkii_DAOM216390_T,ERR3416581.26579,87.96,108,9,3,294,401,327,430,1e-27,124
Capronia_munkii_DAOM216390_T,ERR3416581.26579,92.11,76,5,1,553,628,75,1,4e-22,106
Capronia_munkii_DAOM216390_T,ERR3416581.42351,88.57,105,8,3,297,401,279,179,1e-27,124
Capronia_munkii_DAOM216390_T,ERR3416581.42351,88.57,105,8,3,297,401,327,427,1e-27,124
Capronia_munkii_DAOM216390_T,ERR3416581.47280,100.00,58,0,0,571,628,58,1,1e-22,108
Capronia_munkii_DAOM216390_T,ERR3416581.47280,86.90,84,10,1,296,379,305,223,3e-18,93.5
Capronia_munkii_DAOM216390_T,ERR3416581.47280,86.90,84,10,1,296,379,327,409,3e-18,93.5
Capronia_coronata_ATCC56201_T,ERR3416581.27327,76.09,322,47,23,285,599,304,6,1e-32,141
Capronia_coronata_ATCC56201_T,ERR3416581.27327,92.13,89,7,0,285,373,328,416,3e-28,126
Capronia_coronata_ATCC56201_T,ERR3416581.26579,90.91,88,7,1,281,368,291,205,2e-25,117
Capronia_coronata_ATCC56201_T,ERR3416581.26579,90.80,87,7,1,282,368,327,412,6e-25,115
Capronia_coronata_ATCC56201_T,ERR3416581.26579,95.65,69,2,1,531,599,68,1,3e-23,110
Capronia_coronata_ATCC56201_T,ERR3416581.42351,91.67,84,6,1,285,368,279,197,6e-25,115
Capronia_coronata_ATCC56201_T,ERR3416581.42351,91.67,84,6,1,285,368,327,409,6e-25,115
Capronia_coronata_ATCC56201_T,ERR3416581.47280,100.00,58,0,0,542,599,58,1,1e-22,108
Capronia_coronata_ATCC56201_T,ERR3416581.47280,86.90,84,10,1,284,367,305,223,3e-18,93.5
Capronia_coronata_ATCC56201_T,ERR3416581.47280,86.90,84,10,1,284,367,327,409,3e-18,93.5
Capronia_parasitica_CBS123.88,ERR3416581.27327,94.19,86,3,2,291,375,304,220,2e-29,130
Capronia_parasitica_CBS123.88,ERR3416581.27327,94.19,86,3,2,291,375,328,412,2e-29,130
Capronia_parasitica_CBS123.88,ERR3416581.27327,100.00,36,0,0,560,595,66,31,2e-10,67.6
Capronia_parasitica_CBS123.88,ERR3416581.26579,91.01,89,7,1,287,375,291,204,4e-26,119
Capronia_parasitica_CBS123.88,ERR3416581.26579,90.91,88,7,1,288,375,327,413,2e-25,117
Capronia_parasitica_CBS123.88,ERR3416581.26579,100.00,35,0,0,561,595,60,26,6e-10,65.8
Capronia_parasitica_CBS123.88,ERR3416581.42351,90.59,85,7,1,291,375,279,196,7e-24,111
Capronia_parasitica_CBS123.88,ERR3416581.42351,90.59,85,7,1,291,375,327,410,7e-24,111
Capronia_parasitica_CBS123.88,ERR3416581.42351,100.00,39,0,0,557,595,63,25,3e-12,73.1
Capronia_parasitica_CBS123.88,ERR3416581.42351,100.00,39,0,0,557,595,543,581,3e-12,73.1
Capronia_parasitica_CBS123.88,ERR3416581.47280,87.18,78,9,1,290,367,305,229,1e-16,87.9
Capronia_parasitica_CBS123.88,ERR3416581.47280,87.18,78,9,1,290,367,327,403,1e-16,87.9
Veronaea_japonica_CBS776.83_T,ERR3416581.27327,91.75,97,6,1,319,415,304,210,2e-30,134
Veronaea_japonica_CBS776.83_T,ERR3416581.27327,91.75,97,6,1,319,415,328,422,2e-30,134
Veronaea_japonica_CBS776.83_T,ERR3416581.26579,87.96,108,10,3,315,422,291,187,1e-27,124
Veronaea_japonica_CBS776.83_T,ERR3416581.26579,87.85,107,10,3,316,422,327,430,3e-27,122
Veronaea_japonica_CBS776.83_T,ERR3416581.42351,88.46,104,9,3,319,422,279,179,3e-27,122
Veronaea_japonica_CBS776.83_T,ERR3416581.42351,88.46,104,9,3,319,422,327,427,3e-27,122
Veronaea_japonica_CBS776.83_T,ERR3416581.47280,86.90,84,10,1,318,401,305,223,3e-18,93.5
Veronaea_japonica_CBS776.83_T,ERR3416581.47280,86.90,84,10,1,318,401,327,409,3e-18,93.5
Thysanorea_papuana_CBS212.96_T,ERR3416581.27327,91.75,97,6,2,293,389,304,210,2e-30,134
Thysanorea_papuana_CBS212.96_T,ERR3416581.27327,91.75,97,6,2,293,389,328,422,2e-30,134
Thysanorea_papuana_CBS212.96_T,ERR3416581.42351,89.42,104,8,2,293,396,279,179,7e-29,128
Thysanorea_papuana_CBS212.96_T,ERR3416581.42351,89.42,104,8,2,293,396,327,427,7e-29,128
Thysanorea_papuana_CBS212.96_T,ERR3416581.26579,87.96,108,10,2,289,396,291,187,9e-28,124
Thysanorea_papuana_CBS212.96_T,ERR3416581.26579,87.85,107,10,2,290,396,327,430,3e-27,122
Thysanorea_papuana_CBS212.96_T,ERR3416581.47280,86.90,84,10,1,292,375,305,223,3e-18,93.5
Thysanorea_papuana_CBS212.96_T,ERR3416581.47280,86.90,84,10,1,292,375,327,409,3e-18,93.5
Capronia_acutiseta_ATCC56428_T,ERR3416581.27327,95.00,80,3,1,286,364,304,225,1e-27,124
Capronia_acutiseta_ATCC56428_T,ERR3416581.27327,95.00,80,3,1,286,364,328,407,1e-27,124
Capronia_acutiseta_ATCC56428_T,ERR3416581.27327,100.00,61,0,0,538,598,66,6,2e-24,113
Capronia_acutiseta_ATCC56428_T,ERR3416581.26579,91.01,89,7,1,282,370,291,204,5e-26,119
Capronia_acutiseta_ATCC56428_T,ERR3416581.26579,90.91,88,7,1,283,370,327,413,2e-25,117
Capronia_acutiseta_ATCC56428_T,ERR3416581.26579,100.00,60,0,0,539,598,60,1,8e-24,111
Capronia_acutiseta_ATCC56428_T,ERR3416581.42351,91.76,85,6,1,286,370,279,196,2e-25,117
Capronia_acutiseta_ATCC56428_T,ERR3416581.42351,91.76,85,6,1,286,370,327,410,2e-25,117
Capronia_acutiseta_ATCC56428_T,ERR3416581.42351,98.41,63,0,1,536,598,62,1,3e-23,110
Capronia_acutiseta_ATCC56428_T,ERR3416581.42351,94.92,59,2,1,536,594,544,601,1e-17,91.6
Capronia_acutiseta_ATCC56428_T,ERR3416581.47280,98.28,58,1,0,541,598,58,1,5e-21,102
Capronia_acutiseta_ATCC56428_T,ERR3416581.47280,86.90,84,10,1,285,368,305,223,3e-18,93.5
Capronia_acutiseta_ATCC56428_T,ERR3416581.47280,86.90,84,10,1,285,368,327,409,3e-18,93.5
Fonsecaea_brasiliensis_CBS119710_T,ERR3416581.27327,91.84,98,5,3,293,390,304,210,1e-30,134
Fonsecaea_brasiliensis_CBS119710_T,ERR3416581.27327,91.84,98,5,3,293,390,328,422,1e-30,134
Fonsecaea_brasiliensis_CBS119710_T,ERR3416581.42351,88.57,105,8,3,293,397,279,179,9e-28,124
Fonsecaea_brasiliensis_CBS119710_T,ERR3416581.42351,88.57,105,8,3,293,397,327,427,9e-28,124
Fonsecaea_brasiliensis_CBS119710_T,ERR3416581.26579,87.16,109,10,3,289,397,291,187,1e-26,121
Fonsecaea_brasiliensis_CBS119710_T,ERR3416581.26579,87.04,108,10,3,290,397,327,430,4e-26,119
Fonsecaea_brasiliensis_CBS119710_T,ERR3416581.47280,86.59,82,10,1,292,373,305,225,3e-17,89.8
Fonsecaea_brasiliensis_CBS119710_T,ERR3416581.47280,86.59,82,10,1,292,373,327,407,3e-17,89.8
Fonsecaea_pedrosoi_CBS271.37_T,ERR3416581.27327,93.33,90,5,1,321,410,304,216,6e-30,132
Fonsecaea_pedrosoi_CBS271.37_T,ERR3416581.27327,93.33,90,5,1,321,410,328,416,6e-30,132
Fonsecaea_pedrosoi_CBS271.37_T,ERR3416581.27327,96.72,61,2,0,585,645,66,6,5e-21,102
Fonsecaea_pedrosoi_CBS271.37_T,ERR3416581.42351,88.68,106,7,4,321,426,279,179,1e-27,124
Fonsecaea_pedrosoi_CBS271.37_T,ERR3416581.42351,88.68,106,7,4,321,426,327,427,1e-27,124
Fonsecaea_pedrosoi_CBS271.37_T,ERR3416581.26579,90.22,92,7,2,317,408,291,202,5e-26,119
Fonsecaea_pedrosoi_CBS271.37_T,ERR3416581.26579,90.11,91,7,2,318,408,327,415,2e-25,117
Fonsecaea_pedrosoi_CBS271.37_T,ERR3416581.26579,95.52,67,3,0,579,645,67,1,1e-22,108
Fonsecaea_pedrosoi_CBS271.37_T,ERR3416581.47280,98.28,58,1,0,588,645,58,1,5e-21,102
Fonsecaea_pedrosoi_CBS271.37_T,ERR3416581.47280,82.73,110,14,4,320,426,305,198,3e-18,93.5
Fonsecaea_pedrosoi_CBS271.37_T,ERR3416581.47280,86.59,82,10,1,320,401,327,407,4e-17,89.8
Fonsecaea_multimorphosa_CBS980.96_T,ERR3416581.27327,91.84,98,5,3,291,388,304,210,1e-30,134
Fonsecaea_multimorphosa_CBS980.96_T,ERR3416581.27327,91.84,98,5,3,291,388,328,422,1e-30,134
Fonsecaea_multimorphosa_CBS980.96_T,ERR3416581.42351,89.52,105,7,3,291,395,279,179,2e-29,130
Fonsecaea_multimorphosa_CBS980.96_T,ERR3416581.42351,89.52,105,7,3,291,395,327,427,2e-29,130
Fonsecaea_multimorphosa_CBS980.96_T,ERR3416581.26579,88.07,109,9,4,287,395,291,187,2e-28,126
Fonsecaea_multimorphosa_CBS980.96_T,ERR3416581.26579,87.96,108,9,4,288,395,327,430,9e-28,124
Fonsecaea_multimorphosa_CBS980.96_T,ERR3416581.47280,86.59,82,10,1,290,371,305,225,3e-17,89.8
Fonsecaea_multimorphosa_CBS980.96_T,ERR3416581.47280,86.59,82,10,1,290,371,327,407,3e-17,89.8
Fonsecaea_minima_CBS125760_T,ERR3416581.27327,91.84,98,5,3,287,384,304,210,1e-30,134
Fonsecaea_minima_CBS125760_T,ERR3416581.27327,91.84,98,5,3,287,384,328,422,1e-30,134
Fonsecaea_minima_CBS125760_T,ERR3416581.42351,88.57,105,8,3,287,391,279,179,9e-28,124
Fonsecaea_minima_CBS125760_T,ERR3416581.42351,88.57,105,8,3,287,391,327,427,9e-28,124
Fonsecaea_minima_CBS125760_T,ERR3416581.26579,87.16,109,10,3,283,391,291,187,1e-26,121
Fonsecaea_minima_CBS125760_T,ERR3416581.26579,87.04,108,10,3,284,391,327,430,4e-26,119
Fonsecaea_minima_CBS125760_T,ERR3416581.47280,86.59,82,10,1,286,367,305,225,3e-17,89.8
Fonsecaea_minima_CBS125760_T,ERR3416581.47280,86.59,82,10,1,286,367,327,407,3e-17,89.8
Fonsecaea_nubica_CBS269.64_T,ERR3416581.27327,93.33,90,5,1,298,387,304,216,5e-30,132
Fonsecaea_nubica_CBS269.64_T,ERR3416581.27327,93.33,90,5,1,298,387,328,416,5e-30,132
Fonsecaea_nubica_CBS269.64_T,ERR3416581.42351,87.74,106,8,4,298,403,279,179,4e-26,119
Fonsecaea_nubica_CBS269.64_T,ERR3416581.42351,87.74,106,8,4,298,403,327,427,4e-26,119
Fonsecaea_nubica_CBS269.64_T,ERR3416581.26579,90.22,92,7,2,294,385,291,202,4e-26,119
Fonsecaea_nubica_CBS269.64_T,ERR3416581.26579,90.11,91,7,2,295,385,327,415,2e-25,117
Fonsecaea_nubica_CBS269.64_T,ERR3416581.47280,86.59,82,10,1,297,378,305,225,3e-17,89.8
Fonsecaea_nubica_CBS269.64_T,ERR3416581.47280,86.59,82,10,1,297,378,327,407,3e-17,89.8
Fonsecaea_monophora_CBS269.37_T,ERR3416581.27327,93.33,90,5,1,299,388,304,216,5e-30,132
Fonsecaea_monophora_CBS269.37_T,ERR3416581.27327,93.33,90,5,1,299,388,328,416,5e-30,132
Fonsecaea_monophora_CBS269.37_T,ERR3416581.42351,88.68,106,7,4,299,404,279,179,9e-28,124
Fonsecaea_monophora_CBS269.37_T,ERR3416581.42351,88.68,106,7,4,299,404,327,427,9e-28,124
Fonsecaea_monophora_CBS269.37_T,ERR3416581.26579,90.22,92,7,2,295,386,291,202,4e-26,119
Fonsecaea_monophora_CBS269.37_T,ERR3416581.26579,90.11,91,7,2,296,386,327,415,2e-25,117
Fonsecaea_monophora_CBS269.37_T,ERR3416581.47280,82.73,110,14,4,298,404,305,198,3e-18,93.5
Fonsecaea_monophora_CBS269.37_T,ERR3416581.47280,86.59,82,10,1,298,379,327,407,3e-17,89.8
Fonsecaea_erecta_CBS125763_T,ERR3416581.27327,93.26,89,6,0,282,370,304,216,5e-30,132
Fonsecaea_erecta_CBS125763_T,ERR3416581.27327,93.26,89,6,0,282,370,328,416,5e-30,132
Fonsecaea_erecta_CBS125763_T,ERR3416581.42351,89.52,105,7,3,282,386,279,179,2e-29,130
Fonsecaea_erecta_CBS125763_T,ERR3416581.42351,89.52,105,7,3,282,386,327,427,2e-29,130
Fonsecaea_erecta_CBS125763_T,ERR3416581.26579,88.07,109,9,3,278,386,291,187,2e-28,126
Fonsecaea_erecta_CBS125763_T,ERR3416581.26579,87.96,108,9,3,279,386,327,430,8e-28,124
Fonsecaea_erecta_CBS125763_T,ERR3416581.47280,83.49,109,14,4,281,386,305,198,5e-20,99.0
Fonsecaea_erecta_CBS125763_T,ERR3416581.47280,86.90,84,10,1,281,364,327,409,2e-18,93.5
Fonsecaea_pugnacius_CBS139214_T,ERR3416581.27327,93.33,90,5,1,291,380,304,216,5e-30,132
Fonsecaea_pugnacius_CBS139214_T,ERR3416581.27327,93.33,90,5,1,291,380,328,416,5e-30,132
Fonsecaea_pugnacius_CBS139214_T,ERR3416581.42351,87.85,107,7,4,291,397,279,179,1e-26,121
Fonsecaea_pugnacius_CBS139214_T,ERR3416581.42351,87.85,107,7,4,291,397,327,427,1e-26,121
Fonsecaea_pugnacius_CBS139214_T,ERR3416581.26579,90.22,92,7,2,287,378,291,202,4e-26,119
Fonsecaea_pugnacius_CBS139214_T,ERR3416581.26579,90.11,91,7,2,288,378,327,415,1e-25,117
Fonsecaea_pugnacius_CBS139214_T,ERR3416581.47280,82.73,110,15,4,290,397,305,198,7e-19,95.3
Fonsecaea_pugnacius_CBS139214_T,ERR3416581.47280,86.59,82,10,1,290,371,327,407,3e-17,89.8
Cladophialophora_psammophila_CBS,ERR3416581.27327,93.26,89,6,0,297,385,304,216,5e-30,132
Cladophialophora_psammophila_CBS,ERR3416581.27327,93.26,89,6,0,297,385,328,416,5e-30,132
Cladophialophora_psammophila_CBS,ERR3416581.42351,89.52,105,7,3,297,401,279,179,2e-29,130
Cladophialophora_psammophila_CBS,ERR3416581.42351,89.52,105,7,3,297,401,327,427,2e-29,130
Cladophialophora_psammophila_CBS,ERR3416581.26579,88.07,109,9,3,293,401,291,187,3e-28,126
Cladophialophora_psammophila_CBS,ERR3416581.26579,87.96,108,9,3,294,401,327,430,9e-28,124
Cladophialophora_psammophila_CBS,ERR3416581.47280,83.49,109,14,4,296,401,305,198,5e-20,99.0
Cladophialophora_psammophila_CBS,ERR3416581.47280,86.90,84,10,1,296,379,327,409,3e-18,93.5
Cladophialophora_devriesii_CBS,ERR3416581.27327,91.84,98,5,3,293,390,304,210,1e-30,134
Cladophialophora_devriesii_CBS,ERR3416581.27327,91.84,98,5,3,293,390,328,422,1e-30,134
Cladophialophora_devriesii_CBS,ERR3416581.42351,89.52,105,7,3,293,397,279,179,2e-29,130
Cladophialophora_devriesii_CBS,ERR3416581.42351,89.52,105,7,3,293,397,327,427,2e-29,130
Cladophialophora_devriesii_CBS,ERR3416581.26579,88.07,109,9,4,289,397,291,187,2e-28,126
Cladophialophora_devriesii_CBS,ERR3416581.26579,87.96,108,9,4,290,397,327,430,8e-28,124
Cladophialophora_devriesii_CBS,ERR3416581.47280,86.59,82,10,1,292,373,305,225,3e-17,89.8
Cladophialophora_devriesii_CBS,ERR3416581.47280,86.59,82,10,1,292,373,327,407,3e-17,89.8
Cladophialophora_immunda_CBS834.96,ERR3416581.27327,91.84,98,5,3,295,392,304,210,1e-30,134
Cladophialophora_immunda_CBS834.96,ERR3416581.27327,91.84,98,5,3,295,392,328,422,1e-30,134
Cladophialophora_immunda_CBS834.96,ERR3416581.42351,88.57,105,8,3,295,399,279,179,9e-28,124
Cladophialophora_immunda_CBS834.96,ERR3416581.42351,88.57,105,8,3,295,399,327,427,9e-28,124
Cladophialophora_immunda_CBS834.96,ERR3416581.26579,87.16,109,10,3,291,399,291,187,1e-26,121
Cladophialophora_immunda_CBS834.96,ERR3416581.26579,87.04,108,10,3,292,399,327,430,4e-26,119
Cladophialophora_immunda_CBS834.96,ERR3416581.47280,86.59,82,10,1,294,375,305,225,3e-17,89.8
Cladophialophora_immunda_CBS834.96,ERR3416581.47280,86.59,82,10,1,294,375,327,407,3e-17,89.8
Cladophialophora_arxii_CBS306.94_T,ERR3416581.27327,92.31,91,5,2,297,387,304,216,7e-29,128
Cladophialophora_arxii_CBS306.94_T,ERR3416581.27327,92.31,91,5,2,297,387,328,416,7e-29,128
Cladophialophora_arxii_CBS306.94_T,ERR3416581.42351,87.85,107,7,4,297,403,279,179,1e-26,121
Cladophialophora_arxii_CBS306.94_T,ERR3416581.42351,87.85,107,7,4,297,403,327,427,1e-26,121
Cladophialophora_arxii_CBS306.94_T,ERR3416581.26579,91.57,83,6,1,293,375,291,210,2e-24,113
Cladophialophora_arxii_CBS306.94_T,ERR3416581.26579,91.46,82,6,1,294,375,327,407,7e-24,111
Cladophialophora_arxii_CBS306.94_T,ERR3416581.47280,86.59,82,10,1,296,377,305,225,3e-17,89.8
Cladophialophora_arxii_CBS306.94_T,ERR3416581.47280,86.59,82,10,1,296,377,327,407,3e-17,89.8
Cladophialophora_bantiana_CBS173.52,ERR3416581.27327,93.26,89,6,0,291,379,304,216,5e-30,132
Cladophialophora_bantiana_CBS173.52,ERR3416581.27327,93.26,89,6,0,291,379,328,416,5e-30,132
Cladophialophora_bantiana_CBS173.52,ERR3416581.42351,89.52,105,7,3,291,395,279,179,2e-29,130
Cladophialophora_bantiana_CBS173.52,ERR3416581.42351,89.52,105,7,3,291,395,327,427,2e-29,130
Cladophialophora_bantiana_CBS173.52,ERR3416581.26579,88.07,109,9,3,287,395,291,187,2e-28,126
Cladophialophora_bantiana_CBS173.52,ERR3416581.26579,87.96,108,9,3,288,395,327,430,9e-28,124
Cladophialophora_bantiana_CBS173.52,ERR3416581.47280,83.49,109,14,4,290,395,305,198,5e-20,99.0
Cladophialophora_bantiana_CBS173.52,ERR3416581.47280,86.90,84,10,1,290,373,327,409,3e-18,93.5
Cladophialophora_emmonsii_CBS102594,ERR3416581.27327,93.26,89,6,0,282,370,304,216,5e-30,132
Cladophialophora_emmonsii_CBS102594,ERR3416581.27327,93.26,89,6,0,282,370,328,416,5e-30,132
Cladophialophora_emmonsii_CBS102594,ERR3416581.42351,88.68,106,7,3,282,387,279,179,9e-28,124
Cladophialophora_emmonsii_CBS102594,ERR3416581.42351,88.68,106,7,3,282,387,327,427,9e-28,124
Cladophialophora_emmonsii_CBS102594,ERR3416581.26579,91.21,91,7,1,278,368,291,202,3e-27,122
Cladophialophora_emmonsii_CBS102594,ERR3416581.26579,91.11,90,7,1,279,368,327,415,1e-26,121
Cladophialophora_emmonsii_CBS102594,ERR3416581.47280,83.49,109,15,3,281,387,305,198,5e-20,99.0
Cladophialophora_emmonsii_CBS102594,ERR3416581.47280,86.90,84,10,1,281,364,327,409,2e-18,93.5
Cladophialophora_minourae_CBS556.83,ERR3416581.27327,91.21,91,6,2,290,380,304,216,3e-27,122
Cladophialophora_minourae_CBS556.83,ERR3416581.27327,91.21,91,6,2,290,380,328,416,3e-27,122
Cladophialophora_minourae_CBS556.83,ERR3416581.42351,85.98,107,10,4,289,395,326,427,7e-24,111
Cladophialophora_minourae_CBS556.83,ERR3416581.42351,85.85,106,10,4,290,395,279,179,2e-23,110
Cladophialophora_minourae_CBS556.83,ERR3416581.26579,87.10,93,9,3,286,378,291,202,4e-21,102
Cladophialophora_minourae_CBS556.83,ERR3416581.26579,87.10,93,8,4,287,378,326,415,4e-21,102
Cladophialophora_minourae_CBS556.83,ERR3416581.47280,82.35,85,12,3,290,374,304,223,1e-11,71.3
Cladophialophora_minourae_CBS556.83,ERR3416581.47280,82.35,85,12,3,290,374,328,409,1e-11,71.3
Cladophialophora_australiensis_CBS112793,ERR3416581.27327,76.49,319,51,16,292,606,304,6,1e-35,152
Cladophialophora_australiensis_CBS112793,ERR3416581.27327,92.78,97,5,2,292,388,328,422,9e-32,139
Cladophialophora_australiensis_CBS112793,ERR3416581.42351,88.46,104,9,2,292,395,279,179,9e-27,122
Cladophialophora_australiensis_CBS112793,ERR3416581.42351,88.46,104,9,2,292,395,327,427,9e-27,122
Cladophialophora_australiensis_CBS112793,ERR3416581.26579,87.04,108,11,2,288,395,291,187,1e-25,119
Cladophialophora_australiensis_CBS112793,ERR3416581.26579,86.92,107,11,2,289,395,327,430,4e-25,117
Cladophialophora_australiensis_CBS112793,ERR3416581.26579,94.20,69,3,1,538,606,68,1,3e-21,104
Cladophialophora_australiensis_CBS112793,ERR3416581.47280,98.28,58,1,0,549,606,58,1,1e-20,102
Cladophialophora_australiensis_CBS112793,ERR3416581.47280,85.71,84,11,1,291,374,305,223,3e-16,87.9
Cladophialophora_australiensis_CBS112793,ERR3416581.47280,85.71,84,11,1,291,374,327,409,3e-16,87.9
Cladophialophora_potulentorum_CBS112222,ERR3416581.27327,76.47,323,47,19,291,608,304,6,1e-34,148
Cladophialophora_potulentorum_CBS112222,ERR3416581.27327,91.75,97,6,2,291,387,328,422,4e-30,134
Cladophialophora_potulentorum_CBS112222,ERR3416581.42351,89.42,104,8,2,291,394,279,179,2e-28,128
Cladophialophora_potulentorum_CBS112222,ERR3416581.42351,89.42,104,8,2,291,394,327,427,2e-28,128
Cladophialophora_potulentorum_CBS112222,ERR3416581.26579,87.96,108,10,2,287,394,291,187,2e-27,124
Cladophialophora_potulentorum_CBS112222,ERR3416581.26579,87.85,107,10,2,288,394,327,430,9e-27,122
Cladophialophora_potulentorum_CBS112222,ERR3416581.26579,96.67,60,2,0,549,608,60,1,4e-20,100
Cladophialophora_potulentorum_CBS112222,ERR3416581.47280,98.28,58,1,0,551,608,58,1,1e-20,102
Cladophialophora_potulentorum_CBS112222,ERR3416581.47280,86.90,84,10,1,290,373,305,223,7e-18,93.5
Cladophialophora_potulentorum_CBS112222,ERR3416581.47280,86.90,84,10,1,290,373,327,409,7e-18,93.5
Cladophialophora_matsushimae_CMRP1198,ERR3416581.27327,90.72,97,7,2,295,391,304,210,6e-29,128
Cladophialophora_matsushimae_CMRP1198,ERR3416581.27327,90.72,97,7,2,295,391,328,422,6e-29,128
Cladophialophora_matsushimae_CMRP1198,ERR3416581.26579,87.96,108,10,2,291,398,291,187,8e-28,124
Cladophialophora_matsushimae_CMRP1198,ERR3416581.26579,87.85,107,10,2,292,398,327,430,3e-27,122
Cladophialophora_matsushimae_CMRP1198,ERR3416581.42351,88.46,104,9,2,295,398,279,179,3e-27,122
Cladophialophora_matsushimae_CMRP1198,ERR3416581.42351,88.46,104,9,2,295,398,327,427,3e-27,122
Cladophialophora_matsushimae_CMRP1198,ERR3416581.47280,88.10,84,9,1,294,377,305,223,5e-20,99.0
Cladophialophora_matsushimae_CMRP1198,ERR3416581.47280,88.10,84,9,1,294,377,327,409,5e-20,99.0
Cladophialophora_mycetomatis_CBS122637,ERR3416581.42351,90.38,104,7,2,280,383,279,179,1e-30,134
Cladophialophora_mycetomatis_CBS122637,ERR3416581.42351,90.38,104,7,2,280,383,327,427,1e-30,134
Cladophialophora_mycetomatis_CBS122637,ERR3416581.26579,88.89,108,9,2,276,383,291,187,2e-29,130
Cladophialophora_mycetomatis_CBS122637,ERR3416581.26579,88.79,107,9,2,277,383,327,430,7e-29,128
Cladophialophora_mycetomatis_CBS122637,ERR3416581.27327,90.72,97,7,2,280,376,304,210,7e-29,128
Cladophialophora_mycetomatis_CBS122637,ERR3416581.27327,90.72,97,7,2,280,376,328,422,7e-29,128
Cladophialophora_mycetomatis_CBS122637,ERR3416581.47280,88.10,84,9,1,279,362,305,223,5e-20,99.0
Cladophialophora_mycetomatis_CBS122637,ERR3416581.47280,88.10,84,9,1,279,362,327,409,5e-20,99.0
Cladophialophora_chaetospira_CBS127573,ERR3416581.42351,90.38,104,7,3,686,789,279,179,3e-30,134
Cladophialophora_chaetospira_CBS127573,ERR3416581.42351,90.38,104,7,3,686,789,327,427,3e-30,134
Cladophialophora_chaetospira_CBS127573,ERR3416581.27327,91.75,97,6,2,686,782,304,210,3e-30,134
Cladophialophora_chaetospira_CBS127573,ERR3416581.27327,91.75,97,6,2,686,782,328,422,3e-30,134
Cladophialophora_chaetospira_CBS127573,ERR3416581.26579,87.96,108,10,2,682,789,291,187,2e-27,124
Cladophialophora_chaetospira_CBS127573,ERR3416581.26579,87.85,107,10,2,683,789,327,430,5e-27,122
Cladophialophora_chaetospira_CBS127573,ERR3416581.47280,86.90,84,10,1,685,768,305,223,4e-18,93.5
Cladophialophora_chaetospira_CBS127573,ERR3416581.47280,86.90,84,10,1,685,768,327,409,4e-18,93.5
Cladophialophora_boppii_CBS126.86_T,ERR3416581.27327,91.75,97,6,2,288,384,304,210,1e-30,134
Cladophialophora_boppii_CBS126.86_T,ERR3416581.27327,91.75,97,6,2,288,384,328,422,1e-30,134
Cladophialophora_boppii_CBS126.86_T,ERR3416581.42351,89.42,104,8,2,288,391,279,179,7e-29,128
Cladophialophora_boppii_CBS126.86_T,ERR3416581.42351,89.42,104,8,2,288,391,327,427,7e-29,128
Cladophialophora_boppii_CBS126.86_T,ERR3416581.26579,87.96,108,10,3,284,391,291,187,9e-28,124
Cladophialophora_boppii_CBS126.86_T,ERR3416581.26579,87.85,107,10,3,285,391,327,430,3e-27,122
Cladophialophora_boppii_CBS126.86_T,ERR3416581.47280,86.90,84,10,1,287,370,305,223,2e-18,93.5
Cladophialophora_boppii_CBS126.86_T,ERR3416581.47280,86.90,84,10,1,287,370,327,409,2e-18,93.5
Cladophialophora_abundans_CBS126736,ERR3416581.42351,92.38,105,5,3,224,328,326,427,2e-34,147
Cladophialophora_abundans_CBS126736,ERR3416581.42351,92.31,104,5,3,225,328,279,179,6e-34,145
Cladophialophora_abundans_CBS126736,ERR3416581.26579,88.89,108,9,2,221,328,291,187,2e-29,130
Cladophialophora_abundans_CBS126736,ERR3416581.26579,88.89,108,8,3,222,328,326,430,2e-29,130
Cladophialophora_abundans_CBS126736,ERR3416581.27327,87.63,97,10,2,225,321,304,210,6e-24,111
Cladophialophora_abundans_CBS126736,ERR3416581.27327,87.63,97,10,2,225,321,328,422,6e-24,111
Cladophialophora_abundans_CBS126736,ERR3416581.47280,87.95,83,9,1,225,307,304,223,2e-19,97.1
Cladophialophora_abundans_CBS126736,ERR3416581.47280,87.95,83,9,1,225,307,328,409,2e-19,97.1
Capronia_semi-immersa_CBS102234,ERR3416581.27327,91.75,97,6,2,287,383,304,210,1e-30,134
Capronia_semi-immersa_CBS102234,ERR3416581.27327,91.75,97,6,2,287,383,328,422,1e-30,134
Capronia_semi-immersa_CBS102234,ERR3416581.42351,87.62,105,10,2,286,390,326,427,4e-26,119
Capronia_semi-immersa_CBS102234,ERR3416581.42351,87.50,104,10,2,287,390,279,179,1e-25,117
Capronia_semi-immersa_CBS102234,ERR3416581.26579,85.19,108,13,2,283,390,291,187,9e-23,108
Capronia_semi-immersa_CBS102234,ERR3416581.26579,85.19,108,12,3,284,390,326,430,9e-23,108
Capronia_semi-immersa_CBS102234,ERR3416581.47280,84.34,83,12,1,287,369,304,223,2e-14,80.5
Capronia_semi-immersa_CBS102234,ERR3416581.47280,84.34,83,12,1,287,369,328,409,2e-14,80.5
Phialophora_americana_CBS400.67,ERR3416581.27327,91.75,97,6,2,289,385,304,210,4e-30,134
Phialophora_americana_CBS400.67,ERR3416581.27327,91.75,97,6,2,289,385,328,422,4e-30,134
Phialophora_americana_CBS400.67,ERR3416581.42351,87.62,105,10,2,288,392,326,427,1e-25,119
Phialophora_americana_CBS400.67,ERR3416581.42351,87.50,104,10,2,289,392,279,179,4e-25,117
Phialophora_americana_CBS400.67,ERR3416581.26579,85.19,108,13,2,285,392,291,187,2e-22,108
Phialophora_americana_CBS400.67,ERR3416581.26579,85.19,108,12,3,286,392,326,430,2e-22,108
Phialophora_americana_CBS400.67,ERR3416581.47280,84.34,83,12,1,289,371,304,223,5e-14,80.5
Phialophora_americana_CBS400.67,ERR3416581.47280,84.34,83,12,1,289,371,328,409,5e-14,80.5
Phialophora_verrucosa_CBS140325_T,ERR3416581.27327,91.75,97,6,2,293,389,304,210,2e-30,134
Phialophora_verrucosa_CBS140325_T,ERR3416581.27327,91.75,97,6,2,293,389,328,422,2e-30,134
Phialophora_verrucosa_CBS140325_T,ERR3416581.42351,87.62,105,10,2,292,396,326,427,4e-26,119
Phialophora_verrucosa_CBS140325_T,ERR3416581.42351,87.50,104,10,2,293,396,279,179,2e-25,117
Phialophora_verrucosa_CBS140325_T,ERR3416581.26579,85.19,108,13,2,289,396,291,187,9e-23,108
Phialophora_verrucosa_CBS140325_T,ERR3416581.26579,85.19,108,12,3,290,396,326,430,9e-23,108
Phialophora_verrucosa_CBS140325_T,ERR3416581.47280,84.34,83,12,1,293,375,304,223,2e-14,80.5
Phialophora_verrucosa_CBS140325_T,ERR3416581.47280,84.34,83,12,1,293,375,328,409,2e-14,80.5
Cladophialophora_samoensis_CBS259.83_T,ERR3416581.42351,90.38,104,7,2,293,396,279,179,1e-30,134
Cladophialophora_samoensis_CBS259.83_T,ERR3416581.42351,90.38,104,7,2,293,396,327,427,1e-30,134
Cladophialophora_samoensis_CBS259.83_T,ERR3416581.26579,88.89,108,9,2,289,396,291,187,2e-29,130
Cladophialophora_samoensis_CBS259.83_T,ERR3416581.26579,88.79,107,9,2,290,396,327,430,7e-29,128
Cladophialophora_samoensis_CBS259.83_T,ERR3416581.27327,88.66,97,9,2,293,389,304,210,1e-25,117
Cladophialophora_samoensis_CBS259.83_T,ERR3416581.27327,88.66,97,9,2,293,389,328,422,1e-25,117
Cladophialophora_samoensis_CBS259.83_T,ERR3416581.47280,88.10,84,9,1,292,375,305,223,5e-20,99.0
Cladophialophora_samoensis_CBS259.83_T,ERR3416581.47280,88.10,84,9,1,292,375,327,409,5e-20,99.0
Cladophialophora_carrionii_CBS260.83,ERR3416581.42351,89.42,104,8,3,309,412,279,179,8e-29,128
Cladophialophora_carrionii_CBS260.83,ERR3416581.42351,89.42,104,8,3,309,412,327,427,8e-29,128
Cladophialophora_carrionii_CBS260.83,ERR3416581.27327,90.72,97,7,2,309,405,304,210,8e-29,128
Cladophialophora_carrionii_CBS260.83,ERR3416581.27327,90.72,97,7,2,309,405,328,422,8e-29,128
Cladophialophora_carrionii_CBS260.83,ERR3416581.26579,87.04,108,11,2,305,412,291,187,5e-26,119
Cladophialophora_carrionii_CBS260.83,ERR3416581.26579,86.92,107,11,2,306,412,327,430,2e-25,117
Cladophialophora_carrionii_CBS260.83,ERR3416581.47280,85.71,84,11,1,308,391,305,223,1e-16,87.9
Cladophialophora_carrionii_CBS260.83,ERR3416581.47280,85.71,84,11,1,308,391,327,409,1e-16,87.9
Exophiala_palmae_UPCB86822_T,ERR3416581.27327,93.26,89,6,0,252,340,304,216,5e-30,132
Exophiala_palmae_UPCB86822_T,ERR3416581.27327,93.26,89,6,0,252,340,328,416,5e-30,132
Exophiala_palmae_UPCB86822_T,ERR3416581.26579,91.21,91,7,1,248,338,291,202,3e-27,122
Exophiala_palmae_UPCB86822_T,ERR3416581.26579,91.11,90,7,1,249,338,327,415,1e-26,121
Exophiala_palmae_UPCB86822_T,ERR3416581.42351,91.95,87,6,1,252,338,279,194,1e-26,121
Exophiala_palmae_UPCB86822_T,ERR3416581.42351,91.95,87,6,1,252,338,327,412,1e-26,121
Exophiala_palmae_UPCB86822_T,ERR3416581.47280,86.90,84,10,1,251,334,305,223,2e-18,93.5
Exophiala_palmae_UPCB86822_T,ERR3416581.47280,86.90,84,10,1,251,334,327,409,2e-18,93.5
Cladophialophora_yegresii_CBS114405_T,ERR3416581.27327,90.72,97,7,2,294,390,304,210,7e-29,128
Cladophialophora_yegresii_CBS114405_T,ERR3416581.27327,90.72,97,7,2,294,390,328,422,7e-29,128
Cladophialophora_yegresii_CBS114405_T,ERR3416581.42351,88.46,104,9,2,294,397,279,179,3e-27,122
Cladophialophora_yegresii_CBS114405_T,ERR3416581.42351,88.46,104,9,2,294,397,327,427,3e-27,122
Cladophialophora_yegresii_CBS114405_T,ERR3416581.26579,87.04,108,11,2,290,397,291,187,4e-26,119
Cladophialophora_yegresii_CBS114405_T,ERR3416581.26579,86.92,107,11,2,291,397,327,430,1e-25,117
Cladophialophora_yegresii_CBS114405_T,ERR3416581.47280,85.71,84,11,1,293,376,305,223,1e-16,87.9
Cladophialophora_yegresii_CBS114405_T,ERR3416581.47280,85.71,84,11,1,293,376,327,409,1e-16,87.9
Knufia_epidermidis_CBS120353_T,ERR3416581.42351,93.02,86,5,1,291,376,326,410,9e-28,124
Knufia_epidermidis_CBS120353_T,ERR3416581.42351,92.94,85,5,1,292,376,279,196,3e-27,122
Knufia_epidermidis_CBS120353_T,ERR3416581.26579,93.59,78,4,1,289,365,291,214,5e-25,115
Knufia_epidermidis_CBS120353_T,ERR3416581.26579,94.59,74,4,0,292,365,330,403,5e-25,115
Knufia_epidermidis_CBS120353_T,ERR3416581.27327,88.76,89,10,0,292,380,304,216,2e-23,110
Knufia_epidermidis_CBS120353_T,ERR3416581.27327,88.76,89,10,0,292,380,328,416,2e-23,110
Knufia_epidermidis_CBS120353_T,ERR3416581.47280,87.95,83,9,1,292,374,304,223,2e-19,97.1
Knufia_epidermidis_CBS120353_T,ERR3416581.47280,87.95,83,9,1,292,374,328,409,2e-19,97.1
Arthrocladium_fulminans_CBS136243_T,ERR3416581.42351,91.86,86,6,1,286,371,326,410,4e-26,119
Arthrocladium_fulminans_CBS136243_T,ERR3416581.42351,91.76,85,6,1,287,371,279,196,1e-25,117
Arthrocladium_fulminans_CBS136243_T,ERR3416581.27327,90.59,85,8,0,287,371,304,220,2e-24,113
Arthrocladium_fulminans_CBS136243_T,ERR3416581.27327,90.59,85,8,0,287,371,328,412,2e-24,113
Arthrocladium_fulminans_CBS136243_T,ERR3416581.26579,92.31,78,5,1,284,360,291,214,3e-23,110
Arthrocladium_fulminans_CBS136243_T,ERR3416581.26579,93.24,74,5,0,287,360,330,403,3e-23,110
Arthrocladium_fulminans_CBS136243_T,ERR3416581.47280,86.75,83,10,1,287,369,304,223,9e-18,91.6
Arthrocladium_fulminans_CBS136243_T,ERR3416581.47280,86.75,83,10,1,287,369,328,409,9e-18,91.6
Anthopsis_deltoidea_CBS263.77_T,ERR3416581.27327,90.18,112,9,2,294,403,304,193,6e-34,145
Anthopsis_deltoidea_CBS263.77_T,ERR3416581.27327,90.18,112,9,2,294,403,328,439,6e-34,145
Cyphellophora_laciniata_CBS190.61_T,ERR3416581.42351,91.59,107,7,2,375,480,322,427,3e-34,147
Cyphellophora_laciniata_CBS190.61_T,ERR3416581.42351,91.51,106,8,1,375,480,283,179,9e-34,145
Cyphellophora_laciniata_CBS190.61_T,ERR3416581.26579,90.57,106,8,2,376,480,291,187,4e-32,139
Cyphellophora_laciniata_CBS190.61_T,ERR3416581.26579,91.18,102,8,1,379,480,330,430,2e-31,137
Cyphellophora_laciniata_CBS190.61_T,ERR3416581.26579,98.33,60,1,0,636,695,60,1,4e-22,106
Cyphellophora_laciniata_CBS190.61_T,ERR3416581.27327,89.32,103,10,1,379,480,304,202,9e-29,128
Cyphellophora_laciniata_CBS190.61_T,ERR3416581.27327,89.32,103,10,1,379,480,328,430,9e-29,128
Cyphellophora_laciniata_CBS190.61_T,ERR3416581.27327,96.92,65,1,1,631,695,69,6,1e-22,108
Cyphellophora_laciniata_CBS190.61_T,ERR3416581.47280,100.00,58,0,0,638,695,58,1,1e-22,108
Cyphellophora_laciniata_CBS190.61_T,ERR3416581.47280,89.16,83,8,1,379,461,304,223,6e-21,102
Cyphellophora_laciniata_CBS190.61_T,ERR3416581.47280,89.16,83,8,1,379,461,328,409,6e-21,102
Cyphellophora_suttonii_CBS449.91,ERR3416581.42351,91.59,107,7,2,278,383,322,427,2e-34,147
Cyphellophora_suttonii_CBS449.91,ERR3416581.42351,91.51,106,8,1,278,383,283,179,7e-34,145
Cyphellophora_suttonii_CBS449.91,ERR3416581.26579,90.57,106,8,2,279,383,291,187,3e-32,139
Cyphellophora_suttonii_CBS449.91,ERR3416581.26579,91.18,102,8,1,282,383,330,430,1e-31,137
Cyphellophora_suttonii_CBS449.91,ERR3416581.27327,89.32,103,10,1,282,383,304,202,7e-29,128
Cyphellophora_suttonii_CBS449.91,ERR3416581.27327,89.32,103,10,1,282,383,328,430,7e-29,128
Cyphellophora_suttonii_CBS449.91,ERR3416581.47280,89.16,83,8,1,282,364,304,223,4e-21,102
Cyphellophora_suttonii_CBS449.91,ERR3416581.47280,89.16,83,8,1,282,364,328,409,4e-21,102
Cyphellophora_pauciseptata_CBS284.85_T,ERR3416581.42351,91.59,107,7,2,289,394,322,427,2e-34,147
Cyphellophora_pauciseptata_CBS284.85_T,ERR3416581.42351,91.51,106,8,1,289,394,283,179,7e-34,145
Cyphellophora_pauciseptata_CBS284.85_T,ERR3416581.26579,90.57,106,8,2,290,394,291,187,3e-32,139
Cyphellophora_pauciseptata_CBS284.85_T,ERR3416581.26579,91.18,102,8,1,293,394,330,430,1e-31,137
Cyphellophora_pauciseptata_CBS284.85_T,ERR3416581.27327,89.32,103,10,1,293,394,304,202,7e-29,128
Cyphellophora_pauciseptata_CBS284.85_T,ERR3416581.27327,89.32,103,10,1,293,394,328,430,7e-29,128
Cyphellophora_pauciseptata_CBS284.85_T,ERR3416581.47280,89.16,83,8,1,293,375,304,223,4e-21,102
Cyphellophora_pauciseptata_CBS284.85_T,ERR3416581.47280,89.16,83,8,1,293,375,328,409,4e-21,102
Cyphellophora_pluriseptata_CBS286.85_T,ERR3416581.42351,90.65,107,8,2,294,399,322,427,9e-33,141
Cyphellophora_pluriseptata_CBS286.85_T,ERR3416581.42351,90.57,106,9,1,294,399,283,179,3e-32,139
Cyphellophora_pluriseptata_CBS286.85_T,ERR3416581.27327,90.29,103,9,1,298,399,304,202,1e-30,134
Cyphellophora_pluriseptata_CBS286.85_T,ERR3416581.27327,90.29,103,9,1,298,399,328,430,1e-30,134
Cyphellophora_pluriseptata_CBS286.85_T,ERR3416581.26579,89.62,106,9,2,295,399,291,187,1e-30,134
Cyphellophora_pluriseptata_CBS286.85_T,ERR3416581.26579,90.20,102,9,1,298,399,330,430,5e-30,132
Cyphellophora_pluriseptata_CBS286.85_T,ERR3416581.47280,89.16,83,8,1,298,380,304,223,4e-21,102
Cyphellophora_pluriseptata_CBS286.85_T,ERR3416581.47280,89.16,83,8,1,298,380,328,409,4e-21,102
Phialophora_europaea_CBS101466,ERR3416581.42351,90.65,107,8,2,284,389,322,427,8e-33,141
Phialophora_europaea_CBS101466,ERR3416581.42351,90.57,106,9,1,284,389,283,179,3e-32,139
Phialophora_europaea_CBS101466,ERR3416581.27327,90.29,103,9,1,288,389,304,202,1e-30,134
Phialophora_europaea_CBS101466,ERR3416581.27327,90.29,103,9,1,288,389,328,430,1e-30,134
Phialophora_europaea_CBS101466,ERR3416581.26579,89.62,106,9,2,285,389,291,187,1e-30,134
Phialophora_europaea_CBS101466,ERR3416581.26579,90.20,102,9,1,288,389,330,430,5e-30,132
Phialophora_europaea_CBS101466,ERR3416581.47280,89.16,83,8,1,288,370,304,223,4e-21,102
Phialophora_europaea_CBS101466,ERR3416581.47280,89.16,83,8,1,288,370,328,409,4e-21,102
Phialophora_ambigua_CBS235.93,ERR3416581.42351,90.65,107,8,2,281,386,322,427,9e-33,141
Phialophora_ambigua_CBS235.93,ERR3416581.42351,90.57,106,9,1,281,386,283,179,3e-32,139
Phialophora_ambigua_CBS235.93,ERR3416581.27327,90.29,103,9,1,285,386,304,202,1e-30,134
Phialophora_ambigua_CBS235.93,ERR3416581.27327,90.29,103,9,1,285,386,328,430,1e-30,134
Phialophora_ambigua_CBS235.93,ERR3416581.26579,89.62,106,9,2,282,386,291,187,1e-30,134
Phialophora_ambigua_CBS235.93,ERR3416581.26579,90.20,102,9,1,285,386,330,430,5e-30,132
Phialophora_ambigua_CBS235.93,ERR3416581.47280,89.16,83,8,1,285,367,304,223,4e-21,102
Phialophora_ambigua_CBS235.93,ERR3416581.47280,89.16,83,8,1,285,367,328,409,4e-21,102
Cladophialophora_modesta_CBS985.96_T,ERR3416581.27327,76.92,312,43,18,284,579,304,6,2e-35,150
Cladophialophora_modesta_CBS985.96_T,ERR3416581.27327,92.71,96,6,1,284,379,328,422,1e-31,137
Cladophialophora_modesta_CBS985.96_T,ERR3416581.42351,90.38,104,8,2,283,386,326,427,5e-31,135
Cladophialophora_modesta_CBS985.96_T,ERR3416581.42351,90.29,103,8,2,284,386,279,179,2e-30,134
Cladophialophora_modesta_CBS985.96_T,ERR3416581.26579,87.85,107,10,3,281,386,291,187,4e-27,122
Cladophialophora_modesta_CBS985.96_T,ERR3416581.26579,88.35,103,10,2,284,386,330,430,4e-27,122
Cladophialophora_modesta_CBS985.96_T,ERR3416581.26579,94.12,68,3,1,512,579,67,1,5e-21,102
Cladophialophora_modesta_CBS985.96_T,ERR3416581.47280,98.28,58,1,0,522,579,58,1,5e-21,102
Cladophialophora_modesta_CBS985.96_T,ERR3416581.47280,86.75,83,10,1,284,366,304,223,1e-17,91.6
Cladophialophora_modesta_CBS985.96_T,ERR3416581.47280,86.75,83,10,1,284,366,328,409,1e-17,91.6
Cyphellophora_fusarioides_MUCL44033_T,ERR3416581.42351,90.65,107,8,2,277,382,322,427,9e-33,141
Cyphellophora_fusarioides_MUCL44033_T,ERR3416581.42351,90.57,106,9,1,277,382,283,179,3e-32,139
Cyphellophora_fusarioides_MUCL44033_T,ERR3416581.26579,89.62,106,9,2,278,382,291,187,1e-30,134
Cyphellophora_fusarioides_MUCL44033_T,ERR3416581.26579,90.20,102,9,1,281,382,330,430,5e-30,132
