SONDA_E_E_xenobiotica,ERR1817081.422610,100.00,37,0,0,1,37,192,156,5e-12,69.4
SONDA_E_E_xenobiotica,ERR1817081.374819,100.00,34,0,0,1,34,195,162,2e-10,63.9
SONDA_E_E_xenobiotica,ERR1817081.374819,100.00,34,0,0,1,34,438,471,2e-10,63.9
SONDA_E_E_xenobiotica,ERR1817081.349015,100.00,34,0,0,1,34,195,162,2e-10,63.9
SONDA_E_E_xenobiotica,ERR1817081.304708,100.00,34,0,0,1,34,195,162,2e-10,63.9
SONDA_E_E_xenobiotica,ERR1817081.304708,100.00,34,0,0,1,34,438,471,2e-10,63.9
SONDA_E_E_xenobiotica,ERR1817081.253147,100.00,34,0,0,1,34,195,162,2e-10,63.9
SONDA_E_E_xenobiotica,ERR1817081.253147,100.00,34,0,0,1,34,438,471,2e-10,63.9
SONDA_E_E_xenobiotica,ERR1817081.122437,97.30,37,1,0,1,37,193,157,2e-10,63.9
SONDA_E_E_xenobiotica,ERR1817081.122437,97.30,37,1,0,1,37,419,455,2e-10,63.9
SONDA_E_E_xenobiotica,ERR1817081.117381,97.30,37,1,0,1,37,193,157,2e-10,63.9
SONDA_E_E_xenobiotica,ERR1817081.117381,97.30,37,1,0,1,37,419,455,2e-10,63.9
SONDA_E_E_xenobiotica,ERR1817081.101618,100.00,34,0,0,1,34,438,471,2e-10,63.9
SONDA_E_E_xenobiotica,ERR1817081.58424,100.00,34,0,0,1,34,195,162,2e-10,63.9
SONDA_E_E_xenobiotica,ERR1817081.41858,97.30,37,1,0,1,37,193,157,2e-10,63.9
SONDA_E_E_xenobiotica,ERR1817081.41858,97.30,37,1,0,1,37,419,455,2e-10,63.9
SONDA_E_E_xenobiotica,ERR1817081.24207,97.30,37,1,0,1,37,193,157,2e-10,63.9
SONDA_E_E_xenobiotica,ERR1817081.24207,97.30,37,1,0,1,37,419,455,2e-10,63.9
SONDA_E_E_xenobiotica,ERR1817081.2651,100.00,34,0,0,1,34,195,162,2e-10,63.9
SONDA_E_E_xenobiotica,ERR1817081.148667,100.00,31,0,0,1,31,437,467,1e-08,58.4
