SONDA_E_E_xenobiotica,SRR5569334.84547,100.00,37,0,0,1,37,250,214,2e-12,69.4
SONDA_E_E_xenobiotica,SRR5569334.84547,100.00,37,0,0,1,37,362,398,2e-12,69.4
SONDA_E_E_xenobiotica,SRR5569334.14400,100.00,37,0,0,1,37,250,214,2e-12,69.4
SONDA_E_E_xenobiotica,SRR5569334.14400,100.00,37,0,0,1,37,362,398,2e-12,69.4
