SONDA_E_E_xenobiotica,ERR1817055.534951,100.00,37,0,0,1,37,195,159,5e-12,69.4
SONDA_E_E_xenobiotica,ERR1817055.534951,100.00,37,0,0,1,37,413,449,5e-12,69.4
SONDA_E_E_xenobiotica,ERR1817055.531024,100.00,37,0,0,1,37,413,449,5e-12,69.4
SONDA_E_E_xenobiotica,ERR1817055.527253,100.00,37,0,0,1,37,195,159,5e-12,69.4
SONDA_E_E_xenobiotica,ERR1817055.527253,100.00,37,0,0,1,37,413,449,5e-12,69.4
SONDA_E_E_xenobiotica,ERR1817055.527217,100.00,37,0,0,1,37,413,449,5e-12,69.4
SONDA_E_E_xenobiotica,ERR1817055.514025,100.00,37,0,0,1,37,195,159,5e-12,69.4
SONDA_E_E_xenobiotica,ERR1817055.514025,100.00,37,0,0,1,37,413,449,5e-12,69.4
SONDA_E_E_xenobiotica,ERR1817055.511124,100.00,37,0,0,1,37,195,159,5e-12,69.4
SONDA_E_E_xenobiotica,ERR1817055.511124,100.00,37,0,0,1,37,413,449,5e-12,69.4
SONDA_E_E_xenobiotica,ERR1817055.496607,100.00,37,0,0,1,37,195,159,5e-12,69.4
SONDA_E_E_xenobiotica,ERR1817055.496607,100.00,37,0,0,1,37,413,449,5e-12,69.4
SONDA_E_E_xenobiotica,ERR1817055.491666,100.00,37,0,0,1,37,195,159,5e-12,69.4
SONDA_E_E_xenobiotica,ERR1817055.482024,100.00,37,0,0,1,37,195,159,5e-12,69.4
SONDA_E_E_xenobiotica,ERR1817055.482024,100.00,37,0,0,1,37,413,449,5e-12,69.4
SONDA_E_E_xenobiotica,ERR1817055.471498,100.00,37,0,0,1,37,195,159,5e-12,69.4
SONDA_E_E_xenobiotica,ERR1817055.471498,100.00,37,0,0,1,37,413,449,5e-12,69.4
SONDA_E_E_xenobiotica,ERR1817055.471104,100.00,37,0,0,1,37,195,159,5e-12,69.4
SONDA_E_E_xenobiotica,ERR1817055.471104,100.00,37,0,0,1,37,413,449,5e-12,69.4
SONDA_E_E_xenobiotica,ERR1817055.470054,100.00,37,0,0,1,37,195,159,5e-12,69.4
SONDA_E_E_xenobiotica,ERR1817055.470054,100.00,37,0,0,1,37,413,449,5e-12,69.4
SONDA_E_E_xenobiotica,ERR1817055.462894,100.00,37,0,0,1,37,195,159,5e-12,69.4
SONDA_E_E_xenobiotica,ERR1817055.462894,100.00,37,0,0,1,37,413,449,5e-12,69.4
SONDA_E_E_xenobiotica,ERR1817055.460038,100.00,37,0,0,1,37,195,159,5e-12,69.4
SONDA_E_E_xenobiotica,ERR1817055.460038,100.00,37,0,0,1,37,413,449,5e-12,69.4
SONDA_E_E_xenobiotica,ERR1817055.459799,100.00,37,0,0,1,37,195,159,5e-12,69.4
SONDA_E_E_xenobiotica,ERR1817055.459799,100.00,37,0,0,1,37,413,449,5e-12,69.4
SONDA_E_E_xenobiotica,ERR1817055.456373,100.00,37,0,0,1,37,195,159,5e-12,69.4
SONDA_E_E_xenobiotica,ERR1817055.456373,100.00,37,0,0,1,37,413,449,5e-12,69.4
SONDA_E_E_xenobiotica,ERR1817055.456207,100.00,37,0,0,1,37,195,159,5e-12,69.4
SONDA_E_E_xenobiotica,ERR1817055.456207,100.00,37,0,0,1,37,413,449,5e-12,69.4
SONDA_E_E_xenobiotica,ERR1817055.443204,100.00,37,0,0,1,37,195,159,5e-12,69.4
SONDA_E_E_xenobiotica,ERR1817055.443204,100.00,37,0,0,1,37,413,449,5e-12,69.4
SONDA_E_E_xenobiotica,ERR1817055.440425,100.00,37,0,0,1,37,195,159,5e-12,69.4
SONDA_E_E_xenobiotica,ERR1817055.440425,100.00,37,0,0,1,37,413,449,5e-12,69.4
SONDA_E_E_xenobiotica,ERR1817055.433189,100.00,37,0,0,1,37,195,159,5e-12,69.4
SONDA_E_E_xenobiotica,ERR1817055.433189,100.00,37,0,0,1,37,413,449,5e-12,69.4
SONDA_E_E_xenobiotica,ERR1817055.433186,100.00,37,0,0,1,37,195,159,5e-12,69.4
SONDA_E_E_xenobiotica,ERR1817055.433186,100.00,37,0,0,1,37,413,449,5e-12,69.4
SONDA_E_E_xenobiotica,ERR1817055.423039,100.00,37,0,0,1,37,195,159,5e-12,69.4
SONDA_E_E_xenobiotica,ERR1817055.423039,100.00,37,0,0,1,37,413,449,5e-12,69.4
SONDA_E_E_xenobiotica,ERR1817055.422111,100.00,37,0,0,1,37,411,447,5e-12,69.4
SONDA_E_E_xenobiotica,ERR1817055.419870,100.00,37,0,0,1,37,413,449,5e-12,69.4
SONDA_E_E_xenobiotica,ERR1817055.419870,100.00,35,0,0,1,35,195,161,7e-11,65.8
SONDA_E_E_xenobiotica,ERR1817055.418370,100.00,37,0,0,1,37,195,159,5e-12,69.4
SONDA_E_E_xenobiotica,ERR1817055.418370,100.00,37,0,0,1,37,413,449,5e-12,69.4
SONDA_E_E_xenobiotica,ERR1817055.416068,100.00,37,0,0,1,37,195,159,5e-12,69.4
SONDA_E_E_xenobiotica,ERR1817055.416068,100.00,37,0,0,1,37,413,449,5e-12,69.4
SONDA_E_E_xenobiotica,ERR1817055.415029,100.00,37,0,0,1,37,195,159,5e-12,69.4
SONDA_E_E_xenobiotica,ERR1817055.415029,100.00,37,0,0,1,37,413,449,5e-12,69.4
SONDA_E_E_xenobiotica,ERR1817055.414397,100.00,37,0,0,1,37,195,159,5e-12,69.4
SONDA_E_E_xenobiotica,ERR1817055.414397,100.00,37,0,0,1,37,413,449,5e-12,69.4
SONDA_E_E_xenobiotica,ERR1817055.408028,100.00,37,0,0,1,37,195,159,5e-12,69.4
SONDA_E_E_xenobiotica,ERR1817055.408028,100.00,37,0,0,1,37,413,449,5e-12,69.4
SONDA_E_E_xenobiotica,ERR1817055.406687,100.00,37,0,0,1,37,412,448,5e-12,69.4
SONDA_E_E_xenobiotica,ERR1817055.406687,97.30,37,1,0,1,37,195,159,2e-10,63.9
SONDA_E_E_xenobiotica,ERR1817055.404020,100.00,37,0,0,1,37,195,159,5e-12,69.4
SONDA_E_E_xenobiotica,ERR1817055.399046,100.00,37,0,0,1,37,195,159,5e-12,69.4
SONDA_E_E_xenobiotica,ERR1817055.399046,100.00,37,0,0,1,37,413,449,5e-12,69.4
SONDA_E_E_xenobiotica,ERR1817055.395192,100.00,37,0,0,1,37,195,159,5e-12,69.4
SONDA_E_E_xenobiotica,ERR1817055.395192,100.00,37,0,0,1,37,413,449,5e-12,69.4
SONDA_E_E_xenobiotica,ERR1817055.365890,100.00,37,0,0,1,37,195,159,5e-12,69.4
SONDA_E_E_xenobiotica,ERR1817055.365890,100.00,37,0,0,1,37,413,449,5e-12,69.4
SONDA_E_E_xenobiotica,ERR1817055.354170,100.00,37,0,0,1,37,195,159,5e-12,69.4
SONDA_E_E_xenobiotica,ERR1817055.354170,100.00,37,0,0,1,37,413,449,5e-12,69.4
SONDA_E_E_xenobiotica,ERR1817055.340899,100.00,37,0,0,1,37,195,159,5e-12,69.4
SONDA_E_E_xenobiotica,ERR1817055.340899,100.00,37,0,0,1,37,413,449,5e-12,69.4
SONDA_E_E_xenobiotica,ERR1817055.340728,100.00,37,0,0,1,37,195,159,5e-12,69.4
SONDA_E_E_xenobiotica,ERR1817055.340728,100.00,37,0,0,1,37,413,449,5e-12,69.4
SONDA_E_E_xenobiotica,ERR1817055.329689,100.00,37,0,0,1,37,195,159,5e-12,69.4
SONDA_E_E_xenobiotica,ERR1817055.329689,100.00,37,0,0,1,37,413,449,5e-12,69.4
SONDA_E_E_xenobiotica,ERR1817055.328726,100.00,37,0,0,1,37,413,449,5e-12,69.4
SONDA_E_E_xenobiotica,ERR1817055.322238,100.00,37,0,0,1,37,195,159,5e-12,69.4
SONDA_E_E_xenobiotica,ERR1817055.322238,100.00,35,0,0,3,37,415,449,7e-11,65.8
SONDA_E_E_xenobiotica,ERR1817055.315445,100.00,37,0,0,1,37,195,159,5e-12,69.4
SONDA_E_E_xenobiotica,ERR1817055.315445,100.00,37,0,0,1,37,413,449,5e-12,69.4
SONDA_E_E_xenobiotica,ERR1817055.315388,100.00,37,0,0,1,37,195,159,5e-12,69.4
SONDA_E_E_xenobiotica,ERR1817055.315388,100.00,37,0,0,1,37,413,449,5e-12,69.4
SONDA_E_E_xenobiotica,ERR1817055.314009,100.00,37,0,0,1,37,195,159,5e-12,69.4
SONDA_E_E_xenobiotica,ERR1817055.314009,100.00,37,0,0,1,37,413,449,5e-12,69.4
SONDA_E_E_xenobiotica,ERR1817055.308612,100.00,37,0,0,1,37,413,449,5e-12,69.4
SONDA_E_E_xenobiotica,ERR1817055.303508,100.00,37,0,0,1,37,195,159,5e-12,69.4
SONDA_E_E_xenobiotica,ERR1817055.303508,100.00,37,0,0,1,37,413,449,5e-12,69.4
SONDA_E_E_xenobiotica,ERR1817055.296209,100.00,37,0,0,1,37,195,159,5e-12,69.4
SONDA_E_E_xenobiotica,ERR1817055.296209,100.00,37,0,0,1,37,413,449,5e-12,69.4
SONDA_E_E_xenobiotica,ERR1817055.288165,100.00,37,0,0,1,37,195,159,5e-12,69.4
SONDA_E_E_xenobiotica,ERR1817055.288165,100.00,37,0,0,1,37,412,448,5e-12,69.4
SONDA_E_E_xenobiotica,ERR1817055.282713,100.00,37,0,0,1,37,412,448,5e-12,69.4
SONDA_E_E_xenobiotica,ERR1817055.282708,100.00,37,0,0,1,37,195,159,5e-12,69.4
SONDA_E_E_xenobiotica,ERR1817055.282708,100.00,37,0,0,1,37,413,449,5e-12,69.4
SONDA_E_E_xenobiotica,ERR1817055.276258,100.00,37,0,0,1,37,413,449,5e-12,69.4
SONDA_E_E_xenobiotica,ERR1817055.276252,100.00,37,0,0,1,37,195,159,5e-12,69.4
SONDA_E_E_xenobiotica,ERR1817055.276252,100.00,37,0,0,1,37,413,449,5e-12,69.4
SONDA_E_E_xenobiotica,ERR1817055.272466,100.00,37,0,0,1,37,195,159,5e-12,69.4
SONDA_E_E_xenobiotica,ERR1817055.272466,100.00,37,0,0,1,37,413,449,5e-12,69.4
SONDA_E_E_xenobiotica,ERR1817055.270634,100.00,37,0,0,1,37,195,159,5e-12,69.4
SONDA_E_E_xenobiotica,ERR1817055.268306,100.00,37,0,0,1,37,195,159,5e-12,69.4
SONDA_E_E_xenobiotica,ERR1817055.268306,100.00,37,0,0,1,37,413,449,5e-12,69.4
SONDA_E_E_xenobiotica,ERR1817055.252043,100.00,37,0,0,1,37,195,159,5e-12,69.4
SONDA_E_E_xenobiotica,ERR1817055.252042,100.00,37,0,0,1,37,413,449,5e-12,69.4
SONDA_E_E_xenobiotica,ERR1817055.249422,100.00,37,0,0,1,37,195,159,5e-12,69.4
SONDA_E_E_xenobiotica,ERR1817055.249422,100.00,37,0,0,1,37,413,449,5e-12,69.4
SONDA_E_E_xenobiotica,ERR1817055.246482,100.00,37,0,0,1,37,195,159,5e-12,69.4
SONDA_E_E_xenobiotica,ERR1817055.246482,100.00,37,0,0,1,37,413,449,5e-12,69.4
SONDA_E_E_xenobiotica,ERR1817055.246091,100.00,37,0,0,1,37,195,159,5e-12,69.4
SONDA_E_E_xenobiotica,ERR1817055.246091,100.00,37,0,0,1,37,413,449,5e-12,69.4
SONDA_E_E_xenobiotica,ERR1817055.246059,100.00,37,0,0,1,37,195,159,5e-12,69.4
SONDA_E_E_xenobiotica,ERR1817055.246059,100.00,37,0,0,1,37,413,449,5e-12,69.4
SONDA_E_E_xenobiotica,ERR1817055.245332,100.00,37,0,0,1,37,195,159,5e-12,69.4
SONDA_E_E_xenobiotica,ERR1817055.245332,100.00,37,0,0,1,37,413,449,5e-12,69.4
SONDA_E_E_xenobiotica,ERR1817055.241624,100.00,37,0,0,1,37,195,159,5e-12,69.4
SONDA_E_E_xenobiotica,ERR1817055.241624,97.30,37,1,0,1,37,411,447,2e-10,63.9
SONDA_E_E_xenobiotica,ERR1817055.238773,100.00,37,0,0,1,37,195,159,5e-12,69.4
SONDA_E_E_xenobiotica,ERR1817055.238773,100.00,37,0,0,1,37,413,449,5e-12,69.4
SONDA_E_E_xenobiotica,ERR1817055.236260,100.00,37,0,0,1,37,413,449,5e-12,69.4
SONDA_E_E_xenobiotica,ERR1817055.236260,100.00,34,0,0,1,34,195,162,2e-10,63.9
SONDA_E_E_xenobiotica,ERR1817055.227684,100.00,37,0,0,1,37,195,159,5e-12,69.4
SONDA_E_E_xenobiotica,ERR1817055.227684,100.00,37,0,0,1,37,413,449,5e-12,69.4
SONDA_E_E_xenobiotica,ERR1817055.223864,100.00,37,0,0,1,37,195,159,5e-12,69.4
SONDA_E_E_xenobiotica,ERR1817055.223864,97.30,37,1,0,1,37,413,449,2e-10,63.9
SONDA_E_E_xenobiotica,ERR1817055.219775,100.00,37,0,0,1,37,195,159,5e-12,69.4
SONDA_E_E_xenobiotica,ERR1817055.218222,100.00,37,0,0,1,37,195,159,5e-12,69.4
SONDA_E_E_xenobiotica,ERR1817055.218222,100.00,37,0,0,1,37,413,449,5e-12,69.4
SONDA_E_E_xenobiotica,ERR1817055.216697,100.00,37,0,0,1,37,195,159,5e-12,69.4
SONDA_E_E_xenobiotica,ERR1817055.216697,100.00,37,0,0,1,37,413,449,5e-12,69.4
SONDA_E_E_xenobiotica,ERR1817055.213151,100.00,37,0,0,1,37,195,159,5e-12,69.4
SONDA_E_E_xenobiotica,ERR1817055.213151,100.00,37,0,0,1,37,413,449,5e-12,69.4
SONDA_E_E_xenobiotica,ERR1817055.213073,100.00,37,0,0,1,37,195,159,5e-12,69.4
SONDA_E_E_xenobiotica,ERR1817055.213073,100.00,37,0,0,1,37,413,449,5e-12,69.4
SONDA_E_E_xenobiotica,ERR1817055.209665,100.00,37,0,0,1,37,195,159,5e-12,69.4
SONDA_E_E_xenobiotica,ERR1817055.209665,100.00,37,0,0,1,37,413,449,5e-12,69.4
SONDA_E_E_xenobiotica,ERR1817055.206891,100.00,37,0,0,1,37,195,159,5e-12,69.4
SONDA_E_E_xenobiotica,ERR1817055.202507,100.00,37,0,0,1,37,195,159,5e-12,69.4
SONDA_E_E_xenobiotica,ERR1817055.202507,100.00,37,0,0,1,37,413,449,5e-12,69.4
SONDA_E_E_xenobiotica,ERR1817055.202086,100.00,37,0,0,1,37,195,159,5e-12,69.4
SONDA_E_E_xenobiotica,ERR1817055.202086,100.00,37,0,0,1,37,413,449,5e-12,69.4
SONDA_E_E_xenobiotica,ERR1817055.201822,100.00,37,0,0,1,37,194,158,5e-12,69.4
SONDA_E_E_xenobiotica,ERR1817055.201822,100.00,37,0,0,1,37,413,449,5e-12,69.4
SONDA_E_E_xenobiotica,ERR1817055.194307,100.00,37,0,0,1,37,413,449,5e-12,69.4
SONDA_E_E_xenobiotica,ERR1817055.194307,97.30,37,1,0,1,37,195,159,2e-10,63.9
SONDA_E_E_xenobiotica,ERR1817055.189573,100.00,37,0,0,1,37,195,159,5e-12,69.4
SONDA_E_E_xenobiotica,ERR1817055.189573,100.00,37,0,0,1,37,413,449,5e-12,69.4
SONDA_E_E_xenobiotica,ERR1817055.185367,100.00,37,0,0,1,37,195,159,5e-12,69.4
SONDA_E_E_xenobiotica,ERR1817055.185367,100.00,37,0,0,1,37,413,449,5e-12,69.4
SONDA_E_E_xenobiotica,ERR1817055.182202,100.00,37,0,0,1,37,195,159,5e-12,69.4
SONDA_E_E_xenobiotica,ERR1817055.182202,100.00,37,0,0,1,37,412,448,5e-12,69.4
SONDA_E_E_xenobiotica,ERR1817055.166638,100.00,37,0,0,1,37,195,159,5e-12,69.4
SONDA_E_E_xenobiotica,ERR1817055.166638,100.00,37,0,0,1,37,413,449,5e-12,69.4
SONDA_E_E_xenobiotica,ERR1817055.159628,100.00,37,0,0,1,37,195,159,5e-12,69.4
SONDA_E_E_xenobiotica,ERR1817055.159628,100.00,37,0,0,1,37,413,449,5e-12,69.4
SONDA_E_E_xenobiotica,ERR1817055.158244,100.00,37,0,0,1,37,195,159,5e-12,69.4
SONDA_E_E_xenobiotica,ERR1817055.158244,100.00,37,0,0,1,37,413,449,5e-12,69.4
SONDA_E_E_xenobiotica,ERR1817055.153876,100.00,37,0,0,1,37,195,159,5e-12,69.4
SONDA_E_E_xenobiotica,ERR1817055.153876,100.00,37,0,0,1,37,413,449,5e-12,69.4
SONDA_E_E_xenobiotica,ERR1817055.144964,100.00,37,0,0,1,37,195,159,5e-12,69.4
SONDA_E_E_xenobiotica,ERR1817055.144964,100.00,37,0,0,1,37,413,449,5e-12,69.4
SONDA_E_E_xenobiotica,ERR1817055.137917,100.00,37,0,0,1,37,195,159,5e-12,69.4
SONDA_E_E_xenobiotica,ERR1817055.132307,100.00,37,0,0,1,37,195,159,5e-12,69.4
SONDA_E_E_xenobiotica,ERR1817055.132307,100.00,37,0,0,1,37,413,449,5e-12,69.4
SONDA_E_E_xenobiotica,ERR1817055.131334,100.00,37,0,0,1,37,195,159,5e-12,69.4
SONDA_E_E_xenobiotica,ERR1817055.131334,100.00,37,0,0,1,37,413,449,5e-12,69.4
SONDA_E_E_xenobiotica,ERR1817055.129872,100.00,37,0,0,1,37,195,159,5e-12,69.4
SONDA_E_E_xenobiotica,ERR1817055.129872,100.00,37,0,0,1,37,413,449,5e-12,69.4
SONDA_E_E_xenobiotica,ERR1817055.122273,100.00,37,0,0,1,37,195,159,5e-12,69.4
SONDA_E_E_xenobiotica,ERR1817055.122273,100.00,37,0,0,1,37,413,449,5e-12,69.4
SONDA_E_E_xenobiotica,ERR1817055.120496,100.00,37,0,0,1,37,195,159,5e-12,69.4
SONDA_E_E_xenobiotica,ERR1817055.117534,100.00,37,0,0,1,37,195,159,5e-12,69.4
SONDA_E_E_xenobiotica,ERR1817055.117534,100.00,37,0,0,1,37,413,449,5e-12,69.4
SONDA_E_E_xenobiotica,ERR1817055.112077,100.00,37,0,0,1,37,410,446,5e-12,69.4
SONDA_E_E_xenobiotica,ERR1817055.112069,100.00,37,0,0,1,37,195,159,5e-12,69.4
SONDA_E_E_xenobiotica,ERR1817055.112069,100.00,37,0,0,1,37,413,449,5e-12,69.4
SONDA_E_E_xenobiotica,ERR1817055.111953,100.00,37,0,0,1,37,195,159,5e-12,69.4
SONDA_E_E_xenobiotica,ERR1817055.111953,100.00,37,0,0,1,37,413,449,5e-12,69.4
SONDA_E_E_xenobiotica,ERR1817055.110330,100.00,37,0,0,1,37,195,159,5e-12,69.4
SONDA_E_E_xenobiotica,ERR1817055.101750,100.00,37,0,0,1,37,195,159,5e-12,69.4
SONDA_E_E_xenobiotica,ERR1817055.100333,100.00,37,0,0,1,37,195,159,5e-12,69.4
SONDA_E_E_xenobiotica,ERR1817055.100333,100.00,37,0,0,1,37,412,448,5e-12,69.4
SONDA_E_E_xenobiotica,ERR1817055.99912,100.00,37,0,0,1,37,195,159,5e-12,69.4
SONDA_E_E_xenobiotica,ERR1817055.99912,100.00,37,0,0,1,37,413,449,5e-12,69.4
SONDA_E_E_xenobiotica,ERR1817055.96230,100.00,37,0,0,1,37,195,159,5e-12,69.4
SONDA_E_E_xenobiotica,ERR1817055.96230,100.00,37,0,0,1,37,413,449,5e-12,69.4
SONDA_E_E_xenobiotica,ERR1817055.93554,100.00,37,0,0,1,37,195,159,5e-12,69.4
SONDA_E_E_xenobiotica,ERR1817055.93554,100.00,37,0,0,1,37,413,449,5e-12,69.4
SONDA_E_E_xenobiotica,ERR1817055.92243,100.00,37,0,0,1,37,195,159,5e-12,69.4
SONDA_E_E_xenobiotica,ERR1817055.92243,100.00,37,0,0,1,37,413,449,5e-12,69.4
SONDA_E_E_xenobiotica,ERR1817055.86872,100.00,37,0,0,1,37,195,159,5e-12,69.4
SONDA_E_E_xenobiotica,ERR1817055.86872,100.00,37,0,0,1,37,413,449,5e-12,69.4
SONDA_E_E_xenobiotica,ERR1817055.86449,100.00,37,0,0,1,37,195,159,5e-12,69.4
SONDA_E_E_xenobiotica,ERR1817055.86449,100.00,37,0,0,1,37,413,449,5e-12,69.4
SONDA_E_E_xenobiotica,ERR1817055.82990,100.00,37,0,0,1,37,195,159,5e-12,69.4
SONDA_E_E_xenobiotica,ERR1817055.82990,100.00,37,0,0,1,37,413,449,5e-12,69.4
SONDA_E_E_xenobiotica,ERR1817055.78203,100.00,37,0,0,1,37,195,159,5e-12,69.4
SONDA_E_E_xenobiotica,ERR1817055.78203,100.00,37,0,0,1,37,413,449,5e-12,69.4
SONDA_E_E_xenobiotica,ERR1817055.78193,100.00,37,0,0,1,37,195,159,5e-12,69.4
SONDA_E_E_xenobiotica,ERR1817055.78193,100.00,37,0,0,1,37,413,449,5e-12,69.4
SONDA_E_E_xenobiotica,ERR1817055.77893,100.00,37,0,0,1,37,195,159,5e-12,69.4
SONDA_E_E_xenobiotica,ERR1817055.77893,100.00,37,0,0,1,37,413,449,5e-12,69.4
SONDA_E_E_xenobiotica,ERR1817055.75680,100.00,37,0,0,1,37,195,159,5e-12,69.4
SONDA_E_E_xenobiotica,ERR1817055.75680,100.00,37,0,0,1,37,413,449,5e-12,69.4
SONDA_E_E_xenobiotica,ERR1817055.75274,100.00,37,0,0,1,37,412,448,5e-12,69.4
SONDA_E_E_xenobiotica,ERR1817055.66147,100.00,37,0,0,1,37,195,159,5e-12,69.4
SONDA_E_E_xenobiotica,ERR1817055.66147,100.00,37,0,0,1,37,413,449,5e-12,69.4
SONDA_E_E_xenobiotica,ERR1817055.62994,100.00,37,0,0,1,37,195,159,5e-12,69.4
SONDA_E_E_xenobiotica,ERR1817055.62994,100.00,37,0,0,1,37,413,449,5e-12,69.4
SONDA_E_E_xenobiotica,ERR1817055.51287,100.00,37,0,0,1,37,195,159,5e-12,69.4
SONDA_E_E_xenobiotica,ERR1817055.51287,100.00,37,0,0,1,37,413,449,5e-12,69.4
SONDA_E_E_xenobiotica,ERR1817055.49587,100.00,37,0,0,1,37,195,159,5e-12,69.4
SONDA_E_E_xenobiotica,ERR1817055.49587,100.00,37,0,0,1,37,413,449,5e-12,69.4
SONDA_E_E_xenobiotica,ERR1817055.46571,100.00,37,0,0,1,37,195,159,5e-12,69.4
SONDA_E_E_xenobiotica,ERR1817055.46571,100.00,37,0,0,1,37,413,449,5e-12,69.4
SONDA_E_E_xenobiotica,ERR1817055.34880,100.00,37,0,0,1,37,195,159,5e-12,69.4
SONDA_E_E_xenobiotica,ERR1817055.34880,100.00,37,0,0,1,37,413,449,5e-12,69.4
SONDA_E_E_xenobiotica,ERR1817055.20883,100.00,37,0,0,1,37,195,159,5e-12,69.4
SONDA_E_E_xenobiotica,ERR1817055.20883,100.00,37,0,0,1,37,413,449,5e-12,69.4
SONDA_E_E_xenobiotica,ERR1817055.20035,100.00,37,0,0,1,37,195,159,5e-12,69.4
SONDA_E_E_xenobiotica,ERR1817055.20035,100.00,37,0,0,1,37,412,448,5e-12,69.4
SONDA_E_E_xenobiotica,ERR1817055.18715,100.00,37,0,0,1,37,195,159,5e-12,69.4
SONDA_E_E_xenobiotica,ERR1817055.18715,100.00,37,0,0,1,37,413,449,5e-12,69.4
SONDA_E_E_xenobiotica,ERR1817055.7498,100.00,37,0,0,1,37,195,159,5e-12,69.4
SONDA_E_E_xenobiotica,ERR1817055.7498,100.00,34,0,0,1,34,413,446,2e-10,63.9
SONDA_E_E_xenobiotica,ERR1817055.350,100.00,37,0,0,1,37,195,159,5e-12,69.4
SONDA_E_E_xenobiotica,ERR1817055.350,100.00,37,0,0,1,37,413,449,5e-12,69.4
SONDA_E_E_xenobiotica,ERR1817055.437979,100.00,36,0,0,1,36,196,161,2e-11,67.6
SONDA_E_E_xenobiotica,ERR1817055.263339,100.00,36,0,0,1,36,195,160,2e-11,67.6
SONDA_E_E_xenobiotica,ERR1817055.263339,97.30,37,1,0,1,37,413,449,2e-10,63.9
SONDA_E_E_xenobiotica,ERR1817055.218017,100.00,36,0,0,1,36,196,161,2e-11,67.6
SONDA_E_E_xenobiotica,ERR1817055.218017,100.00,34,0,0,1,34,421,454,2e-10,63.9
SONDA_E_E_xenobiotica,ERR1817055.528667,100.00,34,0,0,1,34,205,172,2e-10,63.9
SONDA_E_E_xenobiotica,ERR1817055.528667,100.00,34,0,0,1,34,442,475,2e-10,63.9
SONDA_E_E_xenobiotica,ERR1817055.520922,100.00,34,0,0,1,34,196,163,2e-10,63.9
SONDA_E_E_xenobiotica,ERR1817055.520922,100.00,34,0,0,1,34,421,454,2e-10,63.9
SONDA_E_E_xenobiotica,ERR1817055.512226,100.00,34,0,0,1,34,421,454,2e-10,63.9
SONDA_E_E_xenobiotica,ERR1817055.502296,100.00,34,0,0,1,34,196,163,2e-10,63.9
SONDA_E_E_xenobiotica,ERR1817055.502296,100.00,34,0,0,1,34,421,454,2e-10,63.9
SONDA_E_E_xenobiotica,ERR1817055.501011,100.00,34,0,0,1,34,196,163,2e-10,63.9
SONDA_E_E_xenobiotica,ERR1817055.501011,100.00,34,0,0,1,34,421,454,2e-10,63.9
SONDA_E_E_xenobiotica,ERR1817055.492182,100.00,34,0,0,1,34,196,163,2e-10,63.9
SONDA_E_E_xenobiotica,ERR1817055.490786,100.00,34,0,0,1,34,196,163,2e-10,63.9
SONDA_E_E_xenobiotica,ERR1817055.480608,100.00,34,0,0,1,34,196,163,2e-10,63.9
SONDA_E_E_xenobiotica,ERR1817055.480608,100.00,34,0,0,1,34,421,454,2e-10,63.9
SONDA_E_E_xenobiotica,ERR1817055.475380,100.00,34,0,0,1,34,196,163,2e-10,63.9
SONDA_E_E_xenobiotica,ERR1817055.475380,100.00,34,0,0,1,34,421,454,2e-10,63.9
SONDA_E_E_xenobiotica,ERR1817055.458180,100.00,34,0,0,1,34,205,172,2e-10,63.9
SONDA_E_E_xenobiotica,ERR1817055.458180,100.00,31,0,0,2,32,443,473,1e-08,58.4
SONDA_E_E_xenobiotica,ERR1817055.458179,100.00,34,0,0,1,34,205,172,2e-10,63.9
SONDA_E_E_xenobiotica,ERR1817055.458179,100.00,34,0,0,1,34,442,475,2e-10,63.9
SONDA_E_E_xenobiotica,ERR1817055.455701,100.00,34,0,0,1,34,196,163,2e-10,63.9
SONDA_E_E_xenobiotica,ERR1817055.455701,100.00,34,0,0,1,34,421,454,2e-10,63.9
SONDA_E_E_xenobiotica,ERR1817055.453868,100.00,34,0,0,1,34,196,163,2e-10,63.9
SONDA_E_E_xenobiotica,ERR1817055.453868,100.00,34,0,0,1,34,421,454,2e-10,63.9
SONDA_E_E_xenobiotica,ERR1817055.443459,100.00,34,0,0,1,34,196,163,2e-10,63.9
SONDA_E_E_xenobiotica,ERR1817055.443459,100.00,34,0,0,1,34,421,454,2e-10,63.9
SONDA_E_E_xenobiotica,ERR1817055.439921,100.00,34,0,0,1,34,204,171,2e-10,63.9
SONDA_E_E_xenobiotica,ERR1817055.439921,100.00,34,0,0,1,34,443,476,2e-10,63.9
SONDA_E_E_xenobiotica,ERR1817055.426088,100.00,34,0,0,1,34,196,163,2e-10,63.9
SONDA_E_E_xenobiotica,ERR1817055.426088,100.00,34,0,0,1,34,421,454,2e-10,63.9
SONDA_E_E_xenobiotica,ERR1817055.424264,100.00,34,0,0,1,34,196,163,2e-10,63.9
SONDA_E_E_xenobiotica,ERR1817055.424264,100.00,34,0,0,1,34,419,452,2e-10,63.9
SONDA_E_E_xenobiotica,ERR1817055.413060,100.00,34,0,0,1,34,196,163,2e-10,63.9
SONDA_E_E_xenobiotica,ERR1817055.413060,100.00,34,0,0,1,34,421,454,2e-10,63.9
SONDA_E_E_xenobiotica,ERR1817055.402083,100.00,34,0,0,1,34,196,163,2e-10,63.9
SONDA_E_E_xenobiotica,ERR1817055.402083,100.00,34,0,0,1,34,421,454,2e-10,63.9
SONDA_E_E_xenobiotica,ERR1817055.398011,100.00,34,0,0,1,34,196,163,2e-10,63.9
SONDA_E_E_xenobiotica,ERR1817055.398011,100.00,34,0,0,1,34,421,454,2e-10,63.9
SONDA_E_E_xenobiotica,ERR1817055.386084,100.00,34,0,0,1,34,196,163,2e-10,63.9
SONDA_E_E_xenobiotica,ERR1817055.386084,100.00,34,0,0,1,34,421,454,2e-10,63.9
SONDA_E_E_xenobiotica,ERR1817055.385890,100.00,34,0,0,1,34,196,163,2e-10,63.9
SONDA_E_E_xenobiotica,ERR1817055.385890,100.00,34,0,0,1,34,421,454,2e-10,63.9
SONDA_E_E_xenobiotica,ERR1817055.382689,100.00,34,0,0,1,34,205,172,2e-10,63.9
SONDA_E_E_xenobiotica,ERR1817055.382689,100.00,34,0,0,1,34,442,475,2e-10,63.9
SONDA_E_E_xenobiotica,ERR1817055.382527,100.00,34,0,0,1,34,196,163,2e-10,63.9
SONDA_E_E_xenobiotica,ERR1817055.377282,100.00,34,0,0,1,34,196,163,2e-10,63.9
SONDA_E_E_xenobiotica,ERR1817055.368751,100.00,34,0,0,1,34,196,163,2e-10,63.9
SONDA_E_E_xenobiotica,ERR1817055.368751,100.00,34,0,0,1,34,421,454,2e-10,63.9
SONDA_E_E_xenobiotica,ERR1817055.361864,100.00,34,0,0,1,34,196,163,2e-10,63.9
SONDA_E_E_xenobiotica,ERR1817055.355593,100.00,34,0,0,1,34,196,163,2e-10,63.9
SONDA_E_E_xenobiotica,ERR1817055.355593,100.00,34,0,0,1,34,421,454,2e-10,63.9
SONDA_E_E_xenobiotica,ERR1817055.344785,100.00,34,0,0,1,34,196,163,2e-10,63.9
SONDA_E_E_xenobiotica,ERR1817055.344785,100.00,34,0,0,1,34,421,454,2e-10,63.9
SONDA_E_E_xenobiotica,ERR1817055.335684,100.00,34,0,0,1,34,205,172,2e-10,63.9
SONDA_E_E_xenobiotica,ERR1817055.329577,100.00,34,0,0,1,34,196,163,2e-10,63.9
SONDA_E_E_xenobiotica,ERR1817055.329577,100.00,34,0,0,1,34,421,454,2e-10,63.9
SONDA_E_E_xenobiotica,ERR1817055.325985,100.00,34,0,0,1,34,196,163,2e-10,63.9
SONDA_E_E_xenobiotica,ERR1817055.325985,100.00,34,0,0,1,34,421,454,2e-10,63.9
SONDA_E_E_xenobiotica,ERR1817055.314185,100.00,34,0,0,1,34,205,172,2e-10,63.9
SONDA_E_E_xenobiotica,ERR1817055.314185,100.00,34,0,0,1,34,442,475,2e-10,63.9
SONDA_E_E_xenobiotica,ERR1817055.302058,100.00,34,0,0,1,34,205,172,2e-10,63.9
SONDA_E_E_xenobiotica,ERR1817055.302058,100.00,34,0,0,1,34,442,475,2e-10,63.9
SONDA_E_E_xenobiotica,ERR1817055.285440,100.00,34,0,0,1,34,196,163,2e-10,63.9
SONDA_E_E_xenobiotica,ERR1817055.285440,100.00,34,0,0,1,34,421,454,2e-10,63.9
SONDA_E_E_xenobiotica,ERR1817055.267299,100.00,34,0,0,1,34,205,172,2e-10,63.9
SONDA_E_E_xenobiotica,ERR1817055.267299,100.00,34,0,0,1,34,442,475,2e-10,63.9
SONDA_E_E_xenobiotica,ERR1817055.262009,100.00,34,0,0,1,34,421,454,2e-10,63.9
SONDA_E_E_xenobiotica,ERR1817055.260912,100.00,34,0,0,1,34,196,163,2e-10,63.9
SONDA_E_E_xenobiotica,ERR1817055.260912,100.00,34,0,0,1,34,421,454,2e-10,63.9
SONDA_E_E_xenobiotica,ERR1817055.255615,100.00,34,0,0,1,34,196,163,2e-10,63.9
SONDA_E_E_xenobiotica,ERR1817055.255615,100.00,34,0,0,1,34,421,454,2e-10,63.9
SONDA_E_E_xenobiotica,ERR1817055.253691,100.00,34,0,0,1,34,196,163,2e-10,63.9
SONDA_E_E_xenobiotica,ERR1817055.253691,100.00,34,0,0,1,34,421,454,2e-10,63.9
SONDA_E_E_xenobiotica,ERR1817055.246055,100.00,34,0,0,1,34,413,446,2e-10,63.9
SONDA_E_E_xenobiotica,ERR1817055.244997,100.00,34,0,0,1,34,196,163,2e-10,63.9
SONDA_E_E_xenobiotica,ERR1817055.244997,100.00,34,0,0,1,34,421,454,2e-10,63.9
SONDA_E_E_xenobiotica,ERR1817055.244987,100.00,34,0,0,1,34,196,163,2e-10,63.9
SONDA_E_E_xenobiotica,ERR1817055.244987,100.00,34,0,0,1,34,421,454,2e-10,63.9
SONDA_E_E_xenobiotica,ERR1817055.244019,100.00,34,0,0,1,34,196,163,2e-10,63.9
SONDA_E_E_xenobiotica,ERR1817055.244019,100.00,34,0,0,1,34,421,454,2e-10,63.9
SONDA_E_E_xenobiotica,ERR1817055.234743,100.00,34,0,0,1,34,196,163,2e-10,63.9
SONDA_E_E_xenobiotica,ERR1817055.234743,100.00,34,0,0,1,34,421,454,2e-10,63.9
SONDA_E_E_xenobiotica,ERR1817055.228130,97.30,37,1,0,1,37,195,159,2e-10,63.9
SONDA_E_E_xenobiotica,ERR1817055.217936,100.00,34,0,0,1,34,421,454,2e-10,63.9
SONDA_E_E_xenobiotica,ERR1817055.206883,97.30,37,1,0,1,37,195,159,2e-10,63.9
SONDA_E_E_xenobiotica,ERR1817055.206489,100.00,34,0,0,1,34,196,163,2e-10,63.9
SONDA_E_E_xenobiotica,ERR1817055.206489,100.00,34,0,0,1,34,421,454,2e-10,63.9
SONDA_E_E_xenobiotica,ERR1817055.205749,100.00,34,0,0,1,34,205,172,2e-10,63.9
SONDA_E_E_xenobiotica,ERR1817055.205749,100.00,34,0,0,1,34,442,475,2e-10,63.9
SONDA_E_E_xenobiotica,ERR1817055.205565,97.30,37,1,0,1,37,195,159,2e-10,63.9
SONDA_E_E_xenobiotica,ERR1817055.187861,100.00,34,0,0,1,34,196,163,2e-10,63.9
SONDA_E_E_xenobiotica,ERR1817055.187861,100.00,34,0,0,1,34,421,454,2e-10,63.9
SONDA_E_E_xenobiotica,ERR1817055.187853,100.00,34,0,0,1,34,196,163,2e-10,63.9
SONDA_E_E_xenobiotica,ERR1817055.187853,100.00,34,0,0,1,34,421,454,2e-10,63.9
SONDA_E_E_xenobiotica,ERR1817055.185211,97.30,37,1,0,1,37,195,159,2e-10,63.9
SONDA_E_E_xenobiotica,ERR1817055.185211,97.30,37,1,0,1,37,413,449,2e-10,63.9
SONDA_E_E_xenobiotica,ERR1817055.184293,100.00,34,0,0,1,34,205,172,2e-10,63.9
SONDA_E_E_xenobiotica,ERR1817055.175751,100.00,34,0,0,1,34,442,475,2e-10,63.9
SONDA_E_E_xenobiotica,ERR1817055.159636,100.00,34,0,0,1,34,196,163,2e-10,63.9
SONDA_E_E_xenobiotica,ERR1817055.159636,100.00,34,0,0,1,34,421,454,2e-10,63.9
SONDA_E_E_xenobiotica,ERR1817055.150358,100.00,34,0,0,1,34,205,172,2e-10,63.9
SONDA_E_E_xenobiotica,ERR1817055.134472,100.00,34,0,0,1,34,196,163,2e-10,63.9
SONDA_E_E_xenobiotica,ERR1817055.134472,100.00,34,0,0,1,34,421,454,2e-10,63.9
SONDA_E_E_xenobiotica,ERR1817055.133222,100.00,34,0,0,1,34,196,163,2e-10,63.9
SONDA_E_E_xenobiotica,ERR1817055.130204,97.30,37,1,0,1,37,195,159,2e-10,63.9
SONDA_E_E_xenobiotica,ERR1817055.130204,97.30,37,1,0,1,37,413,449,2e-10,63.9
SONDA_E_E_xenobiotica,ERR1817055.128913,100.00,34,0,0,1,34,196,163,2e-10,63.9
SONDA_E_E_xenobiotica,ERR1817055.128913,100.00,34,0,0,1,34,421,454,2e-10,63.9
SONDA_E_E_xenobiotica,ERR1817055.128890,100.00,34,0,0,1,34,205,172,2e-10,63.9
SONDA_E_E_xenobiotica,ERR1817055.128890,100.00,34,0,0,1,34,442,475,2e-10,63.9
SONDA_E_E_xenobiotica,ERR1817055.123563,97.30,37,1,0,1,37,195,159,2e-10,63.9
SONDA_E_E_xenobiotica,ERR1817055.117312,100.00,34,0,0,1,34,196,163,2e-10,63.9
SONDA_E_E_xenobiotica,ERR1817055.117312,100.00,34,0,0,1,34,421,454,2e-10,63.9
SONDA_E_E_xenobiotica,ERR1817055.92682,100.00,34,0,0,1,34,196,163,2e-10,63.9
SONDA_E_E_xenobiotica,ERR1817055.92682,100.00,34,0,0,1,34,421,454,2e-10,63.9
SONDA_E_E_xenobiotica,ERR1817055.89729,100.00,34,0,0,1,34,205,172,2e-10,63.9
SONDA_E_E_xenobiotica,ERR1817055.89729,100.00,34,0,0,1,34,443,476,2e-10,63.9
SONDA_E_E_xenobiotica,ERR1817055.84967,100.00,34,0,0,1,34,196,163,2e-10,63.9
SONDA_E_E_xenobiotica,ERR1817055.84967,100.00,34,0,0,1,34,421,454,2e-10,63.9
SONDA_E_E_xenobiotica,ERR1817055.81069,100.00,34,0,0,1,34,196,163,2e-10,63.9
SONDA_E_E_xenobiotica,ERR1817055.81069,100.00,34,0,0,1,34,421,454,2e-10,63.9
SONDA_E_E_xenobiotica,ERR1817055.81064,100.00,34,0,0,1,34,196,163,2e-10,63.9
SONDA_E_E_xenobiotica,ERR1817055.81064,100.00,34,0,0,1,34,421,454,2e-10,63.9
SONDA_E_E_xenobiotica,ERR1817055.77659,100.00,34,0,0,1,34,205,172,2e-10,63.9
SONDA_E_E_xenobiotica,ERR1817055.77659,100.00,34,0,0,1,34,442,475,2e-10,63.9
SONDA_E_E_xenobiotica,ERR1817055.74224,100.00,34,0,0,1,34,205,172,2e-10,63.9
SONDA_E_E_xenobiotica,ERR1817055.74224,100.00,34,0,0,1,34,442,475,2e-10,63.9
SONDA_E_E_xenobiotica,ERR1817055.62880,100.00,34,0,0,1,34,196,163,2e-10,63.9
SONDA_E_E_xenobiotica,ERR1817055.62880,100.00,34,0,0,1,34,421,454,2e-10,63.9
SONDA_E_E_xenobiotica,ERR1817055.62107,100.00,34,0,0,1,34,196,163,2e-10,63.9
SONDA_E_E_xenobiotica,ERR1817055.62107,100.00,34,0,0,1,34,421,454,2e-10,63.9
SONDA_E_E_xenobiotica,ERR1817055.58837,100.00,34,0,0,1,34,196,163,2e-10,63.9
SONDA_E_E_xenobiotica,ERR1817055.58837,100.00,34,0,0,1,34,419,452,2e-10,63.9
SONDA_E_E_xenobiotica,ERR1817055.34944,100.00,34,0,0,1,34,196,163,2e-10,63.9
SONDA_E_E_xenobiotica,ERR1817055.34944,100.00,34,0,0,1,34,421,454,2e-10,63.9
SONDA_E_E_xenobiotica,ERR1817055.13957,100.00,34,0,0,1,34,205,172,2e-10,63.9
SONDA_E_E_xenobiotica,ERR1817055.13957,100.00,34,0,0,1,34,442,475,2e-10,63.9
SONDA_E_E_xenobiotica,ERR1817055.388969,97.06,34,1,0,1,34,196,163,1e-08,58.4
SONDA_E_E_xenobiotica,ERR1817055.1452,97.06,34,1,0,1,34,421,454,1e-08,58.4
SONDA_E_E_xenobiotica,ERR1817055.291864,100.00,30,0,0,1,30,196,167,4e-08,56.5
SONDA_E_E_xenobiotica,ERR1817055.279714,100.00,30,0,0,8,37,188,159,4e-08,56.5
