SONDA_C_arxii,SRR8793837.40143,100.00,42,0,0,1,42,71,30,1e-15,78.7
SONDA_C_arxii,SRR8793837.40143,100.00,42,0,0,1,42,464,505,1e-15,78.7
SONDA_C_arxii,SRR8793837.39864,100.00,42,0,0,1,42,71,30,1e-15,78.7
SONDA_C_arxii,SRR8793837.38773,100.00,42,0,0,1,42,71,30,1e-15,78.7
SONDA_C_arxii,SRR8793837.38773,100.00,40,0,0,3,42,466,505,2e-14,75.0
SONDA_C_arxii,SRR8793837.33749,100.00,42,0,0,1,42,71,30,1e-15,78.7
SONDA_C_arxii,SRR8793837.33749,100.00,42,0,0,1,42,464,505,1e-15,78.7
SONDA_C_arxii,SRR8793837.29105,100.00,42,0,0,1,42,71,30,1e-15,78.7
SONDA_C_arxii,SRR8793837.29105,100.00,42,0,0,1,42,464,505,1e-15,78.7
SONDA_C_arxii,SRR8793837.26320,100.00,42,0,0,1,42,71,30,1e-15,78.7
SONDA_C_arxii,SRR8793837.26320,100.00,42,0,0,1,42,469,510,1e-15,78.7
SONDA_C_arxii,SRR8793837.26315,100.00,42,0,0,1,42,71,30,1e-15,78.7
SONDA_C_arxii,SRR8793837.26315,100.00,42,0,0,1,42,469,510,1e-15,78.7
SONDA_C_arxii,SRR8793837.15325,100.00,42,0,0,1,42,71,30,1e-15,78.7
SONDA_C_arxii,SRR8793837.7050,100.00,42,0,0,1,42,71,30,1e-15,78.7
SONDA_C_arxii,SRR8793837.7050,100.00,42,0,0,1,42,464,505,1e-15,78.7
SONDA_C_arxii,SRR8793837.4600,100.00,42,0,0,1,42,71,30,1e-15,78.7
SONDA_C_arxii,SRR8793837.4600,100.00,42,0,0,1,42,464,505,1e-15,78.7
SONDA_C_arxii,SRR8793837.4596,100.00,42,0,0,1,42,71,30,1e-15,78.7
SONDA_C_arxii,SRR8793837.4596,100.00,42,0,0,1,42,464,505,1e-15,78.7
SONDA_C_arxii,SRR8793837.3392,100.00,42,0,0,1,42,71,30,1e-15,78.7
SONDA_C_arxii,SRR8793837.3392,100.00,42,0,0,1,42,464,505,1e-15,78.7
SONDA_C_arxii,SRR8793837.35631,97.62,42,1,0,1,42,71,30,7e-14,73.1
SONDA_C_arxii,SRR8793837.43371,97.62,42,0,1,1,42,70,30,2e-13,71.3
SONDA_C_arxii,SRR8793837.43371,97.62,42,0,1,1,42,450,490,2e-13,71.3
SONDA_C_arxii,SRR8793837.37740,97.62,42,0,1,1,42,70,30,2e-13,71.3
SONDA_C_arxii,SRR8793837.28800,97.62,42,0,1,1,42,70,30,2e-13,71.3
SONDA_C_arxii,SRR8793837.28459,97.62,42,0,1,1,42,450,490,2e-13,71.3
SONDA_C_arxii,SRR8793837.26326,97.62,42,0,1,1,42,70,30,2e-13,71.3
SONDA_C_arxii,SRR8793837.26326,97.62,42,0,1,1,42,450,490,2e-13,71.3
SONDA_C_arxii,SRR8793837.16382,97.62,42,0,1,1,42,70,30,2e-13,71.3
SONDA_C_arxii,SRR8793837.16382,97.62,42,0,1,1,42,450,490,2e-13,71.3
SONDA_C_arxii,SRR8793837.52478,97.44,39,0,1,4,42,67,30,1e-11,65.8
SONDA_C_arxii,SRR8793837.52478,97.44,39,0,1,4,42,453,490,1e-11,65.8
SONDA_C_arxii,SRR8793837.51247,97.44,39,0,1,4,42,290,253,1e-11,65.8
SONDA_C_arxii,SRR8793837.51247,97.44,39,0,1,4,42,453,490,1e-11,65.8
SONDA_C_arxii,SRR8793837.51245,97.44,39,0,1,4,42,453,490,1e-11,65.8
SONDA_C_arxii,SRR8793837.50780,97.44,39,0,1,4,42,291,254,1e-11,65.8
SONDA_C_arxii,SRR8793837.50780,97.44,39,0,1,4,42,453,490,1e-11,65.8
SONDA_C_arxii,SRR8793837.43707,97.44,39,0,1,4,42,67,30,1e-11,65.8
SONDA_C_arxii,SRR8793837.43707,97.44,39,0,1,4,42,453,490,1e-11,65.8
SONDA_C_arxii,SRR8793837.42292,97.44,39,0,1,4,42,67,30,1e-11,65.8
SONDA_C_arxii,SRR8793837.42292,97.44,39,0,1,4,42,453,490,1e-11,65.8
SONDA_C_arxii,SRR8793837.41954,97.44,39,0,1,4,42,453,490,1e-11,65.8
SONDA_C_arxii,SRR8793837.40669,97.44,39,0,1,4,42,291,254,1e-11,65.8
SONDA_C_arxii,SRR8793837.40669,97.44,39,0,1,4,42,453,490,1e-11,65.8
SONDA_C_arxii,SRR8793837.39811,97.44,39,0,1,4,42,290,253,1e-11,65.8
SONDA_C_arxii,SRR8793837.39811,97.44,39,0,1,4,42,453,490,1e-11,65.8
SONDA_C_arxii,SRR8793837.39067,97.44,39,0,1,4,42,67,30,1e-11,65.8
SONDA_C_arxii,SRR8793837.39067,97.44,39,0,1,4,42,451,488,1e-11,65.8
SONDA_C_arxii,SRR8793837.34075,97.44,39,0,1,4,42,67,30,1e-11,65.8
SONDA_C_arxii,SRR8793837.34073,97.44,39,0,1,4,42,67,30,1e-11,65.8
SONDA_C_arxii,SRR8793837.34073,97.44,39,0,1,4,42,453,490,1e-11,65.8
SONDA_C_arxii,SRR8793837.28035,97.44,39,0,1,4,42,453,490,1e-11,65.8
SONDA_C_arxii,SRR8793837.25041,97.44,39,0,1,4,42,289,252,1e-11,65.8
SONDA_C_arxii,SRR8793837.25009,97.44,39,0,1,4,42,291,254,1e-11,65.8
SONDA_C_arxii,SRR8793837.24094,97.44,39,0,1,4,42,67,30,1e-11,65.8
SONDA_C_arxii,SRR8793837.24094,97.44,39,0,1,4,42,453,490,1e-11,65.8
SONDA_C_arxii,SRR8793837.21690,97.44,39,0,1,4,42,67,30,1e-11,65.8
SONDA_C_arxii,SRR8793837.21690,97.44,39,0,1,4,42,453,490,1e-11,65.8
SONDA_C_arxii,SRR8793837.21384,97.44,39,0,1,4,42,67,30,1e-11,65.8
SONDA_C_arxii,SRR8793837.21384,97.44,39,0,1,4,42,453,490,1e-11,65.8
SONDA_C_arxii,SRR8793837.20854,97.44,39,0,1,4,42,453,490,1e-11,65.8
SONDA_C_arxii,SRR8793837.17103,97.44,39,0,1,4,42,292,255,1e-11,65.8
SONDA_C_arxii,SRR8793837.17103,97.44,39,0,1,4,42,453,490,1e-11,65.8
SONDA_C_arxii,SRR8793837.13932,97.44,39,0,1,4,42,453,490,1e-11,65.8
SONDA_C_arxii,SRR8793837.5315,97.44,39,0,1,4,42,67,30,1e-11,65.8
SONDA_C_arxii,SRR8793837.43487,94.87,39,1,1,4,42,453,490,5e-10,60.2
SONDA_C_arxii,SRR8793837.24118,94.87,39,1,1,4,42,291,254,5e-10,60.2
SONDA_C_arxii,SRR8793837.24118,94.87,39,1,1,4,42,453,490,5e-10,60.2
SONDA_C_chaetospira,SRR8793837.25524,100.00,39,0,0,1,39,119,81,6e-14,73.1
SONDA_C_chaetospira,SRR8793837.25524,100.00,39,0,0,1,39,416,454,6e-14,73.1
