SONDA_E_E_xenobiotica,ERR1817056.477592,100.00,37,0,0,1,37,195,159,5e-12,69.4
SONDA_E_E_xenobiotica,ERR1817056.477592,100.00,37,0,0,1,37,413,449,5e-12,69.4
SONDA_E_E_xenobiotica,ERR1817056.460882,100.00,37,0,0,1,37,195,159,5e-12,69.4
SONDA_E_E_xenobiotica,ERR1817056.460882,100.00,37,0,0,1,37,413,449,5e-12,69.4
SONDA_E_E_xenobiotica,ERR1817056.446605,100.00,37,0,0,1,37,195,159,5e-12,69.4
SONDA_E_E_xenobiotica,ERR1817056.446605,100.00,37,0,0,1,37,413,449,5e-12,69.4
SONDA_E_E_xenobiotica,ERR1817056.446594,100.00,37,0,0,1,37,195,159,5e-12,69.4
SONDA_E_E_xenobiotica,ERR1817056.446594,97.30,37,1,0,1,37,413,449,2e-10,63.9
SONDA_E_E_xenobiotica,ERR1817056.446360,100.00,37,0,0,1,37,195,159,5e-12,69.4
SONDA_E_E_xenobiotica,ERR1817056.446360,100.00,37,0,0,1,37,413,449,5e-12,69.4
SONDA_E_E_xenobiotica,ERR1817056.444398,100.00,37,0,0,1,37,195,159,5e-12,69.4
SONDA_E_E_xenobiotica,ERR1817056.444398,97.30,37,1,0,1,37,413,449,2e-10,63.9
SONDA_E_E_xenobiotica,ERR1817056.443325,100.00,37,0,0,1,37,413,449,5e-12,69.4
SONDA_E_E_xenobiotica,ERR1817056.443325,97.30,37,1,0,1,37,195,159,2e-10,63.9
SONDA_E_E_xenobiotica,ERR1817056.437974,100.00,37,0,0,1,37,195,159,5e-12,69.4
SONDA_E_E_xenobiotica,ERR1817056.437974,100.00,37,0,0,1,37,413,449,5e-12,69.4
SONDA_E_E_xenobiotica,ERR1817056.428167,100.00,37,0,0,1,37,195,159,5e-12,69.4
SONDA_E_E_xenobiotica,ERR1817056.428167,100.00,37,0,0,1,37,413,449,5e-12,69.4
SONDA_E_E_xenobiotica,ERR1817056.425588,100.00,37,0,0,1,37,195,159,5e-12,69.4
SONDA_E_E_xenobiotica,ERR1817056.425588,100.00,37,0,0,1,37,413,449,5e-12,69.4
SONDA_E_E_xenobiotica,ERR1817056.421539,100.00,37,0,0,1,37,195,159,5e-12,69.4
SONDA_E_E_xenobiotica,ERR1817056.421539,100.00,37,0,0,1,37,413,449,5e-12,69.4
SONDA_E_E_xenobiotica,ERR1817056.420924,100.00,37,0,0,1,37,195,159,5e-12,69.4
SONDA_E_E_xenobiotica,ERR1817056.420924,100.00,37,0,0,1,37,413,449,5e-12,69.4
SONDA_E_E_xenobiotica,ERR1817056.404252,100.00,37,0,0,1,37,195,159,5e-12,69.4
SONDA_E_E_xenobiotica,ERR1817056.404252,100.00,37,0,0,1,37,413,449,5e-12,69.4
SONDA_E_E_xenobiotica,ERR1817056.395896,100.00,37,0,0,1,37,195,159,5e-12,69.4
SONDA_E_E_xenobiotica,ERR1817056.395896,100.00,37,0,0,1,37,413,449,5e-12,69.4
SONDA_E_E_xenobiotica,ERR1817056.394465,100.00,37,0,0,1,37,195,159,5e-12,69.4
SONDA_E_E_xenobiotica,ERR1817056.394465,100.00,37,0,0,1,37,413,449,5e-12,69.4
SONDA_E_E_xenobiotica,ERR1817056.386937,100.00,37,0,0,1,37,195,159,5e-12,69.4
SONDA_E_E_xenobiotica,ERR1817056.386937,100.00,37,0,0,1,37,413,449,5e-12,69.4
SONDA_E_E_xenobiotica,ERR1817056.384434,100.00,37,0,0,1,37,195,159,5e-12,69.4
SONDA_E_E_xenobiotica,ERR1817056.382574,100.00,37,0,0,1,37,195,159,5e-12,69.4
SONDA_E_E_xenobiotica,ERR1817056.382574,100.00,37,0,0,1,37,412,448,5e-12,69.4
SONDA_E_E_xenobiotica,ERR1817056.372608,100.00,37,0,0,1,37,195,159,5e-12,69.4
SONDA_E_E_xenobiotica,ERR1817056.372608,100.00,37,0,0,1,37,413,449,5e-12,69.4
SONDA_E_E_xenobiotica,ERR1817056.368022,100.00,37,0,0,1,37,195,159,5e-12,69.4
SONDA_E_E_xenobiotica,ERR1817056.353007,100.00,37,0,0,1,37,195,159,5e-12,69.4
SONDA_E_E_xenobiotica,ERR1817056.353007,100.00,37,0,0,1,37,413,449,5e-12,69.4
SONDA_E_E_xenobiotica,ERR1817056.340769,100.00,37,0,0,1,37,195,159,5e-12,69.4
SONDA_E_E_xenobiotica,ERR1817056.340769,100.00,34,0,0,1,34,413,446,2e-10,63.9
SONDA_E_E_xenobiotica,ERR1817056.333539,100.00,37,0,0,1,37,195,159,5e-12,69.4
SONDA_E_E_xenobiotica,ERR1817056.333539,100.00,37,0,0,1,37,413,449,5e-12,69.4
SONDA_E_E_xenobiotica,ERR1817056.311638,100.00,37,0,0,1,37,195,159,5e-12,69.4
SONDA_E_E_xenobiotica,ERR1817056.311638,100.00,37,0,0,1,37,413,449,5e-12,69.4
SONDA_E_E_xenobiotica,ERR1817056.311064,100.00,37,0,0,1,37,195,159,5e-12,69.4
SONDA_E_E_xenobiotica,ERR1817056.311064,100.00,37,0,0,1,37,413,449,5e-12,69.4
SONDA_E_E_xenobiotica,ERR1817056.303609,100.00,37,0,0,1,37,195,159,5e-12,69.4
SONDA_E_E_xenobiotica,ERR1817056.290933,100.00,37,0,0,1,37,195,159,5e-12,69.4
SONDA_E_E_xenobiotica,ERR1817056.290933,100.00,37,0,0,1,37,413,449,5e-12,69.4
SONDA_E_E_xenobiotica,ERR1817056.289967,100.00,37,0,0,1,37,195,159,5e-12,69.4
SONDA_E_E_xenobiotica,ERR1817056.289967,100.00,37,0,0,1,37,413,449,5e-12,69.4
SONDA_E_E_xenobiotica,ERR1817056.288042,100.00,37,0,0,1,37,195,159,5e-12,69.4
SONDA_E_E_xenobiotica,ERR1817056.288042,100.00,37,0,0,1,37,413,449,5e-12,69.4
SONDA_E_E_xenobiotica,ERR1817056.277939,100.00,37,0,0,1,37,194,158,5e-12,69.4
SONDA_E_E_xenobiotica,ERR1817056.277939,100.00,37,0,0,1,37,413,449,5e-12,69.4
SONDA_E_E_xenobiotica,ERR1817056.247874,100.00,37,0,0,1,37,194,158,5e-12,69.4
SONDA_E_E_xenobiotica,ERR1817056.247874,100.00,37,0,0,1,37,413,449,5e-12,69.4
SONDA_E_E_xenobiotica,ERR1817056.246926,100.00,37,0,0,1,37,195,159,5e-12,69.4
SONDA_E_E_xenobiotica,ERR1817056.246926,100.00,37,0,0,1,37,413,449,5e-12,69.4
SONDA_E_E_xenobiotica,ERR1817056.244220,100.00,37,0,0,1,37,195,159,5e-12,69.4
SONDA_E_E_xenobiotica,ERR1817056.244220,100.00,37,0,0,1,37,413,449,5e-12,69.4
SONDA_E_E_xenobiotica,ERR1817056.237052,100.00,37,0,0,1,37,195,159,5e-12,69.4
SONDA_E_E_xenobiotica,ERR1817056.237052,100.00,37,0,0,1,37,413,449,5e-12,69.4
SONDA_E_E_xenobiotica,ERR1817056.234075,100.00,37,0,0,1,37,194,158,5e-12,69.4
SONDA_E_E_xenobiotica,ERR1817056.234075,100.00,37,0,0,1,37,413,449,5e-12,69.4
SONDA_E_E_xenobiotica,ERR1817056.220080,100.00,37,0,0,1,37,195,159,5e-12,69.4
SONDA_E_E_xenobiotica,ERR1817056.220080,100.00,37,0,0,1,37,413,449,5e-12,69.4
SONDA_E_E_xenobiotica,ERR1817056.217789,100.00,37,0,0,1,37,195,159,5e-12,69.4
SONDA_E_E_xenobiotica,ERR1817056.217789,100.00,37,0,0,1,37,413,449,5e-12,69.4
SONDA_E_E_xenobiotica,ERR1817056.208779,100.00,37,0,0,1,37,195,159,5e-12,69.4
SONDA_E_E_xenobiotica,ERR1817056.208779,97.30,37,1,0,1,37,413,449,2e-10,63.9
SONDA_E_E_xenobiotica,ERR1817056.188000,100.00,37,0,0,1,37,413,449,5e-12,69.4
SONDA_E_E_xenobiotica,ERR1817056.175665,100.00,37,0,0,1,37,195,159,5e-12,69.4
SONDA_E_E_xenobiotica,ERR1817056.175665,100.00,37,0,0,1,37,413,449,5e-12,69.4
SONDA_E_E_xenobiotica,ERR1817056.171995,100.00,37,0,0,1,37,195,159,5e-12,69.4
SONDA_E_E_xenobiotica,ERR1817056.171995,100.00,37,0,0,1,37,413,449,5e-12,69.4
SONDA_E_E_xenobiotica,ERR1817056.161673,100.00,37,0,0,1,37,195,159,5e-12,69.4
SONDA_E_E_xenobiotica,ERR1817056.161673,100.00,37,0,0,1,37,413,449,5e-12,69.4
SONDA_E_E_xenobiotica,ERR1817056.161662,100.00,37,0,0,1,37,195,159,5e-12,69.4
SONDA_E_E_xenobiotica,ERR1817056.161662,100.00,37,0,0,1,37,413,449,5e-12,69.4
SONDA_E_E_xenobiotica,ERR1817056.161166,100.00,37,0,0,1,37,195,159,5e-12,69.4
SONDA_E_E_xenobiotica,ERR1817056.161166,100.00,37,0,0,1,37,413,449,5e-12,69.4
SONDA_E_E_xenobiotica,ERR1817056.157299,100.00,37,0,0,1,37,195,159,5e-12,69.4
SONDA_E_E_xenobiotica,ERR1817056.157299,100.00,37,0,0,1,37,413,449,5e-12,69.4
SONDA_E_E_xenobiotica,ERR1817056.154811,100.00,37,0,0,1,37,195,159,5e-12,69.4
SONDA_E_E_xenobiotica,ERR1817056.154811,100.00,37,0,0,1,37,413,449,5e-12,69.4
SONDA_E_E_xenobiotica,ERR1817056.143807,100.00,37,0,0,1,37,195,159,5e-12,69.4
SONDA_E_E_xenobiotica,ERR1817056.143807,100.00,37,0,0,1,37,413,449,5e-12,69.4
SONDA_E_E_xenobiotica,ERR1817056.120444,100.00,37,0,0,1,37,195,159,5e-12,69.4
SONDA_E_E_xenobiotica,ERR1817056.120444,100.00,37,0,0,1,37,413,449,5e-12,69.4
SONDA_E_E_xenobiotica,ERR1817056.120435,100.00,37,0,0,1,37,195,159,5e-12,69.4
SONDA_E_E_xenobiotica,ERR1817056.120435,100.00,37,0,0,1,37,413,449,5e-12,69.4
SONDA_E_E_xenobiotica,ERR1817056.119443,100.00,37,0,0,1,37,195,159,5e-12,69.4
SONDA_E_E_xenobiotica,ERR1817056.119443,100.00,37,0,0,1,37,413,449,5e-12,69.4
SONDA_E_E_xenobiotica,ERR1817056.117321,100.00,37,0,0,1,37,195,159,5e-12,69.4
SONDA_E_E_xenobiotica,ERR1817056.117321,100.00,37,0,0,1,37,413,449,5e-12,69.4
SONDA_E_E_xenobiotica,ERR1817056.94277,100.00,37,0,0,1,37,195,159,5e-12,69.4
SONDA_E_E_xenobiotica,ERR1817056.94277,100.00,37,0,0,1,37,413,449,5e-12,69.4
SONDA_E_E_xenobiotica,ERR1817056.89894,100.00,37,0,0,1,37,195,159,5e-12,69.4
SONDA_E_E_xenobiotica,ERR1817056.89894,100.00,37,0,0,1,37,413,449,5e-12,69.4
SONDA_E_E_xenobiotica,ERR1817056.83605,100.00,37,0,0,1,37,195,159,5e-12,69.4
SONDA_E_E_xenobiotica,ERR1817056.83605,100.00,37,0,0,1,37,413,449,5e-12,69.4
SONDA_E_E_xenobiotica,ERR1817056.82702,100.00,37,0,0,1,37,195,159,5e-12,69.4
SONDA_E_E_xenobiotica,ERR1817056.82702,100.00,37,0,0,1,37,413,449,5e-12,69.4
SONDA_E_E_xenobiotica,ERR1817056.67751,100.00,37,0,0,1,37,195,159,5e-12,69.4
SONDA_E_E_xenobiotica,ERR1817056.67751,100.00,37,0,0,1,37,413,449,5e-12,69.4
SONDA_E_E_xenobiotica,ERR1817056.59149,100.00,37,0,0,1,37,195,159,5e-12,69.4
SONDA_E_E_xenobiotica,ERR1817056.59149,100.00,37,0,0,1,37,413,449,5e-12,69.4
SONDA_E_E_xenobiotica,ERR1817056.50641,100.00,37,0,0,1,37,195,159,5e-12,69.4
SONDA_E_E_xenobiotica,ERR1817056.50641,100.00,37,0,0,1,37,413,449,5e-12,69.4
SONDA_E_E_xenobiotica,ERR1817056.49438,100.00,37,0,0,1,37,195,159,5e-12,69.4
SONDA_E_E_xenobiotica,ERR1817056.49438,100.00,37,0,0,1,37,413,449,5e-12,69.4
SONDA_E_E_xenobiotica,ERR1817056.44011,100.00,37,0,0,1,37,195,159,5e-12,69.4
SONDA_E_E_xenobiotica,ERR1817056.44011,100.00,37,0,0,1,37,413,449,5e-12,69.4
SONDA_E_E_xenobiotica,ERR1817056.33472,100.00,37,0,0,1,37,195,159,5e-12,69.4
SONDA_E_E_xenobiotica,ERR1817056.33472,100.00,37,0,0,1,37,413,449,5e-12,69.4
SONDA_E_E_xenobiotica,ERR1817056.29787,100.00,37,0,0,1,37,195,159,5e-12,69.4
SONDA_E_E_xenobiotica,ERR1817056.29787,100.00,37,0,0,1,37,413,449,5e-12,69.4
SONDA_E_E_xenobiotica,ERR1817056.23528,100.00,37,0,0,1,37,195,159,5e-12,69.4
SONDA_E_E_xenobiotica,ERR1817056.13399,100.00,37,0,0,1,37,195,159,5e-12,69.4
SONDA_E_E_xenobiotica,ERR1817056.13399,100.00,37,0,0,1,37,413,449,5e-12,69.4
SONDA_E_E_xenobiotica,ERR1817056.6096,100.00,37,0,0,1,37,195,159,5e-12,69.4
SONDA_E_E_xenobiotica,ERR1817056.6096,100.00,37,0,0,1,37,413,449,5e-12,69.4
SONDA_E_E_xenobiotica,ERR1817056.5875,100.00,37,0,0,1,37,195,159,5e-12,69.4
SONDA_E_E_xenobiotica,ERR1817056.5875,100.00,37,0,0,1,37,413,449,5e-12,69.4
SONDA_E_E_xenobiotica,ERR1817056.5577,100.00,37,0,0,1,37,195,159,5e-12,69.4
SONDA_E_E_xenobiotica,ERR1817056.5577,100.00,37,0,0,1,37,413,449,5e-12,69.4
SONDA_E_E_xenobiotica,ERR1817056.338999,100.00,36,0,0,1,36,413,448,2e-11,67.6
SONDA_E_E_xenobiotica,ERR1817056.239756,100.00,36,0,0,1,36,195,160,2e-11,67.6
SONDA_E_E_xenobiotica,ERR1817056.239756,100.00,36,0,0,1,36,413,448,2e-11,67.6
SONDA_E_E_xenobiotica,ERR1817056.239742,100.00,36,0,0,1,36,195,160,2e-11,67.6
SONDA_E_E_xenobiotica,ERR1817056.239742,100.00,36,0,0,1,36,413,448,2e-11,67.6
SONDA_E_E_xenobiotica,ERR1817056.481942,100.00,34,0,0,1,34,443,476,2e-10,63.9
SONDA_E_E_xenobiotica,ERR1817056.463635,100.00,34,0,0,1,34,205,172,2e-10,63.9
SONDA_E_E_xenobiotica,ERR1817056.463635,100.00,34,0,0,1,34,442,475,2e-10,63.9
SONDA_E_E_xenobiotica,ERR1817056.459207,100.00,34,0,0,1,34,442,475,2e-10,63.9
SONDA_E_E_xenobiotica,ERR1817056.447959,100.00,34,0,0,1,34,205,172,2e-10,63.9
SONDA_E_E_xenobiotica,ERR1817056.447078,100.00,34,0,0,1,34,205,172,2e-10,63.9
SONDA_E_E_xenobiotica,ERR1817056.447078,100.00,34,0,0,1,34,442,475,2e-10,63.9
SONDA_E_E_xenobiotica,ERR1817056.446565,100.00,34,0,0,1,34,205,172,2e-10,63.9
SONDA_E_E_xenobiotica,ERR1817056.425467,100.00,34,0,0,1,34,205,172,2e-10,63.9
SONDA_E_E_xenobiotica,ERR1817056.425467,100.00,34,0,0,1,34,442,475,2e-10,63.9
SONDA_E_E_xenobiotica,ERR1817056.380805,100.00,34,0,0,1,34,442,475,2e-10,63.9
SONDA_E_E_xenobiotica,ERR1817056.352480,100.00,34,0,0,1,34,205,172,2e-10,63.9
SONDA_E_E_xenobiotica,ERR1817056.352480,100.00,34,0,0,1,34,442,475,2e-10,63.9
SONDA_E_E_xenobiotica,ERR1817056.342080,100.00,34,0,0,1,34,196,163,2e-10,63.9
SONDA_E_E_xenobiotica,ERR1817056.342080,100.00,33,0,0,1,33,421,453,9e-10,62.1
SONDA_E_E_xenobiotica,ERR1817056.327860,100.00,34,0,0,1,34,205,172,2e-10,63.9
SONDA_E_E_xenobiotica,ERR1817056.289747,100.00,34,0,0,1,34,205,172,2e-10,63.9
SONDA_E_E_xenobiotica,ERR1817056.289747,100.00,34,0,0,1,34,442,475,2e-10,63.9
SONDA_E_E_xenobiotica,ERR1817056.244815,100.00,34,0,0,1,34,205,172,2e-10,63.9
SONDA_E_E_xenobiotica,ERR1817056.231948,100.00,34,0,0,1,34,196,163,2e-10,63.9
SONDA_E_E_xenobiotica,ERR1817056.231948,100.00,32,0,0,3,34,423,454,3e-09,60.2
SONDA_E_E_xenobiotica,ERR1817056.231940,100.00,34,0,0,1,34,196,163,2e-10,63.9
SONDA_E_E_xenobiotica,ERR1817056.231940,100.00,34,0,0,1,34,421,454,2e-10,63.9
SONDA_E_E_xenobiotica,ERR1817056.228559,100.00,34,0,0,1,34,205,172,2e-10,63.9
SONDA_E_E_xenobiotica,ERR1817056.224031,100.00,34,0,0,1,34,205,172,2e-10,63.9
SONDA_E_E_xenobiotica,ERR1817056.224031,100.00,34,0,0,1,34,442,475,2e-10,63.9
SONDA_E_E_xenobiotica,ERR1817056.221583,100.00,34,0,0,1,34,205,172,2e-10,63.9
SONDA_E_E_xenobiotica,ERR1817056.221583,100.00,34,0,0,1,34,442,475,2e-10,63.9
SONDA_E_E_xenobiotica,ERR1817056.200990,100.00,34,0,0,1,34,205,172,2e-10,63.9
SONDA_E_E_xenobiotica,ERR1817056.200990,100.00,34,0,0,1,34,442,475,2e-10,63.9
SONDA_E_E_xenobiotica,ERR1817056.182377,100.00,34,0,0,1,34,196,163,2e-10,63.9
SONDA_E_E_xenobiotica,ERR1817056.182377,100.00,34,0,0,1,34,421,454,2e-10,63.9
SONDA_E_E_xenobiotica,ERR1817056.181566,97.30,37,1,0,1,37,195,159,2e-10,63.9
SONDA_E_E_xenobiotica,ERR1817056.181566,97.30,37,1,0,1,37,413,449,2e-10,63.9
SONDA_E_E_xenobiotica,ERR1817056.181562,97.30,37,1,0,1,37,195,159,2e-10,63.9
SONDA_E_E_xenobiotica,ERR1817056.181562,97.30,37,1,0,1,37,413,449,2e-10,63.9
SONDA_E_E_xenobiotica,ERR1817056.155122,100.00,34,0,0,1,34,196,163,2e-10,63.9
SONDA_E_E_xenobiotica,ERR1817056.149355,100.00,34,0,0,1,34,205,172,2e-10,63.9
SONDA_E_E_xenobiotica,ERR1817056.149355,100.00,34,0,0,1,34,442,475,2e-10,63.9
SONDA_E_E_xenobiotica,ERR1817056.127754,100.00,34,0,0,1,34,205,172,2e-10,63.9
SONDA_E_E_xenobiotica,ERR1817056.127754,100.00,34,0,0,1,34,442,475,2e-10,63.9
SONDA_E_E_xenobiotica,ERR1817056.124598,97.30,37,1,0,1,37,413,449,2e-10,63.9
SONDA_E_E_xenobiotica,ERR1817056.116236,97.30,37,1,0,1,37,412,448,2e-10,63.9
SONDA_E_E_xenobiotica,ERR1817056.112499,97.30,37,1,0,1,37,413,449,2e-10,63.9
SONDA_E_E_xenobiotica,ERR1817056.41999,100.00,34,0,0,1,34,205,172,2e-10,63.9
SONDA_E_E_xenobiotica,ERR1817056.41999,100.00,34,0,0,1,34,442,475,2e-10,63.9
SONDA_E_E_xenobiotica,ERR1817056.3306,97.30,37,1,0,1,37,195,159,2e-10,63.9
SONDA_E_E_xenobiotica,ERR1817056.40145,97.14,35,1,0,1,35,195,161,3e-09,60.2
SONDA_E_E_xenobiotica,ERR1817056.40145,94.29,35,2,0,3,37,415,449,1e-07,54.7
SONDA_E_E_xenobiotica,ERR1817056.319577,97.06,34,1,0,1,34,205,172,1e-08,58.4
SONDA_E_E_xenobiotica,ERR1817056.231362,100.00,31,0,0,1,31,442,472,1e-08,58.4
SONDA_E_E_xenobiotica,ERR1817056.61291,100.00,29,0,0,5,33,192,164,1e-07,54.7
