SONDA_E_E_xenobiotica,SRR5787657.108177,100.00,37,0,0,1,37,250,214,1e-12,69.4
SONDA_E_E_xenobiotica,SRR5787657.108177,100.00,37,0,0,1,37,362,398,1e-12,69.4
SONDA_E_E_xenobiotica,SRR5787657.38170,100.00,37,0,0,1,37,362,398,1e-12,69.4
SONDA_E_E_xenobiotica,SRR5787657.81097,100.00,34,0,0,1,34,362,395,6e-11,63.9
