SONDA_C_arxii,SRR8796083.86921,97.37,38,0,1,5,42,403,439,5e-11,63.9
SONDA_C_arxii,SRR8796083.74925,97.37,38,0,1,5,42,66,30,5e-11,63.9
SONDA_C_arxii,SRR8796083.74925,97.37,38,0,1,5,42,403,439,5e-11,63.9
SONDA_C_arxii,SRR8796083.67844,97.37,38,0,1,5,42,66,30,5e-11,63.9
SONDA_C_arxii,SRR8796083.57715,97.37,38,0,1,5,42,66,30,5e-11,63.9
SONDA_C_arxii,SRR8796083.35614,97.37,38,0,1,5,42,66,30,5e-11,63.9
SONDA_C_arxii,SRR8796083.35614,97.37,38,0,1,5,42,403,439,5e-11,63.9
SONDA_C_arxii,SRR8796083.27229,97.37,38,0,1,5,42,66,30,5e-11,63.9
SONDA_C_arxii,SRR8796083.25497,97.37,38,0,1,5,42,66,30,5e-11,63.9
SONDA_C_arxii,SRR8796083.25497,94.74,38,1,1,5,42,403,439,2e-09,58.4
SONDA_C_arxii,SRR8796083.5102,97.37,38,0,1,5,42,66,30,5e-11,63.9
SONDA_C_arxii,SRR8796083.5102,97.37,38,0,1,5,42,403,439,5e-11,63.9
SONDA_C_arxii,SRR8796083.2281,97.37,38,0,1,5,42,66,30,5e-11,63.9
SONDA_C_arxii,SRR8796083.2281,97.37,38,0,1,5,42,403,439,5e-11,63.9
SONDA_C_arxii,SRR8796083.1813,97.37,38,0,1,5,42,66,30,5e-11,63.9
SONDA_C_arxii,SRR8796083.1813,97.37,38,0,1,5,42,403,439,5e-11,63.9
SONDA_C_chaetospira,SRR8796083.12511,100.00,39,0,0,1,39,366,404,7e-14,73.1
SONDA_C_chaetospira,SRR8796083.83510,100.00,38,0,0,2,39,118,81,3e-13,71.3
SONDA_C_chaetospira,SRR8796083.83510,100.00,38,0,0,2,39,366,403,3e-13,71.3
SONDA_C_chaetospira,SRR8796083.78361,100.00,38,0,0,2,39,118,81,3e-13,71.3
SONDA_C_chaetospira,SRR8796083.78361,100.00,38,0,0,2,39,366,403,3e-13,71.3
SONDA_C_chaetospira,SRR8796083.76281,100.00,38,0,0,2,39,118,81,3e-13,71.3
SONDA_C_chaetospira,SRR8796083.33968,100.00,38,0,0,2,39,118,81,3e-13,71.3
SONDA_C_chaetospira,SRR8796083.33968,100.00,38,0,0,2,39,366,403,3e-13,71.3
SONDA_C_chaetospira,SRR8796083.27074,100.00,38,0,0,2,39,118,81,3e-13,71.3
SONDA_C_chaetospira,SRR8796083.27072,100.00,38,0,0,2,39,118,81,3e-13,71.3
SONDA_C_chaetospira,SRR8796083.24313,100.00,38,0,0,2,39,118,81,3e-13,71.3
SONDA_C_chaetospira,SRR8796083.16082,100.00,38,0,0,2,39,118,81,3e-13,71.3
SONDA_C_chaetospira,SRR8796083.16082,100.00,38,0,0,2,39,366,403,3e-13,71.3
SONDA_C_chaetospira,SRR8796083.13069,100.00,38,0,0,2,39,118,81,3e-13,71.3
SONDA_C_chaetospira,SRR8796083.13069,97.37,38,1,0,2,39,366,403,1e-11,65.8
SONDA_C_chaetospira,SRR8796083.1895,100.00,38,0,0,2,39,118,81,3e-13,71.3
SONDA_C_chaetospira,SRR8796083.1895,100.00,38,0,0,2,39,366,403,3e-13,71.3
SONDA_C_chaetospira,SRR8796083.16379,97.06,34,1,0,6,39,356,389,2e-09,58.4
