SONDA_E_E_xenobiotica,ERR1817060.425969,100.00,34,0,0,1,34,430,463,2e-10,63.9
SONDA_E_E_xenobiotica,ERR1817060.424818,100.00,34,0,0,1,34,198,165,2e-10,63.9
SONDA_E_E_xenobiotica,ERR1817060.424818,100.00,34,0,0,1,34,430,463,2e-10,63.9
SONDA_E_E_xenobiotica,ERR1817060.424075,100.00,34,0,0,1,34,198,165,2e-10,63.9
SONDA_E_E_xenobiotica,ERR1817060.424075,100.00,34,0,0,1,34,430,463,2e-10,63.9
SONDA_E_E_xenobiotica,ERR1817060.422360,100.00,34,0,0,1,34,198,165,2e-10,63.9
SONDA_E_E_xenobiotica,ERR1817060.422360,100.00,34,0,0,1,34,430,463,2e-10,63.9
SONDA_E_E_xenobiotica,ERR1817060.405939,100.00,34,0,0,1,34,198,165,2e-10,63.9
SONDA_E_E_xenobiotica,ERR1817060.405939,100.00,34,0,0,1,34,430,463,2e-10,63.9
SONDA_E_E_xenobiotica,ERR1817060.404727,100.00,34,0,0,1,34,198,165,2e-10,63.9
SONDA_E_E_xenobiotica,ERR1817060.404727,100.00,34,0,0,1,34,430,463,2e-10,63.9
SONDA_E_E_xenobiotica,ERR1817060.402415,100.00,34,0,0,1,34,198,165,2e-10,63.9
SONDA_E_E_xenobiotica,ERR1817060.402415,100.00,34,0,0,1,34,430,463,2e-10,63.9
SONDA_E_E_xenobiotica,ERR1817060.399100,100.00,34,0,0,1,34,198,165,2e-10,63.9
SONDA_E_E_xenobiotica,ERR1817060.399100,100.00,34,0,0,1,34,430,463,2e-10,63.9
SONDA_E_E_xenobiotica,ERR1817060.391818,100.00,34,0,0,1,34,430,463,2e-10,63.9
SONDA_E_E_xenobiotica,ERR1817060.386579,100.00,34,0,0,1,34,198,165,2e-10,63.9
SONDA_E_E_xenobiotica,ERR1817060.386579,100.00,34,0,0,1,34,430,463,2e-10,63.9
SONDA_E_E_xenobiotica,ERR1817060.386265,100.00,34,0,0,1,34,198,165,2e-10,63.9
SONDA_E_E_xenobiotica,ERR1817060.383598,100.00,34,0,0,1,34,198,165,2e-10,63.9
SONDA_E_E_xenobiotica,ERR1817060.383598,100.00,34,0,0,1,34,430,463,2e-10,63.9
SONDA_E_E_xenobiotica,ERR1817060.380057,100.00,34,0,0,1,34,430,463,2e-10,63.9
SONDA_E_E_xenobiotica,ERR1817060.380057,100.00,33,0,0,1,33,198,166,8e-10,62.1
SONDA_E_E_xenobiotica,ERR1817060.379175,100.00,34,0,0,1,34,198,165,2e-10,63.9
SONDA_E_E_xenobiotica,ERR1817060.379175,100.00,34,0,0,1,34,430,463,2e-10,63.9
SONDA_E_E_xenobiotica,ERR1817060.377921,100.00,34,0,0,1,34,198,165,2e-10,63.9
SONDA_E_E_xenobiotica,ERR1817060.377921,100.00,34,0,0,1,34,430,463,2e-10,63.9
SONDA_E_E_xenobiotica,ERR1817060.368017,100.00,34,0,0,1,34,198,165,2e-10,63.9
SONDA_E_E_xenobiotica,ERR1817060.368017,100.00,34,0,0,1,34,430,463,2e-10,63.9
SONDA_E_E_xenobiotica,ERR1817060.347444,100.00,34,0,0,1,34,198,165,2e-10,63.9
SONDA_E_E_xenobiotica,ERR1817060.347444,100.00,34,0,0,1,34,430,463,2e-10,63.9
SONDA_E_E_xenobiotica,ERR1817060.328166,100.00,34,0,0,1,34,430,463,2e-10,63.9
SONDA_E_E_xenobiotica,ERR1817060.328166,97.22,36,1,0,1,36,198,163,8e-10,62.1
SONDA_E_E_xenobiotica,ERR1817060.313440,100.00,34,0,0,1,34,198,165,2e-10,63.9
SONDA_E_E_xenobiotica,ERR1817060.313440,100.00,34,0,0,1,34,430,463,2e-10,63.9
SONDA_E_E_xenobiotica,ERR1817060.312742,100.00,34,0,0,1,34,198,165,2e-10,63.9
SONDA_E_E_xenobiotica,ERR1817060.312742,100.00,34,0,0,1,34,430,463,2e-10,63.9
SONDA_E_E_xenobiotica,ERR1817060.301611,100.00,34,0,0,1,34,198,165,2e-10,63.9
SONDA_E_E_xenobiotica,ERR1817060.301611,100.00,34,0,0,1,34,430,463,2e-10,63.9
SONDA_E_E_xenobiotica,ERR1817060.298148,100.00,34,0,0,1,34,198,165,2e-10,63.9
SONDA_E_E_xenobiotica,ERR1817060.298148,100.00,34,0,0,1,34,430,463,2e-10,63.9
SONDA_E_E_xenobiotica,ERR1817060.297776,100.00,34,0,0,1,34,198,165,2e-10,63.9
SONDA_E_E_xenobiotica,ERR1817060.297776,100.00,34,0,0,1,34,430,463,2e-10,63.9
SONDA_E_E_xenobiotica,ERR1817060.296182,100.00,34,0,0,1,34,198,165,2e-10,63.9
SONDA_E_E_xenobiotica,ERR1817060.296182,100.00,34,0,0,1,34,430,463,2e-10,63.9
SONDA_E_E_xenobiotica,ERR1817060.296055,100.00,34,0,0,1,34,198,165,2e-10,63.9
SONDA_E_E_xenobiotica,ERR1817060.289974,100.00,34,0,0,1,34,198,165,2e-10,63.9
SONDA_E_E_xenobiotica,ERR1817060.289974,100.00,34,0,0,1,34,430,463,2e-10,63.9
SONDA_E_E_xenobiotica,ERR1817060.289247,100.00,34,0,0,1,34,198,165,2e-10,63.9
SONDA_E_E_xenobiotica,ERR1817060.289247,100.00,34,0,0,1,34,430,463,2e-10,63.9
SONDA_E_E_xenobiotica,ERR1817060.288810,100.00,34,0,0,1,34,198,165,2e-10,63.9
SONDA_E_E_xenobiotica,ERR1817060.288810,100.00,34,0,0,1,34,430,463,2e-10,63.9
SONDA_E_E_xenobiotica,ERR1817060.288799,100.00,34,0,0,1,34,430,463,2e-10,63.9
SONDA_E_E_xenobiotica,ERR1817060.288799,97.06,34,1,0,1,34,198,165,1e-08,58.4
SONDA_E_E_xenobiotica,ERR1817060.286380,100.00,34,0,0,1,34,198,165,2e-10,63.9
SONDA_E_E_xenobiotica,ERR1817060.286380,100.00,34,0,0,1,34,430,463,2e-10,63.9
SONDA_E_E_xenobiotica,ERR1817060.277206,100.00,34,0,0,1,34,198,165,2e-10,63.9
SONDA_E_E_xenobiotica,ERR1817060.277206,100.00,34,0,0,1,34,430,463,2e-10,63.9
SONDA_E_E_xenobiotica,ERR1817060.272886,100.00,34,0,0,1,34,198,165,2e-10,63.9
SONDA_E_E_xenobiotica,ERR1817060.272886,100.00,34,0,0,1,34,430,463,2e-10,63.9
SONDA_E_E_xenobiotica,ERR1817060.271924,100.00,34,0,0,1,34,198,165,2e-10,63.9
SONDA_E_E_xenobiotica,ERR1817060.271924,100.00,34,0,0,1,34,430,463,2e-10,63.9
SONDA_E_E_xenobiotica,ERR1817060.267425,100.00,34,0,0,1,34,198,165,2e-10,63.9
SONDA_E_E_xenobiotica,ERR1817060.262296,100.00,34,0,0,1,34,198,165,2e-10,63.9
SONDA_E_E_xenobiotica,ERR1817060.251504,100.00,34,0,0,1,34,198,165,2e-10,63.9
SONDA_E_E_xenobiotica,ERR1817060.251504,100.00,34,0,0,1,34,430,463,2e-10,63.9
SONDA_E_E_xenobiotica,ERR1817060.250486,100.00,34,0,0,1,34,198,165,2e-10,63.9
SONDA_E_E_xenobiotica,ERR1817060.250486,100.00,34,0,0,1,34,430,463,2e-10,63.9
SONDA_E_E_xenobiotica,ERR1817060.241221,100.00,34,0,0,1,34,198,165,2e-10,63.9
SONDA_E_E_xenobiotica,ERR1817060.241221,100.00,34,0,0,1,34,430,463,2e-10,63.9
SONDA_E_E_xenobiotica,ERR1817060.240447,100.00,34,0,0,1,34,198,165,2e-10,63.9
SONDA_E_E_xenobiotica,ERR1817060.240447,100.00,34,0,0,1,34,430,463,2e-10,63.9
SONDA_E_E_xenobiotica,ERR1817060.231449,100.00,34,0,0,1,34,198,165,2e-10,63.9
SONDA_E_E_xenobiotica,ERR1817060.230966,100.00,34,0,0,1,34,430,463,2e-10,63.9
SONDA_E_E_xenobiotica,ERR1817060.230960,100.00,34,0,0,1,34,198,165,2e-10,63.9
SONDA_E_E_xenobiotica,ERR1817060.230960,100.00,34,0,0,1,34,430,463,2e-10,63.9
SONDA_E_E_xenobiotica,ERR1817060.229520,100.00,34,0,0,1,34,198,165,2e-10,63.9
SONDA_E_E_xenobiotica,ERR1817060.229520,100.00,34,0,0,1,34,430,463,2e-10,63.9
SONDA_E_E_xenobiotica,ERR1817060.211740,100.00,34,0,0,1,34,430,463,2e-10,63.9
SONDA_E_E_xenobiotica,ERR1817060.203125,100.00,34,0,0,1,34,430,463,2e-10,63.9
SONDA_E_E_xenobiotica,ERR1817060.197084,100.00,34,0,0,1,34,198,165,2e-10,63.9
SONDA_E_E_xenobiotica,ERR1817060.197084,100.00,34,0,0,1,34,430,463,2e-10,63.9
SONDA_E_E_xenobiotica,ERR1817060.197076,100.00,34,0,0,1,34,430,463,2e-10,63.9
SONDA_E_E_xenobiotica,ERR1817060.186886,100.00,34,0,0,1,34,430,463,2e-10,63.9
SONDA_E_E_xenobiotica,ERR1817060.178250,100.00,34,0,0,1,34,198,165,2e-10,63.9
SONDA_E_E_xenobiotica,ERR1817060.178250,100.00,34,0,0,1,34,430,463,2e-10,63.9
SONDA_E_E_xenobiotica,ERR1817060.178236,100.00,34,0,0,1,34,198,165,2e-10,63.9
SONDA_E_E_xenobiotica,ERR1817060.177428,100.00,34,0,0,1,34,198,165,2e-10,63.9
SONDA_E_E_xenobiotica,ERR1817060.177428,97.37,38,0,1,1,37,430,467,2e-10,63.9
SONDA_E_E_xenobiotica,ERR1817060.170552,100.00,34,0,0,1,34,430,463,2e-10,63.9
SONDA_E_E_xenobiotica,ERR1817060.168878,100.00,34,0,0,1,34,198,165,2e-10,63.9
SONDA_E_E_xenobiotica,ERR1817060.168878,100.00,34,0,0,1,34,430,463,2e-10,63.9
SONDA_E_E_xenobiotica,ERR1817060.165534,100.00,34,0,0,1,34,198,165,2e-10,63.9
SONDA_E_E_xenobiotica,ERR1817060.165534,100.00,34,0,0,1,34,430,463,2e-10,63.9
SONDA_E_E_xenobiotica,ERR1817060.163886,100.00,34,0,0,1,34,430,463,2e-10,63.9
SONDA_E_E_xenobiotica,ERR1817060.156418,100.00,34,0,0,1,34,198,165,2e-10,63.9
SONDA_E_E_xenobiotica,ERR1817060.156418,100.00,34,0,0,1,34,430,463,2e-10,63.9
SONDA_E_E_xenobiotica,ERR1817060.156411,100.00,34,0,0,1,34,430,463,2e-10,63.9
SONDA_E_E_xenobiotica,ERR1817060.156411,97.06,34,1,0,1,34,198,165,1e-08,58.4
SONDA_E_E_xenobiotica,ERR1817060.151586,100.00,34,0,0,1,34,198,165,2e-10,63.9
SONDA_E_E_xenobiotica,ERR1817060.151586,100.00,34,0,0,1,34,430,463,2e-10,63.9
SONDA_E_E_xenobiotica,ERR1817060.150702,100.00,34,0,0,1,34,198,165,2e-10,63.9
SONDA_E_E_xenobiotica,ERR1817060.150546,100.00,34,0,0,1,34,198,165,2e-10,63.9
SONDA_E_E_xenobiotica,ERR1817060.150546,100.00,34,0,0,1,34,430,463,2e-10,63.9
SONDA_E_E_xenobiotica,ERR1817060.150540,100.00,34,0,0,1,34,198,165,2e-10,63.9
SONDA_E_E_xenobiotica,ERR1817060.150540,100.00,34,0,0,1,34,430,463,2e-10,63.9
SONDA_E_E_xenobiotica,ERR1817060.145371,100.00,34,0,0,1,34,198,165,2e-10,63.9
SONDA_E_E_xenobiotica,ERR1817060.145371,100.00,34,0,0,1,34,430,463,2e-10,63.9
SONDA_E_E_xenobiotica,ERR1817060.139311,100.00,34,0,0,1,34,198,165,2e-10,63.9
SONDA_E_E_xenobiotica,ERR1817060.139311,100.00,34,0,0,1,34,430,463,2e-10,63.9
SONDA_E_E_xenobiotica,ERR1817060.122295,100.00,34,0,0,1,34,430,463,2e-10,63.9
SONDA_E_E_xenobiotica,ERR1817060.115968,100.00,34,0,0,1,34,198,165,2e-10,63.9
SONDA_E_E_xenobiotica,ERR1817060.115968,100.00,34,0,0,1,34,430,463,2e-10,63.9
SONDA_E_E_xenobiotica,ERR1817060.113536,100.00,34,0,0,1,34,198,165,2e-10,63.9
SONDA_E_E_xenobiotica,ERR1817060.113468,100.00,34,0,0,1,34,198,165,2e-10,63.9
SONDA_E_E_xenobiotica,ERR1817060.113468,100.00,34,0,0,1,34,429,462,2e-10,63.9
SONDA_E_E_xenobiotica,ERR1817060.110538,100.00,34,0,0,1,34,198,165,2e-10,63.9
SONDA_E_E_xenobiotica,ERR1817060.98059,100.00,34,0,0,1,34,198,165,2e-10,63.9
SONDA_E_E_xenobiotica,ERR1817060.98059,100.00,34,0,0,1,34,430,463,2e-10,63.9
SONDA_E_E_xenobiotica,ERR1817060.95840,100.00,34,0,0,1,34,198,165,2e-10,63.9
SONDA_E_E_xenobiotica,ERR1817060.95840,100.00,34,0,0,1,34,430,463,2e-10,63.9
SONDA_E_E_xenobiotica,ERR1817060.92907,100.00,34,0,0,1,34,430,463,2e-10,63.9
SONDA_E_E_xenobiotica,ERR1817060.82666,100.00,34,0,0,1,34,198,165,2e-10,63.9
SONDA_E_E_xenobiotica,ERR1817060.82666,100.00,34,0,0,1,34,430,463,2e-10,63.9
SONDA_E_E_xenobiotica,ERR1817060.77577,100.00,34,0,0,1,34,198,165,2e-10,63.9
SONDA_E_E_xenobiotica,ERR1817060.77577,100.00,34,0,0,1,34,430,463,2e-10,63.9
SONDA_E_E_xenobiotica,ERR1817060.77383,100.00,34,0,0,1,34,430,463,2e-10,63.9
SONDA_E_E_xenobiotica,ERR1817060.77383,100.00,33,0,0,2,34,197,165,8e-10,62.1
SONDA_E_E_xenobiotica,ERR1817060.76491,100.00,34,0,0,1,34,198,165,2e-10,63.9
SONDA_E_E_xenobiotica,ERR1817060.76491,100.00,34,0,0,1,34,430,463,2e-10,63.9
SONDA_E_E_xenobiotica,ERR1817060.73907,100.00,34,0,0,1,34,430,463,2e-10,63.9
SONDA_E_E_xenobiotica,ERR1817060.73002,100.00,34,0,0,1,34,198,165,2e-10,63.9
SONDA_E_E_xenobiotica,ERR1817060.73002,100.00,34,0,0,1,34,430,463,2e-10,63.9
SONDA_E_E_xenobiotica,ERR1817060.71050,100.00,34,0,0,1,34,198,165,2e-10,63.9
SONDA_E_E_xenobiotica,ERR1817060.71050,100.00,34,0,0,1,34,430,463,2e-10,63.9
SONDA_E_E_xenobiotica,ERR1817060.70556,100.00,34,0,0,1,34,430,463,2e-10,63.9
SONDA_E_E_xenobiotica,ERR1817060.70556,100.00,31,0,0,4,34,195,165,1e-08,58.4
SONDA_E_E_xenobiotica,ERR1817060.69233,100.00,34,0,0,1,34,198,165,2e-10,63.9
SONDA_E_E_xenobiotica,ERR1817060.69233,100.00,33,0,0,1,33,430,462,8e-10,62.1
SONDA_E_E_xenobiotica,ERR1817060.66535,100.00,34,0,0,1,34,198,165,2e-10,63.9
SONDA_E_E_xenobiotica,ERR1817060.66535,100.00,34,0,0,1,34,430,463,2e-10,63.9
SONDA_E_E_xenobiotica,ERR1817060.62392,100.00,34,0,0,1,34,198,165,2e-10,63.9
SONDA_E_E_xenobiotica,ERR1817060.59316,100.00,34,0,0,1,34,429,462,2e-10,63.9
SONDA_E_E_xenobiotica,ERR1817060.59313,100.00,34,0,0,1,34,198,165,2e-10,63.9
SONDA_E_E_xenobiotica,ERR1817060.59313,100.00,34,0,0,1,34,429,462,2e-10,63.9
SONDA_E_E_xenobiotica,ERR1817060.54028,100.00,34,0,0,1,34,198,165,2e-10,63.9
SONDA_E_E_xenobiotica,ERR1817060.49690,100.00,34,0,0,1,34,198,165,2e-10,63.9
SONDA_E_E_xenobiotica,ERR1817060.49690,100.00,34,0,0,1,34,430,463,2e-10,63.9
SONDA_E_E_xenobiotica,ERR1817060.46944,100.00,34,0,0,1,34,198,165,2e-10,63.9
SONDA_E_E_xenobiotica,ERR1817060.46502,100.00,34,0,0,1,34,198,165,2e-10,63.9
SONDA_E_E_xenobiotica,ERR1817060.46502,100.00,33,0,0,1,33,430,462,8e-10,62.1
SONDA_E_E_xenobiotica,ERR1817060.44195,100.00,34,0,0,1,34,197,164,2e-10,63.9
SONDA_E_E_xenobiotica,ERR1817060.44195,100.00,34,0,0,1,34,429,462,2e-10,63.9
SONDA_E_E_xenobiotica,ERR1817060.41213,100.00,34,0,0,1,34,198,165,2e-10,63.9
SONDA_E_E_xenobiotica,ERR1817060.41213,100.00,34,0,0,1,34,430,463,2e-10,63.9
SONDA_E_E_xenobiotica,ERR1817060.36816,100.00,34,0,0,1,34,430,463,2e-10,63.9
SONDA_E_E_xenobiotica,ERR1817060.35417,100.00,34,0,0,1,34,198,165,2e-10,63.9
SONDA_E_E_xenobiotica,ERR1817060.35417,100.00,31,0,0,4,34,433,463,1e-08,58.4
SONDA_E_E_xenobiotica,ERR1817060.35408,100.00,34,0,0,1,34,198,165,2e-10,63.9
SONDA_E_E_xenobiotica,ERR1817060.35408,100.00,34,0,0,1,34,430,463,2e-10,63.9
SONDA_E_E_xenobiotica,ERR1817060.32918,100.00,34,0,0,1,34,198,165,2e-10,63.9
SONDA_E_E_xenobiotica,ERR1817060.32918,100.00,34,0,0,1,34,430,463,2e-10,63.9
SONDA_E_E_xenobiotica,ERR1817060.28931,100.00,34,0,0,1,34,198,165,2e-10,63.9
SONDA_E_E_xenobiotica,ERR1817060.28931,100.00,34,0,0,1,34,430,463,2e-10,63.9
SONDA_E_E_xenobiotica,ERR1817060.17479,100.00,34,0,0,1,34,429,462,2e-10,63.9
SONDA_E_E_xenobiotica,ERR1817060.14959,100.00,34,0,0,1,34,198,165,2e-10,63.9
SONDA_E_E_xenobiotica,ERR1817060.14959,100.00,34,0,0,1,34,430,463,2e-10,63.9
SONDA_E_E_xenobiotica,ERR1817060.6853,100.00,34,0,0,1,34,198,165,2e-10,63.9
SONDA_E_E_xenobiotica,ERR1817060.6853,100.00,34,0,0,1,34,430,463,2e-10,63.9
SONDA_E_E_xenobiotica,ERR1817060.328159,100.00,33,0,0,1,33,198,166,8e-10,62.1
SONDA_E_E_xenobiotica,ERR1817060.396517,97.06,34,1,0,1,34,198,165,1e-08,58.4
SONDA_E_E_xenobiotica,ERR1817060.339551,100.00,31,0,0,4,34,433,463,1e-08,58.4
SONDA_E_E_xenobiotica,ERR1817060.233406,97.06,34,1,0,1,34,198,165,1e-08,58.4
SONDA_E_E_xenobiotica,ERR1817060.130184,97.06,34,1,0,1,34,198,165,1e-08,58.4
SONDA_E_E_xenobiotica,ERR1817060.130184,97.06,34,1,0,1,34,430,463,1e-08,58.4
SONDA_E_E_xenobiotica,ERR1817060.113475,100.00,31,0,0,4,34,433,463,1e-08,58.4
SONDA_E_E_xenobiotica,ERR1817060.11778,97.06,34,1,0,1,34,198,165,1e-08,58.4
