SONDA_E_E_xenobiotica,SRR5787641.22162,100.00,37,0,0,1,37,250,214,1e-12,69.4
SONDA_E_E_xenobiotica,SRR5787641.22162,100.00,37,0,0,1,37,362,398,1e-12,69.4
SONDA_E_E_xenobiotica,SRR5787641.22160,100.00,37,0,0,1,37,250,214,1e-12,69.4
SONDA_E_E_xenobiotica,SRR5787641.22160,100.00,37,0,0,1,37,362,398,1e-12,69.4
SONDA_E_E_xenobiotica,SRR5787641.120193,100.00,34,0,0,1,34,111,144,5e-11,63.9
SONDA_E_E_xenobiotica,SRR5787641.120192,100.00,34,0,0,1,34,111,144,5e-11,63.9
SONDA_E_E_xenobiotica,SRR5787641.49783,100.00,34,0,0,1,34,369,402,5e-11,63.9
SONDA_E_E_xenobiotica,SRR5787641.49783,100.00,33,0,0,2,34,251,219,2e-10,62.1
SONDA_E_E_xenobiotica,SRR5787641.23602,100.00,34,0,0,1,34,362,395,5e-11,63.9
SONDA_E_E_xenobiotica,SRR5787641.23602,100.00,31,0,0,4,34,252,222,2e-09,58.4
SONDA_E_E_xenobiotica,SRR5787641.23597,100.00,34,0,0,1,34,362,395,5e-11,63.9
SONDA_E_E_xenobiotica,SRR5787641.23597,100.00,31,0,0,4,34,252,222,2e-09,58.4
SONDA_E_E_xenobiotica,SRR5787641.23590,100.00,34,0,0,1,34,362,395,5e-11,63.9
