SONDA_C_chaetospira,SRR8796059.30618,100.00,34,0,0,6,39,111,78,2e-11,63.9
SONDA_C_chaetospira,SRR8796059.29081,100.00,34,0,0,6,39,111,78,2e-11,63.9
SONDA_C_chaetospira,SRR8796059.25237,100.00,34,0,0,6,39,111,78,2e-11,63.9
SONDA_C_chaetospira,SRR8796059.20947,100.00,34,0,0,6,39,111,78,2e-11,63.9
SONDA_C_chaetospira,SRR8796059.19187,100.00,34,0,0,6,39,111,78,2e-11,63.9
SONDA_C_chaetospira,SRR8796059.13858,100.00,34,0,0,6,39,356,389,2e-11,63.9
SONDA_C_chaetospira,SRR8796059.7997,100.00,34,0,0,6,39,111,78,2e-11,63.9
SONDA_C_chaetospira,SRR8796059.7513,100.00,34,0,0,6,39,111,78,2e-11,63.9
SONDA_C_chaetospira,SRR8796059.7092,100.00,34,0,0,6,39,111,78,2e-11,63.9
SONDA_C_chaetospira,SRR8796059.6686,100.00,34,0,0,6,39,111,78,2e-11,63.9
SONDA_C_chaetospira,SRR8796059.6581,100.00,34,0,0,6,39,111,78,2e-11,63.9
SONDA_C_chaetospira,SRR8796059.1845,100.00,34,0,0,6,39,111,78,2e-11,63.9
