SONDA_C_arxii,SRR8794769.22306,97.44,39,0,1,4,42,67,30,5e-12,65.8
SONDA_C_arxii,SRR8794769.21219,97.44,39,0,1,4,42,67,30,5e-12,65.8
SONDA_C_arxii,SRR8794769.21219,97.44,39,0,1,4,42,452,489,5e-12,65.8
SONDA_C_arxii,SRR8794769.1766,97.44,39,0,1,4,42,67,30,5e-12,65.8
SONDA_C_arxii,SRR8794769.1766,97.44,39,0,1,4,42,452,489,5e-12,65.8
SONDA_C_arxii,SRR8794769.24194,97.37,38,0,1,5,42,66,30,2e-11,63.9
SONDA_C_arxii,SRR8794769.24194,97.37,38,0,1,5,42,453,489,2e-11,63.9
SONDA_C_arxii,SRR8794769.24134,97.37,38,0,1,5,42,66,30,2e-11,63.9
SONDA_C_arxii,SRR8794769.24134,97.37,38,0,1,5,42,453,489,2e-11,63.9
SONDA_C_arxii,SRR8794769.23880,97.37,38,0,1,5,42,66,30,2e-11,63.9
SONDA_C_arxii,SRR8794769.23880,97.37,38,0,1,5,42,453,489,2e-11,63.9
SONDA_C_arxii,SRR8794769.23360,97.37,38,0,1,5,42,66,30,2e-11,63.9
SONDA_C_arxii,SRR8794769.23360,97.37,38,0,1,5,42,453,489,2e-11,63.9
SONDA_C_arxii,SRR8794769.23276,97.37,38,0,1,5,42,66,30,2e-11,63.9
SONDA_C_arxii,SRR8794769.23276,97.37,38,0,1,5,42,452,488,2e-11,63.9
SONDA_C_arxii,SRR8794769.23274,97.37,38,0,1,5,42,66,30,2e-11,63.9
SONDA_C_arxii,SRR8794769.23274,97.37,38,0,1,5,42,453,489,2e-11,63.9
SONDA_C_arxii,SRR8794769.23202,97.37,38,0,1,5,42,66,30,2e-11,63.9
SONDA_C_arxii,SRR8794769.23202,97.37,38,0,1,5,42,453,489,2e-11,63.9
SONDA_C_arxii,SRR8794769.23053,97.37,38,0,1,5,42,66,30,2e-11,63.9
SONDA_C_arxii,SRR8794769.23053,97.37,38,0,1,5,42,453,489,2e-11,63.9
SONDA_C_arxii,SRR8794769.23033,97.37,38,0,1,5,42,66,30,2e-11,63.9
SONDA_C_arxii,SRR8794769.23033,97.37,38,0,1,5,42,453,489,2e-11,63.9
SONDA_C_arxii,SRR8794769.22853,97.37,38,0,1,5,42,66,30,2e-11,63.9
SONDA_C_arxii,SRR8794769.22853,97.37,38,0,1,5,42,453,489,2e-11,63.9
SONDA_C_arxii,SRR8794769.22778,97.37,38,0,1,5,42,66,30,2e-11,63.9
SONDA_C_arxii,SRR8794769.22778,97.37,38,0,1,5,42,453,489,2e-11,63.9
SONDA_C_arxii,SRR8794769.22721,97.37,38,0,1,5,42,66,30,2e-11,63.9
SONDA_C_arxii,SRR8794769.22721,97.37,38,0,1,5,42,453,489,2e-11,63.9
SONDA_C_arxii,SRR8794769.22193,97.37,38,0,1,5,42,66,30,2e-11,63.9
SONDA_C_arxii,SRR8794769.22193,97.37,38,0,1,5,42,452,488,2e-11,63.9
SONDA_C_arxii,SRR8794769.21957,97.37,38,0,1,5,42,66,30,2e-11,63.9
SONDA_C_arxii,SRR8794769.21957,97.37,38,0,1,5,42,453,489,2e-11,63.9
SONDA_C_arxii,SRR8794769.21876,97.37,38,0,1,5,42,66,30,2e-11,63.9
SONDA_C_arxii,SRR8794769.21469,97.37,38,0,1,5,42,66,30,2e-11,63.9
SONDA_C_arxii,SRR8794769.21469,97.37,38,0,1,5,42,453,489,2e-11,63.9
SONDA_C_arxii,SRR8794769.21321,97.37,38,0,1,5,42,66,30,2e-11,63.9
SONDA_C_arxii,SRR8794769.21321,97.37,38,0,1,5,42,453,489,2e-11,63.9
SONDA_C_arxii,SRR8794769.21283,97.37,38,0,1,5,42,66,30,2e-11,63.9
SONDA_C_arxii,SRR8794769.21283,97.37,38,0,1,5,42,453,489,2e-11,63.9
SONDA_C_arxii,SRR8794769.20782,97.37,38,0,1,5,42,66,30,2e-11,63.9
SONDA_C_arxii,SRR8794769.20777,97.37,38,0,1,5,42,66,30,2e-11,63.9
SONDA_C_arxii,SRR8794769.20591,97.37,38,0,1,5,42,66,30,2e-11,63.9
SONDA_C_arxii,SRR8794769.20591,97.14,35,0,1,8,42,456,489,8e-10,58.4
SONDA_C_arxii,SRR8794769.20362,97.37,38,0,1,5,42,66,30,2e-11,63.9
SONDA_C_arxii,SRR8794769.20362,97.37,38,0,1,5,42,453,489,2e-11,63.9
SONDA_C_arxii,SRR8794769.20193,97.37,38,0,1,5,42,66,30,2e-11,63.9
SONDA_C_arxii,SRR8794769.20193,97.37,38,0,1,5,42,453,489,2e-11,63.9
SONDA_C_arxii,SRR8794769.20191,97.37,38,0,1,5,42,66,30,2e-11,63.9
SONDA_C_arxii,SRR8794769.20190,97.37,38,0,1,5,42,66,30,2e-11,63.9
SONDA_C_arxii,SRR8794769.20190,97.37,38,0,1,5,42,453,489,2e-11,63.9
SONDA_C_arxii,SRR8794769.20189,97.37,38,0,1,5,42,66,30,2e-11,63.9
SONDA_C_arxii,SRR8794769.20116,97.37,38,0,1,5,42,66,30,2e-11,63.9
SONDA_C_arxii,SRR8794769.20116,97.37,38,0,1,5,42,453,489,2e-11,63.9
SONDA_C_arxii,SRR8794769.19943,97.37,38,0,1,5,42,66,30,2e-11,63.9
SONDA_C_arxii,SRR8794769.19943,97.37,38,0,1,5,42,453,489,2e-11,63.9
SONDA_C_arxii,SRR8794769.19865,97.37,38,0,1,5,42,66,30,2e-11,63.9
SONDA_C_arxii,SRR8794769.19865,97.37,38,0,1,5,42,453,489,2e-11,63.9
SONDA_C_arxii,SRR8794769.19535,97.37,38,0,1,5,42,66,30,2e-11,63.9
SONDA_C_arxii,SRR8794769.19535,97.37,38,0,1,5,42,453,489,2e-11,63.9
SONDA_C_arxii,SRR8794769.19519,97.37,38,0,1,5,42,66,30,2e-11,63.9
SONDA_C_arxii,SRR8794769.19519,97.37,38,0,1,5,42,453,489,2e-11,63.9
SONDA_C_arxii,SRR8794769.19453,97.37,38,0,1,5,42,66,30,2e-11,63.9
SONDA_C_arxii,SRR8794769.19453,97.37,38,0,1,5,42,453,489,2e-11,63.9
SONDA_C_arxii,SRR8794769.19433,97.37,38,0,1,5,42,66,30,2e-11,63.9
SONDA_C_arxii,SRR8794769.19433,97.22,36,0,1,7,42,455,489,2e-10,60.2
SONDA_C_arxii,SRR8794769.19412,97.37,38,0,1,5,42,453,489,2e-11,63.9
SONDA_C_arxii,SRR8794769.19411,97.37,38,0,1,5,42,66,30,2e-11,63.9
SONDA_C_arxii,SRR8794769.19411,97.37,38,0,1,5,42,453,489,2e-11,63.9
SONDA_C_arxii,SRR8794769.19410,97.37,38,0,1,5,42,66,30,2e-11,63.9
SONDA_C_arxii,SRR8794769.19018,97.37,38,0,1,5,42,66,30,2e-11,63.9
SONDA_C_arxii,SRR8794769.18887,97.37,38,0,1,5,42,66,30,2e-11,63.9
SONDA_C_arxii,SRR8794769.18887,97.37,38,0,1,5,42,453,489,2e-11,63.9
SONDA_C_arxii,SRR8794769.18612,97.37,38,0,1,5,42,66,30,2e-11,63.9
SONDA_C_arxii,SRR8794769.18612,97.37,38,0,1,5,42,453,489,2e-11,63.9
SONDA_C_arxii,SRR8794769.18416,97.37,38,0,1,5,42,66,30,2e-11,63.9
SONDA_C_arxii,SRR8794769.18416,97.37,38,0,1,5,42,453,489,2e-11,63.9
SONDA_C_arxii,SRR8794769.18400,97.37,38,0,1,5,42,66,30,2e-11,63.9
SONDA_C_arxii,SRR8794769.18400,97.37,38,0,1,5,42,453,489,2e-11,63.9
SONDA_C_arxii,SRR8794769.18289,97.37,38,0,1,5,42,66,30,2e-11,63.9
SONDA_C_arxii,SRR8794769.18289,97.37,38,0,1,5,42,453,489,2e-11,63.9
SONDA_C_arxii,SRR8794769.18263,97.37,38,0,1,5,42,66,30,2e-11,63.9
SONDA_C_arxii,SRR8794769.18263,97.37,38,0,1,5,42,453,489,2e-11,63.9
SONDA_C_arxii,SRR8794769.18262,97.37,38,0,1,5,42,66,30,2e-11,63.9
SONDA_C_arxii,SRR8794769.18262,97.37,38,0,1,5,42,453,489,2e-11,63.9
SONDA_C_arxii,SRR8794769.17775,97.37,38,0,1,5,42,66,30,2e-11,63.9
SONDA_C_arxii,SRR8794769.17775,97.37,38,0,1,5,42,453,489,2e-11,63.9
SONDA_C_arxii,SRR8794769.17774,97.37,38,0,1,5,42,66,30,2e-11,63.9
SONDA_C_arxii,SRR8794769.17640,97.37,38,0,1,5,42,66,30,2e-11,63.9
SONDA_C_arxii,SRR8794769.17640,97.37,38,0,1,5,42,453,489,2e-11,63.9
SONDA_C_arxii,SRR8794769.17499,97.37,38,0,1,5,42,66,30,2e-11,63.9
SONDA_C_arxii,SRR8794769.17499,97.37,38,0,1,5,42,453,489,2e-11,63.9
SONDA_C_arxii,SRR8794769.17494,97.37,38,0,1,5,42,66,30,2e-11,63.9
SONDA_C_arxii,SRR8794769.17257,97.37,38,0,1,5,42,66,30,2e-11,63.9
SONDA_C_arxii,SRR8794769.17257,97.37,38,0,1,5,42,453,489,2e-11,63.9
SONDA_C_arxii,SRR8794769.16862,97.37,38,0,1,5,42,66,30,2e-11,63.9
SONDA_C_arxii,SRR8794769.16862,97.37,38,0,1,5,42,452,488,2e-11,63.9
SONDA_C_arxii,SRR8794769.16603,97.37,38,0,1,5,42,66,30,2e-11,63.9
SONDA_C_arxii,SRR8794769.16603,97.37,38,0,1,5,42,453,489,2e-11,63.9
SONDA_C_arxii,SRR8794769.16274,97.37,38,0,1,5,42,66,30,2e-11,63.9
SONDA_C_arxii,SRR8794769.16223,97.37,38,0,1,5,42,66,30,2e-11,63.9
SONDA_C_arxii,SRR8794769.16201,97.37,38,0,1,5,42,66,30,2e-11,63.9
SONDA_C_arxii,SRR8794769.16201,97.37,38,0,1,5,42,453,489,2e-11,63.9
SONDA_C_arxii,SRR8794769.16119,97.37,38,0,1,5,42,66,30,2e-11,63.9
SONDA_C_arxii,SRR8794769.15919,97.37,38,0,1,5,42,66,30,2e-11,63.9
SONDA_C_arxii,SRR8794769.15919,97.37,38,0,1,5,42,453,489,2e-11,63.9
SONDA_C_arxii,SRR8794769.15782,97.37,38,0,1,5,42,66,30,2e-11,63.9
SONDA_C_arxii,SRR8794769.15781,97.37,38,0,1,5,42,66,30,2e-11,63.9
SONDA_C_arxii,SRR8794769.15779,97.37,38,0,1,5,42,66,30,2e-11,63.9
SONDA_C_arxii,SRR8794769.15779,97.37,38,0,1,5,42,453,489,2e-11,63.9
SONDA_C_arxii,SRR8794769.15704,97.37,38,0,1,5,42,66,30,2e-11,63.9
SONDA_C_arxii,SRR8794769.15704,97.37,38,0,1,5,42,453,489,2e-11,63.9
SONDA_C_arxii,SRR8794769.15115,97.37,38,0,1,5,42,66,30,2e-11,63.9
SONDA_C_arxii,SRR8794769.15115,97.37,38,0,1,5,42,453,489,2e-11,63.9
SONDA_C_arxii,SRR8794769.14759,97.37,38,0,1,5,42,66,30,2e-11,63.9
SONDA_C_arxii,SRR8794769.14759,97.37,38,0,1,5,42,453,489,2e-11,63.9
SONDA_C_arxii,SRR8794769.14464,97.37,38,0,1,5,42,66,30,2e-11,63.9
SONDA_C_arxii,SRR8794769.14464,97.37,38,0,1,5,42,453,489,2e-11,63.9
SONDA_C_arxii,SRR8794769.14424,97.37,38,0,1,5,42,66,30,2e-11,63.9
SONDA_C_arxii,SRR8794769.14424,97.37,38,0,1,5,42,453,489,2e-11,63.9
SONDA_C_arxii,SRR8794769.14423,97.37,38,0,1,5,42,66,30,2e-11,63.9
SONDA_C_arxii,SRR8794769.14251,97.37,38,0,1,5,42,66,30,2e-11,63.9
SONDA_C_arxii,SRR8794769.14251,97.37,38,0,1,5,42,453,489,2e-11,63.9
SONDA_C_arxii,SRR8794769.14127,97.37,38,0,1,5,42,66,30,2e-11,63.9
SONDA_C_arxii,SRR8794769.14127,94.74,38,1,1,5,42,453,489,8e-10,58.4
SONDA_C_arxii,SRR8794769.13827,97.37,38,0,1,5,42,66,30,2e-11,63.9
SONDA_C_arxii,SRR8794769.13827,97.37,38,0,1,5,42,453,489,2e-11,63.9
SONDA_C_arxii,SRR8794769.13752,97.37,38,0,1,5,42,66,30,2e-11,63.9
SONDA_C_arxii,SRR8794769.13752,97.37,38,0,1,5,42,453,489,2e-11,63.9
SONDA_C_arxii,SRR8794769.13419,97.37,38,0,1,5,42,453,489,2e-11,63.9
SONDA_C_arxii,SRR8794769.13324,97.37,38,0,1,5,42,66,30,2e-11,63.9
SONDA_C_arxii,SRR8794769.13324,97.37,38,0,1,5,42,453,489,2e-11,63.9
SONDA_C_arxii,SRR8794769.13298,97.37,38,0,1,5,42,66,30,2e-11,63.9
SONDA_C_arxii,SRR8794769.13298,97.37,38,0,1,5,42,453,489,2e-11,63.9
SONDA_C_arxii,SRR8794769.13145,97.37,38,0,1,5,42,66,30,2e-11,63.9
SONDA_C_arxii,SRR8794769.13145,97.37,38,0,1,5,42,453,489,2e-11,63.9
SONDA_C_arxii,SRR8794769.13131,97.37,38,0,1,5,42,66,30,2e-11,63.9
SONDA_C_arxii,SRR8794769.13131,97.37,38,0,1,5,42,453,489,2e-11,63.9
SONDA_C_arxii,SRR8794769.13064,97.37,38,0,1,5,42,66,30,2e-11,63.9
SONDA_C_arxii,SRR8794769.13064,97.37,38,0,1,5,42,453,489,2e-11,63.9
SONDA_C_arxii,SRR8794769.13063,97.37,38,0,1,5,42,66,30,2e-11,63.9
SONDA_C_arxii,SRR8794769.13063,97.37,38,0,1,5,42,453,489,2e-11,63.9
SONDA_C_arxii,SRR8794769.12596,97.37,38,0,1,5,42,66,30,2e-11,63.9
SONDA_C_arxii,SRR8794769.12596,97.37,38,0,1,5,42,453,489,2e-11,63.9
SONDA_C_arxii,SRR8794769.12533,97.37,38,0,1,5,42,66,30,2e-11,63.9
SONDA_C_arxii,SRR8794769.12533,97.37,38,0,1,5,42,453,489,2e-11,63.9
SONDA_C_arxii,SRR8794769.11957,97.37,38,0,1,5,42,66,30,2e-11,63.9
SONDA_C_arxii,SRR8794769.11957,97.37,38,0,1,5,42,453,489,2e-11,63.9
SONDA_C_arxii,SRR8794769.11659,97.37,38,0,1,5,42,66,30,2e-11,63.9
SONDA_C_arxii,SRR8794769.11659,97.37,38,0,1,5,42,453,489,2e-11,63.9
SONDA_C_arxii,SRR8794769.11590,97.37,38,0,1,5,42,66,30,2e-11,63.9
SONDA_C_arxii,SRR8794769.11590,97.37,38,0,1,5,42,453,489,2e-11,63.9
SONDA_C_arxii,SRR8794769.11588,97.37,38,0,1,5,42,66,30,2e-11,63.9
SONDA_C_arxii,SRR8794769.11573,97.37,38,0,1,5,42,66,30,2e-11,63.9
SONDA_C_arxii,SRR8794769.11573,97.37,38,0,1,5,42,453,489,2e-11,63.9
SONDA_C_arxii,SRR8794769.11471,97.37,38,0,1,5,42,66,30,2e-11,63.9
SONDA_C_arxii,SRR8794769.11471,97.37,38,0,1,5,42,453,489,2e-11,63.9
SONDA_C_arxii,SRR8794769.11441,97.37,38,0,1,5,42,66,30,2e-11,63.9
SONDA_C_arxii,SRR8794769.11441,97.37,38,0,1,5,42,453,489,2e-11,63.9
SONDA_C_arxii,SRR8794769.10620,97.37,38,0,1,5,42,66,30,2e-11,63.9
SONDA_C_arxii,SRR8794769.10620,97.37,38,0,1,5,42,453,489,2e-11,63.9
SONDA_C_arxii,SRR8794769.10493,97.37,38,0,1,5,42,66,30,2e-11,63.9
SONDA_C_arxii,SRR8794769.10493,97.37,38,0,1,5,42,453,489,2e-11,63.9
SONDA_C_arxii,SRR8794769.10462,97.37,38,0,1,5,42,66,30,2e-11,63.9
SONDA_C_arxii,SRR8794769.10462,97.37,38,0,1,5,42,453,489,2e-11,63.9
SONDA_C_arxii,SRR8794769.10439,97.37,38,0,1,5,42,66,30,2e-11,63.9
SONDA_C_arxii,SRR8794769.10343,97.37,38,0,1,5,42,66,30,2e-11,63.9
SONDA_C_arxii,SRR8794769.10296,97.37,38,0,1,5,42,66,30,2e-11,63.9
SONDA_C_arxii,SRR8794769.10296,97.37,38,0,1,5,42,453,489,2e-11,63.9
SONDA_C_arxii,SRR8794769.10192,97.37,38,0,1,5,42,66,30,2e-11,63.9
SONDA_C_arxii,SRR8794769.10192,97.37,38,0,1,5,42,453,489,2e-11,63.9
SONDA_C_arxii,SRR8794769.10114,97.37,38,0,1,5,42,66,30,2e-11,63.9
SONDA_C_arxii,SRR8794769.10114,97.37,38,0,1,5,42,453,489,2e-11,63.9
SONDA_C_arxii,SRR8794769.9767,97.37,38,0,1,5,42,66,30,2e-11,63.9
SONDA_C_arxii,SRR8794769.9767,97.37,38,0,1,5,42,453,489,2e-11,63.9
SONDA_C_arxii,SRR8794769.9537,97.37,38,0,1,5,42,66,30,2e-11,63.9
SONDA_C_arxii,SRR8794769.9537,97.37,38,0,1,5,42,453,489,2e-11,63.9
SONDA_C_arxii,SRR8794769.9384,97.37,38,0,1,5,42,66,30,2e-11,63.9
SONDA_C_arxii,SRR8794769.9384,97.37,38,0,1,5,42,453,489,2e-11,63.9
SONDA_C_arxii,SRR8794769.9336,97.37,38,0,1,5,42,66,30,2e-11,63.9
SONDA_C_arxii,SRR8794769.9336,97.37,38,0,1,5,42,453,489,2e-11,63.9
SONDA_C_arxii,SRR8794769.9302,97.37,38,0,1,5,42,66,30,2e-11,63.9
SONDA_C_arxii,SRR8794769.9302,97.37,38,0,1,5,42,453,489,2e-11,63.9
SONDA_C_arxii,SRR8794769.8980,97.37,38,0,1,5,42,66,30,2e-11,63.9
SONDA_C_arxii,SRR8794769.8980,97.37,38,0,1,5,42,453,489,2e-11,63.9
SONDA_C_arxii,SRR8794769.8964,97.37,38,0,1,5,42,66,30,2e-11,63.9
SONDA_C_arxii,SRR8794769.8809,97.37,38,0,1,5,42,66,30,2e-11,63.9
SONDA_C_arxii,SRR8794769.8809,97.37,38,0,1,5,42,453,489,2e-11,63.9
SONDA_C_arxii,SRR8794769.8765,97.37,38,0,1,5,42,66,30,2e-11,63.9
SONDA_C_arxii,SRR8794769.8765,97.37,38,0,1,5,42,453,489,2e-11,63.9
SONDA_C_arxii,SRR8794769.8713,97.37,38,0,1,5,42,66,30,2e-11,63.9
SONDA_C_arxii,SRR8794769.8713,97.37,38,0,1,5,42,453,489,2e-11,63.9
SONDA_C_arxii,SRR8794769.8605,97.37,38,0,1,5,42,66,30,2e-11,63.9
SONDA_C_arxii,SRR8794769.8605,97.37,38,0,1,5,42,453,489,2e-11,63.9
SONDA_C_arxii,SRR8794769.8600,97.37,38,0,1,5,42,66,30,2e-11,63.9
SONDA_C_arxii,SRR8794769.8600,97.37,38,0,1,5,42,453,489,2e-11,63.9
SONDA_C_arxii,SRR8794769.8550,97.37,38,0,1,5,42,66,30,2e-11,63.9
SONDA_C_arxii,SRR8794769.8550,97.37,38,0,1,5,42,453,489,2e-11,63.9
SONDA_C_arxii,SRR8794769.8424,97.37,38,0,1,5,42,66,30,2e-11,63.9
SONDA_C_arxii,SRR8794769.8367,97.37,38,0,1,5,42,66,30,2e-11,63.9
SONDA_C_arxii,SRR8794769.8367,97.37,38,0,1,5,42,453,489,2e-11,63.9
SONDA_C_arxii,SRR8794769.8356,97.37,38,0,1,5,42,66,30,2e-11,63.9
SONDA_C_arxii,SRR8794769.8356,97.37,38,0,1,5,42,453,489,2e-11,63.9
SONDA_C_arxii,SRR8794769.7715,97.37,38,0,1,5,42,66,30,2e-11,63.9
SONDA_C_arxii,SRR8794769.7715,97.37,38,0,1,5,42,453,489,2e-11,63.9
SONDA_C_arxii,SRR8794769.7650,97.37,38,0,1,5,42,66,30,2e-11,63.9
SONDA_C_arxii,SRR8794769.7650,97.37,38,0,1,5,42,453,489,2e-11,63.9
SONDA_C_arxii,SRR8794769.7507,97.37,38,0,1,5,42,66,30,2e-11,63.9
SONDA_C_arxii,SRR8794769.7507,97.37,38,0,1,5,42,453,489,2e-11,63.9
SONDA_C_arxii,SRR8794769.7437,97.37,38,0,1,5,42,66,30,2e-11,63.9
SONDA_C_arxii,SRR8794769.7437,97.37,38,0,1,5,42,453,489,2e-11,63.9
SONDA_C_arxii,SRR8794769.7131,97.37,38,0,1,5,42,66,30,2e-11,63.9
SONDA_C_arxii,SRR8794769.7131,97.37,38,0,1,5,42,452,488,2e-11,63.9
SONDA_C_arxii,SRR8794769.7130,97.37,38,0,1,5,42,66,30,2e-11,63.9
SONDA_C_arxii,SRR8794769.7130,94.74,38,1,1,5,42,453,489,8e-10,58.4
SONDA_C_arxii,SRR8794769.7090,97.37,38,0,1,5,42,66,30,2e-11,63.9
SONDA_C_arxii,SRR8794769.7090,97.37,38,0,1,5,42,453,489,2e-11,63.9
SONDA_C_arxii,SRR8794769.6838,97.37,38,0,1,5,42,66,30,2e-11,63.9
SONDA_C_arxii,SRR8794769.6778,97.37,38,0,1,5,42,66,30,2e-11,63.9
SONDA_C_arxii,SRR8794769.6778,97.37,38,0,1,5,42,453,489,2e-11,63.9
SONDA_C_arxii,SRR8794769.6769,97.37,38,0,1,5,42,66,30,2e-11,63.9
SONDA_C_arxii,SRR8794769.6769,97.37,38,0,1,5,42,453,489,2e-11,63.9
SONDA_C_arxii,SRR8794769.6768,97.37,38,0,1,5,42,66,30,2e-11,63.9
SONDA_C_arxii,SRR8794769.6768,97.37,38,0,1,5,42,453,489,2e-11,63.9
SONDA_C_arxii,SRR8794769.6724,97.37,38,0,1,5,42,66,30,2e-11,63.9
SONDA_C_arxii,SRR8794769.6724,97.37,38,0,1,5,42,453,489,2e-11,63.9
SONDA_C_arxii,SRR8794769.6695,97.37,38,0,1,5,42,66,30,2e-11,63.9
SONDA_C_arxii,SRR8794769.6695,97.37,38,0,1,5,42,453,489,2e-11,63.9
SONDA_C_arxii,SRR8794769.6549,97.37,38,0,1,5,42,66,30,2e-11,63.9
SONDA_C_arxii,SRR8794769.6549,97.37,38,0,1,5,42,453,489,2e-11,63.9
SONDA_C_arxii,SRR8794769.6337,97.37,38,0,1,5,42,66,30,2e-11,63.9
SONDA_C_arxii,SRR8794769.6337,97.37,38,0,1,5,42,453,489,2e-11,63.9
SONDA_C_arxii,SRR8794769.6325,97.37,38,0,1,5,42,66,30,2e-11,63.9
SONDA_C_arxii,SRR8794769.6325,97.37,38,0,1,5,42,453,489,2e-11,63.9
SONDA_C_arxii,SRR8794769.6242,97.37,38,0,1,5,42,66,30,2e-11,63.9
SONDA_C_arxii,SRR8794769.6236,97.37,38,0,1,5,42,66,30,2e-11,63.9
SONDA_C_arxii,SRR8794769.6236,97.37,38,0,1,5,42,453,489,2e-11,63.9
SONDA_C_arxii,SRR8794769.6227,97.37,38,0,1,5,42,66,30,2e-11,63.9
SONDA_C_arxii,SRR8794769.6227,97.37,38,0,1,5,42,453,489,2e-11,63.9
SONDA_C_arxii,SRR8794769.6188,97.37,38,0,1,5,42,66,30,2e-11,63.9
SONDA_C_arxii,SRR8794769.6188,97.37,38,0,1,5,42,453,489,2e-11,63.9
SONDA_C_arxii,SRR8794769.6187,97.37,38,0,1,5,42,66,30,2e-11,63.9
SONDA_C_arxii,SRR8794769.6187,97.37,38,0,1,5,42,453,489,2e-11,63.9
SONDA_C_arxii,SRR8794769.6178,97.37,38,0,1,5,42,66,30,2e-11,63.9
SONDA_C_arxii,SRR8794769.6178,97.37,38,0,1,5,42,453,489,2e-11,63.9
SONDA_C_arxii,SRR8794769.5780,97.37,38,0,1,5,42,66,30,2e-11,63.9
SONDA_C_arxii,SRR8794769.5780,97.37,38,0,1,5,42,453,489,2e-11,63.9
SONDA_C_arxii,SRR8794769.5779,97.37,38,0,1,5,42,66,30,2e-11,63.9
SONDA_C_arxii,SRR8794769.5779,97.37,38,0,1,5,42,453,489,2e-11,63.9
SONDA_C_arxii,SRR8794769.5399,97.37,38,0,1,5,42,66,30,2e-11,63.9
SONDA_C_arxii,SRR8794769.5399,97.37,38,0,1,5,42,453,489,2e-11,63.9
SONDA_C_arxii,SRR8794769.5359,97.37,38,0,1,5,42,66,30,2e-11,63.9
SONDA_C_arxii,SRR8794769.5263,97.37,38,0,1,5,42,66,30,2e-11,63.9
SONDA_C_arxii,SRR8794769.5262,97.37,38,0,1,5,42,66,30,2e-11,63.9
SONDA_C_arxii,SRR8794769.5141,97.37,38,0,1,5,42,66,30,2e-11,63.9
SONDA_C_arxii,SRR8794769.5141,97.37,38,0,1,5,42,453,489,2e-11,63.9
SONDA_C_arxii,SRR8794769.5058,97.37,38,0,1,5,42,66,30,2e-11,63.9
SONDA_C_arxii,SRR8794769.5044,97.37,38,0,1,5,42,66,30,2e-11,63.9
SONDA_C_arxii,SRR8794769.5044,97.37,38,0,1,5,42,453,489,2e-11,63.9
SONDA_C_arxii,SRR8794769.4804,97.37,38,0,1,5,42,66,30,2e-11,63.9
SONDA_C_arxii,SRR8794769.4804,97.37,38,0,1,5,42,453,489,2e-11,63.9
SONDA_C_arxii,SRR8794769.4732,97.37,38,0,1,5,42,66,30,2e-11,63.9
SONDA_C_arxii,SRR8794769.4641,97.37,38,0,1,5,42,66,30,2e-11,63.9
SONDA_C_arxii,SRR8794769.4641,97.37,38,0,1,5,42,453,489,2e-11,63.9
SONDA_C_arxii,SRR8794769.4347,97.37,38,0,1,5,42,66,30,2e-11,63.9
SONDA_C_arxii,SRR8794769.4347,97.37,38,0,1,5,42,453,489,2e-11,63.9
SONDA_C_arxii,SRR8794769.4262,97.37,38,0,1,5,42,66,30,2e-11,63.9
SONDA_C_arxii,SRR8794769.4259,97.37,38,0,1,5,42,66,30,2e-11,63.9
SONDA_C_arxii,SRR8794769.4259,97.37,38,0,1,5,42,453,489,2e-11,63.9
SONDA_C_arxii,SRR8794769.4220,97.37,38,0,1,5,42,66,30,2e-11,63.9
SONDA_C_arxii,SRR8794769.4220,97.37,38,0,1,5,42,453,489,2e-11,63.9
SONDA_C_arxii,SRR8794769.4111,97.37,38,0,1,5,42,66,30,2e-11,63.9
SONDA_C_arxii,SRR8794769.3811,97.37,38,0,1,5,42,66,30,2e-11,63.9
SONDA_C_arxii,SRR8794769.3731,97.37,38,0,1,5,42,66,30,2e-11,63.9
SONDA_C_arxii,SRR8794769.3731,97.37,38,0,1,5,42,452,488,2e-11,63.9
SONDA_C_arxii,SRR8794769.3497,97.37,38,0,1,5,42,66,30,2e-11,63.9
SONDA_C_arxii,SRR8794769.3497,97.37,38,0,1,5,42,453,489,2e-11,63.9
SONDA_C_arxii,SRR8794769.3333,97.37,38,0,1,5,42,66,30,2e-11,63.9
SONDA_C_arxii,SRR8794769.3333,97.37,38,0,1,5,42,453,489,2e-11,63.9
SONDA_C_arxii,SRR8794769.2871,97.37,38,0,1,5,42,66,30,2e-11,63.9
SONDA_C_arxii,SRR8794769.2871,97.37,38,0,1,5,42,453,489,2e-11,63.9
SONDA_C_arxii,SRR8794769.2792,97.37,38,0,1,5,42,66,30,2e-11,63.9
SONDA_C_arxii,SRR8794769.2792,97.37,38,0,1,5,42,453,489,2e-11,63.9
SONDA_C_arxii,SRR8794769.2548,97.37,38,0,1,5,42,66,30,2e-11,63.9
SONDA_C_arxii,SRR8794769.2548,97.37,38,0,1,5,42,453,489,2e-11,63.9
SONDA_C_arxii,SRR8794769.2492,97.37,38,0,1,5,42,66,30,2e-11,63.9
SONDA_C_arxii,SRR8794769.2492,97.37,38,0,1,5,42,453,489,2e-11,63.9
SONDA_C_arxii,SRR8794769.2471,97.37,38,0,1,5,42,66,30,2e-11,63.9
SONDA_C_arxii,SRR8794769.2471,97.37,38,0,1,5,42,453,489,2e-11,63.9
SONDA_C_arxii,SRR8794769.2429,97.37,38,0,1,5,42,66,30,2e-11,63.9
SONDA_C_arxii,SRR8794769.2429,97.37,38,0,1,5,42,453,489,2e-11,63.9
SONDA_C_arxii,SRR8794769.2356,97.37,38,0,1,5,42,66,30,2e-11,63.9
SONDA_C_arxii,SRR8794769.2356,97.37,38,0,1,5,42,453,489,2e-11,63.9
SONDA_C_arxii,SRR8794769.1859,97.37,38,0,1,5,42,66,30,2e-11,63.9
SONDA_C_arxii,SRR8794769.1859,97.37,38,0,1,5,42,453,489,2e-11,63.9
SONDA_C_arxii,SRR8794769.1792,97.37,38,0,1,5,42,66,30,2e-11,63.9
SONDA_C_arxii,SRR8794769.1791,97.37,38,0,1,5,42,66,30,2e-11,63.9
SONDA_C_arxii,SRR8794769.1791,97.37,38,0,1,5,42,453,489,2e-11,63.9
SONDA_C_arxii,SRR8794769.1648,97.37,38,0,1,5,42,66,30,2e-11,63.9
SONDA_C_arxii,SRR8794769.1648,97.37,38,0,1,5,42,453,489,2e-11,63.9
SONDA_C_arxii,SRR8794769.1614,97.37,38,0,1,5,42,66,30,2e-11,63.9
SONDA_C_arxii,SRR8794769.1614,97.37,38,0,1,5,42,453,489,2e-11,63.9
SONDA_C_arxii,SRR8794769.1532,97.37,38,0,1,5,42,66,30,2e-11,63.9
SONDA_C_arxii,SRR8794769.1510,97.37,38,0,1,5,42,66,30,2e-11,63.9
SONDA_C_arxii,SRR8794769.1510,97.37,38,0,1,5,42,453,489,2e-11,63.9
SONDA_C_arxii,SRR8794769.1508,97.37,38,0,1,5,42,66,30,2e-11,63.9
SONDA_C_arxii,SRR8794769.1508,97.37,38,0,1,5,42,453,489,2e-11,63.9
SONDA_C_arxii,SRR8794769.1507,97.37,38,0,1,5,42,66,30,2e-11,63.9
SONDA_C_arxii,SRR8794769.1507,97.37,38,0,1,5,42,453,489,2e-11,63.9
SONDA_C_arxii,SRR8794769.1225,97.37,38,0,1,5,42,66,30,2e-11,63.9
SONDA_C_arxii,SRR8794769.1225,97.37,38,0,1,5,42,453,489,2e-11,63.9
SONDA_C_arxii,SRR8794769.1192,97.37,38,0,1,5,42,66,30,2e-11,63.9
SONDA_C_arxii,SRR8794769.1192,97.37,38,0,1,5,42,453,489,2e-11,63.9
SONDA_C_arxii,SRR8794769.933,97.37,38,0,1,5,42,66,30,2e-11,63.9
SONDA_C_arxii,SRR8794769.933,97.37,38,0,1,5,42,453,489,2e-11,63.9
SONDA_C_arxii,SRR8794769.698,97.37,38,0,1,5,42,66,30,2e-11,63.9
SONDA_C_arxii,SRR8794769.697,97.37,38,0,1,5,42,66,30,2e-11,63.9
SONDA_C_arxii,SRR8794769.697,97.37,38,0,1,5,42,453,489,2e-11,63.9
SONDA_C_arxii,SRR8794769.337,97.37,38,0,1,5,42,66,30,2e-11,63.9
SONDA_C_arxii,SRR8794769.337,97.37,38,0,1,5,42,453,489,2e-11,63.9
SONDA_C_arxii,SRR8794769.19536,97.30,37,0,1,6,42,65,30,6e-11,62.1
SONDA_C_arxii,SRR8794769.22368,97.14,35,0,1,8,42,63,30,8e-10,58.4
SONDA_C_arxii,SRR8794769.10814,94.74,38,1,1,5,42,66,30,8e-10,58.4
SONDA_C_arxii,SRR8794769.10814,94.74,38,1,1,5,42,453,489,8e-10,58.4
