SONDA_C_arxii,SRR8794817.6290,97.37,38,0,1,5,42,66,30,4e-11,63.9
SONDA_C_arxii,SRR8794817.38150,94.87,39,1,1,4,42,67,30,6e-10,60.2
SONDA_C_arxii,SRR8794817.38150,94.87,39,1,1,4,42,454,491,6e-10,60.2
SONDA_C_arxii,SRR8794817.37156,94.87,39,1,1,4,42,67,30,6e-10,60.2
SONDA_C_arxii,SRR8794817.37156,94.87,39,1,1,4,42,454,491,6e-10,60.2
SONDA_C_arxii,SRR8794817.32433,94.87,39,1,1,4,42,67,30,6e-10,60.2
SONDA_C_arxii,SRR8794817.32433,94.87,39,1,1,4,42,454,491,6e-10,60.2
SONDA_C_arxii,SRR8794817.30537,94.87,39,1,1,4,42,67,30,6e-10,60.2
SONDA_C_arxii,SRR8794817.30536,94.87,39,1,1,4,42,67,30,6e-10,60.2
SONDA_C_arxii,SRR8794817.30536,94.87,39,1,1,4,42,454,491,6e-10,60.2
SONDA_C_arxii,SRR8794817.24790,94.87,39,1,1,4,42,67,30,6e-10,60.2
SONDA_C_arxii,SRR8794817.24790,94.87,39,1,1,4,42,454,491,6e-10,60.2
SONDA_C_arxii,SRR8794817.11907,94.87,39,1,1,4,42,67,30,6e-10,60.2
SONDA_C_arxii,SRR8794817.11907,94.87,39,1,1,4,42,454,491,6e-10,60.2
