SONDA_C_arxii,SRR8795826.52282,94.87,39,1,1,4,42,67,30,5e-10,60.2
SONDA_C_arxii,SRR8795826.52282,94.87,39,1,1,4,42,454,491,5e-10,60.2
SONDA_C_arxii,SRR8795826.49863,94.87,39,1,1,4,42,67,30,5e-10,60.2
SONDA_C_arxii,SRR8795826.49863,94.87,39,1,1,4,42,454,491,5e-10,60.2
SONDA_C_arxii,SRR8795826.49754,94.87,39,1,1,4,42,67,30,5e-10,60.2
SONDA_C_arxii,SRR8795826.49754,94.87,39,1,1,4,42,454,491,5e-10,60.2
SONDA_C_arxii,SRR8795826.49748,94.87,39,1,1,4,42,67,30,5e-10,60.2
SONDA_C_arxii,SRR8795826.49747,94.87,39,1,1,4,42,67,30,5e-10,60.2
SONDA_C_arxii,SRR8795826.49747,94.87,39,1,1,4,42,454,491,5e-10,60.2
SONDA_C_arxii,SRR8795826.47499,94.87,39,1,1,4,42,67,30,5e-10,60.2
SONDA_C_arxii,SRR8795826.47499,94.87,39,1,1,4,42,454,491,5e-10,60.2
SONDA_C_arxii,SRR8795826.47497,94.87,39,1,1,4,42,67,30,5e-10,60.2
SONDA_C_arxii,SRR8795826.46881,94.87,39,1,1,4,42,67,30,5e-10,60.2
SONDA_C_arxii,SRR8795826.46881,94.87,39,1,1,4,42,454,491,5e-10,60.2
SONDA_C_arxii,SRR8795826.42628,94.87,39,1,1,4,42,67,30,5e-10,60.2
SONDA_C_arxii,SRR8795826.42628,94.87,39,1,1,4,42,454,491,5e-10,60.2
SONDA_C_arxii,SRR8795826.41320,94.87,39,1,1,4,42,67,30,5e-10,60.2
SONDA_C_arxii,SRR8795826.38977,94.87,39,1,1,4,42,67,30,5e-10,60.2
SONDA_C_arxii,SRR8795826.38977,94.87,39,1,1,4,42,454,491,5e-10,60.2
SONDA_C_arxii,SRR8795826.38729,94.87,39,1,1,4,42,67,30,5e-10,60.2
SONDA_C_arxii,SRR8795826.38729,94.87,39,1,1,4,42,454,491,5e-10,60.2
SONDA_C_arxii,SRR8795826.38275,94.87,39,1,1,4,42,67,30,5e-10,60.2
SONDA_C_arxii,SRR8795826.38275,94.87,39,1,1,4,42,454,491,5e-10,60.2
SONDA_C_arxii,SRR8795826.37665,94.87,39,1,1,4,42,67,30,5e-10,60.2
SONDA_C_arxii,SRR8795826.37665,94.87,39,1,1,4,42,454,491,5e-10,60.2
SONDA_C_arxii,SRR8795826.37475,94.87,39,1,1,4,42,67,30,5e-10,60.2
SONDA_C_arxii,SRR8795826.37475,94.87,39,1,1,4,42,454,491,5e-10,60.2
SONDA_C_arxii,SRR8795826.35274,94.87,39,1,1,4,42,67,30,5e-10,60.2
SONDA_C_arxii,SRR8795826.35274,94.87,39,1,1,4,42,454,491,5e-10,60.2
SONDA_C_arxii,SRR8795826.35272,94.87,39,1,1,4,42,67,30,5e-10,60.2
SONDA_C_arxii,SRR8795826.27625,94.87,39,1,1,4,42,67,30,5e-10,60.2
SONDA_C_arxii,SRR8795826.27625,94.87,39,1,1,4,42,454,491,5e-10,60.2
SONDA_C_arxii,SRR8795826.25857,94.87,39,1,1,4,42,67,30,5e-10,60.2
SONDA_C_arxii,SRR8795826.25857,94.87,39,1,1,4,42,454,491,5e-10,60.2
SONDA_C_arxii,SRR8795826.25614,94.87,39,1,1,4,42,67,30,5e-10,60.2
SONDA_C_arxii,SRR8795826.25614,97.14,35,0,1,8,42,458,491,2e-09,58.4
SONDA_C_arxii,SRR8795826.25613,94.87,39,1,1,4,42,67,30,5e-10,60.2
SONDA_C_arxii,SRR8795826.25613,94.87,39,1,1,4,42,454,491,5e-10,60.2
SONDA_C_arxii,SRR8795826.24230,94.87,39,1,1,4,42,67,30,5e-10,60.2
SONDA_C_arxii,SRR8795826.23474,94.87,39,1,1,4,42,67,30,5e-10,60.2
SONDA_C_arxii,SRR8795826.23474,94.87,39,1,1,4,42,454,491,5e-10,60.2
SONDA_C_arxii,SRR8795826.23458,94.87,39,1,1,4,42,67,30,5e-10,60.2
SONDA_C_arxii,SRR8795826.23458,94.87,39,1,1,4,42,454,491,5e-10,60.2
SONDA_C_arxii,SRR8795826.22559,94.87,39,1,1,4,42,67,30,5e-10,60.2
SONDA_C_arxii,SRR8795826.22559,94.87,39,1,1,4,42,454,491,5e-10,60.2
SONDA_C_arxii,SRR8795826.22353,94.87,39,1,1,4,42,67,30,5e-10,60.2
SONDA_C_arxii,SRR8795826.22353,94.87,39,1,1,4,42,454,491,5e-10,60.2
SONDA_C_arxii,SRR8795826.21091,94.87,39,1,1,4,42,67,30,5e-10,60.2
SONDA_C_arxii,SRR8795826.21091,94.87,39,1,1,4,42,454,491,5e-10,60.2
SONDA_C_arxii,SRR8795826.20083,94.87,39,1,1,4,42,67,30,5e-10,60.2
SONDA_C_arxii,SRR8795826.20083,94.87,39,1,1,4,42,454,491,5e-10,60.2
SONDA_C_arxii,SRR8795826.19905,94.87,39,1,1,4,42,67,30,5e-10,60.2
SONDA_C_arxii,SRR8795826.19902,94.87,39,1,1,4,42,67,30,5e-10,60.2
SONDA_C_arxii,SRR8795826.18448,94.87,39,1,1,4,42,67,30,5e-10,60.2
SONDA_C_arxii,SRR8795826.18448,94.87,39,1,1,4,42,454,491,5e-10,60.2
SONDA_C_arxii,SRR8795826.18060,94.87,39,1,1,4,42,67,30,5e-10,60.2
SONDA_C_arxii,SRR8795826.16859,94.87,39,1,1,4,42,67,30,5e-10,60.2
SONDA_C_arxii,SRR8795826.16859,94.87,39,1,1,4,42,454,491,5e-10,60.2
SONDA_C_arxii,SRR8795826.16364,94.87,39,1,1,4,42,67,30,5e-10,60.2
SONDA_C_arxii,SRR8795826.16364,94.87,39,1,1,4,42,454,491,5e-10,60.2
SONDA_C_arxii,SRR8795826.16237,94.87,39,1,1,4,42,67,30,5e-10,60.2
SONDA_C_arxii,SRR8795826.16237,94.87,39,1,1,4,42,454,491,5e-10,60.2
SONDA_C_arxii,SRR8795826.13558,94.87,39,1,1,4,42,67,30,5e-10,60.2
SONDA_C_arxii,SRR8795826.13558,94.87,39,1,1,4,42,454,491,5e-10,60.2
SONDA_C_arxii,SRR8795826.13428,94.87,39,1,1,4,42,67,30,5e-10,60.2
SONDA_C_arxii,SRR8795826.13428,94.87,39,1,1,4,42,454,491,5e-10,60.2
SONDA_C_arxii,SRR8795826.12469,94.87,39,1,1,4,42,67,30,5e-10,60.2
SONDA_C_arxii,SRR8795826.12469,94.87,39,1,1,4,42,454,491,5e-10,60.2
SONDA_C_arxii,SRR8795826.11856,94.87,39,1,1,4,42,67,30,5e-10,60.2
SONDA_C_arxii,SRR8795826.11856,94.87,39,1,1,4,42,454,491,5e-10,60.2
SONDA_C_arxii,SRR8795826.10338,94.87,39,1,1,4,42,67,30,5e-10,60.2
SONDA_C_arxii,SRR8795826.8753,94.87,39,1,1,4,42,67,30,5e-10,60.2
SONDA_C_arxii,SRR8795826.8753,94.87,39,1,1,4,42,454,491,5e-10,60.2
SONDA_C_arxii,SRR8795826.6090,94.87,39,1,1,4,42,67,30,5e-10,60.2
SONDA_C_arxii,SRR8795826.6090,94.87,39,1,1,4,42,454,491,5e-10,60.2
SONDA_C_arxii,SRR8795826.5085,94.87,39,1,1,4,42,67,30,5e-10,60.2
SONDA_C_arxii,SRR8795826.5085,94.87,39,1,1,4,42,454,491,5e-10,60.2
SONDA_C_arxii,SRR8795826.3386,94.87,39,1,1,4,42,67,30,5e-10,60.2
SONDA_C_arxii,SRR8795826.3386,94.87,39,1,1,4,42,454,491,5e-10,60.2
SONDA_C_arxii,SRR8795826.2410,94.87,39,1,1,4,42,67,30,5e-10,60.2
SONDA_C_arxii,SRR8795826.2410,94.87,39,1,1,4,42,454,491,5e-10,60.2
SONDA_C_arxii,SRR8795826.1882,94.87,39,1,1,4,42,67,30,5e-10,60.2
SONDA_C_arxii,SRR8795826.1880,94.87,39,1,1,4,42,67,30,5e-10,60.2
SONDA_C_arxii,SRR8795826.1365,94.87,39,1,1,4,42,67,30,5e-10,60.2
