SONDA_E_E_xenobiotica,SRR5787665.44765,100.00,37,0,0,1,37,250,214,5e-13,69.4
SONDA_E_E_xenobiotica,SRR5787665.44765,100.00,37,0,0,1,37,362,398,5e-13,69.4
SONDA_E_E_xenobiotica,SRR5787665.44256,100.00,37,0,0,1,37,250,214,5e-13,69.4
SONDA_E_E_xenobiotica,SRR5787665.44256,100.00,37,0,0,1,37,362,398,5e-13,69.4
SONDA_E_E_xenobiotica,SRR5787665.26001,100.00,37,0,0,1,37,250,214,5e-13,69.4
SONDA_E_E_xenobiotica,SRR5787665.26001,100.00,37,0,0,1,37,362,398,5e-13,69.4
SONDA_E_E_xenobiotica,SRR5787665.1447,100.00,37,0,0,1,37,250,214,5e-13,69.4
SONDA_E_E_xenobiotica,SRR5787665.1447,100.00,37,0,0,1,37,362,398,5e-13,69.4
SONDA_E_E_xenobiotica,SRR5787665.47013,100.00,34,0,0,1,34,366,399,2e-11,63.9
SONDA_E_E_xenobiotica,SRR5787665.47013,100.00,33,0,0,2,34,252,220,8e-11,62.1
SONDA_E_E_xenobiotica,SRR5787665.46325,100.00,34,0,0,1,34,367,400,2e-11,63.9
SONDA_E_E_xenobiotica,SRR5787665.46325,100.00,33,0,0,2,34,252,220,8e-11,62.1
SONDA_E_E_xenobiotica,SRR5787665.46324,100.00,34,0,0,1,34,367,400,2e-11,63.9
SONDA_E_E_xenobiotica,SRR5787665.46324,100.00,33,0,0,2,34,252,220,8e-11,62.1
SONDA_E_E_xenobiotica,SRR5787665.44149,100.00,34,0,0,1,34,361,394,2e-11,63.9
SONDA_E_E_xenobiotica,SRR5787665.44149,100.00,33,0,0,2,34,251,219,8e-11,62.1
SONDA_E_E_xenobiotica,SRR5787665.44147,100.00,34,0,0,1,34,361,394,2e-11,63.9
SONDA_E_E_xenobiotica,SRR5787665.44147,100.00,33,0,0,2,34,251,219,8e-11,62.1
SONDA_E_E_xenobiotica,SRR5787665.44146,100.00,34,0,0,1,34,361,394,2e-11,63.9
SONDA_E_E_xenobiotica,SRR5787665.44146,100.00,33,0,0,2,34,251,219,8e-11,62.1
SONDA_E_E_xenobiotica,SRR5787665.43850,100.00,34,0,0,1,34,361,394,2e-11,63.9
SONDA_E_E_xenobiotica,SRR5787665.43850,96.97,33,1,0,2,34,251,219,4e-09,56.5
SONDA_E_E_xenobiotica,SRR5787665.14870,100.00,34,0,0,1,34,361,394,2e-11,63.9
SONDA_E_E_xenobiotica,SRR5787665.14870,100.00,33,0,0,2,34,251,219,8e-11,62.1
SONDA_E_E_xenobiotica,SRR5787665.2974,100.00,34,0,0,1,34,361,394,2e-11,63.9
SONDA_E_E_xenobiotica,SRR5787665.2974,100.00,33,0,0,2,34,251,219,8e-11,62.1
