SONDA_E_E_xenobiotica,SRR9117240.220801,100.00,37,0,0,1,37,250,214,2e-12,69.4
SONDA_E_E_xenobiotica,SRR9117240.220801,100.00,37,0,0,1,37,413,449,2e-12,69.4
SONDA_E_E_xenobiotica,SRR9117240.220488,100.00,37,0,0,1,37,250,214,2e-12,69.4
SONDA_E_E_xenobiotica,SRR9117240.220488,100.00,37,0,0,1,37,413,449,2e-12,69.4
SONDA_E_E_xenobiotica,SRR9117240.220246,100.00,37,0,0,1,37,250,214,2e-12,69.4
SONDA_E_E_xenobiotica,SRR9117240.220246,100.00,37,0,0,1,37,413,449,2e-12,69.4
SONDA_E_E_xenobiotica,SRR9117240.219450,100.00,37,0,0,1,37,250,214,2e-12,69.4
SONDA_E_E_xenobiotica,SRR9117240.219450,100.00,37,0,0,1,37,413,449,2e-12,69.4
SONDA_E_E_xenobiotica,SRR9117240.219238,100.00,37,0,0,1,37,250,214,2e-12,69.4
SONDA_E_E_xenobiotica,SRR9117240.219238,100.00,37,0,0,1,37,413,449,2e-12,69.4
SONDA_E_E_xenobiotica,SRR9117240.218849,100.00,37,0,0,1,37,250,214,2e-12,69.4
SONDA_E_E_xenobiotica,SRR9117240.218849,100.00,37,0,0,1,37,413,449,2e-12,69.4
SONDA_E_E_xenobiotica,SRR9117240.218840,100.00,37,0,0,1,37,250,214,2e-12,69.4
SONDA_E_E_xenobiotica,SRR9117240.218840,100.00,37,0,0,1,37,413,449,2e-12,69.4
SONDA_E_E_xenobiotica,SRR9117240.217782,100.00,37,0,0,1,37,250,214,2e-12,69.4
SONDA_E_E_xenobiotica,SRR9117240.217782,100.00,37,0,0,1,37,413,449,2e-12,69.4
SONDA_E_E_xenobiotica,SRR9117240.217635,100.00,37,0,0,1,37,250,214,2e-12,69.4
SONDA_E_E_xenobiotica,SRR9117240.217635,100.00,37,0,0,1,37,413,449,2e-12,69.4
SONDA_E_E_xenobiotica,SRR9117240.217038,100.00,37,0,0,1,37,250,214,2e-12,69.4
SONDA_E_E_xenobiotica,SRR9117240.217038,100.00,37,0,0,1,37,413,449,2e-12,69.4
SONDA_E_E_xenobiotica,SRR9117240.216940,100.00,37,0,0,1,37,250,214,2e-12,69.4
SONDA_E_E_xenobiotica,SRR9117240.216940,100.00,37,0,0,1,37,413,449,2e-12,69.4
SONDA_E_E_xenobiotica,SRR9117240.216669,100.00,37,0,0,1,37,250,214,2e-12,69.4
SONDA_E_E_xenobiotica,SRR9117240.216669,100.00,37,0,0,1,37,413,449,2e-12,69.4
SONDA_E_E_xenobiotica,SRR9117240.216075,100.00,37,0,0,1,37,250,214,2e-12,69.4
SONDA_E_E_xenobiotica,SRR9117240.216075,100.00,37,0,0,1,37,413,449,2e-12,69.4
SONDA_E_E_xenobiotica,SRR9117240.215640,100.00,37,0,0,1,37,413,449,2e-12,69.4
SONDA_E_E_xenobiotica,SRR9117240.215640,97.30,37,1,0,1,37,250,214,1e-10,63.9
SONDA_E_E_xenobiotica,SRR9117240.215402,100.00,37,0,0,1,37,250,214,2e-12,69.4
SONDA_E_E_xenobiotica,SRR9117240.215402,100.00,37,0,0,1,37,413,449,2e-12,69.4
SONDA_E_E_xenobiotica,SRR9117240.214296,100.00,37,0,0,1,37,250,214,2e-12,69.4
SONDA_E_E_xenobiotica,SRR9117240.214296,100.00,37,0,0,1,37,413,449,2e-12,69.4
SONDA_E_E_xenobiotica,SRR9117240.214144,100.00,37,0,0,1,37,250,214,2e-12,69.4
SONDA_E_E_xenobiotica,SRR9117240.214144,97.30,37,1,0,1,37,413,449,1e-10,63.9
SONDA_E_E_xenobiotica,SRR9117240.213963,100.00,37,0,0,1,37,250,214,2e-12,69.4
SONDA_E_E_xenobiotica,SRR9117240.213963,100.00,37,0,0,1,37,413,449,2e-12,69.4
SONDA_E_E_xenobiotica,SRR9117240.213384,100.00,37,0,0,1,37,413,449,2e-12,69.4
SONDA_E_E_xenobiotica,SRR9117240.213340,100.00,37,0,0,1,37,250,214,2e-12,69.4
SONDA_E_E_xenobiotica,SRR9117240.213340,100.00,37,0,0,1,37,413,449,2e-12,69.4
SONDA_E_E_xenobiotica,SRR9117240.212823,100.00,37,0,0,1,37,250,214,2e-12,69.4
SONDA_E_E_xenobiotica,SRR9117240.212823,100.00,37,0,0,1,37,413,449,2e-12,69.4
SONDA_E_E_xenobiotica,SRR9117240.212385,100.00,37,0,0,1,37,250,214,2e-12,69.4
SONDA_E_E_xenobiotica,SRR9117240.212385,100.00,37,0,0,1,37,413,449,2e-12,69.4
SONDA_E_E_xenobiotica,SRR9117240.212175,100.00,37,0,0,1,37,250,214,2e-12,69.4
SONDA_E_E_xenobiotica,SRR9117240.212175,100.00,37,0,0,1,37,413,449,2e-12,69.4
SONDA_E_E_xenobiotica,SRR9117240.211934,100.00,37,0,0,1,37,250,214,2e-12,69.4
SONDA_E_E_xenobiotica,SRR9117240.211934,100.00,37,0,0,1,37,413,449,2e-12,69.4
SONDA_E_E_xenobiotica,SRR9117240.211460,100.00,37,0,0,1,37,250,214,2e-12,69.4
SONDA_E_E_xenobiotica,SRR9117240.211460,100.00,37,0,0,1,37,413,449,2e-12,69.4
SONDA_E_E_xenobiotica,SRR9117240.210322,100.00,37,0,0,1,37,250,214,2e-12,69.4
SONDA_E_E_xenobiotica,SRR9117240.210322,100.00,37,0,0,1,37,413,449,2e-12,69.4
SONDA_E_E_xenobiotica,SRR9117240.210198,100.00,37,0,0,1,37,250,214,2e-12,69.4
SONDA_E_E_xenobiotica,SRR9117240.210198,100.00,37,0,0,1,37,413,449,2e-12,69.4
SONDA_E_E_xenobiotica,SRR9117240.209500,100.00,37,0,0,1,37,250,214,2e-12,69.4
SONDA_E_E_xenobiotica,SRR9117240.209500,100.00,37,0,0,1,37,413,449,2e-12,69.4
SONDA_E_E_xenobiotica,SRR9117240.209435,100.00,37,0,0,1,37,250,214,2e-12,69.4
SONDA_E_E_xenobiotica,SRR9117240.209435,100.00,37,0,0,1,37,413,449,2e-12,69.4
SONDA_E_E_xenobiotica,SRR9117240.209354,100.00,37,0,0,1,37,250,214,2e-12,69.4
SONDA_E_E_xenobiotica,SRR9117240.209354,100.00,37,0,0,1,37,413,449,2e-12,69.4
SONDA_E_E_xenobiotica,SRR9117240.209149,100.00,37,0,0,1,37,250,214,2e-12,69.4
SONDA_E_E_xenobiotica,SRR9117240.209149,100.00,37,0,0,1,37,413,449,2e-12,69.4
SONDA_E_E_xenobiotica,SRR9117240.209103,100.00,37,0,0,1,37,250,214,2e-12,69.4
SONDA_E_E_xenobiotica,SRR9117240.209103,97.30,37,1,0,1,37,413,449,1e-10,63.9
SONDA_E_E_xenobiotica,SRR9117240.208421,100.00,37,0,0,1,37,250,214,2e-12,69.4
SONDA_E_E_xenobiotica,SRR9117240.208421,100.00,37,0,0,1,37,413,449,2e-12,69.4
SONDA_E_E_xenobiotica,SRR9117240.207745,100.00,37,0,0,1,37,250,214,2e-12,69.4
SONDA_E_E_xenobiotica,SRR9117240.207745,100.00,37,0,0,1,37,413,449,2e-12,69.4
SONDA_E_E_xenobiotica,SRR9117240.207447,100.00,37,0,0,1,37,250,214,2e-12,69.4
SONDA_E_E_xenobiotica,SRR9117240.207447,100.00,37,0,0,1,37,413,449,2e-12,69.4
SONDA_E_E_xenobiotica,SRR9117240.207428,100.00,37,0,0,1,37,250,214,2e-12,69.4
SONDA_E_E_xenobiotica,SRR9117240.207428,100.00,37,0,0,1,37,413,449,2e-12,69.4
SONDA_E_E_xenobiotica,SRR9117240.207247,100.00,37,0,0,1,37,413,449,2e-12,69.4
SONDA_E_E_xenobiotica,SRR9117240.207247,100.00,33,0,0,2,34,249,217,4e-10,62.1
SONDA_E_E_xenobiotica,SRR9117240.207239,100.00,37,0,0,1,37,250,214,2e-12,69.4
SONDA_E_E_xenobiotica,SRR9117240.207239,100.00,37,0,0,1,37,413,449,2e-12,69.4
SONDA_E_E_xenobiotica,SRR9117240.207207,100.00,37,0,0,1,37,250,214,2e-12,69.4
SONDA_E_E_xenobiotica,SRR9117240.207207,100.00,37,0,0,1,37,413,449,2e-12,69.4
SONDA_E_E_xenobiotica,SRR9117240.207100,100.00,37,0,0,1,37,250,214,2e-12,69.4
SONDA_E_E_xenobiotica,SRR9117240.207100,100.00,37,0,0,1,37,413,449,2e-12,69.4
SONDA_E_E_xenobiotica,SRR9117240.206869,100.00,37,0,0,1,37,250,214,2e-12,69.4
SONDA_E_E_xenobiotica,SRR9117240.206868,100.00,37,0,0,1,37,250,214,2e-12,69.4
SONDA_E_E_xenobiotica,SRR9117240.206868,100.00,37,0,0,1,37,413,449,2e-12,69.4
SONDA_E_E_xenobiotica,SRR9117240.206797,100.00,37,0,0,1,37,250,214,2e-12,69.4
SONDA_E_E_xenobiotica,SRR9117240.206797,100.00,37,0,0,1,37,413,449,2e-12,69.4
SONDA_E_E_xenobiotica,SRR9117240.206475,100.00,37,0,0,1,37,250,214,2e-12,69.4
SONDA_E_E_xenobiotica,SRR9117240.206475,100.00,37,0,0,1,37,413,449,2e-12,69.4
SONDA_E_E_xenobiotica,SRR9117240.205949,100.00,37,0,0,1,37,250,214,2e-12,69.4
SONDA_E_E_xenobiotica,SRR9117240.205949,100.00,37,0,0,1,37,413,449,2e-12,69.4
SONDA_E_E_xenobiotica,SRR9117240.205867,100.00,37,0,0,1,37,250,214,2e-12,69.4
SONDA_E_E_xenobiotica,SRR9117240.205867,100.00,37,0,0,1,37,413,449,2e-12,69.4
SONDA_E_E_xenobiotica,SRR9117240.205582,100.00,37,0,0,1,37,250,214,2e-12,69.4
SONDA_E_E_xenobiotica,SRR9117240.205582,100.00,37,0,0,1,37,413,449,2e-12,69.4
SONDA_E_E_xenobiotica,SRR9117240.205038,100.00,37,0,0,1,37,413,449,2e-12,69.4
SONDA_E_E_xenobiotica,SRR9117240.204731,100.00,37,0,0,1,37,250,214,2e-12,69.4
SONDA_E_E_xenobiotica,SRR9117240.204731,100.00,37,0,0,1,37,413,449,2e-12,69.4
SONDA_E_E_xenobiotica,SRR9117240.204462,100.00,37,0,0,1,37,249,213,2e-12,69.4
SONDA_E_E_xenobiotica,SRR9117240.204462,100.00,37,0,0,1,37,413,449,2e-12,69.4
SONDA_E_E_xenobiotica,SRR9117240.204216,100.00,37,0,0,1,37,250,214,2e-12,69.4
SONDA_E_E_xenobiotica,SRR9117240.204216,100.00,37,0,0,1,37,413,449,2e-12,69.4
SONDA_E_E_xenobiotica,SRR9117240.203753,100.00,37,0,0,1,37,250,214,2e-12,69.4
SONDA_E_E_xenobiotica,SRR9117240.203753,100.00,37,0,0,1,37,413,449,2e-12,69.4
SONDA_E_E_xenobiotica,SRR9117240.203593,100.00,37,0,0,1,37,250,214,2e-12,69.4
SONDA_E_E_xenobiotica,SRR9117240.203593,100.00,37,0,0,1,37,413,449,2e-12,69.4
SONDA_E_E_xenobiotica,SRR9117240.203464,100.00,37,0,0,1,37,250,214,2e-12,69.4
SONDA_E_E_xenobiotica,SRR9117240.203464,100.00,37,0,0,1,37,413,449,2e-12,69.4
SONDA_E_E_xenobiotica,SRR9117240.202609,100.00,37,0,0,1,37,250,214,2e-12,69.4
SONDA_E_E_xenobiotica,SRR9117240.202609,100.00,37,0,0,1,37,413,449,2e-12,69.4
SONDA_E_E_xenobiotica,SRR9117240.202119,100.00,37,0,0,1,37,250,214,2e-12,69.4
SONDA_E_E_xenobiotica,SRR9117240.202119,100.00,37,0,0,1,37,413,449,2e-12,69.4
SONDA_E_E_xenobiotica,SRR9117240.201431,100.00,37,0,0,1,37,250,214,2e-12,69.4
SONDA_E_E_xenobiotica,SRR9117240.201431,100.00,37,0,0,1,37,413,449,2e-12,69.4
SONDA_E_E_xenobiotica,SRR9117240.201290,100.00,37,0,0,1,37,250,214,2e-12,69.4
SONDA_E_E_xenobiotica,SRR9117240.201290,100.00,37,0,0,1,37,413,449,2e-12,69.4
SONDA_E_E_xenobiotica,SRR9117240.200004,100.00,37,0,0,1,37,250,214,2e-12,69.4
SONDA_E_E_xenobiotica,SRR9117240.200004,100.00,37,0,0,1,37,413,449,2e-12,69.4
SONDA_E_E_xenobiotica,SRR9117240.199766,100.00,37,0,0,1,37,250,214,2e-12,69.4
SONDA_E_E_xenobiotica,SRR9117240.199766,100.00,37,0,0,1,37,413,449,2e-12,69.4
SONDA_E_E_xenobiotica,SRR9117240.199414,100.00,37,0,0,1,37,250,214,2e-12,69.4
SONDA_E_E_xenobiotica,SRR9117240.199414,100.00,37,0,0,1,37,413,449,2e-12,69.4
SONDA_E_E_xenobiotica,SRR9117240.199398,100.00,37,0,0,1,37,250,214,2e-12,69.4
SONDA_E_E_xenobiotica,SRR9117240.199398,100.00,37,0,0,1,37,413,449,2e-12,69.4
SONDA_E_E_xenobiotica,SRR9117240.198869,100.00,37,0,0,1,37,250,214,2e-12,69.4
SONDA_E_E_xenobiotica,SRR9117240.198869,100.00,37,0,0,1,37,413,449,2e-12,69.4
SONDA_E_E_xenobiotica,SRR9117240.198855,100.00,37,0,0,1,37,250,214,2e-12,69.4
SONDA_E_E_xenobiotica,SRR9117240.198855,100.00,37,0,0,1,37,413,449,2e-12,69.4
SONDA_E_E_xenobiotica,SRR9117240.198655,100.00,37,0,0,1,37,413,449,2e-12,69.4
SONDA_E_E_xenobiotica,SRR9117240.197253,100.00,37,0,0,1,37,250,214,2e-12,69.4
SONDA_E_E_xenobiotica,SRR9117240.195973,100.00,37,0,0,1,37,250,214,2e-12,69.4
SONDA_E_E_xenobiotica,SRR9117240.195973,100.00,37,0,0,1,37,413,449,2e-12,69.4
SONDA_E_E_xenobiotica,SRR9117240.195774,100.00,37,0,0,1,37,250,214,2e-12,69.4
SONDA_E_E_xenobiotica,SRR9117240.195774,100.00,37,0,0,1,37,413,449,2e-12,69.4
SONDA_E_E_xenobiotica,SRR9117240.195710,100.00,37,0,0,1,37,249,213,2e-12,69.4
SONDA_E_E_xenobiotica,SRR9117240.195710,100.00,37,0,0,1,37,413,449,2e-12,69.4
SONDA_E_E_xenobiotica,SRR9117240.195424,100.00,37,0,0,1,37,250,214,2e-12,69.4
SONDA_E_E_xenobiotica,SRR9117240.195424,100.00,37,0,0,1,37,413,449,2e-12,69.4
SONDA_E_E_xenobiotica,SRR9117240.195131,100.00,37,0,0,1,37,250,214,2e-12,69.4
SONDA_E_E_xenobiotica,SRR9117240.195131,100.00,37,0,0,1,37,413,449,2e-12,69.4
SONDA_E_E_xenobiotica,SRR9117240.194456,100.00,37,0,0,1,37,250,214,2e-12,69.4
SONDA_E_E_xenobiotica,SRR9117240.194456,100.00,37,0,0,1,37,413,449,2e-12,69.4
SONDA_E_E_xenobiotica,SRR9117240.193976,100.00,37,0,0,1,37,250,214,2e-12,69.4
SONDA_E_E_xenobiotica,SRR9117240.193976,100.00,37,0,0,1,37,413,449,2e-12,69.4
SONDA_E_E_xenobiotica,SRR9117240.193811,100.00,37,0,0,1,37,250,214,2e-12,69.4
SONDA_E_E_xenobiotica,SRR9117240.193811,100.00,37,0,0,1,37,413,449,2e-12,69.4
SONDA_E_E_xenobiotica,SRR9117240.193582,100.00,37,0,0,1,37,250,214,2e-12,69.4
SONDA_E_E_xenobiotica,SRR9117240.193582,100.00,37,0,0,1,37,413,449,2e-12,69.4
SONDA_E_E_xenobiotica,SRR9117240.193412,100.00,37,0,0,1,37,250,214,2e-12,69.4
SONDA_E_E_xenobiotica,SRR9117240.193412,100.00,37,0,0,1,37,413,449,2e-12,69.4
SONDA_E_E_xenobiotica,SRR9117240.193238,100.00,37,0,0,1,37,413,449,2e-12,69.4
SONDA_E_E_xenobiotica,SRR9117240.192729,100.00,37,0,0,1,37,250,214,2e-12,69.4
SONDA_E_E_xenobiotica,SRR9117240.192729,100.00,37,0,0,1,37,413,449,2e-12,69.4
SONDA_E_E_xenobiotica,SRR9117240.192381,100.00,37,0,0,1,37,250,214,2e-12,69.4
SONDA_E_E_xenobiotica,SRR9117240.192381,100.00,37,0,0,1,37,413,449,2e-12,69.4
SONDA_E_E_xenobiotica,SRR9117240.191250,100.00,37,0,0,1,37,250,214,2e-12,69.4
SONDA_E_E_xenobiotica,SRR9117240.191250,100.00,37,0,0,1,37,413,449,2e-12,69.4
SONDA_E_E_xenobiotica,SRR9117240.190481,100.00,37,0,0,1,37,250,214,2e-12,69.4
SONDA_E_E_xenobiotica,SRR9117240.190481,100.00,37,0,0,1,37,413,449,2e-12,69.4
SONDA_E_E_xenobiotica,SRR9117240.190002,100.00,37,0,0,1,37,250,214,2e-12,69.4
SONDA_E_E_xenobiotica,SRR9117240.190002,100.00,37,0,0,1,37,413,449,2e-12,69.4
SONDA_E_E_xenobiotica,SRR9117240.189894,100.00,37,0,0,1,37,250,214,2e-12,69.4
SONDA_E_E_xenobiotica,SRR9117240.189894,100.00,37,0,0,1,37,413,449,2e-12,69.4
SONDA_E_E_xenobiotica,SRR9117240.188683,100.00,37,0,0,1,37,250,214,2e-12,69.4
SONDA_E_E_xenobiotica,SRR9117240.188683,100.00,37,0,0,1,37,413,449,2e-12,69.4
SONDA_E_E_xenobiotica,SRR9117240.188559,100.00,37,0,0,1,37,250,214,2e-12,69.4
SONDA_E_E_xenobiotica,SRR9117240.188559,100.00,37,0,0,1,37,413,449,2e-12,69.4
SONDA_E_E_xenobiotica,SRR9117240.187684,100.00,37,0,0,1,37,250,214,2e-12,69.4
SONDA_E_E_xenobiotica,SRR9117240.187684,100.00,37,0,0,1,37,413,449,2e-12,69.4
SONDA_E_E_xenobiotica,SRR9117240.187436,100.00,37,0,0,1,37,250,214,2e-12,69.4
SONDA_E_E_xenobiotica,SRR9117240.187436,100.00,37,0,0,1,37,413,449,2e-12,69.4
SONDA_E_E_xenobiotica,SRR9117240.187393,100.00,37,0,0,1,37,413,449,2e-12,69.4
SONDA_E_E_xenobiotica,SRR9117240.187393,100.00,34,0,0,4,37,247,214,1e-10,63.9
SONDA_E_E_xenobiotica,SRR9117240.186074,100.00,37,0,0,1,37,250,214,2e-12,69.4
SONDA_E_E_xenobiotica,SRR9117240.186074,100.00,37,0,0,1,37,413,449,2e-12,69.4
SONDA_E_E_xenobiotica,SRR9117240.185757,100.00,37,0,0,1,37,250,214,2e-12,69.4
SONDA_E_E_xenobiotica,SRR9117240.185757,100.00,37,0,0,1,37,413,449,2e-12,69.4
SONDA_E_E_xenobiotica,SRR9117240.185674,100.00,37,0,0,1,37,250,214,2e-12,69.4
SONDA_E_E_xenobiotica,SRR9117240.185674,100.00,37,0,0,1,37,413,449,2e-12,69.4
SONDA_E_E_xenobiotica,SRR9117240.185667,100.00,37,0,0,1,37,413,449,2e-12,69.4
SONDA_E_E_xenobiotica,SRR9117240.185662,100.00,37,0,0,1,37,250,214,2e-12,69.4
SONDA_E_E_xenobiotica,SRR9117240.185662,100.00,37,0,0,1,37,413,449,2e-12,69.4
SONDA_E_E_xenobiotica,SRR9117240.185034,100.00,37,0,0,1,37,250,214,2e-12,69.4
SONDA_E_E_xenobiotica,SRR9117240.185034,100.00,37,0,0,1,37,413,449,2e-12,69.4
SONDA_E_E_xenobiotica,SRR9117240.183935,100.00,37,0,0,1,37,250,214,2e-12,69.4
SONDA_E_E_xenobiotica,SRR9117240.183935,100.00,37,0,0,1,37,413,449,2e-12,69.4
SONDA_E_E_xenobiotica,SRR9117240.183716,100.00,37,0,0,1,37,250,214,2e-12,69.4
SONDA_E_E_xenobiotica,SRR9117240.183716,100.00,37,0,0,1,37,413,449,2e-12,69.4
SONDA_E_E_xenobiotica,SRR9117240.183619,100.00,37,0,0,1,37,250,214,2e-12,69.4
SONDA_E_E_xenobiotica,SRR9117240.183619,100.00,37,0,0,1,37,413,449,2e-12,69.4
SONDA_E_E_xenobiotica,SRR9117240.183577,100.00,37,0,0,1,37,250,214,2e-12,69.4
SONDA_E_E_xenobiotica,SRR9117240.183577,100.00,37,0,0,1,37,413,449,2e-12,69.4
SONDA_E_E_xenobiotica,SRR9117240.183233,100.00,37,0,0,1,37,250,214,2e-12,69.4
SONDA_E_E_xenobiotica,SRR9117240.183233,100.00,37,0,0,1,37,413,449,2e-12,69.4
SONDA_E_E_xenobiotica,SRR9117240.182982,100.00,37,0,0,1,37,250,214,2e-12,69.4
SONDA_E_E_xenobiotica,SRR9117240.182982,100.00,37,0,0,1,37,413,449,2e-12,69.4
SONDA_E_E_xenobiotica,SRR9117240.182207,100.00,37,0,0,1,37,250,214,2e-12,69.4
SONDA_E_E_xenobiotica,SRR9117240.182207,100.00,37,0,0,1,37,413,449,2e-12,69.4
SONDA_E_E_xenobiotica,SRR9117240.182004,100.00,37,0,0,1,37,250,214,2e-12,69.4
SONDA_E_E_xenobiotica,SRR9117240.181614,100.00,37,0,0,1,37,250,214,2e-12,69.4
SONDA_E_E_xenobiotica,SRR9117240.181614,100.00,37,0,0,1,37,413,449,2e-12,69.4
SONDA_E_E_xenobiotica,SRR9117240.180623,100.00,37,0,0,1,37,250,214,2e-12,69.4
SONDA_E_E_xenobiotica,SRR9117240.180623,97.30,37,1,0,1,37,413,449,1e-10,63.9
SONDA_E_E_xenobiotica,SRR9117240.180152,100.00,37,0,0,1,37,249,213,2e-12,69.4
SONDA_E_E_xenobiotica,SRR9117240.180152,100.00,37,0,0,1,37,413,449,2e-12,69.4
SONDA_E_E_xenobiotica,SRR9117240.179550,100.00,37,0,0,1,37,250,214,2e-12,69.4
SONDA_E_E_xenobiotica,SRR9117240.179550,100.00,37,0,0,1,37,413,449,2e-12,69.4
SONDA_E_E_xenobiotica,SRR9117240.179397,100.00,37,0,0,1,37,413,449,2e-12,69.4
SONDA_E_E_xenobiotica,SRR9117240.178969,100.00,37,0,0,1,37,250,214,2e-12,69.4
SONDA_E_E_xenobiotica,SRR9117240.178969,100.00,37,0,0,1,37,413,449,2e-12,69.4
SONDA_E_E_xenobiotica,SRR9117240.177528,100.00,37,0,0,1,37,250,214,2e-12,69.4
SONDA_E_E_xenobiotica,SRR9117240.177528,100.00,37,0,0,1,37,413,449,2e-12,69.4
SONDA_E_E_xenobiotica,SRR9117240.177459,100.00,37,0,0,1,37,250,214,2e-12,69.4
SONDA_E_E_xenobiotica,SRR9117240.177459,100.00,37,0,0,1,37,413,449,2e-12,69.4
SONDA_E_E_xenobiotica,SRR9117240.177179,100.00,37,0,0,1,37,250,214,2e-12,69.4
SONDA_E_E_xenobiotica,SRR9117240.177179,100.00,37,0,0,1,37,413,449,2e-12,69.4
SONDA_E_E_xenobiotica,SRR9117240.177061,100.00,37,0,0,1,37,250,214,2e-12,69.4
SONDA_E_E_xenobiotica,SRR9117240.177061,100.00,37,0,0,1,37,413,449,2e-12,69.4
SONDA_E_E_xenobiotica,SRR9117240.176816,100.00,37,0,0,1,37,250,214,2e-12,69.4
SONDA_E_E_xenobiotica,SRR9117240.176816,100.00,37,0,0,1,37,413,449,2e-12,69.4
SONDA_E_E_xenobiotica,SRR9117240.176510,100.00,37,0,0,1,37,250,214,2e-12,69.4
SONDA_E_E_xenobiotica,SRR9117240.176510,100.00,37,0,0,1,37,413,449,2e-12,69.4
SONDA_E_E_xenobiotica,SRR9117240.176399,100.00,37,0,0,1,37,250,214,2e-12,69.4
SONDA_E_E_xenobiotica,SRR9117240.176399,100.00,37,0,0,1,37,413,449,2e-12,69.4
SONDA_E_E_xenobiotica,SRR9117240.175632,100.00,37,0,0,1,37,250,214,2e-12,69.4
SONDA_E_E_xenobiotica,SRR9117240.175632,100.00,37,0,0,1,37,413,449,2e-12,69.4
SONDA_E_E_xenobiotica,SRR9117240.175274,100.00,37,0,0,1,37,250,214,2e-12,69.4
SONDA_E_E_xenobiotica,SRR9117240.175274,100.00,37,0,0,1,37,413,449,2e-12,69.4
SONDA_E_E_xenobiotica,SRR9117240.174652,100.00,37,0,0,1,37,250,214,2e-12,69.4
SONDA_E_E_xenobiotica,SRR9117240.174652,100.00,37,0,0,1,37,413,449,2e-12,69.4
SONDA_E_E_xenobiotica,SRR9117240.174279,100.00,37,0,0,1,37,250,214,2e-12,69.4
SONDA_E_E_xenobiotica,SRR9117240.174279,100.00,37,0,0,1,37,413,449,2e-12,69.4
SONDA_E_E_xenobiotica,SRR9117240.174164,100.00,37,0,0,1,37,250,214,2e-12,69.4
SONDA_E_E_xenobiotica,SRR9117240.174164,100.00,37,0,0,1,37,413,449,2e-12,69.4
SONDA_E_E_xenobiotica,SRR9117240.173815,100.00,37,0,0,1,37,250,214,2e-12,69.4
SONDA_E_E_xenobiotica,SRR9117240.173815,100.00,37,0,0,1,37,413,449,2e-12,69.4
SONDA_E_E_xenobiotica,SRR9117240.173695,100.00,37,0,0,1,37,250,214,2e-12,69.4
SONDA_E_E_xenobiotica,SRR9117240.173695,100.00,37,0,0,1,37,413,449,2e-12,69.4
SONDA_E_E_xenobiotica,SRR9117240.173582,100.00,37,0,0,1,37,250,214,2e-12,69.4
SONDA_E_E_xenobiotica,SRR9117240.173582,100.00,37,0,0,1,37,413,449,2e-12,69.4
SONDA_E_E_xenobiotica,SRR9117240.173406,100.00,37,0,0,1,37,250,214,2e-12,69.4
SONDA_E_E_xenobiotica,SRR9117240.173406,100.00,37,0,0,1,37,413,449,2e-12,69.4
SONDA_E_E_xenobiotica,SRR9117240.173127,100.00,37,0,0,1,37,250,214,2e-12,69.4
SONDA_E_E_xenobiotica,SRR9117240.173127,100.00,37,0,0,1,37,413,449,2e-12,69.4
SONDA_E_E_xenobiotica,SRR9117240.172424,100.00,37,0,0,1,37,250,214,2e-12,69.4
SONDA_E_E_xenobiotica,SRR9117240.172424,100.00,37,0,0,1,37,413,449,2e-12,69.4
SONDA_E_E_xenobiotica,SRR9117240.172286,100.00,37,0,0,1,37,413,449,2e-12,69.4
SONDA_E_E_xenobiotica,SRR9117240.171979,100.00,37,0,0,1,37,250,214,2e-12,69.4
SONDA_E_E_xenobiotica,SRR9117240.171979,100.00,37,0,0,1,37,413,449,2e-12,69.4
SONDA_E_E_xenobiotica,SRR9117240.171702,100.00,37,0,0,1,37,250,214,2e-12,69.4
SONDA_E_E_xenobiotica,SRR9117240.171702,100.00,37,0,0,1,37,413,449,2e-12,69.4
SONDA_E_E_xenobiotica,SRR9117240.171687,100.00,37,0,0,1,37,250,214,2e-12,69.4
SONDA_E_E_xenobiotica,SRR9117240.171687,100.00,37,0,0,1,37,413,449,2e-12,69.4
SONDA_E_E_xenobiotica,SRR9117240.170791,100.00,37,0,0,1,37,250,214,2e-12,69.4
SONDA_E_E_xenobiotica,SRR9117240.170791,100.00,37,0,0,1,37,413,449,2e-12,69.4
SONDA_E_E_xenobiotica,SRR9117240.169755,100.00,37,0,0,1,37,250,214,2e-12,69.4
SONDA_E_E_xenobiotica,SRR9117240.169755,100.00,37,0,0,1,37,413,449,2e-12,69.4
SONDA_E_E_xenobiotica,SRR9117240.169650,100.00,37,0,0,1,37,250,214,2e-12,69.4
SONDA_E_E_xenobiotica,SRR9117240.169650,100.00,37,0,0,1,37,413,449,2e-12,69.4
SONDA_E_E_xenobiotica,SRR9117240.167324,100.00,37,0,0,1,37,250,214,2e-12,69.4
SONDA_E_E_xenobiotica,SRR9117240.167324,100.00,37,0,0,1,37,413,449,2e-12,69.4
SONDA_E_E_xenobiotica,SRR9117240.167228,100.00,37,0,0,1,37,250,214,2e-12,69.4
SONDA_E_E_xenobiotica,SRR9117240.167228,100.00,37,0,0,1,37,413,449,2e-12,69.4
SONDA_E_E_xenobiotica,SRR9117240.166426,100.00,37,0,0,1,37,250,214,2e-12,69.4
SONDA_E_E_xenobiotica,SRR9117240.166426,100.00,37,0,0,1,37,413,449,2e-12,69.4
SONDA_E_E_xenobiotica,SRR9117240.164955,100.00,37,0,0,1,37,250,214,2e-12,69.4
SONDA_E_E_xenobiotica,SRR9117240.164955,100.00,37,0,0,1,37,413,449,2e-12,69.4
SONDA_E_E_xenobiotica,SRR9117240.164550,100.00,37,0,0,1,37,250,214,2e-12,69.4
SONDA_E_E_xenobiotica,SRR9117240.164550,100.00,37,0,0,1,37,413,449,2e-12,69.4
SONDA_E_E_xenobiotica,SRR9117240.163603,100.00,37,0,0,1,37,250,214,2e-12,69.4
SONDA_E_E_xenobiotica,SRR9117240.163603,100.00,37,0,0,1,37,413,449,2e-12,69.4
SONDA_E_E_xenobiotica,SRR9117240.163349,100.00,37,0,0,1,37,250,214,2e-12,69.4
SONDA_E_E_xenobiotica,SRR9117240.163349,97.30,37,1,0,1,37,413,449,1e-10,63.9
SONDA_E_E_xenobiotica,SRR9117240.162723,100.00,37,0,0,1,37,250,214,2e-12,69.4
SONDA_E_E_xenobiotica,SRR9117240.162723,100.00,37,0,0,1,37,413,449,2e-12,69.4
SONDA_E_E_xenobiotica,SRR9117240.162553,100.00,37,0,0,1,37,250,214,2e-12,69.4
SONDA_E_E_xenobiotica,SRR9117240.162553,100.00,37,0,0,1,37,413,449,2e-12,69.4
SONDA_E_E_xenobiotica,SRR9117240.162325,100.00,37,0,0,1,37,250,214,2e-12,69.4
SONDA_E_E_xenobiotica,SRR9117240.162325,100.00,37,0,0,1,37,413,449,2e-12,69.4
SONDA_E_E_xenobiotica,SRR9117240.162233,100.00,37,0,0,1,37,250,214,2e-12,69.4
SONDA_E_E_xenobiotica,SRR9117240.162233,100.00,37,0,0,1,37,413,449,2e-12,69.4
SONDA_E_E_xenobiotica,SRR9117240.162102,100.00,37,0,0,1,37,249,213,2e-12,69.4
SONDA_E_E_xenobiotica,SRR9117240.162102,100.00,37,0,0,1,37,413,449,2e-12,69.4
SONDA_E_E_xenobiotica,SRR9117240.162020,100.00,37,0,0,1,37,250,214,2e-12,69.4
SONDA_E_E_xenobiotica,SRR9117240.162020,100.00,37,0,0,1,37,413,449,2e-12,69.4
SONDA_E_E_xenobiotica,SRR9117240.161992,100.00,37,0,0,1,37,250,214,2e-12,69.4
SONDA_E_E_xenobiotica,SRR9117240.161992,100.00,37,0,0,1,37,413,449,2e-12,69.4
SONDA_E_E_xenobiotica,SRR9117240.161812,100.00,37,0,0,1,37,250,214,2e-12,69.4
SONDA_E_E_xenobiotica,SRR9117240.161812,100.00,37,0,0,1,37,413,449,2e-12,69.4
SONDA_E_E_xenobiotica,SRR9117240.160521,100.00,37,0,0,1,37,250,214,2e-12,69.4
SONDA_E_E_xenobiotica,SRR9117240.160521,100.00,37,0,0,1,37,413,449,2e-12,69.4
SONDA_E_E_xenobiotica,SRR9117240.160421,100.00,37,0,0,1,37,250,214,2e-12,69.4
SONDA_E_E_xenobiotica,SRR9117240.160421,100.00,37,0,0,1,37,413,449,2e-12,69.4
SONDA_E_E_xenobiotica,SRR9117240.160271,100.00,37,0,0,1,37,250,214,2e-12,69.4
SONDA_E_E_xenobiotica,SRR9117240.160271,100.00,37,0,0,1,37,413,449,2e-12,69.4
SONDA_E_E_xenobiotica,SRR9117240.160061,100.00,37,0,0,1,37,413,449,2e-12,69.4
SONDA_E_E_xenobiotica,SRR9117240.159299,100.00,37,0,0,1,37,250,214,2e-12,69.4
SONDA_E_E_xenobiotica,SRR9117240.159299,100.00,37,0,0,1,37,413,449,2e-12,69.4
SONDA_E_E_xenobiotica,SRR9117240.159168,100.00,37,0,0,1,37,250,214,2e-12,69.4
SONDA_E_E_xenobiotica,SRR9117240.159168,100.00,37,0,0,1,37,413,449,2e-12,69.4
SONDA_E_E_xenobiotica,SRR9117240.158914,100.00,37,0,0,1,37,250,214,2e-12,69.4
SONDA_E_E_xenobiotica,SRR9117240.158914,100.00,37,0,0,1,37,413,449,2e-12,69.4
SONDA_E_E_xenobiotica,SRR9117240.158722,100.00,37,0,0,1,37,250,214,2e-12,69.4
SONDA_E_E_xenobiotica,SRR9117240.158722,100.00,37,0,0,1,37,413,449,2e-12,69.4
SONDA_E_E_xenobiotica,SRR9117240.158484,100.00,37,0,0,1,37,250,214,2e-12,69.4
SONDA_E_E_xenobiotica,SRR9117240.158484,100.00,37,0,0,1,37,413,449,2e-12,69.4
SONDA_E_E_xenobiotica,SRR9117240.157951,100.00,37,0,0,1,37,250,214,2e-12,69.4
SONDA_E_E_xenobiotica,SRR9117240.157951,100.00,37,0,0,1,37,413,449,2e-12,69.4
SONDA_E_E_xenobiotica,SRR9117240.157775,100.00,37,0,0,1,37,249,213,2e-12,69.4
SONDA_E_E_xenobiotica,SRR9117240.157775,100.00,37,0,0,1,37,413,449,2e-12,69.4
SONDA_E_E_xenobiotica,SRR9117240.157577,100.00,37,0,0,1,37,250,214,2e-12,69.4
SONDA_E_E_xenobiotica,SRR9117240.157577,100.00,37,0,0,1,37,413,449,2e-12,69.4
SONDA_E_E_xenobiotica,SRR9117240.157328,100.00,37,0,0,1,37,250,214,2e-12,69.4
SONDA_E_E_xenobiotica,SRR9117240.157328,100.00,37,0,0,1,37,413,449,2e-12,69.4
SONDA_E_E_xenobiotica,SRR9117240.156733,100.00,37,0,0,1,37,250,214,2e-12,69.4
SONDA_E_E_xenobiotica,SRR9117240.156549,100.00,37,0,0,1,37,250,214,2e-12,69.4
SONDA_E_E_xenobiotica,SRR9117240.156549,100.00,37,0,0,1,37,413,449,2e-12,69.4
SONDA_E_E_xenobiotica,SRR9117240.156245,100.00,37,0,0,1,37,250,214,2e-12,69.4
SONDA_E_E_xenobiotica,SRR9117240.156245,100.00,37,0,0,1,37,413,449,2e-12,69.4
SONDA_E_E_xenobiotica,SRR9117240.155545,100.00,37,0,0,1,37,249,213,2e-12,69.4
SONDA_E_E_xenobiotica,SRR9117240.155545,100.00,37,0,0,1,37,413,449,2e-12,69.4
SONDA_E_E_xenobiotica,SRR9117240.155497,100.00,37,0,0,1,37,250,214,2e-12,69.4
SONDA_E_E_xenobiotica,SRR9117240.155497,100.00,37,0,0,1,37,413,449,2e-12,69.4
SONDA_E_E_xenobiotica,SRR9117240.154785,100.00,37,0,0,1,37,250,214,2e-12,69.4
SONDA_E_E_xenobiotica,SRR9117240.154785,100.00,37,0,0,1,37,413,449,2e-12,69.4
SONDA_E_E_xenobiotica,SRR9117240.153925,100.00,37,0,0,1,37,250,214,2e-12,69.4
SONDA_E_E_xenobiotica,SRR9117240.153925,100.00,37,0,0,1,37,413,449,2e-12,69.4
SONDA_E_E_xenobiotica,SRR9117240.153923,100.00,37,0,0,1,37,250,214,2e-12,69.4
SONDA_E_E_xenobiotica,SRR9117240.153923,100.00,37,0,0,1,37,413,449,2e-12,69.4
SONDA_E_E_xenobiotica,SRR9117240.152630,100.00,37,0,0,1,37,250,214,2e-12,69.4
SONDA_E_E_xenobiotica,SRR9117240.152630,100.00,37,0,0,1,37,413,449,2e-12,69.4
SONDA_E_E_xenobiotica,SRR9117240.152565,100.00,37,0,0,1,37,250,214,2e-12,69.4
SONDA_E_E_xenobiotica,SRR9117240.152565,100.00,37,0,0,1,37,413,449,2e-12,69.4
SONDA_E_E_xenobiotica,SRR9117240.152403,100.00,37,0,0,1,37,250,214,2e-12,69.4
SONDA_E_E_xenobiotica,SRR9117240.152403,100.00,37,0,0,1,37,413,449,2e-12,69.4
SONDA_E_E_xenobiotica,SRR9117240.151869,100.00,37,0,0,1,37,250,214,2e-12,69.4
SONDA_E_E_xenobiotica,SRR9117240.151869,100.00,37,0,0,1,37,413,449,2e-12,69.4
SONDA_E_E_xenobiotica,SRR9117240.150392,100.00,37,0,0,1,37,250,214,2e-12,69.4
SONDA_E_E_xenobiotica,SRR9117240.150392,100.00,37,0,0,1,37,413,449,2e-12,69.4
SONDA_E_E_xenobiotica,SRR9117240.150222,100.00,37,0,0,1,37,250,214,2e-12,69.4
SONDA_E_E_xenobiotica,SRR9117240.150222,100.00,37,0,0,1,37,413,449,2e-12,69.4
SONDA_E_E_xenobiotica,SRR9117240.149855,100.00,37,0,0,1,37,250,214,2e-12,69.4
SONDA_E_E_xenobiotica,SRR9117240.149855,100.00,37,0,0,1,37,413,449,2e-12,69.4
SONDA_E_E_xenobiotica,SRR9117240.149852,100.00,37,0,0,1,37,250,214,2e-12,69.4
SONDA_E_E_xenobiotica,SRR9117240.149852,97.30,37,1,0,1,37,413,449,1e-10,63.9
SONDA_E_E_xenobiotica,SRR9117240.149692,100.00,37,0,0,1,37,250,214,2e-12,69.4
SONDA_E_E_xenobiotica,SRR9117240.149155,100.00,37,0,0,1,37,250,214,2e-12,69.4
SONDA_E_E_xenobiotica,SRR9117240.149155,100.00,37,0,0,1,37,413,449,2e-12,69.4
SONDA_E_E_xenobiotica,SRR9117240.148779,100.00,37,0,0,1,37,250,214,2e-12,69.4
SONDA_E_E_xenobiotica,SRR9117240.148779,97.30,37,1,0,1,37,413,449,1e-10,63.9
SONDA_E_E_xenobiotica,SRR9117240.148753,100.00,37,0,0,1,37,250,214,2e-12,69.4
SONDA_E_E_xenobiotica,SRR9117240.148753,100.00,37,0,0,1,37,413,449,2e-12,69.4
SONDA_E_E_xenobiotica,SRR9117240.148745,100.00,37,0,0,1,37,250,214,2e-12,69.4
SONDA_E_E_xenobiotica,SRR9117240.148745,100.00,37,0,0,1,37,413,449,2e-12,69.4
SONDA_E_E_xenobiotica,SRR9117240.148738,100.00,37,0,0,1,37,250,214,2e-12,69.4
SONDA_E_E_xenobiotica,SRR9117240.148738,100.00,37,0,0,1,37,413,449,2e-12,69.4
SONDA_E_E_xenobiotica,SRR9117240.148645,100.00,37,0,0,1,37,250,214,2e-12,69.4
SONDA_E_E_xenobiotica,SRR9117240.148645,100.00,37,0,0,1,37,413,449,2e-12,69.4
SONDA_E_E_xenobiotica,SRR9117240.148024,100.00,37,0,0,1,37,250,214,2e-12,69.4
SONDA_E_E_xenobiotica,SRR9117240.148024,100.00,37,0,0,1,37,413,449,2e-12,69.4
SONDA_E_E_xenobiotica,SRR9117240.147713,100.00,37,0,0,1,37,250,214,2e-12,69.4
SONDA_E_E_xenobiotica,SRR9117240.147713,100.00,37,0,0,1,37,413,449,2e-12,69.4
SONDA_E_E_xenobiotica,SRR9117240.146918,100.00,37,0,0,1,37,250,214,2e-12,69.4
SONDA_E_E_xenobiotica,SRR9117240.146918,100.00,37,0,0,1,37,413,449,2e-12,69.4
SONDA_E_E_xenobiotica,SRR9117240.146872,100.00,37,0,0,1,37,250,214,2e-12,69.4
SONDA_E_E_xenobiotica,SRR9117240.146872,100.00,37,0,0,1,37,413,449,2e-12,69.4
SONDA_E_E_xenobiotica,SRR9117240.146104,100.00,37,0,0,1,37,250,214,2e-12,69.4
SONDA_E_E_xenobiotica,SRR9117240.146104,100.00,37,0,0,1,37,413,449,2e-12,69.4
SONDA_E_E_xenobiotica,SRR9117240.145640,100.00,37,0,0,1,37,250,214,2e-12,69.4
SONDA_E_E_xenobiotica,SRR9117240.145640,100.00,37,0,0,1,37,413,449,2e-12,69.4
SONDA_E_E_xenobiotica,SRR9117240.145601,100.00,37,0,0,1,37,250,214,2e-12,69.4
SONDA_E_E_xenobiotica,SRR9117240.145601,97.30,37,1,0,1,37,413,449,1e-10,63.9
SONDA_E_E_xenobiotica,SRR9117240.144328,100.00,37,0,0,1,37,250,214,2e-12,69.4
SONDA_E_E_xenobiotica,SRR9117240.144328,100.00,37,0,0,1,37,413,449,2e-12,69.4
SONDA_E_E_xenobiotica,SRR9117240.144294,100.00,37,0,0,1,37,250,214,2e-12,69.4
SONDA_E_E_xenobiotica,SRR9117240.144294,100.00,37,0,0,1,37,413,449,2e-12,69.4
SONDA_E_E_xenobiotica,SRR9117240.142802,100.00,37,0,0,1,37,250,214,2e-12,69.4
SONDA_E_E_xenobiotica,SRR9117240.142802,100.00,37,0,0,1,37,413,449,2e-12,69.4
SONDA_E_E_xenobiotica,SRR9117240.142184,100.00,37,0,0,1,37,250,214,2e-12,69.4
SONDA_E_E_xenobiotica,SRR9117240.142184,100.00,37,0,0,1,37,413,449,2e-12,69.4
SONDA_E_E_xenobiotica,SRR9117240.142183,100.00,37,0,0,1,37,250,214,2e-12,69.4
SONDA_E_E_xenobiotica,SRR9117240.142084,100.00,37,0,0,1,37,250,214,2e-12,69.4
SONDA_E_E_xenobiotica,SRR9117240.142084,100.00,37,0,0,1,37,413,449,2e-12,69.4
SONDA_E_E_xenobiotica,SRR9117240.141837,100.00,37,0,0,1,37,250,214,2e-12,69.4
SONDA_E_E_xenobiotica,SRR9117240.141837,100.00,37,0,0,1,37,413,449,2e-12,69.4
SONDA_E_E_xenobiotica,SRR9117240.141544,100.00,37,0,0,1,37,250,214,2e-12,69.4
SONDA_E_E_xenobiotica,SRR9117240.141544,100.00,37,0,0,1,37,413,449,2e-12,69.4
SONDA_E_E_xenobiotica,SRR9117240.141386,100.00,37,0,0,1,37,250,214,2e-12,69.4
SONDA_E_E_xenobiotica,SRR9117240.141386,100.00,37,0,0,1,37,413,449,2e-12,69.4
SONDA_E_E_xenobiotica,SRR9117240.140751,100.00,37,0,0,1,37,250,214,2e-12,69.4
SONDA_E_E_xenobiotica,SRR9117240.140348,100.00,37,0,0,1,37,250,214,2e-12,69.4
SONDA_E_E_xenobiotica,SRR9117240.140348,100.00,37,0,0,1,37,413,449,2e-12,69.4
SONDA_E_E_xenobiotica,SRR9117240.140343,100.00,37,0,0,1,37,250,214,2e-12,69.4
SONDA_E_E_xenobiotica,SRR9117240.140343,100.00,37,0,0,1,37,413,449,2e-12,69.4
SONDA_E_E_xenobiotica,SRR9117240.139907,100.00,37,0,0,1,37,250,214,2e-12,69.4
SONDA_E_E_xenobiotica,SRR9117240.139907,100.00,37,0,0,1,37,413,449,2e-12,69.4
SONDA_E_E_xenobiotica,SRR9117240.139664,100.00,37,0,0,1,37,250,214,2e-12,69.4
SONDA_E_E_xenobiotica,SRR9117240.139664,100.00,37,0,0,1,37,413,449,2e-12,69.4
SONDA_E_E_xenobiotica,SRR9117240.139643,100.00,37,0,0,1,37,250,214,2e-12,69.4
SONDA_E_E_xenobiotica,SRR9117240.139643,97.30,37,1,0,1,37,413,449,1e-10,63.9
SONDA_E_E_xenobiotica,SRR9117240.139246,100.00,37,0,0,1,37,250,214,2e-12,69.4
SONDA_E_E_xenobiotica,SRR9117240.139246,100.00,37,0,0,1,37,413,449,2e-12,69.4
SONDA_E_E_xenobiotica,SRR9117240.139101,100.00,37,0,0,1,37,250,214,2e-12,69.4
SONDA_E_E_xenobiotica,SRR9117240.139101,100.00,37,0,0,1,37,413,449,2e-12,69.4
SONDA_E_E_xenobiotica,SRR9117240.139067,100.00,37,0,0,1,37,250,214,2e-12,69.4
SONDA_E_E_xenobiotica,SRR9117240.139067,100.00,37,0,0,1,37,413,449,2e-12,69.4
SONDA_E_E_xenobiotica,SRR9117240.138646,100.00,37,0,0,1,37,413,449,2e-12,69.4
SONDA_E_E_xenobiotica,SRR9117240.138200,100.00,37,0,0,1,37,250,214,2e-12,69.4
SONDA_E_E_xenobiotica,SRR9117240.138200,100.00,37,0,0,1,37,413,449,2e-12,69.4
SONDA_E_E_xenobiotica,SRR9117240.138094,100.00,37,0,0,1,37,250,214,2e-12,69.4
SONDA_E_E_xenobiotica,SRR9117240.138094,100.00,37,0,0,1,37,413,449,2e-12,69.4
SONDA_E_E_xenobiotica,SRR9117240.137043,100.00,37,0,0,1,37,250,214,2e-12,69.4
SONDA_E_E_xenobiotica,SRR9117240.137043,100.00,37,0,0,1,37,413,449,2e-12,69.4
SONDA_E_E_xenobiotica,SRR9117240.136382,100.00,37,0,0,1,37,250,214,2e-12,69.4
SONDA_E_E_xenobiotica,SRR9117240.136382,100.00,37,0,0,1,37,413,449,2e-12,69.4
SONDA_E_E_xenobiotica,SRR9117240.135862,100.00,37,0,0,1,37,250,214,2e-12,69.4
SONDA_E_E_xenobiotica,SRR9117240.135862,100.00,37,0,0,1,37,413,449,2e-12,69.4
SONDA_E_E_xenobiotica,SRR9117240.135281,100.00,37,0,0,1,37,250,214,2e-12,69.4
SONDA_E_E_xenobiotica,SRR9117240.135281,100.00,37,0,0,1,37,413,449,2e-12,69.4
SONDA_E_E_xenobiotica,SRR9117240.135106,100.00,37,0,0,1,37,250,214,2e-12,69.4
SONDA_E_E_xenobiotica,SRR9117240.135106,100.00,29,0,0,1,29,413,441,7e-08,54.7
SONDA_E_E_xenobiotica,SRR9117240.134717,100.00,37,0,0,1,37,250,214,2e-12,69.4
SONDA_E_E_xenobiotica,SRR9117240.134717,100.00,37,0,0,1,37,413,449,2e-12,69.4
SONDA_E_E_xenobiotica,SRR9117240.134236,100.00,37,0,0,1,37,250,214,2e-12,69.4
SONDA_E_E_xenobiotica,SRR9117240.134236,97.30,37,1,0,1,37,413,449,1e-10,63.9
SONDA_E_E_xenobiotica,SRR9117240.134151,100.00,37,0,0,1,37,250,214,2e-12,69.4
SONDA_E_E_xenobiotica,SRR9117240.134151,100.00,37,0,0,1,37,413,449,2e-12,69.4
SONDA_E_E_xenobiotica,SRR9117240.134056,100.00,37,0,0,1,37,250,214,2e-12,69.4
SONDA_E_E_xenobiotica,SRR9117240.134056,100.00,37,0,0,1,37,413,449,2e-12,69.4
SONDA_E_E_xenobiotica,SRR9117240.133612,100.00,37,0,0,1,37,250,214,2e-12,69.4
SONDA_E_E_xenobiotica,SRR9117240.133612,100.00,37,0,0,1,37,413,449,2e-12,69.4
SONDA_E_E_xenobiotica,SRR9117240.133610,100.00,37,0,0,1,37,250,214,2e-12,69.4
SONDA_E_E_xenobiotica,SRR9117240.133610,100.00,37,0,0,1,37,413,449,2e-12,69.4
SONDA_E_E_xenobiotica,SRR9117240.133366,100.00,37,0,0,1,37,250,214,2e-12,69.4
SONDA_E_E_xenobiotica,SRR9117240.133366,100.00,37,0,0,1,37,413,449,2e-12,69.4
SONDA_E_E_xenobiotica,SRR9117240.132928,100.00,37,0,0,1,37,250,214,2e-12,69.4
SONDA_E_E_xenobiotica,SRR9117240.132928,100.00,37,0,0,1,37,413,449,2e-12,69.4
SONDA_E_E_xenobiotica,SRR9117240.132319,100.00,37,0,0,1,37,250,214,2e-12,69.4
SONDA_E_E_xenobiotica,SRR9117240.132319,100.00,37,0,0,1,37,413,449,2e-12,69.4
SONDA_E_E_xenobiotica,SRR9117240.132279,100.00,37,0,0,1,37,250,214,2e-12,69.4
SONDA_E_E_xenobiotica,SRR9117240.132279,100.00,37,0,0,1,37,413,449,2e-12,69.4
SONDA_E_E_xenobiotica,SRR9117240.131997,100.00,37,0,0,1,37,250,214,2e-12,69.4
SONDA_E_E_xenobiotica,SRR9117240.131997,100.00,37,0,0,1,37,413,449,2e-12,69.4
SONDA_E_E_xenobiotica,SRR9117240.131589,100.00,37,0,0,1,37,250,214,2e-12,69.4
SONDA_E_E_xenobiotica,SRR9117240.131589,100.00,37,0,0,1,37,413,449,2e-12,69.4
SONDA_E_E_xenobiotica,SRR9117240.131288,100.00,37,0,0,1,37,250,214,2e-12,69.4
SONDA_E_E_xenobiotica,SRR9117240.131288,100.00,37,0,0,1,37,413,449,2e-12,69.4
SONDA_E_E_xenobiotica,SRR9117240.130498,100.00,37,0,0,1,37,413,449,2e-12,69.4
SONDA_E_E_xenobiotica,SRR9117240.130184,100.00,37,0,0,1,37,413,449,2e-12,69.4
SONDA_E_E_xenobiotica,SRR9117240.130184,100.00,34,0,0,1,34,250,217,1e-10,63.9
SONDA_E_E_xenobiotica,SRR9117240.130173,100.00,37,0,0,1,37,249,213,2e-12,69.4
SONDA_E_E_xenobiotica,SRR9117240.130173,100.00,37,0,0,1,37,413,449,2e-12,69.4
SONDA_E_E_xenobiotica,SRR9117240.130095,100.00,37,0,0,1,37,250,214,2e-12,69.4
SONDA_E_E_xenobiotica,SRR9117240.130095,100.00,37,0,0,1,37,413,449,2e-12,69.4
SONDA_E_E_xenobiotica,SRR9117240.129807,100.00,37,0,0,1,37,250,214,2e-12,69.4
SONDA_E_E_xenobiotica,SRR9117240.129807,100.00,37,0,0,1,37,413,449,2e-12,69.4
SONDA_E_E_xenobiotica,SRR9117240.129732,100.00,37,0,0,1,37,250,214,2e-12,69.4
SONDA_E_E_xenobiotica,SRR9117240.129732,100.00,37,0,0,1,37,413,449,2e-12,69.4
SONDA_E_E_xenobiotica,SRR9117240.129416,100.00,37,0,0,1,37,250,214,2e-12,69.4
SONDA_E_E_xenobiotica,SRR9117240.129416,100.00,37,0,0,1,37,413,449,2e-12,69.4
SONDA_E_E_xenobiotica,SRR9117240.128970,100.00,37,0,0,1,37,250,214,2e-12,69.4
SONDA_E_E_xenobiotica,SRR9117240.128970,100.00,37,0,0,1,37,413,449,2e-12,69.4
SONDA_E_E_xenobiotica,SRR9117240.128745,100.00,37,0,0,1,37,250,214,2e-12,69.4
SONDA_E_E_xenobiotica,SRR9117240.128745,100.00,37,0,0,1,37,413,449,2e-12,69.4
SONDA_E_E_xenobiotica,SRR9117240.128374,100.00,37,0,0,1,37,250,214,2e-12,69.4
SONDA_E_E_xenobiotica,SRR9117240.128374,100.00,37,0,0,1,37,413,449,2e-12,69.4
SONDA_E_E_xenobiotica,SRR9117240.128020,100.00,37,0,0,1,37,250,214,2e-12,69.4
SONDA_E_E_xenobiotica,SRR9117240.128020,100.00,37,0,0,1,37,413,449,2e-12,69.4
SONDA_E_E_xenobiotica,SRR9117240.127960,100.00,37,0,0,1,37,250,214,2e-12,69.4
SONDA_E_E_xenobiotica,SRR9117240.127960,100.00,37,0,0,1,37,413,449,2e-12,69.4
SONDA_E_E_xenobiotica,SRR9117240.127467,100.00,37,0,0,1,37,250,214,2e-12,69.4
SONDA_E_E_xenobiotica,SRR9117240.127467,100.00,37,0,0,1,37,413,449,2e-12,69.4
SONDA_E_E_xenobiotica,SRR9117240.127352,100.00,37,0,0,1,37,250,214,2e-12,69.4
SONDA_E_E_xenobiotica,SRR9117240.127352,100.00,37,0,0,1,37,413,449,2e-12,69.4
SONDA_E_E_xenobiotica,SRR9117240.127168,100.00,37,0,0,1,37,250,214,2e-12,69.4
SONDA_E_E_xenobiotica,SRR9117240.127168,100.00,37,0,0,1,37,413,449,2e-12,69.4
SONDA_E_E_xenobiotica,SRR9117240.127032,100.00,37,0,0,1,37,250,214,2e-12,69.4
SONDA_E_E_xenobiotica,SRR9117240.127032,100.00,37,0,0,1,37,413,449,2e-12,69.4
SONDA_E_E_xenobiotica,SRR9117240.126882,100.00,37,0,0,1,37,250,214,2e-12,69.4
SONDA_E_E_xenobiotica,SRR9117240.126882,97.30,37,1,0,1,37,392,428,1e-10,63.9
SONDA_E_E_xenobiotica,SRR9117240.126797,100.00,37,0,0,1,37,250,214,2e-12,69.4
SONDA_E_E_xenobiotica,SRR9117240.126797,100.00,37,0,0,1,37,413,449,2e-12,69.4
SONDA_E_E_xenobiotica,SRR9117240.126576,100.00,37,0,0,1,37,250,214,2e-12,69.4
SONDA_E_E_xenobiotica,SRR9117240.126576,100.00,37,0,0,1,37,413,449,2e-12,69.4
SONDA_E_E_xenobiotica,SRR9117240.125692,100.00,37,0,0,1,37,250,214,2e-12,69.4
SONDA_E_E_xenobiotica,SRR9117240.125692,100.00,37,0,0,1,37,413,449,2e-12,69.4
SONDA_E_E_xenobiotica,SRR9117240.125600,100.00,37,0,0,1,37,250,214,2e-12,69.4
SONDA_E_E_xenobiotica,SRR9117240.125600,100.00,37,0,0,1,37,413,449,2e-12,69.4
SONDA_E_E_xenobiotica,SRR9117240.125264,100.00,37,0,0,1,37,250,214,2e-12,69.4
SONDA_E_E_xenobiotica,SRR9117240.125264,100.00,37,0,0,1,37,413,449,2e-12,69.4
SONDA_E_E_xenobiotica,SRR9117240.124946,100.00,37,0,0,1,37,413,449,2e-12,69.4
SONDA_E_E_xenobiotica,SRR9117240.124666,100.00,37,0,0,1,37,250,214,2e-12,69.4
SONDA_E_E_xenobiotica,SRR9117240.124666,100.00,37,0,0,1,37,413,449,2e-12,69.4
SONDA_E_E_xenobiotica,SRR9117240.124075,100.00,37,0,0,1,37,250,214,2e-12,69.4
SONDA_E_E_xenobiotica,SRR9117240.124075,100.00,37,0,0,1,37,413,449,2e-12,69.4
SONDA_E_E_xenobiotica,SRR9117240.123564,100.00,37,0,0,1,37,250,214,2e-12,69.4
SONDA_E_E_xenobiotica,SRR9117240.123564,100.00,37,0,0,1,37,413,449,2e-12,69.4
SONDA_E_E_xenobiotica,SRR9117240.123229,100.00,37,0,0,1,37,250,214,2e-12,69.4
SONDA_E_E_xenobiotica,SRR9117240.123229,100.00,37,0,0,1,37,413,449,2e-12,69.4
SONDA_E_E_xenobiotica,SRR9117240.123108,100.00,37,0,0,1,37,250,214,2e-12,69.4
SONDA_E_E_xenobiotica,SRR9117240.123108,100.00,37,0,0,1,37,413,449,2e-12,69.4
SONDA_E_E_xenobiotica,SRR9117240.122509,100.00,37,0,0,1,37,250,214,2e-12,69.4
SONDA_E_E_xenobiotica,SRR9117240.122509,100.00,37,0,0,1,37,413,449,2e-12,69.4
SONDA_E_E_xenobiotica,SRR9117240.122373,100.00,37,0,0,1,37,250,214,2e-12,69.4
SONDA_E_E_xenobiotica,SRR9117240.122373,100.00,37,0,0,1,37,413,449,2e-12,69.4
SONDA_E_E_xenobiotica,SRR9117240.121479,100.00,37,0,0,1,37,250,214,2e-12,69.4
SONDA_E_E_xenobiotica,SRR9117240.121479,100.00,37,0,0,1,37,413,449,2e-12,69.4
SONDA_E_E_xenobiotica,SRR9117240.121327,100.00,37,0,0,1,37,250,214,2e-12,69.4
SONDA_E_E_xenobiotica,SRR9117240.121327,100.00,37,0,0,1,37,413,449,2e-12,69.4
SONDA_E_E_xenobiotica,SRR9117240.120959,100.00,37,0,0,1,37,250,214,2e-12,69.4
SONDA_E_E_xenobiotica,SRR9117240.120959,100.00,37,0,0,1,37,413,449,2e-12,69.4
SONDA_E_E_xenobiotica,SRR9117240.120605,100.00,37,0,0,1,37,250,214,2e-12,69.4
SONDA_E_E_xenobiotica,SRR9117240.120605,100.00,37,0,0,1,37,413,449,2e-12,69.4
SONDA_E_E_xenobiotica,SRR9117240.120573,100.00,37,0,0,1,37,250,214,2e-12,69.4
SONDA_E_E_xenobiotica,SRR9117240.120573,97.30,37,1,0,1,37,413,449,1e-10,63.9
SONDA_E_E_xenobiotica,SRR9117240.120554,100.00,37,0,0,1,37,250,214,2e-12,69.4
SONDA_E_E_xenobiotica,SRR9117240.120554,100.00,37,0,0,1,37,413,449,2e-12,69.4
SONDA_E_E_xenobiotica,SRR9117240.119761,100.00,37,0,0,1,37,250,214,2e-12,69.4
SONDA_E_E_xenobiotica,SRR9117240.119761,100.00,37,0,0,1,37,413,449,2e-12,69.4
SONDA_E_E_xenobiotica,SRR9117240.119755,100.00,37,0,0,1,37,250,214,2e-12,69.4
SONDA_E_E_xenobiotica,SRR9117240.119755,100.00,37,0,0,1,37,413,449,2e-12,69.4
SONDA_E_E_xenobiotica,SRR9117240.119186,100.00,37,0,0,1,37,250,214,2e-12,69.4
SONDA_E_E_xenobiotica,SRR9117240.118366,100.00,37,0,0,1,37,250,214,2e-12,69.4
SONDA_E_E_xenobiotica,SRR9117240.118366,100.00,37,0,0,1,37,413,449,2e-12,69.4
SONDA_E_E_xenobiotica,SRR9117240.118251,100.00,37,0,0,1,37,250,214,2e-12,69.4
SONDA_E_E_xenobiotica,SRR9117240.118251,100.00,37,0,0,1,37,413,449,2e-12,69.4
SONDA_E_E_xenobiotica,SRR9117240.118240,100.00,37,0,0,1,37,250,214,2e-12,69.4
SONDA_E_E_xenobiotica,SRR9117240.118240,100.00,37,0,0,1,37,413,449,2e-12,69.4
SONDA_E_E_xenobiotica,SRR9117240.117448,100.00,37,0,0,1,37,250,214,2e-12,69.4
SONDA_E_E_xenobiotica,SRR9117240.117448,100.00,37,0,0,1,37,413,449,2e-12,69.4
SONDA_E_E_xenobiotica,SRR9117240.117328,100.00,37,0,0,1,37,250,214,2e-12,69.4
SONDA_E_E_xenobiotica,SRR9117240.117328,100.00,37,0,0,1,37,413,449,2e-12,69.4
SONDA_E_E_xenobiotica,SRR9117240.117163,100.00,37,0,0,1,37,250,214,2e-12,69.4
SONDA_E_E_xenobiotica,SRR9117240.117163,100.00,34,0,0,1,34,413,446,1e-10,63.9
SONDA_E_E_xenobiotica,SRR9117240.116854,100.00,37,0,0,1,37,250,214,2e-12,69.4
SONDA_E_E_xenobiotica,SRR9117240.116854,100.00,37,0,0,1,37,413,449,2e-12,69.4
SONDA_E_E_xenobiotica,SRR9117240.116571,100.00,37,0,0,1,37,250,214,2e-12,69.4
SONDA_E_E_xenobiotica,SRR9117240.116571,100.00,37,0,0,1,37,413,449,2e-12,69.4
SONDA_E_E_xenobiotica,SRR9117240.116469,100.00,37,0,0,1,37,250,214,2e-12,69.4
SONDA_E_E_xenobiotica,SRR9117240.116469,100.00,37,0,0,1,37,413,449,2e-12,69.4
SONDA_E_E_xenobiotica,SRR9117240.115824,100.00,37,0,0,1,37,250,214,2e-12,69.4
SONDA_E_E_xenobiotica,SRR9117240.115824,100.00,37,0,0,1,37,413,449,2e-12,69.4
SONDA_E_E_xenobiotica,SRR9117240.115505,100.00,37,0,0,1,37,250,214,2e-12,69.4
SONDA_E_E_xenobiotica,SRR9117240.115505,100.00,37,0,0,1,37,413,449,2e-12,69.4
SONDA_E_E_xenobiotica,SRR9117240.115261,100.00,37,0,0,1,37,413,449,2e-12,69.4
SONDA_E_E_xenobiotica,SRR9117240.115209,100.00,37,0,0,1,37,250,214,2e-12,69.4
SONDA_E_E_xenobiotica,SRR9117240.115209,100.00,37,0,0,1,37,413,449,2e-12,69.4
SONDA_E_E_xenobiotica,SRR9117240.114940,100.00,37,0,0,1,37,250,214,2e-12,69.4
SONDA_E_E_xenobiotica,SRR9117240.114940,100.00,37,0,0,1,37,413,449,2e-12,69.4
SONDA_E_E_xenobiotica,SRR9117240.113144,100.00,37,0,0,1,37,250,214,2e-12,69.4
SONDA_E_E_xenobiotica,SRR9117240.113144,100.00,37,0,0,1,37,413,449,2e-12,69.4
SONDA_E_E_xenobiotica,SRR9117240.113112,100.00,37,0,0,1,37,250,214,2e-12,69.4
SONDA_E_E_xenobiotica,SRR9117240.113112,100.00,37,0,0,1,37,413,449,2e-12,69.4
SONDA_E_E_xenobiotica,SRR9117240.112504,100.00,37,0,0,1,37,250,214,2e-12,69.4
SONDA_E_E_xenobiotica,SRR9117240.112504,100.00,37,0,0,1,37,413,449,2e-12,69.4
SONDA_E_E_xenobiotica,SRR9117240.112085,100.00,37,0,0,1,37,250,214,2e-12,69.4
SONDA_E_E_xenobiotica,SRR9117240.112085,100.00,37,0,0,1,37,413,449,2e-12,69.4
SONDA_E_E_xenobiotica,SRR9117240.112049,100.00,37,0,0,1,37,413,449,2e-12,69.4
SONDA_E_E_xenobiotica,SRR9117240.112048,100.00,37,0,0,1,37,250,214,2e-12,69.4
SONDA_E_E_xenobiotica,SRR9117240.112048,100.00,37,0,0,1,37,413,449,2e-12,69.4
SONDA_E_E_xenobiotica,SRR9117240.111848,100.00,37,0,0,1,37,250,214,2e-12,69.4
SONDA_E_E_xenobiotica,SRR9117240.111848,100.00,37,0,0,1,37,413,449,2e-12,69.4
SONDA_E_E_xenobiotica,SRR9117240.109877,100.00,37,0,0,1,37,250,214,2e-12,69.4
SONDA_E_E_xenobiotica,SRR9117240.109877,100.00,37,0,0,1,37,413,449,2e-12,69.4
SONDA_E_E_xenobiotica,SRR9117240.108973,100.00,37,0,0,1,37,250,214,2e-12,69.4
SONDA_E_E_xenobiotica,SRR9117240.108973,100.00,37,0,0,1,37,413,449,2e-12,69.4
SONDA_E_E_xenobiotica,SRR9117240.108701,100.00,37,0,0,1,37,250,214,2e-12,69.4
SONDA_E_E_xenobiotica,SRR9117240.108701,100.00,37,0,0,1,37,413,449,2e-12,69.4
SONDA_E_E_xenobiotica,SRR9117240.107985,100.00,37,0,0,1,37,250,214,2e-12,69.4
SONDA_E_E_xenobiotica,SRR9117240.107985,100.00,37,0,0,1,37,413,449,2e-12,69.4
SONDA_E_E_xenobiotica,SRR9117240.107573,100.00,37,0,0,1,37,250,214,2e-12,69.4
SONDA_E_E_xenobiotica,SRR9117240.107573,100.00,37,0,0,1,37,413,449,2e-12,69.4
SONDA_E_E_xenobiotica,SRR9117240.107170,100.00,37,0,0,1,37,250,214,2e-12,69.4
SONDA_E_E_xenobiotica,SRR9117240.107170,100.00,37,0,0,1,37,413,449,2e-12,69.4
SONDA_E_E_xenobiotica,SRR9117240.106872,100.00,37,0,0,1,37,250,214,2e-12,69.4
SONDA_E_E_xenobiotica,SRR9117240.106872,100.00,37,0,0,1,37,413,449,2e-12,69.4
SONDA_E_E_xenobiotica,SRR9117240.106304,100.00,37,0,0,1,37,250,214,2e-12,69.4
SONDA_E_E_xenobiotica,SRR9117240.106304,100.00,37,0,0,1,37,413,449,2e-12,69.4
SONDA_E_E_xenobiotica,SRR9117240.106248,100.00,37,0,0,1,37,250,214,2e-12,69.4
SONDA_E_E_xenobiotica,SRR9117240.106248,100.00,37,0,0,1,37,413,449,2e-12,69.4
SONDA_E_E_xenobiotica,SRR9117240.106207,100.00,37,0,0,1,37,250,214,2e-12,69.4
SONDA_E_E_xenobiotica,SRR9117240.106207,100.00,37,0,0,1,37,413,449,2e-12,69.4
SONDA_E_E_xenobiotica,SRR9117240.104957,100.00,37,0,0,1,37,250,214,2e-12,69.4
SONDA_E_E_xenobiotica,SRR9117240.104957,100.00,37,0,0,1,37,413,449,2e-12,69.4
SONDA_E_E_xenobiotica,SRR9117240.104654,100.00,37,0,0,1,37,250,214,2e-12,69.4
SONDA_E_E_xenobiotica,SRR9117240.104654,100.00,37,0,0,1,37,413,449,2e-12,69.4
SONDA_E_E_xenobiotica,SRR9117240.104370,100.00,37,0,0,1,37,250,214,2e-12,69.4
SONDA_E_E_xenobiotica,SRR9117240.104370,100.00,37,0,0,1,37,413,449,2e-12,69.4
SONDA_E_E_xenobiotica,SRR9117240.104222,100.00,37,0,0,1,37,250,214,2e-12,69.4
SONDA_E_E_xenobiotica,SRR9117240.104222,100.00,37,0,0,1,37,413,449,2e-12,69.4
SONDA_E_E_xenobiotica,SRR9117240.104189,100.00,37,0,0,1,37,250,214,2e-12,69.4
SONDA_E_E_xenobiotica,SRR9117240.104189,100.00,37,0,0,1,37,413,449,2e-12,69.4
SONDA_E_E_xenobiotica,SRR9117240.104092,100.00,37,0,0,1,37,250,214,2e-12,69.4
SONDA_E_E_xenobiotica,SRR9117240.104092,100.00,37,0,0,1,37,413,449,2e-12,69.4
SONDA_E_E_xenobiotica,SRR9117240.103733,100.00,37,0,0,1,37,250,214,2e-12,69.4
SONDA_E_E_xenobiotica,SRR9117240.103733,100.00,37,0,0,1,37,413,449,2e-12,69.4
SONDA_E_E_xenobiotica,SRR9117240.103190,100.00,37,0,0,1,37,250,214,2e-12,69.4
SONDA_E_E_xenobiotica,SRR9117240.103190,100.00,37,0,0,1,37,413,449,2e-12,69.4
SONDA_E_E_xenobiotica,SRR9117240.103186,100.00,37,0,0,1,37,250,214,2e-12,69.4
SONDA_E_E_xenobiotica,SRR9117240.103186,100.00,37,0,0,1,37,413,449,2e-12,69.4
SONDA_E_E_xenobiotica,SRR9117240.102986,100.00,37,0,0,1,37,250,214,2e-12,69.4
SONDA_E_E_xenobiotica,SRR9117240.102986,100.00,37,0,0,1,37,413,449,2e-12,69.4
SONDA_E_E_xenobiotica,SRR9117240.102744,100.00,37,0,0,1,37,250,214,2e-12,69.4
SONDA_E_E_xenobiotica,SRR9117240.102744,100.00,37,0,0,1,37,413,449,2e-12,69.4
SONDA_E_E_xenobiotica,SRR9117240.102207,100.00,37,0,0,1,37,250,214,2e-12,69.4
SONDA_E_E_xenobiotica,SRR9117240.102207,100.00,31,0,0,7,37,418,448,5e-09,58.4
SONDA_E_E_xenobiotica,SRR9117240.102202,100.00,37,0,0,1,37,413,449,2e-12,69.4
SONDA_E_E_xenobiotica,SRR9117240.102070,100.00,37,0,0,1,37,250,214,2e-12,69.4
SONDA_E_E_xenobiotica,SRR9117240.102070,100.00,37,0,0,1,37,413,449,2e-12,69.4
SONDA_E_E_xenobiotica,SRR9117240.101431,100.00,37,0,0,1,37,250,214,2e-12,69.4
SONDA_E_E_xenobiotica,SRR9117240.101431,100.00,37,0,0,1,37,413,449,2e-12,69.4
SONDA_E_E_xenobiotica,SRR9117240.101101,100.00,37,0,0,1,37,250,214,2e-12,69.4
SONDA_E_E_xenobiotica,SRR9117240.101101,100.00,37,0,0,1,37,413,449,2e-12,69.4
SONDA_E_E_xenobiotica,SRR9117240.101068,100.00,37,0,0,1,37,250,214,2e-12,69.4
SONDA_E_E_xenobiotica,SRR9117240.101068,100.00,37,0,0,1,37,413,449,2e-12,69.4
SONDA_E_E_xenobiotica,SRR9117240.101065,100.00,37,0,0,1,37,250,214,2e-12,69.4
SONDA_E_E_xenobiotica,SRR9117240.101065,97.30,37,1,0,1,37,413,449,1e-10,63.9
SONDA_E_E_xenobiotica,SRR9117240.100672,100.00,37,0,0,1,37,250,214,2e-12,69.4
SONDA_E_E_xenobiotica,SRR9117240.100672,100.00,37,0,0,1,37,413,449,2e-12,69.4
SONDA_E_E_xenobiotica,SRR9117240.99934,100.00,37,0,0,1,37,250,214,2e-12,69.4
SONDA_E_E_xenobiotica,SRR9117240.99934,100.00,37,0,0,1,37,413,449,2e-12,69.4
SONDA_E_E_xenobiotica,SRR9117240.99781,100.00,37,0,0,1,37,250,214,2e-12,69.4
SONDA_E_E_xenobiotica,SRR9117240.99781,100.00,37,0,0,1,37,413,449,2e-12,69.4
SONDA_E_E_xenobiotica,SRR9117240.99472,100.00,37,0,0,1,37,250,214,2e-12,69.4
SONDA_E_E_xenobiotica,SRR9117240.99472,100.00,37,0,0,1,37,413,449,2e-12,69.4
SONDA_E_E_xenobiotica,SRR9117240.99358,100.00,37,0,0,1,37,249,213,2e-12,69.4
SONDA_E_E_xenobiotica,SRR9117240.99358,100.00,37,0,0,1,37,413,449,2e-12,69.4
SONDA_E_E_xenobiotica,SRR9117240.99267,100.00,37,0,0,1,37,413,449,2e-12,69.4
SONDA_E_E_xenobiotica,SRR9117240.99267,100.00,36,0,0,2,37,249,214,8e-12,67.6
SONDA_E_E_xenobiotica,SRR9117240.98930,100.00,37,0,0,1,37,250,214,2e-12,69.4
SONDA_E_E_xenobiotica,SRR9117240.98930,100.00,37,0,0,1,37,413,449,2e-12,69.4
SONDA_E_E_xenobiotica,SRR9117240.98891,100.00,37,0,0,1,37,250,214,2e-12,69.4
SONDA_E_E_xenobiotica,SRR9117240.98891,100.00,37,0,0,1,37,413,449,2e-12,69.4
SONDA_E_E_xenobiotica,SRR9117240.98514,100.00,37,0,0,1,37,250,214,2e-12,69.4
SONDA_E_E_xenobiotica,SRR9117240.98514,100.00,37,0,0,1,37,413,449,2e-12,69.4
SONDA_E_E_xenobiotica,SRR9117240.98441,100.00,37,0,0,1,37,250,214,2e-12,69.4
SONDA_E_E_xenobiotica,SRR9117240.98441,100.00,37,0,0,1,37,413,449,2e-12,69.4
SONDA_E_E_xenobiotica,SRR9117240.97154,100.00,37,0,0,1,37,250,214,2e-12,69.4
SONDA_E_E_xenobiotica,SRR9117240.97154,100.00,37,0,0,1,37,413,449,2e-12,69.4
SONDA_E_E_xenobiotica,SRR9117240.96897,100.00,37,0,0,1,37,250,214,2e-12,69.4
SONDA_E_E_xenobiotica,SRR9117240.96897,100.00,37,0,0,1,37,413,449,2e-12,69.4
SONDA_E_E_xenobiotica,SRR9117240.96861,100.00,37,0,0,1,37,250,214,2e-12,69.4
SONDA_E_E_xenobiotica,SRR9117240.96861,100.00,37,0,0,1,37,413,449,2e-12,69.4
SONDA_E_E_xenobiotica,SRR9117240.96445,100.00,37,0,0,1,37,250,214,2e-12,69.4
SONDA_E_E_xenobiotica,SRR9117240.96445,100.00,37,0,0,1,37,413,449,2e-12,69.4
SONDA_E_E_xenobiotica,SRR9117240.96035,100.00,37,0,0,1,37,413,449,2e-12,69.4
SONDA_E_E_xenobiotica,SRR9117240.96035,100.00,34,0,0,4,37,247,214,1e-10,63.9
SONDA_E_E_xenobiotica,SRR9117240.95736,100.00,37,0,0,1,37,250,214,2e-12,69.4
SONDA_E_E_xenobiotica,SRR9117240.95736,100.00,37,0,0,1,37,413,449,2e-12,69.4
SONDA_E_E_xenobiotica,SRR9117240.94579,100.00,37,0,0,1,37,250,214,2e-12,69.4
SONDA_E_E_xenobiotica,SRR9117240.94579,100.00,37,0,0,1,37,413,449,2e-12,69.4
SONDA_E_E_xenobiotica,SRR9117240.94573,100.00,37,0,0,1,37,250,214,2e-12,69.4
SONDA_E_E_xenobiotica,SRR9117240.94573,100.00,37,0,0,1,37,413,449,2e-12,69.4
SONDA_E_E_xenobiotica,SRR9117240.94064,100.00,37,0,0,1,37,250,214,2e-12,69.4
SONDA_E_E_xenobiotica,SRR9117240.94064,100.00,37,0,0,1,37,413,449,2e-12,69.4
SONDA_E_E_xenobiotica,SRR9117240.93705,100.00,37,0,0,1,37,250,214,2e-12,69.4
SONDA_E_E_xenobiotica,SRR9117240.93705,100.00,37,0,0,1,37,413,449,2e-12,69.4
SONDA_E_E_xenobiotica,SRR9117240.93413,100.00,37,0,0,1,37,250,214,2e-12,69.4
SONDA_E_E_xenobiotica,SRR9117240.93413,100.00,37,0,0,1,37,413,449,2e-12,69.4
SONDA_E_E_xenobiotica,SRR9117240.93050,100.00,37,0,0,1,37,250,214,2e-12,69.4
SONDA_E_E_xenobiotica,SRR9117240.93050,100.00,37,0,0,1,37,413,449,2e-12,69.4
SONDA_E_E_xenobiotica,SRR9117240.92814,100.00,37,0,0,1,37,250,214,2e-12,69.4
SONDA_E_E_xenobiotica,SRR9117240.92814,100.00,37,0,0,1,37,413,449,2e-12,69.4
SONDA_E_E_xenobiotica,SRR9117240.92780,100.00,37,0,0,1,37,250,214,2e-12,69.4
SONDA_E_E_xenobiotica,SRR9117240.92780,100.00,37,0,0,1,37,413,449,2e-12,69.4
SONDA_E_E_xenobiotica,SRR9117240.92611,100.00,37,0,0,1,37,250,214,2e-12,69.4
SONDA_E_E_xenobiotica,SRR9117240.92611,100.00,37,0,0,1,37,413,449,2e-12,69.4
SONDA_E_E_xenobiotica,SRR9117240.92227,100.00,37,0,0,1,37,250,214,2e-12,69.4
SONDA_E_E_xenobiotica,SRR9117240.92227,100.00,37,0,0,1,37,413,449,2e-12,69.4
SONDA_E_E_xenobiotica,SRR9117240.92082,100.00,37,0,0,1,37,250,214,2e-12,69.4
SONDA_E_E_xenobiotica,SRR9117240.92082,100.00,37,0,0,1,37,413,449,2e-12,69.4
SONDA_E_E_xenobiotica,SRR9117240.91764,100.00,37,0,0,1,37,250,214,2e-12,69.4
SONDA_E_E_xenobiotica,SRR9117240.91764,100.00,37,0,0,1,37,413,449,2e-12,69.4
SONDA_E_E_xenobiotica,SRR9117240.91138,100.00,37,0,0,1,37,250,214,2e-12,69.4
SONDA_E_E_xenobiotica,SRR9117240.91138,100.00,37,0,0,1,37,413,449,2e-12,69.4
SONDA_E_E_xenobiotica,SRR9117240.91115,100.00,37,0,0,1,37,413,449,2e-12,69.4
SONDA_E_E_xenobiotica,SRR9117240.91115,100.00,35,0,0,1,35,250,216,3e-11,65.8
SONDA_E_E_xenobiotica,SRR9117240.90852,100.00,37,0,0,1,37,250,214,2e-12,69.4
SONDA_E_E_xenobiotica,SRR9117240.90852,100.00,37,0,0,1,37,413,449,2e-12,69.4
SONDA_E_E_xenobiotica,SRR9117240.90723,100.00,37,0,0,1,37,250,214,2e-12,69.4
SONDA_E_E_xenobiotica,SRR9117240.90723,100.00,37,0,0,1,37,413,449,2e-12,69.4
SONDA_E_E_xenobiotica,SRR9117240.90074,100.00,37,0,0,1,37,250,214,2e-12,69.4
SONDA_E_E_xenobiotica,SRR9117240.90074,100.00,37,0,0,1,37,413,449,2e-12,69.4
SONDA_E_E_xenobiotica,SRR9117240.90047,100.00,37,0,0,1,37,250,214,2e-12,69.4
SONDA_E_E_xenobiotica,SRR9117240.90047,100.00,37,0,0,1,37,413,449,2e-12,69.4
SONDA_E_E_xenobiotica,SRR9117240.89441,100.00,37,0,0,1,37,250,214,2e-12,69.4
SONDA_E_E_xenobiotica,SRR9117240.89441,100.00,37,0,0,1,37,413,449,2e-12,69.4
SONDA_E_E_xenobiotica,SRR9117240.89412,100.00,37,0,0,1,37,250,214,2e-12,69.4
SONDA_E_E_xenobiotica,SRR9117240.89412,100.00,37,0,0,1,37,413,449,2e-12,69.4
SONDA_E_E_xenobiotica,SRR9117240.88879,100.00,37,0,0,1,37,413,449,2e-12,69.4
SONDA_E_E_xenobiotica,SRR9117240.88867,100.00,37,0,0,1,37,250,214,2e-12,69.4
SONDA_E_E_xenobiotica,SRR9117240.88867,100.00,37,0,0,1,37,413,449,2e-12,69.4
SONDA_E_E_xenobiotica,SRR9117240.88694,100.00,37,0,0,1,37,250,214,2e-12,69.4
SONDA_E_E_xenobiotica,SRR9117240.88694,100.00,37,0,0,1,37,413,449,2e-12,69.4
SONDA_E_E_xenobiotica,SRR9117240.88159,100.00,37,0,0,1,37,250,214,2e-12,69.4
SONDA_E_E_xenobiotica,SRR9117240.88159,100.00,37,0,0,1,37,413,449,2e-12,69.4
SONDA_E_E_xenobiotica,SRR9117240.88053,100.00,37,0,0,1,37,250,214,2e-12,69.4
SONDA_E_E_xenobiotica,SRR9117240.88053,100.00,37,0,0,1,37,413,449,2e-12,69.4
SONDA_E_E_xenobiotica,SRR9117240.87969,100.00,37,0,0,1,37,250,214,2e-12,69.4
SONDA_E_E_xenobiotica,SRR9117240.87969,97.30,37,1,0,1,37,413,449,1e-10,63.9
SONDA_E_E_xenobiotica,SRR9117240.87948,100.00,37,0,0,1,37,250,214,2e-12,69.4
SONDA_E_E_xenobiotica,SRR9117240.87948,100.00,37,0,0,1,37,413,449,2e-12,69.4
SONDA_E_E_xenobiotica,SRR9117240.87715,100.00,37,0,0,1,37,250,214,2e-12,69.4
SONDA_E_E_xenobiotica,SRR9117240.87715,100.00,37,0,0,1,37,413,449,2e-12,69.4
SONDA_E_E_xenobiotica,SRR9117240.87404,100.00,37,0,0,1,37,249,213,2e-12,69.4
SONDA_E_E_xenobiotica,SRR9117240.87096,100.00,37,0,0,1,37,250,214,2e-12,69.4
SONDA_E_E_xenobiotica,SRR9117240.87096,100.00,37,0,0,1,37,413,449,2e-12,69.4
SONDA_E_E_xenobiotica,SRR9117240.86965,100.00,37,0,0,1,37,250,214,2e-12,69.4
SONDA_E_E_xenobiotica,SRR9117240.86965,100.00,37,0,0,1,37,413,449,2e-12,69.4
SONDA_E_E_xenobiotica,SRR9117240.86626,100.00,37,0,0,1,37,250,214,2e-12,69.4
SONDA_E_E_xenobiotica,SRR9117240.86626,100.00,37,0,0,1,37,413,449,2e-12,69.4
SONDA_E_E_xenobiotica,SRR9117240.86176,100.00,37,0,0,1,37,250,214,2e-12,69.4
SONDA_E_E_xenobiotica,SRR9117240.86176,97.30,37,1,0,1,37,413,449,1e-10,63.9
SONDA_E_E_xenobiotica,SRR9117240.85663,100.00,37,0,0,1,37,413,449,2e-12,69.4
SONDA_E_E_xenobiotica,SRR9117240.85663,97.30,37,1,0,1,37,250,214,1e-10,63.9
SONDA_E_E_xenobiotica,SRR9117240.85285,100.00,37,0,0,1,37,250,214,2e-12,69.4
SONDA_E_E_xenobiotica,SRR9117240.85285,100.00,37,0,0,1,37,413,449,2e-12,69.4
SONDA_E_E_xenobiotica,SRR9117240.85247,100.00,37,0,0,1,37,250,214,2e-12,69.4
SONDA_E_E_xenobiotica,SRR9117240.85247,100.00,37,0,0,1,37,413,449,2e-12,69.4
SONDA_E_E_xenobiotica,SRR9117240.84302,100.00,37,0,0,1,37,250,214,2e-12,69.4
SONDA_E_E_xenobiotica,SRR9117240.84302,97.30,37,1,0,1,37,413,449,1e-10,63.9
SONDA_E_E_xenobiotica,SRR9117240.83797,100.00,37,0,0,1,37,250,214,2e-12,69.4
SONDA_E_E_xenobiotica,SRR9117240.83797,100.00,37,0,0,1,37,413,449,2e-12,69.4
SONDA_E_E_xenobiotica,SRR9117240.83552,100.00,37,0,0,1,37,250,214,2e-12,69.4
SONDA_E_E_xenobiotica,SRR9117240.83552,100.00,37,0,0,1,37,413,449,2e-12,69.4
SONDA_E_E_xenobiotica,SRR9117240.83141,100.00,37,0,0,1,37,250,214,2e-12,69.4
SONDA_E_E_xenobiotica,SRR9117240.83141,100.00,37,0,0,1,37,413,449,2e-12,69.4
SONDA_E_E_xenobiotica,SRR9117240.82684,100.00,37,0,0,1,37,250,214,2e-12,69.4
SONDA_E_E_xenobiotica,SRR9117240.82684,100.00,37,0,0,1,37,413,449,2e-12,69.4
SONDA_E_E_xenobiotica,SRR9117240.82086,100.00,37,0,0,1,37,250,214,2e-12,69.4
SONDA_E_E_xenobiotica,SRR9117240.82086,100.00,37,0,0,1,37,413,449,2e-12,69.4
SONDA_E_E_xenobiotica,SRR9117240.81186,100.00,37,0,0,1,37,250,214,2e-12,69.4
SONDA_E_E_xenobiotica,SRR9117240.81186,100.00,37,0,0,1,37,413,449,2e-12,69.4
SONDA_E_E_xenobiotica,SRR9117240.81063,100.00,37,0,0,1,37,250,214,2e-12,69.4
SONDA_E_E_xenobiotica,SRR9117240.81063,100.00,37,0,0,1,37,413,449,2e-12,69.4
SONDA_E_E_xenobiotica,SRR9117240.80230,100.00,37,0,0,1,37,250,214,2e-12,69.4
SONDA_E_E_xenobiotica,SRR9117240.80230,100.00,37,0,0,1,37,413,449,2e-12,69.4
SONDA_E_E_xenobiotica,SRR9117240.80212,100.00,37,0,0,1,37,250,214,2e-12,69.4
SONDA_E_E_xenobiotica,SRR9117240.80212,100.00,37,0,0,1,37,413,449,2e-12,69.4
SONDA_E_E_xenobiotica,SRR9117240.78832,100.00,37,0,0,1,37,250,214,2e-12,69.4
SONDA_E_E_xenobiotica,SRR9117240.78832,100.00,37,0,0,1,37,413,449,2e-12,69.4
SONDA_E_E_xenobiotica,SRR9117240.77851,100.00,37,0,0,1,37,250,214,2e-12,69.4
SONDA_E_E_xenobiotica,SRR9117240.77851,100.00,37,0,0,1,37,413,449,2e-12,69.4
SONDA_E_E_xenobiotica,SRR9117240.77618,100.00,37,0,0,1,37,250,214,2e-12,69.4
SONDA_E_E_xenobiotica,SRR9117240.77618,100.00,37,0,0,1,37,413,449,2e-12,69.4
SONDA_E_E_xenobiotica,SRR9117240.77498,100.00,37,0,0,1,37,250,214,2e-12,69.4
SONDA_E_E_xenobiotica,SRR9117240.77498,100.00,37,0,0,1,37,413,449,2e-12,69.4
SONDA_E_E_xenobiotica,SRR9117240.76962,100.00,37,0,0,1,37,250,214,2e-12,69.4
SONDA_E_E_xenobiotica,SRR9117240.76962,100.00,37,0,0,1,37,413,449,2e-12,69.4
SONDA_E_E_xenobiotica,SRR9117240.76055,100.00,37,0,0,1,37,250,214,2e-12,69.4
SONDA_E_E_xenobiotica,SRR9117240.76055,100.00,37,0,0,1,37,413,449,2e-12,69.4
SONDA_E_E_xenobiotica,SRR9117240.75432,100.00,37,0,0,1,37,250,214,2e-12,69.4
SONDA_E_E_xenobiotica,SRR9117240.75432,100.00,37,0,0,1,37,413,449,2e-12,69.4
SONDA_E_E_xenobiotica,SRR9117240.75278,100.00,37,0,0,1,37,250,214,2e-12,69.4
SONDA_E_E_xenobiotica,SRR9117240.75278,100.00,37,0,0,1,37,413,449,2e-12,69.4
SONDA_E_E_xenobiotica,SRR9117240.75207,100.00,37,0,0,1,37,250,214,2e-12,69.4
SONDA_E_E_xenobiotica,SRR9117240.75207,100.00,37,0,0,1,37,413,449,2e-12,69.4
SONDA_E_E_xenobiotica,SRR9117240.75081,100.00,37,0,0,1,37,250,214,2e-12,69.4
SONDA_E_E_xenobiotica,SRR9117240.75081,100.00,37,0,0,1,37,413,449,2e-12,69.4
SONDA_E_E_xenobiotica,SRR9117240.73866,100.00,37,0,0,1,37,250,214,2e-12,69.4
SONDA_E_E_xenobiotica,SRR9117240.73866,100.00,37,0,0,1,37,413,449,2e-12,69.4
SONDA_E_E_xenobiotica,SRR9117240.73414,100.00,37,0,0,1,37,250,214,2e-12,69.4
SONDA_E_E_xenobiotica,SRR9117240.72501,100.00,37,0,0,1,37,250,214,2e-12,69.4
SONDA_E_E_xenobiotica,SRR9117240.72501,100.00,37,0,0,1,37,413,449,2e-12,69.4
SONDA_E_E_xenobiotica,SRR9117240.72492,100.00,37,0,0,1,37,413,449,2e-12,69.4
SONDA_E_E_xenobiotica,SRR9117240.72490,100.00,37,0,0,1,37,250,214,2e-12,69.4
SONDA_E_E_xenobiotica,SRR9117240.72490,100.00,37,0,0,1,37,413,449,2e-12,69.4
SONDA_E_E_xenobiotica,SRR9117240.72273,100.00,37,0,0,1,37,250,214,2e-12,69.4
SONDA_E_E_xenobiotica,SRR9117240.72273,100.00,37,0,0,1,37,413,449,2e-12,69.4
SONDA_E_E_xenobiotica,SRR9117240.72260,100.00,37,0,0,1,37,250,214,2e-12,69.4
SONDA_E_E_xenobiotica,SRR9117240.72260,100.00,37,0,0,1,37,413,449,2e-12,69.4
SONDA_E_E_xenobiotica,SRR9117240.72172,100.00,37,0,0,1,37,250,214,2e-12,69.4
SONDA_E_E_xenobiotica,SRR9117240.72172,100.00,37,0,0,1,37,413,449,2e-12,69.4
SONDA_E_E_xenobiotica,SRR9117240.72093,100.00,37,0,0,1,37,250,214,2e-12,69.4
SONDA_E_E_xenobiotica,SRR9117240.72093,100.00,37,0,0,1,37,413,449,2e-12,69.4
SONDA_E_E_xenobiotica,SRR9117240.71634,100.00,37,0,0,1,37,250,214,2e-12,69.4
SONDA_E_E_xenobiotica,SRR9117240.71634,100.00,37,0,0,1,37,413,449,2e-12,69.4
SONDA_E_E_xenobiotica,SRR9117240.71601,100.00,37,0,0,1,37,250,214,2e-12,69.4
SONDA_E_E_xenobiotica,SRR9117240.71601,100.00,37,0,0,1,37,413,449,2e-12,69.4
SONDA_E_E_xenobiotica,SRR9117240.70820,100.00,37,0,0,1,37,250,214,2e-12,69.4
SONDA_E_E_xenobiotica,SRR9117240.70820,100.00,37,0,0,1,37,413,449,2e-12,69.4
SONDA_E_E_xenobiotica,SRR9117240.70750,100.00,37,0,0,1,37,250,214,2e-12,69.4
SONDA_E_E_xenobiotica,SRR9117240.70750,100.00,37,0,0,1,37,413,449,2e-12,69.4
SONDA_E_E_xenobiotica,SRR9117240.70374,100.00,37,0,0,1,37,250,214,2e-12,69.4
SONDA_E_E_xenobiotica,SRR9117240.70374,100.00,37,0,0,1,37,413,449,2e-12,69.4
SONDA_E_E_xenobiotica,SRR9117240.70047,100.00,37,0,0,1,37,250,214,2e-12,69.4
SONDA_E_E_xenobiotica,SRR9117240.70047,100.00,37,0,0,1,37,413,449,2e-12,69.4
SONDA_E_E_xenobiotica,SRR9117240.69494,100.00,37,0,0,1,37,250,214,2e-12,69.4
SONDA_E_E_xenobiotica,SRR9117240.69494,97.14,35,1,0,3,37,415,449,1e-09,60.2
SONDA_E_E_xenobiotica,SRR9117240.69472,100.00,37,0,0,1,37,250,214,2e-12,69.4
SONDA_E_E_xenobiotica,SRR9117240.69472,100.00,37,0,0,1,37,413,449,2e-12,69.4
SONDA_E_E_xenobiotica,SRR9117240.69214,100.00,37,0,0,1,37,250,214,2e-12,69.4
SONDA_E_E_xenobiotica,SRR9117240.69214,100.00,37,0,0,1,37,413,449,2e-12,69.4
SONDA_E_E_xenobiotica,SRR9117240.69122,100.00,37,0,0,1,37,250,214,2e-12,69.4
SONDA_E_E_xenobiotica,SRR9117240.68939,100.00,37,0,0,1,37,250,214,2e-12,69.4
SONDA_E_E_xenobiotica,SRR9117240.68939,100.00,37,0,0,1,37,413,449,2e-12,69.4
SONDA_E_E_xenobiotica,SRR9117240.67919,100.00,37,0,0,1,37,413,449,2e-12,69.4
SONDA_E_E_xenobiotica,SRR9117240.67919,100.00,35,0,0,3,37,248,214,3e-11,65.8
SONDA_E_E_xenobiotica,SRR9117240.67504,100.00,37,0,0,1,37,250,214,2e-12,69.4
SONDA_E_E_xenobiotica,SRR9117240.67504,100.00,37,0,0,1,37,413,449,2e-12,69.4
SONDA_E_E_xenobiotica,SRR9117240.67255,100.00,37,0,0,1,37,250,214,2e-12,69.4
SONDA_E_E_xenobiotica,SRR9117240.67255,100.00,37,0,0,1,37,413,449,2e-12,69.4
SONDA_E_E_xenobiotica,SRR9117240.67208,100.00,37,0,0,1,37,413,449,2e-12,69.4
SONDA_E_E_xenobiotica,SRR9117240.67199,100.00,37,0,0,1,37,250,214,2e-12,69.4
SONDA_E_E_xenobiotica,SRR9117240.67199,100.00,37,0,0,1,37,413,449,2e-12,69.4
SONDA_E_E_xenobiotica,SRR9117240.67133,100.00,37,0,0,1,37,250,214,2e-12,69.4
SONDA_E_E_xenobiotica,SRR9117240.67133,100.00,37,0,0,1,37,413,449,2e-12,69.4
SONDA_E_E_xenobiotica,SRR9117240.66736,100.00,37,0,0,1,37,250,214,2e-12,69.4
SONDA_E_E_xenobiotica,SRR9117240.66736,100.00,37,0,0,1,37,413,449,2e-12,69.4
SONDA_E_E_xenobiotica,SRR9117240.66673,100.00,37,0,0,1,37,250,214,2e-12,69.4
SONDA_E_E_xenobiotica,SRR9117240.66673,100.00,37,0,0,1,37,413,449,2e-12,69.4
SONDA_E_E_xenobiotica,SRR9117240.66403,100.00,37,0,0,1,37,250,214,2e-12,69.4
SONDA_E_E_xenobiotica,SRR9117240.66403,100.00,37,0,0,1,37,413,449,2e-12,69.4
SONDA_E_E_xenobiotica,SRR9117240.66221,100.00,37,0,0,1,37,250,214,2e-12,69.4
SONDA_E_E_xenobiotica,SRR9117240.66221,100.00,37,0,0,1,37,413,449,2e-12,69.4
SONDA_E_E_xenobiotica,SRR9117240.65658,100.00,37,0,0,1,37,413,449,2e-12,69.4
SONDA_E_E_xenobiotica,SRR9117240.65658,100.00,35,0,0,1,35,250,216,3e-11,65.8
SONDA_E_E_xenobiotica,SRR9117240.65251,100.00,37,0,0,1,37,250,214,2e-12,69.4
SONDA_E_E_xenobiotica,SRR9117240.65251,100.00,37,0,0,1,37,413,449,2e-12,69.4
SONDA_E_E_xenobiotica,SRR9117240.64690,100.00,37,0,0,1,37,250,214,2e-12,69.4
SONDA_E_E_xenobiotica,SRR9117240.64690,100.00,37,0,0,1,37,413,449,2e-12,69.4
SONDA_E_E_xenobiotica,SRR9117240.64579,100.00,37,0,0,1,37,250,214,2e-12,69.4
SONDA_E_E_xenobiotica,SRR9117240.64579,100.00,37,0,0,1,37,413,449,2e-12,69.4
SONDA_E_E_xenobiotica,SRR9117240.64535,100.00,37,0,0,1,37,250,214,2e-12,69.4
SONDA_E_E_xenobiotica,SRR9117240.64535,100.00,37,0,0,1,37,413,449,2e-12,69.4
SONDA_E_E_xenobiotica,SRR9117240.64384,100.00,37,0,0,1,37,250,214,2e-12,69.4
SONDA_E_E_xenobiotica,SRR9117240.64384,100.00,37,0,0,1,37,413,449,2e-12,69.4
SONDA_E_E_xenobiotica,SRR9117240.64190,100.00,37,0,0,1,37,250,214,2e-12,69.4
SONDA_E_E_xenobiotica,SRR9117240.64190,100.00,37,0,0,1,37,413,449,2e-12,69.4
SONDA_E_E_xenobiotica,SRR9117240.64169,100.00,37,0,0,1,37,250,214,2e-12,69.4
SONDA_E_E_xenobiotica,SRR9117240.64169,100.00,37,0,0,1,37,412,448,2e-12,69.4
SONDA_E_E_xenobiotica,SRR9117240.64161,100.00,37,0,0,1,37,250,214,2e-12,69.4
SONDA_E_E_xenobiotica,SRR9117240.64161,100.00,37,0,0,1,37,413,449,2e-12,69.4
SONDA_E_E_xenobiotica,SRR9117240.63633,100.00,37,0,0,1,37,249,213,2e-12,69.4
SONDA_E_E_xenobiotica,SRR9117240.63633,100.00,37,0,0,1,37,413,449,2e-12,69.4
SONDA_E_E_xenobiotica,SRR9117240.63577,100.00,37,0,0,1,37,413,449,2e-12,69.4
SONDA_E_E_xenobiotica,SRR9117240.63577,100.00,34,0,0,1,34,250,217,1e-10,63.9
SONDA_E_E_xenobiotica,SRR9117240.63438,100.00,37,0,0,1,37,250,214,2e-12,69.4
SONDA_E_E_xenobiotica,SRR9117240.63438,100.00,37,0,0,1,37,413,449,2e-12,69.4
SONDA_E_E_xenobiotica,SRR9117240.63322,100.00,37,0,0,1,37,250,214,2e-12,69.4
SONDA_E_E_xenobiotica,SRR9117240.63322,100.00,37,0,0,1,37,413,449,2e-12,69.4
SONDA_E_E_xenobiotica,SRR9117240.61730,100.00,37,0,0,1,37,250,214,2e-12,69.4
SONDA_E_E_xenobiotica,SRR9117240.61730,100.00,37,0,0,1,37,413,449,2e-12,69.4
SONDA_E_E_xenobiotica,SRR9117240.61068,100.00,37,0,0,1,37,250,214,2e-12,69.4
SONDA_E_E_xenobiotica,SRR9117240.61068,100.00,37,0,0,1,37,413,449,2e-12,69.4
SONDA_E_E_xenobiotica,SRR9117240.61055,100.00,37,0,0,1,37,250,214,2e-12,69.4
SONDA_E_E_xenobiotica,SRR9117240.61055,100.00,37,0,0,1,37,413,449,2e-12,69.4
SONDA_E_E_xenobiotica,SRR9117240.61029,100.00,37,0,0,1,37,250,214,2e-12,69.4
SONDA_E_E_xenobiotica,SRR9117240.61029,100.00,37,0,0,1,37,413,449,2e-12,69.4
SONDA_E_E_xenobiotica,SRR9117240.60853,100.00,37,0,0,1,37,250,214,2e-12,69.4
SONDA_E_E_xenobiotica,SRR9117240.60853,100.00,37,0,0,1,37,413,449,2e-12,69.4
SONDA_E_E_xenobiotica,SRR9117240.60841,100.00,37,0,0,1,37,250,214,2e-12,69.4
SONDA_E_E_xenobiotica,SRR9117240.60841,100.00,37,0,0,1,37,413,449,2e-12,69.4
SONDA_E_E_xenobiotica,SRR9117240.60403,100.00,37,0,0,1,37,250,214,2e-12,69.4
SONDA_E_E_xenobiotica,SRR9117240.60403,97.30,37,1,0,1,37,413,449,1e-10,63.9
SONDA_E_E_xenobiotica,SRR9117240.60152,100.00,37,0,0,1,37,250,214,2e-12,69.4
SONDA_E_E_xenobiotica,SRR9117240.60152,100.00,37,0,0,1,37,413,449,2e-12,69.4
SONDA_E_E_xenobiotica,SRR9117240.60069,100.00,37,0,0,1,37,250,214,2e-12,69.4
SONDA_E_E_xenobiotica,SRR9117240.60069,100.00,37,0,0,1,37,413,449,2e-12,69.4
SONDA_E_E_xenobiotica,SRR9117240.59884,100.00,37,0,0,1,37,250,214,2e-12,69.4
SONDA_E_E_xenobiotica,SRR9117240.59884,100.00,37,0,0,1,37,413,449,2e-12,69.4
SONDA_E_E_xenobiotica,SRR9117240.59709,100.00,37,0,0,1,37,250,214,2e-12,69.4
SONDA_E_E_xenobiotica,SRR9117240.59709,100.00,37,0,0,1,37,413,449,2e-12,69.4
SONDA_E_E_xenobiotica,SRR9117240.59387,100.00,37,0,0,1,37,250,214,2e-12,69.4
SONDA_E_E_xenobiotica,SRR9117240.59387,100.00,37,0,0,1,37,413,449,2e-12,69.4
SONDA_E_E_xenobiotica,SRR9117240.59247,100.00,37,0,0,1,37,250,214,2e-12,69.4
SONDA_E_E_xenobiotica,SRR9117240.59247,100.00,37,0,0,1,37,413,449,2e-12,69.4
SONDA_E_E_xenobiotica,SRR9117240.58796,100.00,37,0,0,1,37,250,214,2e-12,69.4
SONDA_E_E_xenobiotica,SRR9117240.58796,100.00,37,0,0,1,37,413,449,2e-12,69.4
SONDA_E_E_xenobiotica,SRR9117240.58355,100.00,37,0,0,1,37,250,214,2e-12,69.4
SONDA_E_E_xenobiotica,SRR9117240.58355,100.00,37,0,0,1,37,413,449,2e-12,69.4
SONDA_E_E_xenobiotica,SRR9117240.58105,100.00,37,0,0,1,37,250,214,2e-12,69.4
SONDA_E_E_xenobiotica,SRR9117240.58105,100.00,37,0,0,1,37,413,449,2e-12,69.4
SONDA_E_E_xenobiotica,SRR9117240.57627,100.00,37,0,0,1,37,250,214,2e-12,69.4
SONDA_E_E_xenobiotica,SRR9117240.57627,100.00,37,0,0,1,37,413,449,2e-12,69.4
SONDA_E_E_xenobiotica,SRR9117240.57601,100.00,37,0,0,1,37,250,214,2e-12,69.4
SONDA_E_E_xenobiotica,SRR9117240.57601,100.00,37,0,0,1,37,413,449,2e-12,69.4
SONDA_E_E_xenobiotica,SRR9117240.57393,100.00,37,0,0,1,37,413,449,2e-12,69.4
SONDA_E_E_xenobiotica,SRR9117240.56644,100.00,37,0,0,1,37,250,214,2e-12,69.4
SONDA_E_E_xenobiotica,SRR9117240.56644,100.00,37,0,0,1,37,413,449,2e-12,69.4
SONDA_E_E_xenobiotica,SRR9117240.56465,100.00,37,0,0,1,37,250,214,2e-12,69.4
SONDA_E_E_xenobiotica,SRR9117240.56465,100.00,37,0,0,1,37,413,449,2e-12,69.4
SONDA_E_E_xenobiotica,SRR9117240.56050,100.00,37,0,0,1,37,250,214,2e-12,69.4
SONDA_E_E_xenobiotica,SRR9117240.56050,100.00,37,0,0,1,37,413,449,2e-12,69.4
SONDA_E_E_xenobiotica,SRR9117240.55840,100.00,37,0,0,1,37,250,214,2e-12,69.4
SONDA_E_E_xenobiotica,SRR9117240.55840,100.00,37,0,0,1,37,413,449,2e-12,69.4
SONDA_E_E_xenobiotica,SRR9117240.55837,100.00,37,0,0,1,37,250,214,2e-12,69.4
SONDA_E_E_xenobiotica,SRR9117240.55837,100.00,37,0,0,1,37,392,428,2e-12,69.4
SONDA_E_E_xenobiotica,SRR9117240.55253,100.00,37,0,0,1,37,250,214,2e-12,69.4
SONDA_E_E_xenobiotica,SRR9117240.55253,100.00,37,0,0,1,37,413,449,2e-12,69.4
SONDA_E_E_xenobiotica,SRR9117240.54856,100.00,37,0,0,1,37,250,214,2e-12,69.4
SONDA_E_E_xenobiotica,SRR9117240.54856,100.00,37,0,0,1,37,413,449,2e-12,69.4
SONDA_E_E_xenobiotica,SRR9117240.54503,100.00,37,0,0,1,37,250,214,2e-12,69.4
SONDA_E_E_xenobiotica,SRR9117240.54272,100.00,37,0,0,1,37,250,214,2e-12,69.4
SONDA_E_E_xenobiotica,SRR9117240.54272,100.00,37,0,0,1,37,413,449,2e-12,69.4
SONDA_E_E_xenobiotica,SRR9117240.52905,100.00,37,0,0,1,37,250,214,2e-12,69.4
SONDA_E_E_xenobiotica,SRR9117240.52905,100.00,37,0,0,1,37,413,449,2e-12,69.4
SONDA_E_E_xenobiotica,SRR9117240.52865,100.00,37,0,0,1,37,250,214,2e-12,69.4
SONDA_E_E_xenobiotica,SRR9117240.52865,100.00,37,0,0,1,37,413,449,2e-12,69.4
SONDA_E_E_xenobiotica,SRR9117240.51828,100.00,37,0,0,1,37,413,449,2e-12,69.4
SONDA_E_E_xenobiotica,SRR9117240.51714,100.00,37,0,0,1,37,250,214,2e-12,69.4
SONDA_E_E_xenobiotica,SRR9117240.51714,100.00,37,0,0,1,37,413,449,2e-12,69.4
SONDA_E_E_xenobiotica,SRR9117240.51660,100.00,37,0,0,1,37,249,213,2e-12,69.4
SONDA_E_E_xenobiotica,SRR9117240.51660,100.00,37,0,0,1,37,413,449,2e-12,69.4
SONDA_E_E_xenobiotica,SRR9117240.51622,100.00,37,0,0,1,37,250,214,2e-12,69.4
SONDA_E_E_xenobiotica,SRR9117240.51622,100.00,37,0,0,1,37,413,449,2e-12,69.4
SONDA_E_E_xenobiotica,SRR9117240.50851,100.00,37,0,0,1,37,250,214,2e-12,69.4
SONDA_E_E_xenobiotica,SRR9117240.50851,100.00,37,0,0,1,37,413,449,2e-12,69.4
SONDA_E_E_xenobiotica,SRR9117240.50664,100.00,37,0,0,1,37,250,214,2e-12,69.4
SONDA_E_E_xenobiotica,SRR9117240.50664,100.00,37,0,0,1,37,413,449,2e-12,69.4
SONDA_E_E_xenobiotica,SRR9117240.50151,100.00,37,0,0,1,37,250,214,2e-12,69.4
SONDA_E_E_xenobiotica,SRR9117240.50151,100.00,37,0,0,1,37,413,449,2e-12,69.4
SONDA_E_E_xenobiotica,SRR9117240.49581,100.00,37,0,0,1,37,250,214,2e-12,69.4
SONDA_E_E_xenobiotica,SRR9117240.49581,100.00,37,0,0,1,37,413,449,2e-12,69.4
SONDA_E_E_xenobiotica,SRR9117240.48149,100.00,37,0,0,1,37,250,214,2e-12,69.4
SONDA_E_E_xenobiotica,SRR9117240.48149,100.00,37,0,0,1,37,413,449,2e-12,69.4
SONDA_E_E_xenobiotica,SRR9117240.47726,100.00,37,0,0,1,37,250,214,2e-12,69.4
SONDA_E_E_xenobiotica,SRR9117240.47726,100.00,37,0,0,1,37,413,449,2e-12,69.4
SONDA_E_E_xenobiotica,SRR9117240.46887,100.00,37,0,0,1,37,250,214,2e-12,69.4
SONDA_E_E_xenobiotica,SRR9117240.46887,100.00,37,0,0,1,37,413,449,2e-12,69.4
SONDA_E_E_xenobiotica,SRR9117240.46494,100.00,37,0,0,1,37,250,214,2e-12,69.4
SONDA_E_E_xenobiotica,SRR9117240.46494,100.00,37,0,0,1,37,413,449,2e-12,69.4
SONDA_E_E_xenobiotica,SRR9117240.46012,100.00,37,0,0,1,37,250,214,2e-12,69.4
SONDA_E_E_xenobiotica,SRR9117240.46012,100.00,37,0,0,1,37,413,449,2e-12,69.4
SONDA_E_E_xenobiotica,SRR9117240.45846,100.00,37,0,0,1,37,250,214,2e-12,69.4
SONDA_E_E_xenobiotica,SRR9117240.45846,97.30,37,1,0,1,37,413,449,1e-10,63.9
SONDA_E_E_xenobiotica,SRR9117240.45521,100.00,37,0,0,1,37,250,214,2e-12,69.4
SONDA_E_E_xenobiotica,SRR9117240.45521,100.00,37,0,0,1,37,413,449,2e-12,69.4
SONDA_E_E_xenobiotica,SRR9117240.44424,100.00,37,0,0,1,37,250,214,2e-12,69.4
SONDA_E_E_xenobiotica,SRR9117240.44392,100.00,37,0,0,1,37,250,214,2e-12,69.4
SONDA_E_E_xenobiotica,SRR9117240.44392,100.00,37,0,0,1,37,413,449,2e-12,69.4
SONDA_E_E_xenobiotica,SRR9117240.44266,100.00,37,0,0,1,37,250,214,2e-12,69.4
SONDA_E_E_xenobiotica,SRR9117240.44266,100.00,37,0,0,1,37,413,449,2e-12,69.4
SONDA_E_E_xenobiotica,SRR9117240.44258,100.00,37,0,0,1,37,250,214,2e-12,69.4
SONDA_E_E_xenobiotica,SRR9117240.44258,100.00,37,0,0,1,37,413,449,2e-12,69.4
SONDA_E_E_xenobiotica,SRR9117240.42346,100.00,37,0,0,1,37,250,214,2e-12,69.4
SONDA_E_E_xenobiotica,SRR9117240.42346,100.00,37,0,0,1,37,413,449,2e-12,69.4
SONDA_E_E_xenobiotica,SRR9117240.41963,100.00,37,0,0,1,37,250,214,2e-12,69.4
SONDA_E_E_xenobiotica,SRR9117240.41963,100.00,37,0,0,1,37,413,449,2e-12,69.4
SONDA_E_E_xenobiotica,SRR9117240.40957,100.00,37,0,0,1,37,250,214,2e-12,69.4
SONDA_E_E_xenobiotica,SRR9117240.40957,100.00,37,0,0,1,37,413,449,2e-12,69.4
SONDA_E_E_xenobiotica,SRR9117240.39904,100.00,37,0,0,1,37,250,214,2e-12,69.4
SONDA_E_E_xenobiotica,SRR9117240.39904,100.00,37,0,0,1,37,398,434,2e-12,69.4
SONDA_E_E_xenobiotica,SRR9117240.39384,100.00,37,0,0,1,37,250,214,2e-12,69.4
SONDA_E_E_xenobiotica,SRR9117240.39384,100.00,37,0,0,1,37,413,449,2e-12,69.4
SONDA_E_E_xenobiotica,SRR9117240.39345,100.00,37,0,0,1,37,250,214,2e-12,69.4
SONDA_E_E_xenobiotica,SRR9117240.39345,100.00,37,0,0,1,37,413,449,2e-12,69.4
SONDA_E_E_xenobiotica,SRR9117240.39261,100.00,37,0,0,1,37,250,214,2e-12,69.4
SONDA_E_E_xenobiotica,SRR9117240.39261,100.00,37,0,0,1,37,413,449,2e-12,69.4
SONDA_E_E_xenobiotica,SRR9117240.38892,100.00,37,0,0,1,37,250,214,2e-12,69.4
SONDA_E_E_xenobiotica,SRR9117240.38892,100.00,37,0,0,1,37,413,449,2e-12,69.4
SONDA_E_E_xenobiotica,SRR9117240.38295,100.00,37,0,0,1,37,250,214,2e-12,69.4
SONDA_E_E_xenobiotica,SRR9117240.38295,100.00,37,0,0,1,37,413,449,2e-12,69.4
SONDA_E_E_xenobiotica,SRR9117240.38174,100.00,37,0,0,1,37,250,214,2e-12,69.4
SONDA_E_E_xenobiotica,SRR9117240.38174,100.00,37,0,0,1,37,413,449,2e-12,69.4
SONDA_E_E_xenobiotica,SRR9117240.37865,100.00,37,0,0,1,37,250,214,2e-12,69.4
SONDA_E_E_xenobiotica,SRR9117240.37865,100.00,37,0,0,1,37,413,449,2e-12,69.4
SONDA_E_E_xenobiotica,SRR9117240.37816,100.00,37,0,0,1,37,250,214,2e-12,69.4
SONDA_E_E_xenobiotica,SRR9117240.37816,100.00,37,0,0,1,37,413,449,2e-12,69.4
SONDA_E_E_xenobiotica,SRR9117240.37561,100.00,37,0,0,1,37,250,214,2e-12,69.4
SONDA_E_E_xenobiotica,SRR9117240.37561,100.00,37,0,0,1,37,413,449,2e-12,69.4
SONDA_E_E_xenobiotica,SRR9117240.37490,100.00,37,0,0,1,37,250,214,2e-12,69.4
SONDA_E_E_xenobiotica,SRR9117240.37490,100.00,37,0,0,1,37,413,449,2e-12,69.4
SONDA_E_E_xenobiotica,SRR9117240.37196,100.00,37,0,0,1,37,250,214,2e-12,69.4
SONDA_E_E_xenobiotica,SRR9117240.37196,100.00,37,0,0,1,37,413,449,2e-12,69.4
SONDA_E_E_xenobiotica,SRR9117240.36623,100.00,37,0,0,1,37,250,214,2e-12,69.4
SONDA_E_E_xenobiotica,SRR9117240.36623,100.00,37,0,0,1,37,413,449,2e-12,69.4
SONDA_E_E_xenobiotica,SRR9117240.35754,100.00,37,0,0,1,37,250,214,2e-12,69.4
SONDA_E_E_xenobiotica,SRR9117240.35754,97.30,37,1,0,1,37,413,449,1e-10,63.9
SONDA_E_E_xenobiotica,SRR9117240.34629,100.00,37,0,0,1,37,250,214,2e-12,69.4
SONDA_E_E_xenobiotica,SRR9117240.34629,100.00,37,0,0,1,37,413,449,2e-12,69.4
