SONDA_C_chaetospira,SRR8793787.46255,100.00,39,0,0,1,39,119,81,5e-14,73.1
SONDA_C_chaetospira,SRR8793787.46255,100.00,39,0,0,1,39,416,454,5e-14,73.1
SONDA_C_chaetospira,SRR8793787.44956,100.00,39,0,0,1,39,119,81,5e-14,73.1
SONDA_C_chaetospira,SRR8793787.44956,100.00,39,0,0,1,39,416,454,5e-14,73.1
SONDA_C_chaetospira,SRR8793787.43394,100.00,39,0,0,1,39,119,81,5e-14,73.1
SONDA_C_chaetospira,SRR8793787.40810,100.00,39,0,0,1,39,119,81,5e-14,73.1
SONDA_C_chaetospira,SRR8793787.40810,100.00,39,0,0,1,39,416,454,5e-14,73.1
SONDA_C_chaetospira,SRR8793787.40809,100.00,39,0,0,1,39,119,81,5e-14,73.1
SONDA_C_chaetospira,SRR8793787.38646,100.00,39,0,0,1,39,119,81,5e-14,73.1
SONDA_C_chaetospira,SRR8793787.38646,100.00,39,0,0,1,39,416,454,5e-14,73.1
SONDA_C_chaetospira,SRR8793787.35682,100.00,39,0,0,1,39,119,81,5e-14,73.1
SONDA_C_chaetospira,SRR8793787.35682,100.00,39,0,0,1,39,416,454,5e-14,73.1
SONDA_C_chaetospira,SRR8793787.35680,100.00,39,0,0,1,39,119,81,5e-14,73.1
SONDA_C_chaetospira,SRR8793787.35680,100.00,39,0,0,1,39,416,454,5e-14,73.1
SONDA_C_chaetospira,SRR8793787.33020,100.00,39,0,0,1,39,119,81,5e-14,73.1
SONDA_C_chaetospira,SRR8793787.33020,100.00,39,0,0,1,39,416,454,5e-14,73.1
SONDA_C_chaetospira,SRR8793787.25925,100.00,39,0,0,1,39,119,81,5e-14,73.1
SONDA_C_chaetospira,SRR8793787.25257,100.00,39,0,0,1,39,416,454,5e-14,73.1
SONDA_C_chaetospira,SRR8793787.24837,100.00,39,0,0,1,39,119,81,5e-14,73.1
SONDA_C_chaetospira,SRR8793787.24837,100.00,39,0,0,1,39,416,454,5e-14,73.1
SONDA_C_chaetospira,SRR8793787.24148,100.00,39,0,0,1,39,119,81,5e-14,73.1
SONDA_C_chaetospira,SRR8793787.24148,100.00,39,0,0,1,39,416,454,5e-14,73.1
SONDA_C_chaetospira,SRR8793787.20518,100.00,39,0,0,1,39,119,81,5e-14,73.1
SONDA_C_chaetospira,SRR8793787.20518,100.00,39,0,0,1,39,416,454,5e-14,73.1
SONDA_C_chaetospira,SRR8793787.16713,100.00,39,0,0,1,39,119,81,5e-14,73.1
SONDA_C_chaetospira,SRR8793787.12592,100.00,39,0,0,1,39,119,81,5e-14,73.1
SONDA_C_chaetospira,SRR8793787.12592,100.00,39,0,0,1,39,416,454,5e-14,73.1
SONDA_C_chaetospira,SRR8793787.11992,100.00,39,0,0,1,39,119,81,5e-14,73.1
SONDA_C_chaetospira,SRR8793787.9246,100.00,39,0,0,1,39,119,81,5e-14,73.1
SONDA_C_chaetospira,SRR8793787.9246,100.00,39,0,0,1,39,416,454,5e-14,73.1
SONDA_C_chaetospira,SRR8793787.7783,100.00,39,0,0,1,39,119,81,5e-14,73.1
SONDA_C_chaetospira,SRR8793787.6499,100.00,39,0,0,1,39,119,81,5e-14,73.1
SONDA_C_chaetospira,SRR8793787.6499,100.00,39,0,0,1,39,416,454,5e-14,73.1
SONDA_C_chaetospira,SRR8793787.4842,100.00,39,0,0,1,39,119,81,5e-14,73.1
SONDA_C_chaetospira,SRR8793787.4842,100.00,39,0,0,1,39,416,454,5e-14,73.1
SONDA_C_chaetospira,SRR8793787.25,100.00,39,0,0,1,39,119,81,5e-14,73.1
SONDA_C_chaetospira,SRR8793787.25,100.00,39,0,0,1,39,416,454,5e-14,73.1
SONDA_C_chaetospira,SRR8793787.40775,100.00,38,0,0,2,39,420,457,2e-13,71.3
SONDA_C_chaetospira,SRR8793787.35688,100.00,38,0,0,2,39,118,81,2e-13,71.3
SONDA_C_chaetospira,SRR8793787.35688,100.00,38,0,0,2,39,420,457,2e-13,71.3
SONDA_C_chaetospira,SRR8793787.35686,100.00,38,0,0,2,39,420,457,2e-13,71.3
SONDA_C_chaetospira,SRR8793787.27103,100.00,38,0,0,2,39,420,457,2e-13,71.3
SONDA_C_chaetospira,SRR8793787.34528,97.44,39,1,0,1,39,119,81,2e-12,67.6
SONDA_C_chaetospira,SRR8793787.7782,97.44,39,1,0,1,39,119,81,2e-12,67.6
