SONDA_C_arxii,SRR5205852.2895,97.62,42,0,1,1,42,526,566,6e-14,71.3
SONDA_C_arxii,SRR5205852.2694,97.62,42,0,1,1,42,526,566,6e-14,71.3
SONDA_C_arxii,SRR5205852.2193,97.62,42,0,1,1,42,528,568,6e-14,71.3
SONDA_C_arxii,SRR5205852.1344,97.62,42,0,1,1,42,526,566,6e-14,71.3
SONDA_C_arxii,SRR5205852.1557,95.24,42,2,0,1,42,528,569,8e-13,67.6
SONDA_C_arxii,SRR5205852.2886,95.24,42,1,1,1,42,525,565,3e-12,65.8
SONDA_C_arxii,SRR5205852.4294,93.02,43,2,1,1,42,526,568,4e-11,62.1
SONDA_C_chaetospira,SRR5205852.5601,100.00,39,0,0,1,39,509,547,1e-14,73.1
