SONDA_E_E_xenobiotica,SRR2989279.158667,100.00,37,0,0,1,37,195,159,2e-12,69.4
SONDA_E_E_xenobiotica,SRR2989279.158667,100.00,37,0,0,1,37,392,428,2e-12,69.4
SONDA_E_E_xenobiotica,SRR2989279.158599,100.00,37,0,0,1,37,195,159,2e-12,69.4
SONDA_E_E_xenobiotica,SRR2989279.157659,100.00,37,0,0,1,37,195,159,2e-12,69.4
SONDA_E_E_xenobiotica,SRR2989279.157659,100.00,37,0,0,1,37,392,428,2e-12,69.4
SONDA_E_E_xenobiotica,SRR2989279.157141,100.00,37,0,0,1,37,195,159,2e-12,69.4
SONDA_E_E_xenobiotica,SRR2989279.157141,100.00,37,0,0,1,37,392,428,2e-12,69.4
SONDA_E_E_xenobiotica,SRR2989279.157140,100.00,37,0,0,1,37,195,159,2e-12,69.4
SONDA_E_E_xenobiotica,SRR2989279.157140,100.00,37,0,0,1,37,392,428,2e-12,69.4
SONDA_E_E_xenobiotica,SRR2989279.156703,100.00,37,0,0,1,37,195,159,2e-12,69.4
SONDA_E_E_xenobiotica,SRR2989279.156703,100.00,37,0,0,1,37,392,428,2e-12,69.4
SONDA_E_E_xenobiotica,SRR2989279.156544,100.00,37,0,0,1,37,392,428,2e-12,69.4
SONDA_E_E_xenobiotica,SRR2989279.156508,100.00,37,0,0,1,37,195,159,2e-12,69.4
SONDA_E_E_xenobiotica,SRR2989279.156508,100.00,37,0,0,1,37,392,428,2e-12,69.4
SONDA_E_E_xenobiotica,SRR2989279.156506,100.00,37,0,0,1,37,195,159,2e-12,69.4
SONDA_E_E_xenobiotica,SRR2989279.156506,100.00,37,0,0,1,37,392,428,2e-12,69.4
SONDA_E_E_xenobiotica,SRR2989279.156504,100.00,37,0,0,1,37,195,159,2e-12,69.4
SONDA_E_E_xenobiotica,SRR2989279.156259,100.00,37,0,0,1,37,195,159,2e-12,69.4
SONDA_E_E_xenobiotica,SRR2989279.156259,100.00,37,0,0,1,37,392,428,2e-12,69.4
SONDA_E_E_xenobiotica,SRR2989279.156253,100.00,37,0,0,1,37,195,159,2e-12,69.4
SONDA_E_E_xenobiotica,SRR2989279.156253,100.00,37,0,0,1,37,392,428,2e-12,69.4
SONDA_E_E_xenobiotica,SRR2989279.155895,100.00,37,0,0,1,37,195,159,2e-12,69.4
SONDA_E_E_xenobiotica,SRR2989279.155895,100.00,37,0,0,1,37,392,428,2e-12,69.4
SONDA_E_E_xenobiotica,SRR2989279.155681,100.00,37,0,0,1,37,195,159,2e-12,69.4
SONDA_E_E_xenobiotica,SRR2989279.155681,100.00,37,0,0,1,37,392,428,2e-12,69.4
SONDA_E_E_xenobiotica,SRR2989279.155676,100.00,37,0,0,1,37,195,159,2e-12,69.4
SONDA_E_E_xenobiotica,SRR2989279.155676,100.00,37,0,0,1,37,392,428,2e-12,69.4
SONDA_E_E_xenobiotica,SRR2989279.155674,100.00,37,0,0,1,37,195,159,2e-12,69.4
SONDA_E_E_xenobiotica,SRR2989279.155674,100.00,37,0,0,1,37,392,428,2e-12,69.4
SONDA_E_E_xenobiotica,SRR2989279.155221,100.00,37,0,0,1,37,195,159,2e-12,69.4
SONDA_E_E_xenobiotica,SRR2989279.155002,100.00,37,0,0,1,37,195,159,2e-12,69.4
SONDA_E_E_xenobiotica,SRR2989279.155002,100.00,37,0,0,1,37,392,428,2e-12,69.4
SONDA_E_E_xenobiotica,SRR2989279.154645,100.00,37,0,0,1,37,195,159,2e-12,69.4
SONDA_E_E_xenobiotica,SRR2989279.154645,100.00,37,0,0,1,37,392,428,2e-12,69.4
SONDA_E_E_xenobiotica,SRR2989279.154192,100.00,37,0,0,1,37,195,159,2e-12,69.4
SONDA_E_E_xenobiotica,SRR2989279.154192,100.00,37,0,0,1,37,392,428,2e-12,69.4
SONDA_E_E_xenobiotica,SRR2989279.154190,100.00,37,0,0,1,37,195,159,2e-12,69.4
SONDA_E_E_xenobiotica,SRR2989279.154190,100.00,37,0,0,1,37,392,428,2e-12,69.4
SONDA_E_E_xenobiotica,SRR2989279.154150,100.00,37,0,0,1,37,195,159,2e-12,69.4
SONDA_E_E_xenobiotica,SRR2989279.154150,100.00,37,0,0,1,37,392,428,2e-12,69.4
SONDA_E_E_xenobiotica,SRR2989279.154148,100.00,37,0,0,1,37,195,159,2e-12,69.4
SONDA_E_E_xenobiotica,SRR2989279.154148,100.00,37,0,0,1,37,392,428,2e-12,69.4
SONDA_E_E_xenobiotica,SRR2989279.154147,100.00,37,0,0,1,37,195,159,2e-12,69.4
SONDA_E_E_xenobiotica,SRR2989279.154147,100.00,37,0,0,1,37,392,428,2e-12,69.4
SONDA_E_E_xenobiotica,SRR2989279.154123,100.00,37,0,0,1,37,195,159,2e-12,69.4
SONDA_E_E_xenobiotica,SRR2989279.154123,100.00,37,0,0,1,37,392,428,2e-12,69.4
SONDA_E_E_xenobiotica,SRR2989279.154113,100.00,37,0,0,1,37,195,159,2e-12,69.4
SONDA_E_E_xenobiotica,SRR2989279.154113,100.00,37,0,0,1,37,392,428,2e-12,69.4
SONDA_E_E_xenobiotica,SRR2989279.153638,100.00,37,0,0,1,37,195,159,2e-12,69.4
SONDA_E_E_xenobiotica,SRR2989279.153638,100.00,37,0,0,1,37,392,428,2e-12,69.4
SONDA_E_E_xenobiotica,SRR2989279.152948,100.00,37,0,0,1,37,195,159,2e-12,69.4
SONDA_E_E_xenobiotica,SRR2989279.152948,100.00,37,0,0,1,37,392,428,2e-12,69.4
SONDA_E_E_xenobiotica,SRR2989279.152946,100.00,37,0,0,1,37,392,428,2e-12,69.4
SONDA_E_E_xenobiotica,SRR2989279.152757,100.00,37,0,0,1,37,195,159,2e-12,69.4
SONDA_E_E_xenobiotica,SRR2989279.152757,100.00,37,0,0,1,37,392,428,2e-12,69.4
SONDA_E_E_xenobiotica,SRR2989279.152418,100.00,37,0,0,1,37,195,159,2e-12,69.4
SONDA_E_E_xenobiotica,SRR2989279.152418,100.00,37,0,0,1,37,392,428,2e-12,69.4
SONDA_E_E_xenobiotica,SRR2989279.152313,100.00,37,0,0,1,37,195,159,2e-12,69.4
SONDA_E_E_xenobiotica,SRR2989279.152313,100.00,37,0,0,1,37,392,428,2e-12,69.4
SONDA_E_E_xenobiotica,SRR2989279.152310,100.00,37,0,0,1,37,195,159,2e-12,69.4
SONDA_E_E_xenobiotica,SRR2989279.152310,100.00,37,0,0,1,37,392,428,2e-12,69.4
SONDA_E_E_xenobiotica,SRR2989279.151718,100.00,37,0,0,1,37,195,159,2e-12,69.4
SONDA_E_E_xenobiotica,SRR2989279.151718,100.00,37,0,0,1,37,392,428,2e-12,69.4
SONDA_E_E_xenobiotica,SRR2989279.151248,100.00,37,0,0,1,37,195,159,2e-12,69.4
SONDA_E_E_xenobiotica,SRR2989279.151248,100.00,37,0,0,1,37,392,428,2e-12,69.4
SONDA_E_E_xenobiotica,SRR2989279.151217,100.00,37,0,0,1,37,195,159,2e-12,69.4
SONDA_E_E_xenobiotica,SRR2989279.151217,100.00,37,0,0,1,37,392,428,2e-12,69.4
SONDA_E_E_xenobiotica,SRR2989279.151006,100.00,37,0,0,1,37,195,159,2e-12,69.4
SONDA_E_E_xenobiotica,SRR2989279.151006,100.00,37,0,0,1,37,392,428,2e-12,69.4
SONDA_E_E_xenobiotica,SRR2989279.150969,100.00,37,0,0,1,37,195,159,2e-12,69.4
SONDA_E_E_xenobiotica,SRR2989279.150969,100.00,37,0,0,1,37,392,428,2e-12,69.4
SONDA_E_E_xenobiotica,SRR2989279.150792,100.00,37,0,0,1,37,195,159,2e-12,69.4
SONDA_E_E_xenobiotica,SRR2989279.150792,100.00,37,0,0,1,37,392,428,2e-12,69.4
SONDA_E_E_xenobiotica,SRR2989279.150459,100.00,37,0,0,1,37,195,159,2e-12,69.4
SONDA_E_E_xenobiotica,SRR2989279.150459,100.00,37,0,0,1,37,392,428,2e-12,69.4
SONDA_E_E_xenobiotica,SRR2989279.150452,100.00,37,0,0,1,37,195,159,2e-12,69.4
SONDA_E_E_xenobiotica,SRR2989279.150452,100.00,37,0,0,1,37,392,428,2e-12,69.4
SONDA_E_E_xenobiotica,SRR2989279.150449,100.00,37,0,0,1,37,195,159,2e-12,69.4
SONDA_E_E_xenobiotica,SRR2989279.150449,100.00,37,0,0,1,37,392,428,2e-12,69.4
SONDA_E_E_xenobiotica,SRR2989279.150291,100.00,37,0,0,1,37,195,159,2e-12,69.4
SONDA_E_E_xenobiotica,SRR2989279.150291,100.00,37,0,0,1,37,392,428,2e-12,69.4
SONDA_E_E_xenobiotica,SRR2989279.150128,100.00,37,0,0,1,37,195,159,2e-12,69.4
SONDA_E_E_xenobiotica,SRR2989279.150128,100.00,37,0,0,1,37,392,428,2e-12,69.4
SONDA_E_E_xenobiotica,SRR2989279.149997,100.00,37,0,0,1,37,195,159,2e-12,69.4
SONDA_E_E_xenobiotica,SRR2989279.149997,100.00,37,0,0,1,37,392,428,2e-12,69.4
SONDA_E_E_xenobiotica,SRR2989279.149090,100.00,37,0,0,1,37,195,159,2e-12,69.4
SONDA_E_E_xenobiotica,SRR2989279.149090,100.00,37,0,0,1,37,391,427,2e-12,69.4
SONDA_E_E_xenobiotica,SRR2989279.148977,100.00,37,0,0,1,37,392,428,2e-12,69.4
SONDA_E_E_xenobiotica,SRR2989279.148891,100.00,37,0,0,1,37,195,159,2e-12,69.4
SONDA_E_E_xenobiotica,SRR2989279.148891,100.00,37,0,0,1,37,392,428,2e-12,69.4
SONDA_E_E_xenobiotica,SRR2989279.148770,100.00,37,0,0,1,37,195,159,2e-12,69.4
SONDA_E_E_xenobiotica,SRR2989279.148770,100.00,37,0,0,1,37,392,428,2e-12,69.4
SONDA_E_E_xenobiotica,SRR2989279.148765,100.00,37,0,0,1,37,195,159,2e-12,69.4
SONDA_E_E_xenobiotica,SRR2989279.148765,100.00,37,0,0,1,37,392,428,2e-12,69.4
SONDA_E_E_xenobiotica,SRR2989279.148552,100.00,37,0,0,1,37,195,159,2e-12,69.4
SONDA_E_E_xenobiotica,SRR2989279.148552,100.00,37,0,0,1,37,392,428,2e-12,69.4
SONDA_E_E_xenobiotica,SRR2989279.148412,100.00,37,0,0,1,37,195,159,2e-12,69.4
SONDA_E_E_xenobiotica,SRR2989279.148412,100.00,37,0,0,1,37,392,428,2e-12,69.4
SONDA_E_E_xenobiotica,SRR2989279.148371,100.00,37,0,0,1,37,195,159,2e-12,69.4
SONDA_E_E_xenobiotica,SRR2989279.148371,100.00,37,0,0,1,37,392,428,2e-12,69.4
SONDA_E_E_xenobiotica,SRR2989279.147684,100.00,37,0,0,1,37,195,159,2e-12,69.4
SONDA_E_E_xenobiotica,SRR2989279.147684,100.00,37,0,0,1,37,392,428,2e-12,69.4
SONDA_E_E_xenobiotica,SRR2989279.147592,100.00,37,0,0,1,37,195,159,2e-12,69.4
SONDA_E_E_xenobiotica,SRR2989279.147592,100.00,37,0,0,1,37,392,428,2e-12,69.4
SONDA_E_E_xenobiotica,SRR2989279.147320,100.00,37,0,0,1,37,195,159,2e-12,69.4
SONDA_E_E_xenobiotica,SRR2989279.147320,100.00,37,0,0,1,37,392,428,2e-12,69.4
SONDA_E_E_xenobiotica,SRR2989279.147191,100.00,37,0,0,1,37,195,159,2e-12,69.4
SONDA_E_E_xenobiotica,SRR2989279.147191,100.00,37,0,0,1,37,392,428,2e-12,69.4
SONDA_E_E_xenobiotica,SRR2989279.147134,100.00,37,0,0,1,37,195,159,2e-12,69.4
SONDA_E_E_xenobiotica,SRR2989279.147134,100.00,37,0,0,1,37,392,428,2e-12,69.4
SONDA_E_E_xenobiotica,SRR2989279.146929,100.00,37,0,0,1,37,195,159,2e-12,69.4
SONDA_E_E_xenobiotica,SRR2989279.146929,100.00,37,0,0,1,37,392,428,2e-12,69.4
SONDA_E_E_xenobiotica,SRR2989279.146786,100.00,37,0,0,1,37,195,159,2e-12,69.4
SONDA_E_E_xenobiotica,SRR2989279.146786,97.30,37,1,0,1,37,392,428,8e-11,63.9
SONDA_E_E_xenobiotica,SRR2989279.146765,100.00,37,0,0,1,37,195,159,2e-12,69.4
SONDA_E_E_xenobiotica,SRR2989279.146765,100.00,37,0,0,1,37,392,428,2e-12,69.4
SONDA_E_E_xenobiotica,SRR2989279.146452,100.00,37,0,0,1,37,195,159,2e-12,69.4
SONDA_E_E_xenobiotica,SRR2989279.146452,100.00,37,0,0,1,37,392,428,2e-12,69.4
SONDA_E_E_xenobiotica,SRR2989279.146449,100.00,37,0,0,1,37,195,159,2e-12,69.4
SONDA_E_E_xenobiotica,SRR2989279.146449,100.00,37,0,0,1,37,392,428,2e-12,69.4
SONDA_E_E_xenobiotica,SRR2989279.146329,100.00,37,0,0,1,37,195,159,2e-12,69.4
SONDA_E_E_xenobiotica,SRR2989279.146329,100.00,37,0,0,1,37,392,428,2e-12,69.4
SONDA_E_E_xenobiotica,SRR2989279.146326,100.00,37,0,0,1,37,195,159,2e-12,69.4
SONDA_E_E_xenobiotica,SRR2989279.146326,100.00,37,0,0,1,37,392,428,2e-12,69.4
SONDA_E_E_xenobiotica,SRR2989279.146190,100.00,37,0,0,1,37,195,159,2e-12,69.4
SONDA_E_E_xenobiotica,SRR2989279.146190,100.00,37,0,0,1,37,392,428,2e-12,69.4
SONDA_E_E_xenobiotica,SRR2989279.146084,100.00,37,0,0,1,37,195,159,2e-12,69.4
SONDA_E_E_xenobiotica,SRR2989279.146084,100.00,37,0,0,1,37,392,428,2e-12,69.4
SONDA_E_E_xenobiotica,SRR2989279.146083,100.00,37,0,0,1,37,195,159,2e-12,69.4
SONDA_E_E_xenobiotica,SRR2989279.146083,100.00,37,0,0,1,37,392,428,2e-12,69.4
SONDA_E_E_xenobiotica,SRR2989279.145724,100.00,37,0,0,1,37,195,159,2e-12,69.4
SONDA_E_E_xenobiotica,SRR2989279.145724,100.00,37,0,0,1,37,392,428,2e-12,69.4
SONDA_E_E_xenobiotica,SRR2989279.145447,100.00,37,0,0,1,37,195,159,2e-12,69.4
SONDA_E_E_xenobiotica,SRR2989279.145447,100.00,37,0,0,1,37,392,428,2e-12,69.4
SONDA_E_E_xenobiotica,SRR2989279.145125,100.00,37,0,0,1,37,195,159,2e-12,69.4
SONDA_E_E_xenobiotica,SRR2989279.145125,100.00,37,0,0,1,37,392,428,2e-12,69.4
SONDA_E_E_xenobiotica,SRR2989279.145122,100.00,37,0,0,1,37,195,159,2e-12,69.4
SONDA_E_E_xenobiotica,SRR2989279.145122,100.00,37,0,0,1,37,392,428,2e-12,69.4
SONDA_E_E_xenobiotica,SRR2989279.144545,100.00,37,0,0,1,37,195,159,2e-12,69.4
SONDA_E_E_xenobiotica,SRR2989279.144545,100.00,37,0,0,1,37,392,428,2e-12,69.4
SONDA_E_E_xenobiotica,SRR2989279.143997,100.00,37,0,0,1,37,195,159,2e-12,69.4
SONDA_E_E_xenobiotica,SRR2989279.143997,100.00,37,0,0,1,37,392,428,2e-12,69.4
SONDA_E_E_xenobiotica,SRR2989279.143828,100.00,37,0,0,1,37,195,159,2e-12,69.4
SONDA_E_E_xenobiotica,SRR2989279.143828,100.00,37,0,0,1,37,392,428,2e-12,69.4
SONDA_E_E_xenobiotica,SRR2989279.143183,100.00,37,0,0,1,37,195,159,2e-12,69.4
SONDA_E_E_xenobiotica,SRR2989279.143183,100.00,37,0,0,1,37,392,428,2e-12,69.4
SONDA_E_E_xenobiotica,SRR2989279.142760,100.00,37,0,0,1,37,195,159,2e-12,69.4
SONDA_E_E_xenobiotica,SRR2989279.142760,100.00,37,0,0,1,37,392,428,2e-12,69.4
SONDA_E_E_xenobiotica,SRR2989279.142528,100.00,37,0,0,1,37,195,159,2e-12,69.4
SONDA_E_E_xenobiotica,SRR2989279.142528,100.00,37,0,0,1,37,392,428,2e-12,69.4
SONDA_E_E_xenobiotica,SRR2989279.140434,100.00,37,0,0,1,37,195,159,2e-12,69.4
SONDA_E_E_xenobiotica,SRR2989279.140434,100.00,37,0,0,1,37,392,428,2e-12,69.4
SONDA_E_E_xenobiotica,SRR2989279.138664,100.00,37,0,0,1,37,196,160,2e-12,69.4
SONDA_E_E_xenobiotica,SRR2989279.138664,100.00,37,0,0,1,37,389,425,2e-12,69.4
SONDA_E_E_xenobiotica,SRR2989279.138586,100.00,37,0,0,1,37,195,159,2e-12,69.4
SONDA_E_E_xenobiotica,SRR2989279.138586,100.00,37,0,0,1,37,392,428,2e-12,69.4
SONDA_E_E_xenobiotica,SRR2989279.138585,100.00,37,0,0,1,37,195,159,2e-12,69.4
SONDA_E_E_xenobiotica,SRR2989279.138585,100.00,37,0,0,1,37,392,428,2e-12,69.4
SONDA_E_E_xenobiotica,SRR2989279.138545,100.00,37,0,0,1,37,195,159,2e-12,69.4
SONDA_E_E_xenobiotica,SRR2989279.138545,100.00,37,0,0,1,37,392,428,2e-12,69.4
SONDA_E_E_xenobiotica,SRR2989279.138544,100.00,37,0,0,1,37,195,159,2e-12,69.4
SONDA_E_E_xenobiotica,SRR2989279.138544,100.00,37,0,0,1,37,392,428,2e-12,69.4
SONDA_E_E_xenobiotica,SRR2989279.138541,100.00,37,0,0,1,37,195,159,2e-12,69.4
SONDA_E_E_xenobiotica,SRR2989279.138541,100.00,37,0,0,1,37,392,428,2e-12,69.4
SONDA_E_E_xenobiotica,SRR2989279.137904,100.00,37,0,0,1,37,195,159,2e-12,69.4
SONDA_E_E_xenobiotica,SRR2989279.137904,100.00,37,0,0,1,37,392,428,2e-12,69.4
SONDA_E_E_xenobiotica,SRR2989279.137887,100.00,37,0,0,1,37,392,428,2e-12,69.4
SONDA_E_E_xenobiotica,SRR2989279.137886,100.00,37,0,0,1,37,195,159,2e-12,69.4
SONDA_E_E_xenobiotica,SRR2989279.137886,100.00,37,0,0,1,37,390,426,2e-12,69.4
SONDA_E_E_xenobiotica,SRR2989279.137455,100.00,37,0,0,1,37,195,159,2e-12,69.4
SONDA_E_E_xenobiotica,SRR2989279.137455,100.00,37,0,0,1,37,392,428,2e-12,69.4
SONDA_E_E_xenobiotica,SRR2989279.137362,100.00,37,0,0,1,37,392,428,2e-12,69.4
SONDA_E_E_xenobiotica,SRR2989279.137361,100.00,37,0,0,1,37,195,159,2e-12,69.4
SONDA_E_E_xenobiotica,SRR2989279.137361,100.00,37,0,0,1,37,392,428,2e-12,69.4
SONDA_E_E_xenobiotica,SRR2989279.137360,100.00,37,0,0,1,37,195,159,2e-12,69.4
SONDA_E_E_xenobiotica,SRR2989279.137360,100.00,37,0,0,1,37,392,428,2e-12,69.4
SONDA_E_E_xenobiotica,SRR2989279.136677,100.00,37,0,0,1,37,195,159,2e-12,69.4
SONDA_E_E_xenobiotica,SRR2989279.136677,100.00,37,0,0,1,37,392,428,2e-12,69.4
SONDA_E_E_xenobiotica,SRR2989279.136546,100.00,37,0,0,1,37,195,159,2e-12,69.4
SONDA_E_E_xenobiotica,SRR2989279.136546,100.00,37,0,0,1,37,392,428,2e-12,69.4
SONDA_E_E_xenobiotica,SRR2989279.136544,100.00,37,0,0,1,37,195,159,2e-12,69.4
SONDA_E_E_xenobiotica,SRR2989279.136544,100.00,37,0,0,1,37,392,428,2e-12,69.4
SONDA_E_E_xenobiotica,SRR2989279.136087,100.00,37,0,0,1,37,195,159,2e-12,69.4
SONDA_E_E_xenobiotica,SRR2989279.136087,100.00,37,0,0,1,37,392,428,2e-12,69.4
SONDA_E_E_xenobiotica,SRR2989279.136085,100.00,37,0,0,1,37,195,159,2e-12,69.4
SONDA_E_E_xenobiotica,SRR2989279.136085,100.00,35,0,0,3,37,394,428,2e-11,65.8
SONDA_E_E_xenobiotica,SRR2989279.135430,100.00,37,0,0,1,37,194,158,2e-12,69.4
SONDA_E_E_xenobiotica,SRR2989279.135430,100.00,37,0,0,1,37,392,428,2e-12,69.4
SONDA_E_E_xenobiotica,SRR2989279.135429,100.00,37,0,0,1,37,194,158,2e-12,69.4
SONDA_E_E_xenobiotica,SRR2989279.135429,100.00,37,0,0,1,37,392,428,2e-12,69.4
SONDA_E_E_xenobiotica,SRR2989279.135344,100.00,37,0,0,1,37,195,159,2e-12,69.4
SONDA_E_E_xenobiotica,SRR2989279.135344,100.00,37,0,0,1,37,392,428,2e-12,69.4
SONDA_E_E_xenobiotica,SRR2989279.135339,100.00,37,0,0,1,37,195,159,2e-12,69.4
SONDA_E_E_xenobiotica,SRR2989279.135339,100.00,37,0,0,1,37,392,428,2e-12,69.4
SONDA_E_E_xenobiotica,SRR2989279.135300,100.00,37,0,0,1,37,195,159,2e-12,69.4
SONDA_E_E_xenobiotica,SRR2989279.135300,100.00,37,0,0,1,37,392,428,2e-12,69.4
SONDA_E_E_xenobiotica,SRR2989279.135297,100.00,37,0,0,1,37,195,159,2e-12,69.4
SONDA_E_E_xenobiotica,SRR2989279.135297,100.00,37,0,0,1,37,392,428,2e-12,69.4
SONDA_E_E_xenobiotica,SRR2989279.135280,100.00,37,0,0,1,37,195,159,2e-12,69.4
SONDA_E_E_xenobiotica,SRR2989279.135280,100.00,37,0,0,1,37,392,428,2e-12,69.4
SONDA_E_E_xenobiotica,SRR2989279.135269,100.00,37,0,0,1,37,195,159,2e-12,69.4
SONDA_E_E_xenobiotica,SRR2989279.135269,100.00,37,0,0,1,37,392,428,2e-12,69.4
SONDA_E_E_xenobiotica,SRR2989279.135150,100.00,37,0,0,1,37,195,159,2e-12,69.4
SONDA_E_E_xenobiotica,SRR2989279.135150,100.00,37,0,0,1,37,392,428,2e-12,69.4
SONDA_E_E_xenobiotica,SRR2989279.135094,100.00,37,0,0,1,37,195,159,2e-12,69.4
SONDA_E_E_xenobiotica,SRR2989279.134882,100.00,37,0,0,1,37,195,159,2e-12,69.4
SONDA_E_E_xenobiotica,SRR2989279.134882,100.00,37,0,0,1,37,392,428,2e-12,69.4
SONDA_E_E_xenobiotica,SRR2989279.134550,100.00,37,0,0,1,37,195,159,2e-12,69.4
SONDA_E_E_xenobiotica,SRR2989279.134550,100.00,37,0,0,1,37,392,428,2e-12,69.4
SONDA_E_E_xenobiotica,SRR2989279.134547,100.00,37,0,0,1,37,195,159,2e-12,69.4
SONDA_E_E_xenobiotica,SRR2989279.134547,100.00,37,0,0,1,37,392,428,2e-12,69.4
SONDA_E_E_xenobiotica,SRR2989279.134544,100.00,37,0,0,1,37,195,159,2e-12,69.4
SONDA_E_E_xenobiotica,SRR2989279.134544,100.00,37,0,0,1,37,392,428,2e-12,69.4
SONDA_E_E_xenobiotica,SRR2989279.134140,100.00,37,0,0,1,37,195,159,2e-12,69.4
SONDA_E_E_xenobiotica,SRR2989279.134140,100.00,37,0,0,1,37,392,428,2e-12,69.4
SONDA_E_E_xenobiotica,SRR2989279.134135,100.00,37,0,0,1,37,195,159,2e-12,69.4
SONDA_E_E_xenobiotica,SRR2989279.134135,100.00,37,0,0,1,37,392,428,2e-12,69.4
SONDA_E_E_xenobiotica,SRR2989279.134129,100.00,37,0,0,1,37,195,159,2e-12,69.4
SONDA_E_E_xenobiotica,SRR2989279.134129,100.00,37,0,0,1,37,392,428,2e-12,69.4
SONDA_E_E_xenobiotica,SRR2989279.133981,100.00,37,0,0,1,37,195,159,2e-12,69.4
SONDA_E_E_xenobiotica,SRR2989279.133981,100.00,37,0,0,1,37,392,428,2e-12,69.4
SONDA_E_E_xenobiotica,SRR2989279.133979,100.00,37,0,0,1,37,195,159,2e-12,69.4
SONDA_E_E_xenobiotica,SRR2989279.133979,100.00,37,0,0,1,37,392,428,2e-12,69.4
SONDA_E_E_xenobiotica,SRR2989279.133692,100.00,37,0,0,1,37,195,159,2e-12,69.4
SONDA_E_E_xenobiotica,SRR2989279.133692,100.00,37,0,0,1,37,392,428,2e-12,69.4
SONDA_E_E_xenobiotica,SRR2989279.133690,100.00,37,0,0,1,37,195,159,2e-12,69.4
SONDA_E_E_xenobiotica,SRR2989279.133690,100.00,37,0,0,1,37,392,428,2e-12,69.4
SONDA_E_E_xenobiotica,SRR2989279.131275,100.00,37,0,0,1,37,195,159,2e-12,69.4
SONDA_E_E_xenobiotica,SRR2989279.131275,100.00,37,0,0,1,37,392,428,2e-12,69.4
SONDA_E_E_xenobiotica,SRR2989279.131008,100.00,37,0,0,1,37,195,159,2e-12,69.4
SONDA_E_E_xenobiotica,SRR2989279.131008,100.00,37,0,0,1,37,392,428,2e-12,69.4
SONDA_E_E_xenobiotica,SRR2989279.131006,100.00,37,0,0,1,37,195,159,2e-12,69.4
SONDA_E_E_xenobiotica,SRR2989279.131006,100.00,37,0,0,1,37,392,428,2e-12,69.4
SONDA_E_E_xenobiotica,SRR2989279.130806,100.00,37,0,0,1,37,195,159,2e-12,69.4
SONDA_E_E_xenobiotica,SRR2989279.130806,97.30,37,1,0,1,37,392,428,8e-11,63.9
SONDA_E_E_xenobiotica,SRR2989279.130801,100.00,37,0,0,1,37,195,159,2e-12,69.4
SONDA_E_E_xenobiotica,SRR2989279.130801,100.00,37,0,0,1,37,392,428,2e-12,69.4
SONDA_E_E_xenobiotica,SRR2989279.130488,100.00,37,0,0,1,37,195,159,2e-12,69.4
SONDA_E_E_xenobiotica,SRR2989279.130488,100.00,37,0,0,1,37,392,428,2e-12,69.4
SONDA_E_E_xenobiotica,SRR2989279.130429,100.00,37,0,0,1,37,195,159,2e-12,69.4
SONDA_E_E_xenobiotica,SRR2989279.130429,100.00,37,0,0,1,37,392,428,2e-12,69.4
SONDA_E_E_xenobiotica,SRR2989279.130188,100.00,37,0,0,1,37,392,428,2e-12,69.4
SONDA_E_E_xenobiotica,SRR2989279.129603,100.00,37,0,0,1,37,195,159,2e-12,69.4
SONDA_E_E_xenobiotica,SRR2989279.129603,100.00,37,0,0,1,37,392,428,2e-12,69.4
SONDA_E_E_xenobiotica,SRR2989279.129463,100.00,37,0,0,1,37,195,159,2e-12,69.4
SONDA_E_E_xenobiotica,SRR2989279.129463,100.00,37,0,0,1,37,392,428,2e-12,69.4
SONDA_E_E_xenobiotica,SRR2989279.129046,100.00,37,0,0,1,37,195,159,2e-12,69.4
SONDA_E_E_xenobiotica,SRR2989279.129046,100.00,37,0,0,1,37,392,428,2e-12,69.4
SONDA_E_E_xenobiotica,SRR2989279.128543,100.00,37,0,0,1,37,195,159,2e-12,69.4
SONDA_E_E_xenobiotica,SRR2989279.128543,100.00,37,0,0,1,37,392,428,2e-12,69.4
SONDA_E_E_xenobiotica,SRR2989279.128051,100.00,37,0,0,1,37,195,159,2e-12,69.4
SONDA_E_E_xenobiotica,SRR2989279.128051,100.00,37,0,0,1,37,392,428,2e-12,69.4
SONDA_E_E_xenobiotica,SRR2989279.127967,100.00,37,0,0,1,37,195,159,2e-12,69.4
SONDA_E_E_xenobiotica,SRR2989279.127967,100.00,37,0,0,1,37,392,428,2e-12,69.4
SONDA_E_E_xenobiotica,SRR2989279.127964,100.00,37,0,0,1,37,195,159,2e-12,69.4
SONDA_E_E_xenobiotica,SRR2989279.127964,100.00,37,0,0,1,37,392,428,2e-12,69.4
SONDA_E_E_xenobiotica,SRR2989279.127326,100.00,37,0,0,1,37,195,159,2e-12,69.4
SONDA_E_E_xenobiotica,SRR2989279.127326,100.00,37,0,0,1,37,392,428,2e-12,69.4
SONDA_E_E_xenobiotica,SRR2989279.127116,100.00,37,0,0,1,37,195,159,2e-12,69.4
SONDA_E_E_xenobiotica,SRR2989279.127116,100.00,37,0,0,1,37,392,428,2e-12,69.4
SONDA_E_E_xenobiotica,SRR2989279.126985,100.00,37,0,0,1,37,195,159,2e-12,69.4
SONDA_E_E_xenobiotica,SRR2989279.126985,100.00,37,0,0,1,37,392,428,2e-12,69.4
SONDA_E_E_xenobiotica,SRR2989279.126930,100.00,37,0,0,1,37,195,159,2e-12,69.4
SONDA_E_E_xenobiotica,SRR2989279.126930,100.00,37,0,0,1,37,392,428,2e-12,69.4
SONDA_E_E_xenobiotica,SRR2989279.126894,100.00,37,0,0,1,37,195,159,2e-12,69.4
SONDA_E_E_xenobiotica,SRR2989279.126894,100.00,37,0,0,1,37,392,428,2e-12,69.4
SONDA_E_E_xenobiotica,SRR2989279.126244,100.00,37,0,0,1,37,195,159,2e-12,69.4
SONDA_E_E_xenobiotica,SRR2989279.126244,100.00,37,0,0,1,37,392,428,2e-12,69.4
SONDA_E_E_xenobiotica,SRR2989279.126193,100.00,37,0,0,1,37,194,158,2e-12,69.4
SONDA_E_E_xenobiotica,SRR2989279.126193,100.00,37,0,0,1,37,392,428,2e-12,69.4
SONDA_E_E_xenobiotica,SRR2989279.125623,100.00,37,0,0,1,37,195,159,2e-12,69.4
SONDA_E_E_xenobiotica,SRR2989279.125623,100.00,37,0,0,1,37,392,428,2e-12,69.4
SONDA_E_E_xenobiotica,SRR2989279.125622,100.00,37,0,0,1,37,195,159,2e-12,69.4
SONDA_E_E_xenobiotica,SRR2989279.125622,100.00,37,0,0,1,37,392,428,2e-12,69.4
SONDA_E_E_xenobiotica,SRR2989279.125329,100.00,37,0,0,1,37,195,159,2e-12,69.4
SONDA_E_E_xenobiotica,SRR2989279.125329,100.00,37,0,0,1,37,392,428,2e-12,69.4
SONDA_E_E_xenobiotica,SRR2989279.125294,100.00,37,0,0,1,37,195,159,2e-12,69.4
SONDA_E_E_xenobiotica,SRR2989279.125294,100.00,37,0,0,1,37,392,428,2e-12,69.4
SONDA_E_E_xenobiotica,SRR2989279.125293,100.00,37,0,0,1,37,195,159,2e-12,69.4
SONDA_E_E_xenobiotica,SRR2989279.125293,100.00,37,0,0,1,37,392,428,2e-12,69.4
SONDA_E_E_xenobiotica,SRR2989279.125035,100.00,37,0,0,1,37,195,159,2e-12,69.4
SONDA_E_E_xenobiotica,SRR2989279.125035,100.00,37,0,0,1,37,392,428,2e-12,69.4
SONDA_E_E_xenobiotica,SRR2989279.124452,100.00,37,0,0,1,37,195,159,2e-12,69.4
SONDA_E_E_xenobiotica,SRR2989279.124452,100.00,37,0,0,1,37,392,428,2e-12,69.4
SONDA_E_E_xenobiotica,SRR2989279.124422,100.00,37,0,0,1,37,195,159,2e-12,69.4
SONDA_E_E_xenobiotica,SRR2989279.123733,100.00,37,0,0,1,37,392,428,2e-12,69.4
SONDA_E_E_xenobiotica,SRR2989279.123733,97.30,37,1,0,1,37,195,159,8e-11,63.9
SONDA_E_E_xenobiotica,SRR2989279.123599,100.00,37,0,0,1,37,392,428,2e-12,69.4
SONDA_E_E_xenobiotica,SRR2989279.122409,100.00,37,0,0,1,37,195,159,2e-12,69.4
SONDA_E_E_xenobiotica,SRR2989279.122409,100.00,37,0,0,1,37,392,428,2e-12,69.4
SONDA_E_E_xenobiotica,SRR2989279.122408,100.00,37,0,0,1,37,195,159,2e-12,69.4
SONDA_E_E_xenobiotica,SRR2989279.122408,100.00,37,0,0,1,37,392,428,2e-12,69.4
SONDA_E_E_xenobiotica,SRR2989279.122278,100.00,37,0,0,1,37,195,159,2e-12,69.4
SONDA_E_E_xenobiotica,SRR2989279.122278,100.00,37,0,0,1,37,392,428,2e-12,69.4
SONDA_E_E_xenobiotica,SRR2989279.122141,100.00,37,0,0,1,37,195,159,2e-12,69.4
SONDA_E_E_xenobiotica,SRR2989279.122141,100.00,37,0,0,1,37,392,428,2e-12,69.4
SONDA_E_E_xenobiotica,SRR2989279.121868,100.00,37,0,0,1,37,392,428,2e-12,69.4
SONDA_E_E_xenobiotica,SRR2989279.121693,100.00,37,0,0,1,37,195,159,2e-12,69.4
SONDA_E_E_xenobiotica,SRR2989279.121284,100.00,37,0,0,1,37,195,159,2e-12,69.4
SONDA_E_E_xenobiotica,SRR2989279.121284,100.00,37,0,0,1,37,392,428,2e-12,69.4
SONDA_E_E_xenobiotica,SRR2989279.121099,100.00,37,0,0,1,37,195,159,2e-12,69.4
SONDA_E_E_xenobiotica,SRR2989279.121099,100.00,37,0,0,1,37,392,428,2e-12,69.4
SONDA_E_E_xenobiotica,SRR2989279.121083,100.00,37,0,0,1,37,195,159,2e-12,69.4
SONDA_E_E_xenobiotica,SRR2989279.121083,100.00,37,0,0,1,37,392,428,2e-12,69.4
SONDA_E_E_xenobiotica,SRR2989279.121078,100.00,37,0,0,1,37,195,159,2e-12,69.4
SONDA_E_E_xenobiotica,SRR2989279.121078,100.00,37,0,0,1,37,392,428,2e-12,69.4
SONDA_E_E_xenobiotica,SRR2989279.120946,100.00,37,0,0,1,37,195,159,2e-12,69.4
SONDA_E_E_xenobiotica,SRR2989279.120946,100.00,37,0,0,1,37,392,428,2e-12,69.4
SONDA_E_E_xenobiotica,SRR2989279.120881,100.00,37,0,0,1,37,195,159,2e-12,69.4
SONDA_E_E_xenobiotica,SRR2989279.120881,100.00,37,0,0,1,37,392,428,2e-12,69.4
SONDA_E_E_xenobiotica,SRR2989279.120877,100.00,37,0,0,1,37,195,159,2e-12,69.4
SONDA_E_E_xenobiotica,SRR2989279.120877,100.00,37,0,0,1,37,392,428,2e-12,69.4
SONDA_E_E_xenobiotica,SRR2989279.120375,100.00,37,0,0,1,37,195,159,2e-12,69.4
SONDA_E_E_xenobiotica,SRR2989279.120375,100.00,37,0,0,1,37,392,428,2e-12,69.4
SONDA_E_E_xenobiotica,SRR2989279.119091,100.00,37,0,0,1,37,195,159,2e-12,69.4
SONDA_E_E_xenobiotica,SRR2989279.119091,100.00,37,0,0,1,37,392,428,2e-12,69.4
SONDA_E_E_xenobiotica,SRR2989279.119090,100.00,37,0,0,1,37,195,159,2e-12,69.4
SONDA_E_E_xenobiotica,SRR2989279.119090,100.00,37,0,0,1,37,392,428,2e-12,69.4
SONDA_E_E_xenobiotica,SRR2989279.117522,100.00,37,0,0,1,37,195,159,2e-12,69.4
SONDA_E_E_xenobiotica,SRR2989279.117522,100.00,37,0,0,1,37,392,428,2e-12,69.4
SONDA_E_E_xenobiotica,SRR2989279.117290,100.00,37,0,0,1,37,195,159,2e-12,69.4
SONDA_E_E_xenobiotica,SRR2989279.117290,100.00,37,0,0,1,37,392,428,2e-12,69.4
SONDA_E_E_xenobiotica,SRR2989279.117123,100.00,37,0,0,1,37,195,159,2e-12,69.4
SONDA_E_E_xenobiotica,SRR2989279.116687,100.00,37,0,0,1,37,195,159,2e-12,69.4
SONDA_E_E_xenobiotica,SRR2989279.116687,100.00,37,0,0,1,37,392,428,2e-12,69.4
SONDA_E_E_xenobiotica,SRR2989279.116629,100.00,37,0,0,1,37,195,159,2e-12,69.4
SONDA_E_E_xenobiotica,SRR2989279.116629,100.00,37,0,0,1,37,392,428,2e-12,69.4
SONDA_E_E_xenobiotica,SRR2989279.116625,100.00,37,0,0,1,37,195,159,2e-12,69.4
SONDA_E_E_xenobiotica,SRR2989279.116625,100.00,37,0,0,1,37,392,428,2e-12,69.4
SONDA_E_E_xenobiotica,SRR2989279.116326,100.00,37,0,0,1,37,195,159,2e-12,69.4
SONDA_E_E_xenobiotica,SRR2989279.116326,100.00,37,0,0,1,37,392,428,2e-12,69.4
SONDA_E_E_xenobiotica,SRR2989279.116079,100.00,37,0,0,1,37,195,159,2e-12,69.4
SONDA_E_E_xenobiotica,SRR2989279.116079,100.00,37,0,0,1,37,392,428,2e-12,69.4
SONDA_E_E_xenobiotica,SRR2989279.115887,100.00,37,0,0,1,37,195,159,2e-12,69.4
SONDA_E_E_xenobiotica,SRR2989279.115887,100.00,37,0,0,1,37,392,428,2e-12,69.4
SONDA_E_E_xenobiotica,SRR2989279.115885,100.00,37,0,0,1,37,195,159,2e-12,69.4
SONDA_E_E_xenobiotica,SRR2989279.115885,100.00,37,0,0,1,37,392,428,2e-12,69.4
SONDA_E_E_xenobiotica,SRR2989279.115377,100.00,37,0,0,1,37,195,159,2e-12,69.4
SONDA_E_E_xenobiotica,SRR2989279.115377,100.00,37,0,0,1,37,392,428,2e-12,69.4
SONDA_E_E_xenobiotica,SRR2989279.115240,100.00,37,0,0,1,37,195,159,2e-12,69.4
SONDA_E_E_xenobiotica,SRR2989279.115240,97.30,37,1,0,1,37,391,427,8e-11,63.9
SONDA_E_E_xenobiotica,SRR2989279.115078,100.00,37,0,0,1,37,195,159,2e-12,69.4
SONDA_E_E_xenobiotica,SRR2989279.115078,100.00,37,0,0,1,37,392,428,2e-12,69.4
SONDA_E_E_xenobiotica,SRR2989279.114855,100.00,37,0,0,1,37,195,159,2e-12,69.4
SONDA_E_E_xenobiotica,SRR2989279.114855,100.00,37,0,0,1,37,392,428,2e-12,69.4
SONDA_E_E_xenobiotica,SRR2989279.114854,100.00,37,0,0,1,37,195,159,2e-12,69.4
SONDA_E_E_xenobiotica,SRR2989279.114854,100.00,37,0,0,1,37,392,428,2e-12,69.4
SONDA_E_E_xenobiotica,SRR2989279.114852,100.00,37,0,0,1,37,195,159,2e-12,69.4
SONDA_E_E_xenobiotica,SRR2989279.114852,100.00,37,0,0,1,37,392,428,2e-12,69.4
SONDA_E_E_xenobiotica,SRR2989279.114616,100.00,37,0,0,1,37,195,159,2e-12,69.4
SONDA_E_E_xenobiotica,SRR2989279.114616,100.00,37,0,0,1,37,392,428,2e-12,69.4
SONDA_E_E_xenobiotica,SRR2989279.114557,100.00,37,0,0,1,37,195,159,2e-12,69.4
SONDA_E_E_xenobiotica,SRR2989279.114557,100.00,37,0,0,1,37,392,428,2e-12,69.4
SONDA_E_E_xenobiotica,SRR2989279.114534,100.00,37,0,0,1,37,195,159,2e-12,69.4
SONDA_E_E_xenobiotica,SRR2989279.114534,100.00,37,0,0,1,37,392,428,2e-12,69.4
SONDA_E_E_xenobiotica,SRR2989279.114335,100.00,37,0,0,1,37,195,159,2e-12,69.4
SONDA_E_E_xenobiotica,SRR2989279.114335,100.00,37,0,0,1,37,392,428,2e-12,69.4
SONDA_E_E_xenobiotica,SRR2989279.114332,100.00,37,0,0,1,37,195,159,2e-12,69.4
SONDA_E_E_xenobiotica,SRR2989279.114332,100.00,37,0,0,1,37,392,428,2e-12,69.4
SONDA_E_E_xenobiotica,SRR2989279.113645,100.00,37,0,0,1,37,195,159,2e-12,69.4
SONDA_E_E_xenobiotica,SRR2989279.113645,100.00,37,0,0,1,37,392,428,2e-12,69.4
SONDA_E_E_xenobiotica,SRR2989279.113636,100.00,37,0,0,1,37,195,159,2e-12,69.4
SONDA_E_E_xenobiotica,SRR2989279.113636,100.00,37,0,0,1,37,392,428,2e-12,69.4
SONDA_E_E_xenobiotica,SRR2989279.113600,100.00,37,0,0,1,37,195,159,2e-12,69.4
SONDA_E_E_xenobiotica,SRR2989279.113600,100.00,37,0,0,1,37,392,428,2e-12,69.4
SONDA_E_E_xenobiotica,SRR2989279.112236,100.00,37,0,0,1,37,195,159,2e-12,69.4
SONDA_E_E_xenobiotica,SRR2989279.112236,100.00,37,0,0,1,37,392,428,2e-12,69.4
SONDA_E_E_xenobiotica,SRR2989279.112084,100.00,37,0,0,1,37,195,159,2e-12,69.4
SONDA_E_E_xenobiotica,SRR2989279.112084,100.00,37,0,0,1,37,392,428,2e-12,69.4
SONDA_E_E_xenobiotica,SRR2989279.112081,100.00,37,0,0,1,37,195,159,2e-12,69.4
SONDA_E_E_xenobiotica,SRR2989279.112081,100.00,37,0,0,1,37,392,428,2e-12,69.4
SONDA_E_E_xenobiotica,SRR2989279.111974,100.00,37,0,0,1,37,195,159,2e-12,69.4
SONDA_E_E_xenobiotica,SRR2989279.111974,100.00,37,0,0,1,37,392,428,2e-12,69.4
SONDA_E_E_xenobiotica,SRR2989279.111585,100.00,37,0,0,1,37,195,159,2e-12,69.4
SONDA_E_E_xenobiotica,SRR2989279.111585,100.00,37,0,0,1,37,391,427,2e-12,69.4
SONDA_E_E_xenobiotica,SRR2989279.111540,100.00,37,0,0,1,37,195,159,2e-12,69.4
SONDA_E_E_xenobiotica,SRR2989279.111540,100.00,37,0,0,1,37,392,428,2e-12,69.4
SONDA_E_E_xenobiotica,SRR2989279.111537,100.00,37,0,0,1,37,195,159,2e-12,69.4
SONDA_E_E_xenobiotica,SRR2989279.111537,100.00,37,0,0,1,37,392,428,2e-12,69.4
SONDA_E_E_xenobiotica,SRR2989279.111457,100.00,37,0,0,1,37,195,159,2e-12,69.4
SONDA_E_E_xenobiotica,SRR2989279.111457,100.00,37,0,0,1,37,392,428,2e-12,69.4
SONDA_E_E_xenobiotica,SRR2989279.111334,100.00,37,0,0,1,37,392,428,2e-12,69.4
SONDA_E_E_xenobiotica,SRR2989279.111331,100.00,37,0,0,1,37,195,159,2e-12,69.4
SONDA_E_E_xenobiotica,SRR2989279.111331,100.00,37,0,0,1,37,392,428,2e-12,69.4
SONDA_E_E_xenobiotica,SRR2989279.111327,100.00,37,0,0,1,37,195,159,2e-12,69.4
SONDA_E_E_xenobiotica,SRR2989279.111327,100.00,37,0,0,1,37,392,428,2e-12,69.4
SONDA_E_E_xenobiotica,SRR2989279.111295,100.00,37,0,0,1,37,195,159,2e-12,69.4
SONDA_E_E_xenobiotica,SRR2989279.111295,100.00,37,0,0,1,37,392,428,2e-12,69.4
SONDA_E_E_xenobiotica,SRR2989279.111140,100.00,37,0,0,1,37,195,159,2e-12,69.4
SONDA_E_E_xenobiotica,SRR2989279.111140,100.00,37,0,0,1,37,392,428,2e-12,69.4
SONDA_E_E_xenobiotica,SRR2989279.111024,100.00,37,0,0,1,37,195,159,2e-12,69.4
SONDA_E_E_xenobiotica,SRR2989279.111024,100.00,37,0,0,1,37,392,428,2e-12,69.4
SONDA_E_E_xenobiotica,SRR2989279.110482,100.00,37,0,0,1,37,392,428,2e-12,69.4
SONDA_E_E_xenobiotica,SRR2989279.110482,100.00,35,0,0,1,35,195,161,2e-11,65.8
SONDA_E_E_xenobiotica,SRR2989279.110480,100.00,37,0,0,1,37,195,159,2e-12,69.4
SONDA_E_E_xenobiotica,SRR2989279.110480,100.00,37,0,0,1,37,392,428,2e-12,69.4
SONDA_E_E_xenobiotica,SRR2989279.110305,100.00,37,0,0,1,37,195,159,2e-12,69.4
SONDA_E_E_xenobiotica,SRR2989279.109414,100.00,37,0,0,1,37,195,159,2e-12,69.4
SONDA_E_E_xenobiotica,SRR2989279.109414,100.00,37,0,0,1,37,392,428,2e-12,69.4
SONDA_E_E_xenobiotica,SRR2989279.109411,100.00,37,0,0,1,37,195,159,2e-12,69.4
SONDA_E_E_xenobiotica,SRR2989279.109411,100.00,37,0,0,1,37,392,428,2e-12,69.4
SONDA_E_E_xenobiotica,SRR2989279.109161,100.00,37,0,0,1,37,195,159,2e-12,69.4
SONDA_E_E_xenobiotica,SRR2989279.109161,100.00,37,0,0,1,37,392,428,2e-12,69.4
SONDA_E_E_xenobiotica,SRR2989279.108182,100.00,37,0,0,1,37,195,159,2e-12,69.4
SONDA_E_E_xenobiotica,SRR2989279.108182,100.00,37,0,0,1,37,392,428,2e-12,69.4
SONDA_E_E_xenobiotica,SRR2989279.107990,100.00,37,0,0,1,37,195,159,2e-12,69.4
SONDA_E_E_xenobiotica,SRR2989279.107990,100.00,37,0,0,1,37,392,428,2e-12,69.4
SONDA_E_E_xenobiotica,SRR2989279.107791,100.00,37,0,0,1,37,195,159,2e-12,69.4
SONDA_E_E_xenobiotica,SRR2989279.107791,100.00,37,0,0,1,37,392,428,2e-12,69.4
SONDA_E_E_xenobiotica,SRR2989279.107788,100.00,37,0,0,1,37,195,159,2e-12,69.4
SONDA_E_E_xenobiotica,SRR2989279.107788,100.00,37,0,0,1,37,392,428,2e-12,69.4
SONDA_E_E_xenobiotica,SRR2989279.107689,100.00,37,0,0,1,37,195,159,2e-12,69.4
SONDA_E_E_xenobiotica,SRR2989279.107689,100.00,37,0,0,1,37,392,428,2e-12,69.4
SONDA_E_E_xenobiotica,SRR2989279.107665,100.00,37,0,0,1,37,195,159,2e-12,69.4
SONDA_E_E_xenobiotica,SRR2989279.107665,100.00,37,0,0,1,37,392,428,2e-12,69.4
SONDA_E_E_xenobiotica,SRR2989279.107157,100.00,37,0,0,1,37,195,159,2e-12,69.4
SONDA_E_E_xenobiotica,SRR2989279.107157,100.00,37,0,0,1,37,392,428,2e-12,69.4
SONDA_E_E_xenobiotica,SRR2989279.106667,100.00,37,0,0,1,37,195,159,2e-12,69.4
SONDA_E_E_xenobiotica,SRR2989279.106667,100.00,37,0,0,1,37,392,428,2e-12,69.4
SONDA_E_E_xenobiotica,SRR2989279.106383,100.00,37,0,0,1,37,195,159,2e-12,69.4
SONDA_E_E_xenobiotica,SRR2989279.106381,100.00,37,0,0,1,37,195,159,2e-12,69.4
SONDA_E_E_xenobiotica,SRR2989279.106381,100.00,37,0,0,1,37,392,428,2e-12,69.4
SONDA_E_E_xenobiotica,SRR2989279.106377,100.00,37,0,0,1,37,195,159,2e-12,69.4
SONDA_E_E_xenobiotica,SRR2989279.106377,100.00,37,0,0,1,37,392,428,2e-12,69.4
SONDA_E_E_xenobiotica,SRR2989279.106122,100.00,37,0,0,1,37,195,159,2e-12,69.4
SONDA_E_E_xenobiotica,SRR2989279.106122,100.00,37,0,0,1,37,392,428,2e-12,69.4
SONDA_E_E_xenobiotica,SRR2989279.106047,100.00,37,0,0,1,37,195,159,2e-12,69.4
SONDA_E_E_xenobiotica,SRR2989279.106047,100.00,37,0,0,1,37,392,428,2e-12,69.4
SONDA_E_E_xenobiotica,SRR2989279.106042,100.00,37,0,0,1,37,195,159,2e-12,69.4
SONDA_E_E_xenobiotica,SRR2989279.106042,97.30,37,1,0,1,37,391,427,8e-11,63.9
SONDA_E_E_xenobiotica,SRR2989279.105559,100.00,37,0,0,1,37,195,159,2e-12,69.4
SONDA_E_E_xenobiotica,SRR2989279.105559,100.00,37,0,0,1,37,392,428,2e-12,69.4
SONDA_E_E_xenobiotica,SRR2989279.105554,100.00,37,0,0,1,37,195,159,2e-12,69.4
SONDA_E_E_xenobiotica,SRR2989279.105554,100.00,37,0,0,1,37,392,428,2e-12,69.4
SONDA_E_E_xenobiotica,SRR2989279.105263,100.00,37,0,0,1,37,195,159,2e-12,69.4
SONDA_E_E_xenobiotica,SRR2989279.105263,100.00,37,0,0,1,37,392,428,2e-12,69.4
SONDA_E_E_xenobiotica,SRR2989279.104699,100.00,37,0,0,1,37,392,428,2e-12,69.4
SONDA_E_E_xenobiotica,SRR2989279.104689,100.00,37,0,0,1,37,195,159,2e-12,69.4
SONDA_E_E_xenobiotica,SRR2989279.104689,100.00,37,0,0,1,37,392,428,2e-12,69.4
SONDA_E_E_xenobiotica,SRR2989279.103901,100.00,37,0,0,1,37,195,159,2e-12,69.4
SONDA_E_E_xenobiotica,SRR2989279.103901,100.00,37,0,0,1,37,392,428,2e-12,69.4
SONDA_E_E_xenobiotica,SRR2989279.103900,100.00,37,0,0,1,37,195,159,2e-12,69.4
SONDA_E_E_xenobiotica,SRR2989279.103900,100.00,37,0,0,1,37,392,428,2e-12,69.4
SONDA_E_E_xenobiotica,SRR2989279.103195,100.00,37,0,0,1,37,195,159,2e-12,69.4
SONDA_E_E_xenobiotica,SRR2989279.103195,100.00,37,0,0,1,37,391,427,2e-12,69.4
SONDA_E_E_xenobiotica,SRR2989279.103192,100.00,37,0,0,1,37,195,159,2e-12,69.4
SONDA_E_E_xenobiotica,SRR2989279.103192,100.00,37,0,0,1,37,392,428,2e-12,69.4
SONDA_E_E_xenobiotica,SRR2989279.103144,100.00,37,0,0,1,37,194,158,2e-12,69.4
SONDA_E_E_xenobiotica,SRR2989279.103144,100.00,37,0,0,1,37,392,428,2e-12,69.4
SONDA_E_E_xenobiotica,SRR2989279.103042,100.00,37,0,0,1,37,195,159,2e-12,69.4
SONDA_E_E_xenobiotica,SRR2989279.103042,100.00,37,0,0,1,37,392,428,2e-12,69.4
SONDA_E_E_xenobiotica,SRR2989279.102671,100.00,37,0,0,1,37,195,159,2e-12,69.4
SONDA_E_E_xenobiotica,SRR2989279.102569,100.00,37,0,0,1,37,195,159,2e-12,69.4
SONDA_E_E_xenobiotica,SRR2989279.102569,100.00,37,0,0,1,37,392,428,2e-12,69.4
SONDA_E_E_xenobiotica,SRR2989279.102566,100.00,37,0,0,1,37,195,159,2e-12,69.4
SONDA_E_E_xenobiotica,SRR2989279.102566,100.00,37,0,0,1,37,392,428,2e-12,69.4
SONDA_E_E_xenobiotica,SRR2989279.102533,100.00,37,0,0,1,37,195,159,2e-12,69.4
SONDA_E_E_xenobiotica,SRR2989279.102533,100.00,37,0,0,1,37,392,428,2e-12,69.4
SONDA_E_E_xenobiotica,SRR2989279.102445,100.00,37,0,0,1,37,195,159,2e-12,69.4
SONDA_E_E_xenobiotica,SRR2989279.102445,100.00,37,0,0,1,37,392,428,2e-12,69.4
SONDA_E_E_xenobiotica,SRR2989279.102441,100.00,37,0,0,1,37,195,159,2e-12,69.4
SONDA_E_E_xenobiotica,SRR2989279.102441,100.00,37,0,0,1,37,392,428,2e-12,69.4
SONDA_E_E_xenobiotica,SRR2989279.101996,100.00,37,0,0,1,37,195,159,2e-12,69.4
SONDA_E_E_xenobiotica,SRR2989279.101996,100.00,37,0,0,1,37,392,428,2e-12,69.4
SONDA_E_E_xenobiotica,SRR2989279.101994,100.00,37,0,0,1,37,195,159,2e-12,69.4
SONDA_E_E_xenobiotica,SRR2989279.101873,100.00,37,0,0,1,37,195,159,2e-12,69.4
SONDA_E_E_xenobiotica,SRR2989279.101873,100.00,37,0,0,1,37,392,428,2e-12,69.4
SONDA_E_E_xenobiotica,SRR2989279.101544,100.00,37,0,0,1,37,195,159,2e-12,69.4
SONDA_E_E_xenobiotica,SRR2989279.101544,100.00,37,0,0,1,37,392,428,2e-12,69.4
SONDA_E_E_xenobiotica,SRR2989279.101429,100.00,37,0,0,1,37,195,159,2e-12,69.4
SONDA_E_E_xenobiotica,SRR2989279.101429,100.00,37,0,0,1,37,392,428,2e-12,69.4
SONDA_E_E_xenobiotica,SRR2989279.101414,100.00,37,0,0,1,37,195,159,2e-12,69.4
SONDA_E_E_xenobiotica,SRR2989279.101414,100.00,37,0,0,1,37,392,428,2e-12,69.4
SONDA_E_E_xenobiotica,SRR2989279.101412,100.00,37,0,0,1,37,195,159,2e-12,69.4
SONDA_E_E_xenobiotica,SRR2989279.101253,100.00,37,0,0,1,37,195,159,2e-12,69.4
SONDA_E_E_xenobiotica,SRR2989279.101253,100.00,37,0,0,1,37,392,428,2e-12,69.4
SONDA_E_E_xenobiotica,SRR2989279.100983,100.00,37,0,0,1,37,195,159,2e-12,69.4
SONDA_E_E_xenobiotica,SRR2989279.100983,100.00,37,0,0,1,37,392,428,2e-12,69.4
SONDA_E_E_xenobiotica,SRR2989279.100866,100.00,37,0,0,1,37,195,159,2e-12,69.4
SONDA_E_E_xenobiotica,SRR2989279.100866,100.00,37,0,0,1,37,392,428,2e-12,69.4
SONDA_E_E_xenobiotica,SRR2989279.100394,100.00,37,0,0,1,37,195,159,2e-12,69.4
SONDA_E_E_xenobiotica,SRR2989279.100394,100.00,37,0,0,1,37,392,428,2e-12,69.4
SONDA_E_E_xenobiotica,SRR2989279.100390,100.00,37,0,0,1,37,392,428,2e-12,69.4
SONDA_E_E_xenobiotica,SRR2989279.100086,100.00,37,0,0,1,37,195,159,2e-12,69.4
SONDA_E_E_xenobiotica,SRR2989279.100086,100.00,37,0,0,1,37,392,428,2e-12,69.4
SONDA_E_E_xenobiotica,SRR2989279.100083,100.00,37,0,0,1,37,195,159,2e-12,69.4
SONDA_E_E_xenobiotica,SRR2989279.100083,100.00,37,0,0,1,37,392,428,2e-12,69.4
SONDA_E_E_xenobiotica,SRR2989279.100082,100.00,37,0,0,1,37,195,159,2e-12,69.4
SONDA_E_E_xenobiotica,SRR2989279.100082,100.00,37,0,0,1,37,392,428,2e-12,69.4
SONDA_E_E_xenobiotica,SRR2989279.100009,100.00,37,0,0,1,37,195,159,2e-12,69.4
SONDA_E_E_xenobiotica,SRR2989279.100009,100.00,37,0,0,1,37,392,428,2e-12,69.4
SONDA_E_E_xenobiotica,SRR2989279.99800,100.00,37,0,0,1,37,195,159,2e-12,69.4
SONDA_E_E_xenobiotica,SRR2989279.99800,100.00,37,0,0,1,37,392,428,2e-12,69.4
SONDA_E_E_xenobiotica,SRR2989279.99460,100.00,37,0,0,1,37,195,159,2e-12,69.4
SONDA_E_E_xenobiotica,SRR2989279.99460,100.00,37,0,0,1,37,392,428,2e-12,69.4
SONDA_E_E_xenobiotica,SRR2989279.99318,100.00,37,0,0,1,37,195,159,2e-12,69.4
SONDA_E_E_xenobiotica,SRR2989279.99318,100.00,37,0,0,1,37,392,428,2e-12,69.4
SONDA_E_E_xenobiotica,SRR2989279.99170,100.00,37,0,0,1,37,195,159,2e-12,69.4
SONDA_E_E_xenobiotica,SRR2989279.99170,100.00,37,0,0,1,37,392,428,2e-12,69.4
SONDA_E_E_xenobiotica,SRR2989279.99165,100.00,37,0,0,1,37,195,159,2e-12,69.4
SONDA_E_E_xenobiotica,SRR2989279.99165,100.00,37,0,0,1,37,392,428,2e-12,69.4
SONDA_E_E_xenobiotica,SRR2989279.99047,100.00,37,0,0,1,37,195,159,2e-12,69.4
SONDA_E_E_xenobiotica,SRR2989279.99047,100.00,37,0,0,1,37,392,428,2e-12,69.4
SONDA_E_E_xenobiotica,SRR2989279.98881,100.00,37,0,0,1,37,195,159,2e-12,69.4
SONDA_E_E_xenobiotica,SRR2989279.98881,100.00,37,0,0,1,37,392,428,2e-12,69.4
SONDA_E_E_xenobiotica,SRR2989279.98876,100.00,37,0,0,1,37,195,159,2e-12,69.4
SONDA_E_E_xenobiotica,SRR2989279.98876,100.00,37,0,0,1,37,392,428,2e-12,69.4
SONDA_E_E_xenobiotica,SRR2989279.98758,100.00,37,0,0,1,37,195,159,2e-12,69.4
SONDA_E_E_xenobiotica,SRR2989279.98758,100.00,37,0,0,1,37,392,428,2e-12,69.4
SONDA_E_E_xenobiotica,SRR2989279.97596,100.00,37,0,0,1,37,195,159,2e-12,69.4
SONDA_E_E_xenobiotica,SRR2989279.97596,100.00,37,0,0,1,37,392,428,2e-12,69.4
SONDA_E_E_xenobiotica,SRR2989279.97595,100.00,37,0,0,1,37,195,159,2e-12,69.4
SONDA_E_E_xenobiotica,SRR2989279.97595,100.00,37,0,0,1,37,392,428,2e-12,69.4
SONDA_E_E_xenobiotica,SRR2989279.97410,100.00,37,0,0,1,37,195,159,2e-12,69.4
SONDA_E_E_xenobiotica,SRR2989279.97410,100.00,37,0,0,1,37,392,428,2e-12,69.4
SONDA_E_E_xenobiotica,SRR2989279.97098,100.00,37,0,0,1,37,195,159,2e-12,69.4
SONDA_E_E_xenobiotica,SRR2989279.97098,100.00,37,0,0,1,37,392,428,2e-12,69.4
SONDA_E_E_xenobiotica,SRR2989279.97096,100.00,37,0,0,1,37,195,159,2e-12,69.4
SONDA_E_E_xenobiotica,SRR2989279.97096,100.00,37,0,0,1,37,392,428,2e-12,69.4
SONDA_E_E_xenobiotica,SRR2989279.96929,100.00,37,0,0,1,37,195,159,2e-12,69.4
SONDA_E_E_xenobiotica,SRR2989279.96929,100.00,37,0,0,1,37,392,428,2e-12,69.4
SONDA_E_E_xenobiotica,SRR2989279.96924,100.00,37,0,0,1,37,195,159,2e-12,69.4
SONDA_E_E_xenobiotica,SRR2989279.96924,100.00,37,0,0,1,37,392,428,2e-12,69.4
SONDA_E_E_xenobiotica,SRR2989279.96451,100.00,37,0,0,1,37,392,428,2e-12,69.4
SONDA_E_E_xenobiotica,SRR2989279.96446,100.00,37,0,0,1,37,392,428,2e-12,69.4
SONDA_E_E_xenobiotica,SRR2989279.96446,97.30,37,1,0,1,37,195,159,8e-11,63.9
SONDA_E_E_xenobiotica,SRR2989279.95895,100.00,37,0,0,1,37,195,159,2e-12,69.4
SONDA_E_E_xenobiotica,SRR2989279.95895,100.00,37,0,0,1,37,392,428,2e-12,69.4
SONDA_E_E_xenobiotica,SRR2989279.95257,100.00,37,0,0,1,37,392,428,2e-12,69.4
SONDA_E_E_xenobiotica,SRR2989279.95257,97.30,37,1,0,1,37,195,159,8e-11,63.9
SONDA_E_E_xenobiotica,SRR2989279.95253,100.00,37,0,0,1,37,195,159,2e-12,69.4
SONDA_E_E_xenobiotica,SRR2989279.95253,100.00,37,0,0,1,37,392,428,2e-12,69.4
SONDA_E_E_xenobiotica,SRR2989279.95172,100.00,37,0,0,1,37,195,159,2e-12,69.4
SONDA_E_E_xenobiotica,SRR2989279.95172,100.00,37,0,0,1,37,392,428,2e-12,69.4
SONDA_E_E_xenobiotica,SRR2989279.95170,100.00,37,0,0,1,37,195,159,2e-12,69.4
SONDA_E_E_xenobiotica,SRR2989279.95170,100.00,37,0,0,1,37,392,428,2e-12,69.4
SONDA_E_E_xenobiotica,SRR2989279.94779,100.00,37,0,0,1,37,195,159,2e-12,69.4
SONDA_E_E_xenobiotica,SRR2989279.94779,100.00,37,0,0,1,37,392,428,2e-12,69.4
SONDA_E_E_xenobiotica,SRR2989279.94778,100.00,37,0,0,1,37,195,159,2e-12,69.4
SONDA_E_E_xenobiotica,SRR2989279.94778,100.00,37,0,0,1,37,392,428,2e-12,69.4
SONDA_E_E_xenobiotica,SRR2989279.94321,100.00,37,0,0,1,37,195,159,2e-12,69.4
SONDA_E_E_xenobiotica,SRR2989279.94321,100.00,37,0,0,1,37,391,427,2e-12,69.4
SONDA_E_E_xenobiotica,SRR2989279.94317,100.00,37,0,0,1,37,195,159,2e-12,69.4
SONDA_E_E_xenobiotica,SRR2989279.94317,100.00,37,0,0,1,37,391,427,2e-12,69.4
SONDA_E_E_xenobiotica,SRR2989279.94180,100.00,37,0,0,1,37,195,159,2e-12,69.4
SONDA_E_E_xenobiotica,SRR2989279.94180,100.00,37,0,0,1,37,392,428,2e-12,69.4
SONDA_E_E_xenobiotica,SRR2989279.94005,100.00,37,0,0,1,37,195,159,2e-12,69.4
SONDA_E_E_xenobiotica,SRR2989279.94005,100.00,37,0,0,1,37,392,428,2e-12,69.4
SONDA_E_E_xenobiotica,SRR2989279.93971,100.00,37,0,0,1,37,195,159,2e-12,69.4
SONDA_E_E_xenobiotica,SRR2989279.93971,100.00,37,0,0,1,37,392,428,2e-12,69.4
SONDA_E_E_xenobiotica,SRR2989279.92692,100.00,37,0,0,1,37,195,159,2e-12,69.4
SONDA_E_E_xenobiotica,SRR2989279.92692,100.00,37,0,0,1,37,392,428,2e-12,69.4
SONDA_E_E_xenobiotica,SRR2989279.92402,100.00,37,0,0,1,37,195,159,2e-12,69.4
SONDA_E_E_xenobiotica,SRR2989279.92402,100.00,37,0,0,1,37,392,428,2e-12,69.4
SONDA_E_E_xenobiotica,SRR2989279.92401,100.00,37,0,0,1,37,392,428,2e-12,69.4
SONDA_E_E_xenobiotica,SRR2989279.92401,94.59,37,2,0,1,37,195,159,4e-09,58.4
SONDA_E_E_xenobiotica,SRR2989279.91891,100.00,37,0,0,1,37,195,159,2e-12,69.4
SONDA_E_E_xenobiotica,SRR2989279.91891,100.00,37,0,0,1,37,392,428,2e-12,69.4
SONDA_E_E_xenobiotica,SRR2989279.91669,100.00,37,0,0,1,37,195,159,2e-12,69.4
SONDA_E_E_xenobiotica,SRR2989279.91669,97.30,37,1,0,1,37,392,428,8e-11,63.9
SONDA_E_E_xenobiotica,SRR2989279.91661,100.00,37,0,0,1,37,195,159,2e-12,69.4
SONDA_E_E_xenobiotica,SRR2989279.91661,100.00,37,0,0,1,37,392,428,2e-12,69.4
SONDA_E_E_xenobiotica,SRR2989279.91510,100.00,37,0,0,1,37,195,159,2e-12,69.4
SONDA_E_E_xenobiotica,SRR2989279.91510,100.00,37,0,0,1,37,392,428,2e-12,69.4
SONDA_E_E_xenobiotica,SRR2989279.91475,100.00,37,0,0,1,37,195,159,2e-12,69.4
SONDA_E_E_xenobiotica,SRR2989279.91475,100.00,37,0,0,1,37,392,428,2e-12,69.4
SONDA_E_E_xenobiotica,SRR2989279.91351,100.00,37,0,0,1,37,195,159,2e-12,69.4
SONDA_E_E_xenobiotica,SRR2989279.91305,100.00,37,0,0,1,37,195,159,2e-12,69.4
SONDA_E_E_xenobiotica,SRR2989279.91305,100.00,37,0,0,1,37,392,428,2e-12,69.4
SONDA_E_E_xenobiotica,SRR2989279.91303,100.00,37,0,0,1,37,195,159,2e-12,69.4
SONDA_E_E_xenobiotica,SRR2989279.91303,100.00,37,0,0,1,37,392,428,2e-12,69.4
SONDA_E_E_xenobiotica,SRR2989279.90693,100.00,37,0,0,1,37,195,159,2e-12,69.4
SONDA_E_E_xenobiotica,SRR2989279.90693,100.00,37,0,0,1,37,392,428,2e-12,69.4
SONDA_E_E_xenobiotica,SRR2989279.89920,100.00,37,0,0,1,37,195,159,2e-12,69.4
SONDA_E_E_xenobiotica,SRR2989279.89920,100.00,37,0,0,1,37,392,428,2e-12,69.4
SONDA_E_E_xenobiotica,SRR2989279.89350,100.00,37,0,0,1,37,195,159,2e-12,69.4
SONDA_E_E_xenobiotica,SRR2989279.89350,97.30,37,1,0,1,37,392,428,8e-11,63.9
SONDA_E_E_xenobiotica,SRR2989279.89249,100.00,37,0,0,1,37,195,159,2e-12,69.4
SONDA_E_E_xenobiotica,SRR2989279.89249,100.00,37,0,0,1,37,392,428,2e-12,69.4
SONDA_E_E_xenobiotica,SRR2989279.89208,100.00,37,0,0,1,37,195,159,2e-12,69.4
SONDA_E_E_xenobiotica,SRR2989279.89208,100.00,37,0,0,1,37,392,428,2e-12,69.4
SONDA_E_E_xenobiotica,SRR2989279.89205,100.00,37,0,0,1,37,195,159,2e-12,69.4
SONDA_E_E_xenobiotica,SRR2989279.89205,100.00,37,0,0,1,37,392,428,2e-12,69.4
SONDA_E_E_xenobiotica,SRR2989279.89159,100.00,37,0,0,1,37,195,159,2e-12,69.4
SONDA_E_E_xenobiotica,SRR2989279.89159,100.00,37,0,0,1,37,392,428,2e-12,69.4
SONDA_E_E_xenobiotica,SRR2989279.89018,100.00,37,0,0,1,37,195,159,2e-12,69.4
SONDA_E_E_xenobiotica,SRR2989279.89018,100.00,37,0,0,1,37,392,428,2e-12,69.4
SONDA_E_E_xenobiotica,SRR2989279.88673,100.00,37,0,0,1,37,195,159,2e-12,69.4
SONDA_E_E_xenobiotica,SRR2989279.88673,100.00,37,0,0,1,37,392,428,2e-12,69.4
SONDA_E_E_xenobiotica,SRR2989279.88658,100.00,37,0,0,1,37,195,159,2e-12,69.4
SONDA_E_E_xenobiotica,SRR2989279.88325,100.00,37,0,0,1,37,195,159,2e-12,69.4
SONDA_E_E_xenobiotica,SRR2989279.88325,100.00,37,0,0,1,37,392,428,2e-12,69.4
SONDA_E_E_xenobiotica,SRR2989279.88257,100.00,37,0,0,1,37,195,159,2e-12,69.4
SONDA_E_E_xenobiotica,SRR2989279.88257,100.00,37,0,0,1,37,392,428,2e-12,69.4
SONDA_E_E_xenobiotica,SRR2989279.87918,100.00,37,0,0,1,37,195,159,2e-12,69.4
SONDA_E_E_xenobiotica,SRR2989279.87918,100.00,37,0,0,1,37,392,428,2e-12,69.4
SONDA_E_E_xenobiotica,SRR2989279.87471,100.00,37,0,0,1,37,195,159,2e-12,69.4
SONDA_E_E_xenobiotica,SRR2989279.87471,100.00,37,0,0,1,37,392,428,2e-12,69.4
SONDA_E_E_xenobiotica,SRR2989279.87470,100.00,37,0,0,1,37,195,159,2e-12,69.4
SONDA_E_E_xenobiotica,SRR2989279.87470,100.00,37,0,0,1,37,392,428,2e-12,69.4
SONDA_E_E_xenobiotica,SRR2989279.87468,100.00,37,0,0,1,37,195,159,2e-12,69.4
SONDA_E_E_xenobiotica,SRR2989279.87468,100.00,37,0,0,1,37,392,428,2e-12,69.4
SONDA_E_E_xenobiotica,SRR2989279.86907,100.00,37,0,0,1,37,195,159,2e-12,69.4
SONDA_E_E_xenobiotica,SRR2989279.86907,100.00,37,0,0,1,37,392,428,2e-12,69.4
SONDA_E_E_xenobiotica,SRR2989279.86803,100.00,37,0,0,1,37,195,159,2e-12,69.4
SONDA_E_E_xenobiotica,SRR2989279.86803,100.00,37,0,0,1,37,392,428,2e-12,69.4
SONDA_E_E_xenobiotica,SRR2989279.86485,100.00,37,0,0,1,37,195,159,2e-12,69.4
SONDA_E_E_xenobiotica,SRR2989279.86485,100.00,37,0,0,1,37,392,428,2e-12,69.4
SONDA_E_E_xenobiotica,SRR2989279.86401,100.00,37,0,0,1,37,195,159,2e-12,69.4
SONDA_E_E_xenobiotica,SRR2989279.86401,100.00,37,0,0,1,37,392,428,2e-12,69.4
SONDA_E_E_xenobiotica,SRR2989279.84890,100.00,37,0,0,1,37,195,159,2e-12,69.4
SONDA_E_E_xenobiotica,SRR2989279.84890,100.00,37,0,0,1,37,392,428,2e-12,69.4
SONDA_E_E_xenobiotica,SRR2989279.84887,100.00,37,0,0,1,37,195,159,2e-12,69.4
SONDA_E_E_xenobiotica,SRR2989279.84887,100.00,37,0,0,1,37,392,428,2e-12,69.4
SONDA_E_E_xenobiotica,SRR2989279.84099,100.00,37,0,0,1,37,195,159,2e-12,69.4
SONDA_E_E_xenobiotica,SRR2989279.84099,100.00,37,0,0,1,37,392,428,2e-12,69.4
SONDA_E_E_xenobiotica,SRR2989279.84098,100.00,37,0,0,1,37,195,159,2e-12,69.4
SONDA_E_E_xenobiotica,SRR2989279.84098,100.00,37,0,0,1,37,392,428,2e-12,69.4
SONDA_E_E_xenobiotica,SRR2989279.83959,100.00,37,0,0,1,37,195,159,2e-12,69.4
SONDA_E_E_xenobiotica,SRR2989279.83959,100.00,37,0,0,1,37,392,428,2e-12,69.4
SONDA_E_E_xenobiotica,SRR2989279.83535,100.00,37,0,0,1,37,195,159,2e-12,69.4
SONDA_E_E_xenobiotica,SRR2989279.83535,100.00,37,0,0,1,37,392,428,2e-12,69.4
SONDA_E_E_xenobiotica,SRR2989279.82179,100.00,37,0,0,1,37,392,428,2e-12,69.4
SONDA_E_E_xenobiotica,SRR2989279.81469,100.00,37,0,0,1,37,195,159,2e-12,69.4
SONDA_E_E_xenobiotica,SRR2989279.81469,100.00,37,0,0,1,37,392,428,2e-12,69.4
SONDA_E_E_xenobiotica,SRR2989279.81432,100.00,37,0,0,1,37,195,159,2e-12,69.4
SONDA_E_E_xenobiotica,SRR2989279.81432,100.00,37,0,0,1,37,392,428,2e-12,69.4
SONDA_E_E_xenobiotica,SRR2989279.81150,100.00,37,0,0,1,37,195,159,2e-12,69.4
SONDA_E_E_xenobiotica,SRR2989279.81150,100.00,37,0,0,1,37,392,428,2e-12,69.4
SONDA_E_E_xenobiotica,SRR2989279.81026,100.00,37,0,0,1,37,195,159,2e-12,69.4
SONDA_E_E_xenobiotica,SRR2989279.81026,100.00,37,0,0,1,37,392,428,2e-12,69.4
SONDA_E_E_xenobiotica,SRR2989279.80522,100.00,37,0,0,1,37,195,159,2e-12,69.4
SONDA_E_E_xenobiotica,SRR2989279.80522,100.00,37,0,0,1,37,392,428,2e-12,69.4
SONDA_E_E_xenobiotica,SRR2989279.79401,100.00,37,0,0,1,37,195,159,2e-12,69.4
SONDA_E_E_xenobiotica,SRR2989279.79401,100.00,37,0,0,1,37,392,428,2e-12,69.4
SONDA_E_E_xenobiotica,SRR2989279.79296,100.00,37,0,0,1,37,195,159,2e-12,69.4
SONDA_E_E_xenobiotica,SRR2989279.79296,100.00,37,0,0,1,37,392,428,2e-12,69.4
SONDA_E_E_xenobiotica,SRR2989279.79292,100.00,37,0,0,1,37,195,159,2e-12,69.4
SONDA_E_E_xenobiotica,SRR2989279.79292,100.00,37,0,0,1,37,392,428,2e-12,69.4
SONDA_E_E_xenobiotica,SRR2989279.78911,100.00,37,0,0,1,37,195,159,2e-12,69.4
SONDA_E_E_xenobiotica,SRR2989279.78911,100.00,37,0,0,1,37,392,428,2e-12,69.4
SONDA_E_E_xenobiotica,SRR2989279.78721,100.00,37,0,0,1,37,195,159,2e-12,69.4
SONDA_E_E_xenobiotica,SRR2989279.78721,100.00,37,0,0,1,37,392,428,2e-12,69.4
SONDA_E_E_xenobiotica,SRR2989279.78719,100.00,37,0,0,1,37,195,159,2e-12,69.4
SONDA_E_E_xenobiotica,SRR2989279.78719,100.00,37,0,0,1,37,392,428,2e-12,69.4
SONDA_E_E_xenobiotica,SRR2989279.77722,100.00,37,0,0,1,37,195,159,2e-12,69.4
SONDA_E_E_xenobiotica,SRR2989279.77722,100.00,37,0,0,1,37,392,428,2e-12,69.4
SONDA_E_E_xenobiotica,SRR2989279.77684,100.00,37,0,0,1,37,392,428,2e-12,69.4
SONDA_E_E_xenobiotica,SRR2989279.77684,100.00,32,0,0,4,35,192,161,1e-09,60.2
SONDA_E_E_xenobiotica,SRR2989279.77504,100.00,37,0,0,1,37,195,159,2e-12,69.4
SONDA_E_E_xenobiotica,SRR2989279.77504,100.00,37,0,0,1,37,392,428,2e-12,69.4
SONDA_E_E_xenobiotica,SRR2989279.77502,100.00,37,0,0,1,37,195,159,2e-12,69.4
SONDA_E_E_xenobiotica,SRR2989279.77502,100.00,37,0,0,1,37,392,428,2e-12,69.4
SONDA_E_E_xenobiotica,SRR2989279.77007,100.00,37,0,0,1,37,195,159,2e-12,69.4
SONDA_E_E_xenobiotica,SRR2989279.77007,100.00,35,0,0,1,35,392,426,2e-11,65.8
SONDA_E_E_xenobiotica,SRR2989279.76883,100.00,37,0,0,1,37,195,159,2e-12,69.4
SONDA_E_E_xenobiotica,SRR2989279.76883,100.00,37,0,0,1,37,392,428,2e-12,69.4
SONDA_E_E_xenobiotica,SRR2989279.76530,100.00,37,0,0,1,37,195,159,2e-12,69.4
SONDA_E_E_xenobiotica,SRR2989279.76530,100.00,37,0,0,1,37,392,428,2e-12,69.4
SONDA_E_E_xenobiotica,SRR2989279.76528,100.00,37,0,0,1,37,195,159,2e-12,69.4
SONDA_E_E_xenobiotica,SRR2989279.76528,100.00,37,0,0,1,37,392,428,2e-12,69.4
SONDA_E_E_xenobiotica,SRR2989279.76510,100.00,37,0,0,1,37,195,159,2e-12,69.4
SONDA_E_E_xenobiotica,SRR2989279.76510,100.00,37,0,0,1,37,392,428,2e-12,69.4
SONDA_E_E_xenobiotica,SRR2989279.76229,100.00,37,0,0,1,37,195,159,2e-12,69.4
SONDA_E_E_xenobiotica,SRR2989279.76229,100.00,37,0,0,1,37,392,428,2e-12,69.4
SONDA_E_E_xenobiotica,SRR2989279.76186,100.00,37,0,0,1,37,195,159,2e-12,69.4
SONDA_E_E_xenobiotica,SRR2989279.76186,100.00,37,0,0,1,37,392,428,2e-12,69.4
SONDA_E_E_xenobiotica,SRR2989279.76184,100.00,37,0,0,1,37,195,159,2e-12,69.4
SONDA_E_E_xenobiotica,SRR2989279.76184,100.00,37,0,0,1,37,392,428,2e-12,69.4
SONDA_E_E_xenobiotica,SRR2989279.75139,100.00,37,0,0,1,37,195,159,2e-12,69.4
SONDA_E_E_xenobiotica,SRR2989279.75139,100.00,37,0,0,1,37,392,428,2e-12,69.4
SONDA_E_E_xenobiotica,SRR2989279.74884,100.00,37,0,0,1,37,195,159,2e-12,69.4
SONDA_E_E_xenobiotica,SRR2989279.74884,100.00,37,0,0,1,37,392,428,2e-12,69.4
SONDA_E_E_xenobiotica,SRR2989279.74663,100.00,37,0,0,1,37,195,159,2e-12,69.4
SONDA_E_E_xenobiotica,SRR2989279.74663,100.00,37,0,0,1,37,388,424,2e-12,69.4
SONDA_E_E_xenobiotica,SRR2989279.74620,100.00,37,0,0,1,37,195,159,2e-12,69.4
SONDA_E_E_xenobiotica,SRR2989279.74620,100.00,37,0,0,1,37,392,428,2e-12,69.4
SONDA_E_E_xenobiotica,SRR2989279.74567,100.00,37,0,0,1,37,195,159,2e-12,69.4
SONDA_E_E_xenobiotica,SRR2989279.74567,100.00,37,0,0,1,37,391,427,2e-12,69.4
SONDA_E_E_xenobiotica,SRR2989279.74549,100.00,37,0,0,1,37,195,159,2e-12,69.4
SONDA_E_E_xenobiotica,SRR2989279.74549,100.00,37,0,0,1,37,392,428,2e-12,69.4
SONDA_E_E_xenobiotica,SRR2989279.74545,100.00,37,0,0,1,37,195,159,2e-12,69.4
SONDA_E_E_xenobiotica,SRR2989279.74545,100.00,37,0,0,1,37,392,428,2e-12,69.4
SONDA_E_E_xenobiotica,SRR2989279.74542,100.00,37,0,0,1,37,195,159,2e-12,69.4
SONDA_E_E_xenobiotica,SRR2989279.74542,100.00,37,0,0,1,37,392,428,2e-12,69.4
SONDA_E_E_xenobiotica,SRR2989279.74539,100.00,37,0,0,1,37,195,159,2e-12,69.4
SONDA_E_E_xenobiotica,SRR2989279.74539,100.00,37,0,0,1,37,392,428,2e-12,69.4
SONDA_E_E_xenobiotica,SRR2989279.73587,100.00,37,0,0,1,37,195,159,2e-12,69.4
SONDA_E_E_xenobiotica,SRR2989279.73587,100.00,37,0,0,1,37,392,428,2e-12,69.4
SONDA_E_E_xenobiotica,SRR2989279.73334,100.00,37,0,0,1,37,195,159,2e-12,69.4
SONDA_E_E_xenobiotica,SRR2989279.72836,100.00,37,0,0,1,37,195,159,2e-12,69.4
SONDA_E_E_xenobiotica,SRR2989279.72836,97.30,37,1,0,1,37,392,428,8e-11,63.9
SONDA_E_E_xenobiotica,SRR2989279.72565,100.00,37,0,0,1,37,195,159,2e-12,69.4
SONDA_E_E_xenobiotica,SRR2989279.72565,100.00,37,0,0,1,37,392,428,2e-12,69.4
SONDA_E_E_xenobiotica,SRR2989279.71795,100.00,37,0,0,1,37,195,159,2e-12,69.4
SONDA_E_E_xenobiotica,SRR2989279.71795,100.00,37,0,0,1,37,392,428,2e-12,69.4
SONDA_E_E_xenobiotica,SRR2989279.71794,100.00,37,0,0,1,37,392,428,2e-12,69.4
SONDA_E_E_xenobiotica,SRR2989279.71794,97.30,37,1,0,1,37,195,159,8e-11,63.9
SONDA_E_E_xenobiotica,SRR2989279.71538,100.00,37,0,0,1,37,195,159,2e-12,69.4
SONDA_E_E_xenobiotica,SRR2989279.71538,100.00,37,0,0,1,37,392,428,2e-12,69.4
SONDA_E_E_xenobiotica,SRR2989279.71408,100.00,37,0,0,1,37,195,159,2e-12,69.4
SONDA_E_E_xenobiotica,SRR2989279.71408,100.00,37,0,0,1,37,392,428,2e-12,69.4
SONDA_E_E_xenobiotica,SRR2989279.71393,100.00,37,0,0,1,37,195,159,2e-12,69.4
SONDA_E_E_xenobiotica,SRR2989279.71393,100.00,37,0,0,1,37,392,428,2e-12,69.4
SONDA_E_E_xenobiotica,SRR2989279.71387,100.00,37,0,0,1,37,195,159,2e-12,69.4
SONDA_E_E_xenobiotica,SRR2989279.71387,100.00,37,0,0,1,37,392,428,2e-12,69.4
SONDA_E_E_xenobiotica,SRR2989279.71237,100.00,37,0,0,1,37,195,159,2e-12,69.4
SONDA_E_E_xenobiotica,SRR2989279.71237,100.00,37,0,0,1,37,392,428,2e-12,69.4
SONDA_E_E_xenobiotica,SRR2989279.71233,100.00,37,0,0,1,37,195,159,2e-12,69.4
SONDA_E_E_xenobiotica,SRR2989279.71233,100.00,37,0,0,1,37,392,428,2e-12,69.4
SONDA_E_E_xenobiotica,SRR2989279.71230,100.00,37,0,0,1,37,195,159,2e-12,69.4
SONDA_E_E_xenobiotica,SRR2989279.71230,100.00,37,0,0,1,37,392,428,2e-12,69.4
SONDA_E_E_xenobiotica,SRR2989279.71228,100.00,37,0,0,1,37,195,159,2e-12,69.4
SONDA_E_E_xenobiotica,SRR2989279.71228,100.00,37,0,0,1,37,392,428,2e-12,69.4
SONDA_E_E_xenobiotica,SRR2989279.70913,100.00,37,0,0,1,37,194,158,2e-12,69.4
SONDA_E_E_xenobiotica,SRR2989279.70913,100.00,37,0,0,1,37,392,428,2e-12,69.4
SONDA_E_E_xenobiotica,SRR2989279.70910,100.00,37,0,0,1,37,194,158,2e-12,69.4
SONDA_E_E_xenobiotica,SRR2989279.70910,100.00,37,0,0,1,37,392,428,2e-12,69.4
SONDA_E_E_xenobiotica,SRR2989279.70262,100.00,37,0,0,1,37,195,159,2e-12,69.4
SONDA_E_E_xenobiotica,SRR2989279.70262,100.00,37,0,0,1,37,392,428,2e-12,69.4
SONDA_E_E_xenobiotica,SRR2989279.70256,100.00,37,0,0,1,37,195,159,2e-12,69.4
SONDA_E_E_xenobiotica,SRR2989279.70256,100.00,37,0,0,1,37,392,428,2e-12,69.4
SONDA_E_E_xenobiotica,SRR2989279.70124,100.00,37,0,0,1,37,195,159,2e-12,69.4
SONDA_E_E_xenobiotica,SRR2989279.70124,100.00,37,0,0,1,37,392,428,2e-12,69.4
SONDA_E_E_xenobiotica,SRR2989279.69926,100.00,37,0,0,1,37,195,159,2e-12,69.4
SONDA_E_E_xenobiotica,SRR2989279.69807,100.00,37,0,0,1,37,195,159,2e-12,69.4
SONDA_E_E_xenobiotica,SRR2989279.69807,100.00,37,0,0,1,37,392,428,2e-12,69.4
SONDA_E_E_xenobiotica,SRR2989279.69806,100.00,37,0,0,1,37,195,159,2e-12,69.4
SONDA_E_E_xenobiotica,SRR2989279.69806,100.00,37,0,0,1,37,392,428,2e-12,69.4
SONDA_E_E_xenobiotica,SRR2989279.69370,100.00,37,0,0,1,37,195,159,2e-12,69.4
SONDA_E_E_xenobiotica,SRR2989279.69370,100.00,37,0,0,1,37,392,428,2e-12,69.4
SONDA_E_E_xenobiotica,SRR2989279.69018,100.00,37,0,0,1,37,195,159,2e-12,69.4
SONDA_E_E_xenobiotica,SRR2989279.69018,100.00,37,0,0,1,37,392,428,2e-12,69.4
SONDA_E_E_xenobiotica,SRR2989279.69016,100.00,37,0,0,1,37,195,159,2e-12,69.4
SONDA_E_E_xenobiotica,SRR2989279.69016,100.00,37,0,0,1,37,392,428,2e-12,69.4
SONDA_E_E_xenobiotica,SRR2989279.69009,100.00,37,0,0,1,37,195,159,2e-12,69.4
SONDA_E_E_xenobiotica,SRR2989279.69009,100.00,37,0,0,1,37,392,428,2e-12,69.4
SONDA_E_E_xenobiotica,SRR2989279.68503,100.00,37,0,0,1,37,195,159,2e-12,69.4
SONDA_E_E_xenobiotica,SRR2989279.68503,100.00,37,0,0,1,37,392,428,2e-12,69.4
SONDA_E_E_xenobiotica,SRR2989279.68291,100.00,37,0,0,1,37,195,159,2e-12,69.4
SONDA_E_E_xenobiotica,SRR2989279.68291,100.00,37,0,0,1,37,392,428,2e-12,69.4
SONDA_E_E_xenobiotica,SRR2989279.68065,100.00,37,0,0,1,37,194,158,2e-12,69.4
SONDA_E_E_xenobiotica,SRR2989279.68065,100.00,37,0,0,1,37,392,428,2e-12,69.4
SONDA_E_E_xenobiotica,SRR2989279.68060,100.00,37,0,0,1,37,194,158,2e-12,69.4
SONDA_E_E_xenobiotica,SRR2989279.68060,100.00,37,0,0,1,37,392,428,2e-12,69.4
SONDA_E_E_xenobiotica,SRR2989279.67551,100.00,37,0,0,1,37,195,159,2e-12,69.4
SONDA_E_E_xenobiotica,SRR2989279.67551,100.00,37,0,0,1,37,392,428,2e-12,69.4
SONDA_E_E_xenobiotica,SRR2989279.67322,100.00,37,0,0,1,37,195,159,2e-12,69.4
SONDA_E_E_xenobiotica,SRR2989279.67322,100.00,37,0,0,1,37,392,428,2e-12,69.4
SONDA_E_E_xenobiotica,SRR2989279.66842,100.00,37,0,0,1,37,195,159,2e-12,69.4
SONDA_E_E_xenobiotica,SRR2989279.66842,100.00,37,0,0,1,37,392,428,2e-12,69.4
SONDA_E_E_xenobiotica,SRR2989279.66838,100.00,37,0,0,1,37,195,159,2e-12,69.4
SONDA_E_E_xenobiotica,SRR2989279.66838,100.00,37,0,0,1,37,392,428,2e-12,69.4
SONDA_E_E_xenobiotica,SRR2989279.66713,100.00,37,0,0,1,37,195,159,2e-12,69.4
SONDA_E_E_xenobiotica,SRR2989279.66713,100.00,37,0,0,1,37,392,428,2e-12,69.4
SONDA_E_E_xenobiotica,SRR2989279.66712,100.00,37,0,0,1,37,195,159,2e-12,69.4
SONDA_E_E_xenobiotica,SRR2989279.66712,100.00,37,0,0,1,37,392,428,2e-12,69.4
SONDA_E_E_xenobiotica,SRR2989279.66646,100.00,37,0,0,1,37,195,159,2e-12,69.4
SONDA_E_E_xenobiotica,SRR2989279.66646,100.00,37,0,0,1,37,392,428,2e-12,69.4
SONDA_E_E_xenobiotica,SRR2989279.66640,100.00,37,0,0,1,37,195,159,2e-12,69.4
SONDA_E_E_xenobiotica,SRR2989279.66640,100.00,37,0,0,1,37,392,428,2e-12,69.4
SONDA_E_E_xenobiotica,SRR2989279.66540,100.00,37,0,0,1,37,195,159,2e-12,69.4
SONDA_E_E_xenobiotica,SRR2989279.66540,100.00,37,0,0,1,37,392,428,2e-12,69.4
SONDA_E_E_xenobiotica,SRR2989279.66393,100.00,37,0,0,1,37,392,428,2e-12,69.4
SONDA_E_E_xenobiotica,SRR2989279.66393,97.30,37,1,0,1,37,195,159,8e-11,63.9
SONDA_E_E_xenobiotica,SRR2989279.65710,100.00,37,0,0,1,37,194,158,2e-12,69.4
SONDA_E_E_xenobiotica,SRR2989279.65710,100.00,37,0,0,1,37,392,428,2e-12,69.4
SONDA_E_E_xenobiotica,SRR2989279.65709,100.00,37,0,0,1,37,194,158,2e-12,69.4
SONDA_E_E_xenobiotica,SRR2989279.65709,100.00,37,0,0,1,37,392,428,2e-12,69.4
SONDA_E_E_xenobiotica,SRR2989279.65704,100.00,37,0,0,1,37,194,158,2e-12,69.4
SONDA_E_E_xenobiotica,SRR2989279.65704,100.00,37,0,0,1,37,392,428,2e-12,69.4
SONDA_E_E_xenobiotica,SRR2989279.65296,100.00,37,0,0,1,37,195,159,2e-12,69.4
SONDA_E_E_xenobiotica,SRR2989279.65296,100.00,37,0,0,1,37,392,428,2e-12,69.4
SONDA_E_E_xenobiotica,SRR2989279.64966,100.00,37,0,0,1,37,195,159,2e-12,69.4
SONDA_E_E_xenobiotica,SRR2989279.64966,100.00,37,0,0,1,37,392,428,2e-12,69.4
SONDA_E_E_xenobiotica,SRR2989279.64842,100.00,37,0,0,1,37,195,159,2e-12,69.4
SONDA_E_E_xenobiotica,SRR2989279.64842,100.00,37,0,0,1,37,392,428,2e-12,69.4
SONDA_E_E_xenobiotica,SRR2989279.64837,100.00,37,0,0,1,37,195,159,2e-12,69.4
SONDA_E_E_xenobiotica,SRR2989279.64837,100.00,37,0,0,1,37,392,428,2e-12,69.4
SONDA_E_E_xenobiotica,SRR2989279.64785,100.00,37,0,0,1,37,195,159,2e-12,69.4
SONDA_E_E_xenobiotica,SRR2989279.64785,100.00,37,0,0,1,37,392,428,2e-12,69.4
SONDA_E_E_xenobiotica,SRR2989279.64330,100.00,37,0,0,1,37,195,159,2e-12,69.4
SONDA_E_E_xenobiotica,SRR2989279.64330,100.00,37,0,0,1,37,392,428,2e-12,69.4
SONDA_E_E_xenobiotica,SRR2989279.64327,100.00,37,0,0,1,37,195,159,2e-12,69.4
SONDA_E_E_xenobiotica,SRR2989279.64327,100.00,37,0,0,1,37,392,428,2e-12,69.4
SONDA_E_E_xenobiotica,SRR2989279.64182,100.00,37,0,0,1,37,195,159,2e-12,69.4
SONDA_E_E_xenobiotica,SRR2989279.64182,100.00,37,0,0,1,37,392,428,2e-12,69.4
SONDA_E_E_xenobiotica,SRR2989279.63726,100.00,37,0,0,1,37,195,159,2e-12,69.4
SONDA_E_E_xenobiotica,SRR2989279.63726,100.00,37,0,0,1,37,392,428,2e-12,69.4
SONDA_E_E_xenobiotica,SRR2989279.63233,100.00,37,0,0,1,37,195,159,2e-12,69.4
SONDA_E_E_xenobiotica,SRR2989279.63233,100.00,37,0,0,1,37,392,428,2e-12,69.4
SONDA_E_E_xenobiotica,SRR2989279.63200,100.00,37,0,0,1,37,392,428,2e-12,69.4
SONDA_E_E_xenobiotica,SRR2989279.62984,100.00,37,0,0,1,37,195,159,2e-12,69.4
SONDA_E_E_xenobiotica,SRR2989279.62984,100.00,37,0,0,1,37,392,428,2e-12,69.4
SONDA_E_E_xenobiotica,SRR2989279.62840,100.00,37,0,0,1,37,195,159,2e-12,69.4
SONDA_E_E_xenobiotica,SRR2989279.62840,100.00,37,0,0,1,37,392,428,2e-12,69.4
SONDA_E_E_xenobiotica,SRR2989279.62838,100.00,37,0,0,1,37,195,159,2e-12,69.4
SONDA_E_E_xenobiotica,SRR2989279.62838,100.00,37,0,0,1,37,392,428,2e-12,69.4
SONDA_E_E_xenobiotica,SRR2989279.62833,100.00,37,0,0,1,37,195,159,2e-12,69.4
SONDA_E_E_xenobiotica,SRR2989279.62833,100.00,37,0,0,1,37,392,428,2e-12,69.4
SONDA_E_E_xenobiotica,SRR2989279.62769,100.00,37,0,0,1,37,195,159,2e-12,69.4
SONDA_E_E_xenobiotica,SRR2989279.62769,100.00,37,0,0,1,37,392,428,2e-12,69.4
SONDA_E_E_xenobiotica,SRR2989279.62715,100.00,37,0,0,1,37,195,159,2e-12,69.4
SONDA_E_E_xenobiotica,SRR2989279.62715,100.00,37,0,0,1,37,392,428,2e-12,69.4
SONDA_E_E_xenobiotica,SRR2989279.62714,100.00,37,0,0,1,37,195,159,2e-12,69.4
SONDA_E_E_xenobiotica,SRR2989279.62714,100.00,37,0,0,1,37,392,428,2e-12,69.4
SONDA_E_E_xenobiotica,SRR2989279.60915,100.00,37,0,0,1,37,195,159,2e-12,69.4
SONDA_E_E_xenobiotica,SRR2989279.60915,100.00,37,0,0,1,37,392,428,2e-12,69.4
SONDA_E_E_xenobiotica,SRR2989279.60889,100.00,37,0,0,1,37,195,159,2e-12,69.4
SONDA_E_E_xenobiotica,SRR2989279.60889,100.00,37,0,0,1,37,391,427,2e-12,69.4
SONDA_E_E_xenobiotica,SRR2989279.60546,100.00,37,0,0,1,37,195,159,2e-12,69.4
SONDA_E_E_xenobiotica,SRR2989279.60396,100.00,37,0,0,1,37,195,159,2e-12,69.4
SONDA_E_E_xenobiotica,SRR2989279.60396,100.00,37,0,0,1,37,392,428,2e-12,69.4
SONDA_E_E_xenobiotica,SRR2989279.60204,100.00,37,0,0,1,37,195,159,2e-12,69.4
SONDA_E_E_xenobiotica,SRR2989279.59564,100.00,37,0,0,1,37,195,159,2e-12,69.4
SONDA_E_E_xenobiotica,SRR2989279.59564,100.00,37,0,0,1,37,392,428,2e-12,69.4
SONDA_E_E_xenobiotica,SRR2989279.59559,100.00,37,0,0,1,37,195,159,2e-12,69.4
SONDA_E_E_xenobiotica,SRR2989279.59559,100.00,37,0,0,1,37,392,428,2e-12,69.4
SONDA_E_E_xenobiotica,SRR2989279.59014,100.00,37,0,0,1,37,195,159,2e-12,69.4
SONDA_E_E_xenobiotica,SRR2989279.59014,100.00,37,0,0,1,37,392,428,2e-12,69.4
SONDA_E_E_xenobiotica,SRR2989279.59013,100.00,37,0,0,1,37,195,159,2e-12,69.4
SONDA_E_E_xenobiotica,SRR2989279.59013,100.00,37,0,0,1,37,392,428,2e-12,69.4
SONDA_E_E_xenobiotica,SRR2989279.58923,100.00,37,0,0,1,37,195,159,2e-12,69.4
SONDA_E_E_xenobiotica,SRR2989279.58923,100.00,37,0,0,1,37,392,428,2e-12,69.4
SONDA_E_E_xenobiotica,SRR2989279.58918,100.00,37,0,0,1,37,195,159,2e-12,69.4
SONDA_E_E_xenobiotica,SRR2989279.58918,100.00,37,0,0,1,37,392,428,2e-12,69.4
SONDA_E_E_xenobiotica,SRR2989279.58848,100.00,37,0,0,1,37,195,159,2e-12,69.4
SONDA_E_E_xenobiotica,SRR2989279.58848,100.00,37,0,0,1,37,392,428,2e-12,69.4
SONDA_E_E_xenobiotica,SRR2989279.58499,100.00,37,0,0,1,37,195,159,2e-12,69.4
SONDA_E_E_xenobiotica,SRR2989279.58499,100.00,37,0,0,1,37,392,428,2e-12,69.4
SONDA_E_E_xenobiotica,SRR2989279.58486,100.00,37,0,0,1,37,195,159,2e-12,69.4
SONDA_E_E_xenobiotica,SRR2989279.58486,100.00,37,0,0,1,37,392,428,2e-12,69.4
SONDA_E_E_xenobiotica,SRR2989279.58039,100.00,37,0,0,1,37,195,159,2e-12,69.4
SONDA_E_E_xenobiotica,SRR2989279.58039,100.00,31,0,0,7,37,398,428,4e-09,58.4
SONDA_E_E_xenobiotica,SRR2989279.57993,100.00,37,0,0,1,37,195,159,2e-12,69.4
SONDA_E_E_xenobiotica,SRR2989279.57993,100.00,37,0,0,1,37,392,428,2e-12,69.4
SONDA_E_E_xenobiotica,SRR2989279.57988,100.00,37,0,0,1,37,392,428,2e-12,69.4
SONDA_E_E_xenobiotica,SRR2989279.57985,100.00,37,0,0,1,37,195,159,2e-12,69.4
SONDA_E_E_xenobiotica,SRR2989279.57846,100.00,37,0,0,1,37,195,159,2e-12,69.4
SONDA_E_E_xenobiotica,SRR2989279.57846,100.00,37,0,0,1,37,392,428,2e-12,69.4
SONDA_E_E_xenobiotica,SRR2989279.57081,100.00,37,0,0,1,37,195,159,2e-12,69.4
SONDA_E_E_xenobiotica,SRR2989279.57081,100.00,37,0,0,1,37,392,428,2e-12,69.4
SONDA_E_E_xenobiotica,SRR2989279.57079,100.00,37,0,0,1,37,195,159,2e-12,69.4
SONDA_E_E_xenobiotica,SRR2989279.57079,100.00,37,0,0,1,37,392,428,2e-12,69.4
SONDA_E_E_xenobiotica,SRR2989279.57078,100.00,37,0,0,1,37,195,159,2e-12,69.4
SONDA_E_E_xenobiotica,SRR2989279.57078,100.00,37,0,0,1,37,392,428,2e-12,69.4
SONDA_E_E_xenobiotica,SRR2989279.56728,100.00,37,0,0,1,37,195,159,2e-12,69.4
SONDA_E_E_xenobiotica,SRR2989279.56728,100.00,37,0,0,1,37,392,428,2e-12,69.4
SONDA_E_E_xenobiotica,SRR2989279.56593,100.00,37,0,0,1,37,195,159,2e-12,69.4
SONDA_E_E_xenobiotica,SRR2989279.56593,100.00,37,0,0,1,37,392,428,2e-12,69.4
SONDA_E_E_xenobiotica,SRR2989279.56590,100.00,37,0,0,1,37,195,159,2e-12,69.4
SONDA_E_E_xenobiotica,SRR2989279.56590,100.00,37,0,0,1,37,392,428,2e-12,69.4
SONDA_E_E_xenobiotica,SRR2989279.56583,100.00,37,0,0,1,37,195,159,2e-12,69.4
SONDA_E_E_xenobiotica,SRR2989279.56583,100.00,37,0,0,1,37,392,428,2e-12,69.4
SONDA_E_E_xenobiotica,SRR2989279.56579,100.00,37,0,0,1,37,392,428,2e-12,69.4
SONDA_E_E_xenobiotica,SRR2989279.56579,97.30,37,1,0,1,37,195,159,8e-11,63.9
SONDA_E_E_xenobiotica,SRR2989279.56577,100.00,37,0,0,1,37,195,159,2e-12,69.4
SONDA_E_E_xenobiotica,SRR2989279.56577,100.00,37,0,0,1,37,392,428,2e-12,69.4
SONDA_E_E_xenobiotica,SRR2989279.56573,100.00,37,0,0,1,37,195,159,2e-12,69.4
SONDA_E_E_xenobiotica,SRR2989279.56573,100.00,37,0,0,1,37,392,428,2e-12,69.4
SONDA_E_E_xenobiotica,SRR2989279.56430,100.00,37,0,0,1,37,195,159,2e-12,69.4
SONDA_E_E_xenobiotica,SRR2989279.56430,100.00,37,0,0,1,37,392,428,2e-12,69.4
SONDA_E_E_xenobiotica,SRR2989279.56429,100.00,37,0,0,1,37,195,159,2e-12,69.4
SONDA_E_E_xenobiotica,SRR2989279.56429,100.00,37,0,0,1,37,392,428,2e-12,69.4
SONDA_E_E_xenobiotica,SRR2989279.56316,100.00,37,0,0,1,37,195,159,2e-12,69.4
SONDA_E_E_xenobiotica,SRR2989279.56316,100.00,37,0,0,1,37,392,428,2e-12,69.4
SONDA_E_E_xenobiotica,SRR2989279.56311,100.00,37,0,0,1,37,195,159,2e-12,69.4
SONDA_E_E_xenobiotica,SRR2989279.56311,100.00,37,0,0,1,37,392,428,2e-12,69.4
SONDA_E_E_xenobiotica,SRR2989279.56064,100.00,37,0,0,1,37,195,159,2e-12,69.4
SONDA_E_E_xenobiotica,SRR2989279.56064,100.00,37,0,0,1,37,392,428,2e-12,69.4
SONDA_E_E_xenobiotica,SRR2989279.55500,100.00,37,0,0,1,37,195,159,2e-12,69.4
SONDA_E_E_xenobiotica,SRR2989279.55500,100.00,37,0,0,1,37,392,428,2e-12,69.4
SONDA_E_E_xenobiotica,SRR2989279.55120,100.00,37,0,0,1,37,195,159,2e-12,69.4
SONDA_E_E_xenobiotica,SRR2989279.55120,100.00,37,0,0,1,37,392,428,2e-12,69.4
SONDA_E_E_xenobiotica,SRR2989279.55117,100.00,37,0,0,1,37,195,159,2e-12,69.4
SONDA_E_E_xenobiotica,SRR2989279.55117,100.00,37,0,0,1,37,392,428,2e-12,69.4
SONDA_E_E_xenobiotica,SRR2989279.55114,100.00,37,0,0,1,37,195,159,2e-12,69.4
SONDA_E_E_xenobiotica,SRR2989279.55114,100.00,37,0,0,1,37,392,428,2e-12,69.4
SONDA_E_E_xenobiotica,SRR2989279.55053,100.00,37,0,0,1,37,392,428,2e-12,69.4
SONDA_E_E_xenobiotica,SRR2989279.55047,100.00,37,0,0,1,37,195,159,2e-12,69.4
SONDA_E_E_xenobiotica,SRR2989279.55047,100.00,37,0,0,1,37,392,428,2e-12,69.4
SONDA_E_E_xenobiotica,SRR2989279.55042,100.00,37,0,0,1,37,195,159,2e-12,69.4
SONDA_E_E_xenobiotica,SRR2989279.55042,100.00,37,0,0,1,37,392,428,2e-12,69.4
SONDA_E_E_xenobiotica,SRR2989279.55002,100.00,37,0,0,1,37,195,159,2e-12,69.4
SONDA_E_E_xenobiotica,SRR2989279.55002,100.00,37,0,0,1,37,392,428,2e-12,69.4
SONDA_E_E_xenobiotica,SRR2989279.54942,100.00,37,0,0,1,37,195,159,2e-12,69.4
SONDA_E_E_xenobiotica,SRR2989279.54942,100.00,37,0,0,1,37,392,428,2e-12,69.4
SONDA_E_E_xenobiotica,SRR2989279.54883,100.00,37,0,0,1,37,195,159,2e-12,69.4
SONDA_E_E_xenobiotica,SRR2989279.54883,100.00,37,0,0,1,37,392,428,2e-12,69.4
SONDA_E_E_xenobiotica,SRR2989279.54144,100.00,37,0,0,1,37,194,158,2e-12,69.4
SONDA_E_E_xenobiotica,SRR2989279.54144,97.30,37,1,0,1,37,391,427,8e-11,63.9
SONDA_E_E_xenobiotica,SRR2989279.54049,100.00,37,0,0,1,37,195,159,2e-12,69.4
SONDA_E_E_xenobiotica,SRR2989279.54049,100.00,37,0,0,1,37,392,428,2e-12,69.4
SONDA_E_E_xenobiotica,SRR2989279.54042,100.00,37,0,0,1,37,195,159,2e-12,69.4
SONDA_E_E_xenobiotica,SRR2989279.54042,100.00,37,0,0,1,37,392,428,2e-12,69.4
SONDA_E_E_xenobiotica,SRR2989279.53941,100.00,37,0,0,1,37,195,159,2e-12,69.4
SONDA_E_E_xenobiotica,SRR2989279.53804,100.00,37,0,0,1,37,195,159,2e-12,69.4
SONDA_E_E_xenobiotica,SRR2989279.53086,100.00,37,0,0,1,37,195,159,2e-12,69.4
SONDA_E_E_xenobiotica,SRR2989279.53086,100.00,37,0,0,1,37,392,428,2e-12,69.4
SONDA_E_E_xenobiotica,SRR2989279.52882,100.00,37,0,0,1,37,195,159,2e-12,69.4
SONDA_E_E_xenobiotica,SRR2989279.52882,100.00,37,0,0,1,37,389,425,2e-12,69.4
SONDA_E_E_xenobiotica,SRR2989279.52878,100.00,37,0,0,1,37,195,159,2e-12,69.4
SONDA_E_E_xenobiotica,SRR2989279.52527,100.00,37,0,0,1,37,195,159,2e-12,69.4
SONDA_E_E_xenobiotica,SRR2989279.52527,100.00,37,0,0,1,37,392,428,2e-12,69.4
SONDA_E_E_xenobiotica,SRR2989279.52523,100.00,37,0,0,1,37,194,158,2e-12,69.4
SONDA_E_E_xenobiotica,SRR2989279.52523,100.00,37,0,0,1,37,392,428,2e-12,69.4
SONDA_E_E_xenobiotica,SRR2989279.52506,100.00,37,0,0,1,37,195,159,2e-12,69.4
SONDA_E_E_xenobiotica,SRR2989279.52506,100.00,37,0,0,1,37,392,428,2e-12,69.4
SONDA_E_E_xenobiotica,SRR2989279.52505,100.00,37,0,0,1,37,392,428,2e-12,69.4
SONDA_E_E_xenobiotica,SRR2989279.51976,100.00,37,0,0,1,37,195,159,2e-12,69.4
SONDA_E_E_xenobiotica,SRR2989279.51976,100.00,37,0,0,1,37,392,428,2e-12,69.4
SONDA_E_E_xenobiotica,SRR2989279.51575,100.00,37,0,0,1,37,195,159,2e-12,69.4
SONDA_E_E_xenobiotica,SRR2989279.51575,100.00,37,0,0,1,37,392,428,2e-12,69.4
SONDA_E_E_xenobiotica,SRR2989279.51329,100.00,37,0,0,1,37,195,159,2e-12,69.4
SONDA_E_E_xenobiotica,SRR2989279.51329,97.30,37,1,0,1,37,392,428,8e-11,63.9
SONDA_E_E_xenobiotica,SRR2989279.51157,100.00,37,0,0,1,37,392,428,2e-12,69.4
SONDA_E_E_xenobiotica,SRR2989279.51155,100.00,37,0,0,1,37,195,159,2e-12,69.4
SONDA_E_E_xenobiotica,SRR2989279.51155,100.00,37,0,0,1,37,392,428,2e-12,69.4
SONDA_E_E_xenobiotica,SRR2989279.50773,100.00,37,0,0,1,37,195,159,2e-12,69.4
SONDA_E_E_xenobiotica,SRR2989279.50773,100.00,37,0,0,1,37,392,428,2e-12,69.4
SONDA_E_E_xenobiotica,SRR2989279.50736,100.00,37,0,0,1,37,195,159,2e-12,69.4
SONDA_E_E_xenobiotica,SRR2989279.50736,100.00,37,0,0,1,37,392,428,2e-12,69.4
SONDA_E_E_xenobiotica,SRR2989279.50700,100.00,37,0,0,1,37,195,159,2e-12,69.4
SONDA_E_E_xenobiotica,SRR2989279.50700,100.00,37,0,0,1,37,392,428,2e-12,69.4
SONDA_E_E_xenobiotica,SRR2989279.50634,100.00,37,0,0,1,37,194,158,2e-12,69.4
SONDA_E_E_xenobiotica,SRR2989279.50634,100.00,37,0,0,1,37,392,428,2e-12,69.4
SONDA_E_E_xenobiotica,SRR2989279.49908,100.00,37,0,0,1,37,195,159,2e-12,69.4
SONDA_E_E_xenobiotica,SRR2989279.49908,100.00,37,0,0,1,37,392,428,2e-12,69.4
SONDA_E_E_xenobiotica,SRR2989279.49394,100.00,37,0,0,1,37,195,159,2e-12,69.4
SONDA_E_E_xenobiotica,SRR2989279.49394,100.00,37,0,0,1,37,392,428,2e-12,69.4
SONDA_E_E_xenobiotica,SRR2989279.49389,100.00,37,0,0,1,37,195,159,2e-12,69.4
SONDA_E_E_xenobiotica,SRR2989279.49389,100.00,37,0,0,1,37,392,428,2e-12,69.4
SONDA_E_E_xenobiotica,SRR2989279.49264,100.00,37,0,0,1,37,195,159,2e-12,69.4
SONDA_E_E_xenobiotica,SRR2989279.49264,100.00,37,0,0,1,37,392,428,2e-12,69.4
SONDA_E_E_xenobiotica,SRR2989279.49088,100.00,37,0,0,1,37,195,159,2e-12,69.4
SONDA_E_E_xenobiotica,SRR2989279.49088,100.00,37,0,0,1,37,392,428,2e-12,69.4
SONDA_E_E_xenobiotica,SRR2989279.49010,100.00,37,0,0,1,37,195,159,2e-12,69.4
SONDA_E_E_xenobiotica,SRR2989279.49010,100.00,37,0,0,1,37,392,428,2e-12,69.4
SONDA_E_E_xenobiotica,SRR2989279.48980,100.00,37,0,0,1,37,195,159,2e-12,69.4
SONDA_E_E_xenobiotica,SRR2989279.48980,100.00,37,0,0,1,37,392,428,2e-12,69.4
SONDA_E_E_xenobiotica,SRR2989279.48915,100.00,37,0,0,1,37,195,159,2e-12,69.4
SONDA_E_E_xenobiotica,SRR2989279.48915,100.00,37,0,0,1,37,392,428,2e-12,69.4
SONDA_E_E_xenobiotica,SRR2989279.48657,100.00,37,0,0,1,37,195,159,2e-12,69.4
SONDA_E_E_xenobiotica,SRR2989279.48657,100.00,37,0,0,1,37,392,428,2e-12,69.4
SONDA_E_E_xenobiotica,SRR2989279.48652,100.00,37,0,0,1,37,195,159,2e-12,69.4
SONDA_E_E_xenobiotica,SRR2989279.48652,100.00,37,0,0,1,37,392,428,2e-12,69.4
SONDA_E_E_xenobiotica,SRR2989279.48353,100.00,37,0,0,1,37,195,159,2e-12,69.4
SONDA_E_E_xenobiotica,SRR2989279.48353,100.00,37,0,0,1,37,392,428,2e-12,69.4
SONDA_E_E_xenobiotica,SRR2989279.48352,100.00,37,0,0,1,37,195,159,2e-12,69.4
SONDA_E_E_xenobiotica,SRR2989279.48352,100.00,37,0,0,1,37,392,428,2e-12,69.4
SONDA_E_E_xenobiotica,SRR2989279.48194,100.00,37,0,0,1,37,195,159,2e-12,69.4
SONDA_E_E_xenobiotica,SRR2989279.48194,100.00,37,0,0,1,37,392,428,2e-12,69.4
SONDA_E_E_xenobiotica,SRR2989279.48010,100.00,37,0,0,1,37,195,159,2e-12,69.4
SONDA_E_E_xenobiotica,SRR2989279.48010,100.00,37,0,0,1,37,392,428,2e-12,69.4
SONDA_E_E_xenobiotica,SRR2989279.47853,100.00,37,0,0,1,37,195,159,2e-12,69.4
SONDA_E_E_xenobiotica,SRR2989279.47853,100.00,37,0,0,1,37,392,428,2e-12,69.4
SONDA_E_E_xenobiotica,SRR2989279.47848,100.00,37,0,0,1,37,195,159,2e-12,69.4
SONDA_E_E_xenobiotica,SRR2989279.47848,100.00,37,0,0,1,37,392,428,2e-12,69.4
SONDA_E_E_xenobiotica,SRR2989279.47494,100.00,37,0,0,1,37,392,428,2e-12,69.4
