SONDA_E_E_xenobiotica,ERR1817049.505124,100.00,34,0,0,1,34,200,167,3e-10,63.9
SONDA_E_E_xenobiotica,ERR1817049.505124,100.00,34,0,0,1,34,411,444,3e-10,63.9
SONDA_E_E_xenobiotica,ERR1817049.490816,100.00,34,0,0,1,34,200,167,3e-10,63.9
SONDA_E_E_xenobiotica,ERR1817049.490816,100.00,34,0,0,1,34,411,444,3e-10,63.9
SONDA_E_E_xenobiotica,ERR1817049.363399,100.00,34,0,0,1,34,200,167,3e-10,63.9
SONDA_E_E_xenobiotica,ERR1817049.363399,100.00,34,0,0,1,34,411,444,3e-10,63.9
SONDA_E_E_xenobiotica,ERR1817049.293086,100.00,34,0,0,1,34,200,167,3e-10,63.9
SONDA_E_E_xenobiotica,ERR1817049.293086,100.00,34,0,0,1,34,411,444,3e-10,63.9
SONDA_E_E_xenobiotica,ERR1817049.62840,100.00,34,0,0,1,34,200,167,3e-10,63.9
SONDA_E_E_xenobiotica,ERR1817049.62840,100.00,34,0,0,1,34,411,444,3e-10,63.9
SONDA_E_E_xenobiotica,ERR1817049.9188,100.00,34,0,0,1,34,411,444,3e-10,63.9
SONDA_E_E_xenobiotica,ERR1817049.591869,97.06,34,1,0,1,34,200,167,1e-08,58.4
SONDA_E_E_xenobiotica,ERR1817049.591869,97.06,34,1,0,1,34,411,444,1e-08,58.4
