SONDA_C_arxii,SRR8796138.62725,97.62,42,0,1,1,42,70,30,2e-13,71.3
SONDA_C_arxii,SRR8796138.62725,97.62,42,0,1,1,42,400,440,2e-13,71.3
SONDA_C_arxii,SRR8796138.60387,97.62,42,0,1,1,42,400,440,2e-13,71.3
SONDA_C_arxii,SRR8796138.54367,97.62,42,0,1,1,42,400,440,2e-13,71.3
SONDA_C_arxii,SRR8796138.53513,97.62,42,0,1,1,42,400,440,2e-13,71.3
SONDA_C_arxii,SRR8796138.50892,97.62,42,0,1,1,42,400,440,2e-13,71.3
SONDA_C_arxii,SRR8796138.47564,97.62,42,0,1,1,42,70,30,2e-13,71.3
SONDA_C_arxii,SRR8796138.47194,97.62,42,0,1,1,42,70,30,2e-13,71.3
SONDA_C_arxii,SRR8796138.47194,97.62,42,0,1,1,42,400,440,2e-13,71.3
SONDA_C_arxii,SRR8796138.45568,97.62,42,0,1,1,42,400,440,2e-13,71.3
SONDA_C_arxii,SRR8796138.44822,97.62,42,0,1,1,42,400,440,2e-13,71.3
SONDA_C_arxii,SRR8796138.43208,97.62,42,0,1,1,42,70,30,2e-13,71.3
SONDA_C_arxii,SRR8796138.43208,97.62,42,0,1,1,42,400,440,2e-13,71.3
SONDA_C_arxii,SRR8796138.42986,97.62,42,0,1,1,42,400,440,2e-13,71.3
SONDA_C_arxii,SRR8796138.41553,97.62,42,0,1,1,42,399,439,2e-13,71.3
SONDA_C_arxii,SRR8796138.40094,97.62,42,0,1,1,42,400,440,2e-13,71.3
SONDA_C_arxii,SRR8796138.38072,97.62,42,0,1,1,42,400,440,2e-13,71.3
SONDA_C_arxii,SRR8796138.36225,97.62,42,0,1,1,42,70,30,2e-13,71.3
SONDA_C_arxii,SRR8796138.36225,97.62,42,0,1,1,42,400,440,2e-13,71.3
SONDA_C_arxii,SRR8796138.34434,97.62,42,0,1,1,42,400,440,2e-13,71.3
SONDA_C_arxii,SRR8796138.34433,97.62,42,0,1,1,42,400,440,2e-13,71.3
SONDA_C_arxii,SRR8796138.28841,97.62,42,0,1,1,42,70,30,2e-13,71.3
SONDA_C_arxii,SRR8796138.28841,97.62,42,0,1,1,42,400,440,2e-13,71.3
SONDA_C_arxii,SRR8796138.27256,97.62,42,0,1,1,42,400,440,2e-13,71.3
SONDA_C_arxii,SRR8796138.26495,97.62,42,0,1,1,42,400,440,2e-13,71.3
SONDA_C_arxii,SRR8796138.24279,97.62,42,0,1,1,42,70,30,2e-13,71.3
SONDA_C_arxii,SRR8796138.24279,97.62,42,0,1,1,42,400,440,2e-13,71.3
SONDA_C_arxii,SRR8796138.24277,97.62,42,0,1,1,42,70,30,2e-13,71.3
SONDA_C_arxii,SRR8796138.24277,97.62,42,0,1,1,42,400,440,2e-13,71.3
SONDA_C_arxii,SRR8796138.18478,97.62,42,0,1,1,42,70,30,2e-13,71.3
SONDA_C_arxii,SRR8796138.18478,97.62,42,0,1,1,42,400,440,2e-13,71.3
SONDA_C_arxii,SRR8796138.17603,97.62,42,0,1,1,42,400,440,2e-13,71.3
SONDA_C_arxii,SRR8796138.15842,97.62,42,0,1,1,42,400,440,2e-13,71.3
SONDA_C_arxii,SRR8796138.10898,97.62,42,0,1,1,42,400,440,2e-13,71.3
SONDA_C_arxii,SRR8796138.10717,97.62,42,0,1,1,42,400,440,2e-13,71.3
SONDA_C_arxii,SRR8796138.10179,97.62,42,0,1,1,42,400,440,2e-13,71.3
SONDA_C_arxii,SRR8796138.9115,97.62,42,0,1,1,42,70,30,2e-13,71.3
SONDA_C_arxii,SRR8796138.7344,97.62,42,0,1,1,42,70,30,2e-13,71.3
SONDA_C_arxii,SRR8796138.7344,97.62,42,0,1,1,42,400,440,2e-13,71.3
SONDA_C_arxii,SRR8796138.7008,97.62,42,0,1,1,42,400,440,2e-13,71.3
SONDA_C_arxii,SRR8796138.7611,97.50,40,0,1,3,42,401,439,3e-12,67.6
SONDA_C_arxii,SRR8796138.60562,95.24,42,1,1,1,42,400,440,1e-11,65.8
SONDA_C_arxii,SRR8796138.51972,95.24,42,1,1,1,42,400,440,1e-11,65.8
SONDA_C_arxii,SRR8796138.50388,95.24,42,1,1,1,42,400,440,1e-11,65.8
SONDA_C_arxii,SRR8796138.42358,95.24,42,1,1,1,42,400,440,1e-11,65.8
SONDA_C_arxii,SRR8796138.31241,95.24,42,1,1,1,42,400,440,1e-11,65.8
SONDA_C_arxii,SRR8796138.14076,95.24,42,1,1,1,42,400,440,1e-11,65.8
SONDA_C_arxii,SRR8796138.7349,95.12,41,1,1,2,42,401,440,4e-11,63.9
SONDA_C_chaetospira,SRR8796138.52430,100.00,34,0,0,6,39,111,78,3e-11,63.9
SONDA_C_chaetospira,SRR8796138.47826,100.00,34,0,0,6,39,111,78,3e-11,63.9
SONDA_C_chaetospira,SRR8796138.11455,100.00,34,0,0,6,39,355,388,3e-11,63.9
SONDA_C_chaetospira,SRR8796138.9646,100.00,34,0,0,6,39,111,78,3e-11,63.9
SONDA_C_chaetospira,SRR8796138.63664,97.06,34,1,0,4,37,369,402,2e-09,58.4
SONDA_C_chaetospira,SRR8796138.59997,97.06,34,1,0,6,39,111,78,2e-09,58.4
SONDA_C_chaetospira,SRR8796138.32415,94.74,38,1,1,3,39,351,388,2e-09,58.4
SONDA_C_chaetospira,SRR8796138.29953,100.00,30,0,0,6,35,355,384,6e-09,56.5
