SONDA_C_arxii,SRR8793822.41923,97.37,38,0,1,5,42,66,30,4e-11,63.9
SONDA_C_arxii,SRR8793822.41923,97.37,38,0,1,5,42,453,489,4e-11,63.9
SONDA_C_arxii,SRR8793822.29024,97.37,38,0,1,5,42,66,30,4e-11,63.9
SONDA_C_arxii,SRR8793822.29024,97.14,35,0,1,8,42,455,488,2e-09,58.4
SONDA_C_arxii,SRR8793822.21826,97.37,38,0,1,5,42,66,30,4e-11,63.9
SONDA_C_arxii,SRR8793822.7990,97.37,38,0,1,5,42,66,30,4e-11,63.9
SONDA_C_arxii,SRR8793822.7990,97.37,38,0,1,5,42,453,489,4e-11,63.9
