SONDA_C_arxii,SRR8795823.46194,100.00,42,0,0,1,42,71,30,2e-15,78.7
SONDA_C_arxii,SRR8795823.46192,100.00,42,0,0,1,42,71,30,2e-15,78.7
SONDA_C_arxii,SRR8795823.49105,97.62,42,0,1,1,42,70,30,3e-13,71.3
SONDA_C_arxii,SRR8795823.45505,97.62,42,0,1,1,42,70,30,3e-13,71.3
SONDA_C_arxii,SRR8795823.45505,97.62,42,0,1,1,42,449,489,3e-13,71.3
SONDA_C_arxii,SRR8795823.42663,97.62,42,0,1,1,42,70,30,3e-13,71.3
SONDA_C_arxii,SRR8795823.42663,97.62,42,0,1,1,42,449,489,3e-13,71.3
SONDA_C_arxii,SRR8795823.42661,97.62,42,0,1,1,42,70,30,3e-13,71.3
SONDA_C_arxii,SRR8795823.42661,97.62,42,0,1,1,42,449,489,3e-13,71.3
SONDA_C_arxii,SRR8795823.34932,97.62,42,0,1,1,42,70,30,3e-13,71.3
SONDA_C_arxii,SRR8795823.34932,97.62,42,0,1,1,42,449,489,3e-13,71.3
SONDA_C_arxii,SRR8795823.34928,97.62,42,0,1,1,42,70,30,3e-13,71.3
SONDA_C_arxii,SRR8795823.34928,97.62,42,0,1,1,42,449,489,3e-13,71.3
SONDA_C_arxii,SRR8795823.22012,97.62,42,0,1,1,42,70,30,3e-13,71.3
SONDA_C_arxii,SRR8795823.22012,97.62,42,0,1,1,42,449,489,3e-13,71.3
SONDA_C_arxii,SRR8795823.22010,97.62,42,0,1,1,42,70,30,3e-13,71.3
SONDA_C_arxii,SRR8795823.22010,97.62,42,0,1,1,42,449,489,3e-13,71.3
SONDA_C_arxii,SRR8795823.20074,97.62,42,0,1,1,42,449,489,3e-13,71.3
SONDA_C_arxii,SRR8795823.20074,97.56,41,0,1,2,42,69,30,9e-13,69.4
SONDA_C_arxii,SRR8795823.20072,97.62,42,0,1,1,42,70,30,3e-13,71.3
SONDA_C_arxii,SRR8795823.20072,97.62,42,0,1,1,42,449,489,3e-13,71.3
SONDA_C_arxii,SRR8795823.18789,97.62,42,0,1,1,42,70,30,3e-13,71.3
SONDA_C_arxii,SRR8795823.18789,97.62,42,0,1,1,42,449,489,3e-13,71.3
SONDA_C_arxii,SRR8795823.13513,97.62,42,0,1,1,42,70,30,3e-13,71.3
SONDA_C_arxii,SRR8795823.13513,97.62,42,0,1,1,42,449,489,3e-13,71.3
SONDA_C_arxii,SRR8795823.13512,97.62,42,0,1,1,42,449,489,3e-13,71.3
SONDA_C_arxii,SRR8795823.13512,97.56,41,0,1,2,42,69,30,9e-13,69.4
SONDA_C_arxii,SRR8795823.5190,97.62,42,0,1,1,42,70,30,3e-13,71.3
SONDA_C_arxii,SRR8795823.5190,97.62,42,0,1,1,42,449,489,3e-13,71.3
SONDA_C_arxii,SRR8795823.55567,97.37,38,0,1,5,42,66,30,4e-11,63.9
SONDA_C_arxii,SRR8795823.15461,94.87,39,1,1,4,42,67,30,6e-10,60.2
SONDA_C_arxii,SRR8795823.15461,94.87,39,1,1,4,42,454,491,6e-10,60.2
SONDA_C_arxii,SRR8795823.7383,94.87,39,1,1,4,42,67,30,6e-10,60.2
SONDA_C_arxii,SRR8795823.7383,94.87,39,1,1,4,42,454,491,6e-10,60.2
SONDA_C_chaetospira,SRR8795823.21613,100.00,39,0,0,1,39,119,81,6e-14,73.1
SONDA_C_chaetospira,SRR8795823.21613,100.00,39,0,0,1,39,416,454,6e-14,73.1
SONDA_C_chaetospira,SRR8795823.20673,100.00,39,0,0,1,39,416,454,6e-14,73.1
SONDA_C_chaetospira,SRR8795823.13854,100.00,39,0,0,1,39,119,81,6e-14,73.1
SONDA_C_chaetospira,SRR8795823.13854,94.87,39,2,0,1,39,416,454,1e-10,62.1
SONDA_C_chaetospira,SRR8795823.55397,100.00,38,0,0,2,39,118,81,2e-13,71.3
SONDA_C_chaetospira,SRR8795823.51672,100.00,38,0,0,2,39,118,81,2e-13,71.3
SONDA_C_chaetospira,SRR8795823.51672,100.00,38,0,0,2,39,416,453,2e-13,71.3
SONDA_C_chaetospira,SRR8795823.44653,100.00,38,0,0,2,39,118,81,2e-13,71.3
SONDA_C_chaetospira,SRR8795823.44477,100.00,38,0,0,2,39,118,81,2e-13,71.3
SONDA_C_chaetospira,SRR8795823.44477,100.00,38,0,0,2,39,416,453,2e-13,71.3
SONDA_C_chaetospira,SRR8795823.42345,100.00,38,0,0,2,39,118,81,2e-13,71.3
SONDA_C_chaetospira,SRR8795823.39305,100.00,38,0,0,2,39,118,81,2e-13,71.3
SONDA_C_chaetospira,SRR8795823.39305,100.00,38,0,0,2,39,416,453,2e-13,71.3
SONDA_C_chaetospira,SRR8795823.34469,100.00,38,0,0,2,39,118,81,2e-13,71.3
SONDA_C_chaetospira,SRR8795823.33253,100.00,38,0,0,2,39,118,81,2e-13,71.3
SONDA_C_chaetospira,SRR8795823.32543,100.00,38,0,0,2,39,118,81,2e-13,71.3
SONDA_C_chaetospira,SRR8795823.32543,100.00,38,0,0,2,39,416,453,2e-13,71.3
SONDA_C_chaetospira,SRR8795823.31445,100.00,38,0,0,2,39,118,81,2e-13,71.3
SONDA_C_chaetospira,SRR8795823.31445,100.00,38,0,0,2,39,416,453,2e-13,71.3
SONDA_C_chaetospira,SRR8795823.31444,100.00,38,0,0,2,39,118,81,2e-13,71.3
SONDA_C_chaetospira,SRR8795823.31444,100.00,38,0,0,2,39,416,453,2e-13,71.3
SONDA_C_chaetospira,SRR8795823.31364,100.00,38,0,0,2,39,118,81,2e-13,71.3
SONDA_C_chaetospira,SRR8795823.31364,100.00,38,0,0,2,39,416,453,2e-13,71.3
SONDA_C_chaetospira,SRR8795823.29292,100.00,38,0,0,2,39,118,81,2e-13,71.3
SONDA_C_chaetospira,SRR8795823.29292,100.00,38,0,0,2,39,416,453,2e-13,71.3
SONDA_C_chaetospira,SRR8795823.27440,100.00,38,0,0,2,39,118,81,2e-13,71.3
SONDA_C_chaetospira,SRR8795823.27440,100.00,38,0,0,2,39,416,453,2e-13,71.3
SONDA_C_chaetospira,SRR8795823.27437,100.00,38,0,0,2,39,118,81,2e-13,71.3
SONDA_C_chaetospira,SRR8795823.27437,100.00,36,0,0,2,37,416,451,3e-12,67.6
SONDA_C_chaetospira,SRR8795823.26869,100.00,38,0,0,2,39,118,81,2e-13,71.3
SONDA_C_chaetospira,SRR8795823.26869,100.00,38,0,0,2,39,416,453,2e-13,71.3
SONDA_C_chaetospira,SRR8795823.26804,100.00,38,0,0,2,39,118,81,2e-13,71.3
SONDA_C_chaetospira,SRR8795823.26804,100.00,38,0,0,2,39,416,453,2e-13,71.3
SONDA_C_chaetospira,SRR8795823.22923,100.00,38,0,0,2,39,118,81,2e-13,71.3
SONDA_C_chaetospira,SRR8795823.22923,100.00,38,0,0,2,39,416,453,2e-13,71.3
SONDA_C_chaetospira,SRR8795823.21619,100.00,38,0,0,2,39,118,81,2e-13,71.3
SONDA_C_chaetospira,SRR8795823.13902,100.00,38,0,0,2,39,118,81,2e-13,71.3
SONDA_C_chaetospira,SRR8795823.13902,100.00,38,0,0,2,39,416,453,2e-13,71.3
SONDA_C_chaetospira,SRR8795823.13901,100.00,38,0,0,2,39,118,81,2e-13,71.3
SONDA_C_chaetospira,SRR8795823.13901,97.37,38,1,0,2,39,416,453,1e-11,65.8
SONDA_C_chaetospira,SRR8795823.11006,100.00,38,0,0,2,39,118,81,2e-13,71.3
SONDA_C_chaetospira,SRR8795823.8819,100.00,38,0,0,2,39,118,81,2e-13,71.3
SONDA_C_chaetospira,SRR8795823.8819,100.00,38,0,0,2,39,416,453,2e-13,71.3
SONDA_C_chaetospira,SRR8795823.5072,100.00,38,0,0,2,39,118,81,2e-13,71.3
SONDA_C_chaetospira,SRR8795823.5072,100.00,38,0,0,2,39,416,453,2e-13,71.3
SONDA_C_chaetospira,SRR8795823.3741,100.00,38,0,0,2,39,118,81,2e-13,71.3
SONDA_C_chaetospira,SRR8795823.3741,100.00,38,0,0,2,39,416,453,2e-13,71.3
SONDA_C_chaetospira,SRR8795823.2671,100.00,38,0,0,2,39,118,81,2e-13,71.3
SONDA_C_chaetospira,SRR8795823.2670,100.00,38,0,0,2,39,118,81,2e-13,71.3
SONDA_C_chaetospira,SRR8795823.2670,100.00,38,0,0,2,39,416,453,2e-13,71.3
SONDA_C_chaetospira,SRR8795823.31895,100.00,37,0,0,3,39,417,453,8e-13,69.4
