SONDA_C_chaetospira,SRR1761183.8534,100.00,39,0,0,1,39,511,549,1e-14,73.1
SONDA_C_chaetospira,SRR1761183.8326,100.00,39,0,0,1,39,508,546,1e-14,73.1
SONDA_C_chaetospira,SRR1761183.4416,100.00,38,0,0,1,38,497,534,4e-14,71.3
SONDA_C_chaetospira,SRR1761183.1527,100.00,35,0,0,1,35,500,534,2e-12,65.8
SONDA_C_chaetospira,SRR1761183.3931,100.00,34,0,0,1,34,499,532,7e-12,63.9
SONDA_C_chaetospira,SRR1761183.1204,100.00,34,0,0,1,34,498,531,7e-12,63.9
SONDA_C_chaetospira,SRR1761183.3442,100.00,32,0,0,1,32,498,529,9e-11,60.2
SONDA_C_chaetospira,SRR1761183.7879,100.00,31,0,0,1,31,498,528,3e-10,58.4
SONDA_C_chaetospira,SRR1761183.7695,100.00,31,0,0,1,31,497,527,3e-10,58.4
SONDA_C_chaetospira,SRR1761183.5582,100.00,31,0,0,1,31,498,528,3e-10,58.4
SONDA_C_chaetospira,SRR1761183.8990,100.00,29,0,0,1,29,495,523,4e-09,54.7
