Cyphellophora_laciniata_CBS190.61T,SRR10352721.2132,100.00,35,0,0,1,35,229,195,1e-12,65.8
Cyphellophora_suttonii_CBS449.91T,SRR10352721.2132,100.00,30,0,0,6,35,224,195,9e-10,56.5
Cyphellophora_vermispora_CBS228.86T,SRR10352721.2132,100.00,35,0,0,1,35,229,195,1e-12,65.8
Exophiala_equina_1_CBS119.23T,SRR10352721.2159,100.00,38,0,0,1,38,229,192,4e-14,71.3
Phaeoannelomyces_elegans_CBS110172,SRR10352721.2159,100.00,38,0,0,1,38,229,192,4e-14,71.3
