Exophiala_nigra_CBS535.94_T,SRR10276832.1689362,85.26,95,12,2,276,370,152,244,2e-18,97.1
Exophiala_spinifera_CBS899.68_T,SRR10276832.1689362,84.21,95,13,2,273,367,152,244,7e-17,91.6
Exophiala_exophialae_CBS668.76_T,SRR10276832.1689362,84.21,95,13,2,274,368,152,244,7e-17,91.6
Exophiala_polymorpha_CBS138920_T,SRR10276832.209599,98.11,53,1,0,642,694,41,93,3e-17,93.5
Exophiala_polymorpha_CBS138920_T,SRR10276832.1689362,84.21,95,13,2,376,470,152,244,9e-17,91.6
Exophiala_oligosperma_CBS725.88_T,SRR10276832.1689362,84.21,95,13,2,286,380,152,244,7e-17,91.6
Exophiala_jeanselmei_CBS507.90_T,SRR10276832.209599,98.41,63,1,0,542,604,39,101,6e-23,111
Exophiala_jeanselmei_CBS507.90_T,SRR10276832.1689362,84.21,95,13,2,278,372,152,244,8e-17,91.6
Exophiala_bergeri_CBS353.52,SRR10276832.1689362,85.26,95,12,2,239,333,152,244,1e-18,97.1
Exophiala_moniliae_CBS520.76_T,SRR10276832.1689362,85.11,94,12,2,276,369,152,243,6e-18,95.3
Exophiala_pisciphila_CBS537.73_T,SRR10276832.209599,95.33,107,4,1,548,653,35,141,4e-40,169
Exophiala_pisciphila_CBS537.73_T,SRR10276832.1689362,85.26,95,12,2,279,373,152,244,2e-18,97.1
Exophiala_xenobiotica_CBS117642,SRR10276832.1689362,85.26,95,12,2,271,365,152,244,2e-18,97.1
Exophiala_brunnea_CBS,SRR10276832.1689362,84.21,95,13,2,307,401,152,244,8e-17,91.6
Exophiala_nishimurae_CBS101538_T,SRR10276832.1689362,84.21,95,13,2,285,379,152,244,8e-17,91.6
Exophiala_nishimurae_CBS101538_T,SRR10276832.209599,95.74,47,2,0,545,591,35,81,2e-12,76.8
Exophiala_mesophila_CBS402.95_T,SRR10276832.209599,96.30,108,3,1,544,650,34,141,2e-42,176
Exophiala_mesophila_CBS402.95_T,SRR10276832.1689362,84.21,95,13,2,269,363,152,244,9e-17,91.6
Exophiala_castellanii_CBS158.58_T,SRR10276832.209599,97.03,101,3,0,549,649,41,141,1e-40,171
Exophiala_castellanii_CBS158.58_T,SRR10276832.1689362,84.21,95,13,2,267,361,152,244,9e-17,91.6
Exophiala_lecanii-corni_CBS123.33_T,SRR10276832.1689362,83.16,95,14,2,290,384,152,244,4e-15,86.1
Exophiala_dermatitidis_CBS748.88,SRR10276832.209599,95.20,125,6,0,561,685,27,151,1e-48,198
Exophiala_dermatitidis_CBS748.88,SRR10276832.1689362,85.26,95,12,2,282,376,152,244,4e-18,97.1
Exophiala_angulospora_CBS482.92_T,SRR10276832.1689362,85.15,101,13,2,273,373,152,250,3e-20,102
Exophiala_opportunistica_CBS109811_T,SRR10276832.1689362,85.26,95,12,2,272,366,152,244,2e-18,97.1
Exophiala_salmonis_CBS157.67_T,SRR10276832.209599,95.33,107,4,1,668,773,35,141,5e-40,169
Exophiala_salmonis_CBS157.67_T,SRR10276832.1689362,85.26,95,12,2,401,495,152,244,2e-18,97.1
Exophiala_aquamarina_CBS119918_T,SRR10276832.1689362,84.38,96,12,3,279,374,152,244,8e-17,91.6
Exophiala_cancerae_CBS120420_T,SRR10276832.209599,97.01,67,2,0,558,624,35,101,2e-23,113
Exophiala_cancerae_CBS120420_T,SRR10276832.1689362,85.26,95,12,2,294,388,152,244,2e-18,97.1
Exophiala_tremulae_CBS129355,SRR10276832.1689362,85.26,95,12,2,306,400,152,244,2e-18,97.1
Exophiala_equina_CBS116009,SRR10276832.1689362,85.26,95,12,2,272,366,152,244,2e-18,97.1
Exophiala_alcalophila_CBS520.82_T,SRR10276832.1689362,85.11,94,12,2,283,376,152,243,6e-18,95.3
Exophiala_crusticola_CBS119970_T,SRR10276832.1689362,85.26,95,12,2,288,382,152,244,2e-18,97.1
Rhinocladiella_atrovirens_CBS264.49,SRR10276832.1689362,83.16,95,14,2,314,408,152,244,4e-15,86.1
Rhinocladiella_basitona_CBS101460_T,SRR10276832.1689362,84.21,95,13,2,273,367,152,244,7e-17,91.6
Rhinocladiella_phaeophora_CBS496.78_T,SRR10276832.1689362,85.26,95,12,2,281,375,152,244,2e-18,97.1
Rhinocladiella_aquaspersa_CBS313.73_T,SRR10276832.209599,92.44,119,5,4,536,650,28,146,1e-39,167
Rhinocladiella_aquaspersa_CBS313.73_T,SRR10276832.1689362,85.26,95,12,2,275,369,152,244,2e-18,97.1
Rhinocladiella_fasciculata_CBS132.86_T,SRR10276832.1689362,86.17,94,11,2,291,384,152,243,1e-19,100
Rhinocladiella_anceps_CBS181.65_T,SRR10276832.1689362,83.16,95,14,2,273,367,152,244,3e-15,86.1
Rhinocladiella_mackenziei_CBS367.92,SRR10276832.1689362,84.95,93,11,3,262,353,152,242,8e-17,91.6
Veronaea_compacta_CBS268.75_T,SRR10276832.1689362,84.21,95,13,2,295,389,152,244,8e-17,91.6
Capronia_pilosella_AFTOL-ID657,SRR10276832.1689362,85.26,95,12,2,373,467,152,244,2e-18,97.1
Capronia_pilosella_AFTOL-ID657,SRR10276832.209599,97.62,42,1,0,642,683,40,81,3e-11,73.1
Capronia_dactylotricha_DAOM208471_T,SRR10276832.209599,96.04,101,4,0,558,658,41,141,5e-39,165
Capronia_dactylotricha_DAOM208471_T,SRR10276832.1689362,84.38,96,12,2,275,370,152,244,9e-17,91.6
Capronia_kleinmondensis_CBS122671_T,SRR10276832.209599,96.04,101,4,0,564,664,41,141,5e-39,165
Capronia_kleinmondensis_CBS122671_T,SRR10276832.1689362,83.16,95,14,2,300,394,152,244,4e-15,86.1
Capronia_mansonii_CBS101.67_T,SRR10276832.209599,93.97,116,5,2,554,668,27,141,9e-42,174
Capronia_mansonii_CBS101.67_T,SRR10276832.1689362,85.26,95,12,2,286,380,152,244,2e-18,97.1
Capronia_munkii_DAOM216390_T,SRR10276832.209599,94.83,116,4,2,554,668,27,141,2e-43,180
Capronia_munkii_DAOM216390_T,SRR10276832.1689362,85.26,95,12,2,286,380,152,244,2e-18,97.1
Capronia_coronata_ATCC56201_T,SRR10276832.209599,97.12,104,3,0,536,639,38,141,2e-42,176
Capronia_coronata_ATCC56201_T,SRR10276832.1689362,85.15,101,13,2,274,374,152,250,4e-20,102
Capronia_parasitica_CBS123.88,SRR10276832.1689362,84.21,95,13,2,280,374,152,244,8e-17,91.6
Veronaea_japonica_CBS776.83_T,SRR10276832.1689362,85.26,95,12,2,308,402,152,244,2e-18,97.1
Thysanorea_papuana_CBS212.96_T,SRR10276832.1689362,85.26,95,12,2,282,376,152,244,2e-18,97.1
Capronia_acutiseta_ATCC56428_T,SRR10276832.209599,95.33,107,5,0,532,638,35,141,1e-40,171
Capronia_acutiseta_ATCC56428_T,SRR10276832.1689362,85.26,95,12,2,275,369,152,244,2e-18,97.1
Fonsecaea_brasiliensis_CBS119710_T,SRR10276832.1689362,83.65,104,14,3,282,385,152,252,6e-18,95.3
Fonsecaea_pedrosoi_CBS271.37_T,SRR10276832.209599,96.77,62,2,0,584,645,40,101,1e-20,104
Fonsecaea_pedrosoi_CBS271.37_T,SRR10276832.1689362,84.38,96,12,3,310,405,152,244,9e-17,91.6
Fonsecaea_multimorphosa_CBS980.96_T,SRR10276832.1689362,84.38,96,12,3,280,375,152,244,7e-17,91.6
Fonsecaea_minima_CBS125760_T,SRR10276832.1689362,83.65,104,14,3,276,379,152,252,6e-18,95.3
Fonsecaea_nubica_CBS269.64_T,SRR10276832.1689362,84.38,96,12,3,287,382,152,244,8e-17,91.6
Fonsecaea_monophora_CBS269.37_T,SRR10276832.1689362,84.38,96,12,3,288,383,152,244,8e-17,91.6
Fonsecaea_erecta_CBS125763_T,SRR10276832.1689362,85.26,95,12,2,271,365,152,244,2e-18,97.1
Fonsecaea_pugnacius_CBS139214_T,SRR10276832.1689362,84.38,96,12,3,280,375,152,244,7e-17,91.6
Cladophialophora_psammophila_CBS,SRR10276832.1689362,85.26,95,12,2,286,380,152,244,2e-18,97.1
Cladophialophora_devriesii_CBS,SRR10276832.1689362,84.38,96,12,3,282,377,152,244,7e-17,91.6
Cladophialophora_immunda_CBS834.96,SRR10276832.1689362,83.65,104,14,3,284,387,152,252,6e-18,95.3
Cladophialophora_arxii_CBS306.94_T,SRR10276832.1689362,84.78,92,12,2,286,377,152,241,7e-17,91.6
Cladophialophora_bantiana_CBS173.52,SRR10276832.1689362,85.26,95,12,2,280,374,152,244,2e-18,97.1
Cladophialophora_emmonsii_CBS102594,SRR10276832.1689362,85.26,95,12,2,271,365,152,244,2e-18,97.1
Cladophialophora_minourae_CBS556.83,SRR10276832.1689362,81.90,105,15,4,279,383,152,252,3e-15,86.1
Cladophialophora_australiensis_CBS112793,SRR10276832.209599,95.61,114,4,1,541,653,35,148,1e-43,182
Cladophialophora_australiensis_CBS112793,SRR10276832.1689362,85.44,103,13,2,281,383,152,252,7e-21,106
Cladophialophora_potulentorum_CBS112222,SRR10276832.209599,96.36,110,4,0,546,655,39,148,1e-43,182
Cladophialophora_potulentorum_CBS112222,SRR10276832.1689362,84.47,103,14,2,280,382,152,252,3e-19,100
Cladophialophora_potulentorum_CBS112222,SRR10276832.22750,89.19,74,8,0,1416,1489,46,119,6e-17,93.5
Cladophialophora_potulentorum_CBS112222,SRR10276832.22750,89.19,74,8,0,1416,1489,234,161,6e-17,93.5
Cladophialophora_matsushimae_CMRP1198,SRR10276832.1689362,83.33,102,15,2,284,385,152,251,2e-17,93.5
Cladophialophora_mycetomatis_CBS122637,SRR10276832.1689362,84.21,95,13,2,269,363,152,244,7e-17,91.6
Cladophialophora_chaetospira_CBS127573,SRR10276832.1689362,85.26,95,12,2,675,769,152,244,3e-18,97.1
Cladophialophora_boppii_CBS126.86_T,SRR10276832.1689362,85.26,95,12,2,277,371,152,244,2e-18,97.1
Cladophialophora_abundans_CBS126736,SRR10276832.1689362,85.26,95,12,2,214,308,152,244,1e-18,97.1
Capronia_semi-immersa_CBS102234,SRR10276832.1689362,83.50,103,15,2,276,378,152,252,6e-18,95.3
Phialophora_americana_CBS400.67,SRR10276832.1689362,83.50,103,15,2,278,380,152,252,2e-17,95.3
Phialophora_verrucosa_CBS140325_T,SRR10276832.1689362,83.50,103,15,2,282,384,152,252,6e-18,95.3
Cladophialophora_samoensis_CBS259.83_T,SRR10276832.1689362,85.44,103,13,2,282,384,152,252,3e-21,106
Cladophialophora_carrionii_CBS260.83,SRR10276832.1689362,84.21,95,13,2,298,392,152,244,8e-17,91.6
Exophiala_palmae_UPCB86822_T,SRR10276832.1689362,85.26,95,12,2,241,335,152,244,1e-18,97.1
Cladophialophora_yegresii_CBS114405_T,SRR10276832.1689362,83.50,103,15,2,283,385,152,252,6e-18,95.3
Knufia_epidermidis_CBS120353_T,SRR10276832.1689362,85.26,95,12,2,281,375,152,244,2e-18,97.1
Arthrocladium_fulminans_CBS136243_T,SRR10276832.1689362,82.11,95,15,2,276,370,152,244,2e-13,80.5
Cyphellophora_laciniata_CBS190.61_T,SRR10276832.209599,98.06,103,2,0,633,735,39,141,2e-43,180
Cyphellophora_laciniata_CBS190.61_T,SRR10276832.1689362,85.15,101,12,3,370,468,152,251,2e-19,100
Cyphellophora_suttonii_CBS449.91,SRR10276832.1689362,85.15,101,12,3,273,371,152,251,1e-19,100
Cyphellophora_pauciseptata_CBS284.85_T,SRR10276832.1689362,85.15,101,12,3,284,382,152,251,1e-19,100
Cyphellophora_pluriseptata_CBS286.85_T,SRR10276832.1689362,85.15,101,12,3,289,387,152,251,1e-19,100
Phialophora_europaea_CBS101466,SRR10276832.1689362,85.15,101,12,3,279,377,152,251,1e-19,100
Phialophora_ambigua_CBS235.93,SRR10276832.1689362,85.15,101,12,3,276,374,152,251,1e-19,100
Cladophialophora_modesta_CBS985.96_T,SRR10276832.209599,97.20,107,2,1,514,619,35,141,2e-43,180
Cladophialophora_modesta_CBS985.96_T,SRR10276832.1689362,84.21,95,13,2,273,367,152,244,8e-17,91.6
