Exophiala_dermatitidis_CBS748.88,SRR10276817.1788667,85.71,154,15,7,1206,1357,149,1,7e-36,156
Exophiala_dermatitidis_CBS748.88,SRR10276817.924605,83.72,129,17,4,1162,1289,277,152,9e-25,119
Cladophialophora_australiensis_CBS112793,SRR10276817.1788667,83.87,155,16,8,1173,1324,149,1,7e-31,139
Cladophialophora_australiensis_CBS112793,SRR10276817.924605,82.31,130,17,5,1129,1256,277,152,2e-21,108
Cladophialophora_potulentorum_CBS112222,SRR10276817.1788667,83.66,153,18,7,1176,1326,148,1,2e-30,137
Cladophialophora_potulentorum_CBS112222,SRR10276817.924605,81.40,129,20,4,1131,1258,277,152,9e-20,102
Phialophora_americana_CBS400.67,SRR10276817.1788667,85.06,154,16,7,1167,1318,149,1,3e-34,150
Phialophora_americana_CBS400.67,SRR10276817.924605,83.72,129,17,4,1123,1250,277,152,9e-25,119
