Exophiala_dermatitidis_CBS748.88,SRR10276792.1568881,92.76,152,9,2,1349,1499,302,152,9e-55,219
Exophiala_dermatitidis_CBS748.88,SRR10276792.1568881,86.54,156,14,7,1207,1360,1,151,1e-38,165
Cladophialophora_australiensis_CBS112793,SRR10276792.1568881,92.76,152,9,2,1316,1466,302,152,9e-55,219
Cladophialophora_australiensis_CBS112793,SRR10276792.1568881,84.71,157,15,8,1174,1327,1,151,1e-33,148
Cladophialophora_potulentorum_CBS112222,SRR10276792.1568881,92.76,152,9,2,1318,1468,302,152,9e-55,219
Cladophialophora_potulentorum_CBS112222,SRR10276792.1568881,84.62,156,17,7,1176,1329,1,151,1e-33,148
Cladophialophora_potulentorum_CBS112222,SRR10276792.762397,87.67,73,7,2,1422,1493,1,72,4e-14,84.2
Cladophialophora_potulentorum_CBS112222,SRR10276792.762397,87.67,73,7,2,1422,1493,266,195,4e-14,84.2
Phialophora_americana_CBS400.67,SRR10276792.1568881,91.97,137,9,2,1310,1445,302,167,2e-46,191
Phialophora_americana_CBS400.67,SRR10276792.1568881,85.90,156,15,7,1168,1321,1,151,5e-37,159
