Exophiala_dermatitidis_CBS748.88,SRR10276795.1430930,88.50,113,13,0,1392,1504,152,264,3e-30,137
Exophiala_dermatitidis_CBS748.88,SRR10276795.1430930,89.29,84,9,0,1421,1504,151,68,9e-21,106
Cladophialophora_australiensis_CBS112793,SRR10276795.1430930,88.50,113,13,0,1359,1471,152,264,3e-30,137
Cladophialophora_australiensis_CBS112793,SRR10276795.1430930,89.29,84,9,0,1388,1471,151,68,9e-21,106
Cladophialophora_potulentorum_CBS112222,SRR10276795.1430930,89.06,128,14,0,1361,1488,152,279,7e-37,159
Cladophialophora_potulentorum_CBS112222,SRR10276795.1430930,89.90,99,10,0,1390,1488,151,53,2e-27,128
