Exophiala_brunnea_CBS,SRR7890278.533284,97.67,43,1,0,1,43,180,222,4e-12,75.0
Exophiala_brunnea_CBS,SRR7890278.533284,97.67,43,1,0,1,43,455,413,4e-12,75.0
Exophiala_brunnea_CBS,SRR7890278.482091,97.67,43,1,0,1,43,239,197,4e-12,75.0
Exophiala_brunnea_CBS,SRR7890278.243861,97.67,43,1,0,1,43,363,321,4e-12,75.0
Exophiala_brunnea_CBS,SRR7890278.601487,100.00,39,0,0,1,39,40,2,1e-11,73.1
Exophiala_dermatitidis_CBS748.88,SRR7890278.427000,85.56,90,13,0,1374,1463,158,247,7e-18,95.3
Exophiala_salmonis_CBS157.67_T,SRR7890278.601487,94.74,38,2,0,85,122,71,34,1e-07,60.2
Exophiala_salmonis_CBS157.67_T,SRR7890278.533284,94.74,38,2,0,85,122,149,186,1e-07,60.2
Exophiala_salmonis_CBS157.67_T,SRR7890278.533284,94.74,38,2,0,85,122,486,449,1e-07,60.2
Exophiala_salmonis_CBS157.67_T,SRR7890278.243861,94.74,38,2,0,85,122,196,233,1e-07,60.2
Exophiala_salmonis_CBS157.67_T,SRR7890278.243861,94.74,38,2,0,85,122,394,357,1e-07,60.2
Exophiala_tremulae_CBS129355,SRR7890278.533284,97.67,43,1,0,1,43,180,222,4e-12,75.0
Exophiala_tremulae_CBS129355,SRR7890278.533284,97.67,43,1,0,1,43,455,413,4e-12,75.0
Exophiala_tremulae_CBS129355,SRR7890278.482091,97.67,43,1,0,1,43,239,197,4e-12,75.0
Exophiala_tremulae_CBS129355,SRR7890278.243861,97.67,43,1,0,1,43,363,321,4e-12,75.0
Exophiala_tremulae_CBS129355,SRR7890278.601487,100.00,39,0,0,1,39,40,2,1e-11,73.1
Rhinocladiella_atrovirens_CBS264.49,SRR7890278.533284,100.00,48,0,0,1,48,175,222,1e-16,89.8
Rhinocladiella_atrovirens_CBS264.49,SRR7890278.533284,100.00,48,0,0,1,48,460,413,1e-16,89.8
Rhinocladiella_atrovirens_CBS264.49,SRR7890278.482091,100.00,48,0,0,1,48,244,197,1e-16,89.8
Rhinocladiella_atrovirens_CBS264.49,SRR7890278.243861,100.00,48,0,0,1,48,368,321,1e-16,89.8
Rhinocladiella_atrovirens_CBS264.49,SRR7890278.601487,100.00,45,0,0,1,45,45,1,6e-15,84.2
Rhinocladiella_atrovirens_CBS264.49,SRR7890278.518147,100.00,28,0,0,21,48,20,47,2e-05,52.8
Rhinocladiella_fasciculata_CBS132.86_T,SRR7890278.533284,100.00,31,0,0,1,31,192,222,3e-07,58.4
Rhinocladiella_fasciculata_CBS132.86_T,SRR7890278.533284,100.00,31,0,0,1,31,443,413,3e-07,58.4
Rhinocladiella_fasciculata_CBS132.86_T,SRR7890278.482091,100.00,31,0,0,1,31,227,197,3e-07,58.4
Rhinocladiella_fasciculata_CBS132.86_T,SRR7890278.243861,100.00,31,0,0,1,31,351,321,3e-07,58.4
Rhinocladiella_fasciculata_CBS132.86_T,SRR7890278.601487,100.00,28,0,0,1,28,28,1,2e-05,52.8
Rhinocladiella_fasciculata_CBS132.86_T,SRR7890278.518147,100.00,28,0,0,4,31,20,47,2e-05,52.8
Capronia_kleinmondensis_CBS122671_T,SRR7890278.533284,100.00,34,0,0,1,34,189,222,8e-09,63.9
Capronia_kleinmondensis_CBS122671_T,SRR7890278.533284,100.00,34,0,0,1,34,446,413,8e-09,63.9
Capronia_kleinmondensis_CBS122671_T,SRR7890278.482091,100.00,34,0,0,1,34,230,197,8e-09,63.9
Capronia_kleinmondensis_CBS122671_T,SRR7890278.243861,100.00,34,0,0,1,34,354,321,8e-09,63.9
Capronia_kleinmondensis_CBS122671_T,SRR7890278.601487,100.00,31,0,0,1,31,31,1,4e-07,58.4
Capronia_kleinmondensis_CBS122671_T,SRR7890278.518147,100.00,28,0,0,7,34,20,47,2e-05,52.8
Veronaea_japonica_CBS776.83_T,SRR7890278.533284,97.62,42,1,0,1,42,181,222,1e-11,73.1
Veronaea_japonica_CBS776.83_T,SRR7890278.533284,97.62,42,1,0,1,42,454,413,1e-11,73.1
Veronaea_japonica_CBS776.83_T,SRR7890278.482091,97.62,42,1,0,1,42,238,197,1e-11,73.1
Veronaea_japonica_CBS776.83_T,SRR7890278.243861,97.62,42,1,0,1,42,362,321,1e-11,73.1
Veronaea_japonica_CBS776.83_T,SRR7890278.601487,100.00,38,0,0,1,38,39,2,5e-11,71.3
Fonsecaea_pedrosoi_CBS271.37_T,SRR7890278.601487,100.00,30,0,0,1,30,31,2,1e-06,56.5
Fonsecaea_pedrosoi_CBS271.37_T,SRR7890278.533284,100.00,30,0,0,1,30,189,218,1e-06,56.5
Fonsecaea_pedrosoi_CBS271.37_T,SRR7890278.533284,100.00,30,0,0,1,30,446,417,1e-06,56.5
Fonsecaea_pedrosoi_CBS271.37_T,SRR7890278.482091,100.00,30,0,0,1,30,230,201,1e-06,56.5
Fonsecaea_pedrosoi_CBS271.37_T,SRR7890278.243861,100.00,30,0,0,1,30,354,325,1e-06,56.5
Cladophialophora_australiensis_CBS112793,SRR7890278.427000,85.56,90,13,0,1341,1430,158,247,7e-18,95.3
Cladophialophora_potulentorum_CBS112222,SRR7890278.427000,85.56,90,13,0,1343,1432,158,247,7e-18,95.3
Cladophialophora_chaetospira_CBS127573,SRR7890278.533284,97.14,35,1,0,379,413,188,222,2e-07,60.2
Cladophialophora_chaetospira_CBS127573,SRR7890278.533284,97.14,35,1,0,379,413,447,413,2e-07,60.2
Cladophialophora_chaetospira_CBS127573,SRR7890278.482091,97.14,35,1,0,379,413,231,197,2e-07,60.2
Cladophialophora_chaetospira_CBS127573,SRR7890278.243861,97.14,35,1,0,379,413,355,321,2e-07,60.2
Cladophialophora_chaetospira_CBS127573,SRR7890278.601487,100.00,31,0,0,379,409,32,2,5e-07,58.4
Phialophora_americana_CBS400.67,SRR7890278.427000,85.56,90,13,0,1335,1424,158,247,7e-18,95.3
Cyphellophora_laciniata_CBS190.61_T,SRR7890278.533284,97.30,74,2,0,31,104,149,222,1e-27,126
Cyphellophora_laciniata_CBS190.61_T,SRR7890278.533284,97.30,74,2,0,31,104,486,413,1e-27,126
Cyphellophora_laciniata_CBS190.61_T,SRR7890278.243861,97.30,74,2,0,31,104,394,321,1e-27,126
Cyphellophora_laciniata_CBS190.61_T,SRR7890278.243861,96.23,53,2,0,31,83,196,248,5e-16,87.9
Cyphellophora_laciniata_CBS190.61_T,SRR7890278.601487,97.18,71,2,0,31,101,71,1,5e-26,121
Cyphellophora_laciniata_CBS190.61_T,SRR7890278.482091,100.00,53,0,0,52,104,249,197,3e-19,99.0
Cyphellophora_laciniata_CBS190.61_T,SRR7890278.518147,100.00,28,0,0,77,104,20,47,2e-05,52.8
