Exophiala_nigra_CBS535.94_T,SRR10276843.9426,97.83,46,1,0,201,246,48,93,2e-13,80.5
Exophiala_nigra_CBS535.94_T,SRR10276843.9426,97.83,46,1,0,201,246,197,152,2e-13,80.5
Exophiala_spinifera_CBS899.68_T,SRR10276843.9426,97.83,46,1,0,198,243,48,93,2e-13,80.5
Exophiala_spinifera_CBS899.68_T,SRR10276843.9426,97.83,46,1,0,198,243,197,152,2e-13,80.5
Exophiala_exophialae_CBS668.76_T,SRR10276843.9426,97.83,46,1,0,199,244,48,93,2e-13,80.5
Exophiala_exophialae_CBS668.76_T,SRR10276843.9426,97.83,46,1,0,199,244,197,152,2e-13,80.5
Exophiala_polymorpha_CBS138920_T,SRR10276843.1220888,96.67,60,2,0,635,694,97,38,2e-19,100
Exophiala_polymorpha_CBS138920_T,SRR10276843.1220888,96.67,60,2,0,635,694,194,253,2e-19,100
Exophiala_polymorpha_CBS138920_T,SRR10276843.9426,97.83,46,1,0,301,346,48,93,2e-13,80.5
Exophiala_polymorpha_CBS138920_T,SRR10276843.9426,97.83,46,1,0,301,346,197,152,2e-13,80.5
Exophiala_oligosperma_CBS725.88_T,SRR10276843.9426,97.83,46,1,0,211,256,48,93,2e-13,80.5
Exophiala_oligosperma_CBS725.88_T,SRR10276843.9426,97.83,46,1,0,211,256,197,152,2e-13,80.5
Exophiala_jeanselmei_CBS507.90_T,SRR10276843.1220888,95.65,69,2,1,537,604,98,30,3e-22,110
Exophiala_jeanselmei_CBS507.90_T,SRR10276843.1220888,95.65,69,2,1,537,604,193,261,3e-22,110
Exophiala_jeanselmei_CBS507.90_T,SRR10276843.9426,97.83,46,1,0,203,248,48,93,2e-13,80.5
Exophiala_jeanselmei_CBS507.90_T,SRR10276843.9426,97.83,46,1,0,203,248,197,152,2e-13,80.5
Exophiala_bergeri_CBS353.52,SRR10276843.9426,97.83,46,1,0,164,209,48,93,2e-13,80.5
Exophiala_bergeri_CBS353.52,SRR10276843.9426,97.83,46,1,0,164,209,197,152,2e-13,80.5
Exophiala_moniliae_CBS520.76_T,SRR10276843.9426,97.83,46,1,0,201,246,48,93,2e-13,80.5
Exophiala_moniliae_CBS520.76_T,SRR10276843.9426,97.83,46,1,0,201,246,197,152,2e-13,80.5
Exophiala_pisciphila_CBS537.73_T,SRR10276843.1220888,98.89,90,1,0,553,642,90,1,8e-38,161
Exophiala_pisciphila_CBS537.73_T,SRR10276843.1220888,98.89,90,1,0,553,642,201,290,8e-38,161
Exophiala_pisciphila_CBS537.73_T,SRR10276843.9426,97.83,46,1,0,204,249,48,93,2e-13,80.5
Exophiala_pisciphila_CBS537.73_T,SRR10276843.9426,97.83,46,1,0,204,249,197,152,2e-13,80.5
Exophiala_xenobiotica_CBS117642,SRR10276843.9426,97.83,46,1,0,196,241,48,93,2e-13,80.5
Exophiala_xenobiotica_CBS117642,SRR10276843.9426,97.83,46,1,0,196,241,197,152,2e-13,80.5
Exophiala_brunnea_CBS,SRR10276843.1220888,94.74,57,2,1,578,633,97,41,4e-16,89.8
Exophiala_brunnea_CBS,SRR10276843.1220888,94.74,57,2,1,578,633,194,250,4e-16,89.8
Exophiala_brunnea_CBS,SRR10276843.9426,97.83,46,1,0,232,277,48,93,2e-13,80.5
Exophiala_brunnea_CBS,SRR10276843.9426,97.83,46,1,0,232,277,197,152,2e-13,80.5
Exophiala_mesophila_CBS402.95_T,SRR10276843.1220888,97.80,91,2,0,549,639,91,1,1e-36,158
Exophiala_mesophila_CBS402.95_T,SRR10276843.1220888,97.80,91,2,0,549,639,200,290,1e-36,158
Exophiala_mesophila_CBS402.95_T,SRR10276843.9426,97.83,46,1,0,194,239,48,93,2e-13,80.5
Exophiala_mesophila_CBS402.95_T,SRR10276843.9426,97.83,46,1,0,194,239,197,152,2e-13,80.5
Exophiala_castellanii_CBS158.58_T,SRR10276843.1220888,95.05,101,4,1,538,638,100,1,1e-36,158
Exophiala_castellanii_CBS158.58_T,SRR10276843.1220888,95.05,101,4,1,538,638,191,290,1e-36,158
Exophiala_castellanii_CBS158.58_T,SRR10276843.9426,97.83,46,1,0,192,237,48,93,2e-13,80.5
Exophiala_castellanii_CBS158.58_T,SRR10276843.9426,97.83,46,1,0,192,237,197,152,2e-13,80.5
Exophiala_lecanii-corni_CBS123.33_T,SRR10276843.9426,97.83,46,1,0,215,260,48,93,2e-13,80.5
Exophiala_lecanii-corni_CBS123.33_T,SRR10276843.9426,97.83,46,1,0,215,260,197,152,2e-13,80.5
Exophiala_dermatitidis_CBS748.88,SRR10276843.1220888,96.97,99,3,0,566,664,99,1,4e-39,167
Exophiala_dermatitidis_CBS748.88,SRR10276843.1220888,96.97,99,3,0,566,664,192,290,4e-39,167
Exophiala_dermatitidis_CBS748.88,SRR10276843.9426,95.65,46,1,1,208,252,48,93,9e-11,73.1
Exophiala_dermatitidis_CBS748.88,SRR10276843.9426,95.65,46,1,1,208,252,197,152,9e-11,73.1
Exophiala_angulospora_CBS482.92_T,SRR10276843.9426,97.83,46,1,0,198,243,48,93,2e-13,80.5
Exophiala_angulospora_CBS482.92_T,SRR10276843.9426,97.83,46,1,0,198,243,197,152,2e-13,80.5
Exophiala_opportunistica_CBS109811_T,SRR10276843.9426,97.83,46,1,0,197,242,48,93,2e-13,80.5
Exophiala_opportunistica_CBS109811_T,SRR10276843.9426,97.83,46,1,0,197,242,197,152,2e-13,80.5
Exophiala_salmonis_CBS157.67_T,SRR10276843.1220888,98.89,90,1,0,673,762,90,1,9e-38,161
Exophiala_salmonis_CBS157.67_T,SRR10276843.1220888,98.89,90,1,0,673,762,201,290,9e-38,161
Exophiala_salmonis_CBS157.67_T,SRR10276843.9426,97.83,46,1,0,326,371,48,93,3e-13,80.5
Exophiala_salmonis_CBS157.67_T,SRR10276843.9426,97.83,46,1,0,326,371,197,152,3e-13,80.5
Exophiala_aquamarina_CBS119918_T,SRR10276843.9426,97.83,46,1,0,204,249,48,93,2e-13,80.5
Exophiala_aquamarina_CBS119918_T,SRR10276843.9426,97.83,46,1,0,204,249,197,152,2e-13,80.5
Exophiala_cancerae_CBS120420_T,SRR10276843.1220888,95.83,72,3,0,553,624,101,30,2e-24,117
Exophiala_cancerae_CBS120420_T,SRR10276843.1220888,95.83,72,3,0,553,624,190,261,2e-24,117
Exophiala_cancerae_CBS120420_T,SRR10276843.9426,97.83,46,1,0,219,264,48,93,2e-13,80.5
Exophiala_cancerae_CBS120420_T,SRR10276843.9426,97.83,46,1,0,219,264,197,152,2e-13,80.5
Exophiala_tremulae_CBS129355,SRR10276843.1220888,100.00,50,0,0,579,628,90,41,3e-17,93.5
Exophiala_tremulae_CBS129355,SRR10276843.1220888,100.00,50,0,0,579,628,201,250,3e-17,93.5
Exophiala_tremulae_CBS129355,SRR10276843.9426,97.83,46,1,0,231,276,48,93,2e-13,80.5
Exophiala_tremulae_CBS129355,SRR10276843.9426,97.83,46,1,0,231,276,197,152,2e-13,80.5
Exophiala_equina_CBS116009,SRR10276843.9426,97.83,46,1,0,197,242,48,93,2e-13,80.5
Exophiala_equina_CBS116009,SRR10276843.9426,97.83,46,1,0,197,242,197,152,2e-13,80.5
Exophiala_alcalophila_CBS520.82_T,SRR10276843.9426,97.83,46,1,0,208,253,48,93,2e-13,80.5
Exophiala_alcalophila_CBS520.82_T,SRR10276843.9426,97.83,46,1,0,208,253,197,152,2e-13,80.5
Exophiala_crusticola_CBS119970_T,SRR10276843.9426,97.83,46,1,0,213,258,48,93,2e-13,80.5
Exophiala_crusticola_CBS119970_T,SRR10276843.9426,97.83,46,1,0,213,258,197,152,2e-13,80.5
Rhinocladiella_atrovirens_CBS264.49,SRR10276843.1220888,95.08,61,1,2,568,626,102,42,7e-18,95.3
Rhinocladiella_atrovirens_CBS264.49,SRR10276843.1220888,95.08,61,1,2,568,626,189,249,7e-18,95.3
Rhinocladiella_atrovirens_CBS264.49,SRR10276843.9426,97.83,46,1,0,239,284,48,93,2e-13,80.5
Rhinocladiella_atrovirens_CBS264.49,SRR10276843.9426,97.83,46,1,0,239,284,197,152,2e-13,80.5
Rhinocladiella_basitona_CBS101460_T,SRR10276843.9426,97.83,46,1,0,198,243,48,93,2e-13,80.5
Rhinocladiella_basitona_CBS101460_T,SRR10276843.9426,97.83,46,1,0,198,243,197,152,2e-13,80.5
Rhinocladiella_phaeophora_CBS496.78_T,SRR10276843.9426,97.83,46,1,0,206,251,48,93,2e-13,80.5
Rhinocladiella_phaeophora_CBS496.78_T,SRR10276843.9426,97.83,46,1,0,206,251,197,152,2e-13,80.5
Rhinocladiella_aquaspersa_CBS313.73_T,SRR10276843.1220888,93.94,99,2,4,540,634,99,1,2e-33,147
Rhinocladiella_aquaspersa_CBS313.73_T,SRR10276843.1220888,93.94,99,2,4,540,634,192,290,2e-33,147
Rhinocladiella_aquaspersa_CBS313.73_T,SRR10276843.9426,97.83,46,1,0,200,245,48,93,2e-13,80.5
Rhinocladiella_aquaspersa_CBS313.73_T,SRR10276843.9426,97.83,46,1,0,200,245,197,152,2e-13,80.5
Rhinocladiella_anceps_CBS181.65_T,SRR10276843.9426,97.83,46,1,0,198,243,48,93,2e-13,80.5
Rhinocladiella_anceps_CBS181.65_T,SRR10276843.9426,97.83,46,1,0,198,243,197,152,2e-13,80.5
Rhinocladiella_mackenziei_CBS367.92,SRR10276843.1220888,100.00,43,0,0,566,608,89,47,2e-13,80.5
Rhinocladiella_mackenziei_CBS367.92,SRR10276843.1220888,100.00,43,0,0,566,608,202,244,2e-13,80.5
Rhinocladiella_mackenziei_CBS367.92,SRR10276843.9426,97.83,46,1,0,187,232,48,93,2e-13,80.5
Rhinocladiella_mackenziei_CBS367.92,SRR10276843.9426,97.83,46,1,0,187,232,197,152,2e-13,80.5
Veronaea_compacta_CBS268.75_T,SRR10276843.9426,97.83,46,1,0,220,265,48,93,2e-13,80.5
Veronaea_compacta_CBS268.75_T,SRR10276843.9426,97.83,46,1,0,220,265,197,152,2e-13,80.5
Capronia_pilosella_AFTOL-ID657,SRR10276843.9426,97.83,46,1,0,298,343,48,93,2e-13,80.5
Capronia_pilosella_AFTOL-ID657,SRR10276843.9426,97.83,46,1,0,298,343,197,152,2e-13,80.5
Capronia_dactylotricha_DAOM208471_T,SRR10276843.1220888,98.91,92,1,0,556,647,92,1,6e-39,165
Capronia_dactylotricha_DAOM208471_T,SRR10276843.1220888,98.91,92,1,0,556,647,199,290,6e-39,165
Capronia_dactylotricha_DAOM208471_T,SRR10276843.9426,97.83,46,1,0,200,245,48,93,2e-13,80.5
Capronia_dactylotricha_DAOM208471_T,SRR10276843.9426,97.83,46,1,0,200,245,197,152,2e-13,80.5
Capronia_kleinmondensis_CBS122671_T,SRR10276843.1220888,97.06,102,1,2,554,653,102,1,1e-40,171
Capronia_kleinmondensis_CBS122671_T,SRR10276843.1220888,97.06,102,1,2,554,653,189,290,1e-40,171
Capronia_kleinmondensis_CBS122671_T,SRR10276843.9426,97.83,46,1,0,225,270,48,93,2e-13,80.5
Capronia_kleinmondensis_CBS122671_T,SRR10276843.9426,97.83,46,1,0,225,270,197,152,2e-13,80.5
Capronia_mansonii_CBS101.67_T,SRR10276843.1220888,97.78,90,2,0,568,657,90,1,4e-36,156
Capronia_mansonii_CBS101.67_T,SRR10276843.1220888,97.78,90,2,0,568,657,201,290,4e-36,156
Capronia_mansonii_CBS101.67_T,SRR10276843.9426,97.83,46,1,0,211,256,48,93,2e-13,80.5
Capronia_mansonii_CBS101.67_T,SRR10276843.9426,97.83,46,1,0,211,256,197,152,2e-13,80.5
Capronia_munkii_DAOM216390_T,SRR10276843.1220888,97.78,90,2,0,568,657,90,1,4e-36,156
Capronia_munkii_DAOM216390_T,SRR10276843.1220888,97.78,90,2,0,568,657,201,290,4e-36,156
Capronia_munkii_DAOM216390_T,SRR10276843.9426,97.83,46,1,0,211,256,48,93,2e-13,80.5
Capronia_munkii_DAOM216390_T,SRR10276843.9426,97.83,46,1,0,211,256,197,152,2e-13,80.5
Capronia_coronata_ATCC56201_T,SRR10276843.1220888,95.10,102,4,1,528,628,102,1,3e-37,159
Capronia_coronata_ATCC56201_T,SRR10276843.1220888,95.10,102,4,1,528,628,189,290,3e-37,159
Capronia_coronata_ATCC56201_T,SRR10276843.9426,97.83,46,1,0,199,244,48,93,2e-13,80.5
Capronia_coronata_ATCC56201_T,SRR10276843.9426,97.83,46,1,0,199,244,197,152,2e-13,80.5
Capronia_parasitica_CBS123.88,SRR10276843.9426,97.87,47,1,0,204,250,47,93,6e-14,82.4
Capronia_parasitica_CBS123.88,SRR10276843.9426,97.87,47,1,0,204,250,198,152,6e-14,82.4
Capronia_parasitica_CBS123.88,SRR10276843.1220888,95.45,44,1,1,553,595,98,55,4e-10,69.4
Capronia_parasitica_CBS123.88,SRR10276843.1220888,95.45,44,1,1,553,595,193,236,4e-10,69.4
Veronaea_japonica_CBS776.83_T,SRR10276843.9426,97.83,46,1,0,233,278,48,93,2e-13,80.5
Veronaea_japonica_CBS776.83_T,SRR10276843.9426,97.83,46,1,0,233,278,197,152,2e-13,80.5
Thysanorea_papuana_CBS212.96_T,SRR10276843.9426,97.83,46,1,0,207,252,48,93,2e-13,80.5
Thysanorea_papuana_CBS212.96_T,SRR10276843.9426,97.83,46,1,0,207,252,197,152,2e-13,80.5
Capronia_acutiseta_ATCC56428_T,SRR10276843.1220888,95.92,98,4,0,530,627,98,1,3e-37,159
Capronia_acutiseta_ATCC56428_T,SRR10276843.1220888,95.92,98,4,0,530,627,193,290,3e-37,159
Capronia_acutiseta_ATCC56428_T,SRR10276843.9426,97.83,46,1,0,201,246,48,93,2e-13,80.5
Capronia_acutiseta_ATCC56428_T,SRR10276843.9426,97.83,46,1,0,201,246,197,152,2e-13,80.5
Fonsecaea_brasiliensis_CBS119710_T,SRR10276843.9426,97.83,46,1,0,207,252,48,93,2e-13,80.5
Fonsecaea_brasiliensis_CBS119710_T,SRR10276843.9426,97.83,46,1,0,207,252,197,152,2e-13,80.5
Fonsecaea_pedrosoi_CBS271.37_T,SRR10276843.1220888,96.72,61,2,0,585,645,90,30,5e-20,102
Fonsecaea_pedrosoi_CBS271.37_T,SRR10276843.1220888,96.72,61,2,0,585,645,201,261,5e-20,102
Fonsecaea_pedrosoi_CBS271.37_T,SRR10276843.9426,97.83,46,1,0,235,280,48,93,2e-13,80.5
Fonsecaea_pedrosoi_CBS271.37_T,SRR10276843.9426,97.83,46,1,0,235,280,197,152,2e-13,80.5
Fonsecaea_multimorphosa_CBS980.96_T,SRR10276843.9426,97.83,46,1,0,205,250,48,93,2e-13,80.5
Fonsecaea_multimorphosa_CBS980.96_T,SRR10276843.9426,97.83,46,1,0,205,250,197,152,2e-13,80.5
Fonsecaea_minima_CBS125760_T,SRR10276843.9426,97.83,46,1,0,201,246,48,93,2e-13,80.5
Fonsecaea_minima_CBS125760_T,SRR10276843.9426,97.83,46,1,0,201,246,197,152,2e-13,80.5
Fonsecaea_nubica_CBS269.64_T,SRR10276843.9426,97.83,46,1,0,212,257,48,93,2e-13,80.5
Fonsecaea_nubica_CBS269.64_T,SRR10276843.9426,97.83,46,1,0,212,257,197,152,2e-13,80.5
Fonsecaea_monophora_CBS269.37_T,SRR10276843.9426,97.83,46,1,0,212,257,48,93,2e-13,80.5
Fonsecaea_monophora_CBS269.37_T,SRR10276843.9426,97.83,46,1,0,212,257,197,152,2e-13,80.5
Fonsecaea_erecta_CBS125763_T,SRR10276843.9426,97.83,46,1,0,196,241,48,93,2e-13,80.5
Fonsecaea_erecta_CBS125763_T,SRR10276843.9426,97.83,46,1,0,196,241,197,152,2e-13,80.5
Fonsecaea_pugnacius_CBS139214_T,SRR10276843.9426,97.83,46,1,0,205,250,48,93,2e-13,80.5
Fonsecaea_pugnacius_CBS139214_T,SRR10276843.9426,97.83,46,1,0,205,250,197,152,2e-13,80.5
Cladophialophora_psammophila_CBS,SRR10276843.9426,97.83,46,1,0,211,256,48,93,2e-13,80.5
Cladophialophora_psammophila_CBS,SRR10276843.9426,97.83,46,1,0,211,256,197,152,2e-13,80.5
Cladophialophora_devriesii_CBS,SRR10276843.9426,97.83,46,1,0,207,252,48,93,2e-13,80.5
Cladophialophora_devriesii_CBS,SRR10276843.9426,97.83,46,1,0,207,252,197,152,2e-13,80.5
Cladophialophora_immunda_CBS834.96,SRR10276843.9426,97.83,46,1,0,209,254,48,93,2e-13,80.5
Cladophialophora_immunda_CBS834.96,SRR10276843.9426,97.83,46,1,0,209,254,197,152,2e-13,80.5
Cladophialophora_arxii_CBS306.94_T,SRR10276843.9426,97.83,46,1,0,211,256,48,93,2e-13,80.5
Cladophialophora_arxii_CBS306.94_T,SRR10276843.9426,97.83,46,1,0,211,256,197,152,2e-13,80.5
Cladophialophora_bantiana_CBS173.52,SRR10276843.9426,97.83,46,1,0,205,250,48,93,2e-13,80.5
Cladophialophora_bantiana_CBS173.52,SRR10276843.9426,97.83,46,1,0,205,250,197,152,2e-13,80.5
Cladophialophora_emmonsii_CBS102594,SRR10276843.9426,97.83,46,1,0,196,241,48,93,2e-13,80.5
Cladophialophora_emmonsii_CBS102594,SRR10276843.9426,97.83,46,1,0,196,241,197,152,2e-13,80.5
Cladophialophora_minourae_CBS556.83,SRR10276843.9426,97.83,46,1,0,204,249,48,93,2e-13,80.5
Cladophialophora_minourae_CBS556.83,SRR10276843.9426,97.83,46,1,0,204,249,197,152,2e-13,80.5
Cladophialophora_australiensis_CBS112793,SRR10276843.1220888,96.67,90,3,0,546,635,90,1,4e-34,150
Cladophialophora_australiensis_CBS112793,SRR10276843.1220888,96.67,90,3,0,546,635,201,290,4e-34,150
Cladophialophora_australiensis_CBS112793,SRR10276843.9426,97.87,47,1,0,205,251,47,93,1e-13,82.4
Cladophialophora_australiensis_CBS112793,SRR10276843.9426,97.87,47,1,0,205,251,198,152,1e-13,82.4
Cladophialophora_potulentorum_CBS112222,SRR10276843.1220888,94.95,99,4,1,540,637,99,1,3e-35,154
Cladophialophora_potulentorum_CBS112222,SRR10276843.1220888,94.95,99,4,1,540,637,192,290,3e-35,154
Cladophialophora_potulentorum_CBS112222,SRR10276843.9426,97.83,46,1,0,205,250,48,93,5e-13,80.5
Cladophialophora_potulentorum_CBS112222,SRR10276843.9426,97.83,46,1,0,205,250,197,152,5e-13,80.5
Cladophialophora_matsushimae_CMRP1198,SRR10276843.9426,97.83,46,1,0,209,254,48,93,2e-13,80.5
Cladophialophora_matsushimae_CMRP1198,SRR10276843.9426,97.83,46,1,0,209,254,197,152,2e-13,80.5
Cladophialophora_mycetomatis_CBS122637,SRR10276843.9426,97.83,46,1,0,194,239,48,93,2e-13,80.5
Cladophialophora_mycetomatis_CBS122637,SRR10276843.9426,97.83,46,1,0,194,239,197,152,2e-13,80.5
Cladophialophora_boppii_CBS126.86_T,SRR10276843.9426,97.83,46,1,0,202,247,48,93,2e-13,80.5
Cladophialophora_boppii_CBS126.86_T,SRR10276843.9426,97.83,46,1,0,202,247,197,152,2e-13,80.5
Cladophialophora_abundans_CBS126736,SRR10276843.9426,97.83,46,1,0,139,184,48,93,2e-13,80.5
Cladophialophora_abundans_CBS126736,SRR10276843.9426,97.83,46,1,0,139,184,197,152,2e-13,80.5
Capronia_semi-immersa_CBS102234,SRR10276843.9426,97.83,46,1,0,201,246,48,93,2e-13,80.5
Capronia_semi-immersa_CBS102234,SRR10276843.9426,97.83,46,1,0,201,246,197,152,2e-13,80.5
Phialophora_americana_CBS400.67,SRR10276843.9426,97.83,46,1,0,203,248,48,93,5e-13,80.5
Phialophora_americana_CBS400.67,SRR10276843.9426,97.83,46,1,0,203,248,197,152,5e-13,80.5
Phialophora_verrucosa_CBS140325_T,SRR10276843.9426,97.83,46,1,0,207,252,48,93,2e-13,80.5
Phialophora_verrucosa_CBS140325_T,SRR10276843.9426,97.83,46,1,0,207,252,197,152,2e-13,80.5
Cladophialophora_samoensis_CBS259.83_T,SRR10276843.9426,97.83,46,1,0,207,252,48,93,2e-13,80.5
Cladophialophora_samoensis_CBS259.83_T,SRR10276843.9426,97.83,46,1,0,207,252,197,152,2e-13,80.5
Cladophialophora_carrionii_CBS260.83,SRR10276843.9426,97.83,46,1,0,223,268,48,93,2e-13,80.5
Cladophialophora_carrionii_CBS260.83,SRR10276843.9426,97.83,46,1,0,223,268,197,152,2e-13,80.5
Exophiala_palmae_UPCB86822_T,SRR10276843.9426,97.83,46,1,0,166,211,48,93,2e-13,80.5
Exophiala_palmae_UPCB86822_T,SRR10276843.9426,97.83,46,1,0,166,211,197,152,2e-13,80.5
Cladophialophora_yegresii_CBS114405_T,SRR10276843.9426,97.83,46,1,0,208,253,48,93,2e-13,80.5
Cladophialophora_yegresii_CBS114405_T,SRR10276843.9426,97.83,46,1,0,208,253,197,152,2e-13,80.5
Knufia_epidermidis_CBS120353_T,SRR10276843.9426,97.83,46,1,0,206,251,48,93,2e-13,80.5
Knufia_epidermidis_CBS120353_T,SRR10276843.9426,97.83,46,1,0,206,251,197,152,2e-13,80.5
Arthrocladium_fulminans_CBS136243_T,SRR10276843.9426,97.83,46,1,0,201,246,48,93,2e-13,80.5
Arthrocladium_fulminans_CBS136243_T,SRR10276843.9426,97.83,46,1,0,201,246,197,152,2e-13,80.5
Anthopsis_deltoidea_CBS263.77_T,SRR10276843.9426,97.83,46,1,0,210,255,48,93,2e-13,80.5
Anthopsis_deltoidea_CBS263.77_T,SRR10276843.9426,97.83,46,1,0,210,255,197,152,2e-13,80.5
Cyphellophora_laciniata_CBS190.61_T,SRR10276843.1220888,94.34,106,5,1,619,724,105,1,9e-38,161
Cyphellophora_laciniata_CBS190.61_T,SRR10276843.1220888,94.34,106,5,1,619,724,186,290,9e-38,161
Cyphellophora_suttonii_CBS449.91,SRR10276843.9426,86.84,76,9,1,168,243,19,93,1e-14,84.2
Cyphellophora_suttonii_CBS449.91,SRR10276843.9426,86.84,76,9,1,168,243,226,152,1e-14,84.2
Cyphellophora_pauciseptata_CBS284.85_T,SRR10276843.9426,88.16,76,8,1,179,254,19,93,3e-16,89.8
Cyphellophora_pauciseptata_CBS284.85_T,SRR10276843.9426,88.16,76,8,1,179,254,226,152,3e-16,89.8
Phialophora_europaea_CBS101466,SRR10276843.9426,97.92,48,1,0,202,249,46,93,1e-14,84.2
Phialophora_europaea_CBS101466,SRR10276843.9426,97.92,48,1,0,202,249,199,152,1e-14,84.2
Phialophora_ambigua_CBS235.93,SRR10276843.9426,97.83,46,1,0,201,246,48,93,2e-13,80.5
Phialophora_ambigua_CBS235.93,SRR10276843.9426,97.83,46,1,0,201,246,197,152,2e-13,80.5
Cladophialophora_modesta_CBS985.96_T,SRR10276843.1220888,96.67,90,3,0,519,608,90,1,2e-34,150
Cladophialophora_modesta_CBS985.96_T,SRR10276843.1220888,96.67,90,3,0,519,608,201,290,2e-34,150
Cladophialophora_modesta_CBS985.96_T,SRR10276843.9426,97.83,46,1,0,198,243,48,93,2e-13,80.5
Cladophialophora_modesta_CBS985.96_T,SRR10276843.9426,97.83,46,1,0,198,243,197,152,2e-13,80.5
