Exophiala_polymorpha_CBS138920_T,ERR3026530.3867535,100.00,28,0,0,83,110,81,54,2e-05,52.8
Exophiala_pisciphila_CBS537.73_T,ERR3026530.1793109,89.47,76,8,0,578,653,78,3,8e-19,97.1
Exophiala_pisciphila_CBS537.73_T,ERR3026530.164828,89.71,68,7,0,586,653,1,68,5e-16,87.9
Exophiala_pisciphila_CBS537.73_T,ERR3026530.1862781,91.53,59,5,0,574,632,21,79,2e-14,82.4
Exophiala_pisciphila_CBS537.73_T,ERR3026530.1679544,91.53,59,5,0,574,632,21,79,2e-14,82.4
Exophiala_pisciphila_CBS537.73_T,ERR3026530.552896,91.23,57,5,0,590,646,3,59,3e-13,78.7
Exophiala_pisciphila_CBS537.73_T,ERR3026530.2878148,93.48,46,3,0,574,619,36,81,2e-10,69.4
Exophiala_brunnea_CBS,ERR3026530.3064178,97.44,39,1,0,1,39,45,7,6e-10,67.6
Exophiala_brunnea_CBS,ERR3026530.3867535,100.00,28,0,0,15,42,81,54,2e-05,52.8
Exophiala_mesophila_CBS402.95_T,ERR3026530.1793109,89.47,76,8,0,575,650,78,3,8e-19,97.1
Exophiala_mesophila_CBS402.95_T,ERR3026530.164828,89.71,68,7,0,583,650,1,68,5e-16,87.9
Exophiala_mesophila_CBS402.95_T,ERR3026530.1862781,92.73,55,4,0,575,629,25,79,8e-14,80.5
Exophiala_mesophila_CBS402.95_T,ERR3026530.1679544,92.73,55,4,0,575,629,25,79,8e-14,80.5
Exophiala_mesophila_CBS402.95_T,ERR3026530.552896,91.23,57,5,0,587,643,3,59,3e-13,78.7
Exophiala_mesophila_CBS402.95_T,ERR3026530.2878148,95.24,42,2,0,575,616,40,81,6e-10,67.6
Exophiala_castellanii_CBS158.58_T,ERR3026530.1793109,89.47,76,8,0,574,649,78,3,8e-19,97.1
Exophiala_castellanii_CBS158.58_T,ERR3026530.164828,89.71,68,7,0,582,649,1,68,5e-16,87.9
Exophiala_castellanii_CBS158.58_T,ERR3026530.1862781,92.73,55,4,0,574,628,25,79,8e-14,80.5
Exophiala_castellanii_CBS158.58_T,ERR3026530.1679544,92.73,55,4,0,574,628,25,79,8e-14,80.5
Exophiala_castellanii_CBS158.58_T,ERR3026530.552896,91.23,57,5,0,586,642,3,59,3e-13,78.7
Exophiala_castellanii_CBS158.58_T,ERR3026530.2878148,95.24,42,2,0,574,615,40,81,6e-10,67.6
Exophiala_dermatitidis_CBS748.88,ERR3026530.3465412,98.77,81,1,0,1376,1456,1,81,6e-33,145
Exophiala_dermatitidis_CBS748.88,ERR3026530.2526351,98.77,81,1,0,1363,1443,1,81,6e-33,145
Exophiala_dermatitidis_CBS748.88,ERR3026530.105700,93.59,78,5,0,860,937,1,78,1e-24,117
Exophiala_dermatitidis_CBS748.88,ERR3026530.3143342,98.41,63,1,0,1395,1457,1,63,6e-23,111
Exophiala_dermatitidis_CBS748.88,ERR3026530.1348821,92.21,77,6,0,1367,1443,4,80,2e-22,110
Exophiala_dermatitidis_CBS748.88,ERR3026530.3145695,90.24,82,6,2,1423,1503,1,81,3e-21,106
Exophiala_dermatitidis_CBS748.88,ERR3026530.1722643,91.14,79,5,2,1371,1448,80,3,3e-21,106
Exophiala_dermatitidis_CBS748.88,ERR3026530.944981,91.14,79,5,2,1371,1448,80,3,3e-21,106
Exophiala_dermatitidis_CBS748.88,ERR3026530.677585,90.12,81,8,0,1354,1434,1,81,3e-21,106
Exophiala_dermatitidis_CBS748.88,ERR3026530.3493176,92.96,71,5,0,1368,1438,81,11,1e-20,104
Exophiala_dermatitidis_CBS748.88,ERR3026530.2022349,94.12,68,4,0,1371,1438,10,77,1e-20,104
Exophiala_dermatitidis_CBS748.88,ERR3026530.1494809,94.12,68,4,0,1371,1438,10,77,1e-20,104
Exophiala_dermatitidis_CBS748.88,ERR3026530.779373,94.12,68,4,0,1371,1438,10,77,1e-20,104
Exophiala_dermatitidis_CBS748.88,ERR3026530.555844,94.12,68,4,0,1371,1438,12,79,1e-20,104
Exophiala_dermatitidis_CBS748.88,ERR3026530.364821,89.87,79,8,0,1353,1431,79,1,4e-20,102
Exophiala_dermatitidis_CBS748.88,ERR3026530.2681903,89.02,82,7,2,1423,1503,1,81,1e-19,100
Exophiala_dermatitidis_CBS748.88,ERR3026530.2367253,93.94,66,4,0,1439,1504,1,66,1e-19,100
Exophiala_dermatitidis_CBS748.88,ERR3026530.1693132,92.65,68,5,0,1371,1438,70,3,5e-19,99.0
Exophiala_dermatitidis_CBS748.88,ERR3026530.165012,89.61,77,8,0,1353,1429,5,81,5e-19,99.0
Exophiala_dermatitidis_CBS748.88,ERR3026530.3575297,88.75,80,7,2,1426,1504,81,3,2e-18,97.1
Exophiala_dermatitidis_CBS748.88,ERR3026530.1793109,89.47,76,8,0,600,675,78,3,2e-18,97.1
Exophiala_dermatitidis_CBS748.88,ERR3026530.1664901,90.28,72,7,0,1433,1504,81,10,6e-18,95.3
Exophiala_dermatitidis_CBS748.88,ERR3026530.3671893,89.33,75,6,2,1431,1504,81,8,2e-17,93.5
Exophiala_dermatitidis_CBS748.88,ERR3026530.1911269,93.55,62,4,0,1377,1438,76,15,2e-17,93.5
Exophiala_dermatitidis_CBS748.88,ERR3026530.1185568,89.33,75,6,2,1431,1504,81,8,2e-17,93.5
Exophiala_dermatitidis_CBS748.88,ERR3026530.3485730,88.46,78,5,4,1429,1504,81,6,8e-17,91.6
Exophiala_dermatitidis_CBS748.88,ERR3026530.164828,87.34,79,10,0,608,686,1,79,8e-17,91.6
Exophiala_dermatitidis_CBS748.88,ERR3026530.3992437,93.33,60,4,0,1445,1504,2,61,3e-16,89.8
Exophiala_dermatitidis_CBS748.88,ERR3026530.3977884,93.33,60,4,0,1445,1504,68,9,3e-16,89.8
Exophiala_dermatitidis_CBS748.88,ERR3026530.3817262,93.33,60,4,0,1445,1504,4,63,3e-16,89.8
Exophiala_dermatitidis_CBS748.88,ERR3026530.3220086,93.33,60,4,0,1445,1504,4,63,3e-16,89.8
Exophiala_dermatitidis_CBS748.88,ERR3026530.2429266,93.33,60,4,0,1445,1504,67,8,3e-16,89.8
Exophiala_dermatitidis_CBS748.88,ERR3026530.1777495,93.33,60,4,0,1445,1504,67,8,3e-16,89.8
Exophiala_dermatitidis_CBS748.88,ERR3026530.1399421,93.33,60,4,0,1445,1504,69,10,3e-16,89.8
Exophiala_dermatitidis_CBS748.88,ERR3026530.3364332,94.55,55,3,0,1450,1504,81,27,4e-15,86.1
Exophiala_dermatitidis_CBS748.88,ERR3026530.2439259,90.62,64,6,0,1439,1502,1,64,4e-15,86.1
Exophiala_dermatitidis_CBS748.88,ERR3026530.172571,94.55,55,3,0,1450,1504,4,58,4e-15,86.1
Exophiala_dermatitidis_CBS748.88,ERR3026530.711127,91.67,60,5,0,1445,1504,67,8,1e-14,84.2
Exophiala_dermatitidis_CBS748.88,ERR3026530.3114955,94.34,53,3,0,1452,1504,1,53,5e-14,82.4
Exophiala_dermatitidis_CBS748.88,ERR3026530.231809,94.34,53,3,0,1379,1431,53,1,5e-14,82.4
Exophiala_dermatitidis_CBS748.88,ERR3026530.1862781,92.73,55,4,0,600,654,25,79,2e-13,80.5
Exophiala_dermatitidis_CBS748.88,ERR3026530.1679544,92.73,55,4,0,600,654,25,79,2e-13,80.5
Exophiala_dermatitidis_CBS748.88,ERR3026530.1482636,94.23,52,3,0,1453,1504,81,30,2e-13,80.5
Exophiala_dermatitidis_CBS748.88,ERR3026530.3192252,90.00,60,6,0,1347,1406,62,3,6e-13,78.7
Exophiala_dermatitidis_CBS748.88,ERR3026530.3124913,87.88,66,8,0,1348,1413,66,1,6e-13,78.7
Exophiala_dermatitidis_CBS748.88,ERR3026530.552896,91.23,57,5,0,612,668,3,59,6e-13,78.7
Exophiala_dermatitidis_CBS748.88,ERR3026530.3784840,94.00,50,3,0,1371,1420,10,59,2e-12,76.8
Exophiala_dermatitidis_CBS748.88,ERR3026530.2570260,89.83,59,6,0,1348,1406,22,80,2e-12,76.8
Exophiala_dermatitidis_CBS748.88,ERR3026530.2302032,92.45,53,4,0,1445,1497,3,55,2e-12,76.8
Exophiala_dermatitidis_CBS748.88,ERR3026530.3257616,95.65,46,2,0,1371,1416,10,55,8e-12,75.0
Exophiala_dermatitidis_CBS748.88,ERR3026530.3058860,85.71,70,10,0,1353,1422,12,81,8e-12,75.0
Exophiala_dermatitidis_CBS748.88,ERR3026530.462857,93.88,49,3,0,1456,1504,56,8,8e-12,75.0
Exophiala_dermatitidis_CBS748.88,ERR3026530.446987,95.65,46,2,0,1371,1416,10,55,8e-12,75.0
Exophiala_dermatitidis_CBS748.88,ERR3026530.3584939,89.47,57,6,0,1348,1404,22,78,3e-11,73.1
Exophiala_dermatitidis_CBS748.88,ERR3026530.2264774,83.75,80,9,3,1323,1400,78,1,3e-11,73.1
Exophiala_dermatitidis_CBS748.88,ERR3026530.3151118,100.00,38,0,0,1445,1482,2,39,1e-10,71.3
Exophiala_dermatitidis_CBS748.88,ERR3026530.3035873,89.29,56,6,0,1348,1403,1,56,1e-10,71.3
Exophiala_dermatitidis_CBS748.88,ERR3026530.2213399,90.57,53,5,0,1367,1419,29,81,1e-10,71.3
Exophiala_dermatitidis_CBS748.88,ERR3026530.1920282,89.29,56,6,0,1358,1413,56,1,1e-10,71.3
Exophiala_dermatitidis_CBS748.88,ERR3026530.1319625,95.45,44,2,0,1371,1414,12,55,1e-10,71.3
Exophiala_dermatitidis_CBS748.88,ERR3026530.2899431,91.84,49,4,0,1353,1401,61,13,4e-10,69.4
Exophiala_dermatitidis_CBS748.88,ERR3026530.670665,100.00,37,0,0,1468,1504,78,42,4e-10,69.4
Exophiala_dermatitidis_CBS748.88,ERR3026530.2878148,95.24,42,2,0,600,641,40,81,1e-09,67.6
Exophiala_dermatitidis_CBS748.88,ERR3026530.572117,100.00,36,0,0,1371,1406,38,3,1e-09,67.6
Exophiala_dermatitidis_CBS748.88,ERR3026530.3839426,100.00,35,0,0,1371,1405,35,1,5e-09,65.8
Exophiala_dermatitidis_CBS748.88,ERR3026530.3027038,93.18,44,3,0,1213,1256,51,8,5e-09,65.8
Exophiala_dermatitidis_CBS748.88,ERR3026530.2538313,100.00,35,0,0,1470,1504,81,47,5e-09,65.8
Exophiala_dermatitidis_CBS748.88,ERR3026530.2503215,100.00,35,0,0,1371,1405,10,44,5e-09,65.8
Exophiala_dermatitidis_CBS748.88,ERR3026530.1530654,100.00,35,0,0,1371,1405,10,44,5e-09,65.8
Exophiala_dermatitidis_CBS748.88,ERR3026530.1071823,84.85,66,8,2,1338,1401,8,73,5e-09,65.8
Exophiala_dermatitidis_CBS748.88,ERR3026530.686240,84.85,66,8,2,1338,1401,8,73,5e-09,65.8
Exophiala_dermatitidis_CBS748.88,ERR3026530.410178,88.68,53,6,0,1348,1400,22,74,5e-09,65.8
Exophiala_dermatitidis_CBS748.88,ERR3026530.3685708,100.00,34,0,0,1471,1504,1,34,2e-08,63.9
Exophiala_dermatitidis_CBS748.88,ERR3026530.743257,87.50,56,6,1,1213,1267,9,64,2e-08,63.9
Exophiala_dermatitidis_CBS748.88,ERR3026530.577351,100.00,34,0,0,1471,1504,69,36,2e-08,63.9
Exophiala_dermatitidis_CBS748.88,ERR3026530.3610509,100.00,33,0,0,1371,1403,33,1,7e-08,62.1
Exophiala_dermatitidis_CBS748.88,ERR3026530.2738348,88.24,51,6,0,1348,1398,31,81,7e-08,62.1
Exophiala_dermatitidis_CBS748.88,ERR3026530.2007056,90.91,44,4,0,1213,1256,49,6,2e-07,60.2
Exophiala_dermatitidis_CBS748.88,ERR3026530.3611664,100.00,31,0,0,1472,1502,74,44,8e-07,58.4
Exophiala_dermatitidis_CBS748.88,ERR3026530.2420392,96.97,33,1,0,1368,1400,8,40,3e-06,56.5
Exophiala_dermatitidis_CBS748.88,ERR3026530.1847054,100.00,30,0,0,1371,1400,12,41,3e-06,56.5
Exophiala_dermatitidis_CBS748.88,ERR3026530.750735,100.00,29,0,0,1474,1502,1,29,1e-05,54.7
Exophiala_dermatitidis_CBS748.88,ERR3026530.156174,100.00,29,0,0,1476,1504,1,29,1e-05,54.7
Exophiala_salmonis_CBS157.67_T,ERR3026530.1793109,89.47,76,8,0,698,773,78,3,9e-19,97.1
Exophiala_salmonis_CBS157.67_T,ERR3026530.164828,89.71,68,7,0,706,773,1,68,6e-16,87.9
Exophiala_salmonis_CBS157.67_T,ERR3026530.1862781,91.53,59,5,0,694,752,21,79,3e-14,82.4
Exophiala_salmonis_CBS157.67_T,ERR3026530.1679544,91.53,59,5,0,694,752,21,79,3e-14,82.4
Exophiala_salmonis_CBS157.67_T,ERR3026530.552896,91.23,57,5,0,710,766,3,59,3e-13,78.7
Exophiala_salmonis_CBS157.67_T,ERR3026530.2878148,93.48,46,3,0,694,739,36,81,2e-10,69.4
Exophiala_tremulae_CBS129355,ERR3026530.3064178,97.44,39,1,0,1,39,45,7,6e-10,67.6
Exophiala_tremulae_CBS129355,ERR3026530.3867535,100.00,28,0,0,15,42,81,54,2e-05,52.8
Rhinocladiella_atrovirens_CBS264.49,ERR3026530.3064178,97.73,44,1,0,1,44,50,7,1e-12,76.8
Rhinocladiella_aquaspersa_CBS313.73_T,ERR3026530.1793109,89.47,76,8,0,570,645,78,3,8e-19,97.1
Rhinocladiella_aquaspersa_CBS313.73_T,ERR3026530.164828,88.89,72,8,0,578,649,1,72,1e-16,89.8
Rhinocladiella_aquaspersa_CBS313.73_T,ERR3026530.1862781,91.53,59,5,0,566,624,21,79,2e-14,82.4
Rhinocladiella_aquaspersa_CBS313.73_T,ERR3026530.1679544,91.53,59,5,0,566,624,21,79,2e-14,82.4
Rhinocladiella_aquaspersa_CBS313.73_T,ERR3026530.552896,91.23,57,5,0,582,638,3,59,3e-13,78.7
Rhinocladiella_aquaspersa_CBS313.73_T,ERR3026530.2878148,93.48,46,3,0,566,611,36,81,2e-10,69.4
Rhinocladiella_mackenziei_CBS367.92,ERR3026530.3867535,100.00,28,0,0,2,29,81,54,2e-05,52.8
Veronaea_compacta_CBS268.75_T,ERR3026530.3867535,100.00,28,0,0,3,30,81,54,2e-05,52.8
Capronia_dactylotricha_DAOM208471_T,ERR3026530.1793109,89.47,76,8,0,583,658,78,3,8e-19,97.1
Capronia_dactylotricha_DAOM208471_T,ERR3026530.164828,89.71,68,7,0,591,658,1,68,5e-16,87.9
Capronia_dactylotricha_DAOM208471_T,ERR3026530.1862781,91.53,59,5,0,579,637,21,79,2e-14,82.4
Capronia_dactylotricha_DAOM208471_T,ERR3026530.1679544,91.53,59,5,0,579,637,21,79,2e-14,82.4
Capronia_dactylotricha_DAOM208471_T,ERR3026530.552896,91.23,57,5,0,595,651,3,59,3e-13,78.7
Capronia_dactylotricha_DAOM208471_T,ERR3026530.2878148,93.48,46,3,0,579,624,36,81,2e-10,69.4
Capronia_kleinmondensis_CBS122671_T,ERR3026530.1793109,89.47,76,8,0,589,664,78,3,8e-19,97.1
Capronia_kleinmondensis_CBS122671_T,ERR3026530.164828,89.71,68,7,0,597,664,1,68,5e-16,87.9
Capronia_kleinmondensis_CBS122671_T,ERR3026530.1862781,91.53,59,5,0,585,643,21,79,2e-14,82.4
Capronia_kleinmondensis_CBS122671_T,ERR3026530.1679544,91.53,59,5,0,585,643,21,79,2e-14,82.4
Capronia_kleinmondensis_CBS122671_T,ERR3026530.552896,91.23,57,5,0,601,657,3,59,3e-13,78.7
Capronia_kleinmondensis_CBS122671_T,ERR3026530.2878148,93.48,46,3,0,585,630,36,81,2e-10,69.4
Capronia_mansonii_CBS101.67_T,ERR3026530.1793109,89.47,76,8,0,593,668,78,3,8e-19,97.1
Capronia_mansonii_CBS101.67_T,ERR3026530.164828,89.71,68,7,0,601,668,1,68,5e-16,87.9
Capronia_mansonii_CBS101.67_T,ERR3026530.1862781,92.73,55,4,0,593,647,25,79,8e-14,80.5
Capronia_mansonii_CBS101.67_T,ERR3026530.1679544,92.73,55,4,0,593,647,25,79,8e-14,80.5
Capronia_mansonii_CBS101.67_T,ERR3026530.552896,91.23,57,5,0,605,661,3,59,3e-13,78.7
Capronia_mansonii_CBS101.67_T,ERR3026530.2878148,95.24,42,2,0,593,634,40,81,6e-10,67.6
Capronia_munkii_DAOM216390_T,ERR3026530.1793109,89.47,76,8,0,593,668,78,3,8e-19,97.1
Capronia_munkii_DAOM216390_T,ERR3026530.164828,89.71,68,7,0,601,668,1,68,5e-16,87.9
Capronia_munkii_DAOM216390_T,ERR3026530.1862781,92.73,55,4,0,593,647,25,79,8e-14,80.5
Capronia_munkii_DAOM216390_T,ERR3026530.1679544,92.73,55,4,0,593,647,25,79,8e-14,80.5
Capronia_munkii_DAOM216390_T,ERR3026530.552896,91.23,57,5,0,605,661,3,59,3e-13,78.7
Capronia_munkii_DAOM216390_T,ERR3026530.2878148,95.24,42,2,0,593,634,40,81,6e-10,67.6
Capronia_coronata_ATCC56201_T,ERR3026530.1793109,89.47,76,8,0,564,639,78,3,8e-19,97.1
Capronia_coronata_ATCC56201_T,ERR3026530.164828,89.71,68,7,0,572,639,1,68,5e-16,87.9
Capronia_coronata_ATCC56201_T,ERR3026530.1862781,92.73,55,4,0,564,618,25,79,8e-14,80.5
Capronia_coronata_ATCC56201_T,ERR3026530.1679544,92.73,55,4,0,564,618,25,79,8e-14,80.5
Capronia_coronata_ATCC56201_T,ERR3026530.552896,91.23,57,5,0,576,632,3,59,3e-13,78.7
Capronia_coronata_ATCC56201_T,ERR3026530.2878148,95.24,42,2,0,564,605,40,81,6e-10,67.6
Veronaea_japonica_CBS776.83_T,ERR3026530.3064178,97.37,38,1,0,1,38,44,7,2e-09,65.8
Veronaea_japonica_CBS776.83_T,ERR3026530.3867535,100.00,28,0,0,14,41,81,54,2e-05,52.8
Capronia_acutiseta_ATCC56428_T,ERR3026530.1793109,89.47,76,8,0,563,638,78,3,8e-19,97.1
Capronia_acutiseta_ATCC56428_T,ERR3026530.164828,89.71,68,7,0,571,638,1,68,5e-16,87.9
Capronia_acutiseta_ATCC56428_T,ERR3026530.1862781,91.53,59,5,0,559,617,21,79,2e-14,82.4
Capronia_acutiseta_ATCC56428_T,ERR3026530.1679544,91.53,59,5,0,559,617,21,79,2e-14,82.4
Capronia_acutiseta_ATCC56428_T,ERR3026530.552896,91.23,57,5,0,575,631,3,59,3e-13,78.7
Capronia_acutiseta_ATCC56428_T,ERR3026530.2878148,93.48,46,3,0,559,604,36,81,2e-10,69.4
Cladophialophora_australiensis_CBS112793,ERR3026530.3465412,98.77,81,1,0,1343,1423,1,81,6e-33,145
Cladophialophora_australiensis_CBS112793,ERR3026530.2526351,97.53,81,2,0,1330,1410,1,81,3e-31,139
Cladophialophora_australiensis_CBS112793,ERR3026530.105700,93.59,78,5,0,830,907,1,78,1e-24,117
Cladophialophora_australiensis_CBS112793,ERR3026530.3143342,98.41,63,1,0,1362,1424,1,63,6e-23,111
Cladophialophora_australiensis_CBS112793,ERR3026530.1348821,92.21,77,6,0,1334,1410,4,80,2e-22,110
Cladophialophora_australiensis_CBS112793,ERR3026530.3145695,90.24,82,6,2,1390,1470,1,81,3e-21,106
Cladophialophora_australiensis_CBS112793,ERR3026530.1722643,91.14,79,5,2,1338,1415,80,3,3e-21,106
Cladophialophora_australiensis_CBS112793,ERR3026530.944981,91.14,79,5,2,1338,1415,80,3,3e-21,106
Cladophialophora_australiensis_CBS112793,ERR3026530.677585,90.12,81,8,0,1321,1401,1,81,3e-21,106
Cladophialophora_australiensis_CBS112793,ERR3026530.3493176,92.96,71,5,0,1335,1405,81,11,1e-20,104
Cladophialophora_australiensis_CBS112793,ERR3026530.2022349,94.12,68,4,0,1338,1405,10,77,1e-20,104
Cladophialophora_australiensis_CBS112793,ERR3026530.1494809,94.12,68,4,0,1338,1405,10,77,1e-20,104
Cladophialophora_australiensis_CBS112793,ERR3026530.779373,94.12,68,4,0,1338,1405,10,77,1e-20,104
Cladophialophora_australiensis_CBS112793,ERR3026530.555844,94.12,68,4,0,1338,1405,12,79,1e-20,104
Cladophialophora_australiensis_CBS112793,ERR3026530.364821,89.87,79,8,0,1320,1398,79,1,4e-20,102
Cladophialophora_australiensis_CBS112793,ERR3026530.2681903,89.02,82,7,2,1390,1470,1,81,1e-19,100
Cladophialophora_australiensis_CBS112793,ERR3026530.2367253,93.94,66,4,0,1406,1471,1,66,1e-19,100
Cladophialophora_australiensis_CBS112793,ERR3026530.1693132,92.65,68,5,0,1338,1405,70,3,5e-19,99.0
Cladophialophora_australiensis_CBS112793,ERR3026530.165012,89.61,77,8,0,1320,1396,5,81,5e-19,99.0
Cladophialophora_australiensis_CBS112793,ERR3026530.3575297,88.75,80,7,2,1393,1471,81,3,2e-18,97.1
Cladophialophora_australiensis_CBS112793,ERR3026530.164828,88.61,79,9,0,579,657,1,79,2e-18,97.1
Cladophialophora_australiensis_CBS112793,ERR3026530.1664901,90.28,72,7,0,1400,1471,81,10,6e-18,95.3
Cladophialophora_australiensis_CBS112793,ERR3026530.3671893,89.33,75,6,2,1398,1471,81,8,2e-17,93.5
Cladophialophora_australiensis_CBS112793,ERR3026530.1911269,93.55,62,4,0,1344,1405,76,15,2e-17,93.5
Cladophialophora_australiensis_CBS112793,ERR3026530.1185568,89.33,75,6,2,1398,1471,81,8,2e-17,93.5
Cladophialophora_australiensis_CBS112793,ERR3026530.3485730,88.46,78,5,4,1396,1471,81,6,8e-17,91.6
Cladophialophora_australiensis_CBS112793,ERR3026530.1793109,88.16,76,9,0,571,646,78,3,8e-17,91.6
Cladophialophora_australiensis_CBS112793,ERR3026530.3992437,93.33,60,4,0,1412,1471,2,61,3e-16,89.8
Cladophialophora_australiensis_CBS112793,ERR3026530.3977884,93.33,60,4,0,1412,1471,68,9,3e-16,89.8
Cladophialophora_australiensis_CBS112793,ERR3026530.3817262,93.33,60,4,0,1412,1471,4,63,3e-16,89.8
Cladophialophora_australiensis_CBS112793,ERR3026530.3220086,93.33,60,4,0,1412,1471,4,63,3e-16,89.8
Cladophialophora_australiensis_CBS112793,ERR3026530.2429266,93.33,60,4,0,1412,1471,67,8,3e-16,89.8
Cladophialophora_australiensis_CBS112793,ERR3026530.1777495,93.33,60,4,0,1412,1471,67,8,3e-16,89.8
Cladophialophora_australiensis_CBS112793,ERR3026530.1399421,93.33,60,4,0,1412,1471,69,10,3e-16,89.8
Cladophialophora_australiensis_CBS112793,ERR3026530.3364332,94.55,55,3,0,1417,1471,81,27,4e-15,86.1
Cladophialophora_australiensis_CBS112793,ERR3026530.2439259,90.62,64,6,0,1406,1469,1,64,4e-15,86.1
Cladophialophora_australiensis_CBS112793,ERR3026530.172571,94.55,55,3,0,1417,1471,4,58,4e-15,86.1
Cladophialophora_australiensis_CBS112793,ERR3026530.711127,91.67,60,5,0,1412,1471,67,8,1e-14,84.2
Cladophialophora_australiensis_CBS112793,ERR3026530.3114955,94.34,53,3,0,1419,1471,1,53,5e-14,82.4
Cladophialophora_australiensis_CBS112793,ERR3026530.231809,94.34,53,3,0,1346,1398,53,1,5e-14,82.4
Cladophialophora_australiensis_CBS112793,ERR3026530.1482636,94.23,52,3,0,1420,1471,81,30,2e-13,80.5
Cladophialophora_australiensis_CBS112793,ERR3026530.3192252,90.00,60,6,0,1314,1373,62,3,6e-13,78.7
Cladophialophora_australiensis_CBS112793,ERR3026530.3124913,87.88,66,8,0,1315,1380,66,1,6e-13,78.7
Cladophialophora_australiensis_CBS112793,ERR3026530.552896,91.23,57,5,0,583,639,3,59,6e-13,78.7
Cladophialophora_australiensis_CBS112793,ERR3026530.3784840,94.00,50,3,0,1338,1387,10,59,2e-12,76.8
Cladophialophora_australiensis_CBS112793,ERR3026530.2570260,89.83,59,6,0,1315,1373,22,80,2e-12,76.8
Cladophialophora_australiensis_CBS112793,ERR3026530.2302032,92.45,53,4,0,1412,1464,3,55,2e-12,76.8
Cladophialophora_australiensis_CBS112793,ERR3026530.3257616,95.65,46,2,0,1338,1383,10,55,8e-12,75.0
Cladophialophora_australiensis_CBS112793,ERR3026530.3058860,85.71,70,10,0,1320,1389,12,81,8e-12,75.0
Cladophialophora_australiensis_CBS112793,ERR3026530.1862781,90.91,55,5,0,571,625,25,79,8e-12,75.0
Cladophialophora_australiensis_CBS112793,ERR3026530.1679544,90.91,55,5,0,571,625,25,79,8e-12,75.0
Cladophialophora_australiensis_CBS112793,ERR3026530.462857,93.88,49,3,0,1423,1471,56,8,8e-12,75.0
Cladophialophora_australiensis_CBS112793,ERR3026530.446987,95.65,46,2,0,1338,1383,10,55,8e-12,75.0
Cladophialophora_australiensis_CBS112793,ERR3026530.3584939,89.47,57,6,0,1315,1371,22,78,3e-11,73.1
Cladophialophora_australiensis_CBS112793,ERR3026530.3151118,100.00,38,0,0,1412,1449,2,39,1e-10,71.3
Cladophialophora_australiensis_CBS112793,ERR3026530.3035873,89.29,56,6,0,1315,1370,1,56,1e-10,71.3
Cladophialophora_australiensis_CBS112793,ERR3026530.2213399,90.57,53,5,0,1334,1386,29,81,1e-10,71.3
Cladophialophora_australiensis_CBS112793,ERR3026530.1920282,89.29,56,6,0,1325,1380,56,1,1e-10,71.3
Cladophialophora_australiensis_CBS112793,ERR3026530.1319625,95.45,44,2,0,1338,1381,12,55,1e-10,71.3
Cladophialophora_australiensis_CBS112793,ERR3026530.2899431,91.84,49,4,0,1320,1368,61,13,4e-10,69.4
Cladophialophora_australiensis_CBS112793,ERR3026530.670665,100.00,37,0,0,1435,1471,78,42,4e-10,69.4
Cladophialophora_australiensis_CBS112793,ERR3026530.2264774,91.67,48,4,0,1320,1367,48,1,1e-09,67.6
Cladophialophora_australiensis_CBS112793,ERR3026530.572117,100.00,36,0,0,1338,1373,38,3,1e-09,67.6
Cladophialophora_australiensis_CBS112793,ERR3026530.3839426,100.00,35,0,0,1338,1372,35,1,5e-09,65.8
Cladophialophora_australiensis_CBS112793,ERR3026530.2538313,100.00,35,0,0,1437,1471,81,47,5e-09,65.8
Cladophialophora_australiensis_CBS112793,ERR3026530.2503215,100.00,35,0,0,1338,1372,10,44,5e-09,65.8
Cladophialophora_australiensis_CBS112793,ERR3026530.1530654,100.00,35,0,0,1338,1372,10,44,5e-09,65.8
Cladophialophora_australiensis_CBS112793,ERR3026530.410178,88.68,53,6,0,1315,1367,22,74,5e-09,65.8
Cladophialophora_australiensis_CBS112793,ERR3026530.3685708,100.00,34,0,0,1438,1471,1,34,2e-08,63.9
Cladophialophora_australiensis_CBS112793,ERR3026530.1071823,93.02,43,3,0,1326,1368,31,73,2e-08,63.9
Cladophialophora_australiensis_CBS112793,ERR3026530.686240,93.02,43,3,0,1326,1368,31,73,2e-08,63.9
Cladophialophora_australiensis_CBS112793,ERR3026530.577351,100.00,34,0,0,1438,1471,69,36,2e-08,63.9
Cladophialophora_australiensis_CBS112793,ERR3026530.3610509,100.00,33,0,0,1338,1370,33,1,6e-08,62.1
Cladophialophora_australiensis_CBS112793,ERR3026530.2878148,92.86,42,3,0,571,612,40,81,6e-08,62.1
Cladophialophora_australiensis_CBS112793,ERR3026530.2738348,88.24,51,6,0,1315,1365,31,81,6e-08,62.1
Cladophialophora_australiensis_CBS112793,ERR3026530.3027038,91.11,45,2,2,1180,1223,51,8,2e-07,60.2
Cladophialophora_australiensis_CBS112793,ERR3026530.3611664,100.00,31,0,0,1439,1469,74,44,8e-07,58.4
Cladophialophora_australiensis_CBS112793,ERR3026530.743257,85.71,56,7,1,1180,1234,9,64,8e-07,58.4
Cladophialophora_australiensis_CBS112793,ERR3026530.2420392,96.97,33,1,0,1335,1367,8,40,3e-06,56.5
Cladophialophora_australiensis_CBS112793,ERR3026530.2007056,100.00,30,0,0,1180,1209,49,20,3e-06,56.5
Cladophialophora_australiensis_CBS112793,ERR3026530.1847054,100.00,30,0,0,1338,1367,12,41,3e-06,56.5
Cladophialophora_australiensis_CBS112793,ERR3026530.750735,100.00,29,0,0,1441,1469,1,29,1e-05,54.7
Cladophialophora_australiensis_CBS112793,ERR3026530.156174,100.00,29,0,0,1443,1471,1,29,1e-05,54.7
Cladophialophora_potulentorum_CBS112222,ERR3026530.3465412,98.77,81,1,0,1345,1425,1,81,6e-33,145
Cladophialophora_potulentorum_CBS112222,ERR3026530.2526351,97.53,81,2,0,1332,1412,1,81,3e-31,139
Cladophialophora_potulentorum_CBS112222,ERR3026530.105700,93.59,78,5,0,832,909,1,78,1e-24,117
Cladophialophora_potulentorum_CBS112222,ERR3026530.3220086,93.42,76,5,0,1414,1489,4,79,2e-23,113
Cladophialophora_potulentorum_CBS112222,ERR3026530.3364332,93.33,75,5,0,1419,1493,81,7,6e-23,111
Cladophialophora_potulentorum_CBS112222,ERR3026530.3143342,98.41,63,1,0,1364,1426,1,63,6e-23,111
Cladophialophora_potulentorum_CBS112222,ERR3026530.172571,93.33,75,5,0,1419,1493,4,78,6e-23,111
Cladophialophora_potulentorum_CBS112222,ERR3026530.3817262,93.24,74,5,0,1414,1487,4,77,2e-22,110
Cladophialophora_potulentorum_CBS112222,ERR3026530.1348821,92.21,77,6,0,1336,1412,4,80,2e-22,110
Cladophialophora_potulentorum_CBS112222,ERR3026530.3145695,90.24,82,6,2,1392,1472,1,81,3e-21,106
Cladophialophora_potulentorum_CBS112222,ERR3026530.1722643,91.14,79,5,2,1340,1417,80,3,3e-21,106
Cladophialophora_potulentorum_CBS112222,ERR3026530.1664901,90.12,81,8,0,1402,1482,81,1,3e-21,106
Cladophialophora_potulentorum_CBS112222,ERR3026530.944981,91.14,79,5,2,1340,1417,80,3,3e-21,106
Cladophialophora_potulentorum_CBS112222,ERR3026530.677585,90.12,81,8,0,1323,1403,1,81,3e-21,106
Cladophialophora_potulentorum_CBS112222,ERR3026530.3493176,92.96,71,5,0,1337,1407,81,11,1e-20,104
Cladophialophora_potulentorum_CBS112222,ERR3026530.2367253,94.12,68,4,0,1408,1475,1,68,1e-20,104
Cladophialophora_potulentorum_CBS112222,ERR3026530.2022349,94.12,68,4,0,1340,1407,10,77,1e-20,104
Cladophialophora_potulentorum_CBS112222,ERR3026530.1494809,94.12,68,4,0,1340,1407,10,77,1e-20,104
Cladophialophora_potulentorum_CBS112222,ERR3026530.779373,94.12,68,4,0,1340,1407,10,77,1e-20,104
Cladophialophora_potulentorum_CBS112222,ERR3026530.555844,94.12,68,4,0,1340,1407,12,79,1e-20,104
Cladophialophora_potulentorum_CBS112222,ERR3026530.3992437,92.86,70,5,0,1414,1483,2,71,4e-20,102
Cladophialophora_potulentorum_CBS112222,ERR3026530.364821,89.87,79,8,0,1322,1400,79,1,4e-20,102
Cladophialophora_potulentorum_CBS112222,ERR3026530.3671893,89.02,82,7,2,1400,1480,81,1,1e-19,100
Cladophialophora_potulentorum_CBS112222,ERR3026530.3575297,89.02,82,7,2,1395,1475,81,1,1e-19,100
Cladophialophora_potulentorum_CBS112222,ERR3026530.2681903,89.02,82,7,2,1392,1472,1,81,1e-19,100
Cladophialophora_potulentorum_CBS112222,ERR3026530.1482636,93.94,66,4,0,1422,1487,81,16,1e-19,100
Cladophialophora_potulentorum_CBS112222,ERR3026530.1399421,92.75,69,5,0,1414,1482,69,1,1e-19,100
Cladophialophora_potulentorum_CBS112222,ERR3026530.1185568,89.02,82,7,2,1400,1480,81,1,1e-19,100
Cladophialophora_potulentorum_CBS112222,ERR3026530.3977884,92.65,68,5,0,1414,1481,68,1,5e-19,99.0
Cladophialophora_potulentorum_CBS112222,ERR3026530.1693132,92.65,68,5,0,1340,1407,70,3,5e-19,99.0
Cladophialophora_potulentorum_CBS112222,ERR3026530.165012,89.61,77,8,0,1322,1398,5,81,5e-19,99.0
Cladophialophora_potulentorum_CBS112222,ERR3026530.2439259,89.47,76,8,0,1408,1483,1,76,2e-18,97.1
Cladophialophora_potulentorum_CBS112222,ERR3026530.2429266,92.54,67,5,0,1414,1480,67,1,2e-18,97.1
Cladophialophora_potulentorum_CBS112222,ERR3026530.1777495,92.54,67,5,0,1414,1480,67,1,2e-18,97.1
Cladophialophora_potulentorum_CBS112222,ERR3026530.164828,88.61,79,9,0,581,659,1,79,2e-18,97.1
Cladophialophora_potulentorum_CBS112222,ERR3026530.3485730,88.75,80,5,4,1398,1475,81,4,6e-18,95.3
Cladophialophora_potulentorum_CBS112222,ERR3026530.3114955,93.65,63,4,0,1421,1483,1,63,6e-18,95.3
Cladophialophora_potulentorum_CBS112222,ERR3026530.1911269,93.55,62,4,0,1346,1407,76,15,2e-17,93.5
Cladophialophora_potulentorum_CBS112222,ERR3026530.1793109,88.16,76,9,0,573,648,78,3,8e-17,91.6
Cladophialophora_potulentorum_CBS112222,ERR3026530.711127,91.04,67,6,0,1414,1480,67,1,8e-17,91.6
Cladophialophora_potulentorum_CBS112222,ERR3026530.3685708,96.30,54,2,0,1440,1493,1,54,3e-16,89.8
Cladophialophora_potulentorum_CBS112222,ERR3026530.670665,98.04,51,1,0,1437,1487,78,28,3e-16,89.8
Cladophialophora_potulentorum_CBS112222,ERR3026530.577351,96.30,54,2,0,1440,1493,69,16,3e-16,89.8
Cladophialophora_potulentorum_CBS112222,ERR3026530.2538313,97.96,49,1,0,1439,1487,81,33,4e-15,86.1
Cladophialophora_potulentorum_CBS112222,ERR3026530.462857,92.86,56,4,0,1425,1480,56,1,5e-14,82.4
Cladophialophora_potulentorum_CBS112222,ERR3026530.231809,94.34,53,3,0,1348,1400,53,1,5e-14,82.4
Cladophialophora_potulentorum_CBS112222,ERR3026530.3611664,95.83,48,2,0,1441,1488,74,27,6e-13,78.7
Cladophialophora_potulentorum_CBS112222,ERR3026530.3192252,90.00,60,6,0,1316,1375,62,3,6e-13,78.7
Cladophialophora_potulentorum_CBS112222,ERR3026530.3124913,87.88,66,8,0,1317,1382,66,1,6e-13,78.7
Cladophialophora_potulentorum_CBS112222,ERR3026530.552896,91.23,57,5,0,585,641,3,59,6e-13,78.7
Cladophialophora_potulentorum_CBS112222,ERR3026530.3784840,94.00,50,3,0,1340,1389,10,59,2e-12,76.8
Cladophialophora_potulentorum_CBS112222,ERR3026530.2570260,89.83,59,6,0,1317,1375,22,80,2e-12,76.8
Cladophialophora_potulentorum_CBS112222,ERR3026530.2302032,92.45,53,4,0,1414,1466,3,55,2e-12,76.8
Cladophialophora_potulentorum_CBS112222,ERR3026530.3257616,95.65,46,2,0,1340,1385,10,55,8e-12,75.0
Cladophialophora_potulentorum_CBS112222,ERR3026530.3058860,85.71,70,10,0,1322,1391,12,81,8e-12,75.0
Cladophialophora_potulentorum_CBS112222,ERR3026530.1862781,90.91,55,5,0,573,627,25,79,8e-12,75.0
Cladophialophora_potulentorum_CBS112222,ERR3026530.1679544,90.91,55,5,0,573,627,25,79,8e-12,75.0
Cladophialophora_potulentorum_CBS112222,ERR3026530.750735,95.65,46,2,0,1443,1488,1,46,8e-12,75.0
Cladophialophora_potulentorum_CBS112222,ERR3026530.446987,95.65,46,2,0,1340,1385,10,55,8e-12,75.0
Cladophialophora_potulentorum_CBS112222,ERR3026530.156174,97.67,43,1,0,1445,1487,1,43,8e-12,75.0
Cladophialophora_potulentorum_CBS112222,ERR3026530.3584939,89.47,57,6,0,1317,1373,22,78,3e-11,73.1
Cladophialophora_potulentorum_CBS112222,ERR3026530.3151118,100.00,38,0,0,1414,1451,2,39,1e-10,71.3
Cladophialophora_potulentorum_CBS112222,ERR3026530.3035873,89.29,56,6,0,1317,1372,1,56,1e-10,71.3
Cladophialophora_potulentorum_CBS112222,ERR3026530.2213399,90.57,53,5,0,1336,1388,29,81,1e-10,71.3
Cladophialophora_potulentorum_CBS112222,ERR3026530.1920282,89.29,56,6,0,1327,1382,56,1,1e-10,71.3
Cladophialophora_potulentorum_CBS112222,ERR3026530.1319625,95.45,44,2,0,1340,1383,12,55,1e-10,71.3
Cladophialophora_potulentorum_CBS112222,ERR3026530.2899431,91.84,49,4,0,1322,1370,61,13,4e-10,69.4
Cladophialophora_potulentorum_CBS112222,ERR3026530.2264774,91.67,48,4,0,1322,1369,48,1,1e-09,67.6
Cladophialophora_potulentorum_CBS112222,ERR3026530.572117,100.00,36,0,0,1340,1375,38,3,1e-09,67.6
Cladophialophora_potulentorum_CBS112222,ERR3026530.3839426,100.00,35,0,0,1340,1374,35,1,5e-09,65.8
Cladophialophora_potulentorum_CBS112222,ERR3026530.2503215,100.00,35,0,0,1340,1374,10,44,5e-09,65.8
Cladophialophora_potulentorum_CBS112222,ERR3026530.1530654,100.00,35,0,0,1340,1374,10,44,5e-09,65.8
Cladophialophora_potulentorum_CBS112222,ERR3026530.410178,88.68,53,6,0,1317,1369,22,74,5e-09,65.8
Cladophialophora_potulentorum_CBS112222,ERR3026530.1071823,93.02,43,3,0,1328,1370,31,73,2e-08,63.9
Cladophialophora_potulentorum_CBS112222,ERR3026530.743257,87.50,56,6,1,1182,1236,9,64,2e-08,63.9
Cladophialophora_potulentorum_CBS112222,ERR3026530.686240,93.02,43,3,0,1328,1370,31,73,2e-08,63.9
Cladophialophora_potulentorum_CBS112222,ERR3026530.3610509,100.00,33,0,0,1340,1372,33,1,6e-08,62.1
Cladophialophora_potulentorum_CBS112222,ERR3026530.2878148,92.86,42,3,0,573,614,40,81,6e-08,62.1
Cladophialophora_potulentorum_CBS112222,ERR3026530.2738348,88.24,51,6,0,1317,1367,31,81,6e-08,62.1
Cladophialophora_potulentorum_CBS112222,ERR3026530.3027038,90.91,44,4,0,1182,1225,51,8,2e-07,60.2
Cladophialophora_potulentorum_CBS112222,ERR3026530.2007056,90.91,44,4,0,1182,1225,49,6,2e-07,60.2
Cladophialophora_potulentorum_CBS112222,ERR3026530.2420392,96.97,33,1,0,1337,1369,8,40,3e-06,56.5
Cladophialophora_potulentorum_CBS112222,ERR3026530.1847054,100.00,30,0,0,1340,1369,12,41,3e-06,56.5
Cladophialophora_chaetospira_CBS127573,ERR3026530.3867535,100.00,28,0,0,385,412,81,54,2e-05,52.8
Phialophora_americana_CBS400.67,ERR3026530.3465412,98.77,81,1,0,1337,1417,1,81,6e-33,145
Phialophora_americana_CBS400.67,ERR3026530.2526351,98.77,81,1,0,1324,1404,1,81,6e-33,145
Phialophora_americana_CBS400.67,ERR3026530.3092906,93.59,78,5,0,859,936,81,4,1e-24,117
Phialophora_americana_CBS400.67,ERR3026530.105700,93.59,78,5,0,824,901,1,78,1e-24,117
Phialophora_americana_CBS400.67,ERR3026530.3143342,98.41,63,1,0,1356,1418,1,63,6e-23,111
Phialophora_americana_CBS400.67,ERR3026530.1623072,93.33,75,5,0,862,936,1,75,6e-23,111
Phialophora_americana_CBS400.67,ERR3026530.1348821,92.21,77,6,0,1328,1404,4,80,2e-22,110
Phialophora_americana_CBS400.67,ERR3026530.1722643,91.14,79,5,2,1332,1409,80,3,3e-21,106
Phialophora_americana_CBS400.67,ERR3026530.944981,91.14,79,5,2,1332,1409,80,3,3e-21,106
Phialophora_americana_CBS400.67,ERR3026530.677585,90.12,81,8,0,1315,1395,1,81,3e-21,106
Phialophora_americana_CBS400.67,ERR3026530.3493176,92.96,71,5,0,1329,1399,81,11,1e-20,104
Phialophora_americana_CBS400.67,ERR3026530.2022349,94.12,68,4,0,1332,1399,10,77,1e-20,104
Phialophora_americana_CBS400.67,ERR3026530.1494809,94.12,68,4,0,1332,1399,10,77,1e-20,104
Phialophora_americana_CBS400.67,ERR3026530.779373,94.12,68,4,0,1332,1399,10,77,1e-20,104
Phialophora_americana_CBS400.67,ERR3026530.555844,94.12,68,4,0,1332,1399,12,79,1e-20,104
Phialophora_americana_CBS400.67,ERR3026530.840174,90.91,77,6,1,872,948,76,1,4e-20,102
Phialophora_americana_CBS400.67,ERR3026530.569788,94.03,67,4,0,897,963,1,67,4e-20,102
Phialophora_americana_CBS400.67,ERR3026530.364821,89.87,79,8,0,1314,1392,79,1,4e-20,102
Phialophora_americana_CBS400.67,ERR3026530.1693132,92.65,68,5,0,1332,1399,70,3,5e-19,99.0
Phialophora_americana_CBS400.67,ERR3026530.165012,89.61,77,8,0,1314,1390,5,81,5e-19,99.0
Phialophora_americana_CBS400.67,ERR3026530.1911269,93.55,62,4,0,1338,1399,76,15,2e-17,93.5
Phialophora_americana_CBS400.67,ERR3026530.231809,94.34,53,3,0,1340,1392,53,1,5e-14,82.4
Phialophora_americana_CBS400.67,ERR3026530.3192252,90.00,60,6,0,1308,1367,62,3,6e-13,78.7
Phialophora_americana_CBS400.67,ERR3026530.3124913,87.88,66,8,0,1309,1374,66,1,6e-13,78.7
Phialophora_americana_CBS400.67,ERR3026530.3784840,94.00,50,3,0,1332,1381,10,59,2e-12,76.8
Phialophora_americana_CBS400.67,ERR3026530.2570260,89.83,59,6,0,1309,1367,22,80,2e-12,76.8
Phialophora_americana_CBS400.67,ERR3026530.3257616,95.65,46,2,0,1332,1377,10,55,8e-12,75.0
Phialophora_americana_CBS400.67,ERR3026530.3058860,85.71,70,10,0,1314,1383,12,81,8e-12,75.0
Phialophora_americana_CBS400.67,ERR3026530.446987,95.65,46,2,0,1332,1377,10,55,8e-12,75.0
Phialophora_americana_CBS400.67,ERR3026530.3584939,89.47,57,6,0,1309,1365,22,78,3e-11,73.1
Phialophora_americana_CBS400.67,ERR3026530.3151118,100.00,38,0,0,1406,1443,2,39,1e-10,71.3
Phialophora_americana_CBS400.67,ERR3026530.3035873,89.29,56,6,0,1309,1364,1,56,1e-10,71.3
Phialophora_americana_CBS400.67,ERR3026530.2213399,90.57,53,5,0,1328,1380,29,81,1e-10,71.3
Phialophora_americana_CBS400.67,ERR3026530.1920282,89.29,56,6,0,1319,1374,56,1,1e-10,71.3
Phialophora_americana_CBS400.67,ERR3026530.1319625,95.45,44,2,0,1332,1375,12,55,1e-10,71.3
Phialophora_americana_CBS400.67,ERR3026530.2899431,91.84,49,4,0,1314,1362,61,13,4e-10,69.4
Phialophora_americana_CBS400.67,ERR3026530.2264774,91.67,48,4,0,1314,1361,48,1,1e-09,67.6
Phialophora_americana_CBS400.67,ERR3026530.572117,100.00,36,0,0,1332,1367,38,3,1e-09,67.6
Phialophora_americana_CBS400.67,ERR3026530.3839426,100.00,35,0,0,1332,1366,35,1,5e-09,65.8
Phialophora_americana_CBS400.67,ERR3026530.3027038,93.18,44,3,0,1174,1217,51,8,5e-09,65.8
Phialophora_americana_CBS400.67,ERR3026530.2503215,100.00,35,0,0,1332,1366,10,44,5e-09,65.8
Phialophora_americana_CBS400.67,ERR3026530.1530654,100.00,35,0,0,1332,1366,10,44,5e-09,65.8
Phialophora_americana_CBS400.67,ERR3026530.410178,88.68,53,6,0,1309,1361,22,74,5e-09,65.8
Phialophora_americana_CBS400.67,ERR3026530.1071823,93.02,43,3,0,1320,1362,31,73,2e-08,63.9
Phialophora_americana_CBS400.67,ERR3026530.743257,87.50,56,6,1,1174,1228,9,64,2e-08,63.9
Phialophora_americana_CBS400.67,ERR3026530.686240,93.02,43,3,0,1320,1362,31,73,2e-08,63.9
Phialophora_americana_CBS400.67,ERR3026530.3610509,100.00,33,0,0,1332,1364,33,1,6e-08,62.1
Phialophora_americana_CBS400.67,ERR3026530.2738348,88.24,51,6,0,1309,1359,31,81,6e-08,62.1
Phialophora_americana_CBS400.67,ERR3026530.2007056,90.91,44,4,0,1174,1217,49,6,2e-07,60.2
Phialophora_americana_CBS400.67,ERR3026530.2420392,96.97,33,1,0,1329,1361,8,40,3e-06,56.5
Phialophora_americana_CBS400.67,ERR3026530.1847054,100.00,30,0,0,1332,1361,12,41,3e-06,56.5
Cyphellophora_laciniata_CBS190.61_T,ERR3026530.1793109,90.79,76,7,0,660,735,78,3,2e-20,102
Cyphellophora_laciniata_CBS190.61_T,ERR3026530.3064178,93.55,62,4,0,39,100,68,7,1e-17,93.5
Cyphellophora_laciniata_CBS190.61_T,ERR3026530.164828,91.18,68,6,0,668,735,1,68,1e-17,93.5
Cyphellophora_laciniata_CBS190.61_T,ERR3026530.552896,92.98,57,4,0,672,728,3,59,7e-15,84.2
Cyphellophora_laciniata_CBS190.61_T,ERR3026530.1862781,92.73,55,4,0,660,714,25,79,9e-14,80.5
Cyphellophora_laciniata_CBS190.61_T,ERR3026530.1679544,92.73,55,4,0,660,714,25,79,9e-14,80.5
Cyphellophora_laciniata_CBS190.61_T,ERR3026530.2878148,95.24,42,2,0,660,701,40,81,7e-10,67.6
Cladophialophora_modesta_CBS985.96_T,ERR3026530.1793109,92.21,77,6,0,543,619,79,3,9e-23,110
Cladophialophora_modesta_CBS985.96_T,ERR3026530.164828,89.71,68,7,0,552,619,1,68,4e-16,87.9
Cladophialophora_modesta_CBS985.96_T,ERR3026530.1862781,92.86,56,4,0,543,598,24,79,2e-14,82.4
Cladophialophora_modesta_CBS985.96_T,ERR3026530.1679544,92.86,56,4,0,543,598,24,79,2e-14,82.4
Cladophialophora_modesta_CBS985.96_T,ERR3026530.552896,91.23,57,5,0,556,612,3,59,3e-13,78.7
Cladophialophora_modesta_CBS985.96_T,ERR3026530.2878148,95.35,43,2,0,543,585,39,81,2e-10,69.4
