Exophiala_dermatitidis_CBS748.88,SRR10276833.1432812,89.63,135,14,0,1368,1502,168,302,6e-41,172
Exophiala_dermatitidis_CBS748.88,SRR10276833.1432812,90.10,101,10,0,1404,1504,144,44,1e-28,132
Exophiala_dermatitidis_CBS748.88,SRR10276833.1044944,95.70,93,4,0,912,1004,1,93,3e-34,150
Exophiala_dermatitidis_CBS748.88,SRR10276833.1044944,95.65,92,4,0,913,1004,244,153,1e-33,148
Exophiala_dermatitidis_CBS748.88,SRR10276833.849960,88.62,123,13,1,1382,1504,148,269,1e-33,148
Exophiala_dermatitidis_CBS748.88,SRR10276833.849960,88.98,118,13,0,1387,1504,147,30,4e-33,147
Exophiala_dermatitidis_CBS748.88,SRR10276833.1216197,90.10,101,10,0,1404,1504,160,260,1e-28,132
Exophiala_dermatitidis_CBS748.88,SRR10276833.1216197,90.74,54,5,0,1451,1504,151,98,7e-11,73.1
Exophiala_dermatitidis_CBS748.88,SRR10276833.897149,90.10,101,10,0,1404,1504,160,260,1e-28,132
Exophiala_dermatitidis_CBS748.88,SRR10276833.897149,90.74,54,5,0,1451,1504,151,98,7e-11,73.1
Exophiala_dermatitidis_CBS748.88,SRR10276833.775082,89.89,89,9,0,1416,1504,150,238,1e-23,115
Exophiala_dermatitidis_CBS748.88,SRR10276833.775082,90.77,65,6,0,1440,1504,146,82,2e-15,87.9
Exophiala_dermatitidis_CBS748.88,SRR10276833.1484981,96.97,33,1,0,1368,1400,36,4,7e-06,56.5
Exophiala_dermatitidis_CBS748.88,SRR10276833.1484981,96.88,32,1,0,1369,1400,241,272,2e-05,54.7
Cladophialophora_australiensis_CBS112793,SRR10276833.1432812,89.63,135,14,0,1335,1469,168,302,6e-41,172
Cladophialophora_australiensis_CBS112793,SRR10276833.1432812,90.10,101,10,0,1371,1471,144,44,1e-28,132
Cladophialophora_australiensis_CBS112793,SRR10276833.849960,88.62,123,13,1,1349,1471,148,269,1e-33,148
Cladophialophora_australiensis_CBS112793,SRR10276833.849960,88.98,118,13,0,1354,1471,147,30,4e-33,147
Cladophialophora_australiensis_CBS112793,SRR10276833.1044944,94.57,92,5,0,882,973,1,92,5e-32,143
Cladophialophora_australiensis_CBS112793,SRR10276833.1216197,90.10,101,10,0,1371,1471,160,260,1e-28,132
Cladophialophora_australiensis_CBS112793,SRR10276833.1216197,90.74,54,5,0,1418,1471,151,98,6e-11,73.1
Cladophialophora_australiensis_CBS112793,SRR10276833.897149,90.10,101,10,0,1371,1471,160,260,1e-28,132
Cladophialophora_australiensis_CBS112793,SRR10276833.897149,90.74,54,5,0,1418,1471,151,98,6e-11,73.1
Cladophialophora_australiensis_CBS112793,SRR10276833.775082,89.89,89,9,0,1383,1471,150,238,1e-23,115
Cladophialophora_australiensis_CBS112793,SRR10276833.775082,90.77,65,6,0,1407,1471,146,82,2e-15,87.9
Cladophialophora_australiensis_CBS112793,SRR10276833.1484981,96.97,33,1,0,1335,1367,36,4,6e-06,56.5
Cladophialophora_australiensis_CBS112793,SRR10276833.1484981,96.88,32,1,0,1336,1367,241,272,2e-05,54.7
Cladophialophora_potulentorum_CBS112222,SRR10276833.1432812,89.63,135,14,0,1337,1471,168,302,6e-41,172
Cladophialophora_potulentorum_CBS112222,SRR10276833.1432812,90.52,116,11,0,1373,1488,144,29,2e-35,154
Cladophialophora_potulentorum_CBS112222,SRR10276833.849960,89.13,138,14,1,1351,1488,148,284,2e-40,171
Cladophialophora_potulentorum_CBS112222,SRR10276833.849960,89.47,133,14,0,1356,1488,147,15,8e-40,169
Cladophialophora_potulentorum_CBS112222,SRR10276833.1216197,90.52,116,11,0,1373,1488,160,275,2e-35,154
Cladophialophora_potulentorum_CBS112222,SRR10276833.1216197,91.30,69,6,0,1420,1488,151,83,1e-17,95.3
Cladophialophora_potulentorum_CBS112222,SRR10276833.897149,90.52,116,11,0,1373,1488,160,275,2e-35,154
Cladophialophora_potulentorum_CBS112222,SRR10276833.897149,91.30,69,6,0,1420,1488,151,83,1e-17,95.3
Cladophialophora_potulentorum_CBS112222,SRR10276833.1044944,94.62,93,5,0,884,976,1,93,1e-32,145
Cladophialophora_potulentorum_CBS112222,SRR10276833.775082,90.38,104,10,0,1385,1488,150,253,2e-30,137
Cladophialophora_potulentorum_CBS112222,SRR10276833.775082,91.25,80,7,0,1409,1488,146,67,5e-22,110
Cladophialophora_potulentorum_CBS112222,SRR10276833.1484981,96.97,33,1,0,1337,1369,36,4,7e-06,56.5
Cladophialophora_potulentorum_CBS112222,SRR10276833.1484981,96.88,32,1,0,1338,1369,241,272,2e-05,54.7
Phialophora_americana_CBS400.67,SRR10276833.1432812,88.03,117,14,0,1329,1445,168,284,6e-31,139
Phialophora_americana_CBS400.67,SRR10276833.1044944,93.55,93,6,0,876,968,1,93,6e-31,139
Phialophora_americana_CBS400.67,SRR10276833.1484981,96.97,33,1,0,1329,1361,36,4,6e-06,56.5
Phialophora_americana_CBS400.67,SRR10276833.1484981,96.88,32,1,0,1330,1361,241,272,2e-05,54.7
