Exophiala_dermatitidis_CBS748.88,SRR10276809.273571,93.33,120,8,0,905,1024,149,30,1e-42,178
Cladophialophora_australiensis_CBS112793,SRR10276809.273571,91.67,120,10,0,875,994,149,30,2e-39,167
Cladophialophora_potulentorum_CBS112222,SRR10276809.273571,92.50,120,9,0,877,996,149,30,5e-41,172
Phialophora_americana_CBS400.67,SRR10276809.273571,92.92,113,8,0,869,981,149,37,8e-39,165
