Exophiala_dermatitidis_CBS748.88,SRR10276783.919724,100.00,29,0,0,1212,1240,54,26,3e-05,54.7
Exophiala_dermatitidis_CBS748.88,SRR10276783.919724,100.00,29,0,0,1212,1240,220,248,3e-05,54.7
Exophiala_dermatitidis_CBS748.88,SRR10276783.117552,100.00,29,0,0,1212,1240,31,59,3e-05,54.7
Exophiala_dermatitidis_CBS748.88,SRR10276783.117552,100.00,29,0,0,1212,1240,201,173,3e-05,54.7
Cladophialophora_australiensis_CBS112793,SRR10276783.919724,100.00,29,0,0,1179,1207,54,26,2e-05,54.7
Cladophialophora_australiensis_CBS112793,SRR10276783.919724,100.00,29,0,0,1179,1207,220,248,2e-05,54.7
Cladophialophora_australiensis_CBS112793,SRR10276783.117552,100.00,29,0,0,1179,1207,31,59,2e-05,54.7
Cladophialophora_australiensis_CBS112793,SRR10276783.117552,100.00,29,0,0,1179,1207,201,173,2e-05,54.7
Cladophialophora_potulentorum_CBS112222,SRR10276783.919724,100.00,29,0,0,1181,1209,54,26,3e-05,54.7
Cladophialophora_potulentorum_CBS112222,SRR10276783.919724,100.00,29,0,0,1181,1209,220,248,3e-05,54.7
Cladophialophora_potulentorum_CBS112222,SRR10276783.117552,100.00,29,0,0,1181,1209,31,59,3e-05,54.7
Cladophialophora_potulentorum_CBS112222,SRR10276783.117552,100.00,29,0,0,1181,1209,201,173,3e-05,54.7
Phialophora_americana_CBS400.67,SRR10276783.919724,100.00,29,0,0,1173,1201,54,26,2e-05,54.7
Phialophora_americana_CBS400.67,SRR10276783.919724,100.00,29,0,0,1173,1201,220,248,2e-05,54.7
Phialophora_americana_CBS400.67,SRR10276783.117552,100.00,29,0,0,1173,1201,31,59,2e-05,54.7
Phialophora_americana_CBS400.67,SRR10276783.117552,100.00,29,0,0,1173,1201,201,173,2e-05,54.7
