SONDA_C_chaetospira,SRR9590832.269685,100.00,34,0,0,6,39,105,72,2e-10,63.9
SONDA_C_chaetospira,SRR9590832.88108,100.00,34,0,0,6,39,105,72,2e-10,63.9
SONDA_P_oxyspora,SRR9590832.495272,100.00,37,0,0,1,37,121,85,4e-12,69.4
SONDA_P_oxyspora,SRR9590832.490590,100.00,37,0,0,1,37,121,85,4e-12,69.4
SONDA_P_oxyspora,SRR9590832.488221,100.00,37,0,0,1,37,121,85,4e-12,69.4
SONDA_P_oxyspora,SRR9590832.487806,100.00,37,0,0,1,37,121,85,4e-12,69.4
SONDA_P_oxyspora,SRR9590832.487783,100.00,37,0,0,1,37,121,85,4e-12,69.4
SONDA_P_oxyspora,SRR9590832.487783,100.00,37,0,0,1,37,405,441,4e-12,69.4
SONDA_P_oxyspora,SRR9590832.487779,100.00,37,0,0,1,37,121,85,4e-12,69.4
SONDA_P_oxyspora,SRR9590832.487603,100.00,37,0,0,1,37,121,85,4e-12,69.4
SONDA_P_oxyspora,SRR9590832.487603,100.00,37,0,0,1,37,405,441,4e-12,69.4
SONDA_P_oxyspora,SRR9590832.484871,100.00,37,0,0,1,37,121,85,4e-12,69.4
SONDA_P_oxyspora,SRR9590832.484871,100.00,34,0,0,4,37,408,441,2e-10,63.9
SONDA_P_oxyspora,SRR9590832.479472,100.00,37,0,0,1,37,121,85,4e-12,69.4
SONDA_P_oxyspora,SRR9590832.479472,100.00,37,0,0,1,37,405,441,4e-12,69.4
SONDA_P_oxyspora,SRR9590832.478234,100.00,37,0,0,1,37,121,85,4e-12,69.4
SONDA_P_oxyspora,SRR9590832.478234,100.00,37,0,0,1,37,405,441,4e-12,69.4
SONDA_P_oxyspora,SRR9590832.476410,100.00,37,0,0,1,37,121,85,4e-12,69.4
SONDA_P_oxyspora,SRR9590832.476410,97.30,37,1,0,1,37,405,441,2e-10,63.9
SONDA_P_oxyspora,SRR9590832.475700,100.00,37,0,0,1,37,121,85,4e-12,69.4
SONDA_P_oxyspora,SRR9590832.475700,100.00,37,0,0,1,37,405,441,4e-12,69.4
SONDA_P_oxyspora,SRR9590832.475484,100.00,37,0,0,1,37,121,85,4e-12,69.4
SONDA_P_oxyspora,SRR9590832.475484,100.00,37,0,0,1,37,405,441,4e-12,69.4
SONDA_P_oxyspora,SRR9590832.474605,100.00,37,0,0,1,37,121,85,4e-12,69.4
SONDA_P_oxyspora,SRR9590832.474605,100.00,37,0,0,1,37,405,441,4e-12,69.4
SONDA_P_oxyspora,SRR9590832.469324,100.00,37,0,0,1,37,121,85,4e-12,69.4
SONDA_P_oxyspora,SRR9590832.469324,100.00,37,0,0,1,37,405,441,4e-12,69.4
SONDA_P_oxyspora,SRR9590832.468510,100.00,37,0,0,1,37,121,85,4e-12,69.4
SONDA_P_oxyspora,SRR9590832.468510,100.00,37,0,0,1,37,405,441,4e-12,69.4
SONDA_P_oxyspora,SRR9590832.468014,100.00,37,0,0,1,37,121,85,4e-12,69.4
SONDA_P_oxyspora,SRR9590832.466819,100.00,37,0,0,1,37,121,85,4e-12,69.4
SONDA_P_oxyspora,SRR9590832.466819,100.00,37,0,0,1,37,405,441,4e-12,69.4
SONDA_P_oxyspora,SRR9590832.466071,100.00,37,0,0,1,37,121,85,4e-12,69.4
SONDA_P_oxyspora,SRR9590832.466061,100.00,37,0,0,1,37,121,85,4e-12,69.4
SONDA_P_oxyspora,SRR9590832.465853,100.00,37,0,0,1,37,121,85,4e-12,69.4
SONDA_P_oxyspora,SRR9590832.465853,100.00,37,0,0,1,37,405,441,4e-12,69.4
SONDA_P_oxyspora,SRR9590832.464561,100.00,37,0,0,1,37,121,85,4e-12,69.4
SONDA_P_oxyspora,SRR9590832.463650,100.00,37,0,0,1,37,121,85,4e-12,69.4
SONDA_P_oxyspora,SRR9590832.461408,100.00,37,0,0,1,37,121,85,4e-12,69.4
SONDA_P_oxyspora,SRR9590832.459012,100.00,37,0,0,1,37,121,85,4e-12,69.4
SONDA_P_oxyspora,SRR9590832.457358,100.00,37,0,0,1,37,121,85,4e-12,69.4
SONDA_P_oxyspora,SRR9590832.455937,100.00,37,0,0,1,37,121,85,4e-12,69.4
SONDA_P_oxyspora,SRR9590832.455937,100.00,37,0,0,1,37,405,441,4e-12,69.4
SONDA_P_oxyspora,SRR9590832.452089,100.00,37,0,0,1,37,121,85,4e-12,69.4
SONDA_P_oxyspora,SRR9590832.452089,100.00,37,0,0,1,37,405,441,4e-12,69.4
SONDA_P_oxyspora,SRR9590832.450433,100.00,37,0,0,1,37,121,85,4e-12,69.4
SONDA_P_oxyspora,SRR9590832.450433,100.00,37,0,0,1,37,405,441,4e-12,69.4
SONDA_P_oxyspora,SRR9590832.450026,100.00,37,0,0,1,37,121,85,4e-12,69.4
SONDA_P_oxyspora,SRR9590832.450026,100.00,37,0,0,1,37,405,441,4e-12,69.4
SONDA_P_oxyspora,SRR9590832.449730,100.00,37,0,0,1,37,121,85,4e-12,69.4
SONDA_P_oxyspora,SRR9590832.449730,100.00,37,0,0,1,37,405,441,4e-12,69.4
SONDA_P_oxyspora,SRR9590832.449655,100.00,37,0,0,1,37,121,85,4e-12,69.4
SONDA_P_oxyspora,SRR9590832.449655,100.00,37,0,0,1,37,405,441,4e-12,69.4
SONDA_P_oxyspora,SRR9590832.449278,100.00,37,0,0,1,37,121,85,4e-12,69.4
SONDA_P_oxyspora,SRR9590832.448677,100.00,37,0,0,1,37,121,85,4e-12,69.4
SONDA_P_oxyspora,SRR9590832.447348,100.00,37,0,0,1,37,121,85,4e-12,69.4
SONDA_P_oxyspora,SRR9590832.447272,100.00,37,0,0,1,37,121,85,4e-12,69.4
SONDA_P_oxyspora,SRR9590832.447272,100.00,37,0,0,1,37,405,441,4e-12,69.4
SONDA_P_oxyspora,SRR9590832.446781,100.00,37,0,0,1,37,121,85,4e-12,69.4
SONDA_P_oxyspora,SRR9590832.446781,100.00,37,0,0,1,37,405,441,4e-12,69.4
SONDA_P_oxyspora,SRR9590832.445614,100.00,37,0,0,1,37,121,85,4e-12,69.4
SONDA_P_oxyspora,SRR9590832.445614,100.00,37,0,0,1,37,405,441,4e-12,69.4
SONDA_P_oxyspora,SRR9590832.444737,100.00,37,0,0,1,37,121,85,4e-12,69.4
SONDA_P_oxyspora,SRR9590832.442986,100.00,37,0,0,1,37,121,85,4e-12,69.4
SONDA_P_oxyspora,SRR9590832.442986,100.00,37,0,0,1,37,405,441,4e-12,69.4
SONDA_P_oxyspora,SRR9590832.441301,100.00,37,0,0,1,37,121,85,4e-12,69.4
SONDA_P_oxyspora,SRR9590832.432562,100.00,37,0,0,1,37,121,85,4e-12,69.4
SONDA_P_oxyspora,SRR9590832.432562,100.00,37,0,0,1,37,405,441,4e-12,69.4
SONDA_P_oxyspora,SRR9590832.432303,100.00,37,0,0,1,37,121,85,4e-12,69.4
SONDA_P_oxyspora,SRR9590832.432303,100.00,37,0,0,1,37,405,441,4e-12,69.4
SONDA_P_oxyspora,SRR9590832.429743,100.00,37,0,0,1,37,121,85,4e-12,69.4
SONDA_P_oxyspora,SRR9590832.429743,100.00,37,0,0,1,37,405,441,4e-12,69.4
SONDA_P_oxyspora,SRR9590832.429732,100.00,37,0,0,1,37,121,85,4e-12,69.4
SONDA_P_oxyspora,SRR9590832.429732,100.00,37,0,0,1,37,405,441,4e-12,69.4
SONDA_P_oxyspora,SRR9590832.428239,100.00,37,0,0,1,37,121,85,4e-12,69.4
SONDA_P_oxyspora,SRR9590832.428239,97.30,37,1,0,1,37,405,441,2e-10,63.9
SONDA_P_oxyspora,SRR9590832.428214,100.00,37,0,0,1,37,121,85,4e-12,69.4
SONDA_P_oxyspora,SRR9590832.428214,100.00,37,0,0,1,37,405,441,4e-12,69.4
SONDA_P_oxyspora,SRR9590832.426397,100.00,37,0,0,1,37,121,85,4e-12,69.4
SONDA_P_oxyspora,SRR9590832.424503,100.00,37,0,0,1,37,121,85,4e-12,69.4
SONDA_P_oxyspora,SRR9590832.424503,100.00,37,0,0,1,37,405,441,4e-12,69.4
SONDA_P_oxyspora,SRR9590832.423773,100.00,37,0,0,1,37,121,85,4e-12,69.4
SONDA_P_oxyspora,SRR9590832.423773,100.00,37,0,0,1,37,405,441,4e-12,69.4
SONDA_P_oxyspora,SRR9590832.422800,100.00,37,0,0,1,37,121,85,4e-12,69.4
SONDA_P_oxyspora,SRR9590832.422800,100.00,37,0,0,1,37,405,441,4e-12,69.4
SONDA_P_oxyspora,SRR9590832.422686,100.00,37,0,0,1,37,121,85,4e-12,69.4
SONDA_P_oxyspora,SRR9590832.422034,100.00,37,0,0,1,37,121,85,4e-12,69.4
SONDA_P_oxyspora,SRR9590832.422034,100.00,37,0,0,1,37,405,441,4e-12,69.4
SONDA_P_oxyspora,SRR9590832.417517,100.00,37,0,0,1,37,121,85,4e-12,69.4
SONDA_P_oxyspora,SRR9590832.417517,100.00,37,0,0,1,37,403,439,4e-12,69.4
SONDA_P_oxyspora,SRR9590832.416350,100.00,37,0,0,1,37,121,85,4e-12,69.4
SONDA_P_oxyspora,SRR9590832.416350,100.00,37,0,0,1,37,405,441,4e-12,69.4
SONDA_P_oxyspora,SRR9590832.415114,100.00,37,0,0,1,37,121,85,4e-12,69.4
SONDA_P_oxyspora,SRR9590832.415108,100.00,37,0,0,1,37,121,85,4e-12,69.4
SONDA_P_oxyspora,SRR9590832.414132,100.00,37,0,0,1,37,121,85,4e-12,69.4
SONDA_P_oxyspora,SRR9590832.413298,100.00,37,0,0,1,37,121,85,4e-12,69.4
SONDA_P_oxyspora,SRR9590832.413298,100.00,37,0,0,1,37,405,441,4e-12,69.4
SONDA_P_oxyspora,SRR9590832.412808,100.00,37,0,0,1,37,121,85,4e-12,69.4
SONDA_P_oxyspora,SRR9590832.412808,97.30,37,1,0,1,37,405,441,2e-10,63.9
SONDA_P_oxyspora,SRR9590832.412803,100.00,37,0,0,1,37,121,85,4e-12,69.4
SONDA_P_oxyspora,SRR9590832.412803,100.00,37,0,0,1,37,405,441,4e-12,69.4
SONDA_P_oxyspora,SRR9590832.410541,100.00,37,0,0,1,37,121,85,4e-12,69.4
SONDA_P_oxyspora,SRR9590832.410541,100.00,37,0,0,1,37,405,441,4e-12,69.4
SONDA_P_oxyspora,SRR9590832.401340,100.00,37,0,0,1,37,121,85,4e-12,69.4
SONDA_P_oxyspora,SRR9590832.401340,100.00,37,0,0,1,37,405,441,4e-12,69.4
SONDA_P_oxyspora,SRR9590832.400641,100.00,37,0,0,1,37,121,85,4e-12,69.4
SONDA_P_oxyspora,SRR9590832.400384,100.00,37,0,0,1,37,121,85,4e-12,69.4
SONDA_P_oxyspora,SRR9590832.400384,100.00,37,0,0,1,37,405,441,4e-12,69.4
SONDA_P_oxyspora,SRR9590832.399929,100.00,37,0,0,1,37,121,85,4e-12,69.4
SONDA_P_oxyspora,SRR9590832.399929,100.00,37,0,0,1,37,405,441,4e-12,69.4
SONDA_P_oxyspora,SRR9590832.399604,100.00,37,0,0,1,37,121,85,4e-12,69.4
SONDA_P_oxyspora,SRR9590832.399598,100.00,37,0,0,1,37,121,85,4e-12,69.4
SONDA_P_oxyspora,SRR9590832.398590,100.00,37,0,0,1,37,121,85,4e-12,69.4
SONDA_P_oxyspora,SRR9590832.396982,100.00,37,0,0,1,37,121,85,4e-12,69.4
SONDA_P_oxyspora,SRR9590832.396982,97.30,37,1,0,1,37,405,441,2e-10,63.9
SONDA_P_oxyspora,SRR9590832.396863,100.00,37,0,0,1,37,121,85,4e-12,69.4
SONDA_P_oxyspora,SRR9590832.396863,100.00,37,0,0,1,37,405,441,4e-12,69.4
SONDA_P_oxyspora,SRR9590832.394818,100.00,37,0,0,1,37,120,84,4e-12,69.4
SONDA_P_oxyspora,SRR9590832.394818,100.00,37,0,0,1,37,405,441,4e-12,69.4
SONDA_P_oxyspora,SRR9590832.394672,100.00,37,0,0,1,37,121,85,4e-12,69.4
SONDA_P_oxyspora,SRR9590832.394672,100.00,37,0,0,1,37,405,441,4e-12,69.4
SONDA_P_oxyspora,SRR9590832.394629,100.00,37,0,0,1,37,121,85,4e-12,69.4
SONDA_P_oxyspora,SRR9590832.394629,100.00,37,0,0,1,37,405,441,4e-12,69.4
SONDA_P_oxyspora,SRR9590832.394609,100.00,37,0,0,1,37,121,85,4e-12,69.4
SONDA_P_oxyspora,SRR9590832.394609,100.00,37,0,0,1,37,405,441,4e-12,69.4
SONDA_P_oxyspora,SRR9590832.394594,100.00,37,0,0,1,37,121,85,4e-12,69.4
SONDA_P_oxyspora,SRR9590832.394594,100.00,37,0,0,1,37,405,441,4e-12,69.4
SONDA_P_oxyspora,SRR9590832.393454,100.00,37,0,0,1,37,120,84,4e-12,69.4
SONDA_P_oxyspora,SRR9590832.393454,100.00,37,0,0,1,37,404,440,4e-12,69.4
SONDA_P_oxyspora,SRR9590832.392853,100.00,37,0,0,1,37,117,81,4e-12,69.4
SONDA_P_oxyspora,SRR9590832.392853,100.00,37,0,0,1,37,405,441,4e-12,69.4
SONDA_P_oxyspora,SRR9590832.389614,100.00,37,0,0,1,37,121,85,4e-12,69.4
SONDA_P_oxyspora,SRR9590832.389614,100.00,37,0,0,1,37,405,441,4e-12,69.4
SONDA_P_oxyspora,SRR9590832.389605,100.00,37,0,0,1,37,121,85,4e-12,69.4
SONDA_P_oxyspora,SRR9590832.389605,97.30,37,1,0,1,37,405,441,2e-10,63.9
SONDA_P_oxyspora,SRR9590832.386658,100.00,37,0,0,1,37,121,85,4e-12,69.4
SONDA_P_oxyspora,SRR9590832.386658,100.00,37,0,0,1,37,405,441,4e-12,69.4
SONDA_P_oxyspora,SRR9590832.386654,100.00,37,0,0,1,37,121,85,4e-12,69.4
SONDA_P_oxyspora,SRR9590832.386082,100.00,37,0,0,1,37,121,85,4e-12,69.4
SONDA_P_oxyspora,SRR9590832.386082,100.00,37,0,0,1,37,405,441,4e-12,69.4
SONDA_P_oxyspora,SRR9590832.385380,100.00,37,0,0,1,37,121,85,4e-12,69.4
SONDA_P_oxyspora,SRR9590832.382994,100.00,37,0,0,1,37,121,85,4e-12,69.4
SONDA_P_oxyspora,SRR9590832.382994,100.00,37,0,0,1,37,405,441,4e-12,69.4
SONDA_P_oxyspora,SRR9590832.379598,100.00,37,0,0,1,37,121,85,4e-12,69.4
SONDA_P_oxyspora,SRR9590832.379587,100.00,37,0,0,1,37,121,85,4e-12,69.4
SONDA_P_oxyspora,SRR9590832.379587,100.00,37,0,0,1,37,405,441,4e-12,69.4
SONDA_P_oxyspora,SRR9590832.378628,100.00,37,0,0,1,37,121,85,4e-12,69.4
SONDA_P_oxyspora,SRR9590832.378628,97.30,37,1,0,1,37,405,441,2e-10,63.9
SONDA_P_oxyspora,SRR9590832.377797,100.00,37,0,0,1,37,121,85,4e-12,69.4
SONDA_P_oxyspora,SRR9590832.377797,100.00,37,0,0,1,37,405,441,4e-12,69.4
SONDA_P_oxyspora,SRR9590832.376466,100.00,37,0,0,1,37,121,85,4e-12,69.4
SONDA_P_oxyspora,SRR9590832.376466,100.00,37,0,0,1,37,405,441,4e-12,69.4
SONDA_P_oxyspora,SRR9590832.376461,100.00,37,0,0,1,37,121,85,4e-12,69.4
SONDA_P_oxyspora,SRR9590832.376461,100.00,37,0,0,1,37,405,441,4e-12,69.4
SONDA_P_oxyspora,SRR9590832.375571,100.00,37,0,0,1,37,121,85,4e-12,69.4
SONDA_P_oxyspora,SRR9590832.375571,100.00,37,0,0,1,37,405,441,4e-12,69.4
SONDA_P_oxyspora,SRR9590832.360321,100.00,37,0,0,1,37,121,85,4e-12,69.4
SONDA_P_oxyspora,SRR9590832.360321,100.00,37,0,0,1,37,405,441,4e-12,69.4
SONDA_P_oxyspora,SRR9590832.359458,100.00,37,0,0,1,37,121,85,4e-12,69.4
SONDA_P_oxyspora,SRR9590832.359458,97.30,37,1,0,1,37,405,441,2e-10,63.9
SONDA_P_oxyspora,SRR9590832.356593,100.00,37,0,0,1,37,121,85,4e-12,69.4
SONDA_P_oxyspora,SRR9590832.355294,100.00,37,0,0,1,37,121,85,4e-12,69.4
SONDA_P_oxyspora,SRR9590832.355294,100.00,37,0,0,1,37,405,441,4e-12,69.4
SONDA_P_oxyspora,SRR9590832.354835,100.00,37,0,0,1,37,121,85,4e-12,69.4
SONDA_P_oxyspora,SRR9590832.353256,100.00,37,0,0,1,37,121,85,4e-12,69.4
SONDA_P_oxyspora,SRR9590832.353248,100.00,37,0,0,1,37,121,85,4e-12,69.4
SONDA_P_oxyspora,SRR9590832.353248,100.00,37,0,0,1,37,405,441,4e-12,69.4
SONDA_P_oxyspora,SRR9590832.353236,100.00,37,0,0,1,37,121,85,4e-12,69.4
SONDA_P_oxyspora,SRR9590832.353126,100.00,37,0,0,1,37,121,85,4e-12,69.4
SONDA_P_oxyspora,SRR9590832.353126,100.00,34,0,0,1,34,405,438,2e-10,63.9
SONDA_P_oxyspora,SRR9590832.351075,100.00,37,0,0,1,37,120,84,4e-12,69.4
SONDA_P_oxyspora,SRR9590832.351075,97.30,37,1,0,1,37,404,440,2e-10,63.9
SONDA_P_oxyspora,SRR9590832.344365,100.00,37,0,0,1,37,121,85,4e-12,69.4
SONDA_P_oxyspora,SRR9590832.340679,100.00,37,0,0,1,37,121,85,4e-12,69.4
SONDA_P_oxyspora,SRR9590832.340661,100.00,37,0,0,1,37,121,85,4e-12,69.4
SONDA_P_oxyspora,SRR9590832.339759,100.00,37,0,0,1,37,121,85,4e-12,69.4
SONDA_P_oxyspora,SRR9590832.339759,100.00,37,0,0,1,37,405,441,4e-12,69.4
SONDA_P_oxyspora,SRR9590832.337994,100.00,37,0,0,1,37,122,86,4e-12,69.4
SONDA_P_oxyspora,SRR9590832.337980,100.00,37,0,0,1,37,122,86,4e-12,69.4
SONDA_P_oxyspora,SRR9590832.334740,100.00,37,0,0,1,37,121,85,4e-12,69.4
SONDA_P_oxyspora,SRR9590832.334740,100.00,37,0,0,1,37,405,441,4e-12,69.4
SONDA_P_oxyspora,SRR9590832.334644,100.00,37,0,0,1,37,121,85,4e-12,69.4
SONDA_P_oxyspora,SRR9590832.333056,100.00,37,0,0,1,37,121,85,4e-12,69.4
SONDA_P_oxyspora,SRR9590832.333056,100.00,37,0,0,1,37,405,441,4e-12,69.4
SONDA_P_oxyspora,SRR9590832.333052,100.00,37,0,0,1,37,121,85,4e-12,69.4
SONDA_P_oxyspora,SRR9590832.329952,100.00,37,0,0,1,37,121,85,4e-12,69.4
SONDA_P_oxyspora,SRR9590832.329952,100.00,37,0,0,1,37,405,441,4e-12,69.4
SONDA_P_oxyspora,SRR9590832.329948,100.00,37,0,0,1,37,121,85,4e-12,69.4
SONDA_P_oxyspora,SRR9590832.329937,100.00,37,0,0,1,37,121,85,4e-12,69.4
SONDA_P_oxyspora,SRR9590832.329511,100.00,37,0,0,1,37,121,85,4e-12,69.4
SONDA_P_oxyspora,SRR9590832.329511,97.30,37,1,0,1,37,405,441,2e-10,63.9
SONDA_P_oxyspora,SRR9590832.329494,100.00,37,0,0,1,37,121,85,4e-12,69.4
SONDA_P_oxyspora,SRR9590832.329494,97.30,37,1,0,1,37,405,441,2e-10,63.9
SONDA_P_oxyspora,SRR9590832.329491,100.00,37,0,0,1,37,121,85,4e-12,69.4
SONDA_P_oxyspora,SRR9590832.328208,100.00,37,0,0,1,37,121,85,4e-12,69.4
SONDA_P_oxyspora,SRR9590832.328208,97.30,37,1,0,1,37,405,441,2e-10,63.9
SONDA_P_oxyspora,SRR9590832.325053,100.00,37,0,0,1,37,121,85,4e-12,69.4
SONDA_P_oxyspora,SRR9590832.323697,100.00,37,0,0,1,37,121,85,4e-12,69.4
SONDA_P_oxyspora,SRR9590832.323697,100.00,37,0,0,1,37,405,441,4e-12,69.4
SONDA_P_oxyspora,SRR9590832.323363,100.00,37,0,0,1,37,121,85,4e-12,69.4
SONDA_P_oxyspora,SRR9590832.321854,100.00,37,0,0,1,37,121,85,4e-12,69.4
SONDA_P_oxyspora,SRR9590832.321854,100.00,37,0,0,1,37,405,441,4e-12,69.4
SONDA_P_oxyspora,SRR9590832.320398,100.00,37,0,0,1,37,121,85,4e-12,69.4
SONDA_P_oxyspora,SRR9590832.320398,100.00,37,0,0,1,37,405,441,4e-12,69.4
SONDA_P_oxyspora,SRR9590832.318643,100.00,37,0,0,1,37,121,85,4e-12,69.4
SONDA_P_oxyspora,SRR9590832.318643,100.00,37,0,0,1,37,405,441,4e-12,69.4
SONDA_P_oxyspora,SRR9590832.318633,100.00,37,0,0,1,37,121,85,4e-12,69.4
SONDA_P_oxyspora,SRR9590832.318229,100.00,37,0,0,1,37,121,85,4e-12,69.4
SONDA_P_oxyspora,SRR9590832.318221,100.00,37,0,0,1,37,121,85,4e-12,69.4
SONDA_P_oxyspora,SRR9590832.315335,100.00,37,0,0,1,37,121,85,4e-12,69.4
SONDA_P_oxyspora,SRR9590832.315335,97.30,37,1,0,1,37,405,441,2e-10,63.9
SONDA_P_oxyspora,SRR9590832.314152,100.00,37,0,0,1,37,121,85,4e-12,69.4
SONDA_P_oxyspora,SRR9590832.314152,97.30,37,1,0,1,37,405,441,2e-10,63.9
SONDA_P_oxyspora,SRR9590832.313681,100.00,37,0,0,1,37,121,85,4e-12,69.4
SONDA_P_oxyspora,SRR9590832.313681,100.00,37,0,0,1,37,405,441,4e-12,69.4
SONDA_P_oxyspora,SRR9590832.311284,100.00,37,0,0,1,37,121,85,4e-12,69.4
SONDA_P_oxyspora,SRR9590832.311284,100.00,37,0,0,1,37,405,441,4e-12,69.4
SONDA_P_oxyspora,SRR9590832.310620,100.00,37,0,0,1,37,121,85,4e-12,69.4
SONDA_P_oxyspora,SRR9590832.310620,100.00,37,0,0,1,37,405,441,4e-12,69.4
SONDA_P_oxyspora,SRR9590832.308549,100.00,37,0,0,1,37,121,85,4e-12,69.4
SONDA_P_oxyspora,SRR9590832.308549,100.00,37,0,0,1,37,405,441,4e-12,69.4
SONDA_P_oxyspora,SRR9590832.308220,100.00,37,0,0,1,37,121,85,4e-12,69.4
SONDA_P_oxyspora,SRR9590832.308220,100.00,37,0,0,1,37,405,441,4e-12,69.4
SONDA_P_oxyspora,SRR9590832.307295,100.00,37,0,0,1,37,121,85,4e-12,69.4
SONDA_P_oxyspora,SRR9590832.307295,97.30,37,1,0,1,37,405,441,2e-10,63.9
SONDA_P_oxyspora,SRR9590832.307024,100.00,37,0,0,1,37,121,85,4e-12,69.4
SONDA_P_oxyspora,SRR9590832.306176,100.00,37,0,0,1,37,121,85,4e-12,69.4
SONDA_P_oxyspora,SRR9590832.306176,100.00,35,0,0,1,35,405,439,5e-11,65.8
SONDA_P_oxyspora,SRR9590832.305743,100.00,37,0,0,1,37,121,85,4e-12,69.4
SONDA_P_oxyspora,SRR9590832.304429,100.00,37,0,0,1,37,121,85,4e-12,69.4
SONDA_P_oxyspora,SRR9590832.302436,100.00,37,0,0,1,37,121,85,4e-12,69.4
SONDA_P_oxyspora,SRR9590832.302436,100.00,37,0,0,1,37,405,441,4e-12,69.4
SONDA_P_oxyspora,SRR9590832.302434,100.00,37,0,0,1,37,121,85,4e-12,69.4
SONDA_P_oxyspora,SRR9590832.302434,100.00,37,0,0,1,37,405,441,4e-12,69.4
SONDA_P_oxyspora,SRR9590832.301071,100.00,37,0,0,1,37,121,85,4e-12,69.4
SONDA_P_oxyspora,SRR9590832.301071,97.30,37,1,0,1,37,405,441,2e-10,63.9
SONDA_P_oxyspora,SRR9590832.298878,100.00,37,0,0,1,37,121,85,4e-12,69.4
SONDA_P_oxyspora,SRR9590832.298878,100.00,37,0,0,1,37,405,441,4e-12,69.4
SONDA_P_oxyspora,SRR9590832.297282,100.00,37,0,0,1,37,121,85,4e-12,69.4
SONDA_P_oxyspora,SRR9590832.297282,100.00,37,0,0,1,37,405,441,4e-12,69.4
SONDA_P_oxyspora,SRR9590832.294910,100.00,37,0,0,1,37,121,85,4e-12,69.4
SONDA_P_oxyspora,SRR9590832.294910,100.00,37,0,0,1,37,405,441,4e-12,69.4
SONDA_P_oxyspora,SRR9590832.293190,100.00,37,0,0,1,37,405,441,4e-12,69.4
SONDA_P_oxyspora,SRR9590832.290240,100.00,37,0,0,1,37,121,85,4e-12,69.4
SONDA_P_oxyspora,SRR9590832.290240,100.00,37,0,0,1,37,405,441,4e-12,69.4
SONDA_P_oxyspora,SRR9590832.290128,100.00,37,0,0,1,37,121,85,4e-12,69.4
SONDA_P_oxyspora,SRR9590832.290128,100.00,37,0,0,1,37,405,441,4e-12,69.4
SONDA_P_oxyspora,SRR9590832.286781,100.00,37,0,0,1,37,121,85,4e-12,69.4
SONDA_P_oxyspora,SRR9590832.283203,100.00,37,0,0,1,37,121,85,4e-12,69.4
SONDA_P_oxyspora,SRR9590832.283203,97.30,37,0,1,1,37,406,441,7e-10,62.1
SONDA_P_oxyspora,SRR9590832.282377,100.00,37,0,0,1,37,122,86,4e-12,69.4
SONDA_P_oxyspora,SRR9590832.282377,100.00,37,0,0,1,37,405,441,4e-12,69.4
SONDA_P_oxyspora,SRR9590832.279826,100.00,37,0,0,1,37,121,85,4e-12,69.4
SONDA_P_oxyspora,SRR9590832.279826,100.00,37,0,0,1,37,405,441,4e-12,69.4
SONDA_P_oxyspora,SRR9590832.277563,100.00,37,0,0,1,37,121,85,4e-12,69.4
SONDA_P_oxyspora,SRR9590832.274983,100.00,37,0,0,1,37,121,85,4e-12,69.4
SONDA_P_oxyspora,SRR9590832.274983,100.00,37,0,0,1,37,405,441,4e-12,69.4
SONDA_P_oxyspora,SRR9590832.268414,100.00,37,0,0,1,37,121,85,4e-12,69.4
SONDA_P_oxyspora,SRR9590832.267130,100.00,37,0,0,1,37,121,85,4e-12,69.4
SONDA_P_oxyspora,SRR9590832.267130,100.00,37,0,0,1,37,405,441,4e-12,69.4
SONDA_P_oxyspora,SRR9590832.264576,100.00,37,0,0,1,37,121,85,4e-12,69.4
SONDA_P_oxyspora,SRR9590832.261470,100.00,37,0,0,1,37,121,85,4e-12,69.4
SONDA_P_oxyspora,SRR9590832.261470,97.22,36,1,0,1,36,405,440,7e-10,62.1
SONDA_P_oxyspora,SRR9590832.261090,100.00,37,0,0,1,37,121,85,4e-12,69.4
SONDA_P_oxyspora,SRR9590832.261090,94.59,37,2,0,1,37,403,439,9e-09,58.4
SONDA_P_oxyspora,SRR9590832.256537,100.00,37,0,0,1,37,121,85,4e-12,69.4
SONDA_P_oxyspora,SRR9590832.256537,100.00,34,0,0,1,34,405,438,2e-10,63.9
SONDA_P_oxyspora,SRR9590832.256092,100.00,37,0,0,1,37,121,85,4e-12,69.4
SONDA_P_oxyspora,SRR9590832.254659,100.00,37,0,0,1,37,121,85,4e-12,69.4
SONDA_P_oxyspora,SRR9590832.253155,100.00,37,0,0,1,37,121,85,4e-12,69.4
SONDA_P_oxyspora,SRR9590832.253155,100.00,37,0,0,1,37,405,441,4e-12,69.4
SONDA_P_oxyspora,SRR9590832.250052,100.00,37,0,0,1,37,121,85,4e-12,69.4
SONDA_P_oxyspora,SRR9590832.248508,100.00,37,0,0,1,37,121,85,4e-12,69.4
SONDA_P_oxyspora,SRR9590832.247064,100.00,37,0,0,1,37,121,85,4e-12,69.4
SONDA_P_oxyspora,SRR9590832.247064,100.00,37,0,0,1,37,405,441,4e-12,69.4
SONDA_P_oxyspora,SRR9590832.246990,100.00,37,0,0,1,37,121,85,4e-12,69.4
SONDA_P_oxyspora,SRR9590832.246990,100.00,37,0,0,1,37,405,441,4e-12,69.4
SONDA_P_oxyspora,SRR9590832.246686,100.00,37,0,0,1,37,121,85,4e-12,69.4
SONDA_P_oxyspora,SRR9590832.246686,97.30,37,1,0,1,37,405,441,2e-10,63.9
SONDA_P_oxyspora,SRR9590832.244714,100.00,37,0,0,1,37,121,85,4e-12,69.4
SONDA_P_oxyspora,SRR9590832.244296,100.00,37,0,0,1,37,121,85,4e-12,69.4
SONDA_P_oxyspora,SRR9590832.244296,100.00,37,0,0,1,37,405,441,4e-12,69.4
SONDA_P_oxyspora,SRR9590832.241238,100.00,37,0,0,1,37,121,85,4e-12,69.4
SONDA_P_oxyspora,SRR9590832.241238,100.00,37,0,0,1,37,405,441,4e-12,69.4
SONDA_P_oxyspora,SRR9590832.240999,100.00,37,0,0,1,37,121,85,4e-12,69.4
SONDA_P_oxyspora,SRR9590832.236303,100.00,37,0,0,1,37,121,85,4e-12,69.4
SONDA_P_oxyspora,SRR9590832.236303,100.00,34,0,0,4,37,408,441,2e-10,63.9
SONDA_P_oxyspora,SRR9590832.233464,100.00,37,0,0,1,37,121,85,4e-12,69.4
SONDA_P_oxyspora,SRR9590832.231551,100.00,37,0,0,1,37,121,85,4e-12,69.4
SONDA_P_oxyspora,SRR9590832.231551,100.00,37,0,0,1,37,405,441,4e-12,69.4
SONDA_P_oxyspora,SRR9590832.225095,100.00,37,0,0,1,37,121,85,4e-12,69.4
SONDA_P_oxyspora,SRR9590832.225095,100.00,37,0,0,1,37,405,441,4e-12,69.4
SONDA_P_oxyspora,SRR9590832.223633,100.00,37,0,0,1,37,121,85,4e-12,69.4
SONDA_P_oxyspora,SRR9590832.223611,100.00,37,0,0,1,37,121,85,4e-12,69.4
SONDA_P_oxyspora,SRR9590832.223611,100.00,35,0,0,1,35,405,439,5e-11,65.8
SONDA_P_oxyspora,SRR9590832.222714,100.00,37,0,0,1,37,121,85,4e-12,69.4
SONDA_P_oxyspora,SRR9590832.222714,100.00,37,0,0,1,37,405,441,4e-12,69.4
SONDA_P_oxyspora,SRR9590832.222250,100.00,37,0,0,1,37,121,85,4e-12,69.4
SONDA_P_oxyspora,SRR9590832.222250,100.00,36,0,0,1,36,405,440,1e-11,67.6
SONDA_P_oxyspora,SRR9590832.221759,100.00,37,0,0,1,37,121,85,4e-12,69.4
SONDA_P_oxyspora,SRR9590832.221759,100.00,37,0,0,1,37,405,441,4e-12,69.4
SONDA_P_oxyspora,SRR9590832.221395,100.00,37,0,0,1,37,121,85,4e-12,69.4
SONDA_P_oxyspora,SRR9590832.220871,100.00,37,0,0,1,37,121,85,4e-12,69.4
SONDA_P_oxyspora,SRR9590832.220871,97.30,37,1,0,1,37,405,441,2e-10,63.9
SONDA_P_oxyspora,SRR9590832.220066,100.00,37,0,0,1,37,121,85,4e-12,69.4
SONDA_P_oxyspora,SRR9590832.219684,100.00,37,0,0,1,37,121,85,4e-12,69.4
SONDA_P_oxyspora,SRR9590832.218286,100.00,37,0,0,1,37,121,85,4e-12,69.4
SONDA_P_oxyspora,SRR9590832.218231,100.00,37,0,0,1,37,121,85,4e-12,69.4
SONDA_P_oxyspora,SRR9590832.218231,100.00,37,0,0,1,37,405,441,4e-12,69.4
SONDA_P_oxyspora,SRR9590832.217399,100.00,37,0,0,1,37,121,85,4e-12,69.4
SONDA_P_oxyspora,SRR9590832.216725,100.00,37,0,0,1,37,121,85,4e-12,69.4
SONDA_P_oxyspora,SRR9590832.216725,100.00,37,0,0,1,37,405,441,4e-12,69.4
SONDA_P_oxyspora,SRR9590832.214141,100.00,37,0,0,1,37,121,85,4e-12,69.4
SONDA_P_oxyspora,SRR9590832.209608,100.00,37,0,0,1,37,121,85,4e-12,69.4
SONDA_P_oxyspora,SRR9590832.209608,100.00,37,0,0,1,37,405,441,4e-12,69.4
SONDA_P_oxyspora,SRR9590832.206252,100.00,37,0,0,1,37,121,85,4e-12,69.4
SONDA_P_oxyspora,SRR9590832.206252,100.00,37,0,0,1,37,405,441,4e-12,69.4
SONDA_P_oxyspora,SRR9590832.206242,100.00,37,0,0,1,37,121,85,4e-12,69.4
SONDA_P_oxyspora,SRR9590832.206242,100.00,37,0,0,1,37,405,441,4e-12,69.4
SONDA_P_oxyspora,SRR9590832.206088,100.00,37,0,0,1,37,121,85,4e-12,69.4
SONDA_P_oxyspora,SRR9590832.206088,100.00,37,0,0,1,37,405,441,4e-12,69.4
SONDA_P_oxyspora,SRR9590832.199260,100.00,37,0,0,1,37,121,85,4e-12,69.4
SONDA_P_oxyspora,SRR9590832.199260,100.00,37,0,0,1,37,405,441,4e-12,69.4
SONDA_P_oxyspora,SRR9590832.197291,100.00,37,0,0,1,37,121,85,4e-12,69.4
SONDA_P_oxyspora,SRR9590832.197291,100.00,37,0,0,1,37,405,441,4e-12,69.4
SONDA_P_oxyspora,SRR9590832.196683,100.00,37,0,0,1,37,121,85,4e-12,69.4
SONDA_P_oxyspora,SRR9590832.196328,100.00,37,0,0,1,37,121,85,4e-12,69.4
SONDA_P_oxyspora,SRR9590832.196328,100.00,37,0,0,1,37,405,441,4e-12,69.4
SONDA_P_oxyspora,SRR9590832.196061,100.00,37,0,0,1,37,121,85,4e-12,69.4
SONDA_P_oxyspora,SRR9590832.196061,100.00,37,0,0,1,37,405,441,4e-12,69.4
SONDA_P_oxyspora,SRR9590832.195972,100.00,37,0,0,1,37,121,85,4e-12,69.4
SONDA_P_oxyspora,SRR9590832.195972,100.00,37,0,0,1,37,405,441,4e-12,69.4
SONDA_P_oxyspora,SRR9590832.195100,100.00,37,0,0,1,37,120,84,4e-12,69.4
SONDA_P_oxyspora,SRR9590832.195100,100.00,34,0,0,4,37,407,440,2e-10,63.9
SONDA_P_oxyspora,SRR9590832.195082,100.00,37,0,0,1,37,120,84,4e-12,69.4
SONDA_P_oxyspora,SRR9590832.195082,100.00,37,0,0,1,37,404,440,4e-12,69.4
SONDA_P_oxyspora,SRR9590832.194510,100.00,37,0,0,1,37,121,85,4e-12,69.4
SONDA_P_oxyspora,SRR9590832.194510,100.00,34,0,0,4,37,408,441,2e-10,63.9
SONDA_P_oxyspora,SRR9590832.189491,100.00,37,0,0,1,37,121,85,4e-12,69.4
SONDA_P_oxyspora,SRR9590832.189491,100.00,37,0,0,1,37,405,441,4e-12,69.4
SONDA_P_oxyspora,SRR9590832.186231,100.00,37,0,0,1,37,121,85,4e-12,69.4
SONDA_P_oxyspora,SRR9590832.186231,100.00,37,0,0,1,37,405,441,4e-12,69.4
SONDA_P_oxyspora,SRR9590832.184944,100.00,37,0,0,1,37,121,85,4e-12,69.4
SONDA_P_oxyspora,SRR9590832.184944,100.00,37,0,0,1,37,405,441,4e-12,69.4
SONDA_P_oxyspora,SRR9590832.184282,100.00,37,0,0,1,37,121,85,4e-12,69.4
SONDA_P_oxyspora,SRR9590832.184282,100.00,37,0,0,1,37,405,441,4e-12,69.4
SONDA_P_oxyspora,SRR9590832.183347,100.00,37,0,0,1,37,121,85,4e-12,69.4
SONDA_P_oxyspora,SRR9590832.183331,100.00,37,0,0,1,37,121,85,4e-12,69.4
SONDA_P_oxyspora,SRR9590832.183162,100.00,37,0,0,1,37,121,85,4e-12,69.4
SONDA_P_oxyspora,SRR9590832.183162,100.00,37,0,0,1,37,405,441,4e-12,69.4
SONDA_P_oxyspora,SRR9590832.180808,100.00,37,0,0,1,37,121,85,4e-12,69.4
SONDA_P_oxyspora,SRR9590832.179591,100.00,37,0,0,1,37,121,85,4e-12,69.4
SONDA_P_oxyspora,SRR9590832.178349,100.00,37,0,0,1,37,121,85,4e-12,69.4
SONDA_P_oxyspora,SRR9590832.175408,100.00,37,0,0,1,37,121,85,4e-12,69.4
SONDA_P_oxyspora,SRR9590832.175408,100.00,37,0,0,1,37,405,441,4e-12,69.4
SONDA_P_oxyspora,SRR9590832.173441,100.00,37,0,0,1,37,121,85,4e-12,69.4
SONDA_P_oxyspora,SRR9590832.170573,100.00,37,0,0,1,37,121,85,4e-12,69.4
SONDA_P_oxyspora,SRR9590832.167937,100.00,37,0,0,1,37,121,85,4e-12,69.4
SONDA_P_oxyspora,SRR9590832.167057,100.00,37,0,0,1,37,121,85,4e-12,69.4
SONDA_P_oxyspora,SRR9590832.167051,100.00,37,0,0,1,37,121,85,4e-12,69.4
SONDA_P_oxyspora,SRR9590832.167051,100.00,37,0,0,1,37,405,441,4e-12,69.4
SONDA_P_oxyspora,SRR9590832.165070,100.00,37,0,0,1,37,121,85,4e-12,69.4
SONDA_P_oxyspora,SRR9590832.165070,100.00,37,0,0,1,37,405,441,4e-12,69.4
SONDA_P_oxyspora,SRR9590832.164347,100.00,37,0,0,1,37,121,85,4e-12,69.4
SONDA_P_oxyspora,SRR9590832.163104,100.00,37,0,0,1,37,120,84,4e-12,69.4
SONDA_P_oxyspora,SRR9590832.161681,100.00,37,0,0,1,37,121,85,4e-12,69.4
SONDA_P_oxyspora,SRR9590832.161681,100.00,37,0,0,1,37,405,441,4e-12,69.4
SONDA_P_oxyspora,SRR9590832.161005,100.00,37,0,0,1,37,121,85,4e-12,69.4
SONDA_P_oxyspora,SRR9590832.159244,100.00,37,0,0,1,37,121,85,4e-12,69.4
SONDA_P_oxyspora,SRR9590832.159244,100.00,37,0,0,1,37,405,441,4e-12,69.4
SONDA_P_oxyspora,SRR9590832.159047,100.00,37,0,0,1,37,121,85,4e-12,69.4
SONDA_P_oxyspora,SRR9590832.157744,100.00,37,0,0,1,37,121,85,4e-12,69.4
SONDA_P_oxyspora,SRR9590832.157744,97.30,37,1,0,1,37,405,441,2e-10,63.9
SONDA_P_oxyspora,SRR9590832.155262,100.00,37,0,0,1,37,121,85,4e-12,69.4
SONDA_P_oxyspora,SRR9590832.155262,100.00,37,0,0,1,37,405,441,4e-12,69.4
SONDA_P_oxyspora,SRR9590832.151606,100.00,37,0,0,1,37,121,85,4e-12,69.4
SONDA_P_oxyspora,SRR9590832.151606,100.00,37,0,0,1,37,405,441,4e-12,69.4
SONDA_P_oxyspora,SRR9590832.151011,100.00,37,0,0,1,37,121,85,4e-12,69.4
SONDA_P_oxyspora,SRR9590832.151011,100.00,37,0,0,1,37,405,441,4e-12,69.4
SONDA_P_oxyspora,SRR9590832.147963,100.00,37,0,0,1,37,121,85,4e-12,69.4
SONDA_P_oxyspora,SRR9590832.147963,100.00,37,0,0,1,37,405,441,4e-12,69.4
SONDA_P_oxyspora,SRR9590832.145151,100.00,37,0,0,1,37,121,85,4e-12,69.4
SONDA_P_oxyspora,SRR9590832.145151,100.00,37,0,0,1,37,405,441,4e-12,69.4
SONDA_P_oxyspora,SRR9590832.144898,100.00,37,0,0,1,37,120,84,4e-12,69.4
SONDA_P_oxyspora,SRR9590832.144898,100.00,37,0,0,1,37,404,440,4e-12,69.4
SONDA_P_oxyspora,SRR9590832.143628,100.00,37,0,0,1,37,121,85,4e-12,69.4
SONDA_P_oxyspora,SRR9590832.143628,100.00,37,0,0,1,37,405,441,4e-12,69.4
SONDA_P_oxyspora,SRR9590832.139346,100.00,37,0,0,1,37,121,85,4e-12,69.4
SONDA_P_oxyspora,SRR9590832.139346,97.30,37,1,0,1,37,405,441,2e-10,63.9
SONDA_P_oxyspora,SRR9590832.134200,100.00,37,0,0,1,37,121,85,4e-12,69.4
SONDA_P_oxyspora,SRR9590832.134200,100.00,37,0,0,1,37,405,441,4e-12,69.4
SONDA_P_oxyspora,SRR9590832.134198,100.00,37,0,0,1,37,121,85,4e-12,69.4
SONDA_P_oxyspora,SRR9590832.134198,97.30,37,1,0,1,37,405,441,2e-10,63.9
SONDA_P_oxyspora,SRR9590832.133322,100.00,37,0,0,1,37,121,85,4e-12,69.4
SONDA_P_oxyspora,SRR9590832.132522,100.00,37,0,0,1,37,121,85,4e-12,69.4
SONDA_P_oxyspora,SRR9590832.132512,100.00,37,0,0,1,37,121,85,4e-12,69.4
SONDA_P_oxyspora,SRR9590832.132512,100.00,37,0,0,1,37,405,441,4e-12,69.4
SONDA_P_oxyspora,SRR9590832.132354,100.00,37,0,0,1,37,121,85,4e-12,69.4
SONDA_P_oxyspora,SRR9590832.132354,100.00,37,0,0,1,37,405,441,4e-12,69.4
SONDA_P_oxyspora,SRR9590832.130095,100.00,37,0,0,1,37,121,85,4e-12,69.4
SONDA_P_oxyspora,SRR9590832.130095,100.00,37,0,0,1,37,405,441,4e-12,69.4
SONDA_P_oxyspora,SRR9590832.129158,100.00,37,0,0,1,37,121,85,4e-12,69.4
SONDA_P_oxyspora,SRR9590832.128351,100.00,37,0,0,1,37,121,85,4e-12,69.4
SONDA_P_oxyspora,SRR9590832.128351,100.00,37,0,0,1,37,405,441,4e-12,69.4
SONDA_P_oxyspora,SRR9590832.128338,100.00,37,0,0,1,37,121,85,4e-12,69.4
SONDA_P_oxyspora,SRR9590832.127900,100.00,37,0,0,1,37,121,85,4e-12,69.4
SONDA_P_oxyspora,SRR9590832.127900,100.00,37,0,0,1,37,405,441,4e-12,69.4
SONDA_P_oxyspora,SRR9590832.127768,100.00,37,0,0,1,37,121,85,4e-12,69.4
SONDA_P_oxyspora,SRR9590832.125302,100.00,37,0,0,1,37,121,85,4e-12,69.4
SONDA_P_oxyspora,SRR9590832.125247,100.00,37,0,0,1,37,121,85,4e-12,69.4
SONDA_P_oxyspora,SRR9590832.125247,100.00,37,0,0,1,37,405,441,4e-12,69.4
SONDA_P_oxyspora,SRR9590832.123758,100.00,37,0,0,1,37,121,85,4e-12,69.4
SONDA_P_oxyspora,SRR9590832.123195,100.00,37,0,0,1,37,121,85,4e-12,69.4
SONDA_P_oxyspora,SRR9590832.120491,100.00,37,0,0,1,37,121,85,4e-12,69.4
SONDA_P_oxyspora,SRR9590832.120491,100.00,37,0,0,1,37,405,441,4e-12,69.4
SONDA_P_oxyspora,SRR9590832.120468,100.00,37,0,0,1,37,121,85,4e-12,69.4
SONDA_P_oxyspora,SRR9590832.116419,100.00,37,0,0,1,37,121,85,4e-12,69.4
SONDA_P_oxyspora,SRR9590832.114808,100.00,37,0,0,1,37,120,84,4e-12,69.4
SONDA_P_oxyspora,SRR9590832.114805,100.00,37,0,0,1,37,120,84,4e-12,69.4
SONDA_P_oxyspora,SRR9590832.112894,100.00,37,0,0,1,37,121,85,4e-12,69.4
SONDA_P_oxyspora,SRR9590832.112894,100.00,37,0,0,1,37,405,441,4e-12,69.4
SONDA_P_oxyspora,SRR9590832.111477,100.00,37,0,0,1,37,121,85,4e-12,69.4
SONDA_P_oxyspora,SRR9590832.111477,100.00,37,0,0,1,37,405,441,4e-12,69.4
SONDA_P_oxyspora,SRR9590832.110493,100.00,37,0,0,1,37,121,85,4e-12,69.4
SONDA_P_oxyspora,SRR9590832.108000,100.00,37,0,0,1,37,121,85,4e-12,69.4
SONDA_P_oxyspora,SRR9590832.108000,100.00,37,0,0,1,37,405,441,4e-12,69.4
SONDA_P_oxyspora,SRR9590832.107323,100.00,37,0,0,1,37,121,85,4e-12,69.4
SONDA_P_oxyspora,SRR9590832.104898,100.00,37,0,0,1,37,121,85,4e-12,69.4
SONDA_P_oxyspora,SRR9590832.103231,100.00,37,0,0,1,37,121,85,4e-12,69.4
SONDA_P_oxyspora,SRR9590832.103231,100.00,37,0,0,1,37,405,441,4e-12,69.4
SONDA_P_oxyspora,SRR9590832.100594,100.00,37,0,0,1,37,121,85,4e-12,69.4
SONDA_P_oxyspora,SRR9590832.100594,100.00,37,0,0,1,37,405,441,4e-12,69.4
SONDA_P_oxyspora,SRR9590832.99995,100.00,37,0,0,1,37,121,85,4e-12,69.4
SONDA_P_oxyspora,SRR9590832.99321,100.00,37,0,0,1,37,121,85,4e-12,69.4
SONDA_P_oxyspora,SRR9590832.99274,100.00,37,0,0,1,37,121,85,4e-12,69.4
SONDA_P_oxyspora,SRR9590832.97912,100.00,37,0,0,1,37,121,85,4e-12,69.4
SONDA_P_oxyspora,SRR9590832.97904,100.00,37,0,0,1,37,121,85,4e-12,69.4
SONDA_P_oxyspora,SRR9590832.97904,100.00,37,0,0,1,37,405,441,4e-12,69.4
SONDA_P_oxyspora,SRR9590832.97328,100.00,37,0,0,1,37,121,85,4e-12,69.4
SONDA_P_oxyspora,SRR9590832.97328,100.00,37,0,0,1,37,405,441,4e-12,69.4
SONDA_P_oxyspora,SRR9590832.93390,100.00,37,0,0,1,37,121,85,4e-12,69.4
SONDA_P_oxyspora,SRR9590832.93390,97.30,37,1,0,1,37,405,441,2e-10,63.9
SONDA_P_oxyspora,SRR9590832.91330,100.00,37,0,0,1,37,121,85,4e-12,69.4
SONDA_P_oxyspora,SRR9590832.91330,100.00,37,0,0,1,37,405,441,4e-12,69.4
SONDA_P_oxyspora,SRR9590832.89964,100.00,37,0,0,1,37,405,441,4e-12,69.4
SONDA_P_oxyspora,SRR9590832.89964,97.30,37,1,0,1,37,121,85,2e-10,63.9
SONDA_P_oxyspora,SRR9590832.79855,100.00,37,0,0,1,37,121,85,4e-12,69.4
SONDA_P_oxyspora,SRR9590832.79855,100.00,34,0,0,1,34,405,438,2e-10,63.9
SONDA_P_oxyspora,SRR9590832.79798,100.00,37,0,0,1,37,121,85,4e-12,69.4
SONDA_P_oxyspora,SRR9590832.78158,100.00,37,0,0,1,37,121,85,4e-12,69.4
SONDA_P_oxyspora,SRR9590832.78158,100.00,37,0,0,1,37,405,441,4e-12,69.4
SONDA_P_oxyspora,SRR9590832.77935,100.00,37,0,0,1,37,121,85,4e-12,69.4
SONDA_P_oxyspora,SRR9590832.75517,100.00,37,0,0,1,37,121,85,4e-12,69.4
SONDA_P_oxyspora,SRR9590832.75273,100.00,37,0,0,1,37,121,85,4e-12,69.4
SONDA_P_oxyspora,SRR9590832.75268,100.00,37,0,0,1,37,121,85,4e-12,69.4
SONDA_P_oxyspora,SRR9590832.74782,100.00,37,0,0,1,37,121,85,4e-12,69.4
SONDA_P_oxyspora,SRR9590832.73196,100.00,37,0,0,1,37,121,85,4e-12,69.4
SONDA_P_oxyspora,SRR9590832.73191,100.00,37,0,0,1,37,121,85,4e-12,69.4
SONDA_P_oxyspora,SRR9590832.73110,100.00,37,0,0,1,37,121,85,4e-12,69.4
SONDA_P_oxyspora,SRR9590832.73110,100.00,37,0,0,1,37,405,441,4e-12,69.4
SONDA_P_oxyspora,SRR9590832.72084,100.00,37,0,0,1,37,121,85,4e-12,69.4
SONDA_P_oxyspora,SRR9590832.72084,97.30,37,1,0,1,37,405,441,2e-10,63.9
SONDA_P_oxyspora,SRR9590832.65883,100.00,37,0,0,1,37,121,85,4e-12,69.4
SONDA_P_oxyspora,SRR9590832.65880,100.00,37,0,0,1,37,121,85,4e-12,69.4
SONDA_P_oxyspora,SRR9590832.64621,100.00,37,0,0,1,37,121,85,4e-12,69.4
SONDA_P_oxyspora,SRR9590832.62534,100.00,37,0,0,1,37,121,85,4e-12,69.4
SONDA_P_oxyspora,SRR9590832.62534,100.00,37,0,0,1,37,405,441,4e-12,69.4
SONDA_P_oxyspora,SRR9590832.61768,100.00,37,0,0,1,37,121,85,4e-12,69.4
SONDA_P_oxyspora,SRR9590832.61768,100.00,37,0,0,1,37,405,441,4e-12,69.4
SONDA_P_oxyspora,SRR9590832.60802,100.00,37,0,0,1,37,121,85,4e-12,69.4
SONDA_P_oxyspora,SRR9590832.60802,100.00,37,0,0,1,37,405,441,4e-12,69.4
SONDA_P_oxyspora,SRR9590832.57162,100.00,37,0,0,1,37,121,85,4e-12,69.4
SONDA_P_oxyspora,SRR9590832.56623,100.00,37,0,0,1,37,121,85,4e-12,69.4
SONDA_P_oxyspora,SRR9590832.56623,100.00,37,0,0,1,37,405,441,4e-12,69.4
SONDA_P_oxyspora,SRR9590832.56395,100.00,37,0,0,1,37,121,85,4e-12,69.4
SONDA_P_oxyspora,SRR9590832.56395,100.00,37,0,0,1,37,405,441,4e-12,69.4
SONDA_P_oxyspora,SRR9590832.55362,100.00,37,0,0,1,37,121,85,4e-12,69.4
SONDA_P_oxyspora,SRR9590832.55362,100.00,37,0,0,1,37,405,441,4e-12,69.4
SONDA_P_oxyspora,SRR9590832.50821,100.00,37,0,0,1,37,121,85,4e-12,69.4
SONDA_P_oxyspora,SRR9590832.48816,100.00,37,0,0,1,37,121,85,4e-12,69.4
SONDA_P_oxyspora,SRR9590832.46976,100.00,37,0,0,1,37,121,85,4e-12,69.4
SONDA_P_oxyspora,SRR9590832.46217,100.00,37,0,0,1,37,121,85,4e-12,69.4
SONDA_P_oxyspora,SRR9590832.46217,100.00,37,0,0,1,37,405,441,4e-12,69.4
SONDA_P_oxyspora,SRR9590832.43709,100.00,37,0,0,1,37,121,85,4e-12,69.4
SONDA_P_oxyspora,SRR9590832.43709,97.30,37,1,0,1,37,405,441,2e-10,63.9
SONDA_P_oxyspora,SRR9590832.42659,100.00,37,0,0,1,37,121,85,4e-12,69.4
SONDA_P_oxyspora,SRR9590832.41873,100.00,37,0,0,1,37,121,85,4e-12,69.4
SONDA_P_oxyspora,SRR9590832.41873,97.30,37,1,0,1,37,405,441,2e-10,63.9
SONDA_P_oxyspora,SRR9590832.41392,100.00,37,0,0,1,37,121,85,4e-12,69.4
SONDA_P_oxyspora,SRR9590832.41392,100.00,37,0,0,1,37,405,441,4e-12,69.4
SONDA_P_oxyspora,SRR9590832.33917,100.00,37,0,0,1,37,121,85,4e-12,69.4
SONDA_P_oxyspora,SRR9590832.30813,100.00,37,0,0,1,37,121,85,4e-12,69.4
SONDA_P_oxyspora,SRR9590832.30813,100.00,37,0,0,1,37,405,441,4e-12,69.4
SONDA_P_oxyspora,SRR9590832.30332,100.00,37,0,0,1,37,120,84,4e-12,69.4
SONDA_P_oxyspora,SRR9590832.30332,100.00,37,0,0,1,37,404,440,4e-12,69.4
SONDA_P_oxyspora,SRR9590832.28471,100.00,37,0,0,1,37,121,85,4e-12,69.4
SONDA_P_oxyspora,SRR9590832.27982,100.00,37,0,0,1,37,121,85,4e-12,69.4
SONDA_P_oxyspora,SRR9590832.27982,100.00,37,0,0,1,37,405,441,4e-12,69.4
SONDA_P_oxyspora,SRR9590832.22993,100.00,37,0,0,1,37,121,85,4e-12,69.4
SONDA_P_oxyspora,SRR9590832.22993,100.00,37,0,0,1,37,405,441,4e-12,69.4
SONDA_P_oxyspora,SRR9590832.21448,100.00,37,0,0,1,37,121,85,4e-12,69.4
SONDA_P_oxyspora,SRR9590832.21448,100.00,37,0,0,1,37,405,441,4e-12,69.4
SONDA_P_oxyspora,SRR9590832.13121,100.00,37,0,0,1,37,121,85,4e-12,69.4
SONDA_P_oxyspora,SRR9590832.12587,100.00,37,0,0,1,37,121,85,4e-12,69.4
SONDA_P_oxyspora,SRR9590832.12587,100.00,37,0,0,1,37,405,441,4e-12,69.4
SONDA_P_oxyspora,SRR9590832.8496,100.00,37,0,0,1,37,121,85,4e-12,69.4
SONDA_P_oxyspora,SRR9590832.4886,100.00,37,0,0,1,37,121,85,4e-12,69.4
SONDA_P_oxyspora,SRR9590832.4886,100.00,37,0,0,1,37,405,441,4e-12,69.4
SONDA_P_oxyspora,SRR9590832.2654,100.00,37,0,0,1,37,121,85,4e-12,69.4
SONDA_P_oxyspora,SRR9590832.521,100.00,37,0,0,1,37,121,85,4e-12,69.4
SONDA_P_oxyspora,SRR9590832.279101,100.00,36,0,0,2,37,120,85,1e-11,67.6
SONDA_P_oxyspora,SRR9590832.429465,100.00,35,0,0,1,35,121,87,5e-11,65.8
SONDA_P_oxyspora,SRR9590832.278552,97.30,37,1,0,1,37,121,85,2e-10,63.9
SONDA_P_oxyspora,SRR9590832.275117,97.30,37,1,0,1,37,121,85,2e-10,63.9
SONDA_P_oxyspora,SRR9590832.262271,97.30,37,1,0,1,37,121,85,2e-10,63.9
SONDA_P_oxyspora,SRR9590832.206260,100.00,34,0,0,1,34,121,88,2e-10,63.9
SONDA_P_oxyspora,SRR9590832.169789,97.30,37,1,0,1,37,121,85,2e-10,63.9
SONDA_P_oxyspora,SRR9590832.153816,97.30,37,1,0,1,37,121,85,2e-10,63.9
SONDA_P_oxyspora,SRR9590832.95932,97.30,37,1,0,1,37,121,85,2e-10,63.9
SONDA_P_oxyspora,SRR9590832.63165,97.30,37,1,0,1,37,121,85,2e-10,63.9
SONDA_P_oxyspora,SRR9590832.61053,97.30,37,1,0,1,37,121,85,2e-10,63.9
SONDA_P_oxyspora,SRR9590832.332087,97.14,35,1,0,3,37,119,85,2e-09,60.2
SONDA_P_oxyspora,SRR9590832.95943,94.59,37,2,0,1,37,405,441,9e-09,58.4
SONDA_P_oxyspora,SRR9590832.59478,100.00,29,0,0,9,37,113,85,1e-07,54.7
