SONDA_C_chaetospira,SRR9590829.141275,100.00,32,0,0,8,39,392,423,2e-09,60.2
SONDA_C_laciniata,SRR9590829.200723,100.00,33,0,0,1,33,396,428,4e-10,62.1
SONDA_P_oxyspora,SRR9590829.325431,100.00,37,0,0,1,37,121,85,3e-12,69.4
SONDA_P_oxyspora,SRR9590829.325345,100.00,37,0,0,1,37,121,85,3e-12,69.4
SONDA_P_oxyspora,SRR9590829.325345,100.00,37,0,0,1,37,405,441,3e-12,69.4
SONDA_P_oxyspora,SRR9590829.325016,100.00,37,0,0,1,37,121,85,3e-12,69.4
SONDA_P_oxyspora,SRR9590829.324672,100.00,37,0,0,1,37,121,85,3e-12,69.4
SONDA_P_oxyspora,SRR9590829.324349,100.00,37,0,0,1,37,121,85,3e-12,69.4
SONDA_P_oxyspora,SRR9590829.324349,100.00,37,0,0,1,37,405,441,3e-12,69.4
SONDA_P_oxyspora,SRR9590829.323839,100.00,37,0,0,1,37,121,85,3e-12,69.4
SONDA_P_oxyspora,SRR9590829.323839,100.00,35,0,0,1,35,405,439,3e-11,65.8
SONDA_P_oxyspora,SRR9590829.323073,100.00,37,0,0,1,37,121,85,3e-12,69.4
SONDA_P_oxyspora,SRR9590829.322827,100.00,37,0,0,1,37,121,85,3e-12,69.4
SONDA_P_oxyspora,SRR9590829.322827,100.00,37,0,0,1,37,405,441,3e-12,69.4
SONDA_P_oxyspora,SRR9590829.322498,100.00,37,0,0,1,37,121,85,3e-12,69.4
SONDA_P_oxyspora,SRR9590829.322498,100.00,37,0,0,1,37,405,441,3e-12,69.4
SONDA_P_oxyspora,SRR9590829.322423,100.00,37,0,0,1,37,121,85,3e-12,69.4
SONDA_P_oxyspora,SRR9590829.322423,100.00,37,0,0,1,37,405,441,3e-12,69.4
SONDA_P_oxyspora,SRR9590829.322068,100.00,37,0,0,1,37,121,85,3e-12,69.4
SONDA_P_oxyspora,SRR9590829.322068,100.00,37,0,0,1,37,405,441,3e-12,69.4
SONDA_P_oxyspora,SRR9590829.321994,100.00,37,0,0,1,37,121,85,3e-12,69.4
SONDA_P_oxyspora,SRR9590829.321994,100.00,37,0,0,1,37,405,441,3e-12,69.4
SONDA_P_oxyspora,SRR9590829.321711,100.00,37,0,0,1,37,121,85,3e-12,69.4
SONDA_P_oxyspora,SRR9590829.320244,100.00,37,0,0,1,37,121,85,3e-12,69.4
SONDA_P_oxyspora,SRR9590829.320244,100.00,37,0,0,1,37,405,441,3e-12,69.4
SONDA_P_oxyspora,SRR9590829.320120,100.00,37,0,0,1,37,121,85,3e-12,69.4
SONDA_P_oxyspora,SRR9590829.320120,100.00,37,0,0,1,37,405,441,3e-12,69.4
SONDA_P_oxyspora,SRR9590829.319677,100.00,37,0,0,1,37,121,85,3e-12,69.4
SONDA_P_oxyspora,SRR9590829.319677,100.00,37,0,0,1,37,405,441,3e-12,69.4
SONDA_P_oxyspora,SRR9590829.319130,100.00,37,0,0,1,37,121,85,3e-12,69.4
SONDA_P_oxyspora,SRR9590829.319130,100.00,37,0,0,1,37,405,441,3e-12,69.4
SONDA_P_oxyspora,SRR9590829.318422,100.00,37,0,0,1,37,121,85,3e-12,69.4
SONDA_P_oxyspora,SRR9590829.318110,100.00,37,0,0,1,37,121,85,3e-12,69.4
SONDA_P_oxyspora,SRR9590829.318110,100.00,37,0,0,1,37,405,441,3e-12,69.4
SONDA_P_oxyspora,SRR9590829.317980,100.00,37,0,0,1,37,120,84,3e-12,69.4
SONDA_P_oxyspora,SRR9590829.317980,97.30,37,1,0,1,37,405,441,1e-10,63.9
SONDA_P_oxyspora,SRR9590829.317488,100.00,37,0,0,1,37,120,84,3e-12,69.4
SONDA_P_oxyspora,SRR9590829.317488,97.30,37,1,0,1,37,404,440,1e-10,63.9
SONDA_P_oxyspora,SRR9590829.317347,100.00,37,0,0,1,37,121,85,3e-12,69.4
SONDA_P_oxyspora,SRR9590829.317347,97.30,37,1,0,1,37,405,441,1e-10,63.9
SONDA_P_oxyspora,SRR9590829.317159,100.00,37,0,0,1,37,121,85,3e-12,69.4
SONDA_P_oxyspora,SRR9590829.317159,94.59,37,2,0,1,37,405,441,6e-09,58.4
SONDA_P_oxyspora,SRR9590829.316932,100.00,37,0,0,1,37,121,85,3e-12,69.4
SONDA_P_oxyspora,SRR9590829.316628,100.00,37,0,0,1,37,121,85,3e-12,69.4
SONDA_P_oxyspora,SRR9590829.315417,100.00,37,0,0,1,37,121,85,3e-12,69.4
SONDA_P_oxyspora,SRR9590829.314676,100.00,37,0,0,1,37,121,85,3e-12,69.4
SONDA_P_oxyspora,SRR9590829.314338,100.00,37,0,0,1,37,121,85,3e-12,69.4
SONDA_P_oxyspora,SRR9590829.314338,100.00,37,0,0,1,37,405,441,3e-12,69.4
SONDA_P_oxyspora,SRR9590829.314209,100.00,37,0,0,1,37,121,85,3e-12,69.4
SONDA_P_oxyspora,SRR9590829.314209,100.00,36,0,0,1,36,405,440,1e-11,67.6
SONDA_P_oxyspora,SRR9590829.314206,100.00,37,0,0,1,37,121,85,3e-12,69.4
SONDA_P_oxyspora,SRR9590829.313550,100.00,37,0,0,1,37,121,85,3e-12,69.4
SONDA_P_oxyspora,SRR9590829.313550,100.00,34,0,0,1,34,405,438,1e-10,63.9
SONDA_P_oxyspora,SRR9590829.313547,100.00,37,0,0,1,37,121,85,3e-12,69.4
SONDA_P_oxyspora,SRR9590829.313411,100.00,37,0,0,1,37,121,85,3e-12,69.4
SONDA_P_oxyspora,SRR9590829.313411,100.00,33,0,0,1,33,405,437,4e-10,62.1
SONDA_P_oxyspora,SRR9590829.313361,100.00,37,0,0,1,37,121,85,3e-12,69.4
SONDA_P_oxyspora,SRR9590829.313361,100.00,37,0,0,1,37,405,441,3e-12,69.4
SONDA_P_oxyspora,SRR9590829.313320,100.00,37,0,0,1,37,121,85,3e-12,69.4
SONDA_P_oxyspora,SRR9590829.313059,100.00,37,0,0,1,37,121,85,3e-12,69.4
SONDA_P_oxyspora,SRR9590829.312474,100.00,37,0,0,1,37,121,85,3e-12,69.4
SONDA_P_oxyspora,SRR9590829.311971,100.00,37,0,0,1,37,120,84,3e-12,69.4
SONDA_P_oxyspora,SRR9590829.311971,100.00,37,0,0,1,37,404,440,3e-12,69.4
SONDA_P_oxyspora,SRR9590829.311897,100.00,37,0,0,1,37,121,85,3e-12,69.4
SONDA_P_oxyspora,SRR9590829.311897,100.00,37,0,0,1,37,405,441,3e-12,69.4
SONDA_P_oxyspora,SRR9590829.311171,100.00,37,0,0,1,37,121,85,3e-12,69.4
SONDA_P_oxyspora,SRR9590829.311171,100.00,37,0,0,1,37,405,441,3e-12,69.4
SONDA_P_oxyspora,SRR9590829.310893,100.00,37,0,0,1,37,121,85,3e-12,69.4
SONDA_P_oxyspora,SRR9590829.310893,100.00,37,0,0,1,37,405,441,3e-12,69.4
SONDA_P_oxyspora,SRR9590829.310598,100.00,37,0,0,1,37,121,85,3e-12,69.4
SONDA_P_oxyspora,SRR9590829.310598,100.00,37,0,0,1,37,405,441,3e-12,69.4
SONDA_P_oxyspora,SRR9590829.310307,100.00,37,0,0,1,37,121,85,3e-12,69.4
SONDA_P_oxyspora,SRR9590829.310307,97.30,37,1,0,1,37,405,441,1e-10,63.9
SONDA_P_oxyspora,SRR9590829.310306,100.00,37,0,0,1,37,121,85,3e-12,69.4
SONDA_P_oxyspora,SRR9590829.309731,100.00,37,0,0,1,37,121,85,3e-12,69.4
SONDA_P_oxyspora,SRR9590829.309731,100.00,37,0,0,1,37,405,441,3e-12,69.4
SONDA_P_oxyspora,SRR9590829.309454,100.00,37,0,0,1,37,121,85,3e-12,69.4
SONDA_P_oxyspora,SRR9590829.309454,100.00,37,0,0,1,37,405,441,3e-12,69.4
SONDA_P_oxyspora,SRR9590829.309379,100.00,37,0,0,1,37,121,85,3e-12,69.4
SONDA_P_oxyspora,SRR9590829.309260,100.00,37,0,0,1,37,121,85,3e-12,69.4
SONDA_P_oxyspora,SRR9590829.309260,100.00,37,0,0,1,37,405,441,3e-12,69.4
SONDA_P_oxyspora,SRR9590829.309126,100.00,37,0,0,1,37,121,85,3e-12,69.4
SONDA_P_oxyspora,SRR9590829.309126,100.00,37,0,0,1,37,405,441,3e-12,69.4
SONDA_P_oxyspora,SRR9590829.308950,100.00,37,0,0,1,37,121,85,3e-12,69.4
SONDA_P_oxyspora,SRR9590829.308950,100.00,36,0,0,1,36,405,440,1e-11,67.6
SONDA_P_oxyspora,SRR9590829.308745,100.00,37,0,0,1,37,121,85,3e-12,69.4
SONDA_P_oxyspora,SRR9590829.308225,100.00,37,0,0,1,37,121,85,3e-12,69.4
SONDA_P_oxyspora,SRR9590829.307857,100.00,37,0,0,1,37,121,85,3e-12,69.4
SONDA_P_oxyspora,SRR9590829.307857,100.00,37,0,0,1,37,405,441,3e-12,69.4
SONDA_P_oxyspora,SRR9590829.307599,100.00,37,0,0,1,37,121,85,3e-12,69.4
SONDA_P_oxyspora,SRR9590829.307599,97.30,37,1,0,1,37,405,441,1e-10,63.9
SONDA_P_oxyspora,SRR9590829.307350,100.00,37,0,0,1,37,121,85,3e-12,69.4
SONDA_P_oxyspora,SRR9590829.306491,100.00,37,0,0,1,37,121,85,3e-12,69.4
SONDA_P_oxyspora,SRR9590829.305635,100.00,37,0,0,1,37,121,85,3e-12,69.4
SONDA_P_oxyspora,SRR9590829.305474,100.00,37,0,0,1,37,121,85,3e-12,69.4
SONDA_P_oxyspora,SRR9590829.305474,100.00,37,0,0,1,37,405,441,3e-12,69.4
SONDA_P_oxyspora,SRR9590829.305382,100.00,37,0,0,1,37,121,85,3e-12,69.4
SONDA_P_oxyspora,SRR9590829.305016,100.00,37,0,0,1,37,121,85,3e-12,69.4
SONDA_P_oxyspora,SRR9590829.305016,100.00,37,0,0,1,37,405,441,3e-12,69.4
SONDA_P_oxyspora,SRR9590829.304841,100.00,37,0,0,1,37,121,85,3e-12,69.4
SONDA_P_oxyspora,SRR9590829.304604,100.00,37,0,0,1,37,121,85,3e-12,69.4
SONDA_P_oxyspora,SRR9590829.304604,100.00,37,0,0,1,37,406,442,3e-12,69.4
SONDA_P_oxyspora,SRR9590829.304237,100.00,37,0,0,1,37,121,85,3e-12,69.4
SONDA_P_oxyspora,SRR9590829.304170,100.00,37,0,0,1,37,121,85,3e-12,69.4
SONDA_P_oxyspora,SRR9590829.304170,100.00,37,0,0,1,37,405,441,3e-12,69.4
SONDA_P_oxyspora,SRR9590829.304163,100.00,37,0,0,1,37,121,85,3e-12,69.4
SONDA_P_oxyspora,SRR9590829.303918,100.00,37,0,0,1,37,121,85,3e-12,69.4
SONDA_P_oxyspora,SRR9590829.303861,100.00,37,0,0,1,37,121,85,3e-12,69.4
SONDA_P_oxyspora,SRR9590829.303819,100.00,37,0,0,1,37,121,85,3e-12,69.4
SONDA_P_oxyspora,SRR9590829.303788,100.00,37,0,0,1,37,121,85,3e-12,69.4
SONDA_P_oxyspora,SRR9590829.303742,100.00,37,0,0,1,37,121,85,3e-12,69.4
SONDA_P_oxyspora,SRR9590829.303742,97.30,37,1,0,1,37,405,441,1e-10,63.9
SONDA_P_oxyspora,SRR9590829.303680,100.00,37,0,0,1,37,121,85,3e-12,69.4
SONDA_P_oxyspora,SRR9590829.303669,100.00,37,0,0,1,37,121,85,3e-12,69.4
SONDA_P_oxyspora,SRR9590829.303453,100.00,37,0,0,1,37,121,85,3e-12,69.4
SONDA_P_oxyspora,SRR9590829.303018,100.00,37,0,0,1,37,121,85,3e-12,69.4
SONDA_P_oxyspora,SRR9590829.303018,100.00,37,0,0,1,37,405,441,3e-12,69.4
SONDA_P_oxyspora,SRR9590829.303017,100.00,37,0,0,1,37,121,85,3e-12,69.4
SONDA_P_oxyspora,SRR9590829.303017,100.00,36,0,0,2,37,406,441,1e-11,67.6
SONDA_P_oxyspora,SRR9590829.302392,100.00,37,0,0,1,37,121,85,3e-12,69.4
SONDA_P_oxyspora,SRR9590829.302392,100.00,37,0,0,1,37,405,441,3e-12,69.4
SONDA_P_oxyspora,SRR9590829.302280,100.00,37,0,0,1,37,121,85,3e-12,69.4
SONDA_P_oxyspora,SRR9590829.302280,97.30,37,1,0,1,37,405,441,1e-10,63.9
SONDA_P_oxyspora,SRR9590829.302238,100.00,37,0,0,1,37,121,85,3e-12,69.4
SONDA_P_oxyspora,SRR9590829.302238,100.00,37,0,0,1,37,405,441,3e-12,69.4
SONDA_P_oxyspora,SRR9590829.302141,100.00,37,0,0,1,37,121,85,3e-12,69.4
SONDA_P_oxyspora,SRR9590829.301375,100.00,37,0,0,1,37,121,85,3e-12,69.4
SONDA_P_oxyspora,SRR9590829.301375,100.00,32,0,0,4,35,408,439,2e-09,60.2
SONDA_P_oxyspora,SRR9590829.301278,100.00,37,0,0,1,37,121,85,3e-12,69.4
SONDA_P_oxyspora,SRR9590829.301278,100.00,37,0,0,1,37,405,441,3e-12,69.4
SONDA_P_oxyspora,SRR9590829.301218,100.00,37,0,0,1,37,121,85,3e-12,69.4
SONDA_P_oxyspora,SRR9590829.301218,100.00,37,0,0,1,37,405,441,3e-12,69.4
SONDA_P_oxyspora,SRR9590829.301200,100.00,37,0,0,1,37,122,86,3e-12,69.4
SONDA_P_oxyspora,SRR9590829.300134,100.00,37,0,0,1,37,121,85,3e-12,69.4
SONDA_P_oxyspora,SRR9590829.300133,100.00,37,0,0,1,37,121,85,3e-12,69.4
SONDA_P_oxyspora,SRR9590829.300100,100.00,37,0,0,1,37,121,85,3e-12,69.4
SONDA_P_oxyspora,SRR9590829.300100,100.00,37,0,0,1,37,405,441,3e-12,69.4
SONDA_P_oxyspora,SRR9590829.300050,100.00,37,0,0,1,37,121,85,3e-12,69.4
SONDA_P_oxyspora,SRR9590829.300050,97.30,37,1,0,1,37,405,441,1e-10,63.9
SONDA_P_oxyspora,SRR9590829.299954,100.00,37,0,0,1,37,121,85,3e-12,69.4
SONDA_P_oxyspora,SRR9590829.298664,100.00,37,0,0,1,37,121,85,3e-12,69.4
SONDA_P_oxyspora,SRR9590829.298664,100.00,37,0,0,1,37,405,441,3e-12,69.4
SONDA_P_oxyspora,SRR9590829.298518,100.00,37,0,0,1,37,121,85,3e-12,69.4
SONDA_P_oxyspora,SRR9590829.298518,100.00,37,0,0,1,37,405,441,3e-12,69.4
SONDA_P_oxyspora,SRR9590829.297754,100.00,37,0,0,1,37,121,85,3e-12,69.4
SONDA_P_oxyspora,SRR9590829.297754,100.00,37,0,0,1,37,405,441,3e-12,69.4
SONDA_P_oxyspora,SRR9590829.297460,100.00,37,0,0,1,37,121,85,3e-12,69.4
SONDA_P_oxyspora,SRR9590829.297460,100.00,37,0,0,1,37,405,441,3e-12,69.4
SONDA_P_oxyspora,SRR9590829.297351,100.00,37,0,0,1,37,121,85,3e-12,69.4
SONDA_P_oxyspora,SRR9590829.297351,100.00,37,0,0,1,37,405,441,3e-12,69.4
SONDA_P_oxyspora,SRR9590829.296717,100.00,37,0,0,1,37,121,85,3e-12,69.4
SONDA_P_oxyspora,SRR9590829.296717,100.00,37,0,0,1,37,405,441,3e-12,69.4
SONDA_P_oxyspora,SRR9590829.296451,100.00,37,0,0,1,37,121,85,3e-12,69.4
SONDA_P_oxyspora,SRR9590829.296451,100.00,37,0,0,1,37,405,441,3e-12,69.4
SONDA_P_oxyspora,SRR9590829.296416,100.00,37,0,0,1,37,121,85,3e-12,69.4
SONDA_P_oxyspora,SRR9590829.296416,100.00,37,0,0,1,37,405,441,3e-12,69.4
SONDA_P_oxyspora,SRR9590829.295137,100.00,37,0,0,1,37,121,85,3e-12,69.4
SONDA_P_oxyspora,SRR9590829.294733,100.00,37,0,0,1,37,121,85,3e-12,69.4
SONDA_P_oxyspora,SRR9590829.294527,100.00,37,0,0,1,37,120,84,3e-12,69.4
SONDA_P_oxyspora,SRR9590829.294527,100.00,37,0,0,1,37,404,440,3e-12,69.4
SONDA_P_oxyspora,SRR9590829.294508,100.00,37,0,0,1,37,121,85,3e-12,69.4
SONDA_P_oxyspora,SRR9590829.294508,100.00,37,0,0,1,37,405,441,3e-12,69.4
SONDA_P_oxyspora,SRR9590829.294447,100.00,37,0,0,1,37,121,85,3e-12,69.4
SONDA_P_oxyspora,SRR9590829.294447,97.14,35,1,0,1,35,405,439,2e-09,60.2
SONDA_P_oxyspora,SRR9590829.294270,100.00,37,0,0,1,37,121,85,3e-12,69.4
SONDA_P_oxyspora,SRR9590829.294270,97.30,37,1,0,1,37,405,441,1e-10,63.9
SONDA_P_oxyspora,SRR9590829.294226,100.00,37,0,0,1,37,121,85,3e-12,69.4
SONDA_P_oxyspora,SRR9590829.294226,100.00,37,0,0,1,37,405,441,3e-12,69.4
SONDA_P_oxyspora,SRR9590829.294101,100.00,37,0,0,1,37,121,85,3e-12,69.4
SONDA_P_oxyspora,SRR9590829.294101,100.00,37,0,0,1,37,405,441,3e-12,69.4
SONDA_P_oxyspora,SRR9590829.294089,100.00,37,0,0,1,37,121,85,3e-12,69.4
SONDA_P_oxyspora,SRR9590829.292442,100.00,37,0,0,1,37,121,85,3e-12,69.4
SONDA_P_oxyspora,SRR9590829.292442,100.00,36,0,0,1,36,405,440,1e-11,67.6
SONDA_P_oxyspora,SRR9590829.292417,100.00,37,0,0,1,37,121,85,3e-12,69.4
SONDA_P_oxyspora,SRR9590829.292104,100.00,37,0,0,1,37,121,85,3e-12,69.4
SONDA_P_oxyspora,SRR9590829.291650,100.00,37,0,0,1,37,121,85,3e-12,69.4
SONDA_P_oxyspora,SRR9590829.291618,100.00,37,0,0,1,37,121,85,3e-12,69.4
SONDA_P_oxyspora,SRR9590829.291618,100.00,37,0,0,1,37,404,440,3e-12,69.4
SONDA_P_oxyspora,SRR9590829.291468,100.00,37,0,0,1,37,120,84,3e-12,69.4
SONDA_P_oxyspora,SRR9590829.291468,97.30,37,1,0,1,37,404,440,1e-10,63.9
SONDA_P_oxyspora,SRR9590829.290502,100.00,37,0,0,1,37,121,85,3e-12,69.4
SONDA_P_oxyspora,SRR9590829.290411,100.00,37,0,0,1,37,121,85,3e-12,69.4
SONDA_P_oxyspora,SRR9590829.290403,100.00,37,0,0,1,37,121,85,3e-12,69.4
SONDA_P_oxyspora,SRR9590829.290403,100.00,37,0,0,1,37,405,441,3e-12,69.4
SONDA_P_oxyspora,SRR9590829.290137,100.00,37,0,0,1,37,121,85,3e-12,69.4
SONDA_P_oxyspora,SRR9590829.289921,100.00,37,0,0,1,37,121,85,3e-12,69.4
SONDA_P_oxyspora,SRR9590829.289643,100.00,37,0,0,1,37,121,85,3e-12,69.4
SONDA_P_oxyspora,SRR9590829.289643,100.00,37,0,0,1,37,405,441,3e-12,69.4
SONDA_P_oxyspora,SRR9590829.289607,100.00,37,0,0,1,37,121,85,3e-12,69.4
SONDA_P_oxyspora,SRR9590829.289453,100.00,37,0,0,1,37,121,85,3e-12,69.4
SONDA_P_oxyspora,SRR9590829.289453,100.00,37,0,0,1,37,405,441,3e-12,69.4
SONDA_P_oxyspora,SRR9590829.289035,100.00,37,0,0,1,37,121,85,3e-12,69.4
SONDA_P_oxyspora,SRR9590829.289035,100.00,37,0,0,1,37,405,441,3e-12,69.4
SONDA_P_oxyspora,SRR9590829.289006,100.00,37,0,0,1,37,120,84,3e-12,69.4
SONDA_P_oxyspora,SRR9590829.288794,100.00,37,0,0,1,37,121,85,3e-12,69.4
SONDA_P_oxyspora,SRR9590829.288794,100.00,37,0,0,1,37,405,441,3e-12,69.4
SONDA_P_oxyspora,SRR9590829.288727,100.00,37,0,0,1,37,121,85,3e-12,69.4
SONDA_P_oxyspora,SRR9590829.288727,100.00,37,0,0,1,37,405,441,3e-12,69.4
SONDA_P_oxyspora,SRR9590829.287982,100.00,37,0,0,1,37,121,85,3e-12,69.4
SONDA_P_oxyspora,SRR9590829.287982,100.00,37,0,0,1,37,405,441,3e-12,69.4
SONDA_P_oxyspora,SRR9590829.287762,100.00,37,0,0,1,37,121,85,3e-12,69.4
SONDA_P_oxyspora,SRR9590829.287762,97.30,37,1,0,1,37,405,441,1e-10,63.9
SONDA_P_oxyspora,SRR9590829.287680,100.00,37,0,0,1,37,121,85,3e-12,69.4
SONDA_P_oxyspora,SRR9590829.287075,100.00,37,0,0,1,37,121,85,3e-12,69.4
SONDA_P_oxyspora,SRR9590829.287075,100.00,37,0,0,1,37,405,441,3e-12,69.4
SONDA_P_oxyspora,SRR9590829.286247,100.00,37,0,0,1,37,121,85,3e-12,69.4
SONDA_P_oxyspora,SRR9590829.286247,100.00,37,0,0,1,37,405,441,3e-12,69.4
SONDA_P_oxyspora,SRR9590829.286242,100.00,37,0,0,1,37,121,85,3e-12,69.4
SONDA_P_oxyspora,SRR9590829.286242,100.00,37,0,0,1,37,405,441,3e-12,69.4
SONDA_P_oxyspora,SRR9590829.286070,100.00,37,0,0,1,37,121,85,3e-12,69.4
SONDA_P_oxyspora,SRR9590829.286070,100.00,37,0,0,1,37,405,441,3e-12,69.4
SONDA_P_oxyspora,SRR9590829.285556,100.00,37,0,0,1,37,121,85,3e-12,69.4
SONDA_P_oxyspora,SRR9590829.285500,100.00,37,0,0,1,37,121,85,3e-12,69.4
SONDA_P_oxyspora,SRR9590829.285500,100.00,37,0,0,1,37,405,441,3e-12,69.4
SONDA_P_oxyspora,SRR9590829.285237,100.00,37,0,0,1,37,121,85,3e-12,69.4
SONDA_P_oxyspora,SRR9590829.285237,100.00,37,0,0,1,37,405,441,3e-12,69.4
SONDA_P_oxyspora,SRR9590829.285007,100.00,37,0,0,1,37,121,85,3e-12,69.4
SONDA_P_oxyspora,SRR9590829.285007,100.00,37,0,0,1,37,405,441,3e-12,69.4
SONDA_P_oxyspora,SRR9590829.284905,100.00,37,0,0,1,37,121,85,3e-12,69.4
SONDA_P_oxyspora,SRR9590829.284876,100.00,37,0,0,1,37,121,85,3e-12,69.4
SONDA_P_oxyspora,SRR9590829.284742,100.00,37,0,0,1,37,121,85,3e-12,69.4
SONDA_P_oxyspora,SRR9590829.284742,97.30,37,1,0,1,37,405,441,1e-10,63.9
SONDA_P_oxyspora,SRR9590829.284180,100.00,37,0,0,1,37,121,85,3e-12,69.4
SONDA_P_oxyspora,SRR9590829.284156,100.00,37,0,0,1,37,121,85,3e-12,69.4
SONDA_P_oxyspora,SRR9590829.284156,97.30,37,1,0,1,37,405,441,1e-10,63.9
SONDA_P_oxyspora,SRR9590829.284081,100.00,37,0,0,1,37,121,85,3e-12,69.4
SONDA_P_oxyspora,SRR9590829.284081,97.30,37,1,0,1,37,405,441,1e-10,63.9
SONDA_P_oxyspora,SRR9590829.283860,100.00,37,0,0,1,37,121,85,3e-12,69.4
SONDA_P_oxyspora,SRR9590829.283860,100.00,37,0,0,1,37,405,441,3e-12,69.4
SONDA_P_oxyspora,SRR9590829.283854,100.00,37,0,0,1,37,121,85,3e-12,69.4
SONDA_P_oxyspora,SRR9590829.283854,100.00,37,0,0,1,37,405,441,3e-12,69.4
SONDA_P_oxyspora,SRR9590829.283848,100.00,37,0,0,1,37,121,85,3e-12,69.4
SONDA_P_oxyspora,SRR9590829.283848,100.00,37,0,0,1,37,405,441,3e-12,69.4
SONDA_P_oxyspora,SRR9590829.283365,100.00,37,0,0,1,37,121,85,3e-12,69.4
SONDA_P_oxyspora,SRR9590829.282768,100.00,37,0,0,1,37,121,85,3e-12,69.4
SONDA_P_oxyspora,SRR9590829.282768,100.00,37,0,0,1,37,405,441,3e-12,69.4
SONDA_P_oxyspora,SRR9590829.282722,100.00,37,0,0,1,37,121,85,3e-12,69.4
SONDA_P_oxyspora,SRR9590829.282722,100.00,37,0,0,1,37,405,441,3e-12,69.4
SONDA_P_oxyspora,SRR9590829.282707,100.00,37,0,0,1,37,121,85,3e-12,69.4
SONDA_P_oxyspora,SRR9590829.282707,100.00,37,0,0,1,37,405,441,3e-12,69.4
SONDA_P_oxyspora,SRR9590829.282339,100.00,37,0,0,1,37,121,85,3e-12,69.4
SONDA_P_oxyspora,SRR9590829.282036,100.00,37,0,0,1,37,121,85,3e-12,69.4
SONDA_P_oxyspora,SRR9590829.282036,100.00,37,0,0,1,37,405,441,3e-12,69.4
SONDA_P_oxyspora,SRR9590829.281715,100.00,37,0,0,1,37,121,85,3e-12,69.4
SONDA_P_oxyspora,SRR9590829.281715,100.00,37,0,0,1,37,405,441,3e-12,69.4
SONDA_P_oxyspora,SRR9590829.281678,100.00,37,0,0,1,37,121,85,3e-12,69.4
SONDA_P_oxyspora,SRR9590829.281678,100.00,37,0,0,1,37,405,441,3e-12,69.4
SONDA_P_oxyspora,SRR9590829.281631,100.00,37,0,0,1,37,121,85,3e-12,69.4
SONDA_P_oxyspora,SRR9590829.281631,100.00,37,0,0,1,37,405,441,3e-12,69.4
SONDA_P_oxyspora,SRR9590829.281537,100.00,37,0,0,1,37,121,85,3e-12,69.4
SONDA_P_oxyspora,SRR9590829.281512,100.00,37,0,0,1,37,121,85,3e-12,69.4
SONDA_P_oxyspora,SRR9590829.281512,100.00,37,0,0,1,37,405,441,3e-12,69.4
SONDA_P_oxyspora,SRR9590829.281507,100.00,37,0,0,1,37,121,85,3e-12,69.4
SONDA_P_oxyspora,SRR9590829.281296,100.00,37,0,0,1,37,121,85,3e-12,69.4
SONDA_P_oxyspora,SRR9590829.280798,100.00,37,0,0,1,37,121,85,3e-12,69.4
SONDA_P_oxyspora,SRR9590829.280597,100.00,37,0,0,1,37,121,85,3e-12,69.4
SONDA_P_oxyspora,SRR9590829.280145,100.00,37,0,0,1,37,121,85,3e-12,69.4
SONDA_P_oxyspora,SRR9590829.280138,100.00,37,0,0,1,37,121,85,3e-12,69.4
SONDA_P_oxyspora,SRR9590829.279805,100.00,37,0,0,1,37,121,85,3e-12,69.4
SONDA_P_oxyspora,SRR9590829.279800,100.00,37,0,0,1,37,121,85,3e-12,69.4
SONDA_P_oxyspora,SRR9590829.279797,100.00,37,0,0,1,37,121,85,3e-12,69.4
SONDA_P_oxyspora,SRR9590829.279278,100.00,37,0,0,1,37,121,85,3e-12,69.4
SONDA_P_oxyspora,SRR9590829.279278,100.00,37,0,0,1,37,405,441,3e-12,69.4
SONDA_P_oxyspora,SRR9590829.279204,100.00,37,0,0,1,37,121,85,3e-12,69.4
SONDA_P_oxyspora,SRR9590829.279204,100.00,37,0,0,1,37,405,441,3e-12,69.4
SONDA_P_oxyspora,SRR9590829.278557,100.00,37,0,0,1,37,121,85,3e-12,69.4
SONDA_P_oxyspora,SRR9590829.278557,100.00,37,0,0,1,37,405,441,3e-12,69.4
SONDA_P_oxyspora,SRR9590829.278526,100.00,37,0,0,1,37,121,85,3e-12,69.4
SONDA_P_oxyspora,SRR9590829.278526,97.30,37,1,0,1,37,405,441,1e-10,63.9
SONDA_P_oxyspora,SRR9590829.278387,100.00,37,0,0,1,37,121,85,3e-12,69.4
SONDA_P_oxyspora,SRR9590829.278240,100.00,37,0,0,1,37,121,85,3e-12,69.4
SONDA_P_oxyspora,SRR9590829.278214,100.00,37,0,0,1,37,121,85,3e-12,69.4
SONDA_P_oxyspora,SRR9590829.278214,100.00,37,0,0,1,37,405,441,3e-12,69.4
SONDA_P_oxyspora,SRR9590829.277928,100.00,37,0,0,1,37,121,85,3e-12,69.4
SONDA_P_oxyspora,SRR9590829.277928,100.00,37,0,0,1,37,405,441,3e-12,69.4
SONDA_P_oxyspora,SRR9590829.277892,100.00,37,0,0,1,37,121,85,3e-12,69.4
SONDA_P_oxyspora,SRR9590829.277892,100.00,37,0,0,1,37,405,441,3e-12,69.4
SONDA_P_oxyspora,SRR9590829.277606,100.00,37,0,0,1,37,121,85,3e-12,69.4
SONDA_P_oxyspora,SRR9590829.277407,100.00,37,0,0,1,37,121,85,3e-12,69.4
SONDA_P_oxyspora,SRR9590829.277407,100.00,37,0,0,1,37,405,441,3e-12,69.4
SONDA_P_oxyspora,SRR9590829.277136,100.00,37,0,0,1,37,121,85,3e-12,69.4
SONDA_P_oxyspora,SRR9590829.277136,100.00,37,0,0,1,37,405,441,3e-12,69.4
SONDA_P_oxyspora,SRR9590829.276833,100.00,37,0,0,1,37,121,85,3e-12,69.4
SONDA_P_oxyspora,SRR9590829.276833,100.00,37,0,0,1,37,405,441,3e-12,69.4
SONDA_P_oxyspora,SRR9590829.276314,100.00,37,0,0,1,37,121,85,3e-12,69.4
SONDA_P_oxyspora,SRR9590829.276314,100.00,37,0,0,1,37,405,441,3e-12,69.4
SONDA_P_oxyspora,SRR9590829.276111,100.00,37,0,0,1,37,121,85,3e-12,69.4
SONDA_P_oxyspora,SRR9590829.276111,100.00,37,0,0,1,37,405,441,3e-12,69.4
SONDA_P_oxyspora,SRR9590829.275892,100.00,37,0,0,1,37,121,85,3e-12,69.4
SONDA_P_oxyspora,SRR9590829.275152,100.00,37,0,0,1,37,121,85,3e-12,69.4
SONDA_P_oxyspora,SRR9590829.275152,100.00,37,0,0,1,37,405,441,3e-12,69.4
SONDA_P_oxyspora,SRR9590829.274978,100.00,37,0,0,1,37,121,85,3e-12,69.4
SONDA_P_oxyspora,SRR9590829.274977,100.00,37,0,0,1,37,121,85,3e-12,69.4
SONDA_P_oxyspora,SRR9590829.274977,100.00,37,0,0,1,37,405,441,3e-12,69.4
SONDA_P_oxyspora,SRR9590829.274737,100.00,37,0,0,1,37,121,85,3e-12,69.4
SONDA_P_oxyspora,SRR9590829.274417,100.00,37,0,0,1,37,121,85,3e-12,69.4
SONDA_P_oxyspora,SRR9590829.274417,97.30,37,1,0,1,37,405,441,1e-10,63.9
SONDA_P_oxyspora,SRR9590829.274313,100.00,37,0,0,1,37,121,85,3e-12,69.4
SONDA_P_oxyspora,SRR9590829.274313,97.30,37,1,0,1,37,405,441,1e-10,63.9
SONDA_P_oxyspora,SRR9590829.273962,100.00,37,0,0,1,37,121,85,3e-12,69.4
SONDA_P_oxyspora,SRR9590829.273531,100.00,37,0,0,1,37,121,85,3e-12,69.4
SONDA_P_oxyspora,SRR9590829.273531,100.00,37,0,0,1,37,405,441,3e-12,69.4
SONDA_P_oxyspora,SRR9590829.272802,100.00,37,0,0,1,37,121,85,3e-12,69.4
SONDA_P_oxyspora,SRR9590829.272798,100.00,37,0,0,1,37,121,85,3e-12,69.4
SONDA_P_oxyspora,SRR9590829.272271,100.00,37,0,0,1,37,121,85,3e-12,69.4
SONDA_P_oxyspora,SRR9590829.272252,100.00,37,0,0,1,37,121,85,3e-12,69.4
SONDA_P_oxyspora,SRR9590829.272252,100.00,37,0,0,1,37,405,441,3e-12,69.4
SONDA_P_oxyspora,SRR9590829.271511,100.00,37,0,0,1,37,121,85,3e-12,69.4
SONDA_P_oxyspora,SRR9590829.271511,100.00,37,0,0,1,37,405,441,3e-12,69.4
SONDA_P_oxyspora,SRR9590829.271412,100.00,37,0,0,1,37,121,85,3e-12,69.4
SONDA_P_oxyspora,SRR9590829.271412,100.00,37,0,0,1,37,405,441,3e-12,69.4
SONDA_P_oxyspora,SRR9590829.271158,100.00,37,0,0,1,37,121,85,3e-12,69.4
SONDA_P_oxyspora,SRR9590829.271158,100.00,37,0,0,1,37,405,441,3e-12,69.4
SONDA_P_oxyspora,SRR9590829.271153,100.00,37,0,0,1,37,121,85,3e-12,69.4
SONDA_P_oxyspora,SRR9590829.271092,100.00,37,0,0,1,37,121,85,3e-12,69.4
SONDA_P_oxyspora,SRR9590829.271034,100.00,37,0,0,1,37,121,85,3e-12,69.4
SONDA_P_oxyspora,SRR9590829.270668,100.00,37,0,0,1,37,121,85,3e-12,69.4
SONDA_P_oxyspora,SRR9590829.270668,97.30,37,1,0,1,37,405,441,1e-10,63.9
SONDA_P_oxyspora,SRR9590829.270548,100.00,37,0,0,1,37,121,85,3e-12,69.4
SONDA_P_oxyspora,SRR9590829.270046,100.00,37,0,0,1,37,121,85,3e-12,69.4
SONDA_P_oxyspora,SRR9590829.269914,100.00,37,0,0,1,37,121,85,3e-12,69.4
SONDA_P_oxyspora,SRR9590829.269914,100.00,37,0,0,1,37,405,441,3e-12,69.4
SONDA_P_oxyspora,SRR9590829.269774,100.00,37,0,0,1,37,121,85,3e-12,69.4
SONDA_P_oxyspora,SRR9590829.269774,100.00,37,0,0,1,37,405,441,3e-12,69.4
SONDA_P_oxyspora,SRR9590829.269417,100.00,37,0,0,1,37,121,85,3e-12,69.4
SONDA_P_oxyspora,SRR9590829.268408,100.00,37,0,0,1,37,121,85,3e-12,69.4
SONDA_P_oxyspora,SRR9590829.268408,100.00,37,0,0,1,37,405,441,3e-12,69.4
SONDA_P_oxyspora,SRR9590829.268326,100.00,37,0,0,1,37,121,85,3e-12,69.4
SONDA_P_oxyspora,SRR9590829.268326,97.30,37,1,0,1,37,405,441,1e-10,63.9
SONDA_P_oxyspora,SRR9590829.267717,100.00,37,0,0,1,37,121,85,3e-12,69.4
SONDA_P_oxyspora,SRR9590829.267717,97.30,37,1,0,1,37,405,441,1e-10,63.9
SONDA_P_oxyspora,SRR9590829.267576,100.00,37,0,0,1,37,121,85,3e-12,69.4
SONDA_P_oxyspora,SRR9590829.267576,100.00,37,0,0,1,37,405,441,3e-12,69.4
SONDA_P_oxyspora,SRR9590829.267505,100.00,37,0,0,1,37,121,85,3e-12,69.4
SONDA_P_oxyspora,SRR9590829.267505,100.00,37,0,0,1,37,405,441,3e-12,69.4
SONDA_P_oxyspora,SRR9590829.267117,100.00,37,0,0,1,37,121,85,3e-12,69.4
SONDA_P_oxyspora,SRR9590829.266881,100.00,37,0,0,1,37,121,85,3e-12,69.4
SONDA_P_oxyspora,SRR9590829.266767,100.00,37,0,0,1,37,121,85,3e-12,69.4
SONDA_P_oxyspora,SRR9590829.266767,100.00,37,0,0,1,37,405,441,3e-12,69.4
SONDA_P_oxyspora,SRR9590829.266512,100.00,37,0,0,1,37,121,85,3e-12,69.4
SONDA_P_oxyspora,SRR9590829.266509,100.00,37,0,0,1,37,121,85,3e-12,69.4
SONDA_P_oxyspora,SRR9590829.266509,100.00,37,0,0,1,37,405,441,3e-12,69.4
SONDA_P_oxyspora,SRR9590829.266404,100.00,37,0,0,1,37,120,84,3e-12,69.4
SONDA_P_oxyspora,SRR9590829.266404,100.00,37,0,0,1,37,404,440,3e-12,69.4
SONDA_P_oxyspora,SRR9590829.265786,100.00,37,0,0,1,37,121,85,3e-12,69.4
SONDA_P_oxyspora,SRR9590829.265786,100.00,37,0,0,1,37,405,441,3e-12,69.4
SONDA_P_oxyspora,SRR9590829.265615,100.00,37,0,0,1,37,121,85,3e-12,69.4
SONDA_P_oxyspora,SRR9590829.265615,100.00,37,0,0,1,37,405,441,3e-12,69.4
SONDA_P_oxyspora,SRR9590829.265513,100.00,37,0,0,1,37,121,85,3e-12,69.4
SONDA_P_oxyspora,SRR9590829.265513,97.30,37,1,0,1,37,405,441,1e-10,63.9
SONDA_P_oxyspora,SRR9590829.265425,100.00,37,0,0,1,37,121,85,3e-12,69.4
SONDA_P_oxyspora,SRR9590829.265425,100.00,37,0,0,1,37,405,441,3e-12,69.4
SONDA_P_oxyspora,SRR9590829.265421,100.00,37,0,0,1,37,121,85,3e-12,69.4
SONDA_P_oxyspora,SRR9590829.265106,100.00,37,0,0,1,37,121,85,3e-12,69.4
SONDA_P_oxyspora,SRR9590829.265106,100.00,37,0,0,1,37,405,441,3e-12,69.4
SONDA_P_oxyspora,SRR9590829.265021,100.00,37,0,0,1,37,121,85,3e-12,69.4
SONDA_P_oxyspora,SRR9590829.265021,97.30,37,1,0,1,37,405,441,1e-10,63.9
SONDA_P_oxyspora,SRR9590829.264569,100.00,37,0,0,1,37,121,85,3e-12,69.4
SONDA_P_oxyspora,SRR9590829.264004,100.00,37,0,0,1,37,121,85,3e-12,69.4
SONDA_P_oxyspora,SRR9590829.263313,100.00,37,0,0,1,37,121,85,3e-12,69.4
SONDA_P_oxyspora,SRR9590829.263313,100.00,37,0,0,1,37,405,441,3e-12,69.4
SONDA_P_oxyspora,SRR9590829.263137,100.00,37,0,0,1,37,121,85,3e-12,69.4
SONDA_P_oxyspora,SRR9590829.263137,100.00,37,0,0,1,37,405,441,3e-12,69.4
SONDA_P_oxyspora,SRR9590829.262700,100.00,37,0,0,1,37,121,85,3e-12,69.4
SONDA_P_oxyspora,SRR9590829.262700,100.00,37,0,0,1,37,405,441,3e-12,69.4
SONDA_P_oxyspora,SRR9590829.262553,100.00,37,0,0,1,37,121,85,3e-12,69.4
SONDA_P_oxyspora,SRR9590829.262553,100.00,37,0,0,1,37,405,441,3e-12,69.4
SONDA_P_oxyspora,SRR9590829.261907,100.00,37,0,0,1,37,121,85,3e-12,69.4
SONDA_P_oxyspora,SRR9590829.261907,100.00,37,0,0,1,37,405,441,3e-12,69.4
SONDA_P_oxyspora,SRR9590829.261658,100.00,37,0,0,1,37,121,85,3e-12,69.4
SONDA_P_oxyspora,SRR9590829.261658,97.30,37,1,0,1,37,405,441,1e-10,63.9
SONDA_P_oxyspora,SRR9590829.261498,100.00,37,0,0,1,37,121,85,3e-12,69.4
SONDA_P_oxyspora,SRR9590829.260854,100.00,37,0,0,1,37,121,85,3e-12,69.4
SONDA_P_oxyspora,SRR9590829.260854,100.00,37,0,0,1,37,405,441,3e-12,69.4
SONDA_P_oxyspora,SRR9590829.260762,100.00,37,0,0,1,37,121,85,3e-12,69.4
SONDA_P_oxyspora,SRR9590829.260179,100.00,37,0,0,1,37,121,85,3e-12,69.4
SONDA_P_oxyspora,SRR9590829.260179,94.59,37,2,0,1,37,405,441,6e-09,58.4
SONDA_P_oxyspora,SRR9590829.258447,100.00,37,0,0,1,37,121,85,3e-12,69.4
SONDA_P_oxyspora,SRR9590829.258446,100.00,37,0,0,1,37,121,85,3e-12,69.4
SONDA_P_oxyspora,SRR9590829.258418,100.00,37,0,0,1,37,121,85,3e-12,69.4
SONDA_P_oxyspora,SRR9590829.258407,100.00,37,0,0,1,37,121,85,3e-12,69.4
SONDA_P_oxyspora,SRR9590829.258407,100.00,37,0,0,1,37,405,441,3e-12,69.4
SONDA_P_oxyspora,SRR9590829.258234,100.00,37,0,0,1,37,121,85,3e-12,69.4
SONDA_P_oxyspora,SRR9590829.257973,100.00,37,0,0,1,37,121,85,3e-12,69.4
SONDA_P_oxyspora,SRR9590829.257684,100.00,37,0,0,1,37,121,85,3e-12,69.4
SONDA_P_oxyspora,SRR9590829.257129,100.00,37,0,0,1,37,121,85,3e-12,69.4
SONDA_P_oxyspora,SRR9590829.257129,100.00,37,0,0,1,37,405,441,3e-12,69.4
SONDA_P_oxyspora,SRR9590829.256970,100.00,37,0,0,1,37,121,85,3e-12,69.4
SONDA_P_oxyspora,SRR9590829.256768,100.00,37,0,0,1,37,121,85,3e-12,69.4
SONDA_P_oxyspora,SRR9590829.256768,100.00,37,0,0,1,37,405,441,3e-12,69.4
SONDA_P_oxyspora,SRR9590829.255645,100.00,37,0,0,1,37,121,85,3e-12,69.4
SONDA_P_oxyspora,SRR9590829.255581,100.00,37,0,0,1,37,121,85,3e-12,69.4
SONDA_P_oxyspora,SRR9590829.255581,100.00,37,0,0,1,37,405,441,3e-12,69.4
SONDA_P_oxyspora,SRR9590829.255543,100.00,37,0,0,1,37,121,85,3e-12,69.4
SONDA_P_oxyspora,SRR9590829.255531,100.00,37,0,0,1,37,121,85,3e-12,69.4
SONDA_P_oxyspora,SRR9590829.255531,100.00,37,0,0,1,37,405,441,3e-12,69.4
SONDA_P_oxyspora,SRR9590829.255059,100.00,37,0,0,1,37,121,85,3e-12,69.4
SONDA_P_oxyspora,SRR9590829.254967,100.00,37,0,0,1,37,121,85,3e-12,69.4
SONDA_P_oxyspora,SRR9590829.254967,100.00,37,0,0,1,37,405,441,3e-12,69.4
SONDA_P_oxyspora,SRR9590829.254929,100.00,37,0,0,1,37,121,85,3e-12,69.4
SONDA_P_oxyspora,SRR9590829.254929,100.00,37,0,0,1,37,405,441,3e-12,69.4
SONDA_P_oxyspora,SRR9590829.254928,100.00,37,0,0,1,37,121,85,3e-12,69.4
SONDA_P_oxyspora,SRR9590829.254928,100.00,37,0,0,1,37,405,441,3e-12,69.4
SONDA_P_oxyspora,SRR9590829.254768,100.00,37,0,0,1,37,121,85,3e-12,69.4
SONDA_P_oxyspora,SRR9590829.254768,97.30,37,1,0,1,37,405,441,1e-10,63.9
SONDA_P_oxyspora,SRR9590829.253713,100.00,37,0,0,1,37,121,85,3e-12,69.4
SONDA_P_oxyspora,SRR9590829.253713,100.00,37,0,0,1,37,405,441,3e-12,69.4
SONDA_P_oxyspora,SRR9590829.251709,100.00,37,0,0,1,37,121,85,3e-12,69.4
SONDA_P_oxyspora,SRR9590829.251709,100.00,37,0,0,1,37,405,441,3e-12,69.4
SONDA_P_oxyspora,SRR9590829.251209,100.00,37,0,0,1,37,121,85,3e-12,69.4
SONDA_P_oxyspora,SRR9590829.251209,100.00,37,0,0,1,37,405,441,3e-12,69.4
SONDA_P_oxyspora,SRR9590829.251147,100.00,37,0,0,1,37,121,85,3e-12,69.4
SONDA_P_oxyspora,SRR9590829.251147,100.00,37,0,0,1,37,405,441,3e-12,69.4
SONDA_P_oxyspora,SRR9590829.251107,100.00,37,0,0,1,37,121,85,3e-12,69.4
SONDA_P_oxyspora,SRR9590829.251107,100.00,37,0,0,1,37,405,441,3e-12,69.4
SONDA_P_oxyspora,SRR9590829.250571,100.00,37,0,0,1,37,121,85,3e-12,69.4
SONDA_P_oxyspora,SRR9590829.250571,97.30,37,1,0,1,37,405,441,1e-10,63.9
SONDA_P_oxyspora,SRR9590829.250092,100.00,37,0,0,1,37,121,85,3e-12,69.4
SONDA_P_oxyspora,SRR9590829.250092,100.00,37,0,0,1,37,405,441,3e-12,69.4
SONDA_P_oxyspora,SRR9590829.249526,100.00,37,0,0,1,37,121,85,3e-12,69.4
SONDA_P_oxyspora,SRR9590829.249526,100.00,37,0,0,1,37,405,441,3e-12,69.4
SONDA_P_oxyspora,SRR9590829.249336,100.00,37,0,0,1,37,121,85,3e-12,69.4
SONDA_P_oxyspora,SRR9590829.249336,100.00,37,0,0,1,37,405,441,3e-12,69.4
SONDA_P_oxyspora,SRR9590829.249037,100.00,37,0,0,1,37,121,85,3e-12,69.4
SONDA_P_oxyspora,SRR9590829.249037,100.00,37,0,0,1,37,405,441,3e-12,69.4
SONDA_P_oxyspora,SRR9590829.248982,100.00,37,0,0,1,37,121,85,3e-12,69.4
SONDA_P_oxyspora,SRR9590829.248247,100.00,37,0,0,1,37,121,85,3e-12,69.4
SONDA_P_oxyspora,SRR9590829.248247,100.00,37,0,0,1,37,405,441,3e-12,69.4
SONDA_P_oxyspora,SRR9590829.247949,100.00,37,0,0,1,37,121,85,3e-12,69.4
SONDA_P_oxyspora,SRR9590829.247949,100.00,37,0,0,1,37,405,441,3e-12,69.4
SONDA_P_oxyspora,SRR9590829.245301,100.00,37,0,0,1,37,121,85,3e-12,69.4
SONDA_P_oxyspora,SRR9590829.245301,100.00,37,0,0,1,37,405,441,3e-12,69.4
SONDA_P_oxyspora,SRR9590829.245253,100.00,37,0,0,1,37,121,85,3e-12,69.4
SONDA_P_oxyspora,SRR9590829.245090,100.00,37,0,0,1,37,121,85,3e-12,69.4
SONDA_P_oxyspora,SRR9590829.244819,100.00,37,0,0,1,37,121,85,3e-12,69.4
SONDA_P_oxyspora,SRR9590829.244579,100.00,37,0,0,1,37,121,85,3e-12,69.4
SONDA_P_oxyspora,SRR9590829.244579,100.00,37,0,0,1,37,405,441,3e-12,69.4
SONDA_P_oxyspora,SRR9590829.243911,100.00,37,0,0,1,37,121,85,3e-12,69.4
SONDA_P_oxyspora,SRR9590829.243911,97.30,37,1,0,1,37,405,441,1e-10,63.9
SONDA_P_oxyspora,SRR9590829.243902,100.00,37,0,0,1,37,121,85,3e-12,69.4
SONDA_P_oxyspora,SRR9590829.243902,100.00,37,0,0,1,37,405,441,3e-12,69.4
SONDA_P_oxyspora,SRR9590829.242612,100.00,37,0,0,1,37,120,84,3e-12,69.4
SONDA_P_oxyspora,SRR9590829.241840,100.00,37,0,0,1,37,121,85,3e-12,69.4
SONDA_P_oxyspora,SRR9590829.241840,100.00,37,0,0,1,37,405,441,3e-12,69.4
SONDA_P_oxyspora,SRR9590829.241382,100.00,37,0,0,1,37,121,85,3e-12,69.4
SONDA_P_oxyspora,SRR9590829.241382,97.30,37,1,0,1,37,405,441,1e-10,63.9
SONDA_P_oxyspora,SRR9590829.241130,100.00,37,0,0,1,37,121,85,3e-12,69.4
SONDA_P_oxyspora,SRR9590829.239105,100.00,37,0,0,1,37,121,85,3e-12,69.4
SONDA_P_oxyspora,SRR9590829.239105,100.00,37,0,0,1,37,405,441,3e-12,69.4
SONDA_P_oxyspora,SRR9590829.239087,100.00,37,0,0,1,37,121,85,3e-12,69.4
SONDA_P_oxyspora,SRR9590829.239081,100.00,37,0,0,1,37,121,85,3e-12,69.4
SONDA_P_oxyspora,SRR9590829.239081,100.00,37,0,0,1,37,405,441,3e-12,69.4
SONDA_P_oxyspora,SRR9590829.238900,100.00,37,0,0,1,37,121,85,3e-12,69.4
SONDA_P_oxyspora,SRR9590829.238892,100.00,37,0,0,1,37,121,85,3e-12,69.4
SONDA_P_oxyspora,SRR9590829.238891,100.00,37,0,0,1,37,121,85,3e-12,69.4
SONDA_P_oxyspora,SRR9590829.238891,100.00,37,0,0,1,37,405,441,3e-12,69.4
SONDA_P_oxyspora,SRR9590829.238711,100.00,37,0,0,1,37,121,85,3e-12,69.4
SONDA_P_oxyspora,SRR9590829.238711,100.00,37,0,0,1,37,405,441,3e-12,69.4
SONDA_P_oxyspora,SRR9590829.238705,100.00,37,0,0,1,37,121,85,3e-12,69.4
SONDA_P_oxyspora,SRR9590829.238090,100.00,37,0,0,1,37,121,85,3e-12,69.4
SONDA_P_oxyspora,SRR9590829.238090,100.00,37,0,0,1,37,405,441,3e-12,69.4
SONDA_P_oxyspora,SRR9590829.237781,100.00,37,0,0,1,37,121,85,3e-12,69.4
SONDA_P_oxyspora,SRR9590829.237781,100.00,37,0,0,1,37,405,441,3e-12,69.4
SONDA_P_oxyspora,SRR9590829.236968,100.00,37,0,0,1,37,121,85,3e-12,69.4
SONDA_P_oxyspora,SRR9590829.236899,100.00,37,0,0,1,37,121,85,3e-12,69.4
SONDA_P_oxyspora,SRR9590829.236899,100.00,37,0,0,1,37,405,441,3e-12,69.4
SONDA_P_oxyspora,SRR9590829.236881,100.00,37,0,0,1,37,121,85,3e-12,69.4
SONDA_P_oxyspora,SRR9590829.236881,100.00,37,0,0,1,37,405,441,3e-12,69.4
SONDA_P_oxyspora,SRR9590829.236736,100.00,37,0,0,1,37,121,85,3e-12,69.4
SONDA_P_oxyspora,SRR9590829.236583,100.00,37,0,0,1,37,121,85,3e-12,69.4
SONDA_P_oxyspora,SRR9590829.236403,100.00,37,0,0,1,37,121,85,3e-12,69.4
SONDA_P_oxyspora,SRR9590829.236403,100.00,37,0,0,1,37,405,441,3e-12,69.4
SONDA_P_oxyspora,SRR9590829.236347,100.00,37,0,0,1,37,121,85,3e-12,69.4
SONDA_P_oxyspora,SRR9590829.236347,100.00,37,0,0,1,37,405,441,3e-12,69.4
SONDA_P_oxyspora,SRR9590829.236142,100.00,37,0,0,1,37,121,85,3e-12,69.4
SONDA_P_oxyspora,SRR9590829.236097,100.00,37,0,0,1,37,121,85,3e-12,69.4
SONDA_P_oxyspora,SRR9590829.236043,100.00,37,0,0,1,37,121,85,3e-12,69.4
SONDA_P_oxyspora,SRR9590829.235059,100.00,37,0,0,1,37,121,85,3e-12,69.4
SONDA_P_oxyspora,SRR9590829.234977,100.00,37,0,0,1,37,121,85,3e-12,69.4
SONDA_P_oxyspora,SRR9590829.234493,100.00,37,0,0,1,37,121,85,3e-12,69.4
SONDA_P_oxyspora,SRR9590829.234490,100.00,37,0,0,1,37,121,85,3e-12,69.4
SONDA_P_oxyspora,SRR9590829.234461,100.00,37,0,0,1,37,121,85,3e-12,69.4
SONDA_P_oxyspora,SRR9590829.234461,100.00,37,0,0,1,37,405,441,3e-12,69.4
SONDA_P_oxyspora,SRR9590829.234456,100.00,37,0,0,1,37,121,85,3e-12,69.4
SONDA_P_oxyspora,SRR9590829.234456,100.00,37,0,0,1,37,405,441,3e-12,69.4
SONDA_P_oxyspora,SRR9590829.234344,100.00,37,0,0,1,37,121,85,3e-12,69.4
SONDA_P_oxyspora,SRR9590829.234224,100.00,37,0,0,1,37,121,85,3e-12,69.4
SONDA_P_oxyspora,SRR9590829.234224,100.00,37,0,0,1,37,405,441,3e-12,69.4
SONDA_P_oxyspora,SRR9590829.234221,100.00,37,0,0,1,37,121,85,3e-12,69.4
SONDA_P_oxyspora,SRR9590829.234221,97.30,37,1,0,1,37,405,441,1e-10,63.9
SONDA_P_oxyspora,SRR9590829.233681,100.00,37,0,0,1,37,121,85,3e-12,69.4
SONDA_P_oxyspora,SRR9590829.233327,100.00,37,0,0,1,37,121,85,3e-12,69.4
SONDA_P_oxyspora,SRR9590829.233253,100.00,37,0,0,1,37,121,85,3e-12,69.4
SONDA_P_oxyspora,SRR9590829.232969,100.00,37,0,0,1,37,121,85,3e-12,69.4
SONDA_P_oxyspora,SRR9590829.232317,100.00,37,0,0,1,37,121,85,3e-12,69.4
SONDA_P_oxyspora,SRR9590829.232317,97.30,37,1,0,1,37,405,441,1e-10,63.9
SONDA_P_oxyspora,SRR9590829.232179,100.00,37,0,0,1,37,121,85,3e-12,69.4
SONDA_P_oxyspora,SRR9590829.232167,100.00,37,0,0,1,37,121,85,3e-12,69.4
SONDA_P_oxyspora,SRR9590829.231977,100.00,37,0,0,1,37,121,85,3e-12,69.4
SONDA_P_oxyspora,SRR9590829.231908,100.00,37,0,0,1,37,121,85,3e-12,69.4
SONDA_P_oxyspora,SRR9590829.231382,100.00,37,0,0,1,37,121,85,3e-12,69.4
SONDA_P_oxyspora,SRR9590829.231377,100.00,37,0,0,1,37,121,85,3e-12,69.4
SONDA_P_oxyspora,SRR9590829.231373,100.00,37,0,0,1,37,121,85,3e-12,69.4
SONDA_P_oxyspora,SRR9590829.231309,100.00,37,0,0,1,37,121,85,3e-12,69.4
SONDA_P_oxyspora,SRR9590829.231309,97.30,37,1,0,1,37,405,441,1e-10,63.9
SONDA_P_oxyspora,SRR9590829.231232,100.00,37,0,0,1,37,121,85,3e-12,69.4
SONDA_P_oxyspora,SRR9590829.231232,100.00,37,0,0,1,37,405,441,3e-12,69.4
SONDA_P_oxyspora,SRR9590829.230988,100.00,37,0,0,1,37,121,85,3e-12,69.4
SONDA_P_oxyspora,SRR9590829.230988,97.30,37,1,0,1,37,405,441,1e-10,63.9
SONDA_P_oxyspora,SRR9590829.230875,100.00,37,0,0,1,37,121,85,3e-12,69.4
SONDA_P_oxyspora,SRR9590829.230875,100.00,37,0,0,1,37,405,441,3e-12,69.4
SONDA_P_oxyspora,SRR9590829.230627,100.00,37,0,0,1,37,121,85,3e-12,69.4
SONDA_P_oxyspora,SRR9590829.230441,100.00,37,0,0,1,37,121,85,3e-12,69.4
SONDA_P_oxyspora,SRR9590829.230441,100.00,37,0,0,1,37,405,441,3e-12,69.4
SONDA_P_oxyspora,SRR9590829.230432,100.00,37,0,0,1,37,121,85,3e-12,69.4
SONDA_P_oxyspora,SRR9590829.230432,100.00,37,0,0,1,37,405,441,3e-12,69.4
SONDA_P_oxyspora,SRR9590829.230227,100.00,37,0,0,1,37,121,85,3e-12,69.4
SONDA_P_oxyspora,SRR9590829.230227,100.00,37,0,0,1,37,405,441,3e-12,69.4
SONDA_P_oxyspora,SRR9590829.229670,100.00,37,0,0,1,37,121,85,3e-12,69.4
SONDA_P_oxyspora,SRR9590829.229097,100.00,37,0,0,1,37,121,85,3e-12,69.4
SONDA_P_oxyspora,SRR9590829.229097,100.00,37,0,0,1,37,405,441,3e-12,69.4
SONDA_P_oxyspora,SRR9590829.229075,100.00,37,0,0,1,37,121,85,3e-12,69.4
SONDA_P_oxyspora,SRR9590829.229075,100.00,37,0,0,1,37,405,441,3e-12,69.4
SONDA_P_oxyspora,SRR9590829.228315,100.00,37,0,0,1,37,121,85,3e-12,69.4
SONDA_P_oxyspora,SRR9590829.227672,100.00,37,0,0,1,37,121,85,3e-12,69.4
SONDA_P_oxyspora,SRR9590829.227665,100.00,37,0,0,1,37,121,85,3e-12,69.4
SONDA_P_oxyspora,SRR9590829.227195,100.00,37,0,0,1,37,120,84,3e-12,69.4
SONDA_P_oxyspora,SRR9590829.227195,100.00,37,0,0,1,37,404,440,3e-12,69.4
SONDA_P_oxyspora,SRR9590829.227150,100.00,37,0,0,1,37,121,85,3e-12,69.4
SONDA_P_oxyspora,SRR9590829.227150,100.00,37,0,0,1,37,405,441,3e-12,69.4
SONDA_P_oxyspora,SRR9590829.227065,100.00,37,0,0,1,37,121,85,3e-12,69.4
SONDA_P_oxyspora,SRR9590829.227065,100.00,37,0,0,1,37,405,441,3e-12,69.4
SONDA_P_oxyspora,SRR9590829.226997,100.00,37,0,0,1,37,121,85,3e-12,69.4
SONDA_P_oxyspora,SRR9590829.226893,100.00,37,0,0,1,37,121,85,3e-12,69.4
SONDA_P_oxyspora,SRR9590829.226296,100.00,37,0,0,1,37,121,85,3e-12,69.4
SONDA_P_oxyspora,SRR9590829.226296,100.00,37,0,0,1,37,405,441,3e-12,69.4
SONDA_P_oxyspora,SRR9590829.226234,100.00,37,0,0,1,37,121,85,3e-12,69.4
SONDA_P_oxyspora,SRR9590829.226234,100.00,37,0,0,1,37,405,441,3e-12,69.4
SONDA_P_oxyspora,SRR9590829.225803,100.00,37,0,0,1,37,121,85,3e-12,69.4
SONDA_P_oxyspora,SRR9590829.225803,100.00,37,0,0,1,37,405,441,3e-12,69.4
SONDA_P_oxyspora,SRR9590829.225706,100.00,37,0,0,1,37,121,85,3e-12,69.4
SONDA_P_oxyspora,SRR9590829.225706,97.30,37,1,0,1,37,405,441,1e-10,63.9
SONDA_P_oxyspora,SRR9590829.225491,100.00,37,0,0,1,37,121,85,3e-12,69.4
SONDA_P_oxyspora,SRR9590829.224440,100.00,37,0,0,1,37,121,85,3e-12,69.4
SONDA_P_oxyspora,SRR9590829.224439,100.00,37,0,0,1,37,121,85,3e-12,69.4
SONDA_P_oxyspora,SRR9590829.224439,97.30,37,1,0,1,37,403,439,1e-10,63.9
SONDA_P_oxyspora,SRR9590829.224280,100.00,37,0,0,1,37,121,85,3e-12,69.4
SONDA_P_oxyspora,SRR9590829.224280,100.00,37,0,0,1,37,405,441,3e-12,69.4
SONDA_P_oxyspora,SRR9590829.223956,100.00,37,0,0,1,37,121,85,3e-12,69.4
SONDA_P_oxyspora,SRR9590829.223956,100.00,37,0,0,1,37,405,441,3e-12,69.4
SONDA_P_oxyspora,SRR9590829.223863,100.00,37,0,0,1,37,121,85,3e-12,69.4
SONDA_P_oxyspora,SRR9590829.222847,100.00,37,0,0,1,37,121,85,3e-12,69.4
SONDA_P_oxyspora,SRR9590829.222589,100.00,37,0,0,1,37,121,85,3e-12,69.4
SONDA_P_oxyspora,SRR9590829.222292,100.00,37,0,0,1,37,121,85,3e-12,69.4
SONDA_P_oxyspora,SRR9590829.222292,97.30,37,1,0,1,37,405,441,1e-10,63.9
SONDA_P_oxyspora,SRR9590829.221661,100.00,37,0,0,1,37,121,85,3e-12,69.4
SONDA_P_oxyspora,SRR9590829.221397,100.00,37,0,0,1,37,121,85,3e-12,69.4
SONDA_P_oxyspora,SRR9590829.220992,100.00,37,0,0,1,37,121,85,3e-12,69.4
SONDA_P_oxyspora,SRR9590829.220987,100.00,37,0,0,1,37,121,85,3e-12,69.4
SONDA_P_oxyspora,SRR9590829.220987,100.00,37,0,0,1,37,405,441,3e-12,69.4
SONDA_P_oxyspora,SRR9590829.220986,100.00,37,0,0,1,37,121,85,3e-12,69.4
SONDA_P_oxyspora,SRR9590829.220986,100.00,37,0,0,1,37,405,441,3e-12,69.4
SONDA_P_oxyspora,SRR9590829.220449,100.00,37,0,0,1,37,121,85,3e-12,69.4
SONDA_P_oxyspora,SRR9590829.220449,100.00,37,0,0,1,37,405,441,3e-12,69.4
SONDA_P_oxyspora,SRR9590829.220424,100.00,37,0,0,1,37,121,85,3e-12,69.4
SONDA_P_oxyspora,SRR9590829.220424,100.00,37,0,0,1,37,405,441,3e-12,69.4
SONDA_P_oxyspora,SRR9590829.220019,100.00,37,0,0,1,37,121,85,3e-12,69.4
SONDA_P_oxyspora,SRR9590829.220019,97.14,35,0,1,1,34,405,439,6e-09,58.4
SONDA_P_oxyspora,SRR9590829.219893,100.00,37,0,0,1,37,121,85,3e-12,69.4
SONDA_P_oxyspora,SRR9590829.219893,100.00,37,0,0,1,37,405,441,3e-12,69.4
SONDA_P_oxyspora,SRR9590829.219876,100.00,37,0,0,1,37,121,85,3e-12,69.4
SONDA_P_oxyspora,SRR9590829.219701,100.00,37,0,0,1,37,121,85,3e-12,69.4
SONDA_P_oxyspora,SRR9590829.219701,100.00,37,0,0,1,37,405,441,3e-12,69.4
SONDA_P_oxyspora,SRR9590829.219458,100.00,37,0,0,1,37,121,85,3e-12,69.4
SONDA_P_oxyspora,SRR9590829.218814,100.00,37,0,0,1,37,121,85,3e-12,69.4
SONDA_P_oxyspora,SRR9590829.218742,100.00,37,0,0,1,37,121,85,3e-12,69.4
SONDA_P_oxyspora,SRR9590829.218742,100.00,37,0,0,1,37,405,441,3e-12,69.4
SONDA_P_oxyspora,SRR9590829.218330,100.00,37,0,0,1,37,120,84,3e-12,69.4
SONDA_P_oxyspora,SRR9590829.218330,100.00,37,0,0,1,37,404,440,3e-12,69.4
SONDA_P_oxyspora,SRR9590829.218146,100.00,37,0,0,1,37,121,85,3e-12,69.4
SONDA_P_oxyspora,SRR9590829.218146,100.00,37,0,0,1,37,405,441,3e-12,69.4
SONDA_P_oxyspora,SRR9590829.217811,100.00,37,0,0,1,37,121,85,3e-12,69.4
SONDA_P_oxyspora,SRR9590829.217653,100.00,37,0,0,1,37,121,85,3e-12,69.4
SONDA_P_oxyspora,SRR9590829.217653,100.00,37,0,0,1,37,405,441,3e-12,69.4
SONDA_P_oxyspora,SRR9590829.217629,100.00,37,0,0,1,37,121,85,3e-12,69.4
SONDA_P_oxyspora,SRR9590829.217629,100.00,37,0,0,1,37,405,441,3e-12,69.4
SONDA_P_oxyspora,SRR9590829.217517,100.00,37,0,0,1,37,121,85,3e-12,69.4
SONDA_P_oxyspora,SRR9590829.217517,100.00,37,0,0,1,37,405,441,3e-12,69.4
SONDA_P_oxyspora,SRR9590829.217455,100.00,37,0,0,1,37,121,85,3e-12,69.4
SONDA_P_oxyspora,SRR9590829.217455,97.30,37,1,0,1,37,405,441,1e-10,63.9
SONDA_P_oxyspora,SRR9590829.217306,100.00,37,0,0,1,37,121,85,3e-12,69.4
SONDA_P_oxyspora,SRR9590829.217306,100.00,37,0,0,1,37,405,441,3e-12,69.4
SONDA_P_oxyspora,SRR9590829.216933,100.00,37,0,0,1,37,121,85,3e-12,69.4
SONDA_P_oxyspora,SRR9590829.216921,100.00,37,0,0,1,37,121,85,3e-12,69.4
SONDA_P_oxyspora,SRR9590829.216921,100.00,37,0,0,1,37,405,441,3e-12,69.4
SONDA_P_oxyspora,SRR9590829.216822,100.00,37,0,0,1,37,121,85,3e-12,69.4
SONDA_P_oxyspora,SRR9590829.216822,100.00,37,0,0,1,37,405,441,3e-12,69.4
SONDA_P_oxyspora,SRR9590829.216771,100.00,37,0,0,1,37,121,85,3e-12,69.4
SONDA_P_oxyspora,SRR9590829.216771,97.30,37,1,0,1,37,405,441,1e-10,63.9
SONDA_P_oxyspora,SRR9590829.216711,100.00,37,0,0,1,37,121,85,3e-12,69.4
SONDA_P_oxyspora,SRR9590829.216664,100.00,37,0,0,1,37,121,85,3e-12,69.4
SONDA_P_oxyspora,SRR9590829.216664,97.30,37,1,0,1,37,405,441,1e-10,63.9
SONDA_P_oxyspora,SRR9590829.216348,100.00,37,0,0,1,37,121,85,3e-12,69.4
SONDA_P_oxyspora,SRR9590829.216329,100.00,37,0,0,1,37,121,85,3e-12,69.4
SONDA_P_oxyspora,SRR9590829.216329,97.30,37,1,0,1,37,405,441,1e-10,63.9
SONDA_P_oxyspora,SRR9590829.216230,100.00,37,0,0,1,37,121,85,3e-12,69.4
SONDA_P_oxyspora,SRR9590829.216230,94.59,37,2,0,1,37,405,441,6e-09,58.4
SONDA_P_oxyspora,SRR9590829.216133,100.00,37,0,0,1,37,121,85,3e-12,69.4
SONDA_P_oxyspora,SRR9590829.215674,100.00,37,0,0,1,37,121,85,3e-12,69.4
SONDA_P_oxyspora,SRR9590829.215674,100.00,37,0,0,1,37,405,441,3e-12,69.4
SONDA_P_oxyspora,SRR9590829.215533,100.00,37,0,0,1,37,121,85,3e-12,69.4
SONDA_P_oxyspora,SRR9590829.215410,100.00,37,0,0,1,37,121,85,3e-12,69.4
SONDA_P_oxyspora,SRR9590829.215410,100.00,37,0,0,1,37,405,441,3e-12,69.4
SONDA_P_oxyspora,SRR9590829.215228,100.00,37,0,0,1,37,121,85,3e-12,69.4
SONDA_P_oxyspora,SRR9590829.214135,100.00,37,0,0,1,37,121,85,3e-12,69.4
SONDA_P_oxyspora,SRR9590829.214135,100.00,37,0,0,1,37,405,441,3e-12,69.4
SONDA_P_oxyspora,SRR9590829.214058,100.00,37,0,0,1,37,121,85,3e-12,69.4
SONDA_P_oxyspora,SRR9590829.213997,100.00,37,0,0,1,37,121,85,3e-12,69.4
SONDA_P_oxyspora,SRR9590829.213599,100.00,37,0,0,1,37,121,85,3e-12,69.4
SONDA_P_oxyspora,SRR9590829.213599,97.30,37,1,0,1,37,405,441,1e-10,63.9
SONDA_P_oxyspora,SRR9590829.213584,100.00,37,0,0,1,37,121,85,3e-12,69.4
SONDA_P_oxyspora,SRR9590829.213481,100.00,37,0,0,1,37,121,85,3e-12,69.4
SONDA_P_oxyspora,SRR9590829.213481,100.00,37,0,0,1,37,405,441,3e-12,69.4
SONDA_P_oxyspora,SRR9590829.213372,100.00,37,0,0,1,37,121,85,3e-12,69.4
SONDA_P_oxyspora,SRR9590829.213188,100.00,37,0,0,1,37,121,85,3e-12,69.4
SONDA_P_oxyspora,SRR9590829.213188,100.00,37,0,0,1,37,405,441,3e-12,69.4
SONDA_P_oxyspora,SRR9590829.213142,100.00,37,0,0,1,37,121,85,3e-12,69.4
SONDA_P_oxyspora,SRR9590829.213030,100.00,37,0,0,1,37,121,85,3e-12,69.4
SONDA_P_oxyspora,SRR9590829.213030,100.00,37,0,0,1,37,405,441,3e-12,69.4
SONDA_P_oxyspora,SRR9590829.212754,100.00,37,0,0,1,37,121,85,3e-12,69.4
SONDA_P_oxyspora,SRR9590829.212752,100.00,37,0,0,1,37,121,85,3e-12,69.4
SONDA_P_oxyspora,SRR9590829.212636,100.00,37,0,0,1,37,121,85,3e-12,69.4
SONDA_P_oxyspora,SRR9590829.212636,100.00,37,0,0,1,37,405,441,3e-12,69.4
SONDA_P_oxyspora,SRR9590829.212221,100.00,37,0,0,1,37,121,85,3e-12,69.4
SONDA_P_oxyspora,SRR9590829.212221,100.00,37,0,0,1,37,405,441,3e-12,69.4
SONDA_P_oxyspora,SRR9590829.211630,100.00,37,0,0,1,37,121,85,3e-12,69.4
SONDA_P_oxyspora,SRR9590829.211630,100.00,37,0,0,1,37,405,441,3e-12,69.4
SONDA_P_oxyspora,SRR9590829.211543,100.00,37,0,0,1,37,121,85,3e-12,69.4
SONDA_P_oxyspora,SRR9590829.211161,100.00,37,0,0,1,37,121,85,3e-12,69.4
SONDA_P_oxyspora,SRR9590829.210792,100.00,37,0,0,1,37,121,85,3e-12,69.4
SONDA_P_oxyspora,SRR9590829.210761,100.00,37,0,0,1,37,121,85,3e-12,69.4
SONDA_P_oxyspora,SRR9590829.210755,100.00,37,0,0,1,37,121,85,3e-12,69.4
SONDA_P_oxyspora,SRR9590829.210535,100.00,37,0,0,1,37,121,85,3e-12,69.4
SONDA_P_oxyspora,SRR9590829.209342,100.00,37,0,0,1,37,121,85,3e-12,69.4
SONDA_P_oxyspora,SRR9590829.209342,100.00,37,0,0,1,37,405,441,3e-12,69.4
SONDA_P_oxyspora,SRR9590829.208694,100.00,37,0,0,1,37,121,85,3e-12,69.4
SONDA_P_oxyspora,SRR9590829.208694,100.00,37,0,0,1,37,405,441,3e-12,69.4
SONDA_P_oxyspora,SRR9590829.208142,100.00,37,0,0,1,37,120,84,3e-12,69.4
SONDA_P_oxyspora,SRR9590829.208142,100.00,37,0,0,1,37,404,440,3e-12,69.4
SONDA_P_oxyspora,SRR9590829.207915,100.00,37,0,0,1,37,121,85,3e-12,69.4
SONDA_P_oxyspora,SRR9590829.207674,100.00,37,0,0,1,37,121,85,3e-12,69.4
SONDA_P_oxyspora,SRR9590829.207674,100.00,37,0,0,1,37,405,441,3e-12,69.4
SONDA_P_oxyspora,SRR9590829.207123,100.00,37,0,0,1,37,121,85,3e-12,69.4
SONDA_P_oxyspora,SRR9590829.207123,100.00,37,0,0,1,37,405,441,3e-12,69.4
SONDA_P_oxyspora,SRR9590829.207046,100.00,37,0,0,1,37,121,85,3e-12,69.4
SONDA_P_oxyspora,SRR9590829.206579,100.00,37,0,0,1,37,121,85,3e-12,69.4
SONDA_P_oxyspora,SRR9590829.206573,100.00,37,0,0,1,37,121,85,3e-12,69.4
SONDA_P_oxyspora,SRR9590829.206573,100.00,37,0,0,1,37,405,441,3e-12,69.4
SONDA_P_oxyspora,SRR9590829.206460,100.00,37,0,0,1,37,121,85,3e-12,69.4
SONDA_P_oxyspora,SRR9590829.206460,100.00,37,0,0,1,37,405,441,3e-12,69.4
SONDA_P_oxyspora,SRR9590829.206260,100.00,37,0,0,1,37,121,85,3e-12,69.4
SONDA_P_oxyspora,SRR9590829.205038,100.00,37,0,0,1,37,121,85,3e-12,69.4
SONDA_P_oxyspora,SRR9590829.205007,100.00,37,0,0,1,37,121,85,3e-12,69.4
SONDA_P_oxyspora,SRR9590829.205007,97.30,37,1,0,1,37,405,441,1e-10,63.9
SONDA_P_oxyspora,SRR9590829.204828,100.00,37,0,0,1,37,121,85,3e-12,69.4
SONDA_P_oxyspora,SRR9590829.204520,100.00,37,0,0,1,37,121,85,3e-12,69.4
SONDA_P_oxyspora,SRR9590829.204520,100.00,37,0,0,1,37,405,441,3e-12,69.4
SONDA_P_oxyspora,SRR9590829.204362,100.00,37,0,0,1,37,121,85,3e-12,69.4
SONDA_P_oxyspora,SRR9590829.204047,100.00,37,0,0,1,37,121,85,3e-12,69.4
SONDA_P_oxyspora,SRR9590829.204047,100.00,37,0,0,1,37,405,441,3e-12,69.4
SONDA_P_oxyspora,SRR9590829.204014,100.00,37,0,0,1,37,121,85,3e-12,69.4
SONDA_P_oxyspora,SRR9590829.204014,100.00,37,0,0,1,37,405,441,3e-12,69.4
SONDA_P_oxyspora,SRR9590829.203521,100.00,37,0,0,1,37,121,85,3e-12,69.4
SONDA_P_oxyspora,SRR9590829.203521,100.00,37,0,0,1,37,405,441,3e-12,69.4
SONDA_P_oxyspora,SRR9590829.202990,100.00,37,0,0,1,37,121,85,3e-12,69.4
SONDA_P_oxyspora,SRR9590829.202986,100.00,37,0,0,1,37,121,85,3e-12,69.4
SONDA_P_oxyspora,SRR9590829.202986,100.00,37,0,0,1,37,405,441,3e-12,69.4
SONDA_P_oxyspora,SRR9590829.202910,100.00,37,0,0,1,37,121,85,3e-12,69.4
SONDA_P_oxyspora,SRR9590829.202910,100.00,37,0,0,1,37,405,441,3e-12,69.4
SONDA_P_oxyspora,SRR9590829.202577,100.00,37,0,0,1,37,121,85,3e-12,69.4
SONDA_P_oxyspora,SRR9590829.202454,100.00,37,0,0,1,37,120,84,3e-12,69.4
SONDA_P_oxyspora,SRR9590829.202349,100.00,37,0,0,1,37,121,85,3e-12,69.4
SONDA_P_oxyspora,SRR9590829.201526,100.00,37,0,0,1,37,121,85,3e-12,69.4
SONDA_P_oxyspora,SRR9590829.201448,100.00,37,0,0,1,37,121,85,3e-12,69.4
SONDA_P_oxyspora,SRR9590829.201398,100.00,37,0,0,1,37,121,85,3e-12,69.4
SONDA_P_oxyspora,SRR9590829.201328,100.00,37,0,0,1,37,121,85,3e-12,69.4
SONDA_P_oxyspora,SRR9590829.201328,100.00,37,0,0,1,37,405,441,3e-12,69.4
SONDA_P_oxyspora,SRR9590829.200748,100.00,37,0,0,1,37,121,85,3e-12,69.4
SONDA_P_oxyspora,SRR9590829.200748,97.30,37,1,0,1,37,405,441,1e-10,63.9
SONDA_P_oxyspora,SRR9590829.200746,100.00,37,0,0,1,37,121,85,3e-12,69.4
SONDA_P_oxyspora,SRR9590829.200746,100.00,37,0,0,1,37,405,441,3e-12,69.4
SONDA_P_oxyspora,SRR9590829.200453,100.00,37,0,0,1,37,121,85,3e-12,69.4
SONDA_P_oxyspora,SRR9590829.200453,100.00,37,0,0,1,37,405,441,3e-12,69.4
SONDA_P_oxyspora,SRR9590829.200289,100.00,37,0,0,1,37,121,85,3e-12,69.4
SONDA_P_oxyspora,SRR9590829.200289,100.00,37,0,0,1,37,405,441,3e-12,69.4
SONDA_P_oxyspora,SRR9590829.200073,100.00,37,0,0,1,37,121,85,3e-12,69.4
SONDA_P_oxyspora,SRR9590829.199873,100.00,37,0,0,1,37,121,85,3e-12,69.4
SONDA_P_oxyspora,SRR9590829.199873,97.30,37,1,0,1,37,405,441,1e-10,63.9
SONDA_P_oxyspora,SRR9590829.199074,100.00,37,0,0,1,37,121,85,3e-12,69.4
SONDA_P_oxyspora,SRR9590829.198863,100.00,37,0,0,1,37,121,85,3e-12,69.4
SONDA_P_oxyspora,SRR9590829.198452,100.00,37,0,0,1,37,121,85,3e-12,69.4
SONDA_P_oxyspora,SRR9590829.198452,97.30,37,1,0,1,37,405,441,1e-10,63.9
SONDA_P_oxyspora,SRR9590829.198449,100.00,37,0,0,1,37,121,85,3e-12,69.4
SONDA_P_oxyspora,SRR9590829.198335,100.00,37,0,0,1,37,121,85,3e-12,69.4
SONDA_P_oxyspora,SRR9590829.198149,100.00,37,0,0,1,37,121,85,3e-12,69.4
SONDA_P_oxyspora,SRR9590829.197618,100.00,37,0,0,1,37,121,85,3e-12,69.4
SONDA_P_oxyspora,SRR9590829.197618,97.30,37,1,0,1,37,405,441,1e-10,63.9
SONDA_P_oxyspora,SRR9590829.197604,100.00,37,0,0,1,37,121,85,3e-12,69.4
SONDA_P_oxyspora,SRR9590829.197277,100.00,37,0,0,1,37,121,85,3e-12,69.4
SONDA_P_oxyspora,SRR9590829.197277,100.00,37,0,0,1,37,405,441,3e-12,69.4
SONDA_P_oxyspora,SRR9590829.197084,100.00,37,0,0,1,37,121,85,3e-12,69.4
SONDA_P_oxyspora,SRR9590829.197084,100.00,37,0,0,1,37,405,441,3e-12,69.4
SONDA_P_oxyspora,SRR9590829.196782,100.00,37,0,0,1,37,121,85,3e-12,69.4
SONDA_P_oxyspora,SRR9590829.196782,100.00,37,0,0,1,37,405,441,3e-12,69.4
SONDA_P_oxyspora,SRR9590829.196591,100.00,37,0,0,1,37,121,85,3e-12,69.4
SONDA_P_oxyspora,SRR9590829.196591,100.00,37,0,0,1,37,405,441,3e-12,69.4
SONDA_P_oxyspora,SRR9590829.195952,100.00,37,0,0,1,37,121,85,3e-12,69.4
SONDA_P_oxyspora,SRR9590829.195952,100.00,37,0,0,1,37,405,441,3e-12,69.4
SONDA_P_oxyspora,SRR9590829.195784,100.00,37,0,0,1,37,121,85,3e-12,69.4
SONDA_P_oxyspora,SRR9590829.195784,97.30,37,1,0,1,37,405,441,1e-10,63.9
SONDA_P_oxyspora,SRR9590829.195623,100.00,37,0,0,1,37,121,85,3e-12,69.4
SONDA_P_oxyspora,SRR9590829.195615,100.00,37,0,0,1,37,121,85,3e-12,69.4
SONDA_P_oxyspora,SRR9590829.194358,100.00,37,0,0,1,37,121,85,3e-12,69.4
SONDA_P_oxyspora,SRR9590829.194358,100.00,37,0,0,1,37,405,441,3e-12,69.4
SONDA_P_oxyspora,SRR9590829.194196,100.00,37,0,0,1,37,121,85,3e-12,69.4
SONDA_P_oxyspora,SRR9590829.194196,97.30,37,1,0,1,37,405,441,1e-10,63.9
SONDA_P_oxyspora,SRR9590829.193090,100.00,37,0,0,1,37,120,84,3e-12,69.4
SONDA_P_oxyspora,SRR9590829.193090,100.00,37,0,0,1,37,404,440,3e-12,69.4
SONDA_P_oxyspora,SRR9590829.193074,100.00,37,0,0,1,37,121,85,3e-12,69.4
SONDA_P_oxyspora,SRR9590829.193074,100.00,34,0,0,4,37,408,441,1e-10,63.9
SONDA_P_oxyspora,SRR9590829.191763,100.00,37,0,0,1,37,121,85,3e-12,69.4
SONDA_P_oxyspora,SRR9590829.191763,100.00,37,0,0,1,37,405,441,3e-12,69.4
SONDA_P_oxyspora,SRR9590829.191642,100.00,37,0,0,1,37,121,85,3e-12,69.4
SONDA_P_oxyspora,SRR9590829.191642,100.00,37,0,0,1,37,405,441,3e-12,69.4
SONDA_P_oxyspora,SRR9590829.191438,100.00,37,0,0,1,37,121,85,3e-12,69.4
SONDA_P_oxyspora,SRR9590829.191438,100.00,37,0,0,1,37,405,441,3e-12,69.4
SONDA_P_oxyspora,SRR9590829.190786,100.00,37,0,0,1,37,121,85,3e-12,69.4
SONDA_P_oxyspora,SRR9590829.190786,100.00,37,0,0,1,37,405,441,3e-12,69.4
SONDA_P_oxyspora,SRR9590829.190278,100.00,37,0,0,1,37,121,85,3e-12,69.4
SONDA_P_oxyspora,SRR9590829.190278,100.00,37,0,0,1,37,405,441,3e-12,69.4
SONDA_P_oxyspora,SRR9590829.190185,100.00,37,0,0,1,37,121,85,3e-12,69.4
SONDA_P_oxyspora,SRR9590829.190185,100.00,37,0,0,1,37,405,441,3e-12,69.4
SONDA_P_oxyspora,SRR9590829.189639,100.00,37,0,0,1,37,121,85,3e-12,69.4
SONDA_P_oxyspora,SRR9590829.189273,100.00,37,0,0,1,37,121,85,3e-12,69.4
SONDA_P_oxyspora,SRR9590829.189178,100.00,37,0,0,1,37,121,85,3e-12,69.4
SONDA_P_oxyspora,SRR9590829.188856,100.00,37,0,0,1,37,121,85,3e-12,69.4
SONDA_P_oxyspora,SRR9590829.188856,100.00,37,0,0,1,37,405,441,3e-12,69.4
SONDA_P_oxyspora,SRR9590829.188689,100.00,37,0,0,1,37,121,85,3e-12,69.4
SONDA_P_oxyspora,SRR9590829.188461,100.00,37,0,0,1,37,121,85,3e-12,69.4
SONDA_P_oxyspora,SRR9590829.188247,100.00,37,0,0,1,37,121,85,3e-12,69.4
SONDA_P_oxyspora,SRR9590829.188247,100.00,37,0,0,1,37,405,441,3e-12,69.4
SONDA_P_oxyspora,SRR9590829.188112,100.00,37,0,0,1,37,121,85,3e-12,69.4
SONDA_P_oxyspora,SRR9590829.188014,100.00,37,0,0,1,37,121,85,3e-12,69.4
SONDA_P_oxyspora,SRR9590829.188008,100.00,37,0,0,1,37,121,85,3e-12,69.4
SONDA_P_oxyspora,SRR9590829.187280,100.00,37,0,0,1,37,121,85,3e-12,69.4
SONDA_P_oxyspora,SRR9590829.187280,100.00,37,0,0,1,37,405,441,3e-12,69.4
SONDA_P_oxyspora,SRR9590829.187208,100.00,37,0,0,1,37,121,85,3e-12,69.4
SONDA_P_oxyspora,SRR9590829.186562,100.00,37,0,0,1,37,121,85,3e-12,69.4
SONDA_P_oxyspora,SRR9590829.186562,97.30,37,1,0,1,37,405,441,1e-10,63.9
SONDA_P_oxyspora,SRR9590829.186394,100.00,37,0,0,1,37,121,85,3e-12,69.4
SONDA_P_oxyspora,SRR9590829.186391,100.00,37,0,0,1,37,121,85,3e-12,69.4
SONDA_P_oxyspora,SRR9590829.186123,100.00,37,0,0,1,37,121,85,3e-12,69.4
SONDA_P_oxyspora,SRR9590829.186123,97.30,37,1,0,1,37,405,441,1e-10,63.9
SONDA_P_oxyspora,SRR9590829.185982,100.00,37,0,0,1,37,121,85,3e-12,69.4
SONDA_P_oxyspora,SRR9590829.185942,100.00,37,0,0,1,37,121,85,3e-12,69.4
SONDA_P_oxyspora,SRR9590829.185386,100.00,37,0,0,1,37,121,85,3e-12,69.4
SONDA_P_oxyspora,SRR9590829.182471,100.00,37,0,0,1,37,121,85,3e-12,69.4
SONDA_P_oxyspora,SRR9590829.182471,100.00,37,0,0,1,37,405,441,3e-12,69.4
SONDA_P_oxyspora,SRR9590829.182339,100.00,37,0,0,1,37,121,85,3e-12,69.4
SONDA_P_oxyspora,SRR9590829.182339,100.00,37,0,0,1,37,405,441,3e-12,69.4
SONDA_P_oxyspora,SRR9590829.182313,100.00,37,0,0,1,37,121,85,3e-12,69.4
SONDA_P_oxyspora,SRR9590829.181472,100.00,37,0,0,1,37,121,85,3e-12,69.4
SONDA_P_oxyspora,SRR9590829.181339,100.00,37,0,0,1,37,121,85,3e-12,69.4
SONDA_P_oxyspora,SRR9590829.180921,100.00,37,0,0,1,37,121,85,3e-12,69.4
SONDA_P_oxyspora,SRR9590829.180913,100.00,37,0,0,1,37,121,85,3e-12,69.4
SONDA_P_oxyspora,SRR9590829.180913,97.30,37,1,0,1,37,405,441,1e-10,63.9
SONDA_P_oxyspora,SRR9590829.180626,100.00,37,0,0,1,37,121,85,3e-12,69.4
SONDA_P_oxyspora,SRR9590829.180306,100.00,37,0,0,1,37,121,85,3e-12,69.4
SONDA_P_oxyspora,SRR9590829.180306,100.00,37,0,0,1,37,405,441,3e-12,69.4
SONDA_P_oxyspora,SRR9590829.179307,100.00,37,0,0,1,37,121,85,3e-12,69.4
SONDA_P_oxyspora,SRR9590829.179307,100.00,37,0,0,1,37,405,441,3e-12,69.4
SONDA_P_oxyspora,SRR9590829.178584,100.00,37,0,0,1,37,121,85,3e-12,69.4
SONDA_P_oxyspora,SRR9590829.178497,100.00,37,0,0,1,37,121,85,3e-12,69.4
SONDA_P_oxyspora,SRR9590829.178497,100.00,37,0,0,1,37,405,441,3e-12,69.4
SONDA_P_oxyspora,SRR9590829.178377,100.00,37,0,0,1,37,121,85,3e-12,69.4
SONDA_P_oxyspora,SRR9590829.178373,100.00,37,0,0,1,37,121,85,3e-12,69.4
