SONDA_P_oxyspora,SRR9590833.448216,100.00,37,0,0,1,37,121,85,4e-12,69.4
SONDA_P_oxyspora,SRR9590833.447213,100.00,37,0,0,1,37,121,85,4e-12,69.4
SONDA_P_oxyspora,SRR9590833.447213,100.00,37,0,0,1,37,405,441,4e-12,69.4
SONDA_P_oxyspora,SRR9590833.446977,100.00,37,0,0,1,37,121,85,4e-12,69.4
SONDA_P_oxyspora,SRR9590833.446738,100.00,37,0,0,1,37,121,85,4e-12,69.4
SONDA_P_oxyspora,SRR9590833.446738,100.00,33,0,0,1,33,405,437,6e-10,62.1
SONDA_P_oxyspora,SRR9590833.446724,100.00,37,0,0,1,37,121,85,4e-12,69.4
SONDA_P_oxyspora,SRR9590833.446721,100.00,37,0,0,1,37,121,85,4e-12,69.4
SONDA_P_oxyspora,SRR9590833.446721,100.00,37,0,0,1,37,405,441,4e-12,69.4
SONDA_P_oxyspora,SRR9590833.446714,100.00,37,0,0,1,37,121,85,4e-12,69.4
SONDA_P_oxyspora,SRR9590833.446714,97.30,37,1,0,1,37,405,441,2e-10,63.9
SONDA_P_oxyspora,SRR9590833.446705,100.00,37,0,0,1,37,121,85,4e-12,69.4
SONDA_P_oxyspora,SRR9590833.446705,100.00,37,0,0,1,37,405,441,4e-12,69.4
SONDA_P_oxyspora,SRR9590833.446064,100.00,37,0,0,1,37,121,85,4e-12,69.4
SONDA_P_oxyspora,SRR9590833.445769,100.00,37,0,0,1,37,121,85,4e-12,69.4
SONDA_P_oxyspora,SRR9590833.445133,100.00,37,0,0,1,37,120,84,4e-12,69.4
SONDA_P_oxyspora,SRR9590833.445133,97.30,37,1,0,1,37,404,440,2e-10,63.9
SONDA_P_oxyspora,SRR9590833.445107,100.00,37,0,0,1,37,121,85,4e-12,69.4
SONDA_P_oxyspora,SRR9590833.445107,100.00,37,0,0,1,37,405,441,4e-12,69.4
SONDA_P_oxyspora,SRR9590833.444585,100.00,37,0,0,1,37,121,85,4e-12,69.4
SONDA_P_oxyspora,SRR9590833.443418,100.00,37,0,0,1,37,121,85,4e-12,69.4
SONDA_P_oxyspora,SRR9590833.443418,100.00,37,0,0,1,37,405,441,4e-12,69.4
SONDA_P_oxyspora,SRR9590833.443196,100.00,37,0,0,1,37,121,85,4e-12,69.4
SONDA_P_oxyspora,SRR9590833.443196,100.00,37,0,0,1,37,405,441,4e-12,69.4
SONDA_P_oxyspora,SRR9590833.442947,100.00,37,0,0,1,37,121,85,4e-12,69.4
SONDA_P_oxyspora,SRR9590833.442603,100.00,37,0,0,1,37,120,84,4e-12,69.4
SONDA_P_oxyspora,SRR9590833.442332,100.00,37,0,0,1,37,121,85,4e-12,69.4
SONDA_P_oxyspora,SRR9590833.442332,100.00,37,0,0,1,37,405,441,4e-12,69.4
SONDA_P_oxyspora,SRR9590833.442326,100.00,37,0,0,1,37,121,85,4e-12,69.4
SONDA_P_oxyspora,SRR9590833.442028,100.00,37,0,0,1,37,121,85,4e-12,69.4
SONDA_P_oxyspora,SRR9590833.441858,100.00,37,0,0,1,37,121,85,4e-12,69.4
SONDA_P_oxyspora,SRR9590833.441479,100.00,37,0,0,1,37,121,85,4e-12,69.4
SONDA_P_oxyspora,SRR9590833.441479,100.00,37,0,0,1,37,405,441,4e-12,69.4
SONDA_P_oxyspora,SRR9590833.441318,100.00,37,0,0,1,37,121,85,4e-12,69.4
SONDA_P_oxyspora,SRR9590833.441318,97.30,37,1,0,1,37,405,441,2e-10,63.9
SONDA_P_oxyspora,SRR9590833.440798,100.00,37,0,0,1,37,121,85,4e-12,69.4
SONDA_P_oxyspora,SRR9590833.440798,100.00,37,0,0,1,37,405,441,4e-12,69.4
SONDA_P_oxyspora,SRR9590833.440328,100.00,37,0,0,1,37,121,85,4e-12,69.4
SONDA_P_oxyspora,SRR9590833.440328,100.00,35,0,0,1,35,405,439,5e-11,65.8
SONDA_P_oxyspora,SRR9590833.440179,100.00,37,0,0,1,37,121,85,4e-12,69.4
SONDA_P_oxyspora,SRR9590833.440179,100.00,37,0,0,1,37,405,441,4e-12,69.4
SONDA_P_oxyspora,SRR9590833.439248,100.00,37,0,0,1,37,121,85,4e-12,69.4
SONDA_P_oxyspora,SRR9590833.439248,100.00,37,0,0,1,37,405,441,4e-12,69.4
SONDA_P_oxyspora,SRR9590833.438533,100.00,37,0,0,1,37,121,85,4e-12,69.4
SONDA_P_oxyspora,SRR9590833.438533,100.00,37,0,0,1,37,405,441,4e-12,69.4
SONDA_P_oxyspora,SRR9590833.438005,100.00,37,0,0,1,37,121,85,4e-12,69.4
SONDA_P_oxyspora,SRR9590833.437987,100.00,37,0,0,1,37,121,85,4e-12,69.4
SONDA_P_oxyspora,SRR9590833.437987,100.00,37,0,0,1,37,405,441,4e-12,69.4
SONDA_P_oxyspora,SRR9590833.436643,100.00,37,0,0,1,37,121,85,4e-12,69.4
SONDA_P_oxyspora,SRR9590833.436643,100.00,37,0,0,1,37,405,441,4e-12,69.4
SONDA_P_oxyspora,SRR9590833.436641,100.00,37,0,0,1,37,121,85,4e-12,69.4
SONDA_P_oxyspora,SRR9590833.436641,100.00,37,0,0,1,37,405,441,4e-12,69.4
SONDA_P_oxyspora,SRR9590833.436626,100.00,37,0,0,1,37,121,85,4e-12,69.4
SONDA_P_oxyspora,SRR9590833.435716,100.00,37,0,0,1,37,121,85,4e-12,69.4
SONDA_P_oxyspora,SRR9590833.435716,100.00,37,0,0,1,37,405,441,4e-12,69.4
SONDA_P_oxyspora,SRR9590833.435133,100.00,37,0,0,1,37,121,85,4e-12,69.4
SONDA_P_oxyspora,SRR9590833.435133,100.00,37,0,0,1,37,405,441,4e-12,69.4
SONDA_P_oxyspora,SRR9590833.435110,100.00,37,0,0,1,37,121,85,4e-12,69.4
SONDA_P_oxyspora,SRR9590833.434913,100.00,37,0,0,1,37,121,85,4e-12,69.4
SONDA_P_oxyspora,SRR9590833.434913,100.00,37,0,0,1,37,405,441,4e-12,69.4
SONDA_P_oxyspora,SRR9590833.434857,100.00,37,0,0,1,37,121,85,4e-12,69.4
SONDA_P_oxyspora,SRR9590833.434857,97.30,37,1,0,1,37,405,441,2e-10,63.9
SONDA_P_oxyspora,SRR9590833.434402,100.00,37,0,0,1,37,121,85,4e-12,69.4
SONDA_P_oxyspora,SRR9590833.434081,100.00,37,0,0,1,37,121,85,4e-12,69.4
SONDA_P_oxyspora,SRR9590833.434081,97.22,36,1,0,1,36,405,440,6e-10,62.1
SONDA_P_oxyspora,SRR9590833.434080,100.00,37,0,0,1,37,121,85,4e-12,69.4
SONDA_P_oxyspora,SRR9590833.434080,100.00,37,0,0,1,37,405,441,4e-12,69.4
SONDA_P_oxyspora,SRR9590833.433884,100.00,37,0,0,1,37,121,85,4e-12,69.4
SONDA_P_oxyspora,SRR9590833.433884,100.00,34,0,0,1,34,405,438,2e-10,63.9
SONDA_P_oxyspora,SRR9590833.433214,100.00,37,0,0,1,37,121,85,4e-12,69.4
SONDA_P_oxyspora,SRR9590833.433214,100.00,37,0,0,1,37,405,441,4e-12,69.4
SONDA_P_oxyspora,SRR9590833.433079,100.00,37,0,0,1,37,121,85,4e-12,69.4
SONDA_P_oxyspora,SRR9590833.433079,100.00,37,0,0,1,37,405,441,4e-12,69.4
SONDA_P_oxyspora,SRR9590833.432211,100.00,37,0,0,1,37,121,85,4e-12,69.4
SONDA_P_oxyspora,SRR9590833.431572,100.00,37,0,0,1,37,121,85,4e-12,69.4
SONDA_P_oxyspora,SRR9590833.430014,100.00,37,0,0,1,37,121,85,4e-12,69.4
SONDA_P_oxyspora,SRR9590833.430014,100.00,37,0,0,1,37,405,441,4e-12,69.4
SONDA_P_oxyspora,SRR9590833.428374,100.00,37,0,0,1,37,121,85,4e-12,69.4
SONDA_P_oxyspora,SRR9590833.428292,100.00,37,0,0,1,37,121,85,4e-12,69.4
SONDA_P_oxyspora,SRR9590833.428292,100.00,37,0,0,1,37,405,441,4e-12,69.4
SONDA_P_oxyspora,SRR9590833.428049,100.00,37,0,0,1,37,121,85,4e-12,69.4
SONDA_P_oxyspora,SRR9590833.427536,100.00,37,0,0,1,37,121,85,4e-12,69.4
SONDA_P_oxyspora,SRR9590833.427536,97.30,37,1,0,1,37,405,441,2e-10,63.9
SONDA_P_oxyspora,SRR9590833.426704,100.00,37,0,0,1,37,121,85,4e-12,69.4
SONDA_P_oxyspora,SRR9590833.426704,100.00,37,0,0,1,37,405,441,4e-12,69.4
SONDA_P_oxyspora,SRR9590833.426354,100.00,37,0,0,1,37,121,85,4e-12,69.4
SONDA_P_oxyspora,SRR9590833.426354,100.00,37,0,0,1,37,405,441,4e-12,69.4
SONDA_P_oxyspora,SRR9590833.426040,100.00,37,0,0,1,37,121,85,4e-12,69.4
SONDA_P_oxyspora,SRR9590833.426040,100.00,37,0,0,1,37,405,441,4e-12,69.4
SONDA_P_oxyspora,SRR9590833.426001,100.00,37,0,0,1,37,121,85,4e-12,69.4
SONDA_P_oxyspora,SRR9590833.426001,97.22,36,0,1,1,36,406,440,2e-09,60.2
SONDA_P_oxyspora,SRR9590833.424964,100.00,37,0,0,1,37,121,85,4e-12,69.4
SONDA_P_oxyspora,SRR9590833.424964,100.00,37,0,0,1,37,405,441,4e-12,69.4
SONDA_P_oxyspora,SRR9590833.424879,100.00,37,0,0,1,37,121,85,4e-12,69.4
SONDA_P_oxyspora,SRR9590833.424776,100.00,37,0,0,1,37,121,85,4e-12,69.4
SONDA_P_oxyspora,SRR9590833.424285,100.00,37,0,0,1,37,121,85,4e-12,69.4
SONDA_P_oxyspora,SRR9590833.424285,100.00,37,0,0,1,37,405,441,4e-12,69.4
SONDA_P_oxyspora,SRR9590833.423587,100.00,37,0,0,1,37,121,85,4e-12,69.4
SONDA_P_oxyspora,SRR9590833.423587,100.00,37,0,0,1,37,405,441,4e-12,69.4
SONDA_P_oxyspora,SRR9590833.423366,100.00,37,0,0,1,37,121,85,4e-12,69.4
SONDA_P_oxyspora,SRR9590833.423366,100.00,37,0,0,1,37,406,442,4e-12,69.4
SONDA_P_oxyspora,SRR9590833.422565,100.00,37,0,0,1,37,121,85,4e-12,69.4
SONDA_P_oxyspora,SRR9590833.422420,100.00,37,0,0,1,37,121,85,4e-12,69.4
SONDA_P_oxyspora,SRR9590833.422414,100.00,37,0,0,1,37,121,85,4e-12,69.4
SONDA_P_oxyspora,SRR9590833.422414,100.00,37,0,0,1,37,405,441,4e-12,69.4
SONDA_P_oxyspora,SRR9590833.422412,100.00,37,0,0,1,37,121,85,4e-12,69.4
SONDA_P_oxyspora,SRR9590833.422412,100.00,37,0,0,1,37,405,441,4e-12,69.4
SONDA_P_oxyspora,SRR9590833.422090,100.00,37,0,0,1,37,121,85,4e-12,69.4
SONDA_P_oxyspora,SRR9590833.422090,100.00,37,0,0,1,37,405,441,4e-12,69.4
SONDA_P_oxyspora,SRR9590833.421918,100.00,37,0,0,1,37,121,85,4e-12,69.4
SONDA_P_oxyspora,SRR9590833.421810,100.00,37,0,0,1,37,121,85,4e-12,69.4
SONDA_P_oxyspora,SRR9590833.421810,100.00,36,0,0,1,36,405,440,1e-11,67.6
SONDA_P_oxyspora,SRR9590833.421517,100.00,37,0,0,1,37,120,84,4e-12,69.4
SONDA_P_oxyspora,SRR9590833.419418,100.00,37,0,0,1,37,121,85,4e-12,69.4
SONDA_P_oxyspora,SRR9590833.419418,100.00,37,0,0,1,37,405,441,4e-12,69.4
SONDA_P_oxyspora,SRR9590833.418850,100.00,37,0,0,1,37,121,85,4e-12,69.4
SONDA_P_oxyspora,SRR9590833.418345,100.00,37,0,0,1,37,121,85,4e-12,69.4
SONDA_P_oxyspora,SRR9590833.418345,100.00,37,0,0,1,37,405,441,4e-12,69.4
SONDA_P_oxyspora,SRR9590833.418268,100.00,37,0,0,1,37,121,85,4e-12,69.4
SONDA_P_oxyspora,SRR9590833.417159,100.00,37,0,0,1,37,121,85,4e-12,69.4
SONDA_P_oxyspora,SRR9590833.417159,100.00,37,0,0,1,37,405,441,4e-12,69.4
SONDA_P_oxyspora,SRR9590833.416258,100.00,37,0,0,1,37,121,85,4e-12,69.4
SONDA_P_oxyspora,SRR9590833.415921,100.00,37,0,0,1,37,121,85,4e-12,69.4
SONDA_P_oxyspora,SRR9590833.415921,100.00,37,0,0,1,37,405,441,4e-12,69.4
SONDA_P_oxyspora,SRR9590833.415775,100.00,37,0,0,1,37,121,85,4e-12,69.4
SONDA_P_oxyspora,SRR9590833.415775,97.30,37,1,0,1,37,405,441,2e-10,63.9
SONDA_P_oxyspora,SRR9590833.415061,100.00,37,0,0,1,37,121,85,4e-12,69.4
SONDA_P_oxyspora,SRR9590833.414107,100.00,37,0,0,1,37,121,85,4e-12,69.4
SONDA_P_oxyspora,SRR9590833.411727,100.00,37,0,0,1,37,121,85,4e-12,69.4
SONDA_P_oxyspora,SRR9590833.411727,100.00,37,0,0,1,37,405,441,4e-12,69.4
SONDA_P_oxyspora,SRR9590833.411718,100.00,37,0,0,1,37,121,85,4e-12,69.4
SONDA_P_oxyspora,SRR9590833.411613,100.00,37,0,0,1,37,121,85,4e-12,69.4
SONDA_P_oxyspora,SRR9590833.411613,100.00,37,0,0,1,37,405,441,4e-12,69.4
SONDA_P_oxyspora,SRR9590833.411479,100.00,37,0,0,1,37,121,85,4e-12,69.4
SONDA_P_oxyspora,SRR9590833.411466,100.00,37,0,0,1,37,121,85,4e-12,69.4
SONDA_P_oxyspora,SRR9590833.411466,100.00,36,0,0,1,36,405,440,1e-11,67.6
SONDA_P_oxyspora,SRR9590833.411356,100.00,37,0,0,1,37,121,85,4e-12,69.4
SONDA_P_oxyspora,SRR9590833.411356,100.00,37,0,0,1,37,405,441,4e-12,69.4
SONDA_P_oxyspora,SRR9590833.408537,100.00,37,0,0,1,37,121,85,4e-12,69.4
SONDA_P_oxyspora,SRR9590833.408537,100.00,37,0,0,1,37,405,441,4e-12,69.4
SONDA_P_oxyspora,SRR9590833.408111,100.00,37,0,0,1,37,121,85,4e-12,69.4
SONDA_P_oxyspora,SRR9590833.407782,100.00,37,0,0,1,37,121,85,4e-12,69.4
SONDA_P_oxyspora,SRR9590833.407782,97.30,37,1,0,1,37,405,441,2e-10,63.9
SONDA_P_oxyspora,SRR9590833.406604,100.00,37,0,0,1,37,122,86,4e-12,69.4
SONDA_P_oxyspora,SRR9590833.406604,100.00,37,0,0,1,37,405,441,4e-12,69.4
SONDA_P_oxyspora,SRR9590833.405310,100.00,37,0,0,1,37,121,85,4e-12,69.4
SONDA_P_oxyspora,SRR9590833.405310,100.00,37,0,0,1,37,405,441,4e-12,69.4
SONDA_P_oxyspora,SRR9590833.405100,100.00,37,0,0,1,37,121,85,4e-12,69.4
SONDA_P_oxyspora,SRR9590833.405100,100.00,37,0,0,1,37,405,441,4e-12,69.4
SONDA_P_oxyspora,SRR9590833.405084,100.00,37,0,0,1,37,121,85,4e-12,69.4
SONDA_P_oxyspora,SRR9590833.404656,100.00,37,0,0,1,37,121,85,4e-12,69.4
SONDA_P_oxyspora,SRR9590833.404656,97.30,37,1,0,1,37,405,441,2e-10,63.9
SONDA_P_oxyspora,SRR9590833.403497,100.00,37,0,0,1,37,121,85,4e-12,69.4
SONDA_P_oxyspora,SRR9590833.403488,100.00,37,0,0,1,37,121,85,4e-12,69.4
SONDA_P_oxyspora,SRR9590833.403488,100.00,37,0,0,1,37,405,441,4e-12,69.4
SONDA_P_oxyspora,SRR9590833.403349,100.00,37,0,0,1,37,121,85,4e-12,69.4
SONDA_P_oxyspora,SRR9590833.403349,100.00,37,0,0,1,37,404,440,4e-12,69.4
SONDA_P_oxyspora,SRR9590833.402766,100.00,37,0,0,1,37,121,85,4e-12,69.4
SONDA_P_oxyspora,SRR9590833.402709,100.00,37,0,0,1,37,121,85,4e-12,69.4
SONDA_P_oxyspora,SRR9590833.402189,100.00,37,0,0,1,37,121,85,4e-12,69.4
SONDA_P_oxyspora,SRR9590833.402171,100.00,37,0,0,1,37,121,85,4e-12,69.4
SONDA_P_oxyspora,SRR9590833.402171,100.00,37,0,0,1,37,405,441,4e-12,69.4
SONDA_P_oxyspora,SRR9590833.402150,100.00,37,0,0,1,37,120,84,4e-12,69.4
SONDA_P_oxyspora,SRR9590833.402052,100.00,37,0,0,1,37,121,85,4e-12,69.4
SONDA_P_oxyspora,SRR9590833.402052,100.00,37,0,0,1,37,405,441,4e-12,69.4
SONDA_P_oxyspora,SRR9590833.402042,100.00,37,0,0,1,37,121,85,4e-12,69.4
SONDA_P_oxyspora,SRR9590833.402042,97.30,37,1,0,1,37,405,441,2e-10,63.9
SONDA_P_oxyspora,SRR9590833.400787,100.00,37,0,0,1,37,121,85,4e-12,69.4
SONDA_P_oxyspora,SRR9590833.399572,100.00,37,0,0,1,37,121,85,4e-12,69.4
SONDA_P_oxyspora,SRR9590833.399572,100.00,37,0,0,1,37,405,441,4e-12,69.4
SONDA_P_oxyspora,SRR9590833.398975,100.00,37,0,0,1,37,121,85,4e-12,69.4
SONDA_P_oxyspora,SRR9590833.398975,100.00,37,0,0,1,37,405,441,4e-12,69.4
SONDA_P_oxyspora,SRR9590833.398864,100.00,37,0,0,1,37,121,85,4e-12,69.4
SONDA_P_oxyspora,SRR9590833.397977,100.00,37,0,0,1,37,121,85,4e-12,69.4
SONDA_P_oxyspora,SRR9590833.397752,100.00,37,0,0,1,37,121,85,4e-12,69.4
SONDA_P_oxyspora,SRR9590833.397124,100.00,37,0,0,1,37,121,85,4e-12,69.4
SONDA_P_oxyspora,SRR9590833.397024,100.00,37,0,0,1,37,120,84,4e-12,69.4
SONDA_P_oxyspora,SRR9590833.397024,97.30,37,1,0,1,37,404,440,2e-10,63.9
SONDA_P_oxyspora,SRR9590833.395988,100.00,37,0,0,1,37,121,85,4e-12,69.4
SONDA_P_oxyspora,SRR9590833.395988,100.00,37,0,0,1,37,405,441,4e-12,69.4
SONDA_P_oxyspora,SRR9590833.395835,100.00,37,0,0,1,37,121,85,4e-12,69.4
SONDA_P_oxyspora,SRR9590833.394350,100.00,37,0,0,1,37,121,85,4e-12,69.4
SONDA_P_oxyspora,SRR9590833.394350,100.00,37,0,0,1,37,405,441,4e-12,69.4
SONDA_P_oxyspora,SRR9590833.394171,100.00,37,0,0,1,37,121,85,4e-12,69.4
SONDA_P_oxyspora,SRR9590833.394171,100.00,37,0,0,1,37,405,441,4e-12,69.4
SONDA_P_oxyspora,SRR9590833.393854,100.00,37,0,0,1,37,121,85,4e-12,69.4
SONDA_P_oxyspora,SRR9590833.393854,100.00,37,0,0,1,37,405,441,4e-12,69.4
SONDA_P_oxyspora,SRR9590833.393413,100.00,37,0,0,1,37,121,85,4e-12,69.4
SONDA_P_oxyspora,SRR9590833.393413,100.00,37,0,0,1,37,405,441,4e-12,69.4
SONDA_P_oxyspora,SRR9590833.393289,100.00,37,0,0,1,37,121,85,4e-12,69.4
SONDA_P_oxyspora,SRR9590833.392509,100.00,37,0,0,1,37,121,85,4e-12,69.4
SONDA_P_oxyspora,SRR9590833.392509,100.00,37,0,0,1,37,405,441,4e-12,69.4
SONDA_P_oxyspora,SRR9590833.392452,100.00,37,0,0,1,37,121,85,4e-12,69.4
SONDA_P_oxyspora,SRR9590833.392278,100.00,37,0,0,1,37,121,85,4e-12,69.4
SONDA_P_oxyspora,SRR9590833.392278,100.00,37,0,0,1,37,405,441,4e-12,69.4
SONDA_P_oxyspora,SRR9590833.392182,100.00,37,0,0,1,37,121,85,4e-12,69.4
SONDA_P_oxyspora,SRR9590833.392182,97.30,37,1,0,1,37,405,441,2e-10,63.9
SONDA_P_oxyspora,SRR9590833.391858,100.00,37,0,0,1,37,121,85,4e-12,69.4
SONDA_P_oxyspora,SRR9590833.391858,100.00,37,0,0,1,37,405,441,4e-12,69.4
SONDA_P_oxyspora,SRR9590833.391753,100.00,37,0,0,1,37,121,85,4e-12,69.4
SONDA_P_oxyspora,SRR9590833.391158,100.00,37,0,0,1,37,121,85,4e-12,69.4
SONDA_P_oxyspora,SRR9590833.391142,100.00,37,0,0,1,37,121,85,4e-12,69.4
SONDA_P_oxyspora,SRR9590833.391142,100.00,37,0,0,1,37,405,441,4e-12,69.4
SONDA_P_oxyspora,SRR9590833.391052,100.00,37,0,0,1,37,121,85,4e-12,69.4
SONDA_P_oxyspora,SRR9590833.391052,100.00,37,0,0,1,37,405,441,4e-12,69.4
SONDA_P_oxyspora,SRR9590833.391035,100.00,37,0,0,1,37,121,85,4e-12,69.4
SONDA_P_oxyspora,SRR9590833.391035,100.00,33,0,0,1,33,405,437,6e-10,62.1
SONDA_P_oxyspora,SRR9590833.391025,100.00,37,0,0,1,37,121,85,4e-12,69.4
SONDA_P_oxyspora,SRR9590833.390361,100.00,37,0,0,1,37,121,85,4e-12,69.4
SONDA_P_oxyspora,SRR9590833.390361,100.00,37,0,0,1,37,405,441,4e-12,69.4
SONDA_P_oxyspora,SRR9590833.389063,100.00,37,0,0,1,37,121,85,4e-12,69.4
SONDA_P_oxyspora,SRR9590833.389063,100.00,37,0,0,1,37,405,441,4e-12,69.4
SONDA_P_oxyspora,SRR9590833.388756,100.00,37,0,0,1,37,121,85,4e-12,69.4
SONDA_P_oxyspora,SRR9590833.388749,100.00,37,0,0,1,37,121,85,4e-12,69.4
SONDA_P_oxyspora,SRR9590833.388749,100.00,37,0,0,1,37,405,441,4e-12,69.4
SONDA_P_oxyspora,SRR9590833.388695,100.00,37,0,0,1,37,121,85,4e-12,69.4
SONDA_P_oxyspora,SRR9590833.388695,100.00,37,0,0,1,37,405,441,4e-12,69.4
SONDA_P_oxyspora,SRR9590833.387767,100.00,37,0,0,1,37,121,85,4e-12,69.4
SONDA_P_oxyspora,SRR9590833.387767,100.00,37,0,0,1,37,405,441,4e-12,69.4
SONDA_P_oxyspora,SRR9590833.387177,100.00,37,0,0,1,37,121,85,4e-12,69.4
SONDA_P_oxyspora,SRR9590833.387177,100.00,37,0,0,1,37,405,441,4e-12,69.4
SONDA_P_oxyspora,SRR9590833.387163,100.00,37,0,0,1,37,121,85,4e-12,69.4
SONDA_P_oxyspora,SRR9590833.386993,100.00,37,0,0,1,37,121,85,4e-12,69.4
SONDA_P_oxyspora,SRR9590833.386993,100.00,37,0,0,1,37,405,441,4e-12,69.4
SONDA_P_oxyspora,SRR9590833.386992,100.00,37,0,0,1,37,121,85,4e-12,69.4
SONDA_P_oxyspora,SRR9590833.386992,100.00,37,0,0,1,37,405,441,4e-12,69.4
SONDA_P_oxyspora,SRR9590833.386391,100.00,37,0,0,1,37,121,85,4e-12,69.4
SONDA_P_oxyspora,SRR9590833.386391,100.00,37,0,0,1,37,405,441,4e-12,69.4
SONDA_P_oxyspora,SRR9590833.386381,100.00,37,0,0,1,37,121,85,4e-12,69.4
SONDA_P_oxyspora,SRR9590833.385940,100.00,37,0,0,1,37,121,85,4e-12,69.4
SONDA_P_oxyspora,SRR9590833.385940,100.00,37,0,0,1,37,405,441,4e-12,69.4
SONDA_P_oxyspora,SRR9590833.385339,100.00,37,0,0,1,37,121,85,4e-12,69.4
SONDA_P_oxyspora,SRR9590833.385018,100.00,37,0,0,1,37,121,85,4e-12,69.4
SONDA_P_oxyspora,SRR9590833.384135,100.00,37,0,0,1,37,121,85,4e-12,69.4
SONDA_P_oxyspora,SRR9590833.384135,100.00,37,0,0,1,37,405,441,4e-12,69.4
SONDA_P_oxyspora,SRR9590833.383081,100.00,37,0,0,1,37,121,85,4e-12,69.4
SONDA_P_oxyspora,SRR9590833.383081,100.00,37,0,0,1,37,405,441,4e-12,69.4
SONDA_P_oxyspora,SRR9590833.382182,100.00,37,0,0,1,37,121,85,4e-12,69.4
SONDA_P_oxyspora,SRR9590833.381812,100.00,37,0,0,1,37,121,85,4e-12,69.4
SONDA_P_oxyspora,SRR9590833.381671,100.00,37,0,0,1,37,121,85,4e-12,69.4
SONDA_P_oxyspora,SRR9590833.380511,100.00,37,0,0,1,37,121,85,4e-12,69.4
SONDA_P_oxyspora,SRR9590833.380511,100.00,37,0,0,1,37,405,441,4e-12,69.4
SONDA_P_oxyspora,SRR9590833.380440,100.00,37,0,0,1,37,121,85,4e-12,69.4
SONDA_P_oxyspora,SRR9590833.379553,100.00,37,0,0,1,37,121,85,4e-12,69.4
SONDA_P_oxyspora,SRR9590833.379553,100.00,37,0,0,1,37,405,441,4e-12,69.4
SONDA_P_oxyspora,SRR9590833.378813,100.00,37,0,0,1,37,121,85,4e-12,69.4
SONDA_P_oxyspora,SRR9590833.378813,100.00,37,0,0,1,37,405,441,4e-12,69.4
SONDA_P_oxyspora,SRR9590833.377682,100.00,37,0,0,1,37,121,85,4e-12,69.4
SONDA_P_oxyspora,SRR9590833.377682,97.06,34,1,0,1,34,405,438,8e-09,58.4
SONDA_P_oxyspora,SRR9590833.377585,100.00,37,0,0,1,37,121,85,4e-12,69.4
SONDA_P_oxyspora,SRR9590833.377585,100.00,37,0,0,1,37,405,441,4e-12,69.4
SONDA_P_oxyspora,SRR9590833.377571,100.00,37,0,0,1,37,121,85,4e-12,69.4
SONDA_P_oxyspora,SRR9590833.377008,100.00,37,0,0,1,37,121,85,4e-12,69.4
SONDA_P_oxyspora,SRR9590833.377008,100.00,37,0,0,1,37,405,441,4e-12,69.4
SONDA_P_oxyspora,SRR9590833.376627,100.00,37,0,0,1,37,121,85,4e-12,69.4
SONDA_P_oxyspora,SRR9590833.376425,100.00,37,0,0,1,37,121,85,4e-12,69.4
SONDA_P_oxyspora,SRR9590833.375919,100.00,37,0,0,1,37,121,85,4e-12,69.4
SONDA_P_oxyspora,SRR9590833.375919,100.00,37,0,0,1,37,405,441,4e-12,69.4
SONDA_P_oxyspora,SRR9590833.374515,100.00,37,0,0,1,37,121,85,4e-12,69.4
SONDA_P_oxyspora,SRR9590833.374392,100.00,37,0,0,1,37,121,85,4e-12,69.4
SONDA_P_oxyspora,SRR9590833.374392,100.00,37,0,0,1,37,405,441,4e-12,69.4
SONDA_P_oxyspora,SRR9590833.373342,100.00,37,0,0,1,37,121,85,4e-12,69.4
SONDA_P_oxyspora,SRR9590833.373342,100.00,37,0,0,1,37,405,441,4e-12,69.4
SONDA_P_oxyspora,SRR9590833.372829,100.00,37,0,0,1,37,121,85,4e-12,69.4
SONDA_P_oxyspora,SRR9590833.372829,100.00,37,0,0,1,37,405,441,4e-12,69.4
SONDA_P_oxyspora,SRR9590833.372703,100.00,37,0,0,1,37,121,85,4e-12,69.4
SONDA_P_oxyspora,SRR9590833.372369,100.00,37,0,0,1,37,121,85,4e-12,69.4
SONDA_P_oxyspora,SRR9590833.372335,100.00,37,0,0,1,37,121,85,4e-12,69.4
SONDA_P_oxyspora,SRR9590833.371599,100.00,37,0,0,1,37,121,85,4e-12,69.4
SONDA_P_oxyspora,SRR9590833.371599,100.00,37,0,0,1,37,405,441,4e-12,69.4
SONDA_P_oxyspora,SRR9590833.370909,100.00,37,0,0,1,37,121,85,4e-12,69.4
SONDA_P_oxyspora,SRR9590833.370492,100.00,37,0,0,1,37,121,85,4e-12,69.4
SONDA_P_oxyspora,SRR9590833.370188,100.00,37,0,0,1,37,121,85,4e-12,69.4
SONDA_P_oxyspora,SRR9590833.370188,100.00,37,0,0,1,37,405,441,4e-12,69.4
SONDA_P_oxyspora,SRR9590833.370151,100.00,37,0,0,1,37,121,85,4e-12,69.4
SONDA_P_oxyspora,SRR9590833.370151,100.00,37,0,0,1,37,405,441,4e-12,69.4
SONDA_P_oxyspora,SRR9590833.370142,100.00,37,0,0,1,37,121,85,4e-12,69.4
SONDA_P_oxyspora,SRR9590833.369776,100.00,37,0,0,1,37,121,85,4e-12,69.4
SONDA_P_oxyspora,SRR9590833.369361,100.00,37,0,0,1,37,121,85,4e-12,69.4
SONDA_P_oxyspora,SRR9590833.369361,100.00,37,0,0,1,37,405,441,4e-12,69.4
SONDA_P_oxyspora,SRR9590833.369060,100.00,37,0,0,1,37,121,85,4e-12,69.4
SONDA_P_oxyspora,SRR9590833.369060,100.00,37,0,0,1,37,405,441,4e-12,69.4
SONDA_P_oxyspora,SRR9590833.369048,100.00,37,0,0,1,37,121,85,4e-12,69.4
SONDA_P_oxyspora,SRR9590833.369035,100.00,37,0,0,1,37,121,85,4e-12,69.4
SONDA_P_oxyspora,SRR9590833.369035,100.00,35,0,0,1,35,405,439,5e-11,65.8
SONDA_P_oxyspora,SRR9590833.368944,100.00,37,0,0,1,37,121,85,4e-12,69.4
SONDA_P_oxyspora,SRR9590833.368940,100.00,37,0,0,1,37,121,85,4e-12,69.4
SONDA_P_oxyspora,SRR9590833.368937,100.00,37,0,0,1,37,121,85,4e-12,69.4
SONDA_P_oxyspora,SRR9590833.368170,100.00,37,0,0,1,37,121,85,4e-12,69.4
SONDA_P_oxyspora,SRR9590833.368170,100.00,37,0,0,1,37,405,441,4e-12,69.4
SONDA_P_oxyspora,SRR9590833.368091,100.00,37,0,0,1,37,121,85,4e-12,69.4
SONDA_P_oxyspora,SRR9590833.368081,100.00,37,0,0,1,37,121,85,4e-12,69.4
SONDA_P_oxyspora,SRR9590833.367554,100.00,37,0,0,1,37,405,441,4e-12,69.4
SONDA_P_oxyspora,SRR9590833.365705,100.00,37,0,0,1,37,121,85,4e-12,69.4
SONDA_P_oxyspora,SRR9590833.365311,100.00,37,0,0,1,37,121,85,4e-12,69.4
SONDA_P_oxyspora,SRR9590833.365311,100.00,37,0,0,1,37,405,441,4e-12,69.4
SONDA_P_oxyspora,SRR9590833.365139,100.00,37,0,0,1,37,121,85,4e-12,69.4
SONDA_P_oxyspora,SRR9590833.365050,100.00,37,0,0,1,37,121,85,4e-12,69.4
SONDA_P_oxyspora,SRR9590833.365050,97.30,37,1,0,1,37,405,441,2e-10,63.9
SONDA_P_oxyspora,SRR9590833.364946,100.00,37,0,0,1,37,121,85,4e-12,69.4
SONDA_P_oxyspora,SRR9590833.364719,100.00,37,0,0,1,37,121,85,4e-12,69.4
SONDA_P_oxyspora,SRR9590833.364719,100.00,37,0,0,1,37,405,441,4e-12,69.4
SONDA_P_oxyspora,SRR9590833.364713,100.00,37,0,0,1,37,121,85,4e-12,69.4
SONDA_P_oxyspora,SRR9590833.364474,100.00,37,0,0,1,37,121,85,4e-12,69.4
SONDA_P_oxyspora,SRR9590833.364474,100.00,35,0,0,1,35,405,439,5e-11,65.8
SONDA_P_oxyspora,SRR9590833.364233,100.00,37,0,0,1,37,121,85,4e-12,69.4
SONDA_P_oxyspora,SRR9590833.364233,97.30,37,1,0,1,37,405,441,2e-10,63.9
SONDA_P_oxyspora,SRR9590833.363997,100.00,37,0,0,1,37,121,85,4e-12,69.4
SONDA_P_oxyspora,SRR9590833.363997,100.00,37,0,0,1,37,405,441,4e-12,69.4
SONDA_P_oxyspora,SRR9590833.363539,100.00,37,0,0,1,37,121,85,4e-12,69.4
SONDA_P_oxyspora,SRR9590833.363539,100.00,37,0,0,1,37,405,441,4e-12,69.4
SONDA_P_oxyspora,SRR9590833.363167,100.00,37,0,0,1,37,121,85,4e-12,69.4
SONDA_P_oxyspora,SRR9590833.363161,100.00,37,0,0,1,37,121,85,4e-12,69.4
SONDA_P_oxyspora,SRR9590833.363161,100.00,37,0,0,1,37,405,441,4e-12,69.4
SONDA_P_oxyspora,SRR9590833.361752,100.00,37,0,0,1,37,121,85,4e-12,69.4
SONDA_P_oxyspora,SRR9590833.361752,97.30,37,1,0,1,37,405,441,2e-10,63.9
SONDA_P_oxyspora,SRR9590833.361260,100.00,37,0,0,1,37,121,85,4e-12,69.4
SONDA_P_oxyspora,SRR9590833.361260,100.00,37,0,0,1,37,405,441,4e-12,69.4
SONDA_P_oxyspora,SRR9590833.360748,100.00,37,0,0,1,37,121,85,4e-12,69.4
SONDA_P_oxyspora,SRR9590833.360748,100.00,37,0,0,1,37,405,441,4e-12,69.4
SONDA_P_oxyspora,SRR9590833.360512,100.00,37,0,0,1,37,121,85,4e-12,69.4
SONDA_P_oxyspora,SRR9590833.360512,94.59,37,2,0,1,37,405,441,8e-09,58.4
SONDA_P_oxyspora,SRR9590833.359697,100.00,37,0,0,1,37,121,85,4e-12,69.4
SONDA_P_oxyspora,SRR9590833.359090,100.00,37,0,0,1,37,121,85,4e-12,69.4
SONDA_P_oxyspora,SRR9590833.358968,100.00,37,0,0,1,37,121,85,4e-12,69.4
SONDA_P_oxyspora,SRR9590833.358968,100.00,37,0,0,1,37,405,441,4e-12,69.4
SONDA_P_oxyspora,SRR9590833.358695,100.00,37,0,0,1,37,121,85,4e-12,69.4
SONDA_P_oxyspora,SRR9590833.358695,100.00,32,0,0,1,32,405,436,2e-09,60.2
SONDA_P_oxyspora,SRR9590833.357772,100.00,37,0,0,1,37,121,85,4e-12,69.4
SONDA_P_oxyspora,SRR9590833.357772,100.00,37,0,0,1,37,405,441,4e-12,69.4
SONDA_P_oxyspora,SRR9590833.357677,100.00,37,0,0,1,37,121,85,4e-12,69.4
SONDA_P_oxyspora,SRR9590833.357677,100.00,37,0,0,1,37,405,441,4e-12,69.4
SONDA_P_oxyspora,SRR9590833.357552,100.00,37,0,0,1,37,121,85,4e-12,69.4
SONDA_P_oxyspora,SRR9590833.357552,100.00,37,0,0,1,37,405,441,4e-12,69.4
SONDA_P_oxyspora,SRR9590833.357495,100.00,37,0,0,1,37,121,85,4e-12,69.4
SONDA_P_oxyspora,SRR9590833.357495,100.00,37,0,0,1,37,405,441,4e-12,69.4
SONDA_P_oxyspora,SRR9590833.357461,100.00,37,0,0,1,37,121,85,4e-12,69.4
SONDA_P_oxyspora,SRR9590833.357461,97.14,35,1,0,1,35,405,439,2e-09,60.2
SONDA_P_oxyspora,SRR9590833.356676,100.00,37,0,0,1,37,121,85,4e-12,69.4
SONDA_P_oxyspora,SRR9590833.356676,100.00,37,0,0,1,37,405,441,4e-12,69.4
SONDA_P_oxyspora,SRR9590833.356323,100.00,37,0,0,1,37,121,85,4e-12,69.4
SONDA_P_oxyspora,SRR9590833.356323,100.00,37,0,0,1,37,405,441,4e-12,69.4
SONDA_P_oxyspora,SRR9590833.356266,100.00,37,0,0,1,37,121,85,4e-12,69.4
SONDA_P_oxyspora,SRR9590833.356266,100.00,37,0,0,1,37,405,441,4e-12,69.4
SONDA_P_oxyspora,SRR9590833.355760,100.00,37,0,0,1,37,121,85,4e-12,69.4
SONDA_P_oxyspora,SRR9590833.355760,100.00,37,0,0,1,37,405,441,4e-12,69.4
SONDA_P_oxyspora,SRR9590833.354300,100.00,37,0,0,1,37,121,85,4e-12,69.4
SONDA_P_oxyspora,SRR9590833.354300,100.00,37,0,0,1,37,405,441,4e-12,69.4
SONDA_P_oxyspora,SRR9590833.354144,100.00,37,0,0,1,37,121,85,4e-12,69.4
SONDA_P_oxyspora,SRR9590833.354144,100.00,37,0,0,1,37,405,441,4e-12,69.4
SONDA_P_oxyspora,SRR9590833.353679,100.00,37,0,0,1,37,121,85,4e-12,69.4
SONDA_P_oxyspora,SRR9590833.353000,100.00,37,0,0,1,37,121,85,4e-12,69.4
SONDA_P_oxyspora,SRR9590833.352632,100.00,37,0,0,1,37,121,85,4e-12,69.4
SONDA_P_oxyspora,SRR9590833.352632,100.00,37,0,0,1,37,405,441,4e-12,69.4
SONDA_P_oxyspora,SRR9590833.352266,100.00,37,0,0,1,37,121,85,4e-12,69.4
SONDA_P_oxyspora,SRR9590833.352266,100.00,37,0,0,1,37,405,441,4e-12,69.4
SONDA_P_oxyspora,SRR9590833.352019,100.00,37,0,0,1,37,121,85,4e-12,69.4
SONDA_P_oxyspora,SRR9590833.352019,100.00,37,0,0,1,37,405,441,4e-12,69.4
SONDA_P_oxyspora,SRR9590833.352013,100.00,37,0,0,1,37,121,85,4e-12,69.4
SONDA_P_oxyspora,SRR9590833.352013,100.00,37,0,0,1,37,405,441,4e-12,69.4
SONDA_P_oxyspora,SRR9590833.350960,100.00,37,0,0,1,37,121,85,4e-12,69.4
SONDA_P_oxyspora,SRR9590833.350960,97.30,37,1,0,1,37,405,441,2e-10,63.9
SONDA_P_oxyspora,SRR9590833.350861,100.00,37,0,0,1,37,120,84,4e-12,69.4
SONDA_P_oxyspora,SRR9590833.350526,100.00,37,0,0,1,37,121,85,4e-12,69.4
SONDA_P_oxyspora,SRR9590833.350526,100.00,37,0,0,1,37,405,441,4e-12,69.4
SONDA_P_oxyspora,SRR9590833.350317,100.00,37,0,0,1,37,121,85,4e-12,69.4
SONDA_P_oxyspora,SRR9590833.350317,100.00,37,0,0,1,37,405,441,4e-12,69.4
SONDA_P_oxyspora,SRR9590833.349447,100.00,37,0,0,1,37,121,85,4e-12,69.4
SONDA_P_oxyspora,SRR9590833.349053,100.00,37,0,0,1,37,121,85,4e-12,69.4
SONDA_P_oxyspora,SRR9590833.349053,100.00,37,0,0,1,37,405,441,4e-12,69.4
SONDA_P_oxyspora,SRR9590833.348831,100.00,37,0,0,1,37,121,85,4e-12,69.4
SONDA_P_oxyspora,SRR9590833.348831,100.00,37,0,0,1,37,405,441,4e-12,69.4
SONDA_P_oxyspora,SRR9590833.348147,100.00,37,0,0,1,37,121,85,4e-12,69.4
SONDA_P_oxyspora,SRR9590833.348147,100.00,37,0,0,1,37,405,441,4e-12,69.4
SONDA_P_oxyspora,SRR9590833.348059,100.00,37,0,0,1,37,121,85,4e-12,69.4
SONDA_P_oxyspora,SRR9590833.346758,100.00,37,0,0,1,37,121,85,4e-12,69.4
SONDA_P_oxyspora,SRR9590833.346758,100.00,37,0,0,1,37,405,441,4e-12,69.4
SONDA_P_oxyspora,SRR9590833.346520,100.00,37,0,0,1,37,121,85,4e-12,69.4
SONDA_P_oxyspora,SRR9590833.345437,100.00,37,0,0,1,37,120,84,4e-12,69.4
SONDA_P_oxyspora,SRR9590833.345437,100.00,37,0,0,1,37,402,438,4e-12,69.4
SONDA_P_oxyspora,SRR9590833.345334,100.00,37,0,0,1,37,121,85,4e-12,69.4
SONDA_P_oxyspora,SRR9590833.344539,100.00,37,0,0,1,37,121,85,4e-12,69.4
SONDA_P_oxyspora,SRR9590833.344533,100.00,37,0,0,1,37,121,85,4e-12,69.4
SONDA_P_oxyspora,SRR9590833.343404,100.00,37,0,0,1,37,121,85,4e-12,69.4
SONDA_P_oxyspora,SRR9590833.343404,100.00,37,0,0,1,37,405,441,4e-12,69.4
SONDA_P_oxyspora,SRR9590833.343398,100.00,37,0,0,1,37,121,85,4e-12,69.4
SONDA_P_oxyspora,SRR9590833.343398,100.00,37,0,0,1,37,405,441,4e-12,69.4
SONDA_P_oxyspora,SRR9590833.342928,100.00,37,0,0,1,37,121,85,4e-12,69.4
SONDA_P_oxyspora,SRR9590833.342928,100.00,37,0,0,1,37,405,441,4e-12,69.4
SONDA_P_oxyspora,SRR9590833.342876,100.00,37,0,0,1,37,121,85,4e-12,69.4
SONDA_P_oxyspora,SRR9590833.342876,100.00,35,0,0,1,35,405,439,5e-11,65.8
SONDA_P_oxyspora,SRR9590833.342346,100.00,37,0,0,1,37,121,85,4e-12,69.4
SONDA_P_oxyspora,SRR9590833.342346,100.00,37,0,0,1,37,405,441,4e-12,69.4
SONDA_P_oxyspora,SRR9590833.341917,100.00,37,0,0,1,37,121,85,4e-12,69.4
SONDA_P_oxyspora,SRR9590833.341917,100.00,37,0,0,1,37,405,441,4e-12,69.4
SONDA_P_oxyspora,SRR9590833.341866,100.00,37,0,0,1,37,121,85,4e-12,69.4
SONDA_P_oxyspora,SRR9590833.341866,100.00,37,0,0,1,37,405,441,4e-12,69.4
SONDA_P_oxyspora,SRR9590833.341842,100.00,37,0,0,1,37,121,85,4e-12,69.4
SONDA_P_oxyspora,SRR9590833.341842,100.00,37,0,0,1,37,405,441,4e-12,69.4
SONDA_P_oxyspora,SRR9590833.339402,100.00,37,0,0,1,37,121,85,4e-12,69.4
SONDA_P_oxyspora,SRR9590833.339402,100.00,37,0,0,1,37,405,441,4e-12,69.4
SONDA_P_oxyspora,SRR9590833.339019,100.00,37,0,0,1,37,121,85,4e-12,69.4
SONDA_P_oxyspora,SRR9590833.339019,100.00,37,0,0,1,37,405,441,4e-12,69.4
SONDA_P_oxyspora,SRR9590833.338883,100.00,37,0,0,1,37,121,85,4e-12,69.4
SONDA_P_oxyspora,SRR9590833.338878,100.00,37,0,0,1,37,121,85,4e-12,69.4
SONDA_P_oxyspora,SRR9590833.338878,100.00,37,0,0,1,37,405,441,4e-12,69.4
SONDA_P_oxyspora,SRR9590833.338073,100.00,37,0,0,1,37,121,85,4e-12,69.4
SONDA_P_oxyspora,SRR9590833.338073,100.00,37,0,0,1,37,405,441,4e-12,69.4
SONDA_P_oxyspora,SRR9590833.338024,100.00,37,0,0,1,37,121,85,4e-12,69.4
SONDA_P_oxyspora,SRR9590833.337812,100.00,37,0,0,1,37,121,85,4e-12,69.4
SONDA_P_oxyspora,SRR9590833.337810,100.00,37,0,0,1,37,121,85,4e-12,69.4
SONDA_P_oxyspora,SRR9590833.337650,100.00,37,0,0,1,37,121,85,4e-12,69.4
SONDA_P_oxyspora,SRR9590833.337650,100.00,37,0,0,1,37,405,441,4e-12,69.4
SONDA_P_oxyspora,SRR9590833.337505,100.00,37,0,0,1,37,121,85,4e-12,69.4
SONDA_P_oxyspora,SRR9590833.337505,100.00,37,0,0,1,37,405,441,4e-12,69.4
SONDA_P_oxyspora,SRR9590833.337422,100.00,37,0,0,1,37,121,85,4e-12,69.4
SONDA_P_oxyspora,SRR9590833.337422,100.00,37,0,0,1,37,405,441,4e-12,69.4
SONDA_P_oxyspora,SRR9590833.337053,100.00,37,0,0,1,37,121,85,4e-12,69.4
SONDA_P_oxyspora,SRR9590833.337053,100.00,32,0,0,1,32,405,436,2e-09,60.2
SONDA_P_oxyspora,SRR9590833.336394,100.00,37,0,0,1,37,121,85,4e-12,69.4
SONDA_P_oxyspora,SRR9590833.336394,100.00,37,0,0,1,37,405,441,4e-12,69.4
SONDA_P_oxyspora,SRR9590833.336389,100.00,37,0,0,1,37,121,85,4e-12,69.4
SONDA_P_oxyspora,SRR9590833.336389,100.00,37,0,0,1,37,405,441,4e-12,69.4
SONDA_P_oxyspora,SRR9590833.336272,100.00,37,0,0,1,37,121,85,4e-12,69.4
SONDA_P_oxyspora,SRR9590833.335528,100.00,37,0,0,1,37,121,85,4e-12,69.4
SONDA_P_oxyspora,SRR9590833.335104,100.00,37,0,0,1,37,121,85,4e-12,69.4
SONDA_P_oxyspora,SRR9590833.335104,100.00,37,0,0,1,37,405,441,4e-12,69.4
SONDA_P_oxyspora,SRR9590833.334913,100.00,37,0,0,1,37,121,85,4e-12,69.4
SONDA_P_oxyspora,SRR9590833.334347,100.00,37,0,0,1,37,121,85,4e-12,69.4
SONDA_P_oxyspora,SRR9590833.334347,100.00,37,0,0,1,37,405,441,4e-12,69.4
SONDA_P_oxyspora,SRR9590833.334345,100.00,37,0,0,1,37,121,85,4e-12,69.4
SONDA_P_oxyspora,SRR9590833.334345,100.00,34,0,0,1,34,405,438,2e-10,63.9
SONDA_P_oxyspora,SRR9590833.334063,100.00,37,0,0,1,37,121,85,4e-12,69.4
SONDA_P_oxyspora,SRR9590833.333788,100.00,37,0,0,1,37,121,85,4e-12,69.4
SONDA_P_oxyspora,SRR9590833.333788,100.00,37,0,0,1,37,405,441,4e-12,69.4
SONDA_P_oxyspora,SRR9590833.333685,100.00,37,0,0,1,37,405,441,4e-12,69.4
SONDA_P_oxyspora,SRR9590833.333075,100.00,37,0,0,1,37,121,85,4e-12,69.4
SONDA_P_oxyspora,SRR9590833.332888,100.00,37,0,0,1,37,121,85,4e-12,69.4
SONDA_P_oxyspora,SRR9590833.332871,100.00,37,0,0,1,37,121,85,4e-12,69.4
SONDA_P_oxyspora,SRR9590833.332871,100.00,37,0,0,1,37,405,441,4e-12,69.4
SONDA_P_oxyspora,SRR9590833.332605,100.00,37,0,0,1,37,121,85,4e-12,69.4
SONDA_P_oxyspora,SRR9590833.332567,100.00,37,0,0,1,37,121,85,4e-12,69.4
SONDA_P_oxyspora,SRR9590833.328850,100.00,37,0,0,1,37,121,85,4e-12,69.4
SONDA_P_oxyspora,SRR9590833.328850,100.00,37,0,0,1,37,405,441,4e-12,69.4
SONDA_P_oxyspora,SRR9590833.328757,100.00,37,0,0,1,37,121,85,4e-12,69.4
SONDA_P_oxyspora,SRR9590833.328757,100.00,37,0,0,1,37,405,441,4e-12,69.4
SONDA_P_oxyspora,SRR9590833.328276,100.00,37,0,0,1,37,121,85,4e-12,69.4
SONDA_P_oxyspora,SRR9590833.328276,100.00,37,0,0,1,37,405,441,4e-12,69.4
SONDA_P_oxyspora,SRR9590833.328079,100.00,37,0,0,1,37,121,85,4e-12,69.4
SONDA_P_oxyspora,SRR9590833.327513,100.00,37,0,0,1,37,121,85,4e-12,69.4
SONDA_P_oxyspora,SRR9590833.326496,100.00,37,0,0,1,37,121,85,4e-12,69.4
SONDA_P_oxyspora,SRR9590833.325721,100.00,37,0,0,1,37,121,85,4e-12,69.4
SONDA_P_oxyspora,SRR9590833.325721,100.00,37,0,0,1,37,405,441,4e-12,69.4
SONDA_P_oxyspora,SRR9590833.325713,100.00,37,0,0,1,37,121,85,4e-12,69.4
SONDA_P_oxyspora,SRR9590833.325713,100.00,37,0,0,1,37,405,441,4e-12,69.4
SONDA_P_oxyspora,SRR9590833.325661,100.00,37,0,0,1,37,121,85,4e-12,69.4
SONDA_P_oxyspora,SRR9590833.325661,100.00,37,0,0,1,37,403,439,4e-12,69.4
SONDA_P_oxyspora,SRR9590833.325375,100.00,37,0,0,1,37,121,85,4e-12,69.4
SONDA_P_oxyspora,SRR9590833.325375,100.00,37,0,0,1,37,405,441,4e-12,69.4
SONDA_P_oxyspora,SRR9590833.324615,100.00,37,0,0,1,37,121,85,4e-12,69.4
SONDA_P_oxyspora,SRR9590833.324615,100.00,37,0,0,1,37,405,441,4e-12,69.4
SONDA_P_oxyspora,SRR9590833.323423,100.00,37,0,0,1,37,121,85,4e-12,69.4
SONDA_P_oxyspora,SRR9590833.322640,100.00,37,0,0,1,37,121,85,4e-12,69.4
SONDA_P_oxyspora,SRR9590833.322335,100.00,37,0,0,1,37,121,85,4e-12,69.4
SONDA_P_oxyspora,SRR9590833.322122,100.00,37,0,0,1,37,121,85,4e-12,69.4
SONDA_P_oxyspora,SRR9590833.321904,100.00,37,0,0,1,37,121,85,4e-12,69.4
SONDA_P_oxyspora,SRR9590833.321904,100.00,37,0,0,1,37,405,441,4e-12,69.4
SONDA_P_oxyspora,SRR9590833.321826,100.00,37,0,0,1,37,121,85,4e-12,69.4
SONDA_P_oxyspora,SRR9590833.321774,100.00,37,0,0,1,37,121,85,4e-12,69.4
SONDA_P_oxyspora,SRR9590833.321606,100.00,37,0,0,1,37,121,85,4e-12,69.4
SONDA_P_oxyspora,SRR9590833.321606,100.00,37,0,0,1,37,405,441,4e-12,69.4
SONDA_P_oxyspora,SRR9590833.321590,100.00,37,0,0,1,37,121,85,4e-12,69.4
SONDA_P_oxyspora,SRR9590833.321502,100.00,37,0,0,1,37,121,85,4e-12,69.4
SONDA_P_oxyspora,SRR9590833.319548,100.00,37,0,0,1,37,121,85,4e-12,69.4
SONDA_P_oxyspora,SRR9590833.319548,100.00,37,0,0,1,37,404,440,4e-12,69.4
SONDA_P_oxyspora,SRR9590833.319019,100.00,37,0,0,1,37,121,85,4e-12,69.4
SONDA_P_oxyspora,SRR9590833.317134,100.00,37,0,0,1,37,121,85,4e-12,69.4
SONDA_P_oxyspora,SRR9590833.317126,100.00,37,0,0,1,37,121,85,4e-12,69.4
SONDA_P_oxyspora,SRR9590833.317126,100.00,37,0,0,1,37,405,441,4e-12,69.4
SONDA_P_oxyspora,SRR9590833.316969,100.00,37,0,0,1,37,121,85,4e-12,69.4
SONDA_P_oxyspora,SRR9590833.316962,100.00,37,0,0,1,37,121,85,4e-12,69.4
SONDA_P_oxyspora,SRR9590833.316502,100.00,37,0,0,1,37,121,85,4e-12,69.4
SONDA_P_oxyspora,SRR9590833.316493,100.00,37,0,0,1,37,121,85,4e-12,69.4
SONDA_P_oxyspora,SRR9590833.316493,100.00,37,0,0,1,37,405,441,4e-12,69.4
SONDA_P_oxyspora,SRR9590833.315555,100.00,37,0,0,1,37,121,85,4e-12,69.4
SONDA_P_oxyspora,SRR9590833.315465,100.00,37,0,0,1,37,121,85,4e-12,69.4
SONDA_P_oxyspora,SRR9590833.315465,100.00,37,0,0,1,37,405,441,4e-12,69.4
SONDA_P_oxyspora,SRR9590833.315336,100.00,37,0,0,1,37,121,85,4e-12,69.4
SONDA_P_oxyspora,SRR9590833.314874,100.00,37,0,0,1,37,121,85,4e-12,69.4
SONDA_P_oxyspora,SRR9590833.314558,100.00,37,0,0,1,37,121,85,4e-12,69.4
SONDA_P_oxyspora,SRR9590833.314558,100.00,37,0,0,1,37,405,441,4e-12,69.4
SONDA_P_oxyspora,SRR9590833.314545,100.00,37,0,0,1,37,121,85,4e-12,69.4
SONDA_P_oxyspora,SRR9590833.313903,100.00,37,0,0,1,37,121,85,4e-12,69.4
SONDA_P_oxyspora,SRR9590833.313832,100.00,37,0,0,1,37,121,85,4e-12,69.4
SONDA_P_oxyspora,SRR9590833.313707,100.00,37,0,0,1,37,121,85,4e-12,69.4
SONDA_P_oxyspora,SRR9590833.313707,100.00,37,0,0,1,37,405,441,4e-12,69.4
SONDA_P_oxyspora,SRR9590833.313533,100.00,37,0,0,1,37,121,85,4e-12,69.4
SONDA_P_oxyspora,SRR9590833.313533,97.30,37,1,0,1,37,405,441,2e-10,63.9
SONDA_P_oxyspora,SRR9590833.313523,100.00,37,0,0,1,37,121,85,4e-12,69.4
SONDA_P_oxyspora,SRR9590833.313487,100.00,37,0,0,1,37,121,85,4e-12,69.4
SONDA_P_oxyspora,SRR9590833.312770,100.00,37,0,0,1,37,121,85,4e-12,69.4
SONDA_P_oxyspora,SRR9590833.312770,100.00,37,0,0,1,37,405,441,4e-12,69.4
SONDA_P_oxyspora,SRR9590833.312739,100.00,37,0,0,1,37,121,85,4e-12,69.4
SONDA_P_oxyspora,SRR9590833.312739,100.00,37,0,0,1,37,405,441,4e-12,69.4
SONDA_P_oxyspora,SRR9590833.312730,100.00,37,0,0,1,37,121,85,4e-12,69.4
SONDA_P_oxyspora,SRR9590833.312236,100.00,37,0,0,1,37,121,85,4e-12,69.4
SONDA_P_oxyspora,SRR9590833.311792,100.00,37,0,0,1,37,121,85,4e-12,69.4
SONDA_P_oxyspora,SRR9590833.311792,100.00,37,0,0,1,37,405,441,4e-12,69.4
SONDA_P_oxyspora,SRR9590833.311522,100.00,37,0,0,1,37,121,85,4e-12,69.4
SONDA_P_oxyspora,SRR9590833.311522,100.00,37,0,0,1,37,405,441,4e-12,69.4
SONDA_P_oxyspora,SRR9590833.310981,100.00,37,0,0,1,37,121,85,4e-12,69.4
SONDA_P_oxyspora,SRR9590833.310981,94.59,37,2,0,1,37,405,441,8e-09,58.4
SONDA_P_oxyspora,SRR9590833.309696,100.00,37,0,0,1,37,121,85,4e-12,69.4
SONDA_P_oxyspora,SRR9590833.309695,100.00,37,0,0,1,37,121,85,4e-12,69.4
SONDA_P_oxyspora,SRR9590833.309460,100.00,37,0,0,1,37,121,85,4e-12,69.4
SONDA_P_oxyspora,SRR9590833.309460,100.00,37,0,0,1,37,405,441,4e-12,69.4
SONDA_P_oxyspora,SRR9590833.309388,100.00,37,0,0,1,37,121,85,4e-12,69.4
SONDA_P_oxyspora,SRR9590833.309388,100.00,31,0,0,7,37,411,441,8e-09,58.4
SONDA_P_oxyspora,SRR9590833.308188,100.00,37,0,0,1,37,121,85,4e-12,69.4
SONDA_P_oxyspora,SRR9590833.308188,100.00,37,0,0,1,37,405,441,4e-12,69.4
SONDA_P_oxyspora,SRR9590833.307518,100.00,37,0,0,1,37,121,85,4e-12,69.4
SONDA_P_oxyspora,SRR9590833.307518,94.59,37,2,0,1,37,405,441,8e-09,58.4
SONDA_P_oxyspora,SRR9590833.307038,100.00,37,0,0,1,37,121,85,4e-12,69.4
SONDA_P_oxyspora,SRR9590833.307038,100.00,37,0,0,1,37,405,441,4e-12,69.4
SONDA_P_oxyspora,SRR9590833.306341,100.00,37,0,0,1,37,121,85,4e-12,69.4
SONDA_P_oxyspora,SRR9590833.306327,100.00,37,0,0,1,37,121,85,4e-12,69.4
SONDA_P_oxyspora,SRR9590833.305499,100.00,37,0,0,1,37,121,85,4e-12,69.4
SONDA_P_oxyspora,SRR9590833.305093,100.00,37,0,0,1,37,121,85,4e-12,69.4
SONDA_P_oxyspora,SRR9590833.305093,100.00,37,0,0,1,37,405,441,4e-12,69.4
SONDA_P_oxyspora,SRR9590833.305087,100.00,37,0,0,1,37,121,85,4e-12,69.4
SONDA_P_oxyspora,SRR9590833.305087,97.30,37,1,0,1,37,405,441,2e-10,63.9
SONDA_P_oxyspora,SRR9590833.305076,100.00,37,0,0,1,37,121,85,4e-12,69.4
SONDA_P_oxyspora,SRR9590833.304641,100.00,37,0,0,1,37,121,85,4e-12,69.4
SONDA_P_oxyspora,SRR9590833.304641,100.00,33,0,0,1,33,405,437,6e-10,62.1
SONDA_P_oxyspora,SRR9590833.304624,100.00,37,0,0,1,37,121,85,4e-12,69.4
SONDA_P_oxyspora,SRR9590833.303720,100.00,37,0,0,1,37,121,85,4e-12,69.4
SONDA_P_oxyspora,SRR9590833.303565,100.00,37,0,0,1,37,121,85,4e-12,69.4
SONDA_P_oxyspora,SRR9590833.303565,100.00,37,0,0,1,37,405,441,4e-12,69.4
SONDA_P_oxyspora,SRR9590833.303446,100.00,37,0,0,1,37,121,85,4e-12,69.4
SONDA_P_oxyspora,SRR9590833.303077,100.00,37,0,0,1,37,121,85,4e-12,69.4
SONDA_P_oxyspora,SRR9590833.303077,100.00,37,0,0,1,37,405,441,4e-12,69.4
SONDA_P_oxyspora,SRR9590833.302871,100.00,37,0,0,1,37,121,85,4e-12,69.4
SONDA_P_oxyspora,SRR9590833.302823,100.00,37,0,0,1,37,121,85,4e-12,69.4
SONDA_P_oxyspora,SRR9590833.302823,100.00,37,0,0,1,37,405,441,4e-12,69.4
SONDA_P_oxyspora,SRR9590833.302754,100.00,37,0,0,1,37,120,84,4e-12,69.4
SONDA_P_oxyspora,SRR9590833.302748,100.00,37,0,0,1,37,120,84,4e-12,69.4
SONDA_P_oxyspora,SRR9590833.302748,100.00,37,0,0,1,37,405,441,4e-12,69.4
SONDA_P_oxyspora,SRR9590833.302282,100.00,37,0,0,1,37,121,85,4e-12,69.4
SONDA_P_oxyspora,SRR9590833.301761,100.00,37,0,0,1,37,121,85,4e-12,69.4
SONDA_P_oxyspora,SRR9590833.301690,100.00,37,0,0,1,37,121,85,4e-12,69.4
SONDA_P_oxyspora,SRR9590833.301690,100.00,34,0,0,1,34,405,438,2e-10,63.9
SONDA_P_oxyspora,SRR9590833.301565,100.00,37,0,0,1,37,121,85,4e-12,69.4
SONDA_P_oxyspora,SRR9590833.301405,100.00,37,0,0,1,37,122,86,4e-12,69.4
SONDA_P_oxyspora,SRR9590833.301405,97.30,37,1,0,1,37,405,441,2e-10,63.9
SONDA_P_oxyspora,SRR9590833.300729,100.00,37,0,0,1,37,121,85,4e-12,69.4
SONDA_P_oxyspora,SRR9590833.300729,100.00,37,0,0,1,37,405,441,4e-12,69.4
SONDA_P_oxyspora,SRR9590833.300119,100.00,37,0,0,1,37,121,85,4e-12,69.4
SONDA_P_oxyspora,SRR9590833.300119,97.30,37,1,0,1,37,405,441,2e-10,63.9
SONDA_P_oxyspora,SRR9590833.299817,100.00,37,0,0,1,37,121,85,4e-12,69.4
SONDA_P_oxyspora,SRR9590833.299817,100.00,37,0,0,1,37,405,441,4e-12,69.4
SONDA_P_oxyspora,SRR9590833.299368,100.00,37,0,0,1,37,121,85,4e-12,69.4
SONDA_P_oxyspora,SRR9590833.299069,100.00,37,0,0,1,37,121,85,4e-12,69.4
SONDA_P_oxyspora,SRR9590833.299069,97.30,37,1,0,1,37,405,441,2e-10,63.9
SONDA_P_oxyspora,SRR9590833.298532,100.00,37,0,0,1,37,121,85,4e-12,69.4
SONDA_P_oxyspora,SRR9590833.298532,100.00,37,0,0,1,37,405,441,4e-12,69.4
SONDA_P_oxyspora,SRR9590833.298501,100.00,37,0,0,1,37,121,85,4e-12,69.4
SONDA_P_oxyspora,SRR9590833.298501,100.00,37,0,0,1,37,405,441,4e-12,69.4
SONDA_P_oxyspora,SRR9590833.298258,100.00,37,0,0,1,37,121,85,4e-12,69.4
SONDA_P_oxyspora,SRR9590833.298258,100.00,37,0,0,1,37,405,441,4e-12,69.4
SONDA_P_oxyspora,SRR9590833.298176,100.00,37,0,0,1,37,121,85,4e-12,69.4
SONDA_P_oxyspora,SRR9590833.298176,100.00,37,0,0,1,37,405,441,4e-12,69.4
SONDA_P_oxyspora,SRR9590833.297284,100.00,37,0,0,1,37,121,85,4e-12,69.4
SONDA_P_oxyspora,SRR9590833.296150,100.00,37,0,0,1,37,121,85,4e-12,69.4
SONDA_P_oxyspora,SRR9590833.296150,100.00,37,0,0,1,37,405,441,4e-12,69.4
SONDA_P_oxyspora,SRR9590833.296136,100.00,37,0,0,1,37,121,85,4e-12,69.4
SONDA_P_oxyspora,SRR9590833.296136,97.30,37,1,0,1,37,405,441,2e-10,63.9
SONDA_P_oxyspora,SRR9590833.295507,100.00,37,0,0,1,37,121,85,4e-12,69.4
SONDA_P_oxyspora,SRR9590833.295092,100.00,37,0,0,1,37,121,85,4e-12,69.4
SONDA_P_oxyspora,SRR9590833.295092,94.59,37,2,0,1,37,405,441,8e-09,58.4
SONDA_P_oxyspora,SRR9590833.295077,100.00,37,0,0,1,37,121,85,4e-12,69.4
SONDA_P_oxyspora,SRR9590833.295077,97.30,37,1,0,1,37,405,441,2e-10,63.9
SONDA_P_oxyspora,SRR9590833.294691,100.00,37,0,0,1,37,121,85,4e-12,69.4
SONDA_P_oxyspora,SRR9590833.294599,100.00,37,0,0,1,37,121,85,4e-12,69.4
SONDA_P_oxyspora,SRR9590833.294599,100.00,37,0,0,1,37,405,441,4e-12,69.4
SONDA_P_oxyspora,SRR9590833.294167,100.00,37,0,0,1,37,121,85,4e-12,69.4
SONDA_P_oxyspora,SRR9590833.294151,100.00,37,0,0,1,37,121,85,4e-12,69.4
SONDA_P_oxyspora,SRR9590833.294151,100.00,37,0,0,1,37,405,441,4e-12,69.4
SONDA_P_oxyspora,SRR9590833.293269,100.00,37,0,0,1,37,121,85,4e-12,69.4
SONDA_P_oxyspora,SRR9590833.293269,100.00,37,0,0,1,37,405,441,4e-12,69.4
SONDA_P_oxyspora,SRR9590833.293140,100.00,37,0,0,1,37,121,85,4e-12,69.4
SONDA_P_oxyspora,SRR9590833.293085,100.00,37,0,0,1,37,120,84,4e-12,69.4
SONDA_P_oxyspora,SRR9590833.293085,97.30,37,1,0,1,37,404,440,2e-10,63.9
SONDA_P_oxyspora,SRR9590833.293049,100.00,37,0,0,1,37,121,85,4e-12,69.4
SONDA_P_oxyspora,SRR9590833.293049,100.00,37,0,0,1,37,405,441,4e-12,69.4
SONDA_P_oxyspora,SRR9590833.292339,100.00,37,0,0,1,37,121,85,4e-12,69.4
SONDA_P_oxyspora,SRR9590833.292339,97.30,37,1,0,1,37,405,441,2e-10,63.9
SONDA_P_oxyspora,SRR9590833.292180,100.00,37,0,0,1,37,121,85,4e-12,69.4
SONDA_P_oxyspora,SRR9590833.292180,100.00,37,0,0,1,37,405,441,4e-12,69.4
SONDA_P_oxyspora,SRR9590833.291048,100.00,37,0,0,1,37,121,85,4e-12,69.4
SONDA_P_oxyspora,SRR9590833.291048,100.00,37,0,0,1,37,405,441,4e-12,69.4
SONDA_P_oxyspora,SRR9590833.290416,100.00,37,0,0,1,37,121,85,4e-12,69.4
SONDA_P_oxyspora,SRR9590833.290304,100.00,37,0,0,1,37,121,85,4e-12,69.4
SONDA_P_oxyspora,SRR9590833.290293,100.00,37,0,0,1,37,121,85,4e-12,69.4
SONDA_P_oxyspora,SRR9590833.290209,100.00,37,0,0,1,37,121,85,4e-12,69.4
SONDA_P_oxyspora,SRR9590833.289273,100.00,37,0,0,1,37,121,85,4e-12,69.4
SONDA_P_oxyspora,SRR9590833.289273,100.00,37,0,0,1,37,405,441,4e-12,69.4
SONDA_P_oxyspora,SRR9590833.288166,100.00,37,0,0,1,37,121,85,4e-12,69.4
SONDA_P_oxyspora,SRR9590833.288007,100.00,37,0,0,1,37,121,85,4e-12,69.4
SONDA_P_oxyspora,SRR9590833.288007,97.30,37,1,0,1,37,405,441,2e-10,63.9
SONDA_P_oxyspora,SRR9590833.286070,100.00,37,0,0,1,37,121,85,4e-12,69.4
SONDA_P_oxyspora,SRR9590833.284937,100.00,37,0,0,1,37,121,85,4e-12,69.4
SONDA_P_oxyspora,SRR9590833.284937,100.00,37,0,0,1,37,405,441,4e-12,69.4
SONDA_P_oxyspora,SRR9590833.284543,100.00,37,0,0,1,37,121,85,4e-12,69.4
SONDA_P_oxyspora,SRR9590833.283386,100.00,37,0,0,1,37,121,85,4e-12,69.4
SONDA_P_oxyspora,SRR9590833.283386,100.00,37,0,0,1,37,405,441,4e-12,69.4
SONDA_P_oxyspora,SRR9590833.283239,100.00,37,0,0,1,37,121,85,4e-12,69.4
SONDA_P_oxyspora,SRR9590833.283239,100.00,37,0,0,1,37,405,441,4e-12,69.4
SONDA_P_oxyspora,SRR9590833.283209,100.00,37,0,0,1,37,121,85,4e-12,69.4
SONDA_P_oxyspora,SRR9590833.283209,100.00,37,0,0,1,37,405,441,4e-12,69.4
SONDA_P_oxyspora,SRR9590833.282206,100.00,37,0,0,1,37,121,85,4e-12,69.4
SONDA_P_oxyspora,SRR9590833.282206,100.00,37,0,0,1,37,405,441,4e-12,69.4
SONDA_P_oxyspora,SRR9590833.281621,100.00,37,0,0,1,37,121,85,4e-12,69.4
SONDA_P_oxyspora,SRR9590833.280289,100.00,37,0,0,1,37,121,85,4e-12,69.4
SONDA_P_oxyspora,SRR9590833.280289,100.00,37,0,0,1,37,405,441,4e-12,69.4
SONDA_P_oxyspora,SRR9590833.279779,100.00,37,0,0,1,37,121,85,4e-12,69.4
SONDA_P_oxyspora,SRR9590833.279751,100.00,37,0,0,1,37,121,85,4e-12,69.4
SONDA_P_oxyspora,SRR9590833.279751,97.30,37,1,0,1,37,405,441,2e-10,63.9
SONDA_P_oxyspora,SRR9590833.279610,100.00,37,0,0,1,37,121,85,4e-12,69.4
SONDA_P_oxyspora,SRR9590833.279610,100.00,37,0,0,1,37,405,441,4e-12,69.4
SONDA_P_oxyspora,SRR9590833.278419,100.00,37,0,0,1,37,121,85,4e-12,69.4
SONDA_P_oxyspora,SRR9590833.278407,100.00,37,0,0,1,37,121,85,4e-12,69.4
SONDA_P_oxyspora,SRR9590833.278205,100.00,37,0,0,1,37,121,85,4e-12,69.4
SONDA_P_oxyspora,SRR9590833.278205,97.30,37,1,0,1,37,405,441,2e-10,63.9
SONDA_P_oxyspora,SRR9590833.277756,100.00,37,0,0,1,37,121,85,4e-12,69.4
SONDA_P_oxyspora,SRR9590833.277756,100.00,37,0,0,1,37,405,441,4e-12,69.4
SONDA_P_oxyspora,SRR9590833.277567,100.00,37,0,0,1,37,121,85,4e-12,69.4
SONDA_P_oxyspora,SRR9590833.277552,100.00,37,0,0,1,37,121,85,4e-12,69.4
SONDA_P_oxyspora,SRR9590833.275879,100.00,37,0,0,1,37,121,85,4e-12,69.4
SONDA_P_oxyspora,SRR9590833.275879,97.30,37,1,0,1,37,405,441,2e-10,63.9
SONDA_P_oxyspora,SRR9590833.275865,100.00,37,0,0,1,37,121,85,4e-12,69.4
SONDA_P_oxyspora,SRR9590833.275538,100.00,37,0,0,1,37,121,85,4e-12,69.4
SONDA_P_oxyspora,SRR9590833.275533,100.00,37,0,0,1,37,121,85,4e-12,69.4
SONDA_P_oxyspora,SRR9590833.275533,100.00,37,0,0,1,37,405,441,4e-12,69.4
SONDA_P_oxyspora,SRR9590833.275076,100.00,37,0,0,1,37,121,85,4e-12,69.4
SONDA_P_oxyspora,SRR9590833.274627,100.00,37,0,0,1,37,121,85,4e-12,69.4
SONDA_P_oxyspora,SRR9590833.274627,97.30,37,1,0,1,37,405,441,2e-10,63.9
SONDA_P_oxyspora,SRR9590833.274547,100.00,37,0,0,1,37,121,85,4e-12,69.4
SONDA_P_oxyspora,SRR9590833.274547,100.00,37,0,0,1,37,405,441,4e-12,69.4
SONDA_P_oxyspora,SRR9590833.274144,100.00,37,0,0,1,37,121,85,4e-12,69.4
SONDA_P_oxyspora,SRR9590833.274144,100.00,37,0,0,1,37,405,441,4e-12,69.4
SONDA_P_oxyspora,SRR9590833.272872,100.00,37,0,0,1,37,121,85,4e-12,69.4
SONDA_P_oxyspora,SRR9590833.272872,100.00,37,0,0,1,37,405,441,4e-12,69.4
SONDA_P_oxyspora,SRR9590833.272408,100.00,37,0,0,1,37,121,85,4e-12,69.4
SONDA_P_oxyspora,SRR9590833.272408,100.00,37,0,0,1,37,405,441,4e-12,69.4
SONDA_P_oxyspora,SRR9590833.271142,100.00,37,0,0,1,37,121,85,4e-12,69.4
SONDA_P_oxyspora,SRR9590833.270409,100.00,37,0,0,1,37,121,85,4e-12,69.4
SONDA_P_oxyspora,SRR9590833.270407,100.00,37,0,0,1,37,121,85,4e-12,69.4
SONDA_P_oxyspora,SRR9590833.270075,100.00,37,0,0,1,37,121,85,4e-12,69.4
SONDA_P_oxyspora,SRR9590833.270075,97.30,37,0,1,1,37,406,441,6e-10,62.1
SONDA_P_oxyspora,SRR9590833.269868,100.00,37,0,0,1,37,121,85,4e-12,69.4
SONDA_P_oxyspora,SRR9590833.269865,100.00,37,0,0,1,37,121,85,4e-12,69.4
SONDA_P_oxyspora,SRR9590833.269733,100.00,37,0,0,1,37,121,85,4e-12,69.4
SONDA_P_oxyspora,SRR9590833.269333,100.00,37,0,0,1,37,121,85,4e-12,69.4
SONDA_P_oxyspora,SRR9590833.269268,100.00,37,0,0,1,37,121,85,4e-12,69.4
SONDA_P_oxyspora,SRR9590833.269268,100.00,37,0,0,1,37,405,441,4e-12,69.4
SONDA_P_oxyspora,SRR9590833.269058,100.00,37,0,0,1,37,121,85,4e-12,69.4
SONDA_P_oxyspora,SRR9590833.269058,100.00,37,0,0,1,37,405,441,4e-12,69.4
SONDA_P_oxyspora,SRR9590833.268786,100.00,37,0,0,1,37,121,85,4e-12,69.4
SONDA_P_oxyspora,SRR9590833.268786,100.00,37,0,0,1,37,405,441,4e-12,69.4
SONDA_P_oxyspora,SRR9590833.268472,100.00,37,0,0,1,37,121,85,4e-12,69.4
SONDA_P_oxyspora,SRR9590833.267128,100.00,37,0,0,1,37,121,85,4e-12,69.4
SONDA_P_oxyspora,SRR9590833.266198,100.00,37,0,0,1,37,121,85,4e-12,69.4
SONDA_P_oxyspora,SRR9590833.266198,100.00,37,0,0,1,37,405,441,4e-12,69.4
SONDA_P_oxyspora,SRR9590833.266136,100.00,37,0,0,1,37,121,85,4e-12,69.4
SONDA_P_oxyspora,SRR9590833.265694,100.00,37,0,0,1,37,121,85,4e-12,69.4
SONDA_P_oxyspora,SRR9590833.265694,100.00,37,0,0,1,37,405,441,4e-12,69.4
SONDA_P_oxyspora,SRR9590833.265671,100.00,37,0,0,1,37,121,85,4e-12,69.4
SONDA_P_oxyspora,SRR9590833.265303,100.00,37,0,0,1,37,121,85,4e-12,69.4
SONDA_P_oxyspora,SRR9590833.265203,100.00,37,0,0,1,37,121,85,4e-12,69.4
SONDA_P_oxyspora,SRR9590833.265191,100.00,37,0,0,1,37,121,85,4e-12,69.4
SONDA_P_oxyspora,SRR9590833.265191,100.00,37,0,0,1,37,405,441,4e-12,69.4
SONDA_P_oxyspora,SRR9590833.264269,100.00,37,0,0,1,37,121,85,4e-12,69.4
SONDA_P_oxyspora,SRR9590833.264262,100.00,37,0,0,1,37,121,85,4e-12,69.4
SONDA_P_oxyspora,SRR9590833.263552,100.00,37,0,0,1,37,121,85,4e-12,69.4
SONDA_P_oxyspora,SRR9590833.263552,100.00,37,0,0,1,37,405,441,4e-12,69.4
SONDA_P_oxyspora,SRR9590833.262611,100.00,37,0,0,1,37,121,85,4e-12,69.4
SONDA_P_oxyspora,SRR9590833.262611,100.00,37,0,0,1,37,405,441,4e-12,69.4
SONDA_P_oxyspora,SRR9590833.261669,100.00,37,0,0,1,37,121,85,4e-12,69.4
SONDA_P_oxyspora,SRR9590833.261454,100.00,37,0,0,1,37,121,85,4e-12,69.4
SONDA_P_oxyspora,SRR9590833.260326,100.00,37,0,0,1,37,121,85,4e-12,69.4
SONDA_P_oxyspora,SRR9590833.260326,100.00,37,0,0,1,37,405,441,4e-12,69.4
SONDA_P_oxyspora,SRR9590833.259824,100.00,37,0,0,1,37,121,85,4e-12,69.4
SONDA_P_oxyspora,SRR9590833.259824,97.30,37,1,0,1,37,405,441,2e-10,63.9
SONDA_P_oxyspora,SRR9590833.259500,100.00,37,0,0,1,37,121,85,4e-12,69.4
SONDA_P_oxyspora,SRR9590833.259500,100.00,37,0,0,1,37,405,441,4e-12,69.4
SONDA_P_oxyspora,SRR9590833.259021,100.00,37,0,0,1,37,121,85,4e-12,69.4
SONDA_P_oxyspora,SRR9590833.259021,97.22,36,1,0,2,37,406,441,6e-10,62.1
SONDA_P_oxyspora,SRR9590833.258898,100.00,37,0,0,1,37,120,84,4e-12,69.4
SONDA_P_oxyspora,SRR9590833.258382,100.00,37,0,0,1,37,121,85,4e-12,69.4
SONDA_P_oxyspora,SRR9590833.258031,100.00,37,0,0,1,37,121,85,4e-12,69.4
SONDA_P_oxyspora,SRR9590833.258031,100.00,32,0,0,1,32,405,436,2e-09,60.2
SONDA_P_oxyspora,SRR9590833.257958,100.00,37,0,0,1,37,121,85,4e-12,69.4
SONDA_P_oxyspora,SRR9590833.257190,100.00,37,0,0,1,37,121,85,4e-12,69.4
SONDA_P_oxyspora,SRR9590833.256641,100.00,37,0,0,1,37,121,85,4e-12,69.4
SONDA_P_oxyspora,SRR9590833.256641,100.00,37,0,0,1,37,405,441,4e-12,69.4
SONDA_P_oxyspora,SRR9590833.256047,100.00,37,0,0,1,37,121,85,4e-12,69.4
SONDA_P_oxyspora,SRR9590833.255863,100.00,37,0,0,1,37,121,85,4e-12,69.4
SONDA_P_oxyspora,SRR9590833.255858,100.00,37,0,0,1,37,121,85,4e-12,69.4
SONDA_P_oxyspora,SRR9590833.255732,100.00,37,0,0,1,37,121,85,4e-12,69.4
SONDA_P_oxyspora,SRR9590833.255732,100.00,37,0,0,1,37,405,441,4e-12,69.4
SONDA_P_oxyspora,SRR9590833.255596,100.00,37,0,0,1,37,121,85,4e-12,69.4
SONDA_P_oxyspora,SRR9590833.255596,100.00,37,0,0,1,37,405,441,4e-12,69.4
SONDA_P_oxyspora,SRR9590833.255062,100.00,37,0,0,1,37,121,85,4e-12,69.4
SONDA_P_oxyspora,SRR9590833.254540,100.00,37,0,0,1,37,121,85,4e-12,69.4
SONDA_P_oxyspora,SRR9590833.254486,100.00,37,0,0,1,37,121,85,4e-12,69.4
SONDA_P_oxyspora,SRR9590833.253894,100.00,37,0,0,1,37,121,85,4e-12,69.4
SONDA_P_oxyspora,SRR9590833.253883,100.00,37,0,0,1,37,121,85,4e-12,69.4
SONDA_P_oxyspora,SRR9590833.253710,100.00,37,0,0,1,37,121,85,4e-12,69.4
SONDA_P_oxyspora,SRR9590833.253702,100.00,37,0,0,1,37,121,85,4e-12,69.4
SONDA_P_oxyspora,SRR9590833.253450,100.00,37,0,0,1,37,121,85,4e-12,69.4
SONDA_P_oxyspora,SRR9590833.253432,100.00,37,0,0,1,37,121,85,4e-12,69.4
SONDA_P_oxyspora,SRR9590833.252579,100.00,37,0,0,1,37,121,85,4e-12,69.4
SONDA_P_oxyspora,SRR9590833.252097,100.00,37,0,0,1,37,121,85,4e-12,69.4
SONDA_P_oxyspora,SRR9590833.251985,100.00,37,0,0,1,37,121,85,4e-12,69.4
SONDA_P_oxyspora,SRR9590833.251985,100.00,37,0,0,1,37,405,441,4e-12,69.4
SONDA_P_oxyspora,SRR9590833.251590,100.00,37,0,0,1,37,121,85,4e-12,69.4
SONDA_P_oxyspora,SRR9590833.251590,100.00,37,0,0,1,37,405,441,4e-12,69.4
SONDA_P_oxyspora,SRR9590833.251583,100.00,37,0,0,1,37,121,85,4e-12,69.4
SONDA_P_oxyspora,SRR9590833.251583,97.30,37,1,0,1,37,405,441,2e-10,63.9
SONDA_P_oxyspora,SRR9590833.251030,100.00,37,0,0,1,37,121,85,4e-12,69.4
SONDA_P_oxyspora,SRR9590833.251030,100.00,33,0,0,2,34,406,438,6e-10,62.1
SONDA_P_oxyspora,SRR9590833.251024,100.00,37,0,0,1,37,121,85,4e-12,69.4
SONDA_P_oxyspora,SRR9590833.251024,100.00,37,0,0,1,37,405,441,4e-12,69.4
SONDA_P_oxyspora,SRR9590833.250750,100.00,37,0,0,1,37,121,85,4e-12,69.4
SONDA_P_oxyspora,SRR9590833.250750,100.00,37,0,0,1,37,405,441,4e-12,69.4
SONDA_P_oxyspora,SRR9590833.250740,100.00,37,0,0,1,37,121,85,4e-12,69.4
SONDA_P_oxyspora,SRR9590833.250740,100.00,37,0,0,1,37,405,441,4e-12,69.4
SONDA_P_oxyspora,SRR9590833.250532,100.00,37,0,0,1,37,121,85,4e-12,69.4
SONDA_P_oxyspora,SRR9590833.250264,100.00,37,0,0,1,37,120,84,4e-12,69.4
SONDA_P_oxyspora,SRR9590833.250264,100.00,37,0,0,1,37,404,440,4e-12,69.4
SONDA_P_oxyspora,SRR9590833.250082,100.00,37,0,0,1,37,121,85,4e-12,69.4
SONDA_P_oxyspora,SRR9590833.250082,100.00,37,0,0,1,37,405,441,4e-12,69.4
SONDA_P_oxyspora,SRR9590833.249940,100.00,37,0,0,1,37,121,85,4e-12,69.4
SONDA_P_oxyspora,SRR9590833.249940,100.00,37,0,0,1,37,405,441,4e-12,69.4
SONDA_P_oxyspora,SRR9590833.249793,100.00,37,0,0,1,37,121,85,4e-12,69.4
SONDA_P_oxyspora,SRR9590833.249656,100.00,37,0,0,1,37,121,85,4e-12,69.4
SONDA_P_oxyspora,SRR9590833.249656,100.00,37,0,0,1,37,405,441,4e-12,69.4
SONDA_P_oxyspora,SRR9590833.249558,100.00,37,0,0,1,37,121,85,4e-12,69.4
SONDA_P_oxyspora,SRR9590833.249543,100.00,37,0,0,1,37,121,85,4e-12,69.4
SONDA_P_oxyspora,SRR9590833.249543,100.00,37,0,0,1,37,405,441,4e-12,69.4
SONDA_P_oxyspora,SRR9590833.248589,100.00,37,0,0,1,37,121,85,4e-12,69.4
SONDA_P_oxyspora,SRR9590833.246506,100.00,37,0,0,1,37,121,85,4e-12,69.4
SONDA_P_oxyspora,SRR9590833.246235,100.00,37,0,0,1,37,121,85,4e-12,69.4
SONDA_P_oxyspora,SRR9590833.246235,100.00,37,0,0,1,37,405,441,4e-12,69.4
SONDA_P_oxyspora,SRR9590833.245644,100.00,37,0,0,1,37,121,85,4e-12,69.4
SONDA_P_oxyspora,SRR9590833.245644,100.00,36,0,0,2,37,406,441,1e-11,67.6
SONDA_P_oxyspora,SRR9590833.245596,100.00,37,0,0,1,37,121,85,4e-12,69.4
SONDA_P_oxyspora,SRR9590833.245302,100.00,37,0,0,1,37,121,85,4e-12,69.4
SONDA_P_oxyspora,SRR9590833.244585,100.00,37,0,0,1,37,121,85,4e-12,69.4
SONDA_P_oxyspora,SRR9590833.244585,100.00,37,0,0,1,37,405,441,4e-12,69.4
SONDA_P_oxyspora,SRR9590833.244125,100.00,37,0,0,1,37,121,85,4e-12,69.4
SONDA_P_oxyspora,SRR9590833.244125,100.00,37,0,0,1,37,405,441,4e-12,69.4
SONDA_P_oxyspora,SRR9590833.243401,100.00,37,0,0,1,37,121,85,4e-12,69.4
SONDA_P_oxyspora,SRR9590833.243309,100.00,37,0,0,1,37,121,85,4e-12,69.4
SONDA_P_oxyspora,SRR9590833.242711,100.00,37,0,0,1,37,121,85,4e-12,69.4
SONDA_P_oxyspora,SRR9590833.241913,100.00,37,0,0,1,37,121,85,4e-12,69.4
SONDA_P_oxyspora,SRR9590833.241913,97.30,37,1,0,1,37,405,441,2e-10,63.9
SONDA_P_oxyspora,SRR9590833.241875,100.00,37,0,0,1,37,121,85,4e-12,69.4
SONDA_P_oxyspora,SRR9590833.240405,100.00,37,0,0,1,37,121,85,4e-12,69.4
SONDA_P_oxyspora,SRR9590833.240230,100.00,37,0,0,1,37,121,85,4e-12,69.4
SONDA_P_oxyspora,SRR9590833.240230,100.00,37,0,0,1,37,405,441,4e-12,69.4
SONDA_P_oxyspora,SRR9590833.240223,100.00,37,0,0,1,37,121,85,4e-12,69.4
SONDA_P_oxyspora,SRR9590833.240102,100.00,37,0,0,1,37,121,85,4e-12,69.4
SONDA_P_oxyspora,SRR9590833.239959,100.00,37,0,0,1,37,121,85,4e-12,69.4
SONDA_P_oxyspora,SRR9590833.239959,100.00,37,0,0,1,37,405,441,4e-12,69.4
SONDA_P_oxyspora,SRR9590833.239771,100.00,37,0,0,1,37,121,85,4e-12,69.4
SONDA_P_oxyspora,SRR9590833.239458,100.00,37,0,0,1,37,121,85,4e-12,69.4
SONDA_P_oxyspora,SRR9590833.239337,100.00,37,0,0,1,37,121,85,4e-12,69.4
SONDA_P_oxyspora,SRR9590833.239337,100.00,32,0,0,2,33,406,437,2e-09,60.2
SONDA_P_oxyspora,SRR9590833.238474,100.00,37,0,0,1,37,121,85,4e-12,69.4
