SONDA_P_oxyspora,SRR9590826.275773,100.00,37,0,0,1,37,121,85,2e-12,69.4
SONDA_P_oxyspora,SRR9590826.275773,100.00,37,0,0,1,37,405,441,2e-12,69.4
SONDA_P_oxyspora,SRR9590826.275757,100.00,37,0,0,1,37,121,85,2e-12,69.4
SONDA_P_oxyspora,SRR9590826.275757,100.00,37,0,0,1,37,405,441,2e-12,69.4
SONDA_P_oxyspora,SRR9590826.275299,100.00,37,0,0,1,37,118,82,2e-12,69.4
SONDA_P_oxyspora,SRR9590826.275299,100.00,37,0,0,1,37,402,438,2e-12,69.4
SONDA_P_oxyspora,SRR9590826.274857,100.00,37,0,0,1,37,121,85,2e-12,69.4
SONDA_P_oxyspora,SRR9590826.274328,100.00,37,0,0,1,37,121,85,2e-12,69.4
SONDA_P_oxyspora,SRR9590826.274328,100.00,37,0,0,1,37,405,441,2e-12,69.4
SONDA_P_oxyspora,SRR9590826.272626,100.00,37,0,0,1,37,121,85,2e-12,69.4
SONDA_P_oxyspora,SRR9590826.272626,97.30,37,1,0,1,37,405,441,1e-10,63.9
SONDA_P_oxyspora,SRR9590826.272175,100.00,37,0,0,1,37,121,85,2e-12,69.4
SONDA_P_oxyspora,SRR9590826.272175,100.00,37,0,0,1,37,405,441,2e-12,69.4
SONDA_P_oxyspora,SRR9590826.271917,100.00,37,0,0,1,37,121,85,2e-12,69.4
SONDA_P_oxyspora,SRR9590826.271917,100.00,37,0,0,1,37,403,439,2e-12,69.4
SONDA_P_oxyspora,SRR9590826.271584,100.00,37,0,0,1,37,121,85,2e-12,69.4
SONDA_P_oxyspora,SRR9590826.271535,100.00,37,0,0,1,37,121,85,2e-12,69.4
SONDA_P_oxyspora,SRR9590826.271535,100.00,37,0,0,1,37,405,441,2e-12,69.4
SONDA_P_oxyspora,SRR9590826.268311,100.00,37,0,0,1,37,121,85,2e-12,69.4
SONDA_P_oxyspora,SRR9590826.268175,100.00,37,0,0,1,37,121,85,2e-12,69.4
SONDA_P_oxyspora,SRR9590826.268175,100.00,37,0,0,1,37,405,441,2e-12,69.4
SONDA_P_oxyspora,SRR9590826.266714,100.00,37,0,0,1,37,121,85,2e-12,69.4
SONDA_P_oxyspora,SRR9590826.266714,100.00,37,0,0,1,37,405,441,2e-12,69.4
SONDA_P_oxyspora,SRR9590826.266279,100.00,37,0,0,1,37,121,85,2e-12,69.4
SONDA_P_oxyspora,SRR9590826.266279,100.00,37,0,0,1,37,405,441,2e-12,69.4
SONDA_P_oxyspora,SRR9590826.265892,100.00,37,0,0,1,37,121,85,2e-12,69.4
SONDA_P_oxyspora,SRR9590826.265892,100.00,37,0,0,1,37,405,441,2e-12,69.4
SONDA_P_oxyspora,SRR9590826.264856,100.00,37,0,0,1,37,121,85,2e-12,69.4
SONDA_P_oxyspora,SRR9590826.264856,94.59,37,2,0,1,37,405,441,5e-09,58.4
SONDA_P_oxyspora,SRR9590826.264796,100.00,37,0,0,1,37,121,85,2e-12,69.4
SONDA_P_oxyspora,SRR9590826.263698,100.00,37,0,0,1,37,121,85,2e-12,69.4
SONDA_P_oxyspora,SRR9590826.263698,100.00,37,0,0,1,37,403,439,2e-12,69.4
SONDA_P_oxyspora,SRR9590826.261757,100.00,37,0,0,1,37,121,85,2e-12,69.4
SONDA_P_oxyspora,SRR9590826.260775,100.00,37,0,0,1,37,121,85,2e-12,69.4
SONDA_P_oxyspora,SRR9590826.260775,100.00,37,0,0,1,37,405,441,2e-12,69.4
SONDA_P_oxyspora,SRR9590826.260089,100.00,37,0,0,1,37,121,85,2e-12,69.4
SONDA_P_oxyspora,SRR9590826.260089,100.00,37,0,0,1,37,405,441,2e-12,69.4
SONDA_P_oxyspora,SRR9590826.258933,100.00,37,0,0,1,37,121,85,2e-12,69.4
SONDA_P_oxyspora,SRR9590826.258933,100.00,37,0,0,1,37,405,441,2e-12,69.4
SONDA_P_oxyspora,SRR9590826.257422,100.00,37,0,0,1,37,121,85,2e-12,69.4
SONDA_P_oxyspora,SRR9590826.257422,100.00,37,0,0,1,37,405,441,2e-12,69.4
SONDA_P_oxyspora,SRR9590826.256945,100.00,37,0,0,1,37,121,85,2e-12,69.4
SONDA_P_oxyspora,SRR9590826.256945,100.00,37,0,0,1,37,405,441,2e-12,69.4
SONDA_P_oxyspora,SRR9590826.256303,100.00,37,0,0,1,37,121,85,2e-12,69.4
SONDA_P_oxyspora,SRR9590826.256303,97.30,37,1,0,1,37,405,441,1e-10,63.9
SONDA_P_oxyspora,SRR9590826.256036,100.00,37,0,0,1,37,121,85,2e-12,69.4
SONDA_P_oxyspora,SRR9590826.256036,100.00,37,0,0,1,37,405,441,2e-12,69.4
SONDA_P_oxyspora,SRR9590826.254676,100.00,37,0,0,1,37,120,84,2e-12,69.4
SONDA_P_oxyspora,SRR9590826.254058,100.00,37,0,0,1,37,121,85,2e-12,69.4
SONDA_P_oxyspora,SRR9590826.252767,100.00,37,0,0,1,37,121,85,2e-12,69.4
SONDA_P_oxyspora,SRR9590826.248130,100.00,37,0,0,1,37,121,85,2e-12,69.4
SONDA_P_oxyspora,SRR9590826.246151,100.00,37,0,0,1,37,121,85,2e-12,69.4
SONDA_P_oxyspora,SRR9590826.246151,100.00,37,0,0,1,37,405,441,2e-12,69.4
SONDA_P_oxyspora,SRR9590826.245075,100.00,37,0,0,1,37,121,85,2e-12,69.4
SONDA_P_oxyspora,SRR9590826.245075,97.22,36,1,0,1,36,405,440,4e-10,62.1
SONDA_P_oxyspora,SRR9590826.244295,100.00,37,0,0,1,37,121,85,2e-12,69.4
SONDA_P_oxyspora,SRR9590826.241748,100.00,37,0,0,1,37,121,85,2e-12,69.4
SONDA_P_oxyspora,SRR9590826.241748,100.00,37,0,0,1,37,405,441,2e-12,69.4
SONDA_P_oxyspora,SRR9590826.239266,100.00,37,0,0,1,37,121,85,2e-12,69.4
SONDA_P_oxyspora,SRR9590826.239266,100.00,37,0,0,1,37,405,441,2e-12,69.4
SONDA_P_oxyspora,SRR9590826.238808,100.00,37,0,0,1,37,121,85,2e-12,69.4
SONDA_P_oxyspora,SRR9590826.238808,100.00,37,0,0,1,37,405,441,2e-12,69.4
SONDA_P_oxyspora,SRR9590826.236628,100.00,37,0,0,1,37,121,85,2e-12,69.4
SONDA_P_oxyspora,SRR9590826.236628,97.30,37,1,0,1,37,405,441,1e-10,63.9
SONDA_P_oxyspora,SRR9590826.234047,100.00,37,0,0,1,37,121,85,2e-12,69.4
SONDA_P_oxyspora,SRR9590826.234047,100.00,37,0,0,1,37,405,441,2e-12,69.4
SONDA_P_oxyspora,SRR9590826.232905,100.00,37,0,0,1,37,120,84,2e-12,69.4
SONDA_P_oxyspora,SRR9590826.232905,100.00,37,0,0,1,37,404,440,2e-12,69.4
SONDA_P_oxyspora,SRR9590826.232869,100.00,37,0,0,1,37,121,85,2e-12,69.4
SONDA_P_oxyspora,SRR9590826.232869,100.00,37,0,0,1,37,405,441,2e-12,69.4
SONDA_P_oxyspora,SRR9590826.232680,100.00,37,0,0,1,37,121,85,2e-12,69.4
SONDA_P_oxyspora,SRR9590826.232680,97.30,37,1,0,1,37,405,441,1e-10,63.9
SONDA_P_oxyspora,SRR9590826.231876,100.00,37,0,0,1,37,121,85,2e-12,69.4
SONDA_P_oxyspora,SRR9590826.231876,100.00,37,0,0,1,37,405,441,2e-12,69.4
SONDA_P_oxyspora,SRR9590826.230086,100.00,37,0,0,1,37,121,85,2e-12,69.4
SONDA_P_oxyspora,SRR9590826.230086,100.00,37,0,0,1,37,405,441,2e-12,69.4
SONDA_P_oxyspora,SRR9590826.229390,100.00,37,0,0,1,37,121,85,2e-12,69.4
SONDA_P_oxyspora,SRR9590826.229390,97.30,37,1,0,1,37,405,441,1e-10,63.9
SONDA_P_oxyspora,SRR9590826.228732,100.00,37,0,0,1,37,120,84,2e-12,69.4
SONDA_P_oxyspora,SRR9590826.228732,100.00,37,0,0,1,37,404,440,2e-12,69.4
SONDA_P_oxyspora,SRR9590826.227857,100.00,37,0,0,1,37,121,85,2e-12,69.4
SONDA_P_oxyspora,SRR9590826.227857,100.00,37,0,0,1,37,405,441,2e-12,69.4
SONDA_P_oxyspora,SRR9590826.227835,100.00,37,0,0,1,37,121,85,2e-12,69.4
SONDA_P_oxyspora,SRR9590826.227835,100.00,37,0,0,1,37,405,441,2e-12,69.4
SONDA_P_oxyspora,SRR9590826.227724,100.00,37,0,0,1,37,121,85,2e-12,69.4
SONDA_P_oxyspora,SRR9590826.227724,100.00,37,0,0,1,37,405,441,2e-12,69.4
SONDA_P_oxyspora,SRR9590826.225846,100.00,37,0,0,1,37,121,85,2e-12,69.4
SONDA_P_oxyspora,SRR9590826.225846,97.30,37,1,0,1,37,405,441,1e-10,63.9
SONDA_P_oxyspora,SRR9590826.224562,100.00,37,0,0,1,37,121,85,2e-12,69.4
SONDA_P_oxyspora,SRR9590826.224562,97.30,37,1,0,1,37,405,441,1e-10,63.9
SONDA_P_oxyspora,SRR9590826.224337,100.00,37,0,0,1,37,121,85,2e-12,69.4
SONDA_P_oxyspora,SRR9590826.224337,100.00,37,0,0,1,37,405,441,2e-12,69.4
SONDA_P_oxyspora,SRR9590826.224111,100.00,37,0,0,1,37,121,85,2e-12,69.4
SONDA_P_oxyspora,SRR9590826.224111,100.00,37,0,0,1,37,405,441,2e-12,69.4
SONDA_P_oxyspora,SRR9590826.223998,100.00,37,0,0,1,37,121,85,2e-12,69.4
SONDA_P_oxyspora,SRR9590826.223998,100.00,37,0,0,1,37,405,441,2e-12,69.4
SONDA_P_oxyspora,SRR9590826.223055,100.00,37,0,0,1,37,121,85,2e-12,69.4
SONDA_P_oxyspora,SRR9590826.223055,100.00,37,0,0,1,37,405,441,2e-12,69.4
SONDA_P_oxyspora,SRR9590826.222323,100.00,37,0,0,1,37,121,85,2e-12,69.4
SONDA_P_oxyspora,SRR9590826.222323,100.00,37,0,0,1,37,405,441,2e-12,69.4
SONDA_P_oxyspora,SRR9590826.221637,100.00,37,0,0,1,37,121,85,2e-12,69.4
SONDA_P_oxyspora,SRR9590826.221637,100.00,37,0,0,1,37,405,441,2e-12,69.4
SONDA_P_oxyspora,SRR9590826.218974,100.00,37,0,0,1,37,121,85,2e-12,69.4
SONDA_P_oxyspora,SRR9590826.218974,100.00,37,0,0,1,37,405,441,2e-12,69.4
SONDA_P_oxyspora,SRR9590826.218703,100.00,37,0,0,1,37,121,85,2e-12,69.4
SONDA_P_oxyspora,SRR9590826.218703,100.00,37,0,0,1,37,405,441,2e-12,69.4
SONDA_P_oxyspora,SRR9590826.218698,100.00,37,0,0,1,37,121,85,2e-12,69.4
SONDA_P_oxyspora,SRR9590826.218698,100.00,37,0,0,1,37,405,441,2e-12,69.4
SONDA_P_oxyspora,SRR9590826.218021,100.00,37,0,0,1,37,121,85,2e-12,69.4
SONDA_P_oxyspora,SRR9590826.217248,100.00,37,0,0,1,37,121,85,2e-12,69.4
SONDA_P_oxyspora,SRR9590826.217248,97.30,37,1,0,1,37,405,441,1e-10,63.9
SONDA_P_oxyspora,SRR9590826.216882,100.00,37,0,0,1,37,121,85,2e-12,69.4
SONDA_P_oxyspora,SRR9590826.216776,100.00,37,0,0,1,37,121,85,2e-12,69.4
SONDA_P_oxyspora,SRR9590826.216776,100.00,37,0,0,1,37,405,441,2e-12,69.4
SONDA_P_oxyspora,SRR9590826.216414,100.00,37,0,0,1,37,405,441,2e-12,69.4
SONDA_P_oxyspora,SRR9590826.216414,100.00,36,0,0,2,37,120,85,8e-12,67.6
SONDA_P_oxyspora,SRR9590826.215891,100.00,37,0,0,1,37,121,85,2e-12,69.4
SONDA_P_oxyspora,SRR9590826.214680,100.00,37,0,0,1,37,121,85,2e-12,69.4
SONDA_P_oxyspora,SRR9590826.214680,100.00,37,0,0,1,37,405,441,2e-12,69.4
SONDA_P_oxyspora,SRR9590826.212786,100.00,37,0,0,1,37,121,85,2e-12,69.4
SONDA_P_oxyspora,SRR9590826.212786,100.00,37,0,0,1,37,405,441,2e-12,69.4
SONDA_P_oxyspora,SRR9590826.212772,100.00,37,0,0,1,37,121,85,2e-12,69.4
SONDA_P_oxyspora,SRR9590826.212772,100.00,37,0,0,1,37,405,441,2e-12,69.4
SONDA_P_oxyspora,SRR9590826.212760,100.00,37,0,0,1,37,121,85,2e-12,69.4
SONDA_P_oxyspora,SRR9590826.212760,97.30,37,1,0,1,37,405,441,1e-10,63.9
SONDA_P_oxyspora,SRR9590826.210001,100.00,37,0,0,1,37,121,85,2e-12,69.4
SONDA_P_oxyspora,SRR9590826.210001,100.00,37,0,0,1,37,405,441,2e-12,69.4
SONDA_P_oxyspora,SRR9590826.209998,100.00,37,0,0,1,37,121,85,2e-12,69.4
SONDA_P_oxyspora,SRR9590826.209998,100.00,37,0,0,1,37,405,441,2e-12,69.4
SONDA_P_oxyspora,SRR9590826.209221,100.00,37,0,0,1,37,121,85,2e-12,69.4
SONDA_P_oxyspora,SRR9590826.209221,100.00,37,0,0,1,37,405,441,2e-12,69.4
SONDA_P_oxyspora,SRR9590826.209142,100.00,37,0,0,1,37,121,85,2e-12,69.4
SONDA_P_oxyspora,SRR9590826.209142,97.30,37,1,0,1,37,405,441,1e-10,63.9
SONDA_P_oxyspora,SRR9590826.208852,100.00,37,0,0,1,37,121,85,2e-12,69.4
SONDA_P_oxyspora,SRR9590826.208852,100.00,37,0,0,1,37,405,441,2e-12,69.4
SONDA_P_oxyspora,SRR9590826.208413,100.00,37,0,0,1,37,121,85,2e-12,69.4
SONDA_P_oxyspora,SRR9590826.208413,97.30,37,1,0,1,37,405,441,1e-10,63.9
SONDA_P_oxyspora,SRR9590826.208189,100.00,37,0,0,1,37,121,85,2e-12,69.4
SONDA_P_oxyspora,SRR9590826.208189,100.00,37,0,0,1,37,405,441,2e-12,69.4
SONDA_P_oxyspora,SRR9590826.207889,100.00,37,0,0,1,37,121,85,2e-12,69.4
SONDA_P_oxyspora,SRR9590826.207401,100.00,37,0,0,1,37,121,85,2e-12,69.4
SONDA_P_oxyspora,SRR9590826.207401,100.00,37,0,0,1,37,405,441,2e-12,69.4
SONDA_P_oxyspora,SRR9590826.205704,100.00,37,0,0,1,37,121,85,2e-12,69.4
SONDA_P_oxyspora,SRR9590826.205354,100.00,37,0,0,1,37,121,85,2e-12,69.4
SONDA_P_oxyspora,SRR9590826.205354,100.00,37,0,0,1,37,405,441,2e-12,69.4
SONDA_P_oxyspora,SRR9590826.204808,100.00,37,0,0,1,37,121,85,2e-12,69.4
SONDA_P_oxyspora,SRR9590826.204808,100.00,37,0,0,1,37,405,441,2e-12,69.4
SONDA_P_oxyspora,SRR9590826.203623,100.00,37,0,0,1,37,121,85,2e-12,69.4
SONDA_P_oxyspora,SRR9590826.203623,100.00,37,0,0,1,37,405,441,2e-12,69.4
SONDA_P_oxyspora,SRR9590826.202071,100.00,37,0,0,1,37,121,85,2e-12,69.4
SONDA_P_oxyspora,SRR9590826.202071,100.00,37,0,0,1,37,405,441,2e-12,69.4
SONDA_P_oxyspora,SRR9590826.201537,100.00,37,0,0,1,37,121,85,2e-12,69.4
SONDA_P_oxyspora,SRR9590826.201537,97.30,37,1,0,1,37,405,441,1e-10,63.9
SONDA_P_oxyspora,SRR9590826.200986,100.00,37,0,0,1,37,121,85,2e-12,69.4
SONDA_P_oxyspora,SRR9590826.200986,100.00,37,0,0,1,37,405,441,2e-12,69.4
SONDA_P_oxyspora,SRR9590826.200959,100.00,37,0,0,1,37,121,85,2e-12,69.4
SONDA_P_oxyspora,SRR9590826.200959,100.00,34,0,0,1,34,405,438,1e-10,63.9
SONDA_P_oxyspora,SRR9590826.197586,100.00,37,0,0,1,37,121,85,2e-12,69.4
SONDA_P_oxyspora,SRR9590826.197586,100.00,37,0,0,1,37,405,441,2e-12,69.4
SONDA_P_oxyspora,SRR9590826.197090,100.00,37,0,0,1,37,121,85,2e-12,69.4
SONDA_P_oxyspora,SRR9590826.197090,100.00,37,0,0,1,37,405,441,2e-12,69.4
SONDA_P_oxyspora,SRR9590826.196553,100.00,37,0,0,1,37,121,85,2e-12,69.4
SONDA_P_oxyspora,SRR9590826.196553,100.00,37,0,0,1,37,405,441,2e-12,69.4
SONDA_P_oxyspora,SRR9590826.195910,100.00,37,0,0,1,37,121,85,2e-12,69.4
SONDA_P_oxyspora,SRR9590826.195910,97.30,37,1,0,1,37,405,441,1e-10,63.9
SONDA_P_oxyspora,SRR9590826.195696,100.00,37,0,0,1,37,121,85,2e-12,69.4
SONDA_P_oxyspora,SRR9590826.195696,97.30,37,1,0,1,37,405,441,1e-10,63.9
SONDA_P_oxyspora,SRR9590826.194928,100.00,37,0,0,1,37,121,85,2e-12,69.4
SONDA_P_oxyspora,SRR9590826.194928,100.00,37,0,0,1,37,405,441,2e-12,69.4
SONDA_P_oxyspora,SRR9590826.194805,100.00,37,0,0,1,37,121,85,2e-12,69.4
SONDA_P_oxyspora,SRR9590826.194805,100.00,37,0,0,1,37,405,441,2e-12,69.4
SONDA_P_oxyspora,SRR9590826.193602,100.00,37,0,0,1,37,121,85,2e-12,69.4
SONDA_P_oxyspora,SRR9590826.193425,100.00,37,0,0,1,37,121,85,2e-12,69.4
SONDA_P_oxyspora,SRR9590826.193425,94.59,37,2,0,1,37,405,441,5e-09,58.4
SONDA_P_oxyspora,SRR9590826.192618,100.00,37,0,0,1,37,121,85,2e-12,69.4
SONDA_P_oxyspora,SRR9590826.192618,100.00,37,0,0,1,37,405,441,2e-12,69.4
SONDA_P_oxyspora,SRR9590826.192616,100.00,37,0,0,1,37,121,85,2e-12,69.4
SONDA_P_oxyspora,SRR9590826.191020,100.00,37,0,0,1,37,121,85,2e-12,69.4
SONDA_P_oxyspora,SRR9590826.191020,100.00,37,0,0,1,37,405,441,2e-12,69.4
SONDA_P_oxyspora,SRR9590826.190904,100.00,37,0,0,1,37,121,85,2e-12,69.4
SONDA_P_oxyspora,SRR9590826.190904,97.30,37,1,0,1,37,405,441,1e-10,63.9
SONDA_P_oxyspora,SRR9590826.190207,100.00,37,0,0,1,37,120,84,2e-12,69.4
SONDA_P_oxyspora,SRR9590826.190207,100.00,37,0,0,1,37,404,440,2e-12,69.4
SONDA_P_oxyspora,SRR9590826.190082,100.00,37,0,0,1,37,121,85,2e-12,69.4
SONDA_P_oxyspora,SRR9590826.190082,97.30,37,1,0,1,37,405,441,1e-10,63.9
SONDA_P_oxyspora,SRR9590826.189715,100.00,37,0,0,1,37,121,85,2e-12,69.4
SONDA_P_oxyspora,SRR9590826.189715,100.00,37,0,0,1,37,405,441,2e-12,69.4
SONDA_P_oxyspora,SRR9590826.188874,100.00,37,0,0,1,37,121,85,2e-12,69.4
SONDA_P_oxyspora,SRR9590826.188850,100.00,37,0,0,1,37,121,85,2e-12,69.4
SONDA_P_oxyspora,SRR9590826.188850,100.00,37,0,0,1,37,405,441,2e-12,69.4
SONDA_P_oxyspora,SRR9590826.188238,100.00,37,0,0,1,37,121,85,2e-12,69.4
SONDA_P_oxyspora,SRR9590826.188238,97.30,37,1,0,1,37,405,441,1e-10,63.9
SONDA_P_oxyspora,SRR9590826.184592,100.00,37,0,0,1,37,121,85,2e-12,69.4
SONDA_P_oxyspora,SRR9590826.184592,100.00,37,0,0,1,37,405,441,2e-12,69.4
SONDA_P_oxyspora,SRR9590826.183569,100.00,37,0,0,1,37,121,85,2e-12,69.4
SONDA_P_oxyspora,SRR9590826.182836,100.00,37,0,0,1,37,121,85,2e-12,69.4
SONDA_P_oxyspora,SRR9590826.182836,100.00,37,0,0,1,37,405,441,2e-12,69.4
SONDA_P_oxyspora,SRR9590826.182206,100.00,37,0,0,1,37,121,85,2e-12,69.4
SONDA_P_oxyspora,SRR9590826.180759,100.00,37,0,0,1,37,121,85,2e-12,69.4
SONDA_P_oxyspora,SRR9590826.179788,100.00,37,0,0,1,37,121,85,2e-12,69.4
SONDA_P_oxyspora,SRR9590826.179788,100.00,37,0,0,1,37,405,441,2e-12,69.4
SONDA_P_oxyspora,SRR9590826.178804,100.00,37,0,0,1,37,121,85,2e-12,69.4
SONDA_P_oxyspora,SRR9590826.178804,100.00,37,0,0,1,37,405,441,2e-12,69.4
SONDA_P_oxyspora,SRR9590826.178663,100.00,37,0,0,1,37,121,85,2e-12,69.4
SONDA_P_oxyspora,SRR9590826.177529,100.00,37,0,0,1,37,121,85,2e-12,69.4
SONDA_P_oxyspora,SRR9590826.177529,100.00,37,0,0,1,37,405,441,2e-12,69.4
SONDA_P_oxyspora,SRR9590826.177137,100.00,37,0,0,1,37,121,85,2e-12,69.4
SONDA_P_oxyspora,SRR9590826.177137,97.30,37,1,0,1,37,405,441,1e-10,63.9
SONDA_P_oxyspora,SRR9590826.175604,100.00,37,0,0,1,37,121,85,2e-12,69.4
SONDA_P_oxyspora,SRR9590826.175604,100.00,37,0,0,1,37,405,441,2e-12,69.4
SONDA_P_oxyspora,SRR9590826.173427,100.00,37,0,0,1,37,121,85,2e-12,69.4
SONDA_P_oxyspora,SRR9590826.170456,100.00,37,0,0,1,37,121,85,2e-12,69.4
SONDA_P_oxyspora,SRR9590826.170456,100.00,37,0,0,1,37,405,441,2e-12,69.4
SONDA_P_oxyspora,SRR9590826.167940,100.00,37,0,0,1,37,121,85,2e-12,69.4
SONDA_P_oxyspora,SRR9590826.167931,100.00,37,0,0,1,37,121,85,2e-12,69.4
SONDA_P_oxyspora,SRR9590826.167929,100.00,37,0,0,1,37,121,85,2e-12,69.4
SONDA_P_oxyspora,SRR9590826.167929,97.30,37,1,0,1,37,405,441,1e-10,63.9
SONDA_P_oxyspora,SRR9590826.166337,100.00,37,0,0,1,37,121,85,2e-12,69.4
SONDA_P_oxyspora,SRR9590826.166337,100.00,37,0,0,1,37,405,441,2e-12,69.4
SONDA_P_oxyspora,SRR9590826.166121,100.00,37,0,0,1,37,121,85,2e-12,69.4
SONDA_P_oxyspora,SRR9590826.165388,100.00,37,0,0,1,37,121,85,2e-12,69.4
SONDA_P_oxyspora,SRR9590826.164886,100.00,37,0,0,1,37,121,85,2e-12,69.4
SONDA_P_oxyspora,SRR9590826.164886,100.00,37,0,0,1,37,405,441,2e-12,69.4
SONDA_P_oxyspora,SRR9590826.163888,100.00,37,0,0,1,37,121,85,2e-12,69.4
SONDA_P_oxyspora,SRR9590826.163888,100.00,37,0,0,1,37,405,441,2e-12,69.4
SONDA_P_oxyspora,SRR9590826.163567,100.00,37,0,0,1,37,121,85,2e-12,69.4
SONDA_P_oxyspora,SRR9590826.163567,100.00,37,0,0,1,37,405,441,2e-12,69.4
SONDA_P_oxyspora,SRR9590826.161697,100.00,37,0,0,1,37,121,85,2e-12,69.4
SONDA_P_oxyspora,SRR9590826.160510,100.00,37,0,0,1,37,120,84,2e-12,69.4
SONDA_P_oxyspora,SRR9590826.160510,100.00,37,0,0,1,37,404,440,2e-12,69.4
SONDA_P_oxyspora,SRR9590826.160166,100.00,37,0,0,1,37,121,85,2e-12,69.4
SONDA_P_oxyspora,SRR9590826.160166,100.00,37,0,0,1,37,405,441,2e-12,69.4
SONDA_P_oxyspora,SRR9590826.158867,100.00,37,0,0,1,37,121,85,2e-12,69.4
SONDA_P_oxyspora,SRR9590826.158867,100.00,37,0,0,1,37,405,441,2e-12,69.4
SONDA_P_oxyspora,SRR9590826.158197,100.00,37,0,0,1,37,121,85,2e-12,69.4
SONDA_P_oxyspora,SRR9590826.158197,100.00,37,0,0,1,37,405,441,2e-12,69.4
SONDA_P_oxyspora,SRR9590826.156678,100.00,37,0,0,1,37,121,85,2e-12,69.4
SONDA_P_oxyspora,SRR9590826.156678,100.00,37,0,0,1,37,405,441,2e-12,69.4
SONDA_P_oxyspora,SRR9590826.156148,100.00,37,0,0,1,37,121,85,2e-12,69.4
SONDA_P_oxyspora,SRR9590826.156024,100.00,37,0,0,1,37,121,85,2e-12,69.4
SONDA_P_oxyspora,SRR9590826.155949,100.00,37,0,0,1,37,121,85,2e-12,69.4
SONDA_P_oxyspora,SRR9590826.154522,100.00,37,0,0,1,37,121,85,2e-12,69.4
SONDA_P_oxyspora,SRR9590826.154522,100.00,37,0,0,1,37,405,441,2e-12,69.4
SONDA_P_oxyspora,SRR9590826.154514,100.00,37,0,0,1,37,121,85,2e-12,69.4
SONDA_P_oxyspora,SRR9590826.154145,100.00,37,0,0,1,37,121,85,2e-12,69.4
SONDA_P_oxyspora,SRR9590826.153055,100.00,37,0,0,1,37,121,85,2e-12,69.4
SONDA_P_oxyspora,SRR9590826.153055,100.00,37,0,0,1,37,405,441,2e-12,69.4
SONDA_P_oxyspora,SRR9590826.152623,100.00,37,0,0,1,37,121,85,2e-12,69.4
SONDA_P_oxyspora,SRR9590826.152623,97.30,37,1,0,1,37,405,441,1e-10,63.9
SONDA_P_oxyspora,SRR9590826.151648,100.00,37,0,0,1,37,121,85,2e-12,69.4
SONDA_P_oxyspora,SRR9590826.151648,100.00,37,0,0,1,37,405,441,2e-12,69.4
SONDA_P_oxyspora,SRR9590826.148609,100.00,37,0,0,1,37,121,85,2e-12,69.4
SONDA_P_oxyspora,SRR9590826.147910,100.00,37,0,0,1,37,121,85,2e-12,69.4
SONDA_P_oxyspora,SRR9590826.147910,100.00,37,0,0,1,37,405,441,2e-12,69.4
SONDA_P_oxyspora,SRR9590826.147903,100.00,37,0,0,1,37,121,85,2e-12,69.4
SONDA_P_oxyspora,SRR9590826.147903,100.00,37,0,0,1,37,405,441,2e-12,69.4
SONDA_P_oxyspora,SRR9590826.145379,100.00,37,0,0,1,37,121,85,2e-12,69.4
SONDA_P_oxyspora,SRR9590826.145379,100.00,37,0,0,1,37,405,441,2e-12,69.4
SONDA_P_oxyspora,SRR9590826.145154,100.00,37,0,0,1,37,121,85,2e-12,69.4
SONDA_P_oxyspora,SRR9590826.143709,100.00,37,0,0,1,37,121,85,2e-12,69.4
SONDA_P_oxyspora,SRR9590826.143379,100.00,37,0,0,1,37,121,85,2e-12,69.4
SONDA_P_oxyspora,SRR9590826.143379,100.00,37,0,0,1,37,405,441,2e-12,69.4
SONDA_P_oxyspora,SRR9590826.143159,100.00,37,0,0,1,37,121,85,2e-12,69.4
SONDA_P_oxyspora,SRR9590826.143159,100.00,37,0,0,1,37,405,441,2e-12,69.4
SONDA_P_oxyspora,SRR9590826.143153,100.00,37,0,0,1,37,121,85,2e-12,69.4
SONDA_P_oxyspora,SRR9590826.143153,100.00,37,0,0,1,37,405,441,2e-12,69.4
SONDA_P_oxyspora,SRR9590826.142795,100.00,37,0,0,1,37,121,85,2e-12,69.4
SONDA_P_oxyspora,SRR9590826.142795,100.00,37,0,0,1,37,405,441,2e-12,69.4
SONDA_P_oxyspora,SRR9590826.141364,100.00,37,0,0,1,37,121,85,2e-12,69.4
SONDA_P_oxyspora,SRR9590826.141364,100.00,37,0,0,1,37,405,441,2e-12,69.4
SONDA_P_oxyspora,SRR9590826.139585,100.00,37,0,0,1,37,121,85,2e-12,69.4
SONDA_P_oxyspora,SRR9590826.139585,100.00,37,0,0,1,37,405,441,2e-12,69.4
SONDA_P_oxyspora,SRR9590826.139143,100.00,37,0,0,1,37,121,85,2e-12,69.4
SONDA_P_oxyspora,SRR9590826.139143,100.00,37,0,0,1,37,405,441,2e-12,69.4
SONDA_P_oxyspora,SRR9590826.139132,100.00,37,0,0,1,37,121,85,2e-12,69.4
SONDA_P_oxyspora,SRR9590826.139132,100.00,37,0,0,1,37,405,441,2e-12,69.4
SONDA_P_oxyspora,SRR9590826.138436,100.00,37,0,0,1,37,121,85,2e-12,69.4
SONDA_P_oxyspora,SRR9590826.138436,100.00,37,0,0,1,37,405,441,2e-12,69.4
SONDA_P_oxyspora,SRR9590826.138091,100.00,37,0,0,1,37,121,85,2e-12,69.4
SONDA_P_oxyspora,SRR9590826.138091,100.00,37,0,0,1,37,405,441,2e-12,69.4
SONDA_P_oxyspora,SRR9590826.137520,100.00,37,0,0,1,37,405,441,2e-12,69.4
SONDA_P_oxyspora,SRR9590826.137520,100.00,36,0,0,1,36,121,86,8e-12,67.6
SONDA_P_oxyspora,SRR9590826.137112,100.00,37,0,0,1,37,121,85,2e-12,69.4
SONDA_P_oxyspora,SRR9590826.137105,100.00,37,0,0,1,37,121,85,2e-12,69.4
SONDA_P_oxyspora,SRR9590826.137105,100.00,37,0,0,1,37,405,441,2e-12,69.4
SONDA_P_oxyspora,SRR9590826.136949,100.00,37,0,0,1,37,120,84,2e-12,69.4
SONDA_P_oxyspora,SRR9590826.131103,100.00,37,0,0,1,37,121,85,2e-12,69.4
SONDA_P_oxyspora,SRR9590826.131103,100.00,37,0,0,1,37,405,441,2e-12,69.4
SONDA_P_oxyspora,SRR9590826.130208,100.00,37,0,0,1,37,121,85,2e-12,69.4
SONDA_P_oxyspora,SRR9590826.130208,100.00,37,0,0,1,37,405,441,2e-12,69.4
SONDA_P_oxyspora,SRR9590826.126963,100.00,37,0,0,1,37,121,85,2e-12,69.4
SONDA_P_oxyspora,SRR9590826.126963,97.30,37,1,0,1,37,405,441,1e-10,63.9
SONDA_P_oxyspora,SRR9590826.126432,100.00,37,0,0,1,37,121,85,2e-12,69.4
SONDA_P_oxyspora,SRR9590826.126432,97.30,37,1,0,1,37,405,441,1e-10,63.9
SONDA_P_oxyspora,SRR9590826.126425,100.00,37,0,0,1,37,121,85,2e-12,69.4
SONDA_P_oxyspora,SRR9590826.126425,100.00,37,0,0,1,37,405,441,2e-12,69.4
SONDA_P_oxyspora,SRR9590826.125040,100.00,37,0,0,1,37,121,85,2e-12,69.4
SONDA_P_oxyspora,SRR9590826.125032,100.00,37,0,0,1,37,121,85,2e-12,69.4
SONDA_P_oxyspora,SRR9590826.125032,100.00,37,0,0,1,37,405,441,2e-12,69.4
SONDA_P_oxyspora,SRR9590826.124253,100.00,37,0,0,1,37,121,85,2e-12,69.4
SONDA_P_oxyspora,SRR9590826.124253,100.00,37,0,0,1,37,405,441,2e-12,69.4
SONDA_P_oxyspora,SRR9590826.123474,100.00,37,0,0,1,37,121,85,2e-12,69.4
SONDA_P_oxyspora,SRR9590826.123474,100.00,37,0,0,1,37,405,441,2e-12,69.4
SONDA_P_oxyspora,SRR9590826.123467,100.00,37,0,0,1,37,121,85,2e-12,69.4
SONDA_P_oxyspora,SRR9590826.123467,100.00,37,0,0,1,37,405,441,2e-12,69.4
SONDA_P_oxyspora,SRR9590826.122477,100.00,37,0,0,1,37,121,85,2e-12,69.4
SONDA_P_oxyspora,SRR9590826.122477,100.00,37,0,0,1,37,405,441,2e-12,69.4
SONDA_P_oxyspora,SRR9590826.121591,100.00,37,0,0,1,37,121,85,2e-12,69.4
SONDA_P_oxyspora,SRR9590826.117682,100.00,37,0,0,1,37,121,85,2e-12,69.4
SONDA_P_oxyspora,SRR9590826.116978,100.00,37,0,0,1,37,121,85,2e-12,69.4
SONDA_P_oxyspora,SRR9590826.116978,100.00,37,0,0,1,37,405,441,2e-12,69.4
SONDA_P_oxyspora,SRR9590826.116077,100.00,37,0,0,1,37,121,85,2e-12,69.4
SONDA_P_oxyspora,SRR9590826.116077,97.14,35,1,0,1,35,405,439,1e-09,60.2
SONDA_P_oxyspora,SRR9590826.112774,100.00,37,0,0,1,37,121,85,2e-12,69.4
SONDA_P_oxyspora,SRR9590826.112774,100.00,37,0,0,1,37,405,441,2e-12,69.4
SONDA_P_oxyspora,SRR9590826.111239,100.00,37,0,0,1,37,121,85,2e-12,69.4
SONDA_P_oxyspora,SRR9590826.111239,100.00,37,0,0,1,37,405,441,2e-12,69.4
SONDA_P_oxyspora,SRR9590826.111185,100.00,37,0,0,1,37,121,85,2e-12,69.4
SONDA_P_oxyspora,SRR9590826.111185,100.00,37,0,0,1,37,405,441,2e-12,69.4
SONDA_P_oxyspora,SRR9590826.110819,100.00,37,0,0,1,37,121,85,2e-12,69.4
SONDA_P_oxyspora,SRR9590826.110819,100.00,37,0,0,1,37,405,441,2e-12,69.4
SONDA_P_oxyspora,SRR9590826.110442,100.00,37,0,0,1,37,121,85,2e-12,69.4
SONDA_P_oxyspora,SRR9590826.110442,100.00,34,0,0,4,37,408,441,1e-10,63.9
SONDA_P_oxyspora,SRR9590826.109666,100.00,37,0,0,1,37,121,85,2e-12,69.4
SONDA_P_oxyspora,SRR9590826.109666,100.00,37,0,0,1,37,405,441,2e-12,69.4
SONDA_P_oxyspora,SRR9590826.109218,100.00,37,0,0,1,37,121,85,2e-12,69.4
SONDA_P_oxyspora,SRR9590826.109218,100.00,37,0,0,1,37,405,441,2e-12,69.4
SONDA_P_oxyspora,SRR9590826.109021,100.00,37,0,0,1,37,121,85,2e-12,69.4
SONDA_P_oxyspora,SRR9590826.106802,100.00,37,0,0,1,37,121,85,2e-12,69.4
SONDA_P_oxyspora,SRR9590826.105783,100.00,37,0,0,1,37,121,85,2e-12,69.4
SONDA_P_oxyspora,SRR9590826.105783,100.00,37,0,0,1,37,405,441,2e-12,69.4
SONDA_P_oxyspora,SRR9590826.104983,100.00,37,0,0,1,37,121,85,2e-12,69.4
SONDA_P_oxyspora,SRR9590826.104983,100.00,37,0,0,1,37,405,441,2e-12,69.4
SONDA_P_oxyspora,SRR9590826.104981,100.00,37,0,0,1,37,121,85,2e-12,69.4
SONDA_P_oxyspora,SRR9590826.104981,100.00,37,0,0,1,37,405,441,2e-12,69.4
SONDA_P_oxyspora,SRR9590826.103137,100.00,37,0,0,1,37,121,85,2e-12,69.4
SONDA_P_oxyspora,SRR9590826.102400,100.00,37,0,0,1,37,121,85,2e-12,69.4
SONDA_P_oxyspora,SRR9590826.102400,100.00,37,0,0,1,37,405,441,2e-12,69.4
SONDA_P_oxyspora,SRR9590826.95035,100.00,37,0,0,1,37,121,85,2e-12,69.4
SONDA_P_oxyspora,SRR9590826.95035,100.00,37,0,0,1,37,405,441,2e-12,69.4
SONDA_P_oxyspora,SRR9590826.94828,100.00,37,0,0,1,37,405,441,2e-12,69.4
SONDA_P_oxyspora,SRR9590826.94828,97.30,37,1,0,1,37,121,85,1e-10,63.9
SONDA_P_oxyspora,SRR9590826.94214,100.00,37,0,0,1,37,121,85,2e-12,69.4
SONDA_P_oxyspora,SRR9590826.94214,100.00,37,0,0,1,37,405,441,2e-12,69.4
SONDA_P_oxyspora,SRR9590826.93442,100.00,37,0,0,1,37,121,85,2e-12,69.4
SONDA_P_oxyspora,SRR9590826.93442,100.00,37,0,0,1,37,405,441,2e-12,69.4
SONDA_P_oxyspora,SRR9590826.91322,100.00,37,0,0,1,37,121,85,2e-12,69.4
SONDA_P_oxyspora,SRR9590826.90745,100.00,37,0,0,1,37,121,85,2e-12,69.4
SONDA_P_oxyspora,SRR9590826.90745,100.00,37,0,0,1,37,405,441,2e-12,69.4
SONDA_P_oxyspora,SRR9590826.90636,100.00,37,0,0,1,37,121,85,2e-12,69.4
SONDA_P_oxyspora,SRR9590826.90636,100.00,37,0,0,1,37,405,441,2e-12,69.4
SONDA_P_oxyspora,SRR9590826.88747,100.00,37,0,0,1,37,120,84,2e-12,69.4
SONDA_P_oxyspora,SRR9590826.88747,100.00,37,0,0,1,37,404,440,2e-12,69.4
SONDA_P_oxyspora,SRR9590826.88332,100.00,37,0,0,1,37,121,85,2e-12,69.4
SONDA_P_oxyspora,SRR9590826.88332,100.00,37,0,0,1,37,405,441,2e-12,69.4
SONDA_P_oxyspora,SRR9590826.87911,100.00,37,0,0,1,37,121,85,2e-12,69.4
SONDA_P_oxyspora,SRR9590826.87911,100.00,37,0,0,1,37,405,441,2e-12,69.4
SONDA_P_oxyspora,SRR9590826.87908,100.00,37,0,0,1,37,121,85,2e-12,69.4
SONDA_P_oxyspora,SRR9590826.87890,100.00,37,0,0,1,37,121,85,2e-12,69.4
SONDA_P_oxyspora,SRR9590826.87696,100.00,37,0,0,1,37,121,85,2e-12,69.4
SONDA_P_oxyspora,SRR9590826.87628,100.00,37,0,0,1,37,121,85,2e-12,69.4
SONDA_P_oxyspora,SRR9590826.87628,94.59,37,2,0,1,37,405,441,5e-09,58.4
SONDA_P_oxyspora,SRR9590826.86725,100.00,37,0,0,1,37,121,85,2e-12,69.4
SONDA_P_oxyspora,SRR9590826.86725,97.30,37,1,0,1,37,405,441,1e-10,63.9
SONDA_P_oxyspora,SRR9590826.85578,100.00,37,0,0,1,37,121,85,2e-12,69.4
SONDA_P_oxyspora,SRR9590826.81250,100.00,37,0,0,1,37,121,85,2e-12,69.4
SONDA_P_oxyspora,SRR9590826.81250,100.00,37,0,0,1,37,405,441,2e-12,69.4
SONDA_P_oxyspora,SRR9590826.81202,100.00,37,0,0,1,37,121,85,2e-12,69.4
SONDA_P_oxyspora,SRR9590826.81202,100.00,37,0,0,1,37,405,441,2e-12,69.4
SONDA_P_oxyspora,SRR9590826.80743,100.00,37,0,0,1,37,121,85,2e-12,69.4
SONDA_P_oxyspora,SRR9590826.80743,100.00,37,0,0,1,37,405,441,2e-12,69.4
SONDA_P_oxyspora,SRR9590826.78912,100.00,37,0,0,1,37,121,85,2e-12,69.4
SONDA_P_oxyspora,SRR9590826.78912,100.00,37,0,0,1,37,405,441,2e-12,69.4
SONDA_P_oxyspora,SRR9590826.78606,100.00,37,0,0,1,37,121,85,2e-12,69.4
SONDA_P_oxyspora,SRR9590826.78606,100.00,37,0,0,1,37,405,441,2e-12,69.4
SONDA_P_oxyspora,SRR9590826.78507,100.00,37,0,0,1,37,121,85,2e-12,69.4
SONDA_P_oxyspora,SRR9590826.78248,100.00,37,0,0,1,37,121,85,2e-12,69.4
SONDA_P_oxyspora,SRR9590826.78239,100.00,37,0,0,1,37,121,85,2e-12,69.4
SONDA_P_oxyspora,SRR9590826.78239,97.30,37,1,0,1,37,405,441,1e-10,63.9
SONDA_P_oxyspora,SRR9590826.78119,100.00,37,0,0,1,37,120,84,2e-12,69.4
SONDA_P_oxyspora,SRR9590826.77021,100.00,37,0,0,1,37,121,85,2e-12,69.4
SONDA_P_oxyspora,SRR9590826.77021,100.00,37,0,0,1,37,405,441,2e-12,69.4
SONDA_P_oxyspora,SRR9590826.76924,100.00,37,0,0,1,37,121,85,2e-12,69.4
SONDA_P_oxyspora,SRR9590826.76924,100.00,37,0,0,1,37,405,441,2e-12,69.4
SONDA_P_oxyspora,SRR9590826.76525,100.00,37,0,0,1,37,120,84,2e-12,69.4
SONDA_P_oxyspora,SRR9590826.76525,100.00,37,0,0,1,37,404,440,2e-12,69.4
SONDA_P_oxyspora,SRR9590826.76437,100.00,37,0,0,1,37,121,85,2e-12,69.4
SONDA_P_oxyspora,SRR9590826.75560,100.00,37,0,0,1,37,121,85,2e-12,69.4
SONDA_P_oxyspora,SRR9590826.75560,100.00,37,0,0,1,37,405,441,2e-12,69.4
SONDA_P_oxyspora,SRR9590826.71164,100.00,37,0,0,1,37,121,85,2e-12,69.4
SONDA_P_oxyspora,SRR9590826.71164,100.00,37,0,0,1,37,405,441,2e-12,69.4
SONDA_P_oxyspora,SRR9590826.70680,100.00,37,0,0,1,37,121,85,2e-12,69.4
SONDA_P_oxyspora,SRR9590826.70680,100.00,37,0,0,1,37,405,441,2e-12,69.4
SONDA_P_oxyspora,SRR9590826.69283,100.00,37,0,0,1,37,121,85,2e-12,69.4
SONDA_P_oxyspora,SRR9590826.69283,97.30,37,1,0,1,37,405,441,1e-10,63.9
SONDA_P_oxyspora,SRR9590826.69072,100.00,37,0,0,1,37,121,85,2e-12,69.4
SONDA_P_oxyspora,SRR9590826.68842,100.00,37,0,0,1,37,121,85,2e-12,69.4
SONDA_P_oxyspora,SRR9590826.68103,100.00,37,0,0,1,37,121,85,2e-12,69.4
SONDA_P_oxyspora,SRR9590826.68103,97.30,37,1,0,1,37,405,441,1e-10,63.9
SONDA_P_oxyspora,SRR9590826.67351,100.00,37,0,0,1,37,121,85,2e-12,69.4
SONDA_P_oxyspora,SRR9590826.67351,97.30,37,1,0,1,37,405,441,1e-10,63.9
SONDA_P_oxyspora,SRR9590826.67348,100.00,37,0,0,1,37,120,84,2e-12,69.4
SONDA_P_oxyspora,SRR9590826.67348,97.30,37,1,0,1,37,404,440,1e-10,63.9
SONDA_P_oxyspora,SRR9590826.67344,100.00,37,0,0,1,37,121,85,2e-12,69.4
SONDA_P_oxyspora,SRR9590826.66065,100.00,37,0,0,1,37,121,85,2e-12,69.4
SONDA_P_oxyspora,SRR9590826.62793,100.00,37,0,0,1,37,121,85,2e-12,69.4
SONDA_P_oxyspora,SRR9590826.62118,100.00,37,0,0,1,37,121,85,2e-12,69.4
SONDA_P_oxyspora,SRR9590826.62118,97.30,37,1,0,1,37,405,441,1e-10,63.9
SONDA_P_oxyspora,SRR9590826.61962,100.00,37,0,0,1,37,121,85,2e-12,69.4
SONDA_P_oxyspora,SRR9590826.61962,100.00,37,0,0,1,37,405,441,2e-12,69.4
SONDA_P_oxyspora,SRR9590826.61301,100.00,37,0,0,1,37,121,85,2e-12,69.4
SONDA_P_oxyspora,SRR9590826.61301,100.00,37,0,0,1,37,405,441,2e-12,69.4
SONDA_P_oxyspora,SRR9590826.59283,100.00,37,0,0,1,37,121,85,2e-12,69.4
SONDA_P_oxyspora,SRR9590826.59283,100.00,37,0,0,1,37,405,441,2e-12,69.4
SONDA_P_oxyspora,SRR9590826.58125,100.00,37,0,0,1,37,121,85,2e-12,69.4
SONDA_P_oxyspora,SRR9590826.58125,100.00,37,0,0,1,37,405,441,2e-12,69.4
SONDA_P_oxyspora,SRR9590826.57266,100.00,37,0,0,1,37,120,84,2e-12,69.4
SONDA_P_oxyspora,SRR9590826.55905,100.00,37,0,0,1,37,121,85,2e-12,69.4
SONDA_P_oxyspora,SRR9590826.55905,100.00,37,0,0,1,37,405,441,2e-12,69.4
SONDA_P_oxyspora,SRR9590826.55884,100.00,37,0,0,1,37,121,85,2e-12,69.4
SONDA_P_oxyspora,SRR9590826.55884,100.00,37,0,0,1,37,405,441,2e-12,69.4
SONDA_P_oxyspora,SRR9590826.54199,100.00,37,0,0,1,37,121,85,2e-12,69.4
SONDA_P_oxyspora,SRR9590826.54199,100.00,37,0,0,1,37,405,441,2e-12,69.4
SONDA_P_oxyspora,SRR9590826.53983,100.00,37,0,0,1,37,121,85,2e-12,69.4
SONDA_P_oxyspora,SRR9590826.53098,100.00,37,0,0,1,37,121,85,2e-12,69.4
SONDA_P_oxyspora,SRR9590826.53098,100.00,37,0,0,1,37,405,441,2e-12,69.4
SONDA_P_oxyspora,SRR9590826.50586,100.00,37,0,0,1,37,121,85,2e-12,69.4
SONDA_P_oxyspora,SRR9590826.49878,100.00,37,0,0,1,37,121,85,2e-12,69.4
SONDA_P_oxyspora,SRR9590826.49878,100.00,37,0,0,1,37,405,441,2e-12,69.4
SONDA_P_oxyspora,SRR9590826.49383,100.00,37,0,0,1,37,121,85,2e-12,69.4
SONDA_P_oxyspora,SRR9590826.49383,100.00,37,0,0,1,37,405,441,2e-12,69.4
SONDA_P_oxyspora,SRR9590826.47885,100.00,37,0,0,1,37,121,85,2e-12,69.4
SONDA_P_oxyspora,SRR9590826.47885,100.00,37,0,0,1,37,405,441,2e-12,69.4
SONDA_P_oxyspora,SRR9590826.46562,100.00,37,0,0,1,37,121,85,2e-12,69.4
SONDA_P_oxyspora,SRR9590826.46562,100.00,37,0,0,1,37,405,441,2e-12,69.4
SONDA_P_oxyspora,SRR9590826.45167,100.00,37,0,0,1,37,121,85,2e-12,69.4
SONDA_P_oxyspora,SRR9590826.45167,100.00,37,0,0,1,37,405,441,2e-12,69.4
SONDA_P_oxyspora,SRR9590826.44845,100.00,37,0,0,1,37,121,85,2e-12,69.4
SONDA_P_oxyspora,SRR9590826.44845,100.00,37,0,0,1,37,405,441,2e-12,69.4
SONDA_P_oxyspora,SRR9590826.44187,100.00,37,0,0,1,37,121,85,2e-12,69.4
SONDA_P_oxyspora,SRR9590826.44187,100.00,37,0,0,1,37,405,441,2e-12,69.4
SONDA_P_oxyspora,SRR9590826.43490,100.00,37,0,0,1,37,121,85,2e-12,69.4
SONDA_P_oxyspora,SRR9590826.43490,100.00,37,0,0,1,37,405,441,2e-12,69.4
SONDA_P_oxyspora,SRR9590826.43481,100.00,37,0,0,1,37,121,85,2e-12,69.4
SONDA_P_oxyspora,SRR9590826.43481,97.30,37,1,0,1,37,405,441,1e-10,63.9
SONDA_P_oxyspora,SRR9590826.42190,100.00,37,0,0,1,37,121,85,2e-12,69.4
SONDA_P_oxyspora,SRR9590826.42190,100.00,37,0,0,1,37,405,441,2e-12,69.4
SONDA_P_oxyspora,SRR9590826.42183,100.00,37,0,0,1,37,121,85,2e-12,69.4
SONDA_P_oxyspora,SRR9590826.42183,100.00,37,0,0,1,37,405,441,2e-12,69.4
SONDA_P_oxyspora,SRR9590826.39604,100.00,37,0,0,1,37,121,85,2e-12,69.4
SONDA_P_oxyspora,SRR9590826.39604,100.00,37,0,0,1,37,405,441,2e-12,69.4
SONDA_P_oxyspora,SRR9590826.36124,100.00,37,0,0,1,37,121,85,2e-12,69.4
SONDA_P_oxyspora,SRR9590826.36124,100.00,37,0,0,1,37,405,441,2e-12,69.4
SONDA_P_oxyspora,SRR9590826.34688,100.00,37,0,0,1,37,121,85,2e-12,69.4
SONDA_P_oxyspora,SRR9590826.34688,97.30,37,1,0,1,37,405,441,1e-10,63.9
SONDA_P_oxyspora,SRR9590826.33233,100.00,37,0,0,1,37,121,85,2e-12,69.4
SONDA_P_oxyspora,SRR9590826.33172,100.00,37,0,0,1,37,121,85,2e-12,69.4
SONDA_P_oxyspora,SRR9590826.33172,100.00,37,0,0,1,37,405,441,2e-12,69.4
SONDA_P_oxyspora,SRR9590826.31532,100.00,37,0,0,1,37,121,85,2e-12,69.4
SONDA_P_oxyspora,SRR9590826.31532,100.00,37,0,0,1,37,405,441,2e-12,69.4
SONDA_P_oxyspora,SRR9590826.31522,100.00,37,0,0,1,37,121,85,2e-12,69.4
SONDA_P_oxyspora,SRR9590826.31522,100.00,35,0,0,1,35,405,439,3e-11,65.8
SONDA_P_oxyspora,SRR9590826.30982,100.00,37,0,0,1,37,121,85,2e-12,69.4
SONDA_P_oxyspora,SRR9590826.30982,100.00,37,0,0,1,37,405,441,2e-12,69.4
SONDA_P_oxyspora,SRR9590826.30631,100.00,37,0,0,1,37,121,85,2e-12,69.4
SONDA_P_oxyspora,SRR9590826.28786,100.00,37,0,0,1,37,121,85,2e-12,69.4
SONDA_P_oxyspora,SRR9590826.28786,100.00,34,0,0,4,37,408,441,1e-10,63.9
SONDA_P_oxyspora,SRR9590826.28537,100.00,37,0,0,1,37,121,85,2e-12,69.4
SONDA_P_oxyspora,SRR9590826.28537,100.00,37,0,0,1,37,405,441,2e-12,69.4
SONDA_P_oxyspora,SRR9590826.27550,100.00,37,0,0,1,37,120,84,2e-12,69.4
SONDA_P_oxyspora,SRR9590826.27550,100.00,37,0,0,1,37,404,440,2e-12,69.4
SONDA_P_oxyspora,SRR9590826.27081,100.00,37,0,0,1,37,121,85,2e-12,69.4
SONDA_P_oxyspora,SRR9590826.27081,100.00,37,0,0,1,37,405,441,2e-12,69.4
SONDA_P_oxyspora,SRR9590826.26632,100.00,37,0,0,1,37,121,85,2e-12,69.4
SONDA_P_oxyspora,SRR9590826.26460,100.00,37,0,0,1,37,121,85,2e-12,69.4
SONDA_P_oxyspora,SRR9590826.26460,100.00,37,0,0,1,37,405,441,2e-12,69.4
SONDA_P_oxyspora,SRR9590826.24256,100.00,37,0,0,1,37,121,85,2e-12,69.4
SONDA_P_oxyspora,SRR9590826.24121,100.00,37,0,0,1,37,121,85,2e-12,69.4
SONDA_P_oxyspora,SRR9590826.23875,100.00,37,0,0,1,37,121,85,2e-12,69.4
SONDA_P_oxyspora,SRR9590826.23875,100.00,37,0,0,1,37,405,441,2e-12,69.4
SONDA_P_oxyspora,SRR9590826.23865,100.00,37,0,0,1,37,121,85,2e-12,69.4
SONDA_P_oxyspora,SRR9590826.22843,100.00,37,0,0,1,37,121,85,2e-12,69.4
SONDA_P_oxyspora,SRR9590826.22843,100.00,37,0,0,1,37,405,441,2e-12,69.4
SONDA_P_oxyspora,SRR9590826.22256,100.00,37,0,0,1,37,121,85,2e-12,69.4
SONDA_P_oxyspora,SRR9590826.22256,97.14,35,1,0,1,35,405,439,1e-09,60.2
SONDA_P_oxyspora,SRR9590826.20727,100.00,37,0,0,1,37,121,85,2e-12,69.4
SONDA_P_oxyspora,SRR9590826.20727,97.30,37,1,0,1,37,405,441,1e-10,63.9
SONDA_P_oxyspora,SRR9590826.20046,100.00,37,0,0,1,37,121,85,2e-12,69.4
SONDA_P_oxyspora,SRR9590826.20046,100.00,37,0,0,1,37,405,441,2e-12,69.4
SONDA_P_oxyspora,SRR9590826.19526,100.00,37,0,0,1,37,121,85,2e-12,69.4
SONDA_P_oxyspora,SRR9590826.19526,97.30,37,1,0,1,37,405,441,1e-10,63.9
SONDA_P_oxyspora,SRR9590826.17430,100.00,37,0,0,1,37,121,85,2e-12,69.4
SONDA_P_oxyspora,SRR9590826.17430,100.00,37,0,0,1,37,405,441,2e-12,69.4
SONDA_P_oxyspora,SRR9590826.17161,100.00,37,0,0,1,37,121,85,2e-12,69.4
SONDA_P_oxyspora,SRR9590826.16676,100.00,37,0,0,1,37,121,85,2e-12,69.4
SONDA_P_oxyspora,SRR9590826.16418,100.00,37,0,0,1,37,121,85,2e-12,69.4
SONDA_P_oxyspora,SRR9590826.15268,100.00,37,0,0,1,37,121,85,2e-12,69.4
SONDA_P_oxyspora,SRR9590826.15268,100.00,37,0,0,1,37,405,441,2e-12,69.4
SONDA_P_oxyspora,SRR9590826.15063,100.00,37,0,0,1,37,121,85,2e-12,69.4
SONDA_P_oxyspora,SRR9590826.15063,100.00,37,0,0,1,37,405,441,2e-12,69.4
SONDA_P_oxyspora,SRR9590826.14484,100.00,37,0,0,1,37,121,85,2e-12,69.4
SONDA_P_oxyspora,SRR9590826.14484,100.00,37,0,0,1,37,405,441,2e-12,69.4
SONDA_P_oxyspora,SRR9590826.14121,100.00,37,0,0,1,37,121,85,2e-12,69.4
SONDA_P_oxyspora,SRR9590826.13552,100.00,37,0,0,1,37,121,85,2e-12,69.4
SONDA_P_oxyspora,SRR9590826.13552,100.00,37,0,0,1,37,405,441,2e-12,69.4
SONDA_P_oxyspora,SRR9590826.11144,100.00,37,0,0,1,37,121,85,2e-12,69.4
SONDA_P_oxyspora,SRR9590826.11144,100.00,37,0,0,1,37,405,441,2e-12,69.4
SONDA_P_oxyspora,SRR9590826.10358,100.00,37,0,0,1,37,121,85,2e-12,69.4
SONDA_P_oxyspora,SRR9590826.10358,100.00,37,0,0,1,37,405,441,2e-12,69.4
SONDA_P_oxyspora,SRR9590826.10351,100.00,37,0,0,1,37,121,85,2e-12,69.4
SONDA_P_oxyspora,SRR9590826.10351,100.00,37,0,0,1,37,405,441,2e-12,69.4
SONDA_P_oxyspora,SRR9590826.9726,100.00,37,0,0,1,37,121,85,2e-12,69.4
SONDA_P_oxyspora,SRR9590826.9351,100.00,37,0,0,1,37,121,85,2e-12,69.4
SONDA_P_oxyspora,SRR9590826.9351,100.00,37,0,0,1,37,405,441,2e-12,69.4
SONDA_P_oxyspora,SRR9590826.8807,100.00,37,0,0,1,37,121,85,2e-12,69.4
SONDA_P_oxyspora,SRR9590826.8807,100.00,37,0,0,1,37,405,441,2e-12,69.4
SONDA_P_oxyspora,SRR9590826.7873,100.00,37,0,0,1,37,121,85,2e-12,69.4
SONDA_P_oxyspora,SRR9590826.7873,97.30,37,1,0,1,37,405,441,1e-10,63.9
SONDA_P_oxyspora,SRR9590826.6923,100.00,37,0,0,1,37,121,85,2e-12,69.4
SONDA_P_oxyspora,SRR9590826.6923,100.00,37,0,0,1,37,405,441,2e-12,69.4
SONDA_P_oxyspora,SRR9590826.5445,100.00,37,0,0,1,37,121,85,2e-12,69.4
SONDA_P_oxyspora,SRR9590826.5445,100.00,37,0,0,1,37,405,441,2e-12,69.4
SONDA_P_oxyspora,SRR9590826.3978,100.00,37,0,0,1,37,121,85,2e-12,69.4
SONDA_P_oxyspora,SRR9590826.3978,100.00,37,0,0,1,37,405,441,2e-12,69.4
SONDA_P_oxyspora,SRR9590826.3698,100.00,37,0,0,1,37,120,84,2e-12,69.4
SONDA_P_oxyspora,SRR9590826.2734,100.00,37,0,0,1,37,121,85,2e-12,69.4
SONDA_P_oxyspora,SRR9590826.2734,100.00,37,0,0,1,37,405,441,2e-12,69.4
SONDA_P_oxyspora,SRR9590826.2696,100.00,37,0,0,1,37,121,85,2e-12,69.4
SONDA_P_oxyspora,SRR9590826.2689,100.00,37,0,0,1,37,121,85,2e-12,69.4
SONDA_P_oxyspora,SRR9590826.2689,100.00,37,0,0,1,37,405,441,2e-12,69.4
SONDA_P_oxyspora,SRR9590826.1754,100.00,37,0,0,1,37,121,85,2e-12,69.4
SONDA_P_oxyspora,SRR9590826.1751,100.00,37,0,0,1,37,121,85,2e-12,69.4
SONDA_P_oxyspora,SRR9590826.1751,100.00,37,0,0,1,37,405,441,2e-12,69.4
SONDA_P_oxyspora,SRR9590826.1424,100.00,37,0,0,1,37,121,85,2e-12,69.4
SONDA_P_oxyspora,SRR9590826.1424,100.00,37,0,0,1,37,405,441,2e-12,69.4
SONDA_P_oxyspora,SRR9590826.1375,100.00,37,0,0,1,37,121,85,2e-12,69.4
SONDA_P_oxyspora,SRR9590826.163874,100.00,36,0,0,2,37,120,85,8e-12,67.6
SONDA_P_oxyspora,SRR9590826.108489,100.00,36,0,0,1,36,121,86,8e-12,67.6
SONDA_P_oxyspora,SRR9590826.108489,100.00,36,0,0,1,36,405,440,8e-12,67.6
SONDA_P_oxyspora,SRR9590826.60190,100.00,36,0,0,1,36,121,86,8e-12,67.6
SONDA_P_oxyspora,SRR9590826.60190,100.00,36,0,0,1,36,405,440,8e-12,67.6
SONDA_P_oxyspora,SRR9590826.264054,100.00,35,0,0,1,35,121,87,3e-11,65.8
SONDA_P_oxyspora,SRR9590826.250826,97.30,37,1,0,1,37,121,85,1e-10,63.9
SONDA_P_oxyspora,SRR9590826.235660,97.30,37,1,0,1,37,121,85,1e-10,63.9
SONDA_P_oxyspora,SRR9590826.235660,97.30,37,1,0,1,37,405,441,1e-10,63.9
SONDA_P_oxyspora,SRR9590826.232161,97.30,37,1,0,1,37,121,85,1e-10,63.9
SONDA_P_oxyspora,SRR9590826.232161,97.22,36,1,0,2,37,406,441,4e-10,62.1
SONDA_P_oxyspora,SRR9590826.229742,97.30,37,1,0,1,37,121,85,1e-10,63.9
SONDA_P_oxyspora,SRR9590826.215888,97.30,37,1,0,1,37,121,85,1e-10,63.9
SONDA_P_oxyspora,SRR9590826.170237,97.30,37,1,0,1,37,121,85,1e-10,63.9
SONDA_P_oxyspora,SRR9590826.167092,97.30,37,1,0,1,37,121,85,1e-10,63.9
SONDA_P_oxyspora,SRR9590826.158964,97.30,37,1,0,1,37,405,441,1e-10,63.9
SONDA_P_oxyspora,SRR9590826.158964,96.88,32,1,0,1,32,121,90,6e-08,54.7
SONDA_P_oxyspora,SRR9590826.155365,97.30,37,1,0,1,37,121,85,1e-10,63.9
SONDA_P_oxyspora,SRR9590826.155365,97.30,37,1,0,1,37,405,441,1e-10,63.9
SONDA_P_oxyspora,SRR9590826.123437,97.30,37,1,0,1,37,121,85,1e-10,63.9
SONDA_P_oxyspora,SRR9590826.64788,97.30,37,1,0,1,37,121,85,1e-10,63.9
SONDA_P_oxyspora,SRR9590826.45115,97.30,37,1,0,1,37,121,85,1e-10,63.9
SONDA_P_oxyspora,SRR9590826.41387,97.30,37,1,0,1,37,121,85,1e-10,63.9
SONDA_P_oxyspora,SRR9590826.252906,97.22,36,1,0,1,36,121,86,4e-10,62.1
SONDA_P_oxyspora,SRR9590826.173647,94.59,37,2,0,1,37,121,85,5e-09,58.4
SONDA_P_oxyspora,SRR9590826.239605,100.00,29,0,0,9,37,113,85,6e-08,54.7
