Exophiala_alcalophila_CBS520.82T,SRR11058347.120719,100.00,31,0,0,1,31,106,136,2e-09,58.4
Exophiala_alcalophila_CBS520.82T,SRR11058347.120719,100.00,31,0,0,1,31,520,490,2e-09,58.4
Exophiala_alcalophila_CBS520.82T,SRR11058347.115012,100.00,31,0,0,1,31,106,136,2e-09,58.4
Exophiala_alcalophila_CBS520.82T,SRR11058347.112985,100.00,31,0,0,1,31,106,136,2e-09,58.4
Exophiala_alcalophila_CBS520.82T,SRR11058347.111631,100.00,31,0,0,1,31,106,136,2e-09,58.4
Exophiala_alcalophila_CBS520.82T,SRR11058347.110897,100.00,31,0,0,1,31,106,136,2e-09,58.4
Exophiala_alcalophila_CBS520.82T,SRR11058347.110897,100.00,31,0,0,1,31,520,490,2e-09,58.4
Exophiala_alcalophila_CBS520.82T,SRR11058347.109251,100.00,31,0,0,1,31,106,136,2e-09,58.4
Exophiala_alcalophila_CBS520.82T,SRR11058347.109251,100.00,30,0,0,1,30,520,491,8e-09,56.5
Exophiala_alcalophila_CBS520.82T,SRR11058347.108852,100.00,31,0,0,1,31,106,136,2e-09,58.4
Exophiala_alcalophila_CBS520.82T,SRR11058347.108852,100.00,31,0,0,1,31,520,490,2e-09,58.4
Exophiala_alcalophila_CBS520.82T,SRR11058347.105813,100.00,31,0,0,1,31,106,136,2e-09,58.4
Exophiala_alcalophila_CBS520.82T,SRR11058347.105813,100.00,31,0,0,1,31,520,490,2e-09,58.4
Exophiala_alcalophila_CBS520.82T,SRR11058347.105125,100.00,31,0,0,1,31,106,136,2e-09,58.4
Exophiala_alcalophila_CBS520.82T,SRR11058347.105125,100.00,31,0,0,1,31,520,490,2e-09,58.4
Exophiala_alcalophila_CBS520.82T,SRR11058347.100496,100.00,31,0,0,1,31,106,136,2e-09,58.4
Exophiala_alcalophila_CBS520.82T,SRR11058347.100496,100.00,31,0,0,1,31,520,490,2e-09,58.4
Exophiala_alcalophila_CBS520.82T,SRR11058347.100388,100.00,31,0,0,1,31,106,136,2e-09,58.4
Exophiala_alcalophila_CBS520.82T,SRR11058347.98965,100.00,31,0,0,1,31,106,136,2e-09,58.4
Exophiala_alcalophila_CBS520.82T,SRR11058347.98965,100.00,31,0,0,1,31,520,490,2e-09,58.4
Exophiala_alcalophila_CBS520.82T,SRR11058347.97549,100.00,31,0,0,1,31,106,136,2e-09,58.4
Exophiala_alcalophila_CBS520.82T,SRR11058347.94252,100.00,31,0,0,1,31,106,136,2e-09,58.4
Exophiala_alcalophila_CBS520.82T,SRR11058347.94252,100.00,31,0,0,1,31,520,490,2e-09,58.4
Exophiala_alcalophila_CBS520.82T,SRR11058347.90207,100.00,31,0,0,1,31,106,136,2e-09,58.4
Exophiala_alcalophila_CBS520.82T,SRR11058347.90207,100.00,31,0,0,1,31,520,490,2e-09,58.4
Exophiala_alcalophila_CBS520.82T,SRR11058347.90163,100.00,31,0,0,1,31,106,136,2e-09,58.4
Exophiala_alcalophila_CBS520.82T,SRR11058347.90163,100.00,30,0,0,2,31,519,490,8e-09,56.5
Exophiala_alcalophila_CBS520.82T,SRR11058347.89122,100.00,31,0,0,1,31,106,136,2e-09,58.4
Exophiala_alcalophila_CBS520.82T,SRR11058347.89122,100.00,31,0,0,1,31,520,490,2e-09,58.4
Exophiala_alcalophila_CBS520.82T,SRR11058347.87990,100.00,31,0,0,1,31,106,136,2e-09,58.4
Exophiala_alcalophila_CBS520.82T,SRR11058347.87990,100.00,31,0,0,1,31,520,490,2e-09,58.4
Exophiala_alcalophila_CBS520.82T,SRR11058347.87335,100.00,31,0,0,1,31,106,136,2e-09,58.4
Exophiala_alcalophila_CBS520.82T,SRR11058347.87142,100.00,31,0,0,1,31,520,490,2e-09,58.4
Exophiala_alcalophila_CBS520.82T,SRR11058347.86304,100.00,31,0,0,1,31,106,136,2e-09,58.4
Exophiala_alcalophila_CBS520.82T,SRR11058347.86304,100.00,31,0,0,1,31,520,490,2e-09,58.4
Exophiala_alcalophila_CBS520.82T,SRR11058347.85216,100.00,31,0,0,1,31,106,136,2e-09,58.4
Exophiala_alcalophila_CBS520.82T,SRR11058347.82837,100.00,31,0,0,1,31,106,136,2e-09,58.4
Exophiala_alcalophila_CBS520.82T,SRR11058347.82837,100.00,31,0,0,1,31,520,490,2e-09,58.4
Exophiala_alcalophila_CBS520.82T,SRR11058347.81593,100.00,31,0,0,1,31,106,136,2e-09,58.4
Exophiala_alcalophila_CBS520.82T,SRR11058347.81593,100.00,31,0,0,1,31,520,490,2e-09,58.4
Exophiala_alcalophila_CBS520.82T,SRR11058347.81057,100.00,31,0,0,1,31,106,136,2e-09,58.4
Exophiala_alcalophila_CBS520.82T,SRR11058347.81057,100.00,31,0,0,1,31,520,490,2e-09,58.4
Exophiala_alcalophila_CBS520.82T,SRR11058347.78786,100.00,31,0,0,1,31,106,136,2e-09,58.4
Exophiala_alcalophila_CBS520.82T,SRR11058347.78786,100.00,30,0,0,2,31,519,490,8e-09,56.5
Exophiala_alcalophila_CBS520.82T,SRR11058347.74596,100.00,31,0,0,1,31,106,136,2e-09,58.4
Exophiala_alcalophila_CBS520.82T,SRR11058347.74596,100.00,31,0,0,1,31,520,490,2e-09,58.4
Exophiala_alcalophila_CBS520.82T,SRR11058347.73294,100.00,31,0,0,1,31,106,136,2e-09,58.4
Exophiala_alcalophila_CBS520.82T,SRR11058347.68146,100.00,31,0,0,1,31,106,136,2e-09,58.4
Exophiala_alcalophila_CBS520.82T,SRR11058347.67750,100.00,31,0,0,1,31,106,136,2e-09,58.4
Exophiala_alcalophila_CBS520.82T,SRR11058347.65593,100.00,31,0,0,1,31,106,136,2e-09,58.4
Exophiala_alcalophila_CBS520.82T,SRR11058347.65593,100.00,31,0,0,1,31,520,490,2e-09,58.4
Exophiala_alcalophila_CBS520.82T,SRR11058347.65237,100.00,31,0,0,1,31,106,136,2e-09,58.4
Exophiala_alcalophila_CBS520.82T,SRR11058347.65237,100.00,31,0,0,1,31,520,490,2e-09,58.4
Exophiala_alcalophila_CBS520.82T,SRR11058347.64940,100.00,31,0,0,1,31,106,136,2e-09,58.4
Exophiala_alcalophila_CBS520.82T,SRR11058347.64940,100.00,31,0,0,1,31,520,490,2e-09,58.4
Exophiala_alcalophila_CBS520.82T,SRR11058347.53519,100.00,31,0,0,1,31,106,136,2e-09,58.4
Exophiala_alcalophila_CBS520.82T,SRR11058347.50330,100.00,31,0,0,1,31,106,136,2e-09,58.4
Exophiala_alcalophila_CBS520.82T,SRR11058347.50330,100.00,31,0,0,1,31,520,490,2e-09,58.4
Exophiala_alcalophila_CBS520.82T,SRR11058347.49992,100.00,31,0,0,1,31,106,136,2e-09,58.4
Exophiala_alcalophila_CBS520.82T,SRR11058347.49992,100.00,31,0,0,1,31,520,490,2e-09,58.4
Exophiala_alcalophila_CBS520.82T,SRR11058347.48683,100.00,31,0,0,1,31,106,136,2e-09,58.4
Exophiala_alcalophila_CBS520.82T,SRR11058347.48683,100.00,31,0,0,1,31,520,490,2e-09,58.4
Exophiala_alcalophila_CBS520.82T,SRR11058347.45369,100.00,31,0,0,1,31,106,136,2e-09,58.4
Exophiala_alcalophila_CBS520.82T,SRR11058347.43829,100.00,31,0,0,1,31,106,136,2e-09,58.4
Exophiala_alcalophila_CBS520.82T,SRR11058347.43829,100.00,31,0,0,1,31,520,490,2e-09,58.4
Exophiala_alcalophila_CBS520.82T,SRR11058347.40583,100.00,31,0,0,1,31,106,136,2e-09,58.4
Exophiala_alcalophila_CBS520.82T,SRR11058347.40583,100.00,30,0,0,1,30,520,491,8e-09,56.5
Exophiala_alcalophila_CBS520.82T,SRR11058347.39828,100.00,31,0,0,1,31,106,136,2e-09,58.4
Exophiala_alcalophila_CBS520.82T,SRR11058347.39828,100.00,31,0,0,1,31,520,490,2e-09,58.4
Exophiala_alcalophila_CBS520.82T,SRR11058347.37840,100.00,31,0,0,1,31,106,136,2e-09,58.4
Exophiala_alcalophila_CBS520.82T,SRR11058347.37840,100.00,31,0,0,1,31,520,490,2e-09,58.4
Exophiala_alcalophila_CBS520.82T,SRR11058347.37415,100.00,31,0,0,1,31,106,136,2e-09,58.4
Exophiala_alcalophila_CBS520.82T,SRR11058347.37415,100.00,31,0,0,1,31,520,490,2e-09,58.4
Exophiala_alcalophila_CBS520.82T,SRR11058347.36553,100.00,31,0,0,1,31,106,136,2e-09,58.4
Exophiala_alcalophila_CBS520.82T,SRR11058347.36553,100.00,31,0,0,1,31,520,490,2e-09,58.4
Exophiala_alcalophila_CBS520.82T,SRR11058347.36402,100.00,31,0,0,1,31,106,136,2e-09,58.4
Exophiala_alcalophila_CBS520.82T,SRR11058347.36402,100.00,31,0,0,1,31,520,490,2e-09,58.4
Exophiala_alcalophila_CBS520.82T,SRR11058347.34625,100.00,31,0,0,1,31,105,135,2e-09,58.4
Exophiala_alcalophila_CBS520.82T,SRR11058347.34625,100.00,31,0,0,1,31,519,489,2e-09,58.4
Exophiala_alcalophila_CBS520.82T,SRR11058347.33911,100.00,31,0,0,1,31,106,136,2e-09,58.4
Exophiala_alcalophila_CBS520.82T,SRR11058347.32594,100.00,31,0,0,1,31,106,136,2e-09,58.4
Exophiala_alcalophila_CBS520.82T,SRR11058347.32594,100.00,31,0,0,1,31,520,490,2e-09,58.4
Exophiala_alcalophila_CBS520.82T,SRR11058347.29274,100.00,31,0,0,1,31,106,136,2e-09,58.4
Exophiala_alcalophila_CBS520.82T,SRR11058347.29274,100.00,31,0,0,1,31,520,490,2e-09,58.4
Exophiala_alcalophila_CBS520.82T,SRR11058347.23214,100.00,31,0,0,1,31,106,136,2e-09,58.4
Exophiala_alcalophila_CBS520.82T,SRR11058347.23214,100.00,31,0,0,1,31,520,490,2e-09,58.4
Exophiala_alcalophila_CBS520.82T,SRR11058347.22795,100.00,31,0,0,1,31,106,136,2e-09,58.4
Exophiala_alcalophila_CBS520.82T,SRR11058347.22795,100.00,31,0,0,1,31,520,490,2e-09,58.4
Exophiala_alcalophila_CBS520.82T,SRR11058347.20792,100.00,31,0,0,1,31,106,136,2e-09,58.4
Exophiala_alcalophila_CBS520.82T,SRR11058347.20792,100.00,31,0,0,1,31,520,490,2e-09,58.4
Exophiala_alcalophila_CBS520.82T,SRR11058347.18289,100.00,31,0,0,1,31,106,136,2e-09,58.4
Exophiala_alcalophila_CBS520.82T,SRR11058347.18289,100.00,31,0,0,1,31,520,490,2e-09,58.4
Exophiala_alcalophila_CBS520.82T,SRR11058347.15798,100.00,31,0,0,1,31,106,136,2e-09,58.4
Exophiala_alcalophila_CBS520.82T,SRR11058347.10960,100.00,31,0,0,1,31,106,136,2e-09,58.4
Exophiala_alcalophila_CBS520.82T,SRR11058347.9962,100.00,31,0,0,1,31,106,136,2e-09,58.4
Exophiala_alcalophila_CBS520.82T,SRR11058347.9962,100.00,31,0,0,1,31,520,490,2e-09,58.4
Exophiala_alcalophila_CBS520.82T,SRR11058347.8358,100.00,31,0,0,1,31,106,136,2e-09,58.4
Exophiala_alcalophila_CBS520.82T,SRR11058347.8358,100.00,31,0,0,1,31,520,490,2e-09,58.4
Exophiala_alcalophila_CBS520.82T,SRR11058347.7702,100.00,31,0,0,1,31,106,136,2e-09,58.4
Exophiala_alcalophila_CBS520.82T,SRR11058347.7702,100.00,31,0,0,1,31,520,490,2e-09,58.4
Exophiala_alcalophila_CBS520.82T,SRR11058347.2493,100.00,31,0,0,1,31,106,136,2e-09,58.4
Exophiala_alcalophila_CBS520.82T,SRR11058347.2493,100.00,31,0,0,1,31,520,490,2e-09,58.4
Exophiala_alcalophila_CBS520.82T,SRR11058347.1412,100.00,31,0,0,1,31,106,136,2e-09,58.4
Exophiala_alcalophila_CBS520.82T,SRR11058347.1412,100.00,31,0,0,1,31,520,490,2e-09,58.4
Exophiala_bergeri_CBS353.52T,SRR11058347.117457,100.00,31,0,0,1,31,105,135,2e-09,58.4
Exophiala_bergeri_CBS353.52T,SRR11058347.117457,100.00,31,0,0,1,31,507,477,2e-09,58.4
Exophiala_bergeri_CBS353.52T,SRR11058347.105815,100.00,31,0,0,1,31,105,135,2e-09,58.4
Exophiala_bergeri_CBS353.52T,SRR11058347.105815,100.00,31,0,0,1,31,507,477,2e-09,58.4
Exophiala_bergeri_CBS353.52T,SRR11058347.100066,100.00,31,0,0,1,31,105,135,2e-09,58.4
Exophiala_bergeri_CBS353.52T,SRR11058347.100066,100.00,31,0,0,1,31,507,477,2e-09,58.4
Exophiala_bergeri_CBS353.52T,SRR11058347.99608,100.00,31,0,0,1,31,105,135,2e-09,58.4
Exophiala_bergeri_CBS353.52T,SRR11058347.99608,100.00,31,0,0,1,31,507,477,2e-09,58.4
Exophiala_bergeri_CBS353.52T,SRR11058347.96574,100.00,31,0,0,1,31,105,135,2e-09,58.4
Exophiala_bergeri_CBS353.52T,SRR11058347.96574,100.00,31,0,0,1,31,507,477,2e-09,58.4
Exophiala_bergeri_CBS353.52T,SRR11058347.83033,100.00,31,0,0,1,31,105,135,2e-09,58.4
Exophiala_bergeri_CBS353.52T,SRR11058347.83033,100.00,31,0,0,1,31,507,477,2e-09,58.4
Exophiala_bergeri_CBS353.52T,SRR11058347.82401,100.00,31,0,0,1,31,105,135,2e-09,58.4
Exophiala_bergeri_CBS353.52T,SRR11058347.82401,100.00,31,0,0,1,31,507,477,2e-09,58.4
Exophiala_bergeri_CBS353.52T,SRR11058347.81066,100.00,31,0,0,1,31,105,135,2e-09,58.4
Exophiala_bergeri_CBS353.52T,SRR11058347.81066,100.00,31,0,0,1,31,507,477,2e-09,58.4
Exophiala_bergeri_CBS353.52T,SRR11058347.75018,100.00,31,0,0,1,31,105,135,2e-09,58.4
Exophiala_bergeri_CBS353.52T,SRR11058347.75018,100.00,31,0,0,1,31,507,477,2e-09,58.4
Exophiala_bergeri_CBS353.52T,SRR11058347.73484,100.00,31,0,0,1,31,105,135,2e-09,58.4
Exophiala_bergeri_CBS353.52T,SRR11058347.69258,100.00,31,0,0,1,31,105,135,2e-09,58.4
Exophiala_bergeri_CBS353.52T,SRR11058347.69258,100.00,31,0,0,1,31,507,477,2e-09,58.4
Exophiala_bergeri_CBS353.52T,SRR11058347.56861,100.00,31,0,0,1,31,105,135,2e-09,58.4
Exophiala_bergeri_CBS353.52T,SRR11058347.56861,100.00,31,0,0,1,31,506,476,2e-09,58.4
Exophiala_bergeri_CBS353.52T,SRR11058347.35163,100.00,31,0,0,1,31,105,135,2e-09,58.4
Exophiala_bergeri_CBS353.52T,SRR11058347.35163,100.00,31,0,0,1,31,507,477,2e-09,58.4
Exophiala_bergeri_CBS353.52T,SRR11058347.11287,100.00,31,0,0,1,31,105,135,2e-09,58.4
Exophiala_bergeri_CBS353.52T,SRR11058347.11287,100.00,31,0,0,1,31,507,477,2e-09,58.4
Exophiala_bergeri_CBS353.52T,SRR11058347.6439,100.00,31,0,0,1,31,105,135,2e-09,58.4
Exophiala_bergeri_CBS353.52T,SRR11058347.6439,100.00,31,0,0,1,31,507,477,2e-09,58.4
Exophiala_mesophila_1_CBS402.95T,SRR11058347.124533,100.00,28,0,0,1,28,511,484,7e-08,52.8
Exophiala_mesophila_1_CBS402.95T,SRR11058347.123114,100.00,28,0,0,1,28,121,148,7e-08,52.8
Exophiala_mesophila_1_CBS402.95T,SRR11058347.123114,100.00,28,0,0,1,28,512,485,7e-08,52.8
Exophiala_mesophila_1_CBS402.95T,SRR11058347.119798,100.00,28,0,0,1,28,121,148,7e-08,52.8
Exophiala_mesophila_1_CBS402.95T,SRR11058347.119798,100.00,28,0,0,1,28,511,484,7e-08,52.8
Exophiala_mesophila_1_CBS402.95T,SRR11058347.114994,100.00,28,0,0,1,28,121,148,7e-08,52.8
Exophiala_mesophila_1_CBS402.95T,SRR11058347.114994,100.00,28,0,0,1,28,511,484,7e-08,52.8
Exophiala_mesophila_1_CBS402.95T,SRR11058347.112404,100.00,28,0,0,1,28,121,148,7e-08,52.8
Exophiala_mesophila_1_CBS402.95T,SRR11058347.111508,100.00,28,0,0,1,28,121,148,7e-08,52.8
Exophiala_mesophila_1_CBS402.95T,SRR11058347.111508,100.00,28,0,0,1,28,511,484,7e-08,52.8
Exophiala_mesophila_1_CBS402.95T,SRR11058347.108630,100.00,28,0,0,1,28,121,148,7e-08,52.8
Exophiala_mesophila_1_CBS402.95T,SRR11058347.105810,100.00,28,0,0,1,28,511,484,7e-08,52.8
Exophiala_mesophila_1_CBS402.95T,SRR11058347.105175,100.00,28,0,0,1,28,122,149,7e-08,52.8
Exophiala_mesophila_1_CBS402.95T,SRR11058347.105175,100.00,28,0,0,1,28,511,484,7e-08,52.8
Exophiala_mesophila_1_CBS402.95T,SRR11058347.104086,100.00,28,0,0,1,28,121,148,7e-08,52.8
Exophiala_mesophila_1_CBS402.95T,SRR11058347.104086,100.00,28,0,0,1,28,511,484,7e-08,52.8
Exophiala_mesophila_1_CBS402.95T,SRR11058347.97979,100.00,28,0,0,1,28,121,148,7e-08,52.8
Exophiala_mesophila_1_CBS402.95T,SRR11058347.97979,100.00,28,0,0,1,28,511,484,7e-08,52.8
Exophiala_mesophila_1_CBS402.95T,SRR11058347.97649,100.00,28,0,0,1,28,121,148,7e-08,52.8
Exophiala_mesophila_1_CBS402.95T,SRR11058347.97649,100.00,28,0,0,1,28,511,484,7e-08,52.8
Exophiala_mesophila_1_CBS402.95T,SRR11058347.94061,100.00,28,0,0,1,28,121,148,7e-08,52.8
Exophiala_mesophila_1_CBS402.95T,SRR11058347.94061,100.00,28,0,0,1,28,511,484,7e-08,52.8
Exophiala_mesophila_1_CBS402.95T,SRR11058347.90232,100.00,28,0,0,1,28,121,148,7e-08,52.8
Exophiala_mesophila_1_CBS402.95T,SRR11058347.89892,100.00,28,0,0,1,28,121,148,7e-08,52.8
Exophiala_mesophila_1_CBS402.95T,SRR11058347.89892,100.00,28,0,0,1,28,511,484,7e-08,52.8
Exophiala_mesophila_1_CBS402.95T,SRR11058347.85698,100.00,28,0,0,1,28,121,148,7e-08,52.8
Exophiala_mesophila_1_CBS402.95T,SRR11058347.85698,100.00,28,0,0,1,28,511,484,7e-08,52.8
Exophiala_mesophila_1_CBS402.95T,SRR11058347.80447,100.00,28,0,0,1,28,121,148,7e-08,52.8
Exophiala_mesophila_1_CBS402.95T,SRR11058347.80447,100.00,28,0,0,1,28,511,484,7e-08,52.8
Exophiala_mesophila_1_CBS402.95T,SRR11058347.78363,100.00,28,0,0,1,28,121,148,7e-08,52.8
Exophiala_mesophila_1_CBS402.95T,SRR11058347.78363,100.00,28,0,0,1,28,511,484,7e-08,52.8
Exophiala_mesophila_1_CBS402.95T,SRR11058347.76092,100.00,28,0,0,1,28,121,148,7e-08,52.8
Exophiala_mesophila_1_CBS402.95T,SRR11058347.76092,100.00,28,0,0,1,28,511,484,7e-08,52.8
Exophiala_mesophila_1_CBS402.95T,SRR11058347.73232,100.00,28,0,0,1,28,121,148,7e-08,52.8
Exophiala_mesophila_1_CBS402.95T,SRR11058347.73232,100.00,28,0,0,1,28,511,484,7e-08,52.8
Exophiala_mesophila_1_CBS402.95T,SRR11058347.70960,100.00,28,0,0,1,28,121,148,7e-08,52.8
Exophiala_mesophila_1_CBS402.95T,SRR11058347.70960,100.00,28,0,0,1,28,511,484,7e-08,52.8
Exophiala_mesophila_1_CBS402.95T,SRR11058347.63354,100.00,28,0,0,1,28,121,148,7e-08,52.8
Exophiala_mesophila_1_CBS402.95T,SRR11058347.63354,100.00,28,0,0,1,28,511,484,7e-08,52.8
Exophiala_mesophila_1_CBS402.95T,SRR11058347.63267,100.00,28,0,0,1,28,121,148,7e-08,52.8
Exophiala_mesophila_1_CBS402.95T,SRR11058347.63267,100.00,28,0,0,1,28,511,484,7e-08,52.8
Exophiala_mesophila_1_CBS402.95T,SRR11058347.62762,100.00,28,0,0,1,28,121,148,7e-08,52.8
Exophiala_mesophila_1_CBS402.95T,SRR11058347.62762,100.00,28,0,0,1,28,512,485,7e-08,52.8
Exophiala_mesophila_1_CBS402.95T,SRR11058347.58864,100.00,28,0,0,1,28,121,148,7e-08,52.8
Exophiala_mesophila_1_CBS402.95T,SRR11058347.56940,100.00,28,0,0,1,28,121,148,7e-08,52.8
Exophiala_mesophila_1_CBS402.95T,SRR11058347.56940,100.00,28,0,0,1,28,511,484,7e-08,52.8
Exophiala_mesophila_1_CBS402.95T,SRR11058347.54798,100.00,28,0,0,1,28,121,148,7e-08,52.8
Exophiala_mesophila_1_CBS402.95T,SRR11058347.54798,100.00,28,0,0,1,28,511,484,7e-08,52.8
Exophiala_mesophila_1_CBS402.95T,SRR11058347.53116,100.00,28,0,0,1,28,121,148,7e-08,52.8
Exophiala_mesophila_1_CBS402.95T,SRR11058347.53116,100.00,28,0,0,1,28,511,484,7e-08,52.8
Exophiala_mesophila_1_CBS402.95T,SRR11058347.52806,100.00,28,0,0,1,28,121,148,7e-08,52.8
Exophiala_mesophila_1_CBS402.95T,SRR11058347.52806,100.00,28,0,0,1,28,512,485,7e-08,52.8
Exophiala_mesophila_1_CBS402.95T,SRR11058347.51568,100.00,28,0,0,1,28,121,148,7e-08,52.8
Exophiala_mesophila_1_CBS402.95T,SRR11058347.51568,100.00,28,0,0,1,28,511,484,7e-08,52.8
Exophiala_mesophila_1_CBS402.95T,SRR11058347.51530,100.00,28,0,0,1,28,121,148,7e-08,52.8
Exophiala_mesophila_1_CBS402.95T,SRR11058347.51530,100.00,28,0,0,1,28,511,484,7e-08,52.8
Exophiala_mesophila_1_CBS402.95T,SRR11058347.51012,100.00,28,0,0,1,28,121,148,7e-08,52.8
Exophiala_mesophila_1_CBS402.95T,SRR11058347.51012,100.00,28,0,0,1,28,511,484,7e-08,52.8
Exophiala_mesophila_1_CBS402.95T,SRR11058347.42249,100.00,28,0,0,1,28,121,148,7e-08,52.8
Exophiala_mesophila_1_CBS402.95T,SRR11058347.42249,100.00,28,0,0,1,28,511,484,7e-08,52.8
Exophiala_mesophila_1_CBS402.95T,SRR11058347.40556,100.00,28,0,0,1,28,121,148,7e-08,52.8
Exophiala_mesophila_1_CBS402.95T,SRR11058347.29419,100.00,28,0,0,1,28,121,148,7e-08,52.8
Exophiala_mesophila_1_CBS402.95T,SRR11058347.29419,100.00,28,0,0,1,28,511,484,7e-08,52.8
Exophiala_mesophila_1_CBS402.95T,SRR11058347.27075,100.00,28,0,0,1,28,121,148,7e-08,52.8
Exophiala_mesophila_1_CBS402.95T,SRR11058347.26083,100.00,28,0,0,1,28,121,148,7e-08,52.8
Exophiala_mesophila_1_CBS402.95T,SRR11058347.26083,100.00,28,0,0,1,28,511,484,7e-08,52.8
Exophiala_mesophila_1_CBS402.95T,SRR11058347.24296,100.00,28,0,0,1,28,121,148,7e-08,52.8
Exophiala_mesophila_1_CBS402.95T,SRR11058347.24296,100.00,28,0,0,1,28,511,484,7e-08,52.8
Exophiala_mesophila_1_CBS402.95T,SRR11058347.23246,100.00,28,0,0,1,28,121,148,7e-08,52.8
Exophiala_mesophila_1_CBS402.95T,SRR11058347.23246,100.00,28,0,0,1,28,511,484,7e-08,52.8
Exophiala_mesophila_1_CBS402.95T,SRR11058347.23242,100.00,28,0,0,1,28,121,148,7e-08,52.8
Exophiala_mesophila_1_CBS402.95T,SRR11058347.23242,100.00,28,0,0,1,28,511,484,7e-08,52.8
Exophiala_mesophila_1_CBS402.95T,SRR11058347.21508,100.00,28,0,0,1,28,121,148,7e-08,52.8
Exophiala_mesophila_1_CBS402.95T,SRR11058347.21508,100.00,28,0,0,1,28,511,484,7e-08,52.8
Exophiala_mesophila_1_CBS402.95T,SRR11058347.16283,100.00,28,0,0,1,28,121,148,7e-08,52.8
Exophiala_mesophila_1_CBS402.95T,SRR11058347.16283,100.00,28,0,0,1,28,511,484,7e-08,52.8
Exophiala_mesophila_1_CBS402.95T,SRR11058347.14301,100.00,28,0,0,1,28,121,148,7e-08,52.8
Exophiala_mesophila_1_CBS402.95T,SRR11058347.14301,100.00,28,0,0,1,28,511,484,7e-08,52.8
Exophiala_mesophila_1_CBS402.95T,SRR11058347.13917,100.00,28,0,0,1,28,121,148,7e-08,52.8
Exophiala_mesophila_1_CBS402.95T,SRR11058347.13917,100.00,28,0,0,1,28,511,484,7e-08,52.8
Exophiala_mesophila_1_CBS402.95T,SRR11058347.11158,100.00,28,0,0,1,28,121,148,7e-08,52.8
Exophiala_mesophila_1_CBS402.95T,SRR11058347.11158,100.00,28,0,0,1,28,511,484,7e-08,52.8
Exophiala_mesophila_1_CBS402.95T,SRR11058347.8701,100.00,28,0,0,1,28,121,148,7e-08,52.8
Exophiala_mesophila_1_CBS402.95T,SRR11058347.8661,100.00,28,0,0,1,28,121,148,7e-08,52.8
Exophiala_mesophila_1_CBS402.95T,SRR11058347.8661,100.00,28,0,0,1,28,511,484,7e-08,52.8
Exophiala_mesophila_1_CBS402.95T,SRR11058347.2400,100.00,28,0,0,1,28,121,148,7e-08,52.8
Exophiala_mesophila_1_CBS402.95T,SRR11058347.2400,100.00,28,0,0,1,28,511,484,7e-08,52.8
Exophiala_mesophila_1_CBS402.95T,SRR11058347.1132,100.00,28,0,0,1,28,121,148,7e-08,52.8
Exophiala_xenobiotica_1_CBS118157T,SRR11058347.118124,100.00,30,0,0,1,30,105,134,7e-09,56.5
Exophiala_xenobiotica_1_CBS118157T,SRR11058347.118124,100.00,30,0,0,1,30,503,474,7e-09,56.5
Exophiala_xenobiotica_1_CBS118157T,SRR11058347.116855,100.00,30,0,0,1,30,105,134,7e-09,56.5
Exophiala_xenobiotica_1_CBS118157T,SRR11058347.112122,100.00,30,0,0,1,30,105,134,7e-09,56.5
Exophiala_xenobiotica_1_CBS118157T,SRR11058347.109433,100.00,30,0,0,1,30,105,134,7e-09,56.5
Exophiala_xenobiotica_1_CBS118157T,SRR11058347.107648,100.00,30,0,0,1,30,105,134,7e-09,56.5
Exophiala_xenobiotica_1_CBS118157T,SRR11058347.106221,100.00,30,0,0,1,30,503,474,7e-09,56.5
Exophiala_xenobiotica_1_CBS118157T,SRR11058347.106221,100.00,29,0,0,2,30,106,134,2e-08,54.7
Exophiala_xenobiotica_1_CBS118157T,SRR11058347.104444,100.00,30,0,0,1,30,105,134,7e-09,56.5
Exophiala_xenobiotica_1_CBS118157T,SRR11058347.100975,100.00,30,0,0,1,30,105,134,7e-09,56.5
Exophiala_xenobiotica_1_CBS118157T,SRR11058347.93791,100.00,30,0,0,1,30,105,134,7e-09,56.5
Exophiala_xenobiotica_1_CBS118157T,SRR11058347.93791,100.00,30,0,0,1,30,503,474,7e-09,56.5
Exophiala_xenobiotica_1_CBS118157T,SRR11058347.89116,100.00,30,0,0,1,30,105,134,7e-09,56.5
Exophiala_xenobiotica_1_CBS118157T,SRR11058347.89116,100.00,30,0,0,1,30,502,473,7e-09,56.5
Exophiala_xenobiotica_1_CBS118157T,SRR11058347.80162,100.00,30,0,0,1,30,105,134,7e-09,56.5
Exophiala_xenobiotica_1_CBS118157T,SRR11058347.80162,100.00,30,0,0,1,30,503,474,7e-09,56.5
Exophiala_xenobiotica_1_CBS118157T,SRR11058347.78563,100.00,30,0,0,1,30,105,134,7e-09,56.5
Exophiala_xenobiotica_1_CBS118157T,SRR11058347.78563,100.00,30,0,0,1,30,503,474,7e-09,56.5
Exophiala_xenobiotica_1_CBS118157T,SRR11058347.75909,100.00,30,0,0,1,30,105,134,7e-09,56.5
Exophiala_xenobiotica_1_CBS118157T,SRR11058347.75909,100.00,30,0,0,1,30,503,474,7e-09,56.5
Exophiala_xenobiotica_1_CBS118157T,SRR11058347.75247,100.00,30,0,0,1,30,105,134,7e-09,56.5
Exophiala_xenobiotica_1_CBS118157T,SRR11058347.75247,100.00,30,0,0,1,30,503,474,7e-09,56.5
Exophiala_xenobiotica_1_CBS118157T,SRR11058347.74066,100.00,30,0,0,1,30,105,134,7e-09,56.5
Exophiala_xenobiotica_1_CBS118157T,SRR11058347.74066,100.00,30,0,0,1,30,503,474,7e-09,56.5
Exophiala_xenobiotica_1_CBS118157T,SRR11058347.70893,100.00,30,0,0,1,30,105,134,7e-09,56.5
Exophiala_xenobiotica_1_CBS118157T,SRR11058347.70893,100.00,30,0,0,1,30,503,474,7e-09,56.5
Exophiala_xenobiotica_1_CBS118157T,SRR11058347.63783,100.00,30,0,0,1,30,105,134,7e-09,56.5
Exophiala_xenobiotica_1_CBS118157T,SRR11058347.63783,100.00,30,0,0,1,30,503,474,7e-09,56.5
Exophiala_xenobiotica_1_CBS118157T,SRR11058347.56822,100.00,30,0,0,1,30,105,134,7e-09,56.5
Exophiala_xenobiotica_1_CBS118157T,SRR11058347.56822,100.00,30,0,0,1,30,503,474,7e-09,56.5
Exophiala_xenobiotica_1_CBS118157T,SRR11058347.56675,100.00,30,0,0,1,30,105,134,7e-09,56.5
Exophiala_xenobiotica_1_CBS118157T,SRR11058347.56675,100.00,30,0,0,1,30,502,473,7e-09,56.5
Exophiala_xenobiotica_1_CBS118157T,SRR11058347.54158,100.00,30,0,0,1,30,105,134,7e-09,56.5
Exophiala_xenobiotica_1_CBS118157T,SRR11058347.54158,100.00,30,0,0,1,30,503,474,7e-09,56.5
Exophiala_xenobiotica_1_CBS118157T,SRR11058347.50813,100.00,30,0,0,1,30,105,134,7e-09,56.5
Exophiala_xenobiotica_1_CBS118157T,SRR11058347.50813,100.00,30,0,0,1,30,503,474,7e-09,56.5
Exophiala_xenobiotica_1_CBS118157T,SRR11058347.50108,100.00,30,0,0,1,30,105,134,7e-09,56.5
Exophiala_xenobiotica_1_CBS118157T,SRR11058347.50108,100.00,30,0,0,1,30,503,474,7e-09,56.5
Exophiala_xenobiotica_1_CBS118157T,SRR11058347.43525,100.00,30,0,0,1,30,105,134,7e-09,56.5
Exophiala_xenobiotica_1_CBS118157T,SRR11058347.43525,100.00,30,0,0,1,30,503,474,7e-09,56.5
Exophiala_xenobiotica_1_CBS118157T,SRR11058347.40479,100.00,30,0,0,1,30,105,134,7e-09,56.5
Exophiala_xenobiotica_1_CBS118157T,SRR11058347.40479,100.00,30,0,0,1,30,503,474,7e-09,56.5
Exophiala_xenobiotica_1_CBS118157T,SRR11058347.39739,100.00,30,0,0,1,30,105,134,7e-09,56.5
Exophiala_xenobiotica_1_CBS118157T,SRR11058347.39739,100.00,30,0,0,1,30,503,474,7e-09,56.5
Exophiala_xenobiotica_1_CBS118157T,SRR11058347.38794,100.00,30,0,0,1,30,105,134,7e-09,56.5
Exophiala_xenobiotica_1_CBS118157T,SRR11058347.26888,100.00,30,0,0,1,30,105,134,7e-09,56.5
Exophiala_xenobiotica_1_CBS118157T,SRR11058347.26888,100.00,30,0,0,1,30,503,474,7e-09,56.5
Exophiala_xenobiotica_1_CBS118157T,SRR11058347.23936,100.00,30,0,0,1,30,105,134,7e-09,56.5
Exophiala_xenobiotica_1_CBS118157T,SRR11058347.23936,100.00,30,0,0,1,30,503,474,7e-09,56.5
Exophiala_xenobiotica_1_CBS118157T,SRR11058347.23839,100.00,30,0,0,1,30,105,134,7e-09,56.5
Exophiala_xenobiotica_1_CBS118157T,SRR11058347.23839,100.00,30,0,0,1,30,503,474,7e-09,56.5
Exophiala_xenobiotica_1_CBS118157T,SRR11058347.19982,100.00,30,0,0,1,30,105,134,7e-09,56.5
Exophiala_xenobiotica_1_CBS118157T,SRR11058347.19982,100.00,30,0,0,1,30,503,474,7e-09,56.5
Exophiala_xenobiotica_1_CBS118157T,SRR11058347.17697,100.00,30,0,0,1,30,105,134,7e-09,56.5
Exophiala_xenobiotica_1_CBS118157T,SRR11058347.17697,100.00,30,0,0,1,30,503,474,7e-09,56.5
