Exophiala_equina_1_CBS119.23T,SRR7007210.58392,100.00,38,0,0,1,38,105,142,2e-13,71.3
Exophiala_equina_1_CBS119.23T,SRR7007210.58392,100.00,38,0,0,1,38,520,483,2e-13,71.3
Exophiala_equina_1_CBS119.23T,SRR7007210.58344,100.00,38,0,0,1,38,105,142,2e-13,71.3
Exophiala_equina_1_CBS119.23T,SRR7007210.58344,100.00,38,0,0,1,38,520,483,2e-13,71.3
Exophiala_equina_1_CBS119.23T,SRR7007210.58125,100.00,38,0,0,1,38,105,142,2e-13,71.3
Exophiala_equina_1_CBS119.23T,SRR7007210.58125,100.00,38,0,0,1,38,520,483,2e-13,71.3
Exophiala_equina_1_CBS119.23T,SRR7007210.57818,100.00,38,0,0,1,38,105,142,2e-13,71.3
Exophiala_equina_1_CBS119.23T,SRR7007210.57818,100.00,38,0,0,1,38,520,483,2e-13,71.3
Exophiala_equina_1_CBS119.23T,SRR7007210.57816,100.00,38,0,0,1,38,105,142,2e-13,71.3
Exophiala_equina_1_CBS119.23T,SRR7007210.57816,100.00,38,0,0,1,38,520,483,2e-13,71.3
Exophiala_equina_1_CBS119.23T,SRR7007210.57705,100.00,38,0,0,1,38,105,142,2e-13,71.3
Exophiala_equina_1_CBS119.23T,SRR7007210.57705,100.00,38,0,0,1,38,520,483,2e-13,71.3
Exophiala_equina_1_CBS119.23T,SRR7007210.57702,100.00,38,0,0,1,38,105,142,2e-13,71.3
Exophiala_equina_1_CBS119.23T,SRR7007210.57702,100.00,38,0,0,1,38,520,483,2e-13,71.3
Exophiala_equina_1_CBS119.23T,SRR7007210.57635,100.00,38,0,0,1,38,105,142,2e-13,71.3
Exophiala_equina_1_CBS119.23T,SRR7007210.57635,100.00,38,0,0,1,38,520,483,2e-13,71.3
Exophiala_equina_1_CBS119.23T,SRR7007210.57563,100.00,38,0,0,1,38,105,142,2e-13,71.3
Exophiala_equina_1_CBS119.23T,SRR7007210.57563,100.00,38,0,0,1,38,520,483,2e-13,71.3
Exophiala_equina_1_CBS119.23T,SRR7007210.57253,100.00,38,0,0,1,38,105,142,2e-13,71.3
Exophiala_equina_1_CBS119.23T,SRR7007210.57253,100.00,38,0,0,1,38,519,482,2e-13,71.3
Exophiala_equina_1_CBS119.23T,SRR7007210.56588,100.00,38,0,0,1,38,105,142,2e-13,71.3
Exophiala_equina_1_CBS119.23T,SRR7007210.56588,100.00,38,0,0,1,38,520,483,2e-13,71.3
Exophiala_equina_1_CBS119.23T,SRR7007210.55447,100.00,38,0,0,1,38,104,141,2e-13,71.3
Exophiala_equina_1_CBS119.23T,SRR7007210.55447,100.00,38,0,0,1,38,520,483,2e-13,71.3
Exophiala_equina_1_CBS119.23T,SRR7007210.55279,100.00,38,0,0,1,38,105,142,2e-13,71.3
Exophiala_equina_1_CBS119.23T,SRR7007210.55279,100.00,38,0,0,1,38,520,483,2e-13,71.3
Exophiala_equina_1_CBS119.23T,SRR7007210.54884,100.00,38,0,0,1,38,105,142,2e-13,71.3
Exophiala_equina_1_CBS119.23T,SRR7007210.54884,100.00,38,0,0,1,38,520,483,2e-13,71.3
Exophiala_equina_1_CBS119.23T,SRR7007210.54390,100.00,38,0,0,1,38,105,142,2e-13,71.3
Exophiala_equina_1_CBS119.23T,SRR7007210.54390,100.00,38,0,0,1,38,520,483,2e-13,71.3
Exophiala_equina_1_CBS119.23T,SRR7007210.54239,100.00,38,0,0,1,38,105,142,2e-13,71.3
Exophiala_equina_1_CBS119.23T,SRR7007210.54239,100.00,38,0,0,1,38,520,483,2e-13,71.3
Exophiala_equina_1_CBS119.23T,SRR7007210.53886,100.00,38,0,0,1,38,105,142,2e-13,71.3
Exophiala_equina_1_CBS119.23T,SRR7007210.53886,97.37,38,1,0,1,38,520,483,1e-11,65.8
Exophiala_equina_1_CBS119.23T,SRR7007210.53884,100.00,38,0,0,1,38,105,142,2e-13,71.3
Exophiala_equina_1_CBS119.23T,SRR7007210.53884,100.00,38,0,0,1,38,520,483,2e-13,71.3
Exophiala_equina_1_CBS119.23T,SRR7007210.53832,100.00,38,0,0,1,38,105,142,2e-13,71.3
Exophiala_equina_1_CBS119.23T,SRR7007210.53832,100.00,38,0,0,1,38,520,483,2e-13,71.3
Exophiala_equina_1_CBS119.23T,SRR7007210.53713,100.00,38,0,0,1,38,105,142,2e-13,71.3
Exophiala_equina_1_CBS119.23T,SRR7007210.53713,100.00,38,0,0,1,38,520,483,2e-13,71.3
Exophiala_equina_1_CBS119.23T,SRR7007210.53615,100.00,38,0,0,1,38,105,142,2e-13,71.3
Exophiala_equina_1_CBS119.23T,SRR7007210.53615,100.00,38,0,0,1,38,520,483,2e-13,71.3
Exophiala_equina_1_CBS119.23T,SRR7007210.53385,100.00,38,0,0,1,38,105,142,2e-13,71.3
Exophiala_equina_1_CBS119.23T,SRR7007210.53385,100.00,38,0,0,1,38,520,483,2e-13,71.3
Exophiala_equina_1_CBS119.23T,SRR7007210.52804,100.00,38,0,0,1,38,105,142,2e-13,71.3
Exophiala_equina_1_CBS119.23T,SRR7007210.52543,100.00,38,0,0,1,38,105,142,2e-13,71.3
Exophiala_equina_1_CBS119.23T,SRR7007210.52543,100.00,38,0,0,1,38,520,483,2e-13,71.3
Exophiala_equina_1_CBS119.23T,SRR7007210.52365,100.00,38,0,0,1,38,105,142,2e-13,71.3
Exophiala_equina_1_CBS119.23T,SRR7007210.52365,100.00,38,0,0,1,38,520,483,2e-13,71.3
Exophiala_equina_1_CBS119.23T,SRR7007210.51797,100.00,38,0,0,1,38,105,142,2e-13,71.3
Exophiala_equina_1_CBS119.23T,SRR7007210.51797,100.00,38,0,0,1,38,520,483,2e-13,71.3
Exophiala_equina_1_CBS119.23T,SRR7007210.51780,100.00,38,0,0,1,38,105,142,2e-13,71.3
Exophiala_equina_1_CBS119.23T,SRR7007210.51780,100.00,38,0,0,1,38,520,483,2e-13,71.3
Exophiala_equina_1_CBS119.23T,SRR7007210.51331,100.00,38,0,0,1,38,105,142,2e-13,71.3
Exophiala_equina_1_CBS119.23T,SRR7007210.51331,100.00,38,0,0,1,38,520,483,2e-13,71.3
Exophiala_equina_1_CBS119.23T,SRR7007210.50823,100.00,38,0,0,1,38,105,142,2e-13,71.3
Exophiala_equina_1_CBS119.23T,SRR7007210.50823,100.00,38,0,0,1,38,520,483,2e-13,71.3
Exophiala_equina_1_CBS119.23T,SRR7007210.50713,100.00,38,0,0,1,38,105,142,2e-13,71.3
Exophiala_equina_1_CBS119.23T,SRR7007210.50713,100.00,38,0,0,1,38,520,483,2e-13,71.3
Exophiala_equina_1_CBS119.23T,SRR7007210.50193,100.00,38,0,0,1,38,105,142,2e-13,71.3
Exophiala_equina_1_CBS119.23T,SRR7007210.50193,100.00,38,0,0,1,38,520,483,2e-13,71.3
Exophiala_equina_1_CBS119.23T,SRR7007210.50176,100.00,38,0,0,1,38,105,142,2e-13,71.3
Exophiala_equina_1_CBS119.23T,SRR7007210.50176,100.00,38,0,0,1,38,520,483,2e-13,71.3
Exophiala_equina_1_CBS119.23T,SRR7007210.49994,100.00,38,0,0,1,38,105,142,2e-13,71.3
Exophiala_equina_1_CBS119.23T,SRR7007210.49994,100.00,38,0,0,1,38,520,483,2e-13,71.3
Exophiala_equina_1_CBS119.23T,SRR7007210.48074,100.00,38,0,0,1,38,105,142,2e-13,71.3
Exophiala_equina_1_CBS119.23T,SRR7007210.48074,100.00,38,0,0,1,38,520,483,2e-13,71.3
Exophiala_equina_1_CBS119.23T,SRR7007210.47979,100.00,38,0,0,1,38,105,142,2e-13,71.3
Exophiala_equina_1_CBS119.23T,SRR7007210.47979,100.00,38,0,0,1,38,520,483,2e-13,71.3
Exophiala_equina_1_CBS119.23T,SRR7007210.47978,100.00,38,0,0,1,38,520,483,2e-13,71.3
Exophiala_equina_1_CBS119.23T,SRR7007210.47978,100.00,37,0,0,1,37,105,141,7e-13,69.4
Exophiala_equina_1_CBS119.23T,SRR7007210.47104,100.00,38,0,0,1,38,105,142,2e-13,71.3
Exophiala_equina_1_CBS119.23T,SRR7007210.47102,100.00,38,0,0,1,38,105,142,2e-13,71.3
Exophiala_equina_1_CBS119.23T,SRR7007210.47102,100.00,38,0,0,1,38,520,483,2e-13,71.3
Exophiala_equina_1_CBS119.23T,SRR7007210.45925,100.00,38,0,0,1,38,105,142,2e-13,71.3
Exophiala_equina_1_CBS119.23T,SRR7007210.45886,100.00,38,0,0,1,38,105,142,2e-13,71.3
Exophiala_equina_1_CBS119.23T,SRR7007210.45886,100.00,38,0,0,1,38,520,483,2e-13,71.3
Exophiala_equina_1_CBS119.23T,SRR7007210.45659,100.00,38,0,0,1,38,105,142,2e-13,71.3
Exophiala_equina_1_CBS119.23T,SRR7007210.45659,100.00,38,0,0,1,38,520,483,2e-13,71.3
Exophiala_equina_1_CBS119.23T,SRR7007210.45658,100.00,38,0,0,1,38,105,142,2e-13,71.3
Exophiala_equina_1_CBS119.23T,SRR7007210.45658,100.00,38,0,0,1,38,520,483,2e-13,71.3
Exophiala_equina_1_CBS119.23T,SRR7007210.45481,100.00,38,0,0,1,38,105,142,2e-13,71.3
Exophiala_equina_1_CBS119.23T,SRR7007210.45481,100.00,38,0,0,1,38,520,483,2e-13,71.3
Exophiala_equina_1_CBS119.23T,SRR7007210.45384,100.00,38,0,0,1,38,105,142,2e-13,71.3
Exophiala_equina_1_CBS119.23T,SRR7007210.45384,100.00,38,0,0,1,38,520,483,2e-13,71.3
Exophiala_equina_1_CBS119.23T,SRR7007210.45376,100.00,38,0,0,1,38,105,142,2e-13,71.3
Exophiala_equina_1_CBS119.23T,SRR7007210.45376,100.00,38,0,0,1,38,520,483,2e-13,71.3
Exophiala_equina_1_CBS119.23T,SRR7007210.45373,100.00,38,0,0,1,38,105,142,2e-13,71.3
Exophiala_equina_1_CBS119.23T,SRR7007210.45373,100.00,38,0,0,1,38,520,483,2e-13,71.3
Exophiala_equina_1_CBS119.23T,SRR7007210.45005,100.00,38,0,0,1,38,105,142,2e-13,71.3
Exophiala_equina_1_CBS119.23T,SRR7007210.45005,100.00,38,0,0,1,38,520,483,2e-13,71.3
Exophiala_equina_1_CBS119.23T,SRR7007210.44250,100.00,38,0,0,1,38,105,142,2e-13,71.3
Exophiala_equina_1_CBS119.23T,SRR7007210.44250,100.00,38,0,0,1,38,520,483,2e-13,71.3
Exophiala_equina_1_CBS119.23T,SRR7007210.43923,100.00,38,0,0,1,38,105,142,2e-13,71.3
Exophiala_equina_1_CBS119.23T,SRR7007210.43923,97.37,38,1,0,1,38,520,483,1e-11,65.8
Exophiala_equina_1_CBS119.23T,SRR7007210.43569,100.00,38,0,0,1,38,105,142,2e-13,71.3
Exophiala_equina_1_CBS119.23T,SRR7007210.43569,100.00,38,0,0,1,38,520,483,2e-13,71.3
Exophiala_equina_1_CBS119.23T,SRR7007210.43327,100.00,38,0,0,1,38,105,142,2e-13,71.3
Exophiala_equina_1_CBS119.23T,SRR7007210.43327,100.00,38,0,0,1,38,520,483,2e-13,71.3
Exophiala_equina_1_CBS119.23T,SRR7007210.43052,100.00,38,0,0,1,38,105,142,2e-13,71.3
Exophiala_equina_1_CBS119.23T,SRR7007210.43052,100.00,38,0,0,1,38,520,483,2e-13,71.3
Exophiala_equina_1_CBS119.23T,SRR7007210.42680,100.00,38,0,0,1,38,105,142,2e-13,71.3
Exophiala_equina_1_CBS119.23T,SRR7007210.42680,100.00,38,0,0,1,38,520,483,2e-13,71.3
Exophiala_equina_1_CBS119.23T,SRR7007210.42570,100.00,38,0,0,1,38,105,142,2e-13,71.3
Exophiala_equina_1_CBS119.23T,SRR7007210.42570,100.00,38,0,0,1,38,520,483,2e-13,71.3
Exophiala_equina_1_CBS119.23T,SRR7007210.41836,100.00,38,0,0,1,38,105,142,2e-13,71.3
Exophiala_equina_1_CBS119.23T,SRR7007210.41836,100.00,38,0,0,1,38,520,483,2e-13,71.3
Exophiala_equina_1_CBS119.23T,SRR7007210.41705,100.00,38,0,0,1,38,105,142,2e-13,71.3
Exophiala_equina_1_CBS119.23T,SRR7007210.41705,100.00,38,0,0,1,38,520,483,2e-13,71.3
Exophiala_equina_1_CBS119.23T,SRR7007210.41335,100.00,38,0,0,1,38,105,142,2e-13,71.3
Exophiala_equina_1_CBS119.23T,SRR7007210.41335,100.00,38,0,0,1,38,520,483,2e-13,71.3
Exophiala_equina_1_CBS119.23T,SRR7007210.41260,100.00,38,0,0,1,38,105,142,2e-13,71.3
Exophiala_equina_1_CBS119.23T,SRR7007210.41260,100.00,38,0,0,1,38,520,483,2e-13,71.3
Exophiala_equina_1_CBS119.23T,SRR7007210.41249,100.00,38,0,0,1,38,105,142,2e-13,71.3
Exophiala_equina_1_CBS119.23T,SRR7007210.41249,100.00,38,0,0,1,38,520,483,2e-13,71.3
Exophiala_equina_1_CBS119.23T,SRR7007210.40835,100.00,38,0,0,1,38,105,142,2e-13,71.3
Exophiala_equina_1_CBS119.23T,SRR7007210.40835,100.00,38,0,0,1,38,520,483,2e-13,71.3
Exophiala_equina_1_CBS119.23T,SRR7007210.40321,100.00,38,0,0,1,38,105,142,2e-13,71.3
Exophiala_equina_1_CBS119.23T,SRR7007210.40321,100.00,38,0,0,1,38,520,483,2e-13,71.3
Exophiala_equina_1_CBS119.23T,SRR7007210.40247,100.00,38,0,0,1,38,105,142,2e-13,71.3
Exophiala_equina_1_CBS119.23T,SRR7007210.40247,100.00,38,0,0,1,38,520,483,2e-13,71.3
Exophiala_equina_1_CBS119.23T,SRR7007210.39901,100.00,38,0,0,1,38,105,142,2e-13,71.3
Exophiala_equina_1_CBS119.23T,SRR7007210.39901,97.37,38,1,0,1,38,520,483,1e-11,65.8
Exophiala_equina_1_CBS119.23T,SRR7007210.39131,100.00,38,0,0,1,38,105,142,2e-13,71.3
Exophiala_equina_1_CBS119.23T,SRR7007210.39131,100.00,38,0,0,1,38,520,483,2e-13,71.3
Exophiala_equina_1_CBS119.23T,SRR7007210.38287,100.00,38,0,0,1,38,105,142,2e-13,71.3
Exophiala_equina_1_CBS119.23T,SRR7007210.38287,100.00,38,0,0,1,38,520,483,2e-13,71.3
Exophiala_equina_1_CBS119.23T,SRR7007210.38285,100.00,38,0,0,1,38,105,142,2e-13,71.3
Exophiala_equina_1_CBS119.23T,SRR7007210.38285,100.00,38,0,0,1,38,520,483,2e-13,71.3
Exophiala_equina_1_CBS119.23T,SRR7007210.38100,100.00,38,0,0,1,38,105,142,2e-13,71.3
Exophiala_equina_1_CBS119.23T,SRR7007210.38100,100.00,38,0,0,1,38,520,483,2e-13,71.3
Exophiala_equina_1_CBS119.23T,SRR7007210.38056,100.00,38,0,0,1,38,105,142,2e-13,71.3
Exophiala_equina_1_CBS119.23T,SRR7007210.38056,100.00,38,0,0,1,38,520,483,2e-13,71.3
Exophiala_equina_1_CBS119.23T,SRR7007210.37838,100.00,38,0,0,1,38,105,142,2e-13,71.3
Exophiala_equina_1_CBS119.23T,SRR7007210.37838,100.00,38,0,0,1,38,520,483,2e-13,71.3
Exophiala_equina_1_CBS119.23T,SRR7007210.37237,100.00,38,0,0,1,38,105,142,2e-13,71.3
Exophiala_equina_1_CBS119.23T,SRR7007210.37237,100.00,38,0,0,1,38,520,483,2e-13,71.3
Exophiala_equina_1_CBS119.23T,SRR7007210.36897,100.00,38,0,0,1,38,105,142,2e-13,71.3
Exophiala_equina_1_CBS119.23T,SRR7007210.36897,100.00,38,0,0,1,38,520,483,2e-13,71.3
Exophiala_equina_1_CBS119.23T,SRR7007210.36534,100.00,38,0,0,1,38,105,142,2e-13,71.3
Exophiala_equina_1_CBS119.23T,SRR7007210.36534,100.00,38,0,0,1,38,520,483,2e-13,71.3
Exophiala_equina_1_CBS119.23T,SRR7007210.36104,100.00,38,0,0,1,38,105,142,2e-13,71.3
Exophiala_equina_1_CBS119.23T,SRR7007210.36104,100.00,38,0,0,1,38,520,483,2e-13,71.3
Exophiala_equina_1_CBS119.23T,SRR7007210.35915,100.00,38,0,0,1,38,105,142,2e-13,71.3
Exophiala_equina_1_CBS119.23T,SRR7007210.35915,100.00,38,0,0,1,38,520,483,2e-13,71.3
Exophiala_equina_1_CBS119.23T,SRR7007210.35913,100.00,38,0,0,1,38,105,142,2e-13,71.3
Exophiala_equina_1_CBS119.23T,SRR7007210.35913,100.00,38,0,0,1,38,520,483,2e-13,71.3
Exophiala_equina_1_CBS119.23T,SRR7007210.35818,100.00,38,0,0,1,38,105,142,2e-13,71.3
Exophiala_equina_1_CBS119.23T,SRR7007210.35818,100.00,38,0,0,1,38,520,483,2e-13,71.3
Exophiala_equina_1_CBS119.23T,SRR7007210.35404,100.00,38,0,0,1,38,105,142,2e-13,71.3
Exophiala_equina_1_CBS119.23T,SRR7007210.35404,97.37,38,1,0,1,38,520,483,1e-11,65.8
Exophiala_equina_1_CBS119.23T,SRR7007210.34890,100.00,38,0,0,1,38,520,483,2e-13,71.3
Exophiala_equina_1_CBS119.23T,SRR7007210.34812,100.00,38,0,0,1,38,105,142,2e-13,71.3
Exophiala_equina_1_CBS119.23T,SRR7007210.34812,100.00,38,0,0,1,38,520,483,2e-13,71.3
Exophiala_equina_1_CBS119.23T,SRR7007210.34755,100.00,38,0,0,1,38,105,142,2e-13,71.3
Exophiala_equina_1_CBS119.23T,SRR7007210.34755,100.00,38,0,0,1,38,520,483,2e-13,71.3
Exophiala_equina_1_CBS119.23T,SRR7007210.34741,100.00,38,0,0,1,38,105,142,2e-13,71.3
Exophiala_equina_1_CBS119.23T,SRR7007210.34741,100.00,38,0,0,1,38,520,483,2e-13,71.3
Exophiala_equina_1_CBS119.23T,SRR7007210.34696,100.00,38,0,0,1,38,105,142,2e-13,71.3
Exophiala_equina_1_CBS119.23T,SRR7007210.34696,100.00,38,0,0,1,38,520,483,2e-13,71.3
Exophiala_equina_1_CBS119.23T,SRR7007210.33898,100.00,38,0,0,1,38,105,142,2e-13,71.3
Exophiala_equina_1_CBS119.23T,SRR7007210.33898,100.00,38,0,0,1,38,520,483,2e-13,71.3
Exophiala_equina_1_CBS119.23T,SRR7007210.33190,100.00,38,0,0,1,38,105,142,2e-13,71.3
Exophiala_equina_1_CBS119.23T,SRR7007210.33190,100.00,38,0,0,1,38,520,483,2e-13,71.3
Exophiala_equina_1_CBS119.23T,SRR7007210.32870,100.00,38,0,0,1,38,105,142,2e-13,71.3
Exophiala_equina_1_CBS119.23T,SRR7007210.32869,100.00,38,0,0,1,38,105,142,2e-13,71.3
Exophiala_equina_1_CBS119.23T,SRR7007210.32869,100.00,38,0,0,1,38,520,483,2e-13,71.3
Exophiala_equina_1_CBS119.23T,SRR7007210.32677,100.00,38,0,0,1,38,105,142,2e-13,71.3
Exophiala_equina_1_CBS119.23T,SRR7007210.32677,100.00,38,0,0,1,38,520,483,2e-13,71.3
Exophiala_equina_1_CBS119.23T,SRR7007210.32164,100.00,38,0,0,1,38,105,142,2e-13,71.3
Exophiala_equina_1_CBS119.23T,SRR7007210.32164,100.00,38,0,0,1,38,520,483,2e-13,71.3
Exophiala_equina_1_CBS119.23T,SRR7007210.31518,100.00,38,0,0,1,38,105,142,2e-13,71.3
Exophiala_equina_1_CBS119.23T,SRR7007210.31518,100.00,38,0,0,1,38,520,483,2e-13,71.3
Exophiala_equina_1_CBS119.23T,SRR7007210.31493,100.00,38,0,0,1,38,105,142,2e-13,71.3
Exophiala_equina_1_CBS119.23T,SRR7007210.31493,100.00,38,0,0,1,38,520,483,2e-13,71.3
Exophiala_equina_1_CBS119.23T,SRR7007210.31456,100.00,38,0,0,1,38,105,142,2e-13,71.3
Exophiala_equina_1_CBS119.23T,SRR7007210.31456,100.00,38,0,0,1,38,520,483,2e-13,71.3
Exophiala_equina_1_CBS119.23T,SRR7007210.30574,100.00,38,0,0,1,38,105,142,2e-13,71.3
Exophiala_equina_1_CBS119.23T,SRR7007210.30574,100.00,38,0,0,1,38,520,483,2e-13,71.3
Exophiala_equina_1_CBS119.23T,SRR7007210.30297,100.00,38,0,0,1,38,105,142,2e-13,71.3
Exophiala_equina_1_CBS119.23T,SRR7007210.30297,100.00,38,0,0,1,38,520,483,2e-13,71.3
Exophiala_equina_1_CBS119.23T,SRR7007210.30296,100.00,38,0,0,1,38,105,142,2e-13,71.3
Exophiala_equina_1_CBS119.23T,SRR7007210.29569,100.00,38,0,0,1,38,105,142,2e-13,71.3
Exophiala_equina_1_CBS119.23T,SRR7007210.29535,100.00,38,0,0,1,38,105,142,2e-13,71.3
Exophiala_equina_1_CBS119.23T,SRR7007210.29275,100.00,38,0,0,1,38,105,142,2e-13,71.3
Exophiala_equina_1_CBS119.23T,SRR7007210.29275,100.00,38,0,0,1,38,520,483,2e-13,71.3
Exophiala_equina_1_CBS119.23T,SRR7007210.28921,100.00,38,0,0,1,38,105,142,2e-13,71.3
Exophiala_equina_1_CBS119.23T,SRR7007210.28921,100.00,38,0,0,1,38,520,483,2e-13,71.3
Exophiala_equina_1_CBS119.23T,SRR7007210.28903,100.00,38,0,0,1,38,105,142,2e-13,71.3
Exophiala_equina_1_CBS119.23T,SRR7007210.28903,100.00,38,0,0,1,38,520,483,2e-13,71.3
Exophiala_equina_1_CBS119.23T,SRR7007210.28829,100.00,38,0,0,1,38,105,142,2e-13,71.3
Exophiala_equina_1_CBS119.23T,SRR7007210.28829,100.00,38,0,0,1,38,520,483,2e-13,71.3
Exophiala_equina_1_CBS119.23T,SRR7007210.28321,100.00,38,0,0,1,38,105,142,2e-13,71.3
Exophiala_equina_1_CBS119.23T,SRR7007210.28321,100.00,38,0,0,1,38,520,483,2e-13,71.3
Exophiala_equina_1_CBS119.23T,SRR7007210.27979,100.00,38,0,0,1,38,105,142,2e-13,71.3
Exophiala_equina_1_CBS119.23T,SRR7007210.27979,100.00,38,0,0,1,38,520,483,2e-13,71.3
Exophiala_equina_1_CBS119.23T,SRR7007210.27907,100.00,38,0,0,1,38,105,142,2e-13,71.3
Exophiala_equina_1_CBS119.23T,SRR7007210.27907,100.00,38,0,0,1,38,520,483,2e-13,71.3
Exophiala_equina_1_CBS119.23T,SRR7007210.27900,100.00,38,0,0,1,38,105,142,2e-13,71.3
Exophiala_equina_1_CBS119.23T,SRR7007210.27900,100.00,38,0,0,1,38,519,482,2e-13,71.3
Exophiala_equina_1_CBS119.23T,SRR7007210.27897,100.00,38,0,0,1,38,105,142,2e-13,71.3
Exophiala_equina_1_CBS119.23T,SRR7007210.27897,100.00,38,0,0,1,38,519,482,2e-13,71.3
Exophiala_equina_1_CBS119.23T,SRR7007210.27790,100.00,38,0,0,1,38,105,142,2e-13,71.3
Exophiala_equina_1_CBS119.23T,SRR7007210.27790,100.00,38,0,0,1,38,520,483,2e-13,71.3
Exophiala_equina_1_CBS119.23T,SRR7007210.27334,100.00,38,0,0,1,38,105,142,2e-13,71.3
Exophiala_equina_1_CBS119.23T,SRR7007210.27334,100.00,38,0,0,1,38,520,483,2e-13,71.3
Exophiala_equina_1_CBS119.23T,SRR7007210.27085,100.00,38,0,0,1,38,105,142,2e-13,71.3
Exophiala_equina_1_CBS119.23T,SRR7007210.27085,100.00,38,0,0,1,38,520,483,2e-13,71.3
Exophiala_equina_1_CBS119.23T,SRR7007210.25957,100.00,38,0,0,1,38,105,142,2e-13,71.3
Exophiala_equina_1_CBS119.23T,SRR7007210.25957,100.00,38,0,0,1,38,520,483,2e-13,71.3
Exophiala_equina_1_CBS119.23T,SRR7007210.25906,100.00,38,0,0,1,38,105,142,2e-13,71.3
Exophiala_equina_1_CBS119.23T,SRR7007210.25906,100.00,38,0,0,1,38,520,483,2e-13,71.3
Exophiala_equina_1_CBS119.23T,SRR7007210.25826,100.00,38,0,0,1,38,105,142,2e-13,71.3
Exophiala_equina_1_CBS119.23T,SRR7007210.25826,100.00,38,0,0,1,38,520,483,2e-13,71.3
Exophiala_equina_1_CBS119.23T,SRR7007210.25652,100.00,38,0,0,1,38,105,142,2e-13,71.3
Exophiala_equina_1_CBS119.23T,SRR7007210.25652,100.00,38,0,0,1,38,520,483,2e-13,71.3
Exophiala_equina_1_CBS119.23T,SRR7007210.25253,100.00,38,0,0,1,38,105,142,2e-13,71.3
Exophiala_equina_1_CBS119.23T,SRR7007210.25253,100.00,38,0,0,1,38,520,483,2e-13,71.3
Exophiala_equina_1_CBS119.23T,SRR7007210.25006,100.00,38,0,0,1,38,105,142,2e-13,71.3
Exophiala_equina_1_CBS119.23T,SRR7007210.25006,100.00,38,0,0,1,38,520,483,2e-13,71.3
Exophiala_equina_1_CBS119.23T,SRR7007210.24835,100.00,38,0,0,1,38,105,142,2e-13,71.3
Exophiala_equina_1_CBS119.23T,SRR7007210.24835,100.00,38,0,0,1,38,520,483,2e-13,71.3
Exophiala_equina_1_CBS119.23T,SRR7007210.24520,100.00,38,0,0,1,38,105,142,2e-13,71.3
Exophiala_equina_1_CBS119.23T,SRR7007210.24520,100.00,38,0,0,1,38,520,483,2e-13,71.3
Exophiala_equina_1_CBS119.23T,SRR7007210.23442,100.00,38,0,0,1,38,105,142,2e-13,71.3
Exophiala_equina_1_CBS119.23T,SRR7007210.23442,100.00,38,0,0,1,38,520,483,2e-13,71.3
Exophiala_equina_1_CBS119.23T,SRR7007210.22734,100.00,38,0,0,1,38,105,142,2e-13,71.3
Exophiala_equina_1_CBS119.23T,SRR7007210.22734,100.00,38,0,0,1,38,520,483,2e-13,71.3
Exophiala_equina_1_CBS119.23T,SRR7007210.22694,100.00,38,0,0,1,38,105,142,2e-13,71.3
Exophiala_equina_1_CBS119.23T,SRR7007210.22694,100.00,38,0,0,1,38,520,483,2e-13,71.3
Exophiala_equina_1_CBS119.23T,SRR7007210.22626,100.00,38,0,0,1,38,520,483,2e-13,71.3
Exophiala_equina_1_CBS119.23T,SRR7007210.22326,100.00,38,0,0,1,38,105,142,2e-13,71.3
Exophiala_equina_1_CBS119.23T,SRR7007210.22326,100.00,38,0,0,1,38,520,483,2e-13,71.3
Exophiala_equina_1_CBS119.23T,SRR7007210.21909,100.00,38,0,0,1,38,105,142,2e-13,71.3
Exophiala_equina_1_CBS119.23T,SRR7007210.21909,100.00,38,0,0,1,38,520,483,2e-13,71.3
Exophiala_equina_1_CBS119.23T,SRR7007210.21522,100.00,38,0,0,1,38,105,142,2e-13,71.3
Exophiala_equina_1_CBS119.23T,SRR7007210.21522,100.00,38,0,0,1,38,520,483,2e-13,71.3
Exophiala_equina_1_CBS119.23T,SRR7007210.21354,100.00,38,0,0,1,38,105,142,2e-13,71.3
Exophiala_equina_1_CBS119.23T,SRR7007210.21354,100.00,38,0,0,1,38,520,483,2e-13,71.3
Exophiala_equina_1_CBS119.23T,SRR7007210.20426,100.00,38,0,0,1,38,105,142,2e-13,71.3
Exophiala_equina_1_CBS119.23T,SRR7007210.20426,100.00,38,0,0,1,38,520,483,2e-13,71.3
Exophiala_equina_1_CBS119.23T,SRR7007210.19959,100.00,38,0,0,1,38,105,142,2e-13,71.3
Exophiala_equina_1_CBS119.23T,SRR7007210.19959,100.00,38,0,0,1,38,520,483,2e-13,71.3
Exophiala_equina_1_CBS119.23T,SRR7007210.19531,100.00,38,0,0,1,38,105,142,2e-13,71.3
Exophiala_equina_1_CBS119.23T,SRR7007210.19531,97.37,38,1,0,1,38,520,483,1e-11,65.8
Exophiala_equina_1_CBS119.23T,SRR7007210.19127,100.00,38,0,0,1,38,105,142,2e-13,71.3
Exophiala_equina_1_CBS119.23T,SRR7007210.18928,100.00,38,0,0,1,38,105,142,2e-13,71.3
Exophiala_equina_1_CBS119.23T,SRR7007210.18928,100.00,38,0,0,1,38,520,483,2e-13,71.3
Exophiala_equina_1_CBS119.23T,SRR7007210.18620,100.00,38,0,0,1,38,105,142,2e-13,71.3
Exophiala_equina_1_CBS119.23T,SRR7007210.18620,100.00,38,0,0,1,38,520,483,2e-13,71.3
Exophiala_equina_1_CBS119.23T,SRR7007210.17903,100.00,38,0,0,1,38,105,142,2e-13,71.3
Exophiala_equina_1_CBS119.23T,SRR7007210.17903,100.00,38,0,0,1,38,520,483,2e-13,71.3
Exophiala_equina_1_CBS119.23T,SRR7007210.17867,100.00,38,0,0,1,38,520,483,2e-13,71.3
Exophiala_equina_1_CBS119.23T,SRR7007210.17864,100.00,38,0,0,1,38,105,142,2e-13,71.3
Exophiala_equina_1_CBS119.23T,SRR7007210.17864,97.37,38,1,0,1,38,520,483,1e-11,65.8
Exophiala_equina_1_CBS119.23T,SRR7007210.17427,100.00,38,0,0,1,38,105,142,2e-13,71.3
Exophiala_equina_1_CBS119.23T,SRR7007210.17427,100.00,38,0,0,1,38,520,483,2e-13,71.3
Exophiala_equina_1_CBS119.23T,SRR7007210.17187,100.00,38,0,0,1,38,105,142,2e-13,71.3
Exophiala_equina_1_CBS119.23T,SRR7007210.17187,100.00,38,0,0,1,38,520,483,2e-13,71.3
Exophiala_equina_1_CBS119.23T,SRR7007210.17076,100.00,38,0,0,1,38,105,142,2e-13,71.3
Exophiala_equina_1_CBS119.23T,SRR7007210.17076,100.00,38,0,0,1,38,520,483,2e-13,71.3
Exophiala_equina_1_CBS119.23T,SRR7007210.16370,100.00,38,0,0,1,38,105,142,2e-13,71.3
Exophiala_equina_1_CBS119.23T,SRR7007210.16370,100.00,38,0,0,1,38,520,483,2e-13,71.3
Exophiala_equina_1_CBS119.23T,SRR7007210.16309,100.00,38,0,0,1,38,105,142,2e-13,71.3
Exophiala_equina_1_CBS119.23T,SRR7007210.16309,100.00,38,0,0,1,38,520,483,2e-13,71.3
Exophiala_equina_1_CBS119.23T,SRR7007210.16171,100.00,38,0,0,1,38,105,142,2e-13,71.3
Exophiala_equina_1_CBS119.23T,SRR7007210.16171,100.00,38,0,0,1,38,520,483,2e-13,71.3
Exophiala_equina_1_CBS119.23T,SRR7007210.15995,100.00,38,0,0,1,38,105,142,2e-13,71.3
Exophiala_equina_1_CBS119.23T,SRR7007210.15995,100.00,38,0,0,1,38,520,483,2e-13,71.3
Exophiala_equina_1_CBS119.23T,SRR7007210.15726,100.00,38,0,0,1,38,105,142,2e-13,71.3
Exophiala_equina_1_CBS119.23T,SRR7007210.15726,100.00,38,0,0,1,38,520,483,2e-13,71.3
Exophiala_equina_1_CBS119.23T,SRR7007210.15595,100.00,38,0,0,1,38,105,142,2e-13,71.3
Exophiala_equina_1_CBS119.23T,SRR7007210.15595,100.00,38,0,0,1,38,520,483,2e-13,71.3
Exophiala_equina_1_CBS119.23T,SRR7007210.15558,100.00,38,0,0,1,38,103,140,2e-13,71.3
Exophiala_equina_1_CBS119.23T,SRR7007210.15558,100.00,38,0,0,1,38,520,483,2e-13,71.3
Exophiala_equina_1_CBS119.23T,SRR7007210.15487,100.00,38,0,0,1,38,105,142,2e-13,71.3
Exophiala_equina_1_CBS119.23T,SRR7007210.15487,100.00,38,0,0,1,38,520,483,2e-13,71.3
Exophiala_equina_1_CBS119.23T,SRR7007210.15052,100.00,38,0,0,1,38,105,142,2e-13,71.3
Exophiala_equina_1_CBS119.23T,SRR7007210.15052,100.00,38,0,0,1,38,520,483,2e-13,71.3
Exophiala_equina_1_CBS119.23T,SRR7007210.14808,100.00,38,0,0,1,38,105,142,2e-13,71.3
Exophiala_equina_1_CBS119.23T,SRR7007210.14808,100.00,38,0,0,1,38,520,483,2e-13,71.3
Exophiala_equina_1_CBS119.23T,SRR7007210.14669,100.00,38,0,0,1,38,105,142,2e-13,71.3
Exophiala_equina_1_CBS119.23T,SRR7007210.14669,100.00,38,0,0,1,38,520,483,2e-13,71.3
Exophiala_equina_1_CBS119.23T,SRR7007210.13455,100.00,38,0,0,1,38,105,142,2e-13,71.3
Exophiala_equina_1_CBS119.23T,SRR7007210.13353,100.00,38,0,0,1,38,105,142,2e-13,71.3
Exophiala_equina_1_CBS119.23T,SRR7007210.13353,100.00,38,0,0,1,38,520,483,2e-13,71.3
Exophiala_equina_1_CBS119.23T,SRR7007210.13327,100.00,38,0,0,1,38,105,142,2e-13,71.3
Exophiala_equina_1_CBS119.23T,SRR7007210.13327,100.00,38,0,0,1,38,520,483,2e-13,71.3
Exophiala_equina_1_CBS119.23T,SRR7007210.11557,100.00,38,0,0,1,38,105,142,2e-13,71.3
Exophiala_equina_1_CBS119.23T,SRR7007210.11557,100.00,38,0,0,1,38,520,483,2e-13,71.3
Exophiala_equina_1_CBS119.23T,SRR7007210.11498,100.00,38,0,0,1,38,105,142,2e-13,71.3
Exophiala_equina_1_CBS119.23T,SRR7007210.11498,100.00,38,0,0,1,38,520,483,2e-13,71.3
Exophiala_equina_1_CBS119.23T,SRR7007210.11221,100.00,38,0,0,1,38,105,142,2e-13,71.3
Exophiala_equina_1_CBS119.23T,SRR7007210.11221,100.00,38,0,0,1,38,519,482,2e-13,71.3
Exophiala_equina_1_CBS119.23T,SRR7007210.10341,100.00,38,0,0,1,38,105,142,2e-13,71.3
Exophiala_equina_1_CBS119.23T,SRR7007210.10341,100.00,38,0,0,1,38,520,483,2e-13,71.3
Exophiala_equina_1_CBS119.23T,SRR7007210.10329,100.00,38,0,0,1,38,105,142,2e-13,71.3
Exophiala_equina_1_CBS119.23T,SRR7007210.10329,100.00,38,0,0,1,38,520,483,2e-13,71.3
Exophiala_equina_1_CBS119.23T,SRR7007210.9974,100.00,38,0,0,1,38,105,142,2e-13,71.3
Exophiala_equina_1_CBS119.23T,SRR7007210.9974,100.00,38,0,0,1,38,520,483,2e-13,71.3
Exophiala_equina_1_CBS119.23T,SRR7007210.9766,100.00,38,0,0,1,38,105,142,2e-13,71.3
Exophiala_equina_1_CBS119.23T,SRR7007210.9766,100.00,38,0,0,1,38,520,483,2e-13,71.3
Exophiala_equina_1_CBS119.23T,SRR7007210.9745,100.00,38,0,0,1,38,105,142,2e-13,71.3
Exophiala_equina_1_CBS119.23T,SRR7007210.9745,100.00,38,0,0,1,38,520,483,2e-13,71.3
Exophiala_equina_1_CBS119.23T,SRR7007210.8960,100.00,38,0,0,1,38,105,142,2e-13,71.3
Exophiala_equina_1_CBS119.23T,SRR7007210.8960,100.00,38,0,0,1,38,520,483,2e-13,71.3
Exophiala_equina_1_CBS119.23T,SRR7007210.8693,100.00,38,0,0,1,38,105,142,2e-13,71.3
Exophiala_equina_1_CBS119.23T,SRR7007210.8693,100.00,38,0,0,1,38,520,483,2e-13,71.3
Exophiala_equina_1_CBS119.23T,SRR7007210.8542,100.00,38,0,0,1,38,105,142,2e-13,71.3
Exophiala_equina_1_CBS119.23T,SRR7007210.8542,100.00,38,0,0,1,38,520,483,2e-13,71.3
Exophiala_equina_1_CBS119.23T,SRR7007210.8451,100.00,38,0,0,1,38,105,142,2e-13,71.3
Exophiala_equina_1_CBS119.23T,SRR7007210.8451,100.00,38,0,0,1,38,520,483,2e-13,71.3
Exophiala_equina_1_CBS119.23T,SRR7007210.8184,100.00,38,0,0,1,38,105,142,2e-13,71.3
Exophiala_equina_1_CBS119.23T,SRR7007210.8184,100.00,38,0,0,1,38,520,483,2e-13,71.3
Exophiala_equina_1_CBS119.23T,SRR7007210.7699,100.00,38,0,0,1,38,105,142,2e-13,71.3
Exophiala_equina_1_CBS119.23T,SRR7007210.7699,100.00,38,0,0,1,38,520,483,2e-13,71.3
Exophiala_equina_1_CBS119.23T,SRR7007210.6634,100.00,38,0,0,1,38,105,142,2e-13,71.3
Exophiala_equina_1_CBS119.23T,SRR7007210.6634,100.00,38,0,0,1,38,520,483,2e-13,71.3
Exophiala_equina_1_CBS119.23T,SRR7007210.5688,100.00,38,0,0,1,38,105,142,2e-13,71.3
Exophiala_equina_1_CBS119.23T,SRR7007210.5543,100.00,38,0,0,1,38,105,142,2e-13,71.3
Exophiala_equina_1_CBS119.23T,SRR7007210.5543,100.00,38,0,0,1,38,520,483,2e-13,71.3
Exophiala_equina_1_CBS119.23T,SRR7007210.5389,100.00,38,0,0,1,38,105,142,2e-13,71.3
Exophiala_equina_1_CBS119.23T,SRR7007210.4909,100.00,38,0,0,1,38,105,142,2e-13,71.3
Exophiala_equina_1_CBS119.23T,SRR7007210.4909,100.00,38,0,0,1,38,520,483,2e-13,71.3
Exophiala_equina_1_CBS119.23T,SRR7007210.4908,100.00,38,0,0,1,38,105,142,2e-13,71.3
Exophiala_equina_1_CBS119.23T,SRR7007210.4908,100.00,38,0,0,1,38,520,483,2e-13,71.3
Exophiala_equina_1_CBS119.23T,SRR7007210.4869,100.00,38,0,0,1,38,105,142,2e-13,71.3
Exophiala_equina_1_CBS119.23T,SRR7007210.4869,100.00,38,0,0,1,38,520,483,2e-13,71.3
Exophiala_equina_1_CBS119.23T,SRR7007210.4567,100.00,38,0,0,1,38,105,142,2e-13,71.3
Exophiala_equina_1_CBS119.23T,SRR7007210.4532,100.00,38,0,0,1,38,520,483,2e-13,71.3
Exophiala_equina_1_CBS119.23T,SRR7007210.4154,100.00,38,0,0,1,38,105,142,2e-13,71.3
Exophiala_equina_1_CBS119.23T,SRR7007210.4154,100.00,38,0,0,1,38,520,483,2e-13,71.3
Exophiala_equina_1_CBS119.23T,SRR7007210.3204,100.00,38,0,0,1,38,105,142,2e-13,71.3
Exophiala_equina_1_CBS119.23T,SRR7007210.3204,100.00,38,0,0,1,38,520,483,2e-13,71.3
Exophiala_equina_1_CBS119.23T,SRR7007210.2894,100.00,38,0,0,1,38,105,142,2e-13,71.3
Exophiala_equina_1_CBS119.23T,SRR7007210.2894,100.00,38,0,0,1,38,520,483,2e-13,71.3
Exophiala_equina_1_CBS119.23T,SRR7007210.2282,100.00,38,0,0,1,38,105,142,2e-13,71.3
Exophiala_equina_1_CBS119.23T,SRR7007210.2282,100.00,38,0,0,1,38,520,483,2e-13,71.3
Exophiala_equina_1_CBS119.23T,SRR7007210.1752,100.00,38,0,0,1,38,105,142,2e-13,71.3
Exophiala_equina_1_CBS119.23T,SRR7007210.1544,100.00,38,0,0,1,38,105,142,2e-13,71.3
Exophiala_equina_1_CBS119.23T,SRR7007210.1544,100.00,38,0,0,1,38,520,483,2e-13,71.3
Exophiala_equina_1_CBS119.23T,SRR7007210.1187,100.00,38,0,0,1,38,105,142,2e-13,71.3
Exophiala_equina_1_CBS119.23T,SRR7007210.1187,94.74,38,2,0,1,38,520,483,4e-10,60.2
Exophiala_equina_1_CBS119.23T,SRR7007210.829,100.00,38,0,0,1,38,105,142,2e-13,71.3
Exophiala_equina_1_CBS119.23T,SRR7007210.829,100.00,38,0,0,1,38,520,483,2e-13,71.3
Exophiala_equina_1_CBS119.23T,SRR7007210.62,100.00,38,0,0,1,38,105,142,2e-13,71.3
Exophiala_equina_1_CBS119.23T,SRR7007210.62,100.00,38,0,0,1,38,520,483,2e-13,71.3
Exophiala_equina_1_CBS119.23T,SRR7007210.57,100.00,38,0,0,1,38,105,142,2e-13,71.3
Exophiala_equina_1_CBS119.23T,SRR7007210.57,100.00,38,0,0,1,38,520,483,2e-13,71.3
Exophiala_equina_1_CBS119.23T,SRR7007210.11092,97.37,38,1,0,1,38,105,142,1e-11,65.8
Exophiala_equina_1_CBS119.23T,SRR7007210.11092,97.37,38,1,0,1,38,520,483,1e-11,65.8
Exophiala_equina_2_CBS122263,SRR7007210.58534,100.00,38,0,0,1,38,105,142,2e-13,71.3
Exophiala_equina_2_CBS122263,SRR7007210.58534,100.00,38,0,0,1,38,520,483,2e-13,71.3
Exophiala_equina_2_CBS122263,SRR7007210.57707,100.00,38,0,0,1,38,105,142,2e-13,71.3
Exophiala_equina_2_CBS122263,SRR7007210.57707,100.00,38,0,0,1,38,520,483,2e-13,71.3
Exophiala_equina_2_CBS122263,SRR7007210.56020,100.00,38,0,0,1,38,105,142,2e-13,71.3
Exophiala_equina_2_CBS122263,SRR7007210.56020,100.00,38,0,0,1,38,520,483,2e-13,71.3
Exophiala_equina_2_CBS122263,SRR7007210.55108,100.00,38,0,0,1,38,105,142,2e-13,71.3
Exophiala_equina_2_CBS122263,SRR7007210.54475,100.00,38,0,0,1,38,105,142,2e-13,71.3
Exophiala_equina_2_CBS122263,SRR7007210.54475,100.00,38,0,0,1,38,520,483,2e-13,71.3
Exophiala_equina_2_CBS122263,SRR7007210.54473,100.00,38,0,0,1,38,105,142,2e-13,71.3
Exophiala_equina_2_CBS122263,SRR7007210.54473,100.00,38,0,0,1,38,520,483,2e-13,71.3
Exophiala_equina_2_CBS122263,SRR7007210.54416,100.00,38,0,0,1,38,105,142,2e-13,71.3
Exophiala_equina_2_CBS122263,SRR7007210.54416,100.00,38,0,0,1,38,520,483,2e-13,71.3
Exophiala_equina_2_CBS122263,SRR7007210.54413,100.00,38,0,0,1,38,105,142,2e-13,71.3
Exophiala_equina_2_CBS122263,SRR7007210.54413,100.00,38,0,0,1,38,520,483,2e-13,71.3
Exophiala_equina_2_CBS122263,SRR7007210.54349,100.00,38,0,0,1,38,105,142,2e-13,71.3
Exophiala_equina_2_CBS122263,SRR7007210.54349,100.00,38,0,0,1,38,520,483,2e-13,71.3
Exophiala_equina_2_CBS122263,SRR7007210.54271,100.00,38,0,0,1,38,103,140,2e-13,71.3
Exophiala_equina_2_CBS122263,SRR7007210.53804,100.00,38,0,0,1,38,105,142,2e-13,71.3
Exophiala_equina_2_CBS122263,SRR7007210.53804,100.00,38,0,0,1,38,520,483,2e-13,71.3
Exophiala_equina_2_CBS122263,SRR7007210.52411,100.00,38,0,0,1,38,105,142,2e-13,71.3
Exophiala_equina_2_CBS122263,SRR7007210.52411,100.00,38,0,0,1,38,520,483,2e-13,71.3
Exophiala_equina_2_CBS122263,SRR7007210.50466,100.00,38,0,0,1,38,105,142,2e-13,71.3
Exophiala_equina_2_CBS122263,SRR7007210.50466,100.00,38,0,0,1,38,520,483,2e-13,71.3
Exophiala_equina_2_CBS122263,SRR7007210.50463,100.00,38,0,0,1,38,105,142,2e-13,71.3
Exophiala_equina_2_CBS122263,SRR7007210.50463,100.00,38,0,0,1,38,520,483,2e-13,71.3
Exophiala_equina_2_CBS122263,SRR7007210.50323,100.00,38,0,0,1,38,105,142,2e-13,71.3
Exophiala_equina_2_CBS122263,SRR7007210.50323,100.00,38,0,0,1,38,520,483,2e-13,71.3
Exophiala_equina_2_CBS122263,SRR7007210.50321,100.00,38,0,0,1,38,105,142,2e-13,71.3
Exophiala_equina_2_CBS122263,SRR7007210.50321,100.00,38,0,0,1,38,520,483,2e-13,71.3
Exophiala_equina_2_CBS122263,SRR7007210.49896,100.00,38,0,0,1,38,103,140,2e-13,71.3
Exophiala_equina_2_CBS122263,SRR7007210.49896,100.00,38,0,0,1,38,520,483,2e-13,71.3
Exophiala_equina_2_CBS122263,SRR7007210.48649,100.00,38,0,0,1,38,105,142,2e-13,71.3
Exophiala_equina_2_CBS122263,SRR7007210.48649,100.00,38,0,0,1,38,520,483,2e-13,71.3
Exophiala_equina_2_CBS122263,SRR7007210.47125,100.00,38,0,0,1,38,105,142,2e-13,71.3
Exophiala_equina_2_CBS122263,SRR7007210.47125,100.00,38,0,0,1,38,520,483,2e-13,71.3
Exophiala_equina_2_CBS122263,SRR7007210.45480,100.00,38,0,0,1,38,105,142,2e-13,71.3
Exophiala_equina_2_CBS122263,SRR7007210.45480,97.37,38,1,0,1,38,520,483,1e-11,65.8
Exophiala_equina_2_CBS122263,SRR7007210.45477,100.00,38,0,0,1,38,105,142,2e-13,71.3
Exophiala_equina_2_CBS122263,SRR7007210.45477,100.00,38,0,0,1,38,520,483,2e-13,71.3
Exophiala_equina_2_CBS122263,SRR7007210.45102,100.00,38,0,0,1,38,105,142,2e-13,71.3
Exophiala_equina_2_CBS122263,SRR7007210.45102,100.00,38,0,0,1,38,520,483,2e-13,71.3
Exophiala_equina_2_CBS122263,SRR7007210.44318,100.00,38,0,0,1,38,105,142,2e-13,71.3
Exophiala_equina_2_CBS122263,SRR7007210.44318,100.00,38,0,0,1,38,520,483,2e-13,71.3
Exophiala_equina_2_CBS122263,SRR7007210.44305,100.00,38,0,0,1,38,105,142,2e-13,71.3
Exophiala_equina_2_CBS122263,SRR7007210.44305,100.00,38,0,0,1,38,520,483,2e-13,71.3
Exophiala_equina_2_CBS122263,SRR7007210.43184,100.00,38,0,0,1,38,105,142,2e-13,71.3
Exophiala_equina_2_CBS122263,SRR7007210.43184,100.00,38,0,0,1,38,520,483,2e-13,71.3
Exophiala_equina_2_CBS122263,SRR7007210.41823,100.00,38,0,0,1,38,105,142,2e-13,71.3
Exophiala_equina_2_CBS122263,SRR7007210.41823,100.00,38,0,0,1,38,520,483,2e-13,71.3
Exophiala_equina_2_CBS122263,SRR7007210.39849,100.00,38,0,0,1,38,105,142,2e-13,71.3
Exophiala_equina_2_CBS122263,SRR7007210.39849,100.00,38,0,0,1,38,520,483,2e-13,71.3
Exophiala_equina_2_CBS122263,SRR7007210.38346,100.00,38,0,0,1,38,104,141,2e-13,71.3
Exophiala_equina_2_CBS122263,SRR7007210.38346,100.00,38,0,0,1,38,520,483,2e-13,71.3
Exophiala_equina_2_CBS122263,SRR7007210.37379,100.00,38,0,0,1,38,105,142,2e-13,71.3
Exophiala_equina_2_CBS122263,SRR7007210.37379,97.37,38,1,0,1,38,520,483,1e-11,65.8
Exophiala_equina_2_CBS122263,SRR7007210.36791,100.00,38,0,0,1,38,105,142,2e-13,71.3
Exophiala_equina_2_CBS122263,SRR7007210.36791,100.00,38,0,0,1,38,520,483,2e-13,71.3
Exophiala_equina_2_CBS122263,SRR7007210.34752,100.00,38,0,0,1,38,105,142,2e-13,71.3
Exophiala_equina_2_CBS122263,SRR7007210.34752,100.00,37,0,0,1,37,520,484,7e-13,69.4
Exophiala_equina_2_CBS122263,SRR7007210.34751,100.00,38,0,0,1,38,105,142,2e-13,71.3
Exophiala_equina_2_CBS122263,SRR7007210.34751,100.00,38,0,0,1,38,520,483,2e-13,71.3
Exophiala_equina_2_CBS122263,SRR7007210.34003,100.00,38,0,0,1,38,105,142,2e-13,71.3
Exophiala_equina_2_CBS122263,SRR7007210.34003,100.00,38,0,0,1,38,520,483,2e-13,71.3
Exophiala_equina_2_CBS122263,SRR7007210.32095,100.00,38,0,0,1,38,105,142,2e-13,71.3
Exophiala_equina_2_CBS122263,SRR7007210.32095,100.00,38,0,0,1,38,520,483,2e-13,71.3
Exophiala_equina_2_CBS122263,SRR7007210.31738,100.00,38,0,0,1,38,105,142,2e-13,71.3
Exophiala_equina_2_CBS122263,SRR7007210.31738,100.00,38,0,0,1,38,520,483,2e-13,71.3
Exophiala_equina_2_CBS122263,SRR7007210.31369,100.00,38,0,0,1,38,105,142,2e-13,71.3
Exophiala_equina_2_CBS122263,SRR7007210.31369,100.00,38,0,0,1,38,520,483,2e-13,71.3
Exophiala_equina_2_CBS122263,SRR7007210.31368,100.00,38,0,0,1,38,105,142,2e-13,71.3
Exophiala_equina_2_CBS122263,SRR7007210.31368,100.00,38,0,0,1,38,520,483,2e-13,71.3
Exophiala_equina_2_CBS122263,SRR7007210.30021,100.00,38,0,0,1,38,105,142,2e-13,71.3
Exophiala_equina_2_CBS122263,SRR7007210.30021,100.00,38,0,0,1,38,520,483,2e-13,71.3
Exophiala_equina_2_CBS122263,SRR7007210.29786,100.00,38,0,0,1,38,105,142,2e-13,71.3
Exophiala_equina_2_CBS122263,SRR7007210.29786,100.00,38,0,0,1,38,520,483,2e-13,71.3
Exophiala_equina_2_CBS122263,SRR7007210.29413,100.00,38,0,0,1,38,105,142,2e-13,71.3
Exophiala_equina_2_CBS122263,SRR7007210.29413,100.00,38,0,0,1,38,520,483,2e-13,71.3
Exophiala_equina_2_CBS122263,SRR7007210.27779,100.00,38,0,0,1,38,105,142,2e-13,71.3
Exophiala_equina_2_CBS122263,SRR7007210.27779,100.00,38,0,0,1,38,520,483,2e-13,71.3
Exophiala_equina_2_CBS122263,SRR7007210.27742,100.00,38,0,0,1,38,105,142,2e-13,71.3
Exophiala_equina_2_CBS122263,SRR7007210.27742,100.00,38,0,0,1,38,520,483,2e-13,71.3
Exophiala_equina_2_CBS122263,SRR7007210.27601,100.00,38,0,0,1,38,105,142,2e-13,71.3
Exophiala_equina_2_CBS122263,SRR7007210.27601,100.00,38,0,0,1,38,519,482,2e-13,71.3
Exophiala_equina_2_CBS122263,SRR7007210.27199,100.00,38,0,0,1,38,105,142,2e-13,71.3
Exophiala_equina_2_CBS122263,SRR7007210.27199,100.00,38,0,0,1,38,520,483,2e-13,71.3
Exophiala_equina_2_CBS122263,SRR7007210.26977,100.00,38,0,0,1,38,520,483,2e-13,71.3
Exophiala_equina_2_CBS122263,SRR7007210.26976,100.00,38,0,0,1,38,105,142,2e-13,71.3
Exophiala_equina_2_CBS122263,SRR7007210.26976,100.00,38,0,0,1,38,520,483,2e-13,71.3
Exophiala_equina_2_CBS122263,SRR7007210.24906,100.00,38,0,0,1,38,105,142,2e-13,71.3
Exophiala_equina_2_CBS122263,SRR7007210.24906,100.00,38,0,0,1,38,520,483,2e-13,71.3
Exophiala_equina_2_CBS122263,SRR7007210.24804,100.00,38,0,0,1,38,105,142,2e-13,71.3
Exophiala_equina_2_CBS122263,SRR7007210.24804,100.00,38,0,0,1,38,520,483,2e-13,71.3
Exophiala_equina_2_CBS122263,SRR7007210.24800,100.00,38,0,0,1,38,105,142,2e-13,71.3
Exophiala_equina_2_CBS122263,SRR7007210.24800,100.00,38,0,0,1,38,520,483,2e-13,71.3
Exophiala_equina_2_CBS122263,SRR7007210.24277,100.00,38,0,0,1,38,105,142,2e-13,71.3
Exophiala_equina_2_CBS122263,SRR7007210.24277,100.00,38,0,0,1,38,520,483,2e-13,71.3
Exophiala_equina_2_CBS122263,SRR7007210.24242,100.00,38,0,0,1,38,105,142,2e-13,71.3
Exophiala_equina_2_CBS122263,SRR7007210.24242,100.00,38,0,0,1,38,520,483,2e-13,71.3
Exophiala_equina_2_CBS122263,SRR7007210.23158,100.00,38,0,0,1,38,105,142,2e-13,71.3
Exophiala_equina_2_CBS122263,SRR7007210.23158,100.00,38,0,0,1,38,520,483,2e-13,71.3
Exophiala_equina_2_CBS122263,SRR7007210.22940,100.00,38,0,0,1,38,106,143,2e-13,71.3
Exophiala_equina_2_CBS122263,SRR7007210.22940,100.00,38,0,0,1,38,518,481,2e-13,71.3
Exophiala_equina_2_CBS122263,SRR7007210.22939,100.00,38,0,0,1,38,106,143,2e-13,71.3
Exophiala_equina_2_CBS122263,SRR7007210.22939,100.00,38,0,0,1,38,518,481,2e-13,71.3
Exophiala_equina_2_CBS122263,SRR7007210.20515,100.00,38,0,0,1,38,105,142,2e-13,71.3
Exophiala_equina_2_CBS122263,SRR7007210.20515,100.00,38,0,0,1,38,520,483,2e-13,71.3
Exophiala_equina_2_CBS122263,SRR7007210.20147,100.00,38,0,0,1,38,105,142,2e-13,71.3
Exophiala_equina_2_CBS122263,SRR7007210.20147,100.00,38,0,0,1,38,520,483,2e-13,71.3
Exophiala_equina_2_CBS122263,SRR7007210.18359,100.00,38,0,0,1,38,105,142,2e-13,71.3
Exophiala_equina_2_CBS122263,SRR7007210.18359,100.00,38,0,0,1,38,520,483,2e-13,71.3
Exophiala_equina_2_CBS122263,SRR7007210.18094,100.00,38,0,0,1,38,105,142,2e-13,71.3
Exophiala_equina_2_CBS122263,SRR7007210.18094,100.00,38,0,0,1,38,520,483,2e-13,71.3
Exophiala_equina_2_CBS122263,SRR7007210.17625,100.00,38,0,0,1,38,105,142,2e-13,71.3
Exophiala_equina_2_CBS122263,SRR7007210.17625,100.00,38,0,0,1,38,520,483,2e-13,71.3
Exophiala_equina_2_CBS122263,SRR7007210.17095,100.00,38,0,0,1,38,105,142,2e-13,71.3
Exophiala_equina_2_CBS122263,SRR7007210.17095,100.00,38,0,0,1,38,520,483,2e-13,71.3
Exophiala_equina_2_CBS122263,SRR7007210.14690,100.00,38,0,0,1,38,105,142,2e-13,71.3
Exophiala_equina_2_CBS122263,SRR7007210.14690,100.00,38,0,0,1,38,520,483,2e-13,71.3
Exophiala_equina_2_CBS122263,SRR7007210.13028,100.00,38,0,0,1,38,105,142,2e-13,71.3
Exophiala_equina_2_CBS122263,SRR7007210.11629,100.00,38,0,0,1,38,105,142,2e-13,71.3
Exophiala_equina_2_CBS122263,SRR7007210.11629,100.00,38,0,0,1,38,520,483,2e-13,71.3
Exophiala_equina_2_CBS122263,SRR7007210.11582,100.00,38,0,0,1,38,105,142,2e-13,71.3
Exophiala_equina_2_CBS122263,SRR7007210.11582,100.00,38,0,0,1,38,520,483,2e-13,71.3
Exophiala_equina_2_CBS122263,SRR7007210.10450,100.00,38,0,0,1,38,105,142,2e-13,71.3
Exophiala_equina_2_CBS122263,SRR7007210.10450,100.00,38,0,0,1,38,520,483,2e-13,71.3
Exophiala_equina_2_CBS122263,SRR7007210.9848,100.00,38,0,0,1,38,105,142,2e-13,71.3
Exophiala_equina_2_CBS122263,SRR7007210.9848,100.00,38,0,0,1,38,520,483,2e-13,71.3
Exophiala_equina_2_CBS122263,SRR7007210.9089,100.00,38,0,0,1,38,105,142,2e-13,71.3
Exophiala_equina_2_CBS122263,SRR7007210.9089,100.00,38,0,0,1,38,520,483,2e-13,71.3
Exophiala_equina_2_CBS122263,SRR7007210.8885,100.00,38,0,0,1,38,105,142,2e-13,71.3
Exophiala_equina_2_CBS122263,SRR7007210.8885,100.00,38,0,0,1,38,520,483,2e-13,71.3
Exophiala_equina_2_CBS122263,SRR7007210.7792,100.00,38,0,0,1,38,105,142,2e-13,71.3
Exophiala_equina_2_CBS122263,SRR7007210.7792,100.00,38,0,0,1,38,520,483,2e-13,71.3
Exophiala_equina_2_CBS122263,SRR7007210.7791,100.00,38,0,0,1,38,105,142,2e-13,71.3
Exophiala_equina_2_CBS122263,SRR7007210.7791,100.00,38,0,0,1,38,520,483,2e-13,71.3
Exophiala_equina_2_CBS122263,SRR7007210.5661,100.00,38,0,0,1,38,105,142,2e-13,71.3
Exophiala_equina_2_CBS122263,SRR7007210.5661,100.00,38,0,0,1,38,520,483,2e-13,71.3
Exophiala_equina_2_CBS122263,SRR7007210.2719,100.00,38,0,0,1,38,105,142,2e-13,71.3
Exophiala_equina_2_CBS122263,SRR7007210.2420,100.00,38,0,0,1,38,105,142,2e-13,71.3
Exophiala_equina_2_CBS122263,SRR7007210.2420,100.00,38,0,0,1,38,520,483,2e-13,71.3
Exophiala_equina_2_CBS122263,SRR7007210.2063,100.00,38,0,0,1,38,105,142,2e-13,71.3
Exophiala_equina_2_CBS122263,SRR7007210.2063,100.00,38,0,0,1,38,520,483,2e-13,71.3
Exophiala_equina_2_CBS122263,SRR7007210.950,100.00,38,0,0,1,38,105,142,2e-13,71.3
Exophiala_equina_2_CBS122263,SRR7007210.950,100.00,38,0,0,1,38,520,483,2e-13,71.3
Exophiala_equina_2_CBS122263,SRR7007210.677,100.00,38,0,0,1,38,105,142,2e-13,71.3
Exophiala_equina_2_CBS122263,SRR7007210.677,100.00,38,0,0,1,38,520,483,2e-13,71.3
Exophiala_equina_2_CBS122263,SRR7007210.52019,100.00,37,0,0,1,37,520,484,7e-13,69.4
Exophiala_equina_3_CBS122270,SRR7007210.3688,100.00,38,0,0,1,38,105,142,2e-13,71.3
Exophiala_equina_3_CBS122270,SRR7007210.3688,100.00,38,0,0,1,38,520,483,2e-13,71.3
Exophiala_equina_3_CBS122270,SRR7007210.25215,97.37,38,1,0,1,38,105,142,1e-11,65.8
Phaeoannelomyces_elegans_CBS110172,SRR7007210.58392,100.00,38,0,0,1,38,105,142,2e-13,71.3
Phaeoannelomyces_elegans_CBS110172,SRR7007210.58392,100.00,38,0,0,1,38,520,483,2e-13,71.3
Phaeoannelomyces_elegans_CBS110172,SRR7007210.58344,100.00,38,0,0,1,38,105,142,2e-13,71.3
Phaeoannelomyces_elegans_CBS110172,SRR7007210.58344,100.00,38,0,0,1,38,520,483,2e-13,71.3
Phaeoannelomyces_elegans_CBS110172,SRR7007210.58125,100.00,38,0,0,1,38,105,142,2e-13,71.3
Phaeoannelomyces_elegans_CBS110172,SRR7007210.58125,100.00,38,0,0,1,38,520,483,2e-13,71.3
Phaeoannelomyces_elegans_CBS110172,SRR7007210.57818,100.00,38,0,0,1,38,105,142,2e-13,71.3
Phaeoannelomyces_elegans_CBS110172,SRR7007210.57818,100.00,38,0,0,1,38,520,483,2e-13,71.3
Phaeoannelomyces_elegans_CBS110172,SRR7007210.57816,100.00,38,0,0,1,38,105,142,2e-13,71.3
Phaeoannelomyces_elegans_CBS110172,SRR7007210.57816,100.00,38,0,0,1,38,520,483,2e-13,71.3
Phaeoannelomyces_elegans_CBS110172,SRR7007210.57705,100.00,38,0,0,1,38,105,142,2e-13,71.3
Phaeoannelomyces_elegans_CBS110172,SRR7007210.57705,100.00,38,0,0,1,38,520,483,2e-13,71.3
Phaeoannelomyces_elegans_CBS110172,SRR7007210.57702,100.00,38,0,0,1,38,105,142,2e-13,71.3
Phaeoannelomyces_elegans_CBS110172,SRR7007210.57702,100.00,38,0,0,1,38,520,483,2e-13,71.3
Phaeoannelomyces_elegans_CBS110172,SRR7007210.57635,100.00,38,0,0,1,38,105,142,2e-13,71.3
Phaeoannelomyces_elegans_CBS110172,SRR7007210.57635,100.00,38,0,0,1,38,520,483,2e-13,71.3
Phaeoannelomyces_elegans_CBS110172,SRR7007210.57563,100.00,38,0,0,1,38,105,142,2e-13,71.3
Phaeoannelomyces_elegans_CBS110172,SRR7007210.57563,100.00,38,0,0,1,38,520,483,2e-13,71.3
Phaeoannelomyces_elegans_CBS110172,SRR7007210.57253,100.00,38,0,0,1,38,105,142,2e-13,71.3
Phaeoannelomyces_elegans_CBS110172,SRR7007210.57253,100.00,38,0,0,1,38,519,482,2e-13,71.3
Phaeoannelomyces_elegans_CBS110172,SRR7007210.56588,100.00,38,0,0,1,38,105,142,2e-13,71.3
Phaeoannelomyces_elegans_CBS110172,SRR7007210.56588,100.00,38,0,0,1,38,520,483,2e-13,71.3
Phaeoannelomyces_elegans_CBS110172,SRR7007210.55447,100.00,38,0,0,1,38,104,141,2e-13,71.3
Phaeoannelomyces_elegans_CBS110172,SRR7007210.55447,100.00,38,0,0,1,38,520,483,2e-13,71.3
Phaeoannelomyces_elegans_CBS110172,SRR7007210.55279,100.00,38,0,0,1,38,105,142,2e-13,71.3
Phaeoannelomyces_elegans_CBS110172,SRR7007210.55279,100.00,38,0,0,1,38,520,483,2e-13,71.3
Phaeoannelomyces_elegans_CBS110172,SRR7007210.54884,100.00,38,0,0,1,38,105,142,2e-13,71.3
Phaeoannelomyces_elegans_CBS110172,SRR7007210.54884,100.00,38,0,0,1,38,520,483,2e-13,71.3
Phaeoannelomyces_elegans_CBS110172,SRR7007210.54390,100.00,38,0,0,1,38,105,142,2e-13,71.3
Phaeoannelomyces_elegans_CBS110172,SRR7007210.54390,100.00,38,0,0,1,38,520,483,2e-13,71.3
Phaeoannelomyces_elegans_CBS110172,SRR7007210.54239,100.00,38,0,0,1,38,105,142,2e-13,71.3
Phaeoannelomyces_elegans_CBS110172,SRR7007210.54239,100.00,38,0,0,1,38,520,483,2e-13,71.3
Phaeoannelomyces_elegans_CBS110172,SRR7007210.53886,100.00,38,0,0,1,38,105,142,2e-13,71.3
Phaeoannelomyces_elegans_CBS110172,SRR7007210.53886,97.37,38,1,0,1,38,520,483,1e-11,65.8
Phaeoannelomyces_elegans_CBS110172,SRR7007210.53884,100.00,38,0,0,1,38,105,142,2e-13,71.3
Phaeoannelomyces_elegans_CBS110172,SRR7007210.53884,100.00,38,0,0,1,38,520,483,2e-13,71.3
Phaeoannelomyces_elegans_CBS110172,SRR7007210.53832,100.00,38,0,0,1,38,105,142,2e-13,71.3
Phaeoannelomyces_elegans_CBS110172,SRR7007210.53832,100.00,38,0,0,1,38,520,483,2e-13,71.3
Phaeoannelomyces_elegans_CBS110172,SRR7007210.53713,100.00,38,0,0,1,38,105,142,2e-13,71.3
Phaeoannelomyces_elegans_CBS110172,SRR7007210.53713,100.00,38,0,0,1,38,520,483,2e-13,71.3
Phaeoannelomyces_elegans_CBS110172,SRR7007210.53615,100.00,38,0,0,1,38,105,142,2e-13,71.3
Phaeoannelomyces_elegans_CBS110172,SRR7007210.53615,100.00,38,0,0,1,38,520,483,2e-13,71.3
Phaeoannelomyces_elegans_CBS110172,SRR7007210.53385,100.00,38,0,0,1,38,105,142,2e-13,71.3
Phaeoannelomyces_elegans_CBS110172,SRR7007210.53385,100.00,38,0,0,1,38,520,483,2e-13,71.3
Phaeoannelomyces_elegans_CBS110172,SRR7007210.52804,100.00,38,0,0,1,38,105,142,2e-13,71.3
Phaeoannelomyces_elegans_CBS110172,SRR7007210.52543,100.00,38,0,0,1,38,105,142,2e-13,71.3
Phaeoannelomyces_elegans_CBS110172,SRR7007210.52543,100.00,38,0,0,1,38,520,483,2e-13,71.3
Phaeoannelomyces_elegans_CBS110172,SRR7007210.52365,100.00,38,0,0,1,38,105,142,2e-13,71.3
Phaeoannelomyces_elegans_CBS110172,SRR7007210.52365,100.00,38,0,0,1,38,520,483,2e-13,71.3
Phaeoannelomyces_elegans_CBS110172,SRR7007210.51797,100.00,38,0,0,1,38,105,142,2e-13,71.3
Phaeoannelomyces_elegans_CBS110172,SRR7007210.51797,100.00,38,0,0,1,38,520,483,2e-13,71.3
Phaeoannelomyces_elegans_CBS110172,SRR7007210.51780,100.00,38,0,0,1,38,105,142,2e-13,71.3
Phaeoannelomyces_elegans_CBS110172,SRR7007210.51780,100.00,38,0,0,1,38,520,483,2e-13,71.3
Phaeoannelomyces_elegans_CBS110172,SRR7007210.51331,100.00,38,0,0,1,38,105,142,2e-13,71.3
Phaeoannelomyces_elegans_CBS110172,SRR7007210.51331,100.00,38,0,0,1,38,520,483,2e-13,71.3
Phaeoannelomyces_elegans_CBS110172,SRR7007210.50823,100.00,38,0,0,1,38,105,142,2e-13,71.3
Phaeoannelomyces_elegans_CBS110172,SRR7007210.50823,100.00,38,0,0,1,38,520,483,2e-13,71.3
Phaeoannelomyces_elegans_CBS110172,SRR7007210.50713,100.00,38,0,0,1,38,105,142,2e-13,71.3
Phaeoannelomyces_elegans_CBS110172,SRR7007210.50713,100.00,38,0,0,1,38,520,483,2e-13,71.3
Phaeoannelomyces_elegans_CBS110172,SRR7007210.50193,100.00,38,0,0,1,38,105,142,2e-13,71.3
Phaeoannelomyces_elegans_CBS110172,SRR7007210.50193,100.00,38,0,0,1,38,520,483,2e-13,71.3
Phaeoannelomyces_elegans_CBS110172,SRR7007210.50176,100.00,38,0,0,1,38,105,142,2e-13,71.3
Phaeoannelomyces_elegans_CBS110172,SRR7007210.50176,100.00,38,0,0,1,38,520,483,2e-13,71.3
Phaeoannelomyces_elegans_CBS110172,SRR7007210.49994,100.00,38,0,0,1,38,105,142,2e-13,71.3
Phaeoannelomyces_elegans_CBS110172,SRR7007210.49994,100.00,38,0,0,1,38,520,483,2e-13,71.3
Phaeoannelomyces_elegans_CBS110172,SRR7007210.48074,100.00,38,0,0,1,38,105,142,2e-13,71.3
Phaeoannelomyces_elegans_CBS110172,SRR7007210.48074,100.00,38,0,0,1,38,520,483,2e-13,71.3
Phaeoannelomyces_elegans_CBS110172,SRR7007210.47979,100.00,38,0,0,1,38,105,142,2e-13,71.3
Phaeoannelomyces_elegans_CBS110172,SRR7007210.47979,100.00,38,0,0,1,38,520,483,2e-13,71.3
Phaeoannelomyces_elegans_CBS110172,SRR7007210.47978,100.00,38,0,0,1,38,520,483,2e-13,71.3
Phaeoannelomyces_elegans_CBS110172,SRR7007210.47978,100.00,37,0,0,1,37,105,141,7e-13,69.4
Phaeoannelomyces_elegans_CBS110172,SRR7007210.47104,100.00,38,0,0,1,38,105,142,2e-13,71.3
Phaeoannelomyces_elegans_CBS110172,SRR7007210.47102,100.00,38,0,0,1,38,105,142,2e-13,71.3
Phaeoannelomyces_elegans_CBS110172,SRR7007210.47102,100.00,38,0,0,1,38,520,483,2e-13,71.3
Phaeoannelomyces_elegans_CBS110172,SRR7007210.45925,100.00,38,0,0,1,38,105,142,2e-13,71.3
Phaeoannelomyces_elegans_CBS110172,SRR7007210.45886,100.00,38,0,0,1,38,105,142,2e-13,71.3
Phaeoannelomyces_elegans_CBS110172,SRR7007210.45886,100.00,38,0,0,1,38,520,483,2e-13,71.3
Phaeoannelomyces_elegans_CBS110172,SRR7007210.45659,100.00,38,0,0,1,38,105,142,2e-13,71.3
Phaeoannelomyces_elegans_CBS110172,SRR7007210.45659,100.00,38,0,0,1,38,520,483,2e-13,71.3
Phaeoannelomyces_elegans_CBS110172,SRR7007210.45658,100.00,38,0,0,1,38,105,142,2e-13,71.3
Phaeoannelomyces_elegans_CBS110172,SRR7007210.45658,100.00,38,0,0,1,38,520,483,2e-13,71.3
Phaeoannelomyces_elegans_CBS110172,SRR7007210.45481,100.00,38,0,0,1,38,105,142,2e-13,71.3
Phaeoannelomyces_elegans_CBS110172,SRR7007210.45481,100.00,38,0,0,1,38,520,483,2e-13,71.3
Phaeoannelomyces_elegans_CBS110172,SRR7007210.45384,100.00,38,0,0,1,38,105,142,2e-13,71.3
Phaeoannelomyces_elegans_CBS110172,SRR7007210.45384,100.00,38,0,0,1,38,520,483,2e-13,71.3
Phaeoannelomyces_elegans_CBS110172,SRR7007210.45376,100.00,38,0,0,1,38,105,142,2e-13,71.3
Phaeoannelomyces_elegans_CBS110172,SRR7007210.45376,100.00,38,0,0,1,38,520,483,2e-13,71.3
Phaeoannelomyces_elegans_CBS110172,SRR7007210.45373,100.00,38,0,0,1,38,105,142,2e-13,71.3
Phaeoannelomyces_elegans_CBS110172,SRR7007210.45373,100.00,38,0,0,1,38,520,483,2e-13,71.3
Phaeoannelomyces_elegans_CBS110172,SRR7007210.45005,100.00,38,0,0,1,38,105,142,2e-13,71.3
Phaeoannelomyces_elegans_CBS110172,SRR7007210.45005,100.00,38,0,0,1,38,520,483,2e-13,71.3
Phaeoannelomyces_elegans_CBS110172,SRR7007210.44250,100.00,38,0,0,1,38,105,142,2e-13,71.3
Phaeoannelomyces_elegans_CBS110172,SRR7007210.44250,100.00,38,0,0,1,38,520,483,2e-13,71.3
Phaeoannelomyces_elegans_CBS110172,SRR7007210.43923,100.00,38,0,0,1,38,105,142,2e-13,71.3
Phaeoannelomyces_elegans_CBS110172,SRR7007210.43923,97.37,38,1,0,1,38,520,483,1e-11,65.8
Phaeoannelomyces_elegans_CBS110172,SRR7007210.43569,100.00,38,0,0,1,38,105,142,2e-13,71.3
Phaeoannelomyces_elegans_CBS110172,SRR7007210.43569,100.00,38,0,0,1,38,520,483,2e-13,71.3
Phaeoannelomyces_elegans_CBS110172,SRR7007210.43327,100.00,38,0,0,1,38,105,142,2e-13,71.3
Phaeoannelomyces_elegans_CBS110172,SRR7007210.43327,100.00,38,0,0,1,38,520,483,2e-13,71.3
Phaeoannelomyces_elegans_CBS110172,SRR7007210.43052,100.00,38,0,0,1,38,105,142,2e-13,71.3
Phaeoannelomyces_elegans_CBS110172,SRR7007210.43052,100.00,38,0,0,1,38,520,483,2e-13,71.3
Phaeoannelomyces_elegans_CBS110172,SRR7007210.42680,100.00,38,0,0,1,38,105,142,2e-13,71.3
Phaeoannelomyces_elegans_CBS110172,SRR7007210.42680,100.00,38,0,0,1,38,520,483,2e-13,71.3
Phaeoannelomyces_elegans_CBS110172,SRR7007210.42570,100.00,38,0,0,1,38,105,142,2e-13,71.3
Phaeoannelomyces_elegans_CBS110172,SRR7007210.42570,100.00,38,0,0,1,38,520,483,2e-13,71.3
Phaeoannelomyces_elegans_CBS110172,SRR7007210.41836,100.00,38,0,0,1,38,105,142,2e-13,71.3
Phaeoannelomyces_elegans_CBS110172,SRR7007210.41836,100.00,38,0,0,1,38,520,483,2e-13,71.3
Phaeoannelomyces_elegans_CBS110172,SRR7007210.41705,100.00,38,0,0,1,38,105,142,2e-13,71.3
Phaeoannelomyces_elegans_CBS110172,SRR7007210.41705,100.00,38,0,0,1,38,520,483,2e-13,71.3
Phaeoannelomyces_elegans_CBS110172,SRR7007210.41335,100.00,38,0,0,1,38,105,142,2e-13,71.3
Phaeoannelomyces_elegans_CBS110172,SRR7007210.41335,100.00,38,0,0,1,38,520,483,2e-13,71.3
Phaeoannelomyces_elegans_CBS110172,SRR7007210.41260,100.00,38,0,0,1,38,105,142,2e-13,71.3
Phaeoannelomyces_elegans_CBS110172,SRR7007210.41260,100.00,38,0,0,1,38,520,483,2e-13,71.3
Phaeoannelomyces_elegans_CBS110172,SRR7007210.41249,100.00,38,0,0,1,38,105,142,2e-13,71.3
Phaeoannelomyces_elegans_CBS110172,SRR7007210.41249,100.00,38,0,0,1,38,520,483,2e-13,71.3
Phaeoannelomyces_elegans_CBS110172,SRR7007210.40835,100.00,38,0,0,1,38,105,142,2e-13,71.3
Phaeoannelomyces_elegans_CBS110172,SRR7007210.40835,100.00,38,0,0,1,38,520,483,2e-13,71.3
Phaeoannelomyces_elegans_CBS110172,SRR7007210.40321,100.00,38,0,0,1,38,105,142,2e-13,71.3
Phaeoannelomyces_elegans_CBS110172,SRR7007210.40321,100.00,38,0,0,1,38,520,483,2e-13,71.3
Phaeoannelomyces_elegans_CBS110172,SRR7007210.40247,100.00,38,0,0,1,38,105,142,2e-13,71.3
Phaeoannelomyces_elegans_CBS110172,SRR7007210.40247,100.00,38,0,0,1,38,520,483,2e-13,71.3
Phaeoannelomyces_elegans_CBS110172,SRR7007210.39901,100.00,38,0,0,1,38,105,142,2e-13,71.3
Phaeoannelomyces_elegans_CBS110172,SRR7007210.39901,97.37,38,1,0,1,38,520,483,1e-11,65.8
Phaeoannelomyces_elegans_CBS110172,SRR7007210.39131,100.00,38,0,0,1,38,105,142,2e-13,71.3
Phaeoannelomyces_elegans_CBS110172,SRR7007210.39131,100.00,38,0,0,1,38,520,483,2e-13,71.3
Phaeoannelomyces_elegans_CBS110172,SRR7007210.38287,100.00,38,0,0,1,38,105,142,2e-13,71.3
Phaeoannelomyces_elegans_CBS110172,SRR7007210.38287,100.00,38,0,0,1,38,520,483,2e-13,71.3
Phaeoannelomyces_elegans_CBS110172,SRR7007210.38285,100.00,38,0,0,1,38,105,142,2e-13,71.3
Phaeoannelomyces_elegans_CBS110172,SRR7007210.38285,100.00,38,0,0,1,38,520,483,2e-13,71.3
Phaeoannelomyces_elegans_CBS110172,SRR7007210.38100,100.00,38,0,0,1,38,105,142,2e-13,71.3
Phaeoannelomyces_elegans_CBS110172,SRR7007210.38100,100.00,38,0,0,1,38,520,483,2e-13,71.3
Phaeoannelomyces_elegans_CBS110172,SRR7007210.38056,100.00,38,0,0,1,38,105,142,2e-13,71.3
Phaeoannelomyces_elegans_CBS110172,SRR7007210.38056,100.00,38,0,0,1,38,520,483,2e-13,71.3
Phaeoannelomyces_elegans_CBS110172,SRR7007210.37838,100.00,38,0,0,1,38,105,142,2e-13,71.3
Phaeoannelomyces_elegans_CBS110172,SRR7007210.37838,100.00,38,0,0,1,38,520,483,2e-13,71.3
Phaeoannelomyces_elegans_CBS110172,SRR7007210.37237,100.00,38,0,0,1,38,105,142,2e-13,71.3
Phaeoannelomyces_elegans_CBS110172,SRR7007210.37237,100.00,38,0,0,1,38,520,483,2e-13,71.3
Phaeoannelomyces_elegans_CBS110172,SRR7007210.36897,100.00,38,0,0,1,38,105,142,2e-13,71.3
Phaeoannelomyces_elegans_CBS110172,SRR7007210.36897,100.00,38,0,0,1,38,520,483,2e-13,71.3
Phaeoannelomyces_elegans_CBS110172,SRR7007210.36534,100.00,38,0,0,1,38,105,142,2e-13,71.3
Phaeoannelomyces_elegans_CBS110172,SRR7007210.36534,100.00,38,0,0,1,38,520,483,2e-13,71.3
Phaeoannelomyces_elegans_CBS110172,SRR7007210.36104,100.00,38,0,0,1,38,105,142,2e-13,71.3
Phaeoannelomyces_elegans_CBS110172,SRR7007210.36104,100.00,38,0,0,1,38,520,483,2e-13,71.3
Phaeoannelomyces_elegans_CBS110172,SRR7007210.35915,100.00,38,0,0,1,38,105,142,2e-13,71.3
Phaeoannelomyces_elegans_CBS110172,SRR7007210.35915,100.00,38,0,0,1,38,520,483,2e-13,71.3
Phaeoannelomyces_elegans_CBS110172,SRR7007210.35913,100.00,38,0,0,1,38,105,142,2e-13,71.3
Phaeoannelomyces_elegans_CBS110172,SRR7007210.35913,100.00,38,0,0,1,38,520,483,2e-13,71.3
Phaeoannelomyces_elegans_CBS110172,SRR7007210.35818,100.00,38,0,0,1,38,105,142,2e-13,71.3
Phaeoannelomyces_elegans_CBS110172,SRR7007210.35818,100.00,38,0,0,1,38,520,483,2e-13,71.3
Phaeoannelomyces_elegans_CBS110172,SRR7007210.35404,100.00,38,0,0,1,38,105,142,2e-13,71.3
Phaeoannelomyces_elegans_CBS110172,SRR7007210.35404,97.37,38,1,0,1,38,520,483,1e-11,65.8
Phaeoannelomyces_elegans_CBS110172,SRR7007210.34890,100.00,38,0,0,1,38,520,483,2e-13,71.3
Phaeoannelomyces_elegans_CBS110172,SRR7007210.34812,100.00,38,0,0,1,38,105,142,2e-13,71.3
Phaeoannelomyces_elegans_CBS110172,SRR7007210.34812,100.00,38,0,0,1,38,520,483,2e-13,71.3
Phaeoannelomyces_elegans_CBS110172,SRR7007210.34755,100.00,38,0,0,1,38,105,142,2e-13,71.3
Phaeoannelomyces_elegans_CBS110172,SRR7007210.34755,100.00,38,0,0,1,38,520,483,2e-13,71.3
Phaeoannelomyces_elegans_CBS110172,SRR7007210.34741,100.00,38,0,0,1,38,105,142,2e-13,71.3
Phaeoannelomyces_elegans_CBS110172,SRR7007210.34741,100.00,38,0,0,1,38,520,483,2e-13,71.3
Phaeoannelomyces_elegans_CBS110172,SRR7007210.34696,100.00,38,0,0,1,38,105,142,2e-13,71.3
Phaeoannelomyces_elegans_CBS110172,SRR7007210.34696,100.00,38,0,0,1,38,520,483,2e-13,71.3
Phaeoannelomyces_elegans_CBS110172,SRR7007210.33898,100.00,38,0,0,1,38,105,142,2e-13,71.3
Phaeoannelomyces_elegans_CBS110172,SRR7007210.33898,100.00,38,0,0,1,38,520,483,2e-13,71.3
Phaeoannelomyces_elegans_CBS110172,SRR7007210.33190,100.00,38,0,0,1,38,105,142,2e-13,71.3
Phaeoannelomyces_elegans_CBS110172,SRR7007210.33190,100.00,38,0,0,1,38,520,483,2e-13,71.3
Phaeoannelomyces_elegans_CBS110172,SRR7007210.32870,100.00,38,0,0,1,38,105,142,2e-13,71.3
Phaeoannelomyces_elegans_CBS110172,SRR7007210.32869,100.00,38,0,0,1,38,105,142,2e-13,71.3
Phaeoannelomyces_elegans_CBS110172,SRR7007210.32869,100.00,38,0,0,1,38,520,483,2e-13,71.3
Phaeoannelomyces_elegans_CBS110172,SRR7007210.32677,100.00,38,0,0,1,38,105,142,2e-13,71.3
Phaeoannelomyces_elegans_CBS110172,SRR7007210.32677,100.00,38,0,0,1,38,520,483,2e-13,71.3
Phaeoannelomyces_elegans_CBS110172,SRR7007210.32164,100.00,38,0,0,1,38,105,142,2e-13,71.3
Phaeoannelomyces_elegans_CBS110172,SRR7007210.32164,100.00,38,0,0,1,38,520,483,2e-13,71.3
Phaeoannelomyces_elegans_CBS110172,SRR7007210.31518,100.00,38,0,0,1,38,105,142,2e-13,71.3
Phaeoannelomyces_elegans_CBS110172,SRR7007210.31518,100.00,38,0,0,1,38,520,483,2e-13,71.3
Phaeoannelomyces_elegans_CBS110172,SRR7007210.31493,100.00,38,0,0,1,38,105,142,2e-13,71.3
Phaeoannelomyces_elegans_CBS110172,SRR7007210.31493,100.00,38,0,0,1,38,520,483,2e-13,71.3
Phaeoannelomyces_elegans_CBS110172,SRR7007210.31456,100.00,38,0,0,1,38,105,142,2e-13,71.3
Phaeoannelomyces_elegans_CBS110172,SRR7007210.31456,100.00,38,0,0,1,38,520,483,2e-13,71.3
Phaeoannelomyces_elegans_CBS110172,SRR7007210.30574,100.00,38,0,0,1,38,105,142,2e-13,71.3
Phaeoannelomyces_elegans_CBS110172,SRR7007210.30574,100.00,38,0,0,1,38,520,483,2e-13,71.3
Phaeoannelomyces_elegans_CBS110172,SRR7007210.30297,100.00,38,0,0,1,38,105,142,2e-13,71.3
Phaeoannelomyces_elegans_CBS110172,SRR7007210.30297,100.00,38,0,0,1,38,520,483,2e-13,71.3
Phaeoannelomyces_elegans_CBS110172,SRR7007210.30296,100.00,38,0,0,1,38,105,142,2e-13,71.3
Phaeoannelomyces_elegans_CBS110172,SRR7007210.29569,100.00,38,0,0,1,38,105,142,2e-13,71.3
Phaeoannelomyces_elegans_CBS110172,SRR7007210.29535,100.00,38,0,0,1,38,105,142,2e-13,71.3
Phaeoannelomyces_elegans_CBS110172,SRR7007210.29275,100.00,38,0,0,1,38,105,142,2e-13,71.3
Phaeoannelomyces_elegans_CBS110172,SRR7007210.29275,100.00,38,0,0,1,38,520,483,2e-13,71.3
Phaeoannelomyces_elegans_CBS110172,SRR7007210.28921,100.00,38,0,0,1,38,105,142,2e-13,71.3
Phaeoannelomyces_elegans_CBS110172,SRR7007210.28921,100.00,38,0,0,1,38,520,483,2e-13,71.3
Phaeoannelomyces_elegans_CBS110172,SRR7007210.28903,100.00,38,0,0,1,38,105,142,2e-13,71.3
Phaeoannelomyces_elegans_CBS110172,SRR7007210.28903,100.00,38,0,0,1,38,520,483,2e-13,71.3
Phaeoannelomyces_elegans_CBS110172,SRR7007210.28829,100.00,38,0,0,1,38,105,142,2e-13,71.3
Phaeoannelomyces_elegans_CBS110172,SRR7007210.28829,100.00,38,0,0,1,38,520,483,2e-13,71.3
Phaeoannelomyces_elegans_CBS110172,SRR7007210.28321,100.00,38,0,0,1,38,105,142,2e-13,71.3
Phaeoannelomyces_elegans_CBS110172,SRR7007210.28321,100.00,38,0,0,1,38,520,483,2e-13,71.3
Phaeoannelomyces_elegans_CBS110172,SRR7007210.27979,100.00,38,0,0,1,38,105,142,2e-13,71.3
Phaeoannelomyces_elegans_CBS110172,SRR7007210.27979,100.00,38,0,0,1,38,520,483,2e-13,71.3
Phaeoannelomyces_elegans_CBS110172,SRR7007210.27907,100.00,38,0,0,1,38,105,142,2e-13,71.3
Phaeoannelomyces_elegans_CBS110172,SRR7007210.27907,100.00,38,0,0,1,38,520,483,2e-13,71.3
Phaeoannelomyces_elegans_CBS110172,SRR7007210.27900,100.00,38,0,0,1,38,105,142,2e-13,71.3
Phaeoannelomyces_elegans_CBS110172,SRR7007210.27900,100.00,38,0,0,1,38,519,482,2e-13,71.3
Phaeoannelomyces_elegans_CBS110172,SRR7007210.27897,100.00,38,0,0,1,38,105,142,2e-13,71.3
Phaeoannelomyces_elegans_CBS110172,SRR7007210.27897,100.00,38,0,0,1,38,519,482,2e-13,71.3
Phaeoannelomyces_elegans_CBS110172,SRR7007210.27790,100.00,38,0,0,1,38,105,142,2e-13,71.3
Phaeoannelomyces_elegans_CBS110172,SRR7007210.27790,100.00,38,0,0,1,38,520,483,2e-13,71.3
Phaeoannelomyces_elegans_CBS110172,SRR7007210.27334,100.00,38,0,0,1,38,105,142,2e-13,71.3
Phaeoannelomyces_elegans_CBS110172,SRR7007210.27334,100.00,38,0,0,1,38,520,483,2e-13,71.3
Phaeoannelomyces_elegans_CBS110172,SRR7007210.27085,100.00,38,0,0,1,38,105,142,2e-13,71.3
Phaeoannelomyces_elegans_CBS110172,SRR7007210.27085,100.00,38,0,0,1,38,520,483,2e-13,71.3
Phaeoannelomyces_elegans_CBS110172,SRR7007210.25957,100.00,38,0,0,1,38,105,142,2e-13,71.3
Phaeoannelomyces_elegans_CBS110172,SRR7007210.25957,100.00,38,0,0,1,38,520,483,2e-13,71.3
Phaeoannelomyces_elegans_CBS110172,SRR7007210.25906,100.00,38,0,0,1,38,105,142,2e-13,71.3
Phaeoannelomyces_elegans_CBS110172,SRR7007210.25906,100.00,38,0,0,1,38,520,483,2e-13,71.3
Phaeoannelomyces_elegans_CBS110172,SRR7007210.25826,100.00,38,0,0,1,38,105,142,2e-13,71.3
Phaeoannelomyces_elegans_CBS110172,SRR7007210.25826,100.00,38,0,0,1,38,520,483,2e-13,71.3
Phaeoannelomyces_elegans_CBS110172,SRR7007210.25652,100.00,38,0,0,1,38,105,142,2e-13,71.3
Phaeoannelomyces_elegans_CBS110172,SRR7007210.25652,100.00,38,0,0,1,38,520,483,2e-13,71.3
Phaeoannelomyces_elegans_CBS110172,SRR7007210.25253,100.00,38,0,0,1,38,105,142,2e-13,71.3
Phaeoannelomyces_elegans_CBS110172,SRR7007210.25253,100.00,38,0,0,1,38,520,483,2e-13,71.3
Phaeoannelomyces_elegans_CBS110172,SRR7007210.25006,100.00,38,0,0,1,38,105,142,2e-13,71.3
Phaeoannelomyces_elegans_CBS110172,SRR7007210.25006,100.00,38,0,0,1,38,520,483,2e-13,71.3
Phaeoannelomyces_elegans_CBS110172,SRR7007210.24835,100.00,38,0,0,1,38,105,142,2e-13,71.3
Phaeoannelomyces_elegans_CBS110172,SRR7007210.24835,100.00,38,0,0,1,38,520,483,2e-13,71.3
Phaeoannelomyces_elegans_CBS110172,SRR7007210.24520,100.00,38,0,0,1,38,105,142,2e-13,71.3
Phaeoannelomyces_elegans_CBS110172,SRR7007210.24520,100.00,38,0,0,1,38,520,483,2e-13,71.3
Phaeoannelomyces_elegans_CBS110172,SRR7007210.23442,100.00,38,0,0,1,38,105,142,2e-13,71.3
Phaeoannelomyces_elegans_CBS110172,SRR7007210.23442,100.00,38,0,0,1,38,520,483,2e-13,71.3
Phaeoannelomyces_elegans_CBS110172,SRR7007210.22734,100.00,38,0,0,1,38,105,142,2e-13,71.3
Phaeoannelomyces_elegans_CBS110172,SRR7007210.22734,100.00,38,0,0,1,38,520,483,2e-13,71.3
Phaeoannelomyces_elegans_CBS110172,SRR7007210.22694,100.00,38,0,0,1,38,105,142,2e-13,71.3
Phaeoannelomyces_elegans_CBS110172,SRR7007210.22694,100.00,38,0,0,1,38,520,483,2e-13,71.3
Phaeoannelomyces_elegans_CBS110172,SRR7007210.22626,100.00,38,0,0,1,38,520,483,2e-13,71.3
Phaeoannelomyces_elegans_CBS110172,SRR7007210.22326,100.00,38,0,0,1,38,105,142,2e-13,71.3
Phaeoannelomyces_elegans_CBS110172,SRR7007210.22326,100.00,38,0,0,1,38,520,483,2e-13,71.3
Phaeoannelomyces_elegans_CBS110172,SRR7007210.21909,100.00,38,0,0,1,38,105,142,2e-13,71.3
Phaeoannelomyces_elegans_CBS110172,SRR7007210.21909,100.00,38,0,0,1,38,520,483,2e-13,71.3
Phaeoannelomyces_elegans_CBS110172,SRR7007210.21522,100.00,38,0,0,1,38,105,142,2e-13,71.3
Phaeoannelomyces_elegans_CBS110172,SRR7007210.21522,100.00,38,0,0,1,38,520,483,2e-13,71.3
Phaeoannelomyces_elegans_CBS110172,SRR7007210.21354,100.00,38,0,0,1,38,105,142,2e-13,71.3
Phaeoannelomyces_elegans_CBS110172,SRR7007210.21354,100.00,38,0,0,1,38,520,483,2e-13,71.3
Phaeoannelomyces_elegans_CBS110172,SRR7007210.20426,100.00,38,0,0,1,38,105,142,2e-13,71.3
Phaeoannelomyces_elegans_CBS110172,SRR7007210.20426,100.00,38,0,0,1,38,520,483,2e-13,71.3
Phaeoannelomyces_elegans_CBS110172,SRR7007210.19959,100.00,38,0,0,1,38,105,142,2e-13,71.3
Phaeoannelomyces_elegans_CBS110172,SRR7007210.19959,100.00,38,0,0,1,38,520,483,2e-13,71.3
Phaeoannelomyces_elegans_CBS110172,SRR7007210.19531,100.00,38,0,0,1,38,105,142,2e-13,71.3
Phaeoannelomyces_elegans_CBS110172,SRR7007210.19531,97.37,38,1,0,1,38,520,483,1e-11,65.8
Phaeoannelomyces_elegans_CBS110172,SRR7007210.19127,100.00,38,0,0,1,38,105,142,2e-13,71.3
Phaeoannelomyces_elegans_CBS110172,SRR7007210.18928,100.00,38,0,0,1,38,105,142,2e-13,71.3
Phaeoannelomyces_elegans_CBS110172,SRR7007210.18928,100.00,38,0,0,1,38,520,483,2e-13,71.3
Phaeoannelomyces_elegans_CBS110172,SRR7007210.18620,100.00,38,0,0,1,38,105,142,2e-13,71.3
Phaeoannelomyces_elegans_CBS110172,SRR7007210.18620,100.00,38,0,0,1,38,520,483,2e-13,71.3
Phaeoannelomyces_elegans_CBS110172,SRR7007210.17903,100.00,38,0,0,1,38,105,142,2e-13,71.3
Phaeoannelomyces_elegans_CBS110172,SRR7007210.17903,100.00,38,0,0,1,38,520,483,2e-13,71.3
Phaeoannelomyces_elegans_CBS110172,SRR7007210.17867,100.00,38,0,0,1,38,520,483,2e-13,71.3
Phaeoannelomyces_elegans_CBS110172,SRR7007210.17864,100.00,38,0,0,1,38,105,142,2e-13,71.3
Phaeoannelomyces_elegans_CBS110172,SRR7007210.17864,97.37,38,1,0,1,38,520,483,1e-11,65.8
Phaeoannelomyces_elegans_CBS110172,SRR7007210.17427,100.00,38,0,0,1,38,105,142,2e-13,71.3
Phaeoannelomyces_elegans_CBS110172,SRR7007210.17427,100.00,38,0,0,1,38,520,483,2e-13,71.3
Phaeoannelomyces_elegans_CBS110172,SRR7007210.17187,100.00,38,0,0,1,38,105,142,2e-13,71.3
Phaeoannelomyces_elegans_CBS110172,SRR7007210.17187,100.00,38,0,0,1,38,520,483,2e-13,71.3
Phaeoannelomyces_elegans_CBS110172,SRR7007210.17076,100.00,38,0,0,1,38,105,142,2e-13,71.3
Phaeoannelomyces_elegans_CBS110172,SRR7007210.17076,100.00,38,0,0,1,38,520,483,2e-13,71.3
Phaeoannelomyces_elegans_CBS110172,SRR7007210.16370,100.00,38,0,0,1,38,105,142,2e-13,71.3
Phaeoannelomyces_elegans_CBS110172,SRR7007210.16370,100.00,38,0,0,1,38,520,483,2e-13,71.3
Phaeoannelomyces_elegans_CBS110172,SRR7007210.16309,100.00,38,0,0,1,38,105,142,2e-13,71.3
Phaeoannelomyces_elegans_CBS110172,SRR7007210.16309,100.00,38,0,0,1,38,520,483,2e-13,71.3
Phaeoannelomyces_elegans_CBS110172,SRR7007210.16171,100.00,38,0,0,1,38,105,142,2e-13,71.3
Phaeoannelomyces_elegans_CBS110172,SRR7007210.16171,100.00,38,0,0,1,38,520,483,2e-13,71.3
Phaeoannelomyces_elegans_CBS110172,SRR7007210.15995,100.00,38,0,0,1,38,105,142,2e-13,71.3
Phaeoannelomyces_elegans_CBS110172,SRR7007210.15995,100.00,38,0,0,1,38,520,483,2e-13,71.3
Phaeoannelomyces_elegans_CBS110172,SRR7007210.15726,100.00,38,0,0,1,38,105,142,2e-13,71.3
Phaeoannelomyces_elegans_CBS110172,SRR7007210.15726,100.00,38,0,0,1,38,520,483,2e-13,71.3
Phaeoannelomyces_elegans_CBS110172,SRR7007210.15595,100.00,38,0,0,1,38,105,142,2e-13,71.3
Phaeoannelomyces_elegans_CBS110172,SRR7007210.15595,100.00,38,0,0,1,38,520,483,2e-13,71.3
Phaeoannelomyces_elegans_CBS110172,SRR7007210.15558,100.00,38,0,0,1,38,103,140,2e-13,71.3
Phaeoannelomyces_elegans_CBS110172,SRR7007210.15558,100.00,38,0,0,1,38,520,483,2e-13,71.3
Phaeoannelomyces_elegans_CBS110172,SRR7007210.15487,100.00,38,0,0,1,38,105,142,2e-13,71.3
Phaeoannelomyces_elegans_CBS110172,SRR7007210.15487,100.00,38,0,0,1,38,520,483,2e-13,71.3
Phaeoannelomyces_elegans_CBS110172,SRR7007210.15052,100.00,38,0,0,1,38,105,142,2e-13,71.3
Phaeoannelomyces_elegans_CBS110172,SRR7007210.15052,100.00,38,0,0,1,38,520,483,2e-13,71.3
Phaeoannelomyces_elegans_CBS110172,SRR7007210.14808,100.00,38,0,0,1,38,105,142,2e-13,71.3
Phaeoannelomyces_elegans_CBS110172,SRR7007210.14808,100.00,38,0,0,1,38,520,483,2e-13,71.3
Phaeoannelomyces_elegans_CBS110172,SRR7007210.14669,100.00,38,0,0,1,38,105,142,2e-13,71.3
Phaeoannelomyces_elegans_CBS110172,SRR7007210.14669,100.00,38,0,0,1,38,520,483,2e-13,71.3
Phaeoannelomyces_elegans_CBS110172,SRR7007210.13455,100.00,38,0,0,1,38,105,142,2e-13,71.3
Phaeoannelomyces_elegans_CBS110172,SRR7007210.13353,100.00,38,0,0,1,38,105,142,2e-13,71.3
Phaeoannelomyces_elegans_CBS110172,SRR7007210.13353,100.00,38,0,0,1,38,520,483,2e-13,71.3
Phaeoannelomyces_elegans_CBS110172,SRR7007210.13327,100.00,38,0,0,1,38,105,142,2e-13,71.3
Phaeoannelomyces_elegans_CBS110172,SRR7007210.13327,100.00,38,0,0,1,38,520,483,2e-13,71.3
Phaeoannelomyces_elegans_CBS110172,SRR7007210.11557,100.00,38,0,0,1,38,105,142,2e-13,71.3
Phaeoannelomyces_elegans_CBS110172,SRR7007210.11557,100.00,38,0,0,1,38,520,483,2e-13,71.3
Phaeoannelomyces_elegans_CBS110172,SRR7007210.11498,100.00,38,0,0,1,38,105,142,2e-13,71.3
Phaeoannelomyces_elegans_CBS110172,SRR7007210.11498,100.00,38,0,0,1,38,520,483,2e-13,71.3
Phaeoannelomyces_elegans_CBS110172,SRR7007210.11221,100.00,38,0,0,1,38,105,142,2e-13,71.3
Phaeoannelomyces_elegans_CBS110172,SRR7007210.11221,100.00,38,0,0,1,38,519,482,2e-13,71.3
Phaeoannelomyces_elegans_CBS110172,SRR7007210.10341,100.00,38,0,0,1,38,105,142,2e-13,71.3
Phaeoannelomyces_elegans_CBS110172,SRR7007210.10341,100.00,38,0,0,1,38,520,483,2e-13,71.3
Phaeoannelomyces_elegans_CBS110172,SRR7007210.10329,100.00,38,0,0,1,38,105,142,2e-13,71.3
Phaeoannelomyces_elegans_CBS110172,SRR7007210.10329,100.00,38,0,0,1,38,520,483,2e-13,71.3
Phaeoannelomyces_elegans_CBS110172,SRR7007210.9974,100.00,38,0,0,1,38,105,142,2e-13,71.3
Phaeoannelomyces_elegans_CBS110172,SRR7007210.9974,100.00,38,0,0,1,38,520,483,2e-13,71.3
Phaeoannelomyces_elegans_CBS110172,SRR7007210.9766,100.00,38,0,0,1,38,105,142,2e-13,71.3
Phaeoannelomyces_elegans_CBS110172,SRR7007210.9766,100.00,38,0,0,1,38,520,483,2e-13,71.3
Phaeoannelomyces_elegans_CBS110172,SRR7007210.9745,100.00,38,0,0,1,38,105,142,2e-13,71.3
Phaeoannelomyces_elegans_CBS110172,SRR7007210.9745,100.00,38,0,0,1,38,520,483,2e-13,71.3
Phaeoannelomyces_elegans_CBS110172,SRR7007210.8960,100.00,38,0,0,1,38,105,142,2e-13,71.3
Phaeoannelomyces_elegans_CBS110172,SRR7007210.8960,100.00,38,0,0,1,38,520,483,2e-13,71.3
Phaeoannelomyces_elegans_CBS110172,SRR7007210.8693,100.00,38,0,0,1,38,105,142,2e-13,71.3
Phaeoannelomyces_elegans_CBS110172,SRR7007210.8693,100.00,38,0,0,1,38,520,483,2e-13,71.3
Phaeoannelomyces_elegans_CBS110172,SRR7007210.8542,100.00,38,0,0,1,38,105,142,2e-13,71.3
Phaeoannelomyces_elegans_CBS110172,SRR7007210.8542,100.00,38,0,0,1,38,520,483,2e-13,71.3
Phaeoannelomyces_elegans_CBS110172,SRR7007210.8451,100.00,38,0,0,1,38,105,142,2e-13,71.3
Phaeoannelomyces_elegans_CBS110172,SRR7007210.8451,100.00,38,0,0,1,38,520,483,2e-13,71.3
Phaeoannelomyces_elegans_CBS110172,SRR7007210.8184,100.00,38,0,0,1,38,105,142,2e-13,71.3
Phaeoannelomyces_elegans_CBS110172,SRR7007210.8184,100.00,38,0,0,1,38,520,483,2e-13,71.3
Phaeoannelomyces_elegans_CBS110172,SRR7007210.7699,100.00,38,0,0,1,38,105,142,2e-13,71.3
Phaeoannelomyces_elegans_CBS110172,SRR7007210.7699,100.00,38,0,0,1,38,520,483,2e-13,71.3
Phaeoannelomyces_elegans_CBS110172,SRR7007210.6634,100.00,38,0,0,1,38,105,142,2e-13,71.3
Phaeoannelomyces_elegans_CBS110172,SRR7007210.6634,100.00,38,0,0,1,38,520,483,2e-13,71.3
Phaeoannelomyces_elegans_CBS110172,SRR7007210.5688,100.00,38,0,0,1,38,105,142,2e-13,71.3
Phaeoannelomyces_elegans_CBS110172,SRR7007210.5543,100.00,38,0,0,1,38,105,142,2e-13,71.3
Phaeoannelomyces_elegans_CBS110172,SRR7007210.5543,100.00,38,0,0,1,38,520,483,2e-13,71.3
Phaeoannelomyces_elegans_CBS110172,SRR7007210.5389,100.00,38,0,0,1,38,105,142,2e-13,71.3
Phaeoannelomyces_elegans_CBS110172,SRR7007210.4909,100.00,38,0,0,1,38,105,142,2e-13,71.3
Phaeoannelomyces_elegans_CBS110172,SRR7007210.4909,100.00,38,0,0,1,38,520,483,2e-13,71.3
Phaeoannelomyces_elegans_CBS110172,SRR7007210.4908,100.00,38,0,0,1,38,105,142,2e-13,71.3
Phaeoannelomyces_elegans_CBS110172,SRR7007210.4908,100.00,38,0,0,1,38,520,483,2e-13,71.3
Phaeoannelomyces_elegans_CBS110172,SRR7007210.4869,100.00,38,0,0,1,38,105,142,2e-13,71.3
Phaeoannelomyces_elegans_CBS110172,SRR7007210.4869,100.00,38,0,0,1,38,520,483,2e-13,71.3
Phaeoannelomyces_elegans_CBS110172,SRR7007210.4567,100.00,38,0,0,1,38,105,142,2e-13,71.3
Phaeoannelomyces_elegans_CBS110172,SRR7007210.4532,100.00,38,0,0,1,38,520,483,2e-13,71.3
Phaeoannelomyces_elegans_CBS110172,SRR7007210.4154,100.00,38,0,0,1,38,105,142,2e-13,71.3
Phaeoannelomyces_elegans_CBS110172,SRR7007210.4154,100.00,38,0,0,1,38,520,483,2e-13,71.3
Phaeoannelomyces_elegans_CBS110172,SRR7007210.3204,100.00,38,0,0,1,38,105,142,2e-13,71.3
Phaeoannelomyces_elegans_CBS110172,SRR7007210.3204,100.00,38,0,0,1,38,520,483,2e-13,71.3
Phaeoannelomyces_elegans_CBS110172,SRR7007210.2894,100.00,38,0,0,1,38,105,142,2e-13,71.3
Phaeoannelomyces_elegans_CBS110172,SRR7007210.2894,100.00,38,0,0,1,38,520,483,2e-13,71.3
Phaeoannelomyces_elegans_CBS110172,SRR7007210.2282,100.00,38,0,0,1,38,105,142,2e-13,71.3
Phaeoannelomyces_elegans_CBS110172,SRR7007210.2282,100.00,38,0,0,1,38,520,483,2e-13,71.3
Phaeoannelomyces_elegans_CBS110172,SRR7007210.1752,100.00,38,0,0,1,38,105,142,2e-13,71.3
Phaeoannelomyces_elegans_CBS110172,SRR7007210.1544,100.00,38,0,0,1,38,105,142,2e-13,71.3
Phaeoannelomyces_elegans_CBS110172,SRR7007210.1544,100.00,38,0,0,1,38,520,483,2e-13,71.3
Phaeoannelomyces_elegans_CBS110172,SRR7007210.1187,100.00,38,0,0,1,38,105,142,2e-13,71.3
Phaeoannelomyces_elegans_CBS110172,SRR7007210.1187,94.74,38,2,0,1,38,520,483,4e-10,60.2
Phaeoannelomyces_elegans_CBS110172,SRR7007210.829,100.00,38,0,0,1,38,105,142,2e-13,71.3
Phaeoannelomyces_elegans_CBS110172,SRR7007210.829,100.00,38,0,0,1,38,520,483,2e-13,71.3
Phaeoannelomyces_elegans_CBS110172,SRR7007210.62,100.00,38,0,0,1,38,105,142,2e-13,71.3
Phaeoannelomyces_elegans_CBS110172,SRR7007210.62,100.00,38,0,0,1,38,520,483,2e-13,71.3
Phaeoannelomyces_elegans_CBS110172,SRR7007210.57,100.00,38,0,0,1,38,105,142,2e-13,71.3
Phaeoannelomyces_elegans_CBS110172,SRR7007210.57,100.00,38,0,0,1,38,520,483,2e-13,71.3
Phaeoannelomyces_elegans_CBS110172,SRR7007210.11092,97.37,38,1,0,1,38,105,142,1e-11,65.8
Phaeoannelomyces_elegans_CBS110172,SRR7007210.11092,97.37,38,1,0,1,38,520,483,1e-11,65.8
Veronaea_japonica_CBS776.83T,SRR7007210.11092,94.74,38,2,0,1,38,105,142,4e-10,60.2
Veronaea_japonica_CBS776.83T,SRR7007210.11092,94.74,38,2,0,1,38,520,483,4e-10,60.2
