Exophiala_equina_1_CBS119.23T,SRR6062535.59066,100.00,38,0,0,1,38,105,142,2e-13,71.3
Exophiala_equina_1_CBS119.23T,SRR6062535.57934,100.00,38,0,0,1,38,105,142,2e-13,71.3
Exophiala_equina_1_CBS119.23T,SRR6062535.57934,100.00,36,0,0,3,38,467,432,2e-12,67.6
Exophiala_equina_1_CBS119.23T,SRR6062535.45864,100.00,38,0,0,1,38,105,142,2e-13,71.3
Exophiala_equina_1_CBS119.23T,SRR6062535.45864,97.37,38,1,0,1,38,470,433,8e-12,65.8
Exophiala_equina_1_CBS119.23T,SRR6062535.44926,100.00,38,0,0,1,38,105,142,2e-13,71.3
Exophiala_equina_1_CBS119.23T,SRR6062535.44380,100.00,38,0,0,1,38,105,142,2e-13,71.3
Exophiala_equina_1_CBS119.23T,SRR6062535.37451,100.00,38,0,0,1,38,105,142,2e-13,71.3
Exophiala_equina_1_CBS119.23T,SRR6062535.32813,100.00,38,0,0,1,38,105,142,2e-13,71.3
Exophiala_equina_1_CBS119.23T,SRR6062535.29748,100.00,38,0,0,1,38,105,142,2e-13,71.3
Exophiala_equina_1_CBS119.23T,SRR6062535.29748,100.00,38,0,0,1,38,469,432,2e-13,71.3
Exophiala_equina_1_CBS119.23T,SRR6062535.29734,100.00,38,0,0,1,38,105,142,2e-13,71.3
Exophiala_equina_1_CBS119.23T,SRR6062535.24148,100.00,38,0,0,1,38,105,142,2e-13,71.3
Exophiala_equina_1_CBS119.23T,SRR6062535.21985,100.00,38,0,0,1,38,105,142,2e-13,71.3
Exophiala_equina_1_CBS119.23T,SRR6062535.18826,100.00,38,0,0,1,38,105,142,2e-13,71.3
Exophiala_equina_1_CBS119.23T,SRR6062535.16692,100.00,38,0,0,1,38,105,142,2e-13,71.3
Exophiala_equina_1_CBS119.23T,SRR6062535.12512,100.00,38,0,0,1,38,105,142,2e-13,71.3
Exophiala_equina_1_CBS119.23T,SRR6062535.11946,100.00,38,0,0,1,38,105,142,2e-13,71.3
Exophiala_equina_1_CBS119.23T,SRR6062535.8330,100.00,38,0,0,1,38,105,142,2e-13,71.3
Exophiala_equina_1_CBS119.23T,SRR6062535.8330,100.00,38,0,0,1,38,470,433,2e-13,71.3
Exophiala_equina_1_CBS119.23T,SRR6062535.7496,100.00,38,0,0,1,38,105,142,2e-13,71.3
Phaeoannelomyces_elegans_CBS110172,SRR6062535.59066,100.00,38,0,0,1,38,105,142,2e-13,71.3
Phaeoannelomyces_elegans_CBS110172,SRR6062535.57934,100.00,38,0,0,1,38,105,142,2e-13,71.3
Phaeoannelomyces_elegans_CBS110172,SRR6062535.57934,100.00,36,0,0,3,38,467,432,2e-12,67.6
Phaeoannelomyces_elegans_CBS110172,SRR6062535.45864,100.00,38,0,0,1,38,105,142,2e-13,71.3
Phaeoannelomyces_elegans_CBS110172,SRR6062535.45864,97.37,38,1,0,1,38,470,433,8e-12,65.8
Phaeoannelomyces_elegans_CBS110172,SRR6062535.44926,100.00,38,0,0,1,38,105,142,2e-13,71.3
Phaeoannelomyces_elegans_CBS110172,SRR6062535.44380,100.00,38,0,0,1,38,105,142,2e-13,71.3
Phaeoannelomyces_elegans_CBS110172,SRR6062535.37451,100.00,38,0,0,1,38,105,142,2e-13,71.3
Phaeoannelomyces_elegans_CBS110172,SRR6062535.32813,100.00,38,0,0,1,38,105,142,2e-13,71.3
Phaeoannelomyces_elegans_CBS110172,SRR6062535.29748,100.00,38,0,0,1,38,105,142,2e-13,71.3
Phaeoannelomyces_elegans_CBS110172,SRR6062535.29748,100.00,38,0,0,1,38,469,432,2e-13,71.3
Phaeoannelomyces_elegans_CBS110172,SRR6062535.29734,100.00,38,0,0,1,38,105,142,2e-13,71.3
Phaeoannelomyces_elegans_CBS110172,SRR6062535.24148,100.00,38,0,0,1,38,105,142,2e-13,71.3
Phaeoannelomyces_elegans_CBS110172,SRR6062535.21985,100.00,38,0,0,1,38,105,142,2e-13,71.3
Phaeoannelomyces_elegans_CBS110172,SRR6062535.18826,100.00,38,0,0,1,38,105,142,2e-13,71.3
Phaeoannelomyces_elegans_CBS110172,SRR6062535.16692,100.00,38,0,0,1,38,105,142,2e-13,71.3
Phaeoannelomyces_elegans_CBS110172,SRR6062535.12512,100.00,38,0,0,1,38,105,142,2e-13,71.3
Phaeoannelomyces_elegans_CBS110172,SRR6062535.11946,100.00,38,0,0,1,38,105,142,2e-13,71.3
Phaeoannelomyces_elegans_CBS110172,SRR6062535.8330,100.00,38,0,0,1,38,105,142,2e-13,71.3
Phaeoannelomyces_elegans_CBS110172,SRR6062535.8330,100.00,38,0,0,1,38,470,433,2e-13,71.3
Phaeoannelomyces_elegans_CBS110172,SRR6062535.7496,100.00,38,0,0,1,38,105,142,2e-13,71.3
