Exophiala_pisciphila_CBS537.73_T,SRR10569549.1499593,95.65,69,2,1,545,613,319,252,7e-22,110
Exophiala_salmonis_CBS157.67_T,SRR10569549.1499593,95.65,69,2,1,665,733,319,252,9e-22,110
Exophiala_cancerae_CBS120420_T,SRR10569549.1499593,94.29,70,2,2,555,624,319,252,9e-21,106
Exophiala_tremulae_CBS129355,SRR10569549.1499593,94.83,58,2,1,571,628,319,263,9e-16,89.8
Rhinocladiella_atrovirens_CBS264.49,SRR10569549.1499593,100.00,43,0,0,581,623,309,267,6e-13,80.5
Rhinocladiella_aquaspersa_CBS313.73_T,SRR10569549.1499593,90.00,70,4,3,539,605,321,252,3e-15,87.9
Rhinocladiella_mackenziei_CBS367.92,SRR10569549.1499593,96.00,50,1,1,559,608,317,269,5e-13,80.5
Capronia_dactylotricha_DAOM208471_T,SRR10569549.1499593,98.28,58,1,0,561,618,309,252,1e-19,102
Capronia_kleinmondensis_CBS122671_T,SRR10569549.1499593,98.28,58,1,0,567,624,309,252,1e-19,102
Capronia_parasitica_CBS123.88,SRR10569549.1499593,97.30,37,1,0,559,595,313,277,5e-08,63.9
Capronia_acutiseta_ATCC56428_T,SRR10569549.1499593,96.77,62,2,0,537,598,313,252,3e-20,104
