Exophiala_polymorpha_CBS138920_T,ERR3026511.3001326,100.00,29,0,0,82,110,75,47,5e-06,54.7
Exophiala_brunnea_CBS,ERR3026511.3001326,100.00,35,0,0,8,42,81,47,2e-09,65.8
Exophiala_dermatitidis_CBS748.88,ERR3026511.2777808,96.30,81,3,0,1379,1459,81,1,1e-29,134
Exophiala_dermatitidis_CBS748.88,ERR3026511.2632584,92.54,67,5,0,1368,1434,8,74,2e-18,97.1
Exophiala_dermatitidis_CBS748.88,ERR3026511.745583,87.50,56,7,0,1359,1414,56,1,5e-09,65.8
Exophiala_dermatitidis_CBS748.88,ERR3026511.641166,100.00,31,0,0,1472,1502,79,49,8e-07,58.4
Exophiala_tremulae_CBS129355,ERR3026511.3001326,100.00,35,0,0,8,42,81,47,2e-09,65.8
Rhinocladiella_atrovirens_CBS264.49,ERR3026511.3001326,100.00,32,0,0,13,44,81,50,1e-07,60.2
Rhinocladiella_mackenziei_CBS367.92,ERR3026511.3001326,100.00,29,0,0,1,29,75,47,4e-06,54.7
Veronaea_compacta_CBS268.75_T,ERR3026511.3001326,100.00,30,0,0,1,30,76,47,1e-06,56.5
Capronia_kleinmondensis_CBS122671_T,ERR3026511.3001326,100.00,30,0,0,1,30,79,50,1e-06,56.5
Veronaea_japonica_CBS776.83_T,ERR3026511.3001326,100.00,35,0,0,7,41,81,47,2e-09,65.8
Fonsecaea_pedrosoi_CBS271.37_T,ERR3026511.3001326,100.00,31,0,0,1,31,79,49,4e-07,58.4
Cladophialophora_australiensis_CBS112793,ERR3026511.2777808,96.30,81,3,0,1346,1426,81,1,1e-29,134
Cladophialophora_australiensis_CBS112793,ERR3026511.2632584,92.54,67,5,0,1335,1401,8,74,2e-18,97.1
Cladophialophora_australiensis_CBS112793,ERR3026511.745583,87.50,56,7,0,1326,1381,56,1,5e-09,65.8
Cladophialophora_australiensis_CBS112793,ERR3026511.641166,100.00,31,0,0,1439,1469,79,49,8e-07,58.4
Cladophialophora_potulentorum_CBS112222,ERR3026511.2777808,96.30,81,3,0,1348,1428,81,1,1e-29,134
Cladophialophora_potulentorum_CBS112222,ERR3026511.2632584,92.54,67,5,0,1337,1403,8,74,2e-18,97.1
Cladophialophora_potulentorum_CBS112222,ERR3026511.641166,95.83,48,2,0,1441,1488,79,32,6e-13,78.7
Cladophialophora_potulentorum_CBS112222,ERR3026511.745583,87.50,56,7,0,1328,1383,56,1,5e-09,65.8
Cladophialophora_chaetospira_CBS127573,ERR3026511.3001326,100.00,34,0,0,379,412,80,47,1e-08,63.9
Phialophora_americana_CBS400.67,ERR3026511.2777808,96.30,81,3,0,1340,1420,81,1,1e-29,134
Phialophora_americana_CBS400.67,ERR3026511.2632584,92.54,67,5,0,1329,1395,8,74,2e-18,97.1
Phialophora_americana_CBS400.67,ERR3026511.745583,87.50,56,7,0,1320,1375,56,1,5e-09,65.8
Cyphellophora_laciniata_CBS190.61_T,ERR3026511.3001326,100.00,32,0,0,69,100,81,50,1e-07,60.2
