Exophiala_nigra_CBS535.94_T,DRR205363.67272,89.62,106,10,1,287,392,1,105,1e-30,134
Exophiala_nigra_CBS535.94_T,DRR205363.16127,87.62,105,12,1,287,391,5,108,8e-27,121
Exophiala_nigra_CBS535.94_T,DRR205363.52733,85.71,105,12,3,287,391,2,103,6e-23,108
Exophiala_spinifera_CBS899.68_T,DRR205363.67272,89.62,106,9,2,284,388,1,105,1e-30,134
Exophiala_spinifera_CBS899.68_T,DRR205363.16127,87.62,105,11,2,284,387,5,108,8e-27,121
Exophiala_spinifera_CBS899.68_T,DRR205363.52733,87.50,104,11,2,284,387,2,103,3e-26,119
Exophiala_exophialae_CBS668.76_T,DRR205363.67272,89.62,106,9,2,285,389,1,105,1e-30,134
Exophiala_exophialae_CBS668.76_T,DRR205363.16127,87.62,105,11,2,285,388,5,108,8e-27,121
Exophiala_exophialae_CBS668.76_T,DRR205363.52733,87.50,104,11,2,285,388,2,103,3e-26,119
Exophiala_polymorpha_CBS138920_T,DRR205363.67272,89.62,106,9,2,387,491,1,105,1e-30,134
Exophiala_polymorpha_CBS138920_T,DRR205363.67272,98.11,53,1,0,642,694,236,288,2e-18,93.5
Exophiala_polymorpha_CBS138920_T,DRR205363.16127,87.62,105,11,2,387,490,5,108,1e-26,121
Exophiala_polymorpha_CBS138920_T,DRR205363.16127,100.00,51,0,0,644,694,243,293,6e-19,95.3
Exophiala_polymorpha_CBS138920_T,DRR205363.52733,87.50,104,11,2,387,490,2,103,4e-26,119
Exophiala_polymorpha_CBS138920_T,DRR205363.26184,94.34,53,3,0,642,694,361,309,5e-15,82.4
Exophiala_polymorpha_CBS138920_T,DRR205363.35750,94.00,50,3,0,645,694,362,313,2e-13,76.8
Exophiala_polymorpha_CBS138920_T,DRR205363.65309,90.57,53,5,0,642,694,363,311,1e-11,71.3
Exophiala_oligosperma_CBS725.88_T,DRR205363.67272,89.62,106,9,2,297,401,1,105,1e-30,134
Exophiala_oligosperma_CBS725.88_T,DRR205363.16127,87.62,105,11,2,297,400,5,108,8e-27,121
Exophiala_oligosperma_CBS725.88_T,DRR205363.52733,87.50,104,11,2,297,400,2,103,3e-26,119
Exophiala_jeanselmei_CBS507.90_T,DRR205363.67272,89.62,106,9,2,289,393,1,105,1e-30,134
Exophiala_jeanselmei_CBS507.90_T,DRR205363.67272,98.39,62,1,0,543,604,235,296,2e-23,110
Exophiala_jeanselmei_CBS507.90_T,DRR205363.16127,87.62,105,11,2,289,392,5,108,9e-27,121
Exophiala_jeanselmei_CBS507.90_T,DRR205363.16127,100.00,58,0,0,546,603,243,300,7e-23,108
Exophiala_jeanselmei_CBS507.90_T,DRR205363.52733,87.50,104,11,2,289,392,2,103,3e-26,119
Exophiala_jeanselmei_CBS507.90_T,DRR205363.52733,98.41,63,1,0,542,604,359,297,5e-24,111
Exophiala_jeanselmei_CBS507.90_T,DRR205363.26184,95.08,61,3,0,544,604,361,301,1e-19,97.1
Exophiala_jeanselmei_CBS507.90_T,DRR205363.35750,94.83,58,3,0,547,604,362,305,7e-18,91.6
Exophiala_jeanselmei_CBS507.90_T,DRR205363.65309,90.32,62,6,0,543,604,364,303,4e-15,82.4
Exophiala_bergeri_CBS353.52,DRR205363.67272,88.68,106,11,1,250,355,1,105,4e-29,128
Exophiala_bergeri_CBS353.52,DRR205363.16127,86.67,105,13,1,250,354,5,108,3e-25,115
Exophiala_bergeri_CBS353.52,DRR205363.52733,86.27,102,11,3,250,350,2,101,5e-23,108
Exophiala_moniliae_CBS520.76_T,DRR205363.67272,86.11,108,12,3,287,394,1,105,1e-24,113
Exophiala_moniliae_CBS520.76_T,DRR205363.16127,87.64,89,10,1,287,375,5,92,3e-21,102
Exophiala_moniliae_CBS520.76_T,DRR205363.52733,86.67,90,11,1,287,376,2,90,4e-20,99.0
Exophiala_pisciphila_CBS537.73_T,DRR205363.67272,89.62,106,9,2,290,394,1,105,1e-30,134
Exophiala_pisciphila_CBS537.73_T,DRR205363.16127,87.62,105,11,2,290,393,5,108,9e-27,121
Exophiala_pisciphila_CBS537.73_T,DRR205363.16127,95.45,66,2,1,548,612,235,300,9e-22,104
Exophiala_pisciphila_CBS537.73_T,DRR205363.52733,87.50,104,11,2,290,393,2,103,3e-26,119
Exophiala_pisciphila_CBS537.73_T,DRR205363.52733,96.77,62,2,0,552,613,358,297,9e-22,104
Exophiala_pisciphila_CBS537.73_T,DRR205363.46064,94.20,69,4,0,547,615,370,302,3e-22,106
Exophiala_pisciphila_CBS537.73_T,DRR205363.46064,96.49,57,2,0,547,603,244,300,6e-19,95.3
Exophiala_pisciphila_CBS537.73_T,DRR205363.26184,95.52,67,2,1,547,613,366,301,3e-22,106
Exophiala_pisciphila_CBS537.73_T,DRR205363.35750,93.22,59,4,0,556,614,362,304,9e-17,87.9
Exophiala_xenobiotica_CBS117642,DRR205363.67272,89.62,106,9,2,282,386,1,105,1e-30,134
Exophiala_xenobiotica_CBS117642,DRR205363.16127,87.62,105,11,2,282,385,5,108,8e-27,121
Exophiala_xenobiotica_CBS117642,DRR205363.52733,87.50,104,11,2,282,385,2,103,3e-26,119
Exophiala_brunnea_CBS,DRR205363.67272,88.68,106,10,2,318,422,1,105,5e-29,128
Exophiala_brunnea_CBS,DRR205363.16127,86.67,105,12,2,318,421,5,108,4e-25,115
Exophiala_brunnea_CBS,DRR205363.52733,86.54,104,12,2,318,421,2,103,2e-24,113
Exophiala_brunnea_CBS,DRR205363.46064,97.87,47,1,0,587,633,253,299,1e-15,84.2
Exophiala_brunnea_CBS,DRR205363.26184,91.23,57,4,1,577,633,367,312,6e-14,78.7
Exophiala_nishimurae_CBS101538_T,DRR205363.67272,89.62,106,9,2,296,400,1,105,1e-30,134
Exophiala_nishimurae_CBS101538_T,DRR205363.67272,100.00,41,0,0,550,590,235,275,2e-13,76.8
Exophiala_nishimurae_CBS101538_T,DRR205363.16127,87.62,105,11,2,296,399,5,108,8e-27,121
Exophiala_nishimurae_CBS101538_T,DRR205363.16127,100.00,39,0,0,553,591,243,281,2e-12,73.1
Exophiala_nishimurae_CBS101538_T,DRR205363.52733,87.50,104,11,2,296,399,2,103,3e-26,119
Exophiala_mesophila_CBS402.95_T,DRR205363.67272,98.39,62,1,0,550,611,236,297,2e-23,110
Exophiala_mesophila_CBS402.95_T,DRR205363.67272,87.91,91,10,1,280,370,1,90,3e-22,106
Exophiala_mesophila_CBS402.95_T,DRR205363.52733,98.36,61,1,0,550,610,357,297,7e-23,108
Exophiala_mesophila_CBS402.95_T,DRR205363.52733,86.67,90,11,1,280,369,2,90,4e-20,99.0
Exophiala_mesophila_CBS402.95_T,DRR205363.16127,100.00,58,0,0,552,609,243,300,7e-23,108
Exophiala_mesophila_CBS402.95_T,DRR205363.16127,87.64,89,10,1,280,368,5,92,3e-21,102
Exophiala_mesophila_CBS402.95_T,DRR205363.26184,93.94,66,3,1,545,610,365,301,4e-20,99.0
Exophiala_mesophila_CBS402.95_T,DRR205363.35750,94.92,59,3,0,553,611,362,304,2e-18,93.5
Exophiala_mesophila_CBS402.95_T,DRR205363.65309,90.16,61,6,0,550,610,363,303,2e-14,80.5
Exophiala_castellanii_CBS158.58_T,DRR205363.67272,98.39,62,1,0,549,610,236,297,2e-23,110
Exophiala_castellanii_CBS158.58_T,DRR205363.67272,87.91,91,10,1,278,368,1,90,3e-22,106
Exophiala_castellanii_CBS158.58_T,DRR205363.52733,98.36,61,1,0,549,609,357,297,7e-23,108
Exophiala_castellanii_CBS158.58_T,DRR205363.52733,86.67,90,11,1,278,367,2,90,4e-20,99.0
Exophiala_castellanii_CBS158.58_T,DRR205363.16127,100.00,58,0,0,551,608,243,300,7e-23,108
Exophiala_castellanii_CBS158.58_T,DRR205363.16127,87.64,89,10,1,278,366,5,92,3e-21,102
Exophiala_castellanii_CBS158.58_T,DRR205363.26184,93.94,66,3,1,545,609,366,301,4e-20,99.0
Exophiala_castellanii_CBS158.58_T,DRR205363.35750,94.92,59,3,0,552,610,362,304,2e-18,93.5
Exophiala_castellanii_CBS158.58_T,DRR205363.65309,90.16,61,6,0,549,609,363,303,2e-14,80.5
Exophiala_lecanii-corni_CBS123.33_T,DRR205363.67272,86.81,91,11,1,301,391,1,90,1e-20,100
Exophiala_lecanii-corni_CBS123.33_T,DRR205363.16127,86.52,89,11,1,301,389,5,92,1e-19,97.1
Exophiala_lecanii-corni_CBS123.33_T,DRR205363.52733,85.56,90,12,1,301,390,2,90,2e-18,93.5
Exophiala_dermatitidis_CBS748.88,DRR205363.67272,89.62,106,10,1,293,398,1,105,3e-30,134
Exophiala_dermatitidis_CBS748.88,DRR205363.67272,98.41,63,1,0,574,636,235,297,1e-23,111
Exophiala_dermatitidis_CBS748.88,DRR205363.52733,94.87,78,4,0,558,635,374,297,6e-27,122
Exophiala_dermatitidis_CBS748.88,DRR205363.52733,93.59,78,5,0,558,635,211,288,3e-25,117
Exophiala_dermatitidis_CBS748.88,DRR205363.52733,86.67,105,11,3,293,397,2,103,4e-24,113
Exophiala_dermatitidis_CBS748.88,DRR205363.16127,87.62,105,12,1,293,397,5,108,2e-26,121
Exophiala_dermatitidis_CBS748.88,DRR205363.16127,100.00,58,0,0,577,634,243,300,2e-22,108
Exophiala_dermatitidis_CBS748.88,DRR205363.26184,90.54,74,6,1,562,635,373,301,4e-19,97.1
Exophiala_dermatitidis_CBS748.88,DRR205363.35750,94.92,59,3,0,578,636,362,304,5e-18,93.5
Exophiala_dermatitidis_CBS748.88,DRR205363.65309,90.32,62,6,0,574,635,364,303,1e-14,82.4
Exophiala_angulospora_CBS482.92_T,DRR205363.67272,89.62,106,10,1,284,389,1,105,1e-30,134
Exophiala_angulospora_CBS482.92_T,DRR205363.16127,87.62,105,12,1,284,388,5,108,8e-27,121
Exophiala_angulospora_CBS482.92_T,DRR205363.52733,85.71,105,12,3,284,388,2,103,6e-23,108
Exophiala_opportunistica_CBS109811_T,DRR205363.67272,88.68,106,10,2,283,387,1,105,5e-29,128
Exophiala_opportunistica_CBS109811_T,DRR205363.16127,88.57,105,10,2,283,386,5,108,2e-28,126
Exophiala_opportunistica_CBS109811_T,DRR205363.52733,86.54,104,12,2,283,386,2,103,1e-24,113
Exophiala_salmonis_CBS157.67_T,DRR205363.67272,89.62,106,9,2,412,516,1,105,1e-30,134
Exophiala_salmonis_CBS157.67_T,DRR205363.16127,87.62,105,11,2,412,515,5,108,1e-26,121
Exophiala_salmonis_CBS157.67_T,DRR205363.16127,95.45,66,2,1,668,732,235,300,1e-21,104
Exophiala_salmonis_CBS157.67_T,DRR205363.52733,87.50,104,11,2,412,515,2,103,4e-26,119
Exophiala_salmonis_CBS157.67_T,DRR205363.52733,96.77,62,2,0,672,733,358,297,1e-21,104
Exophiala_salmonis_CBS157.67_T,DRR205363.46064,94.20,69,4,0,667,735,370,302,3e-22,106
Exophiala_salmonis_CBS157.67_T,DRR205363.46064,96.49,57,2,0,667,723,244,300,7e-19,95.3
Exophiala_salmonis_CBS157.67_T,DRR205363.26184,95.52,67,2,1,667,733,366,301,3e-22,106
Exophiala_salmonis_CBS157.67_T,DRR205363.35750,93.22,59,4,0,676,734,362,304,1e-16,87.9
Exophiala_aquamarina_CBS119918_T,DRR205363.67272,87.85,107,10,3,290,395,1,105,2e-27,122
Exophiala_aquamarina_CBS119918_T,DRR205363.16127,86.79,106,11,3,290,394,5,108,4e-25,115
Exophiala_aquamarina_CBS119918_T,DRR205363.52733,86.67,105,11,3,290,394,2,103,1e-24,113
Exophiala_cancerae_CBS120420_T,DRR205363.67272,88.68,106,10,2,305,409,1,105,5e-29,128
Exophiala_cancerae_CBS120420_T,DRR205363.16127,88.57,105,10,2,305,408,5,108,2e-28,126
Exophiala_cancerae_CBS120420_T,DRR205363.16127,95.45,66,3,0,558,623,235,300,2e-22,106
Exophiala_cancerae_CBS120420_T,DRR205363.52733,86.54,104,12,2,305,408,2,103,1e-24,113
Exophiala_cancerae_CBS120420_T,DRR205363.52733,96.88,64,2,0,561,624,360,297,7e-23,108
Exophiala_cancerae_CBS120420_T,DRR205363.26184,96.72,61,2,0,564,624,361,301,3e-21,102
Exophiala_cancerae_CBS120420_T,DRR205363.46064,92.65,68,4,1,557,624,370,304,1e-19,97.1
Exophiala_cancerae_CBS120420_T,DRR205363.46064,94.83,58,2,1,557,614,244,300,3e-17,89.8
Exophiala_cancerae_CBS120420_T,DRR205363.35750,93.10,58,4,0,567,624,362,305,3e-16,86.1
Exophiala_tremulae_CBS129355,DRR205363.67272,88.68,106,10,2,317,421,1,105,5e-29,128
Exophiala_tremulae_CBS129355,DRR205363.16127,87.62,105,11,2,317,420,5,108,9e-27,121
Exophiala_tremulae_CBS129355,DRR205363.52733,87.50,104,11,2,317,420,2,103,3e-26,119
Exophiala_tremulae_CBS129355,DRR205363.46064,96.43,56,2,0,573,628,244,299,2e-18,93.5
Exophiala_tremulae_CBS129355,DRR205363.46064,92.86,56,4,0,573,628,370,315,4e-15,82.4
Exophiala_tremulae_CBS129355,DRR205363.26184,94.64,56,2,1,573,628,366,312,3e-16,86.1
Exophiala_equina_CBS116009,DRR205363.67272,88.68,106,10,2,283,387,1,105,5e-29,128
Exophiala_equina_CBS116009,DRR205363.16127,87.62,105,11,2,283,386,5,108,8e-27,121
Exophiala_equina_CBS116009,DRR205363.52733,87.50,104,11,2,283,386,2,103,3e-26,119
Exophiala_alcalophila_CBS520.82_T,DRR205363.67272,89.62,106,10,1,294,399,1,105,1e-30,134
Exophiala_alcalophila_CBS520.82_T,DRR205363.16127,87.62,105,12,1,294,398,5,108,8e-27,121
Exophiala_alcalophila_CBS520.82_T,DRR205363.52733,85.71,105,12,3,294,398,2,103,6e-23,108
Exophiala_crusticola_CBS119970_T,DRR205363.67272,89.72,107,10,1,299,405,1,106,3e-31,135
Exophiala_crusticola_CBS119970_T,DRR205363.16127,87.62,105,12,1,299,403,5,108,8e-27,121
Exophiala_crusticola_CBS119970_T,DRR205363.52733,86.27,102,11,3,299,399,2,101,6e-23,108
Rhinocladiella_atrovirens_CBS264.49,DRR205363.67272,85.05,107,14,2,325,431,1,105,7e-23,108
Rhinocladiella_atrovirens_CBS264.49,DRR205363.16127,86.00,100,12,2,325,424,5,102,2e-22,106
Rhinocladiella_atrovirens_CBS264.49,DRR205363.52733,85.56,90,12,1,325,414,2,90,2e-18,93.5
Rhinocladiella_atrovirens_CBS264.49,DRR205363.46064,94.74,57,3,0,570,626,242,298,3e-17,89.8
Rhinocladiella_atrovirens_CBS264.49,DRR205363.46064,91.23,57,5,0,570,626,372,316,5e-14,78.7
Rhinocladiella_atrovirens_CBS264.49,DRR205363.26184,94.55,55,2,1,572,626,366,313,1e-15,84.2
Rhinocladiella_basitona_CBS101460_T,DRR205363.67272,89.62,106,9,2,284,388,1,105,1e-30,134
Rhinocladiella_basitona_CBS101460_T,DRR205363.16127,87.62,105,11,2,284,387,5,108,8e-27,121
Rhinocladiella_basitona_CBS101460_T,DRR205363.52733,87.50,104,11,2,284,387,2,103,3e-26,119
Rhinocladiella_phaeophora_CBS496.78_T,DRR205363.67272,88.79,107,10,2,292,398,1,105,1e-29,130
Rhinocladiella_phaeophora_CBS496.78_T,DRR205363.16127,88.68,106,10,2,292,397,5,108,5e-29,128
Rhinocladiella_phaeophora_CBS496.78_T,DRR205363.52733,87.78,90,10,1,292,381,2,90,8e-22,104
Rhinocladiella_aquaspersa_CBS313.73_T,DRR205363.67272,87.83,115,11,3,286,400,1,112,4e-30,132
Rhinocladiella_aquaspersa_CBS313.73_T,DRR205363.16127,88.68,106,10,2,286,391,5,108,6e-29,128
Rhinocladiella_aquaspersa_CBS313.73_T,DRR205363.16127,93.10,58,1,3,550,604,243,300,4e-15,82.4
Rhinocladiella_aquaspersa_CBS313.73_T,DRR205363.52733,87.78,90,10,1,286,375,2,90,9e-22,104
Rhinocladiella_aquaspersa_CBS313.73_T,DRR205363.52733,92.19,64,2,3,545,605,360,297,9e-17,87.9
Rhinocladiella_aquaspersa_CBS313.73_T,DRR205363.26184,89.04,73,5,3,536,605,373,301,9e-17,87.9
Rhinocladiella_aquaspersa_CBS313.73_T,DRR205363.35750,93.88,49,2,1,559,606,352,304,3e-12,73.1
Rhinocladiella_aquaspersa_CBS313.73_T,DRR205363.46064,87.69,65,3,5,536,595,236,300,9e-12,71.3
Rhinocladiella_fasciculata_CBS132.86_T,DRR205363.67272,87.04,108,11,3,302,409,1,105,3e-26,119
Rhinocladiella_fasciculata_CBS132.86_T,DRR205363.16127,85.05,107,13,3,302,408,5,108,2e-22,106
Rhinocladiella_fasciculata_CBS132.86_T,DRR205363.52733,85.56,90,12,1,302,391,2,90,2e-18,93.5
Rhinocladiella_anceps_CBS181.65_T,DRR205363.67272,87.74,106,12,1,284,389,1,105,2e-27,122
Rhinocladiella_anceps_CBS181.65_T,DRR205363.16127,85.71,105,14,1,284,388,5,108,2e-23,110
Rhinocladiella_anceps_CBS181.65_T,DRR205363.52733,84.76,105,13,3,284,388,2,103,3e-21,102
Rhinocladiella_mackenziei_CBS367.92,DRR205363.67272,86.96,92,10,2,273,364,1,90,3e-21,102
Rhinocladiella_mackenziei_CBS367.92,DRR205363.52733,86.81,91,10,2,273,363,2,90,1e-20,100
Rhinocladiella_mackenziei_CBS367.92,DRR205363.16127,86.67,90,10,2,273,362,5,92,4e-20,99.0
Rhinocladiella_mackenziei_CBS367.92,DRR205363.46064,94.23,52,2,1,557,608,243,293,5e-14,78.7
Rhinocladiella_mackenziei_CBS367.92,DRR205363.46064,92.31,52,3,1,557,608,371,321,2e-12,73.1
Rhinocladiella_mackenziei_CBS367.92,DRR205363.26184,97.50,40,1,0,569,608,357,318,3e-11,69.4
Veronaea_compacta_CBS268.75_T,DRR205363.67272,87.85,107,10,3,306,411,1,105,2e-27,122
Veronaea_compacta_CBS268.75_T,DRR205363.16127,85.85,106,12,3,306,410,5,108,2e-23,110
Veronaea_compacta_CBS268.75_T,DRR205363.52733,85.71,105,12,3,306,410,2,103,7e-23,108
Capronia_pilosella_AFTOL-ID657,DRR205363.67272,89.62,106,10,1,384,489,1,105,1e-30,134
Capronia_pilosella_AFTOL-ID657,DRR205363.67272,100.00,41,0,0,642,682,235,275,2e-13,76.8
Capronia_pilosella_AFTOL-ID657,DRR205363.16127,87.62,105,12,1,384,488,5,108,1e-26,121
Capronia_pilosella_AFTOL-ID657,DRR205363.16127,100.00,39,0,0,645,683,243,281,3e-12,73.1
Capronia_pilosella_AFTOL-ID657,DRR205363.52733,86.67,105,11,3,384,488,2,103,2e-24,113
Capronia_dactylotricha_DAOM208471_T,DRR205363.67272,86.24,109,12,2,286,394,1,106,4e-25,115
Capronia_dactylotricha_DAOM208471_T,DRR205363.16127,87.13,101,10,2,286,386,5,102,6e-24,111
Capronia_dactylotricha_DAOM208471_T,DRR205363.16127,98.28,58,1,0,560,617,243,300,3e-21,102
Capronia_dactylotricha_DAOM208471_T,DRR205363.52733,96.72,61,2,0,558,618,357,297,3e-21,102
Capronia_dactylotricha_DAOM208471_T,DRR205363.52733,86.81,91,10,1,286,376,2,90,1e-20,100
Capronia_dactylotricha_DAOM208471_T,DRR205363.26184,96.72,61,2,0,558,618,361,301,3e-21,102
Capronia_dactylotricha_DAOM208471_T,DRR205363.46064,96.67,60,2,0,561,620,361,302,1e-20,100
Capronia_dactylotricha_DAOM208471_T,DRR205363.46064,100.00,48,0,0,561,608,253,300,3e-17,89.8
Capronia_dactylotricha_DAOM208471_T,DRR205363.35750,93.22,59,4,0,561,619,362,304,1e-16,87.9
Capronia_kleinmondensis_CBS122671_T,DRR205363.67272,85.05,107,14,2,311,417,1,105,7e-23,108
Capronia_kleinmondensis_CBS122671_T,DRR205363.26184,95.45,66,3,0,559,624,366,301,3e-22,106
Capronia_kleinmondensis_CBS122671_T,DRR205363.16127,86.00,100,12,2,311,410,5,102,3e-22,106
Capronia_kleinmondensis_CBS122671_T,DRR205363.16127,98.28,58,1,0,566,623,243,300,3e-21,102
Capronia_kleinmondensis_CBS122671_T,DRR205363.52733,96.72,61,2,0,564,624,357,297,3e-21,102
Capronia_kleinmondensis_CBS122671_T,DRR205363.52733,85.56,90,12,1,311,400,2,90,2e-18,93.5
Capronia_kleinmondensis_CBS122671_T,DRR205363.46064,92.86,70,4,1,558,626,371,302,1e-20,100
Capronia_kleinmondensis_CBS122671_T,DRR205363.46064,94.83,58,2,1,558,614,243,300,3e-17,89.8
Capronia_kleinmondensis_CBS122671_T,DRR205363.35750,93.22,59,4,0,567,625,362,304,1e-16,87.9
Capronia_mansonii_CBS101.67_T,DRR205363.67272,88.68,106,11,1,297,402,1,105,6e-29,128
Capronia_mansonii_CBS101.67_T,DRR205363.67272,92.59,81,5,1,549,629,218,297,4e-25,115
Capronia_mansonii_CBS101.67_T,DRR205363.16127,88.57,105,11,1,297,401,5,108,2e-28,126
Capronia_mansonii_CBS101.67_T,DRR205363.16127,100.00,58,0,0,570,627,243,300,7e-23,108
Capronia_mansonii_CBS101.67_T,DRR205363.52733,86.67,105,11,3,297,401,2,103,2e-24,113
Capronia_mansonii_CBS101.67_T,DRR205363.52733,98.39,62,1,0,567,628,358,297,2e-23,110
Capronia_mansonii_CBS101.67_T,DRR205363.26184,95.08,61,3,0,568,628,361,301,2e-19,97.1
Capronia_mansonii_CBS101.67_T,DRR205363.35750,94.92,59,3,0,571,629,362,304,2e-18,93.5
Capronia_mansonii_CBS101.67_T,DRR205363.65309,90.32,62,6,0,567,628,364,303,5e-15,82.4
Capronia_munkii_DAOM216390_T,DRR205363.67272,88.68,106,11,1,297,402,1,105,6e-29,128
Capronia_munkii_DAOM216390_T,DRR205363.67272,92.59,81,5,1,549,629,218,297,4e-25,115
Capronia_munkii_DAOM216390_T,DRR205363.16127,88.57,105,11,1,297,401,5,108,2e-28,126
Capronia_munkii_DAOM216390_T,DRR205363.16127,97.01,67,1,1,562,627,234,300,6e-24,111
Capronia_munkii_DAOM216390_T,DRR205363.52733,86.67,105,11,3,297,401,2,103,2e-24,113
Capronia_munkii_DAOM216390_T,DRR205363.52733,92.59,81,3,3,549,628,375,297,2e-24,113
Capronia_munkii_DAOM216390_T,DRR205363.26184,93.94,66,3,1,563,628,365,301,4e-20,99.0
Capronia_munkii_DAOM216390_T,DRR205363.35750,94.92,59,3,0,571,629,362,304,2e-18,93.5
Capronia_munkii_DAOM216390_T,DRR205363.65309,90.32,62,6,0,567,628,364,303,5e-15,82.4
Capronia_coronata_ATCC56201_T,DRR205363.67272,89.62,106,10,1,285,390,1,105,1e-30,134
Capronia_coronata_ATCC56201_T,DRR205363.67272,98.41,63,1,0,538,600,235,297,5e-24,111
Capronia_coronata_ATCC56201_T,DRR205363.16127,87.62,105,12,1,285,389,5,108,9e-27,121
Capronia_coronata_ATCC56201_T,DRR205363.16127,100.00,58,0,0,541,598,243,300,7e-23,108
Capronia_coronata_ATCC56201_T,DRR205363.52733,98.44,64,1,0,536,599,360,297,2e-24,113
Capronia_coronata_ATCC56201_T,DRR205363.52733,85.71,105,12,3,285,389,2,103,7e-23,108
Capronia_coronata_ATCC56201_T,DRR205363.52733,96.88,64,2,0,536,599,225,288,7e-23,108
Capronia_coronata_ATCC56201_T,DRR205363.26184,93.94,66,4,0,534,599,366,301,1e-20,100
Capronia_coronata_ATCC56201_T,DRR205363.35750,94.92,59,3,0,542,600,362,304,2e-18,93.5
Capronia_coronata_ATCC56201_T,DRR205363.65309,90.32,62,6,0,538,599,364,303,4e-15,82.4
Capronia_parasitica_CBS123.88,DRR205363.67272,85.19,108,13,3,291,398,1,105,7e-23,108
Capronia_parasitica_CBS123.88,DRR205363.16127,87.06,85,10,1,291,375,5,88,5e-19,95.3
Capronia_parasitica_CBS123.88,DRR205363.52733,83.18,107,13,5,291,397,2,103,2e-18,93.5
Capronia_parasitica_CBS123.88,DRR205363.46064,100.00,33,0,0,563,595,253,285,5e-09,62.1
Capronia_parasitica_CBS123.88,DRR205363.46064,100.00,33,0,0,563,595,361,329,5e-09,62.1
Capronia_parasitica_CBS123.88,DRR205363.26184,94.44,36,2,0,560,595,361,326,2e-07,56.5
Veronaea_japonica_CBS776.83_T,DRR205363.67272,89.62,106,9,2,319,423,1,105,1e-30,134
Veronaea_japonica_CBS776.83_T,DRR205363.16127,87.62,105,11,2,319,422,5,108,9e-27,121
Veronaea_japonica_CBS776.83_T,DRR205363.52733,87.50,104,11,2,319,422,2,103,3e-26,119
Thysanorea_papuana_CBS212.96_T,DRR205363.67272,88.68,106,10,2,293,397,1,105,5e-29,128
Thysanorea_papuana_CBS212.96_T,DRR205363.16127,88.57,105,10,2,293,396,5,108,2e-28,126
Thysanorea_papuana_CBS212.96_T,DRR205363.52733,86.54,104,12,2,293,396,2,103,1e-24,113
Capronia_acutiseta_ATCC56428_T,DRR205363.67272,87.85,107,11,2,286,392,1,105,7e-28,124
Capronia_acutiseta_ATCC56428_T,DRR205363.16127,87.74,106,11,2,286,391,5,108,3e-27,122
Capronia_acutiseta_ATCC56428_T,DRR205363.16127,95.45,66,3,0,532,597,235,300,3e-22,106
Capronia_acutiseta_ATCC56428_T,DRR205363.52733,96.88,64,2,0,535,598,360,297,7e-23,108
Capronia_acutiseta_ATCC56428_T,DRR205363.52733,83.96,106,13,4,286,391,2,103,4e-20,99.0
Capronia_acutiseta_ATCC56428_T,DRR205363.46064,93.24,74,4,1,527,600,374,302,7e-23,108
Capronia_acutiseta_ATCC56428_T,DRR205363.46064,95.16,62,2,1,527,588,240,300,2e-19,97.1
Capronia_acutiseta_ATCC56428_T,DRR205363.26184,93.06,72,2,2,527,598,369,301,3e-21,102
Capronia_acutiseta_ATCC56428_T,DRR205363.35750,93.22,59,4,0,541,599,362,304,9e-17,87.9
Fonsecaea_brasiliensis_CBS119710_T,DRR205363.67272,87.85,107,10,3,293,398,1,105,2e-27,122
Fonsecaea_brasiliensis_CBS119710_T,DRR205363.16127,86.79,106,11,3,293,397,5,108,4e-25,115
Fonsecaea_brasiliensis_CBS119710_T,DRR205363.52733,85.71,105,12,3,293,397,2,103,6e-23,108
Fonsecaea_pedrosoi_CBS271.37_T,DRR205363.67272,87.85,107,11,2,321,427,1,105,7e-28,124
Fonsecaea_pedrosoi_CBS271.37_T,DRR205363.67272,96.77,62,2,0,584,645,235,296,9e-22,104
Fonsecaea_pedrosoi_CBS271.37_T,DRR205363.16127,85.85,106,13,2,321,426,5,108,6e-24,111
Fonsecaea_pedrosoi_CBS271.37_T,DRR205363.16127,98.28,58,1,0,587,644,243,300,3e-21,102
Fonsecaea_pedrosoi_CBS271.37_T,DRR205363.52733,85.85,106,11,4,321,426,2,103,2e-23,110
Fonsecaea_pedrosoi_CBS271.37_T,DRR205363.52733,96.77,62,2,0,584,645,358,297,9e-22,104
Fonsecaea_pedrosoi_CBS271.37_T,DRR205363.26184,93.44,61,4,0,585,645,361,301,7e-18,91.6
Fonsecaea_pedrosoi_CBS271.37_T,DRR205363.35750,93.10,58,4,0,588,645,362,305,3e-16,86.1
Fonsecaea_multimorphosa_CBS980.96_T,DRR205363.67272,86.92,107,11,3,291,396,1,105,1e-25,117
Fonsecaea_multimorphosa_CBS980.96_T,DRR205363.16127,86.79,106,11,3,291,395,5,108,4e-25,115
Fonsecaea_multimorphosa_CBS980.96_T,DRR205363.52733,84.76,105,13,3,291,395,2,103,3e-21,102
Fonsecaea_minima_CBS125760_T,DRR205363.67272,87.85,107,10,3,287,392,1,105,2e-27,122
Fonsecaea_minima_CBS125760_T,DRR205363.16127,86.79,106,11,3,287,391,5,108,4e-25,115
Fonsecaea_minima_CBS125760_T,DRR205363.52733,85.71,105,12,3,287,391,2,103,6e-23,108
Fonsecaea_nubica_CBS269.64_T,DRR205363.67272,87.85,107,11,2,298,404,1,105,6e-28,124
Fonsecaea_nubica_CBS269.64_T,DRR205363.16127,85.85,106,13,2,298,403,5,108,5e-24,111
Fonsecaea_nubica_CBS269.64_T,DRR205363.52733,85.85,106,11,4,298,403,2,103,2e-23,110
Fonsecaea_monophora_CBS269.37_T,DRR205363.67272,87.85,107,11,2,299,405,1,105,6e-28,124
Fonsecaea_monophora_CBS269.37_T,DRR205363.16127,85.85,106,13,2,299,404,5,108,5e-24,111
Fonsecaea_monophora_CBS269.37_T,DRR205363.52733,85.85,106,11,4,299,404,2,103,2e-23,110
Fonsecaea_erecta_CBS125763_T,DRR205363.67272,88.68,106,11,1,282,387,1,105,5e-29,128
Fonsecaea_erecta_CBS125763_T,DRR205363.16127,88.57,105,11,1,282,386,5,108,2e-28,126
Fonsecaea_erecta_CBS125763_T,DRR205363.52733,85.71,105,12,3,282,386,2,103,6e-23,108
Fonsecaea_pugnacius_CBS139214_T,DRR205363.67272,87.96,108,10,3,291,398,1,105,6e-28,124
Fonsecaea_pugnacius_CBS139214_T,DRR205363.16127,85.98,107,12,3,291,397,5,108,5e-24,111
Fonsecaea_pugnacius_CBS139214_T,DRR205363.52733,85.05,107,11,5,291,397,2,103,8e-22,104
Cladophialophora_psammophila_CBS,DRR205363.67272,88.68,106,11,1,297,402,1,105,5e-29,128
Cladophialophora_psammophila_CBS,DRR205363.16127,88.57,105,11,1,297,401,5,108,2e-28,126
Cladophialophora_psammophila_CBS,DRR205363.52733,85.71,105,12,3,297,401,2,103,6e-23,108
Cladophialophora_devriesii_CBS,DRR205363.67272,86.92,107,11,3,293,398,1,105,1e-25,117
Cladophialophora_devriesii_CBS,DRR205363.16127,86.79,106,11,3,293,397,5,108,4e-25,115
Cladophialophora_devriesii_CBS,DRR205363.52733,84.76,105,13,3,293,397,2,103,3e-21,102
Cladophialophora_immunda_CBS834.96,DRR205363.67272,87.85,107,10,3,295,400,1,105,2e-27,122
Cladophialophora_immunda_CBS834.96,DRR205363.16127,86.79,106,11,3,295,399,5,108,4e-25,115
Cladophialophora_immunda_CBS834.96,DRR205363.52733,85.71,105,12,3,295,399,2,103,6e-23,108
Cladophialophora_arxii_CBS306.94_T,DRR205363.67272,87.04,108,11,2,297,404,1,105,3e-26,119
Cladophialophora_arxii_CBS306.94_T,DRR205363.16127,85.05,107,13,2,297,403,5,108,2e-22,106
Cladophialophora_arxii_CBS306.94_T,DRR205363.52733,85.05,107,11,4,297,403,2,103,8e-22,104
Cladophialophora_bantiana_CBS173.52,DRR205363.67272,88.68,106,11,1,291,396,1,105,5e-29,128
Cladophialophora_bantiana_CBS173.52,DRR205363.16127,88.57,105,11,1,291,395,5,108,2e-28,126
Cladophialophora_bantiana_CBS173.52,DRR205363.52733,85.71,105,12,3,291,395,2,103,6e-23,108
Cladophialophora_emmonsii_CBS102594,DRR205363.67272,88.79,107,10,2,282,388,1,105,1e-29,130
Cladophialophora_emmonsii_CBS102594,DRR205363.16127,86.79,106,12,2,282,387,5,108,1e-25,117
Cladophialophora_emmonsii_CBS102594,DRR205363.52733,85.85,106,11,4,282,387,2,103,2e-23,110
Cladophialophora_minourae_CBS556.83,DRR205363.67272,84.26,108,13,4,290,396,1,105,8e-22,104
Cladophialophora_minourae_CBS556.83,DRR205363.16127,83.18,107,14,4,290,395,5,108,1e-19,97.1
Cladophialophora_minourae_CBS556.83,DRR205363.52733,83.02,106,14,4,290,395,2,103,2e-18,93.5
Cladophialophora_australiensis_CBS112793,DRR205363.67272,87.74,106,11,2,292,396,1,105,6e-27,122
Cladophialophora_australiensis_CBS112793,DRR205363.67272,96.83,63,2,0,545,607,235,297,6e-22,106
Cladophialophora_australiensis_CBS112793,DRR205363.16127,86.67,105,12,2,292,395,5,108,1e-24,115
Cladophialophora_australiensis_CBS112793,DRR205363.16127,95.45,66,2,1,541,605,235,300,2e-21,104
Cladophialophora_australiensis_CBS112793,DRR205363.52733,85.58,104,13,2,292,395,2,103,2e-22,108
Cladophialophora_australiensis_CBS112793,DRR205363.52733,96.77,62,2,0,545,606,358,297,2e-21,104
Cladophialophora_australiensis_CBS112793,DRR205363.26184,92.54,67,4,1,540,606,366,301,1e-18,95.3
Cladophialophora_australiensis_CBS112793,DRR205363.35750,93.22,59,4,0,549,607,362,304,2e-16,87.9
Cladophialophora_potulentorum_CBS112222,DRR205363.67272,86.79,106,12,2,291,395,1,105,3e-25,117
Cladophialophora_potulentorum_CBS112222,DRR205363.67272,93.15,73,4,1,537,609,226,297,6e-22,106
Cladophialophora_potulentorum_CBS112222,DRR205363.16127,85.71,105,13,2,291,394,5,108,5e-23,110
Cladophialophora_potulentorum_CBS112222,DRR205363.16127,98.28,58,1,0,550,607,243,300,8e-21,102
Cladophialophora_potulentorum_CBS112222,DRR205363.52733,96.83,63,2,0,546,608,359,297,6e-22,106
Cladophialophora_potulentorum_CBS112222,DRR205363.52733,84.62,104,14,2,291,394,2,103,8e-21,102
Cladophialophora_potulentorum_CBS112222,DRR205363.26184,93.44,61,4,0,548,608,361,301,2e-17,91.6
Cladophialophora_potulentorum_CBS112222,DRR205363.35750,93.22,59,4,0,551,609,362,304,2e-16,87.9
Cladophialophora_matsushimae_CMRP1198,DRR205363.67272,87.74,106,11,2,295,399,1,105,2e-27,122
Cladophialophora_matsushimae_CMRP1198,DRR205363.16127,86.67,105,12,2,295,398,5,108,3e-25,115
Cladophialophora_matsushimae_CMRP1198,DRR205363.52733,85.58,104,13,2,295,398,2,103,5e-23,108
Cladophialophora_mycetomatis_CBS122637,DRR205363.67272,86.79,106,12,2,280,384,1,105,1e-25,117
Cladophialophora_mycetomatis_CBS122637,DRR205363.16127,86.67,105,12,2,280,383,5,108,4e-25,115
Cladophialophora_mycetomatis_CBS122637,DRR205363.52733,84.62,104,14,2,280,383,2,103,3e-21,102
Cladophialophora_chaetospira_CBS127573,DRR205363.67272,87.74,106,11,2,686,790,1,105,4e-27,122
Cladophialophora_chaetospira_CBS127573,DRR205363.16127,87.62,105,11,2,686,789,5,108,1e-26,121
Cladophialophora_chaetospira_CBS127573,DRR205363.52733,85.58,104,13,2,686,789,2,103,1e-22,108
Cladophialophora_boppii_CBS126.86_T,DRR205363.67272,86.79,106,12,2,288,392,1,105,1e-25,117
Cladophialophora_boppii_CBS126.86_T,DRR205363.16127,84.43,122,14,4,288,408,5,122,4e-25,115
Cladophialophora_boppii_CBS126.86_T,DRR205363.52733,85.58,104,13,2,288,391,2,103,6e-23,108
Cladophialophora_abundans_CBS126736,DRR205363.67272,88.68,106,10,2,225,329,1,105,4e-29,128
Cladophialophora_abundans_CBS126736,DRR205363.16127,88.57,105,10,2,225,328,5,108,1e-28,126
Cladophialophora_abundans_CBS126736,DRR205363.52733,86.54,104,12,2,225,328,2,103,1e-24,113
Capronia_semi-immersa_CBS102234,DRR205363.67272,86.79,106,12,2,287,391,1,105,1e-25,117
Capronia_semi-immersa_CBS102234,DRR205363.16127,85.71,105,13,2,287,390,5,108,2e-23,110
Capronia_semi-immersa_CBS102234,DRR205363.52733,84.62,104,14,2,287,390,2,103,3e-21,102
Phialophora_americana_CBS400.67,DRR205363.67272,86.79,106,12,2,289,393,1,105,3e-25,117
Phialophora_americana_CBS400.67,DRR205363.67272,95.24,63,3,0,539,601,235,297,3e-20,100
Phialophora_americana_CBS400.67,DRR205363.16127,85.71,105,13,2,289,392,5,108,5e-23,110
Phialophora_americana_CBS400.67,DRR205363.52733,84.62,104,14,2,289,392,2,103,8e-21,102
Phialophora_americana_CBS400.67,DRR205363.52733,95.31,64,3,0,537,600,360,297,8e-21,102
Phialophora_americana_CBS400.67,DRR205363.52733,93.75,64,4,0,537,600,225,288,4e-19,97.1
Phialophora_verrucosa_CBS140325_T,DRR205363.67272,86.79,106,12,2,293,397,1,105,1e-25,117
Phialophora_verrucosa_CBS140325_T,DRR205363.67272,97.56,41,1,0,545,585,235,275,9e-12,71.3
Phialophora_verrucosa_CBS140325_T,DRR205363.16127,85.71,105,13,2,293,396,5,108,2e-23,110
Phialophora_verrucosa_CBS140325_T,DRR205363.52733,84.62,104,14,2,293,396,2,103,3e-21,102
Phialophora_verrucosa_CBS140325_T,DRR205363.52733,95.45,44,2,0,543,586,225,268,9e-12,71.3
Phialophora_verrucosa_CBS140325_T,DRR205363.52733,95.45,44,2,0,543,586,360,317,9e-12,71.3
Cladophialophora_samoensis_CBS259.83_T,DRR205363.67272,89.72,107,9,2,293,398,1,106,3e-31,135
Cladophialophora_samoensis_CBS259.83_T,DRR205363.16127,88.57,105,10,2,293,396,5,108,2e-28,126
Cladophialophora_samoensis_CBS259.83_T,DRR205363.52733,87.50,104,11,2,293,396,2,103,3e-26,119
Cladophialophora_carrionii_CBS260.83,DRR205363.67272,86.79,106,12,2,309,413,1,105,1e-25,117
Cladophialophora_carrionii_CBS260.83,DRR205363.67272,96.08,51,2,0,558,608,235,285,1e-15,84.2
Cladophialophora_carrionii_CBS260.83,DRR205363.16127,86.67,105,12,2,309,412,5,108,4e-25,115
Cladophialophora_carrionii_CBS260.83,DRR205363.52733,84.62,104,14,2,309,412,2,103,3e-21,102
Cladophialophora_carrionii_CBS260.83,DRR205363.52733,96.23,53,2,0,556,608,225,277,9e-17,87.9
Cladophialophora_carrionii_CBS260.83,DRR205363.52733,96.23,53,2,0,556,608,360,308,9e-17,87.9
Exophiala_palmae_UPCB86822_T,DRR205363.67272,88.68,106,11,1,252,357,1,105,4e-29,128
Exophiala_palmae_UPCB86822_T,DRR205363.16127,86.67,105,13,1,252,356,5,108,3e-25,115
Exophiala_palmae_UPCB86822_T,DRR205363.52733,85.71,105,12,3,252,356,2,103,6e-23,108
Cladophialophora_yegresii_CBS114405_T,DRR205363.67272,87.74,106,11,2,294,398,1,105,2e-27,122
Cladophialophora_yegresii_CBS114405_T,DRR205363.16127,86.67,105,12,2,294,397,5,108,4e-25,115
Cladophialophora_yegresii_CBS114405_T,DRR205363.52733,85.58,104,13,2,294,397,2,103,6e-23,108
Knufia_epidermidis_CBS120353_T,DRR205363.16127,89.52,105,9,2,292,395,5,108,4e-30,132
Knufia_epidermidis_CBS120353_T,DRR205363.67272,88.68,106,10,2,292,396,1,105,5e-29,128
Knufia_epidermidis_CBS120353_T,DRR205363.52733,86.54,104,12,2,292,395,2,103,1e-24,113
Arthrocladium_fulminans_CBS136243_T,DRR205363.67272,85.05,107,14,2,287,393,1,105,6e-23,108
Arthrocladium_fulminans_CBS136243_T,DRR205363.67272,100.00,28,0,0,533,560,236,263,3e-06,52.8
Arthrocladium_fulminans_CBS136243_T,DRR205363.16127,84.91,106,14,2,287,392,5,108,2e-22,106
Arthrocladium_fulminans_CBS136243_T,DRR205363.52733,82.08,106,15,4,287,392,2,103,8e-17,87.9
Cyphellophora_laciniata_CBS190.61_T,DRR205363.67272,87.72,114,10,2,379,489,1,113,2e-29,130
Cyphellophora_laciniata_CBS190.61_T,DRR205363.67272,98.41,63,1,0,634,696,235,297,6e-24,111
Cyphellophora_laciniata_CBS190.61_T,DRR205363.52733,88.46,104,8,3,379,480,2,103,3e-27,122
Cyphellophora_laciniata_CBS190.61_T,DRR205363.52733,98.41,63,1,0,633,695,359,297,6e-24,111
Cyphellophora_laciniata_CBS190.61_T,DRR205363.16127,91.01,89,7,1,379,467,5,92,4e-26,119
Cyphellophora_laciniata_CBS190.61_T,DRR205363.16127,100.00,58,0,0,637,694,243,300,8e-23,108
Cyphellophora_laciniata_CBS190.61_T,DRR205363.26184,95.08,61,3,0,635,695,361,301,2e-19,97.1
Cyphellophora_laciniata_CBS190.61_T,DRR205363.35750,94.92,59,3,0,638,696,362,304,2e-18,93.5
Cyphellophora_laciniata_CBS190.61_T,DRR205363.65309,90.32,62,6,0,634,695,364,303,5e-15,82.4
Cyphellophora_suttonii_CBS449.91,DRR205363.67272,88.68,106,8,2,282,384,1,105,2e-28,126
Cyphellophora_suttonii_CBS449.91,DRR205363.52733,88.46,104,8,3,282,383,2,103,2e-27,122
Cyphellophora_suttonii_CBS449.91,DRR205363.16127,91.01,89,7,1,282,370,5,92,3e-26,119
Cyphellophora_pauciseptata_CBS284.85_T,DRR205363.67272,87.72,114,10,2,293,403,1,113,1e-29,130
Cyphellophora_pauciseptata_CBS284.85_T,DRR205363.52733,88.46,104,8,3,293,394,2,103,2e-27,122
Cyphellophora_pauciseptata_CBS284.85_T,DRR205363.16127,91.01,89,7,1,293,381,5,92,3e-26,119
Cyphellophora_pluriseptata_CBS286.85_T,DRR205363.67272,88.68,106,8,2,298,400,1,105,2e-28,126
Cyphellophora_pluriseptata_CBS286.85_T,DRR205363.52733,88.46,104,8,3,298,399,2,103,2e-27,122
Cyphellophora_pluriseptata_CBS286.85_T,DRR205363.16127,91.01,89,7,1,298,386,5,92,3e-26,119
Phialophora_europaea_CBS101466,DRR205363.67272,88.57,105,8,3,288,389,1,104,6e-28,124
Phialophora_europaea_CBS101466,DRR205363.52733,88.46,104,8,3,288,389,2,103,2e-27,122
Phialophora_europaea_CBS101466,DRR205363.16127,91.01,89,7,1,288,376,5,92,3e-26,119
Phialophora_ambigua_CBS235.93,DRR205363.67272,88.68,106,8,2,285,387,1,105,2e-28,126
Phialophora_ambigua_CBS235.93,DRR205363.52733,88.46,104,8,3,285,386,2,103,2e-27,122
Phialophora_ambigua_CBS235.93,DRR205363.16127,91.01,89,7,1,285,373,5,92,3e-26,119
Cladophialophora_modesta_CBS985.96_T,DRR205363.67272,87.27,110,10,3,284,390,1,109,2e-27,122
Cladophialophora_modesta_CBS985.96_T,DRR205363.16127,87.62,105,10,3,284,386,5,108,3e-26,119
Cladophialophora_modesta_CBS985.96_T,DRR205363.16127,95.45,66,2,1,514,578,235,300,9e-22,104
Cladophialophora_modesta_CBS985.96_T,DRR205363.52733,86.54,104,11,3,284,386,2,103,5e-24,111
Cladophialophora_modesta_CBS985.96_T,DRR205363.52733,96.77,62,2,0,518,579,358,297,9e-22,104
Cladophialophora_modesta_CBS985.96_T,DRR205363.35750,96.61,59,2,0,522,580,362,304,4e-20,99.0
Cladophialophora_modesta_CBS985.96_T,DRR205363.26184,92.54,67,4,1,513,579,366,301,5e-19,95.3
