Exophiala_pisciphila_CBS537.73_T,DRR220868.41054,95.83,72,2,1,543,614,226,296,3e-25,115
Exophiala_pisciphila_CBS537.73_T,DRR220868.41054,95.83,72,2,1,543,614,367,297,3e-25,115
Exophiala_salmonis_CBS157.67_T,DRR220868.41054,95.83,72,2,1,663,734,226,296,4e-25,115
Exophiala_salmonis_CBS157.67_T,DRR220868.41054,95.83,72,2,1,663,734,367,297,4e-25,115
Exophiala_cancerae_CBS120420_T,DRR220868.41054,95.59,68,3,0,557,624,228,295,1e-23,110
Exophiala_cancerae_CBS120420_T,DRR220868.41054,95.59,68,3,0,557,624,365,298,1e-23,110
Exophiala_tremulae_CBS129355,DRR220868.41054,95.00,60,2,1,569,628,226,284,1e-18,93.5
Exophiala_tremulae_CBS129355,DRR220868.41054,95.00,60,2,1,569,628,367,309,1e-18,93.5
Rhinocladiella_atrovirens_CBS264.49,DRR220868.41054,96.43,56,1,1,571,626,229,283,5e-18,91.6
Rhinocladiella_atrovirens_CBS264.49,DRR220868.41054,96.43,56,1,1,571,626,364,310,5e-18,91.6
Rhinocladiella_mackenziei_CBS367.92,DRR220868.41054,97.67,43,1,0,566,608,236,278,5e-13,75.0
Rhinocladiella_mackenziei_CBS367.92,DRR220868.41054,97.67,43,1,0,566,608,357,315,5e-13,75.0
Capronia_dactylotricha_DAOM208471_T,DRR220868.41054,98.39,62,1,0,558,619,235,296,1e-23,110
Capronia_dactylotricha_DAOM208471_T,DRR220868.41054,98.39,62,1,0,558,619,358,297,1e-23,110
Capronia_kleinmondensis_CBS122671_T,DRR220868.41054,97.18,71,2,0,555,625,226,296,7e-27,121
Capronia_kleinmondensis_CBS122671_T,DRR220868.41054,97.18,71,2,0,555,625,367,297,7e-27,121
Capronia_parasitica_CBS123.88,DRR220868.41054,95.35,43,2,0,553,595,228,270,2e-11,69.4
Capronia_parasitica_CBS123.88,DRR220868.41054,95.35,43,2,0,553,595,365,323,2e-11,69.4
Capronia_acutiseta_ATCC56428_T,DRR220868.41054,95.77,71,2,1,529,599,227,296,1e-24,113
Capronia_acutiseta_ATCC56428_T,DRR220868.41054,95.77,71,2,1,529,599,366,297,1e-24,113
