Exophiala_nigra_CBS535.94_T,DRR126766.83706,89.66,87,8,1,287,373,1,86,2e-23,110
Exophiala_spinifera_CBS899.68_T,DRR126766.83706,87.50,104,10,3,284,387,1,101,1e-25,117
Exophiala_exophialae_CBS668.76_T,DRR126766.83706,87.50,104,10,3,285,388,1,101,1e-25,117
Exophiala_polymorpha_CBS138920_T,DRR126766.83706,87.50,104,10,3,387,490,1,101,2e-25,117
Exophiala_polymorpha_CBS138920_T,DRR126766.83706,96.00,50,2,0,645,694,231,280,6e-15,82.4
Exophiala_oligosperma_CBS725.88_T,DRR126766.83706,87.50,104,10,3,297,400,1,101,1e-25,117
Exophiala_jeanselmei_CBS507.90_T,DRR126766.83706,85.59,118,12,4,289,406,1,113,4e-26,119
Exophiala_jeanselmei_CBS507.90_T,DRR126766.83706,92.54,67,5,0,537,603,221,287,2e-19,97.1
Exophiala_bergeri_CBS353.52,DRR126766.83706,89.66,87,8,1,250,336,1,86,2e-23,110
Exophiala_moniliae_CBS520.76_T,DRR126766.83706,93.15,73,5,0,287,359,1,73,8e-23,108
Exophiala_pisciphila_CBS537.73_T,DRR126766.83706,86.54,104,11,3,290,393,1,101,7e-24,111
Exophiala_pisciphila_CBS537.73_T,DRR126766.83706,98.25,57,1,0,556,612,231,287,1e-20,100
Exophiala_xenobiotica_CBS117642,DRR126766.83706,87.50,104,10,3,282,385,1,101,1e-25,117
Exophiala_brunnea_CBS,DRR126766.83706,85.58,104,12,3,318,421,1,101,3e-22,106
Exophiala_brunnea_CBS,DRR126766.83706,95.74,47,2,0,587,633,231,277,7e-14,78.7
Exophiala_nishimurae_CBS101538_T,DRR126766.83706,87.50,104,10,3,296,399,1,101,1e-25,117
Exophiala_mesophila_CBS402.95_T,DRR126766.83706,91.78,73,6,0,280,352,1,73,4e-21,102
Exophiala_mesophila_CBS402.95_T,DRR126766.83706,96.49,57,2,0,553,609,231,287,7e-19,95.3
Exophiala_castellanii_CBS158.58_T,DRR126766.83706,91.78,73,6,0,278,350,1,73,4e-21,102
Exophiala_castellanii_CBS158.58_T,DRR126766.83706,96.49,57,2,0,552,608,231,287,7e-19,95.3
Exophiala_lecanii-corni_CBS123.33_T,DRR126766.83706,88.51,87,9,1,301,387,1,86,1e-21,104
Exophiala_dermatitidis_CBS748.88,DRR126766.83706,93.15,73,5,0,293,365,1,73,2e-22,108
Exophiala_dermatitidis_CBS748.88,DRR126766.83706,96.49,57,2,0,578,634,231,287,2e-18,95.3
Exophiala_angulospora_CBS482.92_T,DRR126766.83706,93.15,73,5,0,284,356,1,73,7e-23,108
Exophiala_opportunistica_CBS109811_T,DRR126766.83706,87.50,104,10,3,283,386,1,101,1e-25,117
Exophiala_salmonis_CBS157.67_T,DRR126766.83706,86.54,104,11,3,412,515,1,101,8e-24,111
Exophiala_salmonis_CBS157.67_T,DRR126766.83706,98.25,57,1,0,676,732,231,287,2e-20,100
Exophiala_aquamarina_CBS119918_T,DRR126766.83706,86.67,105,10,3,290,394,1,101,2e-24,113
Exophiala_cancerae_CBS120420_T,DRR126766.83706,87.50,104,10,3,305,408,1,101,1e-25,117
Exophiala_cancerae_CBS120420_T,DRR126766.83706,98.25,57,1,0,567,623,231,287,1e-20,100
Exophiala_tremulae_CBS129355,DRR126766.83706,87.50,104,10,3,317,420,1,101,1e-25,117
Exophiala_tremulae_CBS129355,DRR126766.83706,97.87,47,1,0,582,628,231,277,5e-15,82.4
Exophiala_equina_CBS116009,DRR126766.83706,87.50,104,10,3,283,386,1,101,1e-25,117
Exophiala_alcalophila_CBS520.82_T,DRR126766.83706,93.15,73,5,0,294,366,1,73,8e-23,108
Exophiala_crusticola_CBS119970_T,DRR126766.83706,93.15,73,5,0,299,371,1,73,7e-23,108
Rhinocladiella_atrovirens_CBS264.49,DRR126766.83706,88.51,87,9,1,325,411,1,86,1e-21,104
Rhinocladiella_basitona_CBS101460_T,DRR126766.83706,87.50,104,10,3,284,387,1,101,1e-25,117
Rhinocladiella_phaeophora_CBS496.78_T,DRR126766.83706,93.15,73,5,0,292,364,1,73,8e-23,108
Rhinocladiella_aquaspersa_CBS313.73_T,DRR126766.83706,93.15,73,5,0,286,358,1,73,9e-23,108
Rhinocladiella_aquaspersa_CBS313.73_T,DRR126766.83706,92.98,57,1,3,551,604,231,287,2e-14,80.5
Rhinocladiella_fasciculata_CBS132.86_T,DRR126766.83706,91.78,73,6,0,302,374,1,73,4e-21,102
Rhinocladiella_anceps_CBS181.65_T,DRR126766.83706,85.71,105,11,3,284,388,1,101,7e-23,108
Rhinocladiella_mackenziei_CBS367.92,DRR126766.83706,89.53,86,8,1,273,358,1,85,8e-23,108
Veronaea_compacta_CBS268.75_T,DRR126766.83706,91.78,73,6,0,306,378,1,73,4e-21,102
Capronia_pilosella_AFTOL-ID657,DRR126766.83706,86.67,105,10,3,384,488,1,101,2e-24,113
Capronia_dactylotricha_DAOM208471_T,DRR126766.83706,89.77,88,7,2,286,373,1,86,7e-24,111
Capronia_dactylotricha_DAOM208471_T,DRR126766.83706,98.25,57,1,0,561,617,231,287,1e-20,100
Capronia_kleinmondensis_CBS122671_T,DRR126766.83706,88.51,87,9,1,311,397,1,86,1e-21,104
Capronia_kleinmondensis_CBS122671_T,DRR126766.83706,98.25,57,1,0,567,623,231,287,1e-20,100
Capronia_mansonii_CBS101.67_T,DRR126766.83706,86.67,105,10,3,297,401,1,101,2e-24,113
Capronia_mansonii_CBS101.67_T,DRR126766.83706,96.49,57,2,0,571,627,231,287,7e-19,95.3
Capronia_munkii_DAOM216390_T,DRR126766.83706,86.67,105,10,3,297,401,1,101,2e-24,113
Capronia_munkii_DAOM216390_T,DRR126766.83706,96.49,57,2,0,571,627,231,287,7e-19,95.3
Capronia_coronata_ATCC56201_T,DRR126766.83706,93.15,73,5,0,285,357,1,73,9e-23,108
Capronia_coronata_ATCC56201_T,DRR126766.83706,96.49,57,2,0,542,598,231,287,7e-19,95.3
Capronia_parasitica_CBS123.88,DRR126766.83706,93.15,73,5,0,291,363,1,73,8e-23,108
Veronaea_japonica_CBS776.83_T,DRR126766.83706,86.54,104,11,3,319,422,1,101,6e-24,111
Thysanorea_papuana_CBS212.96_T,DRR126766.83706,87.50,104,10,2,293,396,1,101,1e-25,117
Capronia_acutiseta_ATCC56428_T,DRR126766.83706,93.15,73,5,0,286,358,1,73,9e-23,108
Capronia_acutiseta_ATCC56428_T,DRR126766.83706,98.25,57,1,0,541,597,231,287,1e-20,100
Fonsecaea_brasiliensis_CBS119710_T,DRR126766.83706,86.67,105,10,2,293,397,1,101,2e-24,113
Fonsecaea_pedrosoi_CBS271.37_T,DRR126766.83706,85.85,106,10,3,321,426,1,101,9e-23,108
Fonsecaea_pedrosoi_CBS271.37_T,DRR126766.83706,94.74,57,3,0,588,644,231,287,3e-17,89.8
Fonsecaea_multimorphosa_CBS980.96_T,DRR126766.83706,87.62,105,9,3,291,395,1,101,3e-26,119
Fonsecaea_minima_CBS125760_T,DRR126766.83706,86.67,105,10,2,287,391,1,101,2e-24,113
Fonsecaea_nubica_CBS269.64_T,DRR126766.83706,85.85,106,10,3,298,403,1,101,8e-23,108
Fonsecaea_monophora_CBS269.37_T,DRR126766.83706,85.85,106,10,3,299,404,1,101,8e-23,108
Fonsecaea_erecta_CBS125763_T,DRR126766.83706,87.62,105,9,3,282,386,1,101,3e-26,119
Fonsecaea_pugnacius_CBS139214_T,DRR126766.83706,93.15,73,5,0,291,363,1,73,7e-23,108
Cladophialophora_psammophila_CBS,DRR126766.83706,87.62,105,9,3,297,401,1,101,3e-26,119
Cladophialophora_devriesii_CBS,DRR126766.83706,87.62,105,9,3,293,397,1,101,3e-26,119
Cladophialophora_immunda_CBS834.96,DRR126766.83706,86.67,105,10,2,295,399,1,101,2e-24,113
Cladophialophora_arxii_CBS306.94_T,DRR126766.83706,93.15,73,5,0,297,369,1,73,7e-23,108
Cladophialophora_bantiana_CBS173.52,DRR126766.83706,87.62,105,9,3,291,395,1,101,3e-26,119
Cladophialophora_emmonsii_CBS102594,DRR126766.83706,85.85,106,10,3,282,387,1,101,7e-23,108
Cladophialophora_minourae_CBS556.83,DRR126766.83706,85.85,106,10,4,290,395,1,101,2e-23,110
Cladophialophora_australiensis_CBS112793,DRR126766.83706,86.54,104,11,2,292,395,1,101,2e-23,111
Cladophialophora_australiensis_CBS112793,DRR126766.83706,94.74,57,3,0,549,605,231,287,7e-17,89.8
Cladophialophora_potulentorum_CBS112222,DRR126766.83706,85.58,104,12,2,291,394,1,101,7e-22,106
Cladophialophora_potulentorum_CBS112222,DRR126766.83706,90.28,72,6,1,536,607,217,287,6e-18,93.5
Cladophialophora_matsushimae_CMRP1198,DRR126766.83706,85.58,104,12,2,295,398,1,101,2e-22,106
Cladophialophora_mycetomatis_CBS122637,DRR126766.83706,86.54,104,11,2,280,383,1,101,6e-24,111
Cladophialophora_chaetospira_CBS127573,DRR126766.83706,87.50,104,10,2,686,789,1,101,2e-25,117
Cladophialophora_boppii_CBS126.86_T,DRR126766.83706,87.50,104,10,3,288,391,1,101,1e-25,117
Cladophialophora_abundans_CBS126736,DRR126766.83706,88.46,104,9,2,225,328,1,101,2e-27,122
Capronia_semi-immersa_CBS102234,DRR126766.83706,87.50,104,10,2,287,390,1,101,1e-25,117
Phialophora_americana_CBS400.67,DRR126766.83706,87.50,104,10,2,289,392,1,101,3e-25,117
Phialophora_verrucosa_CBS140325_T,DRR126766.83706,87.50,104,10,2,293,396,1,101,1e-25,117
Cladophialophora_samoensis_CBS259.83_T,DRR126766.83706,87.50,104,10,2,293,396,1,101,1e-25,117
Cladophialophora_carrionii_CBS260.83,DRR126766.83706,88.46,104,9,2,309,412,1,101,3e-27,122
Exophiala_palmae_UPCB86822_T,DRR126766.83706,93.15,73,5,0,252,324,1,73,7e-23,108
Cladophialophora_yegresii_CBS114405_T,DRR126766.83706,88.46,104,9,2,294,397,1,101,3e-27,122
Knufia_epidermidis_CBS120353_T,DRR126766.83706,91.78,73,6,0,292,364,1,73,3e-21,102
Arthrocladium_fulminans_CBS136243_T,DRR126766.83706,93.24,74,3,2,287,359,1,73,7e-23,108
Cyphellophora_laciniata_CBS190.61_T,DRR126766.83706,87.25,102,12,1,379,480,1,101,6e-25,115
Cyphellophora_laciniata_CBS190.61_T,DRR126766.83706,96.49,57,2,0,638,694,231,287,8e-19,95.3
Cyphellophora_suttonii_CBS449.91,DRR126766.83706,86.92,107,13,1,282,388,1,106,3e-26,119
Cyphellophora_pauciseptata_CBS284.85_T,DRR126766.83706,86.79,106,13,1,293,398,1,105,1e-25,117
Cyphellophora_pluriseptata_CBS286.85_T,DRR126766.83706,86.27,102,13,1,298,399,1,101,2e-23,110
Phialophora_europaea_CBS101466,DRR126766.83706,85.85,106,14,1,288,393,1,105,5e-24,111
Phialophora_ambigua_CBS235.93,DRR126766.83706,86.27,102,13,1,285,386,1,101,2e-23,110
Cladophialophora_modesta_CBS985.96_T,DRR126766.83706,88.35,103,10,2,284,386,1,101,3e-27,122
Cladophialophora_modesta_CBS985.96_T,DRR126766.83706,96.55,58,0,2,522,578,231,287,6e-19,95.3
