Exophiala_nigra_CBS535.94_T,SRR5190949.5486,100.00,51,0,0,201,251,59,9,8e-20,95.3
Exophiala_spinifera_CBS899.68_T,SRR5190949.5486,100.00,51,0,0,198,248,59,9,8e-20,95.3
Exophiala_exophialae_CBS668.76_T,SRR5190949.5486,100.00,51,0,0,199,249,59,9,8e-20,95.3
Exophiala_polymorpha_CBS138920_T,SRR5190949.5486,100.00,51,0,0,301,351,59,9,1e-19,95.3
Exophiala_oligosperma_CBS725.88_T,SRR5190949.5486,100.00,51,0,0,211,261,59,9,8e-20,95.3
Exophiala_jeanselmei_CBS507.90_T,SRR5190949.5486,100.00,51,0,0,203,253,59,9,9e-20,95.3
Exophiala_bergeri_CBS353.52,SRR5190949.5486,100.00,51,0,0,164,214,59,9,7e-20,95.3
Exophiala_moniliae_CBS520.76_T,SRR5190949.5486,92.65,68,4,1,184,251,75,9,2e-20,97.1
Exophiala_pisciphila_CBS537.73_T,SRR5190949.5486,100.00,51,0,0,204,254,59,9,1e-19,95.3
Exophiala_xenobiotica_CBS117642,SRR5190949.5486,100.00,51,0,0,196,246,59,9,8e-20,95.3
Exophiala_brunnea_CBS,SRR5190949.5486,100.00,51,0,0,232,282,59,9,9e-20,95.3
Exophiala_brunnea_CBS,SRR5190949.11051,100.00,38,0,0,1,38,289,326,2e-12,71.3
Exophiala_brunnea_CBS,SRR5190949.8006,100.00,38,0,0,1,38,38,75,2e-12,71.3
Exophiala_brunnea_CBS,SRR5190949.3851,100.00,38,0,0,1,38,289,326,2e-12,71.3
Exophiala_brunnea_CBS,SRR5190949.796,100.00,38,0,0,1,38,289,326,2e-12,71.3
Exophiala_nishimurae_CBS101538_T,SRR5190949.5486,100.00,51,0,0,210,260,59,9,9e-20,95.3
Exophiala_mesophila_CBS402.95_T,SRR5190949.5486,100.00,51,0,0,194,244,59,9,1e-19,95.3
Exophiala_castellanii_CBS158.58_T,SRR5190949.5486,100.00,51,0,0,192,242,59,9,1e-19,95.3
Exophiala_lecanii-corni_CBS123.33_T,SRR5190949.5486,100.00,51,0,0,215,265,59,9,8e-20,95.3
Exophiala_dermatitidis_CBS748.88,SRR5190949.5486,88.31,77,5,4,183,257,83,9,1e-17,89.8
Exophiala_angulospora_CBS482.92_T,SRR5190949.5486,100.00,51,0,0,198,248,59,9,8e-20,95.3
Exophiala_opportunistica_CBS109811_T,SRR5190949.5486,100.00,51,0,0,197,247,59,9,8e-20,95.3
Exophiala_salmonis_CBS157.67_T,SRR5190949.5486,100.00,51,0,0,326,376,59,9,1e-19,95.3
Exophiala_salmonis_CBS157.67_T,SRR5190949.5486,100.00,36,0,0,87,122,260,295,2e-11,67.6
Exophiala_aquamarina_CBS119918_T,SRR5190949.5486,100.00,51,0,0,204,254,59,9,8e-20,95.3
Exophiala_cancerae_CBS120420_T,SRR5190949.5486,100.00,51,0,0,219,269,59,9,9e-20,95.3
Exophiala_tremulae_CBS129355,SRR5190949.5486,91.55,71,3,3,214,281,79,9,9e-20,95.3
Exophiala_tremulae_CBS129355,SRR5190949.11051,100.00,38,0,0,1,38,289,326,2e-12,71.3
Exophiala_tremulae_CBS129355,SRR5190949.8006,100.00,38,0,0,1,38,38,75,2e-12,71.3
Exophiala_tremulae_CBS129355,SRR5190949.3851,100.00,38,0,0,1,38,289,326,2e-12,71.3
Exophiala_tremulae_CBS129355,SRR5190949.796,100.00,38,0,0,1,38,289,326,2e-12,71.3
Exophiala_equina_CBS116009,SRR5190949.5486,91.55,71,3,3,180,247,79,9,8e-20,95.3
Exophiala_alcalophila_CBS520.82_T,SRR5190949.5486,100.00,51,0,0,208,258,59,9,8e-20,95.3
Exophiala_crusticola_CBS119970_T,SRR5190949.5486,96.55,58,1,1,207,263,66,9,8e-20,95.3
Rhinocladiella_atrovirens_CBS264.49,SRR5190949.5486,100.00,51,0,0,239,289,59,9,9e-20,95.3
Rhinocladiella_atrovirens_CBS264.49,SRR5190949.11051,100.00,43,0,0,1,43,284,326,3e-15,80.5
Rhinocladiella_atrovirens_CBS264.49,SRR5190949.8006,100.00,43,0,0,1,43,33,75,3e-15,80.5
Rhinocladiella_atrovirens_CBS264.49,SRR5190949.3851,100.00,43,0,0,1,43,284,326,3e-15,80.5
Rhinocladiella_atrovirens_CBS264.49,SRR5190949.796,100.00,43,0,0,1,43,284,326,3e-15,80.5
Rhinocladiella_basitona_CBS101460_T,SRR5190949.5486,100.00,51,0,0,198,248,59,9,8e-20,95.3
Rhinocladiella_phaeophora_CBS496.78_T,SRR5190949.5486,98.21,56,1,0,201,256,64,9,6e-21,99.0
Rhinocladiella_aquaspersa_CBS313.73_T,SRR5190949.5486,98.21,56,1,0,195,250,64,9,7e-21,99.0
Rhinocladiella_fasciculata_CBS132.86_T,SRR5190949.5486,100.00,51,0,0,216,266,59,9,8e-20,95.3
Rhinocladiella_anceps_CBS181.65_T,SRR5190949.5486,100.00,51,0,0,198,248,59,9,8e-20,95.3
Rhinocladiella_mackenziei_CBS367.92,SRR5190949.5486,100.00,51,0,0,187,237,59,9,9e-20,95.3
Veronaea_compacta_CBS268.75_T,SRR5190949.5486,100.00,51,0,0,220,270,59,9,9e-20,95.3
Capronia_pilosella_AFTOL-ID657,SRR5190949.5486,100.00,51,0,0,298,348,59,9,1e-19,95.3
Capronia_dactylotricha_DAOM208471_T,SRR5190949.5486,100.00,51,0,0,200,250,59,9,1e-19,95.3
Capronia_kleinmondensis_CBS122671_T,SRR5190949.5486,100.00,51,0,0,225,275,59,9,1e-19,95.3
Capronia_kleinmondensis_CBS122671_T,SRR5190949.11051,100.00,29,0,0,1,29,298,326,2e-07,54.7
Capronia_kleinmondensis_CBS122671_T,SRR5190949.8006,100.00,29,0,0,1,29,47,75,2e-07,54.7
Capronia_kleinmondensis_CBS122671_T,SRR5190949.3851,100.00,29,0,0,1,29,298,326,2e-07,54.7
Capronia_kleinmondensis_CBS122671_T,SRR5190949.796,100.00,29,0,0,1,29,298,326,2e-07,54.7
Capronia_mansonii_CBS101.67_T,SRR5190949.5486,100.00,51,0,0,211,261,59,9,1e-19,95.3
Capronia_munkii_DAOM216390_T,SRR5190949.5486,100.00,51,0,0,211,261,59,9,1e-19,95.3
Capronia_coronata_ATCC56201_T,SRR5190949.5486,93.75,64,3,1,186,249,71,9,9e-20,95.3
Capronia_parasitica_CBS123.88,SRR5190949.5486,100.00,52,0,0,204,255,60,9,2e-20,97.1
Veronaea_japonica_CBS776.83_T,SRR5190949.5486,100.00,51,0,0,233,283,59,9,9e-20,95.3
Veronaea_japonica_CBS776.83_T,SRR5190949.11051,100.00,37,0,0,1,37,290,326,5e-12,69.4
Veronaea_japonica_CBS776.83_T,SRR5190949.8006,100.00,37,0,0,1,37,39,75,5e-12,69.4
Veronaea_japonica_CBS776.83_T,SRR5190949.3851,100.00,37,0,0,1,37,290,326,5e-12,69.4
Veronaea_japonica_CBS776.83_T,SRR5190949.796,100.00,37,0,0,1,37,290,326,5e-12,69.4
Thysanorea_papuana_CBS212.96_T,SRR5190949.5486,100.00,51,0,0,207,257,59,9,8e-20,95.3
Capronia_acutiseta_ATCC56428_T,SRR5190949.5486,100.00,51,0,0,201,251,59,9,9e-20,95.3
Fonsecaea_brasiliensis_CBS119710_T,SRR5190949.5486,100.00,51,0,0,207,257,59,9,8e-20,95.3
Fonsecaea_pedrosoi_CBS271.37_T,SRR5190949.5486,100.00,51,0,0,235,285,59,9,9e-20,95.3
Fonsecaea_pedrosoi_CBS271.37_T,SRR5190949.11051,100.00,29,0,0,1,29,298,326,2e-07,54.7
Fonsecaea_pedrosoi_CBS271.37_T,SRR5190949.8006,100.00,29,0,0,1,29,47,75,2e-07,54.7
Fonsecaea_pedrosoi_CBS271.37_T,SRR5190949.3851,100.00,29,0,0,1,29,298,326,2e-07,54.7
Fonsecaea_pedrosoi_CBS271.37_T,SRR5190949.796,100.00,29,0,0,1,29,298,326,2e-07,54.7
Fonsecaea_multimorphosa_CBS980.96_T,SRR5190949.5486,100.00,51,0,0,205,255,59,9,8e-20,95.3
Fonsecaea_minima_CBS125760_T,SRR5190949.5486,100.00,51,0,0,201,251,59,9,8e-20,95.3
Fonsecaea_nubica_CBS269.64_T,SRR5190949.5486,100.00,51,0,0,212,262,59,9,8e-20,95.3
Fonsecaea_monophora_CBS269.37_T,SRR5190949.5486,100.00,51,0,0,212,262,59,9,8e-20,95.3
Fonsecaea_erecta_CBS125763_T,SRR5190949.5486,95.08,61,2,1,187,246,69,9,8e-20,95.3
Fonsecaea_pugnacius_CBS139214_T,SRR5190949.5486,100.00,51,0,0,205,255,59,9,8e-20,95.3
Cladophialophora_psammophila_CBS,SRR5190949.5486,100.00,51,0,0,211,261,59,9,8e-20,95.3
Cladophialophora_devriesii_CBS,SRR5190949.5486,100.00,51,0,0,207,257,59,9,8e-20,95.3
Cladophialophora_immunda_CBS834.96,SRR5190949.5486,100.00,51,0,0,209,259,59,9,8e-20,95.3
Cladophialophora_arxii_CBS306.94_T,SRR5190949.5486,100.00,51,0,0,211,261,59,9,8e-20,95.3
Cladophialophora_bantiana_CBS173.52,SRR5190949.5486,100.00,51,0,0,205,255,59,9,8e-20,95.3
Cladophialophora_emmonsii_CBS102594,SRR5190949.5486,100.00,51,0,0,196,246,59,9,8e-20,95.3
Cladophialophora_minourae_CBS556.83,SRR5190949.5486,100.00,51,0,0,204,254,59,9,8e-20,95.3
Cladophialophora_australiensis_CBS112793,SRR5190949.5486,96.72,61,1,1,197,256,69,9,5e-21,100
Cladophialophora_potulentorum_CBS112222,SRR5190949.5486,100.00,51,0,0,205,255,59,9,2e-19,95.3
Cladophialophora_matsushimae_CMRP1198,SRR5190949.5486,100.00,51,0,0,209,259,59,9,7e-20,95.3
Cladophialophora_mycetomatis_CBS122637,SRR5190949.5486,100.00,51,0,0,194,244,59,9,8e-20,95.3
Cladophialophora_chaetospira_CBS127573,SRR5190949.5486,96.08,51,2,0,600,650,59,9,3e-16,84.2
Cladophialophora_chaetospira_CBS127573,SRR5190949.11051,100.00,30,0,0,379,408,297,326,7e-08,56.5
Cladophialophora_chaetospira_CBS127573,SRR5190949.8006,100.00,30,0,0,379,408,46,75,7e-08,56.5
Cladophialophora_chaetospira_CBS127573,SRR5190949.3851,100.00,30,0,0,379,408,297,326,7e-08,56.5
Cladophialophora_chaetospira_CBS127573,SRR5190949.796,100.00,30,0,0,379,408,297,326,7e-08,56.5
Cladophialophora_boppii_CBS126.86_T,SRR5190949.5486,100.00,51,0,0,202,252,59,9,8e-20,95.3
Cladophialophora_abundans_CBS126736,SRR5190949.5486,100.00,51,0,0,139,189,59,9,7e-20,95.3
Capronia_semi-immersa_CBS102234,SRR5190949.5486,100.00,51,0,0,201,251,59,9,8e-20,95.3
Phialophora_americana_CBS400.67,SRR5190949.5486,100.00,51,0,0,203,253,59,9,2e-19,95.3
Phialophora_verrucosa_CBS140325_T,SRR5190949.5486,100.00,51,0,0,207,257,59,9,9e-20,95.3
Cladophialophora_samoensis_CBS259.83_T,SRR5190949.5486,100.00,51,0,0,207,257,59,9,8e-20,95.3
Cladophialophora_carrionii_CBS260.83,SRR5190949.5486,100.00,51,0,0,223,273,59,9,9e-20,95.3
Exophiala_palmae_UPCB86822_T,SRR5190949.5486,100.00,51,0,0,166,216,59,9,7e-20,95.3
Cladophialophora_yegresii_CBS114405_T,SRR5190949.5486,100.00,51,0,0,208,258,59,9,8e-20,95.3
Knufia_epidermidis_CBS120353_T,SRR5190949.5486,100.00,51,0,0,206,256,59,9,8e-20,95.3
Arthrocladium_fulminans_CBS136243_T,SRR5190949.5486,100.00,51,0,0,201,251,59,9,8e-20,95.3
Anthopsis_deltoidea_CBS263.77_T,SRR5190949.5486,100.00,51,0,0,210,260,59,9,8e-20,95.3
Cyphellophora_laciniata_CBS190.61_T,SRR5190949.11051,98.51,67,1,0,33,99,260,326,6e-27,119
Cyphellophora_laciniata_CBS190.61_T,SRR5190949.8006,98.51,67,1,0,33,99,9,75,6e-27,119
Cyphellophora_laciniata_CBS190.61_T,SRR5190949.3851,98.51,67,1,0,33,99,260,326,6e-27,119
Cyphellophora_laciniata_CBS190.61_T,SRR5190949.796,98.51,67,1,0,33,99,260,326,6e-27,119
Cyphellophora_laciniata_CBS190.61_T,SRR5190949.5486,92.11,76,6,0,33,108,260,335,1e-23,108
Cyphellophora_laciniata_CBS190.61_T,SRR5190949.5486,100.00,51,0,0,295,345,59,9,1e-19,95.3
Cyphellophora_suttonii_CBS449.91,SRR5190949.5486,100.00,51,0,0,198,248,59,9,8e-20,95.3
Cyphellophora_pauciseptata_CBS284.85_T,SRR5190949.5486,96.61,59,2,0,201,259,67,9,6e-21,99.0
Cyphellophora_pluriseptata_CBS286.85_T,SRR5190949.5486,98.04,51,1,0,214,264,59,9,4e-18,89.8
Phialophora_europaea_CBS101466,SRR5190949.5486,100.00,53,0,0,202,254,61,9,6e-21,99.0
Phialophora_ambigua_CBS235.93,SRR5190949.5486,100.00,51,0,0,201,251,59,9,8e-20,95.3
Cladophialophora_modesta_CBS985.96_T,SRR5190949.5486,100.00,51,0,0,198,248,59,9,9e-20,95.3
Cyphellophora_fusarioides_MUCL44033_T,SRR5190949.5486,100.00,51,0,0,197,247,59,9,8e-20,95.3
