Exophiala_nigra_CBS535.94_T,SRR10595405.2657183,97.73,88,1,1,201,288,87,1,5e-34,150
Exophiala_nigra_CBS535.94_T,SRR10595405.2657183,97.73,88,1,1,201,288,254,340,5e-34,150
Exophiala_spinifera_CBS899.68_T,SRR10595405.2657183,98.81,84,1,0,198,281,87,4,5e-34,150
Exophiala_spinifera_CBS899.68_T,SRR10595405.2657183,98.81,84,1,0,198,281,254,337,5e-34,150
Exophiala_exophialae_CBS668.76_T,SRR10595405.2657183,98.81,84,1,0,199,282,87,4,5e-34,150
Exophiala_exophialae_CBS668.76_T,SRR10595405.2657183,98.81,84,1,0,199,282,254,337,5e-34,150
Exophiala_polymorpha_CBS138920_T,SRR10595405.2657183,98.81,84,1,0,301,384,87,4,6e-34,150
Exophiala_polymorpha_CBS138920_T,SRR10595405.2657183,98.81,84,1,0,301,384,254,337,6e-34,150
Exophiala_polymorpha_CBS138920_T,SRR10595405.5777613,87.23,47,6,0,648,694,148,102,5e-05,54.7
Exophiala_polymorpha_CBS138920_T,SRR10595405.4057970,100.00,28,0,0,667,694,130,103,2e-04,52.8
Exophiala_polymorpha_CBS138920_T,SRR10595405.4057970,100.00,28,0,0,667,694,167,194,2e-04,52.8
Exophiala_oligosperma_CBS725.88_T,SRR10595405.2657183,98.81,84,1,0,211,294,87,4,5e-34,150
Exophiala_oligosperma_CBS725.88_T,SRR10595405.2657183,98.81,84,1,0,211,294,254,337,5e-34,150
Exophiala_jeanselmei_CBS507.90_T,SRR10595405.2657183,98.81,84,1,0,203,286,87,4,6e-34,150
Exophiala_jeanselmei_CBS507.90_T,SRR10595405.2657183,98.81,84,1,0,203,286,254,337,6e-34,150
Exophiala_jeanselmei_CBS507.90_T,SRR10595405.5777613,89.09,55,6,0,550,604,148,94,2e-09,69.4
Exophiala_jeanselmei_CBS507.90_T,SRR10595405.4057970,100.00,36,0,0,569,604,130,95,6e-09,67.6
Exophiala_jeanselmei_CBS507.90_T,SRR10595405.4057970,100.00,36,0,0,569,604,167,202,6e-09,67.6
Exophiala_bergeri_CBS353.52,SRR10595405.2657183,97.73,88,1,1,164,251,87,1,4e-34,150
Exophiala_bergeri_CBS353.52,SRR10595405.2657183,97.73,88,1,1,164,251,254,340,4e-34,150
Exophiala_moniliae_CBS520.76_T,SRR10595405.2657183,97.73,88,1,1,201,288,87,1,5e-34,150
Exophiala_moniliae_CBS520.76_T,SRR10595405.2657183,97.73,88,1,1,201,288,254,340,5e-34,150
Exophiala_pisciphila_CBS537.73_T,SRR10595405.2657183,97.73,88,1,1,204,291,87,1,6e-34,150
Exophiala_pisciphila_CBS537.73_T,SRR10595405.2657183,97.73,88,1,1,204,291,254,340,6e-34,150
Exophiala_pisciphila_CBS537.73_T,SRR10595405.5777613,98.68,76,1,0,578,653,129,54,2e-29,135
Exophiala_pisciphila_CBS537.73_T,SRR10595405.4057970,98.68,76,1,0,578,653,130,55,2e-29,135
Exophiala_pisciphila_CBS537.73_T,SRR10595405.4057970,98.68,76,1,0,578,653,167,242,2e-29,135
Exophiala_pisciphila_CBS537.73_T,SRR10595405.2756395,90.79,76,7,0,578,653,332,257,2e-19,102
Exophiala_xenobiotica_CBS117642,SRR10595405.2657183,97.73,88,1,1,196,283,87,1,5e-34,150
Exophiala_xenobiotica_CBS117642,SRR10595405.2657183,97.73,88,1,1,196,283,254,340,5e-34,150
Exophiala_brunnea_CBS,SRR10595405.2657183,97.73,88,1,1,232,319,87,1,6e-34,150
Exophiala_brunnea_CBS,SRR10595405.2657183,97.73,88,1,1,232,319,254,340,6e-34,150
Exophiala_brunnea_CBS,SRR10595405.5882146,100.00,38,0,0,1,38,91,54,5e-10,71.3
Exophiala_brunnea_CBS,SRR10595405.5777613,100.00,38,0,0,1,38,416,453,5e-10,71.3
Exophiala_brunnea_CBS,SRR10595405.5722648,100.00,38,0,0,1,38,84,47,5e-10,71.3
Exophiala_brunnea_CBS,SRR10595405.5722648,100.00,38,0,0,1,38,291,328,5e-10,71.3
Exophiala_brunnea_CBS,SRR10595405.5558687,100.00,38,0,0,1,38,193,230,5e-10,71.3
Exophiala_brunnea_CBS,SRR10595405.5558687,100.00,38,0,0,1,38,348,311,5e-10,71.3
Exophiala_brunnea_CBS,SRR10595405.5386063,100.00,38,0,0,1,38,129,166,5e-10,71.3
Exophiala_brunnea_CBS,SRR10595405.5386063,100.00,38,0,0,1,38,392,355,5e-10,71.3
Exophiala_brunnea_CBS,SRR10595405.5293510,100.00,38,0,0,1,38,174,137,5e-10,71.3
Exophiala_brunnea_CBS,SRR10595405.4646911,100.00,38,0,0,1,38,348,311,5e-10,71.3
Exophiala_brunnea_CBS,SRR10595405.4309582,100.00,38,0,0,1,38,266,303,5e-10,71.3
Exophiala_brunnea_CBS,SRR10595405.3029048,100.00,38,0,0,1,38,294,257,5e-10,71.3
Exophiala_brunnea_CBS,SRR10595405.2695639,100.00,38,0,0,1,38,129,92,5e-10,71.3
Exophiala_brunnea_CBS,SRR10595405.2695639,100.00,38,0,0,1,38,454,491,5e-10,71.3
Exophiala_brunnea_CBS,SRR10595405.2224098,100.00,38,0,0,1,38,130,167,5e-10,71.3
Exophiala_brunnea_CBS,SRR10595405.2224098,97.37,38,1,0,1,38,465,428,2e-08,65.8
Exophiala_brunnea_CBS,SRR10595405.1745264,100.00,38,0,0,1,38,120,83,5e-10,71.3
Exophiala_brunnea_CBS,SRR10595405.1481848,100.00,38,0,0,1,38,113,76,5e-10,71.3
Exophiala_brunnea_CBS,SRR10595405.1374202,100.00,38,0,0,1,38,276,313,5e-10,71.3
Exophiala_brunnea_CBS,SRR10595405.4212506,97.56,41,0,1,1,40,359,399,2e-09,69.4
Exophiala_brunnea_CBS,SRR10595405.4212506,97.37,38,1,0,1,38,84,47,2e-08,65.8
Exophiala_brunnea_CBS,SRR10595405.3630058,100.00,30,0,0,9,38,152,181,1e-05,56.5
Exophiala_brunnea_CBS,SRR10595405.3630058,100.00,30,0,0,9,38,363,334,1e-05,56.5
Exophiala_nishimurae_CBS101538_T,SRR10595405.2657183,98.81,84,1,0,210,293,87,4,5e-34,150
Exophiala_nishimurae_CBS101538_T,SRR10595405.2657183,98.81,84,1,0,210,293,254,337,5e-34,150
Exophiala_mesophila_CBS402.95_T,SRR10595405.2657183,97.73,88,1,1,194,281,87,1,6e-34,150
Exophiala_mesophila_CBS402.95_T,SRR10595405.2657183,97.73,88,1,1,194,281,254,340,6e-34,150
Exophiala_mesophila_CBS402.95_T,SRR10595405.5777613,92.63,95,7,0,556,650,148,54,5e-30,137
Exophiala_mesophila_CBS402.95_T,SRR10595405.4057970,98.68,76,1,0,575,650,130,55,2e-29,135
Exophiala_mesophila_CBS402.95_T,SRR10595405.4057970,98.68,76,1,0,575,650,167,242,2e-29,135
Exophiala_mesophila_CBS402.95_T,SRR10595405.2756395,90.79,76,7,0,575,650,332,257,2e-19,102
Exophiala_castellanii_CBS158.58_T,SRR10595405.2657183,97.73,88,1,1,192,279,87,1,6e-34,150
Exophiala_castellanii_CBS158.58_T,SRR10595405.2657183,97.73,88,1,1,192,279,254,340,6e-34,150
Exophiala_castellanii_CBS158.58_T,SRR10595405.5777613,92.63,95,7,0,555,649,148,54,5e-30,137
Exophiala_castellanii_CBS158.58_T,SRR10595405.4057970,98.68,76,1,0,574,649,130,55,2e-29,135
Exophiala_castellanii_CBS158.58_T,SRR10595405.4057970,98.68,76,1,0,574,649,167,242,2e-29,135
Exophiala_castellanii_CBS158.58_T,SRR10595405.2756395,90.79,76,7,0,574,649,332,257,2e-19,102
Exophiala_lecanii-corni_CBS123.33_T,SRR10595405.2657183,97.73,88,1,1,215,302,87,1,5e-34,150
Exophiala_lecanii-corni_CBS123.33_T,SRR10595405.2657183,97.73,88,1,1,215,302,254,340,5e-34,150
Exophiala_dermatitidis_CBS748.88,SRR10595405.5579958,85.38,253,32,5,1167,1418,249,1,8e-66,257
Exophiala_dermatitidis_CBS748.88,SRR10595405.5579958,85.78,204,26,3,1162,1365,295,495,2e-52,213
Exophiala_dermatitidis_CBS748.88,SRR10595405.5777613,92.50,120,8,1,581,700,148,30,1e-39,171
Exophiala_dermatitidis_CBS748.88,SRR10595405.4057970,97.03,101,2,1,600,700,130,31,4e-39,169
Exophiala_dermatitidis_CBS748.88,SRR10595405.4057970,97.03,101,2,1,600,700,167,266,4e-39,169
Exophiala_dermatitidis_CBS748.88,SRR10595405.2916663,88.19,127,15,0,1378,1504,251,125,4e-34,152
Exophiala_dermatitidis_CBS748.88,SRR10595405.850190,77.95,254,49,5,1211,1460,252,502,4e-34,152
Exophiala_dermatitidis_CBS748.88,SRR10595405.2657183,93.14,102,4,3,195,294,101,1,2e-32,147
Exophiala_dermatitidis_CBS748.88,SRR10595405.2657183,93.14,102,4,3,195,294,240,340,2e-32,147
Exophiala_dermatitidis_CBS748.88,SRR10595405.2756395,91.25,80,7,0,600,679,332,253,2e-21,110
Exophiala_dermatitidis_CBS748.88,SRR10595405.5220306,76.88,199,37,9,688,880,196,1,1e-19,104
Exophiala_dermatitidis_CBS748.88,SRR10595405.5220306,76.88,199,37,9,688,880,197,392,1e-19,104
Exophiala_dermatitidis_CBS748.88,SRR10595405.4577989,86.42,81,10,1,1210,1290,118,39,1e-14,87.9
Exophiala_dermatitidis_CBS748.88,SRR10595405.4577989,86.42,81,10,1,1210,1290,339,418,1e-14,87.9
Exophiala_dermatitidis_CBS748.88,SRR10595405.5506516,85.19,81,11,1,1210,1290,110,31,5e-13,82.4
Exophiala_dermatitidis_CBS748.88,SRR10595405.5506516,91.84,49,4,0,1210,1258,451,499,4e-09,69.4
Exophiala_dermatitidis_CBS748.88,SRR10595405.3977448,92.98,57,2,2,1210,1265,66,121,5e-13,82.4
Exophiala_dermatitidis_CBS748.88,SRR10595405.3977448,92.98,57,2,2,1210,1265,229,174,5e-13,82.4
Exophiala_dermatitidis_CBS748.88,SRR10595405.3931940,84.52,84,11,2,1211,1293,155,73,5e-13,82.4
Exophiala_dermatitidis_CBS748.88,SRR10595405.3931940,84.52,84,11,2,1211,1293,320,402,5e-13,82.4
Exophiala_dermatitidis_CBS748.88,SRR10595405.1200811,92.98,57,2,2,1210,1265,149,94,5e-13,82.4
Exophiala_dermatitidis_CBS748.88,SRR10595405.1627996,83.53,85,10,4,1211,1293,112,194,2e-11,76.8
Exophiala_dermatitidis_CBS748.88,SRR10595405.3507397,89.29,56,4,2,1211,1265,63,9,4e-09,69.4
Exophiala_angulospora_CBS482.92_T,SRR10595405.2657183,97.73,88,1,1,198,285,87,1,5e-34,150
Exophiala_angulospora_CBS482.92_T,SRR10595405.2657183,97.73,88,1,1,198,285,254,340,5e-34,150
Exophiala_opportunistica_CBS109811_T,SRR10595405.2657183,97.73,88,1,1,197,284,87,1,5e-34,150
Exophiala_opportunistica_CBS109811_T,SRR10595405.2657183,97.73,88,1,1,197,284,254,340,5e-34,150
Exophiala_salmonis_CBS157.67_T,SRR10595405.2657183,97.73,88,1,1,326,413,87,1,7e-34,150
Exophiala_salmonis_CBS157.67_T,SRR10595405.2657183,97.73,88,1,1,326,413,254,340,7e-34,150
Exophiala_salmonis_CBS157.67_T,SRR10595405.5777613,98.68,76,1,0,698,773,129,54,2e-29,135
Exophiala_salmonis_CBS157.67_T,SRR10595405.5777613,100.00,40,0,0,83,122,383,422,4e-11,75.0
Exophiala_salmonis_CBS157.67_T,SRR10595405.4057970,98.68,76,1,0,698,773,130,55,2e-29,135
Exophiala_salmonis_CBS157.67_T,SRR10595405.4057970,98.68,76,1,0,698,773,167,242,2e-29,135
Exophiala_salmonis_CBS157.67_T,SRR10595405.2756395,90.79,76,7,0,698,773,332,257,2e-19,102
Exophiala_aquamarina_CBS119918_T,SRR10595405.2657183,97.73,88,1,1,204,291,87,1,5e-34,150
Exophiala_aquamarina_CBS119918_T,SRR10595405.2657183,97.73,88,1,1,204,291,254,340,5e-34,150
Exophiala_cancerae_CBS120420_T,SRR10595405.2657183,97.73,88,1,1,219,306,87,1,6e-34,150
Exophiala_cancerae_CBS120420_T,SRR10595405.2657183,97.73,88,1,1,219,306,254,340,6e-34,150
Exophiala_cancerae_CBS120420_T,SRR10595405.5777613,100.00,36,0,0,589,624,129,94,6e-09,67.6
Exophiala_cancerae_CBS120420_T,SRR10595405.4057970,100.00,36,0,0,589,624,130,95,6e-09,67.6
Exophiala_cancerae_CBS120420_T,SRR10595405.4057970,100.00,36,0,0,589,624,167,202,6e-09,67.6
Exophiala_cancerae_CBS120420_T,SRR10595405.215624,100.00,32,0,0,1,32,435,404,1e-06,60.2
Exophiala_tremulae_CBS129355,SRR10595405.2657183,97.73,88,1,1,231,318,87,1,6e-34,150
Exophiala_tremulae_CBS129355,SRR10595405.2657183,97.73,88,1,1,231,318,254,340,6e-34,150
Exophiala_tremulae_CBS129355,SRR10595405.5882146,100.00,38,0,0,1,38,91,54,5e-10,71.3
Exophiala_tremulae_CBS129355,SRR10595405.5777613,100.00,38,0,0,1,38,416,453,5e-10,71.3
Exophiala_tremulae_CBS129355,SRR10595405.5722648,100.00,38,0,0,1,38,84,47,5e-10,71.3
Exophiala_tremulae_CBS129355,SRR10595405.5722648,100.00,38,0,0,1,38,291,328,5e-10,71.3
Exophiala_tremulae_CBS129355,SRR10595405.5558687,100.00,38,0,0,1,38,193,230,5e-10,71.3
Exophiala_tremulae_CBS129355,SRR10595405.5558687,100.00,38,0,0,1,38,348,311,5e-10,71.3
Exophiala_tremulae_CBS129355,SRR10595405.5386063,100.00,38,0,0,1,38,129,166,5e-10,71.3
Exophiala_tremulae_CBS129355,SRR10595405.5386063,100.00,38,0,0,1,38,392,355,5e-10,71.3
Exophiala_tremulae_CBS129355,SRR10595405.5293510,100.00,38,0,0,1,38,174,137,5e-10,71.3
Exophiala_tremulae_CBS129355,SRR10595405.4646911,100.00,38,0,0,1,38,348,311,5e-10,71.3
Exophiala_tremulae_CBS129355,SRR10595405.4309582,100.00,38,0,0,1,38,266,303,5e-10,71.3
Exophiala_tremulae_CBS129355,SRR10595405.3029048,100.00,38,0,0,1,38,294,257,5e-10,71.3
Exophiala_tremulae_CBS129355,SRR10595405.2695639,100.00,38,0,0,1,38,129,92,5e-10,71.3
Exophiala_tremulae_CBS129355,SRR10595405.2695639,100.00,38,0,0,1,38,454,491,5e-10,71.3
Exophiala_tremulae_CBS129355,SRR10595405.2224098,100.00,38,0,0,1,38,130,167,5e-10,71.3
Exophiala_tremulae_CBS129355,SRR10595405.2224098,97.37,38,1,0,1,38,465,428,2e-08,65.8
Exophiala_tremulae_CBS129355,SRR10595405.1745264,100.00,38,0,0,1,38,120,83,5e-10,71.3
Exophiala_tremulae_CBS129355,SRR10595405.1481848,100.00,38,0,0,1,38,113,76,5e-10,71.3
Exophiala_tremulae_CBS129355,SRR10595405.1374202,100.00,38,0,0,1,38,276,313,5e-10,71.3
Exophiala_tremulae_CBS129355,SRR10595405.4212506,97.56,41,0,1,1,40,359,399,2e-09,69.4
Exophiala_tremulae_CBS129355,SRR10595405.4212506,97.37,38,1,0,1,38,84,47,2e-08,65.8
Exophiala_tremulae_CBS129355,SRR10595405.3630058,100.00,30,0,0,9,38,152,181,1e-05,56.5
Exophiala_tremulae_CBS129355,SRR10595405.3630058,100.00,30,0,0,9,38,363,334,1e-05,56.5
Exophiala_equina_CBS116009,SRR10595405.2657183,97.73,88,1,1,197,284,87,1,5e-34,150
Exophiala_equina_CBS116009,SRR10595405.2657183,97.73,88,1,1,197,284,254,340,5e-34,150
Exophiala_alcalophila_CBS520.82_T,SRR10595405.2657183,97.73,88,1,1,208,295,87,1,5e-34,150
Exophiala_alcalophila_CBS520.82_T,SRR10595405.2657183,97.73,88,1,1,208,295,254,340,5e-34,150
Exophiala_crusticola_CBS119970_T,SRR10595405.2657183,97.73,88,1,1,213,300,87,1,5e-34,150
Exophiala_crusticola_CBS119970_T,SRR10595405.2657183,97.73,88,1,1,213,300,254,340,5e-34,150
Rhinocladiella_atrovirens_CBS264.49,SRR10595405.2657183,97.73,88,1,1,239,326,87,1,6e-34,150
Rhinocladiella_atrovirens_CBS264.49,SRR10595405.2657183,97.73,88,1,1,239,326,254,340,6e-34,150
Rhinocladiella_atrovirens_CBS264.49,SRR10595405.5882146,100.00,43,0,0,1,43,96,54,8e-13,80.5
Rhinocladiella_atrovirens_CBS264.49,SRR10595405.5777613,100.00,43,0,0,1,43,411,453,8e-13,80.5
Rhinocladiella_atrovirens_CBS264.49,SRR10595405.5722648,100.00,43,0,0,1,43,89,47,8e-13,80.5
Rhinocladiella_atrovirens_CBS264.49,SRR10595405.5722648,100.00,43,0,0,1,43,286,328,8e-13,80.5
Rhinocladiella_atrovirens_CBS264.49,SRR10595405.5558687,100.00,43,0,0,1,43,188,230,8e-13,80.5
Rhinocladiella_atrovirens_CBS264.49,SRR10595405.5558687,100.00,43,0,0,1,43,353,311,8e-13,80.5
Rhinocladiella_atrovirens_CBS264.49,SRR10595405.5386063,100.00,43,0,0,1,43,124,166,8e-13,80.5
Rhinocladiella_atrovirens_CBS264.49,SRR10595405.5386063,100.00,43,0,0,1,43,397,355,8e-13,80.5
Rhinocladiella_atrovirens_CBS264.49,SRR10595405.5293510,100.00,43,0,0,1,43,179,137,8e-13,80.5
Rhinocladiella_atrovirens_CBS264.49,SRR10595405.4646911,100.00,43,0,0,1,43,353,311,8e-13,80.5
Rhinocladiella_atrovirens_CBS264.49,SRR10595405.4309582,100.00,43,0,0,1,43,261,303,8e-13,80.5
Rhinocladiella_atrovirens_CBS264.49,SRR10595405.3029048,100.00,43,0,0,1,43,299,257,8e-13,80.5
Rhinocladiella_atrovirens_CBS264.49,SRR10595405.2695639,100.00,43,0,0,1,43,134,92,8e-13,80.5
Rhinocladiella_atrovirens_CBS264.49,SRR10595405.2695639,100.00,43,0,0,1,43,449,491,8e-13,80.5
Rhinocladiella_atrovirens_CBS264.49,SRR10595405.2224098,100.00,43,0,0,1,43,125,167,8e-13,80.5
Rhinocladiella_atrovirens_CBS264.49,SRR10595405.2224098,97.67,43,1,0,1,43,470,428,4e-11,75.0
Rhinocladiella_atrovirens_CBS264.49,SRR10595405.1745264,100.00,43,0,0,1,43,125,83,8e-13,80.5
Rhinocladiella_atrovirens_CBS264.49,SRR10595405.1481848,100.00,43,0,0,1,43,118,76,8e-13,80.5
Rhinocladiella_atrovirens_CBS264.49,SRR10595405.1374202,100.00,43,0,0,1,43,271,313,8e-13,80.5
Rhinocladiella_atrovirens_CBS264.49,SRR10595405.4212506,100.00,42,0,0,1,42,354,395,3e-12,78.7
Rhinocladiella_atrovirens_CBS264.49,SRR10595405.4212506,97.67,43,1,0,1,43,89,47,4e-11,75.0
Rhinocladiella_atrovirens_CBS264.49,SRR10595405.4389926,100.00,32,0,0,1,32,32,1,1e-06,60.2
Rhinocladiella_atrovirens_CBS264.49,SRR10595405.4389926,100.00,32,0,0,1,32,397,428,1e-06,60.2
Rhinocladiella_atrovirens_CBS264.49,SRR10595405.3630058,100.00,30,0,0,14,43,152,181,1e-05,56.5
Rhinocladiella_atrovirens_CBS264.49,SRR10595405.3630058,100.00,30,0,0,14,43,363,334,1e-05,56.5
Rhinocladiella_atrovirens_CBS264.49,SRR10595405.3447966,100.00,28,0,0,1,28,279,252,2e-04,52.8
Rhinocladiella_atrovirens_CBS264.49,SRR10595405.2489282,100.00,28,0,0,1,28,224,251,2e-04,52.8
Rhinocladiella_basitona_CBS101460_T,SRR10595405.2657183,98.81,84,1,0,198,281,87,4,5e-34,150
Rhinocladiella_basitona_CBS101460_T,SRR10595405.2657183,98.81,84,1,0,198,281,254,337,5e-34,150
Rhinocladiella_phaeophora_CBS496.78_T,SRR10595405.2657183,96.84,95,2,1,199,293,94,1,3e-36,158
Rhinocladiella_phaeophora_CBS496.78_T,SRR10595405.2657183,96.84,95,2,1,199,293,247,340,3e-36,158
Rhinocladiella_aquaspersa_CBS313.73_T,SRR10595405.2657183,96.84,95,2,1,193,287,94,1,4e-36,158
Rhinocladiella_aquaspersa_CBS313.73_T,SRR10595405.2657183,96.84,95,2,1,193,287,247,340,4e-36,158
Rhinocladiella_aquaspersa_CBS313.73_T,SRR10595405.5777613,98.77,81,1,0,570,650,129,49,3e-32,145
Rhinocladiella_aquaspersa_CBS313.73_T,SRR10595405.4057970,98.77,81,1,0,570,650,130,50,3e-32,145
Rhinocladiella_aquaspersa_CBS313.73_T,SRR10595405.4057970,98.77,81,1,0,570,650,167,247,3e-32,145
Rhinocladiella_aquaspersa_CBS313.73_T,SRR10595405.2756395,91.25,80,7,0,570,649,332,253,1e-21,110
Rhinocladiella_fasciculata_CBS132.86_T,SRR10595405.2657183,97.73,88,1,1,216,303,87,1,5e-34,150
Rhinocladiella_fasciculata_CBS132.86_T,SRR10595405.2657183,97.73,88,1,1,216,303,254,340,5e-34,150
Rhinocladiella_anceps_CBS181.65_T,SRR10595405.2657183,97.73,88,1,1,198,285,87,1,5e-34,150
Rhinocladiella_anceps_CBS181.65_T,SRR10595405.2657183,97.73,88,1,1,198,285,254,340,5e-34,150
Rhinocladiella_mackenziei_CBS367.92,SRR10595405.2657183,97.73,88,1,1,187,274,87,1,6e-34,150
Rhinocladiella_mackenziei_CBS367.92,SRR10595405.2657183,97.73,88,1,1,187,274,254,340,6e-34,150
Veronaea_compacta_CBS268.75_T,SRR10595405.2657183,97.73,88,1,1,220,307,87,1,5e-34,150
Veronaea_compacta_CBS268.75_T,SRR10595405.2657183,97.73,88,1,1,220,307,254,340,5e-34,150
Capronia_pilosella_AFTOL-ID657,SRR10595405.2657183,97.73,88,1,1,298,385,87,1,6e-34,150
Capronia_pilosella_AFTOL-ID657,SRR10595405.2657183,97.73,88,1,1,298,385,254,340,6e-34,150
Capronia_dactylotricha_DAOM208471_T,SRR10595405.2657183,97.73,88,1,1,200,287,87,1,6e-34,150
Capronia_dactylotricha_DAOM208471_T,SRR10595405.2657183,97.73,88,1,1,200,287,254,340,6e-34,150
Capronia_dactylotricha_DAOM208471_T,SRR10595405.5777613,98.68,76,1,0,583,658,129,54,2e-29,135
Capronia_dactylotricha_DAOM208471_T,SRR10595405.4057970,98.68,76,1,0,583,658,130,55,2e-29,135
Capronia_dactylotricha_DAOM208471_T,SRR10595405.4057970,98.68,76,1,0,583,658,167,242,2e-29,135
Capronia_dactylotricha_DAOM208471_T,SRR10595405.2756395,90.79,76,7,0,583,658,332,257,2e-19,102
Capronia_kleinmondensis_CBS122671_T,SRR10595405.2657183,97.73,88,1,1,225,312,87,1,6e-34,150
Capronia_kleinmondensis_CBS122671_T,SRR10595405.2657183,97.73,88,1,1,225,312,254,340,6e-34,150
Capronia_kleinmondensis_CBS122671_T,SRR10595405.5777613,98.68,76,1,0,589,664,129,54,2e-29,135
Capronia_kleinmondensis_CBS122671_T,SRR10595405.5777613,100.00,29,0,0,1,29,425,453,5e-05,54.7
Capronia_kleinmondensis_CBS122671_T,SRR10595405.4057970,98.68,76,1,0,589,664,130,55,2e-29,135
Capronia_kleinmondensis_CBS122671_T,SRR10595405.4057970,98.68,76,1,0,589,664,167,242,2e-29,135
Capronia_kleinmondensis_CBS122671_T,SRR10595405.2756395,90.79,76,7,0,589,664,332,257,2e-19,102
Capronia_kleinmondensis_CBS122671_T,SRR10595405.5882146,100.00,29,0,0,1,29,82,54,5e-05,54.7
Capronia_kleinmondensis_CBS122671_T,SRR10595405.5722648,100.00,29,0,0,1,29,75,47,5e-05,54.7
Capronia_kleinmondensis_CBS122671_T,SRR10595405.5722648,100.00,29,0,0,1,29,300,328,5e-05,54.7
Capronia_kleinmondensis_CBS122671_T,SRR10595405.5558687,100.00,29,0,0,1,29,202,230,5e-05,54.7
Capronia_kleinmondensis_CBS122671_T,SRR10595405.5558687,100.00,29,0,0,1,29,339,311,5e-05,54.7
Capronia_kleinmondensis_CBS122671_T,SRR10595405.5386063,100.00,29,0,0,1,29,138,166,5e-05,54.7
Capronia_kleinmondensis_CBS122671_T,SRR10595405.5386063,100.00,29,0,0,1,29,383,355,5e-05,54.7
Capronia_kleinmondensis_CBS122671_T,SRR10595405.5293510,100.00,29,0,0,1,29,165,137,5e-05,54.7
Capronia_kleinmondensis_CBS122671_T,SRR10595405.4646911,100.00,29,0,0,1,29,339,311,5e-05,54.7
Capronia_kleinmondensis_CBS122671_T,SRR10595405.4309582,100.00,29,0,0,1,29,275,303,5e-05,54.7
Capronia_kleinmondensis_CBS122671_T,SRR10595405.4212506,100.00,29,0,0,1,29,75,47,5e-05,54.7
Capronia_kleinmondensis_CBS122671_T,SRR10595405.4212506,100.00,28,0,0,1,28,368,395,2e-04,52.8
Capronia_kleinmondensis_CBS122671_T,SRR10595405.3630058,100.00,29,0,0,1,29,153,181,5e-05,54.7
Capronia_kleinmondensis_CBS122671_T,SRR10595405.3630058,100.00,29,0,0,1,29,362,334,5e-05,54.7
Capronia_kleinmondensis_CBS122671_T,SRR10595405.3029048,100.00,29,0,0,1,29,285,257,5e-05,54.7
Capronia_kleinmondensis_CBS122671_T,SRR10595405.2695639,100.00,29,0,0,1,29,120,92,5e-05,54.7
Capronia_kleinmondensis_CBS122671_T,SRR10595405.2695639,100.00,29,0,0,1,29,463,491,5e-05,54.7
Capronia_kleinmondensis_CBS122671_T,SRR10595405.2224098,100.00,29,0,0,1,29,139,167,5e-05,54.7
Capronia_kleinmondensis_CBS122671_T,SRR10595405.1745264,100.00,29,0,0,1,29,111,83,5e-05,54.7
Capronia_kleinmondensis_CBS122671_T,SRR10595405.1481848,100.00,29,0,0,1,29,104,76,5e-05,54.7
Capronia_kleinmondensis_CBS122671_T,SRR10595405.1374202,100.00,29,0,0,1,29,285,313,5e-05,54.7
Capronia_mansonii_CBS101.67_T,SRR10595405.2657183,97.73,88,1,1,211,298,87,1,6e-34,150
Capronia_mansonii_CBS101.67_T,SRR10595405.2657183,97.73,88,1,1,211,298,254,340,6e-34,150
Capronia_mansonii_CBS101.67_T,SRR10595405.5777613,92.63,95,7,0,574,668,148,54,5e-30,137
Capronia_mansonii_CBS101.67_T,SRR10595405.4057970,98.68,76,1,0,593,668,130,55,2e-29,135
Capronia_mansonii_CBS101.67_T,SRR10595405.4057970,98.68,76,1,0,593,668,167,242,2e-29,135
Capronia_mansonii_CBS101.67_T,SRR10595405.2756395,90.79,76,7,0,593,668,332,257,2e-19,102
Capronia_munkii_DAOM216390_T,SRR10595405.2657183,97.73,88,1,1,211,298,87,1,6e-34,150
Capronia_munkii_DAOM216390_T,SRR10595405.2657183,97.73,88,1,1,211,298,254,340,6e-34,150
Capronia_munkii_DAOM216390_T,SRR10595405.5777613,92.63,95,7,0,574,668,148,54,5e-30,137
Capronia_munkii_DAOM216390_T,SRR10595405.4057970,98.68,76,1,0,593,668,130,55,2e-29,135
Capronia_munkii_DAOM216390_T,SRR10595405.4057970,98.68,76,1,0,593,668,167,242,2e-29,135
Capronia_munkii_DAOM216390_T,SRR10595405.2756395,90.79,76,7,0,593,668,332,257,2e-19,102
Capronia_coronata_ATCC56201_T,SRR10595405.2657183,97.73,88,1,1,199,286,87,1,6e-34,150
Capronia_coronata_ATCC56201_T,SRR10595405.2657183,97.73,88,1,1,199,286,254,340,6e-34,150
Capronia_coronata_ATCC56201_T,SRR10595405.5777613,92.63,95,7,0,545,639,148,54,5e-30,137
Capronia_coronata_ATCC56201_T,SRR10595405.4057970,98.68,76,1,0,564,639,130,55,2e-29,135
Capronia_coronata_ATCC56201_T,SRR10595405.4057970,98.68,76,1,0,564,639,167,242,2e-29,135
Capronia_coronata_ATCC56201_T,SRR10595405.2756395,90.79,76,7,0,564,639,332,257,2e-19,102
Capronia_parasitica_CBS123.88,SRR10595405.2657183,95.00,100,2,2,195,292,99,1,4e-35,154
Capronia_parasitica_CBS123.88,SRR10595405.2657183,95.00,100,2,2,195,292,242,340,4e-35,154
Veronaea_japonica_CBS776.83_T,SRR10595405.2657183,97.73,88,1,1,233,320,87,1,6e-34,150
Veronaea_japonica_CBS776.83_T,SRR10595405.2657183,97.73,88,1,1,233,320,254,340,6e-34,150
Veronaea_japonica_CBS776.83_T,SRR10595405.5882146,100.00,37,0,0,1,37,90,54,2e-09,69.4
Veronaea_japonica_CBS776.83_T,SRR10595405.5777613,100.00,37,0,0,1,37,417,453,2e-09,69.4
Veronaea_japonica_CBS776.83_T,SRR10595405.5722648,100.00,37,0,0,1,37,83,47,2e-09,69.4
Veronaea_japonica_CBS776.83_T,SRR10595405.5722648,100.00,37,0,0,1,37,292,328,2e-09,69.4
Veronaea_japonica_CBS776.83_T,SRR10595405.5558687,100.00,37,0,0,1,37,194,230,2e-09,69.4
Veronaea_japonica_CBS776.83_T,SRR10595405.5558687,100.00,37,0,0,1,37,347,311,2e-09,69.4
Veronaea_japonica_CBS776.83_T,SRR10595405.5386063,100.00,37,0,0,1,37,130,166,2e-09,69.4
Veronaea_japonica_CBS776.83_T,SRR10595405.5386063,100.00,37,0,0,1,37,391,355,2e-09,69.4
Veronaea_japonica_CBS776.83_T,SRR10595405.5293510,100.00,37,0,0,1,37,173,137,2e-09,69.4
Veronaea_japonica_CBS776.83_T,SRR10595405.4646911,100.00,37,0,0,1,37,347,311,2e-09,69.4
Veronaea_japonica_CBS776.83_T,SRR10595405.4309582,100.00,37,0,0,1,37,267,303,2e-09,69.4
Veronaea_japonica_CBS776.83_T,SRR10595405.3029048,100.00,37,0,0,1,37,293,257,2e-09,69.4
Veronaea_japonica_CBS776.83_T,SRR10595405.2695639,100.00,37,0,0,1,37,128,92,2e-09,69.4
Veronaea_japonica_CBS776.83_T,SRR10595405.2695639,100.00,37,0,0,1,37,455,491,2e-09,69.4
Veronaea_japonica_CBS776.83_T,SRR10595405.2224098,100.00,37,0,0,1,37,131,167,2e-09,69.4
Veronaea_japonica_CBS776.83_T,SRR10595405.2224098,97.30,37,1,0,1,37,464,428,7e-08,63.9
Veronaea_japonica_CBS776.83_T,SRR10595405.1745264,100.00,37,0,0,1,37,119,83,2e-09,69.4
Veronaea_japonica_CBS776.83_T,SRR10595405.1481848,100.00,37,0,0,1,37,112,76,2e-09,69.4
Veronaea_japonica_CBS776.83_T,SRR10595405.1374202,100.00,37,0,0,1,37,277,313,2e-09,69.4
Veronaea_japonica_CBS776.83_T,SRR10595405.4212506,97.50,40,0,1,1,39,360,399,6e-09,67.6
Veronaea_japonica_CBS776.83_T,SRR10595405.4212506,97.30,37,1,0,1,37,83,47,7e-08,63.9
Veronaea_japonica_CBS776.83_T,SRR10595405.3630058,100.00,30,0,0,8,37,152,181,1e-05,56.5
Veronaea_japonica_CBS776.83_T,SRR10595405.3630058,100.00,30,0,0,8,37,363,334,1e-05,56.5
Thysanorea_papuana_CBS212.96_T,SRR10595405.2657183,97.73,88,1,1,207,294,87,1,5e-34,150
Thysanorea_papuana_CBS212.96_T,SRR10595405.2657183,97.73,88,1,1,207,294,254,340,5e-34,150
Capronia_acutiseta_ATCC56428_T,SRR10595405.2657183,96.59,88,1,2,201,287,87,1,3e-32,145
Capronia_acutiseta_ATCC56428_T,SRR10595405.2657183,96.59,88,1,2,201,287,254,340,3e-32,145
Capronia_acutiseta_ATCC56428_T,SRR10595405.5777613,97.37,76,2,0,563,638,129,54,8e-28,130
Capronia_acutiseta_ATCC56428_T,SRR10595405.4057970,97.37,76,2,0,563,638,130,55,8e-28,130
Capronia_acutiseta_ATCC56428_T,SRR10595405.4057970,97.37,76,2,0,563,638,167,242,8e-28,130
Capronia_acutiseta_ATCC56428_T,SRR10595405.2756395,90.79,76,7,0,563,638,332,257,2e-19,102
Fonsecaea_brasiliensis_CBS119710_T,SRR10595405.2657183,97.73,88,1,1,207,294,87,1,5e-34,150
Fonsecaea_brasiliensis_CBS119710_T,SRR10595405.2657183,97.73,88,1,1,207,294,254,340,5e-34,150
Fonsecaea_pedrosoi_CBS271.37_T,SRR10595405.2657183,97.73,88,1,1,235,322,87,1,6e-34,150
Fonsecaea_pedrosoi_CBS271.37_T,SRR10595405.2657183,97.73,88,1,1,235,322,254,340,6e-34,150
Fonsecaea_pedrosoi_CBS271.37_T,SRR10595405.5777613,87.27,55,7,0,591,645,148,94,8e-08,63.9
Fonsecaea_pedrosoi_CBS271.37_T,SRR10595405.5777613,100.00,29,0,0,1,29,425,453,5e-05,54.7
Fonsecaea_pedrosoi_CBS271.37_T,SRR10595405.4057970,97.22,36,1,0,610,645,130,95,3e-07,62.1
Fonsecaea_pedrosoi_CBS271.37_T,SRR10595405.4057970,97.22,36,1,0,610,645,167,202,3e-07,62.1
Fonsecaea_pedrosoi_CBS271.37_T,SRR10595405.5882146,100.00,29,0,0,1,29,82,54,5e-05,54.7
Fonsecaea_pedrosoi_CBS271.37_T,SRR10595405.5722648,100.00,29,0,0,1,29,75,47,5e-05,54.7
Fonsecaea_pedrosoi_CBS271.37_T,SRR10595405.5722648,100.00,29,0,0,1,29,300,328,5e-05,54.7
Fonsecaea_pedrosoi_CBS271.37_T,SRR10595405.5558687,100.00,29,0,0,1,29,202,230,5e-05,54.7
Fonsecaea_pedrosoi_CBS271.37_T,SRR10595405.5558687,100.00,29,0,0,1,29,339,311,5e-05,54.7
Fonsecaea_pedrosoi_CBS271.37_T,SRR10595405.5386063,100.00,29,0,0,1,29,138,166,5e-05,54.7
Fonsecaea_pedrosoi_CBS271.37_T,SRR10595405.5386063,100.00,29,0,0,1,29,383,355,5e-05,54.7
Fonsecaea_pedrosoi_CBS271.37_T,SRR10595405.5293510,100.00,29,0,0,1,29,165,137,5e-05,54.7
Fonsecaea_pedrosoi_CBS271.37_T,SRR10595405.4646911,100.00,29,0,0,1,29,339,311,5e-05,54.7
Fonsecaea_pedrosoi_CBS271.37_T,SRR10595405.4309582,100.00,29,0,0,1,29,275,303,5e-05,54.7
Fonsecaea_pedrosoi_CBS271.37_T,SRR10595405.4212506,100.00,29,0,0,1,29,75,47,5e-05,54.7
Fonsecaea_pedrosoi_CBS271.37_T,SRR10595405.4212506,96.88,32,0,1,1,31,368,399,2e-04,52.8
Fonsecaea_pedrosoi_CBS271.37_T,SRR10595405.3630058,100.00,29,0,0,1,29,153,181,5e-05,54.7
Fonsecaea_pedrosoi_CBS271.37_T,SRR10595405.3630058,100.00,29,0,0,1,29,362,334,5e-05,54.7
Fonsecaea_pedrosoi_CBS271.37_T,SRR10595405.3029048,100.00,29,0,0,1,29,285,257,5e-05,54.7
Fonsecaea_pedrosoi_CBS271.37_T,SRR10595405.2695639,100.00,29,0,0,1,29,120,92,5e-05,54.7
Fonsecaea_pedrosoi_CBS271.37_T,SRR10595405.2695639,100.00,29,0,0,1,29,463,491,5e-05,54.7
Fonsecaea_pedrosoi_CBS271.37_T,SRR10595405.2224098,100.00,29,0,0,1,29,139,167,5e-05,54.7
Fonsecaea_pedrosoi_CBS271.37_T,SRR10595405.1745264,100.00,29,0,0,1,29,111,83,5e-05,54.7
Fonsecaea_pedrosoi_CBS271.37_T,SRR10595405.1481848,100.00,29,0,0,1,29,104,76,5e-05,54.7
Fonsecaea_pedrosoi_CBS271.37_T,SRR10595405.1374202,100.00,29,0,0,1,29,285,313,5e-05,54.7
Fonsecaea_multimorphosa_CBS980.96_T,SRR10595405.2657183,97.73,88,1,1,205,292,87,1,5e-34,150
Fonsecaea_multimorphosa_CBS980.96_T,SRR10595405.2657183,97.73,88,1,1,205,292,254,340,5e-34,150
Fonsecaea_minima_CBS125760_T,SRR10595405.2657183,97.73,88,1,1,201,288,87,1,5e-34,150
Fonsecaea_minima_CBS125760_T,SRR10595405.2657183,97.73,88,1,1,201,288,254,340,5e-34,150
Fonsecaea_nubica_CBS269.64_T,SRR10595405.2657183,97.73,88,1,1,212,299,87,1,5e-34,150
Fonsecaea_nubica_CBS269.64_T,SRR10595405.2657183,97.73,88,1,1,212,299,254,340,5e-34,150
Fonsecaea_monophora_CBS269.37_T,SRR10595405.2657183,96.63,89,1,2,212,300,87,1,7e-33,147
Fonsecaea_monophora_CBS269.37_T,SRR10595405.2657183,96.63,89,1,2,212,300,254,340,7e-33,147
Fonsecaea_erecta_CBS125763_T,SRR10595405.2657183,97.73,88,1,1,196,283,87,1,5e-34,150
Fonsecaea_erecta_CBS125763_T,SRR10595405.2657183,97.73,88,1,1,196,283,254,340,5e-34,150
Fonsecaea_pugnacius_CBS139214_T,SRR10595405.2657183,97.73,88,1,1,205,292,87,1,5e-34,150
Fonsecaea_pugnacius_CBS139214_T,SRR10595405.2657183,97.73,88,1,1,205,292,254,340,5e-34,150
Cladophialophora_psammophila_CBS,SRR10595405.2657183,97.73,88,1,1,211,298,87,1,5e-34,150
Cladophialophora_psammophila_CBS,SRR10595405.2657183,97.73,88,1,1,211,298,254,340,5e-34,150
Cladophialophora_devriesii_CBS,SRR10595405.2657183,97.73,88,1,1,207,294,87,1,5e-34,150
Cladophialophora_devriesii_CBS,SRR10595405.2657183,97.73,88,1,1,207,294,254,340,5e-34,150
Cladophialophora_immunda_CBS834.96,SRR10595405.2657183,97.73,88,1,1,209,296,87,1,5e-34,150
Cladophialophora_immunda_CBS834.96,SRR10595405.2657183,97.73,88,1,1,209,296,254,340,5e-34,150
Cladophialophora_arxii_CBS306.94_T,SRR10595405.2657183,97.73,88,1,1,211,298,87,1,5e-34,150
Cladophialophora_arxii_CBS306.94_T,SRR10595405.2657183,97.73,88,1,1,211,298,254,340,5e-34,150
Cladophialophora_bantiana_CBS173.52,SRR10595405.2657183,97.73,88,1,1,205,292,87,1,5e-34,150
Cladophialophora_bantiana_CBS173.52,SRR10595405.2657183,97.73,88,1,1,205,292,254,340,5e-34,150
Cladophialophora_emmonsii_CBS102594,SRR10595405.2657183,97.73,88,1,1,196,283,87,1,5e-34,150
Cladophialophora_emmonsii_CBS102594,SRR10595405.2657183,97.73,88,1,1,196,283,254,340,5e-34,150
Cladophialophora_minourae_CBS556.83,SRR10595405.2657183,98.81,84,1,0,204,287,87,4,5e-34,150
Cladophialophora_minourae_CBS556.83,SRR10595405.2657183,98.81,84,1,0,204,287,254,337,5e-34,150
Cladophialophora_australiensis_CBS112793,SRR10595405.5579958,85.38,253,32,5,1134,1385,249,1,8e-66,257
Cladophialophora_australiensis_CBS112793,SRR10595405.5579958,85.78,204,26,3,1129,1332,295,495,2e-52,213
Cladophialophora_australiensis_CBS112793,SRR10595405.5777613,91.67,120,9,1,552,671,148,30,5e-38,165
Cladophialophora_australiensis_CBS112793,SRR10595405.4057970,96.04,101,3,1,571,671,130,31,2e-37,163
Cladophialophora_australiensis_CBS112793,SRR10595405.4057970,96.04,101,3,1,571,671,167,266,2e-37,163
Cladophialophora_australiensis_CBS112793,SRR10595405.2657183,96.00,100,2,2,195,293,99,1,6e-37,161
Cladophialophora_australiensis_CBS112793,SRR10595405.2657183,96.00,100,2,2,195,293,242,340,6e-37,161
Cladophialophora_australiensis_CBS112793,SRR10595405.2916663,88.19,127,15,0,1345,1471,251,125,4e-34,152
Cladophialophora_australiensis_CBS112793,SRR10595405.850190,77.69,251,55,1,1178,1427,252,502,4e-34,152
Cladophialophora_australiensis_CBS112793,SRR10595405.5220306,77.89,199,34,9,659,850,196,1,5e-23,115
Cladophialophora_australiensis_CBS112793,SRR10595405.5220306,77.89,199,34,9,659,850,197,392,5e-23,115
Cladophialophora_australiensis_CBS112793,SRR10595405.2756395,90.00,80,8,0,571,650,332,253,1e-19,104
Cladophialophora_australiensis_CBS112793,SRR10595405.4577989,86.42,81,10,1,1177,1257,118,39,1e-14,87.9
Cladophialophora_australiensis_CBS112793,SRR10595405.4577989,86.42,81,10,1,1177,1257,339,418,1e-14,87.9
Cladophialophora_australiensis_CBS112793,SRR10595405.5506516,90.48,63,6,0,1177,1239,110,48,1e-13,84.2
Cladophialophora_australiensis_CBS112793,SRR10595405.5506516,93.88,49,3,0,1177,1225,451,499,9e-11,75.0
Cladophialophora_australiensis_CBS112793,SRR10595405.3977448,85.19,81,12,0,1177,1257,66,146,1e-13,84.2
Cladophialophora_australiensis_CBS112793,SRR10595405.3977448,85.19,81,12,0,1177,1257,229,149,1e-13,84.2
Cladophialophora_australiensis_CBS112793,SRR10595405.1200811,85.19,81,12,0,1177,1257,149,69,1e-13,84.2
Cladophialophora_australiensis_CBS112793,SRR10595405.3931940,84.34,83,13,0,1178,1260,155,73,5e-13,82.4
Cladophialophora_australiensis_CBS112793,SRR10595405.3931940,84.34,83,13,0,1178,1260,320,402,5e-13,82.4
Cladophialophora_australiensis_CBS112793,SRR10595405.1627996,83.33,84,12,2,1178,1260,112,194,2e-11,76.8
Cladophialophora_australiensis_CBS112793,SRR10595405.3507397,89.09,55,6,0,1178,1232,63,9,4e-09,69.4
Cladophialophora_potulentorum_CBS112222,SRR10595405.5579958,84.98,253,33,5,1136,1387,249,1,4e-64,252
Cladophialophora_potulentorum_CBS112222,SRR10595405.5579958,85.29,204,27,3,1131,1334,295,495,8e-51,207
Cladophialophora_potulentorum_CBS112222,SRR10595405.2916663,88.73,142,16,0,1347,1488,251,110,8e-41,174
Cladophialophora_potulentorum_CBS112222,SRR10595405.1764386,84.39,173,26,1,1316,1488,380,209,4e-39,169
Cladophialophora_potulentorum_CBS112222,SRR10595405.1764386,85.71,147,21,0,1342,1488,60,206,3e-35,156
Cladophialophora_potulentorum_CBS112222,SRR10595405.5777613,91.67,120,9,1,554,673,148,30,5e-38,165
Cladophialophora_potulentorum_CBS112222,SRR10595405.4057970,96.04,101,3,1,573,673,130,31,2e-37,163
Cladophialophora_potulentorum_CBS112222,SRR10595405.4057970,96.04,101,3,1,573,673,167,266,2e-37,163
Cladophialophora_potulentorum_CBS112222,SRR10595405.850190,77.69,251,55,1,1180,1429,252,502,4e-34,152
Cladophialophora_potulentorum_CBS112222,SRR10595405.2657183,97.73,88,1,1,205,292,87,1,1e-33,150
Cladophialophora_potulentorum_CBS112222,SRR10595405.2657183,97.73,88,1,1,205,292,254,340,1e-33,150
Cladophialophora_potulentorum_CBS112222,SRR10595405.5220306,77.39,199,35,9,661,852,196,1,2e-21,110
Cladophialophora_potulentorum_CBS112222,SRR10595405.5220306,77.39,199,35,9,661,852,197,392,2e-21,110
Cladophialophora_potulentorum_CBS112222,SRR10595405.2756395,90.00,80,8,0,573,652,332,253,1e-19,104
Cladophialophora_potulentorum_CBS112222,SRR10595405.4577989,86.42,81,10,1,1179,1259,118,39,1e-14,87.9
Cladophialophora_potulentorum_CBS112222,SRR10595405.4577989,86.42,81,10,1,1179,1259,339,418,1e-14,87.9
Cladophialophora_potulentorum_CBS112222,SRR10595405.3977448,94.64,56,3,0,1179,1234,66,121,1e-14,87.9
Cladophialophora_potulentorum_CBS112222,SRR10595405.3977448,94.64,56,3,0,1179,1234,229,174,1e-14,87.9
Cladophialophora_potulentorum_CBS112222,SRR10595405.1200811,94.64,56,3,0,1179,1234,149,94,1e-14,87.9
Cladophialophora_potulentorum_CBS112222,SRR10595405.5506516,85.19,81,11,1,1179,1259,110,31,5e-13,82.4
Cladophialophora_potulentorum_CBS112222,SRR10595405.5506516,91.84,49,4,0,1179,1227,451,499,4e-09,69.4
Cladophialophora_potulentorum_CBS112222,SRR10595405.3931940,83.13,83,14,0,1180,1262,155,73,2e-11,76.8
Cladophialophora_potulentorum_CBS112222,SRR10595405.3931940,83.13,83,14,0,1180,1262,320,402,2e-11,76.8
Cladophialophora_potulentorum_CBS112222,SRR10595405.1627996,82.14,84,13,2,1180,1262,112,194,1e-09,71.3
Cladophialophora_potulentorum_CBS112222,SRR10595405.3507397,87.27,55,7,0,1180,1234,63,9,2e-07,63.9
Cladophialophora_matsushimae_CMRP1198,SRR10595405.2657183,97.73,88,1,1,209,296,87,1,4e-34,150
Cladophialophora_matsushimae_CMRP1198,SRR10595405.2657183,97.73,88,1,1,209,296,254,340,4e-34,150
Cladophialophora_mycetomatis_CBS122637,SRR10595405.2657183,97.73,88,1,1,194,281,87,1,5e-34,150
Cladophialophora_mycetomatis_CBS122637,SRR10595405.2657183,97.73,88,1,1,194,281,254,340,5e-34,150
Cladophialophora_chaetospira_CBS127573,SRR10595405.2657183,95.45,88,3,1,600,687,87,1,2e-30,139
Cladophialophora_chaetospira_CBS127573,SRR10595405.2657183,95.45,88,3,1,600,687,254,340,2e-30,139
Cladophialophora_chaetospira_CBS127573,SRR10595405.4212506,97.14,35,0,1,375,408,81,47,5e-06,58.4
Cladophialophora_chaetospira_CBS127573,SRR10595405.4212506,96.97,33,0,1,379,410,367,399,7e-05,54.7
Cladophialophora_chaetospira_CBS127573,SRR10595405.5882146,100.00,30,0,0,379,408,83,54,2e-05,56.5
Cladophialophora_chaetospira_CBS127573,SRR10595405.5777613,100.00,30,0,0,379,408,424,453,2e-05,56.5
Cladophialophora_chaetospira_CBS127573,SRR10595405.5722648,100.00,30,0,0,379,408,76,47,2e-05,56.5
Cladophialophora_chaetospira_CBS127573,SRR10595405.5722648,100.00,30,0,0,379,408,299,328,2e-05,56.5
Cladophialophora_chaetospira_CBS127573,SRR10595405.5558687,100.00,30,0,0,379,408,201,230,2e-05,56.5
Cladophialophora_chaetospira_CBS127573,SRR10595405.5558687,100.00,30,0,0,379,408,340,311,2e-05,56.5
Cladophialophora_chaetospira_CBS127573,SRR10595405.5386063,100.00,30,0,0,379,408,137,166,2e-05,56.5
Cladophialophora_chaetospira_CBS127573,SRR10595405.5386063,100.00,30,0,0,379,408,384,355,2e-05,56.5
Cladophialophora_chaetospira_CBS127573,SRR10595405.5293510,100.00,30,0,0,379,408,166,137,2e-05,56.5
Cladophialophora_chaetospira_CBS127573,SRR10595405.4646911,100.00,30,0,0,379,408,340,311,2e-05,56.5
Cladophialophora_chaetospira_CBS127573,SRR10595405.4309582,100.00,30,0,0,379,408,274,303,2e-05,56.5
Cladophialophora_chaetospira_CBS127573,SRR10595405.3630058,100.00,30,0,0,379,408,152,181,2e-05,56.5
Cladophialophora_chaetospira_CBS127573,SRR10595405.3630058,100.00,30,0,0,379,408,363,334,2e-05,56.5
Cladophialophora_chaetospira_CBS127573,SRR10595405.3029048,100.00,30,0,0,379,408,286,257,2e-05,56.5
Cladophialophora_chaetospira_CBS127573,SRR10595405.2695639,100.00,30,0,0,379,408,121,92,2e-05,56.5
Cladophialophora_chaetospira_CBS127573,SRR10595405.2695639,100.00,30,0,0,379,408,462,491,2e-05,56.5
Cladophialophora_chaetospira_CBS127573,SRR10595405.2224098,100.00,30,0,0,379,408,138,167,2e-05,56.5
Cladophialophora_chaetospira_CBS127573,SRR10595405.1745264,100.00,30,0,0,379,408,112,83,2e-05,56.5
Cladophialophora_chaetospira_CBS127573,SRR10595405.1481848,100.00,30,0,0,379,408,105,76,2e-05,56.5
Cladophialophora_chaetospira_CBS127573,SRR10595405.1374202,100.00,30,0,0,379,408,284,313,2e-05,56.5
Cladophialophora_boppii_CBS126.86_T,SRR10595405.2657183,97.73,88,1,1,202,289,87,1,5e-34,150
Cladophialophora_boppii_CBS126.86_T,SRR10595405.2657183,97.73,88,1,1,202,289,254,340,5e-34,150
Cladophialophora_abundans_CBS126736,SRR10595405.2657183,98.81,84,1,0,139,222,87,4,4e-34,150
Cladophialophora_abundans_CBS126736,SRR10595405.2657183,98.81,84,1,0,139,222,254,337,4e-34,150
Capronia_semi-immersa_CBS102234,SRR10595405.2657183,98.81,84,1,0,201,284,87,4,5e-34,150
Capronia_semi-immersa_CBS102234,SRR10595405.2657183,98.81,84,1,0,201,284,254,337,5e-34,150
Phialophora_americana_CBS400.67,SRR10595405.5579958,84.98,253,33,5,1128,1379,249,1,4e-64,252
Phialophora_americana_CBS400.67,SRR10595405.5579958,85.29,204,27,3,1123,1326,295,495,8e-51,207
Phialophora_americana_CBS400.67,SRR10595405.2657183,98.81,84,1,0,203,286,87,4,1e-33,150
Phialophora_americana_CBS400.67,SRR10595405.2657183,98.81,84,1,0,203,286,254,337,1e-33,150
Phialophora_americana_CBS400.67,SRR10595405.850190,76.98,252,55,3,1172,1421,252,502,8e-31,141
Phialophora_americana_CBS400.67,SRR10595405.5220306,77.78,198,36,8,653,844,196,1,5e-23,115
Phialophora_americana_CBS400.67,SRR10595405.5220306,77.78,198,36,8,653,844,197,392,5e-23,115
Phialophora_americana_CBS400.67,SRR10595405.4577989,86.42,81,10,1,1171,1251,118,39,1e-14,87.9
Phialophora_americana_CBS400.67,SRR10595405.4577989,86.42,81,10,1,1171,1251,339,418,1e-14,87.9
Phialophora_americana_CBS400.67,SRR10595405.5506516,85.19,81,11,1,1171,1251,110,31,5e-13,82.4
Phialophora_americana_CBS400.67,SRR10595405.5506516,91.84,49,4,0,1171,1219,451,499,4e-09,69.4
Phialophora_americana_CBS400.67,SRR10595405.3977448,92.98,57,2,2,1171,1226,66,121,5e-13,82.4
Phialophora_americana_CBS400.67,SRR10595405.3977448,92.98,57,2,2,1171,1226,229,174,5e-13,82.4
Phialophora_americana_CBS400.67,SRR10595405.3931940,84.52,84,11,2,1172,1254,155,73,5e-13,82.4
Phialophora_americana_CBS400.67,SRR10595405.3931940,84.52,84,11,2,1172,1254,320,402,5e-13,82.4
Phialophora_americana_CBS400.67,SRR10595405.1200811,92.98,57,2,2,1171,1226,149,94,5e-13,82.4
Phialophora_americana_CBS400.67,SRR10595405.1627996,83.53,85,10,4,1172,1254,112,194,2e-11,76.8
Phialophora_americana_CBS400.67,SRR10595405.2009170,83.75,80,11,2,884,963,1,78,8e-11,75.0
Phialophora_americana_CBS400.67,SRR10595405.2009170,83.75,80,11,2,884,963,460,383,8e-11,75.0
Phialophora_americana_CBS400.67,SRR10595405.3507397,89.29,56,4,2,1172,1226,63,9,4e-09,69.4
Phialophora_verrucosa_CBS140325_T,SRR10595405.2657183,98.81,84,1,0,207,290,87,4,5e-34,150
Phialophora_verrucosa_CBS140325_T,SRR10595405.2657183,98.81,84,1,0,207,290,254,337,5e-34,150
Cladophialophora_samoensis_CBS259.83_T,SRR10595405.2657183,97.73,88,1,1,207,294,87,1,5e-34,150
Cladophialophora_samoensis_CBS259.83_T,SRR10595405.2657183,97.73,88,1,1,207,294,254,340,5e-34,150
Cladophialophora_carrionii_CBS260.83,SRR10595405.2657183,97.73,88,1,1,223,310,87,1,6e-34,150
Cladophialophora_carrionii_CBS260.83,SRR10595405.2657183,97.73,88,1,1,223,310,254,340,6e-34,150
Cladophialophora_carrionii_CBS260.83,SRR10595405.215624,100.00,30,0,0,1,30,433,404,1e-05,56.5
Exophiala_palmae_UPCB86822_T,SRR10595405.2657183,97.73,88,1,1,166,253,87,1,5e-34,150
Exophiala_palmae_UPCB86822_T,SRR10595405.2657183,97.73,88,1,1,166,253,254,340,5e-34,150
Cladophialophora_yegresii_CBS114405_T,SRR10595405.2657183,97.73,88,1,1,208,295,87,1,5e-34,150
Cladophialophora_yegresii_CBS114405_T,SRR10595405.2657183,97.73,88,1,1,208,295,254,340,5e-34,150
Knufia_epidermidis_CBS120353_T,SRR10595405.2657183,98.80,83,1,0,206,288,87,5,2e-33,148
Knufia_epidermidis_CBS120353_T,SRR10595405.2657183,98.80,83,1,0,206,288,254,336,2e-33,148
Arthrocladium_fulminans_CBS136243_T,SRR10595405.2657183,98.80,83,1,0,201,283,87,5,2e-33,148
Arthrocladium_fulminans_CBS136243_T,SRR10595405.2657183,98.80,83,1,0,201,283,254,336,2e-33,148
Anthopsis_deltoidea_CBS263.77_T,SRR10595405.2657183,98.78,82,1,0,210,291,87,6,6e-33,147
Anthopsis_deltoidea_CBS263.77_T,SRR10595405.2657183,98.78,82,1,0,210,291,254,335,6e-33,147
Cyphellophora_laciniata_CBS190.61_T,SRR10595405.2657183,93.88,98,5,1,280,376,103,6,9e-33,147
Cyphellophora_laciniata_CBS190.61_T,SRR10595405.2657183,93.88,98,5,1,280,376,238,335,9e-33,147
Cyphellophora_laciniata_CBS190.61_T,SRR10595405.5777613,93.68,95,6,0,641,735,148,54,1e-31,143
Cyphellophora_laciniata_CBS190.61_T,SRR10595405.5777613,100.00,71,0,0,29,99,383,453,2e-28,132
Cyphellophora_laciniata_CBS190.61_T,SRR10595405.4057970,100.00,76,0,0,660,735,130,55,4e-31,141
Cyphellophora_laciniata_CBS190.61_T,SRR10595405.4057970,100.00,76,0,0,660,735,167,242,4e-31,141
Cyphellophora_laciniata_CBS190.61_T,SRR10595405.2756395,92.11,76,6,0,660,735,332,257,4e-21,108
Cyphellophora_laciniata_CBS190.61_T,SRR10595405.5722648,98.25,57,1,0,43,99,103,47,7e-19,100
Cyphellophora_laciniata_CBS190.61_T,SRR10595405.5722648,98.25,57,1,0,43,99,272,328,7e-19,100
Cyphellophora_laciniata_CBS190.61_T,SRR10595405.5558687,98.25,57,1,0,43,99,174,230,7e-19,100
Cyphellophora_laciniata_CBS190.61_T,SRR10595405.5558687,98.25,57,1,0,43,99,367,311,7e-19,100
Cyphellophora_laciniata_CBS190.61_T,SRR10595405.5386063,98.25,57,1,0,43,99,110,166,7e-19,100
Cyphellophora_laciniata_CBS190.61_T,SRR10595405.5386063,98.25,57,1,0,43,99,411,355,7e-19,100
Cyphellophora_laciniata_CBS190.61_T,SRR10595405.4646911,98.25,57,1,0,43,99,367,311,7e-19,100
Cyphellophora_laciniata_CBS190.61_T,SRR10595405.3029048,98.25,57,1,0,43,99,313,257,7e-19,100
Cyphellophora_laciniata_CBS190.61_T,SRR10595405.2695639,98.25,57,1,0,43,99,148,92,7e-19,100
Cyphellophora_laciniata_CBS190.61_T,SRR10595405.2695639,98.25,57,1,0,43,99,435,491,7e-19,100
Cyphellophora_laciniata_CBS190.61_T,SRR10595405.2224098,98.25,57,1,0,43,99,111,167,7e-19,100
Cyphellophora_laciniata_CBS190.61_T,SRR10595405.2224098,96.15,52,2,0,48,99,479,428,2e-14,86.1
Cyphellophora_laciniata_CBS190.61_T,SRR10595405.1745264,98.25,57,1,0,43,99,139,83,7e-19,100
Cyphellophora_laciniata_CBS190.61_T,SRR10595405.1481848,98.25,57,1,0,43,99,132,76,7e-19,100
Cyphellophora_laciniata_CBS190.61_T,SRR10595405.1374202,98.25,57,1,0,43,99,257,313,7e-19,100
Cyphellophora_laciniata_CBS190.61_T,SRR10595405.5882146,95.16,62,3,0,38,99,115,54,3e-18,99.0
Cyphellophora_laciniata_CBS190.61_T,SRR10595405.5293510,95.16,62,3,0,38,99,198,137,3e-18,99.0
Cyphellophora_laciniata_CBS190.61_T,SRR10595405.4212506,98.21,56,1,0,43,98,340,395,3e-18,99.0
Cyphellophora_laciniata_CBS190.61_T,SRR10595405.4212506,96.49,57,2,0,43,99,103,47,3e-17,95.3
Cyphellophora_laciniata_CBS190.61_T,SRR10595405.4309582,98.15,54,1,0,46,99,250,303,3e-17,95.3
Cyphellophora_laciniata_CBS190.61_T,SRR10595405.4389926,94.12,51,3,0,38,88,51,1,3e-12,78.7
Cyphellophora_laciniata_CBS190.61_T,SRR10595405.4389926,94.12,51,3,0,38,88,378,428,3e-12,78.7
Cyphellophora_laciniata_CBS190.61_T,SRR10595405.3447966,97.62,42,1,0,43,84,293,252,2e-10,73.1
Cyphellophora_laciniata_CBS190.61_T,SRR10595405.2489282,97.62,42,1,0,43,84,210,251,2e-10,73.1
Cyphellophora_laciniata_CBS190.61_T,SRR10595405.617846,100.00,32,0,0,704,735,127,96,1e-06,60.2
Cyphellophora_laciniata_CBS190.61_T,SRR10595405.617846,100.00,32,0,0,704,735,128,159,1e-06,60.2
Cyphellophora_laciniata_CBS190.61_T,SRR10595405.3630058,100.00,30,0,0,70,99,152,181,2e-05,56.5
Cyphellophora_laciniata_CBS190.61_T,SRR10595405.3630058,100.00,30,0,0,70,99,363,334,2e-05,56.5
Cyphellophora_suttonii_CBS449.91,SRR10595405.2657183,94.00,100,5,1,180,279,104,6,5e-34,150
Cyphellophora_suttonii_CBS449.91,SRR10595405.2657183,94.00,100,5,1,180,279,237,335,5e-34,150
Cyphellophora_pauciseptata_CBS284.85_T,SRR10595405.2657183,95.00,100,4,1,191,290,104,6,1e-35,156
Cyphellophora_pauciseptata_CBS284.85_T,SRR10595405.2657183,95.00,100,4,1,191,290,237,335,1e-35,156
Cyphellophora_pluriseptata_CBS286.85_T,SRR10595405.2657183,97.56,82,2,0,214,295,87,6,3e-31,141
Cyphellophora_pluriseptata_CBS286.85_T,SRR10595405.2657183,97.56,82,2,0,214,295,254,335,3e-31,141
Phialophora_europaea_CBS101466,SRR10595405.2657183,94.90,98,4,1,189,285,103,6,1e-34,152
Phialophora_europaea_CBS101466,SRR10595405.2657183,94.90,98,4,1,189,285,238,335,1e-34,152
Phialophora_ambigua_CBS235.93,SRR10595405.2657183,91.74,109,6,2,176,282,113,6,2e-33,148
Phialophora_ambigua_CBS235.93,SRR10595405.2657183,91.74,109,6,2,176,282,228,335,2e-33,148
Cladophialophora_modesta_CBS985.96_T,SRR10595405.2657183,98.80,83,1,0,198,280,87,5,2e-33,148
Cladophialophora_modesta_CBS985.96_T,SRR10595405.2657183,98.80,83,1,0,198,280,254,336,2e-33,148
Cladophialophora_modesta_CBS985.96_T,SRR10595405.5777613,92.63,95,7,0,525,619,148,54,4e-30,137
Cladophialophora_modesta_CBS985.96_T,SRR10595405.4057970,98.68,76,1,0,544,619,130,55,2e-29,135
Cladophialophora_modesta_CBS985.96_T,SRR10595405.4057970,98.68,76,1,0,544,619,167,242,2e-29,135
Cladophialophora_modesta_CBS985.96_T,SRR10595405.2756395,90.79,76,7,0,544,619,332,257,2e-19,102
Cyphellophora_fusarioides_MUCL44033_T,SRR10595405.2657183,98.78,82,1,0,197,278,87,6,6e-33,147
Cyphellophora_fusarioides_MUCL44033_T,SRR10595405.2657183,98.78,82,1,0,197,278,254,335,6e-33,147
