Exophiala_jeanselmei_CBS507.90_T,DRR219025.29066,97.44,39,1,0,566,604,340,302,6e-11,67.6
Exophiala_pisciphila_CBS537.73_T,DRR219025.29066,100.00,35,0,0,579,613,336,302,2e-10,65.8
Exophiala_mesophila_CBS402.95_T,DRR219025.29066,97.44,39,1,0,572,610,340,302,6e-11,67.6
Exophiala_castellanii_CBS158.58_T,DRR219025.29066,97.44,39,1,0,571,609,340,302,6e-11,67.6
Exophiala_dermatitidis_CBS748.88,DRR219025.29066,97.44,39,1,0,597,635,340,302,2e-10,67.6
Exophiala_salmonis_CBS157.67_T,DRR219025.29066,100.00,35,0,0,699,733,336,302,3e-10,65.8
Exophiala_cancerae_CBS120420_T,DRR219025.29066,100.00,35,0,0,590,624,336,302,2e-10,65.8
Rhinocladiella_aquaspersa_CBS313.73_T,DRR219025.29066,100.00,35,0,0,571,605,336,302,2e-10,65.8
Capronia_dactylotricha_DAOM208471_T,DRR219025.29066,100.00,35,0,0,584,618,336,302,2e-10,65.8
Capronia_kleinmondensis_CBS122671_T,DRR219025.29066,100.00,35,0,0,590,624,336,302,2e-10,65.8
Capronia_mansonii_CBS101.67_T,DRR219025.29066,97.44,39,1,0,590,628,340,302,7e-11,67.6
Capronia_munkii_DAOM216390_T,DRR219025.29066,97.44,39,1,0,590,628,340,302,7e-11,67.6
Capronia_coronata_ATCC56201_T,DRR219025.29066,97.44,39,1,0,561,599,340,302,6e-11,67.6
Capronia_acutiseta_ATCC56428_T,DRR219025.29066,100.00,35,0,0,564,598,336,302,2e-10,65.8
Fonsecaea_pedrosoi_CBS271.37_T,DRR219025.29066,94.87,39,2,0,607,645,340,302,3e-09,62.1
Cladophialophora_australiensis_CBS112793,DRR219025.29066,94.87,39,2,0,568,606,340,302,7e-09,62.1
Cladophialophora_potulentorum_CBS112222,DRR219025.29066,94.87,39,2,0,570,608,340,302,7e-09,62.1
Cyphellophora_laciniata_CBS190.61_T,DRR219025.29066,97.44,39,1,0,657,695,340,302,7e-11,67.6
Cladophialophora_modesta_CBS985.96_T,DRR219025.29066,100.00,35,0,0,545,579,336,302,2e-10,65.8
