Exophiala_polymorpha_CBS138920_T,SRR8466086.8731671,100.00,28,0,0,82,109,78,51,4e-04,52.8
Exophiala_pisciphila_CBS537.73_T,SRR8466086.3955442,92.50,80,5,1,575,653,239,160,2e-22,113
Exophiala_brunnea_CBS,SRR8466086.8731671,100.00,41,0,0,1,41,91,51,2e-11,76.8
Exophiala_brunnea_CBS,SRR8466086.8730687,97.56,41,1,0,1,41,91,51,1e-09,71.3
Exophiala_mesophila_CBS402.95_T,SRR8466086.3955442,92.59,81,6,0,570,650,240,160,1e-23,117
Exophiala_castellanii_CBS158.58_T,SRR8466086.3955442,92.59,81,6,0,569,649,240,160,1e-23,117
Exophiala_dermatitidis_CBS748.88,SRR8466086.4531115,88.37,129,15,0,1374,1502,291,163,2e-40,174
Exophiala_dermatitidis_CBS748.88,SRR8466086.3955442,92.13,89,7,0,595,683,240,152,5e-26,126
Exophiala_dermatitidis_CBS748.88,SRR8466086.1153456,85.34,116,12,3,1316,1428,114,1,1e-22,115
Exophiala_dermatitidis_CBS748.88,SRR8466086.13704544,90.67,75,5,2,1359,1432,225,152,1e-17,99.0
Exophiala_dermatitidis_CBS748.88,SRR8466086.13704544,100.00,31,0,0,1210,1240,80,110,2e-05,58.4
Exophiala_salmonis_CBS157.67_T,SRR8466086.3955442,92.50,80,5,1,695,773,239,160,2e-22,113
Exophiala_tremulae_CBS129355,SRR8466086.8731671,100.00,41,0,0,1,41,91,51,2e-11,76.8
Exophiala_tremulae_CBS129355,SRR8466086.8730687,97.56,41,1,0,1,41,91,51,1e-09,71.3
Rhinocladiella_atrovirens_CBS264.49,SRR8466086.8731671,100.00,44,0,0,1,44,96,53,5e-13,82.4
Rhinocladiella_atrovirens_CBS264.49,SRR8466086.8730687,97.73,44,1,0,1,44,96,53,2e-11,76.8
Rhinocladiella_aquaspersa_CBS313.73_T,SRR8466086.3955442,92.86,84,5,1,567,649,239,156,1e-24,121
Rhinocladiella_mackenziei_CBS367.92,SRR8466086.8731671,100.00,28,0,0,1,28,78,51,4e-04,52.8
Veronaea_compacta_CBS268.75_T,SRR8466086.8731671,100.00,29,0,0,1,29,79,51,1e-04,54.7
Capronia_dactylotricha_DAOM208471_T,SRR8466086.3955442,92.50,80,5,1,580,658,239,160,2e-22,113
Capronia_kleinmondensis_CBS122671_T,SRR8466086.3955442,92.50,80,5,1,586,664,239,160,2e-22,113
Capronia_kleinmondensis_CBS122671_T,SRR8466086.8731671,100.00,30,0,0,1,30,82,53,3e-05,56.5
Capronia_mansonii_CBS101.67_T,SRR8466086.3955442,92.59,81,6,0,588,668,240,160,1e-23,117
Capronia_munkii_DAOM216390_T,SRR8466086.3955442,92.59,81,6,0,588,668,240,160,1e-23,117
Capronia_coronata_ATCC56201_T,SRR8466086.3955442,92.59,81,6,0,559,639,240,160,1e-23,117
Veronaea_japonica_CBS776.83_T,SRR8466086.8731671,100.00,40,0,0,1,40,90,51,8e-11,75.0
Veronaea_japonica_CBS776.83_T,SRR8466086.8730687,97.50,40,1,0,1,40,90,51,4e-09,69.4
Capronia_acutiseta_ATCC56428_T,SRR8466086.3955442,92.50,80,5,1,560,638,239,160,2e-22,113
Fonsecaea_pedrosoi_CBS271.37_T,SRR8466086.8731671,100.00,31,0,0,1,31,82,52,8e-06,58.4
Cladophialophora_australiensis_CBS112793,SRR8466086.4531115,88.37,129,15,0,1341,1469,291,163,2e-40,174
Cladophialophora_australiensis_CBS112793,SRR8466086.3955442,91.76,85,7,0,566,650,240,156,9e-24,119
Cladophialophora_australiensis_CBS112793,SRR8466086.1153456,83.62,116,14,2,1283,1395,114,1,2e-19,104
Cladophialophora_australiensis_CBS112793,SRR8466086.13704544,89.33,75,6,2,1326,1399,225,152,5e-16,93.5
Cladophialophora_australiensis_CBS112793,SRR8466086.13704544,100.00,31,0,0,1177,1207,80,110,2e-05,58.4
Cladophialophora_potulentorum_CBS112222,SRR8466086.4531115,87.86,140,17,0,1343,1482,291,152,3e-43,183
Cladophialophora_potulentorum_CBS112222,SRR8466086.3955442,91.76,85,7,0,568,652,240,156,9e-24,119
Cladophialophora_potulentorum_CBS112222,SRR8466086.1153456,83.62,116,14,2,1285,1397,114,1,3e-19,104
Cladophialophora_potulentorum_CBS112222,SRR8466086.13704544,89.33,75,6,2,1328,1401,225,152,5e-16,93.5
Cladophialophora_potulentorum_CBS112222,SRR8466086.13704544,100.00,31,0,0,1179,1209,80,110,2e-05,58.4
Cladophialophora_chaetospira_CBS127573,SRR8466086.14970064,91.55,71,6,0,187,257,63,133,7e-18,99.0
Cladophialophora_chaetospira_CBS127573,SRR8466086.8731671,100.00,33,0,0,379,411,83,51,1e-06,62.1
Phialophora_americana_CBS400.67,SRR8466086.18276519,89.13,138,15,0,825,962,152,15,7e-40,172
Phialophora_americana_CBS400.67,SRR8466086.4531115,86.49,111,15,0,1335,1445,291,181,2e-30,141
Phialophora_americana_CBS400.67,SRR8466086.1153456,83.62,116,14,2,1277,1389,114,1,2e-19,104
Phialophora_americana_CBS400.67,SRR8466086.13704544,90.67,75,5,2,1320,1393,225,152,1e-17,99.0
Phialophora_americana_CBS400.67,SRR8466086.13704544,100.00,31,0,0,1171,1201,80,110,2e-05,58.4
Cyphellophora_laciniata_CBS190.61_T,SRR8466086.8731671,97.22,72,2,0,29,100,124,53,3e-25,122
Cyphellophora_laciniata_CBS190.61_T,SRR8466086.8730687,95.83,72,3,0,29,100,124,53,2e-23,117
Cyphellophora_laciniata_CBS190.61_T,SRR8466086.3955442,91.36,81,7,0,655,735,240,160,7e-22,111
Cladophialophora_modesta_CBS985.96_T,SRR8466086.3955442,92.59,81,6,0,539,619,240,160,1e-23,117
