Exophiala_nigra_CBS535.94_T,DRR219046.8970,91.95,87,6,1,287,373,1,86,6e-27,121
Exophiala_nigra_CBS535.94_T,DRR219046.8970,92.05,88,4,3,287,373,556,471,6e-27,121
Exophiala_spinifera_CBS899.68_T,DRR219046.8970,88.46,104,9,3,284,387,1,101,1e-27,122
Exophiala_spinifera_CBS899.68_T,DRR219046.8970,88.57,105,7,5,284,387,556,456,1e-27,122
Exophiala_exophialae_CBS668.76_T,DRR219046.8970,88.46,104,9,3,285,388,1,101,1e-27,122
Exophiala_exophialae_CBS668.76_T,DRR219046.8970,88.57,105,7,5,285,388,556,456,1e-27,122
Exophiala_polymorpha_CBS138920_T,DRR219046.8970,88.46,104,9,3,387,490,1,101,2e-27,122
Exophiala_polymorpha_CBS138920_T,DRR219046.8970,88.57,105,7,5,387,490,556,456,2e-27,122
Exophiala_polymorpha_CBS138920_T,DRR219046.8970,98.00,50,1,0,645,694,221,270,7e-17,87.9
Exophiala_polymorpha_CBS138920_T,DRR219046.8970,98.00,50,1,0,645,694,336,287,7e-17,87.9
Exophiala_polymorpha_CBS138920_T,DRR219046.23712,91.30,46,3,1,649,694,358,314,4e-09,62.1
Exophiala_oligosperma_CBS725.88_T,DRR219046.8970,86.96,115,11,3,297,411,1,111,1e-28,126
Exophiala_oligosperma_CBS725.88_T,DRR219046.8970,87.07,116,9,5,297,411,556,446,1e-28,126
Exophiala_jeanselmei_CBS507.90_T,DRR219046.8970,88.46,104,9,3,289,392,1,101,2e-27,122
Exophiala_jeanselmei_CBS507.90_T,DRR219046.8970,88.57,105,7,5,289,392,556,456,2e-27,122
Exophiala_jeanselmei_CBS507.90_T,DRR219046.8970,98.28,58,1,0,547,604,221,278,2e-21,102
Exophiala_jeanselmei_CBS507.90_T,DRR219046.8970,98.28,58,1,0,547,604,336,279,2e-21,102
Exophiala_jeanselmei_CBS507.90_T,DRR219046.28213,93.10,58,4,0,547,604,362,305,2e-16,86.1
Exophiala_jeanselmei_CBS507.90_T,DRR219046.23712,92.59,54,3,1,551,604,358,306,1e-13,76.8
Exophiala_bergeri_CBS353.52,DRR219046.8970,91.95,87,6,1,250,336,1,86,5e-27,121
Exophiala_bergeri_CBS353.52,DRR219046.8970,92.05,88,4,3,250,336,556,471,5e-27,121
Exophiala_moniliae_CBS520.76_T,DRR219046.8970,90.91,88,5,3,287,373,1,86,3e-25,115
Exophiala_moniliae_CBS520.76_T,DRR219046.8970,91.01,89,3,5,287,373,556,471,3e-25,115
Exophiala_pisciphila_CBS537.73_T,DRR219046.8970,88.57,105,7,5,290,393,1,101,2e-27,122
Exophiala_pisciphila_CBS537.73_T,DRR219046.8970,88.68,106,5,7,290,393,556,456,2e-27,122
Exophiala_pisciphila_CBS537.73_T,DRR219046.8970,100.00,58,0,0,556,613,221,278,5e-23,108
Exophiala_pisciphila_CBS537.73_T,DRR219046.8970,100.00,58,0,0,556,613,336,279,5e-23,108
Exophiala_pisciphila_CBS537.73_T,DRR219046.28213,91.38,58,5,0,556,613,362,305,1e-14,80.5
Exophiala_pisciphila_CBS537.73_T,DRR219046.23712,90.74,54,4,1,560,613,358,306,7e-12,71.3
Exophiala_xenobiotica_CBS117642,DRR219046.8970,88.46,104,9,3,282,385,1,101,1e-27,122
Exophiala_xenobiotica_CBS117642,DRR219046.8970,88.57,105,7,5,282,385,556,456,1e-27,122
Exophiala_brunnea_CBS,DRR219046.8970,87.62,105,8,5,318,421,1,101,8e-26,117
Exophiala_brunnea_CBS,DRR219046.8970,87.74,106,6,7,318,421,556,456,8e-26,117
Exophiala_brunnea_CBS,DRR219046.8970,97.87,47,1,0,587,633,221,267,8e-16,84.2
Exophiala_brunnea_CBS,DRR219046.8970,97.87,47,1,0,587,633,336,290,8e-16,84.2
Exophiala_nishimurae_CBS101538_T,DRR219046.8970,87.50,112,11,2,296,407,1,109,1e-28,126
Exophiala_nishimurae_CBS101538_T,DRR219046.8970,87.61,113,9,4,296,407,556,448,1e-28,126
Exophiala_mesophila_CBS402.95_T,DRR219046.8970,90.91,88,5,3,280,366,1,86,3e-25,115
Exophiala_mesophila_CBS402.95_T,DRR219046.8970,91.01,89,3,5,280,366,556,471,3e-25,115
Exophiala_mesophila_CBS402.95_T,DRR219046.8970,98.28,58,1,0,553,610,221,278,2e-21,102
Exophiala_mesophila_CBS402.95_T,DRR219046.8970,98.28,58,1,0,553,610,336,279,2e-21,102
Exophiala_mesophila_CBS402.95_T,DRR219046.28213,93.10,58,4,0,553,610,362,305,2e-16,86.1
Exophiala_mesophila_CBS402.95_T,DRR219046.23712,92.59,54,3,1,557,610,358,306,1e-13,76.8
Exophiala_castellanii_CBS158.58_T,DRR219046.8970,90.91,88,5,3,278,364,1,86,3e-25,115
Exophiala_castellanii_CBS158.58_T,DRR219046.8970,91.01,89,3,5,278,364,556,471,3e-25,115
Exophiala_castellanii_CBS158.58_T,DRR219046.8970,98.28,58,1,0,552,609,221,278,2e-21,102
Exophiala_castellanii_CBS158.58_T,DRR219046.8970,98.28,58,1,0,552,609,336,279,2e-21,102
Exophiala_castellanii_CBS158.58_T,DRR219046.28213,93.10,58,4,0,552,609,362,305,2e-16,86.1
Exophiala_castellanii_CBS158.58_T,DRR219046.23712,92.59,54,3,1,556,609,358,306,1e-13,76.8
Exophiala_lecanii-corni_CBS123.33_T,DRR219046.8970,90.91,88,5,3,301,387,1,86,3e-25,115
Exophiala_lecanii-corni_CBS123.33_T,DRR219046.8970,91.01,89,3,5,301,387,556,471,3e-25,115
Exophiala_dermatitidis_CBS748.88,DRR219046.8970,86.55,119,9,5,293,410,1,113,1e-27,124
Exophiala_dermatitidis_CBS748.88,DRR219046.8970,86.67,120,7,7,293,410,556,444,1e-27,124
Exophiala_dermatitidis_CBS748.88,DRR219046.8970,98.28,58,1,0,578,635,221,278,5e-21,102
Exophiala_dermatitidis_CBS748.88,DRR219046.8970,98.28,58,1,0,578,635,336,279,5e-21,102
Exophiala_dermatitidis_CBS748.88,DRR219046.28213,93.10,58,4,0,578,635,362,305,6e-16,86.1
Exophiala_dermatitidis_CBS748.88,DRR219046.23712,92.59,54,3,1,582,635,358,306,3e-13,76.8
Exophiala_angulospora_CBS482.92_T,DRR219046.8970,91.76,85,4,3,284,367,1,83,2e-25,115
Exophiala_angulospora_CBS482.92_T,DRR219046.8970,91.86,86,2,5,284,367,556,474,2e-25,115
Exophiala_opportunistica_CBS109811_T,DRR219046.8970,89.52,105,6,5,283,386,1,101,3e-29,128
Exophiala_opportunistica_CBS109811_T,DRR219046.8970,89.62,106,4,7,283,386,556,456,3e-29,128
Exophiala_salmonis_CBS157.67_T,DRR219046.8970,88.57,105,7,5,412,515,1,101,2e-27,122
Exophiala_salmonis_CBS157.67_T,DRR219046.8970,88.68,106,5,7,412,515,556,456,2e-27,122
Exophiala_salmonis_CBS157.67_T,DRR219046.8970,100.00,58,0,0,676,733,221,278,6e-23,108
Exophiala_salmonis_CBS157.67_T,DRR219046.8970,100.00,58,0,0,676,733,336,279,6e-23,108
Exophiala_salmonis_CBS157.67_T,DRR219046.28213,91.38,58,5,0,676,733,362,305,1e-14,80.5
Exophiala_salmonis_CBS157.67_T,DRR219046.23712,90.74,54,4,1,680,733,358,306,8e-12,71.3
Exophiala_aquamarina_CBS119918_T,DRR219046.8970,87.72,114,8,5,290,402,1,109,3e-29,128
Exophiala_aquamarina_CBS119918_T,DRR219046.8970,87.83,115,6,7,290,402,556,448,3e-29,128
Exophiala_cancerae_CBS120420_T,DRR219046.8970,89.52,105,6,5,305,408,1,101,4e-29,128
Exophiala_cancerae_CBS120420_T,DRR219046.8970,89.62,106,4,7,305,408,556,456,4e-29,128
Exophiala_cancerae_CBS120420_T,DRR219046.8970,100.00,58,0,0,567,624,221,278,5e-23,108
Exophiala_cancerae_CBS120420_T,DRR219046.8970,100.00,58,0,0,567,624,336,279,5e-23,108
Exophiala_cancerae_CBS120420_T,DRR219046.28213,91.38,58,5,0,567,624,362,305,1e-14,80.5
Exophiala_cancerae_CBS120420_T,DRR219046.23712,90.74,54,4,1,571,624,358,306,6e-12,71.3
Exophiala_tremulae_CBS129355,DRR219046.8970,89.52,105,6,5,317,420,1,101,4e-29,128
Exophiala_tremulae_CBS129355,DRR219046.8970,89.62,106,4,7,317,420,556,456,4e-29,128
Exophiala_tremulae_CBS129355,DRR219046.8970,100.00,47,0,0,582,628,221,267,6e-17,87.9
Exophiala_tremulae_CBS129355,DRR219046.8970,100.00,47,0,0,582,628,336,290,6e-17,87.9
Exophiala_equina_CBS116009,DRR219046.8970,89.52,105,6,5,283,386,1,101,3e-29,128
Exophiala_equina_CBS116009,DRR219046.8970,89.62,106,4,7,283,386,556,456,3e-29,128
Exophiala_alcalophila_CBS520.82_T,DRR219046.8970,85.96,114,10,4,294,406,1,109,7e-26,117
Exophiala_alcalophila_CBS520.82_T,DRR219046.8970,86.09,115,8,6,294,406,556,448,7e-26,117
Exophiala_crusticola_CBS119970_T,DRR219046.8970,92.05,88,4,3,299,385,1,86,5e-27,121
Exophiala_crusticola_CBS119970_T,DRR219046.8970,92.13,89,2,5,299,385,556,471,5e-27,121
Rhinocladiella_atrovirens_CBS264.49,DRR219046.8970,90.91,88,5,3,325,411,1,86,3e-25,115
Rhinocladiella_atrovirens_CBS264.49,DRR219046.8970,91.01,89,3,5,325,411,556,471,3e-25,115
Rhinocladiella_atrovirens_CBS264.49,DRR219046.8970,100.00,46,0,0,581,626,221,266,2e-16,86.1
Rhinocladiella_atrovirens_CBS264.49,DRR219046.8970,100.00,46,0,0,581,626,336,291,2e-16,86.1
Rhinocladiella_basitona_CBS101460_T,DRR219046.8970,88.46,104,9,3,284,387,1,101,1e-27,122
Rhinocladiella_basitona_CBS101460_T,DRR219046.8970,88.57,105,7,5,284,387,556,456,1e-27,122
Rhinocladiella_phaeophora_CBS496.78_T,DRR219046.8970,92.05,88,4,3,292,378,1,86,6e-27,121
Rhinocladiella_phaeophora_CBS496.78_T,DRR219046.8970,92.13,89,2,5,292,378,556,471,6e-27,121
Rhinocladiella_aquaspersa_CBS313.73_T,DRR219046.8970,92.05,88,4,3,286,372,1,86,6e-27,121
Rhinocladiella_aquaspersa_CBS313.73_T,DRR219046.8970,92.13,89,2,5,286,372,556,471,6e-27,121
Rhinocladiella_aquaspersa_CBS313.73_T,DRR219046.8970,94.83,58,0,3,551,605,221,278,7e-17,87.9
Rhinocladiella_aquaspersa_CBS313.73_T,DRR219046.8970,94.83,58,0,3,551,605,336,279,7e-17,87.9
Rhinocladiella_aquaspersa_CBS313.73_T,DRR219046.23712,90.74,54,4,1,553,605,359,306,7e-12,71.3
Rhinocladiella_aquaspersa_CBS313.73_T,DRR219046.28213,91.67,48,3,1,559,605,352,305,3e-10,65.8
Rhinocladiella_fasciculata_CBS132.86_T,DRR219046.8970,89.77,88,6,3,302,388,1,86,1e-23,110
Rhinocladiella_fasciculata_CBS132.86_T,DRR219046.8970,89.89,89,4,5,302,388,556,471,1e-23,110
Rhinocladiella_anceps_CBS181.65_T,DRR219046.8970,90.80,87,7,1,284,370,1,86,3e-25,115
Rhinocladiella_anceps_CBS181.65_T,DRR219046.8970,90.91,88,5,3,284,370,556,471,3e-25,115
Rhinocladiella_mackenziei_CBS367.92,DRR219046.8970,91.95,87,4,3,273,358,1,85,2e-26,119
Rhinocladiella_mackenziei_CBS367.92,DRR219046.8970,92.05,88,2,5,273,358,556,472,2e-26,119
Rhinocladiella_mackenziei_CBS367.92,DRR219046.8970,100.00,41,0,0,568,608,221,261,1e-13,76.8
Rhinocladiella_mackenziei_CBS367.92,DRR219046.8970,100.00,41,0,0,568,608,336,296,1e-13,76.8
Veronaea_compacta_CBS268.75_T,DRR219046.8970,86.79,106,8,6,306,410,1,101,1e-24,113
Veronaea_compacta_CBS268.75_T,DRR219046.8970,86.92,107,6,8,306,410,556,456,1e-24,113
Capronia_pilosella_AFTOL-ID657,DRR219046.8970,88.68,106,6,5,384,488,1,101,5e-28,124
Capronia_pilosella_AFTOL-ID657,DRR219046.8970,88.79,107,4,7,384,488,556,456,5e-28,124
Capronia_dactylotricha_DAOM208471_T,DRR219046.8970,90.91,88,6,2,286,373,1,86,8e-26,117
Capronia_dactylotricha_DAOM208471_T,DRR219046.8970,91.01,89,4,4,286,373,556,471,8e-26,117
Capronia_dactylotricha_DAOM208471_T,DRR219046.8970,100.00,58,0,0,561,618,221,278,5e-23,108
Capronia_dactylotricha_DAOM208471_T,DRR219046.8970,100.00,58,0,0,561,618,336,279,5e-23,108
Capronia_dactylotricha_DAOM208471_T,DRR219046.28213,91.38,58,5,0,561,618,362,305,1e-14,80.5
Capronia_dactylotricha_DAOM208471_T,DRR219046.23712,90.74,54,4,1,565,618,358,306,7e-12,71.3
Capronia_kleinmondensis_CBS122671_T,DRR219046.8970,90.91,88,5,3,311,397,1,86,3e-25,115
Capronia_kleinmondensis_CBS122671_T,DRR219046.8970,91.01,89,3,5,311,397,556,471,3e-25,115
Capronia_kleinmondensis_CBS122671_T,DRR219046.8970,100.00,58,0,0,567,624,221,278,5e-23,108
Capronia_kleinmondensis_CBS122671_T,DRR219046.8970,100.00,58,0,0,567,624,336,279,5e-23,108
Capronia_kleinmondensis_CBS122671_T,DRR219046.28213,91.38,58,5,0,567,624,362,305,1e-14,80.5
Capronia_kleinmondensis_CBS122671_T,DRR219046.23712,90.74,54,4,1,571,624,358,306,7e-12,71.3
Capronia_mansonii_CBS101.67_T,DRR219046.8970,87.39,119,8,5,297,414,1,113,1e-29,130
Capronia_mansonii_CBS101.67_T,DRR219046.8970,87.50,120,6,7,297,414,556,444,1e-29,130
Capronia_mansonii_CBS101.67_T,DRR219046.8970,98.28,58,1,0,571,628,221,278,2e-21,102
Capronia_mansonii_CBS101.67_T,DRR219046.8970,98.28,58,1,0,571,628,336,279,2e-21,102
Capronia_mansonii_CBS101.67_T,DRR219046.28213,93.10,58,4,0,571,628,362,305,2e-16,86.1
Capronia_mansonii_CBS101.67_T,DRR219046.23712,92.59,54,3,1,575,628,358,306,1e-13,76.8
Capronia_munkii_DAOM216390_T,DRR219046.8970,87.39,119,8,5,297,414,1,113,1e-29,130
Capronia_munkii_DAOM216390_T,DRR219046.8970,87.50,120,6,7,297,414,556,444,1e-29,130
Capronia_munkii_DAOM216390_T,DRR219046.8970,98.28,58,1,0,571,628,221,278,2e-21,102
Capronia_munkii_DAOM216390_T,DRR219046.8970,98.28,58,1,0,571,628,336,279,2e-21,102
Capronia_munkii_DAOM216390_T,DRR219046.28213,93.10,58,4,0,571,628,362,305,2e-16,86.1
Capronia_munkii_DAOM216390_T,DRR219046.23712,92.59,54,3,1,575,628,358,306,1e-13,76.8
Capronia_coronata_ATCC56201_T,DRR219046.8970,85.71,119,10,5,285,402,1,113,2e-26,119
Capronia_coronata_ATCC56201_T,DRR219046.8970,85.83,120,8,7,285,402,556,444,2e-26,119
Capronia_coronata_ATCC56201_T,DRR219046.8970,98.28,58,1,0,542,599,221,278,2e-21,102
Capronia_coronata_ATCC56201_T,DRR219046.8970,98.28,58,1,0,542,599,336,279,2e-21,102
Capronia_coronata_ATCC56201_T,DRR219046.28213,93.10,58,4,0,542,599,362,305,2e-16,86.1
Capronia_coronata_ATCC56201_T,DRR219046.23712,92.59,54,3,1,546,599,358,306,1e-13,76.8
Capronia_parasitica_CBS123.88,DRR219046.8970,91.86,86,4,3,291,375,1,84,8e-26,117
Capronia_parasitica_CBS123.88,DRR219046.8970,91.95,87,2,5,291,375,556,473,8e-26,117
Capronia_parasitica_CBS123.88,DRR219046.8970,100.00,33,0,0,563,595,221,253,4e-09,62.1
Capronia_parasitica_CBS123.88,DRR219046.8970,100.00,33,0,0,563,595,336,304,4e-09,62.1
Veronaea_japonica_CBS776.83_T,DRR219046.8970,88.57,105,7,5,319,422,1,101,2e-27,122
Veronaea_japonica_CBS776.83_T,DRR219046.8970,88.68,106,5,7,319,422,556,456,2e-27,122
Thysanorea_papuana_CBS212.96_T,DRR219046.8970,89.52,105,6,4,293,396,1,101,3e-29,128
Thysanorea_papuana_CBS212.96_T,DRR219046.8970,89.62,106,4,6,293,396,556,456,3e-29,128
Capronia_acutiseta_ATCC56428_T,DRR219046.8970,91.86,86,4,3,286,370,1,84,8e-26,117
Capronia_acutiseta_ATCC56428_T,DRR219046.8970,91.95,87,2,5,286,370,556,473,8e-26,117
Capronia_acutiseta_ATCC56428_T,DRR219046.8970,100.00,58,0,0,541,598,221,278,5e-23,108
Capronia_acutiseta_ATCC56428_T,DRR219046.8970,100.00,58,0,0,541,598,336,279,5e-23,108
Capronia_acutiseta_ATCC56428_T,DRR219046.28213,91.38,58,5,0,541,598,362,305,1e-14,80.5
Capronia_acutiseta_ATCC56428_T,DRR219046.23712,90.74,54,4,1,545,598,358,306,6e-12,71.3
Fonsecaea_brasiliensis_CBS119710_T,DRR219046.8970,87.72,114,8,4,293,405,1,109,3e-29,128
Fonsecaea_brasiliensis_CBS119710_T,DRR219046.8970,87.83,115,6,6,293,405,556,448,3e-29,128
Fonsecaea_pedrosoi_CBS271.37_T,DRR219046.8970,87.83,115,7,4,321,434,1,109,4e-29,128
Fonsecaea_pedrosoi_CBS271.37_T,DRR219046.8970,87.93,116,5,6,321,434,556,448,4e-29,128
Fonsecaea_pedrosoi_CBS271.37_T,DRR219046.8970,96.55,58,2,0,588,645,221,278,1e-19,97.1
Fonsecaea_pedrosoi_CBS271.37_T,DRR219046.8970,96.55,58,2,0,588,645,336,279,1e-19,97.1
Fonsecaea_pedrosoi_CBS271.37_T,DRR219046.28213,91.38,58,5,0,588,645,362,305,1e-14,80.5
Fonsecaea_pedrosoi_CBS271.37_T,DRR219046.23712,90.74,54,4,1,592,645,358,306,6e-12,71.3
Fonsecaea_multimorphosa_CBS980.96_T,DRR219046.8970,89.62,106,5,5,291,395,1,101,9e-30,130
Fonsecaea_multimorphosa_CBS980.96_T,DRR219046.8970,89.72,107,3,7,291,395,556,456,9e-30,130
Fonsecaea_minima_CBS125760_T,DRR219046.8970,88.68,106,6,4,287,391,1,101,4e-28,124
Fonsecaea_minima_CBS125760_T,DRR219046.8970,88.79,107,4,6,287,391,556,456,4e-28,124
Fonsecaea_nubica_CBS269.64_T,DRR219046.8970,87.85,107,6,5,298,403,1,101,2e-26,119
Fonsecaea_nubica_CBS269.64_T,DRR219046.8970,87.96,108,4,7,298,403,556,456,2e-26,119
Fonsecaea_monophora_CBS269.37_T,DRR219046.8970,87.83,115,7,4,299,412,1,109,3e-29,128
Fonsecaea_monophora_CBS269.37_T,DRR219046.8970,87.93,116,5,6,299,412,556,448,3e-29,128
Fonsecaea_erecta_CBS125763_T,DRR219046.8970,89.62,106,5,5,282,386,1,101,9e-30,130
Fonsecaea_erecta_CBS125763_T,DRR219046.8970,89.72,107,3,7,282,386,556,456,9e-30,130
Fonsecaea_pugnacius_CBS139214_T,DRR219046.8970,87.96,108,5,4,291,397,1,101,5e-27,121
Fonsecaea_pugnacius_CBS139214_T,DRR219046.8970,88.07,109,3,6,291,397,556,456,5e-27,121
Cladophialophora_psammophila_CBS,DRR219046.8970,88.50,113,6,6,297,408,1,107,9e-30,130
Cladophialophora_psammophila_CBS,DRR219046.8970,88.60,114,4,8,297,408,556,450,9e-30,130
Cladophialophora_devriesii_CBS,DRR219046.8970,88.60,114,7,5,293,405,1,109,7e-31,134
Cladophialophora_devriesii_CBS,DRR219046.8970,88.70,115,5,7,293,405,556,448,7e-31,134
Cladophialophora_immunda_CBS834.96,DRR219046.8970,88.68,106,6,4,295,399,1,101,4e-28,124
Cladophialophora_immunda_CBS834.96,DRR219046.8970,88.79,107,4,6,295,399,556,456,4e-28,124
Cladophialophora_arxii_CBS306.94_T,DRR219046.8970,87.96,108,5,4,297,403,1,101,5e-27,121
Cladophialophora_arxii_CBS306.94_T,DRR219046.8970,88.07,109,3,6,297,403,556,456,5e-27,121
Cladophialophora_bantiana_CBS173.52,DRR219046.8970,88.50,113,6,6,291,402,1,107,9e-30,130
Cladophialophora_bantiana_CBS173.52,DRR219046.8970,88.60,114,4,8,291,402,556,450,9e-30,130
Cladophialophora_emmonsii_CBS102594,DRR219046.8970,88.79,107,5,4,282,387,1,101,4e-28,124
Cladophialophora_emmonsii_CBS102594,DRR219046.8970,88.89,108,3,6,282,387,556,456,4e-28,124
Cladophialophora_minourae_CBS556.83,DRR219046.8970,87.85,107,6,6,290,395,1,101,5e-27,121
Cladophialophora_minourae_CBS556.83,DRR219046.8970,86.92,107,7,6,290,395,556,456,3e-25,115
Cladophialophora_australiensis_CBS112793,DRR219046.8970,88.57,105,7,4,292,395,1,101,4e-27,122
Cladophialophora_australiensis_CBS112793,DRR219046.8970,88.68,106,5,6,292,395,556,456,4e-27,122
Cladophialophora_australiensis_CBS112793,DRR219046.8970,96.55,58,2,0,549,606,221,278,2e-19,97.1
Cladophialophora_australiensis_CBS112793,DRR219046.8970,96.55,58,2,0,549,606,336,279,2e-19,97.1
Cladophialophora_australiensis_CBS112793,DRR219046.28213,91.38,58,5,0,549,606,362,305,3e-14,80.5
Cladophialophora_australiensis_CBS112793,DRR219046.23712,90.74,54,4,1,553,606,358,306,2e-11,71.3
Cladophialophora_potulentorum_CBS112222,DRR219046.8970,87.62,105,8,4,291,394,1,101,2e-25,117
Cladophialophora_potulentorum_CBS112222,DRR219046.8970,87.74,106,6,6,291,394,556,456,2e-25,117
Cladophialophora_potulentorum_CBS112222,DRR219046.8970,96.55,58,2,0,551,608,221,278,3e-19,97.1
Cladophialophora_potulentorum_CBS112222,DRR219046.8970,96.55,58,2,0,551,608,336,279,3e-19,97.1
Cladophialophora_potulentorum_CBS112222,DRR219046.28213,91.38,58,5,0,551,608,362,305,3e-14,80.5
Cladophialophora_potulentorum_CBS112222,DRR219046.23712,90.74,54,4,1,555,608,358,306,2e-11,71.3
Cladophialophora_matsushimae_CMRP1198,DRR219046.8970,85.47,117,13,3,295,411,1,113,2e-26,119
Cladophialophora_matsushimae_CMRP1198,DRR219046.8970,85.59,118,11,5,295,411,556,444,2e-26,119
Cladophialophora_mycetomatis_CBS122637,DRR219046.8970,86.44,118,10,5,280,396,1,113,4e-28,124
Cladophialophora_mycetomatis_CBS122637,DRR219046.8970,86.55,119,8,7,280,396,556,444,4e-28,124
Cladophialophora_chaetospira_CBS127573,DRR219046.8970,88.89,117,8,4,686,801,1,113,3e-32,139
Cladophialophora_chaetospira_CBS127573,DRR219046.8970,88.98,118,6,6,686,801,556,444,3e-32,139
Cladophialophora_boppii_CBS126.86_T,DRR219046.8970,88.14,118,8,6,288,404,1,113,2e-31,135
Cladophialophora_boppii_CBS126.86_T,DRR219046.8970,88.24,119,6,8,288,404,556,444,2e-31,135
Cladophialophora_abundans_CBS126736,DRR219046.8970,91.43,105,4,4,225,328,1,101,1e-32,139
Cladophialophora_abundans_CBS126736,DRR219046.8970,90.48,105,5,4,225,328,556,456,6e-31,134
Capronia_semi-immersa_CBS102234,DRR219046.8970,89.52,105,6,4,287,390,1,101,3e-29,128
Capronia_semi-immersa_CBS102234,DRR219046.8970,88.57,105,7,4,287,390,556,456,1e-27,122
Phialophora_americana_CBS400.67,DRR219046.8970,89.52,105,6,4,289,392,1,101,9e-29,128
Phialophora_americana_CBS400.67,DRR219046.8970,88.57,105,7,4,289,392,556,456,4e-27,122
Phialophora_verrucosa_CBS140325_T,DRR219046.8970,89.52,105,6,4,293,396,1,101,3e-29,128
Phialophora_verrucosa_CBS140325_T,DRR219046.8970,88.57,105,7,4,293,396,556,456,2e-27,122
Cladophialophora_samoensis_CBS259.83_T,DRR219046.8970,89.52,105,6,4,293,396,1,101,3e-29,128
Cladophialophora_samoensis_CBS259.83_T,DRR219046.8970,88.57,105,7,4,293,396,556,456,2e-27,122
Cladophialophora_carrionii_CBS260.83,DRR219046.8970,89.08,119,6,6,309,426,1,113,5e-33,141
Cladophialophora_carrionii_CBS260.83,DRR219046.8970,88.24,119,7,6,309,426,556,444,2e-31,135
Exophiala_palmae_UPCB86822_T,DRR219046.8970,92.05,88,4,3,252,338,1,86,5e-27,121
Exophiala_palmae_UPCB86822_T,DRR219046.8970,92.13,89,2,5,252,338,556,471,5e-27,121
Cladophialophora_yegresii_CBS114405_T,DRR219046.8970,88.24,119,7,6,294,411,1,113,2e-31,135
Cladophialophora_yegresii_CBS114405_T,DRR219046.8970,87.39,119,8,6,294,411,556,444,9e-30,130
Knufia_epidermidis_CBS120353_T,DRR219046.8970,93.15,73,5,0,292,364,1,73,4e-23,108
Knufia_epidermidis_CBS120353_T,DRR219046.8970,93.24,74,3,2,292,364,556,484,4e-23,108
Arthrocladium_fulminans_CBS136243_T,DRR219046.8970,94.59,74,2,2,287,359,1,73,9e-25,113
Arthrocladium_fulminans_CBS136243_T,DRR219046.8970,94.59,74,2,2,287,359,556,484,9e-25,113
Cyphellophora_laciniata_CBS190.61_T,DRR219046.8970,88.89,108,9,3,379,485,1,106,1e-29,130
Cyphellophora_laciniata_CBS190.61_T,DRR219046.8970,87.96,108,10,3,379,485,556,451,6e-28,124
Cyphellophora_laciniata_CBS190.61_T,DRR219046.8970,98.28,58,1,0,638,695,221,278,3e-21,102
Cyphellophora_laciniata_CBS190.61_T,DRR219046.8970,98.28,58,1,0,638,695,336,279,3e-21,102
Cyphellophora_laciniata_CBS190.61_T,DRR219046.28213,93.10,58,4,0,638,695,362,305,3e-16,86.1
Cyphellophora_laciniata_CBS190.61_T,DRR219046.23712,92.59,54,3,1,642,695,358,306,2e-13,76.8
Cyphellophora_suttonii_CBS449.91,DRR219046.8970,89.32,103,8,3,282,383,1,101,1e-28,126
Cyphellophora_suttonii_CBS449.91,DRR219046.8970,88.35,103,9,3,282,383,556,456,5e-27,121
Cyphellophora_pauciseptata_CBS284.85_T,DRR219046.8970,89.32,103,8,3,293,394,1,101,1e-28,126
Cyphellophora_pauciseptata_CBS284.85_T,DRR219046.8970,88.35,103,9,3,293,394,556,456,5e-27,121
Cyphellophora_pluriseptata_CBS286.85_T,DRR219046.8970,88.35,103,9,3,298,399,1,101,5e-27,121
Cyphellophora_pluriseptata_CBS286.85_T,DRR219046.8970,87.38,103,10,3,298,399,556,456,3e-25,115
Phialophora_europaea_CBS101466,DRR219046.8970,88.35,103,9,3,288,389,1,101,5e-27,121
Phialophora_europaea_CBS101466,DRR219046.8970,87.38,103,10,3,288,389,556,456,2e-25,115
Phialophora_ambigua_CBS235.93,DRR219046.8970,88.35,103,9,3,285,386,1,101,5e-27,121
Phialophora_ambigua_CBS235.93,DRR219046.8970,87.38,103,10,3,285,386,556,456,2e-25,115
Cladophialophora_modesta_CBS985.96_T,DRR219046.8970,90.38,104,6,4,284,386,1,101,8e-31,134
Cladophialophora_modesta_CBS985.96_T,DRR219046.8970,90.48,105,4,6,284,386,556,456,8e-31,134
Cladophialophora_modesta_CBS985.96_T,DRR219046.8970,96.55,58,2,0,522,579,221,278,1e-19,97.1
Cladophialophora_modesta_CBS985.96_T,DRR219046.8970,96.55,58,2,0,522,579,336,279,1e-19,97.1
Cladophialophora_modesta_CBS985.96_T,DRR219046.28213,94.83,58,3,0,522,579,362,305,5e-18,91.6
Cladophialophora_modesta_CBS985.96_T,DRR219046.23712,94.44,54,2,1,526,579,358,306,3e-15,82.4
Cladophialophora_modesta_CBS985.96_T,DRR219046.1414,90.32,62,5,1,517,577,368,307,1e-14,80.5
