Exophiala_polymorpha_CBS138920_T,DRR219041.9504,96.23,53,2,0,642,694,363,311,7e-17,87.9
Exophiala_jeanselmei_CBS507.90_T,DRR219041.9504,96.72,61,2,0,544,604,363,303,2e-21,102
Exophiala_pisciphila_CBS537.73_T,DRR219041.9504,98.36,61,1,0,553,613,363,303,5e-23,108
Exophiala_brunnea_CBS,DRR219041.9504,96.00,50,2,0,584,633,363,314,8e-16,84.2
Exophiala_mesophila_CBS402.95_T,DRR219041.9504,96.72,61,2,0,550,610,363,303,2e-21,102
Exophiala_castellanii_CBS158.58_T,DRR219041.9504,96.72,61,2,0,549,609,363,303,2e-21,102
Exophiala_dermatitidis_CBS748.88,DRR219041.9504,96.72,61,2,0,575,635,363,303,5e-21,102
Exophiala_salmonis_CBS157.67_T,DRR219041.9504,98.36,61,1,0,673,733,363,303,6e-23,108
Exophiala_cancerae_CBS120420_T,DRR219041.9504,98.36,61,1,0,564,624,363,303,5e-23,108
Exophiala_tremulae_CBS129355,DRR219041.9504,98.00,50,1,0,579,628,363,314,6e-17,87.9
Rhinocladiella_atrovirens_CBS264.49,DRR219041.9504,97.96,49,1,0,578,626,363,315,2e-16,86.1
Rhinocladiella_aquaspersa_CBS313.73_T,DRR219041.9504,93.44,61,1,3,548,605,363,303,7e-17,87.9
Rhinocladiella_mackenziei_CBS367.92,DRR219041.9504,97.67,43,1,0,566,608,362,320,5e-13,75.0
Capronia_dactylotricha_DAOM208471_T,DRR219041.9504,98.36,61,1,0,558,618,363,303,5e-23,108
Capronia_kleinmondensis_CBS122671_T,DRR219041.9504,98.36,61,1,0,564,624,363,303,5e-23,108
Capronia_mansonii_CBS101.67_T,DRR219041.9504,96.72,61,2,0,568,628,363,303,2e-21,102
Capronia_munkii_DAOM216390_T,DRR219041.9504,96.72,61,2,0,568,628,363,303,2e-21,102
Capronia_coronata_ATCC56201_T,DRR219041.9504,96.72,61,2,0,539,599,363,303,2e-21,102
Capronia_parasitica_CBS123.88,DRR219041.9504,97.22,36,1,0,560,595,363,328,4e-09,62.1
Capronia_acutiseta_ATCC56428_T,DRR219041.9504,98.36,61,1,0,538,598,363,303,5e-23,108
Fonsecaea_pedrosoi_CBS271.37_T,DRR219041.9504,95.08,61,3,0,585,645,363,303,1e-19,97.1
Cladophialophora_australiensis_CBS112793,DRR219041.9504,95.08,61,3,0,546,606,363,303,2e-19,97.1
Cladophialophora_potulentorum_CBS112222,DRR219041.9504,95.08,61,3,0,548,608,363,303,3e-19,97.1
Cyphellophora_laciniata_CBS190.61_T,DRR219041.9504,96.72,61,2,0,635,695,363,303,3e-21,102
Cladophialophora_modesta_CBS985.96_T,DRR219041.9504,95.08,61,3,0,519,579,363,303,1e-19,97.1
