Exophiala_salmonis_CBS157.67_T,SRR9334226.14845,82.40,125,16,6,1,122,19,140,9e-22,104
Exophiala_salmonis_CBS157.67_T,SRR9334226.14845,81.60,125,17,6,1,122,452,331,4e-20,99.0
Exophiala_salmonis_CBS157.67_T,SRR9334226.4423,81.60,125,17,6,1,122,19,140,4e-20,99.0
Rhinocladiella_atrovirens_CBS264.49,SRR9334226.14845,97.56,41,1,0,1,41,129,169,7e-12,71.3
Cyphellophora_laciniata_CBS190.61_T,SRR9334226.14845,98.57,70,1,0,28,97,100,169,6e-28,124
Cyphellophora_laciniata_CBS190.61_T,SRR9334226.14845,97.14,70,2,0,28,97,371,302,3e-26,119
Cyphellophora_laciniata_CBS190.61_T,SRR9334226.4423,97.10,69,2,0,29,97,101,169,1e-25,117
