Exophiala_dermatitidis_CBS748.88,DRR164242.1231267,93.06,144,10,0,1361,1504,1,144,2e-52,211
Exophiala_dermatitidis_CBS748.88,DRR164242.2838691,90.74,108,10,0,890,997,1,108,2e-32,145
Exophiala_dermatitidis_CBS748.88,DRR164242.950762,87.93,116,13,1,1186,1301,1,115,1e-29,135
Exophiala_dermatitidis_CBS748.88,DRR164242.1631686,87.85,107,13,0,1159,1265,64,170,9e-27,126
Exophiala_dermatitidis_CBS748.88,DRR164242.1480667,92.31,65,5,0,1440,1504,3,67,9e-17,93.5
Cladophialophora_australiensis_CBS112793,DRR164242.1231267,93.06,144,10,0,1328,1471,1,144,2e-52,211
Cladophialophora_australiensis_CBS112793,DRR164242.2838691,89.81,108,11,0,860,967,1,108,1e-30,139
Cladophialophora_australiensis_CBS112793,DRR164242.950762,86.21,116,15,1,1153,1268,1,115,3e-26,124
Cladophialophora_australiensis_CBS112793,DRR164242.1631686,85.09,114,17,0,1119,1232,57,170,5e-24,117
Cladophialophora_australiensis_CBS112793,DRR164242.1480667,92.31,65,5,0,1407,1471,3,67,9e-17,93.5
Cladophialophora_potulentorum_CBS112222,DRR164242.1231267,93.08,159,11,0,1330,1488,1,159,5e-59,233
Cladophialophora_potulentorum_CBS112222,DRR164242.2838691,89.81,108,11,0,862,969,1,108,1e-30,139
Cladophialophora_potulentorum_CBS112222,DRR164242.950762,85.34,116,16,1,1155,1270,1,115,1e-24,119
Cladophialophora_potulentorum_CBS112222,DRR164242.1480667,92.50,80,6,0,1409,1488,3,82,2e-23,115
Cladophialophora_potulentorum_CBS112222,DRR164242.1631686,82.09,134,22,2,1101,1234,39,170,7e-23,113
Phialophora_americana_CBS400.67,DRR164242.950762,87.93,116,13,1,1147,1262,1,115,1e-29,135
Phialophora_americana_CBS400.67,DRR164242.1631686,87.74,106,13,0,1121,1226,65,170,3e-26,124
