Exophiala_polymorpha_CBS138920_T,DRR219056.42084,93.88,49,3,0,646,694,361,313,5e-13,75.0
Exophiala_jeanselmei_CBS507.90_T,DRR219056.42084,92.98,57,4,0,548,604,361,305,8e-16,84.2
Exophiala_pisciphila_CBS537.73_T,DRR219056.42084,91.23,57,5,0,557,613,361,305,4e-14,78.7
Exophiala_mesophila_CBS402.95_T,DRR219056.42084,92.98,57,4,0,554,610,361,305,8e-16,84.2
Exophiala_castellanii_CBS158.58_T,DRR219056.42084,92.98,57,4,0,553,609,361,305,8e-16,84.2
Exophiala_dermatitidis_CBS748.88,DRR219056.42084,92.98,57,4,0,579,635,361,305,2e-15,84.2
Exophiala_salmonis_CBS157.67_T,DRR219056.42084,91.23,57,5,0,677,733,361,305,5e-14,78.7
Exophiala_cancerae_CBS120420_T,DRR219056.42084,91.23,57,5,0,568,624,361,305,4e-14,78.7
Rhinocladiella_aquaspersa_CBS313.73_T,DRR219056.42084,91.67,48,3,1,559,605,352,305,3e-10,65.8
Capronia_dactylotricha_DAOM208471_T,DRR219056.42084,91.23,57,5,0,562,618,361,305,4e-14,78.7
Capronia_kleinmondensis_CBS122671_T,DRR219056.42084,91.23,57,5,0,568,624,361,305,4e-14,78.7
Capronia_mansonii_CBS101.67_T,DRR219056.42084,92.98,57,4,0,572,628,361,305,8e-16,84.2
Capronia_munkii_DAOM216390_T,DRR219056.42084,92.98,57,4,0,572,628,361,305,8e-16,84.2
Capronia_coronata_ATCC56201_T,DRR219056.42084,92.98,57,4,0,543,599,361,305,8e-16,84.2
Capronia_acutiseta_ATCC56428_T,DRR219056.42084,91.23,57,5,0,542,598,361,305,4e-14,78.7
Cyphellophora_laciniata_CBS190.61_T,DRR219056.42084,92.98,57,4,0,639,695,361,305,9e-16,84.2
Cladophialophora_modesta_CBS985.96_T,DRR219056.42084,94.74,57,3,0,523,579,361,305,2e-17,89.8
