Exophiala_nigra_CBS535.94_T,DRR205376.48065,95.40,87,3,1,287,373,1,86,7e-32,137
Exophiala_spinifera_CBS899.68_T,DRR205376.48065,95.40,87,3,1,284,370,1,86,7e-32,137
Exophiala_exophialae_CBS668.76_T,DRR205376.48065,95.40,87,3,1,285,371,1,86,7e-32,137
Exophiala_polymorpha_CBS138920_T,DRR205376.48065,95.40,87,3,1,387,473,1,86,9e-32,137
Exophiala_polymorpha_CBS138920_T,DRR205376.18585,100.00,51,0,0,644,694,362,312,5e-19,95.3
Exophiala_polymorpha_CBS138920_T,DRR205376.18585,100.00,48,0,0,644,691,253,300,2e-17,89.8
Exophiala_polymorpha_CBS138920_T,DRR205376.490,98.11,53,1,0,642,694,236,288,2e-18,93.5
Exophiala_polymorpha_CBS138920_T,DRR205376.490,98.11,53,1,0,642,694,365,313,2e-18,93.5
Exophiala_polymorpha_CBS138920_T,DRR205376.52458,98.00,50,1,0,645,694,232,281,9e-17,87.9
Exophiala_polymorpha_CBS138920_T,DRR205376.52458,96.00,50,2,0,645,694,347,298,4e-15,82.4
Exophiala_polymorpha_CBS138920_T,DRR205376.42071,98.00,50,1,0,645,694,235,284,9e-17,87.9
Exophiala_polymorpha_CBS138920_T,DRR205376.42071,98.00,50,1,0,645,694,356,307,9e-17,87.9
Exophiala_polymorpha_CBS138920_T,DRR205376.9798,98.00,50,1,0,645,694,227,276,9e-17,87.9
Exophiala_polymorpha_CBS138920_T,DRR205376.9798,98.00,50,1,0,645,694,344,295,9e-17,87.9
Exophiala_polymorpha_CBS138920_T,DRR205376.61851,91.84,49,4,0,643,691,363,315,3e-11,69.4
Exophiala_polymorpha_CBS138920_T,DRR205376.11501,95.00,40,2,0,655,694,351,312,1e-09,63.9
Exophiala_polymorpha_CBS138920_T,DRR205376.44480,91.11,45,4,0,650,694,358,314,5e-09,62.1
Exophiala_oligosperma_CBS725.88_T,DRR205376.48065,95.40,87,3,1,297,383,1,86,7e-32,137
Exophiala_jeanselmei_CBS507.90_T,DRR205376.48065,95.40,87,3,1,289,375,1,86,7e-32,137
Exophiala_jeanselmei_CBS507.90_T,DRR205376.18585,100.00,59,0,0,546,604,362,304,2e-23,110
Exophiala_jeanselmei_CBS507.90_T,DRR205376.18585,100.00,48,0,0,546,593,253,300,2e-17,89.8
Exophiala_jeanselmei_CBS507.90_T,DRR205376.490,95.59,68,3,0,537,604,229,296,2e-23,110
Exophiala_jeanselmei_CBS507.90_T,DRR205376.490,95.59,68,3,0,537,604,372,305,2e-23,110
Exophiala_jeanselmei_CBS507.90_T,DRR205376.9798,96.77,62,2,0,543,604,348,287,8e-22,104
Exophiala_jeanselmei_CBS507.90_T,DRR205376.9798,95.16,62,3,0,543,604,223,284,3e-20,99.0
Exophiala_jeanselmei_CBS507.90_T,DRR205376.42071,98.28,58,1,0,547,604,235,292,3e-21,102
Exophiala_jeanselmei_CBS507.90_T,DRR205376.42071,98.28,58,1,0,547,604,356,299,3e-21,102
Exophiala_jeanselmei_CBS507.90_T,DRR205376.52458,92.65,68,5,0,537,604,222,289,3e-20,99.0
Exophiala_jeanselmei_CBS507.90_T,DRR205376.52458,92.65,68,5,0,537,604,357,290,3e-20,99.0
Exophiala_jeanselmei_CBS507.90_T,DRR205376.61851,90.62,64,5,1,542,604,367,304,1e-15,84.2
Exophiala_jeanselmei_CBS507.90_T,DRR205376.11501,95.83,48,2,0,557,604,351,304,5e-14,78.7
Exophiala_jeanselmei_CBS507.90_T,DRR205376.44480,92.45,53,4,0,552,604,358,306,2e-13,76.8
Exophiala_bergeri_CBS353.52,DRR205376.48065,95.40,87,3,1,250,336,1,86,6e-32,137
Exophiala_moniliae_CBS520.76_T,DRR205376.48065,98.63,73,1,0,287,359,1,73,1e-29,130
Exophiala_pisciphila_CBS537.73_T,DRR205376.48065,94.25,87,4,1,290,376,1,86,4e-30,132
Exophiala_pisciphila_CBS537.73_T,DRR205376.48065,98.31,59,1,0,556,614,242,300,8e-22,104
Exophiala_pisciphila_CBS537.73_T,DRR205376.490,97.18,71,1,1,543,613,227,296,3e-26,119
Exophiala_pisciphila_CBS537.73_T,DRR205376.490,97.18,71,1,1,543,613,374,305,3e-26,119
Exophiala_pisciphila_CBS537.73_T,DRR205376.9798,95.83,72,3,0,543,614,357,286,1e-25,117
Exophiala_pisciphila_CBS537.73_T,DRR205376.9798,94.44,72,4,0,543,614,214,285,5e-24,111
Exophiala_pisciphila_CBS537.73_T,DRR205376.42071,100.00,58,0,0,556,613,235,292,6e-23,108
Exophiala_pisciphila_CBS537.73_T,DRR205376.42071,100.00,58,0,0,556,613,356,299,6e-23,108
Exophiala_pisciphila_CBS537.73_T,DRR205376.18585,98.31,59,1,0,555,613,362,304,8e-22,104
Exophiala_pisciphila_CBS537.73_T,DRR205376.52458,98.28,58,1,0,556,613,232,289,3e-21,102
Exophiala_pisciphila_CBS537.73_T,DRR205376.52458,98.28,58,1,0,556,613,347,290,3e-21,102
Exophiala_pisciphila_CBS537.73_T,DRR205376.44480,90.74,54,5,0,561,614,358,305,2e-12,73.1
Exophiala_pisciphila_CBS537.73_T,DRR205376.11501,93.75,48,3,0,566,613,351,304,2e-12,73.1
Exophiala_xenobiotica_CBS117642,DRR205376.48065,95.40,87,3,1,282,368,1,86,7e-32,137
Exophiala_brunnea_CBS,DRR205376.48065,93.10,87,5,1,318,404,1,86,2e-28,126
Exophiala_brunnea_CBS,DRR205376.490,98.00,50,1,0,584,633,236,285,2e-17,89.8
Exophiala_brunnea_CBS,DRR205376.490,98.00,50,1,0,584,633,365,316,2e-17,89.8
Exophiala_brunnea_CBS,DRR205376.9798,96.08,51,2,0,583,633,223,273,3e-16,86.1
Exophiala_brunnea_CBS,DRR205376.9798,96.08,51,2,0,583,633,348,298,3e-16,86.1
Exophiala_brunnea_CBS,DRR205376.52458,97.87,47,1,0,587,633,232,278,1e-15,84.2
Exophiala_brunnea_CBS,DRR205376.52458,95.74,47,2,0,587,633,347,301,5e-14,78.7
Exophiala_brunnea_CBS,DRR205376.42071,97.87,47,1,0,587,633,235,281,1e-15,84.2
Exophiala_brunnea_CBS,DRR205376.42071,97.87,47,1,0,587,633,356,310,1e-15,84.2
Exophiala_nishimurae_CBS101538_T,DRR205376.48065,95.40,87,3,1,296,382,1,86,7e-32,137
Exophiala_nishimurae_CBS101538_T,DRR205376.18585,100.00,39,0,0,553,591,253,291,2e-12,73.1
Exophiala_nishimurae_CBS101538_T,DRR205376.18585,100.00,39,0,0,553,591,362,324,2e-12,73.1
Exophiala_mesophila_CBS402.95_T,DRR205376.48065,93.10,87,5,1,280,366,1,86,2e-28,126
Exophiala_mesophila_CBS402.95_T,DRR205376.48065,92.86,70,4,1,543,611,231,300,1e-20,100
Exophiala_mesophila_CBS402.95_T,DRR205376.490,95.77,71,1,2,540,610,228,296,1e-24,113
Exophiala_mesophila_CBS402.95_T,DRR205376.490,95.77,71,1,2,540,610,373,305,1e-24,113
Exophiala_mesophila_CBS402.95_T,DRR205376.18585,100.00,59,0,0,552,610,362,304,2e-23,110
Exophiala_mesophila_CBS402.95_T,DRR205376.18585,100.00,48,0,0,552,599,253,300,2e-17,89.8
Exophiala_mesophila_CBS402.95_T,DRR205376.9798,93.06,72,4,1,540,611,356,286,8e-22,104
Exophiala_mesophila_CBS402.95_T,DRR205376.9798,91.67,72,5,1,540,611,215,285,4e-20,99.0
Exophiala_mesophila_CBS402.95_T,DRR205376.42071,98.28,58,1,0,553,610,235,292,3e-21,102
Exophiala_mesophila_CBS402.95_T,DRR205376.42071,98.28,58,1,0,553,610,356,299,3e-21,102
Exophiala_mesophila_CBS402.95_T,DRR205376.52458,96.55,58,2,0,553,610,232,289,1e-19,97.1
Exophiala_mesophila_CBS402.95_T,DRR205376.52458,96.55,58,2,0,553,610,347,290,1e-19,97.1
Exophiala_mesophila_CBS402.95_T,DRR205376.61851,91.67,60,5,0,551,610,363,304,1e-15,84.2
Exophiala_mesophila_CBS402.95_T,DRR205376.44480,92.59,54,4,0,558,611,358,305,5e-14,78.7
Exophiala_mesophila_CBS402.95_T,DRR205376.11501,95.83,48,2,0,563,610,351,304,5e-14,78.7
Exophiala_castellanii_CBS158.58_T,DRR205376.48065,93.10,87,5,1,278,364,1,86,2e-28,126
Exophiala_castellanii_CBS158.58_T,DRR205376.48065,96.61,59,2,0,552,610,242,300,4e-20,99.0
Exophiala_castellanii_CBS158.58_T,DRR205376.490,97.10,69,1,1,542,609,228,296,4e-25,115
Exophiala_castellanii_CBS158.58_T,DRR205376.490,97.10,69,1,1,542,609,373,305,4e-25,115
Exophiala_castellanii_CBS158.58_T,DRR205376.18585,100.00,59,0,0,551,609,362,304,2e-23,110
Exophiala_castellanii_CBS158.58_T,DRR205376.18585,100.00,48,0,0,551,598,253,300,2e-17,89.8
Exophiala_castellanii_CBS158.58_T,DRR205376.9798,95.59,68,3,0,543,610,353,286,2e-23,110
Exophiala_castellanii_CBS158.58_T,DRR205376.9798,94.12,68,4,0,543,610,218,285,8e-22,104
Exophiala_castellanii_CBS158.58_T,DRR205376.42071,98.28,58,1,0,552,609,235,292,3e-21,102
Exophiala_castellanii_CBS158.58_T,DRR205376.42071,98.28,58,1,0,552,609,356,299,3e-21,102
Exophiala_castellanii_CBS158.58_T,DRR205376.52458,96.55,58,2,0,552,609,232,289,1e-19,97.1
Exophiala_castellanii_CBS158.58_T,DRR205376.52458,96.55,58,2,0,552,609,347,290,1e-19,97.1
Exophiala_castellanii_CBS158.58_T,DRR205376.61851,91.67,60,5,0,550,609,363,304,1e-15,84.2
Exophiala_castellanii_CBS158.58_T,DRR205376.44480,92.59,54,4,0,557,610,358,305,5e-14,78.7
Exophiala_castellanii_CBS158.58_T,DRR205376.11501,95.83,48,2,0,562,609,351,304,5e-14,78.7
Exophiala_lecanii-corni_CBS123.33_T,DRR205376.48065,93.10,87,5,1,301,387,1,86,2e-28,126
Exophiala_dermatitidis_CBS748.88,DRR205376.48065,94.25,87,4,1,293,379,1,86,9e-30,132
Exophiala_dermatitidis_CBS748.88,DRR205376.48065,96.61,59,2,0,578,636,242,300,9e-20,99.0
Exophiala_dermatitidis_CBS748.88,DRR205376.490,93.59,78,4,1,558,635,220,296,9e-25,115
Exophiala_dermatitidis_CBS748.88,DRR205376.490,93.59,78,4,1,558,635,381,305,9e-25,115
Exophiala_dermatitidis_CBS748.88,DRR205376.9798,92.41,79,6,0,558,636,364,286,3e-24,113
Exophiala_dermatitidis_CBS748.88,DRR205376.9798,91.14,79,7,0,558,636,207,285,1e-22,108
Exophiala_dermatitidis_CBS748.88,DRR205376.18585,100.00,59,0,0,577,635,362,304,4e-23,110
Exophiala_dermatitidis_CBS748.88,DRR205376.18585,100.00,48,0,0,577,624,253,300,5e-17,89.8
Exophiala_dermatitidis_CBS748.88,DRR205376.42071,98.28,58,1,0,578,635,235,292,7e-21,102
Exophiala_dermatitidis_CBS748.88,DRR205376.42071,98.28,58,1,0,578,635,356,299,7e-21,102
Exophiala_dermatitidis_CBS748.88,DRR205376.52458,96.55,58,2,0,578,635,232,289,3e-19,97.1
Exophiala_dermatitidis_CBS748.88,DRR205376.52458,96.55,58,2,0,578,635,347,290,3e-19,97.1
Exophiala_dermatitidis_CBS748.88,DRR205376.61851,90.62,64,5,1,573,635,367,304,2e-15,84.2
Exophiala_dermatitidis_CBS748.88,DRR205376.44480,92.59,54,4,0,583,636,358,305,1e-13,78.7
Exophiala_dermatitidis_CBS748.88,DRR205376.11501,95.83,48,2,0,588,635,351,304,1e-13,78.7
Exophiala_angulospora_CBS482.92_T,DRR205376.48065,98.63,73,1,0,284,356,1,73,1e-29,130
Exophiala_opportunistica_CBS109811_T,DRR205376.48065,89.19,111,9,3,283,393,1,108,3e-31,135
Exophiala_salmonis_CBS157.67_T,DRR205376.48065,94.25,87,4,1,412,498,1,86,4e-30,132
Exophiala_salmonis_CBS157.67_T,DRR205376.48065,98.31,59,1,0,676,734,242,300,1e-21,104
Exophiala_salmonis_CBS157.67_T,DRR205376.490,97.18,71,1,1,663,733,227,296,3e-26,119
Exophiala_salmonis_CBS157.67_T,DRR205376.490,97.18,71,1,1,663,733,374,305,3e-26,119
Exophiala_salmonis_CBS157.67_T,DRR205376.9798,95.83,72,3,0,663,734,357,286,1e-25,117
Exophiala_salmonis_CBS157.67_T,DRR205376.9798,94.44,72,4,0,663,734,214,285,6e-24,111
Exophiala_salmonis_CBS157.67_T,DRR205376.42071,100.00,58,0,0,676,733,235,292,8e-23,108
Exophiala_salmonis_CBS157.67_T,DRR205376.42071,100.00,58,0,0,676,733,356,299,8e-23,108
Exophiala_salmonis_CBS157.67_T,DRR205376.18585,98.31,59,1,0,675,733,362,304,1e-21,104
Exophiala_salmonis_CBS157.67_T,DRR205376.52458,98.28,58,1,0,676,733,232,289,3e-21,102
Exophiala_salmonis_CBS157.67_T,DRR205376.52458,98.28,58,1,0,676,733,347,290,3e-21,102
Exophiala_salmonis_CBS157.67_T,DRR205376.44480,90.74,54,5,0,681,734,358,305,3e-12,73.1
Exophiala_salmonis_CBS157.67_T,DRR205376.11501,93.75,48,3,0,686,733,351,304,3e-12,73.1
Exophiala_aquamarina_CBS119918_T,DRR205376.48065,98.63,73,1,0,290,362,1,73,1e-29,130
Exophiala_cancerae_CBS120420_T,DRR205376.48065,89.19,111,9,3,305,415,1,108,3e-31,135
Exophiala_cancerae_CBS120420_T,DRR205376.48065,92.96,71,4,1,554,624,230,299,3e-21,102
Exophiala_cancerae_CBS120420_T,DRR205376.490,97.06,68,2,0,557,624,229,296,4e-25,115
Exophiala_cancerae_CBS120420_T,DRR205376.490,97.06,68,2,0,557,624,372,305,4e-25,115
Exophiala_cancerae_CBS120420_T,DRR205376.9798,94.44,72,3,1,553,624,357,287,2e-23,110
Exophiala_cancerae_CBS120420_T,DRR205376.9798,93.06,72,4,1,553,624,214,284,8e-22,104
Exophiala_cancerae_CBS120420_T,DRR205376.42071,100.00,58,0,0,567,624,235,292,6e-23,108
Exophiala_cancerae_CBS120420_T,DRR205376.42071,100.00,58,0,0,567,624,356,299,6e-23,108
Exophiala_cancerae_CBS120420_T,DRR205376.18585,98.31,59,1,0,566,624,362,304,8e-22,104
Exophiala_cancerae_CBS120420_T,DRR205376.52458,98.28,58,1,0,567,624,232,289,3e-21,102
Exophiala_cancerae_CBS120420_T,DRR205376.52458,98.28,58,1,0,567,624,347,290,3e-21,102
Exophiala_cancerae_CBS120420_T,DRR205376.11501,93.75,48,3,0,577,624,351,304,2e-12,73.1
Exophiala_cancerae_CBS120420_T,DRR205376.44480,90.57,53,5,0,572,624,358,306,8e-12,71.3
Exophiala_tremulae_CBS129355,DRR205376.48065,89.19,111,9,3,317,427,1,108,3e-31,135
Exophiala_tremulae_CBS129355,DRR205376.48065,97.87,47,1,0,582,628,242,288,4e-15,82.4
Exophiala_tremulae_CBS129355,DRR205376.490,96.67,60,1,1,569,628,227,285,4e-20,99.0
Exophiala_tremulae_CBS129355,DRR205376.490,96.67,60,1,1,569,628,374,316,4e-20,99.0
Exophiala_tremulae_CBS129355,DRR205376.9798,95.00,60,3,0,569,628,214,273,5e-19,95.3
Exophiala_tremulae_CBS129355,DRR205376.9798,95.00,60,3,0,569,628,357,298,5e-19,95.3
Exophiala_tremulae_CBS129355,DRR205376.52458,100.00,47,0,0,582,628,232,278,8e-17,87.9
Exophiala_tremulae_CBS129355,DRR205376.52458,97.87,47,1,0,582,628,347,301,4e-15,82.4
Exophiala_tremulae_CBS129355,DRR205376.42071,100.00,47,0,0,582,628,235,281,8e-17,87.9
Exophiala_tremulae_CBS129355,DRR205376.42071,100.00,47,0,0,582,628,356,310,8e-17,87.9
Exophiala_equina_CBS116009,DRR205376.48065,89.19,111,9,3,283,393,1,108,2e-31,135
Exophiala_alcalophila_CBS520.82_T,DRR205376.48065,98.63,73,1,0,294,366,1,73,1e-29,130
Exophiala_crusticola_CBS119970_T,DRR205376.48065,94.25,87,4,1,299,385,1,86,3e-30,132
Rhinocladiella_atrovirens_CBS264.49,DRR205376.48065,93.10,87,5,1,325,411,1,86,2e-28,126
Rhinocladiella_atrovirens_CBS264.49,DRR205376.48065,97.83,46,1,0,581,626,242,287,1e-14,80.5
Rhinocladiella_atrovirens_CBS264.49,DRR205376.490,98.21,56,0,1,571,626,230,284,1e-19,97.1
Rhinocladiella_atrovirens_CBS264.49,DRR205376.490,98.21,56,0,1,571,626,371,317,1e-19,97.1
Rhinocladiella_atrovirens_CBS264.49,DRR205376.9798,94.64,56,3,0,571,626,217,272,8e-17,87.9
Rhinocladiella_atrovirens_CBS264.49,DRR205376.9798,94.64,56,3,0,571,626,354,299,8e-17,87.9
Rhinocladiella_atrovirens_CBS264.49,DRR205376.52458,100.00,46,0,0,581,626,232,277,3e-16,86.1
Rhinocladiella_atrovirens_CBS264.49,DRR205376.52458,97.83,46,1,0,581,626,347,302,1e-14,80.5
Rhinocladiella_atrovirens_CBS264.49,DRR205376.42071,100.00,46,0,0,581,626,235,280,3e-16,86.1
Rhinocladiella_atrovirens_CBS264.49,DRR205376.42071,100.00,46,0,0,581,626,356,311,3e-16,86.1
Rhinocladiella_basitona_CBS101460_T,DRR205376.48065,95.40,87,3,1,284,370,1,86,7e-32,137
Rhinocladiella_phaeophora_CBS496.78_T,DRR205376.48065,94.25,87,4,1,292,378,1,86,3e-30,132
Rhinocladiella_phaeophora_CBS496.78_T,DRR205376.11501,93.24,74,5,0,290,363,4,77,2e-23,110
Rhinocladiella_aquaspersa_CBS313.73_T,DRR205376.48065,94.25,87,4,1,286,372,1,86,4e-30,132
Rhinocladiella_aquaspersa_CBS313.73_T,DRR205376.48065,93.22,59,1,3,551,606,242,300,1e-15,84.2
Rhinocladiella_aquaspersa_CBS313.73_T,DRR205376.11501,93.24,74,5,0,284,357,4,77,2e-23,110
Rhinocladiella_aquaspersa_CBS313.73_T,DRR205376.11501,90.91,55,3,2,553,605,358,304,2e-12,73.1
Rhinocladiella_aquaspersa_CBS313.73_T,DRR205376.490,94.12,68,1,3,541,605,229,296,1e-20,100
Rhinocladiella_aquaspersa_CBS313.73_T,DRR205376.490,94.12,68,1,3,541,605,372,305,1e-20,100
Rhinocladiella_aquaspersa_CBS313.73_T,DRR205376.9798,92.86,70,2,3,540,606,355,286,4e-20,99.0
Rhinocladiella_aquaspersa_CBS313.73_T,DRR205376.9798,91.43,70,3,3,540,606,216,285,2e-18,93.5
Rhinocladiella_aquaspersa_CBS313.73_T,DRR205376.42071,94.83,58,0,3,551,605,235,292,8e-17,87.9
Rhinocladiella_aquaspersa_CBS313.73_T,DRR205376.42071,94.83,58,0,3,551,605,356,299,8e-17,87.9
Rhinocladiella_aquaspersa_CBS313.73_T,DRR205376.52458,97.96,49,0,1,558,605,338,290,1e-15,84.2
Rhinocladiella_aquaspersa_CBS313.73_T,DRR205376.52458,93.10,58,1,3,551,605,232,289,4e-15,82.4
Rhinocladiella_aquaspersa_CBS313.73_T,DRR205376.18585,93.22,59,1,3,550,605,362,304,1e-15,84.2
Rhinocladiella_aquaspersa_CBS313.73_T,DRR205376.44480,90.74,54,3,2,555,606,358,305,8e-12,71.3
Rhinocladiella_fasciculata_CBS132.86_T,DRR205376.48065,97.26,73,2,0,302,374,1,73,6e-28,124
Rhinocladiella_fasciculata_CBS132.86_T,DRR205376.11501,91.89,74,6,0,300,373,4,77,7e-22,104
Rhinocladiella_anceps_CBS181.65_T,DRR205376.48065,94.25,87,4,1,284,370,1,86,3e-30,132
Rhinocladiella_anceps_CBS181.65_T,DRR205376.11501,91.89,74,6,0,282,355,4,77,7e-22,104
Rhinocladiella_mackenziei_CBS367.92,DRR205376.48065,94.19,86,4,1,273,358,1,85,1e-29,130
Rhinocladiella_mackenziei_CBS367.92,DRR205376.48065,97.56,41,1,0,568,608,242,282,8e-12,71.3
Rhinocladiella_mackenziei_CBS367.92,DRR205376.9798,96.23,53,1,1,556,608,216,267,3e-16,86.1
Rhinocladiella_mackenziei_CBS367.92,DRR205376.9798,96.23,53,1,1,556,608,355,304,3e-16,86.1
Rhinocladiella_mackenziei_CBS367.92,DRR205376.490,100.00,43,0,0,566,608,237,279,1e-14,80.5
Rhinocladiella_mackenziei_CBS367.92,DRR205376.490,100.00,43,0,0,566,608,364,322,1e-14,80.5
Rhinocladiella_mackenziei_CBS367.92,DRR205376.52458,100.00,41,0,0,568,608,232,272,2e-13,76.8
Rhinocladiella_mackenziei_CBS367.92,DRR205376.52458,97.56,41,1,0,568,608,347,307,8e-12,71.3
Rhinocladiella_mackenziei_CBS367.92,DRR205376.42071,100.00,41,0,0,568,608,235,275,2e-13,76.8
Rhinocladiella_mackenziei_CBS367.92,DRR205376.42071,100.00,41,0,0,568,608,356,316,2e-13,76.8
Veronaea_compacta_CBS268.75_T,DRR205376.48065,97.26,73,2,0,306,378,1,73,6e-28,124
Capronia_pilosella_AFTOL-ID657,DRR205376.48065,94.25,87,4,1,384,470,1,86,4e-30,132
Capronia_pilosella_AFTOL-ID657,DRR205376.18585,100.00,39,0,0,645,683,253,291,2e-12,73.1
Capronia_pilosella_AFTOL-ID657,DRR205376.18585,100.00,39,0,0,645,683,362,324,2e-12,73.1
Capronia_dactylotricha_DAOM208471_T,DRR205376.48065,95.45,88,2,2,286,373,1,86,2e-32,139
Capronia_dactylotricha_DAOM208471_T,DRR205376.48065,98.31,59,1,0,561,619,242,300,8e-22,104
Capronia_dactylotricha_DAOM208471_T,DRR205376.490,100.00,61,0,0,558,618,236,296,1e-24,113
Capronia_dactylotricha_DAOM208471_T,DRR205376.490,100.00,61,0,0,558,618,365,305,1e-24,113
Capronia_dactylotricha_DAOM208471_T,DRR205376.9798,100.00,59,0,0,561,619,344,286,2e-23,110
Capronia_dactylotricha_DAOM208471_T,DRR205376.9798,98.31,59,1,0,561,619,227,285,8e-22,104
Capronia_dactylotricha_DAOM208471_T,DRR205376.42071,100.00,58,0,0,561,618,235,292,6e-23,108
Capronia_dactylotricha_DAOM208471_T,DRR205376.42071,100.00,58,0,0,561,618,356,299,6e-23,108
Capronia_dactylotricha_DAOM208471_T,DRR205376.18585,98.31,59,1,0,560,618,362,304,8e-22,104
Capronia_dactylotricha_DAOM208471_T,DRR205376.52458,98.28,58,1,0,561,618,232,289,3e-21,102
Capronia_dactylotricha_DAOM208471_T,DRR205376.52458,98.28,58,1,0,561,618,347,290,3e-21,102
Capronia_dactylotricha_DAOM208471_T,DRR205376.44480,90.74,54,5,0,566,619,358,305,2e-12,73.1
Capronia_dactylotricha_DAOM208471_T,DRR205376.11501,93.75,48,3,0,571,618,351,304,2e-12,73.1
Capronia_kleinmondensis_CBS122671_T,DRR205376.48065,93.10,87,5,1,311,397,1,86,2e-28,126
Capronia_kleinmondensis_CBS122671_T,DRR205376.48065,98.31,59,1,0,567,625,242,300,8e-22,104
Capronia_kleinmondensis_CBS122671_T,DRR205376.490,98.57,70,1,0,555,624,227,296,6e-28,124
Capronia_kleinmondensis_CBS122671_T,DRR205376.490,98.57,70,1,0,555,624,374,305,6e-28,124
Capronia_kleinmondensis_CBS122671_T,DRR205376.9798,95.65,69,3,0,557,625,354,286,5e-24,111
Capronia_kleinmondensis_CBS122671_T,DRR205376.9798,94.20,69,4,0,557,625,217,285,2e-22,106
Capronia_kleinmondensis_CBS122671_T,DRR205376.42071,100.00,58,0,0,567,624,235,292,6e-23,108
Capronia_kleinmondensis_CBS122671_T,DRR205376.42071,100.00,58,0,0,567,624,356,299,6e-23,108
Capronia_kleinmondensis_CBS122671_T,DRR205376.18585,98.31,59,1,0,566,624,362,304,8e-22,104
Capronia_kleinmondensis_CBS122671_T,DRR205376.52458,98.28,58,1,0,567,624,232,289,3e-21,102
Capronia_kleinmondensis_CBS122671_T,DRR205376.52458,98.28,58,1,0,567,624,347,290,3e-21,102
Capronia_kleinmondensis_CBS122671_T,DRR205376.44480,90.74,54,5,0,572,625,358,305,2e-12,73.1
Capronia_kleinmondensis_CBS122671_T,DRR205376.11501,93.75,48,3,0,577,624,351,304,2e-12,73.1
Capronia_mansonii_CBS101.67_T,DRR205376.48065,94.25,87,4,1,297,383,1,86,4e-30,132
Capronia_mansonii_CBS101.67_T,DRR205376.48065,96.61,59,2,0,571,629,242,300,4e-20,99.0
Capronia_mansonii_CBS101.67_T,DRR205376.9798,93.75,80,4,1,550,629,364,286,3e-26,119
Capronia_mansonii_CBS101.67_T,DRR205376.9798,92.50,80,5,1,550,629,207,285,1e-24,113
Capronia_mansonii_CBS101.67_T,DRR205376.490,92.50,80,4,2,549,628,219,296,1e-24,113
Capronia_mansonii_CBS101.67_T,DRR205376.490,92.50,80,4,2,549,628,382,305,1e-24,113
Capronia_mansonii_CBS101.67_T,DRR205376.18585,100.00,59,0,0,570,628,362,304,2e-23,110
Capronia_mansonii_CBS101.67_T,DRR205376.18585,100.00,48,0,0,570,617,253,300,2e-17,89.8
Capronia_mansonii_CBS101.67_T,DRR205376.42071,98.28,58,1,0,571,628,235,292,3e-21,102
Capronia_mansonii_CBS101.67_T,DRR205376.42071,98.28,58,1,0,571,628,356,299,3e-21,102
Capronia_mansonii_CBS101.67_T,DRR205376.52458,96.55,58,2,0,571,628,232,289,1e-19,97.1
Capronia_mansonii_CBS101.67_T,DRR205376.52458,96.55,58,2,0,571,628,347,290,1e-19,97.1
Capronia_mansonii_CBS101.67_T,DRR205376.61851,91.67,60,5,0,569,628,363,304,1e-15,84.2
Capronia_mansonii_CBS101.67_T,DRR205376.44480,87.32,71,8,1,560,629,375,305,1e-14,80.5
Capronia_mansonii_CBS101.67_T,DRR205376.11501,95.83,48,2,0,581,628,351,304,5e-14,78.7
Capronia_munkii_DAOM216390_T,DRR205376.48065,94.25,87,4,1,297,383,1,86,4e-30,132
Capronia_munkii_DAOM216390_T,DRR205376.48065,96.61,59,2,0,571,629,242,300,4e-20,99.0
Capronia_munkii_DAOM216390_T,DRR205376.490,93.75,80,3,2,549,628,219,296,3e-26,119
Capronia_munkii_DAOM216390_T,DRR205376.490,93.75,80,3,2,549,628,382,305,3e-26,119
Capronia_munkii_DAOM216390_T,DRR205376.9798,92.50,80,5,1,550,629,364,286,1e-24,113
Capronia_munkii_DAOM216390_T,DRR205376.9798,91.25,80,6,1,550,629,207,285,6e-23,108
Capronia_munkii_DAOM216390_T,DRR205376.18585,100.00,59,0,0,570,628,362,304,2e-23,110
Capronia_munkii_DAOM216390_T,DRR205376.18585,100.00,48,0,0,570,617,253,300,2e-17,89.8
Capronia_munkii_DAOM216390_T,DRR205376.42071,98.28,58,1,0,571,628,235,292,3e-21,102
Capronia_munkii_DAOM216390_T,DRR205376.42071,98.28,58,1,0,571,628,356,299,3e-21,102
Capronia_munkii_DAOM216390_T,DRR205376.52458,96.55,58,2,0,571,628,232,289,1e-19,97.1
Capronia_munkii_DAOM216390_T,DRR205376.52458,96.55,58,2,0,571,628,347,290,1e-19,97.1
Capronia_munkii_DAOM216390_T,DRR205376.61851,91.67,60,5,0,569,628,363,304,1e-15,84.2
Capronia_munkii_DAOM216390_T,DRR205376.44480,92.59,54,4,0,576,629,358,305,5e-14,78.7
Capronia_munkii_DAOM216390_T,DRR205376.11501,95.83,48,2,0,581,628,351,304,5e-14,78.7
Capronia_coronata_ATCC56201_T,DRR205376.48065,98.63,73,1,0,285,357,1,73,1e-29,130
Capronia_coronata_ATCC56201_T,DRR205376.48065,96.61,59,2,0,542,600,242,300,4e-20,99.0
Capronia_coronata_ATCC56201_T,DRR205376.490,97.06,68,2,0,532,599,229,296,4e-25,115
Capronia_coronata_ATCC56201_T,DRR205376.490,97.06,68,2,0,532,599,372,305,4e-25,115
Capronia_coronata_ATCC56201_T,DRR205376.9798,95.65,69,3,0,532,600,354,286,5e-24,111
Capronia_coronata_ATCC56201_T,DRR205376.9798,94.20,69,4,0,532,600,217,285,2e-22,106
Capronia_coronata_ATCC56201_T,DRR205376.18585,100.00,59,0,0,541,599,362,304,2e-23,110
Capronia_coronata_ATCC56201_T,DRR205376.18585,100.00,48,0,0,541,588,253,300,2e-17,89.8
Capronia_coronata_ATCC56201_T,DRR205376.42071,98.28,58,1,0,542,599,235,292,3e-21,102
Capronia_coronata_ATCC56201_T,DRR205376.42071,98.28,58,1,0,542,599,356,299,3e-21,102
Capronia_coronata_ATCC56201_T,DRR205376.52458,96.55,58,2,0,542,599,232,289,1e-19,97.1
Capronia_coronata_ATCC56201_T,DRR205376.52458,96.55,58,2,0,542,599,347,290,1e-19,97.1
Capronia_coronata_ATCC56201_T,DRR205376.61851,90.62,64,5,1,537,599,367,304,1e-15,84.2
Capronia_coronata_ATCC56201_T,DRR205376.44480,92.59,54,4,0,547,600,358,305,5e-14,78.7
Capronia_coronata_ATCC56201_T,DRR205376.11501,95.83,48,2,0,552,599,351,304,5e-14,78.7
Capronia_parasitica_CBS123.88,DRR205376.48065,98.63,73,1,0,291,363,1,73,1e-29,130
Capronia_parasitica_CBS123.88,DRR205376.48065,100.00,30,0,0,563,592,242,271,2e-07,56.5
Capronia_parasitica_CBS123.88,DRR205376.490,95.35,43,2,0,553,595,229,271,3e-11,69.4
Capronia_parasitica_CBS123.88,DRR205376.490,95.35,43,2,0,553,595,372,330,3e-11,69.4
Capronia_parasitica_CBS123.88,DRR205376.52458,93.02,43,3,0,553,595,222,264,1e-09,63.9
Capronia_parasitica_CBS123.88,DRR205376.9798,97.30,37,1,0,559,595,223,259,1e-09,63.9
Capronia_parasitica_CBS123.88,DRR205376.9798,97.30,37,1,0,559,595,348,312,1e-09,63.9
Capronia_parasitica_CBS123.88,DRR205376.42071,100.00,33,0,0,563,595,235,267,5e-09,62.1
Capronia_parasitica_CBS123.88,DRR205376.42071,100.00,33,0,0,563,595,356,324,5e-09,62.1
Veronaea_japonica_CBS776.83_T,DRR205376.48065,94.25,87,4,1,319,405,1,86,3e-30,132
Thysanorea_papuana_CBS212.96_T,DRR205376.48065,90.38,104,7,3,293,396,1,101,9e-31,134
Capronia_acutiseta_ATCC56428_T,DRR205376.48065,98.63,73,1,0,286,358,1,73,1e-29,130
Capronia_acutiseta_ATCC56428_T,DRR205376.48065,98.31,59,1,0,541,599,242,300,8e-22,104
Capronia_acutiseta_ATCC56428_T,DRR205376.490,97.14,70,1,1,529,598,228,296,1e-25,117
Capronia_acutiseta_ATCC56428_T,DRR205376.490,97.14,70,1,1,529,598,373,305,1e-25,117
Capronia_acutiseta_ATCC56428_T,DRR205376.9798,95.77,71,3,0,529,599,356,286,4e-25,115
Capronia_acutiseta_ATCC56428_T,DRR205376.9798,94.37,71,4,0,529,599,215,285,2e-23,110
Capronia_acutiseta_ATCC56428_T,DRR205376.42071,100.00,58,0,0,541,598,235,292,6e-23,108
Capronia_acutiseta_ATCC56428_T,DRR205376.42071,100.00,58,0,0,541,598,356,299,6e-23,108
Capronia_acutiseta_ATCC56428_T,DRR205376.18585,98.31,59,1,0,540,598,362,304,8e-22,104
Capronia_acutiseta_ATCC56428_T,DRR205376.52458,98.28,58,1,0,541,598,232,289,3e-21,102
Capronia_acutiseta_ATCC56428_T,DRR205376.52458,98.28,58,1,0,541,598,347,290,3e-21,102
Capronia_acutiseta_ATCC56428_T,DRR205376.44480,90.74,54,5,0,546,599,358,305,2e-12,73.1
Capronia_acutiseta_ATCC56428_T,DRR205376.11501,93.75,48,3,0,551,598,351,304,2e-12,73.1
Fonsecaea_brasiliensis_CBS119710_T,DRR205376.48065,98.63,73,1,0,293,365,1,73,1e-29,130
Fonsecaea_pedrosoi_CBS271.37_T,DRR205376.48065,89.62,106,6,3,321,426,1,101,1e-29,130
Fonsecaea_pedrosoi_CBS271.37_T,DRR205376.9798,95.65,69,3,0,577,645,355,287,5e-24,111
Fonsecaea_pedrosoi_CBS271.37_T,DRR205376.9798,94.20,69,4,0,577,645,216,284,2e-22,106
Fonsecaea_pedrosoi_CBS271.37_T,DRR205376.18585,98.31,59,1,0,587,645,362,304,8e-22,104
Fonsecaea_pedrosoi_CBS271.37_T,DRR205376.490,94.20,69,3,1,577,645,229,296,8e-22,104
Fonsecaea_pedrosoi_CBS271.37_T,DRR205376.490,94.20,69,3,1,577,645,372,305,8e-22,104
Fonsecaea_pedrosoi_CBS271.37_T,DRR205376.42071,96.55,58,2,0,588,645,235,292,1e-19,97.1
Fonsecaea_pedrosoi_CBS271.37_T,DRR205376.42071,96.55,58,2,0,588,645,356,299,1e-19,97.1
Fonsecaea_pedrosoi_CBS271.37_T,DRR205376.52458,94.83,58,3,0,588,645,347,290,6e-18,91.6
Fonsecaea_pedrosoi_CBS271.37_T,DRR205376.11501,93.75,48,3,0,598,645,351,304,2e-12,73.1
Fonsecaea_pedrosoi_CBS271.37_T,DRR205376.44480,90.57,53,5,0,593,645,358,306,8e-12,71.3
Fonsecaea_multimorphosa_CBS980.96_T,DRR205376.48065,90.48,105,6,2,291,395,1,101,2e-31,135
Fonsecaea_minima_CBS125760_T,DRR205376.48065,98.63,73,1,0,287,359,1,73,1e-29,130
Fonsecaea_nubica_CBS269.64_T,DRR205376.48065,88.50,113,8,4,298,410,1,108,3e-30,132
Fonsecaea_monophora_CBS269.37_T,DRR205376.48065,89.62,106,6,3,299,404,1,101,1e-29,130
Fonsecaea_erecta_CBS125763_T,DRR205376.48065,90.48,105,6,3,282,386,1,101,2e-31,135
Fonsecaea_pugnacius_CBS139214_T,DRR205376.48065,98.63,73,1,0,291,363,1,73,1e-29,130
Cladophialophora_psammophila_CBS,DRR205376.48065,90.48,105,6,3,297,401,1,101,3e-31,135
Cladophialophora_devriesii_CBS,DRR205376.48065,90.48,105,6,2,293,397,1,101,2e-31,135
Cladophialophora_immunda_CBS834.96,DRR205376.48065,88.39,112,9,2,295,406,1,108,3e-30,132
Cladophialophora_arxii_CBS306.94_T,DRR205376.48065,98.63,73,1,0,297,369,1,73,1e-29,130
Cladophialophora_bantiana_CBS173.52,DRR205376.48065,90.48,105,6,3,291,395,1,101,2e-31,135
Cladophialophora_emmonsii_CBS102594,DRR205376.48065,94.25,87,4,1,282,368,1,86,3e-30,132
Cladophialophora_minourae_CBS556.83,DRR205376.48065,92.13,89,4,3,290,378,1,86,2e-27,122
Cladophialophora_australiensis_CBS112793,DRR205376.48065,89.42,104,8,2,292,395,1,101,1e-28,128
Cladophialophora_australiensis_CBS112793,DRR205376.48065,94.92,59,3,0,549,607,242,300,4e-18,93.5
Cladophialophora_australiensis_CBS112793,DRR205376.490,95.59,68,2,1,539,606,230,296,1e-22,108
Cladophialophora_australiensis_CBS112793,DRR205376.490,95.59,68,2,1,539,606,371,305,1e-22,108
Cladophialophora_australiensis_CBS112793,DRR205376.9798,94.20,69,4,0,539,607,354,286,5e-22,106
Cladophialophora_australiensis_CBS112793,DRR205376.9798,92.75,69,5,0,539,607,217,285,2e-20,100
Cladophialophora_australiensis_CBS112793,DRR205376.18585,98.31,59,1,0,548,606,362,304,2e-21,104
Cladophialophora_australiensis_CBS112793,DRR205376.42071,96.55,58,2,0,549,606,235,292,3e-19,97.1
Cladophialophora_australiensis_CBS112793,DRR205376.42071,96.55,58,2,0,549,606,356,299,3e-19,97.1
Cladophialophora_australiensis_CBS112793,DRR205376.52458,94.83,58,3,0,549,606,347,290,1e-17,91.6
Cladophialophora_australiensis_CBS112793,DRR205376.44480,90.74,54,5,0,554,607,358,305,5e-12,73.1
Cladophialophora_australiensis_CBS112793,DRR205376.11501,93.75,48,3,0,559,606,351,304,5e-12,73.1
Cladophialophora_potulentorum_CBS112222,DRR205376.48065,88.46,104,9,2,291,394,1,101,5e-27,122
Cladophialophora_potulentorum_CBS112222,DRR205376.48065,94.92,59,3,0,551,609,242,300,4e-18,93.5
Cladophialophora_potulentorum_CBS112222,DRR205376.18585,98.31,59,1,0,550,608,362,304,2e-21,104
Cladophialophora_potulentorum_CBS112222,DRR205376.490,94.20,69,3,1,540,608,229,296,2e-21,104
Cladophialophora_potulentorum_CBS112222,DRR205376.490,94.20,69,3,1,540,608,372,305,2e-21,104
Cladophialophora_potulentorum_CBS112222,DRR205376.9798,92.86,70,5,0,540,609,355,286,7e-21,102
Cladophialophora_potulentorum_CBS112222,DRR205376.9798,91.43,70,6,0,540,609,216,285,3e-19,97.1
Cladophialophora_potulentorum_CBS112222,DRR205376.42071,96.55,58,2,0,551,608,235,292,3e-19,97.1
Cladophialophora_potulentorum_CBS112222,DRR205376.42071,96.55,58,2,0,551,608,356,299,3e-19,97.1
Cladophialophora_potulentorum_CBS112222,DRR205376.52458,90.41,73,6,1,536,608,361,290,1e-18,95.3
Cladophialophora_potulentorum_CBS112222,DRR205376.44480,90.74,54,5,0,556,609,358,305,5e-12,73.1
Cladophialophora_potulentorum_CBS112222,DRR205376.11501,93.75,48,3,0,561,608,351,304,5e-12,73.1
Cladophialophora_matsushimae_CMRP1198,DRR205376.48065,89.42,104,8,3,295,398,1,101,4e-29,128
Cladophialophora_mycetomatis_CBS122637,DRR205376.48065,89.19,111,9,3,280,390,1,108,2e-31,135
Cladophialophora_chaetospira_CBS127573,DRR205376.48065,91.35,104,6,3,686,789,1,101,3e-32,139
Cladophialophora_boppii_CBS126.86_T,DRR205376.48065,90.38,104,7,2,288,391,1,101,9e-31,134
Cladophialophora_abundans_CBS126736,DRR205376.48065,89.42,104,8,3,225,328,1,101,4e-29,128
Capronia_semi-immersa_CBS102234,DRR205376.48065,88.60,114,10,2,287,400,1,111,2e-31,135
Phialophora_americana_CBS400.67,DRR205376.48065,88.60,114,10,2,289,402,1,111,7e-31,135
Phialophora_verrucosa_CBS140325_T,DRR205376.48065,88.60,114,10,2,293,406,1,111,3e-31,135
Cladophialophora_samoensis_CBS259.83_T,DRR205376.48065,89.42,104,8,2,293,396,1,101,4e-29,128
Cladophialophora_carrionii_CBS260.83,DRR205376.48065,90.52,116,8,3,309,424,1,113,1e-35,150
Exophiala_palmae_UPCB86822_T,DRR205376.48065,94.25,87,4,1,252,338,1,86,3e-30,132
Cladophialophora_yegresii_CBS114405_T,DRR205376.48065,89.66,116,9,2,294,409,1,113,4e-34,145
Knufia_epidermidis_CBS120353_T,DRR205376.48065,93.15,73,5,0,292,364,1,73,5e-23,108
Arthrocladium_fulminans_CBS136243_T,DRR205376.48065,94.52,73,4,0,287,359,1,73,1e-24,113
Anthopsis_deltoidea_CBS263.77_T,DRR205376.44480,88.24,85,9,1,294,378,2,85,8e-21,100
Cyphellophora_laciniata_CBS190.61_T,DRR205376.48065,86.79,106,13,1,379,484,1,105,1e-25,117
Cyphellophora_laciniata_CBS190.61_T,DRR205376.48065,96.61,59,2,0,638,696,242,300,4e-20,99.0
Cyphellophora_laciniata_CBS190.61_T,DRR205376.18585,100.00,59,0,0,637,695,362,304,2e-23,110
Cyphellophora_laciniata_CBS190.61_T,DRR205376.18585,100.00,48,0,0,637,684,253,300,3e-17,89.8
Cyphellophora_laciniata_CBS190.61_T,DRR205376.490,92.31,78,3,2,618,695,222,296,7e-23,108
Cyphellophora_laciniata_CBS190.61_T,DRR205376.490,92.31,78,3,2,618,695,379,305,7e-23,108
Cyphellophora_laciniata_CBS190.61_T,DRR205376.9798,96.83,63,2,0,634,696,348,286,3e-22,106
Cyphellophora_laciniata_CBS190.61_T,DRR205376.9798,95.24,63,3,0,634,696,223,285,1e-20,100
Cyphellophora_laciniata_CBS190.61_T,DRR205376.42071,98.28,58,1,0,638,695,235,292,3e-21,102
Cyphellophora_laciniata_CBS190.61_T,DRR205376.42071,98.28,58,1,0,638,695,356,299,3e-21,102
Cyphellophora_laciniata_CBS190.61_T,DRR205376.52458,96.55,58,2,0,638,695,232,289,2e-19,97.1
Cyphellophora_laciniata_CBS190.61_T,DRR205376.52458,96.55,58,2,0,638,695,347,290,2e-19,97.1
Cyphellophora_laciniata_CBS190.61_T,DRR205376.61851,90.91,66,5,1,631,695,369,304,9e-17,87.9
Cyphellophora_laciniata_CBS190.61_T,DRR205376.44480,92.59,54,4,0,643,696,358,305,6e-14,78.7
Cyphellophora_laciniata_CBS190.61_T,DRR205376.11501,95.83,48,2,0,648,695,351,304,6e-14,78.7
Cyphellophora_suttonii_CBS449.91,DRR205376.48065,90.80,87,7,1,282,368,1,86,3e-25,115
Cyphellophora_pauciseptata_CBS284.85_T,DRR205376.48065,90.80,87,7,1,293,379,1,86,3e-25,115
Cyphellophora_pluriseptata_CBS286.85_T,DRR205376.48065,91.95,87,6,1,298,384,1,86,7e-27,121
Phialophora_europaea_CBS101466,DRR205376.48065,91.95,87,6,1,288,374,1,86,7e-27,121
Phialophora_ambigua_CBS235.93,DRR205376.48065,91.95,87,6,1,285,371,1,86,7e-27,121
Cladophialophora_modesta_CBS985.96_T,DRR205376.48065,91.26,103,7,2,284,386,1,101,2e-32,139
Cladophialophora_modesta_CBS985.96_T,DRR205376.48065,94.92,59,3,0,522,580,242,300,2e-18,93.5
Cladophialophora_modesta_CBS985.96_T,DRR205376.490,95.59,68,2,1,512,579,230,296,6e-23,108
Cladophialophora_modesta_CBS985.96_T,DRR205376.490,95.59,68,2,1,512,579,371,305,6e-23,108
Cladophialophora_modesta_CBS985.96_T,DRR205376.9798,94.20,69,4,0,512,580,354,286,2e-22,106
Cladophialophora_modesta_CBS985.96_T,DRR205376.9798,92.75,69,5,0,512,580,217,285,1e-20,100
Cladophialophora_modesta_CBS985.96_T,DRR205376.18585,98.31,59,1,0,521,579,362,304,8e-22,104
Cladophialophora_modesta_CBS985.96_T,DRR205376.42071,96.55,58,2,0,522,579,235,292,1e-19,97.1
Cladophialophora_modesta_CBS985.96_T,DRR205376.42071,96.55,58,2,0,522,579,356,299,1e-19,97.1
Cladophialophora_modesta_CBS985.96_T,DRR205376.52458,94.83,58,3,0,522,579,232,289,6e-18,91.6
Cladophialophora_modesta_CBS985.96_T,DRR205376.52458,94.83,58,3,0,522,579,347,290,6e-18,91.6
Cladophialophora_modesta_CBS985.96_T,DRR205376.44480,94.44,54,3,0,527,580,358,305,1e-15,84.2
Cladophialophora_modesta_CBS985.96_T,DRR205376.11501,97.92,48,1,0,532,579,351,304,1e-15,84.2
Cyphellophora_fusarioides_MUCL44033_T,DRR205376.44480,84.71,85,12,1,281,365,2,85,9e-16,84.2
