Exophiala_nigra_CBS535.94_T,SRR11027370.119224,92.56,121,8,1,232,352,1,120,4e-42,172
Exophiala_nigra_CBS535.94_T,SRR11027370.71070,91.74,121,9,1,232,352,1,120,2e-40,167
Exophiala_nigra_CBS535.94_T,SRR11027370.72485,89.15,129,13,1,232,360,1,128,3e-38,159
Exophiala_nigra_CBS535.94_T,SRR11027370.72488,87.60,129,15,1,232,360,1,128,7e-35,148
Exophiala_spinifera_CBS899.68_T,SRR11027370.119224,91.74,121,9,1,229,349,1,120,2e-40,167
Exophiala_spinifera_CBS899.68_T,SRR11027370.71070,90.91,121,10,1,229,349,1,120,8e-39,161
Exophiala_spinifera_CBS899.68_T,SRR11027370.72485,89.15,129,13,1,229,357,1,128,3e-38,159
Exophiala_spinifera_CBS899.68_T,SRR11027370.72488,87.60,129,15,1,229,357,1,128,6e-35,148
Exophiala_exophialae_CBS668.76_T,SRR11027370.119224,91.74,121,9,1,230,350,1,120,2e-40,167
Exophiala_exophialae_CBS668.76_T,SRR11027370.71070,90.91,121,10,1,230,350,1,120,8e-39,161
Exophiala_exophialae_CBS668.76_T,SRR11027370.72485,89.15,129,13,1,230,358,1,128,3e-38,159
Exophiala_exophialae_CBS668.76_T,SRR11027370.72488,87.60,129,15,1,230,358,1,128,6e-35,148
Exophiala_polymorpha_CBS138920_T,SRR11027370.119224,91.74,121,9,1,332,452,1,120,2e-40,167
Exophiala_polymorpha_CBS138920_T,SRR11027370.119224,92.50,40,3,0,655,694,349,310,1e-07,58.4
Exophiala_polymorpha_CBS138920_T,SRR11027370.71070,90.91,121,10,1,332,452,1,120,1e-38,161
Exophiala_polymorpha_CBS138920_T,SRR11027370.72485,89.15,129,13,1,332,460,1,128,4e-38,159
Exophiala_polymorpha_CBS138920_T,SRR11027370.72488,87.60,129,15,1,332,460,1,128,8e-35,148
Exophiala_oligosperma_CBS725.88_T,SRR11027370.119224,91.74,121,9,1,242,362,1,120,2e-40,167
Exophiala_oligosperma_CBS725.88_T,SRR11027370.71070,90.91,121,10,1,242,362,1,120,8e-39,161
Exophiala_oligosperma_CBS725.88_T,SRR11027370.72485,89.15,129,13,1,242,370,1,128,3e-38,159
Exophiala_oligosperma_CBS725.88_T,SRR11027370.72488,87.60,129,15,1,242,370,1,128,6e-35,148
Exophiala_jeanselmei_CBS507.90_T,SRR11027370.119224,91.74,121,9,1,234,354,1,120,2e-40,167
Exophiala_jeanselmei_CBS507.90_T,SRR11027370.119224,93.75,48,3,0,557,604,349,302,4e-12,73.1
Exophiala_jeanselmei_CBS507.90_T,SRR11027370.71070,90.91,121,10,1,234,354,1,120,9e-39,161
Exophiala_jeanselmei_CBS507.90_T,SRR11027370.72485,89.15,129,13,1,234,362,1,128,3e-38,159
Exophiala_jeanselmei_CBS507.90_T,SRR11027370.72488,87.60,129,15,1,234,362,1,128,7e-35,148
Exophiala_bergeri_CBS353.52,SRR11027370.119224,92.56,121,8,1,195,315,1,120,3e-42,172
Exophiala_bergeri_CBS353.52,SRR11027370.71070,91.74,121,9,1,195,315,1,120,2e-40,167
Exophiala_bergeri_CBS353.52,SRR11027370.72485,89.15,129,13,1,195,323,1,128,3e-38,159
Exophiala_bergeri_CBS353.52,SRR11027370.72488,87.60,129,15,1,195,323,1,128,6e-35,148
Exophiala_moniliae_CBS520.76_T,SRR11027370.119224,92.56,121,8,1,232,352,1,120,4e-42,172
Exophiala_moniliae_CBS520.76_T,SRR11027370.71070,91.74,121,9,1,232,352,1,120,2e-40,167
Exophiala_moniliae_CBS520.76_T,SRR11027370.72485,89.15,129,14,0,232,360,1,129,9e-39,161
Exophiala_moniliae_CBS520.76_T,SRR11027370.72488,87.60,129,16,0,232,360,1,129,2e-35,150
Exophiala_pisciphila_CBS537.73_T,SRR11027370.119224,89.29,140,13,2,235,374,1,138,1e-42,174
Exophiala_pisciphila_CBS537.73_T,SRR11027370.119224,100.00,36,0,0,578,613,337,302,2e-10,67.6
Exophiala_pisciphila_CBS537.73_T,SRR11027370.71070,88.57,140,14,2,235,374,1,138,6e-41,169
Exophiala_pisciphila_CBS537.73_T,SRR11027370.72485,89.92,129,13,0,235,363,1,129,2e-40,167
Exophiala_pisciphila_CBS537.73_T,SRR11027370.72488,88.37,129,15,0,235,363,1,129,5e-37,156
Exophiala_xenobiotica_CBS117642,SRR11027370.119224,92.56,121,8,1,227,347,1,120,4e-42,172
Exophiala_xenobiotica_CBS117642,SRR11027370.71070,91.74,121,9,1,227,347,1,120,2e-40,167
Exophiala_xenobiotica_CBS117642,SRR11027370.72485,89.15,129,13,1,227,355,1,128,3e-38,159
Exophiala_xenobiotica_CBS117642,SRR11027370.72488,87.60,129,15,1,227,355,1,128,6e-35,148
Exophiala_brunnea_CBS,SRR11027370.119224,88.57,140,14,2,263,402,1,138,6e-41,169
Exophiala_brunnea_CBS,SRR11027370.71070,87.86,140,15,2,263,402,1,138,3e-39,163
Exophiala_brunnea_CBS,SRR11027370.72485,88.37,129,15,0,263,391,1,129,4e-37,156
Exophiala_brunnea_CBS,SRR11027370.72488,86.82,129,17,0,263,391,1,129,1e-33,145
Exophiala_nishimurae_CBS101538_T,SRR11027370.119224,91.74,121,9,1,241,361,1,120,2e-40,167
Exophiala_nishimurae_CBS101538_T,SRR11027370.71070,90.91,121,10,1,241,361,1,120,9e-39,161
Exophiala_nishimurae_CBS101538_T,SRR11027370.72485,89.15,129,13,1,241,369,1,128,3e-38,159
Exophiala_nishimurae_CBS101538_T,SRR11027370.72488,87.60,129,15,1,241,369,1,128,7e-35,148
Exophiala_mesophila_CBS402.95_T,SRR11027370.119224,88.57,140,14,2,225,364,1,138,6e-41,169
Exophiala_mesophila_CBS402.95_T,SRR11027370.119224,93.75,48,3,0,563,610,349,302,5e-12,73.1
Exophiala_mesophila_CBS402.95_T,SRR11027370.71070,87.86,140,15,2,225,364,1,138,3e-39,163
Exophiala_mesophila_CBS402.95_T,SRR11027370.72485,88.37,129,15,0,225,353,1,129,5e-37,156
Exophiala_mesophila_CBS402.95_T,SRR11027370.72488,86.82,129,17,0,225,353,1,129,1e-33,145
Exophiala_castellanii_CBS158.58_T,SRR11027370.119224,88.57,140,14,2,223,362,1,138,6e-41,169
Exophiala_castellanii_CBS158.58_T,SRR11027370.119224,93.75,48,3,0,562,609,349,302,5e-12,73.1
Exophiala_castellanii_CBS158.58_T,SRR11027370.71070,87.86,140,15,2,223,362,1,138,3e-39,163
Exophiala_castellanii_CBS158.58_T,SRR11027370.72485,88.37,129,15,0,223,351,1,129,5e-37,156
Exophiala_castellanii_CBS158.58_T,SRR11027370.72488,86.82,129,17,0,223,351,1,129,1e-33,145
Exophiala_lecanii-corni_CBS123.33_T,SRR11027370.119224,89.05,137,13,2,246,381,1,136,5e-41,169
Exophiala_lecanii-corni_CBS123.33_T,SRR11027370.71070,88.32,137,14,2,246,381,1,136,2e-39,163
Exophiala_lecanii-corni_CBS123.33_T,SRR11027370.72485,88.37,129,15,0,246,374,1,129,4e-37,156
Exophiala_lecanii-corni_CBS123.33_T,SRR11027370.72488,86.82,129,17,0,246,374,1,129,9e-34,145
Exophiala_dermatitidis_CBS748.88,SRR11027370.119224,89.29,140,13,2,238,377,1,138,3e-42,174
Exophiala_dermatitidis_CBS748.88,SRR11027370.119224,93.75,48,3,0,588,635,349,302,1e-11,73.1
Exophiala_dermatitidis_CBS748.88,SRR11027370.71070,88.57,140,14,2,238,377,1,138,1e-40,169
Exophiala_dermatitidis_CBS748.88,SRR11027370.72485,89.15,129,14,0,238,366,1,129,2e-38,161
Exophiala_dermatitidis_CBS748.88,SRR11027370.72488,87.60,129,16,0,238,366,1,129,5e-35,150
Exophiala_angulospora_CBS482.92_T,SRR11027370.119224,92.56,121,8,1,229,349,1,120,4e-42,172
Exophiala_angulospora_CBS482.92_T,SRR11027370.71070,91.74,121,9,1,229,349,1,120,2e-40,167
Exophiala_angulospora_CBS482.92_T,SRR11027370.72485,89.15,129,14,0,229,357,1,129,8e-39,161
Exophiala_angulospora_CBS482.92_T,SRR11027370.72488,87.60,129,16,0,229,357,1,129,2e-35,150
Exophiala_opportunistica_CBS109811_T,SRR11027370.119224,89.29,140,13,2,228,367,1,138,1e-42,174
Exophiala_opportunistica_CBS109811_T,SRR11027370.71070,88.57,140,14,2,228,367,1,138,5e-41,169
Exophiala_opportunistica_CBS109811_T,SRR11027370.72485,89.15,129,14,0,228,356,1,129,8e-39,161
Exophiala_opportunistica_CBS109811_T,SRR11027370.72488,87.60,129,16,0,228,356,1,129,2e-35,150
Exophiala_salmonis_CBS157.67_T,SRR11027370.119224,89.29,140,13,2,357,496,1,138,1e-42,174
Exophiala_salmonis_CBS157.67_T,SRR11027370.119224,100.00,36,0,0,698,733,337,302,3e-10,67.6
Exophiala_salmonis_CBS157.67_T,SRR11027370.71070,88.57,140,14,2,357,496,1,138,7e-41,169
Exophiala_salmonis_CBS157.67_T,SRR11027370.72485,89.15,129,14,0,357,485,1,129,1e-38,161
Exophiala_salmonis_CBS157.67_T,SRR11027370.72488,87.60,129,16,0,357,485,1,129,3e-35,150
Exophiala_aquamarina_CBS119918_T,SRR11027370.119224,92.56,121,8,1,235,355,1,120,4e-42,172
Exophiala_aquamarina_CBS119918_T,SRR11027370.71070,91.74,121,9,1,235,355,1,120,2e-40,167
Exophiala_aquamarina_CBS119918_T,SRR11027370.72485,89.15,129,14,0,235,363,1,129,8e-39,161
Exophiala_aquamarina_CBS119918_T,SRR11027370.72488,87.60,129,16,0,235,363,1,129,2e-35,150
Exophiala_cancerae_CBS120420_T,SRR11027370.119224,89.29,140,13,2,250,389,1,138,1e-42,174
Exophiala_cancerae_CBS120420_T,SRR11027370.119224,100.00,36,0,0,589,624,337,302,2e-10,67.6
Exophiala_cancerae_CBS120420_T,SRR11027370.71070,88.57,140,14,2,250,389,1,138,6e-41,169
Exophiala_cancerae_CBS120420_T,SRR11027370.72485,89.15,129,14,0,250,378,1,129,9e-39,161
Exophiala_cancerae_CBS120420_T,SRR11027370.72488,87.60,129,16,0,250,378,1,129,2e-35,150
Exophiala_tremulae_CBS129355,SRR11027370.119224,89.29,140,13,2,262,401,1,138,1e-42,174
Exophiala_tremulae_CBS129355,SRR11027370.71070,88.57,140,14,2,262,401,1,138,6e-41,169
Exophiala_tremulae_CBS129355,SRR11027370.72485,89.15,129,14,0,262,390,1,129,9e-39,161
Exophiala_tremulae_CBS129355,SRR11027370.72488,87.60,129,16,0,262,390,1,129,2e-35,150
Exophiala_equina_CBS116009,SRR11027370.119224,89.29,140,13,2,228,367,1,138,1e-42,174
Exophiala_equina_CBS116009,SRR11027370.71070,88.57,140,14,2,228,367,1,138,5e-41,169
Exophiala_equina_CBS116009,SRR11027370.72485,89.15,129,14,0,228,356,1,129,8e-39,161
Exophiala_equina_CBS116009,SRR11027370.72488,87.60,129,16,0,228,356,1,129,2e-35,150
Exophiala_alcalophila_CBS520.82_T,SRR11027370.119224,92.56,121,8,1,239,359,1,120,4e-42,172
Exophiala_alcalophila_CBS520.82_T,SRR11027370.71070,91.74,121,9,1,239,359,1,120,2e-40,167
Exophiala_alcalophila_CBS520.82_T,SRR11027370.72485,89.15,129,14,0,239,367,1,129,8e-39,161
Exophiala_alcalophila_CBS520.82_T,SRR11027370.72488,87.60,129,16,0,239,367,1,129,2e-35,150
Exophiala_crusticola_CBS119970_T,SRR11027370.119224,89.29,140,13,2,244,383,1,138,1e-42,174
Exophiala_crusticola_CBS119970_T,SRR11027370.71070,88.57,140,14,2,244,383,1,138,5e-41,169
Exophiala_crusticola_CBS119970_T,SRR11027370.72485,89.15,129,14,0,244,372,1,129,8e-39,161
Exophiala_crusticola_CBS119970_T,SRR11027370.72488,87.60,129,16,0,244,372,1,129,2e-35,150
Rhinocladiella_atrovirens_CBS264.49,SRR11027370.119224,89.05,137,13,2,270,405,1,136,6e-41,169
Rhinocladiella_atrovirens_CBS264.49,SRR11027370.71070,88.32,137,14,2,270,405,1,136,3e-39,163
Rhinocladiella_atrovirens_CBS264.49,SRR11027370.72485,88.37,129,15,0,270,398,1,129,4e-37,156
Rhinocladiella_atrovirens_CBS264.49,SRR11027370.72488,86.82,129,17,0,270,398,1,129,9e-34,145
Rhinocladiella_basitona_CBS101460_T,SRR11027370.119224,91.74,121,9,1,229,349,1,120,2e-40,167
Rhinocladiella_basitona_CBS101460_T,SRR11027370.71070,90.91,121,10,1,229,349,1,120,8e-39,161
Rhinocladiella_basitona_CBS101460_T,SRR11027370.72485,89.15,129,13,1,229,357,1,128,3e-38,159
Rhinocladiella_basitona_CBS101460_T,SRR11027370.72488,87.60,129,15,1,229,357,1,128,6e-35,148
Rhinocladiella_phaeophora_CBS496.78_T,SRR11027370.119224,89.29,140,13,2,237,376,1,138,1e-42,174
Rhinocladiella_phaeophora_CBS496.78_T,SRR11027370.71070,88.57,140,14,2,237,376,1,138,5e-41,169
Rhinocladiella_phaeophora_CBS496.78_T,SRR11027370.72485,89.92,129,13,0,237,365,1,129,2e-40,167
Rhinocladiella_phaeophora_CBS496.78_T,SRR11027370.72488,88.37,129,15,0,237,365,1,129,4e-37,156
Rhinocladiella_aquaspersa_CBS313.73_T,SRR11027370.119224,89.29,140,13,2,231,370,1,138,1e-42,174
Rhinocladiella_aquaspersa_CBS313.73_T,SRR11027370.119224,100.00,36,0,0,570,605,337,302,2e-10,67.6
Rhinocladiella_aquaspersa_CBS313.73_T,SRR11027370.71070,88.57,140,14,2,231,370,1,138,6e-41,169
Rhinocladiella_aquaspersa_CBS313.73_T,SRR11027370.72485,89.92,129,13,0,231,359,1,129,2e-40,167
Rhinocladiella_aquaspersa_CBS313.73_T,SRR11027370.72488,88.37,129,15,0,231,359,1,129,5e-37,156
Rhinocladiella_fasciculata_CBS132.86_T,SRR11027370.119224,93.10,116,7,1,247,362,1,115,5e-41,169
Rhinocladiella_fasciculata_CBS132.86_T,SRR11027370.71070,92.24,116,8,1,247,362,1,115,2e-39,163
Rhinocladiella_fasciculata_CBS132.86_T,SRR11027370.72485,89.15,129,14,0,247,375,1,129,9e-39,161
Rhinocladiella_fasciculata_CBS132.86_T,SRR11027370.72488,87.60,129,16,0,247,375,1,129,2e-35,150
Rhinocladiella_anceps_CBS181.65_T,SRR11027370.119224,91.74,121,9,1,229,349,1,120,2e-40,167
Rhinocladiella_anceps_CBS181.65_T,SRR11027370.72485,89.15,129,14,0,229,357,1,129,8e-39,161
Rhinocladiella_anceps_CBS181.65_T,SRR11027370.71070,90.91,121,10,1,229,349,1,120,8e-39,161
Rhinocladiella_anceps_CBS181.65_T,SRR11027370.72488,87.60,129,16,0,229,357,1,129,2e-35,150
Rhinocladiella_mackenziei_CBS367.92,SRR11027370.119224,92.56,121,8,1,218,338,1,120,4e-42,172
Rhinocladiella_mackenziei_CBS367.92,SRR11027370.71070,91.74,121,9,1,218,338,1,120,2e-40,167
Rhinocladiella_mackenziei_CBS367.92,SRR11027370.72485,89.15,129,14,0,218,346,1,129,9e-39,161
Rhinocladiella_mackenziei_CBS367.92,SRR11027370.72488,87.60,129,16,0,218,346,1,129,2e-35,150
Veronaea_compacta_CBS268.75_T,SRR11027370.119224,88.57,140,14,2,251,390,1,138,5e-41,169
Veronaea_compacta_CBS268.75_T,SRR11027370.71070,87.86,140,15,2,251,390,1,138,2e-39,163
Veronaea_compacta_CBS268.75_T,SRR11027370.72485,88.37,129,15,0,251,379,1,129,4e-37,156
Veronaea_compacta_CBS268.75_T,SRR11027370.72488,86.82,129,17,0,251,379,1,129,9e-34,145
Capronia_pilosella_AFTOL-ID657,SRR11027370.119224,89.29,140,13,2,329,468,1,138,1e-42,174
Capronia_pilosella_AFTOL-ID657,SRR11027370.71070,88.57,140,14,2,329,468,1,138,6e-41,169
Capronia_pilosella_AFTOL-ID657,SRR11027370.72485,89.15,129,14,0,329,457,1,129,1e-38,161
Capronia_pilosella_AFTOL-ID657,SRR11027370.72488,87.60,129,16,0,329,457,1,129,2e-35,150
Capronia_dactylotricha_DAOM208471_T,SRR11027370.119224,92.56,121,8,1,231,351,1,120,5e-42,172
Capronia_dactylotricha_DAOM208471_T,SRR11027370.119224,100.00,36,0,0,583,618,337,302,2e-10,67.6
Capronia_dactylotricha_DAOM208471_T,SRR11027370.71070,91.74,121,9,1,231,351,1,120,2e-40,167
Capronia_dactylotricha_DAOM208471_T,SRR11027370.72485,89.15,129,14,0,231,359,1,129,1e-38,161
Capronia_dactylotricha_DAOM208471_T,SRR11027370.72488,87.60,129,16,0,231,359,1,129,2e-35,150
Capronia_kleinmondensis_CBS122671_T,SRR11027370.119224,89.05,137,13,2,256,391,1,136,6e-41,169
Capronia_kleinmondensis_CBS122671_T,SRR11027370.119224,100.00,36,0,0,589,624,337,302,2e-10,67.6
Capronia_kleinmondensis_CBS122671_T,SRR11027370.71070,88.32,137,14,2,256,391,1,136,3e-39,163
Capronia_kleinmondensis_CBS122671_T,SRR11027370.72485,88.37,129,15,0,256,384,1,129,5e-37,156
Capronia_kleinmondensis_CBS122671_T,SRR11027370.72488,86.82,129,17,0,256,384,1,129,1e-33,145
Capronia_mansonii_CBS101.67_T,SRR11027370.119224,89.29,140,13,2,242,381,1,138,1e-42,174
Capronia_mansonii_CBS101.67_T,SRR11027370.119224,93.75,48,3,0,581,628,349,302,5e-12,73.1
Capronia_mansonii_CBS101.67_T,SRR11027370.71070,88.57,140,14,2,242,381,1,138,6e-41,169
Capronia_mansonii_CBS101.67_T,SRR11027370.72485,89.15,129,14,0,242,370,1,129,1e-38,161
Capronia_mansonii_CBS101.67_T,SRR11027370.72488,87.60,129,16,0,242,370,1,129,2e-35,150
Capronia_munkii_DAOM216390_T,SRR11027370.119224,89.29,140,13,2,242,381,1,138,1e-42,174
Capronia_munkii_DAOM216390_T,SRR11027370.119224,93.75,48,3,0,581,628,349,302,5e-12,73.1
Capronia_munkii_DAOM216390_T,SRR11027370.71070,88.57,140,14,2,242,381,1,138,6e-41,169
Capronia_munkii_DAOM216390_T,SRR11027370.72485,89.15,129,14,0,242,370,1,129,1e-38,161
Capronia_munkii_DAOM216390_T,SRR11027370.72488,87.60,129,16,0,242,370,1,129,2e-35,150
Capronia_coronata_ATCC56201_T,SRR11027370.119224,92.56,121,8,1,230,350,1,120,4e-42,172
Capronia_coronata_ATCC56201_T,SRR11027370.119224,93.75,48,3,0,552,599,349,302,5e-12,73.1
Capronia_coronata_ATCC56201_T,SRR11027370.71070,91.74,121,9,1,230,350,1,120,2e-40,167
Capronia_coronata_ATCC56201_T,SRR11027370.72485,89.15,129,14,0,230,358,1,129,1e-38,161
Capronia_coronata_ATCC56201_T,SRR11027370.72488,87.60,129,16,0,230,358,1,129,2e-35,150
Capronia_parasitica_CBS123.88,SRR11027370.119224,89.78,137,12,2,236,371,1,136,1e-42,174
Capronia_parasitica_CBS123.88,SRR11027370.71070,89.05,137,13,2,236,371,1,136,5e-41,169
Capronia_parasitica_CBS123.88,SRR11027370.72485,89.15,129,14,0,236,364,1,129,9e-39,161
Capronia_parasitica_CBS123.88,SRR11027370.72488,87.60,129,16,0,236,364,1,129,2e-35,150
Veronaea_japonica_CBS776.83_T,SRR11027370.119224,89.29,140,13,2,264,403,1,138,1e-42,174
Veronaea_japonica_CBS776.83_T,SRR11027370.71070,88.57,140,14,2,264,403,1,138,5e-41,169
Veronaea_japonica_CBS776.83_T,SRR11027370.72485,89.15,129,14,0,264,392,1,129,9e-39,161
Veronaea_japonica_CBS776.83_T,SRR11027370.72488,87.60,129,16,0,264,392,1,129,2e-35,150
Thysanorea_papuana_CBS212.96_T,SRR11027370.119224,89.29,140,13,2,238,377,1,138,1e-42,174
Thysanorea_papuana_CBS212.96_T,SRR11027370.71070,88.57,140,14,2,238,377,1,138,5e-41,169
Thysanorea_papuana_CBS212.96_T,SRR11027370.72485,89.15,129,14,0,238,366,1,129,9e-39,161
Thysanorea_papuana_CBS212.96_T,SRR11027370.72488,87.60,129,16,0,238,366,1,129,2e-35,150
Capronia_acutiseta_ATCC56428_T,SRR11027370.119224,100.00,36,0,0,563,598,337,302,2e-10,67.6
Fonsecaea_brasiliensis_CBS119710_T,SRR11027370.119224,92.56,121,8,1,238,358,1,120,4e-42,172
Fonsecaea_brasiliensis_CBS119710_T,SRR11027370.71070,91.74,121,9,1,238,358,1,120,2e-40,167
Fonsecaea_brasiliensis_CBS119710_T,SRR11027370.72485,89.15,129,14,0,238,366,1,129,8e-39,161
Fonsecaea_brasiliensis_CBS119710_T,SRR11027370.72488,87.60,129,16,0,238,366,1,129,2e-35,150
Fonsecaea_pedrosoi_CBS271.37_T,SRR11027370.119224,92.56,121,8,1,266,386,1,120,4e-42,172
Fonsecaea_pedrosoi_CBS271.37_T,SRR11027370.119224,91.67,48,4,0,598,645,349,302,2e-10,67.6
Fonsecaea_pedrosoi_CBS271.37_T,SRR11027370.71070,91.74,121,9,1,266,386,1,120,2e-40,167
Fonsecaea_pedrosoi_CBS271.37_T,SRR11027370.72485,89.15,129,14,0,266,394,1,129,1e-38,161
Fonsecaea_pedrosoi_CBS271.37_T,SRR11027370.72488,87.60,129,16,0,266,394,1,129,2e-35,150
Fonsecaea_multimorphosa_CBS980.96_T,SRR11027370.119224,92.56,121,8,1,236,356,1,120,4e-42,172
Fonsecaea_multimorphosa_CBS980.96_T,SRR11027370.71070,91.74,121,9,1,236,356,1,120,2e-40,167
Fonsecaea_multimorphosa_CBS980.96_T,SRR11027370.72485,89.15,129,14,0,236,364,1,129,8e-39,161
Fonsecaea_multimorphosa_CBS980.96_T,SRR11027370.72488,87.60,129,16,0,236,364,1,129,2e-35,150
Fonsecaea_minima_CBS125760_T,SRR11027370.119224,92.56,121,8,1,232,352,1,120,4e-42,172
Fonsecaea_minima_CBS125760_T,SRR11027370.71070,91.74,121,9,1,232,352,1,120,2e-40,167
Fonsecaea_minima_CBS125760_T,SRR11027370.72485,89.15,129,14,0,232,360,1,129,8e-39,161
Fonsecaea_minima_CBS125760_T,SRR11027370.72488,87.60,129,16,0,232,360,1,129,2e-35,150
Fonsecaea_nubica_CBS269.64_T,SRR11027370.119224,92.56,121,8,1,243,363,1,120,4e-42,172
Fonsecaea_nubica_CBS269.64_T,SRR11027370.71070,91.74,121,9,1,243,363,1,120,2e-40,167
Fonsecaea_nubica_CBS269.64_T,SRR11027370.72485,89.15,129,14,0,243,371,1,129,8e-39,161
Fonsecaea_nubica_CBS269.64_T,SRR11027370.72488,87.60,129,16,0,243,371,1,129,2e-35,150
Fonsecaea_erecta_CBS125763_T,SRR11027370.119224,89.29,140,13,2,227,366,1,138,1e-42,174
Fonsecaea_erecta_CBS125763_T,SRR11027370.71070,88.57,140,14,2,227,366,1,138,5e-41,169
Fonsecaea_erecta_CBS125763_T,SRR11027370.72485,89.15,129,14,0,227,355,1,129,8e-39,161
Fonsecaea_erecta_CBS125763_T,SRR11027370.72488,87.60,129,16,0,227,355,1,129,2e-35,150
Fonsecaea_pugnacius_CBS139214_T,SRR11027370.119224,92.56,121,8,1,236,356,1,120,4e-42,172
Fonsecaea_pugnacius_CBS139214_T,SRR11027370.71070,91.74,121,9,1,236,356,1,120,2e-40,167
Fonsecaea_pugnacius_CBS139214_T,SRR11027370.72485,89.15,129,14,0,236,364,1,129,8e-39,161
Fonsecaea_pugnacius_CBS139214_T,SRR11027370.72488,87.60,129,16,0,236,364,1,129,2e-35,150
Cladophialophora_psammophila_CBS,SRR11027370.119224,89.29,140,13,2,242,381,1,138,1e-42,174
Cladophialophora_psammophila_CBS,SRR11027370.71070,88.57,140,14,2,242,381,1,138,5e-41,169
Cladophialophora_psammophila_CBS,SRR11027370.72485,89.15,129,14,0,242,370,1,129,8e-39,161
Cladophialophora_psammophila_CBS,SRR11027370.72488,87.60,129,16,0,242,370,1,129,2e-35,150
Cladophialophora_devriesii_CBS,SRR11027370.119224,92.56,121,8,1,238,358,1,120,4e-42,172
Cladophialophora_devriesii_CBS,SRR11027370.71070,91.74,121,9,1,238,358,1,120,2e-40,167
Cladophialophora_devriesii_CBS,SRR11027370.72485,89.15,129,14,0,238,366,1,129,8e-39,161
Cladophialophora_devriesii_CBS,SRR11027370.72488,87.60,129,16,0,238,366,1,129,2e-35,150
Cladophialophora_immunda_CBS834.96,SRR11027370.119224,92.56,121,8,1,240,360,1,120,4e-42,172
Cladophialophora_immunda_CBS834.96,SRR11027370.71070,91.74,121,9,1,240,360,1,120,2e-40,167
Cladophialophora_immunda_CBS834.96,SRR11027370.72485,89.15,129,14,0,240,368,1,129,8e-39,161
Cladophialophora_immunda_CBS834.96,SRR11027370.72488,87.60,129,16,0,240,368,1,129,2e-35,150
Cladophialophora_arxii_CBS306.94_T,SRR11027370.119224,92.56,121,8,1,242,362,1,120,4e-42,172
Cladophialophora_arxii_CBS306.94_T,SRR11027370.71070,91.74,121,9,1,242,362,1,120,2e-40,167
Cladophialophora_arxii_CBS306.94_T,SRR11027370.72485,89.15,129,14,0,242,370,1,129,8e-39,161
Cladophialophora_arxii_CBS306.94_T,SRR11027370.72488,87.60,129,16,0,242,370,1,129,2e-35,150
Cladophialophora_bantiana_CBS173.52,SRR11027370.119224,89.29,140,13,2,236,375,1,138,1e-42,174
Cladophialophora_bantiana_CBS173.52,SRR11027370.71070,88.57,140,14,2,236,375,1,138,5e-41,169
Cladophialophora_bantiana_CBS173.52,SRR11027370.72485,89.15,129,14,0,236,364,1,129,8e-39,161
Cladophialophora_bantiana_CBS173.52,SRR11027370.72488,87.60,129,16,0,236,364,1,129,2e-35,150
Cladophialophora_emmonsii_CBS102594,SRR11027370.119224,89.29,140,13,2,227,366,1,138,1e-42,174
Cladophialophora_emmonsii_CBS102594,SRR11027370.71070,88.57,140,14,2,227,366,1,138,5e-41,169
Cladophialophora_emmonsii_CBS102594,SRR11027370.72485,89.15,129,14,0,227,355,1,129,8e-39,161
Cladophialophora_emmonsii_CBS102594,SRR11027370.72488,87.60,129,16,0,227,355,1,129,2e-35,150
Cladophialophora_minourae_CBS556.83,SRR11027370.119224,89.83,118,9,3,235,352,1,115,6e-35,148
Cladophialophora_minourae_CBS556.83,SRR11027370.71070,88.98,118,10,3,235,352,1,115,3e-33,143
Cladophialophora_minourae_CBS556.83,SRR11027370.72485,85.50,131,17,2,235,365,1,129,5e-31,135
Cladophialophora_minourae_CBS556.83,SRR11027370.72488,83.97,131,19,2,235,365,1,129,1e-27,124
Cladophialophora_australiensis_CBS112793,SRR11027370.119224,93.10,116,7,1,237,352,1,115,1e-40,169
Cladophialophora_australiensis_CBS112793,SRR11027370.119224,91.67,48,4,0,559,606,349,302,5e-10,67.6
Cladophialophora_australiensis_CBS112793,SRR11027370.71070,92.24,116,8,1,237,352,1,115,6e-39,163
Cladophialophora_australiensis_CBS112793,SRR11027370.72485,88.37,129,15,0,237,365,1,129,1e-36,156
Cladophialophora_australiensis_CBS112793,SRR11027370.72488,86.82,129,17,0,237,365,1,129,2e-33,145
Cladophialophora_potulentorum_CBS112222,SRR11027370.119224,92.24,116,8,1,236,351,1,115,6e-39,163
Cladophialophora_potulentorum_CBS112222,SRR11027370.119224,91.67,48,4,0,561,608,349,302,5e-10,67.6
Cladophialophora_potulentorum_CBS112222,SRR11027370.71070,91.38,116,9,1,236,351,1,115,3e-37,158
Cladophialophora_potulentorum_CBS112222,SRR11027370.72485,87.60,129,16,0,236,364,1,129,5e-35,150
Cladophialophora_potulentorum_CBS112222,SRR11027370.72488,86.05,129,18,0,236,364,1,129,1e-31,139
Cladophialophora_matsushimae_CMRP1198,SRR11027370.119224,91.74,121,9,1,240,360,1,120,2e-40,167
Cladophialophora_matsushimae_CMRP1198,SRR11027370.71070,90.91,121,10,1,240,360,1,120,7e-39,161
Cladophialophora_matsushimae_CMRP1198,SRR11027370.72485,88.80,125,14,0,240,364,1,125,1e-36,154
Cladophialophora_matsushimae_CMRP1198,SRR11027370.72488,87.20,125,16,0,240,364,1,125,3e-33,143
Cladophialophora_mycetomatis_CBS122637,SRR11027370.119224,88.57,140,14,2,225,364,1,138,5e-41,169
Cladophialophora_mycetomatis_CBS122637,SRR11027370.71070,87.86,140,15,2,225,364,1,138,2e-39,163
Cladophialophora_mycetomatis_CBS122637,SRR11027370.72485,88.37,129,15,0,225,353,1,129,4e-37,156
Cladophialophora_mycetomatis_CBS122637,SRR11027370.72488,86.82,129,17,0,225,353,1,129,8e-34,145
Cladophialophora_chaetospira_CBS127573,SRR11027370.119224,89.29,140,13,2,631,770,1,138,2e-42,174
Cladophialophora_chaetospira_CBS127573,SRR11027370.71070,88.57,140,14,2,631,770,1,138,8e-41,169
Cladophialophora_chaetospira_CBS127573,SRR11027370.72485,89.15,129,14,0,631,759,1,129,1e-38,161
Cladophialophora_chaetospira_CBS127573,SRR11027370.72488,87.60,129,16,0,631,759,1,129,3e-35,150
Cladophialophora_boppii_CBS126.86_T,SRR11027370.119224,88.97,145,13,3,233,377,1,142,3e-43,176
Cladophialophora_boppii_CBS126.86_T,SRR11027370.71070,88.28,145,14,3,233,377,1,142,1e-41,171
Cladophialophora_boppii_CBS126.86_T,SRR11027370.72485,89.15,129,14,0,233,361,1,129,8e-39,161
Cladophialophora_boppii_CBS126.86_T,SRR11027370.72488,87.60,129,16,0,233,361,1,129,2e-35,150
Cladophialophora_abundans_CBS126736,SRR11027370.119224,85.71,140,18,2,170,309,1,138,2e-34,147
Cladophialophora_abundans_CBS126736,SRR11027370.71070,85.00,140,19,2,170,309,1,138,9e-33,141
Cladophialophora_abundans_CBS126736,SRR11027370.72485,85.27,129,19,0,170,298,1,129,2e-30,134
Cladophialophora_abundans_CBS126736,SRR11027370.72488,83.72,129,21,0,170,298,1,129,3e-27,122
Capronia_semi-immersa_CBS102234,SRR11027370.119224,91.38,116,9,1,232,347,1,115,1e-37,158
Capronia_semi-immersa_CBS102234,SRR11027370.71070,90.52,116,10,1,232,347,1,115,5e-36,152
Capronia_semi-immersa_CBS102234,SRR11027370.72485,86.82,129,17,0,232,360,1,129,8e-34,145
Capronia_semi-immersa_CBS102234,SRR11027370.72488,85.27,129,19,0,232,360,1,129,2e-30,134
Phialophora_americana_CBS400.67,SRR11027370.119224,91.38,116,9,1,234,349,1,115,3e-37,158
Phialophora_americana_CBS400.67,SRR11027370.71070,90.52,116,10,1,234,349,1,115,1e-35,152
Phialophora_americana_CBS400.67,SRR11027370.72485,86.82,129,17,0,234,362,1,129,2e-33,145
Phialophora_americana_CBS400.67,SRR11027370.72488,85.27,129,19,0,234,362,1,129,5e-30,134
Phialophora_verrucosa_CBS140325_T,SRR11027370.119224,91.38,116,9,1,238,353,1,115,1e-37,158
Phialophora_verrucosa_CBS140325_T,SRR11027370.71070,90.52,116,10,1,238,353,1,115,5e-36,152
Phialophora_verrucosa_CBS140325_T,SRR11027370.72485,86.82,129,17,0,238,366,1,129,9e-34,145
Phialophora_verrucosa_CBS140325_T,SRR11027370.72488,85.27,129,19,0,238,366,1,129,2e-30,134
Cladophialophora_samoensis_CBS259.83_T,SRR11027370.119224,87.14,140,16,2,238,377,1,138,1e-37,158
Cladophialophora_samoensis_CBS259.83_T,SRR11027370.71070,86.43,140,17,2,238,377,1,138,5e-36,152
Cladophialophora_samoensis_CBS259.83_T,SRR11027370.72485,86.82,129,17,0,238,366,1,129,8e-34,145
Cladophialophora_samoensis_CBS259.83_T,SRR11027370.72488,85.27,129,19,0,238,366,1,129,2e-30,134
Cladophialophora_carrionii_CBS260.83,SRR11027370.119224,88.57,140,14,2,254,393,1,138,5e-41,169
Cladophialophora_carrionii_CBS260.83,SRR11027370.71070,87.86,140,15,2,254,393,1,138,3e-39,163
Cladophialophora_carrionii_CBS260.83,SRR11027370.72485,88.37,129,15,0,254,382,1,129,4e-37,156
Cladophialophora_carrionii_CBS260.83,SRR11027370.72488,86.82,129,17,0,254,382,1,129,9e-34,145
Exophiala_palmae_UPCB86822_T,SRR11027370.119224,89.29,140,13,2,197,336,1,138,1e-42,174
Exophiala_palmae_UPCB86822_T,SRR11027370.71070,88.57,140,14,2,197,336,1,138,5e-41,169
Exophiala_palmae_UPCB86822_T,SRR11027370.72485,89.15,129,14,0,197,325,1,129,8e-39,161
Exophiala_palmae_UPCB86822_T,SRR11027370.72488,87.60,129,16,0,197,325,1,129,2e-35,150
Cladophialophora_yegresii_CBS114405_T,SRR11027370.119224,88.57,140,14,2,239,378,1,138,5e-41,169
Cladophialophora_yegresii_CBS114405_T,SRR11027370.71070,87.86,140,15,2,239,378,1,138,2e-39,163
Cladophialophora_yegresii_CBS114405_T,SRR11027370.72485,88.37,129,15,0,239,367,1,129,4e-37,156
Cladophialophora_yegresii_CBS114405_T,SRR11027370.72488,86.82,129,17,0,239,367,1,129,8e-34,145
Knufia_epidermidis_CBS120353_T,SRR11027370.119224,88.43,121,13,1,237,357,1,120,8e-34,145
Knufia_epidermidis_CBS120353_T,SRR11027370.72485,86.05,129,18,0,237,365,1,129,4e-32,139
Knufia_epidermidis_CBS120353_T,SRR11027370.71070,87.60,121,14,1,237,357,1,120,4e-32,139
Knufia_epidermidis_CBS120353_T,SRR11027370.72488,84.50,129,20,0,237,365,1,129,8e-29,128
Arthrocladium_fulminans_CBS136243_T,SRR11027370.119224,89.26,121,12,1,232,352,1,120,2e-35,150
Arthrocladium_fulminans_CBS136243_T,SRR11027370.72485,86.82,129,17,0,232,360,1,129,8e-34,145
Arthrocladium_fulminans_CBS136243_T,SRR11027370.71070,88.43,121,13,1,232,352,1,120,8e-34,145
Arthrocladium_fulminans_CBS136243_T,SRR11027370.72488,85.27,129,19,0,232,360,1,129,2e-30,134
Anthopsis_deltoidea_CBS263.77_T,SRR11027370.119224,89.21,139,13,2,241,378,1,138,4e-42,172
Anthopsis_deltoidea_CBS263.77_T,SRR11027370.71070,88.49,139,14,2,241,378,1,138,2e-40,167
Anthopsis_deltoidea_CBS263.77_T,SRR11027370.72485,89.15,129,12,1,241,367,1,129,3e-38,159
Anthopsis_deltoidea_CBS263.77_T,SRR11027370.72488,87.60,129,14,1,241,367,1,129,6e-35,148
Cyphellophora_laciniata_CBS190.61_T,SRR11027370.119224,86.33,139,17,2,326,463,1,138,2e-35,150
Cyphellophora_laciniata_CBS190.61_T,SRR11027370.119224,93.75,48,3,0,648,695,349,302,5e-12,73.1
Cyphellophora_laciniata_CBS190.61_T,SRR11027370.71070,85.61,139,18,2,326,463,1,138,1e-33,145
Cyphellophora_laciniata_CBS190.61_T,SRR11027370.72485,86.05,129,16,1,326,452,1,129,2e-31,137
Cyphellophora_laciniata_CBS190.61_T,SRR11027370.72488,84.50,129,18,1,326,452,1,129,4e-28,126
Cyphellophora_suttonii_CBS449.91,SRR11027370.119224,86.33,139,17,2,229,366,1,138,2e-35,150
Cyphellophora_suttonii_CBS449.91,SRR11027370.71070,85.61,139,18,2,229,366,1,138,8e-34,145
Cyphellophora_suttonii_CBS449.91,SRR11027370.72485,86.05,129,16,1,229,355,1,129,1e-31,137
Cyphellophora_suttonii_CBS449.91,SRR11027370.72488,84.50,129,18,1,229,355,1,129,3e-28,126
Cyphellophora_pauciseptata_CBS284.85_T,SRR11027370.119224,86.33,139,17,2,240,377,1,138,2e-35,150
Cyphellophora_pauciseptata_CBS284.85_T,SRR11027370.71070,85.61,139,18,2,240,377,1,138,8e-34,145
Cyphellophora_pauciseptata_CBS284.85_T,SRR11027370.72485,86.05,129,16,1,240,366,1,129,1e-31,137
Cyphellophora_pauciseptata_CBS284.85_T,SRR11027370.72488,84.50,129,18,1,240,366,1,129,3e-28,126
Cyphellophora_pluriseptata_CBS286.85_T,SRR11027370.119224,86.86,137,16,2,247,382,3,138,5e-36,152
Cyphellophora_pluriseptata_CBS286.85_T,SRR11027370.71070,86.13,137,17,2,247,382,3,138,2e-34,147
Cyphellophora_pluriseptata_CBS286.85_T,SRR11027370.72485,86.61,127,15,1,247,371,3,129,4e-32,139
Cyphellophora_pluriseptata_CBS286.85_T,SRR11027370.72488,85.04,127,17,1,247,371,3,129,8e-29,128
Phialophora_europaea_CBS101466,SRR11027370.119224,87.05,139,16,2,235,372,1,138,4e-37,156
Phialophora_europaea_CBS101466,SRR11027370.71070,86.33,139,17,2,235,372,1,138,2e-35,150
Phialophora_europaea_CBS101466,SRR11027370.72485,86.82,129,15,1,235,361,1,129,3e-33,143
Phialophora_europaea_CBS101466,SRR11027370.72488,85.27,129,17,1,235,361,1,129,6e-30,132
Phialophora_ambigua_CBS235.93,SRR11027370.119224,87.05,139,16,2,232,369,1,138,4e-37,156
Phialophora_ambigua_CBS235.93,SRR11027370.71070,86.33,139,17,2,232,369,1,138,2e-35,150
Phialophora_ambigua_CBS235.93,SRR11027370.72485,86.82,129,15,1,232,358,1,129,3e-33,143
Phialophora_ambigua_CBS235.93,SRR11027370.72488,85.27,129,17,1,232,358,1,129,6e-30,132
Cladophialophora_modesta_CBS985.96_T,SRR11027370.119224,88.57,140,14,2,229,368,1,138,6e-41,169
Cladophialophora_modesta_CBS985.96_T,SRR11027370.119224,95.83,48,2,0,532,579,349,302,1e-13,78.7
Cladophialophora_modesta_CBS985.96_T,SRR11027370.71070,87.86,140,15,2,229,368,1,138,3e-39,163
Cladophialophora_modesta_CBS985.96_T,SRR11027370.71070,93.75,48,3,0,532,579,349,302,4e-12,73.1
Cladophialophora_modesta_CBS985.96_T,SRR11027370.72485,89.15,129,14,0,229,357,1,129,9e-39,161
Cladophialophora_modesta_CBS985.96_T,SRR11027370.72488,87.60,129,16,0,229,357,1,129,2e-35,150
Cyphellophora_fusarioides_MUCL44033_T,SRR11027370.119224,87.05,139,16,2,228,365,1,138,4e-37,156
Cyphellophora_fusarioides_MUCL44033_T,SRR11027370.71070,86.33,139,17,2,228,365,1,138,2e-35,150
Cyphellophora_fusarioides_MUCL44033_T,SRR11027370.72485,86.82,129,15,1,228,354,1,129,3e-33,143
Cyphellophora_fusarioides_MUCL44033_T,SRR11027370.72488,85.27,129,17,1,228,354,1,129,6e-30,132
