Exophiala_brunnea_CBS,SRR5192916.914,100.00,40,0,0,1,40,38,77,1e-13,75.0
Exophiala_brunnea_CBS,SRR5192916.914,100.00,40,0,0,1,40,481,442,1e-13,75.0
Exophiala_brunnea_CBS,SRR5192916.839,100.00,40,0,0,1,40,230,191,1e-13,75.0
Exophiala_brunnea_CBS,SRR5192916.839,100.00,40,0,0,1,40,289,328,1e-13,75.0
Exophiala_salmonis_CBS157.67_T,SRR5192916.914,97.30,37,1,0,86,122,8,44,3e-10,63.9
Exophiala_salmonis_CBS157.67_T,SRR5192916.839,97.30,37,1,0,86,122,259,295,3e-10,63.9
Exophiala_tremulae_CBS129355,SRR5192916.914,100.00,40,0,0,1,40,38,77,1e-13,75.0
Exophiala_tremulae_CBS129355,SRR5192916.914,100.00,40,0,0,1,40,481,442,1e-13,75.0
Exophiala_tremulae_CBS129355,SRR5192916.839,100.00,40,0,0,1,40,230,191,1e-13,75.0
Exophiala_tremulae_CBS129355,SRR5192916.839,100.00,40,0,0,1,40,289,328,1e-13,75.0
Rhinocladiella_atrovirens_CBS264.49,SRR5192916.914,97.73,44,1,0,1,44,33,76,3e-14,76.8
Rhinocladiella_atrovirens_CBS264.49,SRR5192916.914,97.73,44,1,0,1,44,486,443,3e-14,76.8
Rhinocladiella_atrovirens_CBS264.49,SRR5192916.839,97.73,44,1,0,1,44,235,192,3e-14,76.8
Rhinocladiella_atrovirens_CBS264.49,SRR5192916.839,97.73,44,1,0,1,44,284,327,3e-14,76.8
Veronaea_compacta_CBS268.75_T,SRR5192916.914,100.00,28,0,0,1,28,50,77,5e-07,52.8
Veronaea_compacta_CBS268.75_T,SRR5192916.914,100.00,28,0,0,1,28,469,442,5e-07,52.8
Veronaea_compacta_CBS268.75_T,SRR5192916.839,100.00,28,0,0,1,28,218,191,5e-07,52.8
Veronaea_compacta_CBS268.75_T,SRR5192916.839,100.00,28,0,0,1,28,301,328,5e-07,52.8
Capronia_kleinmondensis_CBS122671_T,SRR5192916.914,100.00,30,0,0,1,30,47,76,4e-08,56.5
Capronia_kleinmondensis_CBS122671_T,SRR5192916.914,100.00,30,0,0,1,30,472,443,4e-08,56.5
Capronia_kleinmondensis_CBS122671_T,SRR5192916.839,100.00,30,0,0,1,30,221,192,4e-08,56.5
Capronia_kleinmondensis_CBS122671_T,SRR5192916.839,100.00,30,0,0,1,30,298,327,4e-08,56.5
Veronaea_japonica_CBS776.83_T,SRR5192916.914,100.00,39,0,0,1,39,39,77,4e-13,73.1
Veronaea_japonica_CBS776.83_T,SRR5192916.914,100.00,39,0,0,1,39,480,442,4e-13,73.1
Veronaea_japonica_CBS776.83_T,SRR5192916.839,100.00,39,0,0,1,39,229,191,4e-13,73.1
Veronaea_japonica_CBS776.83_T,SRR5192916.839,100.00,39,0,0,1,39,290,328,4e-13,73.1
Fonsecaea_pedrosoi_CBS271.37_T,SRR5192916.914,97.22,36,0,1,1,36,47,81,3e-09,60.2
Fonsecaea_pedrosoi_CBS271.37_T,SRR5192916.914,97.22,36,0,1,1,36,472,438,3e-09,60.2
Fonsecaea_pedrosoi_CBS271.37_T,SRR5192916.839,97.22,36,0,1,1,36,221,187,3e-09,60.2
Fonsecaea_pedrosoi_CBS271.37_T,SRR5192916.839,97.22,36,0,1,1,36,298,332,3e-09,60.2
Cladophialophora_chaetospira_CBS127573,SRR5192916.914,100.00,32,0,0,379,410,46,77,5e-09,60.2
Cladophialophora_chaetospira_CBS127573,SRR5192916.914,100.00,32,0,0,379,410,473,442,5e-09,60.2
Cladophialophora_chaetospira_CBS127573,SRR5192916.839,100.00,32,0,0,379,410,222,191,5e-09,60.2
Cladophialophora_chaetospira_CBS127573,SRR5192916.839,100.00,32,0,0,379,410,297,328,5e-09,60.2
Cyphellophora_laciniata_CBS190.61_T,SRR5192916.914,98.55,69,1,0,32,100,8,76,4e-28,122
Cyphellophora_laciniata_CBS190.61_T,SRR5192916.914,98.33,60,1,0,41,100,502,443,4e-23,106
Cyphellophora_laciniata_CBS190.61_T,SRR5192916.839,98.55,69,1,0,32,100,259,327,4e-28,122
Cyphellophora_laciniata_CBS190.61_T,SRR5192916.839,98.36,61,1,0,40,100,252,192,1e-23,108
