Exophiala_nigra_CBS535.94_T,DRR126779.6006,91.78,73,6,0,287,359,1,73,4e-21,102
Exophiala_spinifera_CBS899.68_T,DRR126779.6006,85.58,104,12,3,284,387,1,101,3e-22,106
Exophiala_exophialae_CBS668.76_T,DRR126779.6006,85.58,104,12,3,285,388,1,101,3e-22,106
Exophiala_polymorpha_CBS138920_T,DRR126779.6006,85.58,104,12,3,387,490,1,101,4e-22,106
Exophiala_oligosperma_CBS725.88_T,DRR126779.6006,85.58,104,12,3,297,400,1,101,3e-22,106
Exophiala_jeanselmei_CBS507.90_T,DRR126779.6006,83.90,118,14,4,289,406,1,113,9e-23,108
Exophiala_bergeri_CBS353.52,DRR126779.6006,91.78,73,6,0,250,322,1,73,3e-21,102
Exophiala_moniliae_CBS520.76_T,DRR126779.6006,91.78,73,6,0,287,359,1,73,4e-21,102
Exophiala_pisciphila_CBS537.73_T,DRR126779.6006,85.58,104,12,3,290,393,1,101,3e-22,106
Exophiala_pisciphila_CBS537.73_T,DRR126779.6006,96.49,57,2,0,556,612,231,287,7e-19,95.3
Exophiala_xenobiotica_CBS117642,DRR126779.6006,85.58,104,12,3,282,385,1,101,3e-22,106
Exophiala_brunnea_CBS,DRR126779.6006,84.62,104,13,3,318,421,1,101,1e-20,100
Exophiala_brunnea_CBS,DRR126779.6006,97.78,45,1,0,587,631,231,275,2e-14,80.5
Exophiala_nishimurae_CBS101538_T,DRR126779.6006,85.58,104,12,3,296,399,1,101,3e-22,106
Exophiala_mesophila_CBS402.95_T,DRR126779.6006,90.41,73,7,0,280,352,1,73,2e-19,97.1
Exophiala_castellanii_CBS158.58_T,DRR126779.6006,90.41,73,7,0,278,350,1,73,2e-19,97.1
Exophiala_lecanii-corni_CBS123.33_T,DRR126779.6006,87.36,87,10,1,301,387,1,86,5e-20,99.0
Exophiala_dermatitidis_CBS748.88,DRR126779.6006,91.78,73,6,0,293,365,1,73,1e-20,102
Exophiala_angulospora_CBS482.92_T,DRR126779.6006,91.78,73,6,0,284,356,1,73,4e-21,102
Exophiala_opportunistica_CBS109811_T,DRR126779.6006,86.54,104,11,3,283,386,1,101,6e-24,111
Exophiala_salmonis_CBS157.67_T,DRR126779.6006,85.58,104,12,3,412,515,1,101,4e-22,106
Exophiala_salmonis_CBS157.67_T,DRR126779.6006,96.49,57,2,0,676,732,231,287,9e-19,95.3
Exophiala_aquamarina_CBS119918_T,DRR126779.6006,85.71,105,11,3,290,394,1,101,8e-23,108
Exophiala_cancerae_CBS120420_T,DRR126779.6006,86.54,104,11,3,305,408,1,101,7e-24,111
Exophiala_cancerae_CBS120420_T,DRR126779.6006,96.49,57,2,0,567,623,231,287,7e-19,95.3
Exophiala_tremulae_CBS129355,DRR126779.6006,86.54,104,11,3,317,420,1,101,7e-24,111
Exophiala_tremulae_CBS129355,DRR126779.6006,100.00,45,0,0,582,626,231,275,1e-15,84.2
Exophiala_equina_CBS116009,DRR126779.6006,86.54,104,11,3,283,386,1,101,6e-24,111
Exophiala_alcalophila_CBS520.82_T,DRR126779.6006,91.78,73,6,0,294,366,1,73,4e-21,102
Exophiala_crusticola_CBS119970_T,DRR126779.6006,91.78,73,6,0,299,371,1,73,4e-21,102
Rhinocladiella_atrovirens_CBS264.49,DRR126779.6006,87.36,87,10,1,325,411,1,86,5e-20,99.0
Rhinocladiella_atrovirens_CBS264.49,DRR126779.6006,100.00,45,0,0,581,625,231,275,1e-15,84.2
Rhinocladiella_basitona_CBS101460_T,DRR126779.6006,85.58,104,12,3,284,387,1,101,3e-22,106
Rhinocladiella_phaeophora_CBS496.78_T,DRR126779.6006,91.78,73,6,0,292,364,1,73,4e-21,102
Rhinocladiella_aquaspersa_CBS313.73_T,DRR126779.6006,91.78,73,6,0,286,358,1,73,4e-21,102
Rhinocladiella_aquaspersa_CBS313.73_T,DRR126779.6006,91.23,57,2,3,551,604,231,287,9e-13,75.0
Rhinocladiella_fasciculata_CBS132.86_T,DRR126779.6006,90.41,73,7,0,302,374,1,73,2e-19,97.1
Rhinocladiella_anceps_CBS181.65_T,DRR126779.6006,90.41,73,7,0,284,356,1,73,2e-19,97.1
Rhinocladiella_mackenziei_CBS367.92,DRR126779.6006,88.37,86,9,1,273,358,1,85,4e-21,102
Rhinocladiella_mackenziei_CBS367.92,DRR126779.6006,100.00,41,0,0,568,608,231,271,2e-13,76.8
Veronaea_compacta_CBS268.75_T,DRR126779.6006,90.41,73,7,0,306,378,1,73,2e-19,97.1
Capronia_pilosella_AFTOL-ID657,DRR126779.6006,85.71,105,11,3,384,488,1,101,1e-22,108
Capronia_dactylotricha_DAOM208471_T,DRR126779.6006,88.64,88,8,2,286,373,1,86,3e-22,106
Capronia_dactylotricha_DAOM208471_T,DRR126779.6006,96.49,57,2,0,561,617,231,287,7e-19,95.3
Capronia_kleinmondensis_CBS122671_T,DRR126779.6006,87.36,87,10,1,311,397,1,86,6e-20,99.0
Capronia_kleinmondensis_CBS122671_T,DRR126779.6006,96.49,57,2,0,567,623,231,287,7e-19,95.3
Capronia_mansonii_CBS101.67_T,DRR126779.6006,85.71,105,11,3,297,401,1,101,9e-23,108
Capronia_munkii_DAOM216390_T,DRR126779.6006,85.71,105,11,3,297,401,1,101,9e-23,108
Capronia_coronata_ATCC56201_T,DRR126779.6006,91.78,73,6,0,285,357,1,73,4e-21,102
Capronia_parasitica_CBS123.88,DRR126779.6006,91.78,73,6,0,291,363,1,73,4e-21,102
Capronia_parasitica_CBS123.88,DRR126779.6006,93.02,43,3,0,553,595,221,263,2e-09,63.9
Veronaea_japonica_CBS776.83_T,DRR126779.6006,85.58,104,12,3,319,422,1,101,3e-22,106
Thysanorea_papuana_CBS212.96_T,DRR126779.6006,86.54,104,11,2,293,396,1,101,6e-24,111
Capronia_acutiseta_ATCC56428_T,DRR126779.6006,91.78,73,6,0,286,358,1,73,4e-21,102
Capronia_acutiseta_ATCC56428_T,DRR126779.6006,96.49,57,2,0,541,597,231,287,7e-19,95.3
Fonsecaea_brasiliensis_CBS119710_T,DRR126779.6006,85.71,105,11,2,293,397,1,101,8e-23,108
Fonsecaea_pedrosoi_CBS271.37_T,DRR126779.6006,84.91,106,11,3,321,426,1,101,4e-21,102
Fonsecaea_multimorphosa_CBS980.96_T,DRR126779.6006,86.67,105,10,3,291,395,1,101,2e-24,113
Fonsecaea_minima_CBS125760_T,DRR126779.6006,85.71,105,11,2,287,391,1,101,8e-23,108
Fonsecaea_nubica_CBS269.64_T,DRR126779.6006,84.91,106,11,3,298,403,1,101,4e-21,102
Fonsecaea_monophora_CBS269.37_T,DRR126779.6006,84.91,106,11,3,299,404,1,101,4e-21,102
Fonsecaea_erecta_CBS125763_T,DRR126779.6006,86.67,105,10,3,282,386,1,101,2e-24,113
Fonsecaea_pugnacius_CBS139214_T,DRR126779.6006,91.78,73,6,0,291,363,1,73,4e-21,102
Cladophialophora_psammophila_CBS,DRR126779.6006,86.67,105,10,3,297,401,1,101,2e-24,113
Cladophialophora_devriesii_CBS,DRR126779.6006,86.67,105,10,3,293,397,1,101,2e-24,113
Cladophialophora_immunda_CBS834.96,DRR126779.6006,85.71,105,11,2,295,399,1,101,8e-23,108
Cladophialophora_arxii_CBS306.94_T,DRR126779.6006,91.78,73,6,0,297,369,1,73,4e-21,102
Cladophialophora_bantiana_CBS173.52,DRR126779.6006,86.67,105,10,3,291,395,1,101,2e-24,113
Cladophialophora_emmonsii_CBS102594,DRR126779.6006,84.91,106,11,3,282,387,1,101,4e-21,102
Cladophialophora_minourae_CBS556.83,DRR126779.6006,84.91,106,11,4,290,395,1,101,1e-21,104
Cladophialophora_australiensis_CBS112793,DRR126779.6006,85.58,104,12,2,292,395,1,101,8e-22,106
Cladophialophora_potulentorum_CBS112222,DRR126779.6006,84.62,104,13,2,291,394,1,101,4e-20,100
Cladophialophora_matsushimae_CMRP1198,DRR126779.6006,85.58,104,12,2,295,398,1,101,2e-22,106
Cladophialophora_mycetomatis_CBS122637,DRR126779.6006,85.58,104,12,2,280,383,1,101,3e-22,106
Cladophialophora_chaetospira_CBS127573,DRR126779.6006,86.54,104,11,2,686,789,1,101,1e-23,111
Cladophialophora_boppii_CBS126.86_T,DRR126779.6006,86.54,104,11,3,288,391,1,101,6e-24,111
Cladophialophora_abundans_CBS126736,DRR126779.6006,87.50,104,10,2,225,328,1,101,1e-25,117
Capronia_semi-immersa_CBS102234,DRR126779.6006,86.54,104,11,2,287,390,1,101,6e-24,111
Phialophora_americana_CBS400.67,DRR126779.6006,86.54,104,11,2,289,392,1,101,2e-23,111
Phialophora_verrucosa_CBS140325_T,DRR126779.6006,86.54,104,11,2,293,396,1,101,6e-24,111
Cladophialophora_samoensis_CBS259.83_T,DRR126779.6006,86.54,104,11,2,293,396,1,101,6e-24,111
Cladophialophora_carrionii_CBS260.83,DRR126779.6006,87.50,104,10,2,309,412,1,101,1e-25,117
Exophiala_palmae_UPCB86822_T,DRR126779.6006,91.78,73,6,0,252,324,1,73,3e-21,102
Cladophialophora_yegresii_CBS114405_T,DRR126779.6006,87.50,104,10,2,294,397,1,101,1e-25,117
Knufia_epidermidis_CBS120353_T,DRR126779.6006,90.41,73,7,0,292,364,1,73,2e-19,97.1
Arthrocladium_fulminans_CBS136243_T,DRR126779.6006,91.89,74,4,2,287,359,1,73,4e-21,102
Cyphellophora_laciniata_CBS190.61_T,DRR126779.6006,86.27,102,13,1,379,480,1,101,3e-23,110
Cyphellophora_suttonii_CBS449.91,DRR126779.6006,85.98,107,14,1,282,388,1,106,2e-24,113
Cyphellophora_pauciseptata_CBS284.85_T,DRR126779.6006,85.85,106,14,1,293,398,1,105,6e-24,111
Cyphellophora_pluriseptata_CBS286.85_T,DRR126779.6006,85.29,102,14,1,298,399,1,101,1e-21,104
Phialophora_europaea_CBS101466,DRR126779.6006,84.91,106,15,1,288,393,1,105,3e-22,106
Phialophora_ambigua_CBS235.93,DRR126779.6006,85.29,102,14,1,285,386,1,101,1e-21,104
Cladophialophora_modesta_CBS985.96_T,DRR126779.6006,87.38,103,11,2,284,386,1,101,1e-25,117
