Exophiala_nigra_CBS535.94_T,DRR205362.6225,90.48,105,8,1,287,391,1,103,8e-32,137
Exophiala_nigra_CBS535.94_T,DRR205362.35473,91.78,73,6,0,287,359,5,77,3e-21,102
Exophiala_nigra_CBS535.94_T,DRR205362.35473,91.30,69,6,0,291,359,601,533,5e-19,95.3
Exophiala_nigra_CBS535.94_T,DRR205362.20635,86.90,84,10,1,286,369,5,87,2e-18,93.5
Exophiala_nigra_CBS535.94_T,DRR205362.73259,90.91,66,6,0,287,352,4,69,2e-17,89.8
Exophiala_spinifera_CBS899.68_T,DRR205362.6225,90.38,104,9,1,284,387,1,103,3e-31,135
Exophiala_spinifera_CBS899.68_T,DRR205362.35473,91.78,73,6,0,284,356,5,77,3e-21,102
Exophiala_spinifera_CBS899.68_T,DRR205362.35473,91.30,69,6,0,288,356,601,533,5e-19,95.3
Exophiala_spinifera_CBS899.68_T,DRR205362.20635,86.21,87,11,1,280,366,2,87,2e-18,93.5
Exophiala_spinifera_CBS899.68_T,DRR205362.73259,90.00,70,6,1,280,349,1,69,2e-17,89.8
Exophiala_exophialae_CBS668.76_T,DRR205362.6225,90.38,104,9,1,285,388,1,103,3e-31,135
Exophiala_exophialae_CBS668.76_T,DRR205362.35473,91.78,73,6,0,285,357,5,77,3e-21,102
Exophiala_exophialae_CBS668.76_T,DRR205362.35473,91.30,69,6,0,289,357,601,533,5e-19,95.3
Exophiala_exophialae_CBS668.76_T,DRR205362.20635,86.21,87,11,1,281,367,2,87,2e-18,93.5
Exophiala_exophialae_CBS668.76_T,DRR205362.73259,90.00,70,6,1,281,350,1,69,2e-17,89.8
Exophiala_polymorpha_CBS138920_T,DRR205362.6225,90.38,104,9,1,387,490,1,103,4e-31,135
Exophiala_polymorpha_CBS138920_T,DRR205362.6225,96.30,54,2,0,641,694,350,297,3e-17,89.8
Exophiala_polymorpha_CBS138920_T,DRR205362.35473,91.78,73,6,0,387,459,5,77,4e-21,102
Exophiala_polymorpha_CBS138920_T,DRR205362.35473,91.30,69,6,0,391,459,601,533,6e-19,95.3
Exophiala_polymorpha_CBS138920_T,DRR205362.39747,100.00,51,0,0,644,694,228,278,6e-19,95.3
Exophiala_polymorpha_CBS138920_T,DRR205362.39747,100.00,51,0,0,644,694,351,301,6e-19,95.3
Exophiala_polymorpha_CBS138920_T,DRR205362.20635,86.21,87,11,1,383,469,2,87,2e-18,93.5
Exophiala_polymorpha_CBS138920_T,DRR205362.20635,96.00,50,2,0,645,694,360,311,5e-15,82.4
Exophiala_polymorpha_CBS138920_T,DRR205362.73259,90.00,70,6,1,383,452,1,69,3e-17,89.8
Exophiala_polymorpha_CBS138920_T,DRR205362.72300,97.92,48,1,0,647,694,357,310,1e-15,84.2
Exophiala_polymorpha_CBS138920_T,DRR205362.63862,92.00,50,4,0,645,694,360,311,1e-11,71.3
Exophiala_polymorpha_CBS138920_T,DRR205362.12940,97.50,40,1,0,655,694,353,314,4e-11,69.4
Exophiala_polymorpha_CBS138920_T,DRR205362.67368,92.50,40,3,0,655,694,353,314,8e-08,58.4
Exophiala_oligosperma_CBS725.88_T,DRR205362.6225,90.38,104,9,1,297,400,1,103,3e-31,135
Exophiala_oligosperma_CBS725.88_T,DRR205362.35473,91.78,73,6,0,297,369,5,77,3e-21,102
Exophiala_oligosperma_CBS725.88_T,DRR205362.35473,91.30,69,6,0,301,369,601,533,5e-19,95.3
Exophiala_oligosperma_CBS725.88_T,DRR205362.20635,86.21,87,11,1,293,379,2,87,2e-18,93.5
Exophiala_oligosperma_CBS725.88_T,DRR205362.73259,90.00,70,6,1,293,362,1,69,2e-17,89.8
Exophiala_jeanselmei_CBS507.90_T,DRR205362.6225,90.38,104,9,1,289,392,1,103,3e-31,135
Exophiala_jeanselmei_CBS507.90_T,DRR205362.6225,95.59,68,2,1,537,604,355,289,7e-23,108
Exophiala_jeanselmei_CBS507.90_T,DRR205362.39747,100.00,59,0,0,546,604,228,286,2e-23,110
Exophiala_jeanselmei_CBS507.90_T,DRR205362.39747,100.00,59,0,0,546,604,351,293,2e-23,110
Exophiala_jeanselmei_CBS507.90_T,DRR205362.35473,91.78,73,6,0,289,361,5,77,3e-21,102
Exophiala_jeanselmei_CBS507.90_T,DRR205362.35473,96.55,58,2,0,547,604,358,301,1e-19,97.1
Exophiala_jeanselmei_CBS507.90_T,DRR205362.35473,91.30,69,6,0,293,361,601,533,5e-19,95.3
Exophiala_jeanselmei_CBS507.90_T,DRR205362.72300,98.21,56,1,0,549,604,357,302,4e-20,99.0
Exophiala_jeanselmei_CBS507.90_T,DRR205362.20635,96.55,58,2,0,547,604,360,303,1e-19,97.1
Exophiala_jeanselmei_CBS507.90_T,DRR205362.20635,86.21,87,11,1,285,371,2,87,2e-18,93.5
Exophiala_jeanselmei_CBS507.90_T,DRR205362.73259,90.00,70,6,1,285,354,1,69,2e-17,89.8
Exophiala_jeanselmei_CBS507.90_T,DRR205362.12940,97.92,48,1,0,557,604,353,306,1e-15,84.2
Exophiala_jeanselmei_CBS507.90_T,DRR205362.63862,92.86,56,4,0,547,602,360,305,4e-15,82.4
Exophiala_jeanselmei_CBS507.90_T,DRR205362.67368,93.75,48,3,0,557,604,353,306,2e-12,73.1
Exophiala_bergeri_CBS353.52,DRR205362.6225,89.52,105,9,2,250,354,1,103,3e-30,132
Exophiala_bergeri_CBS353.52,DRR205362.35473,91.78,73,6,0,250,322,5,77,3e-21,102
Exophiala_bergeri_CBS353.52,DRR205362.35473,91.30,69,6,0,254,322,601,533,4e-19,95.3
Exophiala_bergeri_CBS353.52,DRR205362.20635,86.90,84,10,1,249,332,5,87,2e-18,93.5
Exophiala_bergeri_CBS353.52,DRR205362.73259,90.91,66,6,0,250,315,4,69,2e-17,89.8
Exophiala_moniliae_CBS520.76_T,DRR205362.6225,93.10,87,6,0,287,373,1,87,5e-29,128
Exophiala_moniliae_CBS520.76_T,DRR205362.35473,91.89,74,6,0,287,360,5,78,8e-22,104
Exophiala_moniliae_CBS520.76_T,DRR205362.35473,91.43,70,6,0,291,360,601,532,1e-19,97.1
Exophiala_moniliae_CBS520.76_T,DRR205362.20635,87.21,86,10,1,286,371,5,89,1e-19,97.1
Exophiala_moniliae_CBS520.76_T,DRR205362.73259,90.91,66,6,0,287,352,4,69,2e-17,89.8
Exophiala_pisciphila_CBS537.73_T,DRR205362.6225,91.35,104,8,1,290,393,1,103,7e-33,141
Exophiala_pisciphila_CBS537.73_T,DRR205362.6225,95.65,69,2,1,547,614,356,288,2e-23,110
Exophiala_pisciphila_CBS537.73_T,DRR205362.16643,94.44,72,3,1,543,614,371,301,2e-23,110
Exophiala_pisciphila_CBS537.73_T,DRR205362.35473,95.52,67,3,0,547,613,367,301,7e-23,108
Exophiala_pisciphila_CBS537.73_T,DRR205362.35473,88.51,87,10,0,290,376,5,91,3e-22,106
Exophiala_pisciphila_CBS537.73_T,DRR205362.35473,87.95,83,10,0,294,376,601,519,4e-20,99.0
Exophiala_pisciphila_CBS537.73_T,DRR205362.35473,94.83,58,3,0,547,604,243,300,7e-18,91.6
Exophiala_pisciphila_CBS537.73_T,DRR205362.72300,100.00,57,0,0,558,614,357,301,3e-22,106
Exophiala_pisciphila_CBS537.73_T,DRR205362.39747,95.52,67,2,1,548,613,220,286,3e-22,106
Exophiala_pisciphila_CBS537.73_T,DRR205362.39747,95.52,67,2,1,548,613,359,293,3e-22,106
Exophiala_pisciphila_CBS537.73_T,DRR205362.20635,98.28,58,1,0,556,613,360,303,3e-21,102
Exophiala_pisciphila_CBS537.73_T,DRR205362.20635,86.90,84,10,1,289,372,5,87,2e-18,93.5
Exophiala_pisciphila_CBS537.73_T,DRR205362.73259,85.88,85,11,1,290,374,4,87,3e-17,89.8
Exophiala_pisciphila_CBS537.73_T,DRR205362.12940,95.83,48,2,0,566,613,353,306,6e-14,78.7
Exophiala_pisciphila_CBS537.73_T,DRR205362.63862,91.07,56,5,0,556,611,360,305,2e-13,76.8
Exophiala_pisciphila_CBS537.73_T,DRR205362.67368,100.00,39,0,0,578,616,341,303,3e-12,73.1
Exophiala_xenobiotica_CBS117642,DRR205362.6225,90.38,104,9,1,282,385,1,103,3e-31,135
Exophiala_xenobiotica_CBS117642,DRR205362.35473,91.78,73,6,0,282,354,5,77,3e-21,102
Exophiala_xenobiotica_CBS117642,DRR205362.35473,91.30,69,6,0,286,354,601,533,5e-19,95.3
Exophiala_xenobiotica_CBS117642,DRR205362.20635,86.90,84,10,1,281,364,5,87,2e-18,93.5
Exophiala_xenobiotica_CBS117642,DRR205362.73259,90.91,66,6,0,282,347,4,69,2e-17,89.8
Exophiala_brunnea_CBS,DRR205362.6225,90.38,104,9,1,318,421,1,103,3e-31,135
Exophiala_brunnea_CBS,DRR205362.6225,94.64,56,2,1,578,633,354,300,9e-17,87.9
Exophiala_brunnea_CBS,DRR205362.35473,87.36,87,11,0,318,404,5,91,1e-20,100
Exophiala_brunnea_CBS,DRR205362.35473,86.75,83,11,0,322,404,601,519,2e-18,93.5
Exophiala_brunnea_CBS,DRR205362.20635,86.21,87,5,4,317,400,5,87,9e-17,87.9
Exophiala_brunnea_CBS,DRR205362.73259,84.71,85,12,1,318,402,4,87,1e-15,84.2
Exophiala_brunnea_CBS,DRR205362.72300,97.78,45,1,0,589,633,357,313,2e-14,80.5
Exophiala_nishimurae_CBS101538_T,DRR205362.6225,90.38,104,9,1,296,399,1,103,3e-31,135
Exophiala_nishimurae_CBS101538_T,DRR205362.35473,91.78,73,6,0,296,368,5,77,3e-21,102
Exophiala_nishimurae_CBS101538_T,DRR205362.35473,91.30,69,6,0,300,368,601,533,5e-19,95.3
Exophiala_nishimurae_CBS101538_T,DRR205362.20635,86.21,87,11,1,292,378,2,87,2e-18,93.5
Exophiala_nishimurae_CBS101538_T,DRR205362.73259,90.00,70,6,1,292,361,1,69,2e-17,89.8
Exophiala_nishimurae_CBS101538_T,DRR205362.39747,100.00,39,0,0,553,591,228,266,2e-12,73.1
Exophiala_nishimurae_CBS101538_T,DRR205362.39747,100.00,39,0,0,553,591,351,313,2e-12,73.1
Exophiala_mesophila_CBS402.95_T,DRR205362.6225,93.10,87,6,0,280,366,1,87,6e-29,128
Exophiala_mesophila_CBS402.95_T,DRR205362.6225,96.83,63,2,0,549,611,350,288,3e-22,106
Exophiala_mesophila_CBS402.95_T,DRR205362.39747,100.00,59,0,0,552,610,228,286,2e-23,110
Exophiala_mesophila_CBS402.95_T,DRR205362.39747,100.00,59,0,0,552,610,351,293,2e-23,110
Exophiala_mesophila_CBS402.95_T,DRR205362.72300,98.25,57,1,0,555,611,357,301,1e-20,100
Exophiala_mesophila_CBS402.95_T,DRR205362.35473,87.36,87,11,0,280,366,5,91,1e-20,100
Exophiala_mesophila_CBS402.95_T,DRR205362.35473,96.55,58,2,0,553,610,358,301,2e-19,97.1
Exophiala_mesophila_CBS402.95_T,DRR205362.35473,86.75,83,11,0,284,366,601,519,2e-18,93.5
Exophiala_mesophila_CBS402.95_T,DRR205362.20635,96.55,58,2,0,553,610,360,303,2e-19,97.1
Exophiala_mesophila_CBS402.95_T,DRR205362.20635,86.21,87,5,4,279,362,5,87,9e-17,87.9
Exophiala_mesophila_CBS402.95_T,DRR205362.73259,84.71,85,12,1,280,364,4,87,1e-15,84.2
Exophiala_mesophila_CBS402.95_T,DRR205362.12940,97.92,48,1,0,563,610,353,306,1e-15,84.2
Exophiala_mesophila_CBS402.95_T,DRR205362.63862,92.86,56,4,0,553,608,360,305,4e-15,82.4
Exophiala_mesophila_CBS402.95_T,DRR205362.67368,94.12,51,3,0,563,613,353,303,6e-14,78.7
Exophiala_castellanii_CBS158.58_T,DRR205362.6225,93.10,87,6,0,278,364,1,87,6e-29,128
Exophiala_castellanii_CBS158.58_T,DRR205362.6225,95.71,70,2,1,542,610,357,288,6e-24,111
Exophiala_castellanii_CBS158.58_T,DRR205362.39747,100.00,59,0,0,551,609,228,286,2e-23,110
Exophiala_castellanii_CBS158.58_T,DRR205362.39747,100.00,59,0,0,551,609,351,293,2e-23,110
Exophiala_castellanii_CBS158.58_T,DRR205362.72300,98.25,57,1,0,554,610,357,301,1e-20,100
Exophiala_castellanii_CBS158.58_T,DRR205362.35473,87.36,87,11,0,278,364,5,91,1e-20,100
Exophiala_castellanii_CBS158.58_T,DRR205362.35473,96.55,58,2,0,552,609,358,301,2e-19,97.1
Exophiala_castellanii_CBS158.58_T,DRR205362.35473,86.75,83,11,0,282,364,601,519,2e-18,93.5
Exophiala_castellanii_CBS158.58_T,DRR205362.20635,96.55,58,2,0,552,609,360,303,2e-19,97.1
Exophiala_castellanii_CBS158.58_T,DRR205362.20635,86.21,87,5,4,277,360,5,87,9e-17,87.9
Exophiala_castellanii_CBS158.58_T,DRR205362.73259,84.71,85,12,1,278,362,4,87,1e-15,84.2
Exophiala_castellanii_CBS158.58_T,DRR205362.12940,97.92,48,1,0,562,609,353,306,1e-15,84.2
Exophiala_castellanii_CBS158.58_T,DRR205362.63862,92.86,56,4,0,552,607,360,305,4e-15,82.4
Exophiala_castellanii_CBS158.58_T,DRR205362.67368,94.12,51,3,0,562,612,353,303,6e-14,78.7
Exophiala_lecanii-corni_CBS123.33_T,DRR205362.6225,93.10,87,6,0,301,387,1,87,5e-29,128
Exophiala_lecanii-corni_CBS123.33_T,DRR205362.35473,87.36,87,11,0,301,387,5,91,1e-20,100
Exophiala_lecanii-corni_CBS123.33_T,DRR205362.35473,86.75,83,11,0,305,387,601,519,2e-18,93.5
Exophiala_lecanii-corni_CBS123.33_T,DRR205362.73259,85.37,82,11,1,301,381,4,85,1e-15,84.2
Exophiala_lecanii-corni_CBS123.33_T,DRR205362.20635,86.42,81,4,4,300,377,5,81,4e-15,82.4
Exophiala_dermatitidis_CBS748.88,DRR205362.6225,90.48,105,8,2,293,397,1,103,2e-31,137
Exophiala_dermatitidis_CBS748.88,DRR205362.6225,94.37,71,2,2,566,636,356,288,2e-22,108
Exophiala_dermatitidis_CBS748.88,DRR205362.39747,100.00,59,0,0,577,635,228,286,5e-23,110
Exophiala_dermatitidis_CBS748.88,DRR205362.39747,100.00,59,0,0,577,635,351,293,5e-23,110
Exophiala_dermatitidis_CBS748.88,DRR205362.35473,88.51,87,10,0,293,379,5,91,6e-22,106
Exophiala_dermatitidis_CBS748.88,DRR205362.35473,89.87,79,6,2,558,635,378,301,3e-20,100
Exophiala_dermatitidis_CBS748.88,DRR205362.35473,87.95,83,10,0,297,379,601,519,1e-19,99.0
Exophiala_dermatitidis_CBS748.88,DRR205362.72300,98.25,57,1,0,580,636,357,301,3e-20,100
Exophiala_dermatitidis_CBS748.88,DRR205362.20635,96.55,58,2,0,578,635,360,303,4e-19,97.1
Exophiala_dermatitidis_CBS748.88,DRR205362.20635,86.90,84,10,1,292,375,5,87,5e-18,93.5
Exophiala_dermatitidis_CBS748.88,DRR205362.73259,85.88,85,11,1,293,377,4,87,6e-17,89.8
Exophiala_dermatitidis_CBS748.88,DRR205362.12940,97.92,48,1,0,588,635,353,306,3e-15,84.2
Exophiala_dermatitidis_CBS748.88,DRR205362.63862,92.86,56,4,0,578,633,360,305,1e-14,82.4
Exophiala_dermatitidis_CBS748.88,DRR205362.67368,94.12,51,3,0,588,638,353,303,1e-13,78.7
Exophiala_angulospora_CBS482.92_T,DRR205362.6225,89.52,105,9,1,284,388,1,103,4e-30,132
Exophiala_angulospora_CBS482.92_T,DRR205362.35473,91.89,74,6,0,284,357,5,78,8e-22,104
Exophiala_angulospora_CBS482.92_T,DRR205362.35473,91.43,70,6,0,288,357,601,532,1e-19,97.1
Exophiala_angulospora_CBS482.92_T,DRR205362.20635,86.90,84,10,1,283,366,5,87,2e-18,93.5
Exophiala_angulospora_CBS482.92_T,DRR205362.73259,90.91,66,6,0,284,349,4,69,2e-17,89.8
Exophiala_opportunistica_CBS109811_T,DRR205362.6225,92.31,104,7,1,283,386,1,103,1e-34,147
Exophiala_opportunistica_CBS109811_T,DRR205362.35473,88.51,87,10,0,283,369,5,91,2e-22,106
Exophiala_opportunistica_CBS109811_T,DRR205362.35473,87.95,83,10,0,287,369,601,519,4e-20,99.0
Exophiala_opportunistica_CBS109811_T,DRR205362.20635,86.90,84,10,1,282,365,5,87,2e-18,93.5
Exophiala_opportunistica_CBS109811_T,DRR205362.73259,85.88,85,11,1,283,367,4,87,2e-17,89.8
Exophiala_salmonis_CBS157.67_T,DRR205362.6225,91.35,104,8,1,412,515,1,103,9e-33,141
Exophiala_salmonis_CBS157.67_T,DRR205362.6225,95.65,69,2,1,667,734,356,288,2e-23,110
Exophiala_salmonis_CBS157.67_T,DRR205362.16643,94.44,72,3,1,663,734,371,301,2e-23,110
Exophiala_salmonis_CBS157.67_T,DRR205362.35473,95.52,67,3,0,667,733,367,301,9e-23,108
Exophiala_salmonis_CBS157.67_T,DRR205362.35473,88.51,87,10,0,412,498,5,91,3e-22,106
Exophiala_salmonis_CBS157.67_T,DRR205362.35473,87.95,83,10,0,416,498,601,519,5e-20,99.0
Exophiala_salmonis_CBS157.67_T,DRR205362.35473,94.83,58,3,0,667,724,243,300,9e-18,91.6
Exophiala_salmonis_CBS157.67_T,DRR205362.72300,100.00,57,0,0,678,734,357,301,3e-22,106
Exophiala_salmonis_CBS157.67_T,DRR205362.39747,95.52,67,2,1,668,733,220,286,3e-22,106
Exophiala_salmonis_CBS157.67_T,DRR205362.39747,95.52,67,2,1,668,733,359,293,3e-22,106
Exophiala_salmonis_CBS157.67_T,DRR205362.20635,98.28,58,1,0,676,733,360,303,4e-21,102
Exophiala_salmonis_CBS157.67_T,DRR205362.20635,86.90,84,10,1,411,494,5,87,2e-18,93.5
Exophiala_salmonis_CBS157.67_T,DRR205362.73259,85.88,85,11,1,412,496,4,87,3e-17,89.8
Exophiala_salmonis_CBS157.67_T,DRR205362.12940,95.83,48,2,0,686,733,353,306,7e-14,78.7
Exophiala_salmonis_CBS157.67_T,DRR205362.63862,91.07,56,5,0,676,731,360,305,2e-13,76.8
Exophiala_salmonis_CBS157.67_T,DRR205362.67368,100.00,39,0,0,698,736,341,303,3e-12,73.1
Exophiala_aquamarina_CBS119918_T,DRR205362.6225,90.48,105,8,2,290,394,1,103,8e-32,137
Exophiala_aquamarina_CBS119918_T,DRR205362.35473,91.89,74,6,0,290,363,5,78,8e-22,104
Exophiala_aquamarina_CBS119918_T,DRR205362.35473,91.43,70,6,0,294,363,601,532,1e-19,97.1
Exophiala_aquamarina_CBS119918_T,DRR205362.73259,90.91,66,6,0,290,355,4,69,2e-17,89.8
Exophiala_aquamarina_CBS119918_T,DRR205362.20635,86.59,82,10,1,289,370,5,85,2e-17,89.8
Exophiala_cancerae_CBS120420_T,DRR205362.6225,92.31,104,7,1,305,408,1,103,1e-34,147
Exophiala_cancerae_CBS120420_T,DRR205362.6225,98.36,61,1,0,564,624,349,289,7e-23,108
Exophiala_cancerae_CBS120420_T,DRR205362.39747,95.52,67,3,0,558,624,220,286,7e-23,108
Exophiala_cancerae_CBS120420_T,DRR205362.39747,95.52,67,3,0,558,624,359,293,7e-23,108
Exophiala_cancerae_CBS120420_T,DRR205362.35473,88.51,87,10,0,305,391,5,91,3e-22,106
Exophiala_cancerae_CBS120420_T,DRR205362.35473,94.12,68,3,1,557,624,367,301,3e-21,102
Exophiala_cancerae_CBS120420_T,DRR205362.35473,87.95,83,10,0,309,391,601,519,4e-20,99.0
Exophiala_cancerae_CBS120420_T,DRR205362.35473,93.22,59,3,1,557,615,243,300,3e-16,86.1
Exophiala_cancerae_CBS120420_T,DRR205362.72300,100.00,56,0,0,569,624,357,302,9e-22,104
Exophiala_cancerae_CBS120420_T,DRR205362.16643,94.12,68,4,0,557,624,369,302,9e-22,104
Exophiala_cancerae_CBS120420_T,DRR205362.20635,98.28,58,1,0,567,624,360,303,3e-21,102
Exophiala_cancerae_CBS120420_T,DRR205362.20635,86.90,84,10,1,304,387,5,87,2e-18,93.5
Exophiala_cancerae_CBS120420_T,DRR205362.73259,85.88,85,11,1,305,389,4,87,3e-17,89.8
Exophiala_cancerae_CBS120420_T,DRR205362.12940,95.83,48,2,0,577,624,353,306,5e-14,78.7
Exophiala_cancerae_CBS120420_T,DRR205362.63862,91.07,56,5,0,567,622,360,305,2e-13,76.8
Exophiala_cancerae_CBS120420_T,DRR205362.67368,100.00,36,0,0,589,624,341,306,1e-10,67.6
Exophiala_tremulae_CBS129355,DRR205362.6225,91.35,104,8,1,317,420,1,103,7e-33,141
Exophiala_tremulae_CBS129355,DRR205362.6225,94.74,57,2,1,573,628,356,300,9e-17,87.9
Exophiala_tremulae_CBS129355,DRR205362.35473,88.51,87,10,0,317,403,5,91,3e-22,106
Exophiala_tremulae_CBS129355,DRR205362.35473,87.95,83,10,0,321,403,601,519,4e-20,99.0
Exophiala_tremulae_CBS129355,DRR205362.35473,94.64,56,3,0,573,628,243,298,9e-17,87.9
Exophiala_tremulae_CBS129355,DRR205362.35473,94.64,56,3,0,573,628,367,312,9e-17,87.9
Exophiala_tremulae_CBS129355,DRR205362.20635,86.90,84,10,1,316,399,5,87,2e-18,93.5
Exophiala_tremulae_CBS129355,DRR205362.73259,85.88,85,11,1,317,401,4,87,3e-17,89.8
Exophiala_tremulae_CBS129355,DRR205362.16643,93.33,60,3,1,569,628,371,313,9e-17,87.9
Exophiala_tremulae_CBS129355,DRR205362.72300,100.00,45,0,0,584,628,357,313,1e-15,84.2
Exophiala_equina_CBS116009,DRR205362.6225,91.35,104,8,1,283,386,1,103,6e-33,141
Exophiala_equina_CBS116009,DRR205362.35473,88.51,87,10,0,283,369,5,91,2e-22,106
Exophiala_equina_CBS116009,DRR205362.35473,87.95,83,10,0,287,369,601,519,4e-20,99.0
Exophiala_equina_CBS116009,DRR205362.20635,86.90,84,10,1,282,365,5,87,2e-18,93.5
Exophiala_equina_CBS116009,DRR205362.73259,85.88,85,11,1,283,367,4,87,2e-17,89.8
Exophiala_alcalophila_CBS520.82_T,DRR205362.6225,89.52,105,9,1,294,398,1,103,4e-30,132
Exophiala_alcalophila_CBS520.82_T,DRR205362.35473,91.89,74,6,0,294,367,5,78,8e-22,104
Exophiala_alcalophila_CBS520.82_T,DRR205362.35473,91.43,70,6,0,298,367,601,532,1e-19,97.1
Exophiala_alcalophila_CBS520.82_T,DRR205362.20635,86.02,93,12,1,293,385,5,96,4e-20,99.0
Exophiala_alcalophila_CBS520.82_T,DRR205362.73259,90.91,66,6,0,294,359,4,69,2e-17,89.8
Exophiala_crusticola_CBS119970_T,DRR205362.6225,90.48,105,8,1,299,403,1,103,8e-32,137
Exophiala_crusticola_CBS119970_T,DRR205362.35473,88.51,87,10,0,299,385,5,91,2e-22,106
Exophiala_crusticola_CBS119970_T,DRR205362.35473,87.95,83,10,0,303,385,601,519,4e-20,99.0
Exophiala_crusticola_CBS119970_T,DRR205362.20635,86.90,84,10,1,298,381,5,87,2e-18,93.5
Exophiala_crusticola_CBS119970_T,DRR205362.73259,85.88,85,11,1,299,383,4,87,2e-17,89.8
Rhinocladiella_atrovirens_CBS264.49,DRR205362.6225,93.10,87,6,0,325,411,1,87,5e-29,128
Rhinocladiella_atrovirens_CBS264.49,DRR205362.6225,94.83,58,3,0,569,626,358,301,7e-18,91.6
Rhinocladiella_atrovirens_CBS264.49,DRR205362.35473,87.36,87,11,0,325,411,5,91,1e-20,100
Rhinocladiella_atrovirens_CBS264.49,DRR205362.35473,86.75,83,11,0,329,411,601,519,2e-18,93.5
Rhinocladiella_atrovirens_CBS264.49,DRR205362.35473,92.98,57,4,0,570,626,241,297,1e-15,84.2
Rhinocladiella_atrovirens_CBS264.49,DRR205362.35473,92.98,57,4,0,570,626,369,313,1e-15,84.2
Rhinocladiella_atrovirens_CBS264.49,DRR205362.16643,94.64,56,2,1,571,626,368,314,3e-16,86.1
Rhinocladiella_atrovirens_CBS264.49,DRR205362.73259,85.37,82,11,1,325,405,4,85,1e-15,84.2
Rhinocladiella_atrovirens_CBS264.49,DRR205362.72300,100.00,44,0,0,583,626,357,314,4e-15,82.4
Rhinocladiella_atrovirens_CBS264.49,DRR205362.20635,86.42,81,4,4,324,401,5,81,4e-15,82.4
Rhinocladiella_basitona_CBS101460_T,DRR205362.6225,90.38,104,9,1,284,387,1,103,3e-31,135
Rhinocladiella_basitona_CBS101460_T,DRR205362.35473,91.78,73,6,0,284,356,5,77,3e-21,102
Rhinocladiella_basitona_CBS101460_T,DRR205362.35473,91.30,69,6,0,288,356,601,533,5e-19,95.3
Rhinocladiella_basitona_CBS101460_T,DRR205362.20635,86.21,87,11,1,280,366,2,87,2e-18,93.5
Rhinocladiella_basitona_CBS101460_T,DRR205362.73259,90.00,70,6,1,280,349,1,69,2e-17,89.8
Rhinocladiella_phaeophora_CBS496.78_T,DRR205362.6225,89.72,107,8,3,292,395,1,107,1e-30,134
Rhinocladiella_phaeophora_CBS496.78_T,DRR205362.35473,88.51,87,10,0,292,378,5,91,2e-22,106
Rhinocladiella_phaeophora_CBS496.78_T,DRR205362.35473,87.95,83,10,0,296,378,601,519,4e-20,99.0
Rhinocladiella_phaeophora_CBS496.78_T,DRR205362.20635,85.57,97,13,1,288,384,2,97,1e-20,100
Rhinocladiella_phaeophora_CBS496.78_T,DRR205362.73259,85.39,89,11,2,288,376,1,87,6e-18,91.6
Rhinocladiella_aquaspersa_CBS313.73_T,DRR205362.6225,88.60,114,9,4,286,396,1,113,3e-31,135
Rhinocladiella_aquaspersa_CBS313.73_T,DRR205362.6225,89.61,77,3,4,535,606,364,288,2e-18,93.5
Rhinocladiella_aquaspersa_CBS313.73_T,DRR205362.35473,88.51,87,10,0,286,372,5,91,3e-22,106
Rhinocladiella_aquaspersa_CBS313.73_T,DRR205362.35473,87.95,83,10,0,290,372,601,519,4e-20,99.0
Rhinocladiella_aquaspersa_CBS313.73_T,DRR205362.35473,88.00,75,4,5,536,605,375,301,1e-15,84.2
Rhinocladiella_aquaspersa_CBS313.73_T,DRR205362.20635,85.57,97,13,1,282,378,2,97,1e-20,100
Rhinocladiella_aquaspersa_CBS313.73_T,DRR205362.20635,93.10,58,1,3,551,605,360,303,4e-15,82.4
Rhinocladiella_aquaspersa_CBS313.73_T,DRR205362.73259,85.39,89,11,2,282,370,1,87,7e-18,91.6
Rhinocladiella_aquaspersa_CBS313.73_T,DRR205362.72300,96.36,55,0,2,554,606,355,301,3e-17,89.8
Rhinocladiella_aquaspersa_CBS313.73_T,DRR205362.39747,93.22,59,1,3,550,605,228,286,1e-15,84.2
Rhinocladiella_aquaspersa_CBS313.73_T,DRR205362.39747,93.22,59,1,3,550,605,351,293,1e-15,84.2
Rhinocladiella_aquaspersa_CBS313.73_T,DRR205362.67368,100.00,39,0,0,570,608,341,303,3e-12,73.1
Rhinocladiella_aquaspersa_CBS313.73_T,DRR205362.12940,90.91,55,3,2,553,605,360,306,3e-12,73.1
Rhinocladiella_aquaspersa_CBS313.73_T,DRR205362.63862,100.00,34,0,0,570,603,338,305,2e-09,63.9
Rhinocladiella_fasciculata_CBS132.86_T,DRR205362.6225,91.95,87,7,0,302,388,1,87,2e-27,122
Rhinocladiella_fasciculata_CBS132.86_T,DRR205362.20635,88.76,89,9,1,298,386,2,89,6e-23,108
Rhinocladiella_fasciculata_CBS132.86_T,DRR205362.35473,90.54,74,7,0,302,375,5,78,4e-20,99.0
Rhinocladiella_fasciculata_CBS132.86_T,DRR205362.35473,90.00,70,7,0,306,375,601,532,6e-18,91.6
Rhinocladiella_fasciculata_CBS132.86_T,DRR205362.73259,90.77,65,5,1,298,362,1,64,3e-16,86.1
Rhinocladiella_anceps_CBS181.65_T,DRR205362.6225,88.57,105,10,2,284,388,1,103,2e-28,126
Rhinocladiella_anceps_CBS181.65_T,DRR205362.35473,90.54,74,7,0,284,357,5,78,4e-20,99.0
Rhinocladiella_anceps_CBS181.65_T,DRR205362.35473,90.00,70,7,0,288,357,601,532,6e-18,91.6
Rhinocladiella_anceps_CBS181.65_T,DRR205362.20635,85.56,90,6,4,280,366,2,87,8e-17,87.9
Rhinocladiella_anceps_CBS181.65_T,DRR205362.73259,88.57,70,7,1,280,349,1,69,1e-15,84.2
Rhinocladiella_mackenziei_CBS367.92,DRR205362.6225,93.02,86,6,0,273,358,1,86,2e-28,126
Rhinocladiella_mackenziei_CBS367.92,DRR205362.35473,91.89,74,6,0,273,346,5,78,9e-22,104
Rhinocladiella_mackenziei_CBS367.92,DRR205362.35473,91.43,70,6,0,277,346,601,532,1e-19,97.1
Rhinocladiella_mackenziei_CBS367.92,DRR205362.35473,92.31,52,3,1,557,608,242,292,2e-12,73.1
Rhinocladiella_mackenziei_CBS367.92,DRR205362.35473,92.31,52,3,1,557,608,368,318,2e-12,73.1
Rhinocladiella_mackenziei_CBS367.92,DRR205362.20635,86.75,83,9,2,272,353,5,86,7e-18,91.6
Rhinocladiella_mackenziei_CBS367.92,DRR205362.73259,90.91,66,6,0,273,338,4,69,2e-17,89.8
Rhinocladiella_mackenziei_CBS367.92,DRR205362.72300,100.00,39,0,0,570,608,357,319,2e-12,73.1
Veronaea_compacta_CBS268.75_T,DRR205362.6225,89.52,105,9,2,306,410,1,103,4e-30,132
Veronaea_compacta_CBS268.75_T,DRR205362.35473,90.54,74,7,0,306,379,5,78,4e-20,99.0
Veronaea_compacta_CBS268.75_T,DRR205362.35473,90.00,70,7,0,310,379,601,532,7e-18,91.6
Veronaea_compacta_CBS268.75_T,DRR205362.20635,84.54,97,7,5,305,398,5,96,2e-17,89.8
Veronaea_compacta_CBS268.75_T,DRR205362.73259,84.71,85,12,1,306,390,4,87,1e-15,84.2
Capronia_pilosella_AFTOL-ID657,DRR205362.6225,90.48,105,8,2,384,488,1,103,1e-31,137
Capronia_pilosella_AFTOL-ID657,DRR205362.35473,88.51,87,10,0,384,470,5,91,3e-22,106
Capronia_pilosella_AFTOL-ID657,DRR205362.35473,87.95,83,10,0,388,470,601,519,5e-20,99.0
Capronia_pilosella_AFTOL-ID657,DRR205362.20635,86.90,84,10,1,383,466,5,87,2e-18,93.5
Capronia_pilosella_AFTOL-ID657,DRR205362.73259,85.88,85,11,1,384,468,4,87,3e-17,89.8
Capronia_pilosella_AFTOL-ID657,DRR205362.39747,100.00,39,0,0,645,683,228,266,3e-12,73.1
Capronia_pilosella_AFTOL-ID657,DRR205362.39747,100.00,39,0,0,645,683,351,313,3e-12,73.1
Capronia_dactylotricha_DAOM208471_T,DRR205362.6225,93.18,88,5,1,286,373,1,87,6e-29,128
Capronia_dactylotricha_DAOM208471_T,DRR205362.6225,98.41,63,1,0,557,619,350,288,6e-24,111
Capronia_dactylotricha_DAOM208471_T,DRR205362.72300,100.00,57,0,0,563,619,357,301,3e-22,106
Capronia_dactylotricha_DAOM208471_T,DRR205362.39747,98.31,59,1,0,560,618,228,286,1e-21,104
Capronia_dactylotricha_DAOM208471_T,DRR205362.39747,98.31,59,1,0,560,618,351,293,1e-21,104
Capronia_dactylotricha_DAOM208471_T,DRR205362.35473,91.89,74,6,0,286,359,5,78,1e-21,104
Capronia_dactylotricha_DAOM208471_T,DRR205362.35473,98.28,58,1,0,561,618,358,301,3e-21,102
Capronia_dactylotricha_DAOM208471_T,DRR205362.35473,91.43,70,6,0,290,359,601,532,2e-19,97.1
Capronia_dactylotricha_DAOM208471_T,DRR205362.35473,97.96,49,1,0,561,609,252,300,3e-16,86.1
Capronia_dactylotricha_DAOM208471_T,DRR205362.16643,96.77,62,2,0,558,619,362,301,1e-21,104
Capronia_dactylotricha_DAOM208471_T,DRR205362.20635,98.28,58,1,0,561,618,360,303,3e-21,102
Capronia_dactylotricha_DAOM208471_T,DRR205362.20635,85.88,85,10,1,285,369,5,87,3e-17,89.8
Capronia_dactylotricha_DAOM208471_T,DRR205362.73259,90.91,66,6,0,286,351,4,69,3e-17,89.8
Capronia_dactylotricha_DAOM208471_T,DRR205362.12940,95.83,48,2,0,571,618,353,306,6e-14,78.7
Capronia_dactylotricha_DAOM208471_T,DRR205362.63862,91.07,56,5,0,561,616,360,305,2e-13,76.8
Capronia_dactylotricha_DAOM208471_T,DRR205362.67368,100.00,39,0,0,583,621,341,303,3e-12,73.1
Capronia_kleinmondensis_CBS122671_T,DRR205362.6225,93.10,87,6,0,311,397,1,87,6e-29,128
Capronia_kleinmondensis_CBS122671_T,DRR205362.6225,97.18,71,2,0,555,625,358,288,1e-26,121
Capronia_kleinmondensis_CBS122671_T,DRR205362.16643,95.77,71,3,0,555,625,371,301,4e-25,115
Capronia_kleinmondensis_CBS122671_T,DRR205362.72300,100.00,57,0,0,569,625,357,301,3e-22,106
Capronia_kleinmondensis_CBS122671_T,DRR205362.39747,98.31,59,1,0,566,624,228,286,1e-21,104
Capronia_kleinmondensis_CBS122671_T,DRR205362.39747,98.31,59,1,0,566,624,351,293,1e-21,104
Capronia_kleinmondensis_CBS122671_T,DRR205362.35473,94.12,68,3,1,558,624,368,301,3e-21,102
Capronia_kleinmondensis_CBS122671_T,DRR205362.35473,87.36,87,11,0,311,397,5,91,1e-20,100
Capronia_kleinmondensis_CBS122671_T,DRR205362.35473,86.75,83,11,0,315,397,601,519,2e-18,93.5
Capronia_kleinmondensis_CBS122671_T,DRR205362.35473,93.22,59,3,1,558,615,242,300,3e-16,86.1
Capronia_kleinmondensis_CBS122671_T,DRR205362.20635,98.28,58,1,0,567,624,360,303,3e-21,102
Capronia_kleinmondensis_CBS122671_T,DRR205362.20635,86.42,81,4,4,310,387,5,81,5e-15,82.4
Capronia_kleinmondensis_CBS122671_T,DRR205362.73259,85.37,82,11,1,311,391,4,85,1e-15,84.2
Capronia_kleinmondensis_CBS122671_T,DRR205362.12940,95.83,48,2,0,577,624,353,306,6e-14,78.7
Capronia_kleinmondensis_CBS122671_T,DRR205362.63862,91.07,56,5,0,567,622,360,305,2e-13,76.8
Capronia_kleinmondensis_CBS122671_T,DRR205362.67368,100.00,39,0,0,589,627,341,303,3e-12,73.1
Capronia_mansonii_CBS101.67_T,DRR205362.6225,91.43,105,7,2,297,401,1,103,2e-33,143
Capronia_mansonii_CBS101.67_T,DRR205362.6225,95.59,68,2,1,563,629,355,288,7e-23,108
Capronia_mansonii_CBS101.67_T,DRR205362.39747,100.00,59,0,0,570,628,228,286,2e-23,110
Capronia_mansonii_CBS101.67_T,DRR205362.39747,100.00,59,0,0,570,628,351,293,2e-23,110
Capronia_mansonii_CBS101.67_T,DRR205362.35473,88.51,87,10,0,297,383,5,91,3e-22,106
Capronia_mansonii_CBS101.67_T,DRR205362.35473,87.95,83,10,0,301,383,601,519,5e-20,99.0
Capronia_mansonii_CBS101.67_T,DRR205362.35473,96.55,58,2,0,571,628,358,301,2e-19,97.1
Capronia_mansonii_CBS101.67_T,DRR205362.72300,98.25,57,1,0,573,629,357,301,1e-20,100
Capronia_mansonii_CBS101.67_T,DRR205362.20635,96.55,58,2,0,571,628,360,303,2e-19,97.1
Capronia_mansonii_CBS101.67_T,DRR205362.20635,85.11,94,12,2,296,389,5,96,6e-19,95.3
Capronia_mansonii_CBS101.67_T,DRR205362.73259,85.88,85,11,1,297,381,4,87,3e-17,89.8
Capronia_mansonii_CBS101.67_T,DRR205362.12940,97.92,48,1,0,581,628,353,306,1e-15,84.2
Capronia_mansonii_CBS101.67_T,DRR205362.63862,92.86,56,4,0,571,626,360,305,5e-15,82.4
Capronia_mansonii_CBS101.67_T,DRR205362.67368,94.12,51,3,0,581,631,353,303,6e-14,78.7
Capronia_munkii_DAOM216390_T,DRR205362.6225,91.43,105,7,2,297,401,1,103,2e-33,143
Capronia_munkii_DAOM216390_T,DRR205362.6225,96.77,62,2,0,568,629,349,288,1e-21,104
Capronia_munkii_DAOM216390_T,DRR205362.39747,97.06,68,1,1,562,628,219,286,2e-24,113
Capronia_munkii_DAOM216390_T,DRR205362.39747,97.06,68,1,1,562,628,360,293,2e-24,113
Capronia_munkii_DAOM216390_T,DRR205362.35473,88.51,87,10,0,297,383,5,91,3e-22,106
Capronia_munkii_DAOM216390_T,DRR205362.35473,90.79,76,7,0,553,628,376,301,3e-21,102
Capronia_munkii_DAOM216390_T,DRR205362.35473,87.95,83,10,0,301,383,601,519,5e-20,99.0
Capronia_munkii_DAOM216390_T,DRR205362.72300,98.25,57,1,0,573,629,357,301,1e-20,100
Capronia_munkii_DAOM216390_T,DRR205362.20635,96.55,58,2,0,571,628,360,303,2e-19,97.1
Capronia_munkii_DAOM216390_T,DRR205362.20635,85.11,94,12,2,296,389,5,96,6e-19,95.3
Capronia_munkii_DAOM216390_T,DRR205362.73259,85.88,85,11,1,297,381,4,87,3e-17,89.8
Capronia_munkii_DAOM216390_T,DRR205362.12940,97.92,48,1,0,581,628,353,306,1e-15,84.2
Capronia_munkii_DAOM216390_T,DRR205362.63862,92.86,56,4,0,571,626,360,305,5e-15,82.4
Capronia_munkii_DAOM216390_T,DRR205362.67368,94.12,51,3,0,581,631,353,303,6e-14,78.7
Capronia_coronata_ATCC56201_T,DRR205362.6225,89.52,105,9,1,285,389,1,103,4e-30,132
Capronia_coronata_ATCC56201_T,DRR205362.6225,94.20,69,4,0,532,600,356,288,3e-22,106
Capronia_coronata_ATCC56201_T,DRR205362.39747,100.00,59,0,0,541,599,228,286,2e-23,110
Capronia_coronata_ATCC56201_T,DRR205362.39747,100.00,59,0,0,541,599,351,293,2e-23,110
Capronia_coronata_ATCC56201_T,DRR205362.35473,91.89,74,6,0,285,358,5,78,9e-22,104
Capronia_coronata_ATCC56201_T,DRR205362.35473,92.65,68,4,1,533,599,368,301,2e-19,97.1
Capronia_coronata_ATCC56201_T,DRR205362.35473,91.43,70,6,0,289,358,601,532,2e-19,97.1
Capronia_coronata_ATCC56201_T,DRR205362.72300,98.25,57,1,0,544,600,357,301,1e-20,100
Capronia_coronata_ATCC56201_T,DRR205362.20635,96.55,58,2,0,542,599,360,303,2e-19,97.1
Capronia_coronata_ATCC56201_T,DRR205362.20635,86.90,84,10,1,284,367,5,87,2e-18,93.5
Capronia_coronata_ATCC56201_T,DRR205362.73259,90.91,66,6,0,285,350,4,69,3e-17,89.8
Capronia_coronata_ATCC56201_T,DRR205362.12940,97.92,48,1,0,552,599,353,306,1e-15,84.2
Capronia_coronata_ATCC56201_T,DRR205362.63862,92.86,56,4,0,542,597,360,305,4e-15,82.4
Capronia_coronata_ATCC56201_T,DRR205362.67368,94.12,51,3,0,552,602,353,303,6e-14,78.7
Capronia_parasitica_CBS123.88,DRR205362.6225,94.12,85,5,0,291,375,1,85,1e-29,130
Capronia_parasitica_CBS123.88,DRR205362.35473,91.89,74,6,0,291,364,5,78,9e-22,104
Capronia_parasitica_CBS123.88,DRR205362.35473,91.43,70,6,0,295,364,601,532,1e-19,97.1
Capronia_parasitica_CBS123.88,DRR205362.35473,96.97,33,1,0,563,595,252,284,2e-07,56.5
Capronia_parasitica_CBS123.88,DRR205362.35473,96.97,33,1,0,563,595,358,326,2e-07,56.5
Capronia_parasitica_CBS123.88,DRR205362.73259,86.59,82,10,1,291,371,4,85,2e-17,89.8
Capronia_parasitica_CBS123.88,DRR205362.20635,87.18,78,9,1,290,367,5,81,9e-17,87.9
Capronia_parasitica_CBS123.88,DRR205362.16643,93.02,43,3,0,553,595,369,327,1e-09,63.9
Capronia_parasitica_CBS123.88,DRR205362.72300,100.00,31,0,0,565,595,357,327,7e-08,58.4
Veronaea_japonica_CBS776.83_T,DRR205362.6225,91.35,104,8,1,319,422,1,103,7e-33,141
Veronaea_japonica_CBS776.83_T,DRR205362.35473,88.51,87,10,0,319,405,5,91,2e-22,106
Veronaea_japonica_CBS776.83_T,DRR205362.35473,87.95,83,10,0,323,405,601,519,4e-20,99.0
Veronaea_japonica_CBS776.83_T,DRR205362.20635,86.90,84,10,1,318,401,5,87,2e-18,93.5
Veronaea_japonica_CBS776.83_T,DRR205362.73259,85.88,85,11,1,319,403,4,87,2e-17,89.8
Thysanorea_papuana_CBS212.96_T,DRR205362.6225,91.35,104,8,1,293,396,1,103,6e-33,141
Thysanorea_papuana_CBS212.96_T,DRR205362.35473,88.51,87,10,0,293,379,5,91,2e-22,106
Thysanorea_papuana_CBS212.96_T,DRR205362.35473,87.95,83,10,0,297,379,601,519,4e-20,99.0
Thysanorea_papuana_CBS212.96_T,DRR205362.20635,86.90,84,10,1,292,375,5,87,2e-18,93.5
Thysanorea_papuana_CBS212.96_T,DRR205362.73259,85.88,85,11,1,293,377,4,87,2e-17,89.8
Capronia_acutiseta_ATCC56428_T,DRR205362.6225,94.12,85,5,0,286,370,1,85,2e-29,130
Capronia_acutiseta_ATCC56428_T,DRR205362.6225,98.39,62,1,0,538,599,349,288,2e-23,110
Capronia_acutiseta_ATCC56428_T,DRR205362.35473,94.44,72,3,1,527,598,371,301,2e-23,110
Capronia_acutiseta_ATCC56428_T,DRR205362.35473,91.89,74,6,0,286,359,5,78,9e-22,104
Capronia_acutiseta_ATCC56428_T,DRR205362.35473,91.43,70,6,0,290,359,601,532,2e-19,97.1
Capronia_acutiseta_ATCC56428_T,DRR205362.35473,93.65,63,3,1,527,589,239,300,2e-18,93.5
Capronia_acutiseta_ATCC56428_T,DRR205362.39747,95.52,67,3,0,532,598,220,286,7e-23,108
Capronia_acutiseta_ATCC56428_T,DRR205362.39747,95.52,67,3,0,532,598,359,293,7e-23,108
Capronia_acutiseta_ATCC56428_T,DRR205362.16643,94.37,71,3,1,529,599,370,301,7e-23,108
Capronia_acutiseta_ATCC56428_T,DRR205362.72300,100.00,57,0,0,543,599,357,301,3e-22,106
Capronia_acutiseta_ATCC56428_T,DRR205362.20635,86.96,92,11,1,285,376,5,95,3e-21,102
Capronia_acutiseta_ATCC56428_T,DRR205362.20635,98.28,58,1,0,541,598,360,303,3e-21,102
Capronia_acutiseta_ATCC56428_T,DRR205362.73259,85.88,85,11,1,286,370,4,87,3e-17,89.8
Capronia_acutiseta_ATCC56428_T,DRR205362.12940,95.83,48,2,0,551,598,353,306,6e-14,78.7
Capronia_acutiseta_ATCC56428_T,DRR205362.63862,91.07,56,5,0,541,596,360,305,2e-13,76.8
Capronia_acutiseta_ATCC56428_T,DRR205362.67368,100.00,39,0,0,563,601,341,303,3e-12,73.1
Fonsecaea_brasiliensis_CBS119710_T,DRR205362.6225,89.62,106,7,3,293,397,1,103,4e-30,132
Fonsecaea_brasiliensis_CBS119710_T,DRR205362.35473,91.89,74,6,0,293,366,5,78,8e-22,104
Fonsecaea_brasiliensis_CBS119710_T,DRR205362.35473,91.43,70,6,0,297,366,601,532,1e-19,97.1
Fonsecaea_brasiliensis_CBS119710_T,DRR205362.73259,90.91,66,6,0,293,358,4,69,2e-17,89.8
Fonsecaea_brasiliensis_CBS119710_T,DRR205362.20635,86.59,82,10,1,292,373,5,85,2e-17,89.8
Fonsecaea_pedrosoi_CBS271.37_T,DRR205362.6225,89.62,106,8,3,321,426,1,103,4e-30,132
Fonsecaea_pedrosoi_CBS271.37_T,DRR205362.6225,94.12,68,3,1,579,645,356,289,3e-21,102
Fonsecaea_pedrosoi_CBS271.37_T,DRR205362.39747,98.31,59,1,0,587,645,228,286,9e-22,104
Fonsecaea_pedrosoi_CBS271.37_T,DRR205362.39747,98.31,59,1,0,587,645,351,293,9e-22,104
Fonsecaea_pedrosoi_CBS271.37_T,DRR205362.35473,91.89,74,6,0,321,394,5,78,9e-22,104
Fonsecaea_pedrosoi_CBS271.37_T,DRR205362.35473,91.43,70,6,0,325,394,601,532,2e-19,97.1
Fonsecaea_pedrosoi_CBS271.37_T,DRR205362.35473,91.18,68,6,0,578,645,368,301,2e-18,93.5
Fonsecaea_pedrosoi_CBS271.37_T,DRR205362.72300,96.43,56,2,0,590,645,357,302,2e-18,93.5
Fonsecaea_pedrosoi_CBS271.37_T,DRR205362.20635,94.83,58,3,0,588,645,360,303,7e-18,91.6
Fonsecaea_pedrosoi_CBS271.37_T,DRR205362.20635,86.59,82,10,1,320,401,5,85,3e-17,89.8
Fonsecaea_pedrosoi_CBS271.37_T,DRR205362.73259,90.91,66,6,0,321,386,4,69,3e-17,89.8
Fonsecaea_pedrosoi_CBS271.37_T,DRR205362.12940,95.83,48,2,0,598,645,353,306,6e-14,78.7
Fonsecaea_pedrosoi_CBS271.37_T,DRR205362.63862,91.07,56,5,0,588,643,360,305,2e-13,76.8
Fonsecaea_pedrosoi_CBS271.37_T,DRR205362.67368,91.67,48,4,0,598,645,353,306,1e-10,67.6
Fonsecaea_multimorphosa_CBS980.96_T,DRR205362.6225,90.57,106,6,3,291,395,1,103,8e-32,137
Fonsecaea_multimorphosa_CBS980.96_T,DRR205362.35473,91.89,74,6,0,291,364,5,78,8e-22,104
Fonsecaea_multimorphosa_CBS980.96_T,DRR205362.35473,91.43,70,6,0,295,364,601,532,1e-19,97.1
Fonsecaea_multimorphosa_CBS980.96_T,DRR205362.20635,84.78,92,12,2,290,381,5,94,6e-18,91.6
Fonsecaea_multimorphosa_CBS980.96_T,DRR205362.73259,90.91,66,6,0,291,356,4,69,2e-17,89.8
Fonsecaea_minima_CBS125760_T,DRR205362.6225,88.60,114,7,4,287,399,1,109,1e-30,134
Fonsecaea_minima_CBS125760_T,DRR205362.35473,91.89,74,6,0,287,360,5,78,8e-22,104
Fonsecaea_minima_CBS125760_T,DRR205362.35473,91.43,70,6,0,291,360,601,532,1e-19,97.1
Fonsecaea_minima_CBS125760_T,DRR205362.73259,90.91,66,6,0,287,352,4,69,2e-17,89.8
Fonsecaea_minima_CBS125760_T,DRR205362.20635,86.59,82,10,1,286,367,5,85,2e-17,89.8
Fonsecaea_nubica_CBS269.64_T,DRR205362.6225,90.57,106,7,3,298,403,1,103,8e-32,137
Fonsecaea_nubica_CBS269.64_T,DRR205362.35473,91.89,74,6,0,298,371,5,78,8e-22,104
Fonsecaea_nubica_CBS269.64_T,DRR205362.35473,91.43,70,6,0,302,371,601,532,1e-19,97.1
Fonsecaea_nubica_CBS269.64_T,DRR205362.73259,90.91,66,6,0,298,363,4,69,2e-17,89.8
Fonsecaea_nubica_CBS269.64_T,DRR205362.20635,86.59,82,10,1,297,378,5,85,2e-17,89.8
Fonsecaea_monophora_CBS269.37_T,DRR205362.6225,89.62,106,8,3,299,404,1,103,4e-30,132
Fonsecaea_monophora_CBS269.37_T,DRR205362.35473,91.89,74,6,0,299,372,5,78,8e-22,104
Fonsecaea_monophora_CBS269.37_T,DRR205362.35473,91.43,70,6,0,303,372,601,532,1e-19,97.1
Fonsecaea_monophora_CBS269.37_T,DRR205362.73259,90.91,66,6,0,299,364,4,69,2e-17,89.8
Fonsecaea_monophora_CBS269.37_T,DRR205362.20635,86.59,82,10,1,298,379,5,85,2e-17,89.8
Fonsecaea_erecta_CBS125763_T,DRR205362.6225,91.43,105,7,1,282,386,1,103,2e-33,143
Fonsecaea_erecta_CBS125763_T,DRR205362.35473,88.51,87,10,0,282,368,5,91,2e-22,106
Fonsecaea_erecta_CBS125763_T,DRR205362.35473,87.95,83,10,0,286,368,601,519,4e-20,99.0
Fonsecaea_erecta_CBS125763_T,DRR205362.20635,86.90,84,10,1,281,364,5,87,2e-18,93.5
Fonsecaea_erecta_CBS125763_T,DRR205362.73259,85.88,85,11,1,282,366,4,87,2e-17,89.8
Fonsecaea_pugnacius_CBS139214_T,DRR205362.6225,93.18,88,5,1,291,378,1,87,5e-29,128
Fonsecaea_pugnacius_CBS139214_T,DRR205362.35473,91.89,74,6,0,291,364,5,78,8e-22,104
Fonsecaea_pugnacius_CBS139214_T,DRR205362.35473,91.43,70,6,0,295,364,601,532,1e-19,97.1
Fonsecaea_pugnacius_CBS139214_T,DRR205362.73259,90.91,66,6,0,291,356,4,69,2e-17,89.8
Fonsecaea_pugnacius_CBS139214_T,DRR205362.20635,86.59,82,10,1,290,371,5,85,2e-17,89.8
Cladophialophora_psammophila_CBS,DRR205362.6225,91.43,105,7,1,297,401,1,103,2e-33,143
Cladophialophora_psammophila_CBS,DRR205362.35473,88.51,87,10,0,297,383,5,91,2e-22,106
Cladophialophora_psammophila_CBS,DRR205362.35473,87.95,83,10,0,301,383,601,519,4e-20,99.0
Cladophialophora_psammophila_CBS,DRR205362.20635,86.90,84,10,1,296,379,5,87,2e-18,93.5
Cladophialophora_psammophila_CBS,DRR205362.73259,85.88,85,11,1,297,381,4,87,2e-17,89.8
Cladophialophora_devriesii_CBS,DRR205362.6225,90.57,106,6,3,293,397,1,103,8e-32,137
Cladophialophora_devriesii_CBS,DRR205362.35473,91.89,74,6,0,293,366,5,78,8e-22,104
Cladophialophora_devriesii_CBS,DRR205362.35473,91.43,70,6,0,297,366,601,532,1e-19,97.1
Cladophialophora_devriesii_CBS,DRR205362.20635,84.78,92,12,2,292,383,5,94,6e-18,91.6
Cladophialophora_devriesii_CBS,DRR205362.73259,90.91,66,6,0,293,358,4,69,2e-17,89.8
Cladophialophora_immunda_CBS834.96,DRR205362.6225,89.62,106,7,3,295,399,1,103,4e-30,132
Cladophialophora_immunda_CBS834.96,DRR205362.35473,91.89,74,6,0,295,368,5,78,8e-22,104
Cladophialophora_immunda_CBS834.96,DRR205362.35473,91.43,70,6,0,299,368,601,532,1e-19,97.1
Cladophialophora_immunda_CBS834.96,DRR205362.73259,90.91,66,6,0,295,360,4,69,2e-17,89.8
Cladophialophora_immunda_CBS834.96,DRR205362.20635,86.59,82,10,1,294,375,5,85,2e-17,89.8
Cladophialophora_arxii_CBS306.94_T,DRR205362.6225,88.79,107,8,3,297,403,1,103,5e-29,128
Cladophialophora_arxii_CBS306.94_T,DRR205362.35473,91.89,74,6,0,297,370,5,78,8e-22,104
Cladophialophora_arxii_CBS306.94_T,DRR205362.35473,91.43,70,6,0,301,370,601,532,1e-19,97.1
Cladophialophora_arxii_CBS306.94_T,DRR205362.73259,90.91,66,6,0,297,362,4,69,2e-17,89.8
Cladophialophora_arxii_CBS306.94_T,DRR205362.20635,86.59,82,10,1,296,377,5,85,2e-17,89.8
Cladophialophora_bantiana_CBS173.52,DRR205362.6225,91.43,105,7,1,291,395,1,103,2e-33,143
Cladophialophora_bantiana_CBS173.52,DRR205362.35473,88.51,87,10,0,291,377,5,91,2e-22,106
Cladophialophora_bantiana_CBS173.52,DRR205362.35473,87.95,83,10,0,295,377,601,519,4e-20,99.0
Cladophialophora_bantiana_CBS173.52,DRR205362.20635,86.90,84,10,1,290,373,5,87,2e-18,93.5
Cladophialophora_bantiana_CBS173.52,DRR205362.73259,85.88,85,11,1,291,375,4,87,2e-17,89.8
Cladophialophora_emmonsii_CBS102594,DRR205362.6225,94.25,87,5,0,282,368,1,87,1e-30,134
Cladophialophora_emmonsii_CBS102594,DRR205362.35473,88.51,87,10,0,282,368,5,91,2e-22,106
Cladophialophora_emmonsii_CBS102594,DRR205362.35473,87.95,83,10,0,286,368,601,519,4e-20,99.0
Cladophialophora_emmonsii_CBS102594,DRR205362.20635,86.90,84,10,1,281,364,5,87,2e-18,93.5
Cladophialophora_emmonsii_CBS102594,DRR205362.73259,85.88,85,11,1,282,366,4,87,2e-17,89.8
Cladophialophora_minourae_CBS556.83,DRR205362.6225,89.89,89,7,2,290,378,1,87,1e-24,113
Cladophialophora_minourae_CBS556.83,DRR205362.35473,85.39,89,11,2,290,378,5,91,6e-18,91.6
Cladophialophora_minourae_CBS556.83,DRR205362.35473,84.71,85,11,2,294,378,601,519,1e-15,84.2
Cladophialophora_minourae_CBS556.83,DRR205362.20635,83.16,95,12,4,290,383,6,97,1e-15,84.2
Cladophialophora_minourae_CBS556.83,DRR205362.73259,87.30,63,6,2,290,352,4,64,8e-12,71.3
Cladophialophora_australiensis_CBS112793,DRR205362.6225,89.52,105,8,2,292,395,1,103,4e-29,130
Cladophialophora_australiensis_CBS112793,DRR205362.6225,92.86,70,3,2,539,607,356,288,3e-20,100
Cladophialophora_australiensis_CBS112793,DRR205362.39747,95.52,67,2,1,541,606,220,286,6e-22,106
Cladophialophora_australiensis_CBS112793,DRR205362.39747,95.52,67,2,1,541,606,359,293,6e-22,106
Cladophialophora_australiensis_CBS112793,DRR205362.35473,87.36,87,11,0,292,378,5,91,3e-20,100
Cladophialophora_australiensis_CBS112793,DRR205362.35473,92.65,68,5,0,539,606,368,301,1e-19,99.0
Cladophialophora_australiensis_CBS112793,DRR205362.35473,86.75,83,11,0,296,378,601,519,5e-18,93.5
Cladophialophora_australiensis_CBS112793,DRR205362.20635,86.17,94,11,2,291,383,5,97,3e-20,100
Cladophialophora_australiensis_CBS112793,DRR205362.20635,94.83,58,3,0,549,606,360,303,2e-17,91.6
Cladophialophora_australiensis_CBS112793,DRR205362.72300,96.49,57,2,0,551,607,357,301,1e-18,95.3
Cladophialophora_australiensis_CBS112793,DRR205362.73259,91.80,61,5,0,292,352,4,64,8e-16,86.1
Cladophialophora_australiensis_CBS112793,DRR205362.12940,95.83,48,2,0,559,606,353,306,1e-13,78.7
Cladophialophora_australiensis_CBS112793,DRR205362.63862,91.07,56,5,0,549,604,360,305,5e-13,76.8
Cladophialophora_australiensis_CBS112793,DRR205362.67368,92.16,51,4,0,559,609,353,303,6e-12,73.1
Cladophialophora_potulentorum_CBS112222,DRR205362.6225,88.57,105,9,2,291,394,1,103,2e-27,124
Cladophialophora_potulentorum_CBS112222,DRR205362.6225,94.29,70,3,1,540,609,356,288,6e-22,106
Cladophialophora_potulentorum_CBS112222,DRR205362.39747,98.31,59,1,0,550,608,228,286,2e-21,104
Cladophialophora_potulentorum_CBS112222,DRR205362.39747,98.31,59,1,0,550,608,351,293,2e-21,104
Cladophialophora_potulentorum_CBS112222,DRR205362.72300,96.49,57,2,0,553,609,357,301,1e-18,95.3
Cladophialophora_potulentorum_CBS112222,DRR205362.35473,86.21,87,12,0,291,377,5,91,1e-18,95.3
Cladophialophora_potulentorum_CBS112222,DRR205362.35473,94.83,58,3,0,551,608,358,301,2e-17,91.6
Cladophialophora_potulentorum_CBS112222,DRR205362.35473,85.54,83,12,0,295,377,601,519,2e-16,87.9
Cladophialophora_potulentorum_CBS112222,DRR205362.20635,85.57,97,6,5,290,382,5,97,1e-18,95.3
Cladophialophora_potulentorum_CBS112222,DRR205362.20635,94.83,58,3,0,551,608,360,303,2e-17,91.6
Cladophialophora_potulentorum_CBS112222,DRR205362.73259,90.16,61,6,0,291,351,4,64,4e-14,80.5
Cladophialophora_potulentorum_CBS112222,DRR205362.12940,95.83,48,2,0,561,608,353,306,1e-13,78.7
Cladophialophora_potulentorum_CBS112222,DRR205362.63862,91.07,56,5,0,551,606,360,305,5e-13,76.8
Cladophialophora_potulentorum_CBS112222,DRR205362.67368,92.16,51,4,0,561,611,353,303,6e-12,73.1
Cladophialophora_matsushimae_CMRP1198,DRR205362.6225,89.42,104,10,1,295,398,1,103,1e-29,130
Cladophialophora_matsushimae_CMRP1198,DRR205362.35473,90.41,73,7,0,295,367,5,77,1e-19,97.1
Cladophialophora_matsushimae_CMRP1198,DRR205362.35473,89.86,69,7,0,299,367,601,533,2e-17,89.8
Cladophialophora_matsushimae_CMRP1198,DRR205362.20635,86.21,87,5,4,294,377,5,87,7e-17,87.9
Cladophialophora_matsushimae_CMRP1198,DRR205362.73259,89.39,66,7,0,295,360,4,69,9e-16,84.2
Cladophialophora_mycetomatis_CBS122637,DRR205362.6225,91.35,104,8,1,280,383,1,103,6e-33,141
Cladophialophora_mycetomatis_CBS122637,DRR205362.35473,87.36,87,11,0,280,366,5,91,1e-20,100
Cladophialophora_mycetomatis_CBS122637,DRR205362.35473,86.75,83,11,0,284,366,601,519,2e-18,93.5
Cladophialophora_mycetomatis_CBS122637,DRR205362.20635,86.21,87,5,4,279,362,5,87,8e-17,87.9
Cladophialophora_mycetomatis_CBS122637,DRR205362.73259,84.71,85,12,1,280,364,4,87,1e-15,84.2
Cladophialophora_chaetospira_CBS127573,DRR205362.6225,91.35,104,8,1,686,789,1,103,1e-32,141
Cladophialophora_chaetospira_CBS127573,DRR205362.35473,88.51,87,10,0,686,772,5,91,4e-22,106
Cladophialophora_chaetospira_CBS127573,DRR205362.35473,87.95,83,10,0,690,772,601,519,6e-20,99.0
Cladophialophora_chaetospira_CBS127573,DRR205362.20635,86.90,84,10,1,685,768,5,87,3e-18,93.5
Cladophialophora_chaetospira_CBS127573,DRR205362.73259,85.88,85,11,1,686,770,4,87,4e-17,89.8
Cladophialophora_boppii_CBS126.86_T,DRR205362.6225,93.48,92,5,1,288,378,1,92,3e-31,135
Cladophialophora_boppii_CBS126.86_T,DRR205362.35473,88.51,87,10,0,288,374,5,91,2e-22,106
Cladophialophora_boppii_CBS126.86_T,DRR205362.35473,87.95,83,10,0,292,374,601,519,4e-20,99.0
Cladophialophora_boppii_CBS126.86_T,DRR205362.20635,85.71,91,12,1,287,377,5,94,5e-19,95.3
Cladophialophora_boppii_CBS126.86_T,DRR205362.73259,85.88,85,11,1,288,372,4,87,2e-17,89.8
Cladophialophora_abundans_CBS126736,DRR205362.6225,91.35,104,8,1,225,328,1,103,5e-33,141
Cladophialophora_abundans_CBS126736,DRR205362.35473,90.80,87,8,0,225,311,5,91,9e-26,117
Cladophialophora_abundans_CBS126736,DRR205362.35473,90.36,83,8,0,229,311,601,519,1e-23,110
Cladophialophora_abundans_CBS126736,DRR205362.73259,85.88,85,11,1,225,309,4,87,2e-17,89.8
Cladophialophora_abundans_CBS126736,DRR205362.20635,85.54,83,11,1,225,307,6,87,2e-16,86.1
Capronia_semi-immersa_CBS102234,DRR205362.6225,88.57,105,9,2,287,390,1,103,6e-28,124
Capronia_semi-immersa_CBS102234,DRR205362.35473,86.21,87,12,0,287,373,5,91,5e-19,95.3
Capronia_semi-immersa_CBS102234,DRR205362.35473,85.54,83,12,0,291,373,601,519,8e-17,87.9
Capronia_semi-immersa_CBS102234,DRR205362.20635,84.95,93,12,2,287,378,6,97,2e-18,93.5
Capronia_semi-immersa_CBS102234,DRR205362.73259,90.16,61,6,0,287,347,4,64,1e-14,80.5
Phialophora_americana_CBS400.67,DRR205362.6225,88.57,105,9,2,289,392,1,103,2e-27,124
Phialophora_americana_CBS400.67,DRR205362.35473,86.21,87,12,0,289,375,5,91,1e-18,95.3
Phialophora_americana_CBS400.67,DRR205362.35473,85.54,83,12,0,293,375,601,519,2e-16,87.9
Phialophora_americana_CBS400.67,DRR205362.20635,84.95,93,12,2,289,380,6,97,5e-18,93.5
Phialophora_americana_CBS400.67,DRR205362.73259,90.16,61,6,0,289,349,4,64,4e-14,80.5
Phialophora_verrucosa_CBS140325_T,DRR205362.6225,88.57,105,9,2,293,396,1,103,6e-28,124
Phialophora_verrucosa_CBS140325_T,DRR205362.35473,86.21,87,12,0,293,379,5,91,5e-19,95.3
Phialophora_verrucosa_CBS140325_T,DRR205362.35473,85.54,83,12,0,297,379,601,519,9e-17,87.9
Phialophora_verrucosa_CBS140325_T,DRR205362.20635,84.95,93,12,2,293,384,6,97,2e-18,93.5
Phialophora_verrucosa_CBS140325_T,DRR205362.73259,90.16,61,6,0,293,353,4,64,1e-14,80.5
Cladophialophora_samoensis_CBS259.83_T,DRR205362.6225,91.43,105,6,2,293,396,1,103,6e-33,141
Cladophialophora_samoensis_CBS259.83_T,DRR205362.35473,89.66,87,9,0,293,379,5,91,5e-24,111
Cladophialophora_samoensis_CBS259.83_T,DRR205362.35473,89.16,83,9,0,297,379,601,519,8e-22,104
Cladophialophora_samoensis_CBS259.83_T,DRR205362.73259,87.06,85,10,1,293,377,4,87,5e-19,95.3
Cladophialophora_samoensis_CBS259.83_T,DRR205362.20635,84.04,94,13,2,292,384,5,97,2e-17,89.8
Cladophialophora_carrionii_CBS260.83,DRR205362.6225,90.38,104,9,1,309,412,1,103,3e-31,135
Cladophialophora_carrionii_CBS260.83,DRR205362.35473,87.36,87,11,0,309,395,5,91,1e-20,100
Cladophialophora_carrionii_CBS260.83,DRR205362.35473,86.75,83,11,0,313,395,601,519,2e-18,93.5
Cladophialophora_carrionii_CBS260.83,DRR205362.20635,85.71,84,11,1,308,391,5,87,9e-17,87.9
Cladophialophora_carrionii_CBS260.83,DRR205362.73259,84.71,85,12,1,309,393,4,87,1e-15,84.2
Exophiala_palmae_UPCB86822_T,DRR205362.6225,94.25,87,5,0,252,338,1,87,9e-31,134
Exophiala_palmae_UPCB86822_T,DRR205362.35473,88.51,87,10,0,252,338,5,91,2e-22,106
Exophiala_palmae_UPCB86822_T,DRR205362.35473,87.95,83,10,0,256,338,601,519,3e-20,99.0
Exophiala_palmae_UPCB86822_T,DRR205362.20635,86.90,84,10,1,251,334,5,87,2e-18,93.5
Exophiala_palmae_UPCB86822_T,DRR205362.73259,85.88,85,11,1,252,336,4,87,2e-17,89.8
Cladophialophora_yegresii_CBS114405_T,DRR205362.6225,89.52,105,8,2,294,397,1,103,1e-29,130
Cladophialophora_yegresii_CBS114405_T,DRR205362.35473,87.36,87,11,0,294,380,5,91,1e-20,100
Cladophialophora_yegresii_CBS114405_T,DRR205362.35473,86.75,83,11,0,298,380,601,519,2e-18,93.5
Cladophialophora_yegresii_CBS114405_T,DRR205362.20635,84.04,94,13,2,293,385,5,97,2e-17,89.8
Cladophialophora_yegresii_CBS114405_T,DRR205362.73259,84.71,85,12,1,294,378,4,87,1e-15,84.2
Knufia_epidermidis_CBS120353_T,DRR205362.6225,97.33,75,2,0,292,366,1,75,5e-29,128
Knufia_epidermidis_CBS120353_T,DRR205362.35473,94.59,74,4,0,292,365,5,78,4e-25,115
Knufia_epidermidis_CBS120353_T,DRR205362.35473,94.29,70,4,0,296,365,601,532,6e-23,108
Knufia_epidermidis_CBS120353_T,DRR205362.20635,84.78,92,12,2,292,382,6,96,6e-18,91.6
Knufia_epidermidis_CBS120353_T,DRR205362.73259,90.91,66,6,0,292,357,4,69,2e-17,89.8
Arthrocladium_fulminans_CBS136243_T,DRR205362.6225,93.33,75,5,0,287,361,1,75,5e-24,111
Arthrocladium_fulminans_CBS136243_T,DRR205362.35473,90.54,74,7,0,287,360,5,78,4e-20,99.0
Arthrocladium_fulminans_CBS136243_T,DRR205362.35473,90.00,70,7,0,291,360,601,532,6e-18,91.6
Arthrocladium_fulminans_CBS136243_T,DRR205362.20635,84.88,86,6,4,287,369,6,87,1e-14,80.5
Arthrocladium_fulminans_CBS136243_T,DRR205362.73259,86.36,66,9,0,287,352,4,69,2e-12,73.1
Anthopsis_deltoidea_CBS263.77_T,DRR205362.67368,95.08,61,3,0,294,354,1,61,1e-19,97.1
Anthopsis_deltoidea_CBS263.77_T,DRR205362.33106,87.06,85,10,1,294,378,4,87,5e-19,95.3
Cyphellophora_laciniata_CBS190.61_T,DRR205362.6225,93.20,103,6,1,379,480,1,103,1e-35,150
Cyphellophora_laciniata_CBS190.61_T,DRR205362.6225,88.54,96,10,1,379,473,568,473,5e-25,115
Cyphellophora_laciniata_CBS190.61_T,DRR205362.6225,92.41,79,3,3,618,696,363,288,2e-23,110
Cyphellophora_laciniata_CBS190.61_T,DRR205362.35473,91.95,87,7,0,379,465,5,91,3e-27,122
Cyphellophora_laciniata_CBS190.61_T,DRR205362.35473,91.57,83,7,0,383,465,601,519,5e-25,115
Cyphellophora_laciniata_CBS190.61_T,DRR205362.35473,96.55,58,2,0,638,695,358,301,2e-19,97.1
Cyphellophora_laciniata_CBS190.61_T,DRR205362.39747,100.00,59,0,0,637,695,228,286,2e-23,110
Cyphellophora_laciniata_CBS190.61_T,DRR205362.39747,100.00,59,0,0,637,695,351,293,2e-23,110
Cyphellophora_laciniata_CBS190.61_T,DRR205362.72300,98.25,57,1,0,640,696,357,301,1e-20,100
Cyphellophora_laciniata_CBS190.61_T,DRR205362.20635,96.55,58,2,0,638,695,360,303,2e-19,97.1
Cyphellophora_laciniata_CBS190.61_T,DRR205362.20635,86.75,83,10,1,379,461,6,87,8e-18,91.6
Cyphellophora_laciniata_CBS190.61_T,DRR205362.73259,87.06,85,10,1,379,463,4,87,6e-19,95.3
Cyphellophora_laciniata_CBS190.61_T,DRR205362.12940,97.92,48,1,0,648,695,353,306,1e-15,84.2
Cyphellophora_laciniata_CBS190.61_T,DRR205362.63862,92.86,56,4,0,638,693,360,305,5e-15,82.4
Cyphellophora_laciniata_CBS190.61_T,DRR205362.67368,94.12,51,3,0,648,698,353,303,6e-14,78.7
Cyphellophora_suttonii_CBS449.91,DRR205362.6225,91.15,113,8,2,282,393,1,112,3e-36,152
Cyphellophora_suttonii_CBS449.91,DRR205362.6225,88.54,96,10,1,282,376,568,473,4e-25,115
Cyphellophora_suttonii_CBS449.91,DRR205362.35473,91.95,87,7,0,282,368,5,91,2e-27,122
Cyphellophora_suttonii_CBS449.91,DRR205362.35473,91.57,83,7,0,286,368,601,519,4e-25,115
Cyphellophora_suttonii_CBS449.91,DRR205362.73259,87.06,85,10,1,282,366,4,87,5e-19,95.3
Cyphellophora_suttonii_CBS449.91,DRR205362.20635,86.75,83,10,1,282,364,6,87,6e-18,91.6
Cyphellophora_pauciseptata_CBS284.85_T,DRR205362.6225,93.20,103,6,1,293,394,1,103,1e-35,150
Cyphellophora_pauciseptata_CBS284.85_T,DRR205362.6225,88.54,96,10,1,293,387,568,473,4e-25,115
Cyphellophora_pauciseptata_CBS284.85_T,DRR205362.35473,91.95,87,7,0,293,379,5,91,2e-27,122
Cyphellophora_pauciseptata_CBS284.85_T,DRR205362.35473,91.57,83,7,0,297,379,601,519,4e-25,115
Cyphellophora_pauciseptata_CBS284.85_T,DRR205362.73259,87.06,85,10,1,293,377,4,87,5e-19,95.3
Cyphellophora_pauciseptata_CBS284.85_T,DRR205362.20635,86.75,83,10,1,293,375,6,87,6e-18,91.6
Cyphellophora_pluriseptata_CBS286.85_T,DRR205362.6225,92.23,103,7,1,298,399,1,103,5e-34,145
Cyphellophora_pluriseptata_CBS286.85_T,DRR205362.35473,90.80,87,8,0,298,384,5,91,1e-25,117
Cyphellophora_pluriseptata_CBS286.85_T,DRR205362.35473,90.36,83,8,0,302,384,601,519,2e-23,110
Cyphellophora_pluriseptata_CBS286.85_T,DRR205362.73259,88.24,85,9,1,298,382,4,87,1e-20,100
Cyphellophora_pluriseptata_CBS286.85_T,DRR205362.20635,86.75,83,10,1,298,380,6,87,6e-18,91.6
Phialophora_europaea_CBS101466,DRR205362.6225,92.23,103,7,1,288,389,1,103,5e-34,145
Phialophora_europaea_CBS101466,DRR205362.35473,90.80,87,8,0,288,374,5,91,1e-25,117
Phialophora_europaea_CBS101466,DRR205362.35473,90.36,83,8,0,292,374,601,519,2e-23,110
Phialophora_europaea_CBS101466,DRR205362.73259,88.24,85,9,1,288,372,4,87,1e-20,100
Phialophora_europaea_CBS101466,DRR205362.20635,86.75,83,10,1,288,370,6,87,6e-18,91.6
Phialophora_ambigua_CBS235.93,DRR205362.6225,92.23,103,7,1,285,386,1,103,5e-34,145
Phialophora_ambigua_CBS235.93,DRR205362.35473,90.80,87,8,0,285,371,5,91,1e-25,117
Phialophora_ambigua_CBS235.93,DRR205362.35473,90.36,83,8,0,289,371,601,519,2e-23,110
Phialophora_ambigua_CBS235.93,DRR205362.73259,88.24,85,9,1,285,369,4,87,1e-20,100
Phialophora_ambigua_CBS235.93,DRR205362.20635,86.75,83,10,1,285,367,6,87,6e-18,91.6
Cladophialophora_modesta_CBS985.96_T,DRR205362.6225,92.23,103,8,0,284,386,1,103,1e-34,147
Cladophialophora_modesta_CBS985.96_T,DRR205362.6225,92.96,71,3,2,511,580,357,288,3e-21,102
Cladophialophora_modesta_CBS985.96_T,DRR205362.39747,95.52,67,2,1,514,579,220,286,2e-22,106
Cladophialophora_modesta_CBS985.96_T,DRR205362.39747,95.52,67,2,1,514,579,359,293,2e-22,106
Cladophialophora_modesta_CBS985.96_T,DRR205362.35473,88.51,87,10,0,284,370,5,91,2e-22,106
Cladophialophora_modesta_CBS985.96_T,DRR205362.35473,92.86,70,5,0,510,579,370,301,3e-21,102
Cladophialophora_modesta_CBS985.96_T,DRR205362.35473,87.95,83,10,0,288,370,601,519,4e-20,99.0
Cladophialophora_modesta_CBS985.96_T,DRR205362.20635,96.55,58,2,0,522,579,360,303,1e-19,97.1
Cladophialophora_modesta_CBS985.96_T,DRR205362.20635,86.75,83,10,1,284,366,6,87,7e-18,91.6
Cladophialophora_modesta_CBS985.96_T,DRR205362.72300,96.49,57,2,0,524,580,357,301,5e-19,95.3
Cladophialophora_modesta_CBS985.96_T,DRR205362.73259,85.88,85,11,1,284,368,4,87,3e-17,89.8
Cladophialophora_modesta_CBS985.96_T,DRR205362.12940,90.00,70,6,1,511,579,375,306,3e-17,89.8
Cladophialophora_modesta_CBS985.96_T,DRR205362.63862,94.64,56,3,0,522,577,360,305,9e-17,87.9
Cladophialophora_modesta_CBS985.96_T,DRR205362.67368,96.08,51,2,0,532,582,353,303,1e-15,84.2
Cyphellophora_fusarioides_MUCL44033_T,DRR205362.6225,92.23,103,7,1,281,382,1,103,5e-34,145
Cyphellophora_fusarioides_MUCL44033_T,DRR205362.6225,87.50,96,11,1,281,375,568,473,2e-23,110
Cyphellophora_fusarioides_MUCL44033_T,DRR205362.67368,90.16,61,6,0,281,341,1,61,1e-14,80.5
Cyphellophora_fusarioides_MUCL44033_T,DRR205362.33106,83.53,85,13,1,281,365,4,87,5e-14,78.7
