Cladophialophora_modesta_CBS985.96_T,SRR8905599.1731371,91.36,81,7,0,539,619,249,169,2e-22,111
Cladophialophora_modesta_CBS985.96_T,SRR8905599.1457666,91.36,81,7,0,539,619,249,169,2e-22,111
Cladophialophora_modesta_CBS985.96_T,SRR8905599.1457666,91.25,80,7,0,540,619,301,380,8e-22,110
Cladophialophora_modesta_CBS985.96_T,SRR8905599.1731402,90.12,81,8,0,539,619,249,169,1e-20,106
