Exophiala_brunnea_CBS,SRR10569543.2165806,100.00,32,0,0,1,32,137,168,1e-06,60.2
Exophiala_brunnea_CBS,SRR10569543.2165806,100.00,32,0,0,1,32,200,169,1e-06,60.2
Exophiala_brunnea_CBS,SRR10569543.2165699,100.00,32,0,0,1,32,137,168,1e-06,60.2
Exophiala_brunnea_CBS,SRR10569543.2165699,100.00,32,0,0,1,32,200,169,1e-06,60.2
Exophiala_salmonis_CBS157.67_T,SRR10569543.2165806,100.00,28,0,0,95,122,116,143,2e-04,52.8
Exophiala_salmonis_CBS157.67_T,SRR10569543.2165806,100.00,28,0,0,95,122,221,194,2e-04,52.8
Exophiala_salmonis_CBS157.67_T,SRR10569543.2165699,100.00,28,0,0,95,122,116,143,2e-04,52.8
Exophiala_salmonis_CBS157.67_T,SRR10569543.2165699,100.00,28,0,0,95,122,221,194,2e-04,52.8
Exophiala_tremulae_CBS129355,SRR10569543.2165806,100.00,32,0,0,1,32,137,168,1e-06,60.2
Exophiala_tremulae_CBS129355,SRR10569543.2165806,100.00,32,0,0,1,32,200,169,1e-06,60.2
Exophiala_tremulae_CBS129355,SRR10569543.2165699,100.00,32,0,0,1,32,137,168,1e-06,60.2
Exophiala_tremulae_CBS129355,SRR10569543.2165699,100.00,32,0,0,1,32,200,169,1e-06,60.2
Rhinocladiella_atrovirens_CBS264.49,SRR10569543.2165806,100.00,37,0,0,1,37,132,168,2e-09,69.4
Rhinocladiella_atrovirens_CBS264.49,SRR10569543.2165806,100.00,37,0,0,1,37,205,169,2e-09,69.4
Rhinocladiella_atrovirens_CBS264.49,SRR10569543.2165699,100.00,37,0,0,1,37,132,168,2e-09,69.4
Rhinocladiella_atrovirens_CBS264.49,SRR10569543.2165699,100.00,37,0,0,1,37,205,169,2e-09,69.4
Veronaea_japonica_CBS776.83_T,SRR10569543.2165806,100.00,31,0,0,1,31,138,168,4e-06,58.4
Veronaea_japonica_CBS776.83_T,SRR10569543.2165806,100.00,31,0,0,1,31,199,169,4e-06,58.4
Veronaea_japonica_CBS776.83_T,SRR10569543.2165699,100.00,31,0,0,1,31,138,168,4e-06,58.4
Veronaea_japonica_CBS776.83_T,SRR10569543.2165699,100.00,31,0,0,1,31,199,169,4e-06,58.4
Cyphellophora_laciniata_CBS190.61_T,SRR10569543.2165806,100.00,53,0,0,41,93,116,168,3e-18,99.0
Cyphellophora_laciniata_CBS190.61_T,SRR10569543.2165806,100.00,53,0,0,41,93,221,169,3e-18,99.0
Cyphellophora_laciniata_CBS190.61_T,SRR10569543.2165699,100.00,53,0,0,41,93,116,168,3e-18,99.0
Cyphellophora_laciniata_CBS190.61_T,SRR10569543.2165699,100.00,53,0,0,41,93,221,169,3e-18,99.0
