Exophiala_nigra_CBS535.94_T,SRR8224078.41503,98.21,56,1,0,196,251,300,245,2e-20,99.0
Exophiala_nigra_CBS535.94_T,SRR8224078.30591,98.21,56,0,1,197,251,300,245,7e-20,97.1
Exophiala_nigra_CBS535.94_T,SRR8224078.19876,100.00,52,0,0,200,251,295,244,7e-20,97.1
Exophiala_nigra_CBS535.94_T,SRR8224078.31560,100.00,50,0,0,203,252,195,244,8e-19,93.5
Exophiala_nigra_CBS535.94_T,SRR8224078.31560,100.00,50,0,0,203,252,292,243,8e-19,93.5
Exophiala_nigra_CBS535.94_T,SRR8224078.18126,95.00,60,2,1,197,255,300,241,8e-19,93.5
Exophiala_nigra_CBS535.94_T,SRR8224078.30848,92.31,52,4,0,200,251,295,244,3e-13,75.0
Exophiala_spinifera_CBS899.68_T,SRR8224078.41503,96.67,60,1,1,189,248,303,245,2e-20,99.0
Exophiala_spinifera_CBS899.68_T,SRR8224078.30591,98.21,56,0,1,194,248,300,245,6e-20,97.1
Exophiala_spinifera_CBS899.68_T,SRR8224078.19876,100.00,52,0,0,197,248,295,244,6e-20,97.1
Exophiala_spinifera_CBS899.68_T,SRR8224078.31560,100.00,50,0,0,200,249,195,244,8e-19,93.5
Exophiala_spinifera_CBS899.68_T,SRR8224078.31560,100.00,50,0,0,200,249,292,243,8e-19,93.5
Exophiala_spinifera_CBS899.68_T,SRR8224078.18126,95.00,60,2,1,194,252,300,241,8e-19,93.5
Exophiala_spinifera_CBS899.68_T,SRR8224078.30848,92.31,52,4,0,197,248,295,244,3e-13,75.0
Exophiala_exophialae_CBS668.76_T,SRR8224078.41503,96.67,60,1,1,190,249,303,245,2e-20,99.0
Exophiala_exophialae_CBS668.76_T,SRR8224078.30591,98.21,56,0,1,195,249,300,245,6e-20,97.1
Exophiala_exophialae_CBS668.76_T,SRR8224078.19876,100.00,52,0,0,198,249,295,244,6e-20,97.1
Exophiala_exophialae_CBS668.76_T,SRR8224078.31560,100.00,50,0,0,201,250,195,244,8e-19,93.5
Exophiala_exophialae_CBS668.76_T,SRR8224078.31560,100.00,50,0,0,201,250,292,243,8e-19,93.5
Exophiala_exophialae_CBS668.76_T,SRR8224078.18126,95.00,60,2,1,195,253,300,241,8e-19,93.5
Exophiala_exophialae_CBS668.76_T,SRR8224078.30848,92.31,52,4,0,198,249,295,244,3e-13,75.0
Exophiala_polymorpha_CBS138920_T,SRR8224078.41503,98.21,56,1,0,296,351,300,245,2e-20,99.0
Exophiala_polymorpha_CBS138920_T,SRR8224078.30591,98.21,56,0,1,297,351,300,245,8e-20,97.1
Exophiala_polymorpha_CBS138920_T,SRR8224078.19876,100.00,52,0,0,300,351,295,244,8e-20,97.1
Exophiala_polymorpha_CBS138920_T,SRR8224078.31560,100.00,50,0,0,303,352,195,244,1e-18,93.5
Exophiala_polymorpha_CBS138920_T,SRR8224078.31560,100.00,50,0,0,303,352,292,243,1e-18,93.5
Exophiala_polymorpha_CBS138920_T,SRR8224078.18126,95.00,60,2,1,297,355,300,241,1e-18,93.5
Exophiala_polymorpha_CBS138920_T,SRR8224078.30848,92.31,52,4,0,300,351,295,244,4e-13,75.0
Exophiala_oligosperma_CBS725.88_T,SRR8224078.41503,98.31,59,1,0,203,261,303,245,4e-22,104
Exophiala_oligosperma_CBS725.88_T,SRR8224078.19876,96.67,60,2,0,202,261,303,244,5e-21,100
Exophiala_oligosperma_CBS725.88_T,SRR8224078.30591,96.61,59,2,0,203,261,303,245,2e-20,99.0
Exophiala_oligosperma_CBS725.88_T,SRR8224078.18126,93.65,63,4,0,203,265,303,241,2e-19,95.3
Exophiala_oligosperma_CBS725.88_T,SRR8224078.31560,100.00,50,0,0,213,262,195,244,8e-19,93.5
Exophiala_oligosperma_CBS725.88_T,SRR8224078.31560,100.00,50,0,0,213,262,292,243,8e-19,93.5
Exophiala_oligosperma_CBS725.88_T,SRR8224078.30848,89.83,59,6,0,203,261,302,244,8e-14,76.8
Exophiala_jeanselmei_CBS507.90_T,SRR8224078.41503,96.67,60,1,1,194,253,303,245,2e-20,99.0
Exophiala_jeanselmei_CBS507.90_T,SRR8224078.30591,98.21,56,0,1,199,253,300,245,7e-20,97.1
Exophiala_jeanselmei_CBS507.90_T,SRR8224078.19876,100.00,52,0,0,202,253,295,244,7e-20,97.1
Exophiala_jeanselmei_CBS507.90_T,SRR8224078.31560,100.00,50,0,0,205,254,195,244,9e-19,93.5
Exophiala_jeanselmei_CBS507.90_T,SRR8224078.31560,100.00,50,0,0,205,254,292,243,9e-19,93.5
Exophiala_jeanselmei_CBS507.90_T,SRR8224078.18126,95.00,60,2,1,199,257,300,241,9e-19,93.5
Exophiala_jeanselmei_CBS507.90_T,SRR8224078.30848,92.31,52,4,0,202,253,295,244,3e-13,75.0
Exophiala_bergeri_CBS353.52,SRR8224078.41503,98.21,56,1,0,159,214,300,245,2e-20,99.0
Exophiala_bergeri_CBS353.52,SRR8224078.30591,98.21,56,0,1,160,214,300,245,5e-20,97.1
Exophiala_bergeri_CBS353.52,SRR8224078.19876,100.00,52,0,0,163,214,295,244,5e-20,97.1
Exophiala_bergeri_CBS353.52,SRR8224078.31560,100.00,50,0,0,166,215,195,244,7e-19,93.5
Exophiala_bergeri_CBS353.52,SRR8224078.31560,100.00,50,0,0,166,215,292,243,7e-19,93.5
Exophiala_bergeri_CBS353.52,SRR8224078.18126,95.00,60,2,1,160,218,300,241,7e-19,93.5
Exophiala_bergeri_CBS353.52,SRR8224078.30848,92.31,52,4,0,163,214,295,244,3e-13,75.0
Exophiala_moniliae_CBS520.76_T,SRR8224078.41503,98.25,57,1,0,195,251,301,245,5e-21,100
Exophiala_moniliae_CBS520.76_T,SRR8224078.30591,98.21,56,0,1,197,251,300,245,6e-20,97.1
Exophiala_moniliae_CBS520.76_T,SRR8224078.19876,100.00,52,0,0,200,251,295,244,6e-20,97.1
Exophiala_moniliae_CBS520.76_T,SRR8224078.31560,100.00,50,0,0,203,252,195,244,8e-19,93.5
Exophiala_moniliae_CBS520.76_T,SRR8224078.31560,100.00,50,0,0,203,252,292,243,8e-19,93.5
Exophiala_moniliae_CBS520.76_T,SRR8224078.18126,95.00,60,2,1,197,255,300,241,8e-19,93.5
Exophiala_moniliae_CBS520.76_T,SRR8224078.30848,92.31,52,4,0,200,251,295,244,3e-13,75.0
Exophiala_pisciphila_CBS537.73_T,SRR8224078.41503,96.67,60,1,1,195,254,303,245,2e-20,99.0
Exophiala_pisciphila_CBS537.73_T,SRR8224078.30591,98.21,56,0,1,200,254,300,245,7e-20,97.1
Exophiala_pisciphila_CBS537.73_T,SRR8224078.19876,100.00,52,0,0,203,254,295,244,7e-20,97.1
Exophiala_pisciphila_CBS537.73_T,SRR8224078.31560,100.00,50,0,0,206,255,195,244,1e-18,93.5
Exophiala_pisciphila_CBS537.73_T,SRR8224078.31560,100.00,50,0,0,206,255,292,243,1e-18,93.5
Exophiala_pisciphila_CBS537.73_T,SRR8224078.18126,95.00,60,2,1,200,258,300,241,1e-18,93.5
Exophiala_pisciphila_CBS537.73_T,SRR8224078.30848,92.31,52,4,0,203,254,295,244,3e-13,75.0
Exophiala_xenobiotica_CBS117642,SRR8224078.41503,98.25,57,1,0,190,246,301,245,5e-21,100
Exophiala_xenobiotica_CBS117642,SRR8224078.19876,94.03,67,3,1,181,246,310,244,5e-21,100
Exophiala_xenobiotica_CBS117642,SRR8224078.30591,98.21,56,0,1,192,246,300,245,6e-20,97.1
Exophiala_xenobiotica_CBS117642,SRR8224078.31560,100.00,50,0,0,198,247,195,244,8e-19,93.5
Exophiala_xenobiotica_CBS117642,SRR8224078.31560,100.00,50,0,0,198,247,292,243,8e-19,93.5
Exophiala_xenobiotica_CBS117642,SRR8224078.18126,95.00,60,2,1,192,250,300,241,8e-19,93.5
Exophiala_xenobiotica_CBS117642,SRR8224078.30848,92.31,52,4,0,195,246,295,244,3e-13,75.0
Exophiala_brunnea_CBS,SRR8224078.41503,98.21,56,1,0,227,282,300,245,2e-20,99.0
Exophiala_brunnea_CBS,SRR8224078.30591,98.21,56,0,1,228,282,300,245,7e-20,97.1
Exophiala_brunnea_CBS,SRR8224078.19876,100.00,52,0,0,231,282,295,244,7e-20,97.1
Exophiala_brunnea_CBS,SRR8224078.31560,100.00,50,0,0,234,283,195,244,9e-19,93.5
Exophiala_brunnea_CBS,SRR8224078.31560,100.00,50,0,0,234,283,292,243,9e-19,93.5
Exophiala_brunnea_CBS,SRR8224078.31560,100.00,39,0,0,1,39,16,54,1e-12,73.1
Exophiala_brunnea_CBS,SRR8224078.18126,95.00,60,2,1,228,286,300,241,9e-19,93.5
Exophiala_brunnea_CBS,SRR8224078.30848,92.31,52,4,0,231,282,295,244,3e-13,75.0
Exophiala_brunnea_CBS,SRR8224078.25358,100.00,38,0,0,1,38,16,53,4e-12,71.3
Exophiala_nishimurae_CBS101538_T,SRR8224078.41503,98.21,56,1,0,205,260,300,245,2e-20,99.0
Exophiala_nishimurae_CBS101538_T,SRR8224078.30591,98.21,56,0,1,206,260,300,245,7e-20,97.1
Exophiala_nishimurae_CBS101538_T,SRR8224078.19876,100.00,52,0,0,209,260,295,244,7e-20,97.1
Exophiala_nishimurae_CBS101538_T,SRR8224078.31560,100.00,50,0,0,212,261,195,244,9e-19,93.5
Exophiala_nishimurae_CBS101538_T,SRR8224078.31560,100.00,50,0,0,212,261,292,243,9e-19,93.5
Exophiala_nishimurae_CBS101538_T,SRR8224078.18126,95.00,60,2,1,206,264,300,241,9e-19,93.5
Exophiala_nishimurae_CBS101538_T,SRR8224078.30848,92.31,52,4,0,209,260,295,244,3e-13,75.0
Exophiala_mesophila_CBS402.95_T,SRR8224078.41503,98.25,57,1,0,188,244,301,245,6e-21,100
Exophiala_mesophila_CBS402.95_T,SRR8224078.30591,98.21,56,0,1,190,244,300,245,7e-20,97.1
Exophiala_mesophila_CBS402.95_T,SRR8224078.19876,100.00,52,0,0,193,244,295,244,7e-20,97.1
Exophiala_mesophila_CBS402.95_T,SRR8224078.31560,100.00,50,0,0,196,245,195,244,9e-19,93.5
Exophiala_mesophila_CBS402.95_T,SRR8224078.31560,100.00,50,0,0,196,245,292,243,9e-19,93.5
Exophiala_mesophila_CBS402.95_T,SRR8224078.18126,95.00,60,2,1,190,248,300,241,9e-19,93.5
Exophiala_mesophila_CBS402.95_T,SRR8224078.30848,92.31,52,4,0,193,244,295,244,3e-13,75.0
Exophiala_castellanii_CBS158.58_T,SRR8224078.41503,98.25,57,1,0,186,242,301,245,6e-21,100
Exophiala_castellanii_CBS158.58_T,SRR8224078.30591,98.21,56,0,1,188,242,300,245,7e-20,97.1
Exophiala_castellanii_CBS158.58_T,SRR8224078.19876,100.00,52,0,0,191,242,295,244,7e-20,97.1
Exophiala_castellanii_CBS158.58_T,SRR8224078.31560,100.00,50,0,0,194,243,195,244,9e-19,93.5
Exophiala_castellanii_CBS158.58_T,SRR8224078.31560,100.00,50,0,0,194,243,292,243,9e-19,93.5
Exophiala_castellanii_CBS158.58_T,SRR8224078.18126,95.00,60,2,1,188,246,300,241,9e-19,93.5
Exophiala_castellanii_CBS158.58_T,SRR8224078.30848,92.31,52,4,0,191,242,295,244,3e-13,75.0
Exophiala_lecanii-corni_CBS123.33_T,SRR8224078.41503,98.21,56,1,0,210,265,300,245,2e-20,99.0
Exophiala_lecanii-corni_CBS123.33_T,SRR8224078.30591,98.21,56,0,1,211,265,300,245,6e-20,97.1
Exophiala_lecanii-corni_CBS123.33_T,SRR8224078.19876,100.00,52,0,0,214,265,295,244,6e-20,97.1
Exophiala_lecanii-corni_CBS123.33_T,SRR8224078.31560,100.00,50,0,0,217,266,195,244,8e-19,93.5
Exophiala_lecanii-corni_CBS123.33_T,SRR8224078.31560,100.00,50,0,0,217,266,292,243,8e-19,93.5
Exophiala_lecanii-corni_CBS123.33_T,SRR8224078.18126,95.00,60,2,1,211,269,300,241,8e-19,93.5
Exophiala_lecanii-corni_CBS123.33_T,SRR8224078.30848,92.31,52,4,0,214,265,295,244,3e-13,75.0
Exophiala_dermatitidis_CBS748.88,SRR8224078.41503,95.00,60,1,2,199,257,303,245,2e-18,93.5
Exophiala_dermatitidis_CBS748.88,SRR8224078.30591,96.43,56,0,2,204,257,300,245,8e-18,91.6
Exophiala_dermatitidis_CBS748.88,SRR8224078.19876,98.08,52,0,1,207,257,295,244,3e-17,89.8
Exophiala_dermatitidis_CBS748.88,SRR8224078.31560,98.00,50,0,1,210,258,195,244,4e-16,86.1
Exophiala_dermatitidis_CBS748.88,SRR8224078.31560,98.00,50,0,1,210,258,292,243,4e-16,86.1
Exophiala_angulospora_CBS482.92_T,SRR8224078.41503,98.31,59,1,0,190,248,303,245,4e-22,104
Exophiala_angulospora_CBS482.92_T,SRR8224078.19876,96.67,60,2,0,189,248,303,244,5e-21,100
Exophiala_angulospora_CBS482.92_T,SRR8224078.30591,96.61,59,2,0,190,248,303,245,2e-20,99.0
Exophiala_angulospora_CBS482.92_T,SRR8224078.18126,93.65,63,4,0,190,252,303,241,2e-19,95.3
Exophiala_angulospora_CBS482.92_T,SRR8224078.31560,100.00,50,0,0,200,249,195,244,8e-19,93.5
Exophiala_angulospora_CBS482.92_T,SRR8224078.31560,100.00,50,0,0,200,249,292,243,8e-19,93.5
Exophiala_angulospora_CBS482.92_T,SRR8224078.30848,89.83,59,6,0,190,248,302,244,8e-14,76.8
Exophiala_opportunistica_CBS109811_T,SRR8224078.41503,96.67,60,1,1,188,247,303,245,2e-20,99.0
Exophiala_opportunistica_CBS109811_T,SRR8224078.30591,100.00,52,0,0,196,247,296,245,6e-20,97.1
Exophiala_opportunistica_CBS109811_T,SRR8224078.19876,100.00,52,0,0,196,247,295,244,6e-20,97.1
Exophiala_opportunistica_CBS109811_T,SRR8224078.31560,100.00,50,0,0,199,248,195,244,8e-19,93.5
Exophiala_opportunistica_CBS109811_T,SRR8224078.31560,100.00,50,0,0,199,248,292,243,8e-19,93.5
Exophiala_opportunistica_CBS109811_T,SRR8224078.18126,96.43,56,2,0,196,251,296,241,8e-19,93.5
Exophiala_opportunistica_CBS109811_T,SRR8224078.30848,92.31,52,4,0,196,247,295,244,3e-13,75.0
Exophiala_salmonis_CBS157.67_T,SRR8224078.41503,96.67,60,1,1,317,376,303,245,2e-20,99.0
Exophiala_salmonis_CBS157.67_T,SRR8224078.30591,98.21,56,0,1,322,376,300,245,9e-20,97.1
Exophiala_salmonis_CBS157.67_T,SRR8224078.19876,100.00,52,0,0,325,376,295,244,9e-20,97.1
Exophiala_salmonis_CBS157.67_T,SRR8224078.31560,100.00,50,0,0,328,377,195,244,1e-18,93.5
Exophiala_salmonis_CBS157.67_T,SRR8224078.31560,100.00,50,0,0,328,377,292,243,1e-18,93.5
Exophiala_salmonis_CBS157.67_T,SRR8224078.18126,95.00,60,2,1,322,380,300,241,1e-18,93.5
Exophiala_salmonis_CBS157.67_T,SRR8224078.30848,92.31,52,4,0,325,376,295,244,4e-13,75.0
Exophiala_aquamarina_CBS119918_T,SRR8224078.41503,96.67,60,1,1,195,254,303,245,2e-20,99.0
Exophiala_aquamarina_CBS119918_T,SRR8224078.30591,98.21,56,0,1,200,254,300,245,6e-20,97.1
Exophiala_aquamarina_CBS119918_T,SRR8224078.19876,100.00,52,0,0,203,254,295,244,6e-20,97.1
Exophiala_aquamarina_CBS119918_T,SRR8224078.31560,100.00,50,0,0,206,255,195,244,8e-19,93.5
Exophiala_aquamarina_CBS119918_T,SRR8224078.31560,100.00,50,0,0,206,255,292,243,8e-19,93.5
Exophiala_aquamarina_CBS119918_T,SRR8224078.18126,95.00,60,2,1,200,258,300,241,8e-19,93.5
Exophiala_aquamarina_CBS119918_T,SRR8224078.30848,92.31,52,4,0,203,254,295,244,3e-13,75.0
Exophiala_cancerae_CBS120420_T,SRR8224078.41503,96.67,60,1,1,210,269,303,245,2e-20,99.0
Exophiala_cancerae_CBS120420_T,SRR8224078.30591,100.00,52,0,0,218,269,296,245,7e-20,97.1
Exophiala_cancerae_CBS120420_T,SRR8224078.19876,100.00,52,0,0,218,269,295,244,7e-20,97.1
Exophiala_cancerae_CBS120420_T,SRR8224078.31560,100.00,50,0,0,221,270,195,244,9e-19,93.5
Exophiala_cancerae_CBS120420_T,SRR8224078.31560,100.00,50,0,0,221,270,292,243,9e-19,93.5
Exophiala_cancerae_CBS120420_T,SRR8224078.18126,96.43,56,2,0,218,273,296,241,9e-19,93.5
Exophiala_cancerae_CBS120420_T,SRR8224078.30848,92.31,52,4,0,218,269,295,244,3e-13,75.0
Exophiala_tremulae_CBS129355,SRR8224078.41503,96.67,60,1,1,222,281,303,245,2e-20,99.0
Exophiala_tremulae_CBS129355,SRR8224078.30591,98.21,56,0,1,227,281,300,245,7e-20,97.1
Exophiala_tremulae_CBS129355,SRR8224078.19876,100.00,52,0,0,230,281,295,244,7e-20,97.1
Exophiala_tremulae_CBS129355,SRR8224078.31560,100.00,50,0,0,233,282,195,244,9e-19,93.5
Exophiala_tremulae_CBS129355,SRR8224078.31560,100.00,50,0,0,233,282,292,243,9e-19,93.5
Exophiala_tremulae_CBS129355,SRR8224078.31560,100.00,39,0,0,1,39,16,54,1e-12,73.1
Exophiala_tremulae_CBS129355,SRR8224078.18126,95.00,60,2,1,227,285,300,241,9e-19,93.5
Exophiala_tremulae_CBS129355,SRR8224078.30848,92.31,52,4,0,230,281,295,244,3e-13,75.0
Exophiala_tremulae_CBS129355,SRR8224078.25358,100.00,38,0,0,1,38,16,53,4e-12,71.3
Exophiala_equina_CBS116009,SRR8224078.41503,96.67,60,1,1,188,247,303,245,2e-20,99.0
Exophiala_equina_CBS116009,SRR8224078.30591,98.21,56,0,1,193,247,300,245,6e-20,97.1
Exophiala_equina_CBS116009,SRR8224078.19876,100.00,52,0,0,196,247,295,244,6e-20,97.1
Exophiala_equina_CBS116009,SRR8224078.31560,100.00,50,0,0,199,248,195,244,8e-19,93.5
Exophiala_equina_CBS116009,SRR8224078.31560,100.00,50,0,0,199,248,292,243,8e-19,93.5
Exophiala_equina_CBS116009,SRR8224078.18126,95.00,60,2,1,193,251,300,241,8e-19,93.5
Exophiala_equina_CBS116009,SRR8224078.30848,92.31,52,4,0,196,247,295,244,3e-13,75.0
Exophiala_alcalophila_CBS520.82_T,SRR8224078.41503,98.21,56,1,0,203,258,300,245,2e-20,99.0
Exophiala_alcalophila_CBS520.82_T,SRR8224078.30591,100.00,52,0,0,207,258,296,245,6e-20,97.1
Exophiala_alcalophila_CBS520.82_T,SRR8224078.19876,100.00,52,0,0,207,258,295,244,6e-20,97.1
Exophiala_alcalophila_CBS520.82_T,SRR8224078.31560,100.00,50,0,0,210,259,195,244,8e-19,93.5
Exophiala_alcalophila_CBS520.82_T,SRR8224078.31560,100.00,50,0,0,210,259,292,243,8e-19,93.5
Exophiala_alcalophila_CBS520.82_T,SRR8224078.18126,96.43,56,2,0,207,262,296,241,8e-19,93.5
Exophiala_alcalophila_CBS520.82_T,SRR8224078.30848,92.31,52,4,0,207,258,295,244,3e-13,75.0
Exophiala_crusticola_CBS119970_T,SRR8224078.30591,98.28,58,0,1,207,263,302,245,5e-21,100
Exophiala_crusticola_CBS119970_T,SRR8224078.41503,100.00,52,0,0,212,263,296,245,6e-20,97.1
Exophiala_crusticola_CBS119970_T,SRR8224078.19876,100.00,52,0,0,212,263,295,244,6e-20,97.1
Exophiala_crusticola_CBS119970_T,SRR8224078.18126,95.16,62,2,1,207,267,302,241,6e-20,97.1
Exophiala_crusticola_CBS119970_T,SRR8224078.31560,100.00,50,0,0,215,264,195,244,8e-19,93.5
Exophiala_crusticola_CBS119970_T,SRR8224078.31560,100.00,50,0,0,215,264,292,243,8e-19,93.5
Exophiala_crusticola_CBS119970_T,SRR8224078.30848,92.31,52,4,0,212,263,295,244,3e-13,75.0
Rhinocladiella_atrovirens_CBS264.49,SRR8224078.41503,95.31,64,2,1,226,289,307,245,5e-21,100
Rhinocladiella_atrovirens_CBS264.49,SRR8224078.30591,100.00,52,0,0,238,289,296,245,7e-20,97.1
Rhinocladiella_atrovirens_CBS264.49,SRR8224078.19876,100.00,52,0,0,238,289,295,244,7e-20,97.1
Rhinocladiella_atrovirens_CBS264.49,SRR8224078.31560,100.00,50,0,0,241,290,195,244,9e-19,93.5
Rhinocladiella_atrovirens_CBS264.49,SRR8224078.31560,100.00,50,0,0,241,290,292,243,9e-19,93.5
Rhinocladiella_atrovirens_CBS264.49,SRR8224078.31560,100.00,46,0,0,1,46,11,56,2e-16,86.1
Rhinocladiella_atrovirens_CBS264.49,SRR8224078.18126,96.43,56,2,0,238,293,296,241,9e-19,93.5
Rhinocladiella_atrovirens_CBS264.49,SRR8224078.25358,100.00,43,0,0,1,43,11,53,7e-15,80.5
Rhinocladiella_atrovirens_CBS264.49,SRR8224078.30848,92.31,52,4,0,238,289,295,244,3e-13,75.0
Rhinocladiella_basitona_CBS101460_T,SRR8224078.41503,96.67,60,1,1,189,248,303,245,2e-20,99.0
Rhinocladiella_basitona_CBS101460_T,SRR8224078.30591,98.21,56,0,1,194,248,300,245,6e-20,97.1
Rhinocladiella_basitona_CBS101460_T,SRR8224078.19876,100.00,52,0,0,197,248,295,244,6e-20,97.1
Rhinocladiella_basitona_CBS101460_T,SRR8224078.31560,100.00,50,0,0,200,249,195,244,8e-19,93.5
Rhinocladiella_basitona_CBS101460_T,SRR8224078.31560,100.00,50,0,0,200,249,292,243,8e-19,93.5
Rhinocladiella_basitona_CBS101460_T,SRR8224078.18126,95.00,60,2,1,194,252,300,241,8e-19,93.5
Rhinocladiella_basitona_CBS101460_T,SRR8224078.30848,92.31,52,4,0,197,248,295,244,3e-13,75.0
Rhinocladiella_phaeophora_CBS496.78_T,SRR8224078.30591,98.21,56,1,0,201,256,300,245,2e-20,99.0
Rhinocladiella_phaeophora_CBS496.78_T,SRR8224078.41503,100.00,51,0,0,206,256,295,245,2e-19,95.3
Rhinocladiella_phaeophora_CBS496.78_T,SRR8224078.19876,100.00,51,0,0,206,256,294,244,2e-19,95.3
Rhinocladiella_phaeophora_CBS496.78_T,SRR8224078.18126,95.00,60,3,0,201,260,300,241,2e-19,95.3
Rhinocladiella_phaeophora_CBS496.78_T,SRR8224078.31560,100.00,50,0,0,208,257,195,244,8e-19,93.5
Rhinocladiella_phaeophora_CBS496.78_T,SRR8224078.31560,100.00,50,0,0,208,257,292,243,8e-19,93.5
Rhinocladiella_phaeophora_CBS496.78_T,SRR8224078.30848,95.56,45,2,0,212,256,288,244,1e-12,73.1
Rhinocladiella_aquaspersa_CBS313.73_T,SRR8224078.30591,98.21,56,1,0,195,250,300,245,2e-20,99.0
Rhinocladiella_aquaspersa_CBS313.73_T,SRR8224078.41503,100.00,51,0,0,200,250,295,245,3e-19,95.3
Rhinocladiella_aquaspersa_CBS313.73_T,SRR8224078.19876,100.00,51,0,0,200,250,294,244,3e-19,95.3
Rhinocladiella_aquaspersa_CBS313.73_T,SRR8224078.18126,95.00,60,3,0,195,254,300,241,3e-19,95.3
Rhinocladiella_aquaspersa_CBS313.73_T,SRR8224078.31560,100.00,50,0,0,202,251,195,244,9e-19,93.5
Rhinocladiella_aquaspersa_CBS313.73_T,SRR8224078.31560,100.00,50,0,0,202,251,292,243,9e-19,93.5
Rhinocladiella_aquaspersa_CBS313.73_T,SRR8224078.30848,95.56,45,2,0,206,250,288,244,1e-12,73.1
Rhinocladiella_fasciculata_CBS132.86_T,SRR8224078.41503,100.00,51,0,0,216,266,295,245,2e-19,95.3
Rhinocladiella_fasciculata_CBS132.86_T,SRR8224078.30591,100.00,51,0,0,216,266,295,245,2e-19,95.3
Rhinocladiella_fasciculata_CBS132.86_T,SRR8224078.19876,100.00,51,0,0,216,266,294,244,2e-19,95.3
Rhinocladiella_fasciculata_CBS132.86_T,SRR8224078.31560,100.00,50,0,0,218,267,195,244,8e-19,93.5
Rhinocladiella_fasciculata_CBS132.86_T,SRR8224078.31560,100.00,50,0,0,218,267,292,243,8e-19,93.5
Rhinocladiella_fasciculata_CBS132.86_T,SRR8224078.31560,100.00,29,0,0,1,29,28,56,4e-07,54.7
Rhinocladiella_fasciculata_CBS132.86_T,SRR8224078.18126,96.36,55,2,0,216,270,295,241,3e-18,91.6
Rhinocladiella_fasciculata_CBS132.86_T,SRR8224078.30848,95.56,45,2,0,222,266,288,244,1e-12,73.1
Rhinocladiella_anceps_CBS181.65_T,SRR8224078.41503,91.03,78,4,3,173,248,321,245,1e-21,102
Rhinocladiella_anceps_CBS181.65_T,SRR8224078.30591,82.17,129,12,10,122,248,364,245,5e-21,100
Rhinocladiella_anceps_CBS181.65_T,SRR8224078.19876,100.00,52,0,0,197,248,295,244,6e-20,97.1
Rhinocladiella_anceps_CBS181.65_T,SRR8224078.31560,100.00,50,0,0,200,249,195,244,8e-19,93.5
Rhinocladiella_anceps_CBS181.65_T,SRR8224078.31560,100.00,50,0,0,200,249,292,243,8e-19,93.5
Rhinocladiella_anceps_CBS181.65_T,SRR8224078.18126,96.43,56,2,0,197,252,296,241,8e-19,93.5
Rhinocladiella_anceps_CBS181.65_T,SRR8224078.30848,92.31,52,4,0,197,248,295,244,3e-13,75.0
Rhinocladiella_mackenziei_CBS367.92,SRR8224078.19876,89.16,83,5,3,158,237,325,244,5e-21,100
Rhinocladiella_mackenziei_CBS367.92,SRR8224078.41503,98.21,56,1,0,182,237,300,245,2e-20,99.0
Rhinocladiella_mackenziei_CBS367.92,SRR8224078.30591,100.00,52,0,0,186,237,296,245,7e-20,97.1
Rhinocladiella_mackenziei_CBS367.92,SRR8224078.31560,100.00,50,0,0,189,238,195,244,9e-19,93.5
Rhinocladiella_mackenziei_CBS367.92,SRR8224078.31560,100.00,50,0,0,189,238,292,243,9e-19,93.5
Rhinocladiella_mackenziei_CBS367.92,SRR8224078.18126,96.43,56,2,0,186,241,296,241,9e-19,93.5
Rhinocladiella_mackenziei_CBS367.92,SRR8224078.30848,92.31,52,4,0,186,237,295,244,3e-13,75.0
Veronaea_compacta_CBS268.75_T,SRR8224078.41503,98.21,56,1,0,215,270,300,245,2e-20,99.0
Veronaea_compacta_CBS268.75_T,SRR8224078.30591,98.21,56,0,1,216,270,300,245,7e-20,97.1
Veronaea_compacta_CBS268.75_T,SRR8224078.19876,100.00,52,0,0,219,270,295,244,7e-20,97.1
Veronaea_compacta_CBS268.75_T,SRR8224078.31560,100.00,50,0,0,222,271,195,244,9e-19,93.5
Veronaea_compacta_CBS268.75_T,SRR8224078.31560,100.00,50,0,0,222,271,292,243,9e-19,93.5
Veronaea_compacta_CBS268.75_T,SRR8224078.18126,95.00,60,2,1,216,274,300,241,9e-19,93.5
Veronaea_compacta_CBS268.75_T,SRR8224078.30848,92.31,52,4,0,219,270,295,244,3e-13,75.0
Capronia_pilosella_AFTOL-ID657,SRR8224078.41503,98.31,59,1,0,290,348,303,245,5e-22,104
Capronia_pilosella_AFTOL-ID657,SRR8224078.19876,96.67,60,2,0,289,348,303,244,6e-21,100
Capronia_pilosella_AFTOL-ID657,SRR8224078.30591,96.61,59,2,0,290,348,303,245,2e-20,99.0
Capronia_pilosella_AFTOL-ID657,SRR8224078.18126,88.75,80,8,1,274,352,320,241,8e-20,97.1
Capronia_pilosella_AFTOL-ID657,SRR8224078.31560,100.00,50,0,0,300,349,195,244,1e-18,93.5
Capronia_pilosella_AFTOL-ID657,SRR8224078.31560,100.00,50,0,0,300,349,292,243,1e-18,93.5
Capronia_pilosella_AFTOL-ID657,SRR8224078.30848,89.83,59,6,0,290,348,302,244,1e-13,76.8
Capronia_dactylotricha_DAOM208471_T,SRR8224078.41503,94.29,70,3,1,182,250,314,245,1e-22,106
Capronia_dactylotricha_DAOM208471_T,SRR8224078.30591,92.86,70,4,1,182,250,314,245,6e-21,100
Capronia_dactylotricha_DAOM208471_T,SRR8224078.19876,98.21,56,1,0,195,250,299,244,2e-20,99.0
Capronia_dactylotricha_DAOM208471_T,SRR8224078.31560,100.00,50,0,0,202,251,195,244,1e-18,93.5
Capronia_dactylotricha_DAOM208471_T,SRR8224078.31560,100.00,50,0,0,202,251,292,243,1e-18,93.5
Capronia_dactylotricha_DAOM208471_T,SRR8224078.18126,96.43,56,2,0,199,254,296,241,1e-18,93.5
Capronia_dactylotricha_DAOM208471_T,SRR8224078.30848,91.07,56,5,0,195,250,299,244,1e-13,76.8
Capronia_kleinmondensis_CBS122671_T,SRR8224078.41503,96.67,60,1,1,216,275,303,245,2e-20,99.0
Capronia_kleinmondensis_CBS122671_T,SRR8224078.30591,100.00,52,0,0,224,275,296,245,7e-20,97.1
Capronia_kleinmondensis_CBS122671_T,SRR8224078.19876,100.00,52,0,0,224,275,295,244,7e-20,97.1
Capronia_kleinmondensis_CBS122671_T,SRR8224078.31560,100.00,50,0,0,227,276,195,244,1e-18,93.5
Capronia_kleinmondensis_CBS122671_T,SRR8224078.31560,100.00,50,0,0,227,276,292,243,1e-18,93.5
Capronia_kleinmondensis_CBS122671_T,SRR8224078.31560,100.00,32,0,0,1,32,25,56,1e-08,60.2
Capronia_kleinmondensis_CBS122671_T,SRR8224078.18126,96.43,56,2,0,224,279,296,241,1e-18,93.5
Capronia_kleinmondensis_CBS122671_T,SRR8224078.30848,92.31,52,4,0,224,275,295,244,4e-13,75.0
Capronia_kleinmondensis_CBS122671_T,SRR8224078.25358,100.00,29,0,0,1,29,25,53,5e-07,54.7
Capronia_mansonii_CBS101.67_T,SRR8224078.41503,96.67,60,1,1,202,261,303,245,2e-20,99.0
Capronia_mansonii_CBS101.67_T,SRR8224078.30591,98.21,56,0,1,207,261,300,245,8e-20,97.1
Capronia_mansonii_CBS101.67_T,SRR8224078.19876,100.00,52,0,0,210,261,295,244,8e-20,97.1
Capronia_mansonii_CBS101.67_T,SRR8224078.31560,100.00,50,0,0,213,262,195,244,1e-18,93.5
Capronia_mansonii_CBS101.67_T,SRR8224078.31560,100.00,50,0,0,213,262,292,243,1e-18,93.5
Capronia_mansonii_CBS101.67_T,SRR8224078.18126,95.00,60,2,1,207,265,300,241,1e-18,93.5
Capronia_mansonii_CBS101.67_T,SRR8224078.30848,92.31,52,4,0,210,261,295,244,4e-13,75.0
Capronia_munkii_DAOM216390_T,SRR8224078.41503,96.67,60,1,1,202,261,303,245,2e-20,99.0
Capronia_munkii_DAOM216390_T,SRR8224078.30591,98.21,56,0,1,207,261,300,245,8e-20,97.1
Capronia_munkii_DAOM216390_T,SRR8224078.19876,100.00,52,0,0,210,261,295,244,8e-20,97.1
Capronia_munkii_DAOM216390_T,SRR8224078.31560,100.00,50,0,0,213,262,195,244,1e-18,93.5
Capronia_munkii_DAOM216390_T,SRR8224078.31560,100.00,50,0,0,213,262,292,243,1e-18,93.5
Capronia_munkii_DAOM216390_T,SRR8224078.18126,95.00,60,2,1,207,265,300,241,1e-18,93.5
Capronia_munkii_DAOM216390_T,SRR8224078.30848,92.31,52,4,0,210,261,295,244,4e-13,75.0
Capronia_coronata_ATCC56201_T,SRR8224078.41503,98.31,59,1,0,191,249,303,245,4e-22,104
Capronia_coronata_ATCC56201_T,SRR8224078.19876,96.67,60,2,0,190,249,303,244,6e-21,100
Capronia_coronata_ATCC56201_T,SRR8224078.30591,96.61,59,2,0,191,249,303,245,2e-20,99.0
Capronia_coronata_ATCC56201_T,SRR8224078.18126,93.65,63,4,0,191,253,303,241,3e-19,95.3
Capronia_coronata_ATCC56201_T,SRR8224078.31560,100.00,50,0,0,201,250,195,244,9e-19,93.5
Capronia_coronata_ATCC56201_T,SRR8224078.31560,100.00,50,0,0,201,250,292,243,9e-19,93.5
Capronia_coronata_ATCC56201_T,SRR8224078.30848,89.83,59,6,0,191,249,302,244,9e-14,76.8
Capronia_parasitica_CBS123.88,SRR8224078.41503,98.18,55,0,1,202,255,299,245,2e-19,95.3
Capronia_parasitica_CBS123.88,SRR8224078.30591,100.00,51,0,0,205,255,295,245,2e-19,95.3
Capronia_parasitica_CBS123.88,SRR8224078.19876,98.18,55,0,1,202,255,298,244,2e-19,95.3
Capronia_parasitica_CBS123.88,SRR8224078.31560,100.00,50,0,0,207,256,195,244,9e-19,93.5
Capronia_parasitica_CBS123.88,SRR8224078.31560,100.00,50,0,0,207,256,292,243,9e-19,93.5
Capronia_parasitica_CBS123.88,SRR8224078.18126,96.36,55,2,0,205,259,295,241,3e-18,91.6
Capronia_parasitica_CBS123.88,SRR8224078.30848,90.91,55,4,1,202,255,298,244,1e-12,73.1
Veronaea_japonica_CBS776.83_T,SRR8224078.41503,98.21,56,1,0,228,283,300,245,2e-20,99.0
Veronaea_japonica_CBS776.83_T,SRR8224078.30591,98.21,56,0,1,229,283,300,245,7e-20,97.1
Veronaea_japonica_CBS776.83_T,SRR8224078.19876,100.00,52,0,0,232,283,295,244,7e-20,97.1
Veronaea_japonica_CBS776.83_T,SRR8224078.31560,100.00,50,0,0,235,284,195,244,9e-19,93.5
Veronaea_japonica_CBS776.83_T,SRR8224078.31560,100.00,50,0,0,235,284,292,243,9e-19,93.5
Veronaea_japonica_CBS776.83_T,SRR8224078.31560,100.00,38,0,0,1,38,17,54,4e-12,71.3
Veronaea_japonica_CBS776.83_T,SRR8224078.18126,95.00,60,2,1,229,287,300,241,9e-19,93.5
Veronaea_japonica_CBS776.83_T,SRR8224078.30848,92.31,52,4,0,232,283,295,244,3e-13,75.0
Veronaea_japonica_CBS776.83_T,SRR8224078.25358,100.00,37,0,0,1,37,17,53,1e-11,69.4
Thysanorea_papuana_CBS212.96_T,SRR8224078.41503,96.67,60,1,1,198,257,303,245,2e-20,99.0
Thysanorea_papuana_CBS212.96_T,SRR8224078.30591,98.21,56,0,1,203,257,300,245,6e-20,97.1
Thysanorea_papuana_CBS212.96_T,SRR8224078.19876,95.16,62,2,1,196,257,304,244,6e-20,97.1
Thysanorea_papuana_CBS212.96_T,SRR8224078.31560,100.00,50,0,0,209,258,195,244,8e-19,93.5
Thysanorea_papuana_CBS212.96_T,SRR8224078.31560,100.00,50,0,0,209,258,292,243,8e-19,93.5
Thysanorea_papuana_CBS212.96_T,SRR8224078.18126,95.00,60,2,1,203,261,300,241,8e-19,93.5
Thysanorea_papuana_CBS212.96_T,SRR8224078.30848,92.31,52,4,0,206,257,295,244,3e-13,75.0
Capronia_acutiseta_ATCC56428_T,SRR8224078.41503,96.67,60,1,1,192,251,303,245,2e-20,99.0
Capronia_acutiseta_ATCC56428_T,SRR8224078.30591,100.00,52,0,0,200,251,296,245,7e-20,97.1
Capronia_acutiseta_ATCC56428_T,SRR8224078.19876,100.00,52,0,0,200,251,295,244,7e-20,97.1
Capronia_acutiseta_ATCC56428_T,SRR8224078.31560,100.00,50,0,0,203,252,195,244,9e-19,93.5
Capronia_acutiseta_ATCC56428_T,SRR8224078.31560,100.00,50,0,0,203,252,292,243,9e-19,93.5
Capronia_acutiseta_ATCC56428_T,SRR8224078.18126,96.36,55,2,0,200,254,296,242,3e-18,91.6
Capronia_acutiseta_ATCC56428_T,SRR8224078.30848,92.31,52,4,0,200,251,295,244,3e-13,75.0
Fonsecaea_brasiliensis_CBS119710_T,SRR8224078.41503,100.00,51,0,0,207,257,295,245,2e-19,95.3
Fonsecaea_brasiliensis_CBS119710_T,SRR8224078.30591,100.00,51,0,0,207,257,295,245,2e-19,95.3
Fonsecaea_brasiliensis_CBS119710_T,SRR8224078.19876,100.00,51,0,0,207,257,294,244,2e-19,95.3
Fonsecaea_brasiliensis_CBS119710_T,SRR8224078.31560,100.00,50,0,0,209,258,195,244,8e-19,93.5
Fonsecaea_brasiliensis_CBS119710_T,SRR8224078.31560,100.00,50,0,0,209,258,292,243,8e-19,93.5
Fonsecaea_brasiliensis_CBS119710_T,SRR8224078.18126,96.36,55,2,0,207,261,295,241,3e-18,91.6
Fonsecaea_brasiliensis_CBS119710_T,SRR8224078.30848,95.56,45,2,0,213,257,288,244,1e-12,73.1
Fonsecaea_pedrosoi_CBS271.37_T,SRR8224078.41503,100.00,51,0,0,235,285,295,245,3e-19,95.3
Fonsecaea_pedrosoi_CBS271.37_T,SRR8224078.30591,100.00,51,0,0,235,285,295,245,3e-19,95.3
Fonsecaea_pedrosoi_CBS271.37_T,SRR8224078.19876,100.00,51,0,0,235,285,294,244,3e-19,95.3
Fonsecaea_pedrosoi_CBS271.37_T,SRR8224078.31560,100.00,50,0,0,237,286,195,244,9e-19,93.5
Fonsecaea_pedrosoi_CBS271.37_T,SRR8224078.31560,100.00,50,0,0,237,286,292,243,9e-19,93.5
Fonsecaea_pedrosoi_CBS271.37_T,SRR8224078.31560,100.00,30,0,0,1,30,25,54,1e-07,56.5
Fonsecaea_pedrosoi_CBS271.37_T,SRR8224078.18126,96.36,55,2,0,235,289,295,241,3e-18,91.6
Fonsecaea_pedrosoi_CBS271.37_T,SRR8224078.30848,95.56,45,2,0,241,285,288,244,1e-12,73.1
Fonsecaea_pedrosoi_CBS271.37_T,SRR8224078.25358,100.00,29,0,0,1,29,25,53,4e-07,54.7
Fonsecaea_multimorphosa_CBS980.96_T,SRR8224078.41503,100.00,51,0,0,205,255,295,245,2e-19,95.3
Fonsecaea_multimorphosa_CBS980.96_T,SRR8224078.30591,100.00,51,0,0,205,255,295,245,2e-19,95.3
Fonsecaea_multimorphosa_CBS980.96_T,SRR8224078.19876,100.00,51,0,0,205,255,294,244,2e-19,95.3
Fonsecaea_multimorphosa_CBS980.96_T,SRR8224078.31560,100.00,50,0,0,207,256,195,244,8e-19,93.5
Fonsecaea_multimorphosa_CBS980.96_T,SRR8224078.31560,100.00,50,0,0,207,256,292,243,8e-19,93.5
Fonsecaea_multimorphosa_CBS980.96_T,SRR8224078.18126,96.36,55,2,0,205,259,295,241,3e-18,91.6
Fonsecaea_multimorphosa_CBS980.96_T,SRR8224078.30848,95.56,45,2,0,211,255,288,244,1e-12,73.1
Fonsecaea_minima_CBS125760_T,SRR8224078.41503,100.00,51,0,0,201,251,295,245,2e-19,95.3
Fonsecaea_minima_CBS125760_T,SRR8224078.30591,100.00,51,0,0,201,251,295,245,2e-19,95.3
Fonsecaea_minima_CBS125760_T,SRR8224078.19876,100.00,51,0,0,201,251,294,244,2e-19,95.3
Fonsecaea_minima_CBS125760_T,SRR8224078.31560,100.00,50,0,0,203,252,195,244,8e-19,93.5
Fonsecaea_minima_CBS125760_T,SRR8224078.31560,100.00,50,0,0,203,252,292,243,8e-19,93.5
Fonsecaea_minima_CBS125760_T,SRR8224078.18126,96.36,55,2,0,201,255,295,241,3e-18,91.6
Fonsecaea_minima_CBS125760_T,SRR8224078.30848,95.56,45,2,0,207,251,288,244,1e-12,73.1
Fonsecaea_nubica_CBS269.64_T,SRR8224078.41503,100.00,51,0,0,212,262,295,245,2e-19,95.3
Fonsecaea_nubica_CBS269.64_T,SRR8224078.30591,100.00,51,0,0,212,262,295,245,2e-19,95.3
Fonsecaea_nubica_CBS269.64_T,SRR8224078.19876,100.00,51,0,0,212,262,294,244,2e-19,95.3
Fonsecaea_nubica_CBS269.64_T,SRR8224078.31560,100.00,50,0,0,214,263,195,244,8e-19,93.5
Fonsecaea_nubica_CBS269.64_T,SRR8224078.31560,100.00,50,0,0,214,263,292,243,8e-19,93.5
Fonsecaea_nubica_CBS269.64_T,SRR8224078.18126,96.36,55,2,0,212,266,295,241,3e-18,91.6
Fonsecaea_nubica_CBS269.64_T,SRR8224078.30848,95.56,45,2,0,218,262,288,244,1e-12,73.1
Fonsecaea_monophora_CBS269.37_T,SRR8224078.41503,100.00,51,0,0,212,262,295,245,2e-19,95.3
Fonsecaea_monophora_CBS269.37_T,SRR8224078.30591,100.00,51,0,0,212,262,295,245,2e-19,95.3
Fonsecaea_monophora_CBS269.37_T,SRR8224078.19876,100.00,51,0,0,212,262,294,244,2e-19,95.3
Fonsecaea_monophora_CBS269.37_T,SRR8224078.31560,100.00,50,0,0,214,263,195,244,8e-19,93.5
Fonsecaea_monophora_CBS269.37_T,SRR8224078.31560,100.00,50,0,0,214,263,292,243,8e-19,93.5
Fonsecaea_monophora_CBS269.37_T,SRR8224078.18126,94.64,56,2,1,212,267,295,241,1e-16,86.1
Fonsecaea_monophora_CBS269.37_T,SRR8224078.30848,95.56,45,2,0,218,262,288,244,1e-12,73.1
Fonsecaea_erecta_CBS125763_T,SRR8224078.41503,100.00,51,0,0,196,246,295,245,2e-19,95.3
Fonsecaea_erecta_CBS125763_T,SRR8224078.30591,100.00,51,0,0,196,246,295,245,2e-19,95.3
Fonsecaea_erecta_CBS125763_T,SRR8224078.19876,100.00,51,0,0,196,246,294,244,2e-19,95.3
Fonsecaea_erecta_CBS125763_T,SRR8224078.31560,100.00,50,0,0,198,247,195,244,8e-19,93.5
Fonsecaea_erecta_CBS125763_T,SRR8224078.31560,100.00,50,0,0,198,247,292,243,8e-19,93.5
Fonsecaea_erecta_CBS125763_T,SRR8224078.18126,96.36,55,2,0,196,250,295,241,3e-18,91.6
Fonsecaea_erecta_CBS125763_T,SRR8224078.30848,95.56,45,2,0,202,246,288,244,1e-12,73.1
Fonsecaea_pugnacius_CBS139214_T,SRR8224078.41503,100.00,51,0,0,205,255,295,245,2e-19,95.3
Fonsecaea_pugnacius_CBS139214_T,SRR8224078.30591,100.00,51,0,0,205,255,295,245,2e-19,95.3
Fonsecaea_pugnacius_CBS139214_T,SRR8224078.19876,100.00,51,0,0,205,255,294,244,2e-19,95.3
Fonsecaea_pugnacius_CBS139214_T,SRR8224078.31560,100.00,50,0,0,207,256,195,244,8e-19,93.5
Fonsecaea_pugnacius_CBS139214_T,SRR8224078.31560,100.00,50,0,0,207,256,292,243,8e-19,93.5
Fonsecaea_pugnacius_CBS139214_T,SRR8224078.18126,96.36,55,2,0,205,259,295,241,3e-18,91.6
Fonsecaea_pugnacius_CBS139214_T,SRR8224078.30848,95.56,45,2,0,211,255,288,244,1e-12,73.1
Cladophialophora_psammophila_CBS,SRR8224078.41503,100.00,51,0,0,211,261,295,245,2e-19,95.3
Cladophialophora_psammophila_CBS,SRR8224078.30591,100.00,51,0,0,211,261,295,245,2e-19,95.3
Cladophialophora_psammophila_CBS,SRR8224078.19876,100.00,51,0,0,211,261,294,244,2e-19,95.3
Cladophialophora_psammophila_CBS,SRR8224078.31560,100.00,50,0,0,213,262,195,244,8e-19,93.5
Cladophialophora_psammophila_CBS,SRR8224078.31560,100.00,50,0,0,213,262,292,243,8e-19,93.5
Cladophialophora_psammophila_CBS,SRR8224078.18126,96.36,55,2,0,211,265,295,241,3e-18,91.6
Cladophialophora_psammophila_CBS,SRR8224078.30848,95.56,45,2,0,217,261,288,244,1e-12,73.1
Cladophialophora_devriesii_CBS,SRR8224078.41503,100.00,51,0,0,207,257,295,245,2e-19,95.3
Cladophialophora_devriesii_CBS,SRR8224078.30591,100.00,51,0,0,207,257,295,245,2e-19,95.3
Cladophialophora_devriesii_CBS,SRR8224078.19876,100.00,51,0,0,207,257,294,244,2e-19,95.3
Cladophialophora_devriesii_CBS,SRR8224078.31560,100.00,50,0,0,209,258,195,244,8e-19,93.5
Cladophialophora_devriesii_CBS,SRR8224078.31560,100.00,50,0,0,209,258,292,243,8e-19,93.5
Cladophialophora_devriesii_CBS,SRR8224078.18126,96.36,55,2,0,207,261,295,241,3e-18,91.6
Cladophialophora_devriesii_CBS,SRR8224078.30848,95.56,45,2,0,213,257,288,244,1e-12,73.1
Cladophialophora_immunda_CBS834.96,SRR8224078.41503,100.00,51,0,0,209,259,295,245,2e-19,95.3
Cladophialophora_immunda_CBS834.96,SRR8224078.30591,100.00,51,0,0,209,259,295,245,2e-19,95.3
Cladophialophora_immunda_CBS834.96,SRR8224078.19876,100.00,51,0,0,209,259,294,244,2e-19,95.3
Cladophialophora_immunda_CBS834.96,SRR8224078.31560,100.00,50,0,0,211,260,195,244,8e-19,93.5
Cladophialophora_immunda_CBS834.96,SRR8224078.31560,100.00,50,0,0,211,260,292,243,8e-19,93.5
Cladophialophora_immunda_CBS834.96,SRR8224078.18126,96.36,55,2,0,209,263,295,241,3e-18,91.6
Cladophialophora_immunda_CBS834.96,SRR8224078.30848,95.56,45,2,0,215,259,288,244,1e-12,73.1
Cladophialophora_arxii_CBS306.94_T,SRR8224078.41503,100.00,51,0,0,211,261,295,245,2e-19,95.3
Cladophialophora_arxii_CBS306.94_T,SRR8224078.30591,100.00,51,0,0,211,261,295,245,2e-19,95.3
Cladophialophora_arxii_CBS306.94_T,SRR8224078.19876,100.00,51,0,0,211,261,294,244,2e-19,95.3
Cladophialophora_arxii_CBS306.94_T,SRR8224078.31560,100.00,50,0,0,213,262,195,244,8e-19,93.5
Cladophialophora_arxii_CBS306.94_T,SRR8224078.31560,100.00,50,0,0,213,262,292,243,8e-19,93.5
Cladophialophora_arxii_CBS306.94_T,SRR8224078.18126,96.36,55,2,0,211,265,295,241,3e-18,91.6
Cladophialophora_arxii_CBS306.94_T,SRR8224078.30848,95.56,45,2,0,217,261,288,244,1e-12,73.1
Cladophialophora_bantiana_CBS173.52,SRR8224078.41503,100.00,51,0,0,205,255,295,245,2e-19,95.3
Cladophialophora_bantiana_CBS173.52,SRR8224078.30591,100.00,51,0,0,205,255,295,245,2e-19,95.3
Cladophialophora_bantiana_CBS173.52,SRR8224078.19876,100.00,51,0,0,205,255,294,244,2e-19,95.3
Cladophialophora_bantiana_CBS173.52,SRR8224078.31560,100.00,50,0,0,207,256,195,244,8e-19,93.5
Cladophialophora_bantiana_CBS173.52,SRR8224078.31560,100.00,50,0,0,207,256,292,243,8e-19,93.5
Cladophialophora_bantiana_CBS173.52,SRR8224078.18126,96.36,55,2,0,205,259,295,241,3e-18,91.6
Cladophialophora_bantiana_CBS173.52,SRR8224078.30848,95.56,45,2,0,211,255,288,244,1e-12,73.1
Cladophialophora_emmonsii_CBS102594,SRR8224078.41503,100.00,51,0,0,196,246,295,245,2e-19,95.3
Cladophialophora_emmonsii_CBS102594,SRR8224078.30591,100.00,51,0,0,196,246,295,245,2e-19,95.3
Cladophialophora_emmonsii_CBS102594,SRR8224078.19876,100.00,51,0,0,196,246,294,244,2e-19,95.3
Cladophialophora_emmonsii_CBS102594,SRR8224078.31560,100.00,50,0,0,198,247,195,244,8e-19,93.5
Cladophialophora_emmonsii_CBS102594,SRR8224078.31560,100.00,50,0,0,198,247,292,243,8e-19,93.5
Cladophialophora_emmonsii_CBS102594,SRR8224078.18126,96.36,55,2,0,196,250,295,241,3e-18,91.6
Cladophialophora_emmonsii_CBS102594,SRR8224078.30848,95.56,45,2,0,202,246,288,244,1e-12,73.1
Cladophialophora_minourae_CBS556.83,SRR8224078.41503,100.00,51,0,0,204,254,295,245,2e-19,95.3
Cladophialophora_minourae_CBS556.83,SRR8224078.30591,100.00,51,0,0,204,254,295,245,2e-19,95.3
Cladophialophora_minourae_CBS556.83,SRR8224078.19876,100.00,51,0,0,204,254,294,244,2e-19,95.3
Cladophialophora_minourae_CBS556.83,SRR8224078.31560,100.00,50,0,0,206,255,195,244,8e-19,93.5
Cladophialophora_minourae_CBS556.83,SRR8224078.31560,100.00,50,0,0,206,255,292,243,8e-19,93.5
Cladophialophora_minourae_CBS556.83,SRR8224078.18126,96.36,55,2,0,204,258,295,241,3e-18,91.6
Cladophialophora_minourae_CBS556.83,SRR8224078.30848,95.56,45,2,0,210,254,288,244,1e-12,73.1
Cladophialophora_australiensis_CBS112793,SRR8224078.30591,98.21,56,0,1,202,256,300,245,2e-19,97.1
Cladophialophora_australiensis_CBS112793,SRR8224078.41503,100.00,51,0,0,206,256,295,245,6e-19,95.3
Cladophialophora_australiensis_CBS112793,SRR8224078.19876,100.00,51,0,0,206,256,294,244,6e-19,95.3
Cladophialophora_australiensis_CBS112793,SRR8224078.31560,100.00,50,0,0,208,257,195,244,2e-18,93.5
Cladophialophora_australiensis_CBS112793,SRR8224078.31560,100.00,50,0,0,208,257,292,243,2e-18,93.5
Cladophialophora_australiensis_CBS112793,SRR8224078.18126,95.00,60,2,1,202,260,300,241,2e-18,93.5
Cladophialophora_australiensis_CBS112793,SRR8224078.30848,95.56,45,2,0,212,256,288,244,3e-12,73.1
Cladophialophora_potulentorum_CBS112222,SRR8224078.41503,96.67,60,1,1,196,255,303,245,5e-20,99.0
Cladophialophora_potulentorum_CBS112222,SRR8224078.30591,98.21,56,0,1,201,255,300,245,2e-19,97.1
Cladophialophora_potulentorum_CBS112222,SRR8224078.19876,100.00,52,0,0,204,255,295,244,2e-19,97.1
Cladophialophora_potulentorum_CBS112222,SRR8224078.31560,100.00,50,0,0,207,256,195,244,2e-18,93.5
Cladophialophora_potulentorum_CBS112222,SRR8224078.31560,100.00,50,0,0,207,256,292,243,2e-18,93.5
Cladophialophora_potulentorum_CBS112222,SRR8224078.18126,95.00,60,2,1,201,259,300,241,2e-18,93.5
Cladophialophora_potulentorum_CBS112222,SRR8224078.30848,92.31,52,4,0,204,255,295,244,8e-13,75.0
Cladophialophora_matsushimae_CMRP1198,SRR8224078.41503,98.33,60,0,1,200,259,303,245,3e-22,104
Cladophialophora_matsushimae_CMRP1198,SRR8224078.19876,95.45,66,2,1,194,259,308,244,3e-22,104
Cladophialophora_matsushimae_CMRP1198,SRR8224078.30591,96.67,60,1,1,200,259,303,245,1e-20,99.0
Cladophialophora_matsushimae_CMRP1198,SRR8224078.18126,93.75,64,3,1,200,263,303,241,2e-19,95.3
Cladophialophora_matsushimae_CMRP1198,SRR8224078.31560,100.00,50,0,0,211,260,195,244,7e-19,93.5
Cladophialophora_matsushimae_CMRP1198,SRR8224078.31560,100.00,50,0,0,211,260,292,243,7e-19,93.5
Cladophialophora_matsushimae_CMRP1198,SRR8224078.30848,89.23,65,5,2,195,259,306,244,5e-15,80.5
Cladophialophora_mycetomatis_CBS122637,SRR8224078.19876,95.59,68,1,2,177,244,309,244,3e-23,108
Cladophialophora_mycetomatis_CBS122637,SRR8224078.41503,98.33,60,0,1,185,244,303,245,4e-22,104
Cladophialophora_mycetomatis_CBS122637,SRR8224078.30591,96.67,60,1,1,185,244,303,245,2e-20,99.0
Cladophialophora_mycetomatis_CBS122637,SRR8224078.18126,93.75,64,3,1,185,248,303,241,2e-19,95.3
Cladophialophora_mycetomatis_CBS122637,SRR8224078.31560,100.00,50,0,0,196,245,195,244,8e-19,93.5
Cladophialophora_mycetomatis_CBS122637,SRR8224078.31560,100.00,50,0,0,196,245,292,243,8e-19,93.5
Cladophialophora_mycetomatis_CBS122637,SRR8224078.30848,89.23,65,5,2,180,244,306,244,6e-15,80.5
Cladophialophora_chaetospira_CBS127573,SRR8224078.19876,93.44,61,3,1,590,650,303,244,2e-17,89.8
Cladophialophora_chaetospira_CBS127573,SRR8224078.41503,96.15,52,2,0,599,650,296,245,2e-16,86.1
Cladophialophora_chaetospira_CBS127573,SRR8224078.30591,94.64,56,2,1,596,650,300,245,2e-16,86.1
Cladophialophora_chaetospira_CBS127573,SRR8224078.31560,97.87,47,1,0,605,651,198,244,3e-15,82.4
Cladophialophora_chaetospira_CBS127573,SRR8224078.31560,97.87,47,1,0,605,651,289,243,3e-15,82.4
Cladophialophora_chaetospira_CBS127573,SRR8224078.31560,100.00,31,0,0,379,409,24,54,5e-08,58.4
Cladophialophora_chaetospira_CBS127573,SRR8224078.18126,91.67,60,4,1,596,654,300,241,3e-15,82.4
Cladophialophora_chaetospira_CBS127573,SRR8224078.30848,100.00,36,0,0,615,650,279,244,8e-11,67.6
Cladophialophora_chaetospira_CBS127573,SRR8224078.25358,100.00,30,0,0,379,408,24,53,2e-07,56.5
Cladophialophora_boppii_CBS126.86_T,SRR8224078.30591,98.25,57,0,1,197,252,301,245,2e-20,99.0
Cladophialophora_boppii_CBS126.86_T,SRR8224078.41503,100.00,52,0,0,201,252,296,245,6e-20,97.1
Cladophialophora_boppii_CBS126.86_T,SRR8224078.19876,100.00,52,0,0,201,252,295,244,6e-20,97.1
Cladophialophora_boppii_CBS126.86_T,SRR8224078.18126,95.08,61,2,1,197,256,301,241,2e-19,95.3
Cladophialophora_boppii_CBS126.86_T,SRR8224078.31560,100.00,50,0,0,204,253,195,244,8e-19,93.5
Cladophialophora_boppii_CBS126.86_T,SRR8224078.31560,100.00,50,0,0,204,253,292,243,8e-19,93.5
Cladophialophora_boppii_CBS126.86_T,SRR8224078.30848,92.31,52,4,0,201,252,295,244,3e-13,75.0
Cladophialophora_abundans_CBS126736,SRR8224078.41503,100.00,52,0,0,138,189,296,245,5e-20,97.1
Cladophialophora_abundans_CBS126736,SRR8224078.30591,100.00,52,0,0,138,189,296,245,5e-20,97.1
Cladophialophora_abundans_CBS126736,SRR8224078.19876,100.00,52,0,0,138,189,295,244,5e-20,97.1
Cladophialophora_abundans_CBS126736,SRR8224078.31560,100.00,50,0,0,141,190,195,244,7e-19,93.5
Cladophialophora_abundans_CBS126736,SRR8224078.31560,100.00,50,0,0,141,190,292,243,7e-19,93.5
Cladophialophora_abundans_CBS126736,SRR8224078.18126,96.43,56,2,0,138,193,296,241,7e-19,93.5
Cladophialophora_abundans_CBS126736,SRR8224078.30848,92.31,52,4,0,138,189,295,244,3e-13,75.0
Capronia_semi-immersa_CBS102234,SRR8224078.41503,100.00,51,0,0,201,251,295,245,2e-19,95.3
Capronia_semi-immersa_CBS102234,SRR8224078.30591,100.00,51,0,0,201,251,295,245,2e-19,95.3
Capronia_semi-immersa_CBS102234,SRR8224078.19876,100.00,51,0,0,201,251,294,244,2e-19,95.3
Capronia_semi-immersa_CBS102234,SRR8224078.31560,100.00,50,0,0,203,252,195,244,8e-19,93.5
Capronia_semi-immersa_CBS102234,SRR8224078.31560,100.00,50,0,0,203,252,292,243,8e-19,93.5
Capronia_semi-immersa_CBS102234,SRR8224078.18126,96.36,55,2,0,201,255,295,241,3e-18,91.6
Capronia_semi-immersa_CBS102234,SRR8224078.30848,95.56,45,2,0,207,251,288,244,1e-12,73.1
Phialophora_americana_CBS400.67,SRR8224078.41503,100.00,51,0,0,203,253,295,245,6e-19,95.3
Phialophora_americana_CBS400.67,SRR8224078.30591,100.00,51,0,0,203,253,295,245,6e-19,95.3
Phialophora_americana_CBS400.67,SRR8224078.19876,100.00,51,0,0,203,253,294,244,6e-19,95.3
Phialophora_americana_CBS400.67,SRR8224078.31560,100.00,50,0,0,205,254,195,244,2e-18,93.5
Phialophora_americana_CBS400.67,SRR8224078.31560,100.00,50,0,0,205,254,292,243,2e-18,93.5
Phialophora_americana_CBS400.67,SRR8224078.18126,96.36,55,2,0,203,257,295,241,8e-18,91.6
Phialophora_americana_CBS400.67,SRR8224078.30848,95.56,45,2,0,209,253,288,244,3e-12,73.1
Phialophora_verrucosa_CBS140325_T,SRR8224078.41503,90.00,80,4,3,179,257,321,245,5e-21,100
Phialophora_verrucosa_CBS140325_T,SRR8224078.30591,100.00,51,0,0,207,257,295,245,2e-19,95.3
Phialophora_verrucosa_CBS140325_T,SRR8224078.19876,100.00,51,0,0,207,257,294,244,2e-19,95.3
Phialophora_verrucosa_CBS140325_T,SRR8224078.31560,100.00,50,0,0,209,258,195,244,9e-19,93.5
Phialophora_verrucosa_CBS140325_T,SRR8224078.31560,100.00,50,0,0,209,258,292,243,9e-19,93.5
Phialophora_verrucosa_CBS140325_T,SRR8224078.18126,96.36,55,2,0,207,261,295,241,3e-18,91.6
Phialophora_verrucosa_CBS140325_T,SRR8224078.30848,95.56,45,2,0,213,257,288,244,1e-12,73.1
Cladophialophora_samoensis_CBS259.83_T,SRR8224078.41503,100.00,51,0,0,207,257,295,245,2e-19,95.3
Cladophialophora_samoensis_CBS259.83_T,SRR8224078.30591,100.00,51,0,0,207,257,295,245,2e-19,95.3
Cladophialophora_samoensis_CBS259.83_T,SRR8224078.19876,100.00,51,0,0,207,257,294,244,2e-19,95.3
Cladophialophora_samoensis_CBS259.83_T,SRR8224078.31560,100.00,50,0,0,209,258,195,244,8e-19,93.5
Cladophialophora_samoensis_CBS259.83_T,SRR8224078.31560,100.00,50,0,0,209,258,292,243,8e-19,93.5
Cladophialophora_samoensis_CBS259.83_T,SRR8224078.18126,96.36,55,2,0,207,261,295,241,3e-18,91.6
Cladophialophora_samoensis_CBS259.83_T,SRR8224078.30848,95.56,45,2,0,213,257,288,244,1e-12,73.1
Cladophialophora_carrionii_CBS260.83,SRR8224078.41503,88.89,81,4,3,194,273,321,245,2e-19,95.3
Cladophialophora_carrionii_CBS260.83,SRR8224078.30591,100.00,51,0,0,223,273,295,245,2e-19,95.3
Cladophialophora_carrionii_CBS260.83,SRR8224078.19876,100.00,51,0,0,223,273,294,244,2e-19,95.3
Cladophialophora_carrionii_CBS260.83,SRR8224078.31560,100.00,50,0,0,225,274,195,244,9e-19,93.5
Cladophialophora_carrionii_CBS260.83,SRR8224078.31560,100.00,50,0,0,225,274,292,243,9e-19,93.5
Cladophialophora_carrionii_CBS260.83,SRR8224078.18126,96.36,55,2,0,223,277,295,241,3e-18,91.6
Cladophialophora_carrionii_CBS260.83,SRR8224078.30848,95.56,45,2,0,229,273,288,244,1e-12,73.1
Exophiala_palmae_UPCB86822_T,SRR8224078.41503,98.21,56,1,0,161,216,300,245,2e-20,99.0
Exophiala_palmae_UPCB86822_T,SRR8224078.30591,98.21,56,0,1,162,216,300,245,6e-20,97.1
Exophiala_palmae_UPCB86822_T,SRR8224078.19876,100.00,52,0,0,165,216,295,244,6e-20,97.1
Exophiala_palmae_UPCB86822_T,SRR8224078.31560,100.00,50,0,0,168,217,195,244,7e-19,93.5
Exophiala_palmae_UPCB86822_T,SRR8224078.31560,100.00,50,0,0,168,217,292,243,7e-19,93.5
Exophiala_palmae_UPCB86822_T,SRR8224078.18126,95.00,60,2,1,162,220,300,241,7e-19,93.5
Exophiala_palmae_UPCB86822_T,SRR8224078.30848,92.31,52,4,0,165,216,295,244,3e-13,75.0
Cladophialophora_yegresii_CBS114405_T,SRR8224078.41503,100.00,51,0,0,208,258,295,245,2e-19,95.3
Cladophialophora_yegresii_CBS114405_T,SRR8224078.30591,100.00,51,0,0,208,258,295,245,2e-19,95.3
Cladophialophora_yegresii_CBS114405_T,SRR8224078.19876,100.00,51,0,0,208,258,294,244,2e-19,95.3
Cladophialophora_yegresii_CBS114405_T,SRR8224078.31560,100.00,50,0,0,210,259,195,244,8e-19,93.5
Cladophialophora_yegresii_CBS114405_T,SRR8224078.31560,100.00,50,0,0,210,259,292,243,8e-19,93.5
Cladophialophora_yegresii_CBS114405_T,SRR8224078.18126,96.36,55,2,0,208,262,295,241,3e-18,91.6
Cladophialophora_yegresii_CBS114405_T,SRR8224078.30848,95.56,45,2,0,214,258,288,244,1e-12,73.1
Knufia_epidermidis_CBS120353_T,SRR8224078.41503,98.21,56,1,0,201,256,300,245,2e-20,99.0
Knufia_epidermidis_CBS120353_T,SRR8224078.30591,100.00,52,0,0,205,256,296,245,6e-20,97.1
Knufia_epidermidis_CBS120353_T,SRR8224078.19876,100.00,52,0,0,205,256,295,244,6e-20,97.1
Knufia_epidermidis_CBS120353_T,SRR8224078.31560,100.00,50,0,0,208,257,195,244,8e-19,93.5
Knufia_epidermidis_CBS120353_T,SRR8224078.31560,100.00,50,0,0,208,257,292,243,8e-19,93.5
Knufia_epidermidis_CBS120353_T,SRR8224078.18126,96.43,56,2,0,205,260,296,241,8e-19,93.5
Knufia_epidermidis_CBS120353_T,SRR8224078.30848,92.31,52,4,0,205,256,295,244,3e-13,75.0
Arthrocladium_fulminans_CBS136243_T,SRR8224078.41503,100.00,52,0,0,200,251,296,245,6e-20,97.1
Arthrocladium_fulminans_CBS136243_T,SRR8224078.30591,100.00,52,0,0,200,251,296,245,6e-20,97.1
Arthrocladium_fulminans_CBS136243_T,SRR8224078.19876,100.00,52,0,0,200,251,295,244,6e-20,97.1
Arthrocladium_fulminans_CBS136243_T,SRR8224078.31560,100.00,50,0,0,203,252,195,244,8e-19,93.5
Arthrocladium_fulminans_CBS136243_T,SRR8224078.31560,100.00,50,0,0,203,252,292,243,8e-19,93.5
Arthrocladium_fulminans_CBS136243_T,SRR8224078.18126,96.43,56,2,0,200,255,296,241,8e-19,93.5
Arthrocladium_fulminans_CBS136243_T,SRR8224078.30848,92.31,52,4,0,200,251,295,244,3e-13,75.0
Anthopsis_deltoidea_CBS263.77_T,SRR8224078.41503,100.00,51,0,0,210,260,295,245,2e-19,95.3
Anthopsis_deltoidea_CBS263.77_T,SRR8224078.30591,100.00,51,0,0,210,260,295,245,2e-19,95.3
Anthopsis_deltoidea_CBS263.77_T,SRR8224078.19876,100.00,51,0,0,210,260,294,244,2e-19,95.3
Anthopsis_deltoidea_CBS263.77_T,SRR8224078.18126,87.95,83,6,4,183,264,320,241,2e-19,95.3
Anthopsis_deltoidea_CBS263.77_T,SRR8224078.31560,100.00,50,0,0,212,261,195,244,8e-19,93.5
Anthopsis_deltoidea_CBS263.77_T,SRR8224078.31560,100.00,50,0,0,212,261,292,243,8e-19,93.5
Anthopsis_deltoidea_CBS263.77_T,SRR8224078.30848,95.56,45,2,0,216,260,288,244,1e-12,73.1
Cyphellophora_laciniata_CBS190.61_T,SRR8224078.31560,100.00,56,0,0,47,102,1,56,5e-22,104
Cyphellophora_laciniata_CBS190.61_T,SRR8224078.31560,100.00,50,0,0,297,346,195,244,1e-18,93.5
Cyphellophora_laciniata_CBS190.61_T,SRR8224078.31560,100.00,50,0,0,297,346,292,243,1e-18,93.5
Cyphellophora_laciniata_CBS190.61_T,SRR8224078.31560,94.64,56,3,0,47,102,486,431,5e-17,87.9
Cyphellophora_laciniata_CBS190.61_T,SRR8224078.41503,96.67,60,1,1,286,345,303,245,2e-20,99.0
Cyphellophora_laciniata_CBS190.61_T,SRR8224078.25358,100.00,53,0,0,47,99,1,53,2e-20,99.0
Cyphellophora_laciniata_CBS190.61_T,SRR8224078.19876,93.94,66,2,2,280,345,307,244,2e-20,99.0
Cyphellophora_laciniata_CBS190.61_T,SRR8224078.30591,100.00,52,0,0,294,345,296,245,8e-20,97.1
Cyphellophora_laciniata_CBS190.61_T,SRR8224078.18126,96.43,56,2,0,294,349,296,241,1e-18,93.5
Cyphellophora_laciniata_CBS190.61_T,SRR8224078.30848,92.31,52,4,0,294,345,295,244,4e-13,75.0
Cyphellophora_suttonii_CBS449.91,SRR8224078.19876,96.88,64,2,0,185,248,307,244,3e-23,108
Cyphellophora_suttonii_CBS449.91,SRR8224078.41503,98.31,59,1,0,190,248,303,245,4e-22,104
Cyphellophora_suttonii_CBS449.91,SRR8224078.30591,96.61,59,2,0,190,248,303,245,2e-20,99.0
Cyphellophora_suttonii_CBS449.91,SRR8224078.18126,93.65,63,4,0,190,252,303,241,2e-19,95.3
Cyphellophora_suttonii_CBS449.91,SRR8224078.31560,100.00,50,0,0,200,249,195,244,8e-19,93.5
Cyphellophora_suttonii_CBS449.91,SRR8224078.31560,100.00,50,0,0,200,249,292,243,8e-19,93.5
Cyphellophora_suttonii_CBS449.91,SRR8224078.30848,85.90,78,8,3,173,248,320,244,6e-15,80.5
Cyphellophora_pauciseptata_CBS284.85_T,SRR8224078.19876,95.31,64,3,0,196,259,307,244,1e-21,102
Cyphellophora_pauciseptata_CBS284.85_T,SRR8224078.41503,96.61,59,2,0,201,259,303,245,2e-20,99.0
Cyphellophora_pauciseptata_CBS284.85_T,SRR8224078.30591,100.00,51,0,0,209,259,295,245,2e-19,95.3
Cyphellophora_pauciseptata_CBS284.85_T,SRR8224078.31560,100.00,50,0,0,211,260,195,244,8e-19,93.5
Cyphellophora_pauciseptata_CBS284.85_T,SRR8224078.31560,100.00,50,0,0,211,260,292,243,8e-19,93.5
Cyphellophora_pauciseptata_CBS284.85_T,SRR8224078.18126,96.36,55,2,0,209,263,295,241,3e-18,91.6
Cyphellophora_pauciseptata_CBS284.85_T,SRR8224078.30848,84.62,78,9,3,184,259,320,244,3e-13,75.0
Cyphellophora_pluriseptata_CBS286.85_T,SRR8224078.41503,95.00,60,2,1,205,264,303,245,8e-19,93.5
Cyphellophora_pluriseptata_CBS286.85_T,SRR8224078.19876,92.54,67,2,2,201,264,310,244,8e-19,93.5
Cyphellophora_pluriseptata_CBS286.85_T,SRR8224078.30591,98.08,52,1,0,213,264,296,245,3e-18,91.6
Cyphellophora_pluriseptata_CBS286.85_T,SRR8224078.31560,98.00,50,1,0,216,265,195,244,4e-17,87.9
Cyphellophora_pluriseptata_CBS286.85_T,SRR8224078.31560,98.00,50,1,0,216,265,292,243,4e-17,87.9
Phialophora_europaea_CBS101466,SRR8224078.19876,95.45,66,1,1,189,254,307,244,4e-22,104
Phialophora_europaea_CBS101466,SRR8224078.41503,98.21,56,1,0,199,254,300,245,2e-20,99.0
Phialophora_europaea_CBS101466,SRR8224078.31560,98.15,54,1,0,202,255,191,244,2e-19,95.3
Phialophora_europaea_CBS101466,SRR8224078.31560,98.15,54,1,0,202,255,296,243,2e-19,95.3
Phialophora_europaea_CBS101466,SRR8224078.30591,100.00,51,0,0,204,254,295,245,2e-19,95.3
Phialophora_europaea_CBS101466,SRR8224078.18126,96.36,55,2,0,204,258,295,241,3e-18,91.6
Phialophora_europaea_CBS101466,SRR8224078.30848,90.91,55,5,0,200,254,298,244,3e-13,75.0
Phialophora_ambigua_CBS235.93,SRR8224078.41503,98.31,59,1,0,193,251,303,245,4e-22,104
Phialophora_ambigua_CBS235.93,SRR8224078.19876,95.38,65,2,1,187,251,307,244,1e-21,102
Phialophora_ambigua_CBS235.93,SRR8224078.30591,96.61,59,2,0,193,251,303,245,2e-20,99.0
Phialophora_ambigua_CBS235.93,SRR8224078.18126,93.65,63,4,0,193,255,303,241,2e-19,95.3
Phialophora_ambigua_CBS235.93,SRR8224078.31560,100.00,50,0,0,203,252,195,244,8e-19,93.5
Phialophora_ambigua_CBS235.93,SRR8224078.31560,100.00,50,0,0,203,252,292,243,8e-19,93.5
Phialophora_ambigua_CBS235.93,SRR8224078.30848,89.83,59,6,0,193,251,302,244,8e-14,76.8
Cladophialophora_modesta_CBS985.96_T,SRR8224078.41503,98.21,56,1,0,193,248,300,245,2e-20,99.0
Cladophialophora_modesta_CBS985.96_T,SRR8224078.30591,100.00,52,0,0,197,248,296,245,7e-20,97.1
Cladophialophora_modesta_CBS985.96_T,SRR8224078.19876,100.00,52,0,0,197,248,295,244,7e-20,97.1
Cladophialophora_modesta_CBS985.96_T,SRR8224078.31560,100.00,50,0,0,200,249,195,244,9e-19,93.5
Cladophialophora_modesta_CBS985.96_T,SRR8224078.31560,100.00,50,0,0,200,249,292,243,9e-19,93.5
Cladophialophora_modesta_CBS985.96_T,SRR8224078.18126,96.43,56,2,0,197,252,296,241,9e-19,93.5
Cladophialophora_modesta_CBS985.96_T,SRR8224078.30848,92.31,52,4,0,197,248,295,244,3e-13,75.0
Cyphellophora_fusarioides_MUCL44033_T,SRR8224078.19876,95.38,65,2,1,183,247,307,244,1e-21,102
Cyphellophora_fusarioides_MUCL44033_T,SRR8224078.41503,96.67,60,1,1,188,247,303,245,2e-20,99.0
Cyphellophora_fusarioides_MUCL44033_T,SRR8224078.30591,100.00,52,0,0,196,247,296,245,6e-20,97.1
Cyphellophora_fusarioides_MUCL44033_T,SRR8224078.31560,100.00,50,0,0,199,248,195,244,8e-19,93.5
Cyphellophora_fusarioides_MUCL44033_T,SRR8224078.31560,100.00,50,0,0,199,248,292,243,8e-19,93.5
Cyphellophora_fusarioides_MUCL44033_T,SRR8224078.18126,96.43,56,2,0,196,251,296,241,8e-19,93.5
Cyphellophora_fusarioides_MUCL44033_T,SRR8224078.30848,84.81,79,8,4,171,247,320,244,8e-14,76.8
