Exophiala_dermatitidis_CBS748.88,DRR164245.206919,98.53,136,2,0,1369,1504,1,136,2e-61,241
Exophiala_dermatitidis_CBS748.88,DRR164245.2367637,89.80,147,13,2,1359,1504,169,24,3e-45,187
Exophiala_dermatitidis_CBS748.88,DRR164245.1246415,93.02,43,3,0,1213,1255,57,99,5e-08,63.9
Cladophialophora_australiensis_CBS112793,DRR164245.206919,98.53,136,2,0,1336,1471,1,136,2e-61,241
Cladophialophora_australiensis_CBS112793,DRR164245.2367637,89.80,147,13,2,1326,1471,169,24,3e-45,187
Cladophialophora_australiensis_CBS112793,DRR164245.1246415,100.00,30,0,0,1180,1209,57,86,7e-06,56.5
Cladophialophora_potulentorum_CBS112222,DRR164245.206919,98.08,156,3,0,1338,1493,1,156,7e-71,272
Cladophialophora_potulentorum_CBS112222,DRR164245.2367637,90.12,162,14,2,1328,1488,169,9,5e-52,209
Cladophialophora_potulentorum_CBS112222,DRR164245.1246415,90.70,43,4,0,1182,1224,57,99,2e-06,58.4
Phialophora_americana_CBS400.67,DRR164245.206919,98.28,116,2,0,1330,1445,1,116,2e-50,204
Phialophora_americana_CBS400.67,DRR164245.2367637,88.19,127,13,2,1320,1445,169,44,3e-34,150
Phialophora_americana_CBS400.67,DRR164245.1246415,93.02,43,3,0,1174,1216,57,99,4e-08,63.9
