SONDA_E_E_xenobiotica,SRR11058363.53651,100.00,37,0,0,1,37,195,159,7e-13,69.4
SONDA_E_E_xenobiotica,SRR11058363.53651,100.00,37,0,0,1,37,413,449,7e-13,69.4
SONDA_E_E_xenobiotica,SRR11058363.48179,100.00,37,0,0,1,37,195,159,7e-13,69.4
SONDA_E_E_xenobiotica,SRR11058363.48179,100.00,37,0,0,1,37,413,449,7e-13,69.4
SONDA_E_E_xenobiotica,SRR11058363.39620,100.00,37,0,0,1,37,195,159,7e-13,69.4
SONDA_E_E_xenobiotica,SRR11058363.39620,100.00,37,0,0,1,37,413,449,7e-13,69.4
SONDA_E_E_xenobiotica,SRR11058363.18955,100.00,37,0,0,1,37,195,159,7e-13,69.4
SONDA_E_E_xenobiotica,SRR11058363.18955,100.00,37,0,0,1,37,413,449,7e-13,69.4
SONDA_E_E_xenobiotica,SRR11058363.48937,100.00,34,0,0,1,34,198,165,3e-11,63.9
SONDA_E_E_xenobiotica,SRR11058363.48937,100.00,34,0,0,1,34,412,445,3e-11,63.9
