SONDA_E_E_xenobiotica,SRR11058349.36389,100.00,37,0,0,1,37,195,159,1e-12,69.4
SONDA_E_E_xenobiotica,SRR11058349.109436,100.00,34,0,0,1,34,197,164,6e-11,63.9
SONDA_E_E_xenobiotica,SRR11058349.109436,100.00,34,0,0,1,34,414,447,6e-11,63.9
SONDA_E_E_xenobiotica,SRR11058349.91934,97.30,37,1,0,1,37,199,163,6e-11,63.9
SONDA_E_E_xenobiotica,SRR11058349.91934,97.30,37,1,0,1,37,415,451,6e-11,63.9
SONDA_E_E_xenobiotica,SRR11058349.70670,97.30,37,1,0,1,37,199,163,6e-11,63.9
SONDA_E_E_xenobiotica,SRR11058349.70670,97.30,37,1,0,1,37,415,451,6e-11,63.9
