Exophiala_pisciphila_CBS,SRR3124631.16374,100.00,39,0,0,1,39,469,507,2e-14,73.1
Exophiala_pisciphila_CBS,SRR3124631.15015,100.00,37,0,0,1,37,469,505,3e-13,69.4
Exophiala_pisciphila_CBS,SRR3124631.7614,100.00,37,0,0,1,37,469,505,3e-13,69.4
Exophiala_pisciphila_CBS,SRR3124631.5471,100.00,37,0,0,1,37,468,504,3e-13,69.4
Exophiala_pisciphila_CBS,SRR3124631.3980,100.00,37,0,0,1,37,468,504,3e-13,69.4
Exophiala_pisciphila_CBS,SRR3124631.1187,100.00,37,0,0,1,37,468,504,3e-13,69.4
Veronaea_compacta_CBS268.75T,SRR3124631.17664,97.37,38,1,0,1,38,469,506,4e-12,65.8
Veronaea_compacta_CBS268.75T,SRR3124631.17206,97.37,38,1,0,1,38,468,505,4e-12,65.8
Veronaea_compacta_CBS268.75T,SRR3124631.17071,97.37,38,1,0,1,38,465,502,4e-12,65.8
Veronaea_compacta_CBS268.75T,SRR3124631.16157,97.37,38,1,0,1,38,465,502,4e-12,65.8
Veronaea_compacta_CBS268.75T,SRR3124631.15860,97.37,38,1,0,1,38,467,504,4e-12,65.8
Veronaea_compacta_CBS268.75T,SRR3124631.15749,97.37,38,1,0,1,38,461,498,4e-12,65.8
Veronaea_compacta_CBS268.75T,SRR3124631.15647,97.37,38,1,0,1,38,467,504,4e-12,65.8
Veronaea_compacta_CBS268.75T,SRR3124631.15283,97.37,38,1,0,1,38,466,503,4e-12,65.8
Veronaea_compacta_CBS268.75T,SRR3124631.14631,97.37,38,1,0,1,38,466,503,4e-12,65.8
Veronaea_compacta_CBS268.75T,SRR3124631.14574,97.37,38,1,0,1,38,467,504,4e-12,65.8
Veronaea_compacta_CBS268.75T,SRR3124631.13355,97.37,38,1,0,1,38,467,504,4e-12,65.8
Veronaea_compacta_CBS268.75T,SRR3124631.12345,97.37,38,1,0,1,38,467,504,4e-12,65.8
Veronaea_compacta_CBS268.75T,SRR3124631.11240,97.37,38,1,0,1,38,463,500,4e-12,65.8
Veronaea_compacta_CBS268.75T,SRR3124631.10892,97.37,38,1,0,1,38,465,502,4e-12,65.8
Veronaea_compacta_CBS268.75T,SRR3124631.8082,97.37,38,1,0,1,38,466,503,4e-12,65.8
Veronaea_compacta_CBS268.75T,SRR3124631.7376,97.37,38,1,0,1,38,465,502,4e-12,65.8
Veronaea_compacta_CBS268.75T,SRR3124631.7258,97.37,38,1,0,1,38,465,502,4e-12,65.8
Veronaea_compacta_CBS268.75T,SRR3124631.5634,97.37,38,1,0,1,38,466,503,4e-12,65.8
Veronaea_compacta_CBS268.75T,SRR3124631.5375,97.37,38,1,0,1,38,466,503,4e-12,65.8
Veronaea_compacta_CBS268.75T,SRR3124631.5003,97.37,38,1,0,1,38,464,501,4e-12,65.8
Veronaea_compacta_CBS268.75T,SRR3124631.3999,97.37,38,1,0,1,38,465,502,4e-12,65.8
Veronaea_compacta_CBS268.75T,SRR3124631.3819,97.37,38,1,0,1,38,466,503,4e-12,65.8
Veronaea_compacta_CBS268.75T,SRR3124631.1417,97.37,38,1,0,1,38,464,501,4e-12,65.8
Veronaea_compacta_CBS268.75T,SRR3124631.15837,97.22,36,1,0,1,36,466,501,5e-11,62.1
Veronaea_compacta_CBS268.75T,SRR3124631.13279,97.22,36,1,0,1,36,463,498,5e-11,62.1
Veronaea_compacta_CBS268.75T,SRR3124631.11334,97.22,36,1,0,1,36,466,501,5e-11,62.1
Veronaea_compacta_CBS268.75T,SRR3124631.11063,97.22,36,1,0,1,36,464,499,5e-11,62.1
Veronaea_compacta_CBS268.75T,SRR3124631.10067,97.22,36,1,0,1,36,466,501,5e-11,62.1
Veronaea_compacta_CBS268.75T,SRR3124631.9853,97.22,36,1,0,1,36,465,500,5e-11,62.1
Veronaea_compacta_CBS268.75T,SRR3124631.9028,97.22,36,1,0,1,36,466,501,5e-11,62.1
Veronaea_compacta_CBS268.75T,SRR3124631.6344,97.22,36,1,0,1,36,467,502,5e-11,62.1
Veronaea_compacta_CBS268.75T,SRR3124631.4801,97.22,36,1,0,1,36,465,500,5e-11,62.1
Veronaea_compacta_CBS268.75T,SRR3124631.1022,97.22,36,1,0,1,36,465,500,5e-11,62.1
