Exophiala_equina_1_CBS119.23T,SRR1502530.116,100.00,38,0,0,1,38,245,208,2e-14,71.3
Exophiala_equina_3_CBS122270,SRR1502530.5500,100.00,38,0,0,1,38,245,208,2e-14,71.3
Exophiala_equina_3_CBS122270,SRR1502530.5482,100.00,38,0,0,1,38,245,208,2e-14,71.3
Exophiala_equina_3_CBS122270,SRR1502530.5473,100.00,38,0,0,1,38,245,208,2e-14,71.3
Exophiala_equina_3_CBS122270,SRR1502530.5466,100.00,38,0,0,1,38,245,208,2e-14,71.3
Exophiala_equina_3_CBS122270,SRR1502530.5458,100.00,38,0,0,1,38,184,221,2e-14,71.3
Exophiala_equina_3_CBS122270,SRR1502530.5413,100.00,38,0,0,1,38,245,208,2e-14,71.3
Exophiala_equina_3_CBS122270,SRR1502530.5385,100.00,38,0,0,1,38,245,208,2e-14,71.3
Exophiala_equina_3_CBS122270,SRR1502530.5323,100.00,38,0,0,1,38,184,221,2e-14,71.3
Exophiala_equina_3_CBS122270,SRR1502530.5289,100.00,38,0,0,1,38,184,221,2e-14,71.3
Exophiala_equina_3_CBS122270,SRR1502530.5266,100.00,38,0,0,1,38,184,221,2e-14,71.3
Exophiala_equina_3_CBS122270,SRR1502530.5265,100.00,38,0,0,1,38,245,208,2e-14,71.3
Exophiala_equina_3_CBS122270,SRR1502530.5145,100.00,38,0,0,1,38,245,208,2e-14,71.3
Exophiala_equina_3_CBS122270,SRR1502530.5128,100.00,38,0,0,1,38,184,221,2e-14,71.3
Exophiala_equina_3_CBS122270,SRR1502530.5106,100.00,38,0,0,1,38,184,221,2e-14,71.3
Exophiala_equina_3_CBS122270,SRR1502530.5046,100.00,38,0,0,1,38,184,221,2e-14,71.3
Exophiala_equina_3_CBS122270,SRR1502530.5038,100.00,38,0,0,1,38,184,221,2e-14,71.3
Exophiala_equina_3_CBS122270,SRR1502530.5014,100.00,38,0,0,1,38,185,222,2e-14,71.3
Exophiala_equina_3_CBS122270,SRR1502530.4971,100.00,38,0,0,1,38,184,221,2e-14,71.3
Exophiala_equina_3_CBS122270,SRR1502530.4888,100.00,38,0,0,1,38,184,221,2e-14,71.3
Exophiala_equina_3_CBS122270,SRR1502530.4882,100.00,38,0,0,1,38,183,220,2e-14,71.3
Exophiala_equina_3_CBS122270,SRR1502530.4792,100.00,38,0,0,1,38,245,208,2e-14,71.3
Exophiala_equina_3_CBS122270,SRR1502530.4720,100.00,38,0,0,1,38,245,208,2e-14,71.3
Exophiala_equina_3_CBS122270,SRR1502530.4712,100.00,38,0,0,1,38,245,208,2e-14,71.3
Exophiala_equina_3_CBS122270,SRR1502530.4692,100.00,38,0,0,1,38,184,221,2e-14,71.3
Exophiala_equina_3_CBS122270,SRR1502530.4662,100.00,38,0,0,1,38,181,218,2e-14,71.3
Exophiala_equina_3_CBS122270,SRR1502530.4595,100.00,38,0,0,1,38,245,208,2e-14,71.3
Exophiala_equina_3_CBS122270,SRR1502530.4577,100.00,38,0,0,1,38,184,221,2e-14,71.3
Exophiala_equina_3_CBS122270,SRR1502530.4572,100.00,38,0,0,1,38,184,221,2e-14,71.3
Exophiala_equina_3_CBS122270,SRR1502530.4550,100.00,38,0,0,1,38,184,221,2e-14,71.3
Exophiala_equina_3_CBS122270,SRR1502530.4490,100.00,38,0,0,1,38,245,208,2e-14,71.3
Exophiala_equina_3_CBS122270,SRR1502530.4455,100.00,38,0,0,1,38,172,209,2e-14,71.3
Exophiala_equina_3_CBS122270,SRR1502530.4451,100.00,38,0,0,1,38,245,208,2e-14,71.3
Exophiala_equina_3_CBS122270,SRR1502530.4435,100.00,38,0,0,1,38,184,221,2e-14,71.3
Exophiala_equina_3_CBS122270,SRR1502530.4425,100.00,38,0,0,1,38,184,221,2e-14,71.3
Exophiala_equina_3_CBS122270,SRR1502530.4406,100.00,38,0,0,1,38,183,220,2e-14,71.3
Exophiala_equina_3_CBS122270,SRR1502530.4399,100.00,38,0,0,1,38,184,221,2e-14,71.3
Exophiala_equina_3_CBS122270,SRR1502530.4391,100.00,38,0,0,1,38,181,218,2e-14,71.3
Exophiala_equina_3_CBS122270,SRR1502530.4376,100.00,38,0,0,1,38,184,221,2e-14,71.3
Exophiala_equina_3_CBS122270,SRR1502530.4371,100.00,38,0,0,1,38,245,208,2e-14,71.3
Exophiala_equina_3_CBS122270,SRR1502530.4341,100.00,38,0,0,1,38,184,221,2e-14,71.3
Exophiala_equina_3_CBS122270,SRR1502530.4337,100.00,38,0,0,1,38,245,208,2e-14,71.3
Exophiala_equina_3_CBS122270,SRR1502530.4327,100.00,38,0,0,1,38,245,208,2e-14,71.3
Exophiala_equina_3_CBS122270,SRR1502530.4321,100.00,38,0,0,1,38,245,208,2e-14,71.3
Exophiala_equina_3_CBS122270,SRR1502530.4313,100.00,38,0,0,1,38,184,221,2e-14,71.3
Exophiala_equina_3_CBS122270,SRR1502530.4288,100.00,38,0,0,1,38,184,221,2e-14,71.3
Exophiala_equina_3_CBS122270,SRR1502530.4231,100.00,38,0,0,1,38,245,208,2e-14,71.3
Exophiala_equina_3_CBS122270,SRR1502530.4219,100.00,38,0,0,1,38,183,220,2e-14,71.3
Exophiala_equina_3_CBS122270,SRR1502530.4207,100.00,38,0,0,1,38,185,222,2e-14,71.3
Exophiala_equina_3_CBS122270,SRR1502530.4173,100.00,38,0,0,1,38,245,208,2e-14,71.3
Exophiala_equina_3_CBS122270,SRR1502530.4167,100.00,38,0,0,1,38,184,221,2e-14,71.3
Exophiala_equina_3_CBS122270,SRR1502530.4163,100.00,38,0,0,1,38,245,208,2e-14,71.3
Exophiala_equina_3_CBS122270,SRR1502530.4153,100.00,38,0,0,1,38,185,222,2e-14,71.3
Exophiala_equina_3_CBS122270,SRR1502530.4140,100.00,38,0,0,1,38,245,208,2e-14,71.3
Exophiala_equina_3_CBS122270,SRR1502530.4137,100.00,38,0,0,1,38,184,221,2e-14,71.3
Exophiala_equina_3_CBS122270,SRR1502530.4116,100.00,38,0,0,1,38,184,221,2e-14,71.3
Exophiala_equina_3_CBS122270,SRR1502530.4106,100.00,38,0,0,1,38,245,208,2e-14,71.3
Exophiala_equina_3_CBS122270,SRR1502530.4083,100.00,38,0,0,1,38,184,221,2e-14,71.3
Exophiala_equina_3_CBS122270,SRR1502530.4077,100.00,38,0,0,1,38,183,220,2e-14,71.3
Exophiala_equina_3_CBS122270,SRR1502530.4070,100.00,38,0,0,1,38,184,221,2e-14,71.3
Exophiala_equina_3_CBS122270,SRR1502530.4028,100.00,38,0,0,1,38,245,208,2e-14,71.3
Exophiala_equina_3_CBS122270,SRR1502530.4006,100.00,38,0,0,1,38,245,208,2e-14,71.3
Exophiala_equina_3_CBS122270,SRR1502530.4001,100.00,38,0,0,1,38,182,219,2e-14,71.3
Exophiala_equina_3_CBS122270,SRR1502530.3988,100.00,38,0,0,1,38,245,208,2e-14,71.3
Exophiala_equina_3_CBS122270,SRR1502530.3935,100.00,38,0,0,1,38,245,208,2e-14,71.3
Exophiala_equina_3_CBS122270,SRR1502530.3914,100.00,38,0,0,1,38,245,208,2e-14,71.3
Exophiala_equina_3_CBS122270,SRR1502530.3903,100.00,38,0,0,1,38,184,221,2e-14,71.3
Exophiala_equina_3_CBS122270,SRR1502530.3894,100.00,38,0,0,1,38,184,221,2e-14,71.3
Exophiala_equina_3_CBS122270,SRR1502530.3878,100.00,38,0,0,1,38,245,208,2e-14,71.3
Exophiala_equina_3_CBS122270,SRR1502530.3823,100.00,38,0,0,1,38,245,208,2e-14,71.3
Exophiala_equina_3_CBS122270,SRR1502530.3811,100.00,38,0,0,1,38,245,208,2e-14,71.3
Exophiala_equina_3_CBS122270,SRR1502530.3802,100.00,38,0,0,1,38,245,208,2e-14,71.3
Exophiala_equina_3_CBS122270,SRR1502530.3789,100.00,38,0,0,1,38,245,208,2e-14,71.3
Exophiala_equina_3_CBS122270,SRR1502530.3779,100.00,38,0,0,1,38,245,208,2e-14,71.3
Exophiala_equina_3_CBS122270,SRR1502530.3757,100.00,38,0,0,1,38,184,221,2e-14,71.3
Exophiala_equina_3_CBS122270,SRR1502530.3729,100.00,38,0,0,1,38,184,221,2e-14,71.3
Exophiala_equina_3_CBS122270,SRR1502530.3696,100.00,38,0,0,1,38,184,221,2e-14,71.3
Exophiala_equina_3_CBS122270,SRR1502530.3684,100.00,38,0,0,1,38,183,220,2e-14,71.3
Exophiala_equina_3_CBS122270,SRR1502530.3668,100.00,38,0,0,1,38,184,221,2e-14,71.3
Exophiala_equina_3_CBS122270,SRR1502530.3661,100.00,38,0,0,1,38,184,221,2e-14,71.3
Exophiala_equina_3_CBS122270,SRR1502530.3594,100.00,38,0,0,1,38,184,221,2e-14,71.3
Exophiala_equina_3_CBS122270,SRR1502530.3593,100.00,38,0,0,1,38,179,216,2e-14,71.3
Exophiala_equina_3_CBS122270,SRR1502530.3581,100.00,38,0,0,1,38,184,221,2e-14,71.3
Exophiala_equina_3_CBS122270,SRR1502530.3576,100.00,38,0,0,1,38,245,208,2e-14,71.3
Exophiala_equina_3_CBS122270,SRR1502530.3564,100.00,38,0,0,1,38,245,208,2e-14,71.3
Exophiala_equina_3_CBS122270,SRR1502530.3563,100.00,38,0,0,1,38,184,221,2e-14,71.3
Exophiala_equina_3_CBS122270,SRR1502530.3512,100.00,38,0,0,1,38,184,221,2e-14,71.3
Exophiala_equina_3_CBS122270,SRR1502530.3483,100.00,38,0,0,1,38,184,221,2e-14,71.3
Exophiala_equina_3_CBS122270,SRR1502530.3478,100.00,38,0,0,1,38,245,208,2e-14,71.3
Exophiala_equina_3_CBS122270,SRR1502530.3414,100.00,38,0,0,1,38,172,209,2e-14,71.3
Exophiala_equina_3_CBS122270,SRR1502530.3385,100.00,38,0,0,1,38,184,221,2e-14,71.3
Exophiala_equina_3_CBS122270,SRR1502530.3356,100.00,38,0,0,1,38,184,221,2e-14,71.3
Exophiala_equina_3_CBS122270,SRR1502530.3347,100.00,38,0,0,1,38,245,208,2e-14,71.3
Exophiala_equina_3_CBS122270,SRR1502530.3329,100.00,38,0,0,1,38,245,208,2e-14,71.3
Exophiala_equina_3_CBS122270,SRR1502530.3325,100.00,38,0,0,1,38,245,208,2e-14,71.3
Exophiala_equina_3_CBS122270,SRR1502530.3315,100.00,38,0,0,1,38,184,221,2e-14,71.3
Exophiala_equina_3_CBS122270,SRR1502530.3307,100.00,38,0,0,1,38,184,221,2e-14,71.3
Exophiala_equina_3_CBS122270,SRR1502530.3234,100.00,38,0,0,1,38,184,221,2e-14,71.3
Exophiala_equina_3_CBS122270,SRR1502530.3233,100.00,38,0,0,1,38,183,220,2e-14,71.3
Exophiala_equina_3_CBS122270,SRR1502530.3205,100.00,38,0,0,1,38,184,221,2e-14,71.3
Exophiala_equina_3_CBS122270,SRR1502530.3194,100.00,38,0,0,1,38,184,221,2e-14,71.3
Exophiala_equina_3_CBS122270,SRR1502530.3148,100.00,38,0,0,1,38,183,220,2e-14,71.3
Exophiala_equina_3_CBS122270,SRR1502530.3144,100.00,38,0,0,1,38,245,208,2e-14,71.3
Exophiala_equina_3_CBS122270,SRR1502530.3081,100.00,38,0,0,1,38,184,221,2e-14,71.3
Exophiala_equina_3_CBS122270,SRR1502530.3070,100.00,38,0,0,1,38,184,221,2e-14,71.3
Exophiala_equina_3_CBS122270,SRR1502530.3067,100.00,38,0,0,1,38,245,208,2e-14,71.3
Exophiala_equina_3_CBS122270,SRR1502530.3041,100.00,38,0,0,1,38,184,221,2e-14,71.3
Exophiala_equina_3_CBS122270,SRR1502530.3008,100.00,38,0,0,1,38,183,220,2e-14,71.3
Exophiala_equina_3_CBS122270,SRR1502530.2929,100.00,38,0,0,1,38,184,221,2e-14,71.3
Exophiala_equina_3_CBS122270,SRR1502530.2909,100.00,38,0,0,1,38,245,208,2e-14,71.3
Exophiala_equina_3_CBS122270,SRR1502530.2903,100.00,38,0,0,1,38,178,215,2e-14,71.3
Exophiala_equina_3_CBS122270,SRR1502530.2894,100.00,38,0,0,1,38,245,208,2e-14,71.3
Exophiala_equina_3_CBS122270,SRR1502530.2867,100.00,38,0,0,1,38,245,208,2e-14,71.3
Exophiala_equina_3_CBS122270,SRR1502530.2860,100.00,38,0,0,1,38,184,221,2e-14,71.3
Exophiala_equina_3_CBS122270,SRR1502530.2819,100.00,38,0,0,1,38,184,221,2e-14,71.3
Exophiala_equina_3_CBS122270,SRR1502530.2817,100.00,38,0,0,1,38,184,221,2e-14,71.3
Exophiala_equina_3_CBS122270,SRR1502530.2785,100.00,38,0,0,1,38,245,208,2e-14,71.3
Exophiala_equina_3_CBS122270,SRR1502530.2773,100.00,38,0,0,1,38,245,208,2e-14,71.3
Exophiala_equina_3_CBS122270,SRR1502530.2744,100.00,38,0,0,1,38,184,221,2e-14,71.3
Exophiala_equina_3_CBS122270,SRR1502530.2721,100.00,38,0,0,1,38,184,221,2e-14,71.3
Exophiala_equina_3_CBS122270,SRR1502530.2716,100.00,38,0,0,1,38,184,221,2e-14,71.3
Exophiala_equina_3_CBS122270,SRR1502530.2685,100.00,38,0,0,1,38,184,221,2e-14,71.3
Exophiala_equina_3_CBS122270,SRR1502530.2663,100.00,38,0,0,1,38,184,221,2e-14,71.3
Exophiala_equina_3_CBS122270,SRR1502530.2662,100.00,38,0,0,1,38,184,221,2e-14,71.3
Exophiala_equina_3_CBS122270,SRR1502530.2650,100.00,38,0,0,1,38,184,221,2e-14,71.3
Exophiala_equina_3_CBS122270,SRR1502530.2592,100.00,38,0,0,1,38,184,221,2e-14,71.3
Exophiala_equina_3_CBS122270,SRR1502530.2580,100.00,38,0,0,1,38,245,208,2e-14,71.3
Exophiala_equina_3_CBS122270,SRR1502530.2570,100.00,38,0,0,1,38,184,221,2e-14,71.3
Exophiala_equina_3_CBS122270,SRR1502530.2521,100.00,38,0,0,1,38,181,218,2e-14,71.3
Exophiala_equina_3_CBS122270,SRR1502530.2495,100.00,38,0,0,1,38,245,208,2e-14,71.3
Exophiala_equina_3_CBS122270,SRR1502530.2452,100.00,38,0,0,1,38,184,221,2e-14,71.3
Exophiala_equina_3_CBS122270,SRR1502530.2411,100.00,38,0,0,1,38,183,220,2e-14,71.3
Exophiala_equina_3_CBS122270,SRR1502530.2385,100.00,38,0,0,1,38,184,221,2e-14,71.3
Exophiala_equina_3_CBS122270,SRR1502530.2335,100.00,38,0,0,1,38,245,208,2e-14,71.3
Exophiala_equina_3_CBS122270,SRR1502530.2328,100.00,38,0,0,1,38,245,208,2e-14,71.3
Exophiala_equina_3_CBS122270,SRR1502530.2283,100.00,38,0,0,1,38,184,221,2e-14,71.3
Exophiala_equina_3_CBS122270,SRR1502530.2280,100.00,38,0,0,1,38,184,221,2e-14,71.3
Exophiala_equina_3_CBS122270,SRR1502530.2203,100.00,38,0,0,1,38,184,221,2e-14,71.3
Exophiala_equina_3_CBS122270,SRR1502530.2202,100.00,38,0,0,1,38,184,221,2e-14,71.3
Exophiala_equina_3_CBS122270,SRR1502530.2195,100.00,38,0,0,1,38,245,208,2e-14,71.3
Exophiala_equina_3_CBS122270,SRR1502530.2126,100.00,38,0,0,1,38,245,208,2e-14,71.3
Exophiala_equina_3_CBS122270,SRR1502530.2115,100.00,38,0,0,1,38,245,208,2e-14,71.3
Exophiala_equina_3_CBS122270,SRR1502530.2110,100.00,38,0,0,1,38,184,221,2e-14,71.3
Exophiala_equina_3_CBS122270,SRR1502530.2072,100.00,38,0,0,1,38,184,221,2e-14,71.3
Exophiala_equina_3_CBS122270,SRR1502530.2051,100.00,38,0,0,1,38,245,208,2e-14,71.3
Exophiala_equina_3_CBS122270,SRR1502530.2027,100.00,38,0,0,1,38,184,221,2e-14,71.3
Exophiala_equina_3_CBS122270,SRR1502530.2022,100.00,38,0,0,1,38,184,221,2e-14,71.3
Exophiala_equina_3_CBS122270,SRR1502530.1948,100.00,38,0,0,1,38,245,208,2e-14,71.3
Exophiala_equina_3_CBS122270,SRR1502530.1922,100.00,38,0,0,1,38,246,209,2e-14,71.3
Exophiala_equina_3_CBS122270,SRR1502530.1907,100.00,38,0,0,1,38,245,208,2e-14,71.3
Exophiala_equina_3_CBS122270,SRR1502530.1894,100.00,38,0,0,1,38,245,208,2e-14,71.3
Exophiala_equina_3_CBS122270,SRR1502530.1892,100.00,38,0,0,1,38,172,209,2e-14,71.3
Exophiala_equina_3_CBS122270,SRR1502530.1867,100.00,38,0,0,1,38,183,220,2e-14,71.3
Exophiala_equina_3_CBS122270,SRR1502530.1862,100.00,38,0,0,1,38,184,221,2e-14,71.3
Exophiala_equina_3_CBS122270,SRR1502530.1857,100.00,38,0,0,1,38,184,221,2e-14,71.3
Exophiala_equina_3_CBS122270,SRR1502530.1812,100.00,38,0,0,1,38,183,220,2e-14,71.3
Exophiala_equina_3_CBS122270,SRR1502530.1797,100.00,38,0,0,1,38,184,221,2e-14,71.3
Exophiala_equina_3_CBS122270,SRR1502530.1792,100.00,38,0,0,1,38,245,208,2e-14,71.3
Exophiala_equina_3_CBS122270,SRR1502530.1788,100.00,38,0,0,1,38,184,221,2e-14,71.3
Exophiala_equina_3_CBS122270,SRR1502530.1786,100.00,38,0,0,1,38,245,208,2e-14,71.3
Exophiala_equina_3_CBS122270,SRR1502530.1767,100.00,38,0,0,1,38,245,208,2e-14,71.3
Exophiala_equina_3_CBS122270,SRR1502530.1764,100.00,38,0,0,1,38,245,208,2e-14,71.3
Exophiala_equina_3_CBS122270,SRR1502530.1750,100.00,38,0,0,1,38,245,208,2e-14,71.3
Exophiala_equina_3_CBS122270,SRR1502530.1735,100.00,38,0,0,1,38,184,221,2e-14,71.3
Exophiala_equina_3_CBS122270,SRR1502530.1699,100.00,38,0,0,1,38,183,220,2e-14,71.3
Exophiala_equina_3_CBS122270,SRR1502530.1686,100.00,38,0,0,1,38,183,220,2e-14,71.3
Exophiala_equina_3_CBS122270,SRR1502530.1670,100.00,38,0,0,1,38,184,221,2e-14,71.3
Exophiala_equina_3_CBS122270,SRR1502530.1657,100.00,38,0,0,1,38,184,221,2e-14,71.3
Exophiala_equina_3_CBS122270,SRR1502530.1645,100.00,38,0,0,1,38,245,208,2e-14,71.3
Exophiala_equina_3_CBS122270,SRR1502530.1630,100.00,38,0,0,1,38,180,217,2e-14,71.3
Exophiala_equina_3_CBS122270,SRR1502530.1623,100.00,38,0,0,1,38,179,216,2e-14,71.3
Exophiala_equina_3_CBS122270,SRR1502530.1622,100.00,38,0,0,1,38,184,221,2e-14,71.3
Exophiala_equina_3_CBS122270,SRR1502530.1582,100.00,38,0,0,1,38,184,221,2e-14,71.3
Exophiala_equina_3_CBS122270,SRR1502530.1571,100.00,38,0,0,1,38,184,221,2e-14,71.3
Exophiala_equina_3_CBS122270,SRR1502530.1503,100.00,38,0,0,1,38,245,208,2e-14,71.3
Exophiala_equina_3_CBS122270,SRR1502530.1416,100.00,38,0,0,1,38,184,221,2e-14,71.3
Exophiala_equina_3_CBS122270,SRR1502530.1414,100.00,38,0,0,1,38,245,208,2e-14,71.3
Exophiala_equina_3_CBS122270,SRR1502530.1400,100.00,38,0,0,1,38,245,208,2e-14,71.3
Exophiala_equina_3_CBS122270,SRR1502530.1368,100.00,38,0,0,1,38,184,221,2e-14,71.3
Exophiala_equina_3_CBS122270,SRR1502530.1355,100.00,38,0,0,1,38,245,208,2e-14,71.3
Exophiala_equina_3_CBS122270,SRR1502530.1348,100.00,38,0,0,1,38,184,221,2e-14,71.3
Exophiala_equina_3_CBS122270,SRR1502530.1326,100.00,38,0,0,1,38,184,221,2e-14,71.3
Exophiala_equina_3_CBS122270,SRR1502530.1295,100.00,38,0,0,1,38,184,221,2e-14,71.3
Exophiala_equina_3_CBS122270,SRR1502530.1272,100.00,38,0,0,1,38,245,208,2e-14,71.3
Exophiala_equina_3_CBS122270,SRR1502530.1241,100.00,38,0,0,1,38,244,207,2e-14,71.3
Exophiala_equina_3_CBS122270,SRR1502530.1228,100.00,38,0,0,1,38,245,208,2e-14,71.3
Exophiala_equina_3_CBS122270,SRR1502530.1204,100.00,38,0,0,1,38,245,208,2e-14,71.3
Exophiala_equina_3_CBS122270,SRR1502530.1188,100.00,38,0,0,1,38,172,209,2e-14,71.3
Exophiala_equina_3_CBS122270,SRR1502530.1179,100.00,38,0,0,1,38,184,221,2e-14,71.3
Exophiala_equina_3_CBS122270,SRR1502530.1170,100.00,38,0,0,1,38,184,221,2e-14,71.3
Exophiala_equina_3_CBS122270,SRR1502530.1168,100.00,38,0,0,1,38,245,208,2e-14,71.3
Exophiala_equina_3_CBS122270,SRR1502530.1127,100.00,38,0,0,1,38,182,219,2e-14,71.3
Exophiala_equina_3_CBS122270,SRR1502530.1082,100.00,38,0,0,1,38,245,208,2e-14,71.3
Exophiala_equina_3_CBS122270,SRR1502530.1078,100.00,38,0,0,1,38,184,221,2e-14,71.3
Exophiala_equina_3_CBS122270,SRR1502530.1012,100.00,38,0,0,1,38,184,221,2e-14,71.3
Exophiala_equina_3_CBS122270,SRR1502530.998,100.00,38,0,0,1,38,183,220,2e-14,71.3
Exophiala_equina_3_CBS122270,SRR1502530.979,100.00,38,0,0,1,38,183,220,2e-14,71.3
Exophiala_equina_3_CBS122270,SRR1502530.977,100.00,38,0,0,1,38,245,208,2e-14,71.3
Exophiala_equina_3_CBS122270,SRR1502530.960,100.00,38,0,0,1,38,245,208,2e-14,71.3
Exophiala_equina_3_CBS122270,SRR1502530.946,100.00,38,0,0,1,38,184,221,2e-14,71.3
Exophiala_equina_3_CBS122270,SRR1502530.941,100.00,38,0,0,1,38,131,168,2e-14,71.3
Exophiala_equina_3_CBS122270,SRR1502530.935,100.00,38,0,0,1,38,245,208,2e-14,71.3
Exophiala_equina_3_CBS122270,SRR1502530.906,100.00,38,0,0,1,38,184,221,2e-14,71.3
Exophiala_equina_3_CBS122270,SRR1502530.904,100.00,38,0,0,1,38,183,220,2e-14,71.3
Exophiala_equina_3_CBS122270,SRR1502530.902,100.00,38,0,0,1,38,245,208,2e-14,71.3
Exophiala_equina_3_CBS122270,SRR1502530.901,100.00,38,0,0,1,38,245,208,2e-14,71.3
Exophiala_equina_3_CBS122270,SRR1502530.895,100.00,38,0,0,1,38,182,219,2e-14,71.3
Exophiala_equina_3_CBS122270,SRR1502530.871,100.00,38,0,0,1,38,183,220,2e-14,71.3
Exophiala_equina_3_CBS122270,SRR1502530.827,100.00,38,0,0,1,38,245,208,2e-14,71.3
Exophiala_equina_3_CBS122270,SRR1502530.799,100.00,38,0,0,1,38,245,208,2e-14,71.3
Exophiala_equina_3_CBS122270,SRR1502530.771,100.00,38,0,0,1,38,245,208,2e-14,71.3
Exophiala_equina_3_CBS122270,SRR1502530.751,100.00,38,0,0,1,38,184,221,2e-14,71.3
Exophiala_equina_3_CBS122270,SRR1502530.734,100.00,38,0,0,1,38,184,221,2e-14,71.3
Exophiala_equina_3_CBS122270,SRR1502530.704,100.00,38,0,0,1,38,184,221,2e-14,71.3
Exophiala_equina_3_CBS122270,SRR1502530.680,100.00,38,0,0,1,38,183,220,2e-14,71.3
Exophiala_equina_3_CBS122270,SRR1502530.671,100.00,38,0,0,1,38,245,208,2e-14,71.3
Exophiala_equina_3_CBS122270,SRR1502530.668,100.00,38,0,0,1,38,183,220,2e-14,71.3
Exophiala_equina_3_CBS122270,SRR1502530.666,100.00,38,0,0,1,38,184,221,2e-14,71.3
Exophiala_equina_3_CBS122270,SRR1502530.660,100.00,38,0,0,1,38,245,208,2e-14,71.3
Exophiala_equina_3_CBS122270,SRR1502530.659,100.00,38,0,0,1,38,183,220,2e-14,71.3
Exophiala_equina_3_CBS122270,SRR1502530.652,100.00,38,0,0,1,38,184,221,2e-14,71.3
Exophiala_equina_3_CBS122270,SRR1502530.608,100.00,38,0,0,1,38,245,208,2e-14,71.3
Exophiala_equina_3_CBS122270,SRR1502530.586,100.00,38,0,0,1,38,245,208,2e-14,71.3
Exophiala_equina_3_CBS122270,SRR1502530.541,100.00,38,0,0,1,38,184,221,2e-14,71.3
Exophiala_equina_3_CBS122270,SRR1502530.536,100.00,38,0,0,1,38,245,208,2e-14,71.3
Exophiala_equina_3_CBS122270,SRR1502530.531,100.00,38,0,0,1,38,179,216,2e-14,71.3
Exophiala_equina_3_CBS122270,SRR1502530.488,100.00,38,0,0,1,38,245,208,2e-14,71.3
Exophiala_equina_3_CBS122270,SRR1502530.486,100.00,38,0,0,1,38,184,221,2e-14,71.3
Exophiala_equina_3_CBS122270,SRR1502530.474,100.00,38,0,0,1,38,184,221,2e-14,71.3
Exophiala_equina_3_CBS122270,SRR1502530.464,100.00,38,0,0,1,38,184,221,2e-14,71.3
Exophiala_equina_3_CBS122270,SRR1502530.440,100.00,38,0,0,1,38,183,220,2e-14,71.3
Exophiala_equina_3_CBS122270,SRR1502530.433,100.00,38,0,0,1,38,245,208,2e-14,71.3
Exophiala_equina_3_CBS122270,SRR1502530.412,100.00,38,0,0,1,38,131,168,2e-14,71.3
Exophiala_equina_3_CBS122270,SRR1502530.400,100.00,38,0,0,1,38,184,221,2e-14,71.3
Exophiala_equina_3_CBS122270,SRR1502530.274,100.00,38,0,0,1,38,184,221,2e-14,71.3
Exophiala_equina_3_CBS122270,SRR1502530.236,100.00,38,0,0,1,38,245,208,2e-14,71.3
Exophiala_equina_3_CBS122270,SRR1502530.216,100.00,38,0,0,1,38,183,220,2e-14,71.3
Exophiala_equina_3_CBS122270,SRR1502530.202,100.00,38,0,0,1,38,184,221,2e-14,71.3
Exophiala_equina_3_CBS122270,SRR1502530.200,100.00,38,0,0,1,38,183,220,2e-14,71.3
Exophiala_equina_3_CBS122270,SRR1502530.159,100.00,38,0,0,1,38,185,222,2e-14,71.3
Exophiala_equina_3_CBS122270,SRR1502530.114,100.00,38,0,0,1,38,245,208,2e-14,71.3
Exophiala_equina_3_CBS122270,SRR1502530.89,100.00,38,0,0,1,38,245,208,2e-14,71.3
Exophiala_equina_3_CBS122270,SRR1502530.52,100.00,38,0,0,1,38,184,221,2e-14,71.3
Exophiala_equina_3_CBS122270,SRR1502530.48,100.00,38,0,0,1,38,245,208,2e-14,71.3
Exophiala_equina_3_CBS122270,SRR1502530.36,100.00,38,0,0,1,38,245,208,2e-14,71.3
Exophiala_equina_3_CBS122270,SRR1502530.21,100.00,38,0,0,1,38,183,220,2e-14,71.3
Exophiala_equina_3_CBS122270,SRR1502530.1840,100.00,37,0,0,2,38,181,217,6e-14,69.4
Exophiala_equina_3_CBS122270,SRR1502530.5226,97.44,39,0,1,1,38,247,209,8e-13,65.8
Exophiala_equina_3_CBS122270,SRR1502530.4843,97.37,38,1,0,1,38,184,221,8e-13,65.8
Exophiala_equina_3_CBS122270,SRR1502530.3731,97.37,38,1,0,1,38,245,208,8e-13,65.8
Exophiala_equina_3_CBS122270,SRR1502530.1323,97.37,38,1,0,1,38,180,217,8e-13,65.8
Exophiala_equina_3_CBS122270,SRR1502530.558,97.37,38,1,0,1,38,245,208,8e-13,65.8
Exophiala_equina_3_CBS122270,SRR1502530.371,97.44,39,0,1,1,38,185,223,8e-13,65.8
Exophiala_equina_3_CBS122270,SRR1502530.125,97.37,38,1,0,1,38,179,216,8e-13,65.8
Phaeoannelomyces_elegans_CBS110172,SRR1502530.116,100.00,38,0,0,1,38,245,208,2e-14,71.3
