Exophiala_castellanii_CBS158.58T,SRR3124630.10460,100.00,28,0,0,1,28,540,567,1e-08,52.8
Exophiala_castellanii_CBS158.58T,SRR3124630.9824,100.00,28,0,0,1,28,538,565,1e-08,52.8
Exophiala_castellanii_CBS158.58T,SRR3124630.9780,100.00,28,0,0,1,28,539,566,1e-08,52.8
Exophiala_castellanii_CBS158.58T,SRR3124630.8480,100.00,28,0,0,1,28,541,568,1e-08,52.8
Exophiala_castellanii_CBS158.58T,SRR3124630.8105,100.00,28,0,0,1,28,541,568,1e-08,52.8
Exophiala_castellanii_CBS158.58T,SRR3124630.7771,100.00,28,0,0,1,28,536,563,1e-08,52.8
Exophiala_castellanii_CBS158.58T,SRR3124630.6027,100.00,28,0,0,1,28,537,564,1e-08,52.8
Exophiala_castellanii_CBS158.58T,SRR3124630.5020,100.00,28,0,0,1,28,542,569,1e-08,52.8
Exophiala_castellanii_CBS158.58T,SRR3124630.4481,100.00,28,0,0,1,28,538,565,1e-08,52.8
Exophiala_castellanii_CBS158.58T,SRR3124630.4094,100.00,28,0,0,1,28,537,564,1e-08,52.8
