Exophiala_equina_1_CBS119.23T,SRR2989237.112546,100.00,38,0,0,1,38,499,462,4e-13,71.3
Exophiala_equina_1_CBS119.23T,SRR2989237.112546,97.37,38,1,0,1,38,105,142,2e-11,65.8
Exophiala_equina_1_CBS119.23T,SRR2989237.111312,100.00,38,0,0,1,38,105,142,4e-13,71.3
Exophiala_equina_1_CBS119.23T,SRR2989237.111312,100.00,38,0,0,1,38,499,462,4e-13,71.3
Exophiala_equina_1_CBS119.23T,SRR2989237.111310,100.00,38,0,0,1,38,105,142,4e-13,71.3
Exophiala_equina_1_CBS119.23T,SRR2989237.57323,100.00,38,0,0,1,38,105,142,4e-13,71.3
Exophiala_equina_1_CBS119.23T,SRR2989237.57323,100.00,38,0,0,1,38,499,462,4e-13,71.3
Exophiala_equina_1_CBS119.23T,SRR2989237.55291,100.00,38,0,0,1,38,105,142,4e-13,71.3
Exophiala_equina_1_CBS119.23T,SRR2989237.55291,100.00,38,0,0,1,38,499,462,4e-13,71.3
Exophiala_equina_1_CBS119.23T,SRR2989237.52630,100.00,38,0,0,1,38,105,142,4e-13,71.3
Exophiala_equina_1_CBS119.23T,SRR2989237.52630,100.00,38,0,0,1,38,499,462,4e-13,71.3
Exophiala_equina_1_CBS119.23T,SRR2989237.39479,100.00,38,0,0,1,38,105,142,4e-13,71.3
Exophiala_equina_1_CBS119.23T,SRR2989237.39479,100.00,38,0,0,1,38,499,462,4e-13,71.3
Exophiala_equina_1_CBS119.23T,SRR2989237.37820,100.00,38,0,0,1,38,105,142,4e-13,71.3
Exophiala_equina_1_CBS119.23T,SRR2989237.37820,100.00,38,0,0,1,38,499,462,4e-13,71.3
Exophiala_equina_1_CBS119.23T,SRR2989237.35626,100.00,38,0,0,1,38,105,142,4e-13,71.3
Exophiala_equina_1_CBS119.23T,SRR2989237.35626,100.00,38,0,0,1,38,499,462,4e-13,71.3
Exophiala_equina_1_CBS119.23T,SRR2989237.8332,100.00,38,0,0,1,38,105,142,4e-13,71.3
Exophiala_equina_1_CBS119.23T,SRR2989237.8332,100.00,38,0,0,1,38,499,462,4e-13,71.3
Exophiala_equina_1_CBS119.23T,SRR2989237.8329,100.00,38,0,0,1,38,105,142,4e-13,71.3
Exophiala_equina_1_CBS119.23T,SRR2989237.8329,100.00,38,0,0,1,38,499,462,4e-13,71.3
Exophiala_equina_1_CBS119.23T,SRR2989237.1968,100.00,38,0,0,1,38,105,142,4e-13,71.3
Exophiala_equina_1_CBS119.23T,SRR2989237.1968,100.00,38,0,0,1,38,499,462,4e-13,71.3
Phaeoannelomyces_elegans_CBS110172,SRR2989237.112546,100.00,38,0,0,1,38,499,462,4e-13,71.3
Phaeoannelomyces_elegans_CBS110172,SRR2989237.112546,97.37,38,1,0,1,38,105,142,2e-11,65.8
Phaeoannelomyces_elegans_CBS110172,SRR2989237.111312,100.00,38,0,0,1,38,105,142,4e-13,71.3
Phaeoannelomyces_elegans_CBS110172,SRR2989237.111312,100.00,38,0,0,1,38,499,462,4e-13,71.3
Phaeoannelomyces_elegans_CBS110172,SRR2989237.111310,100.00,38,0,0,1,38,105,142,4e-13,71.3
Phaeoannelomyces_elegans_CBS110172,SRR2989237.57323,100.00,38,0,0,1,38,105,142,4e-13,71.3
Phaeoannelomyces_elegans_CBS110172,SRR2989237.57323,100.00,38,0,0,1,38,499,462,4e-13,71.3
Phaeoannelomyces_elegans_CBS110172,SRR2989237.55291,100.00,38,0,0,1,38,105,142,4e-13,71.3
Phaeoannelomyces_elegans_CBS110172,SRR2989237.55291,100.00,38,0,0,1,38,499,462,4e-13,71.3
Phaeoannelomyces_elegans_CBS110172,SRR2989237.52630,100.00,38,0,0,1,38,105,142,4e-13,71.3
Phaeoannelomyces_elegans_CBS110172,SRR2989237.52630,100.00,38,0,0,1,38,499,462,4e-13,71.3
Phaeoannelomyces_elegans_CBS110172,SRR2989237.39479,100.00,38,0,0,1,38,105,142,4e-13,71.3
Phaeoannelomyces_elegans_CBS110172,SRR2989237.39479,100.00,38,0,0,1,38,499,462,4e-13,71.3
Phaeoannelomyces_elegans_CBS110172,SRR2989237.37820,100.00,38,0,0,1,38,105,142,4e-13,71.3
Phaeoannelomyces_elegans_CBS110172,SRR2989237.37820,100.00,38,0,0,1,38,499,462,4e-13,71.3
Phaeoannelomyces_elegans_CBS110172,SRR2989237.35626,100.00,38,0,0,1,38,105,142,4e-13,71.3
Phaeoannelomyces_elegans_CBS110172,SRR2989237.35626,100.00,38,0,0,1,38,499,462,4e-13,71.3
Phaeoannelomyces_elegans_CBS110172,SRR2989237.8332,100.00,38,0,0,1,38,105,142,4e-13,71.3
Phaeoannelomyces_elegans_CBS110172,SRR2989237.8332,100.00,38,0,0,1,38,499,462,4e-13,71.3
Phaeoannelomyces_elegans_CBS110172,SRR2989237.8329,100.00,38,0,0,1,38,105,142,4e-13,71.3
Phaeoannelomyces_elegans_CBS110172,SRR2989237.8329,100.00,38,0,0,1,38,499,462,4e-13,71.3
Phaeoannelomyces_elegans_CBS110172,SRR2989237.1968,100.00,38,0,0,1,38,105,142,4e-13,71.3
Phaeoannelomyces_elegans_CBS110172,SRR2989237.1968,100.00,38,0,0,1,38,499,462,4e-13,71.3
Veronaea_japonica_CBS776.83T,SRR2989237.57325,100.00,29,0,0,2,30,498,470,4e-08,54.7
