Exophiala_cancerae_CBS120532T,SRR3124632.15008,100.00,34,0,0,1,34,468,501,9e-12,63.9
Exophiala_cancerae_CBS120532T,SRR3124632.10839,100.00,34,0,0,1,34,463,496,9e-12,63.9
Exophiala_cancerae_CBS120532T,SRR3124632.8462,100.00,34,0,0,1,34,462,495,9e-12,63.9
Veronaea_compacta_CBS268.75T,SRR3124632.12188,97.37,38,1,0,1,38,465,502,3e-12,65.8
Veronaea_compacta_CBS268.75T,SRR3124632.11049,97.37,38,1,0,1,38,463,500,3e-12,65.8
Veronaea_compacta_CBS268.75T,SRR3124632.7339,97.37,38,1,0,1,38,464,501,3e-12,65.8
Veronaea_compacta_CBS268.75T,SRR3124632.3730,97.37,38,1,0,1,38,467,504,3e-12,65.8
Veronaea_compacta_CBS268.75T,SRR3124632.3303,97.37,38,1,0,1,38,463,500,3e-12,65.8
Veronaea_compacta_CBS268.75T,SRR3124632.2852,97.37,38,1,0,1,38,464,501,3e-12,65.8
Veronaea_compacta_CBS268.75T,SRR3124632.2677,97.37,38,1,0,1,38,464,501,3e-12,65.8
Veronaea_compacta_CBS268.75T,SRR3124632.860,97.37,38,1,0,1,38,465,502,3e-12,65.8
Veronaea_compacta_CBS268.75T,SRR3124632.551,97.37,38,1,0,1,38,465,502,3e-12,65.8
Veronaea_compacta_CBS268.75T,SRR3124632.12156,97.22,36,1,0,1,36,466,501,4e-11,62.1
Veronaea_compacta_CBS268.75T,SRR3124632.10117,97.22,36,1,0,1,36,464,499,4e-11,62.1
Veronaea_compacta_CBS268.75T,SRR3124632.9040,97.22,36,1,0,1,36,464,499,4e-11,62.1
Veronaea_compacta_CBS268.75T,SRR3124632.7136,97.22,36,1,0,1,36,465,500,4e-11,62.1
Veronaea_compacta_CBS268.75T,SRR3124632.7043,97.22,36,1,0,1,36,464,499,4e-11,62.1
Veronaea_compacta_CBS268.75T,SRR3124632.6960,97.22,36,1,0,1,36,465,500,4e-11,62.1
Veronaea_compacta_CBS268.75T,SRR3124632.4296,97.22,36,1,0,1,36,464,499,4e-11,62.1
Veronaea_compacta_CBS268.75T,SRR3124632.2721,97.22,36,1,0,1,36,463,498,4e-11,62.1
Veronaea_compacta_CBS268.75T,SRR3124632.2156,97.22,36,1,0,1,36,464,499,4e-11,62.1
