Exophiala_equina_1_CBS119.23T,SRR1502527.8207,100.00,38,0,0,1,38,245,208,3e-14,71.3
Exophiala_equina_1_CBS119.23T,SRR1502527.7910,100.00,38,0,0,1,38,245,208,3e-14,71.3
Exophiala_equina_1_CBS119.23T,SRR1502527.7511,100.00,38,0,0,1,38,247,210,3e-14,71.3
Exophiala_equina_1_CBS119.23T,SRR1502527.7027,100.00,38,0,0,1,38,184,221,3e-14,71.3
Exophiala_equina_1_CBS119.23T,SRR1502527.5847,100.00,38,0,0,1,38,245,208,3e-14,71.3
Exophiala_equina_1_CBS119.23T,SRR1502527.4937,100.00,38,0,0,1,38,245,208,3e-14,71.3
Exophiala_equina_1_CBS119.23T,SRR1502527.3978,100.00,38,0,0,1,38,245,208,3e-14,71.3
Exophiala_equina_1_CBS119.23T,SRR1502527.3432,100.00,38,0,0,1,38,245,208,3e-14,71.3
Exophiala_equina_1_CBS119.23T,SRR1502527.2246,100.00,38,0,0,1,38,246,209,3e-14,71.3
Exophiala_equina_1_CBS119.23T,SRR1502527.2219,100.00,38,0,0,1,38,184,221,3e-14,71.3
Exophiala_equina_1_CBS119.23T,SRR1502527.1905,100.00,38,0,0,1,38,184,221,3e-14,71.3
Exophiala_equina_1_CBS119.23T,SRR1502527.1611,100.00,38,0,0,1,38,245,208,3e-14,71.3
Exophiala_equina_1_CBS119.23T,SRR1502527.463,100.00,38,0,0,1,38,245,208,3e-14,71.3
Exophiala_equina_3_CBS122270,SRR1502527.8797,100.00,38,0,0,1,38,184,221,3e-14,71.3
Exophiala_equina_3_CBS122270,SRR1502527.8766,100.00,38,0,0,1,38,245,208,3e-14,71.3
Exophiala_equina_3_CBS122270,SRR1502527.8389,100.00,38,0,0,1,38,183,220,3e-14,71.3
Exophiala_equina_3_CBS122270,SRR1502527.8302,100.00,38,0,0,1,38,245,208,3e-14,71.3
Exophiala_equina_3_CBS122270,SRR1502527.8142,100.00,38,0,0,1,38,245,208,3e-14,71.3
Exophiala_equina_3_CBS122270,SRR1502527.7755,100.00,38,0,0,1,38,183,220,3e-14,71.3
Exophiala_equina_3_CBS122270,SRR1502527.6376,100.00,38,0,0,1,38,184,221,3e-14,71.3
Exophiala_equina_3_CBS122270,SRR1502527.6077,100.00,38,0,0,1,38,245,208,3e-14,71.3
Exophiala_equina_3_CBS122270,SRR1502527.5884,100.00,38,0,0,1,38,245,208,3e-14,71.3
Exophiala_equina_3_CBS122270,SRR1502527.5818,100.00,38,0,0,1,38,245,208,3e-14,71.3
Exophiala_equina_3_CBS122270,SRR1502527.5446,100.00,38,0,0,1,38,245,208,3e-14,71.3
Exophiala_equina_3_CBS122270,SRR1502527.5176,100.00,38,0,0,1,38,245,208,3e-14,71.3
Exophiala_equina_3_CBS122270,SRR1502527.4053,100.00,38,0,0,1,38,245,208,3e-14,71.3
Exophiala_equina_3_CBS122270,SRR1502527.3999,100.00,38,0,0,1,38,245,208,3e-14,71.3
Exophiala_equina_3_CBS122270,SRR1502527.3950,100.00,38,0,0,1,38,245,208,3e-14,71.3
Exophiala_equina_3_CBS122270,SRR1502527.3433,100.00,38,0,0,1,38,184,221,3e-14,71.3
Exophiala_equina_3_CBS122270,SRR1502527.3125,100.00,38,0,0,1,38,184,221,3e-14,71.3
Exophiala_equina_3_CBS122270,SRR1502527.2800,100.00,38,0,0,1,38,184,221,3e-14,71.3
Exophiala_equina_3_CBS122270,SRR1502527.2762,100.00,38,0,0,1,38,183,220,3e-14,71.3
Exophiala_equina_3_CBS122270,SRR1502527.2708,100.00,38,0,0,1,38,184,221,3e-14,71.3
Exophiala_equina_3_CBS122270,SRR1502527.2687,100.00,38,0,0,1,38,184,221,3e-14,71.3
Exophiala_equina_3_CBS122270,SRR1502527.2552,100.00,38,0,0,1,38,245,208,3e-14,71.3
Exophiala_equina_3_CBS122270,SRR1502527.2471,100.00,38,0,0,1,38,184,221,3e-14,71.3
Exophiala_equina_3_CBS122270,SRR1502527.2291,100.00,38,0,0,1,38,184,221,3e-14,71.3
Exophiala_equina_3_CBS122270,SRR1502527.2217,100.00,38,0,0,1,38,184,221,3e-14,71.3
Exophiala_equina_3_CBS122270,SRR1502527.1906,100.00,38,0,0,1,38,184,221,3e-14,71.3
Exophiala_equina_3_CBS122270,SRR1502527.1887,100.00,38,0,0,1,38,245,208,3e-14,71.3
Exophiala_equina_3_CBS122270,SRR1502527.1823,100.00,38,0,0,1,38,181,218,3e-14,71.3
Exophiala_equina_3_CBS122270,SRR1502527.1751,100.00,38,0,0,1,38,181,218,3e-14,71.3
Exophiala_equina_3_CBS122270,SRR1502527.1685,100.00,38,0,0,1,38,184,221,3e-14,71.3
Exophiala_equina_3_CBS122270,SRR1502527.1655,100.00,38,0,0,1,38,245,208,3e-14,71.3
Exophiala_equina_3_CBS122270,SRR1502527.1567,100.00,38,0,0,1,38,184,221,3e-14,71.3
Exophiala_equina_3_CBS122270,SRR1502527.1406,100.00,38,0,0,1,38,184,221,3e-14,71.3
Exophiala_equina_3_CBS122270,SRR1502527.1397,100.00,38,0,0,1,38,245,208,3e-14,71.3
Exophiala_equina_3_CBS122270,SRR1502527.1300,100.00,38,0,0,1,38,245,208,3e-14,71.3
Exophiala_equina_3_CBS122270,SRR1502527.1269,100.00,38,0,0,1,38,184,221,3e-14,71.3
Exophiala_equina_3_CBS122270,SRR1502527.1165,100.00,38,0,0,1,38,184,221,3e-14,71.3
Exophiala_equina_3_CBS122270,SRR1502527.1111,100.00,38,0,0,1,38,184,221,3e-14,71.3
Exophiala_equina_3_CBS122270,SRR1502527.901,100.00,38,0,0,1,38,183,220,3e-14,71.3
Exophiala_equina_3_CBS122270,SRR1502527.403,100.00,38,0,0,1,38,184,221,3e-14,71.3
Exophiala_equina_3_CBS122270,SRR1502527.371,100.00,38,0,0,1,38,245,208,3e-14,71.3
Exophiala_equina_3_CBS122270,SRR1502527.340,100.00,38,0,0,1,38,184,221,3e-14,71.3
Exophiala_equina_3_CBS122270,SRR1502527.6226,97.44,39,0,1,1,38,246,208,1e-12,65.8
Exophiala_equina_3_CBS122270,SRR1502527.4653,97.44,39,0,1,1,38,184,222,1e-12,65.8
Phaeoannelomyces_elegans_CBS110172,SRR1502527.8207,100.00,38,0,0,1,38,245,208,3e-14,71.3
Phaeoannelomyces_elegans_CBS110172,SRR1502527.7910,100.00,38,0,0,1,38,245,208,3e-14,71.3
Phaeoannelomyces_elegans_CBS110172,SRR1502527.7511,100.00,38,0,0,1,38,247,210,3e-14,71.3
Phaeoannelomyces_elegans_CBS110172,SRR1502527.7027,100.00,38,0,0,1,38,184,221,3e-14,71.3
Phaeoannelomyces_elegans_CBS110172,SRR1502527.5847,100.00,38,0,0,1,38,245,208,3e-14,71.3
Phaeoannelomyces_elegans_CBS110172,SRR1502527.4937,100.00,38,0,0,1,38,245,208,3e-14,71.3
Phaeoannelomyces_elegans_CBS110172,SRR1502527.3978,100.00,38,0,0,1,38,245,208,3e-14,71.3
Phaeoannelomyces_elegans_CBS110172,SRR1502527.3432,100.00,38,0,0,1,38,245,208,3e-14,71.3
Phaeoannelomyces_elegans_CBS110172,SRR1502527.2246,100.00,38,0,0,1,38,246,209,3e-14,71.3
Phaeoannelomyces_elegans_CBS110172,SRR1502527.2219,100.00,38,0,0,1,38,184,221,3e-14,71.3
Phaeoannelomyces_elegans_CBS110172,SRR1502527.1905,100.00,38,0,0,1,38,184,221,3e-14,71.3
Phaeoannelomyces_elegans_CBS110172,SRR1502527.1611,100.00,38,0,0,1,38,245,208,3e-14,71.3
Phaeoannelomyces_elegans_CBS110172,SRR1502527.463,100.00,38,0,0,1,38,245,208,3e-14,71.3
