Cyphellophora_laciniata_CBS190.61T,SRR5337795.20791,100.00,33,0,0,3,35,226,194,7e-11,62.1
Cyphellophora_suttonii_CBS449.91T,SRR5337795.20791,97.14,35,1,0,1,35,228,194,3e-10,60.2
Cyphellophora_vermispora_CBS228.86T,SRR5337795.20791,100.00,33,0,0,3,35,226,194,7e-11,62.1
