Exophiala_nigra_CBS535.94_T,ERR2071900.4337246,96.81,94,2,1,228,321,101,9,5e-36,156
Exophiala_nigra_CBS535.94_T,ERR2071900.1658375,96.55,87,2,1,235,321,102,187,4e-32,143
Exophiala_nigra_CBS535.94_T,ERR2071900.3688116,96.39,83,2,1,197,278,20,102,7e-30,135
Exophiala_nigra_CBS535.94_T,ERR2071900.4422640,100.00,66,0,0,201,266,36,101,5e-26,122
Exophiala_nigra_CBS535.94_T,ERR2071900.2448925,98.53,68,0,1,197,263,34,101,7e-25,119
Exophiala_nigra_CBS535.94_T,ERR2071900.2448925,87.04,108,11,3,281,388,202,98,7e-25,119
Exophiala_nigra_CBS535.94_T,ERR2071900.5696964,97.78,45,0,1,197,240,146,102,4e-12,76.8
Exophiala_spinifera_CBS899.68_T,ERR2071900.4337246,95.74,94,3,1,225,318,101,9,2e-34,150
Exophiala_spinifera_CBS899.68_T,ERR2071900.1658375,95.40,87,3,1,232,318,102,187,2e-30,137
Exophiala_spinifera_CBS899.68_T,ERR2071900.3688116,96.39,83,2,1,194,275,20,102,6e-30,135
Exophiala_spinifera_CBS899.68_T,ERR2071900.4422640,100.00,66,0,0,198,263,36,101,5e-26,122
Exophiala_spinifera_CBS899.68_T,ERR2071900.2448925,98.53,68,0,1,194,260,34,101,6e-25,119
Exophiala_spinifera_CBS899.68_T,ERR2071900.2448925,88.66,97,10,1,284,380,197,102,2e-24,117
Exophiala_spinifera_CBS899.68_T,ERR2071900.5696964,97.78,45,0,1,194,237,146,102,4e-12,76.8
Exophiala_exophialae_CBS668.76_T,ERR2071900.4337246,95.74,94,3,1,226,319,101,9,2e-34,150
Exophiala_exophialae_CBS668.76_T,ERR2071900.1658375,95.40,87,3,1,233,319,102,187,2e-30,137
Exophiala_exophialae_CBS668.76_T,ERR2071900.3688116,96.39,83,2,1,195,276,20,102,6e-30,135
Exophiala_exophialae_CBS668.76_T,ERR2071900.4422640,100.00,66,0,0,199,264,36,101,5e-26,122
Exophiala_exophialae_CBS668.76_T,ERR2071900.2448925,98.53,68,0,1,195,261,34,101,6e-25,119
Exophiala_exophialae_CBS668.76_T,ERR2071900.2448925,88.66,97,10,1,285,381,197,102,2e-24,117
Exophiala_exophialae_CBS668.76_T,ERR2071900.5696964,97.78,45,0,1,195,238,146,102,4e-12,76.8
Exophiala_polymorpha_CBS138920_T,ERR2071900.4337246,95.74,94,3,1,328,421,101,9,3e-34,150
Exophiala_polymorpha_CBS138920_T,ERR2071900.1658375,95.40,87,3,1,335,421,102,187,2e-30,137
Exophiala_polymorpha_CBS138920_T,ERR2071900.3688116,96.39,83,2,1,297,378,20,102,8e-30,135
Exophiala_polymorpha_CBS138920_T,ERR2071900.4422640,100.00,66,0,0,301,366,36,101,6e-26,122
Exophiala_polymorpha_CBS138920_T,ERR2071900.2448925,98.53,68,0,1,297,363,34,101,8e-25,119
Exophiala_polymorpha_CBS138920_T,ERR2071900.2448925,88.66,97,10,1,387,483,197,102,3e-24,117
Exophiala_polymorpha_CBS138920_T,ERR2071900.5696964,95.92,49,0,2,294,340,150,102,1e-12,78.7
Exophiala_polymorpha_CBS138920_T,ERR2071900.2485056,100.00,28,0,0,82,109,186,159,8e-05,52.8
Exophiala_oligosperma_CBS725.88_T,ERR2071900.4337246,95.74,94,3,1,238,331,101,9,2e-34,150
Exophiala_oligosperma_CBS725.88_T,ERR2071900.3688116,91.43,105,6,1,184,288,1,102,1e-31,141
Exophiala_oligosperma_CBS725.88_T,ERR2071900.1658375,95.40,87,3,1,245,331,102,187,2e-30,137
Exophiala_oligosperma_CBS725.88_T,ERR2071900.4422640,100.00,66,0,0,211,276,36,101,5e-26,122
Exophiala_oligosperma_CBS725.88_T,ERR2071900.2448925,97.18,71,2,0,203,273,31,101,2e-25,121
Exophiala_oligosperma_CBS725.88_T,ERR2071900.2448925,88.66,97,10,1,297,393,197,102,2e-24,117
Exophiala_oligosperma_CBS725.88_T,ERR2071900.5696964,95.92,49,2,0,202,250,150,102,3e-13,80.5
Exophiala_jeanselmei_CBS507.90_T,ERR2071900.4337246,95.74,94,3,1,230,323,101,9,2e-34,150
Exophiala_jeanselmei_CBS507.90_T,ERR2071900.1658375,95.40,87,3,1,237,323,102,187,2e-30,137
Exophiala_jeanselmei_CBS507.90_T,ERR2071900.3688116,96.39,83,2,1,199,280,20,102,7e-30,135
Exophiala_jeanselmei_CBS507.90_T,ERR2071900.4422640,100.00,66,0,0,203,268,36,101,5e-26,122
Exophiala_jeanselmei_CBS507.90_T,ERR2071900.2448925,98.53,68,0,1,199,265,34,101,7e-25,119
Exophiala_jeanselmei_CBS507.90_T,ERR2071900.2448925,88.66,97,10,1,289,385,197,102,3e-24,117
Exophiala_jeanselmei_CBS507.90_T,ERR2071900.4697888,98.25,57,1,0,542,598,158,102,3e-19,100
Exophiala_jeanselmei_CBS507.90_T,ERR2071900.5696964,97.78,45,0,1,199,242,146,102,4e-12,76.8
Exophiala_jeanselmei_CBS507.90_T,ERR2071900.2755659,91.07,56,5,0,545,600,146,201,4e-12,76.8
Exophiala_jeanselmei_CBS507.90_T,ERR2071900.1588485,97.44,39,1,0,566,604,40,2,3e-09,67.6
Exophiala_bergeri_CBS353.52,ERR2071900.4337246,96.81,94,2,1,191,284,101,9,4e-36,156
Exophiala_bergeri_CBS353.52,ERR2071900.1658375,96.55,87,2,1,198,284,102,187,3e-32,143
Exophiala_bergeri_CBS353.52,ERR2071900.3688116,96.39,83,2,1,160,241,20,102,5e-30,135
Exophiala_bergeri_CBS353.52,ERR2071900.4422640,100.00,66,0,0,164,229,36,101,4e-26,122
Exophiala_bergeri_CBS353.52,ERR2071900.2448925,98.53,68,0,1,160,226,34,101,6e-25,119
Exophiala_bergeri_CBS353.52,ERR2071900.2448925,87.50,104,10,3,244,347,202,102,2e-24,117
Exophiala_bergeri_CBS353.52,ERR2071900.5696964,97.78,45,0,1,160,203,146,102,3e-12,76.8
Exophiala_moniliae_CBS520.76_T,ERR2071900.4337246,96.81,94,2,1,228,321,101,9,5e-36,156
Exophiala_moniliae_CBS520.76_T,ERR2071900.1658375,96.55,87,2,1,235,321,102,187,4e-32,143
Exophiala_moniliae_CBS520.76_T,ERR2071900.3688116,96.39,83,2,1,197,278,20,102,6e-30,135
Exophiala_moniliae_CBS520.76_T,ERR2071900.4422640,100.00,66,0,0,201,266,36,101,5e-26,122
Exophiala_moniliae_CBS520.76_T,ERR2071900.2448925,98.53,68,0,1,197,263,34,101,7e-25,119
Exophiala_moniliae_CBS520.76_T,ERR2071900.2448925,86.60,97,11,2,281,377,202,108,5e-21,106
Exophiala_moniliae_CBS520.76_T,ERR2071900.5696964,97.78,45,0,1,197,240,146,102,4e-12,76.8
Exophiala_pisciphila_CBS537.73_T,ERR2071900.4337246,96.81,94,2,1,231,324,101,9,6e-36,156
Exophiala_pisciphila_CBS537.73_T,ERR2071900.1658375,96.55,87,2,1,238,324,102,187,4e-32,143
Exophiala_pisciphila_CBS537.73_T,ERR2071900.3688116,96.39,83,2,1,200,281,20,102,7e-30,135
Exophiala_pisciphila_CBS537.73_T,ERR2071900.2448925,89.11,101,10,1,286,386,201,102,2e-26,124
Exophiala_pisciphila_CBS537.73_T,ERR2071900.2448925,98.53,68,0,1,200,266,34,101,8e-25,119
Exophiala_pisciphila_CBS537.73_T,ERR2071900.4422640,100.00,66,0,0,204,269,36,101,6e-26,122
Exophiala_pisciphila_CBS537.73_T,ERR2071900.4697888,96.43,56,2,0,552,607,157,102,5e-17,93.5
Exophiala_pisciphila_CBS537.73_T,ERR2071900.1592349,91.80,61,5,0,593,653,101,41,8e-15,86.1
Exophiala_pisciphila_CBS537.73_T,ERR2071900.3177256,96.08,51,2,0,603,653,202,152,3e-14,84.2
Exophiala_pisciphila_CBS537.73_T,ERR2071900.5696964,97.78,45,0,1,200,243,146,102,5e-12,76.8
Exophiala_pisciphila_CBS537.73_T,ERR2071900.2755659,89.29,56,6,0,554,609,146,201,2e-10,71.3
Exophiala_pisciphila_CBS537.73_T,ERR2071900.1588485,100.00,36,0,0,579,614,36,1,3e-09,67.6
Exophiala_xenobiotica_CBS117642,ERR2071900.4337246,96.81,94,2,1,223,316,101,9,5e-36,156
Exophiala_xenobiotica_CBS117642,ERR2071900.1658375,96.55,87,2,1,230,316,102,187,4e-32,143
Exophiala_xenobiotica_CBS117642,ERR2071900.3688116,96.39,83,2,1,192,273,20,102,6e-30,135
Exophiala_xenobiotica_CBS117642,ERR2071900.4422640,100.00,66,0,0,196,261,36,101,5e-26,122
Exophiala_xenobiotica_CBS117642,ERR2071900.2448925,88.35,103,10,2,276,378,202,102,5e-26,122
Exophiala_xenobiotica_CBS117642,ERR2071900.2448925,98.53,68,0,1,192,258,34,101,6e-25,119
Exophiala_xenobiotica_CBS117642,ERR2071900.5696964,97.78,45,0,1,192,235,146,102,4e-12,76.8
Exophiala_brunnea_CBS,ERR2071900.4337246,96.81,94,2,1,259,352,101,9,6e-36,156
Exophiala_brunnea_CBS,ERR2071900.1658375,96.55,87,2,1,266,352,102,187,4e-32,143
Exophiala_brunnea_CBS,ERR2071900.3688116,96.39,83,2,1,228,309,20,102,7e-30,135
Exophiala_brunnea_CBS,ERR2071900.4422640,100.00,66,0,0,232,297,36,101,6e-26,122
Exophiala_brunnea_CBS,ERR2071900.2448925,98.53,68,0,1,228,294,34,101,7e-25,119
Exophiala_brunnea_CBS,ERR2071900.2448925,87.38,103,11,2,312,414,202,102,3e-24,117
Exophiala_brunnea_CBS,ERR2071900.5696964,97.78,45,0,1,228,271,146,102,4e-12,76.8
Exophiala_brunnea_CBS,ERR2071900.2485056,100.00,41,0,0,1,41,199,159,4e-12,76.8
Exophiala_brunnea_CBS,ERR2071900.2964169,100.00,39,0,0,1,39,3,41,6e-11,73.1
Exophiala_brunnea_CBS,ERR2071900.2870156,100.00,37,0,0,1,37,82,46,7e-10,69.4
Exophiala_nishimurae_CBS101538_T,ERR2071900.4337246,95.74,94,3,1,237,330,101,9,2e-34,150
Exophiala_nishimurae_CBS101538_T,ERR2071900.1658375,95.40,87,3,1,244,330,102,187,2e-30,137
Exophiala_nishimurae_CBS101538_T,ERR2071900.3688116,96.39,83,2,1,206,287,20,102,7e-30,135
Exophiala_nishimurae_CBS101538_T,ERR2071900.4422640,100.00,66,0,0,210,275,36,101,5e-26,122
Exophiala_nishimurae_CBS101538_T,ERR2071900.2448925,98.53,68,0,1,206,272,34,101,7e-25,119
Exophiala_nishimurae_CBS101538_T,ERR2071900.2448925,88.66,97,10,1,296,392,197,102,2e-24,117
Exophiala_nishimurae_CBS101538_T,ERR2071900.5696964,95.92,49,0,2,203,249,150,102,1e-12,78.7
Exophiala_mesophila_CBS402.95_T,ERR2071900.4337246,96.81,94,2,1,221,314,101,9,6e-36,156
Exophiala_mesophila_CBS402.95_T,ERR2071900.1658375,96.55,87,2,1,228,314,102,187,4e-32,143
Exophiala_mesophila_CBS402.95_T,ERR2071900.3688116,96.39,83,2,1,190,271,20,102,7e-30,135
Exophiala_mesophila_CBS402.95_T,ERR2071900.4422640,100.00,66,0,0,194,259,36,101,6e-26,122
Exophiala_mesophila_CBS402.95_T,ERR2071900.2448925,98.53,68,0,1,190,256,34,101,8e-25,119
Exophiala_mesophila_CBS402.95_T,ERR2071900.2448925,86.60,97,11,2,274,370,202,108,6e-21,106
Exophiala_mesophila_CBS402.95_T,ERR2071900.4697888,98.18,55,1,0,550,604,156,102,4e-18,97.1
Exophiala_mesophila_CBS402.95_T,ERR2071900.1592349,91.80,61,5,0,590,650,101,41,8e-15,86.1
Exophiala_mesophila_CBS402.95_T,ERR2071900.3177256,96.08,51,2,0,600,650,202,152,3e-14,84.2
Exophiala_mesophila_CBS402.95_T,ERR2071900.5696964,97.78,45,0,1,190,233,146,102,5e-12,76.8
Exophiala_mesophila_CBS402.95_T,ERR2071900.2755659,91.07,56,5,0,551,606,146,201,5e-12,76.8
Exophiala_mesophila_CBS402.95_T,ERR2071900.1588485,97.50,40,1,0,572,611,40,1,8e-10,69.4
Exophiala_castellanii_CBS158.58_T,ERR2071900.4337246,96.81,94,2,1,219,312,101,9,6e-36,156
Exophiala_castellanii_CBS158.58_T,ERR2071900.1658375,96.55,87,2,1,226,312,102,187,4e-32,143
Exophiala_castellanii_CBS158.58_T,ERR2071900.3688116,96.39,83,2,1,188,269,20,102,7e-30,135
Exophiala_castellanii_CBS158.58_T,ERR2071900.4422640,100.00,66,0,0,192,257,36,101,6e-26,122
Exophiala_castellanii_CBS158.58_T,ERR2071900.2448925,98.53,68,0,1,188,254,34,101,8e-25,119
Exophiala_castellanii_CBS158.58_T,ERR2071900.2448925,86.60,97,11,2,272,368,202,108,6e-21,106
Exophiala_castellanii_CBS158.58_T,ERR2071900.4697888,98.18,55,1,0,549,603,156,102,4e-18,97.1
Exophiala_castellanii_CBS158.58_T,ERR2071900.1592349,91.80,61,5,0,589,649,101,41,8e-15,86.1
Exophiala_castellanii_CBS158.58_T,ERR2071900.3177256,96.08,51,2,0,599,649,202,152,3e-14,84.2
Exophiala_castellanii_CBS158.58_T,ERR2071900.2755659,87.88,66,8,0,540,605,136,201,1e-12,78.7
Exophiala_castellanii_CBS158.58_T,ERR2071900.5696964,97.78,45,0,1,188,231,146,102,5e-12,76.8
Exophiala_castellanii_CBS158.58_T,ERR2071900.1588485,97.50,40,1,0,571,610,40,1,8e-10,69.4
Exophiala_lecanii-corni_CBS123.33_T,ERR2071900.4337246,96.81,94,2,1,242,335,101,9,5e-36,156
Exophiala_lecanii-corni_CBS123.33_T,ERR2071900.1658375,96.55,87,2,1,249,335,102,187,4e-32,143
Exophiala_lecanii-corni_CBS123.33_T,ERR2071900.3688116,96.39,83,2,1,211,292,20,102,7e-30,135
Exophiala_lecanii-corni_CBS123.33_T,ERR2071900.4422640,100.00,66,0,0,215,280,36,101,5e-26,122
Exophiala_lecanii-corni_CBS123.33_T,ERR2071900.2448925,98.53,68,0,1,211,277,34,101,7e-25,119
Exophiala_lecanii-corni_CBS123.33_T,ERR2071900.2448925,85.57,97,12,2,295,391,202,108,2e-19,100
Exophiala_lecanii-corni_CBS123.33_T,ERR2071900.5696964,97.78,45,0,1,211,254,146,102,4e-12,76.8
Exophiala_dermatitidis_CBS748.88,ERR2071900.5289402,98.02,101,2,0,1394,1494,102,202,1e-41,176
Exophiala_dermatitidis_CBS748.88,ERR2071900.187838,98.00,100,2,0,906,1005,1,100,4e-41,174
Exophiala_dermatitidis_CBS748.88,ERR2071900.2264820,98.96,96,1,0,906,1001,102,197,1e-40,172
Exophiala_dermatitidis_CBS748.88,ERR2071900.2264820,87.38,103,10,3,1194,1295,101,1,2e-23,115
Exophiala_dermatitidis_CBS748.88,ERR2071900.3211041,96.04,101,4,0,1395,1495,1,101,2e-38,165
Exophiala_dermatitidis_CBS748.88,ERR2071900.1994556,97.89,95,2,0,878,972,98,4,2e-38,165
Exophiala_dermatitidis_CBS748.88,ERR2071900.1994556,90.12,81,3,3,656,736,100,175,6e-19,100
Exophiala_dermatitidis_CBS748.88,ERR2071900.3674198,95.00,100,5,0,873,972,202,103,4e-36,158
Exophiala_dermatitidis_CBS748.88,ERR2071900.3448653,94.17,103,6,0,1382,1484,100,202,4e-36,158
Exophiala_dermatitidis_CBS748.88,ERR2071900.1281152,95.00,100,5,0,844,943,101,2,4e-36,158
Exophiala_dermatitidis_CBS748.88,ERR2071900.81267,95.00,100,5,0,844,943,101,2,4e-36,158
Exophiala_dermatitidis_CBS748.88,ERR2071900.682998,94.12,102,6,0,1359,1460,1,102,1e-35,156
Exophiala_dermatitidis_CBS748.88,ERR2071900.5503642,95.74,94,4,0,1411,1504,101,8,2e-34,152
Exophiala_dermatitidis_CBS748.88,ERR2071900.5503642,93.44,61,4,0,967,1027,104,164,4e-16,91.6
Exophiala_dermatitidis_CBS748.88,ERR2071900.2379545,95.74,94,4,0,1321,1414,195,102,2e-34,152
Exophiala_dermatitidis_CBS748.88,ERR2071900.4337246,95.74,94,2,2,235,327,101,9,6e-34,150
Exophiala_dermatitidis_CBS748.88,ERR2071900.3177256,93.27,104,4,3,625,728,202,102,6e-34,150
Exophiala_dermatitidis_CBS748.88,ERR2071900.1989021,92.16,102,8,0,1163,1264,2,103,3e-32,145
Exophiala_dermatitidis_CBS748.88,ERR2071900.1132787,92.16,102,8,0,1163,1264,2,103,3e-32,145
Exophiala_dermatitidis_CBS748.88,ERR2071900.1658375,96.55,87,2,1,241,327,102,187,1e-31,143
Exophiala_dermatitidis_CBS748.88,ERR2071900.2023543,94.51,91,4,1,1415,1504,105,15,1e-30,139
Exophiala_dermatitidis_CBS748.88,ERR2071900.2023543,86.17,94,6,4,1314,1401,110,202,3e-17,95.3
Exophiala_dermatitidis_CBS748.88,ERR2071900.1443422,93.55,93,6,0,822,914,194,102,1e-30,139
Exophiala_dermatitidis_CBS748.88,ERR2071900.1623317,97.50,80,2,0,1373,1452,181,102,5e-30,137
Exophiala_dermatitidis_CBS748.88,ERR2071900.686871,94.32,88,5,0,878,965,9,96,2e-29,135
Exophiala_dermatitidis_CBS748.88,ERR2071900.3688116,90.29,103,8,2,183,284,1,102,6e-29,134
Exophiala_dermatitidis_CBS748.88,ERR2071900.3688116,85.00,60,4,2,678,737,202,148,1e-05,56.5
Exophiala_dermatitidis_CBS748.88,ERR2071900.2400207,97.44,78,2,0,1427,1504,101,24,6e-29,134
Exophiala_dermatitidis_CBS748.88,ERR2071900.2400207,92.05,88,7,0,1186,1273,106,193,4e-26,124
Exophiala_dermatitidis_CBS748.88,ERR2071900.528009,90.20,102,10,0,887,988,202,101,6e-29,134
Exophiala_dermatitidis_CBS748.88,ERR2071900.5433561,95.06,81,4,0,1424,1504,2,82,3e-27,128
Exophiala_dermatitidis_CBS748.88,ERR2071900.399176,90.43,94,9,0,879,972,196,103,4e-26,124
Exophiala_dermatitidis_CBS748.88,ERR2071900.2448925,87.50,104,10,3,287,390,202,102,6e-24,117
Exophiala_dermatitidis_CBS748.88,ERR2071900.2448925,97.06,68,0,2,204,269,34,101,8e-23,113
Exophiala_dermatitidis_CBS748.88,ERR2071900.1592349,90.00,90,9,0,615,704,101,12,6e-24,117
Exophiala_dermatitidis_CBS748.88,ERR2071900.4422640,98.48,66,0,1,208,272,36,101,2e-23,115
Exophiala_dermatitidis_CBS748.88,ERR2071900.4697888,94.12,68,2,2,564,629,169,102,2e-19,102
Exophiala_dermatitidis_CBS748.88,ERR2071900.2099821,90.91,66,4,2,1192,1256,38,102,5e-15,87.9
Exophiala_dermatitidis_CBS748.88,ERR2071900.2099821,98.00,50,1,0,1368,1417,151,102,5e-15,87.9
Exophiala_dermatitidis_CBS748.88,ERR2071900.3691557,91.80,61,5,0,1186,1246,162,102,2e-14,86.1
Exophiala_dermatitidis_CBS748.88,ERR2071900.1734069,91.67,60,5,0,1187,1246,163,104,6e-14,84.2
Exophiala_dermatitidis_CBS748.88,ERR2071900.1539911,91.67,60,5,0,1187,1246,60,1,6e-14,84.2
Exophiala_dermatitidis_CBS748.88,ERR2071900.5274478,95.92,49,2,0,1210,1258,152,200,8e-13,80.5
Exophiala_dermatitidis_CBS748.88,ERR2071900.3039467,100.00,43,0,0,1210,1252,144,102,8e-13,80.5
Exophiala_dermatitidis_CBS748.88,ERR2071900.396025,86.49,74,9,1,1210,1283,129,201,8e-13,80.5
Exophiala_dermatitidis_CBS748.88,ERR2071900.2755659,86.30,73,8,2,561,631,129,201,3e-12,78.7
Exophiala_dermatitidis_CBS748.88,ERR2071900.3312527,81.63,98,13,5,781,875,6,101,1e-11,76.8
Exophiala_dermatitidis_CBS748.88,ERR2071900.5067184,95.65,46,2,0,1210,1255,46,1,4e-11,75.0
Exophiala_dermatitidis_CBS748.88,ERR2071900.3868509,84.93,73,11,0,1186,1258,75,3,4e-11,75.0
Exophiala_dermatitidis_CBS748.88,ERR2071900.5696964,95.56,45,0,2,204,246,146,102,5e-10,71.3
Exophiala_dermatitidis_CBS748.88,ERR2071900.4198435,93.48,46,3,0,1213,1258,126,171,2e-09,69.4
Exophiala_dermatitidis_CBS748.88,ERR2071900.3779366,91.84,49,4,0,1210,1258,121,169,2e-09,69.4
Exophiala_dermatitidis_CBS748.88,ERR2071900.2950704,91.84,49,4,0,1210,1258,31,79,2e-09,69.4
Exophiala_dermatitidis_CBS748.88,ERR2071900.1588485,97.50,40,1,0,597,636,40,1,2e-09,69.4
Exophiala_dermatitidis_CBS748.88,ERR2071900.363529,91.84,49,4,0,1210,1258,20,68,2e-09,69.4
Exophiala_dermatitidis_CBS748.88,ERR2071900.5466566,97.30,37,1,0,842,878,65,101,8e-08,63.9
Exophiala_dermatitidis_CBS748.88,ERR2071900.5028657,97.30,37,1,0,1468,1504,202,166,8e-08,63.9
Exophiala_dermatitidis_CBS748.88,ERR2071900.3705924,94.74,38,2,0,1206,1243,41,4,1e-06,60.2
Exophiala_dermatitidis_CBS748.88,ERR2071900.919432,90.91,44,4,0,1213,1256,157,114,1e-06,60.2
Exophiala_dermatitidis_CBS748.88,ERR2071900.3811041,100.00,28,0,0,1212,1239,90,63,2e-04,52.8
Exophiala_angulospora_CBS482.92_T,ERR2071900.4337246,96.81,94,2,1,225,318,101,9,5e-36,156
Exophiala_angulospora_CBS482.92_T,ERR2071900.1658375,96.55,87,2,1,232,318,102,187,4e-32,143
Exophiala_angulospora_CBS482.92_T,ERR2071900.3688116,93.62,94,5,1,182,275,10,102,5e-31,139
Exophiala_angulospora_CBS482.92_T,ERR2071900.4422640,100.00,66,0,0,198,263,36,101,5e-26,122
Exophiala_angulospora_CBS482.92_T,ERR2071900.2448925,97.18,71,2,0,190,260,31,101,2e-25,121
Exophiala_angulospora_CBS482.92_T,ERR2071900.2448925,86.54,104,11,3,278,381,202,102,1e-22,111
Exophiala_angulospora_CBS482.92_T,ERR2071900.5696964,95.92,49,2,0,189,237,150,102,3e-13,80.5
Exophiala_opportunistica_CBS109811_T,ERR2071900.4337246,96.81,94,2,1,224,317,101,9,5e-36,156
Exophiala_opportunistica_CBS109811_T,ERR2071900.1658375,96.55,87,2,1,231,317,102,187,4e-32,143
Exophiala_opportunistica_CBS109811_T,ERR2071900.3688116,97.47,79,2,0,196,274,24,102,6e-30,135
Exophiala_opportunistica_CBS109811_T,ERR2071900.4422640,100.00,66,0,0,197,262,36,101,5e-26,122
Exophiala_opportunistica_CBS109811_T,ERR2071900.2448925,100.00,64,0,0,196,259,38,101,7e-25,119
Exophiala_opportunistica_CBS109811_T,ERR2071900.2448925,87.38,103,11,2,277,379,202,102,2e-24,117
Exophiala_opportunistica_CBS109811_T,ERR2071900.5696964,100.00,41,0,0,196,236,142,102,4e-12,76.8
Exophiala_salmonis_CBS157.67_T,ERR2071900.4337246,96.81,94,2,1,353,446,101,9,7e-36,156
Exophiala_salmonis_CBS157.67_T,ERR2071900.1658375,96.55,87,2,1,360,446,102,187,5e-32,143
Exophiala_salmonis_CBS157.67_T,ERR2071900.3688116,96.39,83,2,1,322,403,20,102,9e-30,135
Exophiala_salmonis_CBS157.67_T,ERR2071900.4422640,100.00,66,0,0,326,391,36,101,7e-26,122
Exophiala_salmonis_CBS157.67_T,ERR2071900.2448925,88.35,103,10,2,406,508,202,102,7e-26,122
Exophiala_salmonis_CBS157.67_T,ERR2071900.2448925,98.53,68,0,1,322,388,34,101,9e-25,119
Exophiala_salmonis_CBS157.67_T,ERR2071900.4697888,96.43,56,2,0,672,727,157,102,5e-17,93.5
Exophiala_salmonis_CBS157.67_T,ERR2071900.1592349,91.80,61,5,0,713,773,101,41,9e-15,86.1
Exophiala_salmonis_CBS157.67_T,ERR2071900.3177256,96.08,51,2,0,723,773,202,152,3e-14,84.2
Exophiala_salmonis_CBS157.67_T,ERR2071900.2563781,95.92,49,2,0,74,122,103,55,4e-13,80.5
Exophiala_salmonis_CBS157.67_T,ERR2071900.5696964,97.78,45,0,1,322,365,146,102,5e-12,76.8
Exophiala_salmonis_CBS157.67_T,ERR2071900.4118398,97.56,41,1,0,82,122,115,155,3e-10,71.3
Exophiala_salmonis_CBS157.67_T,ERR2071900.2755659,89.29,56,6,0,674,729,146,201,3e-10,71.3
Exophiala_salmonis_CBS157.67_T,ERR2071900.3267277,97.50,40,1,0,83,122,48,9,9e-10,69.4
Exophiala_salmonis_CBS157.67_T,ERR2071900.1588485,100.00,36,0,0,699,734,36,1,3e-09,67.6
Exophiala_salmonis_CBS157.67_T,ERR2071900.4189791,97.30,37,1,0,1,37,65,101,4e-08,63.9
Exophiala_salmonis_CBS157.67_T,ERR2071900.3313143,97.30,37,1,0,1,37,65,101,4e-08,63.9
Exophiala_salmonis_CBS157.67_T,ERR2071900.5618442,100.00,28,0,0,1,28,166,193,9e-05,52.8
Exophiala_aquamarina_CBS119918_T,ERR2071900.4337246,96.81,94,2,1,231,324,101,9,5e-36,156
Exophiala_aquamarina_CBS119918_T,ERR2071900.1658375,96.55,87,2,1,238,324,102,187,4e-32,143
Exophiala_aquamarina_CBS119918_T,ERR2071900.3688116,96.39,83,2,1,200,281,20,102,6e-30,135
Exophiala_aquamarina_CBS119918_T,ERR2071900.4422640,100.00,66,0,0,204,269,36,101,5e-26,122
Exophiala_aquamarina_CBS119918_T,ERR2071900.2448925,98.53,68,0,1,200,266,34,101,6e-25,119
Exophiala_aquamarina_CBS119918_T,ERR2071900.2448925,86.54,104,11,3,284,387,202,102,1e-22,111
Exophiala_aquamarina_CBS119918_T,ERR2071900.5696964,97.78,45,0,1,200,243,146,102,4e-12,76.8
Exophiala_cancerae_CBS120420_T,ERR2071900.4337246,96.81,94,2,1,246,339,101,9,5e-36,156
Exophiala_cancerae_CBS120420_T,ERR2071900.1658375,96.55,87,2,1,253,339,102,187,4e-32,143
Exophiala_cancerae_CBS120420_T,ERR2071900.3688116,97.47,79,2,0,218,296,24,102,7e-30,135
Exophiala_cancerae_CBS120420_T,ERR2071900.4422640,100.00,66,0,0,219,284,36,101,6e-26,122
Exophiala_cancerae_CBS120420_T,ERR2071900.2448925,100.00,64,0,0,218,281,38,101,7e-25,119
Exophiala_cancerae_CBS120420_T,ERR2071900.2448925,87.38,103,11,2,299,401,202,102,3e-24,117
Exophiala_cancerae_CBS120420_T,ERR2071900.4697888,96.49,57,2,0,562,618,158,102,1e-17,95.3
Exophiala_cancerae_CBS120420_T,ERR2071900.5696964,100.00,41,0,0,218,258,142,102,4e-12,76.8
Exophiala_cancerae_CBS120420_T,ERR2071900.2755659,89.29,56,6,0,565,620,146,201,2e-10,71.3
Exophiala_cancerae_CBS120420_T,ERR2071900.1588485,100.00,35,0,0,590,624,36,2,1e-08,65.8
Exophiala_tremulae_CBS129355,ERR2071900.4337246,96.81,94,2,1,258,351,101,9,6e-36,156
Exophiala_tremulae_CBS129355,ERR2071900.1658375,96.55,87,2,1,265,351,102,187,4e-32,143
Exophiala_tremulae_CBS129355,ERR2071900.3688116,96.39,83,2,1,227,308,20,102,7e-30,135
Exophiala_tremulae_CBS129355,ERR2071900.4422640,100.00,66,0,0,231,296,36,101,6e-26,122
Exophiala_tremulae_CBS129355,ERR2071900.2448925,98.53,68,0,1,227,293,34,101,7e-25,119
Exophiala_tremulae_CBS129355,ERR2071900.2448925,87.38,103,11,2,311,413,202,102,3e-24,117
Exophiala_tremulae_CBS129355,ERR2071900.5696964,97.78,45,0,1,227,270,146,102,4e-12,76.8
Exophiala_tremulae_CBS129355,ERR2071900.2485056,100.00,41,0,0,1,41,199,159,4e-12,76.8
Exophiala_tremulae_CBS129355,ERR2071900.2964169,100.00,39,0,0,1,39,3,41,6e-11,73.1
Exophiala_tremulae_CBS129355,ERR2071900.2870156,100.00,37,0,0,1,37,82,46,7e-10,69.4
Exophiala_equina_CBS116009,ERR2071900.4337246,96.81,94,2,1,224,317,101,9,5e-36,156
Exophiala_equina_CBS116009,ERR2071900.1658375,96.55,87,2,1,231,317,102,187,4e-32,143
Exophiala_equina_CBS116009,ERR2071900.3688116,96.39,83,2,1,193,274,20,102,6e-30,135
Exophiala_equina_CBS116009,ERR2071900.4422640,100.00,66,0,0,197,262,36,101,5e-26,122
Exophiala_equina_CBS116009,ERR2071900.2448925,98.53,68,0,1,193,259,34,101,6e-25,119
Exophiala_equina_CBS116009,ERR2071900.2448925,87.38,103,11,2,277,379,202,102,2e-24,117
Exophiala_equina_CBS116009,ERR2071900.5696964,97.78,45,0,1,193,236,146,102,4e-12,76.8
Exophiala_alcalophila_CBS520.82_T,ERR2071900.4337246,96.81,94,2,1,235,328,101,9,5e-36,156
Exophiala_alcalophila_CBS520.82_T,ERR2071900.1658375,96.55,87,2,1,242,328,102,187,4e-32,143
Exophiala_alcalophila_CBS520.82_T,ERR2071900.3688116,97.47,79,2,0,207,285,24,102,6e-30,135
Exophiala_alcalophila_CBS520.82_T,ERR2071900.4422640,100.00,66,0,0,208,273,36,101,5e-26,122
Exophiala_alcalophila_CBS520.82_T,ERR2071900.2448925,100.00,64,0,0,207,270,38,101,7e-25,119
Exophiala_alcalophila_CBS520.82_T,ERR2071900.2448925,86.54,104,11,3,288,391,202,102,1e-22,111
Exophiala_alcalophila_CBS520.82_T,ERR2071900.5696964,100.00,41,0,0,207,247,142,102,4e-12,76.8
Exophiala_crusticola_CBS119970_T,ERR2071900.4337246,96.81,94,2,1,240,333,101,9,5e-36,156
Exophiala_crusticola_CBS119970_T,ERR2071900.1658375,96.55,87,2,1,247,333,102,187,4e-32,143
Exophiala_crusticola_CBS119970_T,ERR2071900.3688116,96.47,85,2,1,207,290,18,102,5e-31,139
Exophiala_crusticola_CBS119970_T,ERR2071900.4422640,100.00,66,0,0,213,278,36,101,5e-26,122
Exophiala_crusticola_CBS119970_T,ERR2071900.2448925,98.57,70,0,1,207,275,32,101,5e-26,122
Exophiala_crusticola_CBS119970_T,ERR2071900.2448925,87.50,104,10,3,293,396,202,102,2e-24,117
Exophiala_crusticola_CBS119970_T,ERR2071900.5696964,97.87,47,0,1,207,252,148,102,3e-13,80.5
Rhinocladiella_atrovirens_CBS264.49,ERR2071900.4337246,96.81,94,2,1,266,359,101,9,6e-36,156
Rhinocladiella_atrovirens_CBS264.49,ERR2071900.1658375,96.55,87,2,1,273,359,102,187,4e-32,143
Rhinocladiella_atrovirens_CBS264.49,ERR2071900.3688116,97.47,79,2,0,238,316,24,102,7e-30,135
Rhinocladiella_atrovirens_CBS264.49,ERR2071900.4422640,100.00,66,0,0,239,304,36,101,6e-26,122
Rhinocladiella_atrovirens_CBS264.49,ERR2071900.2448925,100.00,64,0,0,238,301,38,101,7e-25,119
Rhinocladiella_atrovirens_CBS264.49,ERR2071900.2448925,85.57,97,12,2,319,415,202,108,3e-19,100
Rhinocladiella_atrovirens_CBS264.49,ERR2071900.2964169,100.00,43,0,0,4,46,1,43,3e-13,80.5
Rhinocladiella_atrovirens_CBS264.49,ERR2071900.2870156,100.00,42,0,0,1,42,87,46,1e-12,78.7
Rhinocladiella_atrovirens_CBS264.49,ERR2071900.2485056,100.00,42,0,0,3,44,202,161,1e-12,78.7
Rhinocladiella_atrovirens_CBS264.49,ERR2071900.5696964,100.00,41,0,0,238,278,142,102,4e-12,76.8
Rhinocladiella_atrovirens_CBS264.49,ERR2071900.2207537,100.00,28,0,0,1,28,28,1,7e-05,52.8
Rhinocladiella_basitona_CBS101460_T,ERR2071900.4337246,95.74,94,3,1,225,318,101,9,2e-34,150
Rhinocladiella_basitona_CBS101460_T,ERR2071900.1658375,95.40,87,3,1,232,318,102,187,2e-30,137
Rhinocladiella_basitona_CBS101460_T,ERR2071900.3688116,96.39,83,2,1,194,275,20,102,6e-30,135
Rhinocladiella_basitona_CBS101460_T,ERR2071900.4422640,100.00,66,0,0,198,263,36,101,5e-26,122
Rhinocladiella_basitona_CBS101460_T,ERR2071900.2448925,98.53,68,0,1,194,260,34,101,6e-25,119
Rhinocladiella_basitona_CBS101460_T,ERR2071900.2448925,88.66,97,10,1,284,380,197,102,2e-24,117
Rhinocladiella_basitona_CBS101460_T,ERR2071900.5696964,97.78,45,0,1,194,237,146,102,4e-12,76.8
Rhinocladiella_phaeophora_CBS496.78_T,ERR2071900.4337246,96.81,94,2,1,233,326,101,9,5e-36,156
Rhinocladiella_phaeophora_CBS496.78_T,ERR2071900.1658375,96.55,87,2,1,240,326,102,187,4e-32,143
Rhinocladiella_phaeophora_CBS496.78_T,ERR2071900.3688116,96.39,83,3,0,201,283,20,102,2e-30,137
Rhinocladiella_phaeophora_CBS496.78_T,ERR2071900.4422640,100.00,66,0,0,206,271,36,101,5e-26,122
Rhinocladiella_phaeophora_CBS496.78_T,ERR2071900.2448925,98.53,68,1,0,201,268,34,101,2e-25,121
Rhinocladiella_phaeophora_CBS496.78_T,ERR2071900.2448925,87.76,98,10,2,286,383,202,107,3e-23,113
Rhinocladiella_phaeophora_CBS496.78_T,ERR2071900.5696964,97.78,45,1,0,201,245,146,102,1e-12,78.7
Rhinocladiella_aquaspersa_CBS313.73_T,ERR2071900.4337246,96.81,94,2,1,227,320,101,9,6e-36,156
Rhinocladiella_aquaspersa_CBS313.73_T,ERR2071900.1658375,96.55,87,2,1,234,320,102,187,4e-32,143
Rhinocladiella_aquaspersa_CBS313.73_T,ERR2071900.3688116,96.39,83,3,0,195,277,20,102,2e-30,137
Rhinocladiella_aquaspersa_CBS313.73_T,ERR2071900.4422640,100.00,66,0,0,200,265,36,101,6e-26,122
Rhinocladiella_aquaspersa_CBS313.73_T,ERR2071900.2448925,98.53,68,1,0,195,262,34,101,2e-25,121
Rhinocladiella_aquaspersa_CBS313.73_T,ERR2071900.2448925,87.76,98,10,2,280,377,202,107,3e-23,113
Rhinocladiella_aquaspersa_CBS313.73_T,ERR2071900.3177256,96.43,56,2,0,595,650,202,147,5e-17,93.5
Rhinocladiella_aquaspersa_CBS313.73_T,ERR2071900.1592349,92.31,65,5,0,585,649,101,37,5e-17,93.5
Rhinocladiella_aquaspersa_CBS313.73_T,ERR2071900.5696964,97.78,45,1,0,195,239,146,102,1e-12,78.7
Rhinocladiella_aquaspersa_CBS313.73_T,ERR2071900.4697888,91.23,57,2,3,546,599,158,102,2e-11,75.0
Rhinocladiella_aquaspersa_CBS313.73_T,ERR2071900.1588485,100.00,36,0,0,571,606,36,1,3e-09,67.6
Rhinocladiella_aquaspersa_CBS313.73_T,ERR2071900.2755659,85.71,56,5,3,549,601,146,201,6e-06,56.5
Rhinocladiella_fasciculata_CBS132.86_T,ERR2071900.4337246,96.81,94,2,1,243,336,101,9,5e-36,156
Rhinocladiella_fasciculata_CBS132.86_T,ERR2071900.1658375,96.55,87,2,1,250,336,102,187,4e-32,143
Rhinocladiella_fasciculata_CBS132.86_T,ERR2071900.3688116,97.44,78,2,0,216,293,25,102,2e-29,134
Rhinocladiella_fasciculata_CBS132.86_T,ERR2071900.4422640,100.00,66,0,0,216,281,36,101,5e-26,122
Rhinocladiella_fasciculata_CBS132.86_T,ERR2071900.2448925,100.00,63,0,0,216,278,39,101,2e-24,117
Rhinocladiella_fasciculata_CBS132.86_T,ERR2071900.2448925,85.57,97,12,2,296,392,202,108,2e-19,100
Rhinocladiella_fasciculata_CBS132.86_T,ERR2071900.5696964,100.00,40,0,0,216,255,141,102,1e-11,75.0
Rhinocladiella_fasciculata_CBS132.86_T,ERR2071900.2964169,100.00,29,0,0,1,29,15,43,2e-05,54.7
Rhinocladiella_anceps_CBS181.65_T,ERR2071900.4337246,96.81,94,2,1,225,318,101,9,5e-36,156
Rhinocladiella_anceps_CBS181.65_T,ERR2071900.1658375,96.55,87,2,1,232,318,102,187,4e-32,143
Rhinocladiella_anceps_CBS181.65_T,ERR2071900.3688116,97.47,79,2,0,197,275,24,102,6e-30,135
Rhinocladiella_anceps_CBS181.65_T,ERR2071900.4422640,100.00,66,0,0,198,263,36,101,5e-26,122
Rhinocladiella_anceps_CBS181.65_T,ERR2071900.2448925,91.11,90,5,3,173,260,13,101,6e-25,119
Rhinocladiella_anceps_CBS181.65_T,ERR2071900.2448925,85.58,104,12,3,278,381,202,102,5e-21,106
Rhinocladiella_anceps_CBS181.65_T,ERR2071900.5696964,100.00,41,0,0,197,237,142,102,4e-12,76.8
Rhinocladiella_mackenziei_CBS367.92,ERR2071900.4337246,96.81,94,2,1,214,307,101,9,5e-36,156
Rhinocladiella_mackenziei_CBS367.92,ERR2071900.1658375,96.55,87,2,1,221,307,102,187,4e-32,143
Rhinocladiella_mackenziei_CBS367.92,ERR2071900.3688116,97.47,79,2,0,186,264,24,102,7e-30,135
Rhinocladiella_mackenziei_CBS367.92,ERR2071900.4422640,100.00,66,0,0,187,252,36,101,5e-26,122
Rhinocladiella_mackenziei_CBS367.92,ERR2071900.2448925,100.00,64,0,0,186,249,38,101,7e-25,119
Rhinocladiella_mackenziei_CBS367.92,ERR2071900.2448925,86.73,98,10,3,267,364,202,108,5e-21,106
Rhinocladiella_mackenziei_CBS367.92,ERR2071900.5696964,100.00,41,0,0,186,226,142,102,4e-12,76.8
Rhinocladiella_mackenziei_CBS367.92,ERR2071900.2485056,100.00,28,0,0,1,28,186,159,7e-05,52.8
Veronaea_compacta_CBS268.75_T,ERR2071900.4337246,96.81,94,2,1,247,340,101,9,5e-36,156
Veronaea_compacta_CBS268.75_T,ERR2071900.1658375,96.55,87,2,1,254,340,102,187,4e-32,143
Veronaea_compacta_CBS268.75_T,ERR2071900.3688116,96.39,83,2,1,216,297,20,102,7e-30,135
Veronaea_compacta_CBS268.75_T,ERR2071900.4422640,100.00,66,0,0,220,285,36,101,5e-26,122
Veronaea_compacta_CBS268.75_T,ERR2071900.2448925,98.53,68,0,1,216,282,34,101,7e-25,119
Veronaea_compacta_CBS268.75_T,ERR2071900.2448925,86.54,104,11,3,300,403,202,102,1e-22,111
Veronaea_compacta_CBS268.75_T,ERR2071900.5696964,97.78,45,0,1,216,259,146,102,4e-12,76.8
Veronaea_compacta_CBS268.75_T,ERR2071900.2485056,100.00,29,0,0,1,29,187,159,2e-05,54.7
Capronia_pilosella_AFTOL-ID657,ERR2071900.4337246,96.81,94,2,1,325,418,101,9,6e-36,156
Capronia_pilosella_AFTOL-ID657,ERR2071900.1658375,96.55,87,2,1,332,418,102,187,5e-32,143
Capronia_pilosella_AFTOL-ID657,ERR2071900.3688116,91.18,102,9,0,274,375,1,102,6e-31,139
Capronia_pilosella_AFTOL-ID657,ERR2071900.4422640,100.00,66,0,0,298,363,36,101,6e-26,122
Capronia_pilosella_AFTOL-ID657,ERR2071900.2448925,97.18,71,2,0,290,360,31,101,2e-25,121
Capronia_pilosella_AFTOL-ID657,ERR2071900.2448925,86.54,104,11,3,378,481,202,102,1e-22,111
Capronia_pilosella_AFTOL-ID657,ERR2071900.5696964,95.92,49,2,0,289,337,150,102,4e-13,80.5
Capronia_dactylotricha_DAOM208471_T,ERR2071900.4337246,96.81,94,2,1,227,320,101,9,6e-36,156
Capronia_dactylotricha_DAOM208471_T,ERR2071900.1658375,96.55,87,2,1,234,320,102,187,5e-32,143
Capronia_dactylotricha_DAOM208471_T,ERR2071900.3688116,97.47,79,2,0,199,277,24,102,8e-30,135
Capronia_dactylotricha_DAOM208471_T,ERR2071900.4422640,100.00,66,0,0,200,265,36,101,6e-26,122
Capronia_dactylotricha_DAOM208471_T,ERR2071900.2448925,93.90,82,4,1,182,262,20,101,6e-26,122
Capronia_dactylotricha_DAOM208471_T,ERR2071900.2448925,86.73,98,10,2,280,377,202,108,6e-21,106
Capronia_dactylotricha_DAOM208471_T,ERR2071900.4697888,96.36,55,2,0,558,612,156,102,2e-16,91.6
Capronia_dactylotricha_DAOM208471_T,ERR2071900.1592349,91.80,61,5,0,598,658,101,41,8e-15,86.1
Capronia_dactylotricha_DAOM208471_T,ERR2071900.3177256,96.08,51,2,0,608,658,202,152,3e-14,84.2
Capronia_dactylotricha_DAOM208471_T,ERR2071900.5696964,100.00,41,0,0,199,239,142,102,5e-12,76.8
Capronia_dactylotricha_DAOM208471_T,ERR2071900.2755659,89.29,56,6,0,559,614,146,201,2e-10,71.3
Capronia_dactylotricha_DAOM208471_T,ERR2071900.1588485,100.00,36,0,0,584,619,36,1,3e-09,67.6
Capronia_kleinmondensis_CBS122671_T,ERR2071900.4337246,96.81,94,2,1,252,345,101,9,6e-36,156
Capronia_kleinmondensis_CBS122671_T,ERR2071900.1658375,96.55,87,2,1,259,345,102,187,5e-32,143
Capronia_kleinmondensis_CBS122671_T,ERR2071900.3688116,97.47,79,2,0,224,302,24,102,8e-30,135
Capronia_kleinmondensis_CBS122671_T,ERR2071900.4422640,100.00,66,0,0,225,290,36,101,6e-26,122
Capronia_kleinmondensis_CBS122671_T,ERR2071900.2448925,100.00,64,0,0,224,287,38,101,8e-25,119
Capronia_kleinmondensis_CBS122671_T,ERR2071900.2448925,85.57,97,12,2,305,401,202,108,3e-19,100
Capronia_kleinmondensis_CBS122671_T,ERR2071900.4697888,96.36,55,2,0,564,618,156,102,2e-16,91.6
Capronia_kleinmondensis_CBS122671_T,ERR2071900.1592349,91.80,61,5,0,604,664,101,41,8e-15,86.1
Capronia_kleinmondensis_CBS122671_T,ERR2071900.3177256,96.08,51,2,0,614,664,202,152,3e-14,84.2
Capronia_kleinmondensis_CBS122671_T,ERR2071900.5696964,100.00,41,0,0,224,264,142,102,5e-12,76.8
Capronia_kleinmondensis_CBS122671_T,ERR2071900.2755659,89.29,56,6,0,565,620,146,201,2e-10,71.3
Capronia_kleinmondensis_CBS122671_T,ERR2071900.1588485,100.00,36,0,0,590,625,36,1,3e-09,67.6
Capronia_kleinmondensis_CBS122671_T,ERR2071900.2964169,100.00,32,0,0,1,32,12,43,5e-07,60.2
Capronia_kleinmondensis_CBS122671_T,ERR2071900.2485056,100.00,30,0,0,1,30,190,161,6e-06,56.5
Capronia_kleinmondensis_CBS122671_T,ERR2071900.2870156,100.00,28,0,0,1,28,73,46,8e-05,52.8
Capronia_mansonii_CBS101.67_T,ERR2071900.4337246,96.81,94,2,1,238,331,101,9,6e-36,156
Capronia_mansonii_CBS101.67_T,ERR2071900.1658375,96.55,87,2,1,245,331,102,187,5e-32,143
Capronia_mansonii_CBS101.67_T,ERR2071900.3688116,96.39,83,2,1,207,288,20,102,8e-30,135
Capronia_mansonii_CBS101.67_T,ERR2071900.4422640,100.00,66,0,0,211,276,36,101,6e-26,122
Capronia_mansonii_CBS101.67_T,ERR2071900.2448925,98.53,68,0,1,207,273,34,101,8e-25,119
Capronia_mansonii_CBS101.67_T,ERR2071900.2448925,87.50,104,10,3,291,394,202,102,3e-24,117
Capronia_mansonii_CBS101.67_T,ERR2071900.4697888,98.21,56,1,0,567,622,157,102,1e-18,99.0
Capronia_mansonii_CBS101.67_T,ERR2071900.1592349,91.80,61,5,0,608,668,101,41,8e-15,86.1
Capronia_mansonii_CBS101.67_T,ERR2071900.3177256,96.08,51,2,0,618,668,202,152,3e-14,84.2
Capronia_mansonii_CBS101.67_T,ERR2071900.2755659,86.30,73,8,2,554,624,129,201,1e-12,78.7
Capronia_mansonii_CBS101.67_T,ERR2071900.5696964,97.78,45,0,1,207,250,146,102,5e-12,76.8
Capronia_mansonii_CBS101.67_T,ERR2071900.1588485,97.50,40,1,0,590,629,40,1,8e-10,69.4
Capronia_munkii_DAOM216390_T,ERR2071900.4337246,96.81,94,2,1,238,331,101,9,6e-36,156
Capronia_munkii_DAOM216390_T,ERR2071900.1658375,96.55,87,2,1,245,331,102,187,5e-32,143
Capronia_munkii_DAOM216390_T,ERR2071900.3688116,96.39,83,2,1,207,288,20,102,8e-30,135
Capronia_munkii_DAOM216390_T,ERR2071900.4422640,100.00,66,0,0,211,276,36,101,6e-26,122
Capronia_munkii_DAOM216390_T,ERR2071900.2448925,98.53,68,0,1,207,273,34,101,8e-25,119
Capronia_munkii_DAOM216390_T,ERR2071900.2448925,87.50,104,10,3,291,394,202,102,3e-24,117
Capronia_munkii_DAOM216390_T,ERR2071900.4697888,98.21,56,1,0,567,622,157,102,1e-18,99.0
Capronia_munkii_DAOM216390_T,ERR2071900.1592349,91.80,61,5,0,608,668,101,41,8e-15,86.1
Capronia_munkii_DAOM216390_T,ERR2071900.3177256,96.08,51,2,0,618,668,202,152,3e-14,84.2
Capronia_munkii_DAOM216390_T,ERR2071900.5696964,97.78,45,0,1,207,250,146,102,5e-12,76.8
Capronia_munkii_DAOM216390_T,ERR2071900.2755659,91.07,56,5,0,569,624,146,201,5e-12,76.8
Capronia_munkii_DAOM216390_T,ERR2071900.1588485,97.50,40,1,0,590,629,40,1,8e-10,69.4
Capronia_coronata_ATCC56201_T,ERR2071900.4337246,96.81,94,2,1,226,319,101,9,6e-36,156
Capronia_coronata_ATCC56201_T,ERR2071900.1658375,96.55,87,2,1,233,319,102,187,4e-32,143
Capronia_coronata_ATCC56201_T,ERR2071900.3688116,93.62,94,4,2,184,276,10,102,6e-31,139
Capronia_coronata_ATCC56201_T,ERR2071900.4422640,100.00,66,0,0,199,264,36,101,6e-26,122
Capronia_coronata_ATCC56201_T,ERR2071900.2448925,97.18,71,2,0,191,261,31,101,2e-25,121
Capronia_coronata_ATCC56201_T,ERR2071900.2448925,86.54,104,11,3,279,382,202,102,1e-22,111
Capronia_coronata_ATCC56201_T,ERR2071900.4697888,98.25,57,1,0,537,593,158,102,3e-19,100
Capronia_coronata_ATCC56201_T,ERR2071900.1592349,91.80,61,5,0,579,639,101,41,7e-15,86.1
Capronia_coronata_ATCC56201_T,ERR2071900.3177256,96.08,51,2,0,589,639,202,152,3e-14,84.2
Capronia_coronata_ATCC56201_T,ERR2071900.5696964,95.92,49,2,0,190,238,150,102,3e-13,80.5
Capronia_coronata_ATCC56201_T,ERR2071900.2755659,91.07,56,5,0,540,595,146,201,5e-12,76.8
Capronia_coronata_ATCC56201_T,ERR2071900.1588485,97.50,40,1,0,561,600,40,1,8e-10,69.4
Capronia_parasitica_CBS123.88,ERR2071900.4337246,96.81,94,2,1,232,325,101,9,5e-36,156
Capronia_parasitica_CBS123.88,ERR2071900.1658375,96.55,87,2,1,239,325,102,187,4e-32,143
Capronia_parasitica_CBS123.88,ERR2071900.3688116,97.44,78,2,0,205,282,25,102,2e-29,134
Capronia_parasitica_CBS123.88,ERR2071900.4422640,100.00,67,0,0,204,270,35,101,1e-26,124
Capronia_parasitica_CBS123.88,ERR2071900.2448925,100.00,63,0,0,205,267,39,101,2e-24,117
Capronia_parasitica_CBS123.88,ERR2071900.2448925,84.62,104,11,5,285,388,202,104,9e-19,99.0
Capronia_parasitica_CBS123.88,ERR2071900.5696964,100.00,40,0,0,205,244,141,102,2e-11,75.0
Veronaea_japonica_CBS776.83_T,ERR2071900.4337246,96.81,94,2,1,260,353,101,9,5e-36,156
Veronaea_japonica_CBS776.83_T,ERR2071900.1658375,96.55,87,2,1,267,353,102,187,4e-32,143
Veronaea_japonica_CBS776.83_T,ERR2071900.3688116,96.39,83,2,1,229,310,20,102,7e-30,135
Veronaea_japonica_CBS776.83_T,ERR2071900.4422640,100.00,66,0,0,233,298,36,101,5e-26,122
Veronaea_japonica_CBS776.83_T,ERR2071900.2448925,88.35,103,10,2,313,415,202,102,5e-26,122
Veronaea_japonica_CBS776.83_T,ERR2071900.2448925,98.53,68,0,1,229,295,34,101,7e-25,119
Veronaea_japonica_CBS776.83_T,ERR2071900.5696964,97.78,45,0,1,229,272,146,102,4e-12,76.8
Veronaea_japonica_CBS776.83_T,ERR2071900.2485056,100.00,40,0,0,1,40,198,159,2e-11,75.0
Veronaea_japonica_CBS776.83_T,ERR2071900.2964169,100.00,38,0,0,1,38,4,41,2e-10,71.3
Veronaea_japonica_CBS776.83_T,ERR2071900.2870156,100.00,36,0,0,1,36,81,46,3e-09,67.6
Thysanorea_papuana_CBS212.96_T,ERR2071900.4337246,96.81,94,2,1,234,327,101,9,5e-36,156
Thysanorea_papuana_CBS212.96_T,ERR2071900.1658375,96.55,87,2,1,241,327,102,187,4e-32,143
Thysanorea_papuana_CBS212.96_T,ERR2071900.3688116,91.43,105,5,4,181,284,1,102,1e-31,141
Thysanorea_papuana_CBS212.96_T,ERR2071900.4422640,100.00,66,0,0,207,272,36,101,5e-26,122
Thysanorea_papuana_CBS212.96_T,ERR2071900.2448925,98.53,68,0,1,203,269,34,101,7e-25,119
Thysanorea_papuana_CBS212.96_T,ERR2071900.2448925,86.41,103,12,2,287,389,202,102,1e-22,111
Thysanorea_papuana_CBS212.96_T,ERR2071900.5696964,97.78,45,0,1,203,246,146,102,4e-12,76.8
Capronia_acutiseta_ATCC56428_T,ERR2071900.4337246,95.74,94,2,2,228,320,101,9,3e-34,150
Capronia_acutiseta_ATCC56428_T,ERR2071900.1658375,95.40,87,2,2,235,320,102,187,2e-30,137
Capronia_acutiseta_ATCC56428_T,ERR2071900.3688116,96.20,79,2,1,200,277,24,102,1e-27,128
Capronia_acutiseta_ATCC56428_T,ERR2071900.4422640,98.48,66,0,1,201,265,36,101,1e-23,115
Capronia_acutiseta_ATCC56428_T,ERR2071900.2448925,98.44,64,0,1,200,262,38,101,1e-22,111
Capronia_acutiseta_ATCC56428_T,ERR2071900.2448925,86.00,100,11,3,280,379,202,106,2e-20,104
Capronia_acutiseta_ATCC56428_T,ERR2071900.4697888,93.85,65,4,0,528,592,166,102,1e-18,99.0
Capronia_acutiseta_ATCC56428_T,ERR2071900.1592349,91.80,61,5,0,578,638,101,41,7e-15,86.1
Capronia_acutiseta_ATCC56428_T,ERR2071900.3177256,94.12,51,3,0,588,638,202,152,1e-12,78.7
Capronia_acutiseta_ATCC56428_T,ERR2071900.5696964,100.00,41,0,0,200,240,142,102,4e-12,76.8
Capronia_acutiseta_ATCC56428_T,ERR2071900.2755659,89.29,56,6,0,539,594,146,201,2e-10,71.3
Capronia_acutiseta_ATCC56428_T,ERR2071900.1588485,100.00,36,0,0,564,599,36,1,3e-09,67.6
Fonsecaea_brasiliensis_CBS119710_T,ERR2071900.4337246,96.81,94,2,1,234,327,101,9,5e-36,156
Fonsecaea_brasiliensis_CBS119710_T,ERR2071900.1658375,96.55,87,2,1,241,327,102,187,4e-32,143
Fonsecaea_brasiliensis_CBS119710_T,ERR2071900.3688116,97.44,78,2,0,207,284,25,102,2e-29,134
Fonsecaea_brasiliensis_CBS119710_T,ERR2071900.4422640,100.00,66,0,0,207,272,36,101,5e-26,122
Fonsecaea_brasiliensis_CBS119710_T,ERR2071900.2448925,100.00,63,0,0,207,269,39,101,2e-24,117
Fonsecaea_brasiliensis_CBS119710_T,ERR2071900.2448925,85.58,104,12,3,287,390,202,102,5e-21,106
Fonsecaea_brasiliensis_CBS119710_T,ERR2071900.5696964,100.00,40,0,0,207,246,141,102,1e-11,75.0
Fonsecaea_pedrosoi_CBS271.37_T,ERR2071900.4337246,96.81,94,2,1,262,355,101,9,6e-36,156
Fonsecaea_pedrosoi_CBS271.37_T,ERR2071900.1658375,96.55,87,2,1,269,355,102,187,4e-32,143
Fonsecaea_pedrosoi_CBS271.37_T,ERR2071900.3688116,97.44,78,2,0,235,312,25,102,3e-29,134
Fonsecaea_pedrosoi_CBS271.37_T,ERR2071900.4422640,100.00,66,0,0,235,300,36,101,6e-26,122
Fonsecaea_pedrosoi_CBS271.37_T,ERR2071900.2448925,100.00,63,0,0,235,297,39,101,3e-24,117
Fonsecaea_pedrosoi_CBS271.37_T,ERR2071900.2448925,85.71,105,11,4,315,419,202,102,2e-21,108
Fonsecaea_pedrosoi_CBS271.37_T,ERR2071900.5696964,100.00,40,0,0,235,274,141,102,2e-11,75.0
Fonsecaea_pedrosoi_CBS271.37_T,ERR2071900.2755659,89.29,56,6,0,586,641,146,201,2e-10,71.3
Fonsecaea_pedrosoi_CBS271.37_T,ERR2071900.1588485,94.87,39,2,0,607,645,40,2,1e-07,62.1
Fonsecaea_pedrosoi_CBS271.37_T,ERR2071900.2485056,100.00,31,0,0,1,31,190,160,2e-06,58.4
Fonsecaea_pedrosoi_CBS271.37_T,ERR2071900.2964169,100.00,30,0,0,1,30,12,41,6e-06,56.5
Fonsecaea_pedrosoi_CBS271.37_T,ERR2071900.2870156,100.00,28,0,0,1,28,73,46,8e-05,52.8
Fonsecaea_multimorphosa_CBS980.96_T,ERR2071900.4337246,96.81,94,2,1,232,325,101,9,5e-36,156
Fonsecaea_multimorphosa_CBS980.96_T,ERR2071900.1658375,96.55,87,2,1,239,325,102,187,4e-32,143
Fonsecaea_multimorphosa_CBS980.96_T,ERR2071900.3688116,97.44,78,2,0,205,282,25,102,2e-29,134
Fonsecaea_multimorphosa_CBS980.96_T,ERR2071900.4422640,100.00,66,0,0,205,270,36,101,5e-26,122
Fonsecaea_multimorphosa_CBS980.96_T,ERR2071900.2448925,100.00,63,0,0,205,267,39,101,2e-24,117
Fonsecaea_multimorphosa_CBS980.96_T,ERR2071900.2448925,86.32,95,10,3,285,379,202,111,2e-19,100
Fonsecaea_multimorphosa_CBS980.96_T,ERR2071900.5696964,100.00,40,0,0,205,244,141,102,1e-11,75.0
Fonsecaea_minima_CBS125760_T,ERR2071900.4337246,96.81,94,2,1,228,321,101,9,5e-36,156
Fonsecaea_minima_CBS125760_T,ERR2071900.1658375,96.55,87,2,1,235,321,102,187,4e-32,143
Fonsecaea_minima_CBS125760_T,ERR2071900.3688116,97.44,78,2,0,201,278,25,102,2e-29,134
Fonsecaea_minima_CBS125760_T,ERR2071900.4422640,100.00,66,0,0,201,266,36,101,5e-26,122
Fonsecaea_minima_CBS125760_T,ERR2071900.2448925,100.00,63,0,0,201,263,39,101,2e-24,117
Fonsecaea_minima_CBS125760_T,ERR2071900.2448925,85.58,104,12,3,281,384,202,102,5e-21,106
Fonsecaea_minima_CBS125760_T,ERR2071900.5696964,100.00,40,0,0,201,240,141,102,1e-11,75.0
Fonsecaea_nubica_CBS269.64_T,ERR2071900.4337246,96.81,94,2,1,239,332,101,9,5e-36,156
Fonsecaea_nubica_CBS269.64_T,ERR2071900.1658375,96.55,87,2,1,246,332,102,187,4e-32,143
Fonsecaea_nubica_CBS269.64_T,ERR2071900.3688116,97.44,78,2,0,212,289,25,102,2e-29,134
Fonsecaea_nubica_CBS269.64_T,ERR2071900.4422640,100.00,66,0,0,212,277,36,101,5e-26,122
Fonsecaea_nubica_CBS269.64_T,ERR2071900.2448925,100.00,63,0,0,212,274,39,101,2e-24,117
Fonsecaea_nubica_CBS269.64_T,ERR2071900.2448925,85.71,105,11,4,292,396,202,102,1e-21,108
Fonsecaea_nubica_CBS269.64_T,ERR2071900.5696964,100.00,40,0,0,212,251,141,102,1e-11,75.0
Fonsecaea_monophora_CBS269.37_T,ERR2071900.4337246,95.79,95,2,2,239,333,101,9,6e-35,152
Fonsecaea_monophora_CBS269.37_T,ERR2071900.1658375,95.45,88,2,2,246,333,102,187,5e-31,139
Fonsecaea_monophora_CBS269.37_T,ERR2071900.3688116,96.20,79,2,1,212,290,25,102,1e-27,128
Fonsecaea_monophora_CBS269.37_T,ERR2071900.4422640,98.51,67,0,1,212,278,36,101,2e-24,117
Fonsecaea_monophora_CBS269.37_T,ERR2071900.2448925,98.44,64,0,1,212,275,39,101,1e-22,111
Fonsecaea_monophora_CBS269.37_T,ERR2071900.2448925,85.71,105,11,4,293,397,202,102,1e-21,108
Fonsecaea_monophora_CBS269.37_T,ERR2071900.5696964,100.00,40,0,0,212,251,141,102,1e-11,75.0
Fonsecaea_erecta_CBS125763_T,ERR2071900.4337246,96.81,94,2,1,223,316,101,9,5e-36,156
Fonsecaea_erecta_CBS125763_T,ERR2071900.1658375,96.55,87,2,1,230,316,102,187,4e-32,143
Fonsecaea_erecta_CBS125763_T,ERR2071900.3688116,90.48,105,7,3,169,273,1,102,6e-30,135
Fonsecaea_erecta_CBS125763_T,ERR2071900.4422640,100.00,66,0,0,196,261,36,101,5e-26,122
Fonsecaea_erecta_CBS125763_T,ERR2071900.2448925,100.00,63,0,0,196,258,39,101,2e-24,117
Fonsecaea_erecta_CBS125763_T,ERR2071900.2448925,86.54,104,11,3,276,379,202,102,1e-22,111
Fonsecaea_erecta_CBS125763_T,ERR2071900.5696964,100.00,40,0,0,196,235,141,102,1e-11,75.0
Fonsecaea_pugnacius_CBS139214_T,ERR2071900.4337246,96.81,94,2,1,232,325,101,9,5e-36,156
Fonsecaea_pugnacius_CBS139214_T,ERR2071900.1658375,96.55,87,2,1,239,325,102,187,4e-32,143
Fonsecaea_pugnacius_CBS139214_T,ERR2071900.3688116,97.44,78,2,0,205,282,25,102,2e-29,134
Fonsecaea_pugnacius_CBS139214_T,ERR2071900.4422640,100.00,66,0,0,205,270,36,101,5e-26,122
Fonsecaea_pugnacius_CBS139214_T,ERR2071900.2448925,100.00,63,0,0,205,267,39,101,2e-24,117
Fonsecaea_pugnacius_CBS139214_T,ERR2071900.2448925,85.85,106,10,5,285,390,202,102,1e-21,108
Fonsecaea_pugnacius_CBS139214_T,ERR2071900.5696964,100.00,40,0,0,205,244,141,102,1e-11,75.0
Cladophialophora_psammophila_CBS,ERR2071900.4337246,96.81,94,2,1,238,331,101,9,5e-36,156
Cladophialophora_psammophila_CBS,ERR2071900.1658375,96.55,87,2,1,245,331,102,187,4e-32,143
Cladophialophora_psammophila_CBS,ERR2071900.3688116,97.44,78,2,0,211,288,25,102,2e-29,134
Cladophialophora_psammophila_CBS,ERR2071900.4422640,100.00,66,0,0,211,276,36,101,5e-26,122
Cladophialophora_psammophila_CBS,ERR2071900.2448925,100.00,63,0,0,211,273,39,101,2e-24,117
Cladophialophora_psammophila_CBS,ERR2071900.2448925,86.54,104,11,3,291,394,202,102,1e-22,111
Cladophialophora_psammophila_CBS,ERR2071900.5696964,94.00,50,2,1,202,250,151,102,1e-11,75.0
Cladophialophora_devriesii_CBS,ERR2071900.4337246,96.81,94,2,1,234,327,101,9,5e-36,156
Cladophialophora_devriesii_CBS,ERR2071900.1658375,96.55,87,2,1,241,327,102,187,4e-32,143
Cladophialophora_devriesii_CBS,ERR2071900.3688116,97.44,78,2,0,207,284,25,102,2e-29,134
Cladophialophora_devriesii_CBS,ERR2071900.4422640,100.00,66,0,0,207,272,36,101,5e-26,122
Cladophialophora_devriesii_CBS,ERR2071900.2448925,100.00,63,0,0,207,269,39,101,2e-24,117
Cladophialophora_devriesii_CBS,ERR2071900.2448925,86.32,95,10,3,287,381,202,111,2e-19,100
Cladophialophora_devriesii_CBS,ERR2071900.5696964,100.00,40,0,0,207,246,141,102,1e-11,75.0
Cladophialophora_immunda_CBS834.96,ERR2071900.4337246,96.81,94,2,1,236,329,101,9,5e-36,156
Cladophialophora_immunda_CBS834.96,ERR2071900.1658375,96.55,87,2,1,243,329,102,187,4e-32,143
Cladophialophora_immunda_CBS834.96,ERR2071900.3688116,97.44,78,2,0,209,286,25,102,2e-29,134
Cladophialophora_immunda_CBS834.96,ERR2071900.4422640,100.00,66,0,0,209,274,36,101,5e-26,122
Cladophialophora_immunda_CBS834.96,ERR2071900.2448925,100.00,63,0,0,209,271,39,101,2e-24,117
Cladophialophora_immunda_CBS834.96,ERR2071900.2448925,85.58,104,12,3,289,392,202,102,5e-21,106
Cladophialophora_immunda_CBS834.96,ERR2071900.5696964,100.00,40,0,0,209,248,141,102,1e-11,75.0
Cladophialophora_arxii_CBS306.94_T,ERR2071900.4337246,96.81,94,2,1,238,331,101,9,5e-36,156
Cladophialophora_arxii_CBS306.94_T,ERR2071900.1658375,96.55,87,2,1,245,331,102,187,4e-32,143
Cladophialophora_arxii_CBS306.94_T,ERR2071900.3688116,97.44,78,2,0,211,288,25,102,2e-29,134
Cladophialophora_arxii_CBS306.94_T,ERR2071900.4422640,100.00,66,0,0,211,276,36,101,5e-26,122
Cladophialophora_arxii_CBS306.94_T,ERR2071900.2448925,100.00,63,0,0,211,273,39,101,2e-24,117
Cladophialophora_arxii_CBS306.94_T,ERR2071900.2448925,84.91,106,11,4,291,396,202,102,6e-20,102
Cladophialophora_arxii_CBS306.94_T,ERR2071900.5696964,100.00,40,0,0,211,250,141,102,1e-11,75.0
Cladophialophora_bantiana_CBS173.52,ERR2071900.4337246,96.81,94,2,1,232,325,101,9,5e-36,156
Cladophialophora_bantiana_CBS173.52,ERR2071900.1658375,96.55,87,2,1,239,325,102,187,4e-32,143
Cladophialophora_bantiana_CBS173.52,ERR2071900.3688116,97.44,78,2,0,205,282,25,102,2e-29,134
Cladophialophora_bantiana_CBS173.52,ERR2071900.4422640,100.00,66,0,0,205,270,36,101,5e-26,122
Cladophialophora_bantiana_CBS173.52,ERR2071900.2448925,100.00,63,0,0,205,267,39,101,2e-24,117
Cladophialophora_bantiana_CBS173.52,ERR2071900.2448925,86.54,104,11,3,285,388,202,102,1e-22,111
Cladophialophora_bantiana_CBS173.52,ERR2071900.5696964,100.00,40,0,0,205,244,141,102,1e-11,75.0
Cladophialophora_emmonsii_CBS102594,ERR2071900.4337246,96.81,94,2,1,223,316,101,9,5e-36,156
Cladophialophora_emmonsii_CBS102594,ERR2071900.1658375,96.55,87,2,1,230,316,102,187,4e-32,143
Cladophialophora_emmonsii_CBS102594,ERR2071900.3688116,97.44,78,2,0,196,273,25,102,2e-29,134
Cladophialophora_emmonsii_CBS102594,ERR2071900.4422640,100.00,66,0,0,196,261,36,101,5e-26,122
Cladophialophora_emmonsii_CBS102594,ERR2071900.2448925,100.00,63,0,0,196,258,39,101,2e-24,117
Cladophialophora_emmonsii_CBS102594,ERR2071900.2448925,86.67,105,10,4,276,380,202,102,3e-23,113
Cladophialophora_emmonsii_CBS102594,ERR2071900.5696964,100.00,40,0,0,196,235,141,102,1e-11,75.0
Cladophialophora_minourae_CBS556.83,ERR2071900.4337246,95.74,94,3,1,231,324,101,9,2e-34,150
Cladophialophora_minourae_CBS556.83,ERR2071900.1658375,95.40,87,3,1,238,324,102,187,2e-30,137
Cladophialophora_minourae_CBS556.83,ERR2071900.3688116,97.44,78,2,0,204,281,25,102,2e-29,134
Cladophialophora_minourae_CBS556.83,ERR2071900.4422640,100.00,66,0,0,204,269,36,101,5e-26,122
Cladophialophora_minourae_CBS556.83,ERR2071900.2448925,100.00,63,0,0,204,266,39,101,2e-24,117
Cladophialophora_minourae_CBS556.83,ERR2071900.2448925,83.70,92,12,3,290,381,197,109,2e-14,84.2
Cladophialophora_minourae_CBS556.83,ERR2071900.5696964,100.00,40,0,0,204,243,141,102,1e-11,75.0
Cladophialophora_australiensis_CBS112793,ERR2071900.5289402,98.02,101,2,0,1361,1461,102,202,1e-41,176
Cladophialophora_australiensis_CBS112793,ERR2071900.2264820,97.92,96,2,0,876,971,102,197,6e-39,167
Cladophialophora_australiensis_CBS112793,ERR2071900.2264820,85.58,104,10,4,1161,1262,101,1,5e-20,104
Cladophialophora_australiensis_CBS112793,ERR2071900.3211041,96.04,101,4,0,1362,1462,1,101,2e-38,165
Cladophialophora_australiensis_CBS112793,ERR2071900.1994556,97.89,95,2,0,848,942,98,4,2e-38,165
Cladophialophora_australiensis_CBS112793,ERR2071900.187838,96.94,98,3,0,876,973,1,98,2e-38,165
Cladophialophora_australiensis_CBS112793,ERR2071900.3674198,95.00,100,5,0,843,942,202,103,4e-36,158
Cladophialophora_australiensis_CBS112793,ERR2071900.3448653,94.17,103,6,0,1349,1451,100,202,4e-36,158
Cladophialophora_australiensis_CBS112793,ERR2071900.1281152,95.00,100,5,0,814,913,101,2,4e-36,158
Cladophialophora_australiensis_CBS112793,ERR2071900.81267,95.00,100,5,0,814,913,101,2,4e-36,158
Cladophialophora_australiensis_CBS112793,ERR2071900.4337246,96.81,94,2,1,233,326,101,9,1e-35,156
Cladophialophora_australiensis_CBS112793,ERR2071900.682998,94.12,102,6,0,1326,1427,1,102,1e-35,156
Cladophialophora_australiensis_CBS112793,ERR2071900.5503642,95.74,94,4,0,1378,1471,101,8,2e-34,152
Cladophialophora_australiensis_CBS112793,ERR2071900.3177256,93.20,103,5,2,596,698,202,102,6e-34,150
Cladophialophora_australiensis_CBS112793,ERR2071900.1658375,96.55,87,2,1,240,326,102,187,1e-31,143
Cladophialophora_australiensis_CBS112793,ERR2071900.2023543,94.51,91,4,1,1382,1471,105,15,1e-30,139
Cladophialophora_australiensis_CBS112793,ERR2071900.2023543,83.87,93,10,2,1281,1368,110,202,6e-14,84.2
Cladophialophora_australiensis_CBS112793,ERR2071900.1623317,97.50,80,2,0,1340,1419,181,102,5e-30,137
Cladophialophora_australiensis_CBS112793,ERR2071900.1443422,98.70,77,1,0,808,884,178,102,5e-30,137
Cladophialophora_australiensis_CBS112793,ERR2071900.3688116,96.39,83,2,1,202,283,20,102,2e-29,135
Cladophialophora_australiensis_CBS112793,ERR2071900.686871,94.32,88,5,0,848,935,9,96,2e-29,135
Cladophialophora_australiensis_CBS112793,ERR2071900.2400207,97.44,78,2,0,1394,1471,101,24,6e-29,134
Cladophialophora_australiensis_CBS112793,ERR2071900.2400207,89.77,88,9,0,1153,1240,106,193,8e-23,113
Cladophialophora_australiensis_CBS112793,ERR2071900.2379545,91.49,94,8,0,1288,1381,195,102,8e-28,130
Cladophialophora_australiensis_CBS112793,ERR2071900.5433561,95.06,81,4,0,1391,1471,2,82,3e-27,128
Cladophialophora_australiensis_CBS112793,ERR2071900.1989021,89.22,102,11,0,1130,1231,2,103,3e-27,128
Cladophialophora_australiensis_CBS112793,ERR2071900.1132787,89.22,102,11,0,1130,1231,2,103,3e-27,128
Cladophialophora_australiensis_CBS112793,ERR2071900.4422640,100.00,67,0,0,205,271,35,101,4e-26,124
Cladophialophora_australiensis_CBS112793,ERR2071900.399176,90.43,94,9,0,849,942,196,103,4e-26,124
Cladophialophora_australiensis_CBS112793,ERR2071900.2448925,98.53,68,0,1,202,268,34,101,2e-24,119
Cladophialophora_australiensis_CBS112793,ERR2071900.2448925,85.44,103,13,2,286,388,202,102,1e-20,106
Cladophialophora_australiensis_CBS112793,ERR2071900.1592349,90.00,90,9,0,586,675,101,12,6e-24,117
Cladophialophora_australiensis_CBS112793,ERR2071900.2099821,98.00,50,1,0,1335,1384,151,102,5e-15,87.9
Cladophialophora_australiensis_CBS112793,ERR2071900.2099821,94.44,54,3,0,1159,1212,38,91,6e-14,84.2
Cladophialophora_australiensis_CBS112793,ERR2071900.3691557,91.67,60,5,0,1153,1212,162,103,6e-14,84.2
Cladophialophora_australiensis_CBS112793,ERR2071900.396025,90.48,63,6,0,1177,1239,129,191,6e-14,84.2
Cladophialophora_australiensis_CBS112793,ERR2071900.3312527,82.65,98,12,5,751,845,6,101,2e-13,82.4
Cladophialophora_australiensis_CBS112793,ERR2071900.1734069,91.53,59,5,0,1154,1212,163,105,2e-13,82.4
Cladophialophora_australiensis_CBS112793,ERR2071900.1539911,91.53,59,5,0,1154,1212,60,2,2e-13,82.4
Cladophialophora_australiensis_CBS112793,ERR2071900.3868509,86.30,73,10,0,1153,1225,75,3,8e-13,80.5
Cladophialophora_australiensis_CBS112793,ERR2071900.5696964,97.78,45,0,1,202,245,146,102,1e-11,76.8
Cladophialophora_australiensis_CBS112793,ERR2071900.5274478,93.88,49,3,0,1177,1225,152,200,4e-11,75.0
Cladophialophora_australiensis_CBS112793,ERR2071900.3779366,93.88,49,3,0,1177,1225,121,169,4e-11,75.0
Cladophialophora_australiensis_CBS112793,ERR2071900.2950704,93.88,49,3,0,1177,1225,31,79,4e-11,75.0
Cladophialophora_australiensis_CBS112793,ERR2071900.363529,93.88,49,3,0,1177,1225,20,68,4e-11,75.0
Cladophialophora_australiensis_CBS112793,ERR2071900.2755659,89.29,56,6,0,547,602,146,201,5e-10,71.3
Cladophialophora_australiensis_CBS112793,ERR2071900.5067184,93.48,46,3,0,1177,1222,46,1,2e-09,69.4
Cladophialophora_australiensis_CBS112793,ERR2071900.5466566,79.21,101,18,2,751,848,1,101,6e-09,67.6
Cladophialophora_australiensis_CBS112793,ERR2071900.3039467,100.00,36,0,0,1177,1212,144,109,6e-09,67.6
Cladophialophora_australiensis_CBS112793,ERR2071900.5028657,97.30,37,1,0,1435,1471,202,166,8e-08,63.9
Cladophialophora_australiensis_CBS112793,ERR2071900.1588485,95.00,40,2,0,568,607,40,1,8e-08,63.9
Cladophialophora_australiensis_CBS112793,ERR2071900.3705924,94.74,38,2,0,1173,1210,41,4,1e-06,60.2
Cladophialophora_australiensis_CBS112793,ERR2071900.919432,90.91,44,4,0,1180,1223,157,114,1e-06,60.2
Cladophialophora_australiensis_CBS112793,ERR2071900.4198435,89.13,46,5,0,1180,1225,126,171,4e-06,58.4
Cladophialophora_australiensis_CBS112793,ERR2071900.3811041,100.00,28,0,0,1179,1206,90,63,2e-04,52.8
Cladophialophora_potulentorum_CBS112222,ERR2071900.5289402,98.02,101,2,0,1363,1463,102,202,1e-41,176
Cladophialophora_potulentorum_CBS112222,ERR2071900.187838,97.00,100,3,0,878,977,1,100,2e-39,169
Cladophialophora_potulentorum_CBS112222,ERR2071900.2264820,97.92,96,2,0,878,973,102,197,6e-39,167
Cladophialophora_potulentorum_CBS112222,ERR2071900.2264820,84.47,103,13,3,1163,1264,101,1,2e-18,99.0
Cladophialophora_potulentorum_CBS112222,ERR2071900.3211041,96.04,101,4,0,1364,1464,1,101,2e-38,165
Cladophialophora_potulentorum_CBS112222,ERR2071900.2400207,96.94,98,3,0,1396,1493,101,4,2e-38,165
Cladophialophora_potulentorum_CBS112222,ERR2071900.2400207,89.77,88,9,0,1155,1242,106,193,8e-23,113
Cladophialophora_potulentorum_CBS112222,ERR2071900.1994556,97.89,95,2,0,850,944,98,4,2e-38,165
Cladophialophora_potulentorum_CBS112222,ERR2071900.5503642,95.05,101,5,0,1380,1480,101,1,1e-36,159
Cladophialophora_potulentorum_CBS112222,ERR2071900.2023543,94.29,105,5,1,1384,1487,105,1,1e-36,159
Cladophialophora_potulentorum_CBS112222,ERR2071900.2023543,83.87,93,10,2,1283,1370,110,202,6e-14,84.2
Cladophialophora_potulentorum_CBS112222,ERR2071900.5433561,95.00,100,5,0,1393,1492,2,101,4e-36,158
Cladophialophora_potulentorum_CBS112222,ERR2071900.3674198,95.00,100,5,0,845,944,202,103,4e-36,158
Cladophialophora_potulentorum_CBS112222,ERR2071900.3448653,94.17,103,6,0,1351,1453,100,202,4e-36,158
Cladophialophora_potulentorum_CBS112222,ERR2071900.1281152,95.00,100,5,0,816,915,101,2,4e-36,158
Cladophialophora_potulentorum_CBS112222,ERR2071900.81267,95.00,100,5,0,816,915,101,2,4e-36,158
Cladophialophora_potulentorum_CBS112222,ERR2071900.4337246,96.81,94,2,1,232,325,101,9,1e-35,156
Cladophialophora_potulentorum_CBS112222,ERR2071900.682998,94.12,102,6,0,1328,1429,1,102,1e-35,156
Cladophialophora_potulentorum_CBS112222,ERR2071900.3177256,93.20,103,5,2,598,700,202,102,6e-34,150
Cladophialophora_potulentorum_CBS112222,ERR2071900.1658375,96.55,87,2,1,239,325,102,187,1e-31,143
Cladophialophora_potulentorum_CBS112222,ERR2071900.1623317,97.50,80,2,0,1342,1421,181,102,5e-30,137
Cladophialophora_potulentorum_CBS112222,ERR2071900.1443422,98.70,77,1,0,810,886,178,102,5e-30,137
Cladophialophora_potulentorum_CBS112222,ERR2071900.3688116,96.39,83,2,1,201,282,20,102,2e-29,135
Cladophialophora_potulentorum_CBS112222,ERR2071900.686871,94.32,88,5,0,850,937,9,96,2e-29,135
Cladophialophora_potulentorum_CBS112222,ERR2071900.2379545,91.49,94,8,0,1290,1383,195,102,8e-28,130
Cladophialophora_potulentorum_CBS112222,ERR2071900.1989021,89.22,102,11,0,1132,1233,2,103,3e-27,128
Cladophialophora_potulentorum_CBS112222,ERR2071900.1132787,89.22,102,11,0,1132,1233,2,103,3e-27,128
Cladophialophora_potulentorum_CBS112222,ERR2071900.399176,90.43,94,9,0,851,944,196,103,4e-26,124
Cladophialophora_potulentorum_CBS112222,ERR2071900.4422640,100.00,66,0,0,205,270,36,101,1e-25,122
Cladophialophora_potulentorum_CBS112222,ERR2071900.2448925,98.53,68,0,1,201,267,34,101,2e-24,119
Cladophialophora_potulentorum_CBS112222,ERR2071900.2448925,84.47,103,14,2,285,387,202,102,6e-19,100
Cladophialophora_potulentorum_CBS112222,ERR2071900.1592349,90.00,90,9,0,588,677,101,12,6e-24,117
Cladophialophora_potulentorum_CBS112222,ERR2071900.3312527,83.51,97,13,3,753,847,6,101,5e-15,87.9
Cladophialophora_potulentorum_CBS112222,ERR2071900.2099821,98.00,50,1,0,1337,1386,151,102,5e-15,87.9
Cladophialophora_potulentorum_CBS112222,ERR2071900.2099821,92.59,54,4,0,1161,1214,38,91,3e-12,78.7
Cladophialophora_potulentorum_CBS112222,ERR2071900.5028657,96.15,52,2,0,1437,1488,202,151,2e-14,86.1
Cladophialophora_potulentorum_CBS112222,ERR2071900.5274478,95.92,49,2,0,1179,1227,152,200,8e-13,80.5
Cladophialophora_potulentorum_CBS112222,ERR2071900.396025,86.49,74,9,1,1179,1252,129,201,8e-13,80.5
Cladophialophora_potulentorum_CBS112222,ERR2071900.3691557,90.00,60,6,0,1155,1214,162,103,3e-12,78.7
Cladophialophora_potulentorum_CBS112222,ERR2071900.5696964,97.78,45,0,1,201,244,146,102,1e-11,76.8
Cladophialophora_potulentorum_CBS112222,ERR2071900.1734069,89.83,59,6,0,1156,1214,163,105,1e-11,76.8
Cladophialophora_potulentorum_CBS112222,ERR2071900.1539911,89.83,59,6,0,1156,1214,60,2,1e-11,76.8
Cladophialophora_potulentorum_CBS112222,ERR2071900.5067184,95.65,46,2,0,1179,1224,46,1,4e-11,75.0
Cladophialophora_potulentorum_CBS112222,ERR2071900.3868509,85.14,74,9,2,1155,1227,75,3,4e-11,75.0
Cladophialophora_potulentorum_CBS112222,ERR2071900.2755659,89.29,56,6,0,549,604,146,201,5e-10,71.3
Cladophialophora_potulentorum_CBS112222,ERR2071900.3779366,91.84,49,4,0,1179,1227,121,169,2e-09,69.4
Cladophialophora_potulentorum_CBS112222,ERR2071900.3039467,95.35,43,2,0,1179,1221,144,102,2e-09,69.4
Cladophialophora_potulentorum_CBS112222,ERR2071900.2950704,91.84,49,4,0,1179,1227,31,79,2e-09,69.4
Cladophialophora_potulentorum_CBS112222,ERR2071900.363529,91.84,49,4,0,1179,1227,20,68,2e-09,69.4
Cladophialophora_potulentorum_CBS112222,ERR2071900.5466566,79.61,103,14,5,753,850,1,101,6e-09,67.6
Cladophialophora_potulentorum_CBS112222,ERR2071900.4198435,91.30,46,4,0,1182,1227,126,171,8e-08,63.9
Cladophialophora_potulentorum_CBS112222,ERR2071900.1588485,95.00,40,2,0,570,609,40,1,8e-08,63.9
Cladophialophora_potulentorum_CBS112222,ERR2071900.3705924,100.00,31,0,0,1182,1212,34,4,4e-06,58.4
Cladophialophora_potulentorum_CBS112222,ERR2071900.919432,100.00,31,0,0,1182,1212,157,127,4e-06,58.4
Cladophialophora_potulentorum_CBS112222,ERR2071900.3811041,100.00,28,0,0,1181,1208,90,63,2e-04,52.8
Cladophialophora_matsushimae_CMRP1198,ERR2071900.4337246,96.81,94,2,1,236,329,101,9,4e-36,156
Cladophialophora_matsushimae_CMRP1198,ERR2071900.1658375,96.55,87,2,1,243,329,102,187,3e-32,143
Cladophialophora_matsushimae_CMRP1198,ERR2071900.3688116,95.40,87,3,1,200,286,17,102,2e-30,137
Cladophialophora_matsushimae_CMRP1198,ERR2071900.4422640,100.00,66,0,0,209,274,36,101,4e-26,122
Cladophialophora_matsushimae_CMRP1198,ERR2071900.2448925,97.22,72,1,1,200,271,31,101,2e-25,121
Cladophialophora_matsushimae_CMRP1198,ERR2071900.2448925,85.44,103,13,2,289,391,202,102,4e-21,106
Cladophialophora_matsushimae_CMRP1198,ERR2071900.5696964,96.08,51,1,1,198,248,151,102,7e-14,82.4
Cladophialophora_mycetomatis_CBS122637,ERR2071900.4337246,96.81,94,2,1,221,314,101,9,5e-36,156
Cladophialophora_mycetomatis_CBS122637,ERR2071900.1658375,96.55,87,2,1,228,314,102,187,4e-32,143
Cladophialophora_mycetomatis_CBS122637,ERR2071900.3688116,95.40,87,3,1,185,271,17,102,2e-30,137
Cladophialophora_mycetomatis_CBS122637,ERR2071900.4422640,100.00,66,0,0,194,259,36,101,5e-26,122
Cladophialophora_mycetomatis_CBS122637,ERR2071900.2448925,97.22,72,1,1,185,256,31,101,2e-25,121
Cladophialophora_mycetomatis_CBS122637,ERR2071900.2448925,86.32,95,11,2,274,368,202,110,6e-20,102
Cladophialophora_mycetomatis_CBS122637,ERR2071900.5696964,93.10,58,3,1,176,233,158,102,2e-14,84.2
Cladophialophora_chaetospira_CBS127573,ERR2071900.4337246,96.81,94,2,1,627,720,101,9,8e-36,156
Cladophialophora_chaetospira_CBS127573,ERR2071900.1658375,96.55,87,2,1,634,720,102,187,6e-32,143
Cladophialophora_chaetospira_CBS127573,ERR2071900.3688116,93.98,83,4,1,596,677,20,102,2e-26,124
Cladophialophora_chaetospira_CBS127573,ERR2071900.4422640,96.97,66,2,0,600,665,36,101,2e-22,111
Cladophialophora_chaetospira_CBS127573,ERR2071900.2448925,95.59,68,2,1,596,662,34,101,2e-21,108
Cladophialophora_chaetospira_CBS127573,ERR2071900.2448925,87.37,95,10,2,680,774,202,110,2e-21,108
Cladophialophora_chaetospira_CBS127573,ERR2071900.2485056,100.00,33,0,0,379,411,191,159,2e-07,62.1
Cladophialophora_chaetospira_CBS127573,ERR2071900.2964169,100.00,31,0,0,379,409,11,41,2e-06,58.4
Cladophialophora_chaetospira_CBS127573,ERR2071900.2870156,100.00,29,0,0,379,407,74,46,3e-05,54.7
Cladophialophora_boppii_CBS126.86_T,ERR2071900.4337246,96.81,94,2,1,229,322,101,9,5e-36,156
Cladophialophora_boppii_CBS126.86_T,ERR2071900.1658375,96.55,87,2,1,236,322,102,187,4e-32,143
Cladophialophora_boppii_CBS126.86_T,ERR2071900.3688116,96.43,84,2,1,197,279,19,102,2e-30,137
Cladophialophora_boppii_CBS126.86_T,ERR2071900.4422640,100.00,66,0,0,202,267,36,101,5e-26,122
Cladophialophora_boppii_CBS126.86_T,ERR2071900.2448925,98.55,69,0,1,197,264,33,101,2e-25,121
Cladophialophora_boppii_CBS126.86_T,ERR2071900.2448925,87.23,94,10,2,282,375,202,111,5e-21,106
Cladophialophora_boppii_CBS126.86_T,ERR2071900.5696964,97.83,46,0,1,197,241,147,102,1e-12,78.7
Cladophialophora_abundans_CBS126736,ERR2071900.4337246,95.74,94,3,1,166,259,101,9,2e-34,150
Cladophialophora_abundans_CBS126736,ERR2071900.1658375,95.40,87,3,1,173,259,102,187,2e-30,137
Cladophialophora_abundans_CBS126736,ERR2071900.3688116,97.47,79,2,0,138,216,24,102,5e-30,135
Cladophialophora_abundans_CBS126736,ERR2071900.4422640,100.00,66,0,0,139,204,36,101,4e-26,122
Cladophialophora_abundans_CBS126736,ERR2071900.2448925,100.00,64,0,0,138,201,38,101,5e-25,119
Cladophialophora_abundans_CBS126736,ERR2071900.2448925,88.76,89,9,1,225,313,197,110,1e-21,108
Cladophialophora_abundans_CBS126736,ERR2071900.5696964,100.00,41,0,0,138,178,142,102,3e-12,76.8
Capronia_semi-immersa_CBS102234,ERR2071900.4337246,95.74,94,3,1,228,321,101,9,2e-34,150
Capronia_semi-immersa_CBS102234,ERR2071900.1658375,95.40,87,3,1,235,321,102,187,2e-30,137
Capronia_semi-immersa_CBS102234,ERR2071900.3688116,97.44,78,2,0,201,278,25,102,2e-29,134
Capronia_semi-immersa_CBS102234,ERR2071900.4422640,100.00,66,0,0,201,266,36,101,5e-26,122
Capronia_semi-immersa_CBS102234,ERR2071900.2448925,100.00,63,0,0,201,263,39,101,2e-24,117
Capronia_semi-immersa_CBS102234,ERR2071900.2448925,84.54,97,14,1,287,383,197,102,1e-17,95.3
Capronia_semi-immersa_CBS102234,ERR2071900.5696964,100.00,40,0,0,201,240,141,102,1e-11,75.0
Phialophora_americana_CBS400.67,ERR2071900.187838,98.00,100,2,0,870,969,1,100,4e-41,174
Phialophora_americana_CBS400.67,ERR2071900.2264820,96.88,96,3,0,870,965,102,197,3e-37,161
Phialophora_americana_CBS400.67,ERR2071900.2264820,87.38,103,10,3,1155,1256,101,1,2e-23,115
Phialophora_americana_CBS400.67,ERR2071900.1994556,96.84,95,3,0,842,936,98,4,1e-36,159
Phialophora_americana_CBS400.67,ERR2071900.1994556,91.25,80,3,2,621,700,100,175,1e-20,106
Phialophora_americana_CBS400.67,ERR2071900.5289402,97.80,91,2,0,1355,1445,102,192,4e-36,158
Phialophora_americana_CBS400.67,ERR2071900.3448653,94.17,103,6,0,1343,1445,100,202,4e-36,158
Phialophora_americana_CBS400.67,ERR2071900.1281152,95.00,100,5,0,808,907,101,2,4e-36,158
Phialophora_americana_CBS400.67,ERR2071900.81267,95.00,100,5,0,808,907,101,2,4e-36,158
Phialophora_americana_CBS400.67,ERR2071900.682998,94.12,102,6,0,1320,1421,1,102,1e-35,156
Phialophora_americana_CBS400.67,ERR2071900.3674198,94.00,100,6,0,837,936,202,103,2e-34,152
Phialophora_americana_CBS400.67,ERR2071900.4337246,95.74,94,3,1,230,323,101,9,6e-34,150
Phialophora_americana_CBS400.67,ERR2071900.3177256,93.20,103,5,2,590,692,202,102,6e-34,150
Phialophora_americana_CBS400.67,ERR2071900.3211041,95.56,90,4,0,1356,1445,1,90,3e-32,145
Phialophora_americana_CBS400.67,ERR2071900.1989021,92.16,102,8,0,1124,1225,2,103,3e-32,145
Phialophora_americana_CBS400.67,ERR2071900.1132787,92.16,102,8,0,1124,1225,2,103,3e-32,145
Phialophora_americana_CBS400.67,ERR2071900.1658375,95.40,87,3,1,237,323,102,187,5e-30,137
Phialophora_americana_CBS400.67,ERR2071900.1623317,97.50,80,2,0,1334,1413,181,102,5e-30,137
Phialophora_americana_CBS400.67,ERR2071900.1443422,98.70,77,1,0,802,878,178,102,5e-30,137
Phialophora_americana_CBS400.67,ERR2071900.2379545,92.55,94,7,0,1282,1375,195,102,2e-29,135
Phialophora_americana_CBS400.67,ERR2071900.3688116,97.44,78,2,0,203,280,25,102,6e-29,134
Phialophora_americana_CBS400.67,ERR2071900.3688116,86.44,59,4,2,643,701,202,148,3e-07,62.1
Phialophora_americana_CBS400.67,ERR2071900.528009,90.20,102,10,0,851,952,202,101,6e-29,134
Phialophora_americana_CBS400.67,ERR2071900.1734069,90.91,99,8,1,864,962,1,98,2e-28,132
Phialophora_americana_CBS400.67,ERR2071900.1734069,91.67,60,5,0,1148,1207,163,104,6e-14,84.2
Phialophora_americana_CBS400.67,ERR2071900.686871,93.18,88,6,0,842,929,9,96,8e-28,130
Phialophora_americana_CBS400.67,ERR2071900.399176,91.49,94,8,0,843,936,196,103,8e-28,130
Phialophora_americana_CBS400.67,ERR2071900.5217459,89.00,100,11,0,864,963,101,2,4e-26,124
Phialophora_americana_CBS400.67,ERR2071900.2400207,92.05,88,7,0,1147,1234,106,193,4e-26,124
Phialophora_americana_CBS400.67,ERR2071900.2400207,96.55,58,2,0,1388,1445,101,44,8e-18,97.1
Phialophora_americana_CBS400.67,ERR2071900.4422640,100.00,66,0,0,203,268,36,101,1e-25,122
Phialophora_americana_CBS400.67,ERR2071900.2448925,100.00,63,0,0,203,265,39,101,6e-24,117
Phialophora_americana_CBS400.67,ERR2071900.2448925,84.54,97,14,1,289,385,197,102,3e-17,95.3
Phialophora_americana_CBS400.67,ERR2071900.5503642,94.59,74,4,0,1372,1445,101,28,2e-23,115
Phialophora_americana_CBS400.67,ERR2071900.5380560,87.13,101,13,0,864,964,102,202,2e-23,115
Phialophora_americana_CBS400.67,ERR2071900.2023543,92.96,71,4,1,1376,1445,105,35,2e-19,102
Phialophora_americana_CBS400.67,ERR2071900.2023543,85.11,94,7,4,1275,1362,110,202,1e-15,89.8
Phialophora_americana_CBS400.67,ERR2071900.5433561,93.44,61,4,0,1385,1445,2,62,4e-16,91.6
Phialophora_americana_CBS400.67,ERR2071900.3312527,90.91,66,6,0,911,976,202,137,1e-15,89.8
Phialophora_americana_CBS400.67,ERR2071900.3312527,80.61,98,14,5,745,839,6,101,5e-10,71.3
Phialophora_americana_CBS400.67,ERR2071900.2099821,90.91,66,4,2,1153,1217,38,102,5e-15,87.9
Phialophora_americana_CBS400.67,ERR2071900.2099821,98.00,50,1,0,1329,1378,151,102,5e-15,87.9
Phialophora_americana_CBS400.67,ERR2071900.3691557,91.80,61,5,0,1147,1207,162,102,2e-14,86.1
Phialophora_americana_CBS400.67,ERR2071900.1539911,91.67,60,5,0,1148,1207,60,1,6e-14,84.2
Phialophora_americana_CBS400.67,ERR2071900.5274478,95.92,49,2,0,1171,1219,152,200,8e-13,80.5
Phialophora_americana_CBS400.67,ERR2071900.3039467,100.00,43,0,0,1171,1213,144,102,8e-13,80.5
Phialophora_americana_CBS400.67,ERR2071900.396025,86.49,74,9,1,1171,1244,129,201,8e-13,80.5
Phialophora_americana_CBS400.67,ERR2071900.5696964,100.00,40,0,0,203,242,141,102,4e-11,75.0
Phialophora_americana_CBS400.67,ERR2071900.5067184,95.65,46,2,0,1171,1216,46,1,4e-11,75.0
Phialophora_americana_CBS400.67,ERR2071900.3868509,84.93,73,11,0,1147,1219,75,3,4e-11,75.0
Phialophora_americana_CBS400.67,ERR2071900.4198435,93.48,46,3,0,1174,1219,126,171,2e-09,69.4
Phialophora_americana_CBS400.67,ERR2071900.3779366,91.84,49,4,0,1171,1219,121,169,2e-09,69.4
Phialophora_americana_CBS400.67,ERR2071900.2950704,91.84,49,4,0,1171,1219,31,79,2e-09,69.4
Phialophora_americana_CBS400.67,ERR2071900.363529,91.84,49,4,0,1171,1219,20,68,2e-09,69.4
Phialophora_americana_CBS400.67,ERR2071900.4580396,84.62,65,10,0,884,948,102,166,2e-08,65.8
Phialophora_americana_CBS400.67,ERR2071900.5466566,97.30,37,1,0,806,842,65,101,8e-08,63.9
Phialophora_americana_CBS400.67,ERR2071900.3705924,94.74,38,2,0,1167,1204,41,4,1e-06,60.2
Phialophora_americana_CBS400.67,ERR2071900.919432,90.91,44,4,0,1174,1217,157,114,1e-06,60.2
Phialophora_americana_CBS400.67,ERR2071900.3811041,100.00,28,0,0,1173,1200,90,63,2e-04,52.8
Phialophora_verrucosa_CBS140325_T,ERR2071900.4337246,95.74,94,3,1,234,327,101,9,2e-34,150
Phialophora_verrucosa_CBS140325_T,ERR2071900.1658375,95.40,87,3,1,241,327,102,187,2e-30,137
Phialophora_verrucosa_CBS140325_T,ERR2071900.3688116,97.44,78,2,0,207,284,25,102,2e-29,134
Phialophora_verrucosa_CBS140325_T,ERR2071900.4422640,100.00,66,0,0,207,272,36,101,5e-26,122
Phialophora_verrucosa_CBS140325_T,ERR2071900.2448925,100.00,63,0,0,207,269,39,101,2e-24,117
Phialophora_verrucosa_CBS140325_T,ERR2071900.2448925,84.54,97,14,1,293,389,197,102,1e-17,95.3
Phialophora_verrucosa_CBS140325_T,ERR2071900.5696964,100.00,40,0,0,207,246,141,102,1e-11,75.0
Cladophialophora_samoensis_CBS259.83_T,ERR2071900.4337246,96.81,94,2,1,234,327,101,9,5e-36,156
Cladophialophora_samoensis_CBS259.83_T,ERR2071900.1658375,96.55,87,2,1,241,327,102,187,4e-32,143
Cladophialophora_samoensis_CBS259.83_T,ERR2071900.3688116,97.44,78,2,0,207,284,25,102,2e-29,134
Cladophialophora_samoensis_CBS259.83_T,ERR2071900.4422640,100.00,66,0,0,207,272,36,101,5e-26,122
Cladophialophora_samoensis_CBS259.83_T,ERR2071900.2448925,100.00,63,0,0,207,269,39,101,2e-24,117
Cladophialophora_samoensis_CBS259.83_T,ERR2071900.2448925,87.38,103,11,2,287,389,202,102,2e-24,117
Cladophialophora_samoensis_CBS259.83_T,ERR2071900.5696964,100.00,40,0,0,207,246,141,102,1e-11,75.0
Cladophialophora_carrionii_CBS260.83,ERR2071900.4337246,96.81,94,2,1,250,343,101,9,5e-36,156
Cladophialophora_carrionii_CBS260.83,ERR2071900.1658375,96.55,87,2,1,257,343,102,187,4e-32,143
Cladophialophora_carrionii_CBS260.83,ERR2071900.3688116,97.44,78,2,0,223,300,25,102,3e-29,134
Cladophialophora_carrionii_CBS260.83,ERR2071900.4422640,100.00,66,0,0,223,288,36,101,5e-26,122
Cladophialophora_carrionii_CBS260.83,ERR2071900.2448925,100.00,63,0,0,223,285,39,101,3e-24,117
Cladophialophora_carrionii_CBS260.83,ERR2071900.2448925,86.32,95,11,2,303,397,202,110,7e-20,102
Cladophialophora_carrionii_CBS260.83,ERR2071900.5696964,100.00,40,0,0,223,262,141,102,2e-11,75.0
Exophiala_palmae_UPCB86822_T,ERR2071900.4337246,96.81,94,2,1,193,286,101,9,4e-36,156
Exophiala_palmae_UPCB86822_T,ERR2071900.1658375,96.55,87,2,1,200,286,102,187,3e-32,143
Exophiala_palmae_UPCB86822_T,ERR2071900.3688116,96.39,83,2,1,162,243,20,102,6e-30,135
Exophiala_palmae_UPCB86822_T,ERR2071900.4422640,100.00,66,0,0,166,231,36,101,5e-26,122
Exophiala_palmae_UPCB86822_T,ERR2071900.2448925,98.53,68,0,1,162,228,34,101,6e-25,119
Exophiala_palmae_UPCB86822_T,ERR2071900.2448925,87.50,104,10,3,246,349,202,102,2e-24,117
Exophiala_palmae_UPCB86822_T,ERR2071900.5696964,97.78,45,0,1,162,205,146,102,4e-12,76.8
Cladophialophora_yegresii_CBS114405_T,ERR2071900.4337246,96.81,94,2,1,235,328,101,9,5e-36,156
Cladophialophora_yegresii_CBS114405_T,ERR2071900.1658375,96.55,87,2,1,242,328,102,187,4e-32,143
Cladophialophora_yegresii_CBS114405_T,ERR2071900.3688116,97.44,78,2,0,208,285,25,102,2e-29,134
Cladophialophora_yegresii_CBS114405_T,ERR2071900.4422640,100.00,66,0,0,208,273,36,101,5e-26,122
Cladophialophora_yegresii_CBS114405_T,ERR2071900.2448925,100.00,63,0,0,208,270,39,101,2e-24,117
Cladophialophora_yegresii_CBS114405_T,ERR2071900.2448925,85.44,103,13,2,288,390,202,102,5e-21,106
Cladophialophora_yegresii_CBS114405_T,ERR2071900.5696964,100.00,40,0,0,208,247,141,102,1e-11,75.0
Knufia_epidermidis_CBS120353_T,ERR2071900.4337246,95.74,94,3,1,233,326,101,9,2e-34,150
Knufia_epidermidis_CBS120353_T,ERR2071900.1658375,95.40,87,3,1,240,326,102,187,2e-30,137
Knufia_epidermidis_CBS120353_T,ERR2071900.3688116,97.47,79,2,0,205,283,24,102,6e-30,135
Knufia_epidermidis_CBS120353_T,ERR2071900.4422640,100.00,66,0,0,206,271,36,101,5e-26,122
Knufia_epidermidis_CBS120353_T,ERR2071900.2448925,100.00,64,0,0,205,268,38,101,6e-25,119
Knufia_epidermidis_CBS120353_T,ERR2071900.2448925,86.14,101,13,1,288,388,201,102,1e-21,108
Knufia_epidermidis_CBS120353_T,ERR2071900.5696964,100.00,41,0,0,205,245,142,102,4e-12,76.8
Arthrocladium_fulminans_CBS136243_T,ERR2071900.4337246,95.74,94,3,1,228,321,101,9,2e-34,150
Arthrocladium_fulminans_CBS136243_T,ERR2071900.3688116,90.57,106,6,4,173,278,1,102,2e-30,137
Arthrocladium_fulminans_CBS136243_T,ERR2071900.1658375,95.40,87,3,1,235,321,102,187,2e-30,137
Arthrocladium_fulminans_CBS136243_T,ERR2071900.4422640,100.00,66,0,0,201,266,36,101,5e-26,122
Arthrocladium_fulminans_CBS136243_T,ERR2071900.2448925,100.00,64,0,0,200,263,38,101,6e-25,119
Arthrocladium_fulminans_CBS136243_T,ERR2071900.2448925,87.01,77,10,0,283,359,201,125,2e-15,87.9
Arthrocladium_fulminans_CBS136243_T,ERR2071900.5696964,100.00,41,0,0,200,240,142,102,4e-12,76.8
Anthopsis_deltoidea_CBS263.77_T,ERR2071900.4337246,94.62,93,4,1,237,328,101,9,4e-32,143
Anthopsis_deltoidea_CBS263.77_T,ERR2071900.3688116,91.43,105,6,3,183,287,1,102,1e-31,141
Anthopsis_deltoidea_CBS263.77_T,ERR2071900.1658375,94.19,86,4,1,244,328,102,187,3e-28,130
Anthopsis_deltoidea_CBS263.77_T,ERR2071900.4422640,100.00,66,0,0,210,275,36,101,5e-26,122
Anthopsis_deltoidea_CBS263.77_T,ERR2071900.2448925,100.00,63,0,0,210,272,39,101,2e-24,117
Anthopsis_deltoidea_CBS263.77_T,ERR2071900.1427450,86.96,69,9,0,294,362,134,202,1e-12,78.7
Anthopsis_deltoidea_CBS263.77_T,ERR2071900.5696964,100.00,40,0,0,210,249,141,102,1e-11,75.0
Cyphellophora_laciniata_CBS190.61_T,ERR2071900.4337246,95.70,93,3,1,322,413,101,9,1e-33,148
Cyphellophora_laciniata_CBS190.61_T,ERR2071900.3688116,97.47,79,2,0,294,372,24,102,8e-30,135
Cyphellophora_laciniata_CBS190.61_T,ERR2071900.1658375,95.35,86,3,1,329,413,102,187,8e-30,135
Cyphellophora_laciniata_CBS190.61_T,ERR2071900.4422640,100.00,66,0,0,295,360,36,101,7e-26,122
Cyphellophora_laciniata_CBS190.61_T,ERR2071900.2448925,100.00,64,0,0,294,357,38,101,8e-25,119
Cyphellophora_laciniata_CBS190.61_T,ERR2071900.2448925,88.89,99,8,2,379,475,197,100,8e-25,119
Cyphellophora_laciniata_CBS190.61_T,ERR2071900.2563781,92.59,81,6,0,20,100,103,23,3e-24,117
Cyphellophora_laciniata_CBS190.61_T,ERR2071900.4697888,95.52,67,1,2,625,689,168,102,7e-21,106
Cyphellophora_laciniata_CBS190.61_T,ERR2071900.2870156,100.00,56,0,0,43,98,101,46,2e-20,104
Cyphellophora_laciniata_CBS190.61_T,ERR2071900.1592349,93.44,61,4,0,675,735,101,41,2e-16,91.6
Cyphellophora_laciniata_CBS190.61_T,ERR2071900.3177256,98.04,51,1,0,685,735,202,152,7e-16,89.8
Cyphellophora_laciniata_CBS190.61_T,ERR2071900.5696964,89.55,67,3,3,268,334,164,102,1e-13,82.4
Cyphellophora_laciniata_CBS190.61_T,ERR2071900.2964169,100.00,43,0,0,60,102,1,43,4e-13,80.5
Cyphellophora_laciniata_CBS190.61_T,ERR2071900.2485056,100.00,42,0,0,59,100,202,161,1e-12,78.7
Cyphellophora_laciniata_CBS190.61_T,ERR2071900.4118398,97.73,44,1,0,28,71,115,158,5e-12,76.8
Cyphellophora_laciniata_CBS190.61_T,ERR2071900.2755659,91.07,56,5,0,636,691,146,201,5e-12,76.8
Cyphellophora_laciniata_CBS190.61_T,ERR2071900.2207537,95.74,47,2,0,38,84,47,1,5e-12,76.8
Cyphellophora_laciniata_CBS190.61_T,ERR2071900.3267277,97.67,43,1,0,29,71,48,6,2e-11,75.0
Cyphellophora_laciniata_CBS190.61_T,ERR2071900.1588485,97.50,40,1,0,657,696,40,1,9e-10,69.4
Cyphellophora_laciniata_CBS190.61_T,ERR2071900.3674198,97.06,34,0,1,627,659,66,99,7e-06,56.5
Cyphellophora_laciniata_CBS190.61_T,ERR2071900.399176,97.06,34,0,1,627,659,66,99,7e-06,56.5
Cyphellophora_suttonii_CBS449.91,ERR2071900.4337246,95.70,93,3,1,225,316,101,9,8e-34,148
Cyphellophora_suttonii_CBS449.91,ERR2071900.3688116,91.26,103,8,1,173,275,1,102,5e-31,139
Cyphellophora_suttonii_CBS449.91,ERR2071900.1658375,95.35,86,3,1,232,316,102,187,6e-30,135
Cyphellophora_suttonii_CBS449.91,ERR2071900.4422640,100.00,66,0,0,198,263,36,101,5e-26,122
Cyphellophora_suttonii_CBS449.91,ERR2071900.2448925,97.18,71,2,0,190,260,31,101,2e-25,121
Cyphellophora_suttonii_CBS449.91,ERR2071900.2448925,88.89,99,8,2,282,378,197,100,6e-25,119
Cyphellophora_suttonii_CBS449.91,ERR2071900.5696964,92.31,65,3,1,173,237,164,102,1e-16,91.6
Cyphellophora_pauciseptata_CBS284.85_T,ERR2071900.4337246,95.70,93,3,1,236,327,101,9,8e-34,148
Cyphellophora_pauciseptata_CBS284.85_T,ERR2071900.1658375,95.35,86,3,1,243,327,102,187,6e-30,135
Cyphellophora_pauciseptata_CBS284.85_T,ERR2071900.3688116,90.29,103,9,1,184,286,1,102,2e-29,134
Cyphellophora_pauciseptata_CBS284.85_T,ERR2071900.4422640,100.00,67,0,0,208,274,35,101,1e-26,124
Cyphellophora_pauciseptata_CBS284.85_T,ERR2071900.2448925,88.89,99,8,2,293,389,197,100,6e-25,119
Cyphellophora_pauciseptata_CBS284.85_T,ERR2071900.2448925,100.00,63,0,0,209,271,39,101,2e-24,117
Cyphellophora_pauciseptata_CBS284.85_T,ERR2071900.5696964,90.77,65,4,1,184,248,164,102,6e-15,86.1
Cyphellophora_pluriseptata_CBS286.85_T,ERR2071900.4337246,94.62,93,4,1,241,332,101,9,4e-32,143
Cyphellophora_pluriseptata_CBS286.85_T,ERR2071900.1658375,95.35,86,3,1,248,332,102,187,6e-30,135
Cyphellophora_pluriseptata_CBS286.85_T,ERR2071900.3688116,96.20,79,3,0,213,291,24,102,3e-28,130
Cyphellophora_pluriseptata_CBS286.85_T,ERR2071900.2448925,88.89,99,8,2,298,394,197,100,6e-25,119
Cyphellophora_pluriseptata_CBS286.85_T,ERR2071900.2448925,98.44,64,1,0,213,276,38,101,3e-23,113
Cyphellophora_pluriseptata_CBS286.85_T,ERR2071900.4422640,98.48,66,1,0,214,279,36,101,2e-24,117
Cyphellophora_pluriseptata_CBS286.85_T,ERR2071900.5696964,90.91,55,4,1,199,253,155,102,5e-11,73.1
Phialophora_europaea_CBS101466,ERR2071900.4337246,95.70,93,3,1,231,322,101,9,8e-34,148
Phialophora_europaea_CBS101466,ERR2071900.1658375,95.35,86,3,1,238,322,102,187,6e-30,135
Phialophora_europaea_CBS101466,ERR2071900.3688116,97.44,78,2,0,204,281,25,102,2e-29,134
Phialophora_europaea_CBS101466,ERR2071900.4422640,100.00,68,0,0,202,269,34,101,4e-27,126
Phialophora_europaea_CBS101466,ERR2071900.2448925,88.89,99,8,2,288,384,197,100,6e-25,119
Phialophora_europaea_CBS101466,ERR2071900.2448925,100.00,63,0,0,204,266,39,101,2e-24,117
Phialophora_europaea_CBS101466,ERR2071900.5696964,100.00,40,0,0,204,243,141,102,1e-11,75.0
Phialophora_ambigua_CBS235.93,ERR2071900.4337246,95.70,93,3,1,228,319,101,9,8e-34,148
Phialophora_ambigua_CBS235.93,ERR2071900.3688116,91.26,103,8,1,176,278,1,102,5e-31,139
Phialophora_ambigua_CBS235.93,ERR2071900.1658375,95.35,86,3,1,235,319,102,187,6e-30,135
Phialophora_ambigua_CBS235.93,ERR2071900.4422640,100.00,66,0,0,201,266,36,101,5e-26,122
Phialophora_ambigua_CBS235.93,ERR2071900.2448925,97.18,71,2,0,193,263,31,101,2e-25,121
Phialophora_ambigua_CBS235.93,ERR2071900.2448925,88.89,99,8,2,285,381,197,100,6e-25,119
Phialophora_ambigua_CBS235.93,ERR2071900.5696964,94.55,55,2,1,187,240,156,102,2e-14,84.2
Cladophialophora_modesta_CBS985.96_T,ERR2071900.4337246,95.74,94,3,1,225,318,101,9,3e-34,150
Cladophialophora_modesta_CBS985.96_T,ERR2071900.1658375,95.40,87,3,1,232,318,102,187,2e-30,137
Cladophialophora_modesta_CBS985.96_T,ERR2071900.3688116,97.47,79,2,0,197,275,24,102,7e-30,135
Cladophialophora_modesta_CBS985.96_T,ERR2071900.4422640,100.00,66,0,0,198,263,36,101,6e-26,122
Cladophialophora_modesta_CBS985.96_T,ERR2071900.2448925,100.00,64,0,0,197,260,38,101,7e-25,119
Cladophialophora_modesta_CBS985.96_T,ERR2071900.2448925,86.14,101,12,2,280,379,201,102,2e-21,108
Cladophialophora_modesta_CBS985.96_T,ERR2071900.1592349,95.08,61,3,0,559,619,101,41,3e-18,97.1
Cladophialophora_modesta_CBS985.96_T,ERR2071900.3177256,100.00,51,0,0,569,619,202,152,1e-17,95.3
Cladophialophora_modesta_CBS985.96_T,ERR2071900.4697888,92.42,66,4,1,509,573,167,102,4e-17,93.5
Cladophialophora_modesta_CBS985.96_T,ERR2071900.2755659,92.86,56,4,0,520,575,146,201,9e-14,82.4
Cladophialophora_modesta_CBS985.96_T,ERR2071900.5696964,100.00,41,0,0,197,237,142,102,4e-12,76.8
Cladophialophora_modesta_CBS985.96_T,ERR2071900.1588485,100.00,36,0,0,545,580,36,1,3e-09,67.6
Cyphellophora_fusarioides_MUCL44033_T,ERR2071900.4337246,94.62,93,4,1,224,315,101,9,4e-32,143
Cyphellophora_fusarioides_MUCL44033_T,ERR2071900.3688116,97.47,79,2,0,196,274,24,102,6e-30,135
Cyphellophora_fusarioides_MUCL44033_T,ERR2071900.1658375,94.19,86,4,1,231,315,102,187,3e-28,130
Cyphellophora_fusarioides_MUCL44033_T,ERR2071900.4422640,100.00,66,0,0,197,262,36,101,5e-26,122
Cyphellophora_fusarioides_MUCL44033_T,ERR2071900.2448925,100.00,64,0,0,196,259,38,101,6e-25,119
Cyphellophora_fusarioides_MUCL44033_T,ERR2071900.1427450,89.86,69,7,0,281,349,134,202,5e-16,89.8
Cyphellophora_fusarioides_MUCL44033_T,ERR2071900.5696964,90.91,66,3,2,171,236,164,102,6e-15,86.1
