Exophiala_brunnea_CBS,SRR3341746.49456887,100.00,35,0,0,5,39,36,2,5e-09,65.8
Exophiala_brunnea_CBS,SRR3341746.13535746,100.00,33,0,0,1,33,4,36,6e-08,62.1
Exophiala_brunnea_CBS,SRR3341746.15873810,100.00,28,0,0,12,39,1,28,4e-05,52.8
Exophiala_tremulae_CBS129355,SRR3341746.49456887,100.00,35,0,0,5,39,36,2,5e-09,65.8
Exophiala_tremulae_CBS129355,SRR3341746.13535746,100.00,33,0,0,1,33,4,36,6e-08,62.1
Exophiala_tremulae_CBS129355,SRR3341746.15873810,100.00,28,0,0,12,39,1,28,4e-05,52.8
Rhinocladiella_atrovirens_CBS264.49,SRR3341746.49456887,100.00,36,0,0,10,45,36,1,1e-09,67.6
Rhinocladiella_atrovirens_CBS264.49,SRR3341746.13535746,100.00,36,0,0,3,38,1,36,1e-09,67.6
Rhinocladiella_atrovirens_CBS264.49,SRR3341746.13476508,100.00,31,0,0,1,31,6,36,8e-07,58.4
Rhinocladiella_atrovirens_CBS264.49,SRR3341746.15873810,100.00,30,0,0,17,46,1,30,3e-06,56.5
Rhinocladiella_fasciculata_CBS132.86_T,SRR3341746.15873810,100.00,29,0,0,1,29,2,30,9e-06,54.7
Rhinocladiella_fasciculata_CBS132.86_T,SRR3341746.49456887,100.00,28,0,0,1,28,28,1,3e-05,52.8
Capronia_kleinmondensis_CBS122671_T,SRR3341746.49456887,100.00,31,0,0,1,31,31,1,8e-07,58.4
Capronia_kleinmondensis_CBS122671_T,SRR3341746.15873810,100.00,30,0,0,3,32,1,30,3e-06,56.5
Veronaea_japonica_CBS776.83_T,SRR3341746.49456887,100.00,35,0,0,4,38,36,2,4e-09,65.8
Veronaea_japonica_CBS776.83_T,SRR3341746.13535746,100.00,32,0,0,1,32,5,36,2e-07,60.2
Veronaea_japonica_CBS776.83_T,SRR3341746.15873810,100.00,28,0,0,11,38,1,28,3e-05,52.8
Fonsecaea_pedrosoi_CBS271.37_T,SRR3341746.49456887,100.00,30,0,0,1,30,31,2,3e-06,56.5
Fonsecaea_pedrosoi_CBS271.37_T,SRR3341746.15873810,100.00,28,0,0,3,30,1,28,4e-05,52.8
Cladophialophora_chaetospira_CBS127573,SRR3341746.49456887,100.00,31,0,0,379,409,32,2,1e-06,58.4
Cladophialophora_chaetospira_CBS127573,SRR3341746.15873810,100.00,28,0,0,382,409,1,28,5e-05,52.8
Cyphellophora_laciniata_CBS190.61_T,SRR3341746.49456887,100.00,36,0,0,66,101,36,1,1e-09,67.6
Cyphellophora_laciniata_CBS190.61_T,SRR3341746.13535746,100.00,36,0,0,59,94,1,36,1e-09,67.6
Cyphellophora_laciniata_CBS190.61_T,SRR3341746.13476508,100.00,33,0,0,55,87,4,36,6e-08,62.1
Cyphellophora_laciniata_CBS190.61_T,SRR3341746.15873810,100.00,30,0,0,73,102,1,30,3e-06,56.5
Cyphellophora_laciniata_CBS190.61_T,SRR3341746.37243934,100.00,29,0,0,55,83,29,1,1e-05,54.7
