Exophiala_polymorpha_CBS138920_T,SRR2107184.15704629,94.29,35,1,1,82,115,131,97,4e-04,52.8
Exophiala_polymorpha_CBS138920_T,SRR2107184.9788114,100.00,28,0,0,82,109,34,7,4e-04,52.8
Exophiala_polymorpha_CBS138920_T,SRR2107184.2832838,100.00,28,0,0,82,109,132,105,4e-04,52.8
Exophiala_jeanselmei_CBS507.90_T,SRR2107184.3932568,100.00,35,0,0,570,604,66,100,4e-08,65.8
Exophiala_pisciphila_CBS537.73_T,SRR2107184.3932568,94.67,75,4,0,579,653,66,140,1e-23,117
Exophiala_brunnea_CBS,SRR2107184.15704629,95.83,48,1,1,1,47,144,97,2e-11,76.8
Exophiala_brunnea_CBS,SRR2107184.9788114,100.00,41,0,0,1,41,47,7,2e-11,76.8
Exophiala_brunnea_CBS,SRR2107184.2832838,100.00,41,0,0,1,41,145,105,2e-11,76.8
Exophiala_brunnea_CBS,SRR2107184.15537642,100.00,39,0,0,1,39,238,200,3e-10,73.1
Exophiala_brunnea_CBS,SRR2107184.15181746,100.00,39,0,0,1,39,77,39,3e-10,73.1
Exophiala_brunnea_CBS,SRR2107184.9447212,100.00,39,0,0,1,39,204,242,3e-10,73.1
Exophiala_brunnea_CBS,SRR2107184.7174061,100.00,39,0,0,1,39,188,226,3e-10,73.1
Exophiala_brunnea_CBS,SRR2107184.6714112,100.00,39,0,0,1,39,98,136,3e-10,73.1
Exophiala_brunnea_CBS,SRR2107184.6714112,100.00,39,0,0,1,39,197,159,3e-10,73.1
Exophiala_brunnea_CBS,SRR2107184.6228679,100.00,39,0,0,1,39,76,38,3e-10,73.1
Exophiala_brunnea_CBS,SRR2107184.5479516,100.00,39,0,0,1,39,49,11,3e-10,73.1
Exophiala_brunnea_CBS,SRR2107184.4212829,100.00,39,0,0,1,39,145,107,3e-10,73.1
Exophiala_brunnea_CBS,SRR2107184.1829474,100.00,39,0,0,1,39,262,300,3e-10,73.1
Exophiala_brunnea_CBS,SRR2107184.1137913,100.00,39,0,0,1,39,34,72,3e-10,73.1
Exophiala_brunnea_CBS,SRR2107184.1137913,100.00,39,0,0,1,39,296,258,3e-10,73.1
Exophiala_brunnea_CBS,SRR2107184.11177357,100.00,38,0,0,1,38,211,174,9e-10,71.3
Exophiala_brunnea_CBS,SRR2107184.10782795,97.44,39,1,0,1,39,229,191,1e-08,67.6
Exophiala_brunnea_CBS,SRR2107184.2421962,100.00,31,0,0,9,39,12,42,7e-06,58.4
Exophiala_mesophila_CBS402.95_T,SRR2107184.3932568,94.67,75,4,0,576,650,66,140,1e-23,117
Exophiala_castellanii_CBS158.58_T,SRR2107184.3932568,94.67,75,4,0,575,649,66,140,1e-23,117
Exophiala_dermatitidis_CBS748.88,SRR2107184.6703308,93.84,146,9,0,1359,1504,1,146,2e-54,220
Exophiala_dermatitidis_CBS748.88,SRR2107184.3677563,92.54,134,10,0,1357,1490,167,300,5e-46,193
Exophiala_dermatitidis_CBS748.88,SRR2107184.11809586,92.79,111,8,0,1358,1468,111,1,1e-36,161
Exophiala_dermatitidis_CBS748.88,SRR2107184.9595287,92.11,114,9,0,1357,1470,266,153,1e-36,161
Exophiala_dermatitidis_CBS748.88,SRR2107184.9595287,82.76,87,13,2,1210,1294,16,102,5e-11,76.8
Exophiala_dermatitidis_CBS748.88,SRR2107184.11988849,95.83,96,4,0,1409,1504,1,96,6e-35,156
Exophiala_dermatitidis_CBS748.88,SRR2107184.15639643,91.18,102,8,1,1404,1504,146,247,2e-29,137
Exophiala_dermatitidis_CBS748.88,SRR2107184.6484977,88.29,111,12,1,1347,1457,110,1,1e-27,132
Exophiala_dermatitidis_CBS748.88,SRR2107184.15653119,90.43,94,9,0,1371,1464,207,300,2e-25,124
Exophiala_dermatitidis_CBS748.88,SRR2107184.15653119,95.12,41,2,0,1464,1504,150,110,1e-07,65.8
Exophiala_dermatitidis_CBS748.88,SRR2107184.12756255,88.66,97,11,0,1408,1504,156,252,8e-24,119
Exophiala_dermatitidis_CBS748.88,SRR2107184.3932568,94.74,76,4,0,601,676,66,141,8e-24,119
Exophiala_dermatitidis_CBS748.88,SRR2107184.1806984,88.66,97,11,0,1408,1504,289,193,8e-24,119
Exophiala_dermatitidis_CBS748.88,SRR2107184.13698165,84.17,120,13,4,1354,1470,182,298,1e-21,111
Exophiala_dermatitidis_CBS748.88,SRR2107184.8612995,84.17,120,13,4,1354,1470,32,148,1e-21,111
Exophiala_dermatitidis_CBS748.88,SRR2107184.14997031,83.76,117,13,4,1354,1467,264,151,6e-20,106
Exophiala_dermatitidis_CBS748.88,SRR2107184.15419850,88.31,77,9,0,1428,1504,300,224,5e-16,93.5
Exophiala_dermatitidis_CBS748.88,SRR2107184.13908665,91.80,61,5,0,1198,1258,68,128,8e-14,86.1
Exophiala_dermatitidis_CBS748.88,SRR2107184.13908665,93.10,58,4,0,1350,1407,208,151,8e-14,86.1
Exophiala_dermatitidis_CBS748.88,SRR2107184.3449229,91.80,61,5,0,1198,1258,19,79,8e-14,86.1
Exophiala_dermatitidis_CBS748.88,SRR2107184.3449229,91.80,61,5,0,1198,1258,253,193,8e-14,86.1
Exophiala_dermatitidis_CBS748.88,SRR2107184.11420148,89.55,67,6,1,1357,1422,213,147,3e-13,84.2
Exophiala_dermatitidis_CBS748.88,SRR2107184.14960989,90.32,62,6,0,1443,1504,300,239,1e-12,82.4
Exophiala_dermatitidis_CBS748.88,SRR2107184.3117587,82.76,87,13,2,1210,1294,56,142,5e-11,76.8
Exophiala_dermatitidis_CBS748.88,SRR2107184.3117587,82.76,87,13,2,1210,1294,262,176,5e-11,76.8
Exophiala_dermatitidis_CBS748.88,SRR2107184.1460129,95.56,45,2,0,1214,1258,150,194,6e-10,73.1
Exophiala_dermatitidis_CBS748.88,SRR2107184.1460129,95.45,44,2,0,1215,1258,114,71,2e-09,71.3
Exophiala_dermatitidis_CBS748.88,SRR2107184.10181938,93.48,46,3,0,1211,1256,244,289,8e-09,69.4
Exophiala_dermatitidis_CBS748.88,SRR2107184.8254317,90.38,52,5,0,1371,1422,52,1,8e-09,69.4
Exophiala_dermatitidis_CBS748.88,SRR2107184.5556856,97.50,40,1,0,1213,1252,23,62,8e-09,69.4
Exophiala_dermatitidis_CBS748.88,SRR2107184.3134077,95.35,43,2,0,1216,1258,1,43,8e-09,69.4
Exophiala_dermatitidis_CBS748.88,SRR2107184.3134077,95.35,43,2,0,1216,1258,198,156,8e-09,69.4
Exophiala_dermatitidis_CBS748.88,SRR2107184.12130913,92.68,41,3,0,1357,1397,190,150,5e-06,60.2
Exophiala_dermatitidis_CBS748.88,SRR2107184.8061475,100.00,30,0,0,1211,1240,174,203,6e-05,56.5
Exophiala_salmonis_CBS157.67_T,SRR2107184.3932568,94.67,75,4,0,699,773,66,140,1e-23,117
Exophiala_salmonis_CBS157.67_T,SRR2107184.15537642,97.56,41,1,0,82,122,272,232,1e-09,71.3
Exophiala_salmonis_CBS157.67_T,SRR2107184.15181746,97.56,41,1,0,82,122,111,71,1e-09,71.3
Exophiala_salmonis_CBS157.67_T,SRR2107184.10782795,97.56,41,1,0,82,122,263,223,1e-09,71.3
Exophiala_salmonis_CBS157.67_T,SRR2107184.9447212,97.56,41,1,0,82,122,170,210,1e-09,71.3
Exophiala_salmonis_CBS157.67_T,SRR2107184.7174061,97.56,41,1,0,82,122,154,194,1e-09,71.3
Exophiala_salmonis_CBS157.67_T,SRR2107184.1137913,97.50,40,1,0,83,122,1,40,4e-09,69.4
Exophiala_salmonis_CBS157.67_T,SRR2107184.13291454,95.12,41,2,0,82,122,262,222,5e-08,65.8
Exophiala_salmonis_CBS157.67_T,SRR2107184.9182333,95.12,41,2,0,82,122,59,19,5e-08,65.8
Exophiala_salmonis_CBS157.67_T,SRR2107184.8796802,95.12,41,2,0,82,122,172,212,5e-08,65.8
Exophiala_salmonis_CBS157.67_T,SRR2107184.3423939,95.12,41,2,0,82,122,275,235,5e-08,65.8
Exophiala_salmonis_CBS157.67_T,SRR2107184.889222,95.12,41,2,0,82,122,297,257,5e-08,65.8
Exophiala_salmonis_CBS157.67_T,SRR2107184.13293776,95.00,40,2,0,82,121,111,150,2e-07,63.9
Exophiala_salmonis_CBS157.67_T,SRR2107184.3887827,100.00,31,0,0,92,122,297,267,9e-06,58.4
Exophiala_salmonis_CBS157.67_T,SRR2107184.11177357,100.00,30,0,0,93,122,234,205,3e-05,56.5
Exophiala_cancerae_CBS120420_T,SRR2107184.3932568,100.00,35,0,0,590,624,66,100,4e-08,65.8
Exophiala_tremulae_CBS129355,SRR2107184.15704629,95.83,48,1,1,1,47,144,97,2e-11,76.8
Exophiala_tremulae_CBS129355,SRR2107184.9788114,100.00,41,0,0,1,41,47,7,2e-11,76.8
Exophiala_tremulae_CBS129355,SRR2107184.2832838,100.00,41,0,0,1,41,145,105,2e-11,76.8
Exophiala_tremulae_CBS129355,SRR2107184.15537642,100.00,39,0,0,1,39,238,200,3e-10,73.1
Exophiala_tremulae_CBS129355,SRR2107184.15181746,100.00,39,0,0,1,39,77,39,3e-10,73.1
Exophiala_tremulae_CBS129355,SRR2107184.9447212,100.00,39,0,0,1,39,204,242,3e-10,73.1
Exophiala_tremulae_CBS129355,SRR2107184.7174061,100.00,39,0,0,1,39,188,226,3e-10,73.1
Exophiala_tremulae_CBS129355,SRR2107184.6714112,100.00,39,0,0,1,39,98,136,3e-10,73.1
Exophiala_tremulae_CBS129355,SRR2107184.6714112,100.00,39,0,0,1,39,197,159,3e-10,73.1
Exophiala_tremulae_CBS129355,SRR2107184.6228679,100.00,39,0,0,1,39,76,38,3e-10,73.1
Exophiala_tremulae_CBS129355,SRR2107184.5479516,100.00,39,0,0,1,39,49,11,3e-10,73.1
Exophiala_tremulae_CBS129355,SRR2107184.4212829,100.00,39,0,0,1,39,145,107,3e-10,73.1
Exophiala_tremulae_CBS129355,SRR2107184.1829474,100.00,39,0,0,1,39,262,300,3e-10,73.1
Exophiala_tremulae_CBS129355,SRR2107184.1137913,100.00,39,0,0,1,39,34,72,3e-10,73.1
Exophiala_tremulae_CBS129355,SRR2107184.1137913,100.00,39,0,0,1,39,296,258,3e-10,73.1
Exophiala_tremulae_CBS129355,SRR2107184.11177357,100.00,38,0,0,1,38,211,174,9e-10,71.3
Exophiala_tremulae_CBS129355,SRR2107184.10782795,97.44,39,1,0,1,39,229,191,1e-08,67.6
Exophiala_tremulae_CBS129355,SRR2107184.2421962,100.00,31,0,0,9,39,12,42,7e-06,58.4
Rhinocladiella_atrovirens_CBS264.49,SRR2107184.11177357,97.96,49,0,1,1,48,216,168,1e-13,84.2
Rhinocladiella_atrovirens_CBS264.49,SRR2107184.15704629,100.00,44,0,0,1,44,149,106,4e-13,82.4
Rhinocladiella_atrovirens_CBS264.49,SRR2107184.15537642,100.00,44,0,0,1,44,243,200,4e-13,82.4
Rhinocladiella_atrovirens_CBS264.49,SRR2107184.15181746,100.00,44,0,0,1,44,82,39,4e-13,82.4
Rhinocladiella_atrovirens_CBS264.49,SRR2107184.9788114,100.00,44,0,0,1,44,52,9,4e-13,82.4
Rhinocladiella_atrovirens_CBS264.49,SRR2107184.9447212,100.00,44,0,0,1,44,199,242,4e-13,82.4
Rhinocladiella_atrovirens_CBS264.49,SRR2107184.7174061,100.00,44,0,0,1,44,183,226,4e-13,82.4
Rhinocladiella_atrovirens_CBS264.49,SRR2107184.6714112,100.00,44,0,0,1,44,93,136,4e-13,82.4
Rhinocladiella_atrovirens_CBS264.49,SRR2107184.6714112,100.00,44,0,0,1,44,202,159,4e-13,82.4
Rhinocladiella_atrovirens_CBS264.49,SRR2107184.6228679,100.00,44,0,0,1,44,81,38,4e-13,82.4
Rhinocladiella_atrovirens_CBS264.49,SRR2107184.5479516,100.00,44,0,0,1,44,54,11,4e-13,82.4
Rhinocladiella_atrovirens_CBS264.49,SRR2107184.4212829,100.00,44,0,0,1,44,150,107,4e-13,82.4
Rhinocladiella_atrovirens_CBS264.49,SRR2107184.2832838,100.00,44,0,0,1,44,150,107,4e-13,82.4
Rhinocladiella_atrovirens_CBS264.49,SRR2107184.1829474,100.00,44,0,0,1,44,257,300,4e-13,82.4
Rhinocladiella_atrovirens_CBS264.49,SRR2107184.1137913,100.00,44,0,0,1,44,29,72,4e-13,82.4
Rhinocladiella_atrovirens_CBS264.49,SRR2107184.1137913,100.00,43,0,0,2,44,300,258,2e-12,80.5
Rhinocladiella_atrovirens_CBS264.49,SRR2107184.10782795,97.73,44,1,0,1,44,234,191,2e-11,76.8
Rhinocladiella_atrovirens_CBS264.49,SRR2107184.2421962,100.00,33,0,0,14,46,12,44,5e-07,62.1
Rhinocladiella_aquaspersa_CBS313.73_T,SRR2107184.3932568,94.74,76,4,0,571,646,66,141,3e-24,119
Rhinocladiella_fasciculata_CBS132.86_T,SRR2107184.2421962,100.00,29,0,0,1,29,16,44,8e-05,54.7
Rhinocladiella_mackenziei_CBS367.92,SRR2107184.15704629,94.29,35,1,1,1,34,131,97,3e-04,52.8
Rhinocladiella_mackenziei_CBS367.92,SRR2107184.9788114,100.00,28,0,0,1,28,34,7,3e-04,52.8
Rhinocladiella_mackenziei_CBS367.92,SRR2107184.2832838,100.00,28,0,0,1,28,132,105,3e-04,52.8
Veronaea_compacta_CBS268.75_T,SRR2107184.15704629,94.44,36,1,1,1,35,132,97,9e-05,54.7
Veronaea_compacta_CBS268.75_T,SRR2107184.9788114,100.00,29,0,0,1,29,35,7,9e-05,54.7
Veronaea_compacta_CBS268.75_T,SRR2107184.2832838,100.00,29,0,0,1,29,133,105,9e-05,54.7
Capronia_dactylotricha_DAOM208471_T,SRR2107184.3932568,94.67,75,4,0,584,658,66,140,1e-23,117
Capronia_kleinmondensis_CBS122671_T,SRR2107184.3932568,94.67,75,4,0,590,664,66,140,1e-23,117
Capronia_kleinmondensis_CBS122671_T,SRR2107184.2421962,100.00,32,0,0,1,32,13,44,2e-06,60.2
Capronia_kleinmondensis_CBS122671_T,SRR2107184.11177357,97.14,35,0,1,1,34,202,168,7e-06,58.4
Capronia_kleinmondensis_CBS122671_T,SRR2107184.15704629,100.00,30,0,0,1,30,135,106,3e-05,56.5
Capronia_kleinmondensis_CBS122671_T,SRR2107184.15537642,100.00,30,0,0,1,30,229,200,3e-05,56.5
Capronia_kleinmondensis_CBS122671_T,SRR2107184.15181746,100.00,30,0,0,1,30,68,39,3e-05,56.5
Capronia_kleinmondensis_CBS122671_T,SRR2107184.9788114,100.00,30,0,0,1,30,38,9,3e-05,56.5
Capronia_kleinmondensis_CBS122671_T,SRR2107184.9447212,100.00,30,0,0,1,30,213,242,3e-05,56.5
Capronia_kleinmondensis_CBS122671_T,SRR2107184.7174061,100.00,30,0,0,1,30,197,226,3e-05,56.5
Capronia_kleinmondensis_CBS122671_T,SRR2107184.6714112,100.00,30,0,0,1,30,107,136,3e-05,56.5
Capronia_kleinmondensis_CBS122671_T,SRR2107184.6714112,100.00,30,0,0,1,30,188,159,3e-05,56.5
Capronia_kleinmondensis_CBS122671_T,SRR2107184.6228679,100.00,30,0,0,1,30,67,38,3e-05,56.5
Capronia_kleinmondensis_CBS122671_T,SRR2107184.5479516,100.00,30,0,0,1,30,40,11,3e-05,56.5
Capronia_kleinmondensis_CBS122671_T,SRR2107184.4212829,100.00,30,0,0,1,30,136,107,3e-05,56.5
Capronia_kleinmondensis_CBS122671_T,SRR2107184.2832838,100.00,30,0,0,1,30,136,107,3e-05,56.5
Capronia_kleinmondensis_CBS122671_T,SRR2107184.1829474,100.00,30,0,0,1,30,271,300,3e-05,56.5
Capronia_kleinmondensis_CBS122671_T,SRR2107184.1137913,100.00,30,0,0,1,30,43,72,3e-05,56.5
Capronia_kleinmondensis_CBS122671_T,SRR2107184.1137913,100.00,30,0,0,1,30,287,258,3e-05,56.5
Capronia_mansonii_CBS101.67_T,SRR2107184.3932568,94.67,75,4,0,594,668,66,140,1e-23,117
Capronia_munkii_DAOM216390_T,SRR2107184.3932568,94.67,75,4,0,594,668,66,140,1e-23,117
Capronia_coronata_ATCC56201_T,SRR2107184.3932568,94.67,75,4,0,565,639,66,140,1e-23,117
Veronaea_japonica_CBS776.83_T,SRR2107184.15704629,95.74,47,1,1,1,46,143,97,7e-11,75.0
Veronaea_japonica_CBS776.83_T,SRR2107184.9788114,100.00,40,0,0,1,40,46,7,7e-11,75.0
Veronaea_japonica_CBS776.83_T,SRR2107184.2832838,100.00,40,0,0,1,40,144,105,7e-11,75.0
Veronaea_japonica_CBS776.83_T,SRR2107184.15537642,100.00,38,0,0,1,38,237,200,9e-10,71.3
Veronaea_japonica_CBS776.83_T,SRR2107184.15181746,100.00,38,0,0,1,38,76,39,9e-10,71.3
Veronaea_japonica_CBS776.83_T,SRR2107184.9447212,100.00,38,0,0,1,38,205,242,9e-10,71.3
Veronaea_japonica_CBS776.83_T,SRR2107184.7174061,100.00,38,0,0,1,38,189,226,9e-10,71.3
Veronaea_japonica_CBS776.83_T,SRR2107184.6714112,100.00,38,0,0,1,38,99,136,9e-10,71.3
Veronaea_japonica_CBS776.83_T,SRR2107184.6714112,100.00,38,0,0,1,38,196,159,9e-10,71.3
Veronaea_japonica_CBS776.83_T,SRR2107184.6228679,100.00,38,0,0,1,38,75,38,9e-10,71.3
Veronaea_japonica_CBS776.83_T,SRR2107184.5479516,100.00,38,0,0,1,38,48,11,9e-10,71.3
Veronaea_japonica_CBS776.83_T,SRR2107184.4212829,100.00,38,0,0,1,38,144,107,9e-10,71.3
Veronaea_japonica_CBS776.83_T,SRR2107184.1829474,100.00,38,0,0,1,38,263,300,9e-10,71.3
Veronaea_japonica_CBS776.83_T,SRR2107184.1137913,100.00,38,0,0,1,38,35,72,9e-10,71.3
Veronaea_japonica_CBS776.83_T,SRR2107184.1137913,100.00,38,0,0,1,38,295,258,9e-10,71.3
Veronaea_japonica_CBS776.83_T,SRR2107184.11177357,100.00,37,0,0,1,37,210,174,3e-09,69.4
Veronaea_japonica_CBS776.83_T,SRR2107184.10782795,97.37,38,1,0,1,38,228,191,4e-08,65.8
Veronaea_japonica_CBS776.83_T,SRR2107184.2421962,100.00,31,0,0,8,38,12,42,7e-06,58.4
Capronia_acutiseta_ATCC56428_T,SRR2107184.3932568,94.67,75,4,0,564,638,66,140,1e-23,117
Fonsecaea_pedrosoi_CBS271.37_T,SRR2107184.3932568,100.00,32,0,0,614,645,69,100,2e-06,60.2
Fonsecaea_pedrosoi_CBS271.37_T,SRR2107184.15704629,100.00,31,0,0,1,31,135,105,7e-06,58.4
Fonsecaea_pedrosoi_CBS271.37_T,SRR2107184.9788114,100.00,31,0,0,1,31,38,8,7e-06,58.4
Fonsecaea_pedrosoi_CBS271.37_T,SRR2107184.2832838,100.00,31,0,0,1,31,136,106,7e-06,58.4
Fonsecaea_pedrosoi_CBS271.37_T,SRR2107184.15537642,100.00,30,0,0,1,30,229,200,3e-05,56.5
Fonsecaea_pedrosoi_CBS271.37_T,SRR2107184.15181746,100.00,30,0,0,1,30,68,39,3e-05,56.5
Fonsecaea_pedrosoi_CBS271.37_T,SRR2107184.9447212,100.00,30,0,0,1,30,213,242,3e-05,56.5
Fonsecaea_pedrosoi_CBS271.37_T,SRR2107184.7174061,100.00,30,0,0,1,30,197,226,3e-05,56.5
Fonsecaea_pedrosoi_CBS271.37_T,SRR2107184.6714112,97.06,34,0,1,1,34,107,139,3e-05,56.5
Fonsecaea_pedrosoi_CBS271.37_T,SRR2107184.6714112,97.06,34,0,1,1,34,188,156,3e-05,56.5
Fonsecaea_pedrosoi_CBS271.37_T,SRR2107184.6228679,97.06,34,0,1,1,34,67,35,3e-05,56.5
Fonsecaea_pedrosoi_CBS271.37_T,SRR2107184.5479516,97.06,34,0,1,1,34,40,8,3e-05,56.5
Fonsecaea_pedrosoi_CBS271.37_T,SRR2107184.4212829,100.00,30,0,0,1,30,136,107,3e-05,56.5
Fonsecaea_pedrosoi_CBS271.37_T,SRR2107184.2421962,100.00,30,0,0,1,30,13,42,3e-05,56.5
Fonsecaea_pedrosoi_CBS271.37_T,SRR2107184.1829474,100.00,30,0,0,1,30,271,300,3e-05,56.5
Fonsecaea_pedrosoi_CBS271.37_T,SRR2107184.1137913,100.00,30,0,0,1,30,43,72,3e-05,56.5
Fonsecaea_pedrosoi_CBS271.37_T,SRR2107184.1137913,100.00,30,0,0,1,30,287,258,3e-05,56.5
Fonsecaea_pedrosoi_CBS271.37_T,SRR2107184.11177357,100.00,29,0,0,1,29,202,174,9e-05,54.7
Cladophialophora_australiensis_CBS112793,SRR2107184.6703308,93.84,146,9,0,1326,1471,1,146,2e-54,220
Cladophialophora_australiensis_CBS112793,SRR2107184.3677563,92.54,134,10,0,1324,1457,167,300,4e-46,193
Cladophialophora_australiensis_CBS112793,SRR2107184.11809586,92.79,111,8,0,1325,1435,111,1,1e-36,161
Cladophialophora_australiensis_CBS112793,SRR2107184.9595287,92.11,114,9,0,1324,1437,266,153,1e-36,161
Cladophialophora_australiensis_CBS112793,SRR2107184.9595287,83.15,89,9,6,1177,1261,16,102,5e-11,76.8
Cladophialophora_australiensis_CBS112793,SRR2107184.11988849,95.83,96,4,0,1376,1471,1,96,6e-35,156
Cladophialophora_australiensis_CBS112793,SRR2107184.15639643,91.18,102,8,1,1371,1471,146,247,2e-29,137
Cladophialophora_australiensis_CBS112793,SRR2107184.6484977,88.29,111,12,1,1314,1424,110,1,1e-27,132
Cladophialophora_australiensis_CBS112793,SRR2107184.15653119,90.43,94,9,0,1338,1431,207,300,2e-25,124
Cladophialophora_australiensis_CBS112793,SRR2107184.15653119,95.12,41,2,0,1431,1471,150,110,1e-07,65.8
Cladophialophora_australiensis_CBS112793,SRR2107184.12756255,88.66,97,11,0,1375,1471,156,252,8e-24,119
Cladophialophora_australiensis_CBS112793,SRR2107184.1806984,88.66,97,11,0,1375,1471,289,193,8e-24,119
Cladophialophora_australiensis_CBS112793,SRR2107184.3932568,94.52,73,4,0,575,647,69,141,4e-22,113
Cladophialophora_australiensis_CBS112793,SRR2107184.13698165,86.87,99,9,2,1341,1437,202,298,2e-20,108
Cladophialophora_australiensis_CBS112793,SRR2107184.8612995,86.87,99,9,2,1341,1437,52,148,2e-20,108
Cladophialophora_australiensis_CBS112793,SRR2107184.14997031,86.46,96,9,2,1341,1434,244,151,8e-19,102
Cladophialophora_australiensis_CBS112793,SRR2107184.15419850,88.31,77,9,0,1395,1471,300,224,5e-16,93.5
Cladophialophora_australiensis_CBS112793,SRR2107184.13908665,93.10,58,4,0,1317,1374,208,151,8e-14,86.1
Cladophialophora_australiensis_CBS112793,SRR2107184.13908665,90.16,61,6,0,1165,1225,68,128,4e-12,80.5
Cladophialophora_australiensis_CBS112793,SRR2107184.11420148,89.55,67,6,1,1324,1389,213,147,3e-13,84.2
Cladophialophora_australiensis_CBS112793,SRR2107184.14960989,90.32,62,6,0,1410,1471,300,239,1e-12,82.4
Cladophialophora_australiensis_CBS112793,SRR2107184.3449229,90.16,61,6,0,1165,1225,19,79,4e-12,80.5
Cladophialophora_australiensis_CBS112793,SRR2107184.3449229,90.16,61,6,0,1165,1225,253,193,4e-12,80.5
Cladophialophora_australiensis_CBS112793,SRR2107184.3117587,83.15,89,9,6,1177,1261,56,142,5e-11,76.8
Cladophialophora_australiensis_CBS112793,SRR2107184.3117587,83.15,89,9,6,1177,1261,262,176,5e-11,76.8
Cladophialophora_australiensis_CBS112793,SRR2107184.1460129,82.50,80,14,0,1181,1260,150,229,2e-09,71.3
Cladophialophora_australiensis_CBS112793,SRR2107184.1460129,82.28,79,14,0,1182,1260,114,36,8e-09,69.4
Cladophialophora_australiensis_CBS112793,SRR2107184.8254317,90.38,52,5,0,1338,1389,52,1,8e-09,69.4
Cladophialophora_australiensis_CBS112793,SRR2107184.10181938,91.30,46,4,0,1178,1223,244,289,4e-07,63.9
Cladophialophora_australiensis_CBS112793,SRR2107184.3134077,93.02,43,3,0,1183,1225,1,43,4e-07,63.9
Cladophialophora_australiensis_CBS112793,SRR2107184.3134077,93.02,43,3,0,1183,1225,198,156,4e-07,63.9
Cladophialophora_australiensis_CBS112793,SRR2107184.5556856,100.00,33,0,0,1180,1212,23,55,1e-06,62.1
Cladophialophora_australiensis_CBS112793,SRR2107184.12130913,92.68,41,3,0,1324,1364,190,150,5e-06,60.2
Cladophialophora_australiensis_CBS112793,SRR2107184.8061475,82.81,64,11,0,1178,1241,174,237,2e-05,58.4
Cladophialophora_potulentorum_CBS112222,SRR2107184.6703308,93.92,148,9,0,1328,1475,1,148,2e-55,224
Cladophialophora_potulentorum_CBS112222,SRR2107184.3677563,92.54,134,10,0,1326,1459,167,300,5e-46,193
Cladophialophora_potulentorum_CBS112222,SRR2107184.11988849,94.59,111,6,0,1378,1488,1,111,6e-40,172
Cladophialophora_potulentorum_CBS112222,SRR2107184.11809586,92.79,111,8,0,1327,1437,111,1,1e-36,161
Cladophialophora_potulentorum_CBS112222,SRR2107184.9595287,92.11,114,9,0,1326,1439,266,153,1e-36,161
Cladophialophora_potulentorum_CBS112222,SRR2107184.9595287,82.02,89,10,6,1179,1263,16,102,2e-09,71.3
Cladophialophora_potulentorum_CBS112222,SRR2107184.15639643,91.45,117,9,1,1373,1488,146,262,5e-36,159
Cladophialophora_potulentorum_CBS112222,SRR2107184.12756255,89.29,112,12,0,1377,1488,156,267,2e-30,141
Cladophialophora_potulentorum_CBS112222,SRR2107184.1806984,89.29,112,12,0,1377,1488,289,178,2e-30,141
Cladophialophora_potulentorum_CBS112222,SRR2107184.6484977,88.29,111,12,1,1316,1426,110,1,1e-27,132
Cladophialophora_potulentorum_CBS112222,SRR2107184.15653119,90.43,94,9,0,1340,1433,207,300,2e-25,124
Cladophialophora_potulentorum_CBS112222,SRR2107184.15653119,94.64,56,3,0,1433,1488,150,95,2e-14,87.9
Cladophialophora_potulentorum_CBS112222,SRR2107184.15419850,89.13,92,10,0,1397,1488,300,209,1e-22,115
Cladophialophora_potulentorum_CBS112222,SRR2107184.3932568,94.52,73,4,0,577,649,69,141,4e-22,113
Cladophialophora_potulentorum_CBS112222,SRR2107184.13698165,86.87,99,9,2,1343,1439,202,298,2e-20,108
Cladophialophora_potulentorum_CBS112222,SRR2107184.8612995,86.87,99,9,2,1343,1439,52,148,2e-20,108
Cladophialophora_potulentorum_CBS112222,SRR2107184.14960989,90.91,77,7,0,1412,1488,300,224,2e-19,104
Cladophialophora_potulentorum_CBS112222,SRR2107184.14997031,86.46,96,9,2,1343,1436,244,151,8e-19,102
Cladophialophora_potulentorum_CBS112222,SRR2107184.13908665,93.10,58,4,0,1319,1376,208,151,8e-14,86.1
Cladophialophora_potulentorum_CBS112222,SRR2107184.13908665,95.92,49,2,0,1179,1227,80,128,4e-12,80.5
Cladophialophora_potulentorum_CBS112222,SRR2107184.11420148,89.55,67,6,1,1326,1391,213,147,3e-13,84.2
Cladophialophora_potulentorum_CBS112222,SRR2107184.3449229,95.92,49,2,0,1179,1227,31,79,4e-12,80.5
Cladophialophora_potulentorum_CBS112222,SRR2107184.3449229,95.92,49,2,0,1179,1227,241,193,4e-12,80.5
Cladophialophora_potulentorum_CBS112222,SRR2107184.1460129,95.56,45,2,0,1183,1227,150,194,6e-10,73.1
Cladophialophora_potulentorum_CBS112222,SRR2107184.1460129,95.45,44,2,0,1184,1227,114,71,2e-09,71.3
Cladophialophora_potulentorum_CBS112222,SRR2107184.3117587,82.02,89,10,6,1179,1263,56,142,2e-09,71.3
Cladophialophora_potulentorum_CBS112222,SRR2107184.3117587,82.02,89,10,6,1179,1263,262,176,2e-09,71.3
Cladophialophora_potulentorum_CBS112222,SRR2107184.10181938,93.48,46,3,0,1180,1225,244,289,8e-09,69.4
Cladophialophora_potulentorum_CBS112222,SRR2107184.8254317,90.38,52,5,0,1340,1391,52,1,8e-09,69.4
Cladophialophora_potulentorum_CBS112222,SRR2107184.3134077,95.35,43,2,0,1185,1227,1,43,8e-09,69.4
Cladophialophora_potulentorum_CBS112222,SRR2107184.3134077,95.35,43,2,0,1185,1227,198,156,8e-09,69.4
Cladophialophora_potulentorum_CBS112222,SRR2107184.5556856,95.00,40,2,0,1182,1221,23,62,4e-07,63.9
Cladophialophora_potulentorum_CBS112222,SRR2107184.12130913,92.68,41,3,0,1326,1366,190,150,5e-06,60.2
Cladophialophora_potulentorum_CBS112222,SRR2107184.8061475,94.59,37,1,1,1174,1209,167,203,6e-05,56.5
Cladophialophora_chaetospira_CBS127573,SRR2107184.15704629,95.00,40,1,1,379,417,136,97,8e-07,62.1
Cladophialophora_chaetospira_CBS127573,SRR2107184.9788114,100.00,33,0,0,379,411,39,7,8e-07,62.1
Cladophialophora_chaetospira_CBS127573,SRR2107184.2832838,100.00,33,0,0,379,411,137,105,8e-07,62.1
Cladophialophora_chaetospira_CBS127573,SRR2107184.2421962,100.00,33,0,0,377,409,10,42,8e-07,62.1
Cladophialophora_chaetospira_CBS127573,SRR2107184.15537642,100.00,31,0,0,379,409,230,200,1e-05,58.4
Cladophialophora_chaetospira_CBS127573,SRR2107184.15181746,100.00,31,0,0,379,409,69,39,1e-05,58.4
Cladophialophora_chaetospira_CBS127573,SRR2107184.9447212,100.00,31,0,0,379,409,212,242,1e-05,58.4
Cladophialophora_chaetospira_CBS127573,SRR2107184.7174061,100.00,31,0,0,379,409,196,226,1e-05,58.4
Cladophialophora_chaetospira_CBS127573,SRR2107184.6714112,100.00,31,0,0,379,409,106,136,1e-05,58.4
Cladophialophora_chaetospira_CBS127573,SRR2107184.6714112,100.00,31,0,0,379,409,189,159,1e-05,58.4
Cladophialophora_chaetospira_CBS127573,SRR2107184.6228679,100.00,31,0,0,379,409,68,38,1e-05,58.4
Cladophialophora_chaetospira_CBS127573,SRR2107184.5479516,100.00,31,0,0,379,409,41,11,1e-05,58.4
Cladophialophora_chaetospira_CBS127573,SRR2107184.4212829,100.00,31,0,0,379,409,137,107,1e-05,58.4
Cladophialophora_chaetospira_CBS127573,SRR2107184.1829474,100.00,31,0,0,379,409,270,300,1e-05,58.4
Cladophialophora_chaetospira_CBS127573,SRR2107184.1137913,100.00,31,0,0,379,409,42,72,1e-05,58.4
Cladophialophora_chaetospira_CBS127573,SRR2107184.1137913,100.00,31,0,0,379,409,288,258,1e-05,58.4
Cladophialophora_chaetospira_CBS127573,SRR2107184.11177357,100.00,30,0,0,379,408,203,174,4e-05,56.5
Phialophora_americana_CBS400.67,SRR2107184.6703308,92.86,126,9,0,1320,1445,1,126,3e-43,183
Phialophora_americana_CBS400.67,SRR2107184.3677563,92.19,128,10,0,1318,1445,167,294,9e-43,182
Phialophora_americana_CBS400.67,SRR2107184.11809586,92.79,111,8,0,1319,1429,111,1,1e-36,161
Phialophora_americana_CBS400.67,SRR2107184.9595287,92.11,114,9,0,1318,1431,266,153,1e-36,161
Phialophora_americana_CBS400.67,SRR2107184.9595287,82.76,87,13,2,1171,1255,16,102,5e-11,76.8
Phialophora_americana_CBS400.67,SRR2107184.6484977,88.29,111,12,1,1308,1418,110,1,1e-27,132
Phialophora_americana_CBS400.67,SRR2107184.15653119,90.43,94,9,0,1332,1425,207,300,2e-25,124
Phialophora_americana_CBS400.67,SRR2107184.11988849,94.74,76,4,0,1370,1445,1,76,8e-24,119
Phialophora_americana_CBS400.67,SRR2107184.1253884,87.63,97,12,0,873,969,148,52,4e-22,113
Phialophora_americana_CBS400.67,SRR2107184.13698165,84.17,120,13,4,1315,1431,182,298,1e-21,111
Phialophora_americana_CBS400.67,SRR2107184.8612995,84.17,120,13,4,1315,1431,32,148,1e-21,111
Phialophora_americana_CBS400.67,SRR2107184.14997031,83.76,117,13,4,1315,1428,264,151,6e-20,106
Phialophora_americana_CBS400.67,SRR2107184.16219489,81.03,116,20,2,858,972,151,265,2e-15,91.6
Phialophora_americana_CBS400.67,SRR2107184.12756255,92.06,63,5,0,1369,1431,156,218,6e-15,89.8
Phialophora_americana_CBS400.67,SRR2107184.1806984,92.06,63,5,0,1369,1431,289,227,6e-15,89.8
Phialophora_americana_CBS400.67,SRR2107184.10107469,79.84,124,22,3,837,959,177,298,2e-14,87.9
Phialophora_americana_CBS400.67,SRR2107184.13908665,91.80,61,5,0,1159,1219,68,128,8e-14,86.1
Phialophora_americana_CBS400.67,SRR2107184.13908665,93.10,58,4,0,1311,1368,208,151,8e-14,86.1
Phialophora_americana_CBS400.67,SRR2107184.3449229,91.80,61,5,0,1159,1219,19,79,8e-14,86.1
Phialophora_americana_CBS400.67,SRR2107184.3449229,91.80,61,5,0,1159,1219,253,193,8e-14,86.1
Phialophora_americana_CBS400.67,SRR2107184.11420148,89.55,67,6,1,1318,1383,213,147,3e-13,84.2
Phialophora_americana_CBS400.67,SRR2107184.8676559,84.52,84,11,2,890,972,10,92,1e-12,82.4
Phialophora_americana_CBS400.67,SRR2107184.3117587,82.76,87,13,2,1171,1255,56,142,5e-11,76.8
Phialophora_americana_CBS400.67,SRR2107184.3117587,82.76,87,13,2,1171,1255,262,176,5e-11,76.8
Phialophora_americana_CBS400.67,SRR2107184.1460129,95.56,45,2,0,1175,1219,150,194,6e-10,73.1
Phialophora_americana_CBS400.67,SRR2107184.1460129,95.45,44,2,0,1176,1219,114,71,2e-09,71.3
Phialophora_americana_CBS400.67,SRR2107184.10181938,93.48,46,3,0,1172,1217,244,289,8e-09,69.4
Phialophora_americana_CBS400.67,SRR2107184.8254317,90.38,52,5,0,1332,1383,52,1,8e-09,69.4
Phialophora_americana_CBS400.67,SRR2107184.5556856,97.50,40,1,0,1174,1213,23,62,8e-09,69.4
Phialophora_americana_CBS400.67,SRR2107184.3134077,95.35,43,2,0,1177,1219,1,43,8e-09,69.4
Phialophora_americana_CBS400.67,SRR2107184.3134077,95.35,43,2,0,1177,1219,198,156,8e-09,69.4
Phialophora_americana_CBS400.67,SRR2107184.15419850,93.02,43,3,0,1389,1431,300,258,4e-07,63.9
Phialophora_americana_CBS400.67,SRR2107184.12130913,92.68,41,3,0,1318,1358,190,150,5e-06,60.2
Phialophora_americana_CBS400.67,SRR2107184.8061475,100.00,30,0,0,1172,1201,174,203,6e-05,56.5
Phialophora_americana_CBS400.67,SRR2107184.14960989,100.00,28,0,0,1404,1431,300,273,8e-04,52.8
Cyphellophora_laciniata_CBS190.61_T,SRR2107184.15537642,98.63,73,1,0,28,100,272,200,2e-27,130
Cyphellophora_laciniata_CBS190.61_T,SRR2107184.15181746,98.63,73,1,0,28,100,111,39,2e-27,130
Cyphellophora_laciniata_CBS190.61_T,SRR2107184.9447212,98.63,73,1,0,28,100,170,242,2e-27,130
Cyphellophora_laciniata_CBS190.61_T,SRR2107184.7174061,98.63,73,1,0,28,100,154,226,2e-27,130
Cyphellophora_laciniata_CBS190.61_T,SRR2107184.6714112,98.61,72,1,0,29,100,65,136,6e-27,128
Cyphellophora_laciniata_CBS190.61_T,SRR2107184.6714112,98.61,72,1,0,29,100,230,159,6e-27,128
Cyphellophora_laciniata_CBS190.61_T,SRR2107184.6228679,98.61,72,1,0,29,100,109,38,6e-27,128
Cyphellophora_laciniata_CBS190.61_T,SRR2107184.5479516,98.61,72,1,0,29,100,82,11,6e-27,128
Cyphellophora_laciniata_CBS190.61_T,SRR2107184.1137913,98.61,72,1,0,29,100,1,72,6e-27,128
Cyphellophora_laciniata_CBS190.61_T,SRR2107184.1137913,100.00,43,0,0,58,100,300,258,2e-12,80.5
Cyphellophora_laciniata_CBS190.61_T,SRR2107184.10782795,97.26,73,2,0,28,100,263,191,8e-26,124
Cyphellophora_laciniata_CBS190.61_T,SRR2107184.11177357,98.51,67,0,1,39,104,234,168,1e-23,117
Cyphellophora_laciniata_CBS190.61_T,SRR2107184.3932568,93.33,75,5,0,661,735,66,140,6e-22,111
Cyphellophora_laciniata_CBS190.61_T,SRR2107184.13291454,92.11,76,6,0,28,103,262,187,8e-21,108
Cyphellophora_laciniata_CBS190.61_T,SRR2107184.8796802,92.11,76,6,0,28,103,172,247,8e-21,108
Cyphellophora_laciniata_CBS190.61_T,SRR2107184.3423939,92.11,76,6,0,28,103,275,200,8e-21,108
Cyphellophora_laciniata_CBS190.61_T,SRR2107184.889222,92.11,76,6,0,28,103,297,222,8e-21,108
Cyphellophora_laciniata_CBS190.61_T,SRR2107184.3887827,93.94,66,4,0,38,103,297,232,1e-18,100
Cyphellophora_laciniata_CBS190.61_T,SRR2107184.9788114,96.55,58,2,0,43,100,66,9,2e-17,97.1
Cyphellophora_laciniata_CBS190.61_T,SRR2107184.1829474,96.55,58,2,0,43,100,243,300,2e-17,97.1
Cyphellophora_laciniata_CBS190.61_T,SRR2107184.9182333,93.22,59,4,0,28,86,59,1,1e-14,87.9
Cyphellophora_laciniata_CBS190.61_T,SRR2107184.15704629,100.00,45,0,0,56,100,150,106,1e-13,84.2
Cyphellophora_laciniata_CBS190.61_T,SRR2107184.4212829,100.00,44,0,0,57,100,150,107,5e-13,82.4
Cyphellophora_laciniata_CBS190.61_T,SRR2107184.2832838,100.00,44,0,0,57,100,150,107,5e-13,82.4
Cyphellophora_laciniata_CBS190.61_T,SRR2107184.13293776,95.00,40,2,0,28,67,111,150,2e-07,63.9
Cyphellophora_laciniata_CBS190.61_T,SRR2107184.2421962,100.00,33,0,0,70,102,12,44,6e-07,62.1
Cladophialophora_modesta_CBS985.96_T,SRR2107184.3932568,93.42,76,3,2,545,619,66,140,5e-22,111
