Exophiala_polymorpha_CBS138920_T,SRR9260993.5228558,100.00,28,0,0,82,109,365,338,2e-04,52.8
Exophiala_polymorpha_CBS138920_T,SRR9260993.472538,100.00,28,0,0,82,109,64,37,2e-04,52.8
Exophiala_polymorpha_CBS138920_T,SRR9260993.472538,100.00,28,0,0,82,109,377,404,2e-04,52.8
Exophiala_brunnea_CBS,SRR9260993.5228558,100.00,41,0,0,1,41,378,338,1e-11,76.8
Exophiala_brunnea_CBS,SRR9260993.472538,100.00,41,0,0,1,41,77,37,1e-11,76.8
Exophiala_brunnea_CBS,SRR9260993.472538,100.00,41,0,0,1,41,364,404,1e-11,76.8
Exophiala_brunnea_CBS,SRR9260993.4648347,100.00,39,0,0,1,39,338,376,1e-10,73.1
Exophiala_brunnea_CBS,SRR9260993.2979464,97.62,42,1,0,1,42,72,113,1e-10,73.1
Exophiala_brunnea_CBS,SRR9260993.3833369,100.00,38,0,0,1,38,330,367,5e-10,71.3
Exophiala_brunnea_CBS,SRR9260993.3332101,100.00,38,0,0,1,38,49,86,5e-10,71.3
Exophiala_brunnea_CBS,SRR9260993.3228914,100.00,38,0,0,1,38,67,104,5e-10,71.3
Exophiala_brunnea_CBS,SRR9260993.2857852,100.00,38,0,0,1,38,301,264,5e-10,71.3
Exophiala_brunnea_CBS,SRR9260993.1866857,100.00,38,0,0,1,38,144,181,5e-10,71.3
Exophiala_brunnea_CBS,SRR9260993.955599,100.00,38,0,0,1,38,342,305,5e-10,71.3
Exophiala_brunnea_CBS,SRR9260993.50891,100.00,38,0,0,1,38,106,69,5e-10,71.3
Exophiala_brunnea_CBS,SRR9260993.50891,100.00,38,0,0,1,38,395,432,5e-10,71.3
Exophiala_brunnea_CBS,SRR9260993.166805,100.00,33,0,0,1,33,33,1,3e-07,62.1
Exophiala_brunnea_CBS,SRR9260993.166805,100.00,33,0,0,1,33,202,234,3e-07,62.1
Exophiala_dermatitidis_CBS748.88,SRR9260993.5686380,89.27,177,19,0,836,1012,37,213,3e-55,222
Exophiala_dermatitidis_CBS748.88,SRR9260993.3918650,89.27,177,19,0,836,1012,9,185,3e-55,222
Exophiala_dermatitidis_CBS748.88,SRR9260993.1389721,93.38,136,9,0,1367,1502,230,95,4e-49,202
Exophiala_dermatitidis_CBS748.88,SRR9260993.1389721,93.38,136,9,0,1367,1502,257,392,4e-49,202
Exophiala_dermatitidis_CBS748.88,SRR9260993.1410188,89.58,144,15,0,1358,1501,92,235,2e-43,183
Exophiala_dermatitidis_CBS748.88,SRR9260993.1410188,89.58,144,15,0,1358,1501,412,269,2e-43,183
Exophiala_dermatitidis_CBS748.88,SRR9260993.1041736,94.02,117,7,0,1386,1502,3,119,7e-42,178
Exophiala_dermatitidis_CBS748.88,SRR9260993.1041736,94.02,117,7,0,1386,1502,408,292,7e-42,178
Exophiala_dermatitidis_CBS748.88,SRR9260993.550800,94.74,114,6,0,1389,1502,1,114,7e-42,178
Exophiala_dermatitidis_CBS748.88,SRR9260993.548212,80.83,240,33,11,1186,1414,489,252,3e-41,176
Exophiala_dermatitidis_CBS748.88,SRR9260993.548212,85.19,108,15,1,1186,1293,81,187,3e-21,110
Exophiala_dermatitidis_CBS748.88,SRR9260993.3662990,88.55,131,15,0,1374,1504,172,42,3e-36,159
Exophiala_dermatitidis_CBS748.88,SRR9260993.3662990,88.55,131,15,0,1374,1504,241,371,3e-36,159
Exophiala_dermatitidis_CBS748.88,SRR9260993.3650969,92.04,113,9,0,1392,1504,1,113,3e-36,159
Exophiala_dermatitidis_CBS748.88,SRR9260993.3650969,91.15,113,10,0,1392,1504,430,318,3e-35,156
Exophiala_dermatitidis_CBS748.88,SRR9260993.3912739,86.96,115,15,0,837,951,136,250,2e-27,130
Exophiala_dermatitidis_CBS748.88,SRR9260993.4390452,79.06,191,27,11,1186,1365,59,247,4e-24,119
Exophiala_dermatitidis_CBS748.88,SRR9260993.4390452,79.06,191,27,11,1186,1365,440,252,4e-24,119
Exophiala_dermatitidis_CBS748.88,SRR9260993.1666531,85.19,108,15,1,1186,1293,371,265,3e-21,110
Exophiala_dermatitidis_CBS748.88,SRR9260993.1666531,86.25,80,11,0,1186,1265,173,252,1e-14,87.9
Exophiala_dermatitidis_CBS748.88,SRR9260993.1607685,85.19,108,15,1,1186,1293,4,110,3e-21,110
Exophiala_dermatitidis_CBS748.88,SRR9260993.41302,85.19,108,15,1,1186,1293,136,30,3e-21,110
Exophiala_dermatitidis_CBS748.88,SRR9260993.828606,89.29,84,9,0,1210,1293,239,156,3e-20,106
Exophiala_dermatitidis_CBS748.88,SRR9260993.2210969,84.55,110,10,6,1187,1293,384,279,4e-19,102
Exophiala_dermatitidis_CBS748.88,SRR9260993.4985931,95.16,62,3,0,1440,1501,257,318,6e-18,99.0
Exophiala_dermatitidis_CBS748.88,SRR9260993.4711215,88.73,71,6,2,1211,1280,11,80,4e-14,86.1
Exophiala_dermatitidis_CBS748.88,SRR9260993.4711215,88.73,71,6,2,1211,1280,204,135,4e-14,86.1
Exophiala_dermatitidis_CBS748.88,SRR9260993.2866364,76.11,180,34,7,1211,1385,6,181,4e-14,86.1
Exophiala_dermatitidis_CBS748.88,SRR9260993.2866364,76.11,180,34,7,1211,1385,355,180,4e-14,86.1
Exophiala_dermatitidis_CBS748.88,SRR9260993.5018067,92.86,56,2,2,1211,1265,90,36,2e-12,80.5
Exophiala_dermatitidis_CBS748.88,SRR9260993.5018067,97.22,36,0,1,1211,1246,463,497,3e-06,60.2
Exophiala_dermatitidis_CBS748.88,SRR9260993.3695861,92.86,56,2,2,1211,1265,153,207,2e-12,80.5
Exophiala_dermatitidis_CBS748.88,SRR9260993.3695861,92.86,56,2,2,1211,1265,363,309,2e-12,80.5
Exophiala_dermatitidis_CBS748.88,SRR9260993.3691662,92.86,56,2,2,1211,1265,122,68,2e-12,80.5
Exophiala_dermatitidis_CBS748.88,SRR9260993.3477711,92.86,56,2,2,1211,1265,183,237,2e-12,80.5
Exophiala_dermatitidis_CBS748.88,SRR9260993.3477711,92.86,56,2,2,1211,1265,321,267,2e-12,80.5
Exophiala_dermatitidis_CBS748.88,SRR9260993.3056887,92.86,56,2,2,1211,1265,70,16,2e-12,80.5
Exophiala_dermatitidis_CBS748.88,SRR9260993.2273106,92.86,56,2,2,1211,1265,118,172,2e-12,80.5
Exophiala_dermatitidis_CBS748.88,SRR9260993.2273106,92.86,56,2,2,1211,1265,409,355,2e-12,80.5
Exophiala_dermatitidis_CBS748.88,SRR9260993.126618,92.86,56,2,2,1211,1265,152,98,2e-12,80.5
Exophiala_dermatitidis_CBS748.88,SRR9260993.126618,92.86,56,2,2,1211,1265,430,484,2e-12,80.5
Exophiala_dermatitidis_CBS748.88,SRR9260993.121962,92.86,56,2,2,1211,1265,175,229,2e-12,80.5
Exophiala_dermatitidis_CBS748.88,SRR9260993.121962,92.86,56,2,2,1211,1265,409,355,2e-12,80.5
Exophiala_dermatitidis_CBS748.88,SRR9260993.771514,87.50,64,8,0,1210,1273,165,102,1e-10,75.0
Exophiala_dermatitidis_CBS748.88,SRR9260993.771514,87.50,64,8,0,1210,1273,357,420,1e-10,75.0
Exophiala_dermatitidis_CBS748.88,SRR9260993.576529,91.49,47,2,2,1214,1259,456,501,2e-07,63.9
Exophiala_dermatitidis_CBS748.88,SRR9260993.4649630,100.00,32,0,0,1211,1242,36,5,3e-06,60.2
Exophiala_dermatitidis_CBS748.88,SRR9260993.4649630,100.00,32,0,0,1211,1242,391,422,3e-06,60.2
Exophiala_dermatitidis_CBS748.88,SRR9260993.4572978,100.00,32,0,0,1211,1242,199,168,3e-06,60.2
Exophiala_dermatitidis_CBS748.88,SRR9260993.4572978,100.00,32,0,0,1211,1242,281,312,3e-06,60.2
Exophiala_dermatitidis_CBS748.88,SRR9260993.4524459,89.58,48,3,2,1210,1256,397,351,3e-06,60.2
Exophiala_dermatitidis_CBS748.88,SRR9260993.3673987,89.58,48,3,2,1210,1256,52,6,3e-06,60.2
Exophiala_dermatitidis_CBS748.88,SRR9260993.3673987,89.58,48,3,2,1210,1256,189,235,3e-06,60.2
Exophiala_dermatitidis_CBS748.88,SRR9260993.3670545,89.58,48,3,2,1210,1256,52,6,3e-06,60.2
Exophiala_dermatitidis_CBS748.88,SRR9260993.3670545,89.58,48,3,2,1210,1256,189,235,3e-06,60.2
Exophiala_salmonis_CBS157.67_T,SRR9260993.472538,80.33,122,22,2,1,122,190,71,5e-16,91.6
Exophiala_salmonis_CBS157.67_T,SRR9260993.472538,80.33,122,22,2,1,122,251,370,5e-16,91.6
Exophiala_salmonis_CBS157.67_T,SRR9260993.50891,95.83,48,2,0,75,122,147,100,4e-12,78.7
Exophiala_salmonis_CBS157.67_T,SRR9260993.50891,95.83,48,2,0,75,122,354,401,4e-12,78.7
Exophiala_salmonis_CBS157.67_T,SRR9260993.4648347,97.73,44,1,0,79,122,301,344,1e-11,76.8
Exophiala_salmonis_CBS157.67_T,SRR9260993.1716809,95.12,41,2,0,82,122,61,101,3e-08,65.8
Exophiala_salmonis_CBS157.67_T,SRR9260993.1716809,95.12,41,2,0,82,122,214,174,3e-08,65.8
Exophiala_tremulae_CBS129355,SRR9260993.5228558,100.00,41,0,0,1,41,378,338,1e-11,76.8
Exophiala_tremulae_CBS129355,SRR9260993.472538,100.00,41,0,0,1,41,77,37,1e-11,76.8
Exophiala_tremulae_CBS129355,SRR9260993.472538,100.00,41,0,0,1,41,364,404,1e-11,76.8
Exophiala_tremulae_CBS129355,SRR9260993.4648347,100.00,39,0,0,1,39,338,376,1e-10,73.1
Exophiala_tremulae_CBS129355,SRR9260993.2979464,97.62,42,1,0,1,42,72,113,1e-10,73.1
Exophiala_tremulae_CBS129355,SRR9260993.3833369,100.00,38,0,0,1,38,330,367,5e-10,71.3
Exophiala_tremulae_CBS129355,SRR9260993.3332101,100.00,38,0,0,1,38,49,86,5e-10,71.3
Exophiala_tremulae_CBS129355,SRR9260993.3228914,100.00,38,0,0,1,38,67,104,5e-10,71.3
Exophiala_tremulae_CBS129355,SRR9260993.2857852,100.00,38,0,0,1,38,301,264,5e-10,71.3
Exophiala_tremulae_CBS129355,SRR9260993.1866857,100.00,38,0,0,1,38,144,181,5e-10,71.3
Exophiala_tremulae_CBS129355,SRR9260993.955599,100.00,38,0,0,1,38,342,305,5e-10,71.3
Exophiala_tremulae_CBS129355,SRR9260993.50891,100.00,38,0,0,1,38,106,69,5e-10,71.3
Exophiala_tremulae_CBS129355,SRR9260993.50891,100.00,38,0,0,1,38,395,432,5e-10,71.3
Exophiala_tremulae_CBS129355,SRR9260993.166805,100.00,33,0,0,1,33,33,1,3e-07,62.1
Exophiala_tremulae_CBS129355,SRR9260993.166805,100.00,33,0,0,1,33,202,234,3e-07,62.1
Rhinocladiella_atrovirens_CBS264.49,SRR9260993.4648347,100.00,45,0,0,1,45,333,377,6e-14,84.2
Rhinocladiella_atrovirens_CBS264.49,SRR9260993.5228558,100.00,44,0,0,1,44,383,340,2e-13,82.4
Rhinocladiella_atrovirens_CBS264.49,SRR9260993.472538,100.00,44,0,0,1,44,82,39,2e-13,82.4
Rhinocladiella_atrovirens_CBS264.49,SRR9260993.472538,100.00,44,0,0,1,44,359,402,2e-13,82.4
Rhinocladiella_atrovirens_CBS264.49,SRR9260993.3833369,100.00,43,0,0,1,43,325,367,8e-13,80.5
Rhinocladiella_atrovirens_CBS264.49,SRR9260993.3332101,100.00,43,0,0,1,43,44,86,8e-13,80.5
Rhinocladiella_atrovirens_CBS264.49,SRR9260993.3228914,100.00,43,0,0,1,43,62,104,8e-13,80.5
Rhinocladiella_atrovirens_CBS264.49,SRR9260993.2979464,100.00,43,0,0,1,43,67,109,8e-13,80.5
Rhinocladiella_atrovirens_CBS264.49,SRR9260993.2857852,100.00,43,0,0,1,43,306,264,8e-13,80.5
Rhinocladiella_atrovirens_CBS264.49,SRR9260993.1866857,100.00,43,0,0,1,43,139,181,8e-13,80.5
Rhinocladiella_atrovirens_CBS264.49,SRR9260993.955599,100.00,43,0,0,1,43,347,305,8e-13,80.5
Rhinocladiella_atrovirens_CBS264.49,SRR9260993.50891,100.00,43,0,0,1,43,111,69,8e-13,80.5
Rhinocladiella_atrovirens_CBS264.49,SRR9260993.50891,100.00,43,0,0,1,43,390,432,8e-13,80.5
Rhinocladiella_atrovirens_CBS264.49,SRR9260993.166805,100.00,38,0,0,1,38,38,1,5e-10,71.3
Rhinocladiella_atrovirens_CBS264.49,SRR9260993.166805,100.00,38,0,0,1,38,197,234,5e-10,71.3
Rhinocladiella_fasciculata_CBS132.86_T,SRR9260993.4648347,100.00,28,0,0,1,28,350,377,2e-04,52.8
Rhinocladiella_mackenziei_CBS367.92,SRR9260993.5228558,100.00,28,0,0,1,28,365,338,2e-04,52.8
Rhinocladiella_mackenziei_CBS367.92,SRR9260993.472538,100.00,28,0,0,1,28,64,37,2e-04,52.8
Rhinocladiella_mackenziei_CBS367.92,SRR9260993.472538,100.00,28,0,0,1,28,377,404,2e-04,52.8
Veronaea_compacta_CBS268.75_T,SRR9260993.5228558,100.00,29,0,0,1,29,366,338,5e-05,54.7
Veronaea_compacta_CBS268.75_T,SRR9260993.472538,100.00,29,0,0,1,29,65,37,5e-05,54.7
Veronaea_compacta_CBS268.75_T,SRR9260993.472538,100.00,29,0,0,1,29,376,404,5e-05,54.7
Capronia_kleinmondensis_CBS122671_T,SRR9260993.4648347,100.00,31,0,0,1,31,347,377,4e-06,58.4
Capronia_kleinmondensis_CBS122671_T,SRR9260993.5228558,100.00,30,0,0,1,30,369,340,1e-05,56.5
Capronia_kleinmondensis_CBS122671_T,SRR9260993.472538,100.00,30,0,0,1,30,68,39,1e-05,56.5
Capronia_kleinmondensis_CBS122671_T,SRR9260993.472538,100.00,30,0,0,1,30,373,402,1e-05,56.5
Capronia_kleinmondensis_CBS122671_T,SRR9260993.3833369,100.00,29,0,0,1,29,339,367,5e-05,54.7
Capronia_kleinmondensis_CBS122671_T,SRR9260993.3332101,100.00,29,0,0,1,29,58,86,5e-05,54.7
Capronia_kleinmondensis_CBS122671_T,SRR9260993.3228914,100.00,29,0,0,1,29,76,104,5e-05,54.7
Capronia_kleinmondensis_CBS122671_T,SRR9260993.2979464,100.00,29,0,0,1,29,81,109,5e-05,54.7
Capronia_kleinmondensis_CBS122671_T,SRR9260993.2857852,100.00,29,0,0,1,29,292,264,5e-05,54.7
Capronia_kleinmondensis_CBS122671_T,SRR9260993.1866857,100.00,29,0,0,1,29,153,181,5e-05,54.7
Capronia_kleinmondensis_CBS122671_T,SRR9260993.955599,100.00,29,0,0,1,29,333,305,5e-05,54.7
Capronia_kleinmondensis_CBS122671_T,SRR9260993.50891,100.00,29,0,0,1,29,97,69,5e-05,54.7
Capronia_kleinmondensis_CBS122671_T,SRR9260993.50891,100.00,29,0,0,1,29,404,432,5e-05,54.7
Veronaea_japonica_CBS776.83_T,SRR9260993.5228558,100.00,40,0,0,1,40,377,338,4e-11,75.0
Veronaea_japonica_CBS776.83_T,SRR9260993.472538,100.00,40,0,0,1,40,76,37,4e-11,75.0
Veronaea_japonica_CBS776.83_T,SRR9260993.472538,100.00,40,0,0,1,40,365,404,4e-11,75.0
Veronaea_japonica_CBS776.83_T,SRR9260993.4648347,100.00,38,0,0,1,38,339,376,5e-10,71.3
Veronaea_japonica_CBS776.83_T,SRR9260993.2979464,97.56,41,1,0,1,41,73,113,5e-10,71.3
Veronaea_japonica_CBS776.83_T,SRR9260993.3833369,100.00,37,0,0,1,37,331,367,2e-09,69.4
Veronaea_japonica_CBS776.83_T,SRR9260993.3332101,100.00,37,0,0,1,37,50,86,2e-09,69.4
Veronaea_japonica_CBS776.83_T,SRR9260993.3228914,100.00,37,0,0,1,37,68,104,2e-09,69.4
Veronaea_japonica_CBS776.83_T,SRR9260993.2857852,100.00,37,0,0,1,37,300,264,2e-09,69.4
Veronaea_japonica_CBS776.83_T,SRR9260993.1866857,100.00,37,0,0,1,37,145,181,2e-09,69.4
Veronaea_japonica_CBS776.83_T,SRR9260993.955599,100.00,37,0,0,1,37,341,305,2e-09,69.4
Veronaea_japonica_CBS776.83_T,SRR9260993.50891,100.00,37,0,0,1,37,105,69,2e-09,69.4
Veronaea_japonica_CBS776.83_T,SRR9260993.50891,100.00,37,0,0,1,37,396,432,2e-09,69.4
Veronaea_japonica_CBS776.83_T,SRR9260993.166805,100.00,32,0,0,1,32,32,1,1e-06,60.2
Veronaea_japonica_CBS776.83_T,SRR9260993.166805,100.00,32,0,0,1,32,203,234,1e-06,60.2
Fonsecaea_pedrosoi_CBS271.37_T,SRR9260993.5228558,100.00,31,0,0,1,31,369,339,4e-06,58.4
Fonsecaea_pedrosoi_CBS271.37_T,SRR9260993.472538,100.00,31,0,0,1,31,68,38,4e-06,58.4
Fonsecaea_pedrosoi_CBS271.37_T,SRR9260993.472538,100.00,31,0,0,1,31,373,403,4e-06,58.4
Fonsecaea_pedrosoi_CBS271.37_T,SRR9260993.4648347,100.00,30,0,0,1,30,347,376,1e-05,56.5
Fonsecaea_pedrosoi_CBS271.37_T,SRR9260993.3833369,100.00,29,0,0,1,29,339,367,5e-05,54.7
Fonsecaea_pedrosoi_CBS271.37_T,SRR9260993.3332101,100.00,29,0,0,1,29,58,86,5e-05,54.7
Fonsecaea_pedrosoi_CBS271.37_T,SRR9260993.3228914,100.00,29,0,0,1,29,76,104,5e-05,54.7
Fonsecaea_pedrosoi_CBS271.37_T,SRR9260993.2979464,100.00,29,0,0,1,29,81,109,5e-05,54.7
Fonsecaea_pedrosoi_CBS271.37_T,SRR9260993.2857852,100.00,29,0,0,1,29,292,264,5e-05,54.7
Fonsecaea_pedrosoi_CBS271.37_T,SRR9260993.1866857,100.00,29,0,0,1,29,153,181,5e-05,54.7
Fonsecaea_pedrosoi_CBS271.37_T,SRR9260993.955599,100.00,29,0,0,1,29,333,305,5e-05,54.7
Fonsecaea_pedrosoi_CBS271.37_T,SRR9260993.50891,100.00,29,0,0,1,29,97,69,5e-05,54.7
Fonsecaea_pedrosoi_CBS271.37_T,SRR9260993.50891,100.00,29,0,0,1,29,404,432,5e-05,54.7
Cladophialophora_australiensis_CBS112793,SRR9260993.5686380,90.18,163,16,0,806,968,37,199,2e-52,213
Cladophialophora_australiensis_CBS112793,SRR9260993.3918650,90.18,163,16,0,806,968,9,171,2e-52,213
Cladophialophora_australiensis_CBS112793,SRR9260993.1389721,92.41,145,11,0,1325,1469,239,95,9e-51,207
Cladophialophora_australiensis_CBS112793,SRR9260993.1389721,92.41,145,11,0,1325,1469,248,392,9e-51,207
Cladophialophora_australiensis_CBS112793,SRR9260993.1410188,88.89,144,16,0,1325,1468,92,235,7e-42,178
Cladophialophora_australiensis_CBS112793,SRR9260993.1410188,88.89,144,16,0,1325,1468,412,269,7e-42,178
Cladophialophora_australiensis_CBS112793,SRR9260993.1041736,94.02,117,7,0,1353,1469,3,119,7e-42,178
Cladophialophora_australiensis_CBS112793,SRR9260993.1041736,94.02,117,7,0,1353,1469,408,292,7e-42,178
Cladophialophora_australiensis_CBS112793,SRR9260993.550800,94.74,114,6,0,1356,1469,1,114,7e-42,178
Cladophialophora_australiensis_CBS112793,SRR9260993.548212,80.42,240,34,11,1153,1381,489,252,1e-39,171
Cladophialophora_australiensis_CBS112793,SRR9260993.548212,87.04,108,13,1,1153,1260,81,187,1e-24,121
Cladophialophora_australiensis_CBS112793,SRR9260993.3662990,86.39,147,20,0,1325,1471,188,42,7e-37,161
Cladophialophora_australiensis_CBS112793,SRR9260993.3662990,86.39,147,20,0,1325,1471,225,371,7e-37,161
Cladophialophora_australiensis_CBS112793,SRR9260993.3650969,92.04,113,9,0,1359,1471,1,113,3e-36,159
Cladophialophora_australiensis_CBS112793,SRR9260993.3650969,91.15,113,10,0,1359,1471,430,318,3e-35,156
Cladophialophora_australiensis_CBS112793,SRR9260993.3912739,77.73,238,48,4,687,921,15,250,9e-31,141
Cladophialophora_australiensis_CBS112793,SRR9260993.4390452,87.04,108,13,1,1153,1260,59,165,1e-24,121
Cladophialophora_australiensis_CBS112793,SRR9260993.4390452,87.04,108,13,1,1153,1260,440,334,1e-24,121
Cladophialophora_australiensis_CBS112793,SRR9260993.1666531,87.04,108,13,1,1153,1260,371,265,1e-24,121
Cladophialophora_australiensis_CBS112793,SRR9260993.1666531,87.50,80,10,0,1153,1232,173,252,3e-16,93.5
Cladophialophora_australiensis_CBS112793,SRR9260993.2210969,86.11,108,12,3,1154,1260,384,279,2e-22,113
Cladophialophora_australiensis_CBS112793,SRR9260993.828606,90.59,85,6,2,1177,1260,239,156,7e-22,111
Cladophialophora_australiensis_CBS112793,SRR9260993.4985931,95.16,62,3,0,1407,1468,257,318,6e-18,99.0
Cladophialophora_australiensis_CBS112793,SRR9260993.1607685,83.33,108,17,1,1153,1260,4,110,6e-18,99.0
Cladophialophora_australiensis_CBS112793,SRR9260993.41302,83.33,108,17,1,1153,1260,136,30,6e-18,99.0
Cladophialophora_australiensis_CBS112793,SRR9260993.4711215,88.57,70,8,0,1178,1247,11,80,4e-14,86.1
Cladophialophora_australiensis_CBS112793,SRR9260993.4711215,88.57,70,8,0,1178,1247,204,135,4e-14,86.1
Cladophialophora_australiensis_CBS112793,SRR9260993.5018067,92.73,55,4,0,1178,1232,90,36,2e-12,80.5
Cladophialophora_australiensis_CBS112793,SRR9260993.5018067,100.00,32,0,0,1178,1209,463,494,3e-06,60.2
Cladophialophora_australiensis_CBS112793,SRR9260993.3695861,92.73,55,4,0,1178,1232,153,207,2e-12,80.5
Cladophialophora_australiensis_CBS112793,SRR9260993.3695861,92.73,55,4,0,1178,1232,363,309,2e-12,80.5
Cladophialophora_australiensis_CBS112793,SRR9260993.3691662,92.73,55,4,0,1178,1232,122,68,2e-12,80.5
Cladophialophora_australiensis_CBS112793,SRR9260993.3477711,92.73,55,4,0,1178,1232,183,237,2e-12,80.5
Cladophialophora_australiensis_CBS112793,SRR9260993.3477711,92.73,55,4,0,1178,1232,321,267,2e-12,80.5
Cladophialophora_australiensis_CBS112793,SRR9260993.3056887,92.73,55,4,0,1178,1232,70,16,2e-12,80.5
Cladophialophora_australiensis_CBS112793,SRR9260993.2866364,75.14,177,41,3,1178,1352,6,181,2e-12,80.5
Cladophialophora_australiensis_CBS112793,SRR9260993.2866364,75.14,177,41,3,1178,1352,355,180,2e-12,80.5
Cladophialophora_australiensis_CBS112793,SRR9260993.2273106,92.73,55,4,0,1178,1232,118,172,2e-12,80.5
Cladophialophora_australiensis_CBS112793,SRR9260993.2273106,92.73,55,4,0,1178,1232,409,355,2e-12,80.5
Cladophialophora_australiensis_CBS112793,SRR9260993.126618,92.73,55,4,0,1178,1232,152,98,2e-12,80.5
Cladophialophora_australiensis_CBS112793,SRR9260993.126618,92.73,55,4,0,1178,1232,430,484,2e-12,80.5
Cladophialophora_australiensis_CBS112793,SRR9260993.121962,92.73,55,4,0,1178,1232,175,229,2e-12,80.5
Cladophialophora_australiensis_CBS112793,SRR9260993.121962,92.73,55,4,0,1178,1232,409,355,2e-12,80.5
Cladophialophora_australiensis_CBS112793,SRR9260993.771514,83.33,84,13,1,1177,1260,165,83,3e-11,76.8
Cladophialophora_australiensis_CBS112793,SRR9260993.771514,83.33,84,13,1,1177,1260,357,439,3e-11,76.8
Cladophialophora_australiensis_CBS112793,SRR9260993.4524459,93.62,47,3,0,1177,1223,397,351,1e-09,71.3
Cladophialophora_australiensis_CBS112793,SRR9260993.576529,91.30,46,4,0,1181,1226,456,501,2e-07,63.9
Cladophialophora_australiensis_CBS112793,SRR9260993.4649630,100.00,32,0,0,1178,1209,36,5,3e-06,60.2
Cladophialophora_australiensis_CBS112793,SRR9260993.4649630,100.00,32,0,0,1178,1209,391,422,3e-06,60.2
Cladophialophora_australiensis_CBS112793,SRR9260993.4572978,100.00,32,0,0,1178,1209,199,168,3e-06,60.2
Cladophialophora_australiensis_CBS112793,SRR9260993.4572978,100.00,32,0,0,1178,1209,281,312,3e-06,60.2
Cladophialophora_australiensis_CBS112793,SRR9260993.3673987,89.36,47,5,0,1177,1223,52,6,3e-06,60.2
Cladophialophora_australiensis_CBS112793,SRR9260993.3673987,89.36,47,5,0,1177,1223,189,235,3e-06,60.2
Cladophialophora_australiensis_CBS112793,SRR9260993.3670545,89.36,47,5,0,1177,1223,52,6,3e-06,60.2
Cladophialophora_australiensis_CBS112793,SRR9260993.3670545,89.36,47,5,0,1177,1223,189,235,3e-06,60.2
Cladophialophora_potulentorum_CBS112222,SRR9260993.1389721,91.36,162,14,0,1327,1488,239,78,3e-55,222
Cladophialophora_potulentorum_CBS112222,SRR9260993.1389721,91.36,162,14,0,1327,1488,248,409,3e-55,222
Cladophialophora_potulentorum_CBS112222,SRR9260993.5332285,89.60,173,18,0,1316,1488,472,300,1e-54,220
Cladophialophora_potulentorum_CBS112222,SRR9260993.5332285,89.35,169,18,0,1320,1488,69,237,2e-52,213
Cladophialophora_potulentorum_CBS112222,SRR9260993.5686380,88.70,177,20,0,808,984,37,213,1e-53,217
Cladophialophora_potulentorum_CBS112222,SRR9260993.3918650,88.70,177,20,0,808,984,9,185,1e-53,217
Cladophialophora_potulentorum_CBS112222,SRR9260993.576529,89.35,169,18,0,1320,1488,234,66,2e-52,213
Cladophialophora_potulentorum_CBS112222,SRR9260993.576529,93.48,46,3,0,1183,1228,456,501,4e-09,69.4
Cladophialophora_potulentorum_CBS112222,SRR9260993.1410188,88.20,161,19,0,1327,1487,412,252,3e-46,193
Cladophialophora_potulentorum_CBS112222,SRR9260993.1410188,88.12,160,19,0,1327,1486,92,251,9e-46,191
Cladophialophora_potulentorum_CBS112222,SRR9260993.1041736,92.54,134,10,0,1355,1488,3,136,3e-46,193
Cladophialophora_potulentorum_CBS112222,SRR9260993.1041736,92.54,134,10,0,1355,1488,408,275,3e-46,193
Cladophialophora_potulentorum_CBS112222,SRR9260993.550800,93.13,131,9,0,1358,1488,1,131,3e-46,193
Cladophialophora_potulentorum_CBS112222,SRR9260993.3662990,86.31,168,21,2,1327,1493,188,22,5e-43,182
Cladophialophora_potulentorum_CBS112222,SRR9260993.3662990,86.31,168,21,2,1327,1493,225,391,5e-43,182
Cladophialophora_potulentorum_CBS112222,SRR9260993.3650969,92.19,128,10,0,1361,1488,1,128,5e-43,182
Cladophialophora_potulentorum_CBS112222,SRR9260993.3650969,91.41,128,11,0,1361,1488,430,303,7e-42,178
Cladophialophora_potulentorum_CBS112222,SRR9260993.2873977,91.23,114,10,0,1375,1488,242,129,3e-35,156
Cladophialophora_potulentorum_CBS112222,SRR9260993.2873977,91.23,114,10,0,1375,1488,243,356,3e-35,156
Cladophialophora_potulentorum_CBS112222,SRR9260993.548212,80.56,216,29,11,1179,1383,465,252,1e-34,154
Cladophialophora_potulentorum_CBS112222,SRR9260993.548212,89.29,84,8,1,1179,1262,105,187,1e-19,104
Cladophialophora_potulentorum_CBS112222,SRR9260993.909366,90.65,107,10,0,1382,1488,251,357,3e-31,143
Cladophialophora_potulentorum_CBS112222,SRR9260993.3912739,77.73,238,48,4,689,923,15,250,9e-31,141
Cladophialophora_potulentorum_CBS112222,SRR9260993.3094574,90.82,98,9,0,1391,1488,252,349,6e-28,132
Cladophialophora_potulentorum_CBS112222,SRR9260993.479680,90.53,95,9,0,1394,1488,224,130,3e-26,126
Cladophialophora_potulentorum_CBS112222,SRR9260993.479680,90.53,95,9,0,1394,1488,225,319,3e-26,126
Cladophialophora_potulentorum_CBS112222,SRR9260993.4985931,92.50,80,6,0,1409,1488,257,336,6e-23,115
Cladophialophora_potulentorum_CBS112222,SRR9260993.828606,89.29,84,9,0,1179,1262,239,156,3e-20,106
Cladophialophora_potulentorum_CBS112222,SRR9260993.4390452,89.29,84,8,1,1179,1262,83,165,1e-19,104
Cladophialophora_potulentorum_CBS112222,SRR9260993.4390452,89.29,84,8,1,1179,1262,416,334,1e-19,104
Cladophialophora_potulentorum_CBS112222,SRR9260993.1666531,89.29,84,8,1,1179,1262,347,265,1e-19,104
Cladophialophora_potulentorum_CBS112222,SRR9260993.1666531,92.86,56,4,0,1179,1234,197,252,6e-13,82.4
Cladophialophora_potulentorum_CBS112222,SRR9260993.2210969,84.11,107,16,1,1156,1262,384,279,4e-19,102
Cladophialophora_potulentorum_CBS112222,SRR9260993.1607685,86.90,84,10,1,1179,1262,28,110,3e-16,93.5
Cladophialophora_potulentorum_CBS112222,SRR9260993.41302,86.90,84,10,1,1179,1262,112,30,3e-16,93.5
Cladophialophora_potulentorum_CBS112222,SRR9260993.4711215,90.00,70,7,0,1180,1249,11,80,9e-16,91.6
Cladophialophora_potulentorum_CBS112222,SRR9260993.4711215,90.00,70,7,0,1180,1249,204,135,9e-16,91.6
Cladophialophora_potulentorum_CBS112222,SRR9260993.5018067,94.55,55,3,0,1180,1234,90,36,4e-14,86.1
Cladophialophora_potulentorum_CBS112222,SRR9260993.5018067,95.12,41,0,2,1180,1219,463,502,2e-07,63.9
Cladophialophora_potulentorum_CBS112222,SRR9260993.3695861,94.55,55,3,0,1180,1234,153,207,4e-14,86.1
Cladophialophora_potulentorum_CBS112222,SRR9260993.3695861,94.55,55,3,0,1180,1234,363,309,4e-14,86.1
Cladophialophora_potulentorum_CBS112222,SRR9260993.3691662,94.55,55,3,0,1180,1234,122,68,4e-14,86.1
Cladophialophora_potulentorum_CBS112222,SRR9260993.3477711,94.55,55,3,0,1180,1234,183,237,4e-14,86.1
Cladophialophora_potulentorum_CBS112222,SRR9260993.3477711,94.55,55,3,0,1180,1234,321,267,4e-14,86.1
Cladophialophora_potulentorum_CBS112222,SRR9260993.3056887,94.55,55,3,0,1180,1234,70,16,4e-14,86.1
Cladophialophora_potulentorum_CBS112222,SRR9260993.2866364,75.71,177,40,3,1180,1354,6,181,4e-14,86.1
Cladophialophora_potulentorum_CBS112222,SRR9260993.2866364,75.71,177,40,3,1180,1354,355,180,4e-14,86.1
Cladophialophora_potulentorum_CBS112222,SRR9260993.2273106,94.55,55,3,0,1180,1234,118,172,4e-14,86.1
Cladophialophora_potulentorum_CBS112222,SRR9260993.2273106,94.55,55,3,0,1180,1234,409,355,4e-14,86.1
Cladophialophora_potulentorum_CBS112222,SRR9260993.126618,94.55,55,3,0,1180,1234,152,98,4e-14,86.1
Cladophialophora_potulentorum_CBS112222,SRR9260993.126618,94.55,55,3,0,1180,1234,430,484,4e-14,86.1
Cladophialophora_potulentorum_CBS112222,SRR9260993.121962,94.55,55,3,0,1180,1234,175,229,4e-14,86.1
Cladophialophora_potulentorum_CBS112222,SRR9260993.121962,94.55,55,3,0,1180,1234,409,355,4e-14,86.1
Cladophialophora_potulentorum_CBS112222,SRR9260993.1684265,97.56,41,1,0,1448,1488,251,291,1e-09,71.3
Cladophialophora_potulentorum_CBS112222,SRR9260993.771514,85.29,68,10,0,1175,1242,169,102,1e-09,71.3
Cladophialophora_potulentorum_CBS112222,SRR9260993.771514,85.29,68,10,0,1175,1242,353,420,1e-09,71.3
Cladophialophora_potulentorum_CBS112222,SRR9260993.4524459,91.49,47,4,0,1179,1225,397,351,6e-08,65.8
Cladophialophora_potulentorum_CBS112222,SRR9260993.3673987,91.49,47,4,0,1179,1225,52,6,6e-08,65.8
Cladophialophora_potulentorum_CBS112222,SRR9260993.3673987,91.49,47,4,0,1179,1225,189,235,6e-08,65.8
Cladophialophora_potulentorum_CBS112222,SRR9260993.3670545,91.49,47,4,0,1179,1225,52,6,6e-08,65.8
Cladophialophora_potulentorum_CBS112222,SRR9260993.3670545,91.49,47,4,0,1179,1225,189,235,6e-08,65.8
Cladophialophora_potulentorum_CBS112222,SRR9260993.4649630,100.00,32,0,0,1180,1211,36,5,3e-06,60.2
Cladophialophora_potulentorum_CBS112222,SRR9260993.4649630,100.00,32,0,0,1180,1211,391,422,3e-06,60.2
Cladophialophora_potulentorum_CBS112222,SRR9260993.4572978,100.00,32,0,0,1180,1211,199,168,3e-06,60.2
Cladophialophora_potulentorum_CBS112222,SRR9260993.4572978,100.00,32,0,0,1180,1211,281,312,3e-06,60.2
Cladophialophora_chaetospira_CBS127573,SRR9260993.620613,79.49,234,25,14,93,312,255,479,4e-32,145
Cladophialophora_chaetospira_CBS127573,SRR9260993.5158163,80.09,216,22,12,110,312,7,214,6e-31,141
Cladophialophora_chaetospira_CBS127573,SRR9260993.5228558,100.00,33,0,0,379,411,370,338,5e-07,62.1
Cladophialophora_chaetospira_CBS127573,SRR9260993.472538,100.00,33,0,0,379,411,69,37,5e-07,62.1
Cladophialophora_chaetospira_CBS127573,SRR9260993.472538,100.00,33,0,0,379,411,372,404,5e-07,62.1
Cladophialophora_chaetospira_CBS127573,SRR9260993.4648347,100.00,31,0,0,379,409,346,376,6e-06,58.4
Cladophialophora_chaetospira_CBS127573,SRR9260993.2979464,97.06,34,1,0,379,412,80,113,6e-06,58.4
Cladophialophora_chaetospira_CBS127573,SRR9260993.3833369,100.00,30,0,0,379,408,338,367,2e-05,56.5
Cladophialophora_chaetospira_CBS127573,SRR9260993.3332101,100.00,30,0,0,379,408,57,86,2e-05,56.5
Cladophialophora_chaetospira_CBS127573,SRR9260993.3228914,100.00,30,0,0,379,408,75,104,2e-05,56.5
Cladophialophora_chaetospira_CBS127573,SRR9260993.2857852,100.00,30,0,0,379,408,293,264,2e-05,56.5
Cladophialophora_chaetospira_CBS127573,SRR9260993.1866857,100.00,30,0,0,379,408,152,181,2e-05,56.5
Cladophialophora_chaetospira_CBS127573,SRR9260993.955599,100.00,30,0,0,379,408,334,305,2e-05,56.5
Cladophialophora_chaetospira_CBS127573,SRR9260993.50891,100.00,30,0,0,379,408,98,69,2e-05,56.5
Cladophialophora_chaetospira_CBS127573,SRR9260993.50891,100.00,30,0,0,379,408,403,432,2e-05,56.5
Phialophora_americana_CBS400.67,SRR9260993.5686380,88.14,177,21,0,800,976,37,213,7e-52,211
Phialophora_americana_CBS400.67,SRR9260993.3918650,88.14,177,21,0,800,976,9,185,7e-52,211
Phialophora_americana_CBS400.67,SRR9260993.1389721,92.37,118,9,0,1328,1445,230,113,4e-39,169
Phialophora_americana_CBS400.67,SRR9260993.1389721,92.37,118,9,0,1328,1445,257,374,4e-39,169
Phialophora_americana_CBS400.67,SRR9260993.548212,79.58,240,36,11,1147,1375,489,252,2e-36,159
Phialophora_americana_CBS400.67,SRR9260993.548212,85.19,108,15,1,1147,1254,81,187,3e-21,110
Phialophora_americana_CBS400.67,SRR9260993.3884609,87.80,123,15,0,840,962,1,123,7e-32,145
Phialophora_americana_CBS400.67,SRR9260993.3884609,90.00,60,6,0,903,962,491,432,2e-12,80.5
Phialophora_americana_CBS400.67,SRR9260993.1041736,92.93,99,7,0,1347,1445,3,101,7e-32,145
Phialophora_americana_CBS400.67,SRR9260993.1041736,92.93,99,7,0,1347,1445,408,310,7e-32,145
Phialophora_americana_CBS400.67,SRR9260993.550800,93.75,96,6,0,1350,1445,1,96,7e-32,145
Phialophora_americana_CBS400.67,SRR9260993.3912739,77.82,239,48,4,681,916,15,251,2e-31,143
Phialophora_americana_CBS400.67,SRR9260993.3650969,90.32,93,9,0,1353,1445,1,93,3e-25,122
Phialophora_americana_CBS400.67,SRR9260993.3650969,89.25,93,10,0,1353,1445,430,338,4e-24,119
Phialophora_americana_CBS400.67,SRR9260993.4390452,85.19,108,15,1,1147,1254,59,165,3e-21,110
Phialophora_americana_CBS400.67,SRR9260993.4390452,85.19,108,15,1,1147,1254,440,334,3e-21,110
Phialophora_americana_CBS400.67,SRR9260993.1666531,85.19,108,15,1,1147,1254,371,265,3e-21,110
Phialophora_americana_CBS400.67,SRR9260993.1666531,86.25,80,11,0,1147,1226,173,252,1e-14,87.9
Phialophora_americana_CBS400.67,SRR9260993.1607685,85.19,108,15,1,1147,1254,4,110,3e-21,110
Phialophora_americana_CBS400.67,SRR9260993.41302,85.19,108,15,1,1147,1254,136,30,3e-21,110
Phialophora_americana_CBS400.67,SRR9260993.828606,89.29,84,9,0,1171,1254,239,156,3e-20,106
Phialophora_americana_CBS400.67,SRR9260993.2210969,84.55,110,10,6,1148,1254,384,279,4e-19,102
Phialophora_americana_CBS400.67,SRR9260993.4711215,88.73,71,6,2,1172,1241,11,80,4e-14,86.1
Phialophora_americana_CBS400.67,SRR9260993.4711215,88.73,71,6,2,1172,1241,204,135,4e-14,86.1
Phialophora_americana_CBS400.67,SRR9260993.5018067,92.86,56,2,2,1172,1226,90,36,2e-12,80.5
Phialophora_americana_CBS400.67,SRR9260993.5018067,97.22,36,0,1,1172,1207,463,497,3e-06,60.2
Phialophora_americana_CBS400.67,SRR9260993.3695861,92.86,56,2,2,1172,1226,153,207,2e-12,80.5
Phialophora_americana_CBS400.67,SRR9260993.3695861,92.86,56,2,2,1172,1226,363,309,2e-12,80.5
Phialophora_americana_CBS400.67,SRR9260993.3691662,92.86,56,2,2,1172,1226,122,68,2e-12,80.5
Phialophora_americana_CBS400.67,SRR9260993.3477711,92.86,56,2,2,1172,1226,183,237,2e-12,80.5
Phialophora_americana_CBS400.67,SRR9260993.3477711,92.86,56,2,2,1172,1226,321,267,2e-12,80.5
Phialophora_americana_CBS400.67,SRR9260993.3056887,92.86,56,2,2,1172,1226,70,16,2e-12,80.5
Phialophora_americana_CBS400.67,SRR9260993.2866364,92.86,56,2,2,1172,1226,6,60,2e-12,80.5
Phialophora_americana_CBS400.67,SRR9260993.2866364,92.86,56,2,2,1172,1226,355,301,2e-12,80.5
Phialophora_americana_CBS400.67,SRR9260993.2273106,92.86,56,2,2,1172,1226,118,172,2e-12,80.5
Phialophora_americana_CBS400.67,SRR9260993.2273106,92.86,56,2,2,1172,1226,409,355,2e-12,80.5
Phialophora_americana_CBS400.67,SRR9260993.126618,92.86,56,2,2,1172,1226,152,98,2e-12,80.5
Phialophora_americana_CBS400.67,SRR9260993.126618,92.86,56,2,2,1172,1226,430,484,2e-12,80.5
Phialophora_americana_CBS400.67,SRR9260993.121962,92.86,56,2,2,1172,1226,175,229,2e-12,80.5
Phialophora_americana_CBS400.67,SRR9260993.121962,92.86,56,2,2,1172,1226,409,355,2e-12,80.5
Phialophora_americana_CBS400.67,SRR9260993.771514,87.50,64,8,0,1171,1234,165,102,9e-11,75.0
Phialophora_americana_CBS400.67,SRR9260993.771514,87.50,64,8,0,1171,1234,357,420,9e-11,75.0
Phialophora_americana_CBS400.67,SRR9260993.576529,91.49,47,2,2,1175,1220,456,501,2e-07,63.9
Phialophora_americana_CBS400.67,SRR9260993.4649630,100.00,32,0,0,1172,1203,36,5,3e-06,60.2
Phialophora_americana_CBS400.67,SRR9260993.4649630,100.00,32,0,0,1172,1203,391,422,3e-06,60.2
Phialophora_americana_CBS400.67,SRR9260993.4572978,100.00,32,0,0,1172,1203,199,168,3e-06,60.2
Phialophora_americana_CBS400.67,SRR9260993.4572978,100.00,32,0,0,1172,1203,281,312,3e-06,60.2
Phialophora_americana_CBS400.67,SRR9260993.4524459,89.58,48,3,2,1171,1217,397,351,3e-06,60.2
Phialophora_americana_CBS400.67,SRR9260993.3673987,89.58,48,3,2,1171,1217,52,6,3e-06,60.2
Phialophora_americana_CBS400.67,SRR9260993.3673987,89.58,48,3,2,1171,1217,189,235,3e-06,60.2
Phialophora_americana_CBS400.67,SRR9260993.3670545,89.58,48,3,2,1171,1217,52,6,3e-06,60.2
Phialophora_americana_CBS400.67,SRR9260993.3670545,89.58,48,3,2,1171,1217,189,235,3e-06,60.2
Cyphellophora_laciniata_CBS190.61_T,SRR9260993.472538,97.53,81,2,0,20,100,119,39,2e-30,139
Cyphellophora_laciniata_CBS190.61_T,SRR9260993.472538,97.53,81,2,0,20,100,322,402,2e-30,139
Cyphellophora_laciniata_CBS190.61_T,SRR9260993.4648347,98.70,77,1,0,25,101,301,377,6e-30,137
Cyphellophora_laciniata_CBS190.61_T,SRR9260993.50891,97.47,79,2,0,21,99,147,69,2e-29,135
Cyphellophora_laciniata_CBS190.61_T,SRR9260993.50891,97.47,79,2,0,21,99,354,432,2e-29,135
Cyphellophora_laciniata_CBS190.61_T,SRR9260993.5228558,96.30,81,3,0,20,100,420,340,7e-29,134
Cyphellophora_laciniata_CBS190.61_T,SRR9260993.1716809,92.11,76,6,0,28,103,61,136,5e-21,108
Cyphellophora_laciniata_CBS190.61_T,SRR9260993.1716809,92.11,76,6,0,28,103,214,139,5e-21,108
Cyphellophora_laciniata_CBS190.61_T,SRR9260993.3833369,98.25,57,1,0,43,99,311,367,8e-19,100
Cyphellophora_laciniata_CBS190.61_T,SRR9260993.3332101,98.25,57,1,0,43,99,30,86,8e-19,100
Cyphellophora_laciniata_CBS190.61_T,SRR9260993.3228914,98.25,57,1,0,43,99,48,104,8e-19,100
Cyphellophora_laciniata_CBS190.61_T,SRR9260993.2857852,98.25,57,1,0,43,99,320,264,8e-19,100
Cyphellophora_laciniata_CBS190.61_T,SRR9260993.1866857,98.25,57,1,0,43,99,125,181,8e-19,100
Cyphellophora_laciniata_CBS190.61_T,SRR9260993.955599,98.25,57,1,0,43,99,361,305,8e-19,100
Cyphellophora_laciniata_CBS190.61_T,SRR9260993.2979464,95.16,62,3,0,38,99,48,109,3e-18,99.0
Cyphellophora_laciniata_CBS190.61_T,SRR9260993.166805,98.08,52,1,0,43,94,52,1,5e-16,91.6
Cyphellophora_laciniata_CBS190.61_T,SRR9260993.166805,98.08,52,1,0,43,94,183,234,5e-16,91.6
