Exophiala_nigra_CBS535.94_T,SRR9261039.860308,86.90,84,8,3,237,319,214,133,3e-16,91.6
Exophiala_spinifera_CBS899.68_T,SRR9261039.860308,86.90,84,8,3,234,316,214,133,3e-16,91.6
Exophiala_exophialae_CBS668.76_T,SRR9261039.860308,86.90,84,8,3,235,317,214,133,3e-16,91.6
Exophiala_polymorpha_CBS138920_T,SRR9261039.860308,86.90,84,8,3,337,419,214,133,4e-16,91.6
Exophiala_polymorpha_CBS138920_T,SRR9261039.3607118,100.00,28,0,0,82,109,101,128,2e-04,52.8
Exophiala_polymorpha_CBS138920_T,SRR9261039.3237376,100.00,28,0,0,82,109,380,407,2e-04,52.8
Exophiala_polymorpha_CBS138920_T,SRR9261039.3102659,100.00,28,0,0,82,109,225,198,2e-04,52.8
Exophiala_polymorpha_CBS138920_T,SRR9261039.3102659,100.00,28,0,0,82,109,408,435,2e-04,52.8
Exophiala_polymorpha_CBS138920_T,SRR9261039.3014910,100.00,28,0,0,82,109,9,36,2e-04,52.8
Exophiala_polymorpha_CBS138920_T,SRR9261039.3014910,100.00,28,0,0,82,109,320,293,2e-04,52.8
Exophiala_polymorpha_CBS138920_T,SRR9261039.2855315,100.00,28,0,0,82,109,375,348,2e-04,52.8
Exophiala_polymorpha_CBS138920_T,SRR9261039.2756274,100.00,28,0,0,82,109,27,54,2e-04,52.8
Exophiala_polymorpha_CBS138920_T,SRR9261039.1719106,100.00,28,0,0,82,109,28,55,2e-04,52.8
Exophiala_polymorpha_CBS138920_T,SRR9261039.527314,100.00,28,0,0,82,109,153,180,2e-04,52.8
Exophiala_polymorpha_CBS138920_T,SRR9261039.527314,100.00,28,0,0,82,109,358,331,2e-04,52.8
Exophiala_oligosperma_CBS725.88_T,SRR9261039.860308,86.90,84,8,3,247,329,214,133,3e-16,91.6
Exophiala_jeanselmei_CBS507.90_T,SRR9261039.860308,86.90,84,8,3,239,321,214,133,3e-16,91.6
Exophiala_bergeri_CBS353.52,SRR9261039.860308,86.90,84,8,3,200,282,214,133,3e-16,91.6
Exophiala_moniliae_CBS520.76_T,SRR9261039.860308,86.90,84,8,3,237,319,214,133,3e-16,91.6
Exophiala_pisciphila_CBS537.73_T,SRR9261039.860308,85.71,84,9,3,240,322,214,133,2e-14,86.1
Exophiala_xenobiotica_CBS117642,SRR9261039.860308,86.90,84,8,3,232,314,214,133,3e-16,91.6
Exophiala_brunnea_CBS,SRR9261039.860308,86.90,84,8,3,268,350,214,133,4e-16,91.6
Exophiala_brunnea_CBS,SRR9261039.3607118,100.00,41,0,0,1,41,88,128,1e-11,76.8
Exophiala_brunnea_CBS,SRR9261039.3237376,100.00,41,0,0,1,41,367,407,1e-11,76.8
Exophiala_brunnea_CBS,SRR9261039.3102659,100.00,41,0,0,1,41,238,198,1e-11,76.8
Exophiala_brunnea_CBS,SRR9261039.3102659,100.00,41,0,0,1,41,395,435,1e-11,76.8
Exophiala_brunnea_CBS,SRR9261039.2855315,100.00,41,0,0,1,41,388,348,1e-11,76.8
Exophiala_brunnea_CBS,SRR9261039.2756274,100.00,41,0,0,1,41,14,54,1e-11,76.8
Exophiala_brunnea_CBS,SRR9261039.1719106,100.00,41,0,0,1,41,15,55,1e-11,76.8
Exophiala_brunnea_CBS,SRR9261039.527314,100.00,41,0,0,1,41,140,180,1e-11,76.8
Exophiala_brunnea_CBS,SRR9261039.527314,100.00,41,0,0,1,41,371,331,1e-11,76.8
Exophiala_brunnea_CBS,SRR9261039.4960407,100.00,39,0,0,1,39,124,162,1e-10,73.1
Exophiala_brunnea_CBS,SRR9261039.4960407,100.00,39,0,0,1,39,494,456,1e-10,73.1
Exophiala_brunnea_CBS,SRR9261039.3906040,100.00,39,0,0,1,39,117,79,1e-10,73.1
Exophiala_brunnea_CBS,SRR9261039.3906040,100.00,39,0,0,1,39,286,324,1e-10,73.1
Exophiala_brunnea_CBS,SRR9261039.2639340,100.00,39,0,0,1,39,107,145,1e-10,73.1
Exophiala_brunnea_CBS,SRR9261039.1198020,100.00,39,0,0,1,39,266,304,1e-10,73.1
Exophiala_brunnea_CBS,SRR9261039.4781720,100.00,38,0,0,1,38,95,132,5e-10,71.3
Exophiala_brunnea_CBS,SRR9261039.4781720,100.00,38,0,0,1,38,328,291,5e-10,71.3
Exophiala_brunnea_CBS,SRR9261039.4518398,100.00,38,0,0,1,38,91,128,5e-10,71.3
Exophiala_brunnea_CBS,SRR9261039.4518398,100.00,38,0,0,1,38,425,388,5e-10,71.3
Exophiala_brunnea_CBS,SRR9261039.3454821,100.00,38,0,0,1,38,232,195,5e-10,71.3
Exophiala_brunnea_CBS,SRR9261039.3454821,100.00,38,0,0,1,38,344,381,5e-10,71.3
Exophiala_brunnea_CBS,SRR9261039.3249220,100.00,38,0,0,1,38,386,349,5e-10,71.3
Exophiala_brunnea_CBS,SRR9261039.3246865,100.00,38,0,0,1,38,148,185,5e-10,71.3
Exophiala_brunnea_CBS,SRR9261039.2667712,100.00,38,0,0,1,38,343,380,5e-10,71.3
Exophiala_brunnea_CBS,SRR9261039.2636297,100.00,38,0,0,1,38,113,76,5e-10,71.3
Exophiala_brunnea_CBS,SRR9261039.2636297,100.00,38,0,0,1,38,463,500,5e-10,71.3
Exophiala_brunnea_CBS,SRR9261039.1819224,100.00,38,0,0,1,38,79,116,5e-10,71.3
Exophiala_brunnea_CBS,SRR9261039.1819224,100.00,38,0,0,1,38,378,341,5e-10,71.3
Exophiala_brunnea_CBS,SRR9261039.1442300,100.00,38,0,0,1,38,428,465,5e-10,71.3
Exophiala_brunnea_CBS,SRR9261039.1287094,100.00,38,0,0,1,38,74,111,5e-10,71.3
Exophiala_brunnea_CBS,SRR9261039.1144362,100.00,38,0,0,1,38,42,79,5e-10,71.3
Exophiala_brunnea_CBS,SRR9261039.333575,100.00,38,0,0,1,38,117,80,5e-10,71.3
Exophiala_brunnea_CBS,SRR9261039.287840,100.00,38,0,0,1,38,323,360,5e-10,71.3
Exophiala_brunnea_CBS,SRR9261039.284956,100.00,38,0,0,1,38,185,148,5e-10,71.3
Exophiala_brunnea_CBS,SRR9261039.147187,100.00,38,0,0,1,38,114,151,5e-10,71.3
Exophiala_brunnea_CBS,SRR9261039.48033,100.00,38,0,0,1,38,77,114,5e-10,71.3
Exophiala_brunnea_CBS,SRR9261039.3014910,100.00,36,0,0,6,41,1,36,6e-09,67.6
Exophiala_brunnea_CBS,SRR9261039.3014910,100.00,36,0,0,6,41,328,293,6e-09,67.6
Exophiala_brunnea_CBS,SRR9261039.2403304,100.00,35,0,0,1,35,284,250,2e-08,65.8
Exophiala_brunnea_CBS,SRR9261039.2377074,100.00,33,0,0,6,38,1,33,3e-07,62.1
Exophiala_nishimurae_CBS101538_T,SRR9261039.860308,86.90,84,8,3,246,328,214,133,3e-16,91.6
Exophiala_mesophila_CBS402.95_T,SRR9261039.860308,86.90,84,8,3,230,312,214,133,4e-16,91.6
Exophiala_castellanii_CBS158.58_T,SRR9261039.860308,86.90,84,8,3,228,310,214,133,4e-16,91.6
Exophiala_lecanii-corni_CBS123.33_T,SRR9261039.860308,86.90,84,8,3,251,333,214,133,3e-16,91.6
Exophiala_dermatitidis_CBS748.88,SRR9261039.1546436,90.74,216,19,1,769,983,216,1,1e-74,287
Exophiala_dermatitidis_CBS748.88,SRR9261039.1546436,86.75,249,30,3,707,953,252,499,8e-71,274
Exophiala_dermatitidis_CBS748.88,SRR9261039.4332384,89.47,190,16,3,1316,1504,210,24,1e-59,237
Exophiala_dermatitidis_CBS748.88,SRR9261039.4332384,79.51,244,26,11,1189,1412,262,501,4e-34,152
Exophiala_dermatitidis_CBS748.88,SRR9261039.3661568,88.95,190,17,3,1316,1504,38,224,5e-58,231
Exophiala_dermatitidis_CBS748.88,SRR9261039.3661568,90.12,81,8,0,1424,1504,501,421,9e-21,108
Exophiala_dermatitidis_CBS748.88,SRR9261039.1409689,89.13,184,16,4,1322,1504,501,321,2e-56,226
Exophiala_dermatitidis_CBS748.88,SRR9261039.1409689,84.47,103,15,1,1189,1291,85,186,1e-18,100
Exophiala_dermatitidis_CBS748.88,SRR9261039.1239468,91.93,161,13,0,839,999,37,197,2e-56,226
Exophiala_dermatitidis_CBS748.88,SRR9261039.4594551,90.53,169,16,0,1333,1501,256,424,8e-56,224
Exophiala_dermatitidis_CBS748.88,SRR9261039.1905021,88.65,185,17,3,1321,1504,502,321,3e-55,222
Exophiala_dermatitidis_CBS748.88,SRR9261039.1905021,80.41,245,24,12,1212,1436,14,254,5e-38,165
Exophiala_dermatitidis_CBS748.88,SRR9261039.3518695,89.94,169,17,0,837,1005,172,4,4e-54,219
Exophiala_dermatitidis_CBS748.88,SRR9261039.3518695,89.35,169,18,0,837,1005,293,461,5e-53,215
Exophiala_dermatitidis_CBS748.88,SRR9261039.1638257,88.33,180,21,0,840,1019,212,33,1e-53,217
Exophiala_dermatitidis_CBS748.88,SRR9261039.3723545,89.41,170,17,1,836,1005,232,64,2e-52,213
Exophiala_dermatitidis_CBS748.88,SRR9261039.690478,83.33,228,31,5,781,1005,261,484,1e-49,204
Exophiala_dermatitidis_CBS748.88,SRR9261039.4832810,93.85,130,8,0,1373,1502,140,11,2e-47,196
Exophiala_dermatitidis_CBS748.88,SRR9261039.4518863,93.85,130,8,0,1373,1502,216,87,2e-47,196
Exophiala_dermatitidis_CBS748.88,SRR9261039.4518863,93.85,130,8,0,1373,1502,285,414,2e-47,196
Exophiala_dermatitidis_CBS748.88,SRR9261039.4162249,84.00,200,28,4,1307,1504,276,473,3e-45,189
Exophiala_dermatitidis_CBS748.88,SRR9261039.3861027,89.66,145,15,0,868,1012,253,397,4e-44,185
Exophiala_dermatitidis_CBS748.88,SRR9261039.3861027,87.18,117,15,0,896,1012,249,133,1e-28,134
Exophiala_dermatitidis_CBS748.88,SRR9261039.3116322,79.52,249,44,6,1211,1455,6,251,1e-39,171
Exophiala_dermatitidis_CBS748.88,SRR9261039.621301,88.81,134,15,0,1371,1504,141,8,5e-38,165
Exophiala_dermatitidis_CBS748.88,SRR9261039.361205,92.17,115,8,1,1387,1501,248,361,7e-37,161
Exophiala_dermatitidis_CBS748.88,SRR9261039.3062231,78.70,230,25,11,1189,1398,226,1,5e-28,132
Exophiala_dermatitidis_CBS748.88,SRR9261039.3358200,77.63,219,42,7,1211,1425,467,252,7e-27,128
Exophiala_dermatitidis_CBS748.88,SRR9261039.3358200,88.73,71,6,2,1211,1280,167,236,4e-14,86.1
Exophiala_dermatitidis_CBS748.88,SRR9261039.2835906,78.38,222,24,11,1189,1390,33,250,3e-25,122
Exophiala_dermatitidis_CBS748.88,SRR9261039.2645045,77.31,216,41,7,1211,1422,286,497,3e-25,122
Exophiala_dermatitidis_CBS748.88,SRR9261039.2247264,86.61,112,12,3,1186,1296,111,2,1e-24,121
Exophiala_dermatitidis_CBS748.88,SRR9261039.1652228,91.86,86,7,0,1419,1504,371,286,1e-24,121
Exophiala_dermatitidis_CBS748.88,SRR9261039.4097961,77.40,208,40,7,1211,1414,456,252,1e-23,117
Exophiala_dermatitidis_CBS748.88,SRR9261039.4097961,76.50,183,36,6,1211,1389,72,251,2e-16,93.5
Exophiala_dermatitidis_CBS748.88,SRR9261039.4371047,77.78,216,24,11,1189,1384,212,1,7e-22,111
Exophiala_dermatitidis_CBS748.88,SRR9261039.4371047,84.47,103,15,1,1189,1291,387,488,1e-18,100
Exophiala_dermatitidis_CBS748.88,SRR9261039.588445,78.26,207,21,12,1212,1398,203,1,7e-22,111
Exophiala_dermatitidis_CBS748.88,SRR9261039.4649663,76.85,203,40,7,1211,1409,451,252,9e-21,108
Exophiala_dermatitidis_CBS748.88,SRR9261039.4649663,88.73,71,6,2,1211,1280,176,245,4e-14,86.1
Exophiala_dermatitidis_CBS748.88,SRR9261039.1732047,77.78,189,33,7,1211,1394,445,261,9e-21,108
Exophiala_dermatitidis_CBS748.88,SRR9261039.1732047,87.32,71,7,2,1211,1280,175,244,2e-12,80.5
Exophiala_dermatitidis_CBS748.88,SRR9261039.1281624,90.36,83,7,1,1210,1292,125,44,9e-21,108
Exophiala_dermatitidis_CBS748.88,SRR9261039.3543203,84.47,103,15,1,1189,1291,63,164,1e-18,100
Exophiala_dermatitidis_CBS748.88,SRR9261039.3543203,84.47,103,15,1,1189,1291,308,207,1e-18,100
Exophiala_dermatitidis_CBS748.88,SRR9261039.3148082,76.37,182,36,7,1211,1388,429,251,9e-16,91.6
Exophiala_dermatitidis_CBS748.88,SRR9261039.860308,86.90,84,8,3,243,325,214,133,9e-16,91.6
Exophiala_dermatitidis_CBS748.88,SRR9261039.1057849,89.04,73,6,2,1210,1281,120,191,3e-15,89.8
Exophiala_dermatitidis_CBS748.88,SRR9261039.2684798,88.89,72,6,2,1211,1281,167,237,1e-14,87.9
Exophiala_dermatitidis_CBS748.88,SRR9261039.2684798,88.89,72,6,2,1211,1281,306,236,1e-14,87.9
Exophiala_dermatitidis_CBS748.88,SRR9261039.2811429,86.25,80,10,1,1212,1291,174,96,4e-14,86.1
Exophiala_dermatitidis_CBS748.88,SRR9261039.2811429,97.50,40,1,0,1212,1251,462,501,4e-09,69.4
Exophiala_dermatitidis_CBS748.88,SRR9261039.2599031,88.73,71,6,2,1211,1280,138,207,4e-14,86.1
Exophiala_dermatitidis_CBS748.88,SRR9261039.2599031,88.73,71,6,2,1211,1280,403,334,4e-14,86.1
Exophiala_dermatitidis_CBS748.88,SRR9261039.1664881,88.73,71,6,2,1211,1280,333,402,4e-14,86.1
Exophiala_dermatitidis_CBS748.88,SRR9261039.1277254,86.25,80,10,1,1212,1291,349,271,4e-14,86.1
Exophiala_dermatitidis_CBS748.88,SRR9261039.607172,88.73,71,6,2,1211,1280,105,36,4e-14,86.1
Exophiala_dermatitidis_CBS748.88,SRR9261039.217891,88.73,71,6,2,1211,1280,92,23,4e-14,86.1
Exophiala_dermatitidis_CBS748.88,SRR9261039.217891,88.73,71,6,2,1211,1280,207,276,4e-14,86.1
Exophiala_dermatitidis_CBS748.88,SRR9261039.109875,88.73,71,6,2,1211,1280,339,270,4e-14,86.1
Exophiala_dermatitidis_CBS748.88,SRR9261039.2193106,90.16,61,6,0,1184,1244,61,1,2e-12,80.5
Exophiala_dermatitidis_CBS748.88,SRR9261039.2181876,87.32,71,7,2,1211,1280,420,489,2e-12,80.5
Exophiala_dermatitidis_CBS748.88,SRR9261039.1598587,92.59,54,2,2,1211,1263,53,1,2e-11,76.8
Exophiala_dermatitidis_CBS748.88,SRR9261039.1598587,92.59,54,2,2,1211,1263,238,290,2e-11,76.8
Exophiala_dermatitidis_CBS748.88,SRR9261039.615177,89.66,58,6,0,1189,1246,77,134,9e-11,75.0
Exophiala_dermatitidis_CBS748.88,SRR9261039.615177,89.66,58,6,0,1189,1246,192,135,9e-11,75.0
Exophiala_dermatitidis_CBS748.88,SRR9261039.737340,100.00,37,0,0,1210,1246,37,1,4e-09,69.4
Exophiala_dermatitidis_CBS748.88,SRR9261039.737340,100.00,37,0,0,1210,1246,422,458,4e-09,69.4
Exophiala_dermatitidis_CBS748.88,SRR9261039.3776089,100.00,32,0,0,1211,1242,36,5,2e-06,60.2
Exophiala_angulospora_CBS482.92_T,SRR9261039.860308,86.90,84,8,3,234,316,214,133,3e-16,91.6
Exophiala_opportunistica_CBS109811_T,SRR9261039.860308,86.90,84,8,3,233,315,214,133,3e-16,91.6
Exophiala_salmonis_CBS157.67_T,SRR9261039.3237376,80.33,122,22,2,1,122,254,373,4e-16,91.6
Exophiala_salmonis_CBS157.67_T,SRR9261039.3102659,80.33,122,22,2,1,122,282,401,4e-16,91.6
Exophiala_salmonis_CBS157.67_T,SRR9261039.860308,86.90,84,8,3,362,444,214,133,4e-16,91.6
Exophiala_salmonis_CBS157.67_T,SRR9261039.2639340,97.96,49,1,0,74,122,65,113,2e-14,86.1
Exophiala_salmonis_CBS157.67_T,SRR9261039.3607118,97.73,44,1,0,79,122,51,94,1e-11,76.8
Exophiala_salmonis_CBS157.67_T,SRR9261039.527314,97.73,44,1,0,79,122,103,146,1e-11,76.8
Exophiala_salmonis_CBS157.67_T,SRR9261039.527314,97.73,44,1,0,79,122,408,365,1e-11,76.8
Exophiala_salmonis_CBS157.67_T,SRR9261039.2855315,100.00,40,0,0,83,122,421,382,4e-11,75.0
Exophiala_salmonis_CBS157.67_T,SRR9261039.4960407,97.56,41,1,0,82,122,90,130,6e-10,71.3
Exophiala_salmonis_CBS157.67_T,SRR9261039.3906040,97.56,41,1,0,82,122,151,111,6e-10,71.3
Exophiala_salmonis_CBS157.67_T,SRR9261039.3906040,97.56,41,1,0,82,122,252,292,6e-10,71.3
Exophiala_aquamarina_CBS119918_T,SRR9261039.860308,86.90,84,8,3,240,322,214,133,3e-16,91.6
Exophiala_cancerae_CBS120420_T,SRR9261039.860308,86.90,84,8,3,255,337,214,133,4e-16,91.6
Exophiala_tremulae_CBS129355,SRR9261039.860308,86.90,84,8,3,267,349,214,133,4e-16,91.6
Exophiala_tremulae_CBS129355,SRR9261039.3607118,100.00,41,0,0,1,41,88,128,1e-11,76.8
Exophiala_tremulae_CBS129355,SRR9261039.3237376,100.00,41,0,0,1,41,367,407,1e-11,76.8
Exophiala_tremulae_CBS129355,SRR9261039.3102659,100.00,41,0,0,1,41,238,198,1e-11,76.8
Exophiala_tremulae_CBS129355,SRR9261039.3102659,100.00,41,0,0,1,41,395,435,1e-11,76.8
Exophiala_tremulae_CBS129355,SRR9261039.2855315,100.00,41,0,0,1,41,388,348,1e-11,76.8
Exophiala_tremulae_CBS129355,SRR9261039.2756274,100.00,41,0,0,1,41,14,54,1e-11,76.8
Exophiala_tremulae_CBS129355,SRR9261039.1719106,100.00,41,0,0,1,41,15,55,1e-11,76.8
Exophiala_tremulae_CBS129355,SRR9261039.527314,100.00,41,0,0,1,41,140,180,1e-11,76.8
Exophiala_tremulae_CBS129355,SRR9261039.527314,100.00,41,0,0,1,41,371,331,1e-11,76.8
Exophiala_tremulae_CBS129355,SRR9261039.4960407,100.00,39,0,0,1,39,124,162,1e-10,73.1
Exophiala_tremulae_CBS129355,SRR9261039.4960407,100.00,39,0,0,1,39,494,456,1e-10,73.1
Exophiala_tremulae_CBS129355,SRR9261039.3906040,100.00,39,0,0,1,39,117,79,1e-10,73.1
Exophiala_tremulae_CBS129355,SRR9261039.3906040,100.00,39,0,0,1,39,286,324,1e-10,73.1
Exophiala_tremulae_CBS129355,SRR9261039.2639340,100.00,39,0,0,1,39,107,145,1e-10,73.1
Exophiala_tremulae_CBS129355,SRR9261039.1198020,100.00,39,0,0,1,39,266,304,1e-10,73.1
Exophiala_tremulae_CBS129355,SRR9261039.4781720,100.00,38,0,0,1,38,95,132,5e-10,71.3
Exophiala_tremulae_CBS129355,SRR9261039.4781720,100.00,38,0,0,1,38,328,291,5e-10,71.3
Exophiala_tremulae_CBS129355,SRR9261039.4518398,100.00,38,0,0,1,38,91,128,5e-10,71.3
Exophiala_tremulae_CBS129355,SRR9261039.4518398,100.00,38,0,0,1,38,425,388,5e-10,71.3
Exophiala_tremulae_CBS129355,SRR9261039.3454821,100.00,38,0,0,1,38,232,195,5e-10,71.3
Exophiala_tremulae_CBS129355,SRR9261039.3454821,100.00,38,0,0,1,38,344,381,5e-10,71.3
Exophiala_tremulae_CBS129355,SRR9261039.3249220,100.00,38,0,0,1,38,386,349,5e-10,71.3
Exophiala_tremulae_CBS129355,SRR9261039.3246865,100.00,38,0,0,1,38,148,185,5e-10,71.3
Exophiala_tremulae_CBS129355,SRR9261039.2667712,100.00,38,0,0,1,38,343,380,5e-10,71.3
Exophiala_tremulae_CBS129355,SRR9261039.2636297,100.00,38,0,0,1,38,113,76,5e-10,71.3
Exophiala_tremulae_CBS129355,SRR9261039.2636297,100.00,38,0,0,1,38,463,500,5e-10,71.3
Exophiala_tremulae_CBS129355,SRR9261039.1819224,100.00,38,0,0,1,38,79,116,5e-10,71.3
Exophiala_tremulae_CBS129355,SRR9261039.1819224,100.00,38,0,0,1,38,378,341,5e-10,71.3
Exophiala_tremulae_CBS129355,SRR9261039.1442300,100.00,38,0,0,1,38,428,465,5e-10,71.3
Exophiala_tremulae_CBS129355,SRR9261039.1287094,100.00,38,0,0,1,38,74,111,5e-10,71.3
Exophiala_tremulae_CBS129355,SRR9261039.1144362,100.00,38,0,0,1,38,42,79,5e-10,71.3
Exophiala_tremulae_CBS129355,SRR9261039.333575,100.00,38,0,0,1,38,117,80,5e-10,71.3
Exophiala_tremulae_CBS129355,SRR9261039.287840,100.00,38,0,0,1,38,323,360,5e-10,71.3
Exophiala_tremulae_CBS129355,SRR9261039.284956,100.00,38,0,0,1,38,185,148,5e-10,71.3
Exophiala_tremulae_CBS129355,SRR9261039.147187,100.00,38,0,0,1,38,114,151,5e-10,71.3
Exophiala_tremulae_CBS129355,SRR9261039.48033,100.00,38,0,0,1,38,77,114,5e-10,71.3
Exophiala_tremulae_CBS129355,SRR9261039.3014910,100.00,36,0,0,6,41,1,36,6e-09,67.6
Exophiala_tremulae_CBS129355,SRR9261039.3014910,100.00,36,0,0,6,41,328,293,6e-09,67.6
Exophiala_tremulae_CBS129355,SRR9261039.2403304,100.00,35,0,0,1,35,284,250,2e-08,65.8
Exophiala_tremulae_CBS129355,SRR9261039.2377074,100.00,33,0,0,6,38,1,33,3e-07,62.1
Exophiala_equina_CBS116009,SRR9261039.860308,86.90,84,8,3,233,315,214,133,3e-16,91.6
Exophiala_alcalophila_CBS520.82_T,SRR9261039.860308,86.90,84,8,3,244,326,214,133,3e-16,91.6
Exophiala_crusticola_CBS119970_T,SRR9261039.860308,86.90,84,8,3,249,331,214,133,3e-16,91.6
Rhinocladiella_atrovirens_CBS264.49,SRR9261039.860308,86.90,84,8,3,275,357,214,133,4e-16,91.6
Rhinocladiella_atrovirens_CBS264.49,SRR9261039.2639340,100.00,45,0,0,1,45,102,146,6e-14,84.2
Rhinocladiella_atrovirens_CBS264.49,SRR9261039.4960407,100.00,44,0,0,1,44,119,162,2e-13,82.4
Rhinocladiella_atrovirens_CBS264.49,SRR9261039.4960407,100.00,44,0,0,1,44,499,456,2e-13,82.4
Rhinocladiella_atrovirens_CBS264.49,SRR9261039.3906040,100.00,44,0,0,1,44,122,79,2e-13,82.4
Rhinocladiella_atrovirens_CBS264.49,SRR9261039.3906040,100.00,44,0,0,1,44,281,324,2e-13,82.4
Rhinocladiella_atrovirens_CBS264.49,SRR9261039.3607118,100.00,44,0,0,1,44,83,126,2e-13,82.4
Rhinocladiella_atrovirens_CBS264.49,SRR9261039.3237376,100.00,44,0,0,1,44,362,405,2e-13,82.4
Rhinocladiella_atrovirens_CBS264.49,SRR9261039.3102659,100.00,44,0,0,1,44,243,200,2e-13,82.4
Rhinocladiella_atrovirens_CBS264.49,SRR9261039.3102659,100.00,44,0,0,1,44,390,433,2e-13,82.4
Rhinocladiella_atrovirens_CBS264.49,SRR9261039.2855315,100.00,44,0,0,1,44,393,350,2e-13,82.4
Rhinocladiella_atrovirens_CBS264.49,SRR9261039.2756274,100.00,44,0,0,1,44,9,52,2e-13,82.4
Rhinocladiella_atrovirens_CBS264.49,SRR9261039.1719106,100.00,44,0,0,1,44,10,53,2e-13,82.4
Rhinocladiella_atrovirens_CBS264.49,SRR9261039.1198020,100.00,44,0,0,1,44,261,304,2e-13,82.4
Rhinocladiella_atrovirens_CBS264.49,SRR9261039.527314,100.00,44,0,0,1,44,135,178,2e-13,82.4
Rhinocladiella_atrovirens_CBS264.49,SRR9261039.527314,100.00,44,0,0,1,44,376,333,2e-13,82.4
Rhinocladiella_atrovirens_CBS264.49,SRR9261039.4781720,100.00,43,0,0,1,43,90,132,8e-13,80.5
Rhinocladiella_atrovirens_CBS264.49,SRR9261039.4781720,100.00,43,0,0,1,43,333,291,8e-13,80.5
Rhinocladiella_atrovirens_CBS264.49,SRR9261039.4518398,100.00,43,0,0,1,43,86,128,8e-13,80.5
Rhinocladiella_atrovirens_CBS264.49,SRR9261039.4518398,100.00,43,0,0,1,43,430,388,8e-13,80.5
Rhinocladiella_atrovirens_CBS264.49,SRR9261039.3454821,100.00,43,0,0,1,43,237,195,8e-13,80.5
Rhinocladiella_atrovirens_CBS264.49,SRR9261039.3454821,100.00,43,0,0,1,43,339,381,8e-13,80.5
Rhinocladiella_atrovirens_CBS264.49,SRR9261039.3249220,100.00,43,0,0,1,43,391,349,8e-13,80.5
Rhinocladiella_atrovirens_CBS264.49,SRR9261039.3246865,100.00,43,0,0,1,43,143,185,8e-13,80.5
Rhinocladiella_atrovirens_CBS264.49,SRR9261039.2667712,100.00,43,0,0,1,43,338,380,8e-13,80.5
Rhinocladiella_atrovirens_CBS264.49,SRR9261039.2636297,100.00,43,0,0,1,43,118,76,8e-13,80.5
Rhinocladiella_atrovirens_CBS264.49,SRR9261039.2636297,100.00,43,0,0,1,43,458,500,8e-13,80.5
Rhinocladiella_atrovirens_CBS264.49,SRR9261039.1819224,100.00,43,0,0,1,43,74,116,8e-13,80.5
Rhinocladiella_atrovirens_CBS264.49,SRR9261039.1819224,100.00,43,0,0,1,43,383,341,8e-13,80.5
Rhinocladiella_atrovirens_CBS264.49,SRR9261039.1442300,100.00,43,0,0,1,43,423,465,8e-13,80.5
Rhinocladiella_atrovirens_CBS264.49,SRR9261039.1287094,100.00,43,0,0,1,43,69,111,8e-13,80.5
Rhinocladiella_atrovirens_CBS264.49,SRR9261039.1144362,100.00,43,0,0,1,43,37,79,8e-13,80.5
Rhinocladiella_atrovirens_CBS264.49,SRR9261039.333575,100.00,43,0,0,1,43,122,80,8e-13,80.5
Rhinocladiella_atrovirens_CBS264.49,SRR9261039.287840,100.00,43,0,0,1,43,318,360,8e-13,80.5
Rhinocladiella_atrovirens_CBS264.49,SRR9261039.284956,100.00,43,0,0,1,43,190,148,8e-13,80.5
Rhinocladiella_atrovirens_CBS264.49,SRR9261039.147187,100.00,43,0,0,1,43,109,151,8e-13,80.5
Rhinocladiella_atrovirens_CBS264.49,SRR9261039.48033,100.00,43,0,0,1,43,72,114,8e-13,80.5
Rhinocladiella_atrovirens_CBS264.49,SRR9261039.2403304,100.00,40,0,0,1,40,289,250,4e-11,75.0
Rhinocladiella_atrovirens_CBS264.49,SRR9261039.3014910,100.00,34,0,0,11,44,1,34,8e-08,63.9
Rhinocladiella_atrovirens_CBS264.49,SRR9261039.3014910,100.00,34,0,0,11,44,328,295,8e-08,63.9
Rhinocladiella_atrovirens_CBS264.49,SRR9261039.2377074,100.00,33,0,0,11,43,1,33,3e-07,62.1
Rhinocladiella_basitona_CBS101460_T,SRR9261039.860308,86.90,84,8,3,234,316,214,133,3e-16,91.6
Rhinocladiella_phaeophora_CBS496.78_T,SRR9261039.860308,85.71,84,9,3,242,324,214,133,1e-14,86.1
Rhinocladiella_aquaspersa_CBS313.73_T,SRR9261039.860308,85.71,84,9,3,236,318,214,133,2e-14,86.1
Rhinocladiella_fasciculata_CBS132.86_T,SRR9261039.860308,85.71,84,9,3,252,334,214,133,1e-14,86.1
Rhinocladiella_fasciculata_CBS132.86_T,SRR9261039.2639340,100.00,28,0,0,1,28,119,146,2e-04,52.8
Rhinocladiella_anceps_CBS181.65_T,SRR9261039.860308,85.71,84,9,3,234,316,214,133,1e-14,86.1
Rhinocladiella_mackenziei_CBS367.92,SRR9261039.860308,86.90,84,8,3,223,305,214,133,3e-16,91.6
Rhinocladiella_mackenziei_CBS367.92,SRR9261039.3607118,100.00,28,0,0,1,28,101,128,2e-04,52.8
Rhinocladiella_mackenziei_CBS367.92,SRR9261039.3237376,100.00,28,0,0,1,28,380,407,2e-04,52.8
Rhinocladiella_mackenziei_CBS367.92,SRR9261039.3102659,100.00,28,0,0,1,28,225,198,2e-04,52.8
Rhinocladiella_mackenziei_CBS367.92,SRR9261039.3102659,100.00,28,0,0,1,28,408,435,2e-04,52.8
Rhinocladiella_mackenziei_CBS367.92,SRR9261039.3014910,100.00,28,0,0,1,28,9,36,2e-04,52.8
Rhinocladiella_mackenziei_CBS367.92,SRR9261039.3014910,100.00,28,0,0,1,28,320,293,2e-04,52.8
Rhinocladiella_mackenziei_CBS367.92,SRR9261039.2855315,100.00,28,0,0,1,28,375,348,2e-04,52.8
Rhinocladiella_mackenziei_CBS367.92,SRR9261039.2756274,100.00,28,0,0,1,28,27,54,2e-04,52.8
Rhinocladiella_mackenziei_CBS367.92,SRR9261039.1719106,100.00,28,0,0,1,28,28,55,2e-04,52.8
Rhinocladiella_mackenziei_CBS367.92,SRR9261039.527314,100.00,28,0,0,1,28,153,180,2e-04,52.8
Rhinocladiella_mackenziei_CBS367.92,SRR9261039.527314,100.00,28,0,0,1,28,358,331,2e-04,52.8
Veronaea_compacta_CBS268.75_T,SRR9261039.860308,86.90,84,8,3,256,338,214,133,3e-16,91.6
Veronaea_compacta_CBS268.75_T,SRR9261039.3607118,100.00,29,0,0,1,29,100,128,4e-05,54.7
Veronaea_compacta_CBS268.75_T,SRR9261039.3237376,100.00,29,0,0,1,29,379,407,4e-05,54.7
Veronaea_compacta_CBS268.75_T,SRR9261039.3102659,100.00,29,0,0,1,29,226,198,4e-05,54.7
Veronaea_compacta_CBS268.75_T,SRR9261039.3102659,100.00,29,0,0,1,29,407,435,4e-05,54.7
Veronaea_compacta_CBS268.75_T,SRR9261039.3014910,100.00,29,0,0,1,29,8,36,4e-05,54.7
Veronaea_compacta_CBS268.75_T,SRR9261039.3014910,100.00,29,0,0,1,29,321,293,4e-05,54.7
Veronaea_compacta_CBS268.75_T,SRR9261039.2855315,100.00,29,0,0,1,29,376,348,4e-05,54.7
Veronaea_compacta_CBS268.75_T,SRR9261039.2756274,100.00,29,0,0,1,29,26,54,4e-05,54.7
Veronaea_compacta_CBS268.75_T,SRR9261039.1719106,100.00,29,0,0,1,29,27,55,4e-05,54.7
Veronaea_compacta_CBS268.75_T,SRR9261039.527314,100.00,29,0,0,1,29,152,180,4e-05,54.7
Veronaea_compacta_CBS268.75_T,SRR9261039.527314,100.00,29,0,0,1,29,359,331,4e-05,54.7
Capronia_pilosella_AFTOL-ID657,SRR9261039.860308,86.90,84,8,3,334,416,214,133,4e-16,91.6
Capronia_dactylotricha_DAOM208471_T,SRR9261039.860308,86.90,84,8,3,236,318,214,133,4e-16,91.6
Capronia_kleinmondensis_CBS122671_T,SRR9261039.860308,86.90,84,8,3,261,343,214,133,4e-16,91.6
Capronia_kleinmondensis_CBS122671_T,SRR9261039.2639340,100.00,31,0,0,1,31,116,146,4e-06,58.4
Capronia_kleinmondensis_CBS122671_T,SRR9261039.4960407,100.00,30,0,0,1,30,133,162,1e-05,56.5
Capronia_kleinmondensis_CBS122671_T,SRR9261039.4960407,100.00,30,0,0,1,30,485,456,1e-05,56.5
Capronia_kleinmondensis_CBS122671_T,SRR9261039.3906040,100.00,30,0,0,1,30,108,79,1e-05,56.5
Capronia_kleinmondensis_CBS122671_T,SRR9261039.3906040,100.00,30,0,0,1,30,295,324,1e-05,56.5
Capronia_kleinmondensis_CBS122671_T,SRR9261039.3607118,100.00,30,0,0,1,30,97,126,1e-05,56.5
Capronia_kleinmondensis_CBS122671_T,SRR9261039.3237376,100.00,30,0,0,1,30,376,405,1e-05,56.5
Capronia_kleinmondensis_CBS122671_T,SRR9261039.3102659,100.00,30,0,0,1,30,229,200,1e-05,56.5
Capronia_kleinmondensis_CBS122671_T,SRR9261039.3102659,100.00,30,0,0,1,30,404,433,1e-05,56.5
Capronia_kleinmondensis_CBS122671_T,SRR9261039.3014910,100.00,30,0,0,1,30,5,34,1e-05,56.5
Capronia_kleinmondensis_CBS122671_T,SRR9261039.3014910,100.00,30,0,0,1,30,324,295,1e-05,56.5
Capronia_kleinmondensis_CBS122671_T,SRR9261039.2855315,100.00,30,0,0,1,30,379,350,1e-05,56.5
Capronia_kleinmondensis_CBS122671_T,SRR9261039.2756274,100.00,30,0,0,1,30,23,52,1e-05,56.5
Capronia_kleinmondensis_CBS122671_T,SRR9261039.1719106,100.00,30,0,0,1,30,24,53,1e-05,56.5
Capronia_kleinmondensis_CBS122671_T,SRR9261039.1198020,100.00,30,0,0,1,30,275,304,1e-05,56.5
Capronia_kleinmondensis_CBS122671_T,SRR9261039.527314,100.00,30,0,0,1,30,149,178,1e-05,56.5
Capronia_kleinmondensis_CBS122671_T,SRR9261039.527314,100.00,30,0,0,1,30,362,333,1e-05,56.5
Capronia_kleinmondensis_CBS122671_T,SRR9261039.4781720,100.00,29,0,0,1,29,104,132,5e-05,54.7
Capronia_kleinmondensis_CBS122671_T,SRR9261039.4781720,100.00,29,0,0,1,29,319,291,5e-05,54.7
Capronia_kleinmondensis_CBS122671_T,SRR9261039.4518398,100.00,29,0,0,1,29,100,128,5e-05,54.7
Capronia_kleinmondensis_CBS122671_T,SRR9261039.4518398,100.00,29,0,0,1,29,416,388,5e-05,54.7
Capronia_kleinmondensis_CBS122671_T,SRR9261039.3454821,100.00,29,0,0,1,29,223,195,5e-05,54.7
Capronia_kleinmondensis_CBS122671_T,SRR9261039.3454821,100.00,29,0,0,1,29,353,381,5e-05,54.7
Capronia_kleinmondensis_CBS122671_T,SRR9261039.3249220,100.00,29,0,0,1,29,377,349,5e-05,54.7
Capronia_kleinmondensis_CBS122671_T,SRR9261039.3246865,100.00,29,0,0,1,29,157,185,5e-05,54.7
Capronia_kleinmondensis_CBS122671_T,SRR9261039.2667712,100.00,29,0,0,1,29,352,380,5e-05,54.7
Capronia_kleinmondensis_CBS122671_T,SRR9261039.2636297,100.00,29,0,0,1,29,104,76,5e-05,54.7
Capronia_kleinmondensis_CBS122671_T,SRR9261039.2636297,100.00,29,0,0,1,29,472,500,5e-05,54.7
Capronia_kleinmondensis_CBS122671_T,SRR9261039.2377074,100.00,29,0,0,1,29,5,33,5e-05,54.7
Capronia_kleinmondensis_CBS122671_T,SRR9261039.1819224,100.00,29,0,0,1,29,88,116,5e-05,54.7
Capronia_kleinmondensis_CBS122671_T,SRR9261039.1819224,100.00,29,0,0,1,29,369,341,5e-05,54.7
Capronia_kleinmondensis_CBS122671_T,SRR9261039.1442300,100.00,29,0,0,1,29,437,465,5e-05,54.7
Capronia_kleinmondensis_CBS122671_T,SRR9261039.1287094,100.00,29,0,0,1,29,83,111,5e-05,54.7
Capronia_kleinmondensis_CBS122671_T,SRR9261039.1144362,100.00,29,0,0,1,29,51,79,5e-05,54.7
Capronia_kleinmondensis_CBS122671_T,SRR9261039.333575,100.00,29,0,0,1,29,108,80,5e-05,54.7
Capronia_kleinmondensis_CBS122671_T,SRR9261039.287840,100.00,29,0,0,1,29,332,360,5e-05,54.7
Capronia_kleinmondensis_CBS122671_T,SRR9261039.284956,100.00,29,0,0,1,29,176,148,5e-05,54.7
Capronia_kleinmondensis_CBS122671_T,SRR9261039.147187,100.00,29,0,0,1,29,123,151,5e-05,54.7
Capronia_kleinmondensis_CBS122671_T,SRR9261039.48033,100.00,29,0,0,1,29,86,114,5e-05,54.7
Capronia_mansonii_CBS101.67_T,SRR9261039.860308,86.90,84,8,3,247,329,214,133,4e-16,91.6
Capronia_munkii_DAOM216390_T,SRR9261039.860308,86.90,84,8,3,247,329,214,133,4e-16,91.6
Capronia_coronata_ATCC56201_T,SRR9261039.860308,86.90,84,8,3,235,317,214,133,4e-16,91.6
Capronia_parasitica_CBS123.88,SRR9261039.860308,86.90,84,8,3,241,323,214,133,3e-16,91.6
Veronaea_japonica_CBS776.83_T,SRR9261039.860308,86.90,84,8,3,269,351,214,133,3e-16,91.6
Veronaea_japonica_CBS776.83_T,SRR9261039.3607118,100.00,40,0,0,1,40,89,128,3e-11,75.0
Veronaea_japonica_CBS776.83_T,SRR9261039.3237376,100.00,40,0,0,1,40,368,407,3e-11,75.0
Veronaea_japonica_CBS776.83_T,SRR9261039.3102659,100.00,40,0,0,1,40,237,198,3e-11,75.0
Veronaea_japonica_CBS776.83_T,SRR9261039.3102659,100.00,40,0,0,1,40,396,435,3e-11,75.0
Veronaea_japonica_CBS776.83_T,SRR9261039.2855315,100.00,40,0,0,1,40,387,348,3e-11,75.0
Veronaea_japonica_CBS776.83_T,SRR9261039.2756274,100.00,40,0,0,1,40,15,54,3e-11,75.0
Veronaea_japonica_CBS776.83_T,SRR9261039.1719106,100.00,40,0,0,1,40,16,55,3e-11,75.0
Veronaea_japonica_CBS776.83_T,SRR9261039.527314,100.00,40,0,0,1,40,141,180,3e-11,75.0
Veronaea_japonica_CBS776.83_T,SRR9261039.527314,100.00,40,0,0,1,40,370,331,3e-11,75.0
Veronaea_japonica_CBS776.83_T,SRR9261039.4960407,100.00,38,0,0,1,38,125,162,4e-10,71.3
Veronaea_japonica_CBS776.83_T,SRR9261039.4960407,100.00,38,0,0,1,38,493,456,4e-10,71.3
Veronaea_japonica_CBS776.83_T,SRR9261039.3906040,100.00,38,0,0,1,38,116,79,4e-10,71.3
Veronaea_japonica_CBS776.83_T,SRR9261039.3906040,100.00,38,0,0,1,38,287,324,4e-10,71.3
Veronaea_japonica_CBS776.83_T,SRR9261039.2639340,100.00,38,0,0,1,38,108,145,4e-10,71.3
Veronaea_japonica_CBS776.83_T,SRR9261039.1198020,100.00,38,0,0,1,38,267,304,4e-10,71.3
Veronaea_japonica_CBS776.83_T,SRR9261039.4781720,100.00,37,0,0,1,37,96,132,2e-09,69.4
Veronaea_japonica_CBS776.83_T,SRR9261039.4781720,100.00,37,0,0,1,37,327,291,2e-09,69.4
Veronaea_japonica_CBS776.83_T,SRR9261039.4518398,100.00,37,0,0,1,37,92,128,2e-09,69.4
Veronaea_japonica_CBS776.83_T,SRR9261039.4518398,100.00,37,0,0,1,37,424,388,2e-09,69.4
Veronaea_japonica_CBS776.83_T,SRR9261039.3454821,100.00,37,0,0,1,37,231,195,2e-09,69.4
Veronaea_japonica_CBS776.83_T,SRR9261039.3454821,100.00,37,0,0,1,37,345,381,2e-09,69.4
Veronaea_japonica_CBS776.83_T,SRR9261039.3249220,100.00,37,0,0,1,37,385,349,2e-09,69.4
Veronaea_japonica_CBS776.83_T,SRR9261039.3246865,100.00,37,0,0,1,37,149,185,2e-09,69.4
Veronaea_japonica_CBS776.83_T,SRR9261039.2667712,100.00,37,0,0,1,37,344,380,2e-09,69.4
Veronaea_japonica_CBS776.83_T,SRR9261039.2636297,100.00,37,0,0,1,37,112,76,2e-09,69.4
Veronaea_japonica_CBS776.83_T,SRR9261039.2636297,100.00,37,0,0,1,37,464,500,2e-09,69.4
Veronaea_japonica_CBS776.83_T,SRR9261039.1819224,100.00,37,0,0,1,37,80,116,2e-09,69.4
Veronaea_japonica_CBS776.83_T,SRR9261039.1819224,100.00,37,0,0,1,37,377,341,2e-09,69.4
Veronaea_japonica_CBS776.83_T,SRR9261039.1442300,100.00,37,0,0,1,37,429,465,2e-09,69.4
Veronaea_japonica_CBS776.83_T,SRR9261039.1287094,100.00,37,0,0,1,37,75,111,2e-09,69.4
Veronaea_japonica_CBS776.83_T,SRR9261039.1144362,100.00,37,0,0,1,37,43,79,2e-09,69.4
Veronaea_japonica_CBS776.83_T,SRR9261039.333575,100.00,37,0,0,1,37,116,80,2e-09,69.4
Veronaea_japonica_CBS776.83_T,SRR9261039.287840,100.00,37,0,0,1,37,324,360,2e-09,69.4
Veronaea_japonica_CBS776.83_T,SRR9261039.284956,100.00,37,0,0,1,37,184,148,2e-09,69.4
Veronaea_japonica_CBS776.83_T,SRR9261039.147187,100.00,37,0,0,1,37,115,151,2e-09,69.4
Veronaea_japonica_CBS776.83_T,SRR9261039.48033,100.00,37,0,0,1,37,78,114,2e-09,69.4
Veronaea_japonica_CBS776.83_T,SRR9261039.3014910,100.00,36,0,0,5,40,1,36,6e-09,67.6
Veronaea_japonica_CBS776.83_T,SRR9261039.3014910,100.00,36,0,0,5,40,328,293,6e-09,67.6
Veronaea_japonica_CBS776.83_T,SRR9261039.2403304,100.00,34,0,0,1,34,283,250,7e-08,63.9
Veronaea_japonica_CBS776.83_T,SRR9261039.2377074,100.00,33,0,0,5,37,1,33,3e-07,62.1
Thysanorea_papuana_CBS212.96_T,SRR9261039.860308,86.90,84,8,3,243,325,214,133,3e-16,91.6
Fonsecaea_brasiliensis_CBS119710_T,SRR9261039.860308,86.90,84,8,3,243,325,214,133,3e-16,91.6
Fonsecaea_pedrosoi_CBS271.37_T,SRR9261039.860308,86.90,84,8,3,271,353,214,133,4e-16,91.6
Fonsecaea_pedrosoi_CBS271.37_T,SRR9261039.3607118,100.00,31,0,0,1,31,97,127,4e-06,58.4
Fonsecaea_pedrosoi_CBS271.37_T,SRR9261039.3237376,100.00,31,0,0,1,31,376,406,4e-06,58.4
Fonsecaea_pedrosoi_CBS271.37_T,SRR9261039.3102659,100.00,31,0,0,1,31,229,199,4e-06,58.4
Fonsecaea_pedrosoi_CBS271.37_T,SRR9261039.3102659,100.00,31,0,0,1,31,404,434,4e-06,58.4
Fonsecaea_pedrosoi_CBS271.37_T,SRR9261039.3014910,100.00,31,0,0,1,31,5,35,4e-06,58.4
Fonsecaea_pedrosoi_CBS271.37_T,SRR9261039.3014910,100.00,31,0,0,1,31,324,294,4e-06,58.4
Fonsecaea_pedrosoi_CBS271.37_T,SRR9261039.2855315,100.00,31,0,0,1,31,379,349,4e-06,58.4
Fonsecaea_pedrosoi_CBS271.37_T,SRR9261039.2756274,100.00,31,0,0,1,31,23,53,4e-06,58.4
Fonsecaea_pedrosoi_CBS271.37_T,SRR9261039.1719106,100.00,31,0,0,1,31,24,54,4e-06,58.4
Fonsecaea_pedrosoi_CBS271.37_T,SRR9261039.527314,100.00,31,0,0,1,31,149,179,4e-06,58.4
Fonsecaea_pedrosoi_CBS271.37_T,SRR9261039.527314,100.00,31,0,0,1,31,362,332,4e-06,58.4
Fonsecaea_pedrosoi_CBS271.37_T,SRR9261039.4960407,100.00,30,0,0,1,30,133,162,1e-05,56.5
Fonsecaea_pedrosoi_CBS271.37_T,SRR9261039.4960407,100.00,30,0,0,1,30,485,456,1e-05,56.5
Fonsecaea_pedrosoi_CBS271.37_T,SRR9261039.3906040,100.00,30,0,0,1,30,108,79,1e-05,56.5
Fonsecaea_pedrosoi_CBS271.37_T,SRR9261039.3906040,100.00,30,0,0,1,30,295,324,1e-05,56.5
Fonsecaea_pedrosoi_CBS271.37_T,SRR9261039.2639340,100.00,30,0,0,1,30,116,145,1e-05,56.5
Fonsecaea_pedrosoi_CBS271.37_T,SRR9261039.1198020,100.00,30,0,0,1,30,275,304,1e-05,56.5
Fonsecaea_pedrosoi_CBS271.37_T,SRR9261039.4781720,100.00,29,0,0,1,29,104,132,5e-05,54.7
Fonsecaea_pedrosoi_CBS271.37_T,SRR9261039.4781720,100.00,29,0,0,1,29,319,291,5e-05,54.7
Fonsecaea_pedrosoi_CBS271.37_T,SRR9261039.4518398,100.00,29,0,0,1,29,100,128,5e-05,54.7
Fonsecaea_pedrosoi_CBS271.37_T,SRR9261039.4518398,100.00,29,0,0,1,29,416,388,5e-05,54.7
Fonsecaea_pedrosoi_CBS271.37_T,SRR9261039.3454821,100.00,29,0,0,1,29,223,195,5e-05,54.7
Fonsecaea_pedrosoi_CBS271.37_T,SRR9261039.3454821,100.00,29,0,0,1,29,353,381,5e-05,54.7
Fonsecaea_pedrosoi_CBS271.37_T,SRR9261039.3249220,100.00,29,0,0,1,29,377,349,5e-05,54.7
Fonsecaea_pedrosoi_CBS271.37_T,SRR9261039.3246865,100.00,29,0,0,1,29,157,185,5e-05,54.7
Fonsecaea_pedrosoi_CBS271.37_T,SRR9261039.2667712,100.00,29,0,0,1,29,352,380,5e-05,54.7
Fonsecaea_pedrosoi_CBS271.37_T,SRR9261039.2636297,100.00,29,0,0,1,29,104,76,5e-05,54.7
Fonsecaea_pedrosoi_CBS271.37_T,SRR9261039.2636297,100.00,29,0,0,1,29,472,500,5e-05,54.7
Fonsecaea_pedrosoi_CBS271.37_T,SRR9261039.2377074,100.00,29,0,0,1,29,5,33,5e-05,54.7
Fonsecaea_pedrosoi_CBS271.37_T,SRR9261039.1819224,100.00,29,0,0,1,29,88,116,5e-05,54.7
Fonsecaea_pedrosoi_CBS271.37_T,SRR9261039.1819224,100.00,29,0,0,1,29,369,341,5e-05,54.7
Fonsecaea_pedrosoi_CBS271.37_T,SRR9261039.1442300,100.00,29,0,0,1,29,437,465,5e-05,54.7
Fonsecaea_pedrosoi_CBS271.37_T,SRR9261039.1287094,100.00,29,0,0,1,29,83,111,5e-05,54.7
Fonsecaea_pedrosoi_CBS271.37_T,SRR9261039.1144362,100.00,29,0,0,1,29,51,79,5e-05,54.7
Fonsecaea_pedrosoi_CBS271.37_T,SRR9261039.333575,100.00,29,0,0,1,29,108,80,5e-05,54.7
Fonsecaea_pedrosoi_CBS271.37_T,SRR9261039.287840,100.00,29,0,0,1,29,332,360,5e-05,54.7
Fonsecaea_pedrosoi_CBS271.37_T,SRR9261039.284956,100.00,29,0,0,1,29,176,148,5e-05,54.7
Fonsecaea_pedrosoi_CBS271.37_T,SRR9261039.147187,100.00,29,0,0,1,29,123,151,5e-05,54.7
Fonsecaea_pedrosoi_CBS271.37_T,SRR9261039.48033,100.00,29,0,0,1,29,86,114,5e-05,54.7
Fonsecaea_multimorphosa_CBS980.96_T,SRR9261039.860308,86.90,84,8,3,241,323,214,133,3e-16,91.6
Fonsecaea_minima_CBS125760_T,SRR9261039.860308,86.90,84,8,3,237,319,214,133,3e-16,91.6
Fonsecaea_nubica_CBS269.64_T,SRR9261039.860308,86.90,84,8,3,248,330,214,133,3e-16,91.6
Fonsecaea_erecta_CBS125763_T,SRR9261039.860308,86.90,84,8,3,232,314,214,133,3e-16,91.6
Fonsecaea_pugnacius_CBS139214_T,SRR9261039.860308,86.90,84,8,3,241,323,214,133,3e-16,91.6
Cladophialophora_psammophila_CBS,SRR9261039.860308,86.90,84,8,3,247,329,214,133,3e-16,91.6
Cladophialophora_devriesii_CBS,SRR9261039.860308,86.90,84,8,3,243,325,214,133,3e-16,91.6
Cladophialophora_immunda_CBS834.96,SRR9261039.860308,86.90,84,8,3,245,327,214,133,3e-16,91.6
Cladophialophora_arxii_CBS306.94_T,SRR9261039.860308,86.90,84,8,3,247,329,214,133,3e-16,91.6
Cladophialophora_bantiana_CBS173.52,SRR9261039.860308,86.90,84,8,3,241,323,214,133,3e-16,91.6
Cladophialophora_emmonsii_CBS102594,SRR9261039.860308,86.90,84,8,3,232,314,214,133,3e-16,91.6
Cladophialophora_minourae_CBS556.83,SRR9261039.860308,86.90,84,8,3,240,322,214,133,3e-16,91.6
Cladophialophora_australiensis_CBS112793,SRR9261039.1546436,90.28,216,20,1,739,953,216,1,5e-73,281
Cladophialophora_australiensis_CBS112793,SRR9261039.1546436,86.69,248,31,2,678,923,252,499,8e-71,274
Cladophialophora_australiensis_CBS112793,SRR9261039.4332384,89.42,189,18,2,1283,1471,210,24,1e-59,237
Cladophialophora_australiensis_CBS112793,SRR9261039.4332384,79.01,243,29,9,1156,1379,262,501,2e-32,147
Cladophialophora_australiensis_CBS112793,SRR9261039.3661568,88.89,189,19,2,1283,1471,38,224,5e-58,231
Cladophialophora_australiensis_CBS112793,SRR9261039.3661568,90.12,81,8,0,1391,1471,501,421,8e-21,108
Cladophialophora_australiensis_CBS112793,SRR9261039.1409689,89.07,183,18,2,1289,1471,501,321,2e-56,226
Cladophialophora_australiensis_CBS112793,SRR9261039.1409689,83.50,103,16,1,1156,1258,85,186,7e-17,95.3
Cladophialophora_australiensis_CBS112793,SRR9261039.1905021,88.59,184,19,2,1288,1471,502,321,3e-55,222
Cladophialophora_australiensis_CBS112793,SRR9261039.1905021,79.92,244,27,10,1179,1403,14,254,2e-36,159
Cladophialophora_australiensis_CBS112793,SRR9261039.1239468,91.30,161,14,0,809,969,37,197,1e-54,220
Cladophialophora_australiensis_CBS112793,SRR9261039.3518695,84.55,220,31,2,751,968,229,11,5e-53,215
Cladophialophora_australiensis_CBS112793,SRR9261039.3518695,84.09,220,32,2,751,968,236,454,6e-52,211
Cladophialophora_australiensis_CBS112793,SRR9261039.4594551,91.45,152,13,0,1317,1468,273,424,2e-51,209
Cladophialophora_australiensis_CBS112793,SRR9261039.3723545,89.16,166,17,1,806,971,232,68,3e-50,206
Cladophialophora_australiensis_CBS112793,SRR9261039.1638257,89.94,159,16,0,810,968,212,54,3e-50,206
Cladophialophora_australiensis_CBS112793,SRR9261039.690478,83.71,221,29,6,751,968,261,477,4e-49,202
Cladophialophora_australiensis_CBS112793,SRR9261039.4832810,93.85,130,8,0,1340,1469,140,11,2e-47,196
Cladophialophora_australiensis_CBS112793,SRR9261039.4518863,93.85,130,8,0,1340,1469,216,87,2e-47,196
Cladophialophora_australiensis_CBS112793,SRR9261039.4518863,93.85,130,8,0,1340,1469,285,414,2e-47,196
Cladophialophora_australiensis_CBS112793,SRR9261039.4162249,84.50,200,27,4,1274,1471,276,473,6e-47,195
Cladophialophora_australiensis_CBS112793,SRR9261039.3116322,79.44,248,46,4,1178,1422,6,251,1e-39,171
Cladophialophora_australiensis_CBS112793,SRR9261039.621301,88.81,134,15,0,1338,1471,141,8,5e-38,165
Cladophialophora_australiensis_CBS112793,SRR9261039.361205,92.17,115,8,1,1354,1468,248,361,6e-37,161
Cladophialophora_australiensis_CBS112793,SRR9261039.3358200,77.52,218,44,4,1178,1392,467,252,6e-27,128
Cladophialophora_australiensis_CBS112793,SRR9261039.3358200,88.57,70,8,0,1178,1247,167,236,4e-14,86.1
Cladophialophora_australiensis_CBS112793,SRR9261039.3062231,78.17,229,28,9,1156,1365,226,1,2e-26,126
Cladophialophora_australiensis_CBS112793,SRR9261039.2645045,77.21,215,43,5,1178,1389,286,497,3e-25,122
Cladophialophora_australiensis_CBS112793,SRR9261039.2247264,86.61,112,12,3,1153,1263,111,2,1e-24,121
Cladophialophora_australiensis_CBS112793,SRR9261039.1652228,91.86,86,7,0,1386,1471,371,286,1e-24,121
Cladophialophora_australiensis_CBS112793,SRR9261039.4097961,77.29,207,42,4,1178,1381,456,252,1e-23,117
Cladophialophora_australiensis_CBS112793,SRR9261039.4097961,76.37,182,38,4,1178,1356,72,251,2e-16,93.5
Cladophialophora_australiensis_CBS112793,SRR9261039.2835906,77.83,221,27,9,1156,1357,33,250,1e-23,117
Cladophialophora_australiensis_CBS112793,SRR9261039.4649663,76.73,202,42,4,1178,1376,451,252,8e-21,108
Cladophialophora_australiensis_CBS112793,SRR9261039.4649663,88.57,70,8,0,1178,1247,176,245,4e-14,86.1
Cladophialophora_australiensis_CBS112793,SRR9261039.1281624,90.36,83,7,1,1177,1259,125,44,8e-21,108
Cladophialophora_australiensis_CBS112793,SRR9261039.4371047,77.21,215,27,9,1156,1351,212,1,3e-20,106
Cladophialophora_australiensis_CBS112793,SRR9261039.4371047,83.50,103,16,1,1156,1258,387,488,7e-17,95.3
Cladophialophora_australiensis_CBS112793,SRR9261039.588445,77.67,206,24,10,1179,1365,203,1,3e-20,106
Cladophialophora_australiensis_CBS112793,SRR9261039.1732047,77.13,188,36,4,1178,1361,445,261,4e-19,102
Cladophialophora_australiensis_CBS112793,SRR9261039.1732047,87.14,70,9,0,1178,1247,175,244,2e-12,80.5
Cladophialophora_australiensis_CBS112793,SRR9261039.3543203,83.50,103,16,1,1156,1258,63,164,7e-17,95.3
Cladophialophora_australiensis_CBS112793,SRR9261039.3543203,83.50,103,16,1,1156,1258,308,207,7e-17,95.3
Cladophialophora_australiensis_CBS112793,SRR9261039.1057849,87.65,81,10,0,1177,1257,120,200,7e-17,95.3
Cladophialophora_australiensis_CBS112793,SRR9261039.3148082,76.24,181,38,4,1178,1355,429,251,8e-16,91.6
Cladophialophora_australiensis_CBS112793,SRR9261039.860308,86.90,84,8,3,242,324,214,133,8e-16,91.6
Cladophialophora_australiensis_CBS112793,SRR9261039.2684798,88.73,71,8,0,1178,1248,167,237,1e-14,87.9
Cladophialophora_australiensis_CBS112793,SRR9261039.2684798,88.73,71,8,0,1178,1248,306,236,1e-14,87.9
Cladophialophora_australiensis_CBS112793,SRR9261039.2599031,88.57,70,8,0,1178,1247,138,207,4e-14,86.1
Cladophialophora_australiensis_CBS112793,SRR9261039.2599031,88.57,70,8,0,1178,1247,403,334,4e-14,86.1
Cladophialophora_australiensis_CBS112793,SRR9261039.1664881,88.57,70,8,0,1178,1247,333,402,4e-14,86.1
Cladophialophora_australiensis_CBS112793,SRR9261039.607172,88.57,70,8,0,1178,1247,105,36,4e-14,86.1
Cladophialophora_australiensis_CBS112793,SRR9261039.217891,88.57,70,8,0,1178,1247,92,23,4e-14,86.1
Cladophialophora_australiensis_CBS112793,SRR9261039.217891,88.57,70,8,0,1178,1247,207,276,4e-14,86.1
Cladophialophora_australiensis_CBS112793,SRR9261039.109875,88.57,70,8,0,1178,1247,339,270,4e-14,86.1
Cladophialophora_australiensis_CBS112793,SRR9261039.2811429,85.00,80,11,1,1179,1258,174,96,2e-12,80.5
Cladophialophora_australiensis_CBS112793,SRR9261039.2811429,100.00,34,0,0,1179,1212,462,495,2e-07,63.9
Cladophialophora_australiensis_CBS112793,SRR9261039.2193106,90.16,61,6,0,1151,1211,61,1,2e-12,80.5
Cladophialophora_australiensis_CBS112793,SRR9261039.2181876,87.14,70,9,0,1178,1247,420,489,2e-12,80.5
Cladophialophora_australiensis_CBS112793,SRR9261039.1277254,85.00,80,11,1,1179,1258,349,271,2e-12,80.5
Cladophialophora_australiensis_CBS112793,SRR9261039.1598587,92.45,53,4,0,1178,1230,53,1,2e-11,76.8
Cladophialophora_australiensis_CBS112793,SRR9261039.1598587,92.45,53,4,0,1178,1230,238,290,2e-11,76.8
Cladophialophora_australiensis_CBS112793,SRR9261039.615177,89.47,57,6,0,1156,1212,77,133,3e-10,73.1
Cladophialophora_australiensis_CBS112793,SRR9261039.615177,89.47,57,6,0,1156,1212,192,136,3e-10,73.1
Cladophialophora_australiensis_CBS112793,SRR9261039.737340,100.00,36,0,0,1177,1212,37,2,1e-08,67.6
Cladophialophora_australiensis_CBS112793,SRR9261039.737340,100.00,36,0,0,1177,1212,422,457,1e-08,67.6
Cladophialophora_australiensis_CBS112793,SRR9261039.3776089,100.00,32,0,0,1178,1209,36,5,2e-06,60.2
Cladophialophora_potulentorum_CBS112222,SRR9261039.1546436,90.28,216,20,1,741,955,216,1,5e-73,281
Cladophialophora_potulentorum_CBS112222,SRR9261039.1546436,86.69,248,31,2,680,925,252,499,8e-71,274
Cladophialophora_potulentorum_CBS112222,SRR9261039.4332384,89.71,204,19,2,1285,1488,210,9,2e-66,259
Cladophialophora_potulentorum_CBS112222,SRR9261039.4332384,78.60,243,30,9,1158,1381,262,501,8e-31,141
Cladophialophora_potulentorum_CBS112222,SRR9261039.3661568,89.22,204,20,2,1285,1488,38,239,1e-64,254
Cladophialophora_potulentorum_CBS112222,SRR9261039.3661568,90.62,96,9,0,1393,1488,501,406,2e-27,130
Cladophialophora_potulentorum_CBS112222,SRR9261039.1409689,89.39,198,19,2,1291,1488,501,306,5e-63,248
Cladophialophora_potulentorum_CBS112222,SRR9261039.1409689,82.52,103,17,1,1158,1260,85,186,3e-15,89.8
Cladophialophora_potulentorum_CBS112222,SRR9261039.1905021,88.94,199,20,2,1290,1488,502,306,6e-62,244
Cladophialophora_potulentorum_CBS112222,SRR9261039.1905021,79.38,257,31,10,1168,1405,1,254,6e-37,161
Cladophialophora_potulentorum_CBS112222,SRR9261039.4594551,90.59,170,16,0,1319,1488,273,442,2e-56,226
Cladophialophora_potulentorum_CBS112222,SRR9261039.1239468,91.30,161,14,0,811,971,37,197,1e-54,220
Cladophialophora_potulentorum_CBS112222,SRR9261039.3518695,84.14,227,33,2,753,977,229,4,1e-53,217
Cladophialophora_potulentorum_CBS112222,SRR9261039.3518695,83.70,227,34,2,753,977,236,461,2e-52,213
Cladophialophora_potulentorum_CBS112222,SRR9261039.3757175,89.35,169,18,0,1320,1488,26,194,2e-52,213
Cladophialophora_potulentorum_CBS112222,SRR9261039.3757175,89.35,169,18,0,1320,1488,365,197,2e-52,213
Cladophialophora_potulentorum_CBS112222,SRR9261039.2876944,89.35,169,18,0,1320,1488,59,227,2e-52,213
Cladophialophora_potulentorum_CBS112222,SRR9261039.2876944,87.50,160,20,0,1329,1488,499,340,1e-44,187
Cladophialophora_potulentorum_CBS112222,SRR9261039.2645045,89.35,169,18,0,1320,1488,218,50,2e-52,213
Cladophialophora_potulentorum_CBS112222,SRR9261039.2645045,77.67,215,42,5,1180,1391,286,497,7e-27,128
Cladophialophora_potulentorum_CBS112222,SRR9261039.2504331,89.35,169,18,0,1320,1488,24,192,2e-52,213
Cladophialophora_potulentorum_CBS112222,SRR9261039.2468120,89.35,169,18,0,1320,1488,208,40,2e-52,213
Cladophialophora_potulentorum_CBS112222,SRR9261039.2433876,89.41,170,16,2,1320,1488,483,315,2e-52,213
Cladophialophora_potulentorum_CBS112222,SRR9261039.2122982,89.35,169,18,0,1320,1488,290,458,2e-52,213
Cladophialophora_potulentorum_CBS112222,SRR9261039.2122982,90.72,97,9,0,1392,1488,251,155,2e-27,130
Cladophialophora_potulentorum_CBS112222,SRR9261039.2053689,89.35,169,18,0,1320,1488,34,202,2e-52,213
Cladophialophora_potulentorum_CBS112222,SRR9261039.2053689,90.48,147,14,0,1342,1488,493,347,6e-47,195
Cladophialophora_potulentorum_CBS112222,SRR9261039.112446,89.35,169,18,0,1320,1488,218,50,2e-52,213
Cladophialophora_potulentorum_CBS112222,SRR9261039.4518863,92.52,147,11,0,1342,1488,216,70,6e-52,211
Cladophialophora_potulentorum_CBS112222,SRR9261039.4518863,92.52,147,11,0,1342,1488,285,431,6e-52,211
Cladophialophora_potulentorum_CBS112222,SRR9261039.3430427,88.76,169,19,0,1320,1488,498,330,2e-51,209
Cladophialophora_potulentorum_CBS112222,SRR9261039.3430427,88.76,169,19,0,1320,1488,62,230,8e-51,207
Cladophialophora_potulentorum_CBS112222,SRR9261039.3116322,88.76,169,19,0,1320,1488,460,292,2e-51,209
Cladophialophora_potulentorum_CBS112222,SRR9261039.3116322,79.84,248,45,4,1180,1424,6,251,2e-41,176
Cladophialophora_potulentorum_CBS112222,SRR9261039.1638257,88.44,173,20,0,812,984,212,40,2e-51,209
Cladophialophora_potulentorum_CBS112222,SRR9261039.3723545,88.82,170,18,1,808,977,232,64,8e-51,207
Cladophialophora_potulentorum_CBS112222,SRR9261039.4162249,84.19,215,30,4,1276,1488,276,488,3e-50,206
Cladophialophora_potulentorum_CBS112222,SRR9261039.4832810,92.14,140,11,0,1342,1481,140,1,5e-48,198
Cladophialophora_potulentorum_CBS112222,SRR9261039.2721450,88.82,161,18,0,1328,1488,252,412,5e-48,198
Cladophialophora_potulentorum_CBS112222,SRR9261039.2721450,90.72,97,9,0,1392,1488,251,155,2e-27,130
Cladophialophora_potulentorum_CBS112222,SRR9261039.690478,82.53,229,31,6,753,977,261,484,2e-46,193
Cladophialophora_potulentorum_CBS112222,SRR9261039.4555849,85.80,169,24,0,1320,1488,188,20,2e-42,180
Cladophialophora_potulentorum_CBS112222,SRR9261039.361205,90.98,133,11,1,1356,1488,248,379,6e-42,178
Cladophialophora_potulentorum_CBS112222,SRR9261039.1963807,89.71,136,14,0,1353,1488,1,136,8e-41,174
Cladophialophora_potulentorum_CBS112222,SRR9261039.621301,88.65,141,16,0,1340,1480,141,1,3e-40,172
Cladophialophora_potulentorum_CBS112222,SRR9261039.4655733,90.91,121,11,0,1368,1488,8,128,2e-37,163
Cladophialophora_potulentorum_CBS112222,SRR9261039.1718920,90.91,121,11,0,1368,1488,5,125,2e-37,163
Cladophialophora_potulentorum_CBS112222,SRR9261039.1718920,90.91,121,11,0,1368,1488,501,381,2e-37,163
Cladophialophora_potulentorum_CBS112222,SRR9261039.3055926,91.45,117,10,0,1372,1488,174,58,6e-37,161
Cladophialophora_potulentorum_CBS112222,SRR9261039.3055926,91.45,117,10,0,1372,1488,181,297,6e-37,161
Cladophialophora_potulentorum_CBS112222,SRR9261039.3278083,90.74,108,10,0,1381,1488,1,108,7e-32,145
Cladophialophora_potulentorum_CBS112222,SRR9261039.3278083,89.69,97,10,0,1392,1488,502,406,2e-26,126
Cladophialophora_potulentorum_CBS112222,SRR9261039.1652228,92.08,101,8,0,1388,1488,371,271,2e-31,143
Cladophialophora_potulentorum_CBS112222,SRR9261039.3358200,77.98,218,43,4,1180,1394,467,252,1e-28,134
Cladophialophora_potulentorum_CBS112222,SRR9261039.3358200,90.00,70,7,0,1180,1249,167,236,9e-16,91.6
Cladophialophora_potulentorum_CBS112222,SRR9261039.4097961,77.78,207,41,4,1180,1383,456,252,3e-25,122
Cladophialophora_potulentorum_CBS112222,SRR9261039.4097961,76.92,182,37,4,1180,1358,72,251,5e-18,99.0
Cladophialophora_potulentorum_CBS112222,SRR9261039.3062231,77.73,229,29,9,1158,1367,226,1,1e-24,121
Cladophialophora_potulentorum_CBS112222,SRR9261039.2247264,85.59,111,15,1,1155,1265,111,2,5e-23,115
Cladophialophora_potulentorum_CBS112222,SRR9261039.4649663,77.23,202,41,4,1180,1378,451,252,2e-22,113
Cladophialophora_potulentorum_CBS112222,SRR9261039.4649663,90.00,70,7,0,1180,1249,176,245,9e-16,91.6
Cladophialophora_potulentorum_CBS112222,SRR9261039.2835906,77.38,221,28,9,1158,1359,33,250,7e-22,111
Cladophialophora_potulentorum_CBS112222,SRR9261039.588445,77.09,227,29,11,1161,1367,224,1,2e-21,110
Cladophialophora_potulentorum_CBS112222,SRR9261039.1732047,77.66,188,35,4,1180,1363,445,261,9e-21,108
Cladophialophora_potulentorum_CBS112222,SRR9261039.1732047,88.57,70,8,0,1180,1249,175,244,4e-14,86.1
Cladophialophora_potulentorum_CBS112222,SRR9261039.1393818,90.91,77,6,1,1413,1488,248,172,4e-19,102
Cladophialophora_potulentorum_CBS112222,SRR9261039.1281624,89.16,83,8,1,1179,1261,125,44,4e-19,102
Cladophialophora_potulentorum_CBS112222,SRR9261039.4371047,76.74,215,28,9,1158,1353,212,1,1e-18,100
Cladophialophora_potulentorum_CBS112222,SRR9261039.4371047,82.52,103,17,1,1158,1260,387,488,3e-15,89.8
Cladophialophora_potulentorum_CBS112222,SRR9261039.3148082,76.80,181,37,4,1180,1357,429,251,2e-17,97.1
Cladophialophora_potulentorum_CBS112222,SRR9261039.1057849,90.28,72,7,0,1179,1250,120,191,7e-17,95.3
Cladophialophora_potulentorum_CBS112222,SRR9261039.2684798,90.14,71,7,0,1180,1250,167,237,2e-16,93.5
Cladophialophora_potulentorum_CBS112222,SRR9261039.2684798,90.14,71,7,0,1180,1250,306,236,2e-16,93.5
Cladophialophora_potulentorum_CBS112222,SRR9261039.2599031,90.00,70,7,0,1180,1249,138,207,9e-16,91.6
Cladophialophora_potulentorum_CBS112222,SRR9261039.2599031,90.00,70,7,0,1180,1249,403,334,9e-16,91.6
Cladophialophora_potulentorum_CBS112222,SRR9261039.1664881,90.00,70,7,0,1180,1249,333,402,9e-16,91.6
Cladophialophora_potulentorum_CBS112222,SRR9261039.860308,86.90,84,8,3,241,323,214,133,9e-16,91.6
Cladophialophora_potulentorum_CBS112222,SRR9261039.607172,90.00,70,7,0,1180,1249,105,36,9e-16,91.6
Cladophialophora_potulentorum_CBS112222,SRR9261039.217891,90.00,70,7,0,1180,1249,92,23,9e-16,91.6
Cladophialophora_potulentorum_CBS112222,SRR9261039.217891,90.00,70,7,0,1180,1249,207,276,9e-16,91.6
Cladophialophora_potulentorum_CBS112222,SRR9261039.109875,90.00,70,7,0,1180,1249,339,270,9e-16,91.6
Cladophialophora_potulentorum_CBS112222,SRR9261039.3543203,82.52,103,17,1,1158,1260,63,164,3e-15,89.8
Cladophialophora_potulentorum_CBS112222,SRR9261039.3543203,82.52,103,17,1,1158,1260,308,207,3e-15,89.8
Cladophialophora_potulentorum_CBS112222,SRR9261039.2181876,88.57,70,8,0,1180,1249,420,489,4e-14,86.1
Cladophialophora_potulentorum_CBS112222,SRR9261039.1277254,82.18,101,16,2,1161,1260,370,271,4e-14,86.1
Cladophialophora_potulentorum_CBS112222,SRR9261039.1598587,94.34,53,3,0,1180,1232,53,1,5e-13,82.4
Cladophialophora_potulentorum_CBS112222,SRR9261039.1598587,94.34,53,3,0,1180,1232,238,290,5e-13,82.4
Cladophialophora_potulentorum_CBS112222,SRR9261039.2811429,85.00,80,11,1,1181,1260,174,96,2e-12,80.5
Cladophialophora_potulentorum_CBS112222,SRR9261039.2811429,100.00,34,0,0,1181,1214,462,495,2e-07,63.9
Cladophialophora_potulentorum_CBS112222,SRR9261039.2193106,88.52,61,7,0,1153,1213,61,1,9e-11,75.0
Cladophialophora_potulentorum_CBS112222,SRR9261039.1307262,97.56,41,1,0,1448,1488,258,298,1e-09,71.3
Cladophialophora_potulentorum_CBS112222,SRR9261039.737340,100.00,36,0,0,1179,1214,37,2,1e-08,67.6
Cladophialophora_potulentorum_CBS112222,SRR9261039.737340,100.00,36,0,0,1179,1214,422,457,1e-08,67.6
Cladophialophora_potulentorum_CBS112222,SRR9261039.615177,87.72,57,7,0,1158,1214,77,133,1e-08,67.6
Cladophialophora_potulentorum_CBS112222,SRR9261039.615177,87.72,57,7,0,1158,1214,192,136,1e-08,67.6
Cladophialophora_potulentorum_CBS112222,SRR9261039.3776089,100.00,32,0,0,1180,1211,36,5,2e-06,60.2
Cladophialophora_matsushimae_CMRP1198,SRR9261039.860308,86.90,84,8,3,245,327,214,133,3e-16,91.6
Cladophialophora_mycetomatis_CBS122637,SRR9261039.860308,86.90,84,8,3,230,312,214,133,3e-16,91.6
Cladophialophora_chaetospira_CBS127573,SRR9261039.860308,86.90,84,8,3,636,718,214,133,5e-16,91.6
Cladophialophora_chaetospira_CBS127573,SRR9261039.3607118,100.00,33,0,0,379,411,96,128,4e-07,62.1
Cladophialophora_chaetospira_CBS127573,SRR9261039.3237376,100.00,33,0,0,379,411,375,407,4e-07,62.1
Cladophialophora_chaetospira_CBS127573,SRR9261039.3102659,100.00,33,0,0,379,411,230,198,4e-07,62.1
Cladophialophora_chaetospira_CBS127573,SRR9261039.3102659,100.00,33,0,0,379,411,403,435,4e-07,62.1
Cladophialophora_chaetospira_CBS127573,SRR9261039.3014910,100.00,33,0,0,379,411,4,36,4e-07,62.1
Cladophialophora_chaetospira_CBS127573,SRR9261039.3014910,100.00,33,0,0,379,411,325,293,4e-07,62.1
Cladophialophora_chaetospira_CBS127573,SRR9261039.2855315,100.00,33,0,0,379,411,380,348,4e-07,62.1
Cladophialophora_chaetospira_CBS127573,SRR9261039.2756274,100.00,33,0,0,379,411,22,54,4e-07,62.1
Cladophialophora_chaetospira_CBS127573,SRR9261039.1719106,100.00,33,0,0,379,411,23,55,4e-07,62.1
Cladophialophora_chaetospira_CBS127573,SRR9261039.527314,100.00,33,0,0,379,411,148,180,4e-07,62.1
Cladophialophora_chaetospira_CBS127573,SRR9261039.527314,100.00,33,0,0,379,411,363,331,4e-07,62.1
Cladophialophora_chaetospira_CBS127573,SRR9261039.4960407,100.00,31,0,0,379,409,132,162,5e-06,58.4
Cladophialophora_chaetospira_CBS127573,SRR9261039.4960407,100.00,31,0,0,379,409,486,456,5e-06,58.4
Cladophialophora_chaetospira_CBS127573,SRR9261039.3906040,100.00,31,0,0,379,409,109,79,5e-06,58.4
Cladophialophora_chaetospira_CBS127573,SRR9261039.3906040,100.00,31,0,0,379,409,294,324,5e-06,58.4
Cladophialophora_chaetospira_CBS127573,SRR9261039.2639340,100.00,31,0,0,379,409,115,145,5e-06,58.4
Cladophialophora_chaetospira_CBS127573,SRR9261039.1198020,100.00,31,0,0,379,409,274,304,5e-06,58.4
Cladophialophora_chaetospira_CBS127573,SRR9261039.4781720,100.00,30,0,0,379,408,103,132,2e-05,56.5
Cladophialophora_chaetospira_CBS127573,SRR9261039.4781720,100.00,30,0,0,379,408,320,291,2e-05,56.5
Cladophialophora_chaetospira_CBS127573,SRR9261039.4518398,100.00,30,0,0,379,408,99,128,2e-05,56.5
Cladophialophora_chaetospira_CBS127573,SRR9261039.4518398,100.00,30,0,0,379,408,417,388,2e-05,56.5
Cladophialophora_chaetospira_CBS127573,SRR9261039.3454821,100.00,30,0,0,379,408,224,195,2e-05,56.5
Cladophialophora_chaetospira_CBS127573,SRR9261039.3454821,100.00,30,0,0,379,408,352,381,2e-05,56.5
Cladophialophora_chaetospira_CBS127573,SRR9261039.3249220,100.00,30,0,0,379,408,378,349,2e-05,56.5
Cladophialophora_chaetospira_CBS127573,SRR9261039.3246865,100.00,30,0,0,379,408,156,185,2e-05,56.5
Cladophialophora_chaetospira_CBS127573,SRR9261039.2667712,100.00,30,0,0,379,408,351,380,2e-05,56.5
Cladophialophora_chaetospira_CBS127573,SRR9261039.2636297,100.00,30,0,0,379,408,105,76,2e-05,56.5
Cladophialophora_chaetospira_CBS127573,SRR9261039.2636297,100.00,30,0,0,379,408,471,500,2e-05,56.5
Cladophialophora_chaetospira_CBS127573,SRR9261039.2377074,100.00,30,0,0,379,408,4,33,2e-05,56.5
Cladophialophora_chaetospira_CBS127573,SRR9261039.1819224,100.00,30,0,0,379,408,87,116,2e-05,56.5
Cladophialophora_chaetospira_CBS127573,SRR9261039.1819224,100.00,30,0,0,379,408,370,341,2e-05,56.5
Cladophialophora_chaetospira_CBS127573,SRR9261039.1442300,100.00,30,0,0,379,408,436,465,2e-05,56.5
Cladophialophora_chaetospira_CBS127573,SRR9261039.1287094,100.00,30,0,0,379,408,82,111,2e-05,56.5
Cladophialophora_chaetospira_CBS127573,SRR9261039.1144362,100.00,30,0,0,379,408,50,79,2e-05,56.5
Cladophialophora_chaetospira_CBS127573,SRR9261039.333575,100.00,30,0,0,379,408,109,80,2e-05,56.5
Cladophialophora_chaetospira_CBS127573,SRR9261039.287840,100.00,30,0,0,379,408,331,360,2e-05,56.5
Cladophialophora_chaetospira_CBS127573,SRR9261039.284956,100.00,30,0,0,379,408,177,148,2e-05,56.5
Cladophialophora_chaetospira_CBS127573,SRR9261039.147187,100.00,30,0,0,379,408,122,151,2e-05,56.5
Cladophialophora_chaetospira_CBS127573,SRR9261039.48033,100.00,30,0,0,379,408,85,114,2e-05,56.5
Cladophialophora_boppii_CBS126.86_T,SRR9261039.860308,86.90,84,8,3,238,320,214,133,3e-16,91.6
Cladophialophora_abundans_CBS126736,SRR9261039.860308,80.30,132,22,4,175,305,214,86,6e-18,97.1
Capronia_semi-immersa_CBS102234,SRR9261039.860308,86.90,84,8,3,237,319,214,133,3e-16,91.6
Phialophora_americana_CBS400.67,SRR9261039.1546436,89.81,216,21,1,733,947,216,1,2e-71,276
Phialophora_americana_CBS400.67,SRR9261039.1546436,86.18,246,32,2,672,915,252,497,5e-68,265
Phialophora_americana_CBS400.67,SRR9261039.3518695,84.58,227,32,2,745,969,229,4,3e-55,222
Phialophora_americana_CBS400.67,SRR9261039.3518695,84.14,227,33,2,745,969,236,461,4e-54,219
Phialophora_americana_CBS400.67,SRR9261039.1239468,90.68,161,15,0,803,963,37,197,5e-53,215
Phialophora_americana_CBS400.67,SRR9261039.1638257,87.86,173,21,0,804,976,212,40,1e-49,204
Phialophora_americana_CBS400.67,SRR9261039.4628486,87.97,158,19,0,806,963,205,48,1e-44,187
Phialophora_americana_CBS400.67,SRR9261039.4628486,87.97,158,19,0,806,963,240,397,1e-44,187
Phialophora_americana_CBS400.67,SRR9261039.690478,82.02,228,34,5,745,969,261,484,1e-44,187
Phialophora_americana_CBS400.67,SRR9261039.3861027,89.66,145,15,0,832,976,253,397,4e-44,185
Phialophora_americana_CBS400.67,SRR9261039.3861027,87.18,117,15,0,860,976,249,133,1e-28,134
Phialophora_americana_CBS400.67,SRR9261039.4162249,85.00,180,23,4,1268,1445,276,453,2e-42,180
Phialophora_americana_CBS400.67,SRR9261039.4463888,87.01,154,20,0,800,953,242,89,8e-41,174
Phialophora_americana_CBS400.67,SRR9261039.4463888,87.01,154,20,0,800,953,343,496,8e-41,174
Phialophora_americana_CBS400.67,SRR9261039.3684232,87.01,154,20,0,800,953,17,170,8e-41,174
Phialophora_americana_CBS400.67,SRR9261039.58503,87.01,154,20,0,800,953,181,28,8e-41,174
Phialophora_americana_CBS400.67,SRR9261039.58503,87.01,154,20,0,800,953,345,498,8e-41,174
Phialophora_americana_CBS400.67,SRR9261039.3062231,88.03,142,17,0,800,941,262,403,4e-39,169
Phialophora_americana_CBS400.67,SRR9261039.3062231,78.60,229,27,9,1150,1359,226,1,5e-28,132
Phialophora_americana_CBS400.67,SRR9261039.3116322,79.12,249,45,6,1172,1416,6,251,5e-38,165
Phialophora_americana_CBS400.67,SRR9261039.1905021,80.33,244,26,10,1173,1397,14,254,5e-38,165
Phialophora_americana_CBS400.67,SRR9261039.4832810,92.86,112,8,0,1334,1445,140,29,2e-37,163
Phialophora_americana_CBS400.67,SRR9261039.4518863,92.86,112,8,0,1334,1445,216,105,2e-37,163
Phialophora_americana_CBS400.67,SRR9261039.4518863,92.86,112,8,0,1334,1445,285,396,2e-37,163
Phialophora_americana_CBS400.67,SRR9261039.4332384,79.42,243,28,9,1150,1373,262,501,4e-34,152
Phialophora_americana_CBS400.67,SRR9261039.621301,86.84,114,15,0,1332,1445,141,28,6e-27,128
Phialophora_americana_CBS400.67,SRR9261039.3358200,77.17,219,43,6,1172,1386,467,252,3e-25,122
Phialophora_americana_CBS400.67,SRR9261039.3358200,88.73,71,6,2,1172,1241,167,236,4e-14,86.1
Phialophora_americana_CBS400.67,SRR9261039.2835906,78.28,221,26,9,1150,1351,33,250,3e-25,122
Phialophora_americana_CBS400.67,SRR9261039.2247264,86.61,112,12,3,1147,1257,111,2,1e-24,121
Phialophora_americana_CBS400.67,SRR9261039.2645045,76.85,216,42,7,1172,1383,286,497,1e-23,117
Phialophora_americana_CBS400.67,SRR9261039.4371047,77.67,215,26,9,1150,1345,212,1,6e-22,111
Phialophora_americana_CBS400.67,SRR9261039.4371047,84.47,103,15,1,1150,1252,387,488,1e-18,100
Phialophora_americana_CBS400.67,SRR9261039.4097961,76.92,208,41,6,1172,1375,456,252,6e-22,111
Phialophora_americana_CBS400.67,SRR9261039.4097961,75.96,183,37,6,1172,1350,72,251,1e-14,87.9
Phialophora_americana_CBS400.67,SRR9261039.588445,78.16,206,23,10,1173,1359,203,1,6e-22,111
Phialophora_americana_CBS400.67,SRR9261039.1281624,90.36,83,7,1,1171,1253,125,44,8e-21,108
Phialophora_americana_CBS400.67,SRR9261039.4649663,76.35,203,41,6,1172,1370,451,252,4e-19,102
Phialophora_americana_CBS400.67,SRR9261039.4649663,88.73,71,6,2,1172,1241,176,245,4e-14,86.1
Phialophora_americana_CBS400.67,SRR9261039.3543203,84.47,103,15,1,1150,1252,63,164,1e-18,100
Phialophora_americana_CBS400.67,SRR9261039.3543203,84.47,103,15,1,1150,1252,308,207,1e-18,100
Phialophora_americana_CBS400.67,SRR9261039.1409689,84.47,103,15,1,1150,1252,85,186,1e-18,100
Phialophora_americana_CBS400.67,SRR9261039.1732047,76.72,189,35,6,1172,1355,445,261,2e-17,97.1
Phialophora_americana_CBS400.67,SRR9261039.1732047,87.32,71,7,2,1172,1241,175,244,2e-12,80.5
Phialophora_americana_CBS400.67,SRR9261039.860308,86.90,84,8,3,239,321,214,133,8e-16,91.6
Phialophora_americana_CBS400.67,SRR9261039.1057849,89.04,73,6,2,1171,1242,120,191,3e-15,89.8
Phialophora_americana_CBS400.67,SRR9261039.2684798,88.89,72,6,2,1172,1242,167,237,1e-14,87.9
Phialophora_americana_CBS400.67,SRR9261039.2684798,88.89,72,6,2,1172,1242,306,236,1e-14,87.9
Phialophora_americana_CBS400.67,SRR9261039.3148082,75.82,182,37,6,1172,1349,429,251,4e-14,86.1
Phialophora_americana_CBS400.67,SRR9261039.2811429,86.25,80,10,1,1173,1252,174,96,4e-14,86.1
Phialophora_americana_CBS400.67,SRR9261039.2811429,97.50,40,1,0,1173,1212,462,501,4e-09,69.4
Phialophora_americana_CBS400.67,SRR9261039.2599031,88.73,71,6,2,1172,1241,138,207,4e-14,86.1
Phialophora_americana_CBS400.67,SRR9261039.2599031,88.73,71,6,2,1172,1241,403,334,4e-14,86.1
Phialophora_americana_CBS400.67,SRR9261039.1664881,88.73,71,6,2,1172,1241,333,402,4e-14,86.1
Phialophora_americana_CBS400.67,SRR9261039.1277254,86.25,80,10,1,1173,1252,349,271,4e-14,86.1
Phialophora_americana_CBS400.67,SRR9261039.607172,88.73,71,6,2,1172,1241,105,36,4e-14,86.1
Phialophora_americana_CBS400.67,SRR9261039.217891,88.73,71,6,2,1172,1241,92,23,4e-14,86.1
Phialophora_americana_CBS400.67,SRR9261039.217891,88.73,71,6,2,1172,1241,207,276,4e-14,86.1
Phialophora_americana_CBS400.67,SRR9261039.109875,88.73,71,6,2,1172,1241,339,270,4e-14,86.1
Phialophora_americana_CBS400.67,SRR9261039.2193106,90.16,61,6,0,1145,1205,61,1,2e-12,80.5
Phialophora_americana_CBS400.67,SRR9261039.2181876,87.32,71,7,2,1172,1241,420,489,2e-12,80.5
Phialophora_americana_CBS400.67,SRR9261039.2849316,90.91,55,5,0,909,963,502,448,2e-11,76.8
Phialophora_americana_CBS400.67,SRR9261039.1598587,92.59,54,2,2,1172,1224,53,1,2e-11,76.8
Phialophora_americana_CBS400.67,SRR9261039.1598587,92.59,54,2,2,1172,1224,238,290,2e-11,76.8
Phialophora_americana_CBS400.67,SRR9261039.746641,87.69,65,8,0,889,953,1,65,2e-11,76.8
Phialophora_americana_CBS400.67,SRR9261039.746641,87.69,65,8,0,889,953,322,258,2e-11,76.8
Phialophora_americana_CBS400.67,SRR9261039.615177,89.66,58,6,0,1150,1207,77,134,8e-11,75.0
Phialophora_americana_CBS400.67,SRR9261039.615177,89.66,58,6,0,1150,1207,192,135,8e-11,75.0
Phialophora_americana_CBS400.67,SRR9261039.737340,100.00,37,0,0,1171,1207,37,1,4e-09,69.4
Phialophora_americana_CBS400.67,SRR9261039.737340,100.00,37,0,0,1171,1207,422,458,4e-09,69.4
Phialophora_americana_CBS400.67,SRR9261039.3776089,100.00,32,0,0,1172,1203,36,5,2e-06,60.2
Phialophora_verrucosa_CBS140325_T,SRR9261039.860308,86.90,84,8,3,243,325,214,133,3e-16,91.6
Cladophialophora_samoensis_CBS259.83_T,SRR9261039.860308,86.90,84,8,3,243,325,214,133,3e-16,91.6
Cladophialophora_carrionii_CBS260.83,SRR9261039.860308,86.90,84,8,3,259,341,214,133,3e-16,91.6
Exophiala_palmae_UPCB86822_T,SRR9261039.860308,86.90,84,8,3,202,284,214,133,3e-16,91.6
Cladophialophora_yegresii_CBS114405_T,SRR9261039.860308,86.90,84,8,3,244,326,214,133,3e-16,91.6
Knufia_epidermidis_CBS120353_T,SRR9261039.860308,86.90,84,8,3,242,324,214,133,3e-16,91.6
Arthrocladium_fulminans_CBS136243_T,SRR9261039.860308,86.90,84,8,3,237,319,214,133,3e-16,91.6
Anthopsis_deltoidea_CBS263.77_T,SRR9261039.860308,86.59,82,10,1,246,326,214,133,1e-15,89.8
Cyphellophora_laciniata_CBS190.61_T,SRR9261039.2639340,98.78,82,1,0,20,101,65,146,9e-33,147
Cyphellophora_laciniata_CBS190.61_T,SRR9261039.3237376,97.53,81,2,0,20,100,325,405,1e-30,139
Cyphellophora_laciniata_CBS190.61_T,SRR9261039.3102659,97.53,81,2,0,20,100,353,433,1e-30,139
Cyphellophora_laciniata_CBS190.61_T,SRR9261039.3102659,100.00,52,0,0,49,100,251,200,9e-18,97.1
Cyphellophora_laciniata_CBS190.61_T,SRR9261039.3607118,98.68,76,1,0,25,100,51,126,2e-29,135
Cyphellophora_laciniata_CBS190.61_T,SRR9261039.527314,98.68,76,1,0,25,100,103,178,2e-29,135
Cyphellophora_laciniata_CBS190.61_T,SRR9261039.527314,98.68,76,1,0,25,100,408,333,2e-29,135
Cyphellophora_laciniata_CBS190.61_T,SRR9261039.2855315,100.00,72,0,0,29,100,421,350,7e-29,134
Cyphellophora_laciniata_CBS190.61_T,SRR9261039.4960407,98.63,73,1,0,28,100,90,162,9e-28,130
Cyphellophora_laciniata_CBS190.61_T,SRR9261039.4960407,100.00,47,0,0,54,100,502,456,5e-15,87.9
Cyphellophora_laciniata_CBS190.61_T,SRR9261039.3906040,98.63,73,1,0,28,100,151,79,9e-28,130
Cyphellophora_laciniata_CBS190.61_T,SRR9261039.3906040,98.63,73,1,0,28,100,252,324,9e-28,130
Cyphellophora_laciniata_CBS190.61_T,SRR9261039.4781720,98.25,57,1,0,43,99,76,132,7e-19,100
Cyphellophora_laciniata_CBS190.61_T,SRR9261039.4781720,98.25,57,1,0,43,99,347,291,7e-19,100
Cyphellophora_laciniata_CBS190.61_T,SRR9261039.4518398,98.25,57,1,0,43,99,72,128,7e-19,100
Cyphellophora_laciniata_CBS190.61_T,SRR9261039.4518398,98.25,57,1,0,43,99,444,388,7e-19,100
Cyphellophora_laciniata_CBS190.61_T,SRR9261039.3454821,98.25,57,1,0,43,99,251,195,7e-19,100
Cyphellophora_laciniata_CBS190.61_T,SRR9261039.3454821,98.25,57,1,0,43,99,325,381,7e-19,100
Cyphellophora_laciniata_CBS190.61_T,SRR9261039.3249220,98.25,57,1,0,43,99,405,349,7e-19,100
Cyphellophora_laciniata_CBS190.61_T,SRR9261039.3249220,97.56,41,1,0,43,83,209,249,5e-10,71.3
Cyphellophora_laciniata_CBS190.61_T,SRR9261039.3246865,98.25,57,1,0,43,99,129,185,7e-19,100
Cyphellophora_laciniata_CBS190.61_T,SRR9261039.2667712,98.25,57,1,0,43,99,324,380,7e-19,100
Cyphellophora_laciniata_CBS190.61_T,SRR9261039.2636297,98.25,57,1,0,43,99,132,76,7e-19,100
Cyphellophora_laciniata_CBS190.61_T,SRR9261039.2636297,96.49,57,2,0,43,99,444,500,9e-18,97.1
Cyphellophora_laciniata_CBS190.61_T,SRR9261039.1819224,98.25,57,1,0,43,99,60,116,7e-19,100
Cyphellophora_laciniata_CBS190.61_T,SRR9261039.1819224,98.25,57,1,0,43,99,397,341,7e-19,100
Cyphellophora_laciniata_CBS190.61_T,SRR9261039.1442300,98.25,57,1,0,43,99,409,465,7e-19,100
Cyphellophora_laciniata_CBS190.61_T,SRR9261039.1287094,98.25,57,1,0,43,99,55,111,7e-19,100
Cyphellophora_laciniata_CBS190.61_T,SRR9261039.1144362,98.25,57,1,0,43,99,23,79,7e-19,100
Cyphellophora_laciniata_CBS190.61_T,SRR9261039.333575,98.25,57,1,0,43,99,136,80,7e-19,100
Cyphellophora_laciniata_CBS190.61_T,SRR9261039.287840,98.25,57,1,0,43,99,304,360,7e-19,100
Cyphellophora_laciniata_CBS190.61_T,SRR9261039.284956,98.25,57,1,0,43,99,204,148,7e-19,100
Cyphellophora_laciniata_CBS190.61_T,SRR9261039.147187,98.25,57,1,0,43,99,95,151,7e-19,100
Cyphellophora_laciniata_CBS190.61_T,SRR9261039.48033,98.25,57,1,0,43,99,58,114,7e-19,100
Cyphellophora_laciniata_CBS190.61_T,SRR9261039.1198020,100.00,53,0,0,48,100,252,304,2e-18,99.0
Cyphellophora_laciniata_CBS190.61_T,SRR9261039.2756274,100.00,52,0,0,49,100,1,52,9e-18,97.1
Cyphellophora_laciniata_CBS190.61_T,SRR9261039.2403304,98.15,54,1,0,43,96,303,250,3e-17,95.3
Cyphellophora_laciniata_CBS190.61_T,SRR9261039.860308,80.00,130,24,2,331,459,214,86,3e-17,95.3
Cyphellophora_laciniata_CBS190.61_T,SRR9261039.1719106,98.11,53,1,0,48,100,1,53,1e-16,93.5
Cyphellophora_laciniata_CBS190.61_T,SRR9261039.1781226,94.74,57,3,0,43,99,127,183,1e-15,89.8
Cyphellophora_laciniata_CBS190.61_T,SRR9261039.1781226,94.74,57,3,0,43,99,446,390,1e-15,89.8
Cyphellophora_laciniata_CBS190.61_T,SRR9261039.3014910,100.00,34,0,0,67,100,1,34,9e-08,63.9
Cyphellophora_laciniata_CBS190.61_T,SRR9261039.3014910,100.00,34,0,0,67,100,328,295,9e-08,63.9
Cyphellophora_laciniata_CBS190.61_T,SRR9261039.2377074,100.00,33,0,0,67,99,1,33,3e-07,62.1
Cyphellophora_suttonii_CBS449.91,SRR9261039.860308,80.00,130,24,2,234,362,214,86,2e-17,95.3
Cyphellophora_pauciseptata_CBS284.85_T,SRR9261039.860308,80.00,130,24,2,245,373,214,86,2e-17,95.3
Cyphellophora_pluriseptata_CBS286.85_T,SRR9261039.860308,86.59,82,10,1,250,330,214,133,1e-15,89.8
Phialophora_europaea_CBS101466,SRR9261039.860308,86.59,82,10,1,240,320,214,133,1e-15,89.8
Phialophora_ambigua_CBS235.93,SRR9261039.860308,86.59,82,10,1,237,317,214,133,1e-15,89.8
Cladophialophora_modesta_CBS985.96_T,SRR9261039.860308,86.90,84,8,3,234,316,214,133,3e-16,91.6
Cyphellophora_fusarioides_MUCL44033_T,SRR9261039.860308,80.00,130,24,2,233,361,214,86,2e-17,95.3
