Exophiala_brunnea_CBS,SRR3330056.375,100.00,38,0,0,1,38,235,272,8e-12,71.3
Exophiala_tremulae_CBS129355,SRR3330056.375,100.00,38,0,0,1,38,235,272,8e-12,71.3
Rhinocladiella_atrovirens_CBS264.49,SRR3330056.375,100.00,43,0,0,1,43,230,272,1e-14,80.5
Capronia_kleinmondensis_CBS122671_T,SRR3330056.375,100.00,29,0,0,1,29,244,272,9e-07,54.7
Veronaea_japonica_CBS776.83_T,SRR3330056.375,100.00,37,0,0,1,37,236,272,3e-11,69.4
Fonsecaea_pedrosoi_CBS271.37_T,SRR3330056.375,100.00,29,0,0,1,29,244,272,8e-07,54.7
Cladophialophora_chaetospira_CBS127573,SRR3330056.375,100.00,30,0,0,379,408,243,272,3e-07,56.5
Cyphellophora_laciniata_CBS190.61_T,SRR3330056.375,96.77,62,2,0,38,99,211,272,9e-22,104
