Exophiala_brunnea_CBS,ERR1924357.19107013,100.00,39,0,0,1,39,186,224,3e-10,73.1
Exophiala_brunnea_CBS,ERR1924357.19053417,100.00,39,0,0,1,39,163,125,3e-10,73.1
Exophiala_brunnea_CBS,ERR1924357.18372390,100.00,39,0,0,1,39,121,83,3e-10,73.1
Exophiala_brunnea_CBS,ERR1924357.17390286,100.00,39,0,0,1,39,50,12,3e-10,73.1
Exophiala_brunnea_CBS,ERR1924357.17390286,100.00,37,0,0,1,37,204,240,3e-09,69.4
Exophiala_brunnea_CBS,ERR1924357.7177643,100.00,39,0,0,1,39,194,156,3e-10,73.1
Exophiala_brunnea_CBS,ERR1924357.6984648,100.00,39,0,0,1,39,97,59,3e-10,73.1
Exophiala_brunnea_CBS,ERR1924357.6236641,100.00,39,0,0,1,39,75,113,3e-10,73.1
Exophiala_brunnea_CBS,ERR1924357.4528436,100.00,39,0,0,1,39,18,56,3e-10,73.1
Exophiala_brunnea_CBS,ERR1924357.4384858,100.00,39,0,0,1,39,54,92,3e-10,73.1
Exophiala_brunnea_CBS,ERR1924357.1676293,100.00,39,0,0,1,39,152,114,3e-10,73.1
Exophiala_brunnea_CBS,ERR1924357.8184174,100.00,37,0,0,3,39,240,204,3e-09,69.4
Exophiala_brunnea_CBS,ERR1924357.14499594,100.00,35,0,0,5,39,1,35,5e-08,65.8
Exophiala_dermatitidis_CBS748.88,ERR1924357.15463604,95.00,120,6,0,1385,1504,1,120,6e-45,189
Exophiala_dermatitidis_CBS748.88,ERR1924357.12396930,95.00,120,6,0,1384,1503,120,1,6e-45,189
Exophiala_dermatitidis_CBS748.88,ERR1924357.12396930,93.10,87,6,0,1352,1438,154,240,1e-26,128
Exophiala_dermatitidis_CBS748.88,ERR1924357.9712874,93.10,87,6,0,1352,1438,96,10,1e-26,128
Exophiala_dermatitidis_CBS748.88,ERR1924357.3216815,93.10,87,6,0,1352,1438,189,103,1e-26,128
Exophiala_dermatitidis_CBS748.88,ERR1924357.13570623,95.00,80,4,0,1359,1438,123,202,5e-26,126
Exophiala_dermatitidis_CBS748.88,ERR1924357.13570623,98.33,60,1,0,1445,1504,120,61,6e-20,106
Exophiala_dermatitidis_CBS748.88,ERR1924357.18442372,97.96,49,1,0,1456,1504,1,49,8e-14,86.1
Exophiala_tremulae_CBS129355,ERR1924357.19107013,100.00,39,0,0,1,39,186,224,3e-10,73.1
Exophiala_tremulae_CBS129355,ERR1924357.19053417,100.00,39,0,0,1,39,163,125,3e-10,73.1
Exophiala_tremulae_CBS129355,ERR1924357.18372390,100.00,39,0,0,1,39,121,83,3e-10,73.1
Exophiala_tremulae_CBS129355,ERR1924357.17390286,100.00,39,0,0,1,39,50,12,3e-10,73.1
Exophiala_tremulae_CBS129355,ERR1924357.17390286,100.00,37,0,0,1,37,204,240,3e-09,69.4
Exophiala_tremulae_CBS129355,ERR1924357.7177643,100.00,39,0,0,1,39,194,156,3e-10,73.1
Exophiala_tremulae_CBS129355,ERR1924357.6984648,100.00,39,0,0,1,39,97,59,3e-10,73.1
Exophiala_tremulae_CBS129355,ERR1924357.6236641,100.00,39,0,0,1,39,75,113,3e-10,73.1
Exophiala_tremulae_CBS129355,ERR1924357.4528436,100.00,39,0,0,1,39,18,56,3e-10,73.1
Exophiala_tremulae_CBS129355,ERR1924357.4384858,100.00,39,0,0,1,39,54,92,3e-10,73.1
Exophiala_tremulae_CBS129355,ERR1924357.1676293,100.00,39,0,0,1,39,152,114,3e-10,73.1
Exophiala_tremulae_CBS129355,ERR1924357.8184174,100.00,37,0,0,3,39,240,204,3e-09,69.4
Exophiala_tremulae_CBS129355,ERR1924357.14499594,100.00,35,0,0,5,39,1,35,4e-08,65.8
Rhinocladiella_atrovirens_CBS264.49,ERR1924357.19107013,100.00,46,0,0,1,46,181,226,3e-14,86.1
Rhinocladiella_atrovirens_CBS264.49,ERR1924357.19107013,100.00,28,0,0,19,46,120,93,3e-04,52.8
Rhinocladiella_atrovirens_CBS264.49,ERR1924357.19053417,100.00,46,0,0,1,46,168,123,3e-14,86.1
Rhinocladiella_atrovirens_CBS264.49,ERR1924357.19053417,87.50,48,3,3,1,47,93,138,3e-04,52.8
Rhinocladiella_atrovirens_CBS264.49,ERR1924357.17390286,100.00,46,0,0,1,46,55,10,3e-14,86.1
Rhinocladiella_atrovirens_CBS264.49,ERR1924357.17390286,100.00,42,0,0,1,42,199,240,6e-12,78.7
Rhinocladiella_atrovirens_CBS264.49,ERR1924357.7177643,100.00,46,0,0,1,46,199,154,3e-14,86.1
Rhinocladiella_atrovirens_CBS264.49,ERR1924357.6984648,100.00,46,0,0,1,46,102,57,3e-14,86.1
Rhinocladiella_atrovirens_CBS264.49,ERR1924357.6236641,100.00,46,0,0,1,46,70,115,3e-14,86.1
Rhinocladiella_atrovirens_CBS264.49,ERR1924357.4528436,100.00,46,0,0,1,46,13,58,3e-14,86.1
Rhinocladiella_atrovirens_CBS264.49,ERR1924357.4384858,100.00,46,0,0,1,46,49,94,3e-14,86.1
Rhinocladiella_atrovirens_CBS264.49,ERR1924357.1676293,100.00,46,0,0,1,46,157,112,3e-14,86.1
Rhinocladiella_atrovirens_CBS264.49,ERR1924357.18372390,100.00,41,0,0,6,46,121,81,2e-11,76.8
Rhinocladiella_atrovirens_CBS264.49,ERR1924357.8184174,100.00,39,0,0,8,46,240,202,3e-10,73.1
Rhinocladiella_atrovirens_CBS264.49,ERR1924357.14499594,100.00,37,0,0,10,46,1,37,3e-09,69.4
Rhinocladiella_fasciculata_CBS132.86_T,ERR1924357.19107013,100.00,29,0,0,1,29,198,226,9e-05,54.7
Rhinocladiella_fasciculata_CBS132.86_T,ERR1924357.19107013,100.00,28,0,0,2,29,120,93,3e-04,52.8
Rhinocladiella_fasciculata_CBS132.86_T,ERR1924357.19053417,100.00,29,0,0,1,29,151,123,9e-05,54.7
Rhinocladiella_fasciculata_CBS132.86_T,ERR1924357.18372390,100.00,29,0,0,1,29,109,81,9e-05,54.7
Rhinocladiella_fasciculata_CBS132.86_T,ERR1924357.17390286,100.00,29,0,0,1,29,38,10,9e-05,54.7
Rhinocladiella_fasciculata_CBS132.86_T,ERR1924357.14499594,100.00,29,0,0,1,29,9,37,9e-05,54.7
Rhinocladiella_fasciculata_CBS132.86_T,ERR1924357.8184174,100.00,29,0,0,1,29,230,202,9e-05,54.7
Rhinocladiella_fasciculata_CBS132.86_T,ERR1924357.7177643,100.00,29,0,0,1,29,182,154,9e-05,54.7
Rhinocladiella_fasciculata_CBS132.86_T,ERR1924357.6984648,100.00,29,0,0,1,29,85,57,9e-05,54.7
Rhinocladiella_fasciculata_CBS132.86_T,ERR1924357.6236641,100.00,29,0,0,1,29,87,115,9e-05,54.7
Rhinocladiella_fasciculata_CBS132.86_T,ERR1924357.4528436,100.00,29,0,0,1,29,30,58,9e-05,54.7
Rhinocladiella_fasciculata_CBS132.86_T,ERR1924357.4384858,100.00,29,0,0,1,29,66,94,9e-05,54.7
Rhinocladiella_fasciculata_CBS132.86_T,ERR1924357.1676293,100.00,29,0,0,1,29,140,112,9e-05,54.7
Capronia_kleinmondensis_CBS122671_T,ERR1924357.19107013,100.00,32,0,0,1,32,195,226,2e-06,60.2
Capronia_kleinmondensis_CBS122671_T,ERR1924357.19107013,100.00,28,0,0,5,32,120,93,4e-04,52.8
Capronia_kleinmondensis_CBS122671_T,ERR1924357.19053417,100.00,32,0,0,1,32,154,123,2e-06,60.2
Capronia_kleinmondensis_CBS122671_T,ERR1924357.18372390,100.00,32,0,0,1,32,112,81,2e-06,60.2
Capronia_kleinmondensis_CBS122671_T,ERR1924357.17390286,100.00,32,0,0,1,32,41,10,2e-06,60.2
Capronia_kleinmondensis_CBS122671_T,ERR1924357.17390286,100.00,28,0,0,1,28,213,240,4e-04,52.8
Capronia_kleinmondensis_CBS122671_T,ERR1924357.14499594,100.00,32,0,0,1,32,6,37,2e-06,60.2
Capronia_kleinmondensis_CBS122671_T,ERR1924357.8184174,100.00,32,0,0,1,32,233,202,2e-06,60.2
Capronia_kleinmondensis_CBS122671_T,ERR1924357.7177643,100.00,32,0,0,1,32,185,154,2e-06,60.2
Capronia_kleinmondensis_CBS122671_T,ERR1924357.6984648,100.00,32,0,0,1,32,88,57,2e-06,60.2
Capronia_kleinmondensis_CBS122671_T,ERR1924357.6236641,100.00,32,0,0,1,32,84,115,2e-06,60.2
Capronia_kleinmondensis_CBS122671_T,ERR1924357.4528436,100.00,32,0,0,1,32,27,58,2e-06,60.2
Capronia_kleinmondensis_CBS122671_T,ERR1924357.4384858,100.00,32,0,0,1,32,63,94,2e-06,60.2
Capronia_kleinmondensis_CBS122671_T,ERR1924357.1676293,100.00,32,0,0,1,32,143,112,2e-06,60.2
Veronaea_japonica_CBS776.83_T,ERR1924357.19107013,100.00,38,0,0,1,38,187,224,9e-10,71.3
Veronaea_japonica_CBS776.83_T,ERR1924357.19053417,100.00,38,0,0,1,38,162,125,9e-10,71.3
Veronaea_japonica_CBS776.83_T,ERR1924357.18372390,100.00,38,0,0,1,38,120,83,9e-10,71.3
Veronaea_japonica_CBS776.83_T,ERR1924357.17390286,100.00,38,0,0,1,38,49,12,9e-10,71.3
Veronaea_japonica_CBS776.83_T,ERR1924357.17390286,100.00,36,0,0,1,36,205,240,1e-08,67.6
Veronaea_japonica_CBS776.83_T,ERR1924357.7177643,100.00,38,0,0,1,38,193,156,9e-10,71.3
Veronaea_japonica_CBS776.83_T,ERR1924357.6984648,100.00,38,0,0,1,38,96,59,9e-10,71.3
Veronaea_japonica_CBS776.83_T,ERR1924357.6236641,100.00,38,0,0,1,38,76,113,9e-10,71.3
Veronaea_japonica_CBS776.83_T,ERR1924357.4528436,100.00,38,0,0,1,38,19,56,9e-10,71.3
Veronaea_japonica_CBS776.83_T,ERR1924357.4384858,100.00,38,0,0,1,38,55,92,9e-10,71.3
Veronaea_japonica_CBS776.83_T,ERR1924357.1676293,100.00,38,0,0,1,38,151,114,9e-10,71.3
Veronaea_japonica_CBS776.83_T,ERR1924357.8184174,100.00,37,0,0,2,38,240,204,3e-09,69.4
Veronaea_japonica_CBS776.83_T,ERR1924357.14499594,100.00,35,0,0,4,38,1,35,4e-08,65.8
Fonsecaea_pedrosoi_CBS271.37_T,ERR1924357.19107013,100.00,30,0,0,1,30,195,224,3e-05,56.5
Fonsecaea_pedrosoi_CBS271.37_T,ERR1924357.19053417,100.00,30,0,0,1,30,154,125,3e-05,56.5
Fonsecaea_pedrosoi_CBS271.37_T,ERR1924357.18372390,100.00,30,0,0,1,30,112,83,3e-05,56.5
Fonsecaea_pedrosoi_CBS271.37_T,ERR1924357.17390286,100.00,30,0,0,1,30,41,12,3e-05,56.5
Fonsecaea_pedrosoi_CBS271.37_T,ERR1924357.17390286,100.00,28,0,0,1,28,213,240,4e-04,52.8
Fonsecaea_pedrosoi_CBS271.37_T,ERR1924357.14499594,100.00,30,0,0,1,30,6,35,3e-05,56.5
Fonsecaea_pedrosoi_CBS271.37_T,ERR1924357.8184174,100.00,30,0,0,1,30,233,204,3e-05,56.5
Fonsecaea_pedrosoi_CBS271.37_T,ERR1924357.7177643,100.00,30,0,0,1,30,185,156,3e-05,56.5
Fonsecaea_pedrosoi_CBS271.37_T,ERR1924357.6984648,100.00,30,0,0,1,30,88,59,3e-05,56.5
Fonsecaea_pedrosoi_CBS271.37_T,ERR1924357.6236641,100.00,30,0,0,1,30,84,113,3e-05,56.5
Fonsecaea_pedrosoi_CBS271.37_T,ERR1924357.4528436,100.00,30,0,0,1,30,27,56,3e-05,56.5
Fonsecaea_pedrosoi_CBS271.37_T,ERR1924357.4384858,100.00,30,0,0,1,30,63,92,3e-05,56.5
Fonsecaea_pedrosoi_CBS271.37_T,ERR1924357.1676293,100.00,30,0,0,1,30,143,114,3e-05,56.5
Cladophialophora_australiensis_CBS112793,ERR1924357.15463604,95.00,120,6,0,1352,1471,1,120,6e-45,189
Cladophialophora_australiensis_CBS112793,ERR1924357.12396930,95.00,120,6,0,1351,1470,120,1,6e-45,189
Cladophialophora_australiensis_CBS112793,ERR1924357.12396930,93.10,87,6,0,1319,1405,154,240,1e-26,128
Cladophialophora_australiensis_CBS112793,ERR1924357.9712874,93.10,87,6,0,1319,1405,96,10,1e-26,128
Cladophialophora_australiensis_CBS112793,ERR1924357.3216815,93.10,87,6,0,1319,1405,189,103,1e-26,128
Cladophialophora_australiensis_CBS112793,ERR1924357.13570623,95.00,80,4,0,1326,1405,123,202,5e-26,126
Cladophialophora_australiensis_CBS112793,ERR1924357.13570623,98.33,60,1,0,1412,1471,120,61,6e-20,106
Cladophialophora_australiensis_CBS112793,ERR1924357.18442372,97.96,49,1,0,1423,1471,1,49,8e-14,86.1
Cladophialophora_potulentorum_CBS112222,ERR1924357.15463604,95.00,120,6,0,1354,1473,1,120,6e-45,189
Cladophialophora_potulentorum_CBS112222,ERR1924357.12396930,95.00,120,6,0,1353,1472,120,1,6e-45,189
Cladophialophora_potulentorum_CBS112222,ERR1924357.12396930,93.10,87,6,0,1321,1407,154,240,1e-26,128
Cladophialophora_potulentorum_CBS112222,ERR1924357.9712874,93.10,87,6,0,1321,1407,96,10,1e-26,128
Cladophialophora_potulentorum_CBS112222,ERR1924357.3216815,93.10,87,6,0,1321,1407,189,103,1e-26,128
Cladophialophora_potulentorum_CBS112222,ERR1924357.13570623,95.00,80,4,0,1328,1407,123,202,5e-26,126
Cladophialophora_potulentorum_CBS112222,ERR1924357.13570623,96.05,76,2,1,1414,1488,120,45,6e-25,122
Cladophialophora_potulentorum_CBS112222,ERR1924357.18442372,95.38,65,2,1,1425,1488,1,65,8e-19,102
Cladophialophora_chaetospira_CBS127573,ERR1924357.19107013,100.00,31,0,0,379,409,194,224,1e-05,58.4
Cladophialophora_chaetospira_CBS127573,ERR1924357.19053417,100.00,31,0,0,379,409,155,125,1e-05,58.4
Cladophialophora_chaetospira_CBS127573,ERR1924357.18372390,100.00,31,0,0,379,409,113,83,1e-05,58.4
Cladophialophora_chaetospira_CBS127573,ERR1924357.17390286,100.00,31,0,0,379,409,42,12,1e-05,58.4
Cladophialophora_chaetospira_CBS127573,ERR1924357.17390286,100.00,29,0,0,379,407,212,240,1e-04,54.7
Cladophialophora_chaetospira_CBS127573,ERR1924357.14499594,100.00,31,0,0,379,409,5,35,1e-05,58.4
Cladophialophora_chaetospira_CBS127573,ERR1924357.8184174,100.00,31,0,0,379,409,234,204,1e-05,58.4
Cladophialophora_chaetospira_CBS127573,ERR1924357.7177643,100.00,31,0,0,379,409,186,156,1e-05,58.4
Cladophialophora_chaetospira_CBS127573,ERR1924357.6984648,100.00,31,0,0,379,409,89,59,1e-05,58.4
Cladophialophora_chaetospira_CBS127573,ERR1924357.6236641,100.00,31,0,0,379,409,83,113,1e-05,58.4
Cladophialophora_chaetospira_CBS127573,ERR1924357.4528436,100.00,31,0,0,379,409,26,56,1e-05,58.4
Cladophialophora_chaetospira_CBS127573,ERR1924357.4384858,100.00,31,0,0,379,409,62,92,1e-05,58.4
Cladophialophora_chaetospira_CBS127573,ERR1924357.1676293,100.00,31,0,0,379,409,144,114,1e-05,58.4
Phialophora_americana_CBS400.67,ERR1924357.12396930,93.10,87,6,0,1313,1399,154,240,1e-26,128
Phialophora_americana_CBS400.67,ERR1924357.9712874,93.10,87,6,0,1313,1399,96,10,1e-26,128
Phialophora_americana_CBS400.67,ERR1924357.3216815,93.10,87,6,0,1313,1399,189,103,1e-26,128
Phialophora_americana_CBS400.67,ERR1924357.13570623,95.00,80,4,0,1320,1399,123,202,5e-26,126
Cyphellophora_laciniata_CBS190.61_T,ERR1924357.19053417,90.36,83,6,2,21,102,204,123,9e-21,108
Cyphellophora_laciniata_CBS190.61_T,ERR1924357.19053417,83.53,85,9,5,21,103,57,138,9e-11,75.0
Cyphellophora_laciniata_CBS190.61_T,ERR1924357.4384858,90.36,83,6,2,21,102,13,94,9e-21,108
Cyphellophora_laciniata_CBS190.61_T,ERR1924357.19107013,89.16,83,7,2,21,102,145,226,4e-19,102
Cyphellophora_laciniata_CBS190.61_T,ERR1924357.19107013,100.00,28,0,0,75,102,120,93,4e-04,52.8
Cyphellophora_laciniata_CBS190.61_T,ERR1924357.17390286,89.16,83,7,2,21,102,91,10,4e-19,102
Cyphellophora_laciniata_CBS190.61_T,ERR1924357.17390286,88.61,79,7,2,21,98,163,240,7e-17,95.3
Cyphellophora_laciniata_CBS190.61_T,ERR1924357.6236641,89.16,83,7,2,21,102,34,115,4e-19,102
Cyphellophora_laciniata_CBS190.61_T,ERR1924357.1676293,89.16,83,7,2,21,102,193,112,4e-19,102
Cyphellophora_laciniata_CBS190.61_T,ERR1924357.7177643,93.85,65,4,0,38,102,218,154,5e-18,99.0
Cyphellophora_laciniata_CBS190.61_T,ERR1924357.6984648,93.75,64,4,0,39,102,120,57,2e-17,97.1
Cyphellophora_laciniata_CBS190.61_T,ERR1924357.4528436,94.83,58,3,0,45,102,1,58,9e-16,91.6
Cyphellophora_laciniata_CBS190.61_T,ERR1924357.18372390,100.00,41,0,0,62,102,121,81,2e-11,76.8
Cyphellophora_laciniata_CBS190.61_T,ERR1924357.8184174,100.00,39,0,0,64,102,240,202,3e-10,73.1
Cyphellophora_laciniata_CBS190.61_T,ERR1924357.14499594,100.00,37,0,0,66,102,1,37,4e-09,69.4
