Exophiala_nigra_CBS535.94_T,SRR9328335.70630,83.54,79,12,1,287,365,1,78,3e-12,73.1
Exophiala_spinifera_CBS899.68_T,SRR9328335.70630,83.54,79,12,1,284,362,1,78,3e-12,73.1
Exophiala_exophialae_CBS668.76_T,SRR9328335.70630,83.54,79,12,1,285,363,1,78,3e-12,73.1
Exophiala_polymorpha_CBS138920_T,SRR9328335.70630,83.54,79,12,1,387,465,1,78,3e-12,73.1
Exophiala_oligosperma_CBS725.88_T,SRR9328335.70630,83.54,79,12,1,297,375,1,78,3e-12,73.1
Exophiala_jeanselmei_CBS507.90_T,SRR9328335.70630,83.54,79,12,1,289,367,1,78,3e-12,73.1
Exophiala_bergeri_CBS353.52,SRR9328335.70630,83.54,79,12,1,250,328,1,78,2e-12,73.1
Exophiala_moniliae_CBS520.76_T,SRR9328335.70630,83.56,73,11,1,287,359,1,72,1e-10,67.6
Exophiala_pisciphila_CBS537.73_T,SRR9328335.70630,83.56,73,11,1,290,362,1,72,1e-10,67.6
Exophiala_pisciphila_CBS537.73_T,SRR9328335.12919,97.44,39,0,1,545,583,187,224,5e-10,65.8
Exophiala_pisciphila_CBS537.73_T,SRR9328335.12919,97.44,39,0,1,545,583,276,239,5e-10,65.8
Exophiala_pisciphila_CBS537.73_T,SRR9328335.12217,97.37,38,0,1,545,582,186,222,2e-09,63.9
Exophiala_pisciphila_CBS537.73_T,SRR9328335.12217,97.37,38,0,1,545,582,275,239,2e-09,63.9
Exophiala_pisciphila_CBS537.73_T,SRR9328335.88574,95.00,40,1,1,543,582,183,221,7e-09,62.1
Exophiala_pisciphila_CBS537.73_T,SRR9328335.88574,95.00,40,1,1,543,582,276,238,7e-09,62.1
Exophiala_pisciphila_CBS537.73_T,SRR9328335.70674,95.00,40,1,1,543,582,183,221,7e-09,62.1
Exophiala_pisciphila_CBS537.73_T,SRR9328335.70674,95.00,40,1,1,543,582,276,238,7e-09,62.1
Exophiala_pisciphila_CBS537.73_T,SRR9328335.70673,95.00,40,1,1,543,582,183,221,7e-09,62.1
Exophiala_pisciphila_CBS537.73_T,SRR9328335.70673,95.00,40,1,1,543,582,276,238,7e-09,62.1
Exophiala_xenobiotica_CBS117642,SRR9328335.70630,83.54,79,12,1,282,360,1,78,3e-12,73.1
Exophiala_brunnea_CBS,SRR9328335.70630,84.93,73,10,1,318,390,1,72,3e-12,73.1
Exophiala_nishimurae_CBS101538_T,SRR9328335.70630,83.54,79,12,1,296,374,1,78,3e-12,73.1
Exophiala_mesophila_CBS402.95_T,SRR9328335.70630,84.93,73,10,1,280,352,1,72,3e-12,73.1
Exophiala_castellanii_CBS158.58_T,SRR9328335.70630,84.93,73,10,1,278,350,1,72,3e-12,73.1
Exophiala_lecanii-corni_CBS123.33_T,SRR9328335.70630,84.93,73,10,1,301,373,1,72,3e-12,73.1
Exophiala_dermatitidis_CBS748.88,SRR9328335.88321,94.19,155,9,0,1350,1504,83,237,3e-61,237
Exophiala_dermatitidis_CBS748.88,SRR9328335.88321,94.08,152,9,0,1353,1504,550,399,1e-59,231
Exophiala_dermatitidis_CBS748.88,SRR9328335.45177,86.96,138,18,0,1350,1487,83,220,7e-37,156
Exophiala_dermatitidis_CBS748.88,SRR9328335.70630,83.56,73,11,1,293,365,1,72,3e-10,67.6
Exophiala_angulospora_CBS482.92_T,SRR9328335.70630,83.56,73,11,1,284,356,1,72,1e-10,67.6
Exophiala_opportunistica_CBS109811_T,SRR9328335.70630,83.56,73,11,1,283,355,1,72,1e-10,67.6
Exophiala_salmonis_CBS157.67_T,SRR9328335.70630,83.56,73,11,1,412,484,1,72,2e-10,67.6
Exophiala_salmonis_CBS157.67_T,SRR9328335.12919,97.44,39,0,1,665,703,187,224,6e-10,65.8
Exophiala_salmonis_CBS157.67_T,SRR9328335.12919,97.44,39,0,1,665,703,276,239,6e-10,65.8
Exophiala_salmonis_CBS157.67_T,SRR9328335.12217,97.37,38,0,1,665,702,186,222,2e-09,63.9
Exophiala_salmonis_CBS157.67_T,SRR9328335.12217,97.37,38,0,1,665,702,275,239,2e-09,63.9
Exophiala_salmonis_CBS157.67_T,SRR9328335.88574,95.00,40,1,1,663,702,183,221,8e-09,62.1
Exophiala_salmonis_CBS157.67_T,SRR9328335.88574,95.00,40,1,1,663,702,276,238,8e-09,62.1
Exophiala_salmonis_CBS157.67_T,SRR9328335.70674,95.00,40,1,1,663,702,183,221,8e-09,62.1
Exophiala_salmonis_CBS157.67_T,SRR9328335.70674,95.00,40,1,1,663,702,276,238,8e-09,62.1
Exophiala_salmonis_CBS157.67_T,SRR9328335.70673,95.00,40,1,1,663,702,183,221,8e-09,62.1
Exophiala_salmonis_CBS157.67_T,SRR9328335.70673,95.00,40,1,1,663,702,276,238,8e-09,62.1
Exophiala_aquamarina_CBS119918_T,SRR9328335.70630,83.56,73,11,1,290,362,1,72,1e-10,67.6
Exophiala_cancerae_CBS120420_T,SRR9328335.70630,83.56,73,11,1,305,377,1,72,1e-10,67.6
Exophiala_cancerae_CBS120420_T,SRR9328335.12919,95.00,40,0,1,555,594,187,224,7e-09,62.1
Exophiala_cancerae_CBS120420_T,SRR9328335.12919,95.00,40,0,1,555,594,276,239,7e-09,62.1
Exophiala_cancerae_CBS120420_T,SRR9328335.12217,94.87,39,0,1,555,593,186,222,2e-08,60.2
Exophiala_cancerae_CBS120420_T,SRR9328335.12217,94.87,39,0,1,555,593,275,239,2e-08,60.2
Exophiala_cancerae_CBS120420_T,SRR9328335.88574,94.59,37,2,0,557,593,185,221,9e-08,58.4
Exophiala_cancerae_CBS120420_T,SRR9328335.88574,94.59,37,2,0,557,593,274,238,9e-08,58.4
Exophiala_cancerae_CBS120420_T,SRR9328335.70674,94.59,37,2,0,557,593,185,221,9e-08,58.4
Exophiala_cancerae_CBS120420_T,SRR9328335.70674,94.59,37,2,0,557,593,274,238,9e-08,58.4
Exophiala_cancerae_CBS120420_T,SRR9328335.70673,94.59,37,2,0,557,593,185,221,9e-08,58.4
Exophiala_cancerae_CBS120420_T,SRR9328335.70673,94.59,37,2,0,557,593,274,238,9e-08,58.4
Exophiala_tremulae_CBS129355,SRR9328335.70630,83.56,73,11,1,317,389,1,72,1e-10,67.6
Exophiala_tremulae_CBS129355,SRR9328335.12919,97.44,39,0,1,571,609,187,224,5e-10,65.8
Exophiala_tremulae_CBS129355,SRR9328335.12919,97.44,39,0,1,571,609,276,239,5e-10,65.8
Exophiala_tremulae_CBS129355,SRR9328335.12217,97.37,38,0,1,571,608,186,222,2e-09,63.9
Exophiala_tremulae_CBS129355,SRR9328335.12217,97.37,38,0,1,571,608,275,239,2e-09,63.9
Exophiala_tremulae_CBS129355,SRR9328335.88574,95.00,40,1,1,569,608,183,221,7e-09,62.1
Exophiala_tremulae_CBS129355,SRR9328335.88574,95.00,40,1,1,569,608,276,238,7e-09,62.1
Exophiala_tremulae_CBS129355,SRR9328335.70674,95.00,40,1,1,569,608,183,221,7e-09,62.1
Exophiala_tremulae_CBS129355,SRR9328335.70674,95.00,40,1,1,569,608,276,238,7e-09,62.1
Exophiala_tremulae_CBS129355,SRR9328335.70673,95.00,40,1,1,569,608,183,221,7e-09,62.1
Exophiala_tremulae_CBS129355,SRR9328335.70673,95.00,40,1,1,569,608,276,238,7e-09,62.1
Exophiala_equina_CBS116009,SRR9328335.70630,83.56,73,11,1,283,355,1,72,1e-10,67.6
Exophiala_alcalophila_CBS520.82_T,SRR9328335.70630,83.56,73,11,1,294,366,1,72,1e-10,67.6
Exophiala_crusticola_CBS119970_T,SRR9328335.70630,83.56,73,11,1,299,371,1,72,1e-10,67.6
Rhinocladiella_atrovirens_CBS264.49,SRR9328335.70630,84.93,73,10,1,325,397,1,72,3e-12,73.1
Rhinocladiella_atrovirens_CBS264.49,SRR9328335.88574,97.30,37,0,1,571,607,186,221,7e-09,62.1
Rhinocladiella_atrovirens_CBS264.49,SRR9328335.88574,97.30,37,0,1,571,607,273,238,7e-09,62.1
Rhinocladiella_atrovirens_CBS264.49,SRR9328335.70674,97.30,37,0,1,571,607,186,221,7e-09,62.1
Rhinocladiella_atrovirens_CBS264.49,SRR9328335.70674,97.30,37,0,1,571,607,273,238,7e-09,62.1
Rhinocladiella_atrovirens_CBS264.49,SRR9328335.70673,97.30,37,0,1,571,607,186,221,7e-09,62.1
Rhinocladiella_atrovirens_CBS264.49,SRR9328335.70673,97.30,37,0,1,571,607,273,238,7e-09,62.1
Rhinocladiella_atrovirens_CBS264.49,SRR9328335.12919,97.30,37,0,1,572,608,189,224,7e-09,62.1
Rhinocladiella_atrovirens_CBS264.49,SRR9328335.12919,97.30,37,0,1,572,608,274,239,7e-09,62.1
Rhinocladiella_atrovirens_CBS264.49,SRR9328335.12217,97.22,36,0,1,572,607,188,222,2e-08,60.2
Rhinocladiella_atrovirens_CBS264.49,SRR9328335.12217,97.22,36,0,1,572,607,273,239,2e-08,60.2
Rhinocladiella_basitona_CBS101460_T,SRR9328335.70630,83.54,79,12,1,284,362,1,78,3e-12,73.1
Rhinocladiella_phaeophora_CBS496.78_T,SRR9328335.70630,83.56,73,11,1,292,364,1,72,1e-10,67.6
Rhinocladiella_aquaspersa_CBS313.73_T,SRR9328335.70630,83.56,73,11,1,286,358,1,72,1e-10,67.6
Rhinocladiella_fasciculata_CBS132.86_T,SRR9328335.70630,82.19,73,12,1,302,374,1,72,6e-09,62.1
Rhinocladiella_anceps_CBS181.65_T,SRR9328335.70630,84.93,73,10,1,284,356,1,72,3e-12,73.1
Rhinocladiella_mackenziei_CBS367.92,SRR9328335.70630,83.56,73,11,1,273,345,1,72,1e-10,67.6
Rhinocladiella_mackenziei_CBS367.92,SRR9328335.12919,100.00,30,0,0,566,595,195,224,3e-07,56.5
Rhinocladiella_mackenziei_CBS367.92,SRR9328335.12919,100.00,30,0,0,566,595,268,239,3e-07,56.5
Rhinocladiella_mackenziei_CBS367.92,SRR9328335.88574,100.00,29,0,0,566,594,193,221,1e-06,54.7
Rhinocladiella_mackenziei_CBS367.92,SRR9328335.88574,100.00,29,0,0,566,594,266,238,1e-06,54.7
Rhinocladiella_mackenziei_CBS367.92,SRR9328335.70674,100.00,29,0,0,566,594,193,221,1e-06,54.7
Rhinocladiella_mackenziei_CBS367.92,SRR9328335.70674,100.00,29,0,0,566,594,266,238,1e-06,54.7
Rhinocladiella_mackenziei_CBS367.92,SRR9328335.70673,100.00,29,0,0,566,594,193,221,1e-06,54.7
Rhinocladiella_mackenziei_CBS367.92,SRR9328335.70673,100.00,29,0,0,566,594,266,238,1e-06,54.7
Rhinocladiella_mackenziei_CBS367.92,SRR9328335.12217,100.00,29,0,0,566,594,194,222,1e-06,54.7
Rhinocladiella_mackenziei_CBS367.92,SRR9328335.12217,100.00,29,0,0,566,594,267,239,1e-06,54.7
Veronaea_compacta_CBS268.75_T,SRR9328335.70630,84.93,73,10,1,306,378,1,72,3e-12,73.1
Capronia_pilosella_AFTOL-ID657,SRR9328335.70630,83.56,73,11,1,384,456,1,72,2e-10,67.6
Capronia_dactylotricha_DAOM208471_T,SRR9328335.70630,83.56,73,11,1,286,358,1,72,2e-10,67.6
Capronia_dactylotricha_DAOM208471_T,SRR9328335.12919,100.00,31,0,0,558,588,194,224,9e-08,58.4
Capronia_dactylotricha_DAOM208471_T,SRR9328335.12919,100.00,31,0,0,558,588,269,239,9e-08,58.4
Capronia_dactylotricha_DAOM208471_T,SRR9328335.88574,100.00,30,0,0,558,587,192,221,3e-07,56.5
Capronia_dactylotricha_DAOM208471_T,SRR9328335.88574,100.00,30,0,0,558,587,267,238,3e-07,56.5
Capronia_dactylotricha_DAOM208471_T,SRR9328335.70674,100.00,30,0,0,558,587,192,221,3e-07,56.5
Capronia_dactylotricha_DAOM208471_T,SRR9328335.70674,100.00,30,0,0,558,587,267,238,3e-07,56.5
Capronia_dactylotricha_DAOM208471_T,SRR9328335.70673,100.00,30,0,0,558,587,192,221,3e-07,56.5
Capronia_dactylotricha_DAOM208471_T,SRR9328335.70673,100.00,30,0,0,558,587,267,238,3e-07,56.5
Capronia_dactylotricha_DAOM208471_T,SRR9328335.12217,100.00,30,0,0,558,587,193,222,3e-07,56.5
Capronia_dactylotricha_DAOM208471_T,SRR9328335.12217,100.00,30,0,0,558,587,268,239,3e-07,56.5
Capronia_kleinmondensis_CBS122671_T,SRR9328335.70630,84.93,73,10,1,311,383,1,72,3e-12,73.1
Capronia_kleinmondensis_CBS122671_T,SRR9328335.88574,97.44,39,1,0,555,593,183,221,2e-10,67.6
Capronia_kleinmondensis_CBS122671_T,SRR9328335.88574,97.44,39,1,0,555,593,276,238,2e-10,67.6
Capronia_kleinmondensis_CBS122671_T,SRR9328335.70674,97.44,39,1,0,555,593,183,221,2e-10,67.6
Capronia_kleinmondensis_CBS122671_T,SRR9328335.70674,97.44,39,1,0,555,593,276,238,2e-10,67.6
Capronia_kleinmondensis_CBS122671_T,SRR9328335.70673,97.44,39,1,0,555,593,183,221,2e-10,67.6
Capronia_kleinmondensis_CBS122671_T,SRR9328335.70673,97.44,39,1,0,555,593,276,238,2e-10,67.6
Capronia_kleinmondensis_CBS122671_T,SRR9328335.12919,95.12,41,1,1,555,594,184,224,2e-09,63.9
Capronia_kleinmondensis_CBS122671_T,SRR9328335.12919,95.12,41,1,1,555,594,279,239,2e-09,63.9
Capronia_kleinmondensis_CBS122671_T,SRR9328335.12217,95.00,40,1,1,555,593,183,222,7e-09,62.1
Capronia_kleinmondensis_CBS122671_T,SRR9328335.12217,95.00,40,1,1,555,593,278,239,7e-09,62.1
Capronia_mansonii_CBS101.67_T,SRR9328335.70630,83.56,73,11,1,297,369,1,72,2e-10,67.6
Capronia_munkii_DAOM216390_T,SRR9328335.70630,83.56,73,11,1,297,369,1,72,2e-10,67.6
Capronia_coronata_ATCC56201_T,SRR9328335.70630,83.56,73,11,1,285,357,1,72,1e-10,67.6
Capronia_parasitica_CBS123.88,SRR9328335.70630,83.56,73,11,1,291,363,1,72,1e-10,67.6
Capronia_parasitica_CBS123.88,SRR9328335.88574,94.59,37,2,0,553,589,185,221,8e-08,58.4
Capronia_parasitica_CBS123.88,SRR9328335.88574,94.59,37,2,0,553,589,274,238,8e-08,58.4
Capronia_parasitica_CBS123.88,SRR9328335.70674,94.59,37,2,0,553,589,185,221,8e-08,58.4
Capronia_parasitica_CBS123.88,SRR9328335.70674,94.59,37,2,0,553,589,274,238,8e-08,58.4
Capronia_parasitica_CBS123.88,SRR9328335.70673,94.59,37,2,0,553,589,185,221,8e-08,58.4
Capronia_parasitica_CBS123.88,SRR9328335.70673,94.59,37,2,0,553,589,274,238,8e-08,58.4
Capronia_parasitica_CBS123.88,SRR9328335.12919,100.00,31,0,0,560,590,194,224,8e-08,58.4
Capronia_parasitica_CBS123.88,SRR9328335.12919,100.00,31,0,0,560,590,269,239,8e-08,58.4
Capronia_parasitica_CBS123.88,SRR9328335.12217,100.00,30,0,0,560,589,193,222,3e-07,56.5
Capronia_parasitica_CBS123.88,SRR9328335.12217,100.00,30,0,0,560,589,268,239,3e-07,56.5
Veronaea_japonica_CBS776.83_T,SRR9328335.70630,83.56,73,11,1,319,391,1,72,1e-10,67.6
Thysanorea_papuana_CBS212.96_T,SRR9328335.70630,83.56,73,11,1,293,365,1,72,1e-10,67.6
Capronia_acutiseta_ATCC56428_T,SRR9328335.70630,83.56,73,11,1,286,358,1,72,1e-10,67.6
Capronia_acutiseta_ATCC56428_T,SRR9328335.88574,94.87,39,1,1,529,567,184,221,2e-08,60.2
Capronia_acutiseta_ATCC56428_T,SRR9328335.88574,94.87,39,1,1,529,567,275,238,2e-08,60.2
Capronia_acutiseta_ATCC56428_T,SRR9328335.70674,94.87,39,1,1,529,567,184,221,2e-08,60.2
Capronia_acutiseta_ATCC56428_T,SRR9328335.70674,94.87,39,1,1,529,567,275,238,2e-08,60.2
Capronia_acutiseta_ATCC56428_T,SRR9328335.70673,94.87,39,1,1,529,567,184,221,2e-08,60.2
Capronia_acutiseta_ATCC56428_T,SRR9328335.70673,94.87,39,1,1,529,567,275,238,2e-08,60.2
Capronia_acutiseta_ATCC56428_T,SRR9328335.12919,100.00,31,0,0,538,568,194,224,9e-08,58.4
Capronia_acutiseta_ATCC56428_T,SRR9328335.12919,100.00,31,0,0,538,568,269,239,9e-08,58.4
Capronia_acutiseta_ATCC56428_T,SRR9328335.12217,100.00,30,0,0,538,567,193,222,3e-07,56.5
Capronia_acutiseta_ATCC56428_T,SRR9328335.12217,100.00,30,0,0,538,567,268,239,3e-07,56.5
Fonsecaea_brasiliensis_CBS119710_T,SRR9328335.70630,83.56,73,11,1,293,365,1,72,1e-10,67.6
Fonsecaea_pedrosoi_CBS271.37_T,SRR9328335.70630,83.56,73,11,1,321,393,1,72,1e-10,67.6
Fonsecaea_multimorphosa_CBS980.96_T,SRR9328335.70630,83.56,73,11,1,291,363,1,72,1e-10,67.6
Fonsecaea_minima_CBS125760_T,SRR9328335.70630,83.56,73,11,1,287,359,1,72,1e-10,67.6
Fonsecaea_nubica_CBS269.64_T,SRR9328335.70630,83.56,73,11,1,298,370,1,72,1e-10,67.6
Fonsecaea_monophora_CBS269.37_T,SRR9328335.70630,83.56,73,11,1,299,371,1,72,1e-10,67.6
Fonsecaea_erecta_CBS125763_T,SRR9328335.70630,83.56,73,11,1,282,354,1,72,1e-10,67.6
Fonsecaea_pugnacius_CBS139214_T,SRR9328335.70630,83.56,73,11,1,291,363,1,72,1e-10,67.6
Cladophialophora_psammophila_CBS,SRR9328335.70630,83.56,73,11,1,297,369,1,72,1e-10,67.6
Cladophialophora_devriesii_CBS,SRR9328335.70630,83.56,73,11,1,293,365,1,72,1e-10,67.6
Cladophialophora_immunda_CBS834.96,SRR9328335.70630,83.56,73,11,1,295,367,1,72,1e-10,67.6
Cladophialophora_arxii_CBS306.94_T,SRR9328335.70630,83.56,73,11,1,297,369,1,72,1e-10,67.6
Cladophialophora_bantiana_CBS173.52,SRR9328335.70630,83.56,73,11,1,291,363,1,72,1e-10,67.6
Cladophialophora_emmonsii_CBS102594,SRR9328335.70630,83.56,73,11,1,282,354,1,72,1e-10,67.6
Cladophialophora_minourae_CBS556.83,SRR9328335.70630,97.06,34,0,1,290,323,1,33,3e-07,56.5
Cladophialophora_australiensis_CBS112793,SRR9328335.88321,94.19,155,9,0,1317,1471,83,237,2e-61,237
Cladophialophora_australiensis_CBS112793,SRR9328335.88321,94.08,152,9,0,1320,1471,550,399,1e-59,231
Cladophialophora_australiensis_CBS112793,SRR9328335.45177,86.96,138,18,0,1317,1454,83,220,7e-37,156
Cladophialophora_australiensis_CBS112793,SRR9328335.70630,82.19,73,12,1,292,364,1,72,2e-08,62.1
Cladophialophora_potulentorum_CBS112222,SRR9328335.88321,94.12,170,10,0,1319,1488,83,252,5e-68,259
Cladophialophora_potulentorum_CBS112222,SRR9328335.88321,94.01,167,10,0,1322,1488,550,384,2e-66,254
Cladophialophora_potulentorum_CBS112222,SRR9328335.45177,86.96,138,18,0,1319,1456,83,220,7e-37,156
Cladophialophora_potulentorum_CBS112222,SRR9328335.70630,83.56,73,11,1,291,363,1,72,3e-10,67.6
Cladophialophora_matsushimae_CMRP1198,SRR9328335.70630,84.93,73,10,1,295,367,1,72,2e-12,73.1
Cladophialophora_mycetomatis_CBS122637,SRR9328335.70630,84.93,73,10,1,280,352,1,72,3e-12,73.1
Cladophialophora_chaetospira_CBS127573,SRR9328335.70630,83.56,73,11,1,686,758,1,72,2e-10,67.6
Cladophialophora_boppii_CBS126.86_T,SRR9328335.70630,83.56,73,11,1,288,360,1,72,1e-10,67.6
Cladophialophora_abundans_CBS126736,SRR9328335.70630,84.93,73,10,1,225,297,1,72,2e-12,73.1
Capronia_semi-immersa_CBS102234,SRR9328335.70630,97.06,34,0,1,287,320,1,33,3e-07,56.5
Phialophora_americana_CBS400.67,SRR9328335.88321,93.33,135,9,0,1311,1445,83,217,3e-50,200
Phialophora_americana_CBS400.67,SRR9328335.88321,93.18,132,9,0,1314,1445,550,419,1e-48,195
Phialophora_americana_CBS400.67,SRR9328335.45177,86.67,135,18,0,1311,1445,83,217,3e-35,150
Phialophora_americana_CBS400.67,SRR9328335.70630,97.06,34,0,1,289,322,1,33,7e-07,56.5
Phialophora_verrucosa_CBS140325_T,SRR9328335.70630,97.06,34,0,1,293,326,1,33,3e-07,56.5
Cladophialophora_samoensis_CBS259.83_T,SRR9328335.70630,84.93,73,10,1,293,365,1,72,3e-12,73.1
Cladophialophora_carrionii_CBS260.83,SRR9328335.70630,82.19,73,12,1,309,381,1,72,6e-09,62.1
Exophiala_palmae_UPCB86822_T,SRR9328335.70630,83.56,73,11,1,252,324,1,72,1e-10,67.6
Cladophialophora_yegresii_CBS114405_T,SRR9328335.70630,82.19,73,12,1,294,366,1,72,6e-09,62.1
Knufia_epidermidis_CBS120353_T,SRR9328335.70630,86.30,73,9,1,292,364,1,72,6e-14,78.7
Arthrocladium_fulminans_CBS136243_T,SRR9328335.70630,84.93,73,10,1,287,359,1,72,3e-12,73.1
Cyphellophora_laciniata_CBS190.61_T,SRR9328335.70630,86.30,73,9,1,379,451,1,72,8e-14,78.7
Cyphellophora_laciniata_CBS190.61_T,SRR9328335.12919,90.70,43,3,1,424,465,5,47,4e-07,56.5
Cyphellophora_laciniata_CBS190.61_T,SRR9328335.12919,90.70,43,3,1,424,465,458,416,4e-07,56.5
Cyphellophora_suttonii_CBS449.91,SRR9328335.70630,86.30,73,9,1,282,354,1,72,6e-14,78.7
Cyphellophora_suttonii_CBS449.91,SRR9328335.12919,90.70,43,3,1,327,368,5,47,3e-07,56.5
Cyphellophora_suttonii_CBS449.91,SRR9328335.12919,90.70,43,3,1,327,368,458,416,3e-07,56.5
Cyphellophora_pauciseptata_CBS284.85_T,SRR9328335.70630,86.30,73,9,1,293,365,1,72,6e-14,78.7
Cyphellophora_pauciseptata_CBS284.85_T,SRR9328335.12919,90.70,43,3,1,338,379,5,47,3e-07,56.5
Cyphellophora_pauciseptata_CBS284.85_T,SRR9328335.12919,90.70,43,3,1,338,379,458,416,3e-07,56.5
Cyphellophora_pluriseptata_CBS286.85_T,SRR9328335.70630,86.30,73,9,1,298,370,1,72,6e-14,78.7
Phialophora_europaea_CBS101466,SRR9328335.70630,86.30,73,9,1,288,360,1,72,6e-14,78.7
Phialophora_ambigua_CBS235.93,SRR9328335.70630,86.30,73,9,1,285,357,1,72,6e-14,78.7
Cladophialophora_modesta_CBS985.96_T,SRR9328335.70630,83.56,73,11,1,284,356,1,72,1e-10,67.6
Cyphellophora_fusarioides_MUCL44033_T,SRR9328335.12919,90.70,43,3,1,326,367,5,47,3e-07,56.5
Cyphellophora_fusarioides_MUCL44033_T,SRR9328335.12919,90.70,43,3,1,326,367,458,416,3e-07,56.5
