Exophiala_nigra_CBS535.94_T,SRR9328366.38490,77.52,298,46,18,287,580,1,281,2e-39,163
Exophiala_spinifera_CBS899.68_T,SRR9328366.38490,79.90,199,29,8,284,481,1,189,4e-31,135
Exophiala_exophialae_CBS668.76_T,SRR9328366.38490,79.90,199,29,8,285,482,1,189,4e-31,135
Exophiala_polymorpha_CBS138920_T,SRR9328366.38490,77.74,310,47,15,387,694,1,290,1e-41,171
Exophiala_polymorpha_CBS138920_T,SRR9328366.38490,77.96,304,46,15,393,694,594,310,1e-41,171
Exophiala_oligosperma_CBS725.88_T,SRR9328366.38490,88.68,106,11,1,297,402,1,105,6e-29,128
Exophiala_jeanselmei_CBS507.90_T,SRR9328366.38490,79.25,318,44,17,289,604,1,298,4e-51,202
Exophiala_jeanselmei_CBS507.90_T,SRR9328366.38490,79.49,312,43,15,295,604,594,302,4e-51,202
Exophiala_bergeri_CBS353.52,SRR9328366.38490,79.00,200,30,10,250,448,1,189,2e-28,126
Exophiala_moniliae_CBS520.76_T,SRR9328366.38490,79.19,197,32,6,287,482,1,189,7e-29,128
Exophiala_pisciphila_CBS537.73_T,SRR9328366.38490,76.64,321,44,16,296,613,594,302,6e-35,148
Exophiala_pisciphila_CBS537.73_T,SRR9328366.38490,76.15,327,46,19,290,613,1,298,3e-33,143
Exophiala_pisciphila_CBS537.73_T,SRR9328366.95444,97.37,38,0,1,545,582,185,221,2e-09,63.9
Exophiala_xenobiotica_CBS117642,SRR9328366.38490,80.20,197,29,7,282,476,1,189,3e-32,139
Exophiala_brunnea_CBS,SRR9328366.38490,87.74,106,12,1,318,423,1,105,3e-27,122
Exophiala_nishimurae_CBS101538_T,SRR9328366.38490,77.18,298,46,18,296,591,1,278,1e-36,154
Exophiala_nishimurae_CBS101538_T,SRR9328366.38490,77.13,293,44,20,302,591,594,322,5e-35,148
Exophiala_mesophila_CBS402.95_T,SRR9328366.38490,100.00,68,0,0,543,610,369,302,3e-28,126
Exophiala_mesophila_CBS402.95_T,SRR9328366.38490,98.53,68,1,0,543,610,231,298,1e-26,121
Exophiala_mesophila_CBS402.95_T,SRR9328366.38490,90.59,85,7,1,280,364,1,84,8e-24,111
Exophiala_castellanii_CBS158.58_T,SRR9328366.38490,97.14,70,1,1,541,609,371,302,2e-25,117
Exophiala_castellanii_CBS158.58_T,SRR9328366.38490,90.59,85,7,1,278,362,1,84,8e-24,111
Exophiala_castellanii_CBS158.58_T,SRR9328366.38490,95.71,70,2,1,541,609,229,298,8e-24,111
Exophiala_lecanii-corni_CBS123.33_T,SRR9328366.38490,94.29,70,3,1,301,370,1,69,3e-22,106
Exophiala_dermatitidis_CBS748.88,SRR9328366.38490,79.63,216,30,9,293,506,1,204,6e-33,143
Exophiala_dermatitidis_CBS748.88,SRR9328366.38490,100.00,61,0,0,575,635,362,302,5e-24,113
Exophiala_dermatitidis_CBS748.88,SRR9328366.38490,98.36,61,1,0,575,635,238,298,2e-22,108
Exophiala_angulospora_CBS482.92_T,SRR9328366.38490,81.00,200,23,11,284,479,1,189,6e-34,145
Exophiala_opportunistica_CBS109811_T,SRR9328366.38490,89.72,107,8,3,283,388,1,105,1e-30,134
Exophiala_salmonis_CBS157.67_T,SRR9328366.38490,77.36,318,45,14,418,733,594,302,2e-39,163
Exophiala_salmonis_CBS157.67_T,SRR9328366.38490,76.85,324,47,15,412,733,1,298,1e-37,158
Exophiala_salmonis_CBS157.67_T,SRR9328366.95444,97.37,38,0,1,665,702,185,221,3e-09,63.9
Exophiala_aquamarina_CBS119918_T,SRR9328366.38490,88.79,107,10,2,290,396,1,105,2e-29,130
Exophiala_cancerae_CBS120420_T,SRR9328366.38490,78.12,320,37,20,311,624,594,302,3e-42,172
Exophiala_cancerae_CBS120420_T,SRR9328366.38490,77.61,326,39,21,305,624,1,298,2e-40,167
Exophiala_cancerae_CBS120420_T,SRR9328366.95444,94.87,39,0,1,555,593,185,221,3e-08,60.2
Exophiala_tremulae_CBS129355,SRR9328366.38490,75.80,314,45,19,317,627,1,286,2e-29,130
Exophiala_tremulae_CBS129355,SRR9328366.95444,97.37,38,0,1,571,608,185,221,2e-09,63.9
Exophiala_equina_CBS116009,SRR9328366.38490,88.68,106,11,1,283,388,1,105,7e-29,128
Exophiala_alcalophila_CBS520.82_T,SRR9328366.38490,79.80,203,23,15,294,492,1,189,5e-30,132
Exophiala_crusticola_CBS119970_T,SRR9328366.38490,87.74,106,11,2,299,404,1,104,3e-27,122
Rhinocladiella_atrovirens_CBS264.49,SRR9328366.38490,76.14,306,49,13,325,626,1,286,3e-32,139
Rhinocladiella_atrovirens_CBS264.49,SRR9328366.38490,76.33,300,48,16,331,626,594,314,3e-32,139
Rhinocladiella_atrovirens_CBS264.49,SRR9328366.95444,97.22,36,0,1,572,607,187,221,3e-08,60.2
Rhinocladiella_basitona_CBS101460_T,SRR9328366.38490,79.81,208,31,9,284,489,1,199,8e-33,141
Rhinocladiella_phaeophora_CBS496.78_T,SRR9328366.38490,89.72,107,8,3,292,398,1,104,1e-30,134
Rhinocladiella_aquaspersa_CBS313.73_T,SRR9328366.38490,91.18,102,7,2,292,393,594,495,1e-31,137
Rhinocladiella_aquaspersa_CBS313.73_T,SRR9328366.38490,89.81,108,8,3,286,393,1,105,5e-31,135
Rhinocladiella_fasciculata_CBS132.86_T,SRR9328366.38490,86.24,109,11,3,302,410,1,105,5e-25,115
Rhinocladiella_anceps_CBS181.65_T,SRR9328366.38490,86.79,106,12,2,284,389,1,104,1e-25,117
Rhinocladiella_mackenziei_CBS367.92,SRR9328366.38490,95.71,70,2,1,273,342,1,69,7e-24,111
Rhinocladiella_mackenziei_CBS367.92,SRR9328366.95444,100.00,29,0,0,566,594,193,221,1e-06,54.7
Veronaea_compacta_CBS268.75_T,SRR9328366.38490,87.85,107,11,2,306,412,1,105,9e-28,124
Capronia_pilosella_AFTOL-ID657,SRR9328366.38490,77.70,305,36,24,384,683,1,278,1e-37,158
Capronia_pilosella_AFTOL-ID657,SRR9328366.38490,78.07,301,31,26,390,683,594,322,1e-37,158
Capronia_dactylotricha_DAOM208471_T,SRR9328366.38490,85.71,112,12,3,286,397,1,108,6e-25,115
Capronia_dactylotricha_DAOM208471_T,SRR9328366.38490,98.39,62,1,0,557,618,363,302,3e-23,110
Capronia_dactylotricha_DAOM208471_T,SRR9328366.95444,100.00,30,0,0,558,587,192,221,4e-07,56.5
Capronia_kleinmondensis_CBS122671_T,SRR9328366.38490,76.60,312,50,16,317,624,594,302,2e-35,150
Capronia_kleinmondensis_CBS122671_T,SRR9328366.38490,76.10,318,52,14,311,624,1,298,8e-34,145
Capronia_kleinmondensis_CBS122671_T,SRR9328366.95444,95.00,40,1,1,555,593,182,221,8e-09,62.1
Capronia_mansonii_CBS101.67_T,SRR9328366.38490,81.04,211,31,8,297,505,1,204,3e-38,159
Capronia_mansonii_CBS101.67_T,SRR9328366.38490,97.06,68,2,0,561,628,369,302,6e-25,115
Capronia_mansonii_CBS101.67_T,SRR9328366.38490,95.59,68,3,0,561,628,231,298,3e-23,110
Capronia_munkii_DAOM216390_T,SRR9328366.38490,81.04,211,31,8,297,505,1,204,3e-38,159
Capronia_munkii_DAOM216390_T,SRR9328366.38490,98.53,68,1,0,561,628,369,302,1e-26,121
Capronia_munkii_DAOM216390_T,SRR9328366.38490,97.06,68,2,0,561,628,231,298,6e-25,115
Capronia_coronata_ATCC56201_T,SRR9328366.38490,78.78,311,46,17,291,599,594,302,9e-48,191
Capronia_coronata_ATCC56201_T,SRR9328366.38490,78.30,318,46,17,285,599,1,298,2e-45,183
Capronia_parasitica_CBS123.88,SRR9328366.38490,78.65,192,29,9,291,481,1,181,1e-25,117
Capronia_parasitica_CBS123.88,SRR9328366.95444,100.00,30,0,0,560,589,192,221,3e-07,56.5
Veronaea_japonica_CBS776.83_T,SRR9328366.38490,88.68,106,11,1,319,424,1,105,7e-29,128
Thysanorea_papuana_CBS212.96_T,SRR9328366.38490,87.72,114,11,3,293,404,1,113,2e-29,130
Capronia_acutiseta_ATCC56428_T,SRR9328366.38490,82.20,309,37,14,292,598,594,302,2e-65,250
Capronia_acutiseta_ATCC56428_T,SRR9328366.38490,81.59,315,39,16,286,598,1,298,3e-63,243
Capronia_acutiseta_ATCC56428_T,SRR9328366.95444,100.00,30,0,0,538,567,192,221,4e-07,56.5
Fonsecaea_brasiliensis_CBS119710_T,SRR9328366.38490,82.14,196,27,7,293,487,1,189,6e-39,161
Fonsecaea_pedrosoi_CBS271.37_T,SRR9328366.38490,77.47,324,37,21,327,645,594,302,7e-39,161
Fonsecaea_pedrosoi_CBS271.37_T,SRR9328366.38490,77.04,331,37,23,321,645,1,298,1e-36,154
Fonsecaea_multimorphosa_CBS980.96_T,SRR9328366.38490,80.35,229,32,13,291,515,1,220,6e-39,161
Fonsecaea_minima_CBS125760_T,SRR9328366.38490,81.09,201,26,7,287,487,1,189,1e-35,150
Fonsecaea_nubica_CBS269.64_T,SRR9328366.38490,80.10,206,22,13,298,501,1,189,4e-31,135
Fonsecaea_monophora_CBS269.37_T,SRR9328366.38490,89.81,108,8,3,299,406,1,105,4e-31,135
Fonsecaea_erecta_CBS125763_T,SRR9328366.38490,81.09,201,26,8,282,482,1,189,1e-35,150
Fonsecaea_pugnacius_CBS139214_T,SRR9328366.38490,80.19,207,21,13,291,495,1,189,1e-31,137
Cladophialophora_psammophila_CBS,SRR9328366.38490,90.65,107,8,2,297,403,1,105,8e-33,141
Cladophialophora_devriesii_CBS,SRR9328366.38490,80.70,228,32,11,293,514,1,222,1e-40,167
Cladophialophora_immunda_CBS834.96,SRR9328366.38490,81.66,229,31,10,295,519,1,222,2e-44,180
Cladophialophora_arxii_CBS306.94_T,SRR9328366.38490,88.99,109,8,4,297,405,1,105,5e-30,132
Cladophialophora_bantiana_CBS173.52,SRR9328366.38490,78.90,237,32,15,291,524,1,222,6e-34,145
Cladophialophora_emmonsii_CBS102594,SRR9328366.38490,79.90,204,24,12,282,483,1,189,1e-30,134
Cladophialophora_minourae_CBS556.83,SRR9328366.38490,81.31,198,27,10,290,486,1,189,1e-36,154
Cladophialophora_australiensis_CBS112793,SRR9328366.38490,78.16,316,39,21,298,606,594,302,2e-42,174
Cladophialophora_australiensis_CBS112793,SRR9328366.38490,77.64,322,41,20,292,606,1,298,4e-40,167
Cladophialophora_potulentorum_CBS112222,SRR9328366.38490,78.55,317,39,21,297,608,594,302,1e-44,182
Cladophialophora_potulentorum_CBS112222,SRR9328366.38490,78.02,323,41,20,291,608,1,298,6e-43,176
Cladophialophora_matsushimae_CMRP1198,SRR9328366.38490,81.62,185,27,7,295,478,1,179,2e-34,147
Cladophialophora_mycetomatis_CBS122637,SRR9328366.38490,80.50,200,31,7,280,477,1,194,2e-34,147
Cladophialophora_chaetospira_CBS127573,SRR9328366.38490,83.33,192,27,5,686,875,1,189,5e-42,172
Cladophialophora_boppii_CBS126.86_T,SRR9328366.38490,82.47,194,28,5,288,480,1,189,5e-40,165
Cladophialophora_abundans_CBS126736,SRR9328366.38490,80.00,200,32,8,225,422,1,194,7e-33,141
Capronia_semi-immersa_CBS102234,SRR9328366.38490,82.65,196,26,7,287,481,1,189,1e-40,167
Phialophora_americana_CBS400.67,SRR9328366.38490,79.74,311,40,14,295,600,594,302,3e-51,204
Phialophora_americana_CBS400.67,SRR9328366.38490,79.18,317,42,15,289,600,1,298,1e-49,198
Phialophora_verrucosa_CBS140325_T,SRR9328366.38490,78.52,298,40,16,293,586,1,278,9e-43,174
Phialophora_verrucosa_CBS140325_T,SRR9328366.38490,78.77,292,39,14,299,586,594,322,9e-43,174
Cladophialophora_samoensis_CBS259.83_T,SRR9328366.38490,88.68,106,9,3,293,397,1,104,2e-28,126
Cladophialophora_carrionii_CBS260.83,SRR9328366.38490,78.93,299,41,17,315,608,594,313,1e-45,183
Cladophialophora_carrionii_CBS260.83,SRR9328366.38490,78.55,303,44,12,309,607,1,286,2e-44,180
Exophiala_palmae_UPCB86822_T,SRR9328366.38490,79.47,190,26,8,252,440,1,178,3e-27,122
Cladophialophora_yegresii_CBS114405_T,SRR9328366.38490,81.63,196,28,7,294,488,1,189,3e-37,156
Knufia_epidermidis_CBS120353_T,SRR9328366.38490,85.32,252,29,8,292,541,1,246,1e-66,254
Knufia_epidermidis_CBS120353_T,SRR9328366.38490,85.77,246,28,7,298,541,594,354,1e-66,254
Arthrocladium_fulminans_CBS136243_T,SRR9328366.38490,88.52,270,19,12,293,560,594,335,1e-85,316
Arthrocladium_fulminans_CBS136243_T,SRR9328366.38490,88.04,276,20,13,287,560,1,265,5e-85,315
Cyphellophora_laciniata_CBS190.61_T,SRR9328366.38490,76.85,324,31,30,385,695,594,302,3e-33,143
Cyphellophora_laciniata_CBS190.61_T,SRR9328366.38490,76.22,328,37,28,379,695,1,298,5e-31,135
Cyphellophora_suttonii_CBS449.91,SRR9328366.38490,86.67,105,11,3,282,384,1,104,2e-24,113
Cyphellophora_pauciseptata_CBS284.85_T,SRR9328366.38490,86.67,105,11,3,293,395,1,104,2e-24,113
Cyphellophora_pluriseptata_CBS286.85_T,SRR9328366.38490,86.79,106,11,3,298,401,1,105,5e-25,115
Phialophora_europaea_CBS101466,SRR9328366.38490,80.00,165,23,8,288,445,1,162,2e-24,113
Phialophora_ambigua_CBS235.93,SRR9328366.38490,80.47,169,22,10,285,450,1,161,4e-26,119
Cladophialophora_modesta_CBS985.96_T,SRR9328366.38490,86.49,296,31,8,290,579,594,302,1e-85,316
Cladophialophora_modesta_CBS985.96_T,SRR9328366.38490,85.76,302,33,9,284,579,1,298,7e-84,311
