Exophiala_nigra_CBS535.94_T,SRR9261003.2137399,84.87,119,16,2,203,321,374,258,2e-24,119
Exophiala_spinifera_CBS899.68_T,SRR9261003.2137399,84.87,119,16,2,200,318,374,258,1e-24,119
Exophiala_exophialae_CBS668.76_T,SRR9261003.2137399,84.87,119,16,2,201,319,374,258,1e-24,119
Exophiala_polymorpha_CBS138920_T,SRR9261003.2137399,84.87,119,16,2,303,421,374,258,2e-24,119
Exophiala_oligosperma_CBS725.88_T,SRR9261003.2137399,84.87,119,16,2,213,331,374,258,2e-24,119
Exophiala_jeanselmei_CBS507.90_T,SRR9261003.2137399,84.87,119,16,2,205,323,374,258,2e-24,119
Exophiala_bergeri_CBS353.52,SRR9261003.2137399,84.87,119,16,2,166,284,374,258,1e-24,119
Exophiala_moniliae_CBS520.76_T,SRR9261003.2137399,84.87,119,16,2,203,321,374,258,2e-24,119
Exophiala_pisciphila_CBS537.73_T,SRR9261003.2137399,84.03,119,17,2,206,324,374,258,8e-23,113
Exophiala_xenobiotica_CBS117642,SRR9261003.2137399,84.87,119,16,2,198,316,374,258,1e-24,119
Exophiala_brunnea_CBS,SRR9261003.2137399,84.87,119,16,2,234,352,374,258,2e-24,119
Exophiala_brunnea_CBS,SRR9261003.5683700,100.00,38,0,0,1,38,125,162,5e-10,71.3
Exophiala_brunnea_CBS,SRR9261003.4664746,100.00,38,0,0,1,38,303,266,5e-10,71.3
Exophiala_brunnea_CBS,SRR9261003.740682,100.00,38,0,0,1,38,114,77,5e-10,71.3
Exophiala_brunnea_CBS,SRR9261003.740682,100.00,38,0,0,1,38,465,502,5e-10,71.3
Exophiala_nishimurae_CBS101538_T,SRR9261003.2137399,84.87,119,16,2,212,330,374,258,2e-24,119
Exophiala_mesophila_CBS402.95_T,SRR9261003.2137399,84.87,119,16,2,196,314,374,258,2e-24,119
Exophiala_castellanii_CBS158.58_T,SRR9261003.2137399,84.87,119,16,2,194,312,374,258,2e-24,119
Exophiala_lecanii-corni_CBS123.33_T,SRR9261003.2137399,84.87,119,16,2,217,335,374,258,2e-24,119
Exophiala_dermatitidis_CBS748.88,SRR9261003.3363212,93.28,134,9,0,1368,1501,187,54,5e-48,198
Exophiala_dermatitidis_CBS748.88,SRR9261003.1355708,93.28,134,9,0,1368,1501,115,248,5e-48,198
Exophiala_dermatitidis_CBS748.88,SRR9261003.1355708,93.97,116,7,0,1386,1501,497,382,2e-41,176
Exophiala_dermatitidis_CBS748.88,SRR9261003.1100513,87.58,161,19,1,852,1012,252,411,4e-44,185
Exophiala_dermatitidis_CBS748.88,SRR9261003.1611374,88.65,141,16,0,865,1005,1,141,3e-40,172
Exophiala_dermatitidis_CBS748.88,SRR9261003.1611374,88.65,141,16,0,865,1005,302,162,3e-40,172
Exophiala_dermatitidis_CBS748.88,SRR9261003.2137399,84.87,119,15,3,210,327,374,258,2e-23,117
Exophiala_dermatitidis_CBS748.88,SRR9261003.4145272,91.25,80,7,0,1195,1274,327,248,3e-21,110
Exophiala_dermatitidis_CBS748.88,SRR9261003.1231948,83.76,117,11,6,1182,1294,204,92,1e-19,104
Exophiala_dermatitidis_CBS748.88,SRR9261003.4185367,86.52,89,12,0,1186,1274,64,152,5e-18,99.0
Exophiala_dermatitidis_CBS748.88,SRR9261003.4185367,86.67,90,10,2,1186,1274,245,157,5e-18,99.0
Exophiala_dermatitidis_CBS748.88,SRR9261003.2075728,84.31,102,13,3,1191,1291,252,153,2e-17,97.1
Exophiala_angulospora_CBS482.92_T,SRR9261003.2137399,84.87,119,16,2,200,318,374,258,1e-24,119
Exophiala_opportunistica_CBS109811_T,SRR9261003.2137399,84.87,119,16,2,199,317,374,258,2e-24,119
Exophiala_salmonis_CBS157.67_T,SRR9261003.2137399,84.87,119,16,2,328,446,374,258,2e-24,119
Exophiala_aquamarina_CBS119918_T,SRR9261003.2137399,84.87,119,16,2,206,324,374,258,2e-24,119
Exophiala_cancerae_CBS120420_T,SRR9261003.2137399,84.87,119,16,2,221,339,374,258,2e-24,119
Exophiala_cancerae_CBS120420_T,SRR9261003.4165039,100.00,28,0,0,1,28,95,122,2e-04,52.8
Exophiala_cancerae_CBS120420_T,SRR9261003.4165039,100.00,28,0,0,1,28,238,211,2e-04,52.8
Exophiala_cancerae_CBS120420_T,SRR9261003.3973801,100.00,28,0,0,1,28,147,174,2e-04,52.8
Exophiala_cancerae_CBS120420_T,SRR9261003.3973801,100.00,28,0,0,1,28,496,469,2e-04,52.8
Exophiala_cancerae_CBS120420_T,SRR9261003.3329308,100.00,28,0,0,1,28,155,128,2e-04,52.8
Exophiala_cancerae_CBS120420_T,SRR9261003.3329308,100.00,28,0,0,1,28,355,382,2e-04,52.8
Exophiala_cancerae_CBS120420_T,SRR9261003.2716681,100.00,28,0,0,1,28,125,152,2e-04,52.8
Exophiala_cancerae_CBS120420_T,SRR9261003.2716681,100.00,28,0,0,1,28,387,360,2e-04,52.8
Exophiala_cancerae_CBS120420_T,SRR9261003.2651548,100.00,28,0,0,1,28,44,17,2e-04,52.8
Exophiala_cancerae_CBS120420_T,SRR9261003.2651548,100.00,28,0,0,1,28,203,230,2e-04,52.8
Exophiala_cancerae_CBS120420_T,SRR9261003.2482591,100.00,28,0,0,1,28,143,116,2e-04,52.8
Exophiala_cancerae_CBS120420_T,SRR9261003.2482591,100.00,28,0,0,1,28,318,345,2e-04,52.8
Exophiala_cancerae_CBS120420_T,SRR9261003.1714576,100.00,28,0,0,1,28,42,15,2e-04,52.8
Exophiala_cancerae_CBS120420_T,SRR9261003.1714576,100.00,28,0,0,1,28,215,242,2e-04,52.8
Exophiala_cancerae_CBS120420_T,SRR9261003.1079088,100.00,28,0,0,1,28,47,74,2e-04,52.8
Exophiala_cancerae_CBS120420_T,SRR9261003.1079088,100.00,28,0,0,1,28,456,429,2e-04,52.8
Exophiala_cancerae_CBS120420_T,SRR9261003.967085,100.00,28,0,0,1,28,95,122,2e-04,52.8
Exophiala_cancerae_CBS120420_T,SRR9261003.967085,100.00,28,0,0,1,28,212,185,2e-04,52.8
Exophiala_cancerae_CBS120420_T,SRR9261003.866093,100.00,28,0,0,1,28,33,60,2e-04,52.8
Exophiala_cancerae_CBS120420_T,SRR9261003.866093,100.00,28,0,0,1,28,382,355,2e-04,52.8
Exophiala_tremulae_CBS129355,SRR9261003.2137399,84.87,119,16,2,233,351,374,258,2e-24,119
Exophiala_tremulae_CBS129355,SRR9261003.5683700,100.00,38,0,0,1,38,125,162,5e-10,71.3
Exophiala_tremulae_CBS129355,SRR9261003.4664746,100.00,38,0,0,1,38,303,266,5e-10,71.3
Exophiala_tremulae_CBS129355,SRR9261003.740682,100.00,38,0,0,1,38,114,77,5e-10,71.3
Exophiala_tremulae_CBS129355,SRR9261003.740682,100.00,38,0,0,1,38,465,502,5e-10,71.3
Exophiala_equina_CBS116009,SRR9261003.2137399,84.87,119,16,2,199,317,374,258,2e-24,119
Exophiala_alcalophila_CBS520.82_T,SRR9261003.2137399,84.87,119,16,2,210,328,374,258,2e-24,119
Exophiala_crusticola_CBS119970_T,SRR9261003.2137399,84.87,119,16,2,215,333,374,258,1e-24,119
Rhinocladiella_atrovirens_CBS264.49,SRR9261003.2137399,84.87,119,16,2,241,359,374,258,2e-24,119
Rhinocladiella_atrovirens_CBS264.49,SRR9261003.5683700,100.00,43,0,0,1,43,120,162,8e-13,80.5
Rhinocladiella_atrovirens_CBS264.49,SRR9261003.4664746,100.00,43,0,0,1,43,308,266,8e-13,80.5
Rhinocladiella_atrovirens_CBS264.49,SRR9261003.740682,100.00,43,0,0,1,43,119,77,8e-13,80.5
Rhinocladiella_atrovirens_CBS264.49,SRR9261003.740682,100.00,43,0,0,1,43,460,502,8e-13,80.5
Rhinocladiella_basitona_CBS101460_T,SRR9261003.2137399,84.87,119,16,2,200,318,374,258,1e-24,119
Rhinocladiella_phaeophora_CBS496.78_T,SRR9261003.2137399,82.71,133,18,4,197,326,388,258,7e-23,113
Rhinocladiella_aquaspersa_CBS313.73_T,SRR9261003.2137399,82.71,133,18,4,191,320,388,258,8e-23,113
Rhinocladiella_fasciculata_CBS132.86_T,SRR9261003.2137399,84.03,119,17,1,218,336,374,258,7e-23,113
Rhinocladiella_anceps_CBS181.65_T,SRR9261003.2137399,84.03,119,17,1,200,318,374,258,7e-23,113
Rhinocladiella_mackenziei_CBS367.92,SRR9261003.2137399,84.87,119,16,2,189,307,374,258,2e-24,119
Veronaea_compacta_CBS268.75_T,SRR9261003.2137399,84.87,119,16,2,222,340,374,258,2e-24,119
Capronia_pilosella_AFTOL-ID657,SRR9261003.2137399,84.87,119,16,2,300,418,374,258,2e-24,119
Capronia_dactylotricha_DAOM208471_T,SRR9261003.2137399,84.87,119,16,2,202,320,374,258,2e-24,119
Capronia_kleinmondensis_CBS122671_T,SRR9261003.2137399,84.87,119,16,2,227,345,374,258,2e-24,119
Capronia_kleinmondensis_CBS122671_T,SRR9261003.5683700,100.00,29,0,0,1,29,134,162,5e-05,54.7
Capronia_kleinmondensis_CBS122671_T,SRR9261003.4664746,100.00,29,0,0,1,29,294,266,5e-05,54.7
Capronia_kleinmondensis_CBS122671_T,SRR9261003.740682,100.00,29,0,0,1,29,105,77,5e-05,54.7
Capronia_kleinmondensis_CBS122671_T,SRR9261003.740682,100.00,29,0,0,1,29,474,502,5e-05,54.7
Capronia_mansonii_CBS101.67_T,SRR9261003.2137399,84.87,119,16,2,213,331,374,258,2e-24,119
Capronia_munkii_DAOM216390_T,SRR9261003.2137399,84.87,119,16,2,213,331,374,258,2e-24,119
Capronia_coronata_ATCC56201_T,SRR9261003.2137399,84.87,119,16,2,201,319,374,258,2e-24,119
Capronia_parasitica_CBS123.88,SRR9261003.2137399,84.87,119,16,2,207,325,374,258,2e-24,119
Veronaea_japonica_CBS776.83_T,SRR9261003.2137399,84.87,119,16,2,235,353,374,258,2e-24,119
Veronaea_japonica_CBS776.83_T,SRR9261003.5683700,100.00,37,0,0,1,37,126,162,2e-09,69.4
Veronaea_japonica_CBS776.83_T,SRR9261003.4664746,100.00,37,0,0,1,37,302,266,2e-09,69.4
Veronaea_japonica_CBS776.83_T,SRR9261003.740682,100.00,37,0,0,1,37,113,77,2e-09,69.4
Veronaea_japonica_CBS776.83_T,SRR9261003.740682,100.00,37,0,0,1,37,466,502,2e-09,69.4
Thysanorea_papuana_CBS212.96_T,SRR9261003.2137399,84.87,119,16,2,209,327,374,258,2e-24,119
Capronia_acutiseta_ATCC56428_T,SRR9261003.2137399,84.87,119,15,3,203,320,374,258,6e-24,117
Fonsecaea_brasiliensis_CBS119710_T,SRR9261003.2137399,84.87,119,16,2,209,327,374,258,2e-24,119
Fonsecaea_pedrosoi_CBS271.37_T,SRR9261003.2137399,84.87,119,16,2,237,355,374,258,2e-24,119
Fonsecaea_pedrosoi_CBS271.37_T,SRR9261003.5683700,100.00,29,0,0,1,29,134,162,5e-05,54.7
Fonsecaea_pedrosoi_CBS271.37_T,SRR9261003.4664746,100.00,29,0,0,1,29,294,266,5e-05,54.7
Fonsecaea_pedrosoi_CBS271.37_T,SRR9261003.740682,100.00,29,0,0,1,29,105,77,5e-05,54.7
Fonsecaea_pedrosoi_CBS271.37_T,SRR9261003.740682,100.00,29,0,0,1,29,474,502,5e-05,54.7
Fonsecaea_multimorphosa_CBS980.96_T,SRR9261003.2137399,84.87,119,16,2,207,325,374,258,2e-24,119
Fonsecaea_minima_CBS125760_T,SRR9261003.2137399,84.87,119,16,2,203,321,374,258,1e-24,119
Fonsecaea_nubica_CBS269.64_T,SRR9261003.2137399,84.87,119,16,2,214,332,374,258,2e-24,119
Fonsecaea_monophora_CBS269.37_T,SRR9261003.2137399,84.17,120,16,3,214,333,374,258,7e-23,113
Fonsecaea_erecta_CBS125763_T,SRR9261003.2137399,84.87,119,16,2,198,316,374,258,1e-24,119
Fonsecaea_pugnacius_CBS139214_T,SRR9261003.2137399,84.87,119,16,2,207,325,374,258,1e-24,119
Cladophialophora_psammophila_CBS,SRR9261003.2137399,84.87,119,16,2,213,331,374,258,2e-24,119
Cladophialophora_devriesii_CBS,SRR9261003.2137399,84.87,119,16,2,209,327,374,258,1e-24,119
Cladophialophora_immunda_CBS834.96,SRR9261003.2137399,84.87,119,16,2,211,329,374,258,2e-24,119
Cladophialophora_arxii_CBS306.94_T,SRR9261003.2137399,84.87,119,16,2,213,331,374,258,1e-24,119
Cladophialophora_bantiana_CBS173.52,SRR9261003.2137399,84.87,119,16,2,207,325,374,258,2e-24,119
Cladophialophora_emmonsii_CBS102594,SRR9261003.2137399,84.87,119,16,2,198,316,374,258,1e-24,119
Cladophialophora_minourae_CBS556.83,SRR9261003.2137399,85.83,120,15,1,206,325,374,257,9e-27,126
Cladophialophora_australiensis_CBS112793,SRR9261003.3363212,93.28,134,9,0,1335,1468,187,54,5e-48,198
Cladophialophora_australiensis_CBS112793,SRR9261003.1355708,93.28,134,9,0,1335,1468,115,248,5e-48,198
Cladophialophora_australiensis_CBS112793,SRR9261003.1355708,93.97,116,7,0,1353,1468,497,382,2e-41,176
Cladophialophora_australiensis_CBS112793,SRR9261003.1100513,88.44,147,16,1,822,968,252,397,2e-41,176
Cladophialophora_australiensis_CBS112793,SRR9261003.1611374,88.81,134,15,0,835,968,1,134,5e-38,165
Cladophialophora_australiensis_CBS112793,SRR9261003.1611374,88.81,134,15,0,835,968,302,169,5e-38,165
Cladophialophora_australiensis_CBS112793,SRR9261003.2137399,84.87,119,16,2,208,326,374,258,4e-24,119
Cladophialophora_australiensis_CBS112793,SRR9261003.2075728,85.29,102,12,3,1158,1258,252,153,4e-19,102
Cladophialophora_australiensis_CBS112793,SRR9261003.4185367,86.52,89,12,0,1153,1241,64,152,5e-18,99.0
Cladophialophora_australiensis_CBS112793,SRR9261003.4185367,86.67,90,10,2,1153,1241,245,157,5e-18,99.0
Cladophialophora_australiensis_CBS112793,SRR9261003.4145272,88.75,80,9,0,1162,1241,327,248,5e-18,99.0
Cladophialophora_australiensis_CBS112793,SRR9261003.1231948,81.20,117,14,6,1149,1261,204,92,1e-14,87.9
Cladophialophora_potulentorum_CBS112222,SRR9261003.5642081,89.35,169,18,0,1320,1488,276,444,2e-52,213
Cladophialophora_potulentorum_CBS112222,SRR9261003.5642081,90.91,121,11,0,1368,1488,251,131,2e-37,163
Cladophialophora_potulentorum_CBS112222,SRR9261003.3363212,91.45,152,13,0,1337,1488,187,36,2e-51,209
Cladophialophora_potulentorum_CBS112222,SRR9261003.1355708,93.28,134,9,0,1337,1470,115,248,5e-48,198
Cladophialophora_potulentorum_CBS112222,SRR9261003.1355708,91.79,134,11,0,1355,1488,497,364,1e-44,187
Cladophialophora_potulentorum_CBS112222,SRR9261003.1100513,86.96,161,20,1,824,984,252,411,2e-42,180
Cladophialophora_potulentorum_CBS112222,SRR9261003.1611374,87.94,141,17,0,837,977,1,141,1e-38,167
Cladophialophora_potulentorum_CBS112222,SRR9261003.1611374,87.94,141,17,0,837,977,302,162,1e-38,167
Cladophialophora_potulentorum_CBS112222,SRR9261003.2137399,84.87,119,16,2,207,325,374,258,4e-24,119
Cladophialophora_potulentorum_CBS112222,SRR9261003.4145272,93.85,65,4,0,1179,1243,312,248,5e-18,99.0
Cladophialophora_potulentorum_CBS112222,SRR9261003.2075728,83.17,101,16,1,1160,1260,252,153,9e-16,91.6
Cladophialophora_potulentorum_CBS112222,SRR9261003.1231948,86.75,83,8,2,1182,1263,172,92,3e-15,89.8
Cladophialophora_potulentorum_CBS112222,SRR9261003.4185367,90.77,65,6,0,1179,1243,88,152,1e-14,87.9
Cladophialophora_potulentorum_CBS112222,SRR9261003.4185367,90.77,65,6,0,1179,1243,221,157,1e-14,87.9
Cladophialophora_matsushimae_CMRP1198,SRR9261003.2137399,84.87,119,16,2,211,329,374,258,1e-24,119
Cladophialophora_mycetomatis_CBS122637,SRR9261003.2137399,84.87,119,16,2,196,314,374,258,1e-24,119
Cladophialophora_chaetospira_CBS127573,SRR9261003.2137399,84.21,114,16,2,607,720,369,258,2e-21,110
Cladophialophora_chaetospira_CBS127573,SRR9261003.5683700,100.00,30,0,0,379,408,133,162,2e-05,56.5
Cladophialophora_chaetospira_CBS127573,SRR9261003.4664746,100.00,30,0,0,379,408,295,266,2e-05,56.5
Cladophialophora_chaetospira_CBS127573,SRR9261003.740682,100.00,30,0,0,379,408,106,77,2e-05,56.5
Cladophialophora_chaetospira_CBS127573,SRR9261003.740682,100.00,30,0,0,379,408,473,502,2e-05,56.5
Cladophialophora_boppii_CBS126.86_T,SRR9261003.2137399,84.87,119,16,2,204,322,374,258,1e-24,119
Cladophialophora_abundans_CBS126736,SRR9261003.2137399,85.83,120,15,1,141,260,374,257,8e-27,126
Capronia_semi-immersa_CBS102234,SRR9261003.2137399,85.71,119,15,1,203,321,374,258,3e-26,124
Phialophora_americana_CBS400.67,SRR9261003.1100513,86.34,161,21,1,816,976,252,411,9e-41,174
Phialophora_americana_CBS400.67,SRR9261003.3363212,92.31,117,9,0,1329,1445,187,71,1e-38,167
Phialophora_americana_CBS400.67,SRR9261003.1355708,92.31,117,9,0,1329,1445,115,231,1e-38,167
Phialophora_americana_CBS400.67,SRR9261003.1355708,92.93,99,7,0,1347,1445,497,399,7e-32,145
Phialophora_americana_CBS400.67,SRR9261003.1611374,87.23,141,18,0,829,969,1,141,7e-37,161
Phialophora_americana_CBS400.67,SRR9261003.1611374,87.23,141,18,0,829,969,302,162,7e-37,161
Phialophora_americana_CBS400.67,SRR9261003.2137399,85.71,119,15,1,205,323,374,258,9e-26,124
Phialophora_americana_CBS400.67,SRR9261003.4145272,91.25,80,7,0,1156,1235,327,248,2e-21,110
Phialophora_americana_CBS400.67,SRR9261003.1231948,83.76,117,11,6,1143,1255,204,92,1e-19,104
Phialophora_americana_CBS400.67,SRR9261003.4185367,86.52,89,12,0,1147,1235,64,152,5e-18,99.0
Phialophora_americana_CBS400.67,SRR9261003.4185367,86.67,90,10,2,1147,1235,245,157,5e-18,99.0
Phialophora_americana_CBS400.67,SRR9261003.2075728,84.31,102,13,3,1152,1252,252,153,2e-17,97.1
Phialophora_verrucosa_CBS140325_T,SRR9261003.2137399,85.71,119,15,1,209,327,374,258,3e-26,124
Cladophialophora_samoensis_CBS259.83_T,SRR9261003.2137399,84.87,119,16,2,209,327,374,258,2e-24,119
Cladophialophora_carrionii_CBS260.83,SRR9261003.2137399,84.87,119,16,2,225,343,374,258,2e-24,119
Exophiala_palmae_UPCB86822_T,SRR9261003.2137399,84.87,119,16,2,168,286,374,258,1e-24,119
Cladophialophora_yegresii_CBS114405_T,SRR9261003.2137399,84.87,119,16,2,210,328,374,258,2e-24,119
Knufia_epidermidis_CBS120353_T,SRR9261003.2137399,84.87,119,16,1,208,326,374,258,1e-24,119
Arthrocladium_fulminans_CBS136243_T,SRR9261003.2137399,84.87,119,16,1,203,321,374,258,2e-24,119
Cyphellophora_laciniata_CBS190.61_T,SRR9261003.2137399,86.32,117,16,0,297,413,374,258,3e-27,128
Cyphellophora_laciniata_CBS190.61_T,SRR9261003.4664746,94.37,71,4,0,29,99,336,266,1e-21,110
Cyphellophora_laciniata_CBS190.61_T,SRR9261003.5683700,96.77,62,2,0,38,99,101,162,6e-20,104
Cyphellophora_laciniata_CBS190.61_T,SRR9261003.740682,96.77,62,2,0,38,99,138,77,6e-20,104
Cyphellophora_laciniata_CBS190.61_T,SRR9261003.740682,96.77,62,2,0,38,99,441,502,6e-20,104
Cyphellophora_suttonii_CBS449.91,SRR9261003.2137399,86.32,117,16,0,200,316,374,258,2e-27,128
Cyphellophora_pauciseptata_CBS284.85_T,SRR9261003.2137399,86.32,117,16,0,211,327,374,258,2e-27,128
Cyphellophora_pluriseptata_CBS286.85_T,SRR9261003.2137399,85.47,117,17,0,216,332,374,258,1e-25,122
Phialophora_europaea_CBS101466,SRR9261003.2137399,86.32,117,16,0,206,322,374,258,2e-27,128
Phialophora_ambigua_CBS235.93,SRR9261003.2137399,86.32,117,16,0,203,319,374,258,2e-27,128
Cladophialophora_modesta_CBS985.96_T,SRR9261003.2137399,84.87,119,16,1,200,318,374,258,2e-24,119
Cladophialophora_modesta_CBS985.96_T,SRR9261003.3204678,86.59,82,11,0,526,607,133,214,4e-16,91.6
Cladophialophora_modesta_CBS985.96_T,SRR9261003.3204678,86.59,82,11,0,526,607,298,217,4e-16,91.6
