Exophiala_nigra_CBS535.94_T,SRR9328368.12239,88.51,87,8,2,287,373,1,85,1e-21,104
Exophiala_spinifera_CBS899.68_T,SRR9328368.12239,88.51,87,8,2,284,370,1,85,1e-21,104
Exophiala_exophialae_CBS668.76_T,SRR9328368.12239,88.51,87,8,2,285,371,1,85,1e-21,104
Exophiala_polymorpha_CBS138920_T,SRR9328368.12239,88.51,87,8,2,387,473,1,85,1e-21,104
Exophiala_polymorpha_CBS138920_T,SRR9328368.12239,96.00,50,2,0,645,694,236,285,7e-15,82.4
Exophiala_polymorpha_CBS138920_T,SRR9328368.12239,96.00,50,2,0,645,694,351,302,7e-15,82.4
Exophiala_polymorpha_CBS138920_T,SRR9328368.99455,92.50,40,3,0,655,694,349,310,1e-07,58.4
Exophiala_oligosperma_CBS725.88_T,SRR9328368.12239,88.51,87,8,2,297,383,1,85,1e-21,104
Exophiala_jeanselmei_CBS507.90_T,SRR9328368.12239,88.51,87,8,2,289,375,1,85,1e-21,104
Exophiala_jeanselmei_CBS507.90_T,SRR9328368.12239,96.55,58,2,0,547,604,236,293,2e-19,97.1
Exophiala_jeanselmei_CBS507.90_T,SRR9328368.12239,96.55,58,2,0,547,604,351,294,2e-19,97.1
Exophiala_jeanselmei_CBS507.90_T,SRR9328368.99455,93.75,48,3,0,557,604,349,302,4e-12,73.1
Exophiala_bergeri_CBS353.52,SRR9328368.12239,88.51,87,8,2,250,336,1,85,1e-21,104
Exophiala_moniliae_CBS520.76_T,SRR9328368.12239,87.36,87,9,2,287,373,1,85,5e-20,99.0
Exophiala_pisciphila_CBS537.73_T,SRR9328368.12239,88.51,87,8,2,290,376,1,85,1e-21,104
Exophiala_pisciphila_CBS537.73_T,SRR9328368.12239,94.83,58,3,0,556,613,236,293,1e-17,91.6
Exophiala_pisciphila_CBS537.73_T,SRR9328368.12239,94.83,58,3,0,556,613,351,294,1e-17,91.6
Exophiala_pisciphila_CBS537.73_T,SRR9328368.99455,100.00,36,0,0,578,613,337,302,2e-10,67.6
Exophiala_xenobiotica_CBS117642,SRR9328368.12239,88.51,87,8,2,282,368,1,85,1e-21,104
Exophiala_brunnea_CBS,SRR9328368.12239,87.36,87,9,2,318,404,1,85,6e-20,99.0
Exophiala_nishimurae_CBS101538_T,SRR9328368.12239,88.51,87,8,2,296,382,1,85,1e-21,104
Exophiala_mesophila_CBS402.95_T,SRR9328368.12239,87.36,87,9,2,280,366,1,85,6e-20,99.0
Exophiala_mesophila_CBS402.95_T,SRR9328368.12239,96.55,58,2,0,553,610,236,293,2e-19,97.1
Exophiala_mesophila_CBS402.95_T,SRR9328368.12239,96.55,58,2,0,553,610,351,294,2e-19,97.1
Exophiala_mesophila_CBS402.95_T,SRR9328368.99455,93.75,48,3,0,563,610,349,302,4e-12,73.1
Exophiala_castellanii_CBS158.58_T,SRR9328368.12239,87.36,87,9,2,278,364,1,85,6e-20,99.0
Exophiala_castellanii_CBS158.58_T,SRR9328368.12239,96.55,58,2,0,552,609,236,293,2e-19,97.1
Exophiala_castellanii_CBS158.58_T,SRR9328368.12239,96.55,58,2,0,552,609,351,294,2e-19,97.1
Exophiala_castellanii_CBS158.58_T,SRR9328368.99455,93.75,48,3,0,562,609,349,302,4e-12,73.1
Exophiala_lecanii-corni_CBS123.33_T,SRR9328368.12239,86.21,87,10,2,301,387,1,85,3e-18,93.5
Exophiala_dermatitidis_CBS748.88,SRR9328368.12239,88.51,87,8,2,293,379,1,85,3e-21,104
Exophiala_dermatitidis_CBS748.88,SRR9328368.12239,96.55,58,2,0,578,635,236,293,5e-19,97.1
Exophiala_dermatitidis_CBS748.88,SRR9328368.12239,96.55,58,2,0,578,635,351,294,5e-19,97.1
Exophiala_dermatitidis_CBS748.88,SRR9328368.99455,93.75,48,3,0,588,635,349,302,9e-12,73.1
Exophiala_angulospora_CBS482.92_T,SRR9328368.12239,88.10,84,8,2,284,367,1,82,5e-20,99.0
Exophiala_opportunistica_CBS109811_T,SRR9328368.12239,85.58,104,11,3,283,386,1,100,3e-22,106
Exophiala_salmonis_CBS157.67_T,SRR9328368.12239,88.51,87,8,2,412,498,1,85,2e-21,104
Exophiala_salmonis_CBS157.67_T,SRR9328368.12239,94.83,58,3,0,676,733,236,293,1e-17,91.6
Exophiala_salmonis_CBS157.67_T,SRR9328368.12239,94.83,58,3,0,676,733,351,294,1e-17,91.6
Exophiala_salmonis_CBS157.67_T,SRR9328368.99455,100.00,36,0,0,698,733,337,302,2e-10,67.6
Exophiala_aquamarina_CBS119918_T,SRR9328368.12239,84.76,105,11,5,290,394,1,100,1e-20,100
Exophiala_cancerae_CBS120420_T,SRR9328368.12239,85.58,104,11,3,305,408,1,100,4e-22,106
Exophiala_cancerae_CBS120420_T,SRR9328368.12239,94.83,58,3,0,567,624,236,293,1e-17,91.6
Exophiala_cancerae_CBS120420_T,SRR9328368.12239,94.83,58,3,0,567,624,351,294,1e-17,91.6
Exophiala_cancerae_CBS120420_T,SRR9328368.99455,100.00,36,0,0,589,624,337,302,2e-10,67.6
Exophiala_tremulae_CBS129355,SRR9328368.12239,85.58,104,11,4,317,420,1,100,4e-22,106
Exophiala_equina_CBS116009,SRR9328368.12239,85.58,104,11,4,283,386,1,100,3e-22,106
Exophiala_alcalophila_CBS520.82_T,SRR9328368.12239,87.36,87,9,2,294,380,1,85,5e-20,99.0
Exophiala_crusticola_CBS119970_T,SRR9328368.12239,88.51,87,8,2,299,385,1,85,1e-21,104
Rhinocladiella_atrovirens_CBS264.49,SRR9328368.12239,86.21,87,10,2,325,411,1,85,3e-18,93.5
Rhinocladiella_basitona_CBS101460_T,SRR9328368.12239,88.51,87,8,2,284,370,1,85,1e-21,104
Rhinocladiella_phaeophora_CBS496.78_T,SRR9328368.12239,88.51,87,8,2,292,378,1,85,1e-21,104
Rhinocladiella_aquaspersa_CBS313.73_T,SRR9328368.12239,88.51,87,8,2,286,372,1,85,1e-21,104
Rhinocladiella_aquaspersa_CBS313.73_T,SRR9328368.12239,91.38,58,2,3,551,605,236,293,3e-13,76.8
Rhinocladiella_aquaspersa_CBS313.73_T,SRR9328368.12239,91.38,58,2,3,551,605,351,294,3e-13,76.8
Rhinocladiella_aquaspersa_CBS313.73_T,SRR9328368.99455,100.00,36,0,0,570,605,337,302,2e-10,67.6
Rhinocladiella_fasciculata_CBS132.86_T,SRR9328368.12239,86.21,87,10,2,302,388,1,85,3e-18,93.5
Rhinocladiella_anceps_CBS181.65_T,SRR9328368.12239,86.21,87,10,2,284,370,1,85,2e-18,93.5
Rhinocladiella_mackenziei_CBS367.92,SRR9328368.12239,87.21,86,9,2,273,358,1,84,2e-19,97.1
Veronaea_compacta_CBS268.75_T,SRR9328368.12239,87.06,85,9,2,306,390,1,83,7e-19,95.3
Capronia_pilosella_AFTOL-ID657,SRR9328368.12239,88.51,87,8,2,384,470,1,85,1e-21,104
Capronia_dactylotricha_DAOM208471_T,SRR9328368.12239,87.50,88,8,2,286,373,1,85,6e-20,99.0
Capronia_dactylotricha_DAOM208471_T,SRR9328368.12239,94.83,58,3,0,561,618,236,293,1e-17,91.6
Capronia_dactylotricha_DAOM208471_T,SRR9328368.12239,94.83,58,3,0,561,618,351,294,1e-17,91.6
Capronia_dactylotricha_DAOM208471_T,SRR9328368.99455,100.00,36,0,0,583,618,337,302,2e-10,67.6
Capronia_kleinmondensis_CBS122671_T,SRR9328368.12239,86.21,87,10,2,311,397,1,85,3e-18,93.5
Capronia_kleinmondensis_CBS122671_T,SRR9328368.12239,94.83,58,3,0,567,624,236,293,1e-17,91.6
Capronia_kleinmondensis_CBS122671_T,SRR9328368.12239,94.83,58,3,0,567,624,351,294,1e-17,91.6
Capronia_kleinmondensis_CBS122671_T,SRR9328368.99455,100.00,36,0,0,589,624,337,302,2e-10,67.6
Capronia_mansonii_CBS101.67_T,SRR9328368.12239,88.51,87,8,2,297,383,1,85,1e-21,104
Capronia_mansonii_CBS101.67_T,SRR9328368.12239,96.55,58,2,0,571,628,236,293,2e-19,97.1
Capronia_mansonii_CBS101.67_T,SRR9328368.12239,96.55,58,2,0,571,628,351,294,2e-19,97.1
Capronia_mansonii_CBS101.67_T,SRR9328368.99455,93.75,48,3,0,581,628,349,302,4e-12,73.1
Capronia_munkii_DAOM216390_T,SRR9328368.12239,88.51,87,8,2,297,383,1,85,1e-21,104
Capronia_munkii_DAOM216390_T,SRR9328368.12239,96.55,58,2,0,571,628,236,293,2e-19,97.1
Capronia_munkii_DAOM216390_T,SRR9328368.12239,96.55,58,2,0,571,628,351,294,2e-19,97.1
Capronia_munkii_DAOM216390_T,SRR9328368.99455,93.75,48,3,0,581,628,349,302,4e-12,73.1
Capronia_coronata_ATCC56201_T,SRR9328368.12239,88.10,84,8,2,285,368,1,82,6e-20,99.0
Capronia_coronata_ATCC56201_T,SRR9328368.12239,96.55,58,2,0,542,599,236,293,2e-19,97.1
Capronia_coronata_ATCC56201_T,SRR9328368.12239,96.55,58,2,0,542,599,351,294,2e-19,97.1
Capronia_coronata_ATCC56201_T,SRR9328368.99455,93.75,48,3,0,552,599,349,302,4e-12,73.1
Capronia_parasitica_CBS123.88,SRR9328368.12239,87.06,85,9,2,291,375,1,83,7e-19,95.3
Veronaea_japonica_CBS776.83_T,SRR9328368.12239,88.51,87,8,2,319,405,1,85,1e-21,104
Thysanorea_papuana_CBS212.96_T,SRR9328368.12239,85.58,104,11,3,293,396,1,100,3e-22,106
Capronia_acutiseta_ATCC56428_T,SRR9328368.12239,88.24,85,8,2,286,370,1,83,2e-20,100
Capronia_acutiseta_ATCC56428_T,SRR9328368.12239,94.83,58,3,0,541,598,236,293,1e-17,91.6
Capronia_acutiseta_ATCC56428_T,SRR9328368.12239,94.83,58,3,0,541,598,351,294,1e-17,91.6
Capronia_acutiseta_ATCC56428_T,SRR9328368.99455,100.00,36,0,0,563,598,337,302,2e-10,67.6
Fonsecaea_brasiliensis_CBS119710_T,SRR9328368.12239,84.76,105,11,4,293,397,1,100,1e-20,100
Fonsecaea_pedrosoi_CBS271.37_T,SRR9328368.12239,87.50,88,8,3,321,408,1,85,6e-20,99.0
Fonsecaea_pedrosoi_CBS271.37_T,SRR9328368.12239,94.83,58,3,0,588,645,236,293,1e-17,91.6
Fonsecaea_pedrosoi_CBS271.37_T,SRR9328368.12239,94.83,58,3,0,588,645,351,294,1e-17,91.6
Fonsecaea_pedrosoi_CBS271.37_T,SRR9328368.99455,91.67,48,4,0,598,645,349,302,2e-10,67.6
Fonsecaea_multimorphosa_CBS980.96_T,SRR9328368.12239,85.71,105,10,5,291,395,1,100,3e-22,106
Fonsecaea_minima_CBS125760_T,SRR9328368.12239,84.76,105,11,4,287,391,1,100,1e-20,100
Fonsecaea_nubica_CBS269.64_T,SRR9328368.12239,87.50,88,8,3,298,385,1,85,5e-20,99.0
Fonsecaea_monophora_CBS269.37_T,SRR9328368.12239,87.50,88,8,3,299,386,1,85,5e-20,99.0
Fonsecaea_erecta_CBS125763_T,SRR9328368.12239,85.71,105,10,4,282,386,1,100,3e-22,106
Fonsecaea_pugnacius_CBS139214_T,SRR9328368.12239,87.50,88,8,3,291,378,1,85,5e-20,99.0
Cladophialophora_psammophila_CBS,SRR9328368.12239,85.71,105,10,4,297,401,1,100,3e-22,106
Cladophialophora_devriesii_CBS,SRR9328368.12239,85.71,105,10,5,293,397,1,100,3e-22,106
Cladophialophora_immunda_CBS834.96,SRR9328368.12239,84.76,105,11,4,295,399,1,100,1e-20,100
Cladophialophora_arxii_CBS306.94_T,SRR9328368.12239,86.52,89,8,3,297,385,1,85,7e-19,95.3
Cladophialophora_bantiana_CBS173.52,SRR9328368.12239,85.71,105,10,4,291,395,1,100,3e-22,106
Cladophialophora_emmonsii_CBS102594,SRR9328368.12239,88.51,87,8,2,282,368,1,85,1e-21,104
Cladophialophora_minourae_CBS556.83,SRR9328368.12239,84.27,89,10,4,290,378,1,85,1e-15,84.2
Cladophialophora_australiensis_CBS112793,SRR9328368.12239,84.62,104,12,3,292,395,1,100,4e-20,100
Cladophialophora_australiensis_CBS112793,SRR9328368.12239,94.83,58,3,0,549,606,236,293,2e-17,91.6
Cladophialophora_australiensis_CBS112793,SRR9328368.12239,94.83,58,3,0,549,606,351,294,2e-17,91.6
Cladophialophora_australiensis_CBS112793,SRR9328368.99455,91.67,48,4,0,559,606,349,302,4e-10,67.6
Cladophialophora_potulentorum_CBS112222,SRR9328368.12239,83.65,104,13,3,291,394,1,100,2e-18,95.3
Cladophialophora_potulentorum_CBS112222,SRR9328368.12239,94.83,58,3,0,551,608,236,293,2e-17,91.6
Cladophialophora_potulentorum_CBS112222,SRR9328368.12239,94.83,58,3,0,551,608,351,294,2e-17,91.6
Cladophialophora_potulentorum_CBS112222,SRR9328368.99455,91.67,48,4,0,561,608,349,302,4e-10,67.6
Cladophialophora_matsushimae_CMRP1198,SRR9328368.12239,87.36,87,9,2,295,381,1,85,5e-20,99.0
Cladophialophora_mycetomatis_CBS122637,SRR9328368.12239,84.62,104,12,3,280,383,1,100,1e-20,100
Cladophialophora_chaetospira_CBS127573,SRR9328368.12239,85.58,104,11,3,686,789,1,100,5e-22,106
Cladophialophora_boppii_CBS126.86_T,SRR9328368.12239,85.58,104,11,4,288,391,1,100,3e-22,106
Cladophialophora_abundans_CBS126736,SRR9328368.12239,86.54,104,10,3,225,328,1,100,6e-24,111
Capronia_semi-immersa_CBS102234,SRR9328368.12239,83.65,104,13,3,287,390,1,100,7e-19,95.3
Phialophora_americana_CBS400.67,SRR9328368.12239,83.65,104,13,3,289,392,1,100,2e-18,95.3
Phialophora_verrucosa_CBS140325_T,SRR9328368.12239,83.65,104,13,3,293,396,1,100,7e-19,95.3
Cladophialophora_samoensis_CBS259.83_T,SRR9328368.12239,86.54,104,10,3,293,396,1,100,7e-24,111
Cladophialophora_carrionii_CBS260.83,SRR9328368.12239,84.62,104,12,3,309,412,1,100,2e-20,100
Exophiala_palmae_UPCB86822_T,SRR9328368.12239,88.51,87,8,2,252,338,1,85,1e-21,104
Cladophialophora_yegresii_CBS114405_T,SRR9328368.12239,84.62,104,12,3,294,397,1,100,1e-20,100
Knufia_epidermidis_CBS120353_T,SRR9328368.12239,89.41,85,7,2,292,376,1,83,3e-22,106
Arthrocladium_fulminans_CBS136243_T,SRR9328368.12239,85.88,85,10,2,287,371,1,83,3e-17,89.8
Anthopsis_deltoidea_CBS263.77_T,SRR9328368.99455,87.06,85,9,2,294,378,1,83,6e-19,95.3
Cyphellophora_laciniata_CBS190.61_T,SRR9328368.12239,90.80,87,6,2,379,465,1,85,7e-25,115
Cyphellophora_laciniata_CBS190.61_T,SRR9328368.12239,96.55,58,2,0,638,695,236,293,3e-19,97.1
Cyphellophora_laciniata_CBS190.61_T,SRR9328368.12239,96.55,58,2,0,638,695,351,294,3e-19,97.1
Cyphellophora_laciniata_CBS190.61_T,SRR9328368.99455,93.75,48,3,0,648,695,349,302,4e-12,73.1
Cyphellophora_suttonii_CBS449.91,SRR9328368.12239,90.80,87,6,2,282,368,1,85,5e-25,115
Cyphellophora_pauciseptata_CBS284.85_T,SRR9328368.12239,90.80,87,6,2,293,379,1,85,5e-25,115
Cyphellophora_pluriseptata_CBS286.85_T,SRR9328368.12239,90.80,87,6,2,298,384,1,85,5e-25,115
Phialophora_europaea_CBS101466,SRR9328368.12239,90.80,87,6,2,288,374,1,85,5e-25,115
Phialophora_ambigua_CBS235.93,SRR9328368.12239,90.80,87,6,2,285,371,1,85,5e-25,115
Cladophialophora_modesta_CBS985.96_T,SRR9328368.12239,86.41,103,11,3,284,386,1,100,3e-23,110
Cladophialophora_modesta_CBS985.96_T,SRR9328368.12239,98.28,58,1,0,522,579,236,293,5e-21,102
Cladophialophora_modesta_CBS985.96_T,SRR9328368.12239,98.28,58,1,0,522,579,351,294,5e-21,102
Cladophialophora_modesta_CBS985.96_T,SRR9328368.99455,95.83,48,2,0,532,579,349,302,8e-14,78.7
Cyphellophora_fusarioides_MUCL44033_T,SRR9328368.99455,83.53,85,12,2,281,365,1,83,7e-14,78.7
