Exophiala_polymorpha_CBS138920_T,SRR9261007.3282997,100.00,28,0,0,82,109,350,377,2e-04,52.8
Exophiala_brunnea_CBS,SRR9261007.3282997,100.00,41,0,0,1,41,337,377,1e-11,76.8
Exophiala_brunnea_CBS,SRR9261007.5643668,100.00,39,0,0,1,39,58,20,1e-10,73.1
Exophiala_brunnea_CBS,SRR9261007.5643668,100.00,39,0,0,1,39,253,291,1e-10,73.1
Exophiala_brunnea_CBS,SRR9261007.5658497,100.00,38,0,0,1,38,142,105,4e-10,71.3
Exophiala_brunnea_CBS,SRR9261007.5658497,100.00,38,0,0,1,38,311,348,4e-10,71.3
Exophiala_brunnea_CBS,SRR9261007.5147756,100.00,38,0,0,1,38,207,244,4e-10,71.3
Exophiala_brunnea_CBS,SRR9261007.5147756,100.00,38,0,0,1,38,401,364,4e-10,71.3
Exophiala_brunnea_CBS,SRR9261007.4966767,100.00,38,0,0,1,38,171,134,4e-10,71.3
Exophiala_brunnea_CBS,SRR9261007.4966767,100.00,38,0,0,1,38,395,432,4e-10,71.3
Exophiala_brunnea_CBS,SRR9261007.3366722,100.00,38,0,0,1,38,194,231,4e-10,71.3
Exophiala_salmonis_CBS157.67_T,SRR9261007.5643668,97.56,41,1,0,82,122,92,52,5e-10,71.3
Exophiala_salmonis_CBS157.67_T,SRR9261007.5643668,97.56,41,1,0,82,122,219,259,5e-10,71.3
Exophiala_salmonis_CBS157.67_T,SRR9261007.3320541,97.56,41,1,0,82,122,18,58,5e-10,71.3
Exophiala_salmonis_CBS157.67_T,SRR9261007.3320541,97.56,41,1,0,82,122,121,81,5e-10,71.3
Exophiala_salmonis_CBS157.67_T,SRR9261007.3282997,97.56,41,1,0,82,122,303,343,5e-10,71.3
Exophiala_tremulae_CBS129355,SRR9261007.3282997,100.00,41,0,0,1,41,337,377,9e-12,76.8
Exophiala_tremulae_CBS129355,SRR9261007.5643668,100.00,39,0,0,1,39,58,20,1e-10,73.1
Exophiala_tremulae_CBS129355,SRR9261007.5643668,100.00,39,0,0,1,39,253,291,1e-10,73.1
Exophiala_tremulae_CBS129355,SRR9261007.5658497,100.00,38,0,0,1,38,142,105,4e-10,71.3
Exophiala_tremulae_CBS129355,SRR9261007.5658497,100.00,38,0,0,1,38,311,348,4e-10,71.3
Exophiala_tremulae_CBS129355,SRR9261007.5147756,100.00,38,0,0,1,38,207,244,4e-10,71.3
Exophiala_tremulae_CBS129355,SRR9261007.5147756,100.00,38,0,0,1,38,401,364,4e-10,71.3
Exophiala_tremulae_CBS129355,SRR9261007.4966767,100.00,38,0,0,1,38,171,134,4e-10,71.3
Exophiala_tremulae_CBS129355,SRR9261007.4966767,100.00,38,0,0,1,38,395,432,4e-10,71.3
Exophiala_tremulae_CBS129355,SRR9261007.3366722,100.00,38,0,0,1,38,194,231,4e-10,71.3
Rhinocladiella_atrovirens_CBS264.49,SRR9261007.5643668,100.00,44,0,0,1,44,63,20,2e-13,82.4
Rhinocladiella_atrovirens_CBS264.49,SRR9261007.5643668,100.00,44,0,0,1,44,248,291,2e-13,82.4
Rhinocladiella_atrovirens_CBS264.49,SRR9261007.3282997,100.00,44,0,0,1,44,332,375,2e-13,82.4
Rhinocladiella_atrovirens_CBS264.49,SRR9261007.5658497,100.00,43,0,0,1,43,147,105,7e-13,80.5
Rhinocladiella_atrovirens_CBS264.49,SRR9261007.5658497,100.00,43,0,0,1,43,306,348,7e-13,80.5
Rhinocladiella_atrovirens_CBS264.49,SRR9261007.5147756,100.00,43,0,0,1,43,202,244,7e-13,80.5
Rhinocladiella_atrovirens_CBS264.49,SRR9261007.5147756,100.00,43,0,0,1,43,406,364,7e-13,80.5
Rhinocladiella_atrovirens_CBS264.49,SRR9261007.4966767,100.00,43,0,0,1,43,176,134,7e-13,80.5
Rhinocladiella_atrovirens_CBS264.49,SRR9261007.4966767,100.00,43,0,0,1,43,390,432,7e-13,80.5
Rhinocladiella_atrovirens_CBS264.49,SRR9261007.3366722,100.00,43,0,0,1,43,189,231,7e-13,80.5
Rhinocladiella_mackenziei_CBS367.92,SRR9261007.3282997,100.00,28,0,0,1,28,350,377,2e-04,52.8
Veronaea_compacta_CBS268.75_T,SRR9261007.3282997,100.00,29,0,0,1,29,349,377,4e-05,54.7
Capronia_kleinmondensis_CBS122671_T,SRR9261007.5643668,100.00,30,0,0,1,30,49,20,1e-05,56.5
Capronia_kleinmondensis_CBS122671_T,SRR9261007.5643668,100.00,30,0,0,1,30,262,291,1e-05,56.5
Capronia_kleinmondensis_CBS122671_T,SRR9261007.3282997,100.00,30,0,0,1,30,346,375,1e-05,56.5
Capronia_kleinmondensis_CBS122671_T,SRR9261007.5658497,100.00,29,0,0,1,29,133,105,5e-05,54.7
Capronia_kleinmondensis_CBS122671_T,SRR9261007.5658497,100.00,29,0,0,1,29,320,348,5e-05,54.7
Capronia_kleinmondensis_CBS122671_T,SRR9261007.5147756,100.00,29,0,0,1,29,216,244,5e-05,54.7
Capronia_kleinmondensis_CBS122671_T,SRR9261007.5147756,100.00,29,0,0,1,29,392,364,5e-05,54.7
Capronia_kleinmondensis_CBS122671_T,SRR9261007.4966767,100.00,29,0,0,1,29,162,134,5e-05,54.7
Capronia_kleinmondensis_CBS122671_T,SRR9261007.4966767,100.00,29,0,0,1,29,404,432,5e-05,54.7
Capronia_kleinmondensis_CBS122671_T,SRR9261007.3366722,100.00,29,0,0,1,29,203,231,5e-05,54.7
Veronaea_japonica_CBS776.83_T,SRR9261007.3282997,100.00,40,0,0,1,40,338,377,3e-11,75.0
Veronaea_japonica_CBS776.83_T,SRR9261007.5643668,100.00,38,0,0,1,38,57,20,4e-10,71.3
Veronaea_japonica_CBS776.83_T,SRR9261007.5643668,100.00,38,0,0,1,38,254,291,4e-10,71.3
Veronaea_japonica_CBS776.83_T,SRR9261007.5658497,100.00,37,0,0,1,37,141,105,2e-09,69.4
Veronaea_japonica_CBS776.83_T,SRR9261007.5658497,100.00,37,0,0,1,37,312,348,2e-09,69.4
Veronaea_japonica_CBS776.83_T,SRR9261007.5147756,100.00,37,0,0,1,37,208,244,2e-09,69.4
Veronaea_japonica_CBS776.83_T,SRR9261007.5147756,100.00,37,0,0,1,37,400,364,2e-09,69.4
Veronaea_japonica_CBS776.83_T,SRR9261007.4966767,100.00,37,0,0,1,37,170,134,2e-09,69.4
Veronaea_japonica_CBS776.83_T,SRR9261007.4966767,100.00,37,0,0,1,37,396,432,2e-09,69.4
Veronaea_japonica_CBS776.83_T,SRR9261007.3366722,100.00,37,0,0,1,37,195,231,2e-09,69.4
Fonsecaea_pedrosoi_CBS271.37_T,SRR9261007.3282997,100.00,31,0,0,1,31,346,376,4e-06,58.4
Fonsecaea_pedrosoi_CBS271.37_T,SRR9261007.5643668,100.00,30,0,0,1,30,49,20,1e-05,56.5
Fonsecaea_pedrosoi_CBS271.37_T,SRR9261007.5643668,100.00,30,0,0,1,30,262,291,1e-05,56.5
Fonsecaea_pedrosoi_CBS271.37_T,SRR9261007.5658497,100.00,29,0,0,1,29,133,105,5e-05,54.7
Fonsecaea_pedrosoi_CBS271.37_T,SRR9261007.5658497,100.00,29,0,0,1,29,320,348,5e-05,54.7
Fonsecaea_pedrosoi_CBS271.37_T,SRR9261007.5147756,100.00,29,0,0,1,29,216,244,5e-05,54.7
Fonsecaea_pedrosoi_CBS271.37_T,SRR9261007.5147756,100.00,29,0,0,1,29,392,364,5e-05,54.7
Fonsecaea_pedrosoi_CBS271.37_T,SRR9261007.4966767,100.00,29,0,0,1,29,162,134,5e-05,54.7
Fonsecaea_pedrosoi_CBS271.37_T,SRR9261007.4966767,100.00,29,0,0,1,29,404,432,5e-05,54.7
Fonsecaea_pedrosoi_CBS271.37_T,SRR9261007.3366722,100.00,29,0,0,1,29,203,231,5e-05,54.7
Cladophialophora_potulentorum_CBS112222,SRR9261007.3469384,89.35,169,18,0,1320,1488,275,443,2e-52,213
Cladophialophora_potulentorum_CBS112222,SRR9261007.3469384,90.48,147,14,0,1342,1488,241,95,6e-47,195
Cladophialophora_potulentorum_CBS112222,SRR9261007.5180318,90.48,147,14,0,1342,1488,486,340,6e-47,195
Cladophialophora_potulentorum_CBS112222,SRR9261007.4221694,90.00,50,5,0,1433,1482,1,50,5e-08,65.8
Cladophialophora_potulentorum_CBS112222,SRR9261007.4221694,90.00,50,5,0,1433,1482,96,47,5e-08,65.8
Cladophialophora_chaetospira_CBS127573,SRR9261007.3282997,100.00,33,0,0,379,411,345,377,4e-07,62.1
Cladophialophora_chaetospira_CBS127573,SRR9261007.5643668,100.00,31,0,0,379,409,50,20,5e-06,58.4
Cladophialophora_chaetospira_CBS127573,SRR9261007.5643668,100.00,31,0,0,379,409,261,291,5e-06,58.4
Cladophialophora_chaetospira_CBS127573,SRR9261007.5658497,100.00,30,0,0,379,408,134,105,2e-05,56.5
Cladophialophora_chaetospira_CBS127573,SRR9261007.5658497,100.00,30,0,0,379,408,319,348,2e-05,56.5
Cladophialophora_chaetospira_CBS127573,SRR9261007.5147756,100.00,30,0,0,379,408,215,244,2e-05,56.5
Cladophialophora_chaetospira_CBS127573,SRR9261007.5147756,100.00,30,0,0,379,408,393,364,2e-05,56.5
Cladophialophora_chaetospira_CBS127573,SRR9261007.4966767,100.00,30,0,0,379,408,163,134,2e-05,56.5
Cladophialophora_chaetospira_CBS127573,SRR9261007.4966767,100.00,30,0,0,379,408,403,432,2e-05,56.5
Cladophialophora_chaetospira_CBS127573,SRR9261007.3366722,100.00,30,0,0,379,408,202,231,2e-05,56.5
Cyphellophora_laciniata_CBS190.61_T,SRR9261007.5643668,98.63,73,1,0,28,100,92,20,8e-28,130
Cyphellophora_laciniata_CBS190.61_T,SRR9261007.5643668,98.63,73,1,0,28,100,219,291,8e-28,130
Cyphellophora_laciniata_CBS190.61_T,SRR9261007.3282997,98.63,73,1,0,28,100,303,375,8e-28,130
Cyphellophora_laciniata_CBS190.61_T,SRR9261007.5658497,98.25,57,1,0,43,99,161,105,7e-19,100
Cyphellophora_laciniata_CBS190.61_T,SRR9261007.5658497,98.25,57,1,0,43,99,292,348,7e-19,100
Cyphellophora_laciniata_CBS190.61_T,SRR9261007.5147756,98.25,57,1,0,43,99,188,244,7e-19,100
Cyphellophora_laciniata_CBS190.61_T,SRR9261007.5147756,98.25,57,1,0,43,99,420,364,7e-19,100
Cyphellophora_laciniata_CBS190.61_T,SRR9261007.4966767,98.25,57,1,0,43,99,190,134,7e-19,100
Cyphellophora_laciniata_CBS190.61_T,SRR9261007.4966767,96.49,57,2,0,43,99,376,432,3e-17,95.3
Cyphellophora_laciniata_CBS190.61_T,SRR9261007.3366722,98.25,57,1,0,43,99,175,231,7e-19,100
Cyphellophora_laciniata_CBS190.61_T,SRR9261007.3320541,93.75,64,2,2,28,91,18,79,3e-17,95.3
Cyphellophora_laciniata_CBS190.61_T,SRR9261007.3320541,93.75,64,2,2,28,91,121,60,3e-17,95.3
