Exophiala_polymorpha_CBS138920_T,SRR9261028.644141,100.00,29,0,0,82,110,163,191,7e-05,54.7
Exophiala_polymorpha_CBS138920_T,SRR9261028.644141,100.00,29,0,0,82,110,218,190,7e-05,54.7
Exophiala_brunnea_CBS,SRR9261028.644141,100.00,42,0,0,1,42,150,191,4e-12,78.7
Exophiala_brunnea_CBS,SRR9261028.644141,100.00,42,0,0,1,42,231,190,4e-12,78.7
Exophiala_brunnea_CBS,SRR9261028.7703900,100.00,39,0,0,1,39,13,51,2e-10,73.1
Exophiala_brunnea_CBS,SRR9261028.7703900,100.00,39,0,0,1,39,496,458,2e-10,73.1
Exophiala_brunnea_CBS,SRR9261028.7809646,100.00,38,0,0,1,38,213,176,7e-10,71.3
Exophiala_brunnea_CBS,SRR9261028.7809646,100.00,38,0,0,1,38,330,367,7e-10,71.3
Exophiala_brunnea_CBS,SRR9261028.7203301,100.00,38,0,0,1,38,312,275,7e-10,71.3
Exophiala_brunnea_CBS,SRR9261028.6997114,100.00,38,0,0,1,38,117,80,7e-10,71.3
Exophiala_brunnea_CBS,SRR9261028.6997114,100.00,38,0,0,1,38,274,311,7e-10,71.3
Exophiala_brunnea_CBS,SRR9261028.6461797,100.00,38,0,0,1,38,142,105,7e-10,71.3
Exophiala_brunnea_CBS,SRR9261028.6461797,100.00,30,0,0,1,30,472,501,2e-05,56.5
Exophiala_brunnea_CBS,SRR9261028.5880206,100.00,38,0,0,1,38,281,318,7e-10,71.3
Exophiala_brunnea_CBS,SRR9261028.5725700,100.00,38,0,0,1,38,144,181,7e-10,71.3
Exophiala_brunnea_CBS,SRR9261028.5725700,100.00,38,0,0,1,38,360,323,7e-10,71.3
Exophiala_brunnea_CBS,SRR9261028.5666432,100.00,38,0,0,1,38,107,70,7e-10,71.3
Exophiala_brunnea_CBS,SRR9261028.5666432,100.00,38,0,0,1,38,264,301,7e-10,71.3
Exophiala_brunnea_CBS,SRR9261028.5651568,100.00,38,0,0,1,38,88,51,7e-10,71.3
Exophiala_brunnea_CBS,SRR9261028.5651568,100.00,38,0,0,1,38,375,412,7e-10,71.3
Exophiala_brunnea_CBS,SRR9261028.5623782,100.00,38,0,0,1,38,144,181,7e-10,71.3
Exophiala_brunnea_CBS,SRR9261028.5623782,100.00,38,0,0,1,38,366,329,7e-10,71.3
Exophiala_brunnea_CBS,SRR9261028.5228475,100.00,38,0,0,1,38,248,211,7e-10,71.3
Exophiala_brunnea_CBS,SRR9261028.5228475,100.00,38,0,0,1,38,356,393,7e-10,71.3
Exophiala_brunnea_CBS,SRR9261028.4488751,100.00,38,0,0,1,38,180,143,7e-10,71.3
Exophiala_brunnea_CBS,SRR9261028.4488751,100.00,38,0,0,1,38,329,366,7e-10,71.3
Exophiala_brunnea_CBS,SRR9261028.4000589,100.00,38,0,0,1,38,107,144,7e-10,71.3
Exophiala_brunnea_CBS,SRR9261028.4000589,100.00,38,0,0,1,38,318,281,7e-10,71.3
Exophiala_brunnea_CBS,SRR9261028.3865075,100.00,38,0,0,1,38,358,321,7e-10,71.3
Exophiala_brunnea_CBS,SRR9261028.3581538,100.00,38,0,0,1,38,37,74,7e-10,71.3
Exophiala_brunnea_CBS,SRR9261028.3581538,100.00,38,0,0,1,38,412,375,7e-10,71.3
Exophiala_brunnea_CBS,SRR9261028.3471952,100.00,38,0,0,1,38,137,100,7e-10,71.3
Exophiala_brunnea_CBS,SRR9261028.3471952,100.00,38,0,0,1,38,306,343,7e-10,71.3
Exophiala_brunnea_CBS,SRR9261028.3169644,100.00,38,0,0,1,38,148,111,7e-10,71.3
Exophiala_brunnea_CBS,SRR9261028.3169644,100.00,38,0,0,1,38,363,400,7e-10,71.3
Exophiala_brunnea_CBS,SRR9261028.2981054,100.00,38,0,0,1,38,187,150,7e-10,71.3
Exophiala_brunnea_CBS,SRR9261028.2981054,100.00,38,0,0,1,38,198,235,7e-10,71.3
Exophiala_brunnea_CBS,SRR9261028.2640158,100.00,38,0,0,1,38,65,102,7e-10,71.3
Exophiala_brunnea_CBS,SRR9261028.2640158,100.00,38,0,0,1,38,372,335,7e-10,71.3
Exophiala_brunnea_CBS,SRR9261028.2063987,100.00,38,0,0,1,38,30,67,7e-10,71.3
Exophiala_brunnea_CBS,SRR9261028.2021168,100.00,38,0,0,1,38,107,70,7e-10,71.3
Exophiala_brunnea_CBS,SRR9261028.2021168,100.00,38,0,0,1,38,142,179,7e-10,71.3
Exophiala_brunnea_CBS,SRR9261028.1974320,100.00,38,0,0,1,38,112,149,7e-10,71.3
Exophiala_brunnea_CBS,SRR9261028.1974320,100.00,38,0,0,1,38,293,256,7e-10,71.3
Exophiala_brunnea_CBS,SRR9261028.1104436,100.00,38,0,0,1,38,327,364,7e-10,71.3
Exophiala_brunnea_CBS,SRR9261028.925730,100.00,38,0,0,1,38,44,7,7e-10,71.3
Exophiala_brunnea_CBS,SRR9261028.775911,100.00,38,0,0,1,38,7,44,7e-10,71.3
Exophiala_brunnea_CBS,SRR9261028.775911,100.00,38,0,0,1,38,112,75,7e-10,71.3
Exophiala_brunnea_CBS,SRR9261028.3795796,100.00,32,0,0,7,38,1,32,1e-06,60.2
Exophiala_brunnea_CBS,SRR9261028.3795796,100.00,32,0,0,7,38,402,371,1e-06,60.2
Exophiala_brunnea_CBS,SRR9261028.846062,97.14,35,1,0,1,35,222,256,1e-06,60.2
Exophiala_brunnea_CBS,SRR9261028.23826,100.00,30,0,0,1,30,30,1,2e-05,56.5
Exophiala_brunnea_CBS,SRR9261028.23826,100.00,30,0,0,1,30,255,284,2e-05,56.5
Exophiala_dermatitidis_CBS748.88,SRR9261028.5350278,89.26,242,25,1,1263,1504,248,8,5e-79,302
Exophiala_dermatitidis_CBS748.88,SRR9261028.5350278,84.86,218,32,1,1186,1403,286,502,1e-54,220
Exophiala_dermatitidis_CBS748.88,SRR9261028.7338012,91.79,134,11,0,1371,1504,29,162,2e-44,187
Exophiala_dermatitidis_CBS748.88,SRR9261028.2394537,79.84,253,44,7,1211,1459,501,252,9e-42,178
Exophiala_dermatitidis_CBS748.88,SRR9261028.2394537,88.73,71,6,2,1211,1280,107,176,6e-14,86.1
Exophiala_dermatitidis_CBS748.88,SRR9261028.5017659,79.05,253,46,7,1212,1460,500,251,6e-39,169
Exophiala_dermatitidis_CBS748.88,SRR9261028.5017659,77.18,206,40,6,1211,1412,48,250,3e-22,113
Exophiala_dermatitidis_CBS748.88,SRR9261028.6635094,79.12,249,45,6,1211,1455,6,251,7e-38,165
Exophiala_dermatitidis_CBS748.88,SRR9261028.127047,78.85,227,41,7,1211,1433,224,1,3e-32,147
Exophiala_dermatitidis_CBS748.88,SRR9261028.127047,88.73,71,6,2,1211,1280,371,440,6e-14,86.1
Exophiala_dermatitidis_CBS748.88,SRR9261028.6446739,78.08,219,41,7,1211,1425,467,252,7e-28,132
Exophiala_dermatitidis_CBS748.88,SRR9261028.6446739,76.62,201,40,6,1211,1407,54,251,2e-19,104
Exophiala_dermatitidis_CBS748.88,SRR9261028.2405394,77.40,208,40,7,1211,1414,205,1,2e-23,117
Exophiala_dermatitidis_CBS748.88,SRR9261028.2405394,88.24,68,6,2,1211,1277,435,501,3e-12,80.5
Exophiala_dermatitidis_CBS748.88,SRR9261028.3197194,100.00,60,0,0,1445,1504,2,61,9e-22,111
Exophiala_dermatitidis_CBS748.88,SRR9261028.3197194,100.00,60,0,0,1445,1504,437,378,9e-22,111
Exophiala_dermatitidis_CBS748.88,SRR9261028.6442674,95.31,64,3,0,1371,1434,65,2,6e-19,102
Exophiala_dermatitidis_CBS748.88,SRR9261028.6442674,95.31,64,3,0,1371,1434,142,205,6e-19,102
Exophiala_dermatitidis_CBS748.88,SRR9261028.14310,77.13,188,36,7,1211,1394,447,263,6e-19,102
Exophiala_dermatitidis_CBS748.88,SRR9261028.14310,88.73,71,6,2,1211,1280,119,188,6e-14,86.1
Exophiala_dermatitidis_CBS748.88,SRR9261028.488372,76.24,181,36,7,1211,1387,178,1,4e-15,89.8
Exophiala_dermatitidis_CBS748.88,SRR9261028.488372,76.24,181,36,6,1211,1387,189,366,4e-15,89.8
Exophiala_dermatitidis_CBS748.88,SRR9261028.5836029,88.73,71,6,2,1211,1280,128,59,6e-14,86.1
Exophiala_dermatitidis_CBS748.88,SRR9261028.5836029,88.73,71,6,2,1211,1280,291,360,6e-14,86.1
Exophiala_dermatitidis_CBS748.88,SRR9261028.4605820,88.73,71,6,2,1211,1280,118,187,6e-14,86.1
Exophiala_dermatitidis_CBS748.88,SRR9261028.4605820,88.73,71,6,2,1211,1280,341,272,6e-14,86.1
Exophiala_dermatitidis_CBS748.88,SRR9261028.3999951,88.73,71,6,2,1211,1280,355,286,6e-14,86.1
Exophiala_dermatitidis_CBS748.88,SRR9261028.3999951,89.39,66,4,3,1211,1274,184,248,3e-12,80.5
Exophiala_dermatitidis_CBS748.88,SRR9261028.3348101,88.73,71,6,2,1211,1280,119,188,6e-14,86.1
Exophiala_dermatitidis_CBS748.88,SRR9261028.3348101,88.73,71,6,2,1211,1280,342,273,6e-14,86.1
Exophiala_dermatitidis_CBS748.88,SRR9261028.2740226,88.73,71,6,2,1211,1280,158,89,6e-14,86.1
Exophiala_dermatitidis_CBS748.88,SRR9261028.2735811,88.73,71,6,2,1211,1280,340,271,6e-14,86.1
Exophiala_dermatitidis_CBS748.88,SRR9261028.2735811,92.86,56,2,2,1211,1265,189,243,3e-12,80.5
Exophiala_dermatitidis_CBS748.88,SRR9261028.2552703,88.73,71,6,2,1211,1280,111,180,6e-14,86.1
Exophiala_dermatitidis_CBS748.88,SRR9261028.2552703,88.73,71,6,2,1211,1280,290,221,6e-14,86.1
Exophiala_dermatitidis_CBS748.88,SRR9261028.2219997,88.73,71,6,2,1211,1280,89,20,6e-14,86.1
Exophiala_dermatitidis_CBS748.88,SRR9261028.1729838,88.73,71,6,2,1211,1280,379,310,6e-14,86.1
Exophiala_dermatitidis_CBS748.88,SRR9261028.1729838,92.86,56,2,2,1211,1265,196,250,3e-12,80.5
Exophiala_dermatitidis_CBS748.88,SRR9261028.1711003,88.73,71,6,2,1211,1280,128,59,6e-14,86.1
Exophiala_dermatitidis_CBS748.88,SRR9261028.1711003,88.73,71,6,2,1211,1280,201,270,6e-14,86.1
Exophiala_dermatitidis_CBS748.88,SRR9261028.1362434,88.73,71,6,2,1211,1280,82,151,6e-14,86.1
Exophiala_dermatitidis_CBS748.88,SRR9261028.1362434,88.73,71,6,2,1211,1280,409,340,6e-14,86.1
Exophiala_dermatitidis_CBS748.88,SRR9261028.3038782,87.32,71,7,2,1211,1280,128,59,3e-12,80.5
Exophiala_dermatitidis_CBS748.88,SRR9261028.3038782,89.39,66,4,3,1211,1274,313,377,3e-12,80.5
Exophiala_dermatitidis_CBS748.88,SRR9261028.4621494,93.75,48,1,2,1211,1257,394,440,4e-10,73.1
Exophiala_dermatitidis_CBS748.88,SRR9261028.4621494,93.75,48,1,2,1211,1257,47,1,2e-09,71.3
Exophiala_dermatitidis_CBS748.88,SRR9261028.6363880,90.57,53,5,0,1213,1265,59,7,2e-09,71.3
Exophiala_dermatitidis_CBS748.88,SRR9261028.6363880,90.57,53,5,0,1213,1265,84,136,2e-09,71.3
Exophiala_dermatitidis_CBS748.88,SRR9261028.1340675,93.75,48,1,2,1211,1257,47,1,2e-09,71.3
Exophiala_dermatitidis_CBS748.88,SRR9261028.1340675,91.67,48,2,2,1211,1257,348,394,7e-08,65.8
Exophiala_dermatitidis_CBS748.88,SRR9261028.4655561,93.18,44,1,2,1211,1253,82,124,3e-07,63.9
Exophiala_dermatitidis_CBS748.88,SRR9261028.4655561,93.18,44,1,2,1211,1253,167,125,3e-07,63.9
Exophiala_dermatitidis_CBS748.88,SRR9261028.5402796,93.02,43,1,2,1211,1252,119,160,1e-06,62.1
Exophiala_dermatitidis_CBS748.88,SRR9261028.5402796,93.02,43,1,2,1211,1252,200,159,1e-06,62.1
Exophiala_dermatitidis_CBS748.88,SRR9261028.6902071,100.00,32,0,0,1211,1242,41,10,3e-06,60.2
Exophiala_dermatitidis_CBS748.88,SRR9261028.5027198,100.00,32,0,0,1211,1242,284,253,3e-06,60.2
Exophiala_dermatitidis_CBS748.88,SRR9261028.4397397,100.00,32,0,0,1211,1242,39,8,3e-06,60.2
Exophiala_dermatitidis_CBS748.88,SRR9261028.4334125,100.00,32,0,0,1211,1242,284,253,3e-06,60.2
Exophiala_dermatitidis_CBS748.88,SRR9261028.4186496,100.00,32,0,0,1211,1242,287,256,3e-06,60.2
Exophiala_salmonis_CBS157.67_T,SRR9261028.644141,78.23,124,20,7,1,122,38,156,2e-10,73.1
Exophiala_salmonis_CBS157.67_T,SRR9261028.644141,78.23,124,20,7,1,122,343,225,2e-10,73.1
Exophiala_tremulae_CBS129355,SRR9261028.644141,100.00,42,0,0,1,42,150,191,4e-12,78.7
Exophiala_tremulae_CBS129355,SRR9261028.644141,100.00,42,0,0,1,42,231,190,4e-12,78.7
Exophiala_tremulae_CBS129355,SRR9261028.7703900,100.00,39,0,0,1,39,13,51,2e-10,73.1
Exophiala_tremulae_CBS129355,SRR9261028.7703900,100.00,39,0,0,1,39,496,458,2e-10,73.1
Exophiala_tremulae_CBS129355,SRR9261028.7809646,100.00,38,0,0,1,38,213,176,7e-10,71.3
Exophiala_tremulae_CBS129355,SRR9261028.7809646,100.00,38,0,0,1,38,330,367,7e-10,71.3
Exophiala_tremulae_CBS129355,SRR9261028.7203301,100.00,38,0,0,1,38,312,275,7e-10,71.3
Exophiala_tremulae_CBS129355,SRR9261028.6997114,100.00,38,0,0,1,38,117,80,7e-10,71.3
Exophiala_tremulae_CBS129355,SRR9261028.6997114,100.00,38,0,0,1,38,274,311,7e-10,71.3
Exophiala_tremulae_CBS129355,SRR9261028.6461797,100.00,38,0,0,1,38,142,105,7e-10,71.3
Exophiala_tremulae_CBS129355,SRR9261028.6461797,100.00,30,0,0,1,30,472,501,2e-05,56.5
Exophiala_tremulae_CBS129355,SRR9261028.5880206,100.00,38,0,0,1,38,281,318,7e-10,71.3
Exophiala_tremulae_CBS129355,SRR9261028.5725700,100.00,38,0,0,1,38,144,181,7e-10,71.3
Exophiala_tremulae_CBS129355,SRR9261028.5725700,100.00,38,0,0,1,38,360,323,7e-10,71.3
Exophiala_tremulae_CBS129355,SRR9261028.5666432,100.00,38,0,0,1,38,107,70,7e-10,71.3
Exophiala_tremulae_CBS129355,SRR9261028.5666432,100.00,38,0,0,1,38,264,301,7e-10,71.3
Exophiala_tremulae_CBS129355,SRR9261028.5651568,100.00,38,0,0,1,38,88,51,7e-10,71.3
Exophiala_tremulae_CBS129355,SRR9261028.5651568,100.00,38,0,0,1,38,375,412,7e-10,71.3
Exophiala_tremulae_CBS129355,SRR9261028.5623782,100.00,38,0,0,1,38,144,181,7e-10,71.3
Exophiala_tremulae_CBS129355,SRR9261028.5623782,100.00,38,0,0,1,38,366,329,7e-10,71.3
Exophiala_tremulae_CBS129355,SRR9261028.5228475,100.00,38,0,0,1,38,248,211,7e-10,71.3
Exophiala_tremulae_CBS129355,SRR9261028.5228475,100.00,38,0,0,1,38,356,393,7e-10,71.3
Exophiala_tremulae_CBS129355,SRR9261028.4488751,100.00,38,0,0,1,38,180,143,7e-10,71.3
Exophiala_tremulae_CBS129355,SRR9261028.4488751,100.00,38,0,0,1,38,329,366,7e-10,71.3
Exophiala_tremulae_CBS129355,SRR9261028.4000589,100.00,38,0,0,1,38,107,144,7e-10,71.3
Exophiala_tremulae_CBS129355,SRR9261028.4000589,100.00,38,0,0,1,38,318,281,7e-10,71.3
Exophiala_tremulae_CBS129355,SRR9261028.3865075,100.00,38,0,0,1,38,358,321,7e-10,71.3
Exophiala_tremulae_CBS129355,SRR9261028.3581538,100.00,38,0,0,1,38,37,74,7e-10,71.3
Exophiala_tremulae_CBS129355,SRR9261028.3581538,100.00,38,0,0,1,38,412,375,7e-10,71.3
Exophiala_tremulae_CBS129355,SRR9261028.3471952,100.00,38,0,0,1,38,137,100,7e-10,71.3
Exophiala_tremulae_CBS129355,SRR9261028.3471952,100.00,38,0,0,1,38,306,343,7e-10,71.3
Exophiala_tremulae_CBS129355,SRR9261028.3169644,100.00,38,0,0,1,38,148,111,7e-10,71.3
Exophiala_tremulae_CBS129355,SRR9261028.3169644,100.00,38,0,0,1,38,363,400,7e-10,71.3
Exophiala_tremulae_CBS129355,SRR9261028.2981054,100.00,38,0,0,1,38,187,150,7e-10,71.3
Exophiala_tremulae_CBS129355,SRR9261028.2981054,100.00,38,0,0,1,38,198,235,7e-10,71.3
Exophiala_tremulae_CBS129355,SRR9261028.2640158,100.00,38,0,0,1,38,65,102,7e-10,71.3
Exophiala_tremulae_CBS129355,SRR9261028.2640158,100.00,38,0,0,1,38,372,335,7e-10,71.3
Exophiala_tremulae_CBS129355,SRR9261028.2063987,100.00,38,0,0,1,38,30,67,7e-10,71.3
Exophiala_tremulae_CBS129355,SRR9261028.2021168,100.00,38,0,0,1,38,107,70,7e-10,71.3
Exophiala_tremulae_CBS129355,SRR9261028.2021168,100.00,38,0,0,1,38,142,179,7e-10,71.3
Exophiala_tremulae_CBS129355,SRR9261028.1974320,100.00,38,0,0,1,38,112,149,7e-10,71.3
Exophiala_tremulae_CBS129355,SRR9261028.1974320,100.00,38,0,0,1,38,293,256,7e-10,71.3
Exophiala_tremulae_CBS129355,SRR9261028.1104436,100.00,38,0,0,1,38,327,364,7e-10,71.3
Exophiala_tremulae_CBS129355,SRR9261028.925730,100.00,38,0,0,1,38,44,7,7e-10,71.3
Exophiala_tremulae_CBS129355,SRR9261028.775911,100.00,38,0,0,1,38,7,44,7e-10,71.3
Exophiala_tremulae_CBS129355,SRR9261028.775911,100.00,38,0,0,1,38,112,75,7e-10,71.3
Exophiala_tremulae_CBS129355,SRR9261028.3795796,100.00,32,0,0,7,38,1,32,1e-06,60.2
Exophiala_tremulae_CBS129355,SRR9261028.3795796,100.00,32,0,0,7,38,402,371,1e-06,60.2
Exophiala_tremulae_CBS129355,SRR9261028.846062,97.14,35,1,0,1,35,222,256,1e-06,60.2
Exophiala_tremulae_CBS129355,SRR9261028.23826,100.00,30,0,0,1,30,30,1,2e-05,56.5
Exophiala_tremulae_CBS129355,SRR9261028.23826,100.00,30,0,0,1,30,255,284,2e-05,56.5
Rhinocladiella_atrovirens_CBS264.49,SRR9261028.7703900,100.00,46,0,0,1,46,8,53,2e-14,86.1
Rhinocladiella_atrovirens_CBS264.49,SRR9261028.7703900,100.00,45,0,0,2,46,500,456,8e-14,84.2
Rhinocladiella_atrovirens_CBS264.49,SRR9261028.644141,100.00,44,0,0,1,44,145,188,3e-13,82.4
Rhinocladiella_atrovirens_CBS264.49,SRR9261028.644141,100.00,44,0,0,1,44,236,193,3e-13,82.4
Rhinocladiella_atrovirens_CBS264.49,SRR9261028.7809646,100.00,43,0,0,1,43,218,176,1e-12,80.5
Rhinocladiella_atrovirens_CBS264.49,SRR9261028.7809646,100.00,43,0,0,1,43,325,367,1e-12,80.5
Rhinocladiella_atrovirens_CBS264.49,SRR9261028.7203301,100.00,43,0,0,1,43,317,275,1e-12,80.5
Rhinocladiella_atrovirens_CBS264.49,SRR9261028.7203301,97.67,43,1,0,1,43,74,116,5e-11,75.0
Rhinocladiella_atrovirens_CBS264.49,SRR9261028.6997114,100.00,43,0,0,1,43,122,80,1e-12,80.5
Rhinocladiella_atrovirens_CBS264.49,SRR9261028.6997114,100.00,43,0,0,1,43,269,311,1e-12,80.5
Rhinocladiella_atrovirens_CBS264.49,SRR9261028.6461797,100.00,43,0,0,1,43,147,105,1e-12,80.5
Rhinocladiella_atrovirens_CBS264.49,SRR9261028.6461797,100.00,35,0,0,1,35,467,501,3e-08,65.8
Rhinocladiella_atrovirens_CBS264.49,SRR9261028.5880206,100.00,43,0,0,1,43,276,318,1e-12,80.5
Rhinocladiella_atrovirens_CBS264.49,SRR9261028.5725700,100.00,43,0,0,1,43,139,181,1e-12,80.5
Rhinocladiella_atrovirens_CBS264.49,SRR9261028.5725700,100.00,43,0,0,1,43,365,323,1e-12,80.5
Rhinocladiella_atrovirens_CBS264.49,SRR9261028.5666432,100.00,43,0,0,1,43,112,70,1e-12,80.5
Rhinocladiella_atrovirens_CBS264.49,SRR9261028.5666432,100.00,43,0,0,1,43,259,301,1e-12,80.5
Rhinocladiella_atrovirens_CBS264.49,SRR9261028.5651568,100.00,43,0,0,1,43,93,51,1e-12,80.5
Rhinocladiella_atrovirens_CBS264.49,SRR9261028.5651568,100.00,43,0,0,1,43,370,412,1e-12,80.5
Rhinocladiella_atrovirens_CBS264.49,SRR9261028.5623782,100.00,43,0,0,1,43,139,181,1e-12,80.5
Rhinocladiella_atrovirens_CBS264.49,SRR9261028.5623782,100.00,43,0,0,1,43,371,329,1e-12,80.5
Rhinocladiella_atrovirens_CBS264.49,SRR9261028.5228475,100.00,43,0,0,1,43,351,393,1e-12,80.5
Rhinocladiella_atrovirens_CBS264.49,SRR9261028.5228475,100.00,41,0,0,3,43,251,211,1e-11,76.8
Rhinocladiella_atrovirens_CBS264.49,SRR9261028.4488751,100.00,43,0,0,1,43,185,143,1e-12,80.5
Rhinocladiella_atrovirens_CBS264.49,SRR9261028.4488751,100.00,43,0,0,1,43,324,366,1e-12,80.5
Rhinocladiella_atrovirens_CBS264.49,SRR9261028.4000589,100.00,43,0,0,1,43,102,144,1e-12,80.5
Rhinocladiella_atrovirens_CBS264.49,SRR9261028.4000589,100.00,43,0,0,1,43,323,281,1e-12,80.5
Rhinocladiella_atrovirens_CBS264.49,SRR9261028.3865075,100.00,43,0,0,1,43,363,321,1e-12,80.5
Rhinocladiella_atrovirens_CBS264.49,SRR9261028.3581538,100.00,43,0,0,1,43,32,74,1e-12,80.5
Rhinocladiella_atrovirens_CBS264.49,SRR9261028.3581538,100.00,43,0,0,1,43,417,375,1e-12,80.5
Rhinocladiella_atrovirens_CBS264.49,SRR9261028.3471952,100.00,43,0,0,1,43,142,100,1e-12,80.5
Rhinocladiella_atrovirens_CBS264.49,SRR9261028.3471952,100.00,43,0,0,1,43,301,343,1e-12,80.5
Rhinocladiella_atrovirens_CBS264.49,SRR9261028.3169644,100.00,43,0,0,1,43,153,111,1e-12,80.5
Rhinocladiella_atrovirens_CBS264.49,SRR9261028.3169644,100.00,43,0,0,1,43,358,400,1e-12,80.5
Rhinocladiella_atrovirens_CBS264.49,SRR9261028.2981054,100.00,43,0,0,1,43,192,150,1e-12,80.5
Rhinocladiella_atrovirens_CBS264.49,SRR9261028.2981054,100.00,43,0,0,1,43,193,235,1e-12,80.5
Rhinocladiella_atrovirens_CBS264.49,SRR9261028.2640158,100.00,43,0,0,1,43,60,102,1e-12,80.5
Rhinocladiella_atrovirens_CBS264.49,SRR9261028.2640158,100.00,43,0,0,1,43,377,335,1e-12,80.5
Rhinocladiella_atrovirens_CBS264.49,SRR9261028.2063987,100.00,43,0,0,1,43,25,67,1e-12,80.5
Rhinocladiella_atrovirens_CBS264.49,SRR9261028.2021168,100.00,43,0,0,1,43,112,70,1e-12,80.5
Rhinocladiella_atrovirens_CBS264.49,SRR9261028.2021168,100.00,43,0,0,1,43,137,179,1e-12,80.5
Rhinocladiella_atrovirens_CBS264.49,SRR9261028.1974320,100.00,43,0,0,1,43,107,149,1e-12,80.5
Rhinocladiella_atrovirens_CBS264.49,SRR9261028.1974320,100.00,43,0,0,1,43,298,256,1e-12,80.5
Rhinocladiella_atrovirens_CBS264.49,SRR9261028.1104436,100.00,43,0,0,1,43,322,364,1e-12,80.5
Rhinocladiella_atrovirens_CBS264.49,SRR9261028.925730,100.00,43,0,0,1,43,49,7,1e-12,80.5
Rhinocladiella_atrovirens_CBS264.49,SRR9261028.775911,100.00,43,0,0,1,43,2,44,1e-12,80.5
Rhinocladiella_atrovirens_CBS264.49,SRR9261028.775911,100.00,43,0,0,1,43,117,75,1e-12,80.5
Rhinocladiella_atrovirens_CBS264.49,SRR9261028.846062,97.50,40,1,0,1,40,217,256,2e-09,69.4
Rhinocladiella_atrovirens_CBS264.49,SRR9261028.23826,100.00,35,0,0,1,35,35,1,3e-08,65.8
Rhinocladiella_atrovirens_CBS264.49,SRR9261028.23826,100.00,35,0,0,1,35,250,284,3e-08,65.8
Rhinocladiella_atrovirens_CBS264.49,SRR9261028.3795796,100.00,32,0,0,12,43,1,32,1e-06,60.2
Rhinocladiella_atrovirens_CBS264.49,SRR9261028.3795796,100.00,32,0,0,12,43,402,371,1e-06,60.2
Rhinocladiella_fasciculata_CBS132.86_T,SRR9261028.7703900,100.00,29,0,0,1,29,25,53,6e-05,54.7
Rhinocladiella_fasciculata_CBS132.86_T,SRR9261028.7703900,100.00,29,0,0,1,29,484,456,6e-05,54.7
Rhinocladiella_mackenziei_CBS367.92,SRR9261028.644141,100.00,29,0,0,1,29,163,191,6e-05,54.7
Rhinocladiella_mackenziei_CBS367.92,SRR9261028.644141,100.00,29,0,0,1,29,218,190,6e-05,54.7
Veronaea_compacta_CBS268.75_T,SRR9261028.644141,100.00,30,0,0,1,30,162,191,2e-05,56.5
Veronaea_compacta_CBS268.75_T,SRR9261028.644141,100.00,30,0,0,1,30,219,190,2e-05,56.5
Capronia_kleinmondensis_CBS122671_T,SRR9261028.7703900,100.00,32,0,0,1,32,22,53,1e-06,60.2
Capronia_kleinmondensis_CBS122671_T,SRR9261028.7703900,100.00,32,0,0,1,32,487,456,1e-06,60.2
Capronia_kleinmondensis_CBS122671_T,SRR9261028.644141,100.00,30,0,0,1,30,159,188,2e-05,56.5
Capronia_kleinmondensis_CBS122671_T,SRR9261028.644141,100.00,30,0,0,1,30,222,193,2e-05,56.5
Capronia_kleinmondensis_CBS122671_T,SRR9261028.7809646,100.00,29,0,0,1,29,204,176,7e-05,54.7
Capronia_kleinmondensis_CBS122671_T,SRR9261028.7809646,100.00,29,0,0,1,29,339,367,7e-05,54.7
Capronia_kleinmondensis_CBS122671_T,SRR9261028.7203301,100.00,29,0,0,1,29,303,275,7e-05,54.7
Capronia_kleinmondensis_CBS122671_T,SRR9261028.6997114,100.00,29,0,0,1,29,108,80,7e-05,54.7
Capronia_kleinmondensis_CBS122671_T,SRR9261028.6997114,100.00,29,0,0,1,29,283,311,7e-05,54.7
Capronia_kleinmondensis_CBS122671_T,SRR9261028.6461797,100.00,29,0,0,1,29,133,105,7e-05,54.7
Capronia_kleinmondensis_CBS122671_T,SRR9261028.5880206,100.00,29,0,0,1,29,290,318,7e-05,54.7
Capronia_kleinmondensis_CBS122671_T,SRR9261028.5725700,100.00,29,0,0,1,29,153,181,7e-05,54.7
Capronia_kleinmondensis_CBS122671_T,SRR9261028.5725700,100.00,29,0,0,1,29,351,323,7e-05,54.7
Capronia_kleinmondensis_CBS122671_T,SRR9261028.5666432,100.00,29,0,0,1,29,98,70,7e-05,54.7
Capronia_kleinmondensis_CBS122671_T,SRR9261028.5666432,100.00,29,0,0,1,29,273,301,7e-05,54.7
Capronia_kleinmondensis_CBS122671_T,SRR9261028.5651568,100.00,29,0,0,1,29,79,51,7e-05,54.7
Capronia_kleinmondensis_CBS122671_T,SRR9261028.5651568,100.00,29,0,0,1,29,384,412,7e-05,54.7
Capronia_kleinmondensis_CBS122671_T,SRR9261028.5623782,100.00,29,0,0,1,29,153,181,7e-05,54.7
Capronia_kleinmondensis_CBS122671_T,SRR9261028.5623782,100.00,29,0,0,1,29,357,329,7e-05,54.7
Capronia_kleinmondensis_CBS122671_T,SRR9261028.5228475,100.00,29,0,0,1,29,239,211,7e-05,54.7
Capronia_kleinmondensis_CBS122671_T,SRR9261028.5228475,100.00,29,0,0,1,29,365,393,7e-05,54.7
Capronia_kleinmondensis_CBS122671_T,SRR9261028.4488751,100.00,29,0,0,1,29,171,143,7e-05,54.7
Capronia_kleinmondensis_CBS122671_T,SRR9261028.4488751,100.00,29,0,0,1,29,338,366,7e-05,54.7
Capronia_kleinmondensis_CBS122671_T,SRR9261028.4000589,100.00,29,0,0,1,29,116,144,7e-05,54.7
Capronia_kleinmondensis_CBS122671_T,SRR9261028.4000589,100.00,29,0,0,1,29,309,281,7e-05,54.7
Capronia_kleinmondensis_CBS122671_T,SRR9261028.3865075,100.00,29,0,0,1,29,349,321,7e-05,54.7
Capronia_kleinmondensis_CBS122671_T,SRR9261028.3795796,100.00,29,0,0,1,29,4,32,7e-05,54.7
Capronia_kleinmondensis_CBS122671_T,SRR9261028.3795796,100.00,29,0,0,1,29,399,371,7e-05,54.7
Capronia_kleinmondensis_CBS122671_T,SRR9261028.3581538,100.00,29,0,0,1,29,46,74,7e-05,54.7
Capronia_kleinmondensis_CBS122671_T,SRR9261028.3581538,100.00,29,0,0,1,29,403,375,7e-05,54.7
Capronia_kleinmondensis_CBS122671_T,SRR9261028.3471952,100.00,29,0,0,1,29,128,100,7e-05,54.7
Capronia_kleinmondensis_CBS122671_T,SRR9261028.3471952,100.00,29,0,0,1,29,315,343,7e-05,54.7
Capronia_kleinmondensis_CBS122671_T,SRR9261028.3169644,100.00,29,0,0,1,29,139,111,7e-05,54.7
Capronia_kleinmondensis_CBS122671_T,SRR9261028.3169644,100.00,29,0,0,1,29,372,400,7e-05,54.7
Capronia_kleinmondensis_CBS122671_T,SRR9261028.2981054,100.00,29,0,0,1,29,178,150,7e-05,54.7
Capronia_kleinmondensis_CBS122671_T,SRR9261028.2981054,100.00,29,0,0,1,29,207,235,7e-05,54.7
Capronia_kleinmondensis_CBS122671_T,SRR9261028.2640158,100.00,29,0,0,1,29,74,102,7e-05,54.7
Capronia_kleinmondensis_CBS122671_T,SRR9261028.2640158,100.00,29,0,0,1,29,363,335,7e-05,54.7
Capronia_kleinmondensis_CBS122671_T,SRR9261028.2063987,100.00,29,0,0,1,29,39,67,7e-05,54.7
Capronia_kleinmondensis_CBS122671_T,SRR9261028.2021168,100.00,29,0,0,1,29,98,70,7e-05,54.7
Capronia_kleinmondensis_CBS122671_T,SRR9261028.2021168,100.00,29,0,0,1,29,151,179,7e-05,54.7
Capronia_kleinmondensis_CBS122671_T,SRR9261028.1974320,100.00,29,0,0,1,29,121,149,7e-05,54.7
Capronia_kleinmondensis_CBS122671_T,SRR9261028.1974320,100.00,29,0,0,1,29,284,256,7e-05,54.7
Capronia_kleinmondensis_CBS122671_T,SRR9261028.1104436,100.00,29,0,0,1,29,336,364,7e-05,54.7
Capronia_kleinmondensis_CBS122671_T,SRR9261028.925730,100.00,29,0,0,1,29,35,7,7e-05,54.7
Capronia_kleinmondensis_CBS122671_T,SRR9261028.775911,100.00,29,0,0,1,29,16,44,7e-05,54.7
Capronia_kleinmondensis_CBS122671_T,SRR9261028.775911,100.00,29,0,0,1,29,103,75,7e-05,54.7
Veronaea_japonica_CBS776.83_T,SRR9261028.644141,100.00,41,0,0,1,41,151,191,1e-11,76.8
Veronaea_japonica_CBS776.83_T,SRR9261028.644141,100.00,41,0,0,1,41,230,190,1e-11,76.8
Veronaea_japonica_CBS776.83_T,SRR9261028.7703900,100.00,38,0,0,1,38,14,51,6e-10,71.3
Veronaea_japonica_CBS776.83_T,SRR9261028.7703900,100.00,38,0,0,1,38,495,458,6e-10,71.3
Veronaea_japonica_CBS776.83_T,SRR9261028.7809646,100.00,37,0,0,1,37,212,176,2e-09,69.4
Veronaea_japonica_CBS776.83_T,SRR9261028.7809646,100.00,37,0,0,1,37,331,367,2e-09,69.4
Veronaea_japonica_CBS776.83_T,SRR9261028.7203301,100.00,37,0,0,1,37,311,275,2e-09,69.4
Veronaea_japonica_CBS776.83_T,SRR9261028.6997114,100.00,37,0,0,1,37,116,80,2e-09,69.4
Veronaea_japonica_CBS776.83_T,SRR9261028.6997114,100.00,37,0,0,1,37,275,311,2e-09,69.4
Veronaea_japonica_CBS776.83_T,SRR9261028.6461797,100.00,37,0,0,1,37,141,105,2e-09,69.4
Veronaea_japonica_CBS776.83_T,SRR9261028.6461797,100.00,29,0,0,1,29,473,501,6e-05,54.7
Veronaea_japonica_CBS776.83_T,SRR9261028.5880206,100.00,37,0,0,1,37,282,318,2e-09,69.4
Veronaea_japonica_CBS776.83_T,SRR9261028.5725700,100.00,37,0,0,1,37,145,181,2e-09,69.4
Veronaea_japonica_CBS776.83_T,SRR9261028.5725700,100.00,37,0,0,1,37,359,323,2e-09,69.4
Veronaea_japonica_CBS776.83_T,SRR9261028.5666432,100.00,37,0,0,1,37,106,70,2e-09,69.4
Veronaea_japonica_CBS776.83_T,SRR9261028.5666432,100.00,37,0,0,1,37,265,301,2e-09,69.4
Veronaea_japonica_CBS776.83_T,SRR9261028.5651568,100.00,37,0,0,1,37,87,51,2e-09,69.4
Veronaea_japonica_CBS776.83_T,SRR9261028.5651568,100.00,37,0,0,1,37,376,412,2e-09,69.4
Veronaea_japonica_CBS776.83_T,SRR9261028.5623782,100.00,37,0,0,1,37,145,181,2e-09,69.4
Veronaea_japonica_CBS776.83_T,SRR9261028.5623782,100.00,37,0,0,1,37,365,329,2e-09,69.4
Veronaea_japonica_CBS776.83_T,SRR9261028.5228475,100.00,37,0,0,1,37,247,211,2e-09,69.4
Veronaea_japonica_CBS776.83_T,SRR9261028.5228475,100.00,37,0,0,1,37,357,393,2e-09,69.4
Veronaea_japonica_CBS776.83_T,SRR9261028.4488751,100.00,37,0,0,1,37,179,143,2e-09,69.4
Veronaea_japonica_CBS776.83_T,SRR9261028.4488751,100.00,37,0,0,1,37,330,366,2e-09,69.4
Veronaea_japonica_CBS776.83_T,SRR9261028.4000589,100.00,37,0,0,1,37,108,144,2e-09,69.4
Veronaea_japonica_CBS776.83_T,SRR9261028.4000589,100.00,37,0,0,1,37,317,281,2e-09,69.4
Veronaea_japonica_CBS776.83_T,SRR9261028.3865075,100.00,37,0,0,1,37,357,321,2e-09,69.4
Veronaea_japonica_CBS776.83_T,SRR9261028.3581538,100.00,37,0,0,1,37,38,74,2e-09,69.4
Veronaea_japonica_CBS776.83_T,SRR9261028.3581538,100.00,37,0,0,1,37,411,375,2e-09,69.4
Veronaea_japonica_CBS776.83_T,SRR9261028.3471952,100.00,37,0,0,1,37,136,100,2e-09,69.4
Veronaea_japonica_CBS776.83_T,SRR9261028.3471952,100.00,37,0,0,1,37,307,343,2e-09,69.4
Veronaea_japonica_CBS776.83_T,SRR9261028.3169644,100.00,37,0,0,1,37,147,111,2e-09,69.4
Veronaea_japonica_CBS776.83_T,SRR9261028.3169644,100.00,37,0,0,1,37,364,400,2e-09,69.4
Veronaea_japonica_CBS776.83_T,SRR9261028.2981054,100.00,37,0,0,1,37,186,150,2e-09,69.4
Veronaea_japonica_CBS776.83_T,SRR9261028.2981054,100.00,37,0,0,1,37,199,235,2e-09,69.4
Veronaea_japonica_CBS776.83_T,SRR9261028.2640158,100.00,37,0,0,1,37,66,102,2e-09,69.4
Veronaea_japonica_CBS776.83_T,SRR9261028.2640158,100.00,37,0,0,1,37,371,335,2e-09,69.4
Veronaea_japonica_CBS776.83_T,SRR9261028.2063987,100.00,37,0,0,1,37,31,67,2e-09,69.4
Veronaea_japonica_CBS776.83_T,SRR9261028.2021168,100.00,37,0,0,1,37,106,70,2e-09,69.4
Veronaea_japonica_CBS776.83_T,SRR9261028.2021168,100.00,37,0,0,1,37,143,179,2e-09,69.4
Veronaea_japonica_CBS776.83_T,SRR9261028.1974320,100.00,37,0,0,1,37,113,149,2e-09,69.4
Veronaea_japonica_CBS776.83_T,SRR9261028.1974320,100.00,37,0,0,1,37,292,256,2e-09,69.4
Veronaea_japonica_CBS776.83_T,SRR9261028.1104436,100.00,37,0,0,1,37,328,364,2e-09,69.4
Veronaea_japonica_CBS776.83_T,SRR9261028.925730,100.00,37,0,0,1,37,43,7,2e-09,69.4
Veronaea_japonica_CBS776.83_T,SRR9261028.775911,100.00,37,0,0,1,37,8,44,2e-09,69.4
Veronaea_japonica_CBS776.83_T,SRR9261028.775911,100.00,37,0,0,1,37,111,75,2e-09,69.4
Veronaea_japonica_CBS776.83_T,SRR9261028.3795796,100.00,32,0,0,6,37,1,32,1e-06,60.2
Veronaea_japonica_CBS776.83_T,SRR9261028.3795796,100.00,32,0,0,6,37,402,371,1e-06,60.2
Veronaea_japonica_CBS776.83_T,SRR9261028.846062,97.06,34,1,0,1,34,223,256,5e-06,58.4
Veronaea_japonica_CBS776.83_T,SRR9261028.23826,100.00,29,0,0,1,29,29,1,6e-05,54.7
Veronaea_japonica_CBS776.83_T,SRR9261028.23826,100.00,29,0,0,1,29,256,284,6e-05,54.7
Fonsecaea_pedrosoi_CBS271.37_T,SRR9261028.644141,100.00,31,0,0,1,31,159,189,5e-06,58.4
Fonsecaea_pedrosoi_CBS271.37_T,SRR9261028.644141,100.00,31,0,0,1,31,222,192,5e-06,58.4
Fonsecaea_pedrosoi_CBS271.37_T,SRR9261028.7703900,100.00,30,0,0,1,30,22,51,2e-05,56.5
Fonsecaea_pedrosoi_CBS271.37_T,SRR9261028.7703900,100.00,30,0,0,1,30,487,458,2e-05,56.5
Fonsecaea_pedrosoi_CBS271.37_T,SRR9261028.7809646,100.00,29,0,0,1,29,204,176,7e-05,54.7
Fonsecaea_pedrosoi_CBS271.37_T,SRR9261028.7809646,100.00,29,0,0,1,29,339,367,7e-05,54.7
Fonsecaea_pedrosoi_CBS271.37_T,SRR9261028.7203301,100.00,29,0,0,1,29,303,275,7e-05,54.7
Fonsecaea_pedrosoi_CBS271.37_T,SRR9261028.6997114,100.00,29,0,0,1,29,108,80,7e-05,54.7
Fonsecaea_pedrosoi_CBS271.37_T,SRR9261028.6997114,100.00,29,0,0,1,29,283,311,7e-05,54.7
Fonsecaea_pedrosoi_CBS271.37_T,SRR9261028.6461797,100.00,29,0,0,1,29,133,105,7e-05,54.7
Fonsecaea_pedrosoi_CBS271.37_T,SRR9261028.5880206,100.00,29,0,0,1,29,290,318,7e-05,54.7
Fonsecaea_pedrosoi_CBS271.37_T,SRR9261028.5725700,100.00,29,0,0,1,29,153,181,7e-05,54.7
Fonsecaea_pedrosoi_CBS271.37_T,SRR9261028.5725700,100.00,29,0,0,1,29,351,323,7e-05,54.7
Fonsecaea_pedrosoi_CBS271.37_T,SRR9261028.5666432,100.00,29,0,0,1,29,98,70,7e-05,54.7
Fonsecaea_pedrosoi_CBS271.37_T,SRR9261028.5666432,100.00,29,0,0,1,29,273,301,7e-05,54.7
Fonsecaea_pedrosoi_CBS271.37_T,SRR9261028.5651568,100.00,29,0,0,1,29,79,51,7e-05,54.7
Fonsecaea_pedrosoi_CBS271.37_T,SRR9261028.5651568,100.00,29,0,0,1,29,384,412,7e-05,54.7
Fonsecaea_pedrosoi_CBS271.37_T,SRR9261028.5623782,100.00,29,0,0,1,29,153,181,7e-05,54.7
Fonsecaea_pedrosoi_CBS271.37_T,SRR9261028.5623782,100.00,29,0,0,1,29,357,329,7e-05,54.7
Fonsecaea_pedrosoi_CBS271.37_T,SRR9261028.5228475,100.00,29,0,0,1,29,239,211,7e-05,54.7
Fonsecaea_pedrosoi_CBS271.37_T,SRR9261028.5228475,100.00,29,0,0,1,29,365,393,7e-05,54.7
Fonsecaea_pedrosoi_CBS271.37_T,SRR9261028.4488751,100.00,29,0,0,1,29,171,143,7e-05,54.7
Fonsecaea_pedrosoi_CBS271.37_T,SRR9261028.4488751,100.00,29,0,0,1,29,338,366,7e-05,54.7
Fonsecaea_pedrosoi_CBS271.37_T,SRR9261028.4000589,100.00,29,0,0,1,29,116,144,7e-05,54.7
Fonsecaea_pedrosoi_CBS271.37_T,SRR9261028.4000589,100.00,29,0,0,1,29,309,281,7e-05,54.7
Fonsecaea_pedrosoi_CBS271.37_T,SRR9261028.3865075,100.00,29,0,0,1,29,349,321,7e-05,54.7
Fonsecaea_pedrosoi_CBS271.37_T,SRR9261028.3795796,100.00,29,0,0,1,29,4,32,7e-05,54.7
Fonsecaea_pedrosoi_CBS271.37_T,SRR9261028.3795796,100.00,29,0,0,1,29,399,371,7e-05,54.7
Fonsecaea_pedrosoi_CBS271.37_T,SRR9261028.3581538,100.00,29,0,0,1,29,46,74,7e-05,54.7
Fonsecaea_pedrosoi_CBS271.37_T,SRR9261028.3581538,100.00,29,0,0,1,29,403,375,7e-05,54.7
Fonsecaea_pedrosoi_CBS271.37_T,SRR9261028.3471952,100.00,29,0,0,1,29,128,100,7e-05,54.7
Fonsecaea_pedrosoi_CBS271.37_T,SRR9261028.3471952,100.00,29,0,0,1,29,315,343,7e-05,54.7
Fonsecaea_pedrosoi_CBS271.37_T,SRR9261028.3169644,100.00,29,0,0,1,29,139,111,7e-05,54.7
Fonsecaea_pedrosoi_CBS271.37_T,SRR9261028.3169644,100.00,29,0,0,1,29,372,400,7e-05,54.7
Fonsecaea_pedrosoi_CBS271.37_T,SRR9261028.2981054,100.00,29,0,0,1,29,178,150,7e-05,54.7
Fonsecaea_pedrosoi_CBS271.37_T,SRR9261028.2981054,100.00,29,0,0,1,29,207,235,7e-05,54.7
Fonsecaea_pedrosoi_CBS271.37_T,SRR9261028.2640158,100.00,29,0,0,1,29,74,102,7e-05,54.7
Fonsecaea_pedrosoi_CBS271.37_T,SRR9261028.2640158,100.00,29,0,0,1,29,363,335,7e-05,54.7
Fonsecaea_pedrosoi_CBS271.37_T,SRR9261028.2063987,100.00,29,0,0,1,29,39,67,7e-05,54.7
Fonsecaea_pedrosoi_CBS271.37_T,SRR9261028.2021168,100.00,29,0,0,1,29,98,70,7e-05,54.7
Fonsecaea_pedrosoi_CBS271.37_T,SRR9261028.2021168,100.00,29,0,0,1,29,151,179,7e-05,54.7
Fonsecaea_pedrosoi_CBS271.37_T,SRR9261028.1974320,100.00,29,0,0,1,29,121,149,7e-05,54.7
Fonsecaea_pedrosoi_CBS271.37_T,SRR9261028.1974320,100.00,29,0,0,1,29,284,256,7e-05,54.7
Fonsecaea_pedrosoi_CBS271.37_T,SRR9261028.1104436,100.00,29,0,0,1,29,336,364,7e-05,54.7
Fonsecaea_pedrosoi_CBS271.37_T,SRR9261028.925730,100.00,29,0,0,1,29,35,7,7e-05,54.7
Fonsecaea_pedrosoi_CBS271.37_T,SRR9261028.775911,100.00,29,0,0,1,29,16,44,7e-05,54.7
Fonsecaea_pedrosoi_CBS271.37_T,SRR9261028.775911,100.00,29,0,0,1,29,103,75,7e-05,54.7
Cladophialophora_australiensis_CBS112793,SRR9261028.5350278,90.08,242,23,1,1230,1471,248,8,2e-82,313
Cladophialophora_australiensis_CBS112793,SRR9261028.5350278,85.32,218,31,1,1153,1370,286,502,3e-56,226
Cladophialophora_australiensis_CBS112793,SRR9261028.7338012,91.79,134,11,0,1338,1471,29,162,1e-44,187
Cladophialophora_australiensis_CBS112793,SRR9261028.2394537,79.76,252,46,4,1178,1426,501,252,9e-42,178
Cladophialophora_australiensis_CBS112793,SRR9261028.2394537,88.57,70,8,0,1178,1247,107,176,6e-14,86.1
Cladophialophora_australiensis_CBS112793,SRR9261028.5017659,78.97,252,48,4,1179,1427,500,251,5e-39,169
Cladophialophora_australiensis_CBS112793,SRR9261028.5017659,77.07,205,42,4,1178,1379,48,250,3e-22,113
Cladophialophora_australiensis_CBS112793,SRR9261028.6635094,79.03,248,47,4,1178,1422,6,251,7e-38,165
Cladophialophora_australiensis_CBS112793,SRR9261028.127047,78.76,226,43,4,1178,1400,224,1,3e-32,147
Cladophialophora_australiensis_CBS112793,SRR9261028.127047,88.57,70,8,0,1178,1247,371,440,6e-14,86.1
Cladophialophora_australiensis_CBS112793,SRR9261028.6446739,77.98,218,43,4,1178,1392,467,252,7e-28,132
Cladophialophora_australiensis_CBS112793,SRR9261028.6446739,76.50,200,42,4,1178,1374,54,251,2e-19,104
Cladophialophora_australiensis_CBS112793,SRR9261028.2405394,77.40,208,40,6,1178,1381,205,1,2e-23,117
Cladophialophora_australiensis_CBS112793,SRR9261028.2405394,88.06,67,8,0,1178,1244,435,501,3e-12,80.5
Cladophialophora_australiensis_CBS112793,SRR9261028.3197194,100.00,60,0,0,1412,1471,2,61,9e-22,111
Cladophialophora_australiensis_CBS112793,SRR9261028.3197194,100.00,60,0,0,1412,1471,437,378,9e-22,111
Cladophialophora_australiensis_CBS112793,SRR9261028.6442674,95.31,64,3,0,1338,1401,65,2,6e-19,102
Cladophialophora_australiensis_CBS112793,SRR9261028.6442674,95.31,64,3,0,1338,1401,142,205,6e-19,102
Cladophialophora_australiensis_CBS112793,SRR9261028.14310,77.01,187,38,4,1178,1361,447,263,6e-19,102
Cladophialophora_australiensis_CBS112793,SRR9261028.14310,88.57,70,8,0,1178,1247,119,188,6e-14,86.1
Cladophialophora_australiensis_CBS112793,SRR9261028.488372,76.11,180,38,4,1178,1354,178,1,4e-15,89.8
Cladophialophora_australiensis_CBS112793,SRR9261028.488372,76.11,180,38,4,1178,1354,189,366,4e-15,89.8
Cladophialophora_australiensis_CBS112793,SRR9261028.5836029,88.57,70,8,0,1178,1247,128,59,6e-14,86.1
Cladophialophora_australiensis_CBS112793,SRR9261028.5836029,88.57,70,8,0,1178,1247,291,360,6e-14,86.1
Cladophialophora_australiensis_CBS112793,SRR9261028.4605820,88.57,70,8,0,1178,1247,118,187,6e-14,86.1
Cladophialophora_australiensis_CBS112793,SRR9261028.4605820,88.57,70,8,0,1178,1247,341,272,6e-14,86.1
Cladophialophora_australiensis_CBS112793,SRR9261028.3999951,88.57,70,8,0,1178,1247,355,286,6e-14,86.1
Cladophialophora_australiensis_CBS112793,SRR9261028.3999951,89.23,65,6,1,1178,1241,184,248,3e-12,80.5
Cladophialophora_australiensis_CBS112793,SRR9261028.3348101,88.57,70,8,0,1178,1247,119,188,6e-14,86.1
Cladophialophora_australiensis_CBS112793,SRR9261028.3348101,88.57,70,8,0,1178,1247,342,273,6e-14,86.1
Cladophialophora_australiensis_CBS112793,SRR9261028.2740226,88.57,70,8,0,1178,1247,158,89,6e-14,86.1
Cladophialophora_australiensis_CBS112793,SRR9261028.2735811,88.57,70,8,0,1178,1247,340,271,6e-14,86.1
Cladophialophora_australiensis_CBS112793,SRR9261028.2735811,92.73,55,4,0,1178,1232,189,243,3e-12,80.5
Cladophialophora_australiensis_CBS112793,SRR9261028.2552703,88.57,70,8,0,1178,1247,111,180,6e-14,86.1
Cladophialophora_australiensis_CBS112793,SRR9261028.2552703,88.57,70,8,0,1178,1247,290,221,6e-14,86.1
Cladophialophora_australiensis_CBS112793,SRR9261028.2219997,88.57,70,8,0,1178,1247,89,20,6e-14,86.1
Cladophialophora_australiensis_CBS112793,SRR9261028.1729838,88.57,70,8,0,1178,1247,379,310,6e-14,86.1
Cladophialophora_australiensis_CBS112793,SRR9261028.1729838,92.73,55,4,0,1178,1232,196,250,3e-12,80.5
Cladophialophora_australiensis_CBS112793,SRR9261028.1711003,88.57,70,8,0,1178,1247,128,59,6e-14,86.1
Cladophialophora_australiensis_CBS112793,SRR9261028.1711003,88.57,70,8,0,1178,1247,201,270,6e-14,86.1
Cladophialophora_australiensis_CBS112793,SRR9261028.1362434,88.57,70,8,0,1178,1247,82,151,6e-14,86.1
Cladophialophora_australiensis_CBS112793,SRR9261028.1362434,88.57,70,8,0,1178,1247,409,340,6e-14,86.1
Cladophialophora_australiensis_CBS112793,SRR9261028.3038782,87.14,70,9,0,1178,1247,128,59,3e-12,80.5
Cladophialophora_australiensis_CBS112793,SRR9261028.3038782,89.23,65,6,1,1178,1241,313,377,3e-12,80.5
Cladophialophora_australiensis_CBS112793,SRR9261028.4621494,93.62,47,3,0,1178,1224,394,440,4e-10,73.1
Cladophialophora_australiensis_CBS112793,SRR9261028.4621494,93.62,47,3,0,1178,1224,47,1,2e-09,71.3
Cladophialophora_australiensis_CBS112793,SRR9261028.1340675,93.62,47,3,0,1178,1224,47,1,2e-09,71.3
Cladophialophora_australiensis_CBS112793,SRR9261028.1340675,91.49,47,4,0,1178,1224,348,394,7e-08,65.8
Cladophialophora_australiensis_CBS112793,SRR9261028.4655561,93.02,43,3,0,1178,1220,82,124,3e-07,63.9
Cladophialophora_australiensis_CBS112793,SRR9261028.4655561,93.02,43,3,0,1178,1220,167,125,3e-07,63.9
Cladophialophora_australiensis_CBS112793,SRR9261028.5402796,92.86,42,3,0,1178,1219,119,160,9e-07,62.1
Cladophialophora_australiensis_CBS112793,SRR9261028.5402796,92.86,42,3,0,1178,1219,200,159,9e-07,62.1
Cladophialophora_australiensis_CBS112793,SRR9261028.6902071,100.00,32,0,0,1178,1209,41,10,3e-06,60.2
Cladophialophora_australiensis_CBS112793,SRR9261028.6363880,86.79,53,7,0,1180,1232,59,7,3e-06,60.2
Cladophialophora_australiensis_CBS112793,SRR9261028.6363880,86.79,53,7,0,1180,1232,84,136,3e-06,60.2
Cladophialophora_australiensis_CBS112793,SRR9261028.5027198,100.00,32,0,0,1178,1209,284,253,3e-06,60.2
Cladophialophora_australiensis_CBS112793,SRR9261028.4397397,100.00,32,0,0,1178,1209,39,8,3e-06,60.2
Cladophialophora_australiensis_CBS112793,SRR9261028.4334125,100.00,32,0,0,1178,1209,284,253,3e-06,60.2
Cladophialophora_australiensis_CBS112793,SRR9261028.4186496,100.00,32,0,0,1178,1209,287,256,3e-06,60.2
Cladophialophora_potulentorum_CBS112222,SRR9261028.5350278,89.56,249,25,1,1232,1480,248,1,7e-83,315
Cladophialophora_potulentorum_CBS112222,SRR9261028.5350278,84.40,218,33,1,1155,1372,286,502,7e-53,215
Cladophialophora_potulentorum_CBS112222,SRR9261028.6490220,89.35,169,18,0,1320,1488,210,42,2e-52,213
Cladophialophora_potulentorum_CBS112222,SRR9261028.2311185,89.35,169,18,0,1320,1488,28,196,2e-52,213
Cladophialophora_potulentorum_CBS112222,SRR9261028.2311185,89.35,169,18,0,1320,1488,393,225,2e-52,213
Cladophialophora_potulentorum_CBS112222,SRR9261028.1761946,89.35,169,18,0,1320,1488,188,20,2e-52,213
Cladophialophora_potulentorum_CBS112222,SRR9261028.1149419,89.35,169,18,0,1320,1488,59,227,2e-52,213
Cladophialophora_potulentorum_CBS112222,SRR9261028.1149419,89.35,169,18,0,1320,1488,482,314,2e-52,213
Cladophialophora_potulentorum_CBS112222,SRR9261028.1008029,89.35,169,18,0,1320,1488,227,59,2e-52,213
Cladophialophora_potulentorum_CBS112222,SRR9261028.1008029,89.35,169,18,0,1320,1488,290,458,2e-52,213
Cladophialophora_potulentorum_CBS112222,SRR9261028.239596,89.35,169,18,0,1320,1488,201,33,2e-52,213
Cladophialophora_potulentorum_CBS112222,SRR9261028.239596,89.35,169,18,0,1320,1488,311,479,2e-52,213
Cladophialophora_potulentorum_CBS112222,SRR9261028.4133530,89.29,168,18,0,1320,1487,8,175,9e-52,211
Cladophialophora_potulentorum_CBS112222,SRR9261028.4133530,89.29,168,18,0,1320,1487,343,176,9e-52,211
Cladophialophora_potulentorum_CBS112222,SRR9261028.7338012,90.91,154,14,0,1340,1493,29,182,1e-50,207
Cladophialophora_potulentorum_CBS112222,SRR9261028.1340145,88.96,163,18,0,1320,1482,41,203,5e-49,202
Cladophialophora_potulentorum_CBS112222,SRR9261028.1340145,88.96,163,18,0,1320,1482,362,200,5e-49,202
Cladophialophora_potulentorum_CBS112222,SRR9261028.4397527,90.48,147,14,0,1342,1488,256,402,9e-47,195
Cladophialophora_potulentorum_CBS112222,SRR9261028.4397527,90.62,96,9,0,1393,1488,250,155,9e-27,128
Cladophialophora_potulentorum_CBS112222,SRR9261028.6925533,90.28,144,14,0,1345,1488,250,393,4e-45,189
Cladophialophora_potulentorum_CBS112222,SRR9261028.6925533,90.91,77,6,1,1413,1488,248,172,6e-19,102
Cladophialophora_potulentorum_CBS112222,SRR9261028.6691600,90.14,142,14,0,1347,1488,237,96,5e-44,185
Cladophialophora_potulentorum_CBS112222,SRR9261028.6691600,90.14,142,14,0,1347,1488,236,377,5e-44,185
Cladophialophora_potulentorum_CBS112222,SRR9261028.2394537,80.16,252,45,4,1180,1428,501,252,2e-43,183
Cladophialophora_potulentorum_CBS112222,SRR9261028.2394537,90.00,70,7,0,1180,1249,107,176,1e-15,91.6
Cladophialophora_potulentorum_CBS112222,SRR9261028.5017659,79.37,252,47,4,1181,1429,500,251,1e-40,174
Cladophialophora_potulentorum_CBS112222,SRR9261028.5017659,77.56,205,41,4,1180,1381,48,250,6e-24,119
Cladophialophora_potulentorum_CBS112222,SRR9261028.3123057,88.73,142,16,0,1347,1488,499,358,1e-40,174
Cladophialophora_potulentorum_CBS112222,SRR9261028.6635094,79.44,248,46,4,1180,1424,6,251,2e-39,171
Cladophialophora_potulentorum_CBS112222,SRR9261028.6635094,88.75,80,9,0,1409,1488,500,421,7e-18,99.0
Cladophialophora_potulentorum_CBS112222,SRR9261028.7852033,90.91,121,11,0,1368,1488,151,31,3e-37,163
Cladophialophora_potulentorum_CBS112222,SRR9261028.7852033,90.91,121,11,0,1368,1488,156,276,3e-37,163
Cladophialophora_potulentorum_CBS112222,SRR9261028.3800708,90.91,121,11,0,1368,1488,151,31,3e-37,163
Cladophialophora_potulentorum_CBS112222,SRR9261028.3800708,90.91,121,11,0,1368,1488,156,276,3e-37,163
Cladophialophora_potulentorum_CBS112222,SRR9261028.1112533,90.91,121,11,0,1368,1488,255,375,3e-37,163
Cladophialophora_potulentorum_CBS112222,SRR9261028.1112533,90.99,111,10,0,1378,1488,251,141,2e-33,150
Cladophialophora_potulentorum_CBS112222,SRR9261028.4631870,91.45,117,10,0,1372,1488,158,42,9e-37,161
Cladophialophora_potulentorum_CBS112222,SRR9261028.4631870,91.45,117,10,0,1372,1488,165,281,9e-37,161
Cladophialophora_potulentorum_CBS112222,SRR9261028.1101246,91.45,117,10,0,1372,1488,255,371,9e-37,161
Cladophialophora_potulentorum_CBS112222,SRR9261028.1101246,91.78,73,6,0,1416,1488,248,176,6e-19,102
Cladophialophora_potulentorum_CBS112222,SRR9261028.6993298,91.23,114,10,0,1375,1488,1,114,4e-35,156
Cladophialophora_potulentorum_CBS112222,SRR9261028.6993298,91.23,114,10,0,1375,1488,402,289,4e-35,156
Cladophialophora_potulentorum_CBS112222,SRR9261028.6824401,91.23,114,10,0,1375,1488,1,114,4e-35,156
Cladophialophora_potulentorum_CBS112222,SRR9261028.6824401,91.23,114,10,0,1375,1488,484,371,4e-35,156
Cladophialophora_potulentorum_CBS112222,SRR9261028.3308265,91.23,114,10,0,1375,1488,1,114,4e-35,156
Cladophialophora_potulentorum_CBS112222,SRR9261028.3308265,91.23,114,10,0,1375,1488,368,255,4e-35,156
Cladophialophora_potulentorum_CBS112222,SRR9261028.127047,79.20,226,42,4,1180,1402,224,1,6e-34,152
Cladophialophora_potulentorum_CBS112222,SRR9261028.127047,90.00,70,7,0,1180,1249,371,440,1e-15,91.6
Cladophialophora_potulentorum_CBS112222,SRR9261028.6446739,78.44,218,42,4,1180,1394,467,252,2e-29,137
Cladophialophora_potulentorum_CBS112222,SRR9261028.6446739,77.00,200,41,4,1180,1376,54,251,3e-21,110
Cladophialophora_potulentorum_CBS112222,SRR9261028.3197194,98.67,75,1,0,1414,1488,2,76,2e-28,134
Cladophialophora_potulentorum_CBS112222,SRR9261028.3197194,98.67,75,1,0,1414,1488,437,363,2e-28,134
Cladophialophora_potulentorum_CBS112222,SRR9261028.2405394,77.88,208,39,6,1180,1383,205,1,4e-25,122
Cladophialophora_potulentorum_CBS112222,SRR9261028.2405394,89.55,67,7,0,1180,1246,435,501,6e-14,86.1
Cladophialophora_potulentorum_CBS112222,SRR9261028.2893064,89.77,88,9,0,1401,1488,250,337,3e-22,113
Cladophialophora_potulentorum_CBS112222,SRR9261028.14310,77.54,187,37,4,1180,1363,447,263,1e-20,108
Cladophialophora_potulentorum_CBS112222,SRR9261028.14310,90.00,70,7,0,1180,1249,119,188,1e-15,91.6
Cladophialophora_potulentorum_CBS112222,SRR9261028.6712613,90.91,77,6,1,1413,1488,3,79,6e-19,102
Cladophialophora_potulentorum_CBS112222,SRR9261028.6712613,90.91,77,6,1,1413,1488,232,156,6e-19,102
Cladophialophora_potulentorum_CBS112222,SRR9261028.6442674,95.31,64,3,0,1340,1403,65,2,6e-19,102
Cladophialophora_potulentorum_CBS112222,SRR9261028.6442674,95.31,64,3,0,1340,1403,142,205,6e-19,102
Cladophialophora_potulentorum_CBS112222,SRR9261028.5483009,90.91,77,6,1,1413,1488,172,96,6e-19,102
Cladophialophora_potulentorum_CBS112222,SRR9261028.5483009,90.91,77,6,1,1413,1488,175,251,6e-19,102
Cladophialophora_potulentorum_CBS112222,SRR9261028.488372,76.67,180,37,4,1180,1356,178,1,9e-17,95.3
Cladophialophora_potulentorum_CBS112222,SRR9261028.488372,76.67,180,37,4,1180,1356,189,366,9e-17,95.3
Cladophialophora_potulentorum_CBS112222,SRR9261028.5836029,90.00,70,7,0,1180,1249,128,59,1e-15,91.6
Cladophialophora_potulentorum_CBS112222,SRR9261028.5836029,90.00,70,7,0,1180,1249,291,360,1e-15,91.6
Cladophialophora_potulentorum_CBS112222,SRR9261028.4605820,90.00,70,7,0,1180,1249,118,187,1e-15,91.6
Cladophialophora_potulentorum_CBS112222,SRR9261028.4605820,90.00,70,7,0,1180,1249,341,272,1e-15,91.6
Cladophialophora_potulentorum_CBS112222,SRR9261028.3999951,90.00,70,7,0,1180,1249,355,286,1e-15,91.6
Cladophialophora_potulentorum_CBS112222,SRR9261028.3999951,90.77,65,5,1,1180,1243,184,248,6e-14,86.1
Cladophialophora_potulentorum_CBS112222,SRR9261028.3348101,90.00,70,7,0,1180,1249,119,188,1e-15,91.6
Cladophialophora_potulentorum_CBS112222,SRR9261028.3348101,90.00,70,7,0,1180,1249,342,273,1e-15,91.6
Cladophialophora_potulentorum_CBS112222,SRR9261028.2740226,90.00,70,7,0,1180,1249,158,89,1e-15,91.6
Cladophialophora_potulentorum_CBS112222,SRR9261028.2735811,90.00,70,7,0,1180,1249,340,271,1e-15,91.6
Cladophialophora_potulentorum_CBS112222,SRR9261028.2735811,94.55,55,3,0,1180,1234,189,243,6e-14,86.1
Cladophialophora_potulentorum_CBS112222,SRR9261028.2552703,90.00,70,7,0,1180,1249,111,180,1e-15,91.6
Cladophialophora_potulentorum_CBS112222,SRR9261028.2552703,90.00,70,7,0,1180,1249,290,221,1e-15,91.6
Cladophialophora_potulentorum_CBS112222,SRR9261028.2219997,90.00,70,7,0,1180,1249,89,20,1e-15,91.6
Cladophialophora_potulentorum_CBS112222,SRR9261028.1729838,90.00,70,7,0,1180,1249,379,310,1e-15,91.6
Cladophialophora_potulentorum_CBS112222,SRR9261028.1729838,94.55,55,3,0,1180,1234,196,250,6e-14,86.1
Cladophialophora_potulentorum_CBS112222,SRR9261028.1711003,90.00,70,7,0,1180,1249,128,59,1e-15,91.6
Cladophialophora_potulentorum_CBS112222,SRR9261028.1711003,90.00,70,7,0,1180,1249,201,270,1e-15,91.6
Cladophialophora_potulentorum_CBS112222,SRR9261028.1362434,90.00,70,7,0,1180,1249,82,151,1e-15,91.6
Cladophialophora_potulentorum_CBS112222,SRR9261028.1362434,90.00,70,7,0,1180,1249,409,340,1e-15,91.6
Cladophialophora_potulentorum_CBS112222,SRR9261028.3038782,88.57,70,8,0,1180,1249,128,59,6e-14,86.1
Cladophialophora_potulentorum_CBS112222,SRR9261028.3038782,90.77,65,5,1,1180,1243,313,377,6e-14,86.1
Cladophialophora_potulentorum_CBS112222,SRR9261028.4621494,95.74,47,2,0,1180,1226,394,440,9e-12,78.7
Cladophialophora_potulentorum_CBS112222,SRR9261028.4621494,95.74,47,2,0,1180,1226,47,1,3e-11,76.8
Cladophialophora_potulentorum_CBS112222,SRR9261028.1340675,95.74,47,2,0,1180,1226,47,1,3e-11,76.8
Cladophialophora_potulentorum_CBS112222,SRR9261028.1340675,93.62,47,3,0,1180,1226,348,394,2e-09,71.3
Cladophialophora_potulentorum_CBS112222,SRR9261028.3291548,97.56,41,1,0,1448,1488,254,294,2e-09,71.3
Cladophialophora_potulentorum_CBS112222,SRR9261028.2281472,97.56,41,1,0,1448,1488,245,205,2e-09,71.3
Cladophialophora_potulentorum_CBS112222,SRR9261028.2281472,97.56,41,1,0,1448,1488,252,292,2e-09,71.3
Cladophialophora_potulentorum_CBS112222,SRR9261028.4655561,95.35,43,2,0,1180,1222,82,124,6e-09,69.4
Cladophialophora_potulentorum_CBS112222,SRR9261028.4655561,95.35,43,2,0,1180,1222,167,125,6e-09,69.4
Cladophialophora_potulentorum_CBS112222,SRR9261028.5402796,95.24,42,2,0,1180,1221,119,160,2e-08,67.6
Cladophialophora_potulentorum_CBS112222,SRR9261028.5402796,95.24,42,2,0,1180,1221,200,159,2e-08,67.6
Cladophialophora_potulentorum_CBS112222,SRR9261028.6902071,95.12,41,2,0,1180,1220,41,1,7e-08,65.8
Cladophialophora_potulentorum_CBS112222,SRR9261028.6363880,88.68,53,6,0,1182,1234,59,7,7e-08,65.8
Cladophialophora_potulentorum_CBS112222,SRR9261028.6363880,88.68,53,6,0,1182,1234,84,136,7e-08,65.8
Cladophialophora_potulentorum_CBS112222,SRR9261028.4397397,94.87,39,2,0,1180,1218,39,1,1e-06,62.1
Cladophialophora_potulentorum_CBS112222,SRR9261028.5027198,100.00,32,0,0,1180,1211,284,253,3e-06,60.2
Cladophialophora_potulentorum_CBS112222,SRR9261028.4334125,100.00,32,0,0,1180,1211,284,253,3e-06,60.2
Cladophialophora_potulentorum_CBS112222,SRR9261028.4186496,100.00,32,0,0,1180,1211,287,256,3e-06,60.2
Cladophialophora_chaetospira_CBS127573,SRR9261028.644141,100.00,34,0,0,379,412,158,191,2e-07,63.9
Cladophialophora_chaetospira_CBS127573,SRR9261028.644141,100.00,34,0,0,379,412,223,190,2e-07,63.9
Cladophialophora_chaetospira_CBS127573,SRR9261028.7703900,100.00,31,0,0,379,409,21,51,8e-06,58.4
Cladophialophora_chaetospira_CBS127573,SRR9261028.7703900,100.00,31,0,0,379,409,488,458,8e-06,58.4
Cladophialophora_chaetospira_CBS127573,SRR9261028.7809646,100.00,30,0,0,379,408,205,176,3e-05,56.5
Cladophialophora_chaetospira_CBS127573,SRR9261028.7809646,100.00,30,0,0,379,408,338,367,3e-05,56.5
Cladophialophora_chaetospira_CBS127573,SRR9261028.7203301,100.00,30,0,0,379,408,304,275,3e-05,56.5
Cladophialophora_chaetospira_CBS127573,SRR9261028.6997114,100.00,30,0,0,379,408,109,80,3e-05,56.5
Cladophialophora_chaetospira_CBS127573,SRR9261028.6997114,100.00,30,0,0,379,408,282,311,3e-05,56.5
Cladophialophora_chaetospira_CBS127573,SRR9261028.6461797,100.00,30,0,0,379,408,134,105,3e-05,56.5
Cladophialophora_chaetospira_CBS127573,SRR9261028.5880206,100.00,30,0,0,379,408,289,318,3e-05,56.5
Cladophialophora_chaetospira_CBS127573,SRR9261028.5725700,100.00,30,0,0,379,408,152,181,3e-05,56.5
Cladophialophora_chaetospira_CBS127573,SRR9261028.5725700,100.00,30,0,0,379,408,352,323,3e-05,56.5
Cladophialophora_chaetospira_CBS127573,SRR9261028.5666432,100.00,30,0,0,379,408,99,70,3e-05,56.5
Cladophialophora_chaetospira_CBS127573,SRR9261028.5666432,100.00,30,0,0,379,408,272,301,3e-05,56.5
Cladophialophora_chaetospira_CBS127573,SRR9261028.5651568,100.00,30,0,0,379,408,80,51,3e-05,56.5
Cladophialophora_chaetospira_CBS127573,SRR9261028.5651568,100.00,30,0,0,379,408,383,412,3e-05,56.5
Cladophialophora_chaetospira_CBS127573,SRR9261028.5623782,100.00,30,0,0,379,408,152,181,3e-05,56.5
Cladophialophora_chaetospira_CBS127573,SRR9261028.5623782,100.00,30,0,0,379,408,358,329,3e-05,56.5
Cladophialophora_chaetospira_CBS127573,SRR9261028.5228475,100.00,30,0,0,379,408,240,211,3e-05,56.5
Cladophialophora_chaetospira_CBS127573,SRR9261028.5228475,100.00,30,0,0,379,408,364,393,3e-05,56.5
Cladophialophora_chaetospira_CBS127573,SRR9261028.4488751,100.00,30,0,0,379,408,172,143,3e-05,56.5
Cladophialophora_chaetospira_CBS127573,SRR9261028.4488751,100.00,30,0,0,379,408,337,366,3e-05,56.5
Cladophialophora_chaetospira_CBS127573,SRR9261028.4000589,100.00,30,0,0,379,408,115,144,3e-05,56.5
Cladophialophora_chaetospira_CBS127573,SRR9261028.4000589,100.00,30,0,0,379,408,310,281,3e-05,56.5
Cladophialophora_chaetospira_CBS127573,SRR9261028.3865075,100.00,30,0,0,379,408,350,321,3e-05,56.5
Cladophialophora_chaetospira_CBS127573,SRR9261028.3795796,100.00,30,0,0,379,408,3,32,3e-05,56.5
Cladophialophora_chaetospira_CBS127573,SRR9261028.3795796,100.00,30,0,0,379,408,400,371,3e-05,56.5
Cladophialophora_chaetospira_CBS127573,SRR9261028.3581538,100.00,30,0,0,379,408,45,74,3e-05,56.5
Cladophialophora_chaetospira_CBS127573,SRR9261028.3581538,100.00,30,0,0,379,408,404,375,3e-05,56.5
Cladophialophora_chaetospira_CBS127573,SRR9261028.3471952,100.00,30,0,0,379,408,129,100,3e-05,56.5
Cladophialophora_chaetospira_CBS127573,SRR9261028.3471952,100.00,30,0,0,379,408,314,343,3e-05,56.5
Cladophialophora_chaetospira_CBS127573,SRR9261028.3169644,100.00,30,0,0,379,408,140,111,3e-05,56.5
Cladophialophora_chaetospira_CBS127573,SRR9261028.3169644,100.00,30,0,0,379,408,371,400,3e-05,56.5
Cladophialophora_chaetospira_CBS127573,SRR9261028.2981054,100.00,30,0,0,379,408,179,150,3e-05,56.5
Cladophialophora_chaetospira_CBS127573,SRR9261028.2981054,100.00,30,0,0,379,408,206,235,3e-05,56.5
Cladophialophora_chaetospira_CBS127573,SRR9261028.2640158,100.00,30,0,0,379,408,73,102,3e-05,56.5
Cladophialophora_chaetospira_CBS127573,SRR9261028.2640158,100.00,30,0,0,379,408,364,335,3e-05,56.5
Cladophialophora_chaetospira_CBS127573,SRR9261028.2063987,100.00,30,0,0,379,408,38,67,3e-05,56.5
Cladophialophora_chaetospira_CBS127573,SRR9261028.2021168,100.00,30,0,0,379,408,99,70,3e-05,56.5
Cladophialophora_chaetospira_CBS127573,SRR9261028.2021168,100.00,30,0,0,379,408,150,179,3e-05,56.5
Cladophialophora_chaetospira_CBS127573,SRR9261028.1974320,100.00,30,0,0,379,408,120,149,3e-05,56.5
Cladophialophora_chaetospira_CBS127573,SRR9261028.1974320,100.00,30,0,0,379,408,285,256,3e-05,56.5
Cladophialophora_chaetospira_CBS127573,SRR9261028.1104436,100.00,30,0,0,379,408,335,364,3e-05,56.5
Cladophialophora_chaetospira_CBS127573,SRR9261028.925730,100.00,30,0,0,379,408,36,7,3e-05,56.5
Cladophialophora_chaetospira_CBS127573,SRR9261028.775911,100.00,30,0,0,379,408,15,44,3e-05,56.5
Cladophialophora_chaetospira_CBS127573,SRR9261028.775911,100.00,30,0,0,379,408,104,75,3e-05,56.5
Phialophora_americana_CBS400.67,SRR9261028.5350278,88.74,222,24,1,1224,1445,248,28,1e-69,270
Phialophora_americana_CBS400.67,SRR9261028.5350278,85.32,218,31,1,1147,1364,286,502,3e-56,226
Phialophora_americana_CBS400.67,SRR9261028.2394537,79.45,253,45,6,1172,1420,501,252,4e-40,172
Phialophora_americana_CBS400.67,SRR9261028.2394537,88.73,71,6,2,1172,1241,107,176,5e-14,86.1
Phialophora_americana_CBS400.67,SRR9261028.5017659,78.66,253,47,6,1173,1421,500,251,2e-37,163
Phialophora_americana_CBS400.67,SRR9261028.5017659,76.70,206,41,6,1172,1373,48,250,1e-20,108
Phialophora_americana_CBS400.67,SRR9261028.6635094,78.71,249,46,6,1172,1416,6,251,3e-36,159
Phialophora_americana_CBS400.67,SRR9261028.7338012,90.35,114,11,0,1332,1445,29,142,2e-33,150
Phialophora_americana_CBS400.67,SRR9261028.127047,78.41,227,42,6,1172,1394,224,1,1e-30,141
Phialophora_americana_CBS400.67,SRR9261028.127047,88.73,71,6,2,1172,1241,371,440,5e-14,86.1
Phialophora_americana_CBS400.67,SRR9261028.6446739,77.63,219,42,6,1172,1386,467,252,3e-26,126
Phialophora_americana_CBS400.67,SRR9261028.6446739,76.12,201,41,6,1172,1368,54,251,7e-18,99.0
Phialophora_americana_CBS400.67,SRR9261028.2405394,76.92,208,41,6,1172,1375,205,1,9e-22,111
Phialophora_americana_CBS400.67,SRR9261028.2405394,88.24,68,6,2,1172,1238,435,501,3e-12,80.5
Phialophora_americana_CBS400.67,SRR9261028.6442674,95.31,64,3,0,1332,1395,65,2,5e-19,102
Phialophora_americana_CBS400.67,SRR9261028.6442674,95.31,64,3,0,1332,1395,142,205,5e-19,102
Phialophora_americana_CBS400.67,SRR9261028.14310,76.60,188,37,6,1172,1355,447,263,3e-17,97.1
Phialophora_americana_CBS400.67,SRR9261028.14310,88.73,71,6,2,1172,1241,119,188,5e-14,86.1
Phialophora_americana_CBS400.67,SRR9261028.5836029,88.73,71,6,2,1172,1241,128,59,5e-14,86.1
Phialophora_americana_CBS400.67,SRR9261028.5836029,88.73,71,6,2,1172,1241,291,360,5e-14,86.1
Phialophora_americana_CBS400.67,SRR9261028.4605820,88.73,71,6,2,1172,1241,118,187,5e-14,86.1
Phialophora_americana_CBS400.67,SRR9261028.4605820,88.73,71,6,2,1172,1241,341,272,5e-14,86.1
Phialophora_americana_CBS400.67,SRR9261028.3999951,88.73,71,6,2,1172,1241,355,286,5e-14,86.1
Phialophora_americana_CBS400.67,SRR9261028.3999951,89.39,66,4,3,1172,1235,184,248,3e-12,80.5
Phialophora_americana_CBS400.67,SRR9261028.3348101,88.73,71,6,2,1172,1241,119,188,5e-14,86.1
Phialophora_americana_CBS400.67,SRR9261028.3348101,88.73,71,6,2,1172,1241,342,273,5e-14,86.1
Phialophora_americana_CBS400.67,SRR9261028.2740226,88.73,71,6,2,1172,1241,158,89,5e-14,86.1
Phialophora_americana_CBS400.67,SRR9261028.2735811,88.73,71,6,2,1172,1241,340,271,5e-14,86.1
Phialophora_americana_CBS400.67,SRR9261028.2735811,92.86,56,2,2,1172,1226,189,243,3e-12,80.5
Phialophora_americana_CBS400.67,SRR9261028.2552703,88.73,71,6,2,1172,1241,111,180,5e-14,86.1
Phialophora_americana_CBS400.67,SRR9261028.2552703,88.73,71,6,2,1172,1241,290,221,5e-14,86.1
Phialophora_americana_CBS400.67,SRR9261028.2219997,88.73,71,6,2,1172,1241,89,20,5e-14,86.1
Phialophora_americana_CBS400.67,SRR9261028.1729838,88.73,71,6,2,1172,1241,379,310,5e-14,86.1
Phialophora_americana_CBS400.67,SRR9261028.1729838,92.86,56,2,2,1172,1226,196,250,3e-12,80.5
Phialophora_americana_CBS400.67,SRR9261028.1711003,88.73,71,6,2,1172,1241,128,59,5e-14,86.1
Phialophora_americana_CBS400.67,SRR9261028.1711003,88.73,71,6,2,1172,1241,201,270,5e-14,86.1
Phialophora_americana_CBS400.67,SRR9261028.1362434,88.73,71,6,2,1172,1241,82,151,5e-14,86.1
Phialophora_americana_CBS400.67,SRR9261028.1362434,88.73,71,6,2,1172,1241,409,340,5e-14,86.1
Phialophora_americana_CBS400.67,SRR9261028.488372,88.73,71,6,2,1172,1241,178,109,5e-14,86.1
Phialophora_americana_CBS400.67,SRR9261028.488372,88.73,71,6,2,1172,1241,189,258,5e-14,86.1
Phialophora_americana_CBS400.67,SRR9261028.3038782,87.32,71,7,2,1172,1241,128,59,3e-12,80.5
Phialophora_americana_CBS400.67,SRR9261028.3038782,89.39,66,4,3,1172,1235,313,377,3e-12,80.5
Phialophora_americana_CBS400.67,SRR9261028.3197194,100.00,40,0,0,1406,1445,2,41,1e-10,75.0
Phialophora_americana_CBS400.67,SRR9261028.3197194,100.00,40,0,0,1406,1445,437,398,1e-10,75.0
Phialophora_americana_CBS400.67,SRR9261028.4621494,93.75,48,1,2,1172,1218,394,440,4e-10,73.1
Phialophora_americana_CBS400.67,SRR9261028.4621494,93.75,48,1,2,1172,1218,47,1,2e-09,71.3
Phialophora_americana_CBS400.67,SRR9261028.6363880,90.57,53,5,0,1174,1226,59,7,2e-09,71.3
Phialophora_americana_CBS400.67,SRR9261028.6363880,90.57,53,5,0,1174,1226,84,136,2e-09,71.3
Phialophora_americana_CBS400.67,SRR9261028.1340675,93.75,48,1,2,1172,1218,47,1,2e-09,71.3
Phialophora_americana_CBS400.67,SRR9261028.1340675,91.67,48,2,2,1172,1218,348,394,7e-08,65.8
Phialophora_americana_CBS400.67,SRR9261028.4655561,93.18,44,1,2,1172,1214,82,124,3e-07,63.9
Phialophora_americana_CBS400.67,SRR9261028.4655561,93.18,44,1,2,1172,1214,167,125,3e-07,63.9
Phialophora_americana_CBS400.67,SRR9261028.5402796,93.02,43,1,2,1172,1213,119,160,9e-07,62.1
Phialophora_americana_CBS400.67,SRR9261028.5402796,93.02,43,1,2,1172,1213,200,159,9e-07,62.1
Phialophora_americana_CBS400.67,SRR9261028.6902071,100.00,32,0,0,1172,1203,41,10,3e-06,60.2
Phialophora_americana_CBS400.67,SRR9261028.5027198,100.00,32,0,0,1172,1203,284,253,3e-06,60.2
Phialophora_americana_CBS400.67,SRR9261028.4397397,100.00,32,0,0,1172,1203,39,8,3e-06,60.2
Phialophora_americana_CBS400.67,SRR9261028.4334125,100.00,32,0,0,1172,1203,284,253,3e-06,60.2
Phialophora_americana_CBS400.67,SRR9261028.4186496,100.00,32,0,0,1172,1203,287,256,3e-06,60.2
Cyphellophora_laciniata_CBS190.61_T,SRR9261028.644141,98.63,73,1,0,28,100,116,188,1e-27,130
Cyphellophora_laciniata_CBS190.61_T,SRR9261028.644141,98.63,73,1,0,28,100,265,193,1e-27,130
Cyphellophora_laciniata_CBS190.61_T,SRR9261028.5880206,90.12,81,5,2,21,99,239,318,3e-19,102
Cyphellophora_laciniata_CBS190.61_T,SRR9261028.7809646,98.25,57,1,0,43,99,232,176,1e-18,100
Cyphellophora_laciniata_CBS190.61_T,SRR9261028.7809646,98.25,57,1,0,43,99,311,367,1e-18,100
Cyphellophora_laciniata_CBS190.61_T,SRR9261028.7203301,98.25,57,1,0,43,99,331,275,1e-18,100
Cyphellophora_laciniata_CBS190.61_T,SRR9261028.7203301,96.49,57,2,0,43,99,60,116,5e-17,95.3
Cyphellophora_laciniata_CBS190.61_T,SRR9261028.6997114,98.25,57,1,0,43,99,136,80,1e-18,100
Cyphellophora_laciniata_CBS190.61_T,SRR9261028.6997114,98.25,57,1,0,43,99,255,311,1e-18,100
Cyphellophora_laciniata_CBS190.61_T,SRR9261028.6461797,98.25,57,1,0,43,99,161,105,1e-18,100
Cyphellophora_laciniata_CBS190.61_T,SRR9261028.6461797,97.96,49,1,0,43,91,453,501,3e-14,86.1
Cyphellophora_laciniata_CBS190.61_T,SRR9261028.5725700,98.25,57,1,0,43,99,125,181,1e-18,100
Cyphellophora_laciniata_CBS190.61_T,SRR9261028.5725700,98.25,57,1,0,43,99,379,323,1e-18,100
Cyphellophora_laciniata_CBS190.61_T,SRR9261028.5666432,98.25,57,1,0,43,99,126,70,1e-18,100
Cyphellophora_laciniata_CBS190.61_T,SRR9261028.5666432,98.25,57,1,0,43,99,245,301,1e-18,100
Cyphellophora_laciniata_CBS190.61_T,SRR9261028.5651568,98.25,57,1,0,43,99,107,51,1e-18,100
Cyphellophora_laciniata_CBS190.61_T,SRR9261028.5651568,98.25,57,1,0,43,99,356,412,1e-18,100
Cyphellophora_laciniata_CBS190.61_T,SRR9261028.5623782,98.25,57,1,0,43,99,125,181,1e-18,100
Cyphellophora_laciniata_CBS190.61_T,SRR9261028.5623782,98.25,57,1,0,43,99,385,329,1e-18,100
Cyphellophora_laciniata_CBS190.61_T,SRR9261028.5228475,98.25,57,1,0,43,99,337,393,1e-18,100
Cyphellophora_laciniata_CBS190.61_T,SRR9261028.5228475,100.00,41,0,0,59,99,251,211,2e-11,76.8
Cyphellophora_laciniata_CBS190.61_T,SRR9261028.4488751,98.25,57,1,0,43,99,199,143,1e-18,100
Cyphellophora_laciniata_CBS190.61_T,SRR9261028.4488751,98.25,57,1,0,43,99,310,366,1e-18,100
Cyphellophora_laciniata_CBS190.61_T,SRR9261028.4000589,98.25,57,1,0,43,99,88,144,1e-18,100
Cyphellophora_laciniata_CBS190.61_T,SRR9261028.4000589,98.25,57,1,0,43,99,337,281,1e-18,100
Cyphellophora_laciniata_CBS190.61_T,SRR9261028.3865075,98.25,57,1,0,43,99,377,321,1e-18,100
Cyphellophora_laciniata_CBS190.61_T,SRR9261028.3581538,98.25,57,1,0,43,99,18,74,1e-18,100
Cyphellophora_laciniata_CBS190.61_T,SRR9261028.3581538,98.25,57,1,0,43,99,431,375,1e-18,100
Cyphellophora_laciniata_CBS190.61_T,SRR9261028.3471952,98.25,57,1,0,43,99,156,100,1e-18,100
Cyphellophora_laciniata_CBS190.61_T,SRR9261028.3471952,98.25,57,1,0,43,99,287,343,1e-18,100
Cyphellophora_laciniata_CBS190.61_T,SRR9261028.3169644,98.25,57,1,0,43,99,167,111,1e-18,100
Cyphellophora_laciniata_CBS190.61_T,SRR9261028.3169644,98.25,57,1,0,43,99,344,400,1e-18,100
Cyphellophora_laciniata_CBS190.61_T,SRR9261028.2640158,98.25,57,1,0,43,99,46,102,1e-18,100
Cyphellophora_laciniata_CBS190.61_T,SRR9261028.2640158,98.25,57,1,0,43,99,391,335,1e-18,100
Cyphellophora_laciniata_CBS190.61_T,SRR9261028.2063987,98.25,57,1,0,43,99,11,67,1e-18,100
Cyphellophora_laciniata_CBS190.61_T,SRR9261028.2063987,96.49,57,2,0,43,99,408,352,5e-17,95.3
Cyphellophora_laciniata_CBS190.61_T,SRR9261028.1974320,98.25,57,1,0,43,99,93,149,1e-18,100
Cyphellophora_laciniata_CBS190.61_T,SRR9261028.1974320,98.25,57,1,0,43,99,312,256,1e-18,100
Cyphellophora_laciniata_CBS190.61_T,SRR9261028.1104436,98.25,57,1,0,43,99,308,364,1e-18,100
Cyphellophora_laciniata_CBS190.61_T,SRR9261028.925730,98.25,57,1,0,43,99,63,7,1e-18,100
Cyphellophora_laciniata_CBS190.61_T,SRR9261028.2021168,98.18,55,1,0,45,99,124,70,1e-17,97.1
Cyphellophora_laciniata_CBS190.61_T,SRR9261028.2021168,98.18,55,1,0,45,99,125,179,1e-17,97.1
Cyphellophora_laciniata_CBS190.61_T,SRR9261028.7703900,100.00,48,0,0,55,102,6,53,2e-15,89.8
Cyphellophora_laciniata_CBS190.61_T,SRR9261028.7703900,100.00,45,0,0,58,102,500,456,1e-13,84.2
Cyphellophora_laciniata_CBS190.61_T,SRR9261028.846062,96.30,54,2,0,43,96,203,256,2e-15,89.8
Cyphellophora_laciniata_CBS190.61_T,SRR9261028.23826,97.96,49,1,0,43,91,49,1,3e-14,86.1
Cyphellophora_laciniata_CBS190.61_T,SRR9261028.23826,97.96,49,1,0,43,91,236,284,3e-14,86.1
Cyphellophora_laciniata_CBS190.61_T,SRR9261028.94851,92.98,57,4,0,43,99,366,422,1e-13,84.2
Cyphellophora_laciniata_CBS190.61_T,SRR9261028.775911,100.00,44,0,0,56,99,1,44,4e-13,82.4
Cyphellophora_laciniata_CBS190.61_T,SRR9261028.775911,100.00,44,0,0,56,99,118,75,4e-13,82.4
Cyphellophora_laciniata_CBS190.61_T,SRR9261028.2981054,100.00,43,0,0,57,99,192,150,1e-12,80.5
Cyphellophora_laciniata_CBS190.61_T,SRR9261028.2981054,100.00,43,0,0,57,99,193,235,1e-12,80.5
Cyphellophora_laciniata_CBS190.61_T,SRR9261028.7218810,93.88,49,3,0,43,91,84,132,6e-11,75.0
Cyphellophora_laciniata_CBS190.61_T,SRR9261028.7218810,93.88,49,3,0,43,91,159,111,6e-11,75.0
Cyphellophora_laciniata_CBS190.61_T,SRR9261028.3795796,100.00,32,0,0,68,99,1,32,2e-06,60.2
Cyphellophora_laciniata_CBS190.61_T,SRR9261028.3795796,100.00,32,0,0,68,99,402,371,2e-06,60.2
