Exophiala_brunnea_CBS,SRR2107173.8561089,100.00,39,0,0,1,39,29,67,2e-10,73.1
Exophiala_brunnea_CBS,SRR2107173.2312377,100.00,39,0,0,1,39,78,40,2e-10,73.1
Exophiala_brunnea_CBS,SRR2107173.715385,100.00,39,0,0,1,39,41,3,2e-10,73.1
Exophiala_brunnea_CBS,SRR2107173.14334982,97.37,38,1,0,1,38,95,132,4e-08,65.8
Exophiala_brunnea_CBS,SRR2107173.13305919,97.37,38,1,0,1,38,29,66,4e-08,65.8
Exophiala_brunnea_CBS,SRR2107173.13247723,97.37,38,1,0,1,38,47,10,4e-08,65.8
Exophiala_brunnea_CBS,SRR2107173.11178620,97.37,38,1,0,1,38,121,84,4e-08,65.8
Exophiala_brunnea_CBS,SRR2107173.10570349,97.37,38,1,0,1,38,205,168,4e-08,65.8
Exophiala_brunnea_CBS,SRR2107173.10508419,97.37,38,1,0,1,38,121,84,4e-08,65.8
Exophiala_brunnea_CBS,SRR2107173.10386642,97.37,38,1,0,1,38,251,214,4e-08,65.8
Exophiala_brunnea_CBS,SRR2107173.9616657,97.37,38,1,0,1,38,81,118,4e-08,65.8
Exophiala_brunnea_CBS,SRR2107173.9405455,97.37,38,1,0,1,38,240,203,4e-08,65.8
Exophiala_brunnea_CBS,SRR2107173.7861959,97.37,38,1,0,1,38,202,165,4e-08,65.8
Exophiala_brunnea_CBS,SRR2107173.6524874,97.37,38,1,0,1,38,198,161,4e-08,65.8
Exophiala_brunnea_CBS,SRR2107173.6387966,97.37,38,1,0,1,38,233,196,4e-08,65.8
Exophiala_brunnea_CBS,SRR2107173.6170599,97.37,38,1,0,1,38,286,249,4e-08,65.8
Exophiala_brunnea_CBS,SRR2107173.6069155,97.37,38,1,0,1,38,42,79,4e-08,65.8
Exophiala_brunnea_CBS,SRR2107173.5407025,97.37,38,1,0,1,38,63,26,4e-08,65.8
Exophiala_brunnea_CBS,SRR2107173.4670382,97.37,38,1,0,1,38,215,252,4e-08,65.8
Exophiala_brunnea_CBS,SRR2107173.4414478,97.37,38,1,0,1,38,19,56,4e-08,65.8
Exophiala_brunnea_CBS,SRR2107173.4352879,97.37,38,1,0,1,38,126,89,4e-08,65.8
Exophiala_brunnea_CBS,SRR2107173.3597901,97.37,38,1,0,1,38,200,237,4e-08,65.8
Exophiala_brunnea_CBS,SRR2107173.1984736,97.37,38,1,0,1,38,63,26,4e-08,65.8
Exophiala_brunnea_CBS,SRR2107173.1191814,97.37,38,1,0,1,38,208,171,4e-08,65.8
Exophiala_brunnea_CBS,SRR2107173.868863,97.37,38,1,0,1,38,209,172,4e-08,65.8
Exophiala_brunnea_CBS,SRR2107173.542273,97.37,38,1,0,1,38,129,92,4e-08,65.8
Exophiala_brunnea_CBS,SRR2107173.542273,97.37,38,1,0,1,38,197,234,4e-08,65.8
Exophiala_brunnea_CBS,SRR2107173.514326,97.37,38,1,0,1,38,177,214,4e-08,65.8
Exophiala_brunnea_CBS,SRR2107173.3065343,97.22,36,1,0,3,38,1,36,5e-07,62.1
Exophiala_brunnea_CBS,SRR2107173.12319571,94.74,38,2,0,1,38,53,16,2e-06,60.2
Exophiala_brunnea_CBS,SRR2107173.13110974,100.00,28,0,0,11,38,150,123,3e-04,52.8
Exophiala_dermatitidis_CBS748.88,SRR2107173.7313338,90.78,141,13,0,1350,1490,141,1,5e-45,189
Exophiala_dermatitidis_CBS748.88,SRR2107173.994473,92.06,126,10,0,1379,1504,1,126,1e-41,178
Exophiala_dermatitidis_CBS748.88,SRR2107173.13684815,90.72,97,9,0,1371,1467,99,3,3e-27,130
Exophiala_dermatitidis_CBS748.88,SRR2107173.4289361,94.83,58,3,0,1447,1504,6,63,2e-15,91.6
Exophiala_dermatitidis_CBS748.88,SRR2107173.1676647,87.84,74,9,0,924,997,150,77,2e-14,87.9
Exophiala_dermatitidis_CBS748.88,SRR2107173.11685554,84.72,72,9,2,1210,1280,88,18,2e-09,71.3
Exophiala_dermatitidis_CBS748.88,SRR2107173.11649593,84.72,72,9,2,1210,1280,231,161,2e-09,71.3
Exophiala_dermatitidis_CBS748.88,SRR2107173.10572277,84.72,72,9,2,1210,1280,171,241,2e-09,71.3
Exophiala_dermatitidis_CBS748.88,SRR2107173.10238285,84.72,72,9,2,1210,1280,110,40,2e-09,71.3
Exophiala_dermatitidis_CBS748.88,SRR2107173.10238285,91.84,49,4,0,1210,1258,243,291,7e-09,69.4
Exophiala_dermatitidis_CBS748.88,SRR2107173.10128825,84.72,72,9,2,1210,1280,214,284,2e-09,71.3
Exophiala_dermatitidis_CBS748.88,SRR2107173.9276861,84.72,72,9,2,1210,1280,240,170,2e-09,71.3
Exophiala_dermatitidis_CBS748.88,SRR2107173.8224565,84.72,72,9,2,1210,1280,113,43,2e-09,71.3
Exophiala_dermatitidis_CBS748.88,SRR2107173.7400503,84.72,72,9,2,1210,1280,241,171,2e-09,71.3
Exophiala_dermatitidis_CBS748.88,SRR2107173.6946736,84.72,72,9,2,1210,1280,170,240,2e-09,71.3
Exophiala_dermatitidis_CBS748.88,SRR2107173.5268819,84.72,72,9,2,1210,1280,8,78,2e-09,71.3
Exophiala_dermatitidis_CBS748.88,SRR2107173.5139359,84.72,72,9,2,1210,1280,230,160,2e-09,71.3
Exophiala_dermatitidis_CBS748.88,SRR2107173.4555218,84.72,72,9,2,1210,1280,153,223,2e-09,71.3
Exophiala_dermatitidis_CBS748.88,SRR2107173.4467731,84.72,72,9,2,1210,1280,98,28,2e-09,71.3
Exophiala_dermatitidis_CBS748.88,SRR2107173.4164689,84.72,72,9,2,1210,1280,279,209,2e-09,71.3
Exophiala_dermatitidis_CBS748.88,SRR2107173.3268603,84.72,72,9,2,1210,1280,286,216,2e-09,71.3
Exophiala_dermatitidis_CBS748.88,SRR2107173.2293297,84.72,72,9,2,1210,1280,285,215,2e-09,71.3
Exophiala_dermatitidis_CBS748.88,SRR2107173.135787,84.72,72,9,2,1210,1280,80,10,2e-09,71.3
Exophiala_dermatitidis_CBS748.88,SRR2107173.13672782,91.84,49,4,0,1210,1258,88,136,7e-09,69.4
Exophiala_dermatitidis_CBS748.88,SRR2107173.13358548,91.84,49,4,0,1210,1258,51,3,7e-09,69.4
Exophiala_dermatitidis_CBS748.88,SRR2107173.12376639,95.35,43,2,0,1210,1252,258,300,7e-09,69.4
Exophiala_dermatitidis_CBS748.88,SRR2107173.4421529,91.84,49,4,0,1210,1258,252,300,7e-09,69.4
Exophiala_dermatitidis_CBS748.88,SRR2107173.2152325,91.84,49,4,0,1210,1258,56,8,7e-09,69.4
Exophiala_dermatitidis_CBS748.88,SRR2107173.3781197,91.49,47,4,0,1210,1256,47,1,1e-07,65.8
Exophiala_dermatitidis_CBS748.88,SRR2107173.1644001,84.06,69,9,2,1213,1280,150,83,1e-07,65.8
Exophiala_dermatitidis_CBS748.88,SRR2107173.1919409,93.02,43,3,0,1210,1252,45,3,3e-07,63.9
Exophiala_dermatitidis_CBS748.88,SRR2107173.504488,97.30,37,1,0,1210,1246,117,153,3e-07,63.9
Exophiala_dermatitidis_CBS748.88,SRR2107173.6586441,100.00,33,0,0,1210,1242,41,9,1e-06,62.1
Exophiala_dermatitidis_CBS748.88,SRR2107173.5975162,100.00,33,0,0,1210,1242,42,10,1e-06,62.1
Exophiala_dermatitidis_CBS748.88,SRR2107173.2642767,100.00,33,0,0,1210,1242,259,291,1e-06,62.1
Exophiala_dermatitidis_CBS748.88,SRR2107173.13831994,94.44,36,2,0,1210,1245,40,5,6e-05,56.5
Exophiala_dermatitidis_CBS748.88,SRR2107173.10263953,96.97,33,1,0,1210,1242,240,208,6e-05,56.5
Exophiala_dermatitidis_CBS748.88,SRR2107173.1120799,100.00,28,0,0,1210,1237,273,300,7e-04,52.8
Exophiala_salmonis_CBS157.67_T,SRR2107173.2312377,100.00,38,0,0,85,122,109,72,1e-09,71.3
Exophiala_salmonis_CBS157.67_T,SRR2107173.715385,100.00,38,0,0,85,122,72,35,1e-09,71.3
Exophiala_salmonis_CBS157.67_T,SRR2107173.10465825,95.12,41,2,0,82,122,53,93,5e-08,65.8
Exophiala_tremulae_CBS129355,SRR2107173.8561089,100.00,39,0,0,1,39,29,67,2e-10,73.1
Exophiala_tremulae_CBS129355,SRR2107173.2312377,100.00,39,0,0,1,39,78,40,2e-10,73.1
Exophiala_tremulae_CBS129355,SRR2107173.715385,100.00,39,0,0,1,39,41,3,2e-10,73.1
Exophiala_tremulae_CBS129355,SRR2107173.14334982,97.37,38,1,0,1,38,95,132,4e-08,65.8
Exophiala_tremulae_CBS129355,SRR2107173.13305919,97.37,38,1,0,1,38,29,66,4e-08,65.8
Exophiala_tremulae_CBS129355,SRR2107173.13247723,97.37,38,1,0,1,38,47,10,4e-08,65.8
Exophiala_tremulae_CBS129355,SRR2107173.11178620,97.37,38,1,0,1,38,121,84,4e-08,65.8
Exophiala_tremulae_CBS129355,SRR2107173.10570349,97.37,38,1,0,1,38,205,168,4e-08,65.8
Exophiala_tremulae_CBS129355,SRR2107173.10508419,97.37,38,1,0,1,38,121,84,4e-08,65.8
Exophiala_tremulae_CBS129355,SRR2107173.10386642,97.37,38,1,0,1,38,251,214,4e-08,65.8
Exophiala_tremulae_CBS129355,SRR2107173.9616657,97.37,38,1,0,1,38,81,118,4e-08,65.8
Exophiala_tremulae_CBS129355,SRR2107173.9405455,97.37,38,1,0,1,38,240,203,4e-08,65.8
Exophiala_tremulae_CBS129355,SRR2107173.7861959,97.37,38,1,0,1,38,202,165,4e-08,65.8
Exophiala_tremulae_CBS129355,SRR2107173.6524874,97.37,38,1,0,1,38,198,161,4e-08,65.8
Exophiala_tremulae_CBS129355,SRR2107173.6387966,97.37,38,1,0,1,38,233,196,4e-08,65.8
Exophiala_tremulae_CBS129355,SRR2107173.6170599,97.37,38,1,0,1,38,286,249,4e-08,65.8
Exophiala_tremulae_CBS129355,SRR2107173.6069155,97.37,38,1,0,1,38,42,79,4e-08,65.8
Exophiala_tremulae_CBS129355,SRR2107173.5407025,97.37,38,1,0,1,38,63,26,4e-08,65.8
Exophiala_tremulae_CBS129355,SRR2107173.4670382,97.37,38,1,0,1,38,215,252,4e-08,65.8
Exophiala_tremulae_CBS129355,SRR2107173.4414478,97.37,38,1,0,1,38,19,56,4e-08,65.8
Exophiala_tremulae_CBS129355,SRR2107173.4352879,97.37,38,1,0,1,38,126,89,4e-08,65.8
Exophiala_tremulae_CBS129355,SRR2107173.3597901,97.37,38,1,0,1,38,200,237,4e-08,65.8
Exophiala_tremulae_CBS129355,SRR2107173.1984736,97.37,38,1,0,1,38,63,26,4e-08,65.8
Exophiala_tremulae_CBS129355,SRR2107173.1191814,97.37,38,1,0,1,38,208,171,4e-08,65.8
Exophiala_tremulae_CBS129355,SRR2107173.868863,97.37,38,1,0,1,38,209,172,4e-08,65.8
Exophiala_tremulae_CBS129355,SRR2107173.542273,97.37,38,1,0,1,38,129,92,4e-08,65.8
Exophiala_tremulae_CBS129355,SRR2107173.542273,97.37,38,1,0,1,38,197,234,4e-08,65.8
Exophiala_tremulae_CBS129355,SRR2107173.514326,97.37,38,1,0,1,38,177,214,4e-08,65.8
Exophiala_tremulae_CBS129355,SRR2107173.3065343,97.22,36,1,0,3,38,1,36,5e-07,62.1
Exophiala_tremulae_CBS129355,SRR2107173.12319571,94.74,38,2,0,1,38,53,16,2e-06,60.2
Exophiala_tremulae_CBS129355,SRR2107173.13110974,100.00,28,0,0,11,38,150,123,3e-04,52.8
Rhinocladiella_atrovirens_CBS264.49,SRR2107173.8561089,100.00,46,0,0,1,46,24,69,3e-14,86.1
Rhinocladiella_atrovirens_CBS264.49,SRR2107173.2312377,100.00,44,0,0,1,44,83,40,4e-13,82.4
Rhinocladiella_atrovirens_CBS264.49,SRR2107173.715385,100.00,44,0,0,1,44,46,3,4e-13,82.4
Rhinocladiella_atrovirens_CBS264.49,SRR2107173.14334982,97.67,43,1,0,1,43,90,132,6e-11,75.0
Rhinocladiella_atrovirens_CBS264.49,SRR2107173.13305919,97.67,43,1,0,1,43,24,66,6e-11,75.0
Rhinocladiella_atrovirens_CBS264.49,SRR2107173.13247723,97.67,43,1,0,1,43,52,10,6e-11,75.0
Rhinocladiella_atrovirens_CBS264.49,SRR2107173.11178620,97.67,43,1,0,1,43,126,84,6e-11,75.0
Rhinocladiella_atrovirens_CBS264.49,SRR2107173.10570349,97.67,43,1,0,1,43,210,168,6e-11,75.0
Rhinocladiella_atrovirens_CBS264.49,SRR2107173.10508419,97.67,43,1,0,1,43,126,84,6e-11,75.0
Rhinocladiella_atrovirens_CBS264.49,SRR2107173.10386642,97.67,43,1,0,1,43,256,214,6e-11,75.0
Rhinocladiella_atrovirens_CBS264.49,SRR2107173.9616657,97.67,43,1,0,1,43,76,118,6e-11,75.0
Rhinocladiella_atrovirens_CBS264.49,SRR2107173.9405455,97.67,43,1,0,1,43,245,203,6e-11,75.0
Rhinocladiella_atrovirens_CBS264.49,SRR2107173.7861959,97.67,43,1,0,1,43,207,165,6e-11,75.0
Rhinocladiella_atrovirens_CBS264.49,SRR2107173.6524874,97.67,43,1,0,1,43,203,161,6e-11,75.0
Rhinocladiella_atrovirens_CBS264.49,SRR2107173.6387966,97.67,43,1,0,1,43,238,196,6e-11,75.0
Rhinocladiella_atrovirens_CBS264.49,SRR2107173.6170599,97.67,43,1,0,1,43,291,249,6e-11,75.0
Rhinocladiella_atrovirens_CBS264.49,SRR2107173.6069155,97.67,43,1,0,1,43,37,79,6e-11,75.0
Rhinocladiella_atrovirens_CBS264.49,SRR2107173.5407025,97.67,43,1,0,1,43,68,26,6e-11,75.0
Rhinocladiella_atrovirens_CBS264.49,SRR2107173.4670382,97.67,43,1,0,1,43,210,252,6e-11,75.0
Rhinocladiella_atrovirens_CBS264.49,SRR2107173.4414478,97.67,43,1,0,1,43,14,56,6e-11,75.0
Rhinocladiella_atrovirens_CBS264.49,SRR2107173.4352879,97.67,43,1,0,1,43,131,89,6e-11,75.0
Rhinocladiella_atrovirens_CBS264.49,SRR2107173.3597901,97.67,43,1,0,1,43,195,237,6e-11,75.0
Rhinocladiella_atrovirens_CBS264.49,SRR2107173.1984736,97.67,43,1,0,1,43,68,26,6e-11,75.0
Rhinocladiella_atrovirens_CBS264.49,SRR2107173.1191814,97.67,43,1,0,1,43,213,171,6e-11,75.0
Rhinocladiella_atrovirens_CBS264.49,SRR2107173.868863,97.67,43,1,0,1,43,214,172,6e-11,75.0
Rhinocladiella_atrovirens_CBS264.49,SRR2107173.542273,97.67,43,1,0,1,43,134,92,6e-11,75.0
Rhinocladiella_atrovirens_CBS264.49,SRR2107173.542273,97.67,43,1,0,1,43,192,234,6e-11,75.0
Rhinocladiella_atrovirens_CBS264.49,SRR2107173.514326,97.67,43,1,0,1,43,172,214,6e-11,75.0
Rhinocladiella_atrovirens_CBS264.49,SRR2107173.12319571,95.35,43,2,0,1,43,58,16,3e-09,69.4
Rhinocladiella_atrovirens_CBS264.49,SRR2107173.3065343,97.22,36,1,0,8,43,1,36,5e-07,62.1
Rhinocladiella_atrovirens_CBS264.49,SRR2107173.13110974,100.00,28,0,0,16,43,150,123,3e-04,52.8
Rhinocladiella_fasciculata_CBS132.86_T,SRR2107173.8561089,100.00,29,0,0,1,29,41,69,8e-05,54.7
Capronia_kleinmondensis_CBS122671_T,SRR2107173.8561089,100.00,32,0,0,1,32,38,69,2e-06,60.2
Capronia_kleinmondensis_CBS122671_T,SRR2107173.2312377,100.00,30,0,0,1,30,69,40,2e-05,56.5
Capronia_kleinmondensis_CBS122671_T,SRR2107173.715385,100.00,30,0,0,1,30,32,3,2e-05,56.5
Capronia_kleinmondensis_CBS122671_T,SRR2107173.14334982,100.00,29,0,0,1,29,104,132,9e-05,54.7
Capronia_kleinmondensis_CBS122671_T,SRR2107173.13305919,100.00,29,0,0,1,29,38,66,9e-05,54.7
Capronia_kleinmondensis_CBS122671_T,SRR2107173.13247723,100.00,29,0,0,1,29,38,10,9e-05,54.7
Capronia_kleinmondensis_CBS122671_T,SRR2107173.11178620,100.00,29,0,0,1,29,112,84,9e-05,54.7
Capronia_kleinmondensis_CBS122671_T,SRR2107173.10570349,100.00,29,0,0,1,29,196,168,9e-05,54.7
Capronia_kleinmondensis_CBS122671_T,SRR2107173.10508419,100.00,29,0,0,1,29,112,84,9e-05,54.7
Capronia_kleinmondensis_CBS122671_T,SRR2107173.10386642,100.00,29,0,0,1,29,242,214,9e-05,54.7
Capronia_kleinmondensis_CBS122671_T,SRR2107173.9616657,100.00,29,0,0,1,29,90,118,9e-05,54.7
Capronia_kleinmondensis_CBS122671_T,SRR2107173.9405455,100.00,29,0,0,1,29,231,203,9e-05,54.7
Capronia_kleinmondensis_CBS122671_T,SRR2107173.7861959,100.00,29,0,0,1,29,193,165,9e-05,54.7
Capronia_kleinmondensis_CBS122671_T,SRR2107173.6524874,100.00,29,0,0,1,29,189,161,9e-05,54.7
Capronia_kleinmondensis_CBS122671_T,SRR2107173.6387966,100.00,29,0,0,1,29,224,196,9e-05,54.7
Capronia_kleinmondensis_CBS122671_T,SRR2107173.6170599,100.00,29,0,0,1,29,277,249,9e-05,54.7
Capronia_kleinmondensis_CBS122671_T,SRR2107173.6069155,100.00,29,0,0,1,29,51,79,9e-05,54.7
Capronia_kleinmondensis_CBS122671_T,SRR2107173.5407025,100.00,29,0,0,1,29,54,26,9e-05,54.7
Capronia_kleinmondensis_CBS122671_T,SRR2107173.4670382,100.00,29,0,0,1,29,224,252,9e-05,54.7
Capronia_kleinmondensis_CBS122671_T,SRR2107173.4414478,100.00,29,0,0,1,29,28,56,9e-05,54.7
Capronia_kleinmondensis_CBS122671_T,SRR2107173.4352879,100.00,29,0,0,1,29,117,89,9e-05,54.7
Capronia_kleinmondensis_CBS122671_T,SRR2107173.3597901,100.00,29,0,0,1,29,209,237,9e-05,54.7
Capronia_kleinmondensis_CBS122671_T,SRR2107173.3065343,100.00,29,0,0,1,29,8,36,9e-05,54.7
Capronia_kleinmondensis_CBS122671_T,SRR2107173.1984736,100.00,29,0,0,1,29,54,26,9e-05,54.7
Capronia_kleinmondensis_CBS122671_T,SRR2107173.1191814,100.00,29,0,0,1,29,199,171,9e-05,54.7
Capronia_kleinmondensis_CBS122671_T,SRR2107173.868863,100.00,29,0,0,1,29,200,172,9e-05,54.7
Capronia_kleinmondensis_CBS122671_T,SRR2107173.542273,100.00,29,0,0,1,29,120,92,9e-05,54.7
Capronia_kleinmondensis_CBS122671_T,SRR2107173.542273,100.00,29,0,0,1,29,206,234,9e-05,54.7
Capronia_kleinmondensis_CBS122671_T,SRR2107173.514326,100.00,29,0,0,1,29,186,214,9e-05,54.7
Capronia_kleinmondensis_CBS122671_T,SRR2107173.13110974,100.00,28,0,0,2,29,150,123,3e-04,52.8
Capronia_kleinmondensis_CBS122671_T,SRR2107173.12319571,100.00,28,0,0,2,29,43,16,3e-04,52.8
Veronaea_japonica_CBS776.83_T,SRR2107173.8561089,100.00,38,0,0,1,38,30,67,8e-10,71.3
Veronaea_japonica_CBS776.83_T,SRR2107173.2312377,100.00,38,0,0,1,38,77,40,8e-10,71.3
Veronaea_japonica_CBS776.83_T,SRR2107173.715385,100.00,38,0,0,1,38,40,3,8e-10,71.3
Veronaea_japonica_CBS776.83_T,SRR2107173.14334982,97.30,37,1,0,1,37,96,132,1e-07,63.9
Veronaea_japonica_CBS776.83_T,SRR2107173.13305919,97.30,37,1,0,1,37,30,66,1e-07,63.9
Veronaea_japonica_CBS776.83_T,SRR2107173.13247723,97.30,37,1,0,1,37,46,10,1e-07,63.9
Veronaea_japonica_CBS776.83_T,SRR2107173.11178620,97.30,37,1,0,1,37,120,84,1e-07,63.9
Veronaea_japonica_CBS776.83_T,SRR2107173.10570349,97.30,37,1,0,1,37,204,168,1e-07,63.9
Veronaea_japonica_CBS776.83_T,SRR2107173.10508419,97.30,37,1,0,1,37,120,84,1e-07,63.9
Veronaea_japonica_CBS776.83_T,SRR2107173.10386642,97.30,37,1,0,1,37,250,214,1e-07,63.9
Veronaea_japonica_CBS776.83_T,SRR2107173.9616657,97.30,37,1,0,1,37,82,118,1e-07,63.9
Veronaea_japonica_CBS776.83_T,SRR2107173.9405455,97.30,37,1,0,1,37,239,203,1e-07,63.9
Veronaea_japonica_CBS776.83_T,SRR2107173.7861959,97.30,37,1,0,1,37,201,165,1e-07,63.9
Veronaea_japonica_CBS776.83_T,SRR2107173.6524874,97.30,37,1,0,1,37,197,161,1e-07,63.9
Veronaea_japonica_CBS776.83_T,SRR2107173.6387966,97.30,37,1,0,1,37,232,196,1e-07,63.9
Veronaea_japonica_CBS776.83_T,SRR2107173.6170599,97.30,37,1,0,1,37,285,249,1e-07,63.9
Veronaea_japonica_CBS776.83_T,SRR2107173.6069155,97.30,37,1,0,1,37,43,79,1e-07,63.9
Veronaea_japonica_CBS776.83_T,SRR2107173.5407025,97.30,37,1,0,1,37,62,26,1e-07,63.9
Veronaea_japonica_CBS776.83_T,SRR2107173.4670382,97.30,37,1,0,1,37,216,252,1e-07,63.9
Veronaea_japonica_CBS776.83_T,SRR2107173.4414478,97.30,37,1,0,1,37,20,56,1e-07,63.9
Veronaea_japonica_CBS776.83_T,SRR2107173.4352879,97.30,37,1,0,1,37,125,89,1e-07,63.9
Veronaea_japonica_CBS776.83_T,SRR2107173.3597901,97.30,37,1,0,1,37,201,237,1e-07,63.9
Veronaea_japonica_CBS776.83_T,SRR2107173.1984736,97.30,37,1,0,1,37,62,26,1e-07,63.9
Veronaea_japonica_CBS776.83_T,SRR2107173.1191814,97.30,37,1,0,1,37,207,171,1e-07,63.9
Veronaea_japonica_CBS776.83_T,SRR2107173.868863,97.30,37,1,0,1,37,208,172,1e-07,63.9
Veronaea_japonica_CBS776.83_T,SRR2107173.542273,97.30,37,1,0,1,37,128,92,1e-07,63.9
Veronaea_japonica_CBS776.83_T,SRR2107173.542273,97.30,37,1,0,1,37,198,234,1e-07,63.9
Veronaea_japonica_CBS776.83_T,SRR2107173.514326,97.30,37,1,0,1,37,178,214,1e-07,63.9
Veronaea_japonica_CBS776.83_T,SRR2107173.3065343,97.22,36,1,0,2,37,1,36,5e-07,62.1
Veronaea_japonica_CBS776.83_T,SRR2107173.12319571,94.59,37,2,0,1,37,52,16,6e-06,58.4
Veronaea_japonica_CBS776.83_T,SRR2107173.13110974,100.00,28,0,0,10,37,150,123,3e-04,52.8
Fonsecaea_pedrosoi_CBS271.37_T,SRR2107173.8561089,100.00,30,0,0,1,30,38,67,2e-05,56.5
Fonsecaea_pedrosoi_CBS271.37_T,SRR2107173.2312377,100.00,30,0,0,1,30,69,40,2e-05,56.5
Fonsecaea_pedrosoi_CBS271.37_T,SRR2107173.715385,100.00,30,0,0,1,30,32,3,2e-05,56.5
Fonsecaea_pedrosoi_CBS271.37_T,SRR2107173.14334982,100.00,29,0,0,1,29,104,132,9e-05,54.7
Fonsecaea_pedrosoi_CBS271.37_T,SRR2107173.13305919,100.00,29,0,0,1,29,38,66,9e-05,54.7
Fonsecaea_pedrosoi_CBS271.37_T,SRR2107173.13247723,100.00,29,0,0,1,29,38,10,9e-05,54.7
Fonsecaea_pedrosoi_CBS271.37_T,SRR2107173.11178620,100.00,29,0,0,1,29,112,84,9e-05,54.7
Fonsecaea_pedrosoi_CBS271.37_T,SRR2107173.10570349,100.00,29,0,0,1,29,196,168,9e-05,54.7
Fonsecaea_pedrosoi_CBS271.37_T,SRR2107173.10508419,100.00,29,0,0,1,29,112,84,9e-05,54.7
Fonsecaea_pedrosoi_CBS271.37_T,SRR2107173.10386642,100.00,29,0,0,1,29,242,214,9e-05,54.7
Fonsecaea_pedrosoi_CBS271.37_T,SRR2107173.9616657,100.00,29,0,0,1,29,90,118,9e-05,54.7
Fonsecaea_pedrosoi_CBS271.37_T,SRR2107173.9405455,100.00,29,0,0,1,29,231,203,9e-05,54.7
Fonsecaea_pedrosoi_CBS271.37_T,SRR2107173.7861959,100.00,29,0,0,1,29,193,165,9e-05,54.7
Fonsecaea_pedrosoi_CBS271.37_T,SRR2107173.6524874,100.00,29,0,0,1,29,189,161,9e-05,54.7
Fonsecaea_pedrosoi_CBS271.37_T,SRR2107173.6387966,100.00,29,0,0,1,29,224,196,9e-05,54.7
Fonsecaea_pedrosoi_CBS271.37_T,SRR2107173.6170599,100.00,29,0,0,1,29,277,249,9e-05,54.7
Fonsecaea_pedrosoi_CBS271.37_T,SRR2107173.6069155,100.00,29,0,0,1,29,51,79,9e-05,54.7
Fonsecaea_pedrosoi_CBS271.37_T,SRR2107173.5407025,100.00,29,0,0,1,29,54,26,9e-05,54.7
Fonsecaea_pedrosoi_CBS271.37_T,SRR2107173.4670382,100.00,29,0,0,1,29,224,252,9e-05,54.7
Fonsecaea_pedrosoi_CBS271.37_T,SRR2107173.4414478,100.00,29,0,0,1,29,28,56,9e-05,54.7
Fonsecaea_pedrosoi_CBS271.37_T,SRR2107173.4352879,100.00,29,0,0,1,29,117,89,9e-05,54.7
Fonsecaea_pedrosoi_CBS271.37_T,SRR2107173.3597901,100.00,29,0,0,1,29,209,237,9e-05,54.7
Fonsecaea_pedrosoi_CBS271.37_T,SRR2107173.3065343,100.00,29,0,0,1,29,8,36,9e-05,54.7
Fonsecaea_pedrosoi_CBS271.37_T,SRR2107173.1984736,100.00,29,0,0,1,29,54,26,9e-05,54.7
Fonsecaea_pedrosoi_CBS271.37_T,SRR2107173.1191814,100.00,29,0,0,1,29,199,171,9e-05,54.7
Fonsecaea_pedrosoi_CBS271.37_T,SRR2107173.868863,100.00,29,0,0,1,29,200,172,9e-05,54.7
Fonsecaea_pedrosoi_CBS271.37_T,SRR2107173.542273,100.00,29,0,0,1,29,120,92,9e-05,54.7
Fonsecaea_pedrosoi_CBS271.37_T,SRR2107173.542273,100.00,29,0,0,1,29,206,234,9e-05,54.7
Fonsecaea_pedrosoi_CBS271.37_T,SRR2107173.514326,100.00,29,0,0,1,29,186,214,9e-05,54.7
Fonsecaea_pedrosoi_CBS271.37_T,SRR2107173.13110974,100.00,28,0,0,2,29,150,123,3e-04,52.8
Fonsecaea_pedrosoi_CBS271.37_T,SRR2107173.12319571,100.00,28,0,0,2,29,43,16,3e-04,52.8
Cladophialophora_australiensis_CBS112793,SRR2107173.7313338,90.78,141,13,0,1317,1457,141,1,5e-45,189
Cladophialophora_australiensis_CBS112793,SRR2107173.994473,92.06,126,10,0,1346,1471,1,126,1e-41,178
Cladophialophora_australiensis_CBS112793,SRR2107173.13684815,90.72,97,9,0,1338,1434,99,3,3e-27,130
Cladophialophora_australiensis_CBS112793,SRR2107173.4289361,94.83,58,3,0,1414,1471,6,63,2e-15,91.6
Cladophialophora_australiensis_CBS112793,SRR2107173.1676647,84.27,89,14,0,894,982,150,62,2e-14,87.9
Cladophialophora_australiensis_CBS112793,SRR2107173.11685554,84.72,72,9,2,1177,1247,88,18,2e-09,71.3
Cladophialophora_australiensis_CBS112793,SRR2107173.11649593,84.72,72,9,2,1177,1247,231,161,2e-09,71.3
Cladophialophora_australiensis_CBS112793,SRR2107173.10572277,84.72,72,9,2,1177,1247,171,241,2e-09,71.3
Cladophialophora_australiensis_CBS112793,SRR2107173.10238285,84.72,72,9,2,1177,1247,110,40,2e-09,71.3
Cladophialophora_australiensis_CBS112793,SRR2107173.10238285,91.84,49,4,0,1177,1225,243,291,7e-09,69.4
Cladophialophora_australiensis_CBS112793,SRR2107173.10128825,84.72,72,9,2,1177,1247,214,284,2e-09,71.3
Cladophialophora_australiensis_CBS112793,SRR2107173.9276861,84.72,72,9,2,1177,1247,240,170,2e-09,71.3
Cladophialophora_australiensis_CBS112793,SRR2107173.8224565,84.72,72,9,2,1177,1247,113,43,2e-09,71.3
Cladophialophora_australiensis_CBS112793,SRR2107173.7400503,84.72,72,9,2,1177,1247,241,171,2e-09,71.3
Cladophialophora_australiensis_CBS112793,SRR2107173.6946736,84.72,72,9,2,1177,1247,170,240,2e-09,71.3
Cladophialophora_australiensis_CBS112793,SRR2107173.5268819,84.72,72,9,2,1177,1247,8,78,2e-09,71.3
Cladophialophora_australiensis_CBS112793,SRR2107173.5139359,84.72,72,9,2,1177,1247,230,160,2e-09,71.3
Cladophialophora_australiensis_CBS112793,SRR2107173.4555218,84.72,72,9,2,1177,1247,153,223,2e-09,71.3
Cladophialophora_australiensis_CBS112793,SRR2107173.4467731,84.72,72,9,2,1177,1247,98,28,2e-09,71.3
Cladophialophora_australiensis_CBS112793,SRR2107173.4164689,84.72,72,9,2,1177,1247,279,209,2e-09,71.3
Cladophialophora_australiensis_CBS112793,SRR2107173.3268603,84.72,72,9,2,1177,1247,286,216,2e-09,71.3
Cladophialophora_australiensis_CBS112793,SRR2107173.2293297,84.72,72,9,2,1177,1247,285,215,2e-09,71.3
Cladophialophora_australiensis_CBS112793,SRR2107173.135787,84.72,72,9,2,1177,1247,80,10,2e-09,71.3
Cladophialophora_australiensis_CBS112793,SRR2107173.13672782,91.84,49,4,0,1177,1225,88,136,7e-09,69.4
Cladophialophora_australiensis_CBS112793,SRR2107173.13358548,91.84,49,4,0,1177,1225,51,3,7e-09,69.4
Cladophialophora_australiensis_CBS112793,SRR2107173.4421529,91.84,49,4,0,1177,1225,252,300,7e-09,69.4
Cladophialophora_australiensis_CBS112793,SRR2107173.2152325,91.84,49,4,0,1177,1225,56,8,7e-09,69.4
Cladophialophora_australiensis_CBS112793,SRR2107173.3781197,91.49,47,4,0,1177,1223,47,1,9e-08,65.8
Cladophialophora_australiensis_CBS112793,SRR2107173.1644001,84.06,69,9,2,1180,1247,150,83,9e-08,65.8
Cladophialophora_australiensis_CBS112793,SRR2107173.12376639,93.02,43,3,0,1177,1219,258,300,3e-07,63.9
Cladophialophora_australiensis_CBS112793,SRR2107173.1919409,93.02,43,3,0,1177,1219,45,3,3e-07,63.9
Cladophialophora_australiensis_CBS112793,SRR2107173.6586441,100.00,33,0,0,1177,1209,41,9,1e-06,62.1
Cladophialophora_australiensis_CBS112793,SRR2107173.5975162,100.00,33,0,0,1177,1209,42,10,1e-06,62.1
Cladophialophora_australiensis_CBS112793,SRR2107173.2642767,100.00,33,0,0,1177,1209,259,291,1e-06,62.1
Cladophialophora_australiensis_CBS112793,SRR2107173.504488,100.00,33,0,0,1177,1209,117,149,1e-06,62.1
Cladophialophora_australiensis_CBS112793,SRR2107173.13831994,94.44,36,2,0,1177,1212,40,5,6e-05,56.5
Cladophialophora_australiensis_CBS112793,SRR2107173.10263953,96.97,33,1,0,1177,1209,240,208,6e-05,56.5
Cladophialophora_australiensis_CBS112793,SRR2107173.1120799,100.00,28,0,0,1177,1204,273,300,7e-04,52.8
Cladophialophora_potulentorum_CBS112222,SRR2107173.994473,92.20,141,11,0,1348,1488,1,141,2e-48,200
Cladophialophora_potulentorum_CBS112222,SRR2107173.7313338,90.78,141,13,0,1319,1459,141,1,5e-45,189
Cladophialophora_potulentorum_CBS112222,SRR2107173.13684815,90.72,97,9,0,1340,1436,99,3,3e-27,130
Cladophialophora_potulentorum_CBS112222,SRR2107173.4289361,94.52,73,4,0,1416,1488,6,78,3e-22,113
Cladophialophora_potulentorum_CBS112222,SRR2107173.1676647,86.49,74,10,0,896,969,150,77,9e-13,82.4
Cladophialophora_potulentorum_CBS112222,SRR2107173.4555218,85.71,77,9,2,1174,1249,148,223,3e-12,80.5
Cladophialophora_potulentorum_CBS112222,SRR2107173.11685554,86.11,72,8,2,1179,1249,88,18,4e-11,76.8
Cladophialophora_potulentorum_CBS112222,SRR2107173.11649593,86.11,72,8,2,1179,1249,231,161,4e-11,76.8
Cladophialophora_potulentorum_CBS112222,SRR2107173.10572277,86.11,72,8,2,1179,1249,171,241,4e-11,76.8
Cladophialophora_potulentorum_CBS112222,SRR2107173.10238285,86.11,72,8,2,1179,1249,110,40,4e-11,76.8
Cladophialophora_potulentorum_CBS112222,SRR2107173.10238285,93.88,49,3,0,1179,1227,243,291,2e-10,75.0
Cladophialophora_potulentorum_CBS112222,SRR2107173.10128825,86.11,72,8,2,1179,1249,214,284,4e-11,76.8
Cladophialophora_potulentorum_CBS112222,SRR2107173.9276861,86.11,72,8,2,1179,1249,240,170,4e-11,76.8
Cladophialophora_potulentorum_CBS112222,SRR2107173.8224565,86.11,72,8,2,1179,1249,113,43,4e-11,76.8
Cladophialophora_potulentorum_CBS112222,SRR2107173.7400503,86.11,72,8,2,1179,1249,241,171,4e-11,76.8
Cladophialophora_potulentorum_CBS112222,SRR2107173.6946736,86.11,72,8,2,1179,1249,170,240,4e-11,76.8
Cladophialophora_potulentorum_CBS112222,SRR2107173.5268819,86.11,72,8,2,1179,1249,8,78,4e-11,76.8
Cladophialophora_potulentorum_CBS112222,SRR2107173.5139359,86.11,72,8,2,1179,1249,230,160,4e-11,76.8
Cladophialophora_potulentorum_CBS112222,SRR2107173.4467731,86.11,72,8,2,1179,1249,98,28,4e-11,76.8
Cladophialophora_potulentorum_CBS112222,SRR2107173.4164689,86.11,72,8,2,1179,1249,279,209,4e-11,76.8
Cladophialophora_potulentorum_CBS112222,SRR2107173.3268603,86.11,72,8,2,1179,1249,286,216,4e-11,76.8
Cladophialophora_potulentorum_CBS112222,SRR2107173.2293297,86.11,72,8,2,1179,1249,285,215,4e-11,76.8
Cladophialophora_potulentorum_CBS112222,SRR2107173.135787,86.11,72,8,2,1179,1249,80,10,4e-11,76.8
Cladophialophora_potulentorum_CBS112222,SRR2107173.13672782,93.88,49,3,0,1179,1227,88,136,2e-10,75.0
Cladophialophora_potulentorum_CBS112222,SRR2107173.13358548,93.88,49,3,0,1179,1227,51,3,2e-10,75.0
Cladophialophora_potulentorum_CBS112222,SRR2107173.4421529,93.88,49,3,0,1179,1227,252,300,2e-10,75.0
Cladophialophora_potulentorum_CBS112222,SRR2107173.2152325,93.88,49,3,0,1179,1227,56,8,2e-10,75.0
Cladophialophora_potulentorum_CBS112222,SRR2107173.3781197,93.62,47,3,0,1179,1225,47,1,2e-09,71.3
Cladophialophora_potulentorum_CBS112222,SRR2107173.1644001,85.51,69,8,2,1182,1249,150,83,2e-09,71.3
Cladophialophora_potulentorum_CBS112222,SRR2107173.12376639,95.35,43,2,0,1179,1221,258,300,7e-09,69.4
Cladophialophora_potulentorum_CBS112222,SRR2107173.1919409,95.35,43,2,0,1179,1221,45,3,7e-09,69.4
Cladophialophora_potulentorum_CBS112222,SRR2107173.5975162,95.24,42,2,0,1179,1220,42,1,3e-08,67.6
Cladophialophora_potulentorum_CBS112222,SRR2107173.2642767,95.24,42,2,0,1179,1220,259,300,3e-08,67.6
Cladophialophora_potulentorum_CBS112222,SRR2107173.6586441,95.12,41,2,0,1179,1219,41,1,9e-08,65.8
Cladophialophora_potulentorum_CBS112222,SRR2107173.504488,100.00,33,0,0,1179,1211,117,149,1e-06,62.1
Cladophialophora_potulentorum_CBS112222,SRR2107173.13831994,94.44,36,2,0,1179,1214,40,5,6e-05,56.5
Cladophialophora_potulentorum_CBS112222,SRR2107173.10263953,96.97,33,1,0,1179,1211,240,208,6e-05,56.5
Cladophialophora_potulentorum_CBS112222,SRR2107173.1120799,100.00,28,0,0,1179,1206,273,300,7e-04,52.8
Cladophialophora_chaetospira_CBS127573,SRR2107173.8561089,100.00,31,0,0,379,409,37,67,1e-05,58.4
Cladophialophora_chaetospira_CBS127573,SRR2107173.2312377,100.00,31,0,0,379,409,70,40,1e-05,58.4
Cladophialophora_chaetospira_CBS127573,SRR2107173.715385,100.00,31,0,0,379,409,33,3,1e-05,58.4
Cladophialophora_chaetospira_CBS127573,SRR2107173.14334982,100.00,30,0,0,379,408,103,132,4e-05,56.5
Cladophialophora_chaetospira_CBS127573,SRR2107173.13305919,100.00,30,0,0,379,408,37,66,4e-05,56.5
Cladophialophora_chaetospira_CBS127573,SRR2107173.13247723,100.00,30,0,0,379,408,39,10,4e-05,56.5
Cladophialophora_chaetospira_CBS127573,SRR2107173.11178620,100.00,30,0,0,379,408,113,84,4e-05,56.5
Cladophialophora_chaetospira_CBS127573,SRR2107173.10570349,100.00,30,0,0,379,408,197,168,4e-05,56.5
Cladophialophora_chaetospira_CBS127573,SRR2107173.10508419,100.00,30,0,0,379,408,113,84,4e-05,56.5
Cladophialophora_chaetospira_CBS127573,SRR2107173.10386642,100.00,30,0,0,379,408,243,214,4e-05,56.5
Cladophialophora_chaetospira_CBS127573,SRR2107173.9616657,100.00,30,0,0,379,408,89,118,4e-05,56.5
Cladophialophora_chaetospira_CBS127573,SRR2107173.9405455,100.00,30,0,0,379,408,232,203,4e-05,56.5
Cladophialophora_chaetospira_CBS127573,SRR2107173.7861959,100.00,30,0,0,379,408,194,165,4e-05,56.5
Cladophialophora_chaetospira_CBS127573,SRR2107173.6524874,100.00,30,0,0,379,408,190,161,4e-05,56.5
Cladophialophora_chaetospira_CBS127573,SRR2107173.6387966,100.00,30,0,0,379,408,225,196,4e-05,56.5
Cladophialophora_chaetospira_CBS127573,SRR2107173.6170599,100.00,30,0,0,379,408,278,249,4e-05,56.5
Cladophialophora_chaetospira_CBS127573,SRR2107173.6069155,100.00,30,0,0,379,408,50,79,4e-05,56.5
Cladophialophora_chaetospira_CBS127573,SRR2107173.5407025,100.00,30,0,0,379,408,55,26,4e-05,56.5
Cladophialophora_chaetospira_CBS127573,SRR2107173.4670382,100.00,30,0,0,379,408,223,252,4e-05,56.5
Cladophialophora_chaetospira_CBS127573,SRR2107173.4414478,100.00,30,0,0,379,408,27,56,4e-05,56.5
Cladophialophora_chaetospira_CBS127573,SRR2107173.4352879,100.00,30,0,0,379,408,118,89,4e-05,56.5
Cladophialophora_chaetospira_CBS127573,SRR2107173.3597901,100.00,30,0,0,379,408,208,237,4e-05,56.5
Cladophialophora_chaetospira_CBS127573,SRR2107173.3065343,100.00,30,0,0,379,408,7,36,4e-05,56.5
Cladophialophora_chaetospira_CBS127573,SRR2107173.1984736,100.00,30,0,0,379,408,55,26,4e-05,56.5
Cladophialophora_chaetospira_CBS127573,SRR2107173.1191814,100.00,30,0,0,379,408,200,171,4e-05,56.5
Cladophialophora_chaetospira_CBS127573,SRR2107173.868863,100.00,30,0,0,379,408,201,172,4e-05,56.5
Cladophialophora_chaetospira_CBS127573,SRR2107173.542273,100.00,30,0,0,379,408,121,92,4e-05,56.5
Cladophialophora_chaetospira_CBS127573,SRR2107173.542273,100.00,30,0,0,379,408,205,234,4e-05,56.5
Cladophialophora_chaetospira_CBS127573,SRR2107173.514326,100.00,30,0,0,379,408,185,214,4e-05,56.5
Cladophialophora_chaetospira_CBS127573,SRR2107173.13110974,100.00,28,0,0,381,408,150,123,5e-04,52.8
Cladophialophora_chaetospira_CBS127573,SRR2107173.12319571,96.88,32,0,1,378,408,47,16,5e-04,52.8
Phialophora_americana_CBS400.67,SRR2107173.959195,91.16,147,12,1,805,951,149,4,9e-48,198
Phialophora_americana_CBS400.67,SRR2107173.7313338,90.37,135,13,0,1311,1445,141,7,1e-41,178
Phialophora_americana_CBS400.67,SRR2107173.13684815,90.72,97,9,0,1332,1428,99,3,3e-27,130
Phialophora_americana_CBS400.67,SRR2107173.11685554,84.72,72,9,2,1171,1241,88,18,2e-09,71.3
Phialophora_americana_CBS400.67,SRR2107173.11649593,84.72,72,9,2,1171,1241,231,161,2e-09,71.3
Phialophora_americana_CBS400.67,SRR2107173.10572277,84.72,72,9,2,1171,1241,171,241,2e-09,71.3
Phialophora_americana_CBS400.67,SRR2107173.10238285,84.72,72,9,2,1171,1241,110,40,2e-09,71.3
Phialophora_americana_CBS400.67,SRR2107173.10238285,91.84,49,4,0,1171,1219,243,291,7e-09,69.4
Phialophora_americana_CBS400.67,SRR2107173.10128825,84.72,72,9,2,1171,1241,214,284,2e-09,71.3
Phialophora_americana_CBS400.67,SRR2107173.9276861,84.72,72,9,2,1171,1241,240,170,2e-09,71.3
Phialophora_americana_CBS400.67,SRR2107173.8224565,84.72,72,9,2,1171,1241,113,43,2e-09,71.3
Phialophora_americana_CBS400.67,SRR2107173.7400503,84.72,72,9,2,1171,1241,241,171,2e-09,71.3
Phialophora_americana_CBS400.67,SRR2107173.6946736,84.72,72,9,2,1171,1241,170,240,2e-09,71.3
Phialophora_americana_CBS400.67,SRR2107173.5268819,84.72,72,9,2,1171,1241,8,78,2e-09,71.3
Phialophora_americana_CBS400.67,SRR2107173.5139359,84.72,72,9,2,1171,1241,230,160,2e-09,71.3
Phialophora_americana_CBS400.67,SRR2107173.4555218,84.72,72,9,2,1171,1241,153,223,2e-09,71.3
Phialophora_americana_CBS400.67,SRR2107173.4467731,84.72,72,9,2,1171,1241,98,28,2e-09,71.3
Phialophora_americana_CBS400.67,SRR2107173.4164689,84.72,72,9,2,1171,1241,279,209,2e-09,71.3
Phialophora_americana_CBS400.67,SRR2107173.3268603,84.72,72,9,2,1171,1241,286,216,2e-09,71.3
Phialophora_americana_CBS400.67,SRR2107173.2293297,84.72,72,9,2,1171,1241,285,215,2e-09,71.3
Phialophora_americana_CBS400.67,SRR2107173.135787,84.72,72,9,2,1171,1241,80,10,2e-09,71.3
Phialophora_americana_CBS400.67,SRR2107173.13672782,91.84,49,4,0,1171,1219,88,136,7e-09,69.4
Phialophora_americana_CBS400.67,SRR2107173.13358548,91.84,49,4,0,1171,1219,51,3,7e-09,69.4
Phialophora_americana_CBS400.67,SRR2107173.12376639,95.35,43,2,0,1171,1213,258,300,7e-09,69.4
Phialophora_americana_CBS400.67,SRR2107173.4421529,91.84,49,4,0,1171,1219,252,300,7e-09,69.4
Phialophora_americana_CBS400.67,SRR2107173.2152325,91.84,49,4,0,1171,1219,56,8,7e-09,69.4
Phialophora_americana_CBS400.67,SRR2107173.3781197,91.49,47,4,0,1171,1217,47,1,9e-08,65.8
Phialophora_americana_CBS400.67,SRR2107173.1644001,84.06,69,9,2,1174,1241,150,83,9e-08,65.8
Phialophora_americana_CBS400.67,SRR2107173.1919409,93.02,43,3,0,1171,1213,45,3,3e-07,63.9
Phialophora_americana_CBS400.67,SRR2107173.504488,97.30,37,1,0,1171,1207,117,153,3e-07,63.9
Phialophora_americana_CBS400.67,SRR2107173.6586441,100.00,33,0,0,1171,1203,41,9,1e-06,62.1
Phialophora_americana_CBS400.67,SRR2107173.5975162,100.00,33,0,0,1171,1203,42,10,1e-06,62.1
Phialophora_americana_CBS400.67,SRR2107173.2642767,100.00,33,0,0,1171,1203,259,291,1e-06,62.1
Phialophora_americana_CBS400.67,SRR2107173.13831994,94.44,36,2,0,1171,1206,40,5,6e-05,56.5
Phialophora_americana_CBS400.67,SRR2107173.10263953,96.97,33,1,0,1171,1203,240,208,6e-05,56.5
Phialophora_americana_CBS400.67,SRR2107173.1120799,100.00,28,0,0,1171,1198,273,300,7e-04,52.8
Cyphellophora_laciniata_CBS190.61_T,SRR2107173.2312377,100.00,70,0,0,31,100,109,40,2e-27,130
Cyphellophora_laciniata_CBS190.61_T,SRR2107173.715385,100.00,70,0,0,31,100,72,3,2e-27,130
Cyphellophora_laciniata_CBS190.61_T,SRR2107173.10465825,92.11,76,6,0,28,103,53,128,8e-21,108
Cyphellophora_laciniata_CBS190.61_T,SRR2107173.8561089,95.38,65,3,0,38,102,5,69,1e-19,104
Cyphellophora_laciniata_CBS190.61_T,SRR2107173.11178620,94.83,58,3,0,42,99,141,84,8e-16,91.6
Cyphellophora_laciniata_CBS190.61_T,SRR2107173.14334982,93.10,58,4,0,42,99,75,132,4e-14,86.1
Cyphellophora_laciniata_CBS190.61_T,SRR2107173.13305919,93.10,58,4,0,42,99,9,66,4e-14,86.1
Cyphellophora_laciniata_CBS190.61_T,SRR2107173.13247723,93.10,58,4,0,42,99,67,10,4e-14,86.1
Cyphellophora_laciniata_CBS190.61_T,SRR2107173.10570349,93.10,58,4,0,42,99,225,168,4e-14,86.1
Cyphellophora_laciniata_CBS190.61_T,SRR2107173.10508419,93.10,58,4,0,42,99,141,84,4e-14,86.1
Cyphellophora_laciniata_CBS190.61_T,SRR2107173.10386642,93.10,58,4,0,42,99,271,214,4e-14,86.1
Cyphellophora_laciniata_CBS190.61_T,SRR2107173.9616657,93.10,58,4,0,42,99,61,118,4e-14,86.1
Cyphellophora_laciniata_CBS190.61_T,SRR2107173.9405455,93.10,58,4,0,42,99,260,203,4e-14,86.1
Cyphellophora_laciniata_CBS190.61_T,SRR2107173.7861959,93.10,58,4,0,42,99,222,165,4e-14,86.1
Cyphellophora_laciniata_CBS190.61_T,SRR2107173.6524874,93.10,58,4,0,42,99,218,161,4e-14,86.1
Cyphellophora_laciniata_CBS190.61_T,SRR2107173.6387966,93.10,58,4,0,42,99,253,196,4e-14,86.1
Cyphellophora_laciniata_CBS190.61_T,SRR2107173.6069155,93.10,58,4,0,42,99,22,79,4e-14,86.1
Cyphellophora_laciniata_CBS190.61_T,SRR2107173.5407025,93.10,58,4,0,42,99,83,26,4e-14,86.1
Cyphellophora_laciniata_CBS190.61_T,SRR2107173.4670382,93.10,58,4,0,42,99,195,252,4e-14,86.1
Cyphellophora_laciniata_CBS190.61_T,SRR2107173.4352879,93.10,58,4,0,42,99,146,89,4e-14,86.1
Cyphellophora_laciniata_CBS190.61_T,SRR2107173.3597901,93.10,58,4,0,42,99,180,237,4e-14,86.1
Cyphellophora_laciniata_CBS190.61_T,SRR2107173.1984736,93.10,58,4,0,42,99,83,26,4e-14,86.1
Cyphellophora_laciniata_CBS190.61_T,SRR2107173.1191814,93.10,58,4,0,42,99,228,171,4e-14,86.1
Cyphellophora_laciniata_CBS190.61_T,SRR2107173.868863,93.10,58,4,0,42,99,229,172,4e-14,86.1
Cyphellophora_laciniata_CBS190.61_T,SRR2107173.542273,93.10,58,4,0,42,99,149,92,4e-14,86.1
Cyphellophora_laciniata_CBS190.61_T,SRR2107173.542273,93.10,58,4,0,42,99,177,234,4e-14,86.1
Cyphellophora_laciniata_CBS190.61_T,SRR2107173.514326,93.10,58,4,0,42,99,157,214,4e-14,86.1
Cyphellophora_laciniata_CBS190.61_T,SRR2107173.4414478,92.86,56,4,0,44,99,1,56,5e-13,82.4
Cyphellophora_laciniata_CBS190.61_T,SRR2107173.12319571,91.38,58,5,0,42,99,73,16,2e-12,80.5
Cyphellophora_laciniata_CBS190.61_T,SRR2107173.6170599,97.78,45,1,0,55,99,293,249,6e-12,78.7
Cyphellophora_laciniata_CBS190.61_T,SRR2107173.3065343,97.22,36,1,0,64,99,1,36,6e-07,62.1
Cyphellophora_laciniata_CBS190.61_T,SRR2107173.13110974,100.00,28,0,0,72,99,150,123,4e-04,52.8
