Exophiala_polymorpha_CBS138920_T,SRR9261008.4646101,96.88,32,1,0,82,113,148,117,6e-05,54.7
Exophiala_polymorpha_CBS138920_T,SRR9261008.4646101,96.88,32,1,0,82,113,311,342,6e-05,54.7
Exophiala_pisciphila_CBS537.73_T,SRR9261008.6052774,91.40,93,8,0,561,653,173,81,4e-27,128
Exophiala_pisciphila_CBS537.73_T,SRR9261008.6052774,91.40,93,8,0,561,653,264,356,4e-27,128
Exophiala_brunnea_CBS,SRR9261008.4646101,97.78,45,1,0,1,45,161,117,3e-12,78.7
Exophiala_brunnea_CBS,SRR9261008.4646101,97.78,45,1,0,1,45,298,342,3e-12,78.7
Exophiala_brunnea_CBS,SRR9261008.6589126,100.00,39,0,0,1,39,290,252,2e-10,73.1
Exophiala_brunnea_CBS,SRR9261008.2555279,100.00,39,0,0,1,39,345,383,2e-10,73.1
Exophiala_brunnea_CBS,SRR9261008.2405499,100.00,39,0,0,1,39,331,293,2e-10,73.1
Exophiala_brunnea_CBS,SRR9261008.2346066,100.00,39,0,0,1,39,40,2,2e-10,73.1
Exophiala_brunnea_CBS,SRR9261008.672929,100.00,39,0,0,1,39,146,184,2e-10,73.1
Exophiala_brunnea_CBS,SRR9261008.6595526,100.00,38,0,0,1,38,269,306,6e-10,71.3
Exophiala_brunnea_CBS,SRR9261008.4596336,100.00,38,0,0,1,38,101,138,6e-10,71.3
Exophiala_brunnea_CBS,SRR9261008.4596336,100.00,38,0,0,1,38,366,329,6e-10,71.3
Exophiala_brunnea_CBS,SRR9261008.3504928,100.00,38,0,0,1,38,183,146,6e-10,71.3
Exophiala_brunnea_CBS,SRR9261008.3381340,100.00,38,0,0,1,38,302,265,6e-10,71.3
Exophiala_brunnea_CBS,SRR9261008.3381340,100.00,32,0,0,1,32,220,251,1e-06,60.2
Exophiala_brunnea_CBS,SRR9261008.3159666,100.00,38,0,0,1,38,81,44,6e-10,71.3
Exophiala_brunnea_CBS,SRR9261008.1629339,100.00,38,0,0,1,38,67,104,6e-10,71.3
Exophiala_brunnea_CBS,SRR9261008.1076497,100.00,38,0,0,1,38,120,157,6e-10,71.3
Exophiala_brunnea_CBS,SRR9261008.1076497,100.00,38,0,0,1,38,432,395,6e-10,71.3
Exophiala_brunnea_CBS,SRR9261008.221417,100.00,38,0,0,1,38,129,166,6e-10,71.3
Exophiala_brunnea_CBS,SRR9261008.221417,100.00,38,0,0,1,38,354,317,6e-10,71.3
Exophiala_brunnea_CBS,SRR9261008.65631,100.00,38,0,0,1,38,380,417,6e-10,71.3
Exophiala_brunnea_CBS,SRR9261008.65631,100.00,37,0,0,2,38,251,215,2e-09,69.4
Exophiala_brunnea_CBS,SRR9261008.1830531,100.00,37,0,0,3,39,175,139,2e-09,69.4
Exophiala_brunnea_CBS,SRR9261008.6300556,100.00,36,0,0,1,36,305,340,8e-09,67.6
Exophiala_brunnea_CBS,SRR9261008.2412587,100.00,36,0,0,1,36,141,106,8e-09,67.6
Exophiala_brunnea_CBS,SRR9261008.2412587,100.00,36,0,0,1,36,258,293,8e-09,67.6
Exophiala_brunnea_CBS,SRR9261008.6619729,100.00,29,0,0,11,39,1,29,6e-05,54.7
Exophiala_mesophila_CBS402.95_T,SRR9261008.6052774,92.47,93,7,0,558,650,173,81,8e-29,134
Exophiala_mesophila_CBS402.95_T,SRR9261008.6052774,92.47,93,7,0,558,650,264,356,8e-29,134
Exophiala_castellanii_CBS158.58_T,SRR9261008.6052774,92.47,93,7,0,557,649,173,81,7e-29,134
Exophiala_castellanii_CBS158.58_T,SRR9261008.6052774,92.47,93,7,0,557,649,264,356,7e-29,134
Exophiala_dermatitidis_CBS748.88,SRR9261008.3814266,91.02,167,15,0,839,1005,456,290,3e-56,226
Exophiala_dermatitidis_CBS748.88,SRR9261008.6034846,89.94,169,17,0,837,1005,63,231,5e-54,219
Exophiala_dermatitidis_CBS748.88,SRR9261008.3283407,93.80,129,8,0,1373,1501,129,1,8e-47,195
Exophiala_dermatitidis_CBS748.88,SRR9261008.3283407,100.00,32,0,0,1211,1242,353,384,3e-06,60.2
Exophiala_dermatitidis_CBS748.88,SRR9261008.2382550,79.76,247,41,7,1211,1452,243,1,1e-39,171
Exophiala_dermatitidis_CBS748.88,SRR9261008.2382550,76.92,182,33,7,1211,1387,325,502,8e-17,95.3
Exophiala_dermatitidis_CBS748.88,SRR9261008.846035,92.73,110,8,0,1373,1482,110,1,3e-36,159
Exophiala_dermatitidis_CBS748.88,SRR9261008.6260073,91.15,113,10,0,1390,1502,1,113,1e-34,154
Exophiala_dermatitidis_CBS748.88,SRR9261008.6260073,91.15,113,10,0,1390,1502,446,334,1e-34,154
Exophiala_dermatitidis_CBS748.88,SRR9261008.6052774,91.59,107,9,0,583,689,173,67,6e-33,148
Exophiala_dermatitidis_CBS748.88,SRR9261008.6052774,91.59,107,9,0,583,689,264,370,6e-33,148
Exophiala_dermatitidis_CBS748.88,SRR9261008.347785,93.88,98,6,0,1405,1502,1,98,6e-33,148
Exophiala_dermatitidis_CBS748.88,SRR9261008.3136711,91.51,106,9,0,1373,1478,145,250,2e-32,147
Exophiala_dermatitidis_CBS748.88,SRR9261008.9117,89.09,110,12,0,1373,1482,81,190,1e-29,137
Exophiala_dermatitidis_CBS748.88,SRR9261008.9117,89.09,110,12,0,1373,1482,300,191,1e-29,137
Exophiala_dermatitidis_CBS748.88,SRR9261008.2461349,78.18,220,39,7,1211,1425,216,1,6e-28,132
Exophiala_dermatitidis_CBS748.88,SRR9261008.2461349,77.73,220,40,7,1211,1425,237,452,3e-26,126
Exophiala_dermatitidis_CBS748.88,SRR9261008.1750058,77.99,209,37,7,1211,1414,205,1,4e-25,122
Exophiala_dermatitidis_CBS748.88,SRR9261008.1750058,76.88,160,28,7,1211,1365,335,490,7e-13,82.4
Exophiala_dermatitidis_CBS748.88,SRR9261008.4759535,75.40,252,56,5,656,903,250,1,2e-23,117
Exophiala_dermatitidis_CBS748.88,SRR9261008.4286360,92.31,78,6,0,1425,1502,1,78,8e-22,111
Exophiala_dermatitidis_CBS748.88,SRR9261008.6405091,77.78,189,33,7,1211,1394,196,12,1e-20,108
Exophiala_dermatitidis_CBS748.88,SRR9261008.6405091,77.78,189,33,7,1211,1394,207,391,1e-20,108
Exophiala_dermatitidis_CBS748.88,SRR9261008.809477,90.36,83,7,1,1210,1292,126,45,1e-20,108
Exophiala_dermatitidis_CBS748.88,SRR9261008.809477,90.36,83,7,1,1210,1292,229,310,1e-20,108
Exophiala_dermatitidis_CBS748.88,SRR9261008.4754734,84.55,110,10,6,1187,1293,393,288,5e-19,102
Exophiala_dermatitidis_CBS748.88,SRR9261008.4754734,89.47,57,4,2,1187,1242,189,244,1e-09,71.3
Exophiala_dermatitidis_CBS748.88,SRR9261008.1368317,84.55,110,10,6,1187,1293,400,295,5e-19,102
Exophiala_dermatitidis_CBS748.88,SRR9261008.1368317,88.89,54,4,2,1187,1239,199,251,7e-08,65.8
Exophiala_dermatitidis_CBS748.88,SRR9261008.2231462,96.61,59,2,0,1444,1502,252,310,6e-18,99.0
Exophiala_dermatitidis_CBS748.88,SRR9261008.1245588,76.32,190,33,9,1210,1391,34,219,1e-15,91.6
Exophiala_dermatitidis_CBS748.88,SRR9261008.5876079,89.04,73,6,2,1210,1281,150,79,4e-15,89.8
Exophiala_dermatitidis_CBS748.88,SRR9261008.4199675,76.88,160,28,7,1211,1365,89,244,7e-13,82.4
Exophiala_dermatitidis_CBS748.88,SRR9261008.2260586,92.86,56,2,2,1211,1265,333,279,2e-12,80.5
Exophiala_dermatitidis_CBS748.88,SRR9261008.21981,83.16,95,9,6,1187,1278,158,68,2e-12,80.5
Exophiala_dermatitidis_CBS748.88,SRR9261008.21981,83.16,95,9,6,1187,1278,259,349,2e-12,80.5
Exophiala_dermatitidis_CBS748.88,SRR9261008.656917,94.00,50,1,2,1211,1259,302,254,1e-10,75.0
Exophiala_dermatitidis_CBS748.88,SRR9261008.361353,100.00,38,0,0,1210,1247,287,250,1e-09,71.3
Exophiala_dermatitidis_CBS748.88,SRR9261008.5791033,100.00,35,0,0,1210,1244,340,306,7e-08,65.8
Exophiala_dermatitidis_CBS748.88,SRR9261008.5824943,100.00,32,0,0,1211,1242,89,58,3e-06,60.2
Exophiala_dermatitidis_CBS748.88,SRR9261008.5824943,100.00,32,0,0,1211,1242,360,391,3e-06,60.2
Exophiala_dermatitidis_CBS748.88,SRR9261008.4898197,100.00,32,0,0,1211,1242,122,91,3e-06,60.2
Exophiala_dermatitidis_CBS748.88,SRR9261008.5427663,100.00,30,0,0,1211,1240,133,104,4e-05,56.5
Exophiala_dermatitidis_CBS748.88,SRR9261008.4608083,100.00,28,0,0,1215,1242,226,199,5e-04,52.8
Exophiala_dermatitidis_CBS748.88,SRR9261008.4608083,100.00,28,0,0,1215,1242,225,252,5e-04,52.8
Exophiala_salmonis_CBS157.67_T,SRR9261008.6052774,91.40,93,8,0,681,773,173,81,4e-27,128
Exophiala_salmonis_CBS157.67_T,SRR9261008.6052774,91.40,93,8,0,681,773,264,356,4e-27,128
Exophiala_salmonis_CBS157.67_T,SRR9261008.2346066,81.45,124,17,4,1,122,153,34,1e-17,97.1
Exophiala_salmonis_CBS157.67_T,SRR9261008.6589126,79.37,126,17,8,1,122,404,284,1e-12,80.5
Exophiala_salmonis_CBS157.67_T,SRR9261008.2405499,79.37,126,17,8,1,122,445,325,1e-12,80.5
Exophiala_salmonis_CBS157.67_T,SRR9261008.672929,79.37,126,17,8,1,122,32,152,1e-12,80.5
Exophiala_salmonis_CBS157.67_T,SRR9261008.4646101,97.73,44,1,0,79,122,198,155,2e-11,76.8
Exophiala_salmonis_CBS157.67_T,SRR9261008.4646101,97.73,44,1,0,79,122,261,304,2e-11,76.8
Exophiala_salmonis_CBS157.67_T,SRR9261008.2555279,97.73,44,1,0,79,122,308,351,2e-11,76.8
Exophiala_salmonis_CBS157.67_T,SRR9261008.1830531,95.45,44,2,0,79,122,214,171,7e-10,71.3
Exophiala_cancerae_CBS120420_T,SRR9261008.4810612,100.00,28,0,0,1,28,51,24,2e-04,52.8
Exophiala_cancerae_CBS120420_T,SRR9261008.2793394,100.00,28,0,0,1,28,152,179,2e-04,52.8
Exophiala_cancerae_CBS120420_T,SRR9261008.2793394,100.00,28,0,0,1,28,243,216,2e-04,52.8
Exophiala_cancerae_CBS120420_T,SRR9261008.1557102,100.00,28,0,0,1,28,179,206,2e-04,52.8
Exophiala_cancerae_CBS120420_T,SRR9261008.1557102,100.00,28,0,0,1,28,425,398,2e-04,52.8
Exophiala_cancerae_CBS120420_T,SRR9261008.953179,100.00,28,0,0,1,28,304,331,2e-04,52.8
Exophiala_cancerae_CBS120420_T,SRR9261008.195941,100.00,28,0,0,1,28,204,231,2e-04,52.8
Exophiala_cancerae_CBS120420_T,SRR9261008.195941,100.00,28,0,0,1,28,477,450,2e-04,52.8
Exophiala_tremulae_CBS129355,SRR9261008.4646101,97.78,45,1,0,1,45,161,117,3e-12,78.7
Exophiala_tremulae_CBS129355,SRR9261008.4646101,97.78,45,1,0,1,45,298,342,3e-12,78.7
Exophiala_tremulae_CBS129355,SRR9261008.6589126,100.00,39,0,0,1,39,290,252,2e-10,73.1
Exophiala_tremulae_CBS129355,SRR9261008.2555279,100.00,39,0,0,1,39,345,383,2e-10,73.1
Exophiala_tremulae_CBS129355,SRR9261008.2405499,100.00,39,0,0,1,39,331,293,2e-10,73.1
Exophiala_tremulae_CBS129355,SRR9261008.2346066,100.00,39,0,0,1,39,40,2,2e-10,73.1
Exophiala_tremulae_CBS129355,SRR9261008.672929,100.00,39,0,0,1,39,146,184,2e-10,73.1
Exophiala_tremulae_CBS129355,SRR9261008.6595526,100.00,38,0,0,1,38,269,306,6e-10,71.3
Exophiala_tremulae_CBS129355,SRR9261008.4596336,100.00,38,0,0,1,38,101,138,6e-10,71.3
Exophiala_tremulae_CBS129355,SRR9261008.4596336,100.00,38,0,0,1,38,366,329,6e-10,71.3
Exophiala_tremulae_CBS129355,SRR9261008.3504928,100.00,38,0,0,1,38,183,146,6e-10,71.3
Exophiala_tremulae_CBS129355,SRR9261008.3381340,100.00,38,0,0,1,38,302,265,6e-10,71.3
Exophiala_tremulae_CBS129355,SRR9261008.3381340,100.00,32,0,0,1,32,220,251,1e-06,60.2
Exophiala_tremulae_CBS129355,SRR9261008.3159666,100.00,38,0,0,1,38,81,44,6e-10,71.3
Exophiala_tremulae_CBS129355,SRR9261008.1629339,100.00,38,0,0,1,38,67,104,6e-10,71.3
Exophiala_tremulae_CBS129355,SRR9261008.1076497,100.00,38,0,0,1,38,120,157,6e-10,71.3
Exophiala_tremulae_CBS129355,SRR9261008.1076497,100.00,38,0,0,1,38,432,395,6e-10,71.3
Exophiala_tremulae_CBS129355,SRR9261008.221417,100.00,38,0,0,1,38,129,166,6e-10,71.3
Exophiala_tremulae_CBS129355,SRR9261008.221417,100.00,38,0,0,1,38,354,317,6e-10,71.3
Exophiala_tremulae_CBS129355,SRR9261008.65631,100.00,38,0,0,1,38,380,417,6e-10,71.3
Exophiala_tremulae_CBS129355,SRR9261008.65631,100.00,37,0,0,2,38,251,215,2e-09,69.4
Exophiala_tremulae_CBS129355,SRR9261008.1830531,100.00,37,0,0,3,39,175,139,2e-09,69.4
Exophiala_tremulae_CBS129355,SRR9261008.6300556,100.00,36,0,0,1,36,305,340,7e-09,67.6
Exophiala_tremulae_CBS129355,SRR9261008.2412587,100.00,36,0,0,1,36,141,106,7e-09,67.6
Exophiala_tremulae_CBS129355,SRR9261008.2412587,100.00,36,0,0,1,36,258,293,7e-09,67.6
Exophiala_tremulae_CBS129355,SRR9261008.6619729,100.00,29,0,0,11,39,1,29,6e-05,54.7
Rhinocladiella_atrovirens_CBS264.49,SRR9261008.6589126,100.00,46,0,0,1,46,295,250,2e-14,86.1
Rhinocladiella_atrovirens_CBS264.49,SRR9261008.2555279,100.00,45,0,0,1,45,340,384,7e-14,84.2
Rhinocladiella_atrovirens_CBS264.49,SRR9261008.2405499,100.00,45,0,0,1,45,336,292,7e-14,84.2
Rhinocladiella_atrovirens_CBS264.49,SRR9261008.2346066,100.00,45,0,0,1,45,45,1,7e-14,84.2
Rhinocladiella_atrovirens_CBS264.49,SRR9261008.672929,100.00,45,0,0,1,45,141,185,7e-14,84.2
Rhinocladiella_atrovirens_CBS264.49,SRR9261008.4646101,100.00,44,0,0,1,44,166,123,3e-13,82.4
Rhinocladiella_atrovirens_CBS264.49,SRR9261008.4646101,100.00,44,0,0,1,44,293,336,3e-13,82.4
Rhinocladiella_atrovirens_CBS264.49,SRR9261008.6595526,100.00,43,0,0,1,43,264,306,1e-12,80.5
Rhinocladiella_atrovirens_CBS264.49,SRR9261008.4596336,100.00,43,0,0,1,43,96,138,1e-12,80.5
Rhinocladiella_atrovirens_CBS264.49,SRR9261008.4596336,100.00,43,0,0,1,43,371,329,1e-12,80.5
Rhinocladiella_atrovirens_CBS264.49,SRR9261008.3504928,100.00,43,0,0,1,43,188,146,1e-12,80.5
Rhinocladiella_atrovirens_CBS264.49,SRR9261008.3381340,100.00,43,0,0,1,43,307,265,1e-12,80.5
Rhinocladiella_atrovirens_CBS264.49,SRR9261008.3381340,100.00,37,0,0,1,37,215,251,2e-09,69.4
Rhinocladiella_atrovirens_CBS264.49,SRR9261008.3159666,100.00,43,0,0,1,43,86,44,1e-12,80.5
Rhinocladiella_atrovirens_CBS264.49,SRR9261008.1629339,100.00,43,0,0,1,43,62,104,1e-12,80.5
Rhinocladiella_atrovirens_CBS264.49,SRR9261008.1076497,100.00,43,0,0,1,43,115,157,1e-12,80.5
Rhinocladiella_atrovirens_CBS264.49,SRR9261008.1076497,100.00,43,0,0,1,43,437,395,1e-12,80.5
Rhinocladiella_atrovirens_CBS264.49,SRR9261008.221417,100.00,43,0,0,1,43,124,166,1e-12,80.5
Rhinocladiella_atrovirens_CBS264.49,SRR9261008.221417,100.00,43,0,0,1,43,359,317,1e-12,80.5
Rhinocladiella_atrovirens_CBS264.49,SRR9261008.65631,100.00,43,0,0,1,43,375,417,1e-12,80.5
Rhinocladiella_atrovirens_CBS264.49,SRR9261008.65631,100.00,37,0,0,7,43,251,215,2e-09,69.4
Rhinocladiella_atrovirens_CBS264.49,SRR9261008.1830531,97.78,45,1,0,1,45,182,138,3e-12,78.7
Rhinocladiella_atrovirens_CBS264.49,SRR9261008.6300556,100.00,41,0,0,1,41,300,340,1e-11,76.8
Rhinocladiella_atrovirens_CBS264.49,SRR9261008.2412587,100.00,41,0,0,1,41,146,106,1e-11,76.8
Rhinocladiella_atrovirens_CBS264.49,SRR9261008.2412587,100.00,41,0,0,1,41,253,293,1e-11,76.8
Rhinocladiella_atrovirens_CBS264.49,SRR9261008.6619729,100.00,30,0,0,16,45,1,30,2e-05,56.5
Rhinocladiella_atrovirens_CBS264.49,SRR9261008.2915107,100.00,28,0,0,1,28,28,1,2e-04,52.8
Rhinocladiella_aquaspersa_CBS313.73_T,SRR9261008.6052774,90.72,97,7,2,555,649,173,77,3e-27,128
Rhinocladiella_aquaspersa_CBS313.73_T,SRR9261008.6052774,90.72,97,7,2,555,649,264,360,3e-27,128
Rhinocladiella_fasciculata_CBS132.86_T,SRR9261008.6589126,100.00,29,0,0,1,29,278,250,5e-05,54.7
Rhinocladiella_fasciculata_CBS132.86_T,SRR9261008.6619729,100.00,28,0,0,1,28,3,30,2e-04,52.8
Rhinocladiella_fasciculata_CBS132.86_T,SRR9261008.2555279,100.00,28,0,0,1,28,357,384,2e-04,52.8
Rhinocladiella_fasciculata_CBS132.86_T,SRR9261008.2405499,100.00,28,0,0,1,28,319,292,2e-04,52.8
Rhinocladiella_fasciculata_CBS132.86_T,SRR9261008.2346066,100.00,28,0,0,1,28,28,1,2e-04,52.8
Rhinocladiella_fasciculata_CBS132.86_T,SRR9261008.1830531,100.00,28,0,0,1,28,165,138,2e-04,52.8
Rhinocladiella_fasciculata_CBS132.86_T,SRR9261008.672929,100.00,28,0,0,1,28,158,185,2e-04,52.8
Rhinocladiella_mackenziei_CBS367.92,SRR9261008.4646101,96.88,32,1,0,1,32,148,117,6e-05,54.7
Rhinocladiella_mackenziei_CBS367.92,SRR9261008.4646101,96.88,32,1,0,1,32,311,342,6e-05,54.7
Veronaea_compacta_CBS268.75_T,SRR9261008.4646101,96.97,33,1,0,1,33,149,117,2e-05,56.5
Veronaea_compacta_CBS268.75_T,SRR9261008.4646101,96.97,33,1,0,1,33,310,342,2e-05,56.5
Capronia_dactylotricha_DAOM208471_T,SRR9261008.6052774,91.40,93,8,0,566,658,173,81,4e-27,128
Capronia_dactylotricha_DAOM208471_T,SRR9261008.6052774,91.40,93,8,0,566,658,264,356,4e-27,128
Capronia_kleinmondensis_CBS122671_T,SRR9261008.6052774,91.40,93,8,0,572,664,173,81,4e-27,128
Capronia_kleinmondensis_CBS122671_T,SRR9261008.6052774,91.40,93,8,0,572,664,264,356,4e-27,128
Capronia_kleinmondensis_CBS122671_T,SRR9261008.6589126,100.00,32,0,0,1,32,281,250,1e-06,60.2
Capronia_kleinmondensis_CBS122671_T,SRR9261008.2555279,100.00,31,0,0,1,31,354,384,5e-06,58.4
Capronia_kleinmondensis_CBS122671_T,SRR9261008.2405499,100.00,31,0,0,1,31,322,292,5e-06,58.4
Capronia_kleinmondensis_CBS122671_T,SRR9261008.2346066,100.00,31,0,0,1,31,31,1,5e-06,58.4
Capronia_kleinmondensis_CBS122671_T,SRR9261008.1830531,100.00,31,0,0,1,31,168,138,5e-06,58.4
Capronia_kleinmondensis_CBS122671_T,SRR9261008.672929,100.00,31,0,0,1,31,155,185,5e-06,58.4
Capronia_kleinmondensis_CBS122671_T,SRR9261008.6619729,100.00,30,0,0,2,31,1,30,2e-05,56.5
Capronia_kleinmondensis_CBS122671_T,SRR9261008.4646101,100.00,30,0,0,1,30,152,123,2e-05,56.5
Capronia_kleinmondensis_CBS122671_T,SRR9261008.4646101,100.00,30,0,0,1,30,307,336,2e-05,56.5
Capronia_kleinmondensis_CBS122671_T,SRR9261008.6595526,100.00,29,0,0,1,29,278,306,6e-05,54.7
Capronia_kleinmondensis_CBS122671_T,SRR9261008.4596336,100.00,29,0,0,1,29,110,138,6e-05,54.7
Capronia_kleinmondensis_CBS122671_T,SRR9261008.4596336,100.00,29,0,0,1,29,357,329,6e-05,54.7
Capronia_kleinmondensis_CBS122671_T,SRR9261008.3504928,100.00,29,0,0,1,29,174,146,6e-05,54.7
Capronia_kleinmondensis_CBS122671_T,SRR9261008.3381340,100.00,29,0,0,1,29,293,265,6e-05,54.7
Capronia_kleinmondensis_CBS122671_T,SRR9261008.3159666,100.00,29,0,0,1,29,72,44,6e-05,54.7
Capronia_kleinmondensis_CBS122671_T,SRR9261008.1629339,100.00,29,0,0,1,29,76,104,6e-05,54.7
Capronia_kleinmondensis_CBS122671_T,SRR9261008.1076497,100.00,29,0,0,1,29,129,157,6e-05,54.7
Capronia_kleinmondensis_CBS122671_T,SRR9261008.1076497,100.00,29,0,0,1,29,423,395,6e-05,54.7
Capronia_kleinmondensis_CBS122671_T,SRR9261008.221417,100.00,29,0,0,1,29,138,166,6e-05,54.7
Capronia_kleinmondensis_CBS122671_T,SRR9261008.221417,100.00,29,0,0,1,29,345,317,6e-05,54.7
Capronia_kleinmondensis_CBS122671_T,SRR9261008.65631,100.00,29,0,0,1,29,243,215,6e-05,54.7
Capronia_kleinmondensis_CBS122671_T,SRR9261008.65631,100.00,29,0,0,1,29,389,417,6e-05,54.7
Capronia_mansonii_CBS101.67_T,SRR9261008.6052774,92.47,93,7,0,576,668,173,81,8e-29,134
Capronia_mansonii_CBS101.67_T,SRR9261008.6052774,92.47,93,7,0,576,668,264,356,8e-29,134
Capronia_munkii_DAOM216390_T,SRR9261008.6052774,92.47,93,7,0,576,668,173,81,8e-29,134
Capronia_munkii_DAOM216390_T,SRR9261008.6052774,92.47,93,7,0,576,668,264,356,8e-29,134
Capronia_coronata_ATCC56201_T,SRR9261008.6052774,92.47,93,7,0,547,639,173,81,7e-29,134
Capronia_coronata_ATCC56201_T,SRR9261008.6052774,92.47,93,7,0,547,639,264,356,7e-29,134
Veronaea_japonica_CBS776.83_T,SRR9261008.4646101,97.73,44,1,0,1,44,160,117,1e-11,76.8
Veronaea_japonica_CBS776.83_T,SRR9261008.4646101,97.73,44,1,0,1,44,299,342,1e-11,76.8
Veronaea_japonica_CBS776.83_T,SRR9261008.6589126,100.00,38,0,0,1,38,289,252,6e-10,71.3
Veronaea_japonica_CBS776.83_T,SRR9261008.2555279,100.00,38,0,0,1,38,346,383,6e-10,71.3
Veronaea_japonica_CBS776.83_T,SRR9261008.2405499,100.00,38,0,0,1,38,330,293,6e-10,71.3
Veronaea_japonica_CBS776.83_T,SRR9261008.2346066,100.00,38,0,0,1,38,39,2,6e-10,71.3
Veronaea_japonica_CBS776.83_T,SRR9261008.672929,100.00,38,0,0,1,38,147,184,6e-10,71.3
Veronaea_japonica_CBS776.83_T,SRR9261008.6595526,100.00,37,0,0,1,37,270,306,2e-09,69.4
Veronaea_japonica_CBS776.83_T,SRR9261008.4596336,100.00,37,0,0,1,37,102,138,2e-09,69.4
Veronaea_japonica_CBS776.83_T,SRR9261008.4596336,100.00,37,0,0,1,37,365,329,2e-09,69.4
Veronaea_japonica_CBS776.83_T,SRR9261008.3504928,100.00,37,0,0,1,37,182,146,2e-09,69.4
Veronaea_japonica_CBS776.83_T,SRR9261008.3381340,100.00,37,0,0,1,37,301,265,2e-09,69.4
Veronaea_japonica_CBS776.83_T,SRR9261008.3381340,100.00,31,0,0,1,31,221,251,4e-06,58.4
Veronaea_japonica_CBS776.83_T,SRR9261008.3159666,100.00,37,0,0,1,37,80,44,2e-09,69.4
Veronaea_japonica_CBS776.83_T,SRR9261008.1830531,100.00,37,0,0,2,38,175,139,2e-09,69.4
Veronaea_japonica_CBS776.83_T,SRR9261008.1629339,100.00,37,0,0,1,37,68,104,2e-09,69.4
Veronaea_japonica_CBS776.83_T,SRR9261008.1076497,100.00,37,0,0,1,37,121,157,2e-09,69.4
Veronaea_japonica_CBS776.83_T,SRR9261008.1076497,100.00,37,0,0,1,37,431,395,2e-09,69.4
Veronaea_japonica_CBS776.83_T,SRR9261008.221417,100.00,37,0,0,1,37,130,166,2e-09,69.4
Veronaea_japonica_CBS776.83_T,SRR9261008.221417,100.00,37,0,0,1,37,353,317,2e-09,69.4
Veronaea_japonica_CBS776.83_T,SRR9261008.65631,100.00,37,0,0,1,37,251,215,2e-09,69.4
Veronaea_japonica_CBS776.83_T,SRR9261008.65631,100.00,37,0,0,1,37,381,417,2e-09,69.4
Veronaea_japonica_CBS776.83_T,SRR9261008.6300556,100.00,35,0,0,1,35,306,340,3e-08,65.8
Veronaea_japonica_CBS776.83_T,SRR9261008.2412587,100.00,35,0,0,1,35,140,106,3e-08,65.8
Veronaea_japonica_CBS776.83_T,SRR9261008.2412587,100.00,35,0,0,1,35,259,293,3e-08,65.8
Veronaea_japonica_CBS776.83_T,SRR9261008.6619729,100.00,29,0,0,10,38,1,29,6e-05,54.7
Capronia_acutiseta_ATCC56428_T,SRR9261008.6052774,91.40,93,8,0,546,638,173,81,3e-27,128
Capronia_acutiseta_ATCC56428_T,SRR9261008.6052774,91.40,93,8,0,546,638,264,356,3e-27,128
Fonsecaea_pedrosoi_CBS271.37_T,SRR9261008.4646101,100.00,31,0,0,1,31,152,122,5e-06,58.4
Fonsecaea_pedrosoi_CBS271.37_T,SRR9261008.4646101,100.00,31,0,0,1,31,307,337,5e-06,58.4
Fonsecaea_pedrosoi_CBS271.37_T,SRR9261008.6589126,100.00,30,0,0,1,30,281,252,2e-05,56.5
Fonsecaea_pedrosoi_CBS271.37_T,SRR9261008.2555279,100.00,30,0,0,1,30,354,383,2e-05,56.5
Fonsecaea_pedrosoi_CBS271.37_T,SRR9261008.2405499,100.00,30,0,0,1,30,322,293,2e-05,56.5
Fonsecaea_pedrosoi_CBS271.37_T,SRR9261008.2346066,100.00,30,0,0,1,30,31,2,2e-05,56.5
Fonsecaea_pedrosoi_CBS271.37_T,SRR9261008.1830531,100.00,30,0,0,1,30,168,139,2e-05,56.5
Fonsecaea_pedrosoi_CBS271.37_T,SRR9261008.672929,100.00,30,0,0,1,30,155,184,2e-05,56.5
Fonsecaea_pedrosoi_CBS271.37_T,SRR9261008.6619729,100.00,29,0,0,2,30,1,29,6e-05,54.7
Fonsecaea_pedrosoi_CBS271.37_T,SRR9261008.6595526,100.00,29,0,0,1,29,278,306,6e-05,54.7
Fonsecaea_pedrosoi_CBS271.37_T,SRR9261008.4596336,100.00,29,0,0,1,29,110,138,6e-05,54.7
Fonsecaea_pedrosoi_CBS271.37_T,SRR9261008.4596336,100.00,29,0,0,1,29,357,329,6e-05,54.7
Fonsecaea_pedrosoi_CBS271.37_T,SRR9261008.3504928,100.00,29,0,0,1,29,174,146,6e-05,54.7
Fonsecaea_pedrosoi_CBS271.37_T,SRR9261008.3381340,100.00,29,0,0,1,29,293,265,6e-05,54.7
Fonsecaea_pedrosoi_CBS271.37_T,SRR9261008.3159666,100.00,29,0,0,1,29,72,44,6e-05,54.7
Fonsecaea_pedrosoi_CBS271.37_T,SRR9261008.1629339,100.00,29,0,0,1,29,76,104,6e-05,54.7
Fonsecaea_pedrosoi_CBS271.37_T,SRR9261008.1076497,100.00,29,0,0,1,29,129,157,6e-05,54.7
Fonsecaea_pedrosoi_CBS271.37_T,SRR9261008.1076497,100.00,29,0,0,1,29,423,395,6e-05,54.7
Fonsecaea_pedrosoi_CBS271.37_T,SRR9261008.221417,100.00,29,0,0,1,29,138,166,6e-05,54.7
Fonsecaea_pedrosoi_CBS271.37_T,SRR9261008.221417,100.00,29,0,0,1,29,345,317,6e-05,54.7
Fonsecaea_pedrosoi_CBS271.37_T,SRR9261008.65631,100.00,29,0,0,1,29,243,215,6e-05,54.7
Fonsecaea_pedrosoi_CBS271.37_T,SRR9261008.65631,100.00,29,0,0,1,29,389,417,6e-05,54.7
Cladophialophora_australiensis_CBS112793,SRR9261008.3814266,90.80,163,15,0,809,971,456,294,5e-54,219
Cladophialophora_australiensis_CBS112793,SRR9261008.6034846,84.55,220,31,2,751,968,6,224,6e-53,215
Cladophialophora_australiensis_CBS112793,SRR9261008.3283407,93.80,129,8,0,1340,1468,129,1,8e-47,195
Cladophialophora_australiensis_CBS112793,SRR9261008.3283407,100.00,32,0,0,1178,1209,353,384,3e-06,60.2
Cladophialophora_australiensis_CBS112793,SRR9261008.2382550,79.27,246,44,4,1178,1419,243,1,6e-38,165
Cladophialophora_australiensis_CBS112793,SRR9261008.2382550,76.24,181,36,5,1178,1354,325,502,4e-15,89.8
Cladophialophora_australiensis_CBS112793,SRR9261008.846035,92.73,110,8,0,1340,1449,110,1,3e-36,159
Cladophialophora_australiensis_CBS112793,SRR9261008.6260073,91.15,113,10,0,1357,1469,1,113,1e-34,154
Cladophialophora_australiensis_CBS112793,SRR9261008.6260073,91.15,113,10,0,1357,1469,446,334,1e-34,154
Cladophialophora_australiensis_CBS112793,SRR9261008.6052774,91.59,107,9,0,554,660,173,67,6e-33,148
Cladophialophora_australiensis_CBS112793,SRR9261008.6052774,91.59,107,9,0,554,660,264,370,6e-33,148
Cladophialophora_australiensis_CBS112793,SRR9261008.347785,93.88,98,6,0,1372,1469,1,98,6e-33,148
Cladophialophora_australiensis_CBS112793,SRR9261008.3136711,91.51,106,9,0,1340,1445,145,250,2e-32,147
Cladophialophora_australiensis_CBS112793,SRR9261008.9117,89.09,110,12,0,1340,1449,81,190,1e-29,137
Cladophialophora_australiensis_CBS112793,SRR9261008.9117,89.09,110,12,0,1340,1449,300,191,1e-29,137
Cladophialophora_australiensis_CBS112793,SRR9261008.4759535,76.28,253,51,7,627,873,250,1,3e-26,126
Cladophialophora_australiensis_CBS112793,SRR9261008.2461349,77.42,217,46,3,1178,1392,216,1,3e-26,126
Cladophialophora_australiensis_CBS112793,SRR9261008.2461349,76.96,217,47,3,1178,1392,237,452,1e-24,121
Cladophialophora_australiensis_CBS112793,SRR9261008.1750058,77.40,208,40,4,1178,1381,205,1,2e-23,117
Cladophialophora_australiensis_CBS112793,SRR9261008.1750058,87.14,70,9,0,1178,1247,335,404,2e-12,80.5
Cladophialophora_australiensis_CBS112793,SRR9261008.4754734,86.11,108,12,3,1154,1260,393,288,2e-22,113
Cladophialophora_australiensis_CBS112793,SRR9261008.4754734,89.47,57,4,2,1154,1209,189,244,1e-09,71.3
Cladophialophora_australiensis_CBS112793,SRR9261008.1368317,86.11,108,12,3,1154,1260,400,295,2e-22,113
Cladophialophora_australiensis_CBS112793,SRR9261008.1368317,88.89,54,4,2,1154,1206,199,251,6e-08,65.8
Cladophialophora_australiensis_CBS112793,SRR9261008.4286360,92.31,78,6,0,1392,1469,1,78,8e-22,111
Cladophialophora_australiensis_CBS112793,SRR9261008.809477,90.36,83,7,1,1177,1259,126,45,1e-20,108
Cladophialophora_australiensis_CBS112793,SRR9261008.809477,90.36,83,7,1,1177,1259,229,310,1e-20,108
Cladophialophora_australiensis_CBS112793,SRR9261008.6405091,77.13,188,36,4,1178,1361,196,12,5e-19,102
Cladophialophora_australiensis_CBS112793,SRR9261008.6405091,77.13,188,36,5,1178,1361,207,391,5e-19,102
Cladophialophora_australiensis_CBS112793,SRR9261008.2231462,96.61,59,2,0,1411,1469,252,310,6e-18,99.0
Cladophialophora_australiensis_CBS112793,SRR9261008.1245588,76.47,187,38,5,1177,1358,34,219,2e-17,97.1
Cladophialophora_australiensis_CBS112793,SRR9261008.5876079,87.65,81,10,0,1177,1257,150,70,8e-17,95.3
Cladophialophora_australiensis_CBS112793,SRR9261008.4199675,87.14,70,9,0,1178,1247,89,158,2e-12,80.5
Cladophialophora_australiensis_CBS112793,SRR9261008.2260586,92.73,55,4,0,1178,1232,333,279,2e-12,80.5
Cladophialophora_australiensis_CBS112793,SRR9261008.21981,82.80,93,13,3,1154,1245,158,68,2e-12,80.5
Cladophialophora_australiensis_CBS112793,SRR9261008.21981,82.80,93,13,3,1154,1245,259,349,2e-12,80.5
Cladophialophora_australiensis_CBS112793,SRR9261008.656917,93.88,49,3,0,1178,1226,302,254,1e-10,75.0
Cladophialophora_australiensis_CBS112793,SRR9261008.361353,100.00,36,0,0,1177,1212,287,252,2e-08,67.6
Cladophialophora_australiensis_CBS112793,SRR9261008.5791033,100.00,35,0,0,1177,1211,340,306,6e-08,65.8
Cladophialophora_australiensis_CBS112793,SRR9261008.5824943,100.00,32,0,0,1178,1209,89,58,3e-06,60.2
Cladophialophora_australiensis_CBS112793,SRR9261008.5824943,100.00,32,0,0,1178,1209,360,391,3e-06,60.2
Cladophialophora_australiensis_CBS112793,SRR9261008.4898197,100.00,32,0,0,1178,1209,122,91,3e-06,60.2
Cladophialophora_australiensis_CBS112793,SRR9261008.5427663,100.00,30,0,0,1178,1207,133,104,4e-05,56.5
Cladophialophora_australiensis_CBS112793,SRR9261008.4608083,100.00,28,0,0,1182,1209,226,199,5e-04,52.8
Cladophialophora_australiensis_CBS112793,SRR9261008.4608083,100.00,28,0,0,1182,1209,225,252,5e-04,52.8
Cladophialophora_potulentorum_CBS112222,SRR9261008.3814266,90.42,167,16,0,811,977,456,290,1e-54,220
Cladophialophora_potulentorum_CBS112222,SRR9261008.6034846,84.14,227,33,2,753,977,6,231,2e-53,217
Cladophialophora_potulentorum_CBS112222,SRR9261008.4666861,89.35,169,18,0,1320,1488,195,27,2e-52,213
Cladophialophora_potulentorum_CBS112222,SRR9261008.3278691,89.35,169,18,0,1320,1488,62,230,2e-52,213
Cladophialophora_potulentorum_CBS112222,SRR9261008.3278691,89.35,169,18,0,1320,1488,482,314,2e-52,213
Cladophialophora_potulentorum_CBS112222,SRR9261008.1030728,89.35,169,18,0,1320,1488,195,27,2e-52,213
Cladophialophora_potulentorum_CBS112222,SRR9261008.1030728,89.35,169,18,0,1320,1488,238,406,2e-52,213
Cladophialophora_potulentorum_CBS112222,SRR9261008.70319,89.29,168,18,0,1321,1488,250,417,8e-52,211
Cladophialophora_potulentorum_CBS112222,SRR9261008.70319,89.22,167,18,0,1322,1488,246,80,3e-51,209
Cladophialophora_potulentorum_CBS112222,SRR9261008.5288313,88.62,167,19,0,1322,1488,1,167,1e-49,204
Cladophialophora_potulentorum_CBS112222,SRR9261008.5288313,89.74,117,12,0,1372,1488,502,386,2e-33,150
Cladophialophora_potulentorum_CBS112222,SRR9261008.4199675,88.96,163,18,0,1320,1482,413,251,5e-49,202
Cladophialophora_potulentorum_CBS112222,SRR9261008.4199675,88.57,70,8,0,1180,1249,89,158,5e-14,86.1
Cladophialophora_potulentorum_CBS112222,SRR9261008.460856,88.96,163,18,0,1320,1482,62,224,5e-49,202
Cladophialophora_potulentorum_CBS112222,SRR9261008.460856,88.96,163,18,0,1320,1482,383,221,5e-49,202
Cladophialophora_potulentorum_CBS112222,SRR9261008.5442377,90.48,147,14,0,1342,1488,261,407,8e-47,195
Cladophialophora_potulentorum_CBS112222,SRR9261008.5442377,90.82,98,9,0,1391,1488,252,155,6e-28,132
Cladophialophora_potulentorum_CBS112222,SRR9261008.3283407,93.80,129,8,0,1342,1470,129,1,8e-47,195
Cladophialophora_potulentorum_CBS112222,SRR9261008.3283407,100.00,32,0,0,1180,1211,353,384,3e-06,60.2
Cladophialophora_potulentorum_CBS112222,SRR9261008.6260073,90.37,135,13,0,1359,1493,1,135,8e-42,178
Cladophialophora_potulentorum_CBS112222,SRR9261008.6260073,90.37,135,13,0,1359,1493,446,312,8e-42,178
Cladophialophora_potulentorum_CBS112222,SRR9261008.2382550,79.67,246,43,4,1180,1421,243,1,1e-39,171
Cladophialophora_potulentorum_CBS112222,SRR9261008.2382550,76.80,181,35,5,1180,1356,325,502,8e-17,95.3
Cladophialophora_potulentorum_CBS112222,SRR9261008.347785,92.17,115,9,0,1374,1488,1,115,2e-37,163
Cladophialophora_potulentorum_CBS112222,SRR9261008.846035,92.73,110,8,0,1342,1451,110,1,3e-36,159
Cladophialophora_potulentorum_CBS112222,SRR9261008.6052774,91.59,107,9,0,556,662,173,67,6e-33,148
Cladophialophora_potulentorum_CBS112222,SRR9261008.6052774,91.59,107,9,0,556,662,264,370,6e-33,148
Cladophialophora_potulentorum_CBS112222,SRR9261008.3136711,91.51,106,9,0,1342,1447,145,250,2e-32,147
Cladophialophora_potulentorum_CBS112222,SRR9261008.6619319,84.89,139,21,0,1337,1475,390,252,1e-30,141
Cladophialophora_potulentorum_CBS112222,SRR9261008.9117,89.09,110,12,0,1342,1451,81,190,1e-29,137
Cladophialophora_potulentorum_CBS112222,SRR9261008.9117,89.09,110,12,0,1342,1451,300,191,1e-29,137
Cladophialophora_potulentorum_CBS112222,SRR9261008.4286360,91.00,100,9,0,1394,1493,1,100,5e-29,135
Cladophialophora_potulentorum_CBS112222,SRR9261008.2461349,77.88,217,45,3,1180,1394,216,1,6e-28,132
Cladophialophora_potulentorum_CBS112222,SRR9261008.2461349,77.42,217,46,3,1180,1394,237,452,3e-26,126
Cladophialophora_potulentorum_CBS112222,SRR9261008.4759535,76.28,253,51,7,629,875,250,1,3e-26,126
Cladophialophora_potulentorum_CBS112222,SRR9261008.1750058,77.88,208,39,4,1180,1383,205,1,4e-25,122
Cladophialophora_potulentorum_CBS112222,SRR9261008.1750058,88.57,70,8,0,1180,1249,335,404,5e-14,86.1
Cladophialophora_potulentorum_CBS112222,SRR9261008.2231462,93.42,76,5,0,1413,1488,252,327,2e-22,113
Cladophialophora_potulentorum_CBS112222,SRR9261008.6405091,77.66,188,35,4,1180,1363,196,12,1e-20,108
Cladophialophora_potulentorum_CBS112222,SRR9261008.6405091,77.66,188,35,5,1180,1363,207,391,1e-20,108
Cladophialophora_potulentorum_CBS112222,SRR9261008.5174993,90.91,77,6,1,1413,1488,3,79,5e-19,102
Cladophialophora_potulentorum_CBS112222,SRR9261008.4754734,84.11,107,16,1,1156,1262,393,288,5e-19,102
Cladophialophora_potulentorum_CBS112222,SRR9261008.4754734,89.29,56,6,0,1156,1211,189,244,1e-09,71.3
Cladophialophora_potulentorum_CBS112222,SRR9261008.1368317,84.11,107,16,1,1156,1262,400,295,5e-19,102
Cladophialophora_potulentorum_CBS112222,SRR9261008.1368317,88.68,53,6,0,1156,1208,199,251,7e-08,65.8
Cladophialophora_potulentorum_CBS112222,SRR9261008.809477,89.16,83,8,1,1179,1261,126,45,5e-19,102
Cladophialophora_potulentorum_CBS112222,SRR9261008.809477,89.16,83,8,1,1179,1261,229,310,5e-19,102
Cladophialophora_potulentorum_CBS112222,SRR9261008.1245588,76.47,187,38,5,1179,1360,34,219,2e-17,97.1
Cladophialophora_potulentorum_CBS112222,SRR9261008.5876079,90.28,72,7,0,1179,1250,150,79,8e-17,95.3
Cladophialophora_potulentorum_CBS112222,SRR9261008.2260586,94.55,55,3,0,1180,1234,333,279,5e-14,86.1
Cladophialophora_potulentorum_CBS112222,SRR9261008.656917,95.92,49,2,0,1180,1228,302,254,2e-12,80.5
Cladophialophora_potulentorum_CBS112222,SRR9261008.21981,87.50,72,2,7,1179,1247,135,68,3e-11,76.8
Cladophialophora_potulentorum_CBS112222,SRR9261008.21981,87.50,72,2,7,1179,1247,282,349,3e-11,76.8
Cladophialophora_potulentorum_CBS112222,SRR9261008.361353,100.00,36,0,0,1179,1214,287,252,2e-08,67.6
Cladophialophora_potulentorum_CBS112222,SRR9261008.5791033,100.00,35,0,0,1179,1213,340,306,7e-08,65.8
Cladophialophora_potulentorum_CBS112222,SRR9261008.5824943,100.00,32,0,0,1180,1211,89,58,3e-06,60.2
Cladophialophora_potulentorum_CBS112222,SRR9261008.5824943,100.00,32,0,0,1180,1211,360,391,3e-06,60.2
Cladophialophora_potulentorum_CBS112222,SRR9261008.4898197,100.00,32,0,0,1180,1211,122,91,3e-06,60.2
Cladophialophora_potulentorum_CBS112222,SRR9261008.5427663,100.00,30,0,0,1180,1209,133,104,4e-05,56.5
Cladophialophora_potulentorum_CBS112222,SRR9261008.4608083,100.00,28,0,0,1184,1211,226,199,5e-04,52.8
Cladophialophora_potulentorum_CBS112222,SRR9261008.4608083,100.00,28,0,0,1184,1211,225,252,5e-04,52.8
Cladophialophora_chaetospira_CBS127573,SRR9261008.1137793,79.08,153,22,9,112,259,289,436,1e-17,97.1
Cladophialophora_chaetospira_CBS127573,SRR9261008.1137793,87.01,77,8,2,184,259,244,169,3e-14,86.1
Cladophialophora_chaetospira_CBS127573,SRR9261008.4646101,97.30,37,1,0,379,415,153,117,1e-07,63.9
Cladophialophora_chaetospira_CBS127573,SRR9261008.4646101,97.30,37,1,0,379,415,306,342,1e-07,63.9
Cladophialophora_chaetospira_CBS127573,SRR9261008.6589126,100.00,31,0,0,379,409,282,252,7e-06,58.4
Cladophialophora_chaetospira_CBS127573,SRR9261008.2555279,100.00,31,0,0,379,409,353,383,7e-06,58.4
Cladophialophora_chaetospira_CBS127573,SRR9261008.2405499,100.00,31,0,0,379,409,323,293,7e-06,58.4
Cladophialophora_chaetospira_CBS127573,SRR9261008.2346066,100.00,31,0,0,379,409,32,2,7e-06,58.4
Cladophialophora_chaetospira_CBS127573,SRR9261008.1830531,100.00,31,0,0,379,409,169,139,7e-06,58.4
Cladophialophora_chaetospira_CBS127573,SRR9261008.672929,100.00,31,0,0,379,409,154,184,7e-06,58.4
Cladophialophora_chaetospira_CBS127573,SRR9261008.6595526,100.00,30,0,0,379,408,277,306,2e-05,56.5
Cladophialophora_chaetospira_CBS127573,SRR9261008.4596336,100.00,30,0,0,379,408,109,138,2e-05,56.5
Cladophialophora_chaetospira_CBS127573,SRR9261008.4596336,100.00,30,0,0,379,408,358,329,2e-05,56.5
Cladophialophora_chaetospira_CBS127573,SRR9261008.3504928,100.00,30,0,0,379,408,175,146,2e-05,56.5
Cladophialophora_chaetospira_CBS127573,SRR9261008.3381340,100.00,30,0,0,379,408,294,265,2e-05,56.5
Cladophialophora_chaetospira_CBS127573,SRR9261008.3159666,100.00,30,0,0,379,408,73,44,2e-05,56.5
Cladophialophora_chaetospira_CBS127573,SRR9261008.1629339,100.00,30,0,0,379,408,75,104,2e-05,56.5
Cladophialophora_chaetospira_CBS127573,SRR9261008.1076497,100.00,30,0,0,379,408,128,157,2e-05,56.5
Cladophialophora_chaetospira_CBS127573,SRR9261008.1076497,100.00,30,0,0,379,408,424,395,2e-05,56.5
Cladophialophora_chaetospira_CBS127573,SRR9261008.221417,100.00,30,0,0,379,408,137,166,2e-05,56.5
Cladophialophora_chaetospira_CBS127573,SRR9261008.221417,100.00,30,0,0,379,408,346,317,2e-05,56.5
Cladophialophora_chaetospira_CBS127573,SRR9261008.65631,100.00,30,0,0,379,408,244,215,2e-05,56.5
Cladophialophora_chaetospira_CBS127573,SRR9261008.65631,100.00,30,0,0,379,408,388,417,2e-05,56.5
Cladophialophora_chaetospira_CBS127573,SRR9261008.6619729,100.00,29,0,0,381,409,1,29,9e-05,54.7
Cladophialophora_chaetospira_CBS127573,SRR9261008.6300556,100.00,28,0,0,379,406,313,340,3e-04,52.8
Cladophialophora_chaetospira_CBS127573,SRR9261008.2412587,100.00,28,0,0,379,406,133,106,3e-04,52.8
Cladophialophora_chaetospira_CBS127573,SRR9261008.2412587,100.00,28,0,0,379,406,266,293,3e-04,52.8
Phialophora_americana_CBS400.67,SRR9261008.6034846,84.58,227,32,2,745,969,6,231,4e-55,222
Phialophora_americana_CBS400.67,SRR9261008.3814266,89.82,167,17,0,803,969,456,290,6e-53,215
Phialophora_americana_CBS400.67,SRR9261008.3283407,92.86,112,8,0,1334,1445,129,18,2e-37,163
Phialophora_americana_CBS400.67,SRR9261008.3283407,100.00,32,0,0,1172,1203,353,384,3e-06,60.2
Phialophora_americana_CBS400.67,SRR9261008.2382550,78.95,247,43,6,1172,1413,243,1,3e-36,159
Phialophora_americana_CBS400.67,SRR9261008.2382550,75.82,182,35,7,1172,1348,325,502,2e-13,84.2
Phialophora_americana_CBS400.67,SRR9261008.846035,92.73,110,8,0,1334,1443,110,1,3e-36,159
Phialophora_americana_CBS400.67,SRR9261008.3136711,91.51,106,9,0,1334,1439,145,250,2e-32,147
Phialophora_americana_CBS400.67,SRR9261008.9117,89.09,110,12,0,1334,1443,81,190,1e-29,137
Phialophora_americana_CBS400.67,SRR9261008.9117,89.09,110,12,0,1334,1443,300,191,1e-29,137
Phialophora_americana_CBS400.67,SRR9261008.4759535,76.28,253,51,7,621,867,250,1,3e-26,126
Phialophora_americana_CBS400.67,SRR9261008.6260073,89.47,95,10,0,1351,1445,1,95,1e-24,121
Phialophora_americana_CBS400.67,SRR9261008.6260073,89.47,95,10,0,1351,1445,446,352,1e-24,121
Phialophora_americana_CBS400.67,SRR9261008.2461349,77.06,218,45,5,1172,1386,216,1,1e-24,121
Phialophora_americana_CBS400.67,SRR9261008.2461349,76.61,218,46,5,1172,1386,237,452,6e-23,115
Phialophora_americana_CBS400.67,SRR9261008.1750058,77.03,209,39,6,1172,1375,205,1,8e-22,111
Phialophora_americana_CBS400.67,SRR9261008.1750058,87.32,71,7,2,1172,1241,335,404,2e-12,80.5
Phialophora_americana_CBS400.67,SRR9261008.809477,90.36,83,7,1,1171,1253,126,45,1e-20,108
Phialophora_americana_CBS400.67,SRR9261008.809477,90.36,83,7,1,1171,1253,229,310,1e-20,108
Phialophora_americana_CBS400.67,SRR9261008.4754734,84.55,110,10,6,1148,1254,393,288,5e-19,102
Phialophora_americana_CBS400.67,SRR9261008.4754734,89.47,57,4,2,1148,1203,189,244,1e-09,71.3
Phialophora_americana_CBS400.67,SRR9261008.1368317,84.55,110,10,6,1148,1254,400,295,5e-19,102
Phialophora_americana_CBS400.67,SRR9261008.1368317,88.89,54,4,2,1148,1200,199,251,6e-08,65.8
Phialophora_americana_CBS400.67,SRR9261008.6405091,76.72,189,35,6,1172,1355,196,12,2e-17,97.1
Phialophora_americana_CBS400.67,SRR9261008.6405091,76.72,189,35,7,1172,1355,207,391,2e-17,97.1
Phialophora_americana_CBS400.67,SRR9261008.5876079,89.04,73,6,2,1171,1242,150,79,4e-15,89.8
Phialophora_americana_CBS400.67,SRR9261008.1245588,88.89,72,6,2,1171,1241,34,104,1e-14,87.9
Phialophora_americana_CBS400.67,SRR9261008.4199675,87.32,71,7,2,1172,1241,89,158,2e-12,80.5
Phialophora_americana_CBS400.67,SRR9261008.2260586,92.86,56,2,2,1172,1226,333,279,2e-12,80.5
Phialophora_americana_CBS400.67,SRR9261008.21981,83.16,95,9,6,1148,1239,158,68,2e-12,80.5
Phialophora_americana_CBS400.67,SRR9261008.21981,83.16,95,9,6,1148,1239,259,349,2e-12,80.5
Phialophora_americana_CBS400.67,SRR9261008.4286360,90.00,60,6,0,1386,1445,1,60,8e-12,78.7
Phialophora_americana_CBS400.67,SRR9261008.656917,94.00,50,1,2,1172,1220,302,254,1e-10,75.0
Phialophora_americana_CBS400.67,SRR9261008.361353,100.00,38,0,0,1171,1208,287,250,1e-09,71.3
Phialophora_americana_CBS400.67,SRR9261008.5791033,100.00,35,0,0,1171,1205,340,306,6e-08,65.8
Phialophora_americana_CBS400.67,SRR9261008.5824943,100.00,32,0,0,1172,1203,89,58,3e-06,60.2
Phialophora_americana_CBS400.67,SRR9261008.5824943,100.00,32,0,0,1172,1203,360,391,3e-06,60.2
Phialophora_americana_CBS400.67,SRR9261008.4898197,100.00,32,0,0,1172,1203,122,91,3e-06,60.2
Phialophora_americana_CBS400.67,SRR9261008.5427663,100.00,30,0,0,1172,1201,133,104,4e-05,56.5
Phialophora_americana_CBS400.67,SRR9261008.4608083,100.00,28,0,0,1176,1203,226,199,5e-04,52.8
Phialophora_americana_CBS400.67,SRR9261008.4608083,100.00,28,0,0,1176,1203,225,252,5e-04,52.8
Anthopsis_deltoidea_CBS263.77_T,SRR9261008.902006,91.26,103,8,1,225,326,241,139,1e-30,139
Cyphellophora_laciniata_CBS190.61_T,SRR9261008.2346066,95.51,89,4,0,13,101,89,1,1e-31,143
Cyphellophora_laciniata_CBS190.61_T,SRR9261008.6589126,98.72,78,1,0,25,102,327,250,2e-30,139
Cyphellophora_laciniata_CBS190.61_T,SRR9261008.6052774,93.55,93,6,0,643,735,173,81,2e-30,139
Cyphellophora_laciniata_CBS190.61_T,SRR9261008.6052774,93.55,93,6,0,643,735,264,356,2e-30,139
Cyphellophora_laciniata_CBS190.61_T,SRR9261008.2555279,98.70,77,1,0,25,101,308,384,7e-30,137
Cyphellophora_laciniata_CBS190.61_T,SRR9261008.2405499,98.70,77,1,0,25,101,368,292,7e-30,137
Cyphellophora_laciniata_CBS190.61_T,SRR9261008.672929,98.70,77,1,0,25,101,109,185,7e-30,137
Cyphellophora_laciniata_CBS190.61_T,SRR9261008.4646101,98.68,76,1,0,25,100,198,123,2e-29,135
Cyphellophora_laciniata_CBS190.61_T,SRR9261008.4646101,98.68,76,1,0,25,100,261,336,2e-29,135
Cyphellophora_laciniata_CBS190.61_T,SRR9261008.1830531,97.40,77,2,0,25,101,214,138,3e-28,132
Cyphellophora_laciniata_CBS190.61_T,SRR9261008.4596336,94.37,71,4,0,29,99,68,138,1e-21,110
Cyphellophora_laciniata_CBS190.61_T,SRR9261008.4596336,94.37,71,4,0,29,99,399,329,1e-21,110
Cyphellophora_laciniata_CBS190.61_T,SRR9261008.2412587,98.33,60,1,0,38,97,165,106,2e-20,106
Cyphellophora_laciniata_CBS190.61_T,SRR9261008.2412587,98.33,60,1,0,38,97,234,293,2e-20,106
Cyphellophora_laciniata_CBS190.61_T,SRR9261008.6300556,100.00,55,0,0,43,97,286,340,2e-19,102
Cyphellophora_laciniata_CBS190.61_T,SRR9261008.3504928,98.25,57,1,0,43,99,202,146,9e-19,100
Cyphellophora_laciniata_CBS190.61_T,SRR9261008.3504928,94.74,57,3,0,43,99,419,475,5e-16,91.6
Cyphellophora_laciniata_CBS190.61_T,SRR9261008.3381340,98.25,57,1,0,43,99,321,265,9e-19,100
Cyphellophora_laciniata_CBS190.61_T,SRR9261008.3381340,98.04,51,1,0,43,93,201,251,2e-15,89.8
Cyphellophora_laciniata_CBS190.61_T,SRR9261008.1629339,98.25,57,1,0,43,99,48,104,9e-19,100
Cyphellophora_laciniata_CBS190.61_T,SRR9261008.1076497,98.25,57,1,0,43,99,101,157,9e-19,100
Cyphellophora_laciniata_CBS190.61_T,SRR9261008.1076497,98.25,57,1,0,43,99,451,395,9e-19,100
Cyphellophora_laciniata_CBS190.61_T,SRR9261008.221417,98.25,57,1,0,43,99,110,166,9e-19,100
Cyphellophora_laciniata_CBS190.61_T,SRR9261008.221417,98.25,57,1,0,43,99,373,317,9e-19,100
Cyphellophora_laciniata_CBS190.61_T,SRR9261008.65631,98.25,57,1,0,43,99,361,417,9e-19,100
Cyphellophora_laciniata_CBS190.61_T,SRR9261008.65631,100.00,37,0,0,63,99,251,215,2e-09,69.4
Cyphellophora_laciniata_CBS190.61_T,SRR9261008.6595526,98.21,56,1,0,44,99,251,306,3e-18,99.0
Cyphellophora_laciniata_CBS190.61_T,SRR9261008.3159666,96.49,57,2,0,43,99,100,44,4e-17,95.3
Cyphellophora_laciniata_CBS190.61_T,SRR9261008.3145967,91.07,56,5,0,44,99,479,424,1e-11,76.8
Cyphellophora_laciniata_CBS190.61_T,SRR9261008.2915107,97.62,42,1,0,43,84,42,1,2e-10,73.1
Cyphellophora_laciniata_CBS190.61_T,SRR9261008.6619729,100.00,30,0,0,72,101,1,30,2e-05,56.5
Cladophialophora_modesta_CBS985.96_T,SRR9261008.6052774,93.55,93,6,0,527,619,173,81,2e-30,139
Cladophialophora_modesta_CBS985.96_T,SRR9261008.6052774,93.55,93,6,0,527,619,264,356,2e-30,139
Cladophialophora_modesta_CBS985.96_T,SRR9261008.5099165,88.30,94,11,0,526,619,294,387,9e-23,113
Cyphellophora_fusarioides_MUCL44033_T,SRR9261008.902006,91.26,103,8,1,212,313,241,139,1e-30,139
