SONDA_C_chaetospira,SRR6453313.33259,100.00,39,0,0,1,39,160,122,4e-14,73.1
SONDA_C_chaetospira,SRR6453313.33259,100.00,39,0,0,1,39,450,488,4e-14,73.1
SONDA_C_chaetospira,SRR6453313.31050,100.00,39,0,0,1,39,160,122,4e-14,73.1
SONDA_C_chaetospira,SRR6453313.31050,100.00,39,0,0,1,39,449,487,4e-14,73.1
SONDA_C_chaetospira,SRR6453313.26411,100.00,39,0,0,1,39,160,122,4e-14,73.1
SONDA_C_chaetospira,SRR6453313.26411,100.00,39,0,0,1,39,449,487,4e-14,73.1
SONDA_C_chaetospira,SRR6453313.6031,100.00,39,0,0,1,39,160,122,4e-14,73.1
SONDA_C_chaetospira,SRR6453313.6031,100.00,39,0,0,1,39,448,486,4e-14,73.1
SONDA_C_chaetospira,SRR6453313.20873,100.00,38,0,0,2,39,159,122,1e-13,71.3
SONDA_C_chaetospira,SRR6453313.20873,100.00,38,0,0,2,39,451,488,1e-13,71.3
SONDA_C_chaetospira,SRR6453313.12599,100.00,38,0,0,2,39,159,122,1e-13,71.3
SONDA_C_chaetospira,SRR6453313.12599,100.00,38,0,0,2,39,451,488,1e-13,71.3
