SONDA_E_E_xenobiotica,SRR1502534.4592,100.00,34,0,0,1,34,163,196,2e-12,63.9
SONDA_E_E_xenobiotica,SRR1502534.4499,100.00,34,0,0,1,34,163,196,2e-12,63.9
SONDA_E_E_xenobiotica,SRR1502534.4189,100.00,34,0,0,1,34,163,196,2e-12,63.9
SONDA_E_E_xenobiotica,SRR1502534.3863,100.00,34,0,0,1,34,163,196,2e-12,63.9
SONDA_E_E_xenobiotica,SRR1502534.3652,100.00,34,0,0,1,34,163,196,2e-12,63.9
SONDA_E_E_xenobiotica,SRR1502534.3631,100.00,34,0,0,1,34,163,196,2e-12,63.9
SONDA_E_E_xenobiotica,SRR1502534.1218,100.00,34,0,0,1,34,163,196,2e-12,63.9
SONDA_E_E_xenobiotica,SRR1502534.1202,100.00,34,0,0,1,34,274,241,2e-12,63.9
SONDA_E_E_xenobiotica,SRR1502534.339,100.00,34,0,0,1,34,163,196,2e-12,63.9
