SONDA_C_chaetospira,SRR6453307.60624,100.00,39,0,0,1,39,160,122,6e-14,73.1
SONDA_C_chaetospira,SRR6453307.60622,100.00,39,0,0,1,39,160,122,6e-14,73.1
SONDA_C_chaetospira,SRR6453307.58779,100.00,39,0,0,1,39,160,122,6e-14,73.1
SONDA_C_chaetospira,SRR6453307.58779,100.00,39,0,0,1,39,449,487,6e-14,73.1
SONDA_C_chaetospira,SRR6453307.58622,100.00,39,0,0,1,39,160,122,6e-14,73.1
SONDA_C_chaetospira,SRR6453307.58622,100.00,38,0,0,1,38,449,486,2e-13,71.3
SONDA_C_chaetospira,SRR6453307.57622,100.00,39,0,0,1,39,160,122,6e-14,73.1
SONDA_C_chaetospira,SRR6453307.57622,97.44,39,1,0,1,39,449,487,3e-12,67.6
SONDA_C_chaetospira,SRR6453307.56873,100.00,39,0,0,1,39,160,122,6e-14,73.1
SONDA_C_chaetospira,SRR6453307.56873,100.00,39,0,0,1,39,451,489,6e-14,73.1
SONDA_C_chaetospira,SRR6453307.51731,100.00,39,0,0,1,39,160,122,6e-14,73.1
SONDA_C_chaetospira,SRR6453307.51731,100.00,39,0,0,1,39,449,487,6e-14,73.1
SONDA_C_chaetospira,SRR6453307.51729,100.00,39,0,0,1,39,160,122,6e-14,73.1
SONDA_C_chaetospira,SRR6453307.51729,97.44,39,1,0,1,39,449,487,3e-12,67.6
SONDA_C_chaetospira,SRR6453307.50165,100.00,39,0,0,1,39,160,122,6e-14,73.1
SONDA_C_chaetospira,SRR6453307.50165,100.00,39,0,0,1,39,450,488,6e-14,73.1
SONDA_C_chaetospira,SRR6453307.50164,100.00,39,0,0,1,39,160,122,6e-14,73.1
SONDA_C_chaetospira,SRR6453307.50164,100.00,39,0,0,1,39,450,488,6e-14,73.1
SONDA_C_chaetospira,SRR6453307.48744,100.00,39,0,0,1,39,160,122,6e-14,73.1
SONDA_C_chaetospira,SRR6453307.48744,97.44,39,1,0,1,39,450,488,3e-12,67.6
SONDA_C_chaetospira,SRR6453307.40230,100.00,39,0,0,1,39,160,122,6e-14,73.1
SONDA_C_chaetospira,SRR6453307.40230,100.00,39,0,0,1,39,450,488,6e-14,73.1
SONDA_C_chaetospira,SRR6453307.40229,100.00,39,0,0,1,39,160,122,6e-14,73.1
SONDA_C_chaetospira,SRR6453307.40229,100.00,39,0,0,1,39,450,488,6e-14,73.1
SONDA_C_chaetospira,SRR6453307.37746,100.00,39,0,0,1,39,160,122,6e-14,73.1
SONDA_C_chaetospira,SRR6453307.37746,100.00,39,0,0,1,39,450,488,6e-14,73.1
SONDA_C_chaetospira,SRR6453307.34682,100.00,39,0,0,1,39,160,122,6e-14,73.1
SONDA_C_chaetospira,SRR6453307.34680,100.00,39,0,0,1,39,160,122,6e-14,73.1
SONDA_C_chaetospira,SRR6453307.34680,100.00,39,0,0,1,39,449,487,6e-14,73.1
SONDA_C_chaetospira,SRR6453307.34626,100.00,39,0,0,1,39,160,122,6e-14,73.1
SONDA_C_chaetospira,SRR6453307.34626,100.00,39,0,0,1,39,449,487,6e-14,73.1
SONDA_C_chaetospira,SRR6453307.31324,100.00,39,0,0,1,39,160,122,6e-14,73.1
SONDA_C_chaetospira,SRR6453307.31324,97.44,39,1,0,1,39,449,487,3e-12,67.6
SONDA_C_chaetospira,SRR6453307.28163,100.00,39,0,0,1,39,160,122,6e-14,73.1
SONDA_C_chaetospira,SRR6453307.28163,100.00,39,0,0,1,39,449,487,6e-14,73.1
SONDA_C_chaetospira,SRR6453307.21699,100.00,39,0,0,1,39,160,122,6e-14,73.1
SONDA_C_chaetospira,SRR6453307.21699,100.00,39,0,0,1,39,450,488,6e-14,73.1
SONDA_C_chaetospira,SRR6453307.21025,100.00,39,0,0,1,39,160,122,6e-14,73.1
SONDA_C_chaetospira,SRR6453307.21025,100.00,39,0,0,1,39,449,487,6e-14,73.1
SONDA_C_chaetospira,SRR6453307.20362,100.00,39,0,0,1,39,160,122,6e-14,73.1
SONDA_C_chaetospira,SRR6453307.20362,100.00,39,0,0,1,39,450,488,6e-14,73.1
SONDA_C_chaetospira,SRR6453307.18793,100.00,39,0,0,1,39,160,122,6e-14,73.1
SONDA_C_chaetospira,SRR6453307.18793,100.00,39,0,0,1,39,449,487,6e-14,73.1
SONDA_C_chaetospira,SRR6453307.18132,100.00,39,0,0,1,39,160,122,6e-14,73.1
SONDA_C_chaetospira,SRR6453307.18132,100.00,39,0,0,1,39,450,488,6e-14,73.1
SONDA_C_chaetospira,SRR6453307.7936,100.00,39,0,0,1,39,160,122,6e-14,73.1
SONDA_C_chaetospira,SRR6453307.7936,100.00,39,0,0,1,39,449,487,6e-14,73.1
SONDA_C_chaetospira,SRR6453307.7606,100.00,39,0,0,1,39,160,122,6e-14,73.1
SONDA_C_chaetospira,SRR6453307.7606,100.00,39,0,0,1,39,450,488,6e-14,73.1
SONDA_C_chaetospira,SRR6453307.6782,100.00,39,0,0,1,39,160,122,6e-14,73.1
SONDA_C_chaetospira,SRR6453307.6782,100.00,39,0,0,1,39,449,487,6e-14,73.1
SONDA_C_chaetospira,SRR6453307.6672,100.00,39,0,0,1,39,160,122,6e-14,73.1
SONDA_C_chaetospira,SRR6453307.3565,100.00,39,0,0,1,39,160,122,6e-14,73.1
SONDA_C_chaetospira,SRR6453307.3565,100.00,39,0,0,1,39,450,488,6e-14,73.1
SONDA_C_chaetospira,SRR6453307.2848,100.00,39,0,0,1,39,160,122,6e-14,73.1
SONDA_C_chaetospira,SRR6453307.2848,100.00,39,0,0,1,39,450,488,6e-14,73.1
SONDA_C_chaetospira,SRR6453307.538,100.00,39,0,0,1,39,160,122,6e-14,73.1
SONDA_C_chaetospira,SRR6453307.538,100.00,39,0,0,1,39,450,488,6e-14,73.1
SONDA_C_chaetospira,SRR6453307.321,100.00,39,0,0,1,39,160,122,6e-14,73.1
SONDA_C_chaetospira,SRR6453307.321,100.00,39,0,0,1,39,449,487,6e-14,73.1
SONDA_C_chaetospira,SRR6453307.51523,100.00,38,0,0,2,39,159,122,2e-13,71.3
SONDA_C_chaetospira,SRR6453307.51523,97.37,38,1,0,2,39,450,487,1e-11,65.8
SONDA_C_chaetospira,SRR6453307.48650,100.00,38,0,0,2,39,159,122,2e-13,71.3
SONDA_C_chaetospira,SRR6453307.48650,97.37,38,1,0,2,39,451,488,1e-11,65.8
SONDA_C_chaetospira,SRR6453307.48649,100.00,38,0,0,2,39,159,122,2e-13,71.3
SONDA_C_chaetospira,SRR6453307.48649,100.00,38,0,0,2,39,451,488,2e-13,71.3
SONDA_C_chaetospira,SRR6453307.41069,100.00,38,0,0,2,39,159,122,2e-13,71.3
SONDA_C_chaetospira,SRR6453307.41069,100.00,38,0,0,2,39,450,487,2e-13,71.3
SONDA_C_chaetospira,SRR6453307.41068,100.00,38,0,0,2,39,159,122,2e-13,71.3
SONDA_C_chaetospira,SRR6453307.41068,100.00,38,0,0,2,39,450,487,2e-13,71.3
SONDA_C_chaetospira,SRR6453307.39451,100.00,38,0,0,2,39,159,122,2e-13,71.3
SONDA_C_chaetospira,SRR6453307.39451,100.00,38,0,0,2,39,451,488,2e-13,71.3
SONDA_C_chaetospira,SRR6453307.31053,100.00,38,0,0,2,39,159,122,2e-13,71.3
SONDA_C_chaetospira,SRR6453307.22920,100.00,38,0,0,2,39,159,122,2e-13,71.3
SONDA_C_chaetospira,SRR6453307.22920,100.00,38,0,0,2,39,451,488,2e-13,71.3
SONDA_C_chaetospira,SRR6453307.15527,100.00,38,0,0,2,39,159,122,2e-13,71.3
SONDA_C_chaetospira,SRR6453307.15527,100.00,38,0,0,2,39,451,488,2e-13,71.3
SONDA_C_chaetospira,SRR6453307.14198,100.00,38,0,0,2,39,159,122,2e-13,71.3
SONDA_C_chaetospira,SRR6453307.14198,100.00,38,0,0,2,39,451,488,2e-13,71.3
SONDA_C_chaetospira,SRR6453307.11039,100.00,38,0,0,2,39,159,122,2e-13,71.3
SONDA_C_chaetospira,SRR6453307.11039,100.00,38,0,0,2,39,451,488,2e-13,71.3
SONDA_C_chaetospira,SRR6453307.1108,100.00,38,0,0,2,39,159,122,2e-13,71.3
SONDA_C_chaetospira,SRR6453307.1108,100.00,38,0,0,2,39,450,487,2e-13,71.3
SONDA_C_chaetospira,SRR6453307.11021,97.44,39,1,0,1,39,160,122,3e-12,67.6
SONDA_C_chaetospira,SRR6453307.11021,97.44,39,1,0,1,39,449,487,3e-12,67.6
SONDA_C_chaetospira,SRR6453307.12289,97.37,38,1,0,2,39,450,487,1e-11,65.8
