Exophiala_nigra_CBS535.94_T,ERR1877866.835389,91.41,128,10,1,233,360,1,127,7e-42,174
Exophiala_nigra_CBS535.94_T,ERR1877866.83597,100.00,66,0,0,201,266,317,252,3e-26,122
Exophiala_spinifera_CBS899.68_T,ERR1877866.835389,90.62,128,11,1,230,357,1,127,3e-40,169
Exophiala_spinifera_CBS899.68_T,ERR1877866.83597,100.00,66,0,0,198,263,317,252,3e-26,122
Exophiala_exophialae_CBS668.76_T,ERR1877866.835389,90.62,128,11,1,231,358,1,127,3e-40,169
Exophiala_exophialae_CBS668.76_T,ERR1877866.83597,100.00,66,0,0,199,264,317,252,3e-26,122
Exophiala_polymorpha_CBS138920_T,ERR1877866.835389,90.62,128,11,1,333,460,1,127,4e-40,169
Exophiala_polymorpha_CBS138920_T,ERR1877866.83597,100.00,66,0,0,301,366,317,252,3e-26,122
Exophiala_polymorpha_CBS138920_T,ERR1877866.919183,98.08,52,1,0,643,694,70,121,9e-17,91.6
Exophiala_polymorpha_CBS138920_T,ERR1877866.977849,94.00,50,3,0,645,694,284,333,3e-12,76.8
Exophiala_polymorpha_CBS138920_T,ERR1877866.542226,92.00,50,4,0,645,694,188,139,1e-10,71.3
Exophiala_polymorpha_CBS138920_T,ERR1877866.740653,92.50,40,3,0,655,694,7,46,9e-07,58.4
Exophiala_oligosperma_CBS725.88_T,ERR1877866.835389,90.62,128,11,1,243,370,1,127,3e-40,169
Exophiala_oligosperma_CBS725.88_T,ERR1877866.83597,100.00,66,0,0,211,276,317,252,3e-26,122
Exophiala_jeanselmei_CBS507.90_T,ERR1877866.835389,90.62,128,11,1,235,362,1,127,4e-40,169
Exophiala_jeanselmei_CBS507.90_T,ERR1877866.83597,100.00,66,0,0,203,268,317,252,3e-26,122
Exophiala_jeanselmei_CBS507.90_T,ERR1877866.919183,95.59,68,1,1,537,604,64,129,8e-22,108
Exophiala_jeanselmei_CBS507.90_T,ERR1877866.977849,94.83,58,3,0,547,604,284,341,8e-17,91.6
Exophiala_jeanselmei_CBS507.90_T,ERR1877866.542226,93.10,58,4,0,547,604,188,131,4e-15,86.1
Exophiala_jeanselmei_CBS507.90_T,ERR1877866.740653,93.75,48,3,0,557,604,7,54,3e-11,73.1
Exophiala_bergeri_CBS353.52,ERR1877866.835389,91.41,128,10,1,196,323,1,127,6e-42,174
Exophiala_bergeri_CBS353.52,ERR1877866.83597,100.00,66,0,0,164,229,317,252,2e-26,122
Exophiala_moniliae_CBS520.76_T,ERR1877866.835389,91.34,127,10,1,233,359,1,126,3e-41,172
Exophiala_moniliae_CBS520.76_T,ERR1877866.83597,100.00,66,0,0,201,266,317,252,3e-26,122
Exophiala_pisciphila_CBS537.73_T,ERR1877866.919183,98.13,107,2,0,547,653,63,169,1e-45,187
Exophiala_pisciphila_CBS537.73_T,ERR1877866.835389,91.34,127,10,1,236,362,1,126,3e-41,172
Exophiala_pisciphila_CBS537.73_T,ERR1877866.977849,91.92,99,6,2,556,653,284,381,1e-30,137
Exophiala_pisciphila_CBS537.73_T,ERR1877866.542226,84.25,127,18,2,529,653,217,91,3e-26,122
Exophiala_pisciphila_CBS537.73_T,ERR1877866.83597,100.00,66,0,0,204,269,317,252,3e-26,122
Exophiala_pisciphila_CBS537.73_T,ERR1877866.740653,93.42,76,5,0,578,653,19,94,2e-23,113
Exophiala_pisciphila_CBS537.73_T,ERR1877866.207525,94.92,59,3,0,578,636,188,246,2e-17,93.5
Exophiala_pisciphila_CBS537.73_T,ERR1877866.641815,90.62,64,6,0,590,653,1,64,4e-15,86.1
Exophiala_xenobiotica_CBS117642,ERR1877866.835389,91.41,128,10,1,228,355,1,127,7e-42,174
Exophiala_xenobiotica_CBS117642,ERR1877866.83597,100.00,66,0,0,196,261,317,252,3e-26,122
Exophiala_brunnea_CBS,ERR1877866.835389,90.55,127,11,1,264,390,1,126,1e-39,167
Exophiala_brunnea_CBS,ERR1877866.83597,100.00,66,0,0,232,297,317,252,3e-26,122
Exophiala_brunnea_CBS,ERR1877866.919183,97.96,49,1,0,585,633,70,118,1e-15,87.9
Exophiala_brunnea_CBS,ERR1877866.681753,100.00,37,0,0,1,37,344,380,4e-10,69.4
Exophiala_brunnea_CBS,ERR1877866.309623,100.00,32,0,0,9,40,368,337,2e-07,60.2
Exophiala_nishimurae_CBS101538_T,ERR1877866.835389,90.62,128,11,1,242,369,1,127,4e-40,169
Exophiala_nishimurae_CBS101538_T,ERR1877866.83597,100.00,66,0,0,210,275,317,252,3e-26,122
Exophiala_mesophila_CBS402.95_T,ERR1877866.919183,99.00,100,1,0,551,650,70,169,2e-43,180
Exophiala_mesophila_CBS402.95_T,ERR1877866.835389,90.55,127,11,1,226,352,1,126,1e-39,167
Exophiala_mesophila_CBS402.95_T,ERR1877866.977849,89.81,108,10,1,544,650,274,381,1e-30,137
Exophiala_mesophila_CBS402.95_T,ERR1877866.542226,89.80,98,10,0,553,650,188,91,2e-27,126
Exophiala_mesophila_CBS402.95_T,ERR1877866.83597,100.00,66,0,0,194,259,317,252,3e-26,122
Exophiala_mesophila_CBS402.95_T,ERR1877866.740653,90.91,88,8,0,563,650,7,94,4e-25,119
Exophiala_mesophila_CBS402.95_T,ERR1877866.207525,94.92,59,3,0,575,633,188,246,2e-17,93.5
Exophiala_mesophila_CBS402.95_T,ERR1877866.641815,90.62,64,6,0,587,650,1,64,4e-15,86.1
Exophiala_castellanii_CBS158.58_T,ERR1877866.919183,96.43,112,2,2,538,649,60,169,1e-44,183
Exophiala_castellanii_CBS158.58_T,ERR1877866.835389,90.55,127,11,1,224,350,1,126,1e-39,167
Exophiala_castellanii_CBS158.58_T,ERR1877866.977849,90.65,107,9,1,544,649,275,381,9e-32,141
Exophiala_castellanii_CBS158.58_T,ERR1877866.542226,89.80,98,10,0,552,649,188,91,2e-27,126
Exophiala_castellanii_CBS158.58_T,ERR1877866.83597,100.00,66,0,0,192,257,317,252,3e-26,122
Exophiala_castellanii_CBS158.58_T,ERR1877866.740653,90.91,88,8,0,562,649,7,94,4e-25,119
Exophiala_castellanii_CBS158.58_T,ERR1877866.207525,94.92,59,3,0,574,632,188,246,2e-17,93.5
Exophiala_castellanii_CBS158.58_T,ERR1877866.641815,90.62,64,6,0,586,649,1,64,4e-15,86.1
Exophiala_lecanii-corni_CBS123.33_T,ERR1877866.835389,90.55,127,11,1,247,373,1,126,1e-39,167
Exophiala_lecanii-corni_CBS123.33_T,ERR1877866.83597,100.00,66,0,0,215,280,317,252,3e-26,122
Exophiala_dermatitidis_CBS748.88,ERR1877866.1007106,96.74,184,6,0,832,1015,4,187,2e-81,307
Exophiala_dermatitidis_CBS748.88,ERR1877866.1007106,97.22,36,1,0,1469,1504,500,465,2e-07,62.1
Exophiala_dermatitidis_CBS748.88,ERR1877866.919183,94.65,187,7,3,558,742,52,237,2e-75,287
Exophiala_dermatitidis_CBS748.88,ERR1877866.919183,86.67,180,21,3,1065,1244,428,252,4e-48,196
Exophiala_dermatitidis_CBS748.88,ERR1877866.220516,98.17,164,3,0,1341,1504,1,164,2e-75,287
Exophiala_dermatitidis_CBS748.88,ERR1877866.313161,89.52,229,17,6,754,979,225,1,3e-74,283
Exophiala_dermatitidis_CBS748.88,ERR1877866.640236,92.98,171,12,0,842,1012,29,199,3e-64,250
Exophiala_dermatitidis_CBS748.88,ERR1877866.696007,84.50,258,31,7,1078,1332,251,502,4e-63,246
Exophiala_dermatitidis_CBS748.88,ERR1877866.696007,98.90,91,1,0,1414,1504,251,161,4e-38,163
Exophiala_dermatitidis_CBS748.88,ERR1877866.740653,92.40,171,13,0,842,1012,499,329,1e-62,244
Exophiala_dermatitidis_CBS748.88,ERR1877866.740653,81.86,226,36,5,588,810,7,230,9e-45,185
Exophiala_dermatitidis_CBS748.88,ERR1877866.436346,97.81,137,3,0,1368,1504,247,111,3e-60,237
Exophiala_dermatitidis_CBS748.88,ERR1877866.436346,87.04,108,13,1,1186,1293,379,485,3e-25,121
Exophiala_dermatitidis_CBS748.88,ERR1877866.373325,98.45,129,2,0,1376,1504,251,123,2e-57,228
Exophiala_dermatitidis_CBS748.88,ERR1877866.373325,80.24,253,43,7,1079,1329,246,493,3e-44,183
Exophiala_dermatitidis_CBS748.88,ERR1877866.1057126,98.33,120,2,0,1385,1504,252,371,2e-52,211
Exophiala_dermatitidis_CBS748.88,ERR1877866.327952,82.00,250,34,10,714,957,258,502,9e-50,202
Exophiala_dermatitidis_CBS748.88,ERR1877866.977849,89.47,152,14,2,578,727,284,435,2e-46,191
Exophiala_dermatitidis_CBS748.88,ERR1877866.908524,83.66,202,28,4,1186,1385,199,1,9e-45,185
Exophiala_dermatitidis_CBS748.88,ERR1877866.835389,91.34,127,10,1,239,365,1,126,7e-41,172
Exophiala_dermatitidis_CBS748.88,ERR1877866.542226,87.33,150,17,2,578,725,188,39,3e-40,171
Exophiala_dermatitidis_CBS748.88,ERR1877866.927291,80.60,232,31,7,1187,1411,27,251,3e-39,167
Exophiala_dermatitidis_CBS748.88,ERR1877866.299276,91.60,119,10,0,887,1005,1,119,1e-38,165
Exophiala_dermatitidis_CBS748.88,ERR1877866.299276,93.33,90,6,0,1415,1504,502,413,3e-29,134
Exophiala_dermatitidis_CBS748.88,ERR1877866.921457,88.55,131,15,0,894,1024,252,122,6e-37,159
Exophiala_dermatitidis_CBS748.88,ERR1877866.641815,80.19,207,33,8,612,812,1,205,1e-33,148
Exophiala_dermatitidis_CBS748.88,ERR1877866.641815,88.51,87,10,0,919,1005,502,416,7e-21,106
Exophiala_dermatitidis_CBS748.88,ERR1877866.593905,100.00,80,0,0,1425,1504,251,330,1e-33,148
Exophiala_dermatitidis_CBS748.88,ERR1877866.593905,100.00,79,0,0,1426,1504,234,156,4e-33,147
Exophiala_dermatitidis_CBS748.88,ERR1877866.83597,98.48,66,0,1,208,272,317,252,1e-23,115
Exophiala_dermatitidis_CBS748.88,ERR1877866.207525,94.92,59,3,0,600,658,188,246,6e-17,93.5
Exophiala_dermatitidis_CBS748.88,ERR1877866.1064319,86.59,82,10,1,1210,1291,394,314,7e-16,89.8
Exophiala_angulospora_CBS482.92_T,ERR1877866.835389,91.34,127,10,1,230,356,1,126,3e-41,172
Exophiala_angulospora_CBS482.92_T,ERR1877866.83597,100.00,66,0,0,198,263,317,252,3e-26,122
Exophiala_opportunistica_CBS109811_T,ERR1877866.835389,91.34,127,10,1,229,355,1,126,3e-41,172
Exophiala_opportunistica_CBS109811_T,ERR1877866.83597,100.00,66,0,0,197,262,317,252,3e-26,122
Exophiala_salmonis_CBS157.67_T,ERR1877866.919183,98.13,107,2,0,667,773,63,169,1e-45,187
Exophiala_salmonis_CBS157.67_T,ERR1877866.835389,91.34,127,10,1,358,484,1,126,4e-41,172
Exophiala_salmonis_CBS157.67_T,ERR1877866.83597,88.71,124,10,4,1,122,75,196,6e-34,148
Exophiala_salmonis_CBS157.67_T,ERR1877866.83597,100.00,66,0,0,326,391,317,252,4e-26,122
Exophiala_salmonis_CBS157.67_T,ERR1877866.1007893,87.70,122,15,0,1,122,376,255,3e-32,143
Exophiala_salmonis_CBS157.67_T,ERR1877866.977849,91.92,99,6,2,676,773,284,381,1e-30,137
Exophiala_salmonis_CBS157.67_T,ERR1877866.542226,84.25,127,18,2,649,773,217,91,4e-26,122
Exophiala_salmonis_CBS157.67_T,ERR1877866.740653,93.42,76,5,0,698,773,19,94,2e-23,113
Exophiala_salmonis_CBS157.67_T,ERR1877866.207525,94.92,59,3,0,698,756,188,246,3e-17,93.5
Exophiala_salmonis_CBS157.67_T,ERR1877866.641815,90.62,64,6,0,710,773,1,64,5e-15,86.1
Exophiala_salmonis_CBS157.67_T,ERR1877866.272160,97.56,41,1,0,82,122,336,296,1e-10,71.3
Exophiala_salmonis_CBS157.67_T,ERR1877866.27454,97.50,40,1,0,83,122,451,412,5e-10,69.4
Exophiala_aquamarina_CBS119918_T,ERR1877866.835389,91.34,127,10,1,236,362,1,126,3e-41,172
Exophiala_aquamarina_CBS119918_T,ERR1877866.83597,100.00,66,0,0,204,269,317,252,3e-26,122
Exophiala_cancerae_CBS120420_T,ERR1877866.835389,91.34,127,10,1,251,377,1,126,3e-41,172
Exophiala_cancerae_CBS120420_T,ERR1877866.83597,100.00,66,0,0,219,284,317,252,3e-26,122
Exophiala_cancerae_CBS120420_T,ERR1877866.83597,94.44,36,2,0,1,36,200,235,3e-06,56.5
Exophiala_cancerae_CBS120420_T,ERR1877866.919183,100.00,60,0,0,565,624,70,129,6e-23,111
Exophiala_cancerae_CBS120420_T,ERR1877866.977849,94.92,59,1,2,567,624,284,341,8e-17,91.6
Exophiala_cancerae_CBS120420_T,ERR1877866.542226,91.38,58,5,0,567,624,188,131,2e-13,80.5
Exophiala_cancerae_CBS120420_T,ERR1877866.740653,100.00,36,0,0,589,624,19,54,1e-09,67.6
Exophiala_cancerae_CBS120420_T,ERR1877866.272160,100.00,31,0,0,1,31,292,262,8e-07,58.4
Exophiala_tremulae_CBS129355,ERR1877866.835389,91.34,127,10,1,263,389,1,126,3e-41,172
Exophiala_tremulae_CBS129355,ERR1877866.83597,100.00,66,0,0,231,296,317,252,3e-26,122
Exophiala_tremulae_CBS129355,ERR1877866.919183,96.43,56,2,0,573,628,63,118,2e-17,93.5
Exophiala_tremulae_CBS129355,ERR1877866.681753,100.00,37,0,0,1,37,344,380,4e-10,69.4
Exophiala_tremulae_CBS129355,ERR1877866.309623,100.00,32,0,0,9,40,368,337,2e-07,60.2
Exophiala_equina_CBS116009,ERR1877866.835389,91.34,127,10,1,229,355,1,126,3e-41,172
Exophiala_equina_CBS116009,ERR1877866.83597,100.00,66,0,0,197,262,317,252,3e-26,122
Exophiala_alcalophila_CBS520.82_T,ERR1877866.835389,91.34,127,10,1,240,366,1,126,3e-41,172
Exophiala_alcalophila_CBS520.82_T,ERR1877866.83597,100.00,66,0,0,208,273,317,252,3e-26,122
Exophiala_crusticola_CBS119970_T,ERR1877866.835389,91.34,127,10,1,245,371,1,126,3e-41,172
Exophiala_crusticola_CBS119970_T,ERR1877866.83597,100.00,66,0,0,213,278,317,252,3e-26,122
Rhinocladiella_atrovirens_CBS264.49,ERR1877866.835389,90.55,127,11,1,271,397,1,126,1e-39,167
Rhinocladiella_atrovirens_CBS264.49,ERR1877866.83597,100.00,66,0,0,239,304,317,252,3e-26,122
Rhinocladiella_atrovirens_CBS264.49,ERR1877866.919183,94.83,58,2,1,570,626,60,117,3e-16,89.8
Rhinocladiella_atrovirens_CBS264.49,ERR1877866.681753,100.00,42,0,0,1,42,339,380,7e-13,78.7
Rhinocladiella_atrovirens_CBS264.49,ERR1877866.681753,97.62,42,1,0,1,42,244,203,3e-11,73.1
Rhinocladiella_atrovirens_CBS264.49,ERR1877866.309623,100.00,31,0,0,14,44,368,338,9e-07,58.4
Rhinocladiella_basitona_CBS101460_T,ERR1877866.835389,90.62,128,11,1,230,357,1,127,3e-40,169
Rhinocladiella_basitona_CBS101460_T,ERR1877866.83597,100.00,66,0,0,198,263,317,252,3e-26,122
Rhinocladiella_phaeophora_CBS496.78_T,ERR1877866.835389,91.34,127,10,1,238,364,1,126,3e-41,172
Rhinocladiella_phaeophora_CBS496.78_T,ERR1877866.83597,100.00,66,0,0,206,271,317,252,3e-26,122
Rhinocladiella_aquaspersa_CBS313.73_T,ERR1877866.919183,94.96,119,2,4,536,650,56,174,1e-44,183
Rhinocladiella_aquaspersa_CBS313.73_T,ERR1877866.835389,91.34,127,10,1,232,358,1,126,3e-41,172
Rhinocladiella_aquaspersa_CBS313.73_T,ERR1877866.977849,90.20,102,7,3,551,649,284,385,2e-28,130
Rhinocladiella_aquaspersa_CBS313.73_T,ERR1877866.83597,100.00,66,0,0,200,265,317,252,3e-26,122
Rhinocladiella_aquaspersa_CBS313.73_T,ERR1877866.740653,93.75,80,5,0,570,649,19,98,1e-25,121
Rhinocladiella_aquaspersa_CBS313.73_T,ERR1877866.542226,90.22,92,8,1,559,649,178,87,4e-25,119
Rhinocladiella_aquaspersa_CBS313.73_T,ERR1877866.641815,91.18,68,6,0,582,649,1,68,2e-17,93.5
Rhinocladiella_aquaspersa_CBS313.73_T,ERR1877866.207525,94.92,59,3,0,570,628,188,246,2e-17,93.5
Rhinocladiella_fasciculata_CBS132.86_T,ERR1877866.835389,90.55,127,11,1,248,374,1,126,1e-39,167
Rhinocladiella_fasciculata_CBS132.86_T,ERR1877866.83597,100.00,66,0,0,216,281,317,252,3e-26,122
Rhinocladiella_anceps_CBS181.65_T,ERR1877866.835389,90.55,127,11,1,230,356,1,126,1e-39,167
Rhinocladiella_anceps_CBS181.65_T,ERR1877866.83597,100.00,66,0,0,198,263,317,252,3e-26,122
Rhinocladiella_mackenziei_CBS367.92,ERR1877866.835389,91.34,127,10,1,219,345,1,126,3e-41,172
Rhinocladiella_mackenziei_CBS367.92,ERR1877866.83597,100.00,66,0,0,187,252,317,252,3e-26,122
Rhinocladiella_mackenziei_CBS367.92,ERR1877866.919183,96.23,53,1,1,556,608,61,112,4e-15,86.1
Veronaea_compacta_CBS268.75_T,ERR1877866.835389,90.55,127,11,1,252,378,1,126,1e-39,167
Veronaea_compacta_CBS268.75_T,ERR1877866.83597,100.00,66,0,0,220,285,317,252,3e-26,122
Veronaea_compacta_CBS268.75_T,ERR1877866.309623,83.10,71,9,3,1,70,364,296,6e-08,62.1
Capronia_pilosella_AFTOL-ID657,ERR1877866.835389,91.34,127,10,1,330,456,1,126,3e-41,172
Capronia_pilosella_AFTOL-ID657,ERR1877866.83597,100.00,66,0,0,298,363,317,252,3e-26,122
Capronia_pilosella_AFTOL-ID657,ERR1877866.309623,81.08,74,10,4,80,151,363,292,3e-06,56.5
Capronia_dactylotricha_DAOM208471_T,ERR1877866.919183,100.00,100,0,0,559,658,70,169,4e-45,185
Capronia_dactylotricha_DAOM208471_T,ERR1877866.835389,91.34,127,10,1,232,358,1,126,3e-41,172
Capronia_dactylotricha_DAOM208471_T,ERR1877866.977849,91.92,99,6,2,561,658,284,381,1e-30,137
Capronia_dactylotricha_DAOM208471_T,ERR1877866.83597,100.00,66,0,0,200,265,317,252,3e-26,122
Capronia_dactylotricha_DAOM208471_T,ERR1877866.542226,88.78,98,11,0,561,658,188,91,1e-25,121
Capronia_dactylotricha_DAOM208471_T,ERR1877866.740653,93.42,76,5,0,583,658,19,94,2e-23,113
Capronia_dactylotricha_DAOM208471_T,ERR1877866.207525,94.92,59,3,0,583,641,188,246,2e-17,93.5
Capronia_dactylotricha_DAOM208471_T,ERR1877866.641815,90.62,64,6,0,595,658,1,64,4e-15,86.1
Capronia_kleinmondensis_CBS122671_T,ERR1877866.919183,98.15,108,1,1,557,664,63,169,1e-45,187
Capronia_kleinmondensis_CBS122671_T,ERR1877866.835389,90.55,127,11,1,257,383,1,126,1e-39,167
Capronia_kleinmondensis_CBS122671_T,ERR1877866.977849,91.92,99,6,2,567,664,284,381,1e-30,137
Capronia_kleinmondensis_CBS122671_T,ERR1877866.83597,100.00,66,0,0,225,290,317,252,3e-26,122
Capronia_kleinmondensis_CBS122671_T,ERR1877866.542226,88.78,98,11,0,567,664,188,91,1e-25,121
Capronia_kleinmondensis_CBS122671_T,ERR1877866.740653,93.42,76,5,0,589,664,19,94,2e-23,113
Capronia_kleinmondensis_CBS122671_T,ERR1877866.207525,94.92,59,3,0,589,647,188,246,2e-17,93.5
Capronia_kleinmondensis_CBS122671_T,ERR1877866.641815,90.62,64,6,0,601,664,1,64,4e-15,86.1
Capronia_kleinmondensis_CBS122671_T,ERR1877866.309623,100.00,30,0,0,1,30,367,338,3e-06,56.5
Capronia_kleinmondensis_CBS122671_T,ERR1877866.681753,100.00,28,0,0,1,28,353,380,4e-05,52.8
Capronia_mansonii_CBS101.67_T,ERR1877866.919183,96.67,120,3,1,549,668,51,169,5e-49,198
Capronia_mansonii_CBS101.67_T,ERR1877866.835389,91.34,127,10,1,243,369,1,126,3e-41,172
Capronia_mansonii_CBS101.67_T,ERR1877866.977849,89.81,108,10,1,562,668,274,381,1e-30,137
Capronia_mansonii_CBS101.67_T,ERR1877866.542226,87.96,108,12,1,562,668,198,91,2e-27,126
Capronia_mansonii_CBS101.67_T,ERR1877866.83597,100.00,66,0,0,211,276,317,252,3e-26,122
Capronia_mansonii_CBS101.67_T,ERR1877866.740653,90.91,88,8,0,581,668,7,94,4e-25,119
Capronia_mansonii_CBS101.67_T,ERR1877866.207525,94.92,59,3,0,593,651,188,246,2e-17,93.5
Capronia_mansonii_CBS101.67_T,ERR1877866.641815,90.62,64,6,0,605,668,1,64,4e-15,86.1
Capronia_munkii_DAOM216390_T,ERR1877866.919183,95.83,120,4,1,549,668,51,169,2e-47,193
Capronia_munkii_DAOM216390_T,ERR1877866.835389,91.34,127,10,1,243,369,1,126,3e-41,172
Capronia_munkii_DAOM216390_T,ERR1877866.977849,91.84,98,8,0,571,668,284,381,1e-30,137
Capronia_munkii_DAOM216390_T,ERR1877866.542226,89.80,98,10,0,571,668,188,91,2e-27,126
Capronia_munkii_DAOM216390_T,ERR1877866.83597,100.00,66,0,0,211,276,317,252,3e-26,122
Capronia_munkii_DAOM216390_T,ERR1877866.740653,90.91,88,8,0,581,668,7,94,4e-25,119
Capronia_munkii_DAOM216390_T,ERR1877866.207525,94.92,59,3,0,593,651,188,246,2e-17,93.5
Capronia_munkii_DAOM216390_T,ERR1877866.641815,90.62,64,6,0,605,668,1,64,4e-15,86.1
Capronia_coronata_ATCC56201_T,ERR1877866.919183,97.22,108,3,0,532,639,62,169,1e-44,183
Capronia_coronata_ATCC56201_T,ERR1877866.835389,91.34,127,10,1,231,357,1,126,3e-41,172
Capronia_coronata_ATCC56201_T,ERR1877866.977849,91.84,98,8,0,542,639,284,381,1e-30,137
Capronia_coronata_ATCC56201_T,ERR1877866.542226,89.80,98,10,0,542,639,188,91,2e-27,126
Capronia_coronata_ATCC56201_T,ERR1877866.83597,100.00,66,0,0,199,264,317,252,3e-26,122
Capronia_coronata_ATCC56201_T,ERR1877866.740653,90.91,88,8,0,552,639,7,94,4e-25,119
Capronia_coronata_ATCC56201_T,ERR1877866.207525,94.92,59,3,0,564,622,188,246,2e-17,93.5
Capronia_coronata_ATCC56201_T,ERR1877866.641815,90.62,64,6,0,576,639,1,64,4e-15,86.1
Capronia_parasitica_CBS123.88,ERR1877866.835389,89.29,140,13,2,237,376,1,138,8e-42,174
Capronia_parasitica_CBS123.88,ERR1877866.83597,100.00,67,0,0,204,270,318,252,8e-27,124
Capronia_parasitica_CBS123.88,ERR1877866.919183,95.35,43,0,1,553,595,64,104,1e-09,67.6
Veronaea_japonica_CBS776.83_T,ERR1877866.835389,91.34,127,10,1,265,391,1,126,3e-41,172
Veronaea_japonica_CBS776.83_T,ERR1877866.83597,100.00,66,0,0,233,298,317,252,3e-26,122
Veronaea_japonica_CBS776.83_T,ERR1877866.681753,100.00,36,0,0,1,36,345,380,1e-09,67.6
Veronaea_japonica_CBS776.83_T,ERR1877866.309623,82.19,73,10,3,8,79,368,298,2e-07,60.2
Thysanorea_papuana_CBS212.96_T,ERR1877866.835389,91.34,127,10,1,239,365,1,126,3e-41,172
Thysanorea_papuana_CBS212.96_T,ERR1877866.83597,100.00,66,0,0,207,272,317,252,3e-26,122
Capronia_acutiseta_ATCC56428_T,ERR1877866.919183,96.36,110,4,0,529,638,60,169,5e-44,182
Capronia_acutiseta_ATCC56428_T,ERR1877866.977849,91.92,99,6,2,541,638,284,381,1e-30,137
Capronia_acutiseta_ATCC56428_T,ERR1877866.542226,88.78,98,11,0,541,638,188,91,1e-25,121
Capronia_acutiseta_ATCC56428_T,ERR1877866.83597,98.48,66,0,1,201,265,317,252,5e-24,115
Capronia_acutiseta_ATCC56428_T,ERR1877866.740653,93.42,76,5,0,563,638,19,94,2e-23,113
Capronia_acutiseta_ATCC56428_T,ERR1877866.207525,94.92,59,3,0,563,621,188,246,2e-17,93.5
Capronia_acutiseta_ATCC56428_T,ERR1877866.641815,90.62,64,6,0,575,638,1,64,4e-15,86.1
Fonsecaea_brasiliensis_CBS119710_T,ERR1877866.835389,91.34,127,10,1,239,365,1,126,3e-41,172
Fonsecaea_brasiliensis_CBS119710_T,ERR1877866.83597,100.00,66,0,0,207,272,317,252,3e-26,122
Fonsecaea_pedrosoi_CBS271.37_T,ERR1877866.835389,91.34,127,10,1,267,393,1,126,3e-41,172
Fonsecaea_pedrosoi_CBS271.37_T,ERR1877866.83597,100.00,66,0,0,235,300,317,252,3e-26,122
Fonsecaea_pedrosoi_CBS271.37_T,ERR1877866.919183,95.65,69,3,0,577,645,61,129,7e-23,111
Fonsecaea_pedrosoi_CBS271.37_T,ERR1877866.977849,93.10,58,4,0,588,645,284,341,4e-15,86.1
Fonsecaea_pedrosoi_CBS271.37_T,ERR1877866.542226,91.38,58,5,0,588,645,188,131,2e-13,80.5
Fonsecaea_pedrosoi_CBS271.37_T,ERR1877866.740653,91.67,48,4,0,598,645,7,54,1e-09,67.6
Fonsecaea_pedrosoi_CBS271.37_T,ERR1877866.309623,100.00,31,0,0,1,31,367,337,9e-07,58.4
Fonsecaea_pedrosoi_CBS271.37_T,ERR1877866.681753,100.00,28,0,0,1,28,353,380,4e-05,52.8
Fonsecaea_multimorphosa_CBS980.96_T,ERR1877866.835389,91.34,127,10,1,237,363,1,126,3e-41,172
Fonsecaea_multimorphosa_CBS980.96_T,ERR1877866.83597,100.00,66,0,0,205,270,317,252,3e-26,122
Fonsecaea_minima_CBS125760_T,ERR1877866.835389,91.34,127,10,1,233,359,1,126,3e-41,172
Fonsecaea_minima_CBS125760_T,ERR1877866.83597,100.00,66,0,0,201,266,317,252,3e-26,122
Fonsecaea_nubica_CBS269.64_T,ERR1877866.835389,91.34,127,10,1,244,370,1,126,3e-41,172
Fonsecaea_nubica_CBS269.64_T,ERR1877866.83597,100.00,66,0,0,212,277,317,252,3e-26,122
Fonsecaea_monophora_CBS269.37_T,ERR1877866.83597,98.51,67,0,1,212,278,317,252,1e-24,117
Fonsecaea_erecta_CBS125763_T,ERR1877866.835389,91.34,127,10,1,228,354,1,126,2e-41,172
Fonsecaea_erecta_CBS125763_T,ERR1877866.83597,100.00,66,0,0,196,261,317,252,3e-26,122
Fonsecaea_pugnacius_CBS139214_T,ERR1877866.835389,91.34,127,10,1,237,363,1,126,3e-41,172
Fonsecaea_pugnacius_CBS139214_T,ERR1877866.83597,100.00,66,0,0,205,270,317,252,3e-26,122
Cladophialophora_psammophila_CBS,ERR1877866.835389,91.34,127,10,1,243,369,1,126,3e-41,172
Cladophialophora_psammophila_CBS,ERR1877866.83597,100.00,66,0,0,211,276,317,252,3e-26,122
Cladophialophora_devriesii_CBS,ERR1877866.835389,91.34,127,10,1,239,365,1,126,2e-41,172
Cladophialophora_devriesii_CBS,ERR1877866.83597,100.00,66,0,0,207,272,317,252,3e-26,122
Cladophialophora_immunda_CBS834.96,ERR1877866.835389,91.34,127,10,1,241,367,1,126,3e-41,172
Cladophialophora_immunda_CBS834.96,ERR1877866.83597,100.00,66,0,0,209,274,317,252,3e-26,122
Cladophialophora_arxii_CBS306.94_T,ERR1877866.835389,91.34,127,10,1,243,369,1,126,3e-41,172
Cladophialophora_arxii_CBS306.94_T,ERR1877866.83597,100.00,66,0,0,211,276,317,252,3e-26,122
Cladophialophora_bantiana_CBS173.52,ERR1877866.835389,91.34,127,10,1,237,363,1,126,3e-41,172
Cladophialophora_bantiana_CBS173.52,ERR1877866.83597,100.00,66,0,0,205,270,317,252,3e-26,122
Cladophialophora_emmonsii_CBS102594,ERR1877866.835389,91.34,127,10,1,228,354,1,126,3e-41,172
Cladophialophora_emmonsii_CBS102594,ERR1877866.83597,100.00,66,0,0,196,261,317,252,3e-26,122
Cladophialophora_minourae_CBS556.83,ERR1877866.835389,88.37,129,12,3,236,364,1,126,3e-35,152
Cladophialophora_minourae_CBS556.83,ERR1877866.83597,100.00,66,0,0,204,269,317,252,3e-26,122
Cladophialophora_australiensis_CBS112793,ERR1877866.1007106,95.65,184,8,0,802,985,4,187,4e-78,296
Cladophialophora_australiensis_CBS112793,ERR1877866.1007106,97.22,36,1,0,1436,1471,500,465,2e-07,62.1
Cladophialophora_australiensis_CBS112793,ERR1877866.313161,90.67,225,18,3,724,947,225,3,4e-78,296
Cladophialophora_australiensis_CBS112793,ERR1877866.220516,97.55,163,4,0,1309,1471,2,164,4e-73,279
Cladophialophora_australiensis_CBS112793,ERR1877866.919183,93.79,177,7,3,539,712,62,237,4e-68,263
Cladophialophora_australiensis_CBS112793,ERR1877866.919183,84.75,177,27,0,1035,1211,428,252,2e-42,178
Cladophialophora_australiensis_CBS112793,ERR1877866.640236,91.53,177,15,0,792,968,9,185,1e-62,244
Cladophialophora_australiensis_CBS112793,ERR1877866.696007,83.86,254,37,4,1048,1299,251,502,7e-61,239
Cladophialophora_australiensis_CBS112793,ERR1877866.696007,98.90,91,1,0,1381,1471,251,161,4e-38,163
Cladophialophora_australiensis_CBS112793,ERR1877866.436346,97.81,137,3,0,1335,1471,247,111,2e-60,237
Cladophialophora_australiensis_CBS112793,ERR1877866.436346,87.16,109,11,3,1153,1260,379,485,3e-25,121
Cladophialophora_australiensis_CBS112793,ERR1877866.740653,93.63,157,10,0,812,968,499,343,9e-60,235
Cladophialophora_australiensis_CBS112793,ERR1877866.740653,81.25,224,40,1,559,780,7,230,4e-43,180
Cladophialophora_australiensis_CBS112793,ERR1877866.373325,98.45,129,2,0,1343,1471,251,123,1e-57,228
Cladophialophora_australiensis_CBS112793,ERR1877866.373325,80.77,208,35,5,1091,1296,289,493,2e-36,158
Cladophialophora_australiensis_CBS112793,ERR1877866.1057126,98.33,120,2,0,1352,1471,252,371,1e-52,211
Cladophialophora_australiensis_CBS112793,ERR1877866.327952,82.11,246,41,3,684,927,258,502,2e-51,207
Cladophialophora_australiensis_CBS112793,ERR1877866.977849,88.16,152,15,2,549,697,284,435,2e-42,178
Cladophialophora_australiensis_CBS112793,ERR1877866.908524,82.67,202,30,4,1153,1352,199,1,2e-41,174
Cladophialophora_australiensis_CBS112793,ERR1877866.835389,90.55,127,11,1,238,364,1,126,3e-39,167
Cladophialophora_australiensis_CBS112793,ERR1877866.641815,81.73,208,27,11,583,782,1,205,4e-38,163
Cladophialophora_australiensis_CBS112793,ERR1877866.542226,86.67,150,17,2,549,695,188,39,4e-38,163
Cladophialophora_australiensis_CBS112793,ERR1877866.927291,79.74,232,33,8,1154,1378,27,251,7e-36,156
Cladophialophora_australiensis_CBS112793,ERR1877866.593905,100.00,80,0,0,1392,1471,251,330,1e-33,148
Cladophialophora_australiensis_CBS112793,ERR1877866.593905,100.00,79,0,0,1393,1471,234,156,4e-33,147
Cladophialophora_australiensis_CBS112793,ERR1877866.299276,93.33,90,6,0,1382,1471,502,413,3e-29,134
Cladophialophora_australiensis_CBS112793,ERR1877866.83597,100.00,67,0,0,205,271,318,252,2e-26,124
Cladophialophora_australiensis_CBS112793,ERR1877866.207525,93.22,59,4,0,571,629,188,246,3e-15,87.9
Cladophialophora_australiensis_CBS112793,ERR1877866.1064319,85.37,82,11,1,1177,1258,394,314,3e-14,84.2
Cladophialophora_potulentorum_CBS112222,ERR1877866.220516,97.81,183,4,0,1311,1493,2,184,3e-84,316
Cladophialophora_potulentorum_CBS112222,ERR1877866.1007106,96.20,184,7,0,804,987,4,187,9e-80,302
Cladophialophora_potulentorum_CBS112222,ERR1877866.1007106,96.43,56,2,0,1438,1493,500,445,6e-17,93.5
Cladophialophora_potulentorum_CBS112222,ERR1877866.313161,91.11,225,17,3,726,949,225,3,9e-80,302
Cladophialophora_potulentorum_CBS112222,ERR1877866.436346,97.45,157,4,0,1337,1493,247,91,9e-70,268
Cladophialophora_potulentorum_CBS112222,ERR1877866.436346,85.19,108,15,1,1155,1262,379,485,6e-22,110
Cladophialophora_potulentorum_CBS112222,ERR1877866.919183,93.82,178,5,4,540,714,63,237,4e-68,263
Cladophialophora_potulentorum_CBS112222,ERR1877866.919183,85.88,177,25,0,1037,1213,428,252,7e-46,189
Cladophialophora_potulentorum_CBS112222,ERR1877866.373325,97.99,149,3,0,1345,1493,251,103,5e-67,259
Cladophialophora_potulentorum_CBS112222,ERR1877866.373325,83.24,173,26,3,1127,1298,323,493,7e-36,156
Cladophialophora_potulentorum_CBS112222,ERR1877866.640236,90.05,191,19,0,794,984,9,199,1e-63,248
Cladophialophora_potulentorum_CBS112222,ERR1877866.696007,84.25,254,36,4,1050,1301,251,502,1e-62,244
Cladophialophora_potulentorum_CBS112222,ERR1877866.696007,98.20,111,2,0,1383,1493,251,141,2e-47,195
Cladophialophora_potulentorum_CBS112222,ERR1877866.1057126,97.86,140,3,0,1354,1493,252,391,5e-62,243
Cladophialophora_potulentorum_CBS112222,ERR1877866.740653,91.81,171,14,0,814,984,499,329,7e-61,239
Cladophialophora_potulentorum_CBS112222,ERR1877866.740653,81.74,219,38,1,561,777,7,225,1e-43,182
Cladophialophora_potulentorum_CBS112222,ERR1877866.327952,82.59,247,38,5,686,929,258,502,4e-53,213
Cladophialophora_potulentorum_CBS112222,ERR1877866.593905,99.00,100,1,0,1394,1493,251,350,4e-43,180
Cladophialophora_potulentorum_CBS112222,ERR1877866.593905,98.99,99,1,0,1395,1493,234,136,2e-42,178
Cladophialophora_potulentorum_CBS112222,ERR1877866.977849,88.16,152,15,2,551,699,284,435,2e-42,178
Cladophialophora_potulentorum_CBS112222,ERR1877866.362747,85.80,169,22,2,1326,1493,55,222,2e-42,178
Cladophialophora_potulentorum_CBS112222,ERR1877866.908524,82.18,202,31,4,1155,1354,199,1,9e-40,169
Cladophialophora_potulentorum_CBS112222,ERR1877866.641815,82.50,200,25,10,585,777,1,197,3e-39,167
Cladophialophora_potulentorum_CBS112222,ERR1877866.299276,93.64,110,7,0,1384,1493,502,393,1e-38,165
Cladophialophora_potulentorum_CBS112222,ERR1877866.542226,86.67,150,17,2,551,697,188,39,4e-38,163
Cladophialophora_potulentorum_CBS112222,ERR1877866.927291,80.17,232,32,8,1156,1380,27,251,2e-37,161
Cladophialophora_potulentorum_CBS112222,ERR1877866.835389,89.76,127,12,1,237,363,1,126,2e-37,161
Cladophialophora_potulentorum_CBS112222,ERR1877866.83597,100.00,66,0,0,205,270,317,252,7e-26,122
Cladophialophora_potulentorum_CBS112222,ERR1877866.207525,93.22,59,4,0,573,631,188,246,3e-15,87.9
Cladophialophora_potulentorum_CBS112222,ERR1877866.1064319,85.37,82,11,1,1179,1260,394,314,3e-14,84.2
Cladophialophora_matsushimae_CMRP1198,ERR1877866.835389,90.55,127,11,1,241,367,1,126,1e-39,167
Cladophialophora_matsushimae_CMRP1198,ERR1877866.83597,100.00,66,0,0,209,274,317,252,2e-26,122
Cladophialophora_mycetomatis_CBS122637,ERR1877866.835389,90.55,127,11,1,226,352,1,126,1e-39,167
Cladophialophora_mycetomatis_CBS122637,ERR1877866.83597,100.00,66,0,0,194,259,317,252,3e-26,122
Cladophialophora_chaetospira_CBS127573,ERR1877866.835389,91.34,127,10,1,632,758,1,126,4e-41,172
Cladophialophora_chaetospira_CBS127573,ERR1877866.83597,96.97,66,2,0,600,665,317,252,1e-22,111
Cladophialophora_chaetospira_CBS127573,ERR1877866.309623,100.00,35,0,0,376,410,371,337,8e-09,65.8
Cladophialophora_chaetospira_CBS127573,ERR1877866.681753,100.00,29,0,0,379,407,352,380,2e-05,54.7
Cladophialophora_boppii_CBS126.86_T,ERR1877866.835389,91.34,127,10,1,234,360,1,126,3e-41,172
Cladophialophora_boppii_CBS126.86_T,ERR1877866.83597,100.00,66,0,0,202,267,317,252,3e-26,122
Cladophialophora_abundans_CBS126736,ERR1877866.835389,90.62,128,9,3,171,297,1,126,1e-39,167
Cladophialophora_abundans_CBS126736,ERR1877866.83597,100.00,66,0,0,139,204,317,252,2e-26,122
Capronia_semi-immersa_CBS102234,ERR1877866.835389,88.98,127,13,1,233,359,1,126,3e-36,156
Capronia_semi-immersa_CBS102234,ERR1877866.83597,100.00,66,0,0,201,266,317,252,3e-26,122
Phialophora_americana_CBS400.67,ERR1877866.1007106,95.65,184,8,0,796,979,4,187,4e-78,296
Phialophora_americana_CBS400.67,ERR1877866.313161,89.33,225,21,3,718,941,225,3,4e-73,279
Phialophora_americana_CBS400.67,ERR1877866.919183,93.33,180,9,2,531,708,60,238,4e-68,263
Phialophora_americana_CBS400.67,ERR1877866.919183,83.62,177,29,0,1029,1205,428,252,3e-39,167
Phialophora_americana_CBS400.67,ERR1877866.640236,92.98,171,12,0,806,976,29,199,3e-64,250
Phialophora_americana_CBS400.67,ERR1877866.220516,97.90,143,3,0,1303,1445,2,144,1e-63,248
Phialophora_americana_CBS400.67,ERR1877866.740653,92.40,171,13,0,806,976,499,329,1e-62,244
Phialophora_americana_CBS400.67,ERR1877866.696007,84.71,242,35,2,1053,1293,262,502,2e-61,241
Phialophora_americana_CBS400.67,ERR1877866.696007,98.59,71,1,0,1375,1445,251,181,5e-27,126
Phialophora_americana_CBS400.67,ERR1877866.327952,82.11,246,41,3,678,921,258,502,2e-51,207
Phialophora_americana_CBS400.67,ERR1877866.436346,97.44,117,3,0,1329,1445,247,131,3e-49,200
Phialophora_americana_CBS400.67,ERR1877866.436346,87.04,108,13,1,1147,1254,379,485,3e-25,121
Phialophora_americana_CBS400.67,ERR1877866.455402,91.16,147,12,1,805,951,153,8,1e-48,198
Phialophora_americana_CBS400.67,ERR1877866.373325,98.17,109,2,0,1337,1445,251,143,2e-46,191
Phialophora_americana_CBS400.67,ERR1877866.373325,85.21,169,23,2,1123,1290,326,493,7e-41,172
Phialophora_americana_CBS400.67,ERR1877866.908524,83.17,202,29,4,1147,1346,199,1,4e-43,180
Phialophora_americana_CBS400.67,ERR1877866.1057126,98.00,100,2,0,1346,1445,252,351,2e-41,174
Phialophora_americana_CBS400.67,ERR1877866.927291,80.17,232,32,8,1148,1372,27,251,1e-37,161
Phialophora_americana_CBS400.67,ERR1877866.835389,88.98,127,13,1,235,361,1,126,7e-36,156
Phialophora_americana_CBS400.67,ERR1877866.83597,100.00,66,0,0,203,268,317,252,7e-26,122
Phialophora_americana_CBS400.67,ERR1877866.593905,100.00,60,0,0,1386,1445,251,310,2e-22,111
Phialophora_americana_CBS400.67,ERR1877866.593905,100.00,59,0,0,1387,1445,234,176,5e-22,110
Phialophora_americana_CBS400.67,ERR1877866.299276,91.43,70,6,0,1376,1445,502,433,4e-18,97.1
Phialophora_americana_CBS400.67,ERR1877866.1064319,86.59,82,10,1,1171,1252,394,314,7e-16,89.8
Phialophora_verrucosa_CBS140325_T,ERR1877866.835389,88.98,127,13,1,239,365,1,126,3e-36,156
Phialophora_verrucosa_CBS140325_T,ERR1877866.83597,100.00,66,0,0,207,272,317,252,3e-26,122
Cladophialophora_samoensis_CBS259.83_T,ERR1877866.835389,91.47,129,6,5,239,365,1,126,3e-41,172
Cladophialophora_samoensis_CBS259.83_T,ERR1877866.83597,100.00,66,0,0,207,272,317,252,3e-26,122
Cladophialophora_carrionii_CBS260.83,ERR1877866.835389,90.55,127,11,1,255,381,1,126,1e-39,167
Cladophialophora_carrionii_CBS260.83,ERR1877866.83597,100.00,66,0,0,223,288,317,252,3e-26,122
Cladophialophora_carrionii_CBS260.83,ERR1877866.272160,100.00,29,0,0,1,29,290,262,1e-05,54.7
Exophiala_palmae_UPCB86822_T,ERR1877866.835389,91.34,127,10,1,198,324,1,126,2e-41,172
Exophiala_palmae_UPCB86822_T,ERR1877866.83597,100.00,66,0,0,166,231,317,252,2e-26,122
Cladophialophora_yegresii_CBS114405_T,ERR1877866.835389,90.55,127,11,1,240,366,1,126,1e-39,167
Cladophialophora_yegresii_CBS114405_T,ERR1877866.83597,100.00,66,0,0,208,273,317,252,3e-26,122
Knufia_epidermidis_CBS120353_T,ERR1877866.835389,88.98,127,13,1,238,364,1,126,3e-36,156
Knufia_epidermidis_CBS120353_T,ERR1877866.83597,100.00,66,0,0,206,271,317,252,3e-26,122
Arthrocladium_fulminans_CBS136243_T,ERR1877866.835389,89.76,127,12,1,233,359,1,126,6e-38,161
Arthrocladium_fulminans_CBS136243_T,ERR1877866.83597,100.00,66,0,0,201,266,317,252,3e-26,122
Anthopsis_deltoidea_CBS263.77_T,ERR1877866.835389,91.27,126,10,1,242,366,1,126,9e-41,171
Anthopsis_deltoidea_CBS263.77_T,ERR1877866.83597,100.00,66,0,0,210,275,317,252,2e-26,122
Cyphellophora_laciniata_CBS190.61_T,ERR1877866.919183,98.00,100,2,0,636,735,70,169,1e-41,174
Cyphellophora_laciniata_CBS190.61_T,ERR1877866.835389,90.55,127,9,3,327,451,1,126,6e-39,165
Cyphellophora_laciniata_CBS190.61_T,ERR1877866.977849,92.86,98,7,0,638,735,284,381,3e-32,143
Cyphellophora_laciniata_CBS190.61_T,ERR1877866.83597,92.08,101,8,0,7,107,135,235,3e-32,143
Cyphellophora_laciniata_CBS190.61_T,ERR1877866.83597,100.00,66,0,0,295,360,317,252,4e-26,122
Cyphellophora_laciniata_CBS190.61_T,ERR1877866.542226,90.82,98,9,0,638,735,188,91,6e-29,132
Cyphellophora_laciniata_CBS190.61_T,ERR1877866.740653,92.05,88,7,0,648,735,7,94,1e-26,124
Cyphellophora_laciniata_CBS190.61_T,ERR1877866.272160,95.89,73,3,0,28,100,336,264,5e-25,119
Cyphellophora_laciniata_CBS190.61_T,ERR1877866.681753,95.59,68,3,0,31,98,313,380,3e-22,110
Cyphellophora_laciniata_CBS190.61_T,ERR1877866.681753,95.92,49,2,0,50,98,251,203,2e-13,80.5
Cyphellophora_laciniata_CBS190.61_T,ERR1877866.207525,95.08,61,3,0,660,720,188,248,2e-18,97.1
Cyphellophora_laciniata_CBS190.61_T,ERR1877866.1007893,92.19,64,5,0,6,69,317,254,1e-16,91.6
Cyphellophora_laciniata_CBS190.61_T,ERR1877866.641815,92.19,64,5,0,672,735,1,64,1e-16,91.6
Cyphellophora_laciniata_CBS190.61_T,ERR1877866.27454,97.62,42,1,0,29,70,451,410,4e-11,73.1
Cyphellophora_laciniata_CBS190.61_T,ERR1877866.309623,82.19,73,11,1,70,142,368,298,8e-08,62.1
Cyphellophora_suttonii_CBS449.91,ERR1877866.835389,90.55,127,9,3,230,354,1,126,4e-39,165
Cyphellophora_suttonii_CBS449.91,ERR1877866.83597,100.00,66,0,0,198,263,317,252,3e-26,122
Cyphellophora_pauciseptata_CBS284.85_T,ERR1877866.835389,90.55,127,9,3,241,365,1,126,4e-39,165
Cyphellophora_pauciseptata_CBS284.85_T,ERR1877866.83597,100.00,67,0,0,208,274,318,252,7e-27,124
Cyphellophora_pluriseptata_CBS286.85_T,ERR1877866.835389,90.55,127,7,5,247,370,2,126,2e-38,163
Cyphellophora_pluriseptata_CBS286.85_T,ERR1877866.83597,98.48,66,1,0,214,279,317,252,1e-24,117
Phialophora_europaea_CBS101466,ERR1877866.835389,90.62,128,7,5,236,360,1,126,4e-39,165
Phialophora_europaea_CBS101466,ERR1877866.83597,100.00,68,0,0,202,269,319,252,2e-27,126
Phialophora_ambigua_CBS235.93,ERR1877866.835389,90.62,128,7,5,233,357,1,126,4e-39,165
Phialophora_ambigua_CBS235.93,ERR1877866.83597,100.00,66,0,0,201,266,317,252,3e-26,122
Cladophialophora_modesta_CBS985.96_T,ERR1877866.919183,94.44,108,6,0,512,619,62,169,1e-39,167
Cladophialophora_modesta_CBS985.96_T,ERR1877866.835389,90.55,127,11,1,230,356,1,126,1e-39,167
Cladophialophora_modesta_CBS985.96_T,ERR1877866.977849,94.90,98,5,0,522,619,284,381,1e-35,154
Cladophialophora_modesta_CBS985.96_T,ERR1877866.542226,92.86,98,7,0,522,619,188,91,2e-32,143
Cladophialophora_modesta_CBS985.96_T,ERR1877866.740653,94.32,88,5,0,532,619,7,94,4e-30,135
Cladophialophora_modesta_CBS985.96_T,ERR1877866.83597,100.00,66,0,0,198,263,317,252,3e-26,122
Cladophialophora_modesta_CBS985.96_T,ERR1877866.641815,93.75,64,4,0,556,619,1,64,2e-18,97.1
Cladophialophora_modesta_CBS985.96_T,ERR1877866.207525,95.00,60,2,1,544,603,188,246,2e-17,93.5
Cyphellophora_fusarioides_MUCL44033_T,ERR1877866.835389,91.34,127,8,3,229,353,1,126,9e-41,171
Cyphellophora_fusarioides_MUCL44033_T,ERR1877866.83597,100.00,66,0,0,197,262,317,252,3e-26,122
