Exophiala_nigra_CBS535.94_T,ERR1877790.559756,96.69,121,3,1,201,321,131,12,8e-50,200
Exophiala_nigra_CBS535.94_T,ERR1877790.636387,87.50,120,13,1,201,320,201,84,6e-31,137
Exophiala_nigra_CBS535.94_T,ERR1877790.636387,87.50,120,13,1,201,320,308,425,6e-31,137
Exophiala_spinifera_CBS899.68_T,ERR1877790.559756,95.87,121,4,1,198,318,131,12,3e-48,195
Exophiala_spinifera_CBS899.68_T,ERR1877790.636387,88.33,120,12,2,198,317,201,84,1e-32,143
Exophiala_spinifera_CBS899.68_T,ERR1877790.636387,88.33,120,12,2,198,317,308,425,1e-32,143
Exophiala_exophialae_CBS668.76_T,ERR1877790.559756,91.22,148,8,4,174,319,156,12,9e-49,196
Exophiala_exophialae_CBS668.76_T,ERR1877790.636387,88.33,120,12,2,199,318,201,84,1e-32,143
Exophiala_exophialae_CBS668.76_T,ERR1877790.636387,88.33,120,12,2,199,318,308,425,1e-32,143
Exophiala_polymorpha_CBS138920_T,ERR1877790.559756,95.87,121,4,1,301,421,131,12,4e-48,195
Exophiala_polymorpha_CBS138920_T,ERR1877790.636387,88.33,120,12,2,301,420,201,84,2e-32,143
Exophiala_polymorpha_CBS138920_T,ERR1877790.636387,88.33,120,12,2,301,420,308,425,2e-32,143
Exophiala_polymorpha_CBS138920_T,ERR1877790.322357,92.00,50,4,0,645,694,193,144,8e-11,71.3
Exophiala_polymorpha_CBS138920_T,ERR1877790.322357,92.00,50,4,0,645,694,322,371,8e-11,71.3
Exophiala_polymorpha_CBS138920_T,ERR1877790.516843,100.00,30,0,0,82,111,388,359,2e-06,56.5
Exophiala_oligosperma_CBS725.88_T,ERR1877790.559756,92.62,149,6,5,184,331,156,12,1e-52,209
Exophiala_oligosperma_CBS725.88_T,ERR1877790.636387,88.33,120,12,2,211,330,201,84,1e-32,143
Exophiala_oligosperma_CBS725.88_T,ERR1877790.636387,88.33,120,12,2,211,330,308,425,1e-32,143
Exophiala_jeanselmei_CBS507.90_T,ERR1877790.559756,93.89,131,6,2,193,323,140,12,1e-48,196
Exophiala_jeanselmei_CBS507.90_T,ERR1877790.636387,88.33,120,12,2,203,322,201,84,1e-32,143
Exophiala_jeanselmei_CBS507.90_T,ERR1877790.636387,88.33,120,12,2,203,322,308,425,1e-32,143
Exophiala_jeanselmei_CBS507.90_T,ERR1877790.322357,93.10,58,4,0,547,604,193,136,2e-15,86.1
Exophiala_jeanselmei_CBS507.90_T,ERR1877790.322357,93.10,58,4,0,547,604,322,379,2e-15,86.1
Exophiala_jeanselmei_CBS507.90_T,ERR1877790.223310,100.00,30,0,0,575,604,252,281,2e-06,56.5
Exophiala_bergeri_CBS353.52,ERR1877790.559756,96.69,121,3,1,164,284,131,12,6e-50,200
Exophiala_bergeri_CBS353.52,ERR1877790.636387,87.50,120,13,1,164,283,201,84,5e-31,137
Exophiala_bergeri_CBS353.52,ERR1877790.636387,87.50,120,13,1,164,283,308,425,5e-31,137
Exophiala_moniliae_CBS520.76_T,ERR1877790.559756,91.95,149,8,4,173,321,156,12,2e-51,206
Exophiala_moniliae_CBS520.76_T,ERR1877790.636387,87.50,120,13,1,201,320,201,84,6e-31,137
Exophiala_moniliae_CBS520.76_T,ERR1877790.636387,87.50,120,13,1,201,320,308,425,6e-31,137
Exophiala_pisciphila_CBS537.73_T,ERR1877790.559756,94.66,131,5,2,194,324,140,12,2e-50,202
Exophiala_pisciphila_CBS537.73_T,ERR1877790.322357,96.94,98,3,0,556,653,193,96,3e-39,165
Exophiala_pisciphila_CBS537.73_T,ERR1877790.322357,96.94,98,3,0,556,653,322,419,3e-39,165
Exophiala_pisciphila_CBS537.73_T,ERR1877790.636387,88.33,120,12,1,204,323,201,84,2e-32,143
Exophiala_pisciphila_CBS537.73_T,ERR1877790.636387,88.33,120,12,1,204,323,308,425,2e-32,143
Exophiala_pisciphila_CBS537.73_T,ERR1877790.568358,89.47,76,8,0,578,653,159,234,1e-18,97.1
Exophiala_pisciphila_CBS537.73_T,ERR1877790.223310,91.43,70,6,0,584,653,252,321,1e-18,97.1
Exophiala_xenobiotica_CBS117642,ERR1877790.559756,94.66,131,5,2,186,316,140,12,2e-50,202
Exophiala_xenobiotica_CBS117642,ERR1877790.636387,87.50,120,13,1,196,315,201,84,6e-31,137
Exophiala_xenobiotica_CBS117642,ERR1877790.636387,87.50,120,13,1,196,315,308,425,6e-31,137
Exophiala_brunnea_CBS,ERR1877790.559756,96.69,121,3,1,232,352,131,12,9e-50,200
Exophiala_brunnea_CBS,ERR1877790.636387,87.50,120,13,1,232,351,201,84,7e-31,137
Exophiala_brunnea_CBS,ERR1877790.636387,87.50,120,13,1,232,351,308,425,7e-31,137
Exophiala_brunnea_CBS,ERR1877790.516843,100.00,43,0,0,1,43,401,359,1e-13,80.5
Exophiala_brunnea_CBS,ERR1877790.511732,100.00,39,0,0,1,39,241,203,2e-11,73.1
Exophiala_brunnea_CBS,ERR1877790.233734,100.00,39,0,0,1,39,19,57,2e-11,73.1
Exophiala_brunnea_CBS,ERR1877790.233734,100.00,39,0,0,1,39,353,315,2e-11,73.1
Exophiala_brunnea_CBS,ERR1877790.322357,91.49,47,4,0,587,633,193,147,9e-10,67.6
Exophiala_brunnea_CBS,ERR1877790.322357,91.49,47,4,0,587,633,322,368,9e-10,67.6
Exophiala_nishimurae_CBS101538_T,ERR1877790.559756,95.87,121,4,1,210,330,131,12,4e-48,195
Exophiala_nishimurae_CBS101538_T,ERR1877790.636387,88.33,120,12,2,210,329,201,84,1e-32,143
Exophiala_nishimurae_CBS101538_T,ERR1877790.636387,88.33,120,12,2,210,329,308,425,1e-32,143
Exophiala_mesophila_CBS402.95_T,ERR1877790.559756,96.69,121,3,1,194,314,131,12,9e-50,200
Exophiala_mesophila_CBS402.95_T,ERR1877790.322357,95.92,98,4,0,553,650,193,96,1e-37,159
Exophiala_mesophila_CBS402.95_T,ERR1877790.322357,95.92,98,4,0,553,650,322,419,1e-37,159
Exophiala_mesophila_CBS402.95_T,ERR1877790.636387,87.50,120,13,1,194,313,201,84,7e-31,137
Exophiala_mesophila_CBS402.95_T,ERR1877790.636387,87.50,120,13,1,194,313,308,425,7e-31,137
Exophiala_mesophila_CBS402.95_T,ERR1877790.568358,89.47,76,8,0,575,650,159,234,1e-18,97.1
Exophiala_mesophila_CBS402.95_T,ERR1877790.223310,91.43,70,6,0,581,650,252,321,1e-18,97.1
Exophiala_castellanii_CBS158.58_T,ERR1877790.559756,96.69,121,3,1,192,312,131,12,9e-50,200
Exophiala_castellanii_CBS158.58_T,ERR1877790.322357,95.92,98,4,0,552,649,193,96,1e-37,159
Exophiala_castellanii_CBS158.58_T,ERR1877790.322357,95.92,98,4,0,552,649,322,419,1e-37,159
Exophiala_castellanii_CBS158.58_T,ERR1877790.636387,87.50,120,13,1,192,311,201,84,7e-31,137
Exophiala_castellanii_CBS158.58_T,ERR1877790.636387,87.50,120,13,1,192,311,308,425,7e-31,137
Exophiala_castellanii_CBS158.58_T,ERR1877790.568358,89.47,76,8,0,574,649,159,234,1e-18,97.1
Exophiala_castellanii_CBS158.58_T,ERR1877790.223310,91.43,70,6,0,580,649,252,321,1e-18,97.1
Exophiala_lecanii-corni_CBS123.33_T,ERR1877790.559756,91.89,148,9,3,188,335,156,12,6e-51,204
Exophiala_lecanii-corni_CBS123.33_T,ERR1877790.636387,87.50,120,13,1,215,334,201,84,6e-31,137
Exophiala_lecanii-corni_CBS123.33_T,ERR1877790.636387,87.50,120,13,1,215,334,308,425,6e-31,137
Exophiala_dermatitidis_CBS748.88,ERR1877790.322357,88.82,170,18,1,578,746,193,24,1e-51,207
Exophiala_dermatitidis_CBS748.88,ERR1877790.322357,89.94,159,16,0,578,736,322,480,4e-51,206
Exophiala_dermatitidis_CBS748.88,ERR1877790.559756,91.89,148,6,5,183,327,156,12,6e-50,202
Exophiala_dermatitidis_CBS748.88,ERR1877790.159591,81.05,248,39,8,714,955,6,251,1e-46,191
Exophiala_dermatitidis_CBS748.88,ERR1877790.174487,86.84,152,20,0,1353,1504,237,86,2e-40,171
Exophiala_dermatitidis_CBS748.88,ERR1877790.172399,78.86,246,49,3,671,915,497,254,3e-38,163
Exophiala_dermatitidis_CBS748.88,ERR1877790.246100,90.52,116,11,0,1370,1485,136,251,2e-35,154
Exophiala_dermatitidis_CBS748.88,ERR1877790.636387,87.50,120,12,2,208,326,201,84,6e-30,135
Exophiala_dermatitidis_CBS748.88,ERR1877790.636387,87.50,120,12,2,208,326,308,425,6e-30,135
Exophiala_dermatitidis_CBS748.88,ERR1877790.223310,83.97,131,18,2,606,734,252,381,5e-26,122
Exophiala_dermatitidis_CBS748.88,ERR1877790.223310,90.70,86,8,0,920,1005,251,166,8e-24,115
Exophiala_dermatitidis_CBS748.88,ERR1877790.72969,100.00,56,0,0,1449,1504,1,56,2e-20,104
Exophiala_dermatitidis_CBS748.88,ERR1877790.568358,87.36,87,11,0,600,686,159,245,2e-19,100
Exophiala_dermatitidis_CBS748.88,ERR1877790.159456,81.82,88,13,3,1210,1294,5,92,2e-10,71.3
Exophiala_dermatitidis_CBS748.88,ERR1877790.159456,81.82,88,13,3,1210,1294,394,307,2e-10,71.3
Exophiala_angulospora_CBS482.92_T,ERR1877790.559756,95.38,130,5,1,189,318,140,12,2e-51,206
Exophiala_angulospora_CBS482.92_T,ERR1877790.636387,87.50,120,13,1,198,317,201,84,6e-31,137
Exophiala_angulospora_CBS482.92_T,ERR1877790.636387,87.50,120,13,1,198,317,308,425,6e-31,137
Exophiala_opportunistica_CBS109811_T,ERR1877790.559756,95.42,131,4,2,187,317,140,12,5e-52,207
Exophiala_opportunistica_CBS109811_T,ERR1877790.636387,87.10,124,13,2,194,316,205,84,6e-31,137
Exophiala_opportunistica_CBS109811_T,ERR1877790.636387,87.10,124,13,2,194,316,304,425,6e-31,137
Exophiala_salmonis_CBS157.67_T,ERR1877790.559756,94.66,131,5,2,316,446,140,12,3e-50,202
Exophiala_salmonis_CBS157.67_T,ERR1877790.559756,87.70,122,15,0,1,122,298,419,2e-32,143
Exophiala_salmonis_CBS157.67_T,ERR1877790.322357,96.94,98,3,0,676,773,193,96,4e-39,165
Exophiala_salmonis_CBS157.67_T,ERR1877790.322357,96.94,98,3,0,676,773,322,419,4e-39,165
Exophiala_salmonis_CBS157.67_T,ERR1877790.160569,88.52,122,14,0,1,122,53,174,4e-34,148
Exophiala_salmonis_CBS157.67_T,ERR1877790.160569,88.62,123,12,2,1,122,381,260,4e-34,148
Exophiala_salmonis_CBS157.67_T,ERR1877790.636387,87.50,120,13,1,326,445,201,84,8e-31,137
Exophiala_salmonis_CBS157.67_T,ERR1877790.636387,87.50,120,13,1,326,445,308,425,8e-31,137
Exophiala_salmonis_CBS157.67_T,ERR1877790.53221,81.45,124,19,4,1,122,385,264,4e-19,99.0
Exophiala_salmonis_CBS157.67_T,ERR1877790.568358,89.47,76,8,0,698,773,159,234,1e-18,97.1
Exophiala_salmonis_CBS157.67_T,ERR1877790.223310,91.43,70,6,0,704,773,252,321,1e-18,97.1
Exophiala_salmonis_CBS157.67_T,ERR1877790.516843,100.00,41,0,0,82,122,435,395,2e-12,76.8
Exophiala_aquamarina_CBS119918_T,ERR1877790.559756,94.66,131,5,2,194,324,140,12,2e-50,202
Exophiala_aquamarina_CBS119918_T,ERR1877790.636387,87.50,120,13,1,204,323,201,84,6e-31,137
Exophiala_aquamarina_CBS119918_T,ERR1877790.636387,87.50,120,13,1,204,323,308,425,6e-31,137
Exophiala_cancerae_CBS120420_T,ERR1877790.559756,95.42,131,4,2,209,339,140,12,5e-52,207
Exophiala_cancerae_CBS120420_T,ERR1877790.636387,87.10,124,13,2,216,338,205,84,7e-31,137
Exophiala_cancerae_CBS120420_T,ERR1877790.636387,87.10,124,13,2,216,338,304,425,7e-31,137
Exophiala_cancerae_CBS120420_T,ERR1877790.322357,94.83,58,3,0,567,624,193,136,5e-17,91.6
Exophiala_cancerae_CBS120420_T,ERR1877790.322357,94.83,58,3,0,567,624,322,379,5e-17,91.6
Exophiala_cancerae_CBS120420_T,ERR1877790.223310,100.00,30,0,0,595,624,252,281,2e-06,56.5
Exophiala_tremulae_CBS129355,ERR1877790.559756,94.66,131,5,2,221,351,140,12,2e-50,202
Exophiala_tremulae_CBS129355,ERR1877790.636387,87.50,120,13,1,231,350,201,84,7e-31,137
Exophiala_tremulae_CBS129355,ERR1877790.636387,87.50,120,13,1,231,350,308,425,7e-31,137
Exophiala_tremulae_CBS129355,ERR1877790.516843,100.00,43,0,0,1,43,401,359,1e-13,80.5
Exophiala_tremulae_CBS129355,ERR1877790.511732,100.00,39,0,0,1,39,241,203,2e-11,73.1
Exophiala_tremulae_CBS129355,ERR1877790.233734,100.00,39,0,0,1,39,19,57,2e-11,73.1
Exophiala_tremulae_CBS129355,ERR1877790.233734,100.00,39,0,0,1,39,353,315,2e-11,73.1
Exophiala_tremulae_CBS129355,ERR1877790.322357,93.62,47,3,0,582,628,193,147,7e-11,71.3
Exophiala_tremulae_CBS129355,ERR1877790.322357,93.62,47,3,0,582,628,322,368,7e-11,71.3
Exophiala_equina_CBS116009,ERR1877790.559756,94.66,131,5,2,187,317,140,12,2e-50,202
Exophiala_equina_CBS116009,ERR1877790.636387,87.50,120,13,1,197,316,201,84,6e-31,137
Exophiala_equina_CBS116009,ERR1877790.636387,87.50,120,13,1,197,316,308,425,6e-31,137
Exophiala_alcalophila_CBS520.82_T,ERR1877790.559756,96.69,121,3,1,208,328,131,12,8e-50,200
Exophiala_alcalophila_CBS520.82_T,ERR1877790.636387,87.10,124,13,2,205,327,205,84,6e-31,137
Exophiala_alcalophila_CBS520.82_T,ERR1877790.636387,87.10,124,13,2,205,327,304,425,6e-31,137
Exophiala_crusticola_CBS119970_T,ERR1877790.559756,96.69,121,3,1,213,333,131,12,7e-50,200
Exophiala_crusticola_CBS119970_T,ERR1877790.636387,87.50,120,13,1,213,332,201,84,6e-31,137
Exophiala_crusticola_CBS119970_T,ERR1877790.636387,87.50,120,13,1,213,332,308,425,6e-31,137
Rhinocladiella_atrovirens_CBS264.49,ERR1877790.559756,96.69,121,3,1,239,359,131,12,8e-50,200
Rhinocladiella_atrovirens_CBS264.49,ERR1877790.636387,87.10,124,13,2,236,358,205,84,7e-31,137
Rhinocladiella_atrovirens_CBS264.49,ERR1877790.636387,87.10,124,13,2,236,358,304,425,7e-31,137
Rhinocladiella_atrovirens_CBS264.49,ERR1877790.233734,100.00,46,0,0,1,46,14,59,2e-15,86.1
Rhinocladiella_atrovirens_CBS264.49,ERR1877790.233734,100.00,46,0,0,1,46,358,313,2e-15,86.1
Rhinocladiella_atrovirens_CBS264.49,ERR1877790.516843,97.92,48,1,0,1,48,406,359,9e-15,84.2
Rhinocladiella_atrovirens_CBS264.49,ERR1877790.511732,100.00,44,0,0,1,44,246,203,3e-14,82.4
Rhinocladiella_atrovirens_CBS264.49,ERR1877790.322357,93.48,46,3,0,581,626,193,148,2e-10,69.4
Rhinocladiella_atrovirens_CBS264.49,ERR1877790.322357,93.48,46,3,0,581,626,322,367,2e-10,69.4
Rhinocladiella_basitona_CBS101460_T,ERR1877790.559756,91.89,148,7,5,173,318,156,12,2e-50,202
Rhinocladiella_basitona_CBS101460_T,ERR1877790.636387,88.33,120,12,2,198,317,201,84,1e-32,143
Rhinocladiella_basitona_CBS101460_T,ERR1877790.636387,88.33,120,12,2,198,317,308,425,1e-32,143
Rhinocladiella_phaeophora_CBS496.78_T,ERR1877790.559756,96.75,123,3,1,204,326,133,12,6e-51,204
Rhinocladiella_phaeophora_CBS496.78_T,ERR1877790.636387,88.33,120,12,2,206,325,201,84,1e-32,143
Rhinocladiella_phaeophora_CBS496.78_T,ERR1877790.636387,88.33,120,12,2,206,325,308,425,1e-32,143
Rhinocladiella_aquaspersa_CBS313.73_T,ERR1877790.559756,96.75,123,3,1,198,320,133,12,7e-51,204
Rhinocladiella_aquaspersa_CBS313.73_T,ERR1877790.322357,100.00,88,0,0,563,650,178,91,1e-38,163
Rhinocladiella_aquaspersa_CBS313.73_T,ERR1877790.322357,100.00,88,0,0,563,650,337,424,1e-38,163
Rhinocladiella_aquaspersa_CBS313.73_T,ERR1877790.636387,88.33,120,12,2,200,319,201,84,1e-32,143
Rhinocladiella_aquaspersa_CBS313.73_T,ERR1877790.636387,88.33,120,12,2,200,319,308,425,1e-32,143
Rhinocladiella_aquaspersa_CBS313.73_T,ERR1877790.568358,89.61,77,8,0,570,646,159,235,3e-19,99.0
Rhinocladiella_aquaspersa_CBS313.73_T,ERR1877790.223310,91.55,71,6,0,576,646,252,322,3e-19,99.0
Rhinocladiella_fasciculata_CBS132.86_T,ERR1877790.559756,96.06,127,3,2,211,336,137,12,2e-51,206
Rhinocladiella_fasciculata_CBS132.86_T,ERR1877790.636387,83.75,160,20,5,216,374,201,47,1e-33,147
Rhinocladiella_fasciculata_CBS132.86_T,ERR1877790.636387,83.75,160,20,5,216,374,308,462,1e-33,147
Rhinocladiella_fasciculata_CBS132.86_T,ERR1877790.233734,100.00,29,0,0,1,29,31,59,6e-06,54.7
Rhinocladiella_fasciculata_CBS132.86_T,ERR1877790.233734,100.00,29,0,0,1,29,341,313,6e-06,54.7
Rhinocladiella_anceps_CBS181.65_T,ERR1877790.559756,91.84,147,9,3,173,318,156,12,2e-50,202
Rhinocladiella_anceps_CBS181.65_T,ERR1877790.636387,88.00,125,12,3,193,317,205,84,3e-33,145
Rhinocladiella_anceps_CBS181.65_T,ERR1877790.636387,88.00,125,12,3,193,317,304,425,3e-33,145
Rhinocladiella_mackenziei_CBS367.92,ERR1877790.559756,96.69,121,3,1,187,307,131,12,8e-50,200
Rhinocladiella_mackenziei_CBS367.92,ERR1877790.636387,87.10,124,13,2,184,306,205,84,6e-31,137
Rhinocladiella_mackenziei_CBS367.92,ERR1877790.636387,87.10,124,13,2,184,306,304,425,6e-31,137
Rhinocladiella_mackenziei_CBS367.92,ERR1877790.516843,100.00,30,0,0,1,30,388,359,2e-06,56.5
Veronaea_compacta_CBS268.75_T,ERR1877790.559756,96.69,121,3,1,220,340,131,12,8e-50,200
Veronaea_compacta_CBS268.75_T,ERR1877790.636387,87.50,120,13,1,220,339,201,84,6e-31,137
Veronaea_compacta_CBS268.75_T,ERR1877790.636387,87.50,120,13,1,220,339,308,425,6e-31,137
Veronaea_compacta_CBS268.75_T,ERR1877790.516843,100.00,31,0,0,1,31,389,359,5e-07,58.4
Capronia_pilosella_AFTOL-ID657,ERR1877790.559756,93.62,141,6,3,278,418,149,12,6e-52,207
Capronia_pilosella_AFTOL-ID657,ERR1877790.636387,87.50,120,13,1,298,417,201,84,7e-31,137
Capronia_pilosella_AFTOL-ID657,ERR1877790.636387,87.50,120,13,1,298,417,308,425,7e-31,137
Capronia_dactylotricha_DAOM208471_T,ERR1877790.559756,96.69,121,3,1,200,320,131,12,9e-50,200
Capronia_dactylotricha_DAOM208471_T,ERR1877790.322357,96.94,98,3,0,561,658,193,96,3e-39,165
Capronia_dactylotricha_DAOM208471_T,ERR1877790.322357,96.94,98,3,0,561,658,322,419,3e-39,165
Capronia_dactylotricha_DAOM208471_T,ERR1877790.636387,87.10,124,13,2,197,319,205,84,7e-31,137
Capronia_dactylotricha_DAOM208471_T,ERR1877790.636387,87.10,124,13,2,197,319,304,425,7e-31,137
Capronia_dactylotricha_DAOM208471_T,ERR1877790.568358,89.47,76,8,0,583,658,159,234,1e-18,97.1
Capronia_dactylotricha_DAOM208471_T,ERR1877790.223310,91.43,70,6,0,589,658,252,321,1e-18,97.1
Capronia_kleinmondensis_CBS122671_T,ERR1877790.559756,96.69,121,3,1,225,345,131,12,9e-50,200
Capronia_kleinmondensis_CBS122671_T,ERR1877790.322357,96.94,98,3,0,567,664,193,96,3e-39,165
Capronia_kleinmondensis_CBS122671_T,ERR1877790.322357,96.94,98,3,0,567,664,322,419,3e-39,165
Capronia_kleinmondensis_CBS122671_T,ERR1877790.636387,87.10,124,13,2,222,344,205,84,7e-31,137
Capronia_kleinmondensis_CBS122671_T,ERR1877790.636387,87.10,124,13,2,222,344,304,425,7e-31,137
Capronia_kleinmondensis_CBS122671_T,ERR1877790.568358,89.47,76,8,0,589,664,159,234,1e-18,97.1
Capronia_kleinmondensis_CBS122671_T,ERR1877790.223310,91.43,70,6,0,595,664,252,321,1e-18,97.1
Capronia_kleinmondensis_CBS122671_T,ERR1877790.233734,100.00,32,0,0,1,32,28,59,2e-07,60.2
Capronia_kleinmondensis_CBS122671_T,ERR1877790.233734,100.00,32,0,0,1,32,344,313,2e-07,60.2
Capronia_kleinmondensis_CBS122671_T,ERR1877790.516843,97.06,34,1,0,1,34,392,359,6e-07,58.4
Capronia_kleinmondensis_CBS122671_T,ERR1877790.511732,100.00,30,0,0,1,30,232,203,2e-06,56.5
Capronia_mansonii_CBS101.67_T,ERR1877790.559756,94.66,131,5,2,201,331,140,12,3e-50,202
Capronia_mansonii_CBS101.67_T,ERR1877790.322357,95.92,98,4,0,571,668,193,96,2e-37,159
Capronia_mansonii_CBS101.67_T,ERR1877790.322357,95.92,98,4,0,571,668,322,419,2e-37,159
Capronia_mansonii_CBS101.67_T,ERR1877790.636387,87.50,120,13,1,211,330,201,84,7e-31,137
Capronia_mansonii_CBS101.67_T,ERR1877790.636387,87.50,120,13,1,211,330,308,425,7e-31,137
Capronia_mansonii_CBS101.67_T,ERR1877790.568358,89.47,76,8,0,593,668,159,234,1e-18,97.1
Capronia_mansonii_CBS101.67_T,ERR1877790.223310,91.43,70,6,0,599,668,252,321,1e-18,97.1
Capronia_munkii_DAOM216390_T,ERR1877790.559756,94.66,131,5,2,201,331,140,12,3e-50,202
Capronia_munkii_DAOM216390_T,ERR1877790.322357,95.92,98,4,0,571,668,193,96,2e-37,159
Capronia_munkii_DAOM216390_T,ERR1877790.322357,95.92,98,4,0,571,668,322,419,2e-37,159
Capronia_munkii_DAOM216390_T,ERR1877790.636387,87.50,120,13,1,211,330,201,84,7e-31,137
Capronia_munkii_DAOM216390_T,ERR1877790.636387,87.50,120,13,1,211,330,308,425,7e-31,137
Capronia_munkii_DAOM216390_T,ERR1877790.568358,89.47,76,8,0,593,668,159,234,1e-18,97.1
Capronia_munkii_DAOM216390_T,ERR1877790.223310,91.43,70,6,0,599,668,252,321,1e-18,97.1
Capronia_coronata_ATCC56201_T,ERR1877790.559756,95.38,130,5,1,190,319,140,12,2e-51,206
Capronia_coronata_ATCC56201_T,ERR1877790.322357,95.92,98,4,0,542,639,193,96,1e-37,159
Capronia_coronata_ATCC56201_T,ERR1877790.322357,95.92,98,4,0,542,639,322,419,1e-37,159
Capronia_coronata_ATCC56201_T,ERR1877790.636387,87.50,120,13,1,199,318,201,84,7e-31,137
Capronia_coronata_ATCC56201_T,ERR1877790.636387,87.50,120,13,1,199,318,308,425,7e-31,137
Capronia_coronata_ATCC56201_T,ERR1877790.568358,89.47,76,8,0,564,639,159,234,1e-18,97.1
Capronia_coronata_ATCC56201_T,ERR1877790.223310,91.43,70,6,0,570,639,252,321,1e-18,97.1
Capronia_parasitica_CBS123.88,ERR1877790.559756,96.00,125,3,2,202,325,135,12,2e-50,202
Capronia_parasitica_CBS123.88,ERR1877790.636387,87.50,120,13,1,205,324,201,84,6e-31,137
Capronia_parasitica_CBS123.88,ERR1877790.636387,87.50,120,13,1,205,324,308,425,6e-31,137
Veronaea_japonica_CBS776.83_T,ERR1877790.559756,96.69,121,3,1,233,353,131,12,8e-50,200
Veronaea_japonica_CBS776.83_T,ERR1877790.636387,87.50,120,13,1,233,352,201,84,6e-31,137
Veronaea_japonica_CBS776.83_T,ERR1877790.636387,87.50,120,13,1,233,352,308,425,6e-31,137
Veronaea_japonica_CBS776.83_T,ERR1877790.516843,100.00,42,0,0,1,42,400,359,4e-13,78.7
Veronaea_japonica_CBS776.83_T,ERR1877790.511732,100.00,38,0,0,1,38,240,203,7e-11,71.3
Veronaea_japonica_CBS776.83_T,ERR1877790.233734,100.00,38,0,0,1,38,20,57,7e-11,71.3
Veronaea_japonica_CBS776.83_T,ERR1877790.233734,100.00,38,0,0,1,38,352,315,7e-11,71.3
Thysanorea_papuana_CBS212.96_T,ERR1877790.559756,92.52,147,9,2,181,327,156,12,1e-52,209
Thysanorea_papuana_CBS212.96_T,ERR1877790.636387,87.50,120,13,1,207,326,201,84,6e-31,137
Thysanorea_papuana_CBS212.96_T,ERR1877790.636387,87.50,120,13,1,207,326,308,425,6e-31,137
Capronia_acutiseta_ATCC56428_T,ERR1877790.559756,94.66,131,4,3,191,320,140,12,9e-50,200
Capronia_acutiseta_ATCC56428_T,ERR1877790.322357,95.92,98,4,0,541,638,193,96,1e-37,159
Capronia_acutiseta_ATCC56428_T,ERR1877790.322357,95.92,98,4,0,541,638,322,419,1e-37,159
Capronia_acutiseta_ATCC56428_T,ERR1877790.636387,87.10,124,12,3,198,319,205,84,7e-31,137
Capronia_acutiseta_ATCC56428_T,ERR1877790.636387,87.10,124,12,3,198,319,304,425,7e-31,137
Capronia_acutiseta_ATCC56428_T,ERR1877790.568358,89.47,76,8,0,563,638,159,234,1e-18,97.1
Capronia_acutiseta_ATCC56428_T,ERR1877790.223310,91.43,70,6,0,569,638,252,321,1e-18,97.1
Fonsecaea_brasiliensis_CBS119710_T,ERR1877790.559756,96.72,122,3,1,206,327,132,12,2e-50,202
Fonsecaea_brasiliensis_CBS119710_T,ERR1877790.636387,87.50,120,13,1,207,326,201,84,6e-31,137
Fonsecaea_brasiliensis_CBS119710_T,ERR1877790.636387,87.50,120,13,1,207,326,308,425,6e-31,137
Fonsecaea_pedrosoi_CBS271.37_T,ERR1877790.559756,96.72,122,3,1,234,355,132,12,2e-50,202
Fonsecaea_pedrosoi_CBS271.37_T,ERR1877790.636387,87.50,120,13,1,235,354,201,84,7e-31,137
Fonsecaea_pedrosoi_CBS271.37_T,ERR1877790.636387,87.50,120,13,1,235,354,308,425,7e-31,137
Fonsecaea_pedrosoi_CBS271.37_T,ERR1877790.322357,91.38,58,5,0,588,645,193,136,1e-13,80.5
Fonsecaea_pedrosoi_CBS271.37_T,ERR1877790.322357,91.38,58,5,0,588,645,322,379,1e-13,80.5
Fonsecaea_pedrosoi_CBS271.37_T,ERR1877790.516843,100.00,31,0,0,1,31,392,362,6e-07,58.4
Fonsecaea_pedrosoi_CBS271.37_T,ERR1877790.511732,100.00,30,0,0,1,30,232,203,2e-06,56.5
Fonsecaea_pedrosoi_CBS271.37_T,ERR1877790.233734,100.00,30,0,0,1,30,28,57,2e-06,56.5
Fonsecaea_pedrosoi_CBS271.37_T,ERR1877790.233734,100.00,30,0,0,1,30,344,315,2e-06,56.5
Fonsecaea_pedrosoi_CBS271.37_T,ERR1877790.223310,97.06,34,0,1,612,645,249,281,2e-06,56.5
Fonsecaea_multimorphosa_CBS980.96_T,ERR1877790.559756,96.72,122,3,1,204,325,132,12,2e-50,202
Fonsecaea_multimorphosa_CBS980.96_T,ERR1877790.636387,87.50,120,13,1,205,324,201,84,6e-31,137
Fonsecaea_multimorphosa_CBS980.96_T,ERR1877790.636387,87.50,120,13,1,205,324,308,425,6e-31,137
Fonsecaea_minima_CBS125760_T,ERR1877790.559756,96.72,122,3,1,200,321,132,12,2e-50,202
Fonsecaea_minima_CBS125760_T,ERR1877790.636387,87.50,120,13,1,201,320,201,84,6e-31,137
Fonsecaea_minima_CBS125760_T,ERR1877790.636387,87.50,120,13,1,201,320,308,425,6e-31,137
Fonsecaea_nubica_CBS269.64_T,ERR1877790.559756,96.72,122,3,1,211,332,132,12,2e-50,202
Fonsecaea_nubica_CBS269.64_T,ERR1877790.636387,87.50,120,13,1,212,331,201,84,6e-31,137
Fonsecaea_nubica_CBS269.64_T,ERR1877790.636387,87.50,120,13,1,212,331,308,425,6e-31,137
Fonsecaea_monophora_CBS269.37_T,ERR1877790.559756,95.93,123,3,2,211,333,132,12,3e-49,198
Fonsecaea_monophora_CBS269.37_T,ERR1877790.636387,86.78,121,13,2,212,332,201,84,3e-29,132
Fonsecaea_monophora_CBS269.37_T,ERR1877790.636387,86.78,121,13,2,212,332,308,425,3e-29,132
Fonsecaea_erecta_CBS125763_T,ERR1877790.559756,96.72,122,3,1,195,316,132,12,2e-50,202
Fonsecaea_erecta_CBS125763_T,ERR1877790.636387,87.50,120,13,1,196,315,201,84,6e-31,137
Fonsecaea_erecta_CBS125763_T,ERR1877790.636387,87.50,120,13,1,196,315,308,425,6e-31,137
Fonsecaea_pugnacius_CBS139214_T,ERR1877790.559756,96.72,122,3,1,204,325,132,12,2e-50,202
Fonsecaea_pugnacius_CBS139214_T,ERR1877790.636387,87.50,120,13,1,205,324,201,84,6e-31,137
Fonsecaea_pugnacius_CBS139214_T,ERR1877790.636387,87.50,120,13,1,205,324,308,425,6e-31,137
Cladophialophora_psammophila_CBS,ERR1877790.559756,92.05,151,6,4,181,331,156,12,5e-52,207
Cladophialophora_psammophila_CBS,ERR1877790.636387,87.50,120,13,1,211,330,201,84,6e-31,137
Cladophialophora_psammophila_CBS,ERR1877790.636387,87.50,120,13,1,211,330,308,425,6e-31,137
Cladophialophora_devriesii_CBS,ERR1877790.559756,96.72,122,3,1,206,327,132,12,2e-50,202
Cladophialophora_devriesii_CBS,ERR1877790.636387,87.50,120,13,1,207,326,201,84,6e-31,137
Cladophialophora_devriesii_CBS,ERR1877790.636387,87.50,120,13,1,207,326,308,425,6e-31,137
Cladophialophora_immunda_CBS834.96,ERR1877790.559756,96.72,122,3,1,208,329,132,12,2e-50,202
Cladophialophora_immunda_CBS834.96,ERR1877790.636387,87.50,120,13,1,209,328,201,84,6e-31,137
Cladophialophora_immunda_CBS834.96,ERR1877790.636387,87.50,120,13,1,209,328,308,425,6e-31,137
Cladophialophora_arxii_CBS306.94_T,ERR1877790.559756,96.72,122,3,1,210,331,132,12,2e-50,202
Cladophialophora_arxii_CBS306.94_T,ERR1877790.636387,87.50,120,13,1,211,330,201,84,6e-31,137
Cladophialophora_arxii_CBS306.94_T,ERR1877790.636387,87.50,120,13,1,211,330,308,425,6e-31,137
Cladophialophora_bantiana_CBS173.52,ERR1877790.559756,92.00,150,7,4,176,325,156,12,2e-51,206
Cladophialophora_bantiana_CBS173.52,ERR1877790.636387,87.50,120,13,1,205,324,201,84,6e-31,137
Cladophialophora_bantiana_CBS173.52,ERR1877790.636387,87.50,120,13,1,205,324,308,425,6e-31,137
Cladophialophora_emmonsii_CBS102594,ERR1877790.559756,96.72,122,3,1,195,316,132,12,2e-50,202
Cladophialophora_emmonsii_CBS102594,ERR1877790.636387,87.50,120,13,1,196,315,201,84,6e-31,137
Cladophialophora_emmonsii_CBS102594,ERR1877790.636387,87.50,120,13,1,196,315,308,425,6e-31,137
Cladophialophora_minourae_CBS556.83,ERR1877790.559756,95.90,122,4,1,203,324,132,12,1e-48,196
Cladophialophora_minourae_CBS556.83,ERR1877790.636387,87.50,120,13,1,204,323,201,84,6e-31,137
Cladophialophora_minourae_CBS556.83,ERR1877790.636387,87.50,120,13,1,204,323,308,425,6e-31,137
Cladophialophora_australiensis_CBS112793,ERR1877790.559756,96.69,121,3,1,206,326,131,12,2e-49,200
Cladophialophora_australiensis_CBS112793,ERR1877790.322357,87.72,171,19,2,549,717,193,23,7e-49,198
Cladophialophora_australiensis_CBS112793,ERR1877790.322357,88.68,159,17,1,549,706,322,480,3e-47,193
Cladophialophora_australiensis_CBS112793,ERR1877790.159591,84.39,205,26,6,727,925,47,251,3e-48,196
Cladophialophora_australiensis_CBS112793,ERR1877790.174487,87.58,153,17,2,1320,1471,237,86,3e-42,176
Cladophialophora_australiensis_CBS112793,ERR1877790.246100,90.52,116,11,0,1337,1452,136,251,2e-35,154
Cladophialophora_australiensis_CBS112793,ERR1877790.172399,77.64,246,51,3,642,885,497,254,3e-33,147
Cladophialophora_australiensis_CBS112793,ERR1877790.636387,83.12,160,21,4,206,364,201,47,1e-31,141
Cladophialophora_australiensis_CBS112793,ERR1877790.636387,83.12,160,21,4,206,364,308,462,1e-31,141
Cladophialophora_australiensis_CBS112793,ERR1877790.223310,89.00,100,10,1,573,672,249,347,4e-26,122
Cladophialophora_australiensis_CBS112793,ERR1877790.72969,100.00,56,0,0,1416,1471,1,56,2e-20,104
Cladophialophora_australiensis_CBS112793,ERR1877790.568358,88.31,77,9,0,571,647,159,235,4e-17,93.5
Cladophialophora_australiensis_CBS112793,ERR1877790.159456,81.82,88,13,3,1177,1261,5,92,2e-10,71.3
Cladophialophora_australiensis_CBS112793,ERR1877790.159456,81.82,88,13,3,1177,1261,394,307,2e-10,71.3
Cladophialophora_potulentorum_CBS112222,ERR1877790.559756,94.66,131,5,2,195,325,140,12,6e-50,202
Cladophialophora_potulentorum_CBS112222,ERR1877790.322357,87.72,171,19,2,551,719,193,23,7e-49,198
Cladophialophora_potulentorum_CBS112222,ERR1877790.322357,88.68,159,17,1,551,708,322,480,3e-47,193
Cladophialophora_potulentorum_CBS112222,ERR1877790.174487,88.10,168,18,2,1322,1488,237,71,7e-49,198
Cladophialophora_potulentorum_CBS112222,ERR1877790.159591,84.39,205,26,5,729,927,47,251,3e-48,196
Cladophialophora_potulentorum_CBS112222,ERR1877790.246100,90.52,116,11,0,1339,1454,136,251,2e-35,154
Cladophialophora_potulentorum_CBS112222,ERR1877790.172399,78.23,248,46,4,644,887,497,254,6e-35,152
Cladophialophora_potulentorum_CBS112222,ERR1877790.636387,87.50,120,13,1,205,324,201,84,2e-30,137
Cladophialophora_potulentorum_CBS112222,ERR1877790.636387,87.50,120,13,1,205,324,308,425,2e-30,137
Cladophialophora_potulentorum_CBS112222,ERR1877790.72969,98.68,76,1,0,1418,1493,1,76,6e-30,135
Cladophialophora_potulentorum_CBS112222,ERR1877790.223310,89.00,100,10,1,575,674,249,347,5e-26,122
Cladophialophora_potulentorum_CBS112222,ERR1877790.568358,88.31,77,9,0,573,649,159,235,4e-17,93.5
Cladophialophora_potulentorum_CBS112222,ERR1877790.166575,91.18,68,5,1,1419,1486,331,265,1e-16,91.6
Cladophialophora_potulentorum_CBS112222,ERR1877790.159456,100.00,36,0,0,1179,1214,5,40,2e-09,67.6
Cladophialophora_potulentorum_CBS112222,ERR1877790.159456,100.00,36,0,0,1179,1214,394,359,2e-09,67.6
Cladophialophora_matsushimae_CMRP1198,ERR1877790.559756,95.45,132,4,2,198,329,141,12,1e-52,209
Cladophialophora_matsushimae_CMRP1198,ERR1877790.636387,87.50,120,13,1,209,328,201,84,5e-31,137
Cladophialophora_matsushimae_CMRP1198,ERR1877790.636387,87.50,120,13,1,209,328,308,425,5e-31,137
Cladophialophora_mycetomatis_CBS122637,ERR1877790.559756,95.45,132,4,2,183,314,141,12,1e-52,209
Cladophialophora_mycetomatis_CBS122637,ERR1877790.636387,87.50,120,13,1,194,313,201,84,6e-31,137
Cladophialophora_mycetomatis_CBS122637,ERR1877790.636387,87.50,120,13,1,194,313,308,425,6e-31,137
Cladophialophora_chaetospira_CBS127573,ERR1877790.559756,95.04,121,5,1,600,720,131,12,3e-46,189
Cladophialophora_chaetospira_CBS127573,ERR1877790.636387,86.15,130,16,1,590,719,211,84,3e-31,139
Cladophialophora_chaetospira_CBS127573,ERR1877790.636387,86.15,130,16,1,590,719,298,425,3e-31,139
Cladophialophora_chaetospira_CBS127573,ERR1877790.516843,100.00,35,0,0,379,413,393,359,5e-09,65.8
Cladophialophora_chaetospira_CBS127573,ERR1877790.511732,100.00,31,0,0,379,409,233,203,8e-07,58.4
Cladophialophora_chaetospira_CBS127573,ERR1877790.233734,100.00,31,0,0,379,409,27,57,8e-07,58.4
Cladophialophora_chaetospira_CBS127573,ERR1877790.233734,100.00,31,0,0,379,409,345,315,8e-07,58.4
Cladophialophora_boppii_CBS126.86_T,ERR1877790.559756,96.69,121,3,1,202,322,131,12,7e-50,200
Cladophialophora_boppii_CBS126.86_T,ERR1877790.636387,87.50,120,13,1,202,321,201,84,6e-31,137
Cladophialophora_boppii_CBS126.86_T,ERR1877790.636387,87.50,120,13,1,202,321,308,425,6e-31,137
Cladophialophora_abundans_CBS126736,ERR1877790.559756,93.89,131,7,1,139,269,131,2,8e-49,196
Cladophialophora_abundans_CBS126736,ERR1877790.636387,83.64,165,20,5,134,297,205,47,2e-34,148
Cladophialophora_abundans_CBS126736,ERR1877790.636387,83.64,165,20,5,134,297,304,462,2e-34,148
Capronia_semi-immersa_CBS102234,ERR1877790.559756,95.90,122,4,1,200,321,132,12,9e-49,196
Capronia_semi-immersa_CBS102234,ERR1877790.636387,87.50,120,13,1,201,320,201,84,6e-31,137
Capronia_semi-immersa_CBS102234,ERR1877790.636387,87.50,120,13,1,201,320,308,425,6e-31,137
Phialophora_americana_CBS400.67,ERR1877790.559756,95.90,122,4,1,202,323,132,12,3e-48,196
Phialophora_americana_CBS400.67,ERR1877790.159591,84.06,207,28,5,718,919,45,251,9e-48,195
Phialophora_americana_CBS400.67,ERR1877790.322357,87.43,167,19,2,543,708,322,487,1e-46,191
Phialophora_americana_CBS400.67,ERR1877790.322357,88.05,159,18,1,543,700,193,35,2e-45,187
Phialophora_americana_CBS400.67,ERR1877790.246100,90.43,115,11,0,1331,1445,136,250,6e-35,152
Phialophora_americana_CBS400.67,ERR1877790.636387,87.50,120,13,1,203,322,201,84,2e-30,137
Phialophora_americana_CBS400.67,ERR1877790.636387,87.50,120,13,1,203,322,308,425,2e-30,137
Phialophora_americana_CBS400.67,ERR1877790.172399,76.92,247,51,4,636,879,497,254,6e-30,135
Phialophora_americana_CBS400.67,ERR1877790.223310,90.70,86,8,0,884,969,251,166,7e-24,115
Phialophora_americana_CBS400.67,ERR1877790.159456,81.82,88,13,3,1171,1255,5,92,2e-10,71.3
Phialophora_americana_CBS400.67,ERR1877790.159456,81.82,88,13,3,1171,1255,394,307,2e-10,71.3
Phialophora_americana_CBS400.67,ERR1877790.72969,100.00,36,0,0,1410,1445,1,36,2e-09,67.6
Phialophora_verrucosa_CBS140325_T,ERR1877790.559756,95.90,122,4,1,206,327,132,12,1e-48,196
Phialophora_verrucosa_CBS140325_T,ERR1877790.636387,87.50,120,13,1,207,326,201,84,6e-31,137
Phialophora_verrucosa_CBS140325_T,ERR1877790.636387,87.50,120,13,1,207,326,308,425,6e-31,137
Cladophialophora_samoensis_CBS259.83_T,ERR1877790.559756,94.70,132,6,1,206,337,132,2,6e-51,204
Cladophialophora_samoensis_CBS259.83_T,ERR1877790.636387,83.12,160,21,4,207,365,201,47,5e-32,141
Cladophialophora_samoensis_CBS259.83_T,ERR1877790.636387,83.12,160,21,4,207,365,308,462,5e-32,141
Cladophialophora_carrionii_CBS260.83,ERR1877790.559756,96.72,122,3,1,222,343,132,12,2e-50,202
Cladophialophora_carrionii_CBS260.83,ERR1877790.636387,87.50,120,13,1,223,342,201,84,6e-31,137
Cladophialophora_carrionii_CBS260.83,ERR1877790.636387,87.50,120,13,1,223,342,308,425,6e-31,137
Exophiala_palmae_UPCB86822_T,ERR1877790.559756,92.57,148,8,3,139,286,156,12,1e-52,209
Exophiala_palmae_UPCB86822_T,ERR1877790.636387,87.50,120,13,1,166,285,201,84,5e-31,137
Exophiala_palmae_UPCB86822_T,ERR1877790.636387,87.50,120,13,1,166,285,308,425,5e-31,137
Cladophialophora_yegresii_CBS114405_T,ERR1877790.559756,96.72,122,3,1,207,328,132,12,2e-50,202
Cladophialophora_yegresii_CBS114405_T,ERR1877790.636387,87.50,120,13,1,208,327,201,84,6e-31,137
Cladophialophora_yegresii_CBS114405_T,ERR1877790.636387,87.50,120,13,1,208,327,308,425,6e-31,137
Knufia_epidermidis_CBS120353_T,ERR1877790.559756,92.20,141,10,1,196,336,141,2,3e-49,198
Knufia_epidermidis_CBS120353_T,ERR1877790.636387,84.15,164,19,5,203,364,205,47,2e-35,152
Knufia_epidermidis_CBS120353_T,ERR1877790.636387,84.15,164,19,5,203,364,304,462,2e-35,152
Arthrocladium_fulminans_CBS136243_T,ERR1877790.559756,95.87,121,4,1,201,321,131,12,3e-48,195
Arthrocladium_fulminans_CBS136243_T,ERR1877790.636387,88.33,120,12,1,201,320,201,84,1e-32,143
Arthrocladium_fulminans_CBS136243_T,ERR1877790.636387,88.33,120,12,1,201,320,308,425,1e-32,143
Anthopsis_deltoidea_CBS263.77_T,ERR1877790.559756,90.54,148,11,3,182,328,157,12,1e-47,193
Cyphellophora_laciniata_CBS190.61_T,ERR1877790.559756,92.86,140,8,2,285,423,140,2,3e-50,202
Cyphellophora_laciniata_CBS190.61_T,ERR1877790.559756,87.85,107,13,0,1,107,352,458,2e-27,126
Cyphellophora_laciniata_CBS190.61_T,ERR1877790.636387,84.57,162,20,4,292,451,205,47,2e-36,156
Cyphellophora_laciniata_CBS190.61_T,ERR1877790.636387,84.57,162,20,4,292,451,304,462,2e-36,156
Cyphellophora_laciniata_CBS190.61_T,ERR1877790.322357,94.90,98,5,0,638,735,193,96,8e-36,154
Cyphellophora_laciniata_CBS190.61_T,ERR1877790.322357,94.90,98,5,0,638,735,322,419,8e-36,154
Cyphellophora_laciniata_CBS190.61_T,ERR1877790.516843,98.70,77,1,0,28,104,435,359,8e-31,137
Cyphellophora_laciniata_CBS190.61_T,ERR1877790.233734,100.00,60,0,0,43,102,372,313,5e-23,111
Cyphellophora_laciniata_CBS190.61_T,ERR1877790.233734,100.00,59,0,0,44,102,1,59,2e-22,110
Cyphellophora_laciniata_CBS190.61_T,ERR1877790.568358,90.79,76,7,0,660,735,159,234,3e-20,102
Cyphellophora_laciniata_CBS190.61_T,ERR1877790.223310,92.86,70,5,0,666,735,252,321,3e-20,102
Cyphellophora_laciniata_CBS190.61_T,ERR1877790.53221,100.00,55,0,0,28,82,304,250,3e-20,102
Cyphellophora_laciniata_CBS190.61_T,ERR1877790.160569,91.55,71,6,0,6,76,112,182,4e-19,99.0
Cyphellophora_laciniata_CBS190.61_T,ERR1877790.160569,91.55,71,6,0,6,76,322,252,4e-19,99.0
Cyphellophora_laciniata_CBS190.61_T,ERR1877790.511732,100.00,49,0,0,52,100,251,203,6e-17,91.6
Cyphellophora_suttonii_CBS449.91,ERR1877790.559756,92.91,141,9,1,187,326,142,2,6e-51,204
Cyphellophora_suttonii_CBS449.91,ERR1877790.636387,84.57,162,20,4,195,354,205,47,2e-36,156
Cyphellophora_suttonii_CBS449.91,ERR1877790.636387,84.57,162,20,4,195,354,304,462,2e-36,156
Cyphellophora_pauciseptata_CBS284.85_T,ERR1877790.559756,92.91,141,9,1,198,337,142,2,6e-51,204
Cyphellophora_pauciseptata_CBS284.85_T,ERR1877790.636387,84.81,158,20,3,209,365,201,47,2e-36,156
Cyphellophora_pauciseptata_CBS284.85_T,ERR1877790.636387,84.81,158,20,3,209,365,308,462,2e-36,156
Cyphellophora_pluriseptata_CBS286.85_T,ERR1877790.559756,87.36,182,17,5,163,342,179,2,6e-51,204
Cyphellophora_pluriseptata_CBS286.85_T,ERR1877790.636387,83.33,162,22,4,211,370,205,47,4e-33,145
Cyphellophora_pluriseptata_CBS286.85_T,ERR1877790.636387,83.33,162,22,4,211,370,304,462,4e-33,145
Phialophora_europaea_CBS101466,ERR1877790.559756,92.31,143,8,2,191,332,142,2,7e-50,200
Phialophora_europaea_CBS101466,ERR1877790.636387,84.18,158,21,3,204,360,201,47,7e-35,150
Phialophora_europaea_CBS101466,ERR1877790.636387,84.18,158,21,3,204,360,308,462,7e-35,150
Phialophora_ambigua_CBS235.93,ERR1877790.559756,92.81,139,9,1,192,329,140,2,7e-50,200
Phialophora_ambigua_CBS235.93,ERR1877790.636387,83.95,162,21,4,198,357,205,47,7e-35,150
Phialophora_ambigua_CBS235.93,ERR1877790.636387,83.95,162,21,4,198,357,304,462,7e-35,150
Cladophialophora_modesta_CBS985.96_T,ERR1877790.559756,94.53,128,5,2,191,318,137,12,1e-48,196
Cladophialophora_modesta_CBS985.96_T,ERR1877790.636387,87.90,124,12,2,195,317,205,84,1e-32,143
Cladophialophora_modesta_CBS985.96_T,ERR1877790.636387,87.90,124,12,2,195,317,304,425,1e-32,143
Cladophialophora_modesta_CBS985.96_T,ERR1877790.322357,92.86,98,7,0,522,619,193,96,1e-32,143
Cladophialophora_modesta_CBS985.96_T,ERR1877790.322357,92.86,98,7,0,522,619,322,419,1e-32,143
Cladophialophora_modesta_CBS985.96_T,ERR1877790.568358,90.12,81,7,1,539,619,155,234,7e-21,104
Cladophialophora_modesta_CBS985.96_T,ERR1877790.223310,91.43,70,6,0,550,619,252,321,1e-18,97.1
Cyphellophora_fusarioides_MUCL44033_T,ERR1877790.559756,92.25,142,9,2,185,325,142,2,7e-50,200
