Exophiala_dermatitidis_CBS748.88,SRR11106684.9751997,87.96,108,13,0,1373,1480,143,250,2e-26,128
Exophiala_dermatitidis_CBS748.88,SRR11106684.12641618,97.22,36,1,0,1210,1245,123,88,2e-06,62.1
Cladophialophora_australiensis_CBS112793,SRR11106684.9751997,87.96,108,13,0,1340,1447,143,250,2e-26,128
Cladophialophora_australiensis_CBS112793,SRR11106684.12641618,97.22,36,1,0,1177,1212,123,88,2e-06,62.1
Cladophialophora_potulentorum_CBS112222,SRR11106684.9751997,87.96,108,13,0,1342,1449,143,250,2e-26,128
Cladophialophora_potulentorum_CBS112222,SRR11106684.12641618,97.22,36,1,0,1179,1214,123,88,2e-06,62.1
Phialophora_americana_CBS400.67,SRR11106684.9751997,87.96,108,13,0,1334,1441,143,250,2e-26,128
Phialophora_americana_CBS400.67,SRR11106684.12641618,97.22,36,1,0,1171,1206,123,88,2e-06,62.1
