Exophiala_dermatitidis_CBS748.88,ERR1877765.183597,91.80,61,5,0,1198,1258,324,264,2e-15,86.1
Cladophialophora_australiensis_CBS112793,ERR1877765.183597,91.80,61,5,0,1165,1225,324,264,2e-15,86.1
Cladophialophora_potulentorum_CBS112222,ERR1877765.183597,97.96,49,1,0,1179,1227,312,264,2e-15,86.1
Cladophialophora_chaetospira_CBS127573,ERR1877765.156872,80.79,151,21,7,114,259,406,259,2e-23,111
Cladophialophora_chaetospira_CBS127573,ERR1877765.156872,78.40,125,20,6,114,234,130,251,3e-12,75.0
Phialophora_americana_CBS400.67,ERR1877765.183597,79.86,139,26,2,796,932,111,249,8e-20,100
Phialophora_americana_CBS400.67,ERR1877765.183597,91.80,61,5,0,1159,1219,324,264,2e-15,86.1
