Exophiala_salmonis_CBS157.67_T,ERR1857321.7523,89.43,123,9,4,4,122,354,476,4e-37,152
Exophiala_salmonis_CBS157.67_T,ERR1857321.10015,88.71,124,9,5,4,122,352,475,2e-35,147
Cyphellophora_laciniata_CBS190.61_T,ERR1857321.7523,90.12,81,6,2,1,79,407,487,1e-22,104
Cyphellophora_laciniata_CBS190.61_T,ERR1857321.10015,89.02,82,6,3,1,79,405,486,5e-21,99.0
