Exophiala_salmonis_CBS157.67_T,ERR1905369.12325,82.11,123,20,2,1,122,408,287,4e-22,104
Exophiala_salmonis_CBS157.67_T,ERR1905369.4067,81.30,123,21,2,1,122,168,47,2e-20,99.0
Exophiala_salmonis_CBS157.67_T,ERR1905369.3283,81.30,123,21,2,1,122,168,47,2e-20,99.0
Exophiala_salmonis_CBS157.67_T,ERR1905369.31413,80.83,120,21,2,4,122,405,287,9e-19,93.5
Exophiala_salmonis_CBS157.67_T,ERR1905369.28617,80.49,123,22,2,1,122,168,47,9e-19,93.5
Exophiala_salmonis_CBS157.67_T,ERR1905369.26463,100.00,44,0,0,79,122,108,65,2e-15,82.4
Cyphellophora_laciniata_CBS190.61_T,ERR1905369.12325,95.06,81,4,0,24,104,331,251,2e-29,128
Cyphellophora_laciniata_CBS190.61_T,ERR1905369.4067,95.06,81,4,0,24,104,91,11,2e-29,128
Cyphellophora_laciniata_CBS190.61_T,ERR1905369.3283,95.06,81,4,0,24,104,91,11,2e-29,128
Cyphellophora_laciniata_CBS190.61_T,ERR1905369.31413,93.83,81,5,0,24,104,331,251,1e-27,122
Cyphellophora_laciniata_CBS190.61_T,ERR1905369.28617,93.83,81,5,0,24,104,91,11,1e-27,122
Cyphellophora_laciniata_CBS190.61_T,ERR1905369.26463,94.74,76,4,0,25,100,108,33,1e-26,119
