Exophiala_salmonis_CBS157.67_T,ERR1905339.59934,86.89,122,16,0,1,122,168,47,7e-32,137
Exophiala_salmonis_CBS157.67_T,ERR1905339.10836,86.89,122,16,0,1,122,409,288,7e-32,137
Exophiala_salmonis_CBS157.67_T,ERR1905339.9665,87.39,119,15,0,4,122,165,47,7e-32,137
Exophiala_salmonis_CBS157.67_T,ERR1905339.6087,86.89,122,16,0,1,122,168,47,7e-32,137
Exophiala_salmonis_CBS157.67_T,ERR1905339.60693,85.12,121,18,0,2,122,408,288,6e-28,124
Exophiala_salmonis_CBS157.67_T,ERR1905339.62793,100.00,31,0,0,92,122,238,208,6e-08,58.4
Exophiala_salmonis_CBS157.67_T,ERR1905339.47392,100.00,31,0,0,92,122,238,208,6e-08,58.4
Exophiala_salmonis_CBS157.67_T,ERR1905339.29089,100.00,31,0,0,92,122,238,208,6e-08,58.4
Exophiala_salmonis_CBS157.67_T,ERR1905339.23305,100.00,31,0,0,92,122,238,208,6e-08,58.4
Exophiala_salmonis_CBS157.67_T,ERR1905339.516,100.00,31,0,0,92,122,238,208,6e-08,58.4
Exophiala_salmonis_CBS157.67_T,ERR1905339.59239,100.00,30,0,0,95,124,476,447,2e-07,56.5
Exophiala_salmonis_CBS157.67_T,ERR1905339.498,100.00,30,0,0,95,124,236,207,2e-07,56.5
Exophiala_salmonis_CBS157.67_T,ERR1905339.7519,100.00,29,0,0,94,122,477,449,7e-07,54.7
Exophiala_salmonis_CBS157.67_T,ERR1905339.59811,100.00,28,0,0,95,122,236,209,3e-06,52.8
Exophiala_salmonis_CBS157.67_T,ERR1905339.59701,100.00,28,0,0,95,122,236,209,3e-06,52.8
Exophiala_salmonis_CBS157.67_T,ERR1905339.58530,100.00,28,0,0,95,122,236,209,3e-06,52.8
Exophiala_salmonis_CBS157.67_T,ERR1905339.56889,100.00,28,0,0,95,122,236,209,3e-06,52.8
Exophiala_salmonis_CBS157.67_T,ERR1905339.53007,100.00,28,0,0,95,122,236,209,3e-06,52.8
Exophiala_salmonis_CBS157.67_T,ERR1905339.52013,100.00,28,0,0,95,122,477,450,3e-06,52.8
Exophiala_salmonis_CBS157.67_T,ERR1905339.47855,100.00,28,0,0,95,122,236,209,3e-06,52.8
Exophiala_salmonis_CBS157.67_T,ERR1905339.45717,100.00,28,0,0,95,122,236,209,3e-06,52.8
Exophiala_salmonis_CBS157.67_T,ERR1905339.44472,100.00,28,0,0,95,122,236,209,3e-06,52.8
Exophiala_salmonis_CBS157.67_T,ERR1905339.43667,100.00,28,0,0,95,122,476,449,3e-06,52.8
Exophiala_salmonis_CBS157.67_T,ERR1905339.42588,100.00,28,0,0,95,122,477,450,3e-06,52.8
Exophiala_salmonis_CBS157.67_T,ERR1905339.41068,100.00,28,0,0,95,122,236,209,3e-06,52.8
Exophiala_salmonis_CBS157.67_T,ERR1905339.40111,100.00,28,0,0,95,122,476,449,3e-06,52.8
Exophiala_salmonis_CBS157.67_T,ERR1905339.39590,100.00,28,0,0,95,122,236,209,3e-06,52.8
Exophiala_salmonis_CBS157.67_T,ERR1905339.37450,100.00,28,0,0,95,122,236,209,3e-06,52.8
Exophiala_salmonis_CBS157.67_T,ERR1905339.37010,100.00,28,0,0,95,122,476,449,3e-06,52.8
Exophiala_salmonis_CBS157.67_T,ERR1905339.34195,100.00,28,0,0,95,122,236,209,3e-06,52.8
Exophiala_salmonis_CBS157.67_T,ERR1905339.33958,100.00,28,0,0,95,122,236,209,3e-06,52.8
Exophiala_salmonis_CBS157.67_T,ERR1905339.31575,100.00,28,0,0,95,122,477,450,3e-06,52.8
Exophiala_salmonis_CBS157.67_T,ERR1905339.30988,100.00,28,0,0,95,122,236,209,3e-06,52.8
Exophiala_salmonis_CBS157.67_T,ERR1905339.30948,100.00,28,0,0,95,122,236,209,3e-06,52.8
Exophiala_salmonis_CBS157.67_T,ERR1905339.30152,100.00,28,0,0,95,122,236,209,3e-06,52.8
Exophiala_salmonis_CBS157.67_T,ERR1905339.29764,100.00,28,0,0,95,122,236,209,3e-06,52.8
Exophiala_salmonis_CBS157.67_T,ERR1905339.28373,100.00,28,0,0,95,122,236,209,3e-06,52.8
Exophiala_salmonis_CBS157.67_T,ERR1905339.27971,100.00,28,0,0,95,122,236,209,3e-06,52.8
Exophiala_salmonis_CBS157.67_T,ERR1905339.25872,100.00,28,0,0,95,122,236,209,3e-06,52.8
Exophiala_salmonis_CBS157.67_T,ERR1905339.23220,100.00,28,0,0,95,122,236,209,3e-06,52.8
Exophiala_salmonis_CBS157.67_T,ERR1905339.21572,100.00,28,0,0,95,122,236,209,3e-06,52.8
Exophiala_salmonis_CBS157.67_T,ERR1905339.21369,100.00,28,0,0,95,122,236,209,3e-06,52.8
Exophiala_salmonis_CBS157.67_T,ERR1905339.18341,100.00,28,0,0,95,122,236,209,3e-06,52.8
Exophiala_salmonis_CBS157.67_T,ERR1905339.18139,100.00,28,0,0,95,122,477,450,3e-06,52.8
Exophiala_salmonis_CBS157.67_T,ERR1905339.16607,100.00,28,0,0,95,122,476,449,3e-06,52.8
Exophiala_salmonis_CBS157.67_T,ERR1905339.7962,100.00,28,0,0,95,122,236,209,3e-06,52.8
Exophiala_salmonis_CBS157.67_T,ERR1905339.7614,100.00,28,0,0,95,122,477,450,3e-06,52.8
Exophiala_salmonis_CBS157.67_T,ERR1905339.5521,100.00,28,0,0,95,122,236,209,3e-06,52.8
Exophiala_salmonis_CBS157.67_T,ERR1905339.3957,100.00,28,0,0,95,122,477,450,3e-06,52.8
Exophiala_salmonis_CBS157.67_T,ERR1905339.2498,100.00,28,0,0,95,122,236,209,3e-06,52.8
Exophiala_salmonis_CBS157.67_T,ERR1905339.1455,100.00,28,0,0,95,122,236,209,3e-06,52.8
Cyphellophora_laciniata_CBS190.61_T,ERR1905339.59934,87.50,104,13,0,1,104,114,11,7e-27,121
Cyphellophora_laciniata_CBS190.61_T,ERR1905339.10836,87.50,104,13,0,1,104,355,252,7e-27,121
Cyphellophora_laciniata_CBS190.61_T,ERR1905339.9665,87.50,104,13,0,1,104,114,11,7e-27,121
Cyphellophora_laciniata_CBS190.61_T,ERR1905339.6087,86.54,104,14,0,1,104,114,11,3e-25,115
Cyphellophora_laciniata_CBS190.61_T,ERR1905339.60693,85.58,104,15,0,1,104,355,252,1e-23,110
Cyphellophora_laciniata_CBS190.61_T,ERR1905339.62793,100.00,34,0,0,38,71,238,205,1e-09,63.9
Cyphellophora_laciniata_CBS190.61_T,ERR1905339.47392,100.00,34,0,0,38,71,238,205,1e-09,63.9
Cyphellophora_laciniata_CBS190.61_T,ERR1905339.29089,100.00,34,0,0,38,71,238,205,1e-09,63.9
Cyphellophora_laciniata_CBS190.61_T,ERR1905339.23305,100.00,34,0,0,38,71,238,205,1e-09,63.9
Cyphellophora_laciniata_CBS190.61_T,ERR1905339.516,100.00,34,0,0,38,71,238,205,1e-09,63.9
Cyphellophora_laciniata_CBS190.61_T,ERR1905339.61545,97.06,34,1,0,38,71,238,205,5e-08,58.4
Cyphellophora_laciniata_CBS190.61_T,ERR1905339.59811,100.00,31,0,0,41,71,236,206,5e-08,58.4
Cyphellophora_laciniata_CBS190.61_T,ERR1905339.59701,100.00,31,0,0,41,71,236,206,5e-08,58.4
Cyphellophora_laciniata_CBS190.61_T,ERR1905339.58530,100.00,31,0,0,41,71,236,206,5e-08,58.4
Cyphellophora_laciniata_CBS190.61_T,ERR1905339.56889,100.00,31,0,0,41,71,236,206,5e-08,58.4
Cyphellophora_laciniata_CBS190.61_T,ERR1905339.53007,100.00,31,0,0,41,71,236,206,5e-08,58.4
Cyphellophora_laciniata_CBS190.61_T,ERR1905339.52013,100.00,31,0,0,41,71,477,447,5e-08,58.4
Cyphellophora_laciniata_CBS190.61_T,ERR1905339.45717,100.00,31,0,0,41,71,236,206,5e-08,58.4
Cyphellophora_laciniata_CBS190.61_T,ERR1905339.44472,100.00,31,0,0,41,71,236,206,5e-08,58.4
Cyphellophora_laciniata_CBS190.61_T,ERR1905339.43667,100.00,31,0,0,41,71,476,446,5e-08,58.4
Cyphellophora_laciniata_CBS190.61_T,ERR1905339.42588,100.00,31,0,0,41,71,477,447,5e-08,58.4
Cyphellophora_laciniata_CBS190.61_T,ERR1905339.41068,100.00,31,0,0,41,71,236,206,5e-08,58.4
Cyphellophora_laciniata_CBS190.61_T,ERR1905339.40111,100.00,31,0,0,41,71,476,446,5e-08,58.4
Cyphellophora_laciniata_CBS190.61_T,ERR1905339.39590,100.00,31,0,0,41,71,236,206,5e-08,58.4
Cyphellophora_laciniata_CBS190.61_T,ERR1905339.37450,100.00,31,0,0,41,71,236,206,5e-08,58.4
Cyphellophora_laciniata_CBS190.61_T,ERR1905339.37010,100.00,31,0,0,41,71,476,446,5e-08,58.4
Cyphellophora_laciniata_CBS190.61_T,ERR1905339.34195,100.00,31,0,0,41,71,236,206,5e-08,58.4
Cyphellophora_laciniata_CBS190.61_T,ERR1905339.33958,100.00,31,0,0,41,71,236,206,5e-08,58.4
Cyphellophora_laciniata_CBS190.61_T,ERR1905339.32970,97.06,34,1,0,38,71,238,205,5e-08,58.4
Cyphellophora_laciniata_CBS190.61_T,ERR1905339.30988,100.00,31,0,0,41,71,236,206,5e-08,58.4
Cyphellophora_laciniata_CBS190.61_T,ERR1905339.30948,100.00,31,0,0,41,71,236,206,5e-08,58.4
Cyphellophora_laciniata_CBS190.61_T,ERR1905339.30152,100.00,31,0,0,41,71,236,206,5e-08,58.4
Cyphellophora_laciniata_CBS190.61_T,ERR1905339.29764,100.00,31,0,0,41,71,236,206,5e-08,58.4
Cyphellophora_laciniata_CBS190.61_T,ERR1905339.28373,100.00,31,0,0,41,71,236,206,5e-08,58.4
Cyphellophora_laciniata_CBS190.61_T,ERR1905339.25872,100.00,31,0,0,41,71,236,206,5e-08,58.4
Cyphellophora_laciniata_CBS190.61_T,ERR1905339.23220,100.00,31,0,0,41,71,236,206,5e-08,58.4
Cyphellophora_laciniata_CBS190.61_T,ERR1905339.21572,100.00,31,0,0,41,71,236,206,5e-08,58.4
Cyphellophora_laciniata_CBS190.61_T,ERR1905339.21369,100.00,31,0,0,41,71,236,206,5e-08,58.4
Cyphellophora_laciniata_CBS190.61_T,ERR1905339.18341,100.00,31,0,0,41,71,236,206,5e-08,58.4
Cyphellophora_laciniata_CBS190.61_T,ERR1905339.18139,100.00,31,0,0,41,71,477,447,5e-08,58.4
Cyphellophora_laciniata_CBS190.61_T,ERR1905339.16607,100.00,31,0,0,41,71,476,446,5e-08,58.4
Cyphellophora_laciniata_CBS190.61_T,ERR1905339.7962,100.00,31,0,0,41,71,236,206,5e-08,58.4
Cyphellophora_laciniata_CBS190.61_T,ERR1905339.7614,100.00,31,0,0,41,71,477,447,5e-08,58.4
Cyphellophora_laciniata_CBS190.61_T,ERR1905339.5521,100.00,31,0,0,41,71,236,206,5e-08,58.4
Cyphellophora_laciniata_CBS190.61_T,ERR1905339.3957,100.00,31,0,0,41,71,477,447,5e-08,58.4
Cyphellophora_laciniata_CBS190.61_T,ERR1905339.2498,100.00,31,0,0,41,71,236,206,5e-08,58.4
Cyphellophora_laciniata_CBS190.61_T,ERR1905339.1455,100.00,31,0,0,41,71,236,206,5e-08,58.4
Cyphellophora_laciniata_CBS190.61_T,ERR1905339.27971,100.00,30,0,0,41,70,236,207,2e-07,56.5
Cyphellophora_laciniata_CBS190.61_T,ERR1905339.7519,100.00,30,0,0,40,69,477,448,2e-07,56.5
Cyphellophora_laciniata_CBS190.61_T,ERR1905339.983,100.00,30,0,0,42,71,475,446,2e-07,56.5
Cyphellophora_laciniata_CBS190.61_T,ERR1905339.59239,100.00,28,0,0,41,68,476,449,3e-06,52.8
Cyphellophora_laciniata_CBS190.61_T,ERR1905339.47855,100.00,28,0,0,41,68,236,209,3e-06,52.8
Cyphellophora_laciniata_CBS190.61_T,ERR1905339.31575,100.00,28,0,0,41,68,477,450,3e-06,52.8
Cyphellophora_laciniata_CBS190.61_T,ERR1905339.29825,100.00,28,0,0,44,71,233,206,3e-06,52.8
Cyphellophora_laciniata_CBS190.61_T,ERR1905339.498,100.00,28,0,0,41,68,236,209,3e-06,52.8
