Exophiala_brunnea_CBS,ERR1905342.21104,95.35,43,2,0,1,43,53,11,1e-11,69.4
Exophiala_salmonis_CBS157.67_T,ERR1905342.22834,87.70,122,15,0,1,122,409,288,9e-34,143
Exophiala_salmonis_CBS157.67_T,ERR1905342.21104,81.15,122,23,0,1,122,168,47,2e-20,99.0
Exophiala_tremulae_CBS129355,ERR1905342.21104,95.35,43,2,0,1,43,53,11,1e-11,69.4
Rhinocladiella_atrovirens_CBS264.49,ERR1905342.21104,97.92,48,1,0,1,48,58,11,4e-16,84.2
Veronaea_japonica_CBS776.83_T,ERR1905342.21104,95.24,42,2,0,1,42,52,11,4e-11,67.6
Cladophialophora_chaetospira_CBS127573,ERR1905342.19215,79.25,106,16,5,114,217,373,474,2e-11,69.4
Cladophialophora_chaetospira_CBS127573,ERR1905342.21104,94.29,35,2,0,379,413,45,11,5e-07,54.7
Cyphellophora_laciniata_CBS190.61_T,ERR1905342.21104,96.47,85,3,0,20,104,95,11,3e-33,141
Cyphellophora_laciniata_CBS190.61_T,ERR1905342.22834,86.54,104,14,0,1,104,355,252,2e-25,115
