Exophiala_dermatitidis_CBS748.88,SRR11106679.18183642,97.22,36,1,0,1210,1245,10,45,1e-06,62.1
Cladophialophora_australiensis_CBS112793,SRR11106679.18183642,97.22,36,1,0,1177,1212,10,45,1e-06,62.1
Cladophialophora_potulentorum_CBS112222,SRR11106679.18183642,97.22,36,1,0,1179,1214,10,45,1e-06,62.1
Phialophora_americana_CBS400.67,SRR11106679.18183642,97.22,36,1,0,1171,1206,10,45,1e-06,62.1
