Exophiala_brunnea_CBS,ERR1905352.54014,97.67,43,1,0,1,43,53,11,4e-13,75.0
Exophiala_brunnea_CBS,ERR1905352.3191,97.67,43,1,0,1,43,53,11,4e-13,75.0
Exophiala_brunnea_CBS,ERR1905352.2095,97.67,43,1,0,1,43,53,11,4e-13,75.0
Exophiala_brunnea_CBS,ERR1905352.49103,95.35,43,2,0,1,43,53,11,2e-11,69.4
Exophiala_brunnea_CBS,ERR1905352.32810,95.35,43,2,0,1,43,294,252,2e-11,69.4
Exophiala_brunnea_CBS,ERR1905352.28275,95.35,43,2,0,1,43,53,11,2e-11,69.4
Exophiala_salmonis_CBS157.67_T,ERR1905352.36899,93.44,122,8,0,1,122,237,116,3e-45,182
Exophiala_salmonis_CBS157.67_T,ERR1905352.1793,93.44,122,8,0,1,122,237,116,3e-45,182
Exophiala_salmonis_CBS157.67_T,ERR1905352.54014,90.16,122,12,0,1,122,168,47,1e-38,159
Exophiala_salmonis_CBS157.67_T,ERR1905352.32810,90.16,122,12,0,1,122,409,288,1e-38,159
Exophiala_salmonis_CBS157.67_T,ERR1905352.28275,90.16,122,12,0,1,122,168,47,1e-38,159
Exophiala_salmonis_CBS157.67_T,ERR1905352.3191,90.16,122,12,0,1,122,168,47,1e-38,159
Exophiala_salmonis_CBS157.67_T,ERR1905352.2095,90.16,122,12,0,1,122,168,47,1e-38,159
Exophiala_salmonis_CBS157.67_T,ERR1905352.49103,89.34,122,13,0,1,122,168,47,7e-37,154
Exophiala_salmonis_CBS157.67_T,ERR1905352.11140,97.67,43,1,0,80,122,244,202,5e-13,75.0
Exophiala_salmonis_CBS157.67_T,ERR1905352.30673,97.56,41,1,0,82,122,213,173,7e-12,71.3
Exophiala_salmonis_CBS157.67_T,ERR1905352.53872,97.50,40,1,0,83,122,241,202,3e-11,69.4
Exophiala_salmonis_CBS157.67_T,ERR1905352.51580,97.50,40,1,0,83,122,241,202,3e-11,69.4
Exophiala_salmonis_CBS157.67_T,ERR1905352.46701,97.50,40,1,0,83,122,241,202,3e-11,69.4
Exophiala_salmonis_CBS157.67_T,ERR1905352.42082,97.50,40,1,0,83,122,481,442,3e-11,69.4
Exophiala_salmonis_CBS157.67_T,ERR1905352.29395,97.50,40,1,0,83,122,482,443,3e-11,69.4
Exophiala_salmonis_CBS157.67_T,ERR1905352.22599,97.50,40,1,0,83,122,241,202,3e-11,69.4
Exophiala_salmonis_CBS157.67_T,ERR1905352.20634,97.50,40,1,0,83,122,241,202,3e-11,69.4
Exophiala_salmonis_CBS157.67_T,ERR1905352.4095,97.50,40,1,0,83,122,241,202,3e-11,69.4
Exophiala_salmonis_CBS157.67_T,ERR1905352.3520,97.50,40,1,0,83,122,241,202,3e-11,69.4
Exophiala_salmonis_CBS157.67_T,ERR1905352.1156,97.50,40,1,0,83,122,241,202,3e-11,69.4
Exophiala_salmonis_CBS157.67_T,ERR1905352.29856,97.44,39,1,0,84,122,481,443,9e-11,67.6
Exophiala_salmonis_CBS157.67_T,ERR1905352.21208,94.87,39,2,0,84,122,240,202,4e-09,62.1
Exophiala_tremulae_CBS129355,ERR1905352.54014,97.67,43,1,0,1,43,53,11,4e-13,75.0
Exophiala_tremulae_CBS129355,ERR1905352.3191,97.67,43,1,0,1,43,53,11,4e-13,75.0
Exophiala_tremulae_CBS129355,ERR1905352.2095,97.67,43,1,0,1,43,53,11,4e-13,75.0
Exophiala_tremulae_CBS129355,ERR1905352.49103,95.35,43,2,0,1,43,53,11,2e-11,69.4
Exophiala_tremulae_CBS129355,ERR1905352.32810,95.35,43,2,0,1,43,294,252,2e-11,69.4
Exophiala_tremulae_CBS129355,ERR1905352.28275,95.35,43,2,0,1,43,53,11,2e-11,69.4
Rhinocladiella_atrovirens_CBS264.49,ERR1905352.54014,100.00,48,0,0,1,48,58,11,2e-17,89.8
Rhinocladiella_atrovirens_CBS264.49,ERR1905352.3191,100.00,48,0,0,1,48,58,11,2e-17,89.8
Rhinocladiella_atrovirens_CBS264.49,ERR1905352.2095,100.00,48,0,0,1,48,58,11,2e-17,89.8
Rhinocladiella_atrovirens_CBS264.49,ERR1905352.49103,97.92,48,1,0,1,48,58,11,7e-16,84.2
Rhinocladiella_atrovirens_CBS264.49,ERR1905352.32810,97.92,48,1,0,1,48,299,252,7e-16,84.2
Rhinocladiella_atrovirens_CBS264.49,ERR1905352.28275,97.92,48,1,0,1,48,58,11,7e-16,84.2
Rhinocladiella_atrovirens_CBS264.49,ERR1905352.36899,100.00,30,0,0,19,48,40,11,2e-07,56.5
Rhinocladiella_atrovirens_CBS264.49,ERR1905352.1793,100.00,30,0,0,19,48,40,11,2e-07,56.5
Rhinocladiella_fasciculata_CBS132.86_T,ERR1905352.54014,100.00,31,0,0,1,31,41,11,4e-08,58.4
Rhinocladiella_fasciculata_CBS132.86_T,ERR1905352.49103,100.00,31,0,0,1,31,41,11,4e-08,58.4
Rhinocladiella_fasciculata_CBS132.86_T,ERR1905352.3191,100.00,31,0,0,1,31,41,11,4e-08,58.4
Rhinocladiella_fasciculata_CBS132.86_T,ERR1905352.2095,100.00,31,0,0,1,31,41,11,4e-08,58.4
Rhinocladiella_fasciculata_CBS132.86_T,ERR1905352.36899,100.00,30,0,0,2,31,40,11,1e-07,56.5
Rhinocladiella_fasciculata_CBS132.86_T,ERR1905352.1793,100.00,30,0,0,2,31,40,11,1e-07,56.5
Capronia_kleinmondensis_CBS122671_T,ERR1905352.54014,100.00,34,0,0,1,34,44,11,1e-09,63.9
Capronia_kleinmondensis_CBS122671_T,ERR1905352.3191,100.00,34,0,0,1,34,44,11,1e-09,63.9
Capronia_kleinmondensis_CBS122671_T,ERR1905352.2095,100.00,34,0,0,1,34,44,11,1e-09,63.9
Capronia_kleinmondensis_CBS122671_T,ERR1905352.49103,100.00,33,0,0,2,34,43,11,4e-09,62.1
Capronia_kleinmondensis_CBS122671_T,ERR1905352.36899,100.00,30,0,0,5,34,40,11,2e-07,56.5
Capronia_kleinmondensis_CBS122671_T,ERR1905352.1793,100.00,30,0,0,5,34,40,11,2e-07,56.5
Veronaea_japonica_CBS776.83_T,ERR1905352.54014,97.62,42,1,0,1,42,52,11,2e-12,73.1
Veronaea_japonica_CBS776.83_T,ERR1905352.3191,97.62,42,1,0,1,42,52,11,2e-12,73.1
Veronaea_japonica_CBS776.83_T,ERR1905352.2095,97.62,42,1,0,1,42,52,11,2e-12,73.1
Veronaea_japonica_CBS776.83_T,ERR1905352.49103,95.24,42,2,0,1,42,52,11,7e-11,67.6
Veronaea_japonica_CBS776.83_T,ERR1905352.32810,95.24,42,2,0,1,42,293,252,7e-11,67.6
Veronaea_japonica_CBS776.83_T,ERR1905352.28275,95.24,42,2,0,1,42,52,11,7e-11,67.6
Fonsecaea_pedrosoi_CBS271.37_T,ERR1905352.54014,100.00,30,0,0,1,30,44,15,2e-07,56.5
Fonsecaea_pedrosoi_CBS271.37_T,ERR1905352.3191,100.00,30,0,0,1,30,44,15,2e-07,56.5
Fonsecaea_pedrosoi_CBS271.37_T,ERR1905352.2095,100.00,30,0,0,1,30,44,15,2e-07,56.5
Fonsecaea_pedrosoi_CBS271.37_T,ERR1905352.49103,100.00,29,0,0,2,30,43,15,6e-07,54.7
Cladophialophora_chaetospira_CBS127573,ERR1905352.54014,97.14,35,1,0,379,413,45,11,2e-08,60.2
Cladophialophora_chaetospira_CBS127573,ERR1905352.3191,97.14,35,1,0,379,413,45,11,2e-08,60.2
Cladophialophora_chaetospira_CBS127573,ERR1905352.2095,97.14,35,1,0,379,413,45,11,2e-08,60.2
Cladophialophora_chaetospira_CBS127573,ERR1905352.49103,94.59,37,1,1,378,413,47,11,2e-07,56.5
Cladophialophora_chaetospira_CBS127573,ERR1905352.32810,94.29,35,2,0,379,413,286,252,8e-07,54.7
Cladophialophora_chaetospira_CBS127573,ERR1905352.28275,94.29,35,2,0,379,413,45,11,8e-07,54.7
Cyphellophora_laciniata_CBS190.61_T,ERR1905352.54014,94.23,104,6,0,1,104,114,11,1e-38,159
Cyphellophora_laciniata_CBS190.61_T,ERR1905352.3191,94.23,104,6,0,1,104,114,11,1e-38,159
Cyphellophora_laciniata_CBS190.61_T,ERR1905352.2095,94.23,104,6,0,1,104,114,11,1e-38,159
Cyphellophora_laciniata_CBS190.61_T,ERR1905352.32810,93.27,104,7,0,1,104,355,252,6e-37,154
Cyphellophora_laciniata_CBS190.61_T,ERR1905352.28275,93.27,104,7,0,1,104,114,11,6e-37,154
Cyphellophora_laciniata_CBS190.61_T,ERR1905352.49103,92.31,104,8,0,1,104,114,11,3e-35,148
Cyphellophora_laciniata_CBS190.61_T,ERR1905352.36899,93.67,79,5,0,1,79,183,105,2e-26,119
Cyphellophora_laciniata_CBS190.61_T,ERR1905352.36899,100.00,30,0,0,75,104,40,11,2e-07,56.5
Cyphellophora_laciniata_CBS190.61_T,ERR1905352.1793,93.67,79,5,0,1,79,183,105,2e-26,119
Cyphellophora_laciniata_CBS190.61_T,ERR1905352.1793,100.00,30,0,0,75,104,40,11,2e-07,56.5
Cyphellophora_laciniata_CBS190.61_T,ERR1905352.11140,97.83,46,1,0,26,71,244,199,1e-14,80.5
Cyphellophora_laciniata_CBS190.61_T,ERR1905352.30673,97.73,44,1,0,28,71,213,170,1e-13,76.8
Cyphellophora_laciniata_CBS190.61_T,ERR1905352.53872,97.67,43,1,0,29,71,241,199,5e-13,75.0
Cyphellophora_laciniata_CBS190.61_T,ERR1905352.51580,97.67,43,1,0,29,71,241,199,5e-13,75.0
Cyphellophora_laciniata_CBS190.61_T,ERR1905352.46701,97.67,43,1,0,29,71,241,199,5e-13,75.0
Cyphellophora_laciniata_CBS190.61_T,ERR1905352.42082,97.67,43,1,0,29,71,481,439,5e-13,75.0
Cyphellophora_laciniata_CBS190.61_T,ERR1905352.29395,97.67,43,1,0,29,71,482,440,5e-13,75.0
Cyphellophora_laciniata_CBS190.61_T,ERR1905352.22599,97.67,43,1,0,29,71,241,199,5e-13,75.0
Cyphellophora_laciniata_CBS190.61_T,ERR1905352.20634,97.67,43,1,0,29,71,241,199,5e-13,75.0
Cyphellophora_laciniata_CBS190.61_T,ERR1905352.4095,97.67,43,1,0,29,71,241,199,5e-13,75.0
Cyphellophora_laciniata_CBS190.61_T,ERR1905352.3520,97.67,43,1,0,29,71,241,199,5e-13,75.0
Cyphellophora_laciniata_CBS190.61_T,ERR1905352.1156,97.67,43,1,0,29,71,241,199,5e-13,75.0
Cyphellophora_laciniata_CBS190.61_T,ERR1905352.29856,97.56,41,1,0,30,70,481,441,7e-12,71.3
Cyphellophora_laciniata_CBS190.61_T,ERR1905352.36262,95.35,43,2,0,29,71,241,199,2e-11,69.4
Cyphellophora_laciniata_CBS190.61_T,ERR1905352.31755,95.35,43,2,0,29,71,241,199,2e-11,69.4
Cyphellophora_laciniata_CBS190.61_T,ERR1905352.21208,95.24,42,2,0,30,71,240,199,9e-11,67.6
